{
    "goal": {
        "global_pose": {
            "orientation": {
                "w": 0.5084816262002911,
                "x": -0.4908360881923452,
                "y": 0.5182115481033761,
                "z": -0.48164630358495003
            },
            "position": {
                "x": 0.5540239810943604,
                "y": -0.46912469901144505,
                "z": 0.16403168439865112
            }
        },
        "name": "move_to_storage_B"
    },
    "id": "KPIECE_move_to_storage_B_117",
    "joint_names": [
        "shoulder_pan_joint",
        "shoulder_lift_joint",
        "elbow_joint",
        "wrist_1_joint",
        "wrist_2_joint",
        "wrist_3_joint"
    ],
    "metrics": {
        "cart_traj_len": 1.2483791223431702,
        "distance_elbow_joint": 0.4703445257275167,
        "distance_shoulder_lift_joint": 0.45967909670372875,
        "distance_shoulder_pan_joint": 0.9599967548612081,
        "distance_wrist_1_joint": 2.9825537256282653,
        "distance_wrist_2_joint": 2.711052417537359,
        "distance_wrist_3_joint": 3.1496254604008698,
        "smoothness": 0.10431363815890139,
        "time": 0.059739312,
        "traj_len": 3.276164217626911,
        "weighted_distance": 4.767190896621018
    },
    "planner": "KPIECE",
    "start": {
        "state": {
            "elbow_joint": 1.6649325340416963,
            "shoulder_lift_joint": -0.6616387945129425,
            "shoulder_pan_joint": -0.9139837929255878,
            "wrist_1_joint": 2.1467571094334352,
            "wrist_2_joint": -2.234195976750228,
            "wrist_3_joint": 0.005470921511140723
        }
    },
    "waypoints": [
        {
            "positions": [
                -0.9139837929255878,
                -0.6616387945129425,
                1.6649325340416963,
                2.1467571094334352,
                -2.234195976750228,
                0.005470921511140723
            ]
        },
        {
            "positions": [
                -0.8582880322168086,
                -0.723699662736636,
                1.656389106915355,
                2.0641944139085324,
                -2.122317898078282,
                -0.05782404761230236
            ]
        },
        {
            "positions": [
                -0.8025922715080294,
                -0.7857605309603295,
                1.6478456797890135,
                1.9816317183836294,
                -2.0104398194063364,
                -0.12111901673574545
            ]
        },
        {
            "positions": [
                -0.74689651079925,
                -0.847821399184023,
                1.6393022526626722,
                1.8990690228587264,
                -1.8985617407343909,
                -0.18441398585918853
            ]
        },
        {
            "positions": [
                -0.6912007500904708,
                -0.9098822674077165,
                1.630758825536331,
                1.8165063273338236,
                -1.786683662062445,
                -0.2477089549826316
            ]
        },
        {
            "positions": [
                -0.6355049893816915,
                -0.9719431356314101,
                1.6222153984099896,
                1.7339436318089205,
                -1.6748055833904996,
                -0.31100392410607475
            ]
        },
        {
            "positions": [
                -0.5798092286729122,
                -1.0340040038551035,
                1.6136719712836483,
                1.6513809362840177,
                -1.5629275047185538,
                -0.3742988932295178
            ]
        },
        {
            "positions": [
                -0.5241134679641329,
                -1.096064872078797,
                1.6051285441573069,
                1.5688182407591147,
                -1.451049426046608,
                -0.43759386235296094
            ]
        },
        {
            "positions": [
                -0.5512623455784069,
                -1.0972673967996482,
                1.6246780934831702,
                1.4543127713803554,
                -1.359244384768811,
                -0.5664777040928071
            ]
        },
        {
            "positions": [
                -0.5784112231926809,
                -1.0984699215204994,
                1.6442276428090332,
                1.3398073020015961,
                -1.2674393434910138,
                -0.6953615458326531
            ]
        },
        {
            "positions": [
                -0.6055601008069548,
                -1.0996724462413505,
                1.6637771921348965,
                1.2253018326228369,
                -1.1756343022132167,
                -0.8242453875724991
            ]
        },
        {
            "positions": [
                -0.6327089784212288,
                -1.1008749709622017,
                1.6833267414607598,
                1.1107963632440776,
                -1.0838292609354196,
                -0.9531292293123452
            ]
        },
        {
            "positions": [
                -0.6598578560355027,
                -1.1020774956830528,
                1.7028762907866228,
                0.9962908938653182,
                -0.9920242196576226,
                -1.0820130710521911
            ]
        },
        {
            "positions": [
                -0.6870067336497767,
                -1.103280020403904,
                1.7224258401124861,
                0.8817854244865589,
                -0.9002191783798255,
                -1.2108969127920375
            ]
        },
        {
            "positions": [
                -0.7141556112640506,
                -1.104482545124755,
                1.7419753894383494,
                0.7672799551077997,
                -0.8084141371020284,
                -1.3397807545318834
            ]
        },
        {
            "positions": [
                -0.7413044888783246,
                -1.1056850698456062,
                1.7615249387642125,
                0.6527744857290404,
                -0.7166090958242313,
                -1.4686645962717295
            ]
        },
        {
            "positions": [
                -0.7684533664925985,
                -1.1068875945664574,
                1.7810744880900757,
                0.538269016350281,
                -0.6248040545464342,
                -1.5975484380115756
            ]
        },
        {
            "positions": [
                -0.7956022441068725,
                -1.1080901192873085,
                1.800624037415939,
                0.42376354697152174,
                -0.5329990132686371,
                -1.7264322797514216
            ]
        },
        {
            "positions": [
                -0.8227511217211465,
                -1.1092926440081599,
                1.820173586741802,
                0.30925807759276247,
                -0.44119397199084,
                -1.855316121491268
            ]
        },
        {
            "positions": [
                -0.8498999993354204,
                -1.110495168729011,
                1.8397231360676654,
                0.1947526082140032,
                -0.3493889307130429,
                -1.9841999632311138
            ]
        },
        {
            "positions": [
                -0.8770488769496945,
                -1.1116976934498621,
                1.8592726853935286,
                0.08024713883524393,
                -0.2575838894352458,
                -2.1130838049709597
            ]
        },
        {
            "positions": [
                -0.9041977545639683,
                -1.1129002181707133,
                1.8788222347193917,
                -0.03425833054351535,
                -0.1657788481574487,
                -2.2419676467108056
            ]
        },
        {
            "positions": [
                -0.9313466321782423,
                -1.1141027428915644,
                1.898371784045255,
                -0.14876379992227484,
                -0.0739738068796516,
                -2.3708514884506524
            ]
        },
        {
            "positions": [
                -0.9584955097925163,
                -1.1153052676124156,
                1.917921333371118,
                -0.2632692693010339,
                0.01783123439814549,
                -2.4997353301904983
            ]
        },
        {
            "positions": [
                -0.9856443874067903,
                -1.1165077923332667,
                1.9374708826969813,
                -0.3777747386797934,
                0.10963627567594258,
                -2.6286191719303442
            ]
        },
        {
            "positions": [
                -1.0127932650210643,
                -1.1177103170541178,
                1.9570204320228446,
                -0.49228020805855266,
                0.20144131695373968,
                -2.75750301367019
            ]
        },
        {
            "positions": [
                -1.0399421426353381,
                -1.118912841774969,
                1.9765699813487079,
                -0.6067856774373119,
                0.2932463582315368,
                -2.886386855410036
            ]
        },
        {
            "positions": [
                -1.0670910202496122,
                -1.12011536649582,
                1.996119530674571,
                -0.7212911468160712,
                0.38505139950933387,
                -3.015270697149882
            ]
        },
        {
            "positions": [
                -1.094239897863886,
                -1.1213178912166712,
                2.015669080000434,
                -0.8357966161948304,
                0.4768564407871311,
                -3.1441545388897287
            ]
        }
    ]
}