{
    "goal": {
        "global_pose": {
            "orientation": {
                "w": -0.00223480608172531,
                "x": 0.0024358444001904467,
                "y": 0.7094548369677653,
                "z": -0.704743149386269
            },
            "position": {
                "x": 0.6205249238014221,
                "y": -0.6371506643295288,
                "z": 0.19426114857196808
            }
        },
        "name": "move_to_magneteinheit_B"
    },
    "id": "KPIECE_move_to_magneteinheit_B_73",
    "joint_names": [
        "shoulder_pan_joint",
        "shoulder_lift_joint",
        "elbow_joint",
        "wrist_1_joint",
        "wrist_2_joint",
        "wrist_3_joint"
    ],
    "metrics": {
        "cart_traj_len": 1.4533536695358409,
        "distance_elbow_joint": 0.7310791369816156,
        "distance_shoulder_lift_joint": 1.2493426066251314,
        "distance_shoulder_pan_joint": 1.6196926798674234,
        "distance_wrist_1_joint": 2.609158506330804,
        "distance_wrist_2_joint": 2.949136786185374,
        "distance_wrist_3_joint": 3.1517269657021734,
        "smoothness": 4.575464584606345e-16,
        "time": 0.013892438,
        "traj_len": 3.508580436828052,
        "weighted_distance": 4.916491218909381
    },
    "planner": "KPIECE",
    "start": {
        "state": {
            "elbow_joint": 2.393587130804639,
            "shoulder_lift_joint": -1.9085141043513325,
            "shoulder_pan_joint": 0.7066247066698809,
            "wrist_1_joint": -0.4678290934590222,
            "wrist_2_joint": 0.7096259084215963,
            "wrist_3_joint": 3.147370379541726
        }
    },
    "waypoints": [
        {
            "positions": [
                0.7066247066698809,
                -1.9085141043513325,
                2.393587130804639,
                -0.4678290934590222,
                0.7096259084215963,
                3.147370379541726
            ]
        },
        {
            "positions": [
                0.6560093104240239,
                -1.869472147894297,
                2.370740907773963,
                -0.38629289013618456,
                0.6174653838533034,
                3.0488789118635333
            ]
        },
        {
            "positions": [
                0.6053939141781669,
                -1.8304301914372618,
                2.347894684743288,
                -0.3047566868133469,
                0.5253048592850105,
                2.95038744418534
            ]
        },
        {
            "positions": [
                0.5547785179323099,
                -1.7913882349802264,
                2.3250484617126124,
                -0.22322048349050927,
                0.43314433471671754,
                2.8518959765071474
            ]
        },
        {
            "positions": [
                0.5041631216864529,
                -1.7523462785231911,
                2.3022022386819367,
                -0.14168428016767165,
                0.3409838101484246,
                2.7534045088289543
            ]
        },
        {
            "positions": [
                0.45354772544059596,
                -1.7133043220661557,
                2.2793560156512616,
                -0.06014807684483403,
                0.24882328558013167,
                2.6549130411507615
            ]
        },
        {
            "positions": [
                0.402932329194739,
                -1.6742623656091205,
                2.256509792620586,
                0.021388126478003644,
                0.15666276101183874,
                2.5564215734725684
            ]
        },
        {
            "positions": [
                0.352316932948882,
                -1.635220409152085,
                2.2336635695899103,
                0.10292432980084126,
                0.0645022364435458,
                2.4579301057943757
            ]
        },
        {
            "positions": [
                0.301701536703025,
                -1.5961784526950495,
                2.210817346559235,
                0.18446053312367888,
                -0.027658288124747132,
                2.359438638116183
            ]
        },
        {
            "positions": [
                0.25108614045716804,
                -1.5571364962380143,
                2.1879711235285595,
                0.2659967364465165,
                -0.11981881269304007,
                2.2609471704379898
            ]
        },
        {
            "positions": [
                0.20047074421131106,
                -1.518094539780979,
                2.165124900497884,
                0.3475329397693541,
                -0.211979337261333,
                2.1624557027597966
            ]
        },
        {
            "positions": [
                0.14985534796545408,
                -1.4790525833239436,
                2.1422786774672087,
                0.42906914309219174,
                -0.3041398618296258,
                2.063964235081604
            ]
        },
        {
            "positions": [
                0.0992399517195971,
                -1.4400106268669082,
                2.119432454436533,
                0.5106053464150295,
                -0.39630038639791887,
                1.9654727674034111
            ]
        },
        {
            "positions": [
                0.048624555473740116,
                -1.4009686704098727,
                2.0965862314058574,
                0.592141549737867,
                -0.4884609109662119,
                1.8669812997252182
            ]
        },
        {
            "positions": [
                -0.001990840772116864,
                -1.3619267139528375,
                2.073740008375182,
                0.6736777530607048,
                -0.5806214355345047,
                1.7684898320470253
            ]
        },
        {
            "positions": [
                -0.052606237017973845,
                -1.3228847574958023,
                2.0508937853445066,
                0.7552139563835423,
                -0.6727819601027976,
                1.6699983643688323
            ]
        },
        {
            "positions": [
                -0.10322163326383083,
                -1.2838428010387668,
                2.028047562313831,
                0.83675015970638,
                -0.7649424846710906,
                1.5715068966906394
            ]
        },
        {
            "positions": [
                -0.1538370295096878,
                -1.2448008445817313,
                2.0052013392831554,
                0.9182863630292177,
                -0.8571030092393837,
                1.4730154290124464
            ]
        },
        {
            "positions": [
                -0.2044524257555448,
                -1.2057588881246961,
                1.98235511625248,
                0.9998225663520552,
                -0.9492635338076765,
                1.3745239613342535
            ]
        },
        {
            "positions": [
                -0.25506782200140177,
                -1.1667169316676609,
                1.9595088932218045,
                1.081358769674893,
                -1.0414240583759693,
                1.2760324936560605
            ]
        },
        {
            "positions": [
                -0.30568321824725875,
                -1.1276749752106254,
                1.936662670191129,
                1.1628949729977305,
                -1.1335845829442623,
                1.1775410259778676
            ]
        },
        {
            "positions": [
                -0.35629861449311584,
                -1.08863301875359,
                1.9138164471604535,
                1.2444311763205682,
                -1.2257451075125554,
                1.0790495582996749
            ]
        },
        {
            "positions": [
                -0.4069140107389727,
                -1.0495910622965545,
                1.890970224129778,
                1.3259673796434057,
                -1.317905632080848,
                0.9805580906214817
            ]
        },
        {
            "positions": [
                -0.4575294069848296,
                -1.0105491058395193,
                1.8681240010991025,
                1.4075035829662434,
                -1.410066156649141,
                0.882066622943289
            ]
        },
        {
            "positions": [
                -0.5081448032306867,
                -0.971507149382484,
                1.845277778068427,
                1.4890397862890812,
                -1.502226681217434,
                0.7835751552650962
            ]
        },
        {
            "positions": [
                -0.5587601994765438,
                -0.9324651929254486,
                1.8224315550377517,
                1.5705759896119187,
                -1.5943872057857271,
                0.6850836875869031
            ]
        },
        {
            "positions": [
                -0.6093755957224006,
                -0.8934232364684132,
                1.799585332007076,
                1.6521121929347562,
                -1.6865477303540202,
                0.5865922199087104
            ]
        },
        {
            "positions": [
                -0.6599909919682575,
                -0.8543812800113779,
                1.7767391089764006,
                1.7336483962575941,
                -1.7787082549223128,
                0.4881007522305172
            ]
        },
        {
            "positions": [
                -0.7106063882141146,
                -0.8153393235543425,
                1.7538928859457252,
                1.8151845995804317,
                -1.8708687794906058,
                0.38960928455232446
            ]
        },
        {
            "positions": [
                -0.7612217844599717,
                -0.7762973670973072,
                1.7310466629150496,
                1.8967208029032692,
                -1.9630293040588989,
                0.2911178168741313
            ]
        },
        {
            "positions": [
                -0.8118371807058286,
                -0.7372554106402718,
                1.7082004398843742,
                1.9782570062261067,
                -2.0551898286271912,
                0.19262634919593857
            ]
        },
        {
            "positions": [
                -0.8624525769516854,
                -0.6982134541832365,
                1.6853542168536988,
                2.0597932095489444,
                -2.1473503531954847,
                0.0941348815177454
            ]
        },
        {
            "positions": [
                -0.9130679731975424,
                -0.6591714977262012,
                1.6625079938230232,
                2.141329412871782,
                -2.2395108777637773,
                -0.004356586160447287
            ]
        }
    ]
}