{
    "goal": {
        "global_pose": {
            "orientation": {
                "w": -0.4816463035849501,
                "x": 0.5182115481033762,
                "y": 0.4908360881923453,
                "z": -0.5084816262002911
            },
            "position": {
                "x": -0.8240239810943604,
                "y": 0.19912469901144506,
                "z": 0.16403168439865112
            }
        },
        "name": "move_to_storage_D"
    },
    "id": "KPIECE_move_to_storage_D_127",
    "joint_names": [
        "shoulder_pan_joint",
        "shoulder_lift_joint",
        "elbow_joint",
        "wrist_1_joint",
        "wrist_2_joint",
        "wrist_3_joint"
    ],
    "metrics": {
        "cart_traj_len": 3.670318877387868,
        "distance_elbow_joint": 4.208351677267993,
        "distance_shoulder_lift_joint": 1.3649217127277526,
        "distance_shoulder_pan_joint": 2.8139645589484368,
        "distance_wrist_1_joint": 2.2610542510548646,
        "distance_wrist_2_joint": 0.881115188850349,
        "distance_wrist_3_joint": 3.1349653680182428,
        "smoothness": 0.008843873510775513,
        "time": 0.10689027200000001,
        "traj_len": 3.829408930483611,
        "weighted_distance": 4.906778264076067
    },
    "planner": "KPIECE",
    "start": {
        "state": {
            "elbow_joint": -2.384821990628643,
            "shoulder_lift_joint": -2.278805467437664,
            "shoulder_pan_joint": -0.18546946439364564,
            "wrist_1_joint": 1.4845938187801415,
            "wrist_2_joint": 0.178987772454074,
            "wrist_3_joint": 0.03710569632802521
        }
    },
    "waypoints": [
        {
            "positions": [
                -0.18546946439364564,
                -2.278805467437664,
                -2.384821990628643,
                1.4845938187801415,
                0.178987772454074,
                0.03710569632802521
            ]
        },
        {
            "positions": [
                -0.08870214459610752,
                -2.228236568212774,
                -2.2570631618344823,
                1.4248198699579409,
                0.1873306975673468,
                0.07552700347580905
            ]
        },
        {
            "positions": [
                0.008065175201430602,
                -2.177667668987884,
                -2.1293043330403214,
                1.3650459211357404,
                0.19567362268061964,
                0.1139483106235929
            ]
        },
        {
            "positions": [
                0.10483249499896874,
                -2.1270987697629944,
                -2.0015455042461605,
                1.3052719723135398,
                0.20401654779389244,
                0.15236961777137675
            ]
        },
        {
            "positions": [
                0.20159981479650685,
                -2.0765298705381046,
                -1.8737866754519996,
                1.245498023491339,
                0.21235947290716525,
                0.19079092491916058
            ]
        },
        {
            "positions": [
                0.298367134594045,
                -2.0259609713132147,
                -1.7460278466578387,
                1.1857240746691384,
                0.22070239802043806,
                0.22921223206694444
            ]
        },
        {
            "positions": [
                0.3951344543915831,
                -1.975392072088325,
                -1.6182690178636778,
                1.1259501258469378,
                0.2290453231337109,
                0.2676335392147283
            ]
        },
        {
            "positions": [
                0.4919017741891212,
                -1.924823172863435,
                -1.4905101890695174,
                1.0661761770247373,
                0.2373882482469837,
                0.3060548463625121
            ]
        },
        {
            "positions": [
                0.5886690939866593,
                -1.8742542736385452,
                -1.3627513602753563,
                1.0064022282025367,
                0.24573117336025652,
                0.3444761535102959
            ]
        },
        {
            "positions": [
                0.6854364137841974,
                -1.8236853744136554,
                -1.2349925314811956,
                0.9466282793803361,
                0.25407409847352935,
                0.38289746065807984
            ]
        },
        {
            "positions": [
                0.7822037335817357,
                -1.7731164751887656,
                -1.1072337026870345,
                0.8868543305581355,
                0.2624170235868022,
                0.42131876780586364
            ]
        },
        {
            "positions": [
                0.8789710533792736,
                -1.7225475759638758,
                -0.9794748738928738,
                0.8270803817359349,
                0.27075994870007497,
                0.45974007495364744
            ]
        },
        {
            "positions": [
                0.9757383731768119,
                -1.671978676738986,
                -0.8517160450987127,
                0.7673064329137342,
                0.2791028738133478,
                0.49816138210143135
            ]
        },
        {
            "positions": [
                1.07250569297435,
                -1.621409777514096,
                -0.723957216304552,
                0.7075324840915337,
                0.2874457989266206,
                0.5365826892492152
            ]
        },
        {
            "positions": [
                1.169273012771888,
                -1.5708408782892063,
                -0.5961983875103913,
                0.6477585352693331,
                0.2957887240398934,
                0.575003996396999
            ]
        },
        {
            "positions": [
                1.266040332569426,
                -1.5202719790643167,
                -0.46843955871623044,
                0.5879845864471326,
                0.30413164915316626,
                0.6134253035447828
            ]
        },
        {
            "positions": [
                1.3628076523669643,
                -1.4697030798394266,
                -0.3406807299220693,
                0.5282106376249318,
                0.3124745742664391,
                0.6518466106925667
            ]
        },
        {
            "positions": [
                1.4595749721645024,
                -1.4191341806145368,
                -0.21292190112790843,
                0.46843668880273137,
                0.3208174993797119,
                0.6902679178403506
            ]
        },
        {
            "positions": [
                1.5563422919620404,
                -1.3685652813896472,
                -0.08516307233374798,
                0.4086627399805307,
                0.32916042449298466,
                0.7286892249881344
            ]
        },
        {
            "positions": [
                1.6531096117595785,
                -1.3179963821647573,
                0.042595756460412915,
                0.34888879115833005,
                0.3375033496062575,
                0.7671105321359182
            ]
        },
        {
            "positions": [
                1.749876931557117,
                -1.2674274829398675,
                0.17035458525457425,
                0.2891148423361294,
                0.34584627471953033,
                0.8055318392837021
            ]
        },
        {
            "positions": [
                1.8466442513546548,
                -1.2168585837149777,
                0.29811341404873515,
                0.22934089351392895,
                0.35418919983280317,
                0.8439531464314859
            ]
        },
        {
            "positions": [
                1.9434115711521929,
                -1.1662896844900879,
                0.4258722428428956,
                0.16956694469172828,
                0.362532124946076,
                0.8823744535792697
            ]
        },
        {
            "positions": [
                2.040178890949731,
                -1.115720785265198,
                0.5536310716370565,
                0.10979299586952762,
                0.3708750500593488,
                0.9207957607270536
            ]
        },
        {
            "positions": [
                2.1369462107472694,
                -1.0651518860403082,
                0.6813899004312178,
                0.05001904704732696,
                0.3792179751726216,
                0.9592170678748375
            ]
        },
        {
            "positions": [
                2.2337135305448075,
                -1.0145829868154184,
                0.8091487292253783,
                -0.009754901774873481,
                0.3875609002858944,
                0.9976383750226213
            ]
        },
        {
            "positions": [
                2.3304808503423455,
                -0.9640140875905285,
                0.9369075580195392,
                -0.06952885059707412,
                0.39590382539916724,
                1.0360596821704051
            ]
        },
        {
            "positions": [
                2.3553153706933827,
                -0.96819161533058,
                1.0107927354045234,
                -0.1284398157368782,
                0.4512537533912719,
                1.2140606306850603
            ]
        },
        {
            "positions": [
                2.38014989104442,
                -0.9723691430706314,
                1.0846779127895076,
                -0.1873507808766823,
                0.5066036813833765,
                1.3920615791997155
            ]
        },
        {
            "positions": [
                2.404984411395457,
                -0.9765466708106827,
                1.1585630901744919,
                -0.2462617460164864,
                0.5619536093754812,
                1.5700625277143707
            ]
        },
        {
            "positions": [
                2.429818931746494,
                -0.9807241985507341,
                1.2324482675594761,
                -0.3051727111562905,
                0.6173035373675858,
                1.748063476229026
            ]
        },
        {
            "positions": [
                2.4546534520975314,
                -0.9849017262907855,
                1.3063334449444604,
                -0.3640836762960946,
                0.6726534653596905,
                1.9260644247436811
            ]
        },
        {
            "positions": [
                2.4794879724485686,
                -0.989079254030837,
                1.3802186223294446,
                -0.4229946414358987,
                0.7280033933517951,
                2.1040653732583365
            ]
        },
        {
            "positions": [
                2.5043224927996053,
                -0.9932567817708884,
                1.4541037997144288,
                -0.4819056065757028,
                0.7833533213438999,
                2.2820663217729917
            ]
        },
        {
            "positions": [
                2.5291570131506425,
                -0.9974343095109398,
                1.527988977099413,
                -0.5408165717155069,
                0.8387032493360045,
                2.460067270287647
            ]
        },
        {
            "positions": [
                2.5539915335016796,
                -1.0016118372509912,
                1.6018741544843973,
                -0.599727536855311,
                0.8940531773281091,
                2.638068218802302
            ]
        },
        {
            "positions": [
                2.578826053852717,
                -1.0057893649910425,
                1.6757593318693815,
                -0.6586385019951151,
                0.9494031053202138,
                2.8160691673169573
            ]
        },
        {
            "positions": [
                2.603660574203754,
                -1.009966892731094,
                1.7496445092543658,
                -0.7175494671349192,
                1.0047530333123182,
                2.9940701158316125
            ]
        },
        {
            "positions": [
                2.628495094554791,
                -1.0141444204711454,
                1.82352968663935,
                -0.7764604322747233,
                1.060102961304423,
                3.1720710643462677
            ]
        }
    ]
}