{
    "goal": {
        "global_pose": {
            "orientation": {
                "w": -0.4816463035849501,
                "x": 0.5182115481033762,
                "y": 0.4908360881923453,
                "z": -0.5084816262002911
            },
            "position": {
                "x": -0.8240239810943604,
                "y": -0.300875300988555,
                "z": 0.16403168439865112
            }
        },
        "name": "move_to_storage_C"
    },
    "id": "KPIECE_move_to_storage_C_93",
    "joint_names": [
        "shoulder_pan_joint",
        "shoulder_lift_joint",
        "elbow_joint",
        "wrist_1_joint",
        "wrist_2_joint",
        "wrist_3_joint"
    ],
    "metrics": {
        "cart_traj_len": 0.5771434910560078,
        "distance_elbow_joint": 0.2570742816135039,
        "distance_shoulder_lift_joint": 0.18890712525187736,
        "distance_shoulder_pan_joint": 0.4961055992530796,
        "distance_wrist_1_joint": 0.07113675224202487,
        "distance_wrist_2_joint": 1.0585190202661945,
        "distance_wrist_3_joint": 0.05914536549615956,
        "smoothness": 0.0,
        "time": 0.010529516,
        "traj_len": 1.4597561933839638,
        "weighted_distance": 1.8381606696976678
    },
    "planner": "KPIECE",
    "start": {
        "state": {
            "elbow_joint": 2.0108683149792914,
            "shoulder_lift_joint": -1.1634956873317392,
            "shoulder_pan_joint": -2.4736205022346,
            "wrist_1_joint": -0.8367026793690192,
            "wrist_2_joint": 0.6746043897045053,
            "wrist_3_joint": 3.133522094754363
        }
    },
    "waypoints": [
        {
            "positions": [
                -2.4736205022346,
                -1.1634956873317392,
                2.0108683149792914,
                -0.8367026793690192,
                0.6746043897045053,
                3.133522094754363
            ]
        },
        {
            "positions": [
                -2.55630476877678,
                -1.1320111664564263,
                1.9680226013770408,
                -0.8248465539953485,
                0.8510242264155377,
                3.14337965567039
            ]
        },
        {
            "positions": [
                -2.63898903531896,
                -1.1005266455811133,
                1.9251768877747901,
                -0.8129904286216776,
                1.0274440631265702,
                3.153237216586416
            ]
        },
        {
            "positions": [
                -2.7216733018611396,
                -1.0690421247058006,
                1.8823311741725395,
                -0.8011343032480067,
                1.2038638998376026,
                3.163094777502443
            ]
        },
        {
            "positions": [
                -2.80435756840332,
                -1.0375576038304877,
                1.8394854605702888,
                -0.789278177874336,
                1.380283736548635,
                3.1729523384184697
            ]
        },
        {
            "positions": [
                -2.8870418349455,
                -1.0060730829551747,
                1.7966397469680382,
                -0.7774220525006652,
                1.5567035732596675,
                3.182809899334496
            ]
        },
        {
            "positions": [
                -2.9697261014876797,
                -0.9745885620798619,
                1.7537940333657875,
                -0.7655659271269943,
                1.7331234099706998,
                3.1926674602505227
            ]
        }
    ]
}