{
    "goal": {
        "global_pose": {
            "orientation": {
                "w": 0.005598929693374612,
                "x": 0.007748599140229565,
                "y": 0.7110244013736278,
                "z": -0.7031023480610252
            },
            "position": {
                "x": 0.1141497679147869,
                "y": -0.7141253447532654,
                "z": 0.3711530566215515
            }
        },
        "name": "move_to_auspresseinheit_B"
    },
    "id": "KPIECE_move_to_auspresseinheit_B_46",
    "joint_names": [
        "shoulder_pan_joint",
        "shoulder_lift_joint",
        "elbow_joint",
        "wrist_1_joint",
        "wrist_2_joint",
        "wrist_3_joint"
    ],
    "metrics": {
        "cart_traj_len": 0.5646755310347282,
        "distance_elbow_joint": 0.06671571470388349,
        "distance_shoulder_lift_joint": 0.293243285854599,
        "distance_shoulder_pan_joint": 0.5750296252788112,
        "distance_wrist_1_joint": 0.3399417275358465,
        "distance_wrist_2_joint": 1.003262173755817,
        "distance_wrist_3_joint": 0.004400236341429942,
        "smoothness": 0.0,
        "time": 0.10974583500000001,
        "traj_len": 1.5108251928897622,
        "weighted_distance": 1.9064619423017366
    },
    "planner": "KPIECE",
    "start": {
        "state": {
            "elbow_joint": 2.0193061681459312,
            "shoulder_lift_joint": -1.1220205130644991,
            "shoulder_pan_joint": -1.0952072088045026,
            "wrist_1_joint": -0.8559671810662515,
            "wrist_2_joint": 0.4759638712940361,
            "wrist_3_joint": 3.159081874192446
        }
    },
    "waypoints": [
        {
            "positions": [
                -1.0952072088045026,
                -1.1220205130644991,
                2.0193061681459312,
                -0.8559671810662515,
                0.4759638712940361,
                3.159081874192446
            ]
        },
        {
            "positions": [
                -1.1910454796843044,
                -1.1708943940402656,
                2.008186882361951,
                -0.7993102264769437,
                0.6431742335866723,
                3.1583485014688746
            ]
        },
        {
            "positions": [
                -1.2868837505641064,
                -1.2197682750160321,
                1.99706759657797,
                -0.742653271887636,
                0.8103845958793083,
                3.1576151287453027
            ]
        },
        {
            "positions": [
                -1.3827220214439082,
                -1.2686421559917986,
                1.9859483107939895,
                -0.6859963172983282,
                0.9775949581719445,
                3.156881756021731
            ]
        },
        {
            "positions": [
                -1.47856029232371,
                -1.3175160369675651,
                1.974829025010009,
                -0.6293393627090205,
                1.1448053204645807,
                3.1561483832981594
            ]
        },
        {
            "positions": [
                -1.574398563203512,
                -1.3663899179433316,
                1.9637097392260283,
                -0.5726824081197127,
                1.312015682757217,
                3.155415010574588
            ]
        },
        {
            "positions": [
                -1.6702368340833138,
                -1.4152637989190981,
                1.9525904534420477,
                -0.516025453530405,
                1.4792260450498531,
                3.154681637851016
            ]
        }
    ]
}