{
    "goal": {
        "global_pose": {
            "orientation": {
                "w": -0.4816463035849501,
                "x": 0.5182115481033762,
                "y": 0.4908360881923453,
                "z": -0.5084816262002911
            },
            "position": {
                "x": -0.8240239810943604,
                "y": -0.300875300988555,
                "z": 0.16403168439865112
            }
        },
        "name": "move_to_storage_C"
    },
    "id": "KPIECE_move_to_storage_C_75",
    "joint_names": [
        "shoulder_pan_joint",
        "shoulder_lift_joint",
        "elbow_joint",
        "wrist_1_joint",
        "wrist_2_joint",
        "wrist_3_joint"
    ],
    "metrics": {
        "cart_traj_len": 0.5764497237676082,
        "distance_elbow_joint": 0.2594274004741608,
        "distance_shoulder_lift_joint": 0.18946314536888198,
        "distance_shoulder_pan_joint": 0.49322598756321856,
        "distance_wrist_1_joint": 0.07849243459039335,
        "distance_wrist_2_joint": 1.073439352292928,
        "distance_wrist_3_joint": 0.060043868983092885,
        "smoothness": 2.5376526478085547e-16,
        "time": 0.109742516,
        "traj_len": 1.4676825914592961,
        "weighted_distance": 1.8509758815614488
    },
    "planner": "KPIECE",
    "start": {
        "state": {
            "elbow_joint": 2.0108683149792914,
            "shoulder_lift_joint": -1.1634956873317392,
            "shoulder_pan_joint": -2.4736205022346,
            "wrist_1_joint": -0.8367026793690192,
            "wrist_2_joint": 0.6746043897045053,
            "wrist_3_joint": 3.133522094754363
        }
    },
    "waypoints": [
        {
            "positions": [
                -2.4736205022346,
                -1.1634956873317392,
                2.0108683149792914,
                -0.8367026793690192,
                0.6746043897045053,
                3.133522094754363
            ]
        },
        {
            "positions": [
                -2.5558248334951363,
                -1.1319184964369255,
                1.9676304149002646,
                -0.823620606937287,
                0.8535109484199933,
                3.1435294062515453
            ]
        },
        {
            "positions": [
                -2.638029164755673,
                -1.1003413055421118,
                1.9243925148212377,
                -0.8105385345055548,
                1.0324175071354813,
                3.1535367177487275
            ]
        },
        {
            "positions": [
                -2.7202334960162093,
                -1.0687641146472981,
                1.881154614742211,
                -0.7974564620738225,
                1.2113240658509694,
                3.1635440292459096
            ]
        },
        {
            "positions": [
                -2.8024378272767456,
                -1.0371869237524847,
                1.8379167146631843,
                -0.7843743896420903,
                1.3902306245664573,
                3.1735513407430918
            ]
        },
        {
            "positions": [
                -2.8846421585372823,
                -1.005609732857671,
                1.7946788145841575,
                -0.7712923172103581,
                1.5691371832819452,
                3.183558652240274
            ]
        },
        {
            "positions": [
                -2.9668464897978186,
                -0.9740325419628573,
                1.7514409145051306,
                -0.7582102447786259,
                1.7480437419974333,
                3.193565963737456
            ]
        }
    ]
}