{
    "goal": {
        "global_pose": {
            "orientation": {
                "w": 0.005598929693374612,
                "x": 0.007748599140229565,
                "y": 0.7110244013736278,
                "z": -0.7031023480610252
            },
            "position": {
                "x": -0.8858502320852131,
                "y": -0.7141253447532654,
                "z": 0.3711530566215515
            }
        },
        "name": "move_to_auspresseinheit_C"
    },
    "id": "KPIECE_move_to_auspresseinheit_C_44",
    "joint_names": [
        "shoulder_pan_joint",
        "shoulder_lift_joint",
        "elbow_joint",
        "wrist_1_joint",
        "wrist_2_joint",
        "wrist_3_joint"
    ],
    "metrics": {
        "cart_traj_len": 0.4944458516405835,
        "distance_elbow_joint": 1.012469615287364,
        "distance_shoulder_lift_joint": 0.33062387760730516,
        "distance_shoulder_pan_joint": 0.25761830310136347,
        "distance_wrist_1_joint": 0.709944318252086,
        "distance_wrist_2_joint": 1.3015277728336334,
        "distance_wrist_3_joint": 0.08234650704102098,
        "smoothness": 4.844609600361787e-16,
        "time": 0.011500165,
        "traj_len": 1.9221161239953148,
        "weighted_distance": 2.4229518153051526
    },
    "planner": "KPIECE",
    "start": {
        "state": {
            "elbow_joint": 1.7527959577730765,
            "shoulder_lift_joint": -0.9740617694224828,
            "shoulder_pan_joint": -2.967991417825869,
            "wrist_1_joint": -0.7595177689779385,
            "wrist_2_joint": 1.7443932448376545,
            "wrist_3_joint": 3.1991315425061013
        }
    },
    "waypoints": [
        {
            "positions": [
                -2.967991417825869,
                -0.9740617694224828,
                1.7527959577730765,
                -0.7595177689779385,
                1.7443932448376545,
                3.1991315425061013
            ]
        },
        {
            "positions": [
                -2.9422295875157327,
                -0.9409993816617522,
                1.6515489962443402,
                -0.68852333715273,
                1.6142404675542912,
                3.1908968918019993
            ]
        },
        {
            "positions": [
                -2.9164677572055964,
                -0.9079369939010218,
                1.5503020347156036,
                -0.6175289053275214,
                1.4840876902709277,
                3.1826622410978973
            ]
        },
        {
            "positions": [
                -2.89070592689546,
                -0.8748746061402912,
                1.4490550731868672,
                -0.5465344735023128,
                1.3539349129875644,
                3.174427590393795
            ]
        },
        {
            "positions": [
                -2.8649440965853237,
                -0.8418122183795607,
                1.3478081116581309,
                -0.4755400416771041,
                1.2237821357042011,
                3.166192939689693
            ]
        },
        {
            "positions": [
                -2.8391822662751873,
                -0.8087498306188302,
                1.2465611501293945,
                -0.4045456098518955,
                1.0936293584208379,
                3.157958288985591
            ]
        },
        {
            "positions": [
                -2.813420435965051,
                -0.7756874428580998,
                1.1453141886006581,
                -0.33355117802668693,
                0.9634765811374745,
                3.149723638281489
            ]
        },
        {
            "positions": [
                -2.7876586056549146,
                -0.7426250550973692,
                1.0440672270719218,
                -0.26255674620147834,
                0.8333238038541111,
                3.141488987577387
            ]
        },
        {
            "positions": [
                -2.7618967753447783,
                -0.7095626673366386,
                0.9428202655431852,
                -0.1915623143762697,
                0.7031710265707476,
                3.1332543368732844
            ]
        },
        {
            "positions": [
                -2.736134945034642,
                -0.6765002795759081,
                0.8415733040144489,
                -0.1205678825510611,
                0.5730182492873843,
                3.1250196861691824
            ]
        },
        {
            "positions": [
                -2.7103731147245056,
                -0.6434378918151776,
                0.7403263424857126,
                -0.04957345072585254,
                0.4428654720040211,
                3.1167850354650803
            ]
        }
    ]
}