{
    "goal": {
        "global_pose": {
            "orientation": {
                "w": 0.7031023480610252,
                "x": -0.7110244013736278,
                "y": 0.0077485991402295624,
                "z": 0.005598929693374583
            },
            "position": {
                "x": -0.8841497679147869,
                "y": 0.44412534475326537,
                "z": 0.3711530566215515
            }
        },
        "name": "move_to_auspresseinheit_D"
    },
    "id": "KPIECE_move_to_auspresseinheit_D_105",
    "joint_names": [
        "shoulder_pan_joint",
        "shoulder_lift_joint",
        "elbow_joint",
        "wrist_1_joint",
        "wrist_2_joint",
        "wrist_3_joint"
    ],
    "metrics": {
        "cart_traj_len": 0.34349335258869873,
        "distance_elbow_joint": 0.6564393347117898,
        "distance_shoulder_lift_joint": 0.1321064921801005,
        "distance_shoulder_pan_joint": 0.1333122286448927,
        "distance_wrist_1_joint": 0.5821547245498015,
        "distance_wrist_2_joint": 1.4454589579486652,
        "distance_wrist_3_joint": 0.031062892469804204,
        "smoothness": 1.8750433333773163e-15,
        "time": 0.015324873999999999,
        "traj_len": 1.7264224947865612,
        "weighted_distance": 2.251726914602019
    },
    "planner": "KPIECE",
    "start": {
        "state": {
            "elbow_joint": -1.8275484843655228,
            "shoulder_lift_joint": -2.1267897864000416,
            "shoulder_pan_joint": -0.035127520176001514,
            "wrist_1_joint": -2.3477863256791385,
            "wrist_2_joint": -1.605890476484521,
            "wrist_3_joint": -3.0880375317375353
        }
    },
    "waypoints": [
        {
            "positions": [
                -0.035127520176001514,
                -2.1267897864000416,
                -1.8275484843655228,
                -2.3477863256791385,
                -1.605890476484521,
                -3.0880375317375353
            ]
        },
        {
            "positions": [
                -0.0517915487566131,
                -2.143303097922554,
                -1.745493567526549,
                -2.420555666247864,
                -1.425208106740938,
                -3.0841546701788096
            ]
        },
        {
            "positions": [
                -0.06845557733722468,
                -2.1598164094450665,
                -1.6634386506875753,
                -2.4933250068165886,
                -1.2445257369973546,
                -3.0802718086200844
            ]
        },
        {
            "positions": [
                -0.08511960591783628,
                -2.1763297209675794,
                -1.5813837338486016,
                -2.566094347385314,
                -1.0638433672537715,
                -3.076388947061359
            ]
        },
        {
            "positions": [
                -0.10178363449844786,
                -2.192843032490092,
                -1.4993288170096277,
                -2.6388636879540392,
                -0.8831609975101884,
                -3.072506085502633
            ]
        },
        {
            "positions": [
                -0.11844766307905945,
                -2.2093563440126043,
                -1.4172739001706542,
                -2.7116330285227646,
                -0.7024786277666053,
                -3.0686232239439075
            ]
        },
        {
            "positions": [
                -0.13511169165967105,
                -2.225869655535117,
                -1.3352189833316803,
                -2.78440236909149,
                -0.521796258023022,
                -3.064740362385182
            ]
        },
        {
            "positions": [
                -0.15177572024028263,
                -2.2423829670576296,
                -1.2531640664927066,
                -2.8571717096602147,
                -0.3411138882794389,
                -3.0608575008264567
            ]
        },
        {
            "positions": [
                -0.16843974882089421,
                -2.258896278580142,
                -1.171109149653733,
                -2.92994105022894,
                -0.1604315185358557,
                -3.056974639267731
            ]
        }
    ]
}