{
    "goal": {
        "global_pose": {
            "orientation": {
                "w": -0.4816463035849501,
                "x": 0.5182115481033762,
                "y": 0.4908360881923453,
                "z": -0.5084816262002911
            },
            "position": {
                "x": -0.8240239810943604,
                "y": 0.19912469901144506,
                "z": 0.16403168439865112
            }
        },
        "name": "move_to_storage_D"
    },
    "id": "KPIECE_move_to_storage_D_82",
    "joint_names": [
        "shoulder_pan_joint",
        "shoulder_lift_joint",
        "elbow_joint",
        "wrist_1_joint",
        "wrist_2_joint",
        "wrist_3_joint"
    ],
    "metrics": {
        "cart_traj_len": 3.9425353640212286,
        "distance_elbow_joint": 4.20985247857167,
        "distance_shoulder_lift_joint": 1.2647180452423752,
        "distance_shoulder_pan_joint": 2.81508557502592,
        "distance_wrist_1_joint": 2.266030771744476,
        "distance_wrist_2_joint": 0.8823563104029047,
        "distance_wrist_3_joint": 3.143561498210221,
        "smoothness": 2.505118637700017e-16,
        "time": 0.246904676,
        "traj_len": 3.8185867384672005,
        "weighted_distance": 4.9007259419156854
    },
    "planner": "KPIECE",
    "start": {
        "state": {
            "elbow_joint": -2.384821990628643,
            "shoulder_lift_joint": -2.278805467437664,
            "shoulder_pan_joint": -0.18546946439364564,
            "wrist_1_joint": 1.4845938187801415,
            "wrist_2_joint": 0.178987772454074,
            "wrist_3_joint": 0.03710569632802521
        }
    },
    "waypoints": [
        {
            "positions": [
                -0.18546946439364564,
                -2.278805467437664,
                -2.384821990628643,
                1.4845938187801415,
                0.178987772454074,
                0.03710569632802521
            ]
        },
        {
            "positions": [
                -0.0807671879282594,
                -2.263840155950202,
                -2.352558666938236,
                1.4606061012939069,
                0.2613269739994961,
                0.07389615127456481
            ]
        },
        {
            "positions": [
                0.023935088537126836,
                -2.2488748444627404,
                -2.3202953432478286,
                1.436618383807672,
                0.3436661755449183,
                0.1106866062211044
            ]
        },
        {
            "positions": [
                0.10027458924062428,
                -2.2141992466388962,
                -2.1978543200818903,
                1.3687341134384046,
                0.36239460982626126,
                0.18080362112905218
            ]
        },
        {
            "positions": [
                0.17661408994412173,
                -2.179523648815052,
                -2.075413296915952,
                1.300849843069137,
                0.3811230441076043,
                0.250920636037
            ]
        },
        {
            "positions": [
                0.2529535906476192,
                -2.144848050991208,
                -1.9529722737500135,
                1.2329655726998696,
                0.39985147838894725,
                0.32103765094494774
            ]
        },
        {
            "positions": [
                0.3292930913511166,
                -2.1101724531673636,
                -1.830531250584075,
                1.1650813023306021,
                0.41857991267029027,
                0.3911546658528955
            ]
        },
        {
            "positions": [
                0.40563259205461405,
                -2.0754968553435194,
                -1.7080902274181367,
                1.0971970319613347,
                0.43730834695163323,
                0.46127168076084324
            ]
        },
        {
            "positions": [
                0.48197209275811154,
                -2.040821257519675,
                -1.5856492042521984,
                1.0293127615920672,
                0.4560367812329762,
                0.5313886956687911
            ]
        },
        {
            "positions": [
                0.558311593461609,
                -2.0061456596958305,
                -1.46320818108626,
                0.9614284912227997,
                0.4747652155143192,
                0.6015057105767389
            ]
        },
        {
            "positions": [
                0.6346510941651065,
                -1.9714700618719865,
                -1.3407671579203215,
                0.8935442208535322,
                0.49349364979566224,
                0.6716227254846866
            ]
        },
        {
            "positions": [
                0.7109905948686039,
                -1.936794464048142,
                -1.2183261347543832,
                0.8256599504842648,
                0.5122220840770052,
                0.7417397403926344
            ]
        },
        {
            "positions": [
                0.7873300955721012,
                -1.9021188662242978,
                -1.0958851115884447,
                0.7577756801149973,
                0.5309505183583482,
                0.8118567553005821
            ]
        },
        {
            "positions": [
                0.8636695962755987,
                -1.8674432684004536,
                -0.9734440884225064,
                0.6898914097457298,
                0.5496789526396912,
                0.88197377020853
            ]
        },
        {
            "positions": [
                0.9400090969790962,
                -1.8327676705766094,
                -0.8510030652565681,
                0.6220071393764623,
                0.5684073869210342,
                0.9520907851164777
            ]
        },
        {
            "positions": [
                1.0163485976825937,
                -1.7980920727527652,
                -0.7285620420906296,
                0.5541228690071949,
                0.5871358212023772,
                1.0222078000244255
            ]
        },
        {
            "positions": [
                1.092688098386091,
                -1.763416474928921,
                -0.6061210189246913,
                0.4862385986379274,
                0.6058642554837201,
                1.0923248149323734
            ]
        },
        {
            "positions": [
                1.1690275990895884,
                -1.7287408771050767,
                -0.48367999575875276,
                0.4183543282686599,
                0.6245926897650631,
                1.1624418298403212
            ]
        },
        {
            "positions": [
                1.245367099793086,
                -1.6940652792812325,
                -0.36123897259281446,
                0.35047005789939245,
                0.6433211240464061,
                1.232558844748269
            ]
        },
        {
            "positions": [
                1.3217066004965834,
                -1.6593896814573883,
                -0.23879794942687615,
                0.282585787530125,
                0.662049558327749,
                1.3026758596562167
            ]
        },
        {
            "positions": [
                1.3980461012000809,
                -1.6247140836335439,
                -0.11635692626093785,
                0.2147015171608575,
                0.6807779926090921,
                1.3727928745641644
            ]
        },
        {
            "positions": [
                1.4743856019035781,
                -1.5900384858096996,
                0.006084096905000891,
                0.14681724679159003,
                0.6995064268904351,
                1.4429098894721122
            ]
        },
        {
            "positions": [
                1.5507251026070756,
                -1.5553628879858554,
                0.1285251200709392,
                0.07893297642232255,
                0.7182348611717781,
                1.51302690438006
            ]
        },
        {
            "positions": [
                1.6270646033105731,
                -1.520687290162011,
                0.2509661432368775,
                0.01104870605305508,
                0.7369632954531211,
                1.583143919288008
            ]
        },
        {
            "positions": [
                1.7034041040140706,
                -1.4860116923381668,
                0.3734071664028158,
                -0.056835564316212395,
                0.7556917297344641,
                1.6532609341959557
            ]
        },
        {
            "positions": [
                1.779743604717568,
                -1.4513360945143225,
                0.4958481895687541,
                -0.12471983468547987,
                0.774420164015807,
                1.7233779491039034
            ]
        },
        {
            "positions": [
                1.8560831054210656,
                -1.4166604966904783,
                0.6182892127346924,
                -0.19260410505474734,
                0.79314859829715,
                1.7934949640118512
            ]
        },
        {
            "positions": [
                1.9324226061245628,
                -1.3819848988666341,
                0.7407302359006311,
                -0.2604883754240148,
                0.811877032578493,
                1.863611978919799
            ]
        },
        {
            "positions": [
                2.0087621068280606,
                -1.34730930104279,
                0.8631712590665694,
                -0.3283726457932823,
                0.8306054668598359,
                1.9337289938277467
            ]
        },
        {
            "positions": [
                2.085101607531558,
                -1.3126337032189457,
                0.9856122822325077,
                -0.39625691616254977,
                0.849333901141179,
                2.003846008735694
            ]
        },
        {
            "positions": [
                2.161441108235055,
                -1.2779581053951015,
                1.108053305398446,
                -0.46414118653181724,
                0.868062335422522,
                2.073963023643642
            ]
        },
        {
            "positions": [
                2.237780608938553,
                -1.243282507571257,
                1.2304943285643843,
                -0.5320254569010847,
                0.886790769703865,
                2.1440800385515897
            ]
        },
        {
            "positions": [
                2.31412010964205,
                -1.2086069097474128,
                1.352935351730323,
                -0.5999097272703522,
                0.905519203985208,
                2.2141970534595377
            ]
        },
        {
            "positions": [
                2.3904596103455478,
                -1.1739313119235686,
                1.4753763748962614,
                -0.6677939976396194,
                0.924247638266551,
                2.284314068367485
            ]
        },
        {
            "positions": [
                2.466799111049045,
                -1.1392557140997244,
                1.5978173980621997,
                -0.7356782680088869,
                0.942976072547894,
                2.354431083275433
            ]
        },
        {
            "positions": [
                2.5075033609448525,
                -1.1079636411236153,
                1.6546206705324065,
                -0.7471179392477488,
                0.9725680751251651,
                2.5609901110911366
            ]
        },
        {
            "positions": [
                2.5482076108406595,
                -1.0766715681475065,
                1.7114239430026132,
                -0.7585576104866107,
                1.0021600777024364,
                2.7675491389068396
            ]
        },
        {
            "positions": [
                2.588911860736467,
                -1.0453794951713977,
                1.7682272154728202,
                -0.7699972817254727,
                1.0317520802797076,
                2.974108166722543
            ]
        },
        {
            "positions": [
                2.6296161106322744,
                -1.0140874221952887,
                1.825030487943027,
                -0.7814369529643346,
                1.0613440828569787,
                3.1806671945382465
            ]
        }
    ]
}