{
    "goal": {
        "global_pose": {
            "orientation": {
                "w": -0.4816463035849501,
                "x": 0.5182115481033762,
                "y": 0.4908360881923453,
                "z": -0.5084816262002911
            },
            "position": {
                "x": -0.8240239810943604,
                "y": -0.300875300988555,
                "z": 0.16403168439865112
            }
        },
        "name": "move_to_storage_C"
    },
    "id": "KPIECE_move_to_storage_C_94",
    "joint_names": [
        "shoulder_pan_joint",
        "shoulder_lift_joint",
        "elbow_joint",
        "wrist_1_joint",
        "wrist_2_joint",
        "wrist_3_joint"
    ],
    "metrics": {
        "cart_traj_len": 0.5764984411635727,
        "distance_elbow_joint": 0.25687408480286433,
        "distance_shoulder_lift_joint": 0.18989663614946828,
        "distance_shoulder_pan_joint": 0.4930578889577575,
        "distance_wrist_1_joint": 0.07201540489986957,
        "distance_wrist_2_joint": 1.0793409447227396,
        "distance_wrist_3_joint": 0.06250095779601983,
        "smoothness": 0.0,
        "time": 0.01087059,
        "traj_len": 1.4675441790040664,
        "weighted_distance": 1.8520378458723157
    },
    "planner": "KPIECE",
    "start": {
        "state": {
            "elbow_joint": 2.0108683149792914,
            "shoulder_lift_joint": -1.1634956873317392,
            "shoulder_pan_joint": -2.4736205022346,
            "wrist_1_joint": -0.8367026793690192,
            "wrist_2_joint": 0.6746043897045053,
            "wrist_3_joint": 3.133522094754363
        }
    },
    "waypoints": [
        {
            "positions": [
                -2.4736205022346,
                -1.1634956873317392,
                2.0108683149792914,
                -0.8367026793690192,
                0.6746043897045053,
                3.133522094754363
            ]
        },
        {
            "positions": [
                -2.555796817060893,
                -1.1318462479734945,
                1.9680559675121474,
                -0.8247001118857076,
                0.8544945471582952,
                3.1439389210537
            ]
        },
        {
            "positions": [
                -2.6379731318871857,
                -1.1001968086152498,
                1.9252436200450034,
                -0.812697544402396,
                1.034384704612085,
                3.1543557473530366
            ]
        },
        {
            "positions": [
                -2.720149446713479,
                -1.068547369257005,
                1.8824312725778594,
                -0.8006949769190844,
                1.2142748620658752,
                3.164772573652373
            ]
        },
        {
            "positions": [
                -2.802325761539772,
                -1.0368979298987604,
                1.8396189251107151,
                -0.7886924094357728,
                1.394165019519665,
                3.1751893999517096
            ]
        },
        {
            "positions": [
                -2.8845020763660645,
                -1.0052484905405157,
                1.796806577643571,
                -0.7766898419524613,
                1.574055176973455,
                3.1856062262510463
            ]
        },
        {
            "positions": [
                -2.9666783911923575,
                -0.973599051182271,
                1.753994230176427,
                -0.7646872744691496,
                1.7539453344272449,
                3.196023052550383
            ]
        }
    ]
}