{
    "goal": {
        "global_pose": {
            "orientation": {
                "w": 0.005598929693374612,
                "x": 0.007748599140229565,
                "y": 0.7110244013736278,
                "z": -0.7031023480610252
            },
            "position": {
                "x": 0.1141497679147869,
                "y": -0.7141253447532654,
                "z": 0.3711530566215515
            }
        },
        "name": "move_to_auspresseinheit_B"
    },
    "id": "KPIECE_move_to_auspresseinheit_B_47",
    "joint_names": [
        "shoulder_pan_joint",
        "shoulder_lift_joint",
        "elbow_joint",
        "wrist_1_joint",
        "wrist_2_joint",
        "wrist_3_joint"
    ],
    "metrics": {
        "cart_traj_len": 0.5647498834633975,
        "distance_elbow_joint": 0.06683654090940494,
        "distance_shoulder_lift_joint": 0.29301096668885074,
        "distance_shoulder_pan_joint": 0.5761888265860899,
        "distance_wrist_1_joint": 0.33895997207475526,
        "distance_wrist_2_joint": 0.9961243138309028,
        "distance_wrist_3_joint": 0.0042385107719598025,
        "smoothness": 2.5376526478085547e-16,
        "time": 0.134917008,
        "traj_len": 1.5084293589233684,
        "weighted_distance": 1.9023460353761987
    },
    "planner": "KPIECE",
    "start": {
        "state": {
            "elbow_joint": 2.0193061681459312,
            "shoulder_lift_joint": -1.1220205130644991,
            "shoulder_pan_joint": -1.0952072088045026,
            "wrist_1_joint": -0.8559671810662515,
            "wrist_2_joint": 0.4759638712940361,
            "wrist_3_joint": 3.159081874192446
        }
    },
    "waypoints": [
        {
            "positions": [
                -1.0952072088045026,
                -1.1220205130644991,
                2.0193061681459312,
                -0.8559671810662515,
                0.4759638712940361,
                3.159081874192446
            ]
        },
        {
            "positions": [
                -1.1912386799021843,
                -1.1708556741793075,
                2.0081667446610303,
                -0.7994738523871256,
                0.6419845902658532,
                3.158375455730453
            ]
        },
        {
            "positions": [
                -1.2872701509998659,
                -1.219690835294116,
                1.9970273211761296,
                -0.7429805237079997,
                0.8080053092376704,
                3.1576690372684593
            ]
        },
        {
            "positions": [
                -1.3833016220975476,
                -1.2685259964089246,
                1.9858878976912289,
                -0.6864871950288738,
                0.9740260282094875,
                3.156962618806466
            ]
        },
        {
            "positions": [
                -1.4793330931952293,
                -1.317361157523733,
                1.974748474206328,
                -0.629993866349748,
                1.1400467471813047,
                3.156256200344473
            ]
        },
        {
            "positions": [
                -1.575364564292911,
                -1.3661963186385413,
                1.963609050721427,
                -0.5735005376706221,
                1.3060674661531217,
                3.1555497818824794
            ]
        },
        {
            "positions": [
                -1.6713960353905926,
                -1.4150314797533499,
                1.9524696272365263,
                -0.5170072089914962,
                1.472088185124939,
                3.154843363420486
            ]
        }
    ]
}