{
    "goal": {
        "global_pose": {
            "orientation": {
                "w": -0.4816463035849501,
                "x": 0.5182115481033762,
                "y": 0.4908360881923453,
                "z": -0.5084816262002911
            },
            "position": {
                "x": -0.8240239810943604,
                "y": -0.300875300988555,
                "z": 0.16403168439865112
            }
        },
        "name": "move_to_storage_C"
    },
    "id": "KPIECE_move_to_storage_C_5",
    "joint_names": [
        "shoulder_pan_joint",
        "shoulder_lift_joint",
        "elbow_joint",
        "wrist_1_joint",
        "wrist_2_joint",
        "wrist_3_joint"
    ],
    "metrics": {
        "cart_traj_len": 0.5772693309826463,
        "distance_elbow_joint": 0.25880585015602553,
        "distance_shoulder_lift_joint": 0.1902519757551766,
        "distance_shoulder_pan_joint": 0.493089188384745,
        "distance_wrist_1_joint": 0.07070258158948661,
        "distance_wrist_2_joint": 1.0789595610231795,
        "distance_wrist_3_joint": 0.06542851164251173,
        "smoothness": 5.075305295617109e-16,
        "time": 0.076874147,
        "traj_len": 1.4687537807784956,
        "weighted_distance": 1.8541188835802342
    },
    "planner": "KPIECE",
    "start": {
        "state": {
            "elbow_joint": 2.0108683149792914,
            "shoulder_lift_joint": -1.1634956873317392,
            "shoulder_pan_joint": -2.4736205022346,
            "wrist_1_joint": -0.8367026793690192,
            "wrist_2_joint": 0.6746043897045053,
            "wrist_3_joint": 3.133522094754363
        }
    },
    "waypoints": [
        {
            "positions": [
                -2.4736205022346,
                -1.1634956873317392,
                2.0108683149792914,
                -0.8367026793690192,
                0.6746043897045053,
                3.133522094754363
            ]
        },
        {
            "positions": [
                -2.5558020336320575,
                -1.1317870247058766,
                1.9677340066199538,
                -0.8249189157707715,
                0.8544309832083685,
                3.144426846694782
            ]
        },
        {
            "positions": [
                -2.637983565029515,
                -1.1000783620800136,
                1.9245996982606162,
                -0.8131351521725236,
                1.0342575767122317,
                3.1553315986352004
            ]
        },
        {
            "positions": [
                -2.720165096426973,
                -1.068369699454151,
                1.8814653899012788,
                -0.8013513885742759,
                1.2140841702160952,
                3.166236350575619
            ]
        },
        {
            "positions": [
                -2.8023466278244302,
                -1.0366610368282883,
                1.8383310815419411,
                -0.7895676249760282,
                1.3939107637199584,
                3.1771411025160377
            ]
        },
        {
            "positions": [
                -2.8845281592218877,
                -1.0049523742024253,
                1.7951967731826035,
                -0.7777838613777803,
                1.5737373572238216,
                3.1880458544564565
            ]
        },
        {
            "positions": [
                -2.966709690619345,
                -0.9732437115765626,
                1.7520624648232659,
                -0.7660000977795326,
                1.7535639507276848,
                3.198950606396875
            ]
        }
    ]
}