{
    "goal": {
        "global_pose": {
            "orientation": {
                "w": 0.005598929693374612,
                "x": 0.007748599140229565,
                "y": 0.7110244013736278,
                "z": -0.7031023480610252
            },
            "position": {
                "x": -0.8858502320852131,
                "y": -0.7141253447532654,
                "z": 0.3711530566215515
            }
        },
        "name": "move_to_auspresseinheit_C"
    },
    "id": "KPIECE_move_to_auspresseinheit_C_59",
    "joint_names": [
        "shoulder_pan_joint",
        "shoulder_lift_joint",
        "elbow_joint",
        "wrist_1_joint",
        "wrist_2_joint",
        "wrist_3_joint"
    ],
    "metrics": {
        "cart_traj_len": 0.49368606547938815,
        "distance_elbow_joint": 1.0072158047750437,
        "distance_shoulder_lift_joint": 0.32740694791623637,
        "distance_shoulder_pan_joint": 0.25649466952313915,
        "distance_wrist_1_joint": 0.6985491058261677,
        "distance_wrist_2_joint": 1.309347826450329,
        "distance_wrist_3_joint": 0.0758426284766438,
        "smoothness": 1.6148698667872622e-16,
        "time": 0.304823735,
        "traj_len": 1.916991649164795,
        "weighted_distance": 2.4154583772438194
    },
    "planner": "KPIECE",
    "start": {
        "state": {
            "elbow_joint": 1.7527959577730765,
            "shoulder_lift_joint": -0.9740617694224828,
            "shoulder_pan_joint": -2.967991417825869,
            "wrist_1_joint": -0.7595177689779385,
            "wrist_2_joint": 1.7443932448376545,
            "wrist_3_joint": 3.1991315425061013
        }
    },
    "waypoints": [
        {
            "positions": [
                -2.967991417825869,
                -0.9740617694224828,
                1.7527959577730765,
                -0.7595177689779385,
                1.7443932448376545,
                3.1991315425061013
            ]
        },
        {
            "positions": [
                -2.9423419508735553,
                -0.9413210746308591,
                1.6520743772955722,
                -0.6896628583953218,
                1.6134584621926216,
                3.1915472796584368
            ]
        },
        {
            "positions": [
                -2.916692483921241,
                -0.9085803798392356,
                1.5513527968180678,
                -0.619807947812705,
                1.4825236795475887,
                3.1839630168107727
            ]
        },
        {
            "positions": [
                -2.8910430169689274,
                -0.8758396850476119,
                1.4506312163405635,
                -0.5499530372300883,
                1.3515888969025558,
                3.176378753963108
            ]
        },
        {
            "positions": [
                -2.8653935500166132,
                -0.8430989902559882,
                1.349909635863059,
                -0.4800981266474715,
                1.2206541142575227,
                3.168794491115444
            ]
        },
        {
            "positions": [
                -2.8397440830642995,
                -0.8103582954643647,
                1.2491880553855546,
                -0.4102432160648547,
                1.08971933161249,
                3.1612102282677794
            ]
        },
        {
            "positions": [
                -2.8140946161119857,
                -0.777617600672741,
                1.1484664749080502,
                -0.3403883054822379,
                0.958784548967457,
                3.153625965420115
            ]
        },
        {
            "positions": [
                -2.7884451491596716,
                -0.7448769058811173,
                1.0477448944305459,
                -0.2705333948996212,
                0.8278497663224241,
                3.1460417025724507
            ]
        },
        {
            "positions": [
                -2.762795682207358,
                -0.7121362110894938,
                0.9470233139530415,
                -0.2006784843170044,
                0.6969149836773911,
                3.138457439724786
            ]
        },
        {
            "positions": [
                -2.7371462152550436,
                -0.67939551629787,
                0.8463017334755372,
                -0.13082357373438758,
                0.5659802010323582,
                3.130873176877122
            ]
        },
        {
            "positions": [
                -2.71149674830273,
                -0.6466548215062464,
                0.7455801529980328,
                -0.06096866315177087,
                0.4350454183873253,
                3.1232889140294575
            ]
        }
    ]
}