{
    "goal": {
        "global_pose": {
            "orientation": {
                "w": 0.005598929693374612,
                "x": 0.007748599140229565,
                "y": 0.7110244013736278,
                "z": -0.7031023480610252
            },
            "position": {
                "x": -0.8858502320852131,
                "y": -0.7141253447532654,
                "z": 0.3711530566215515
            }
        },
        "name": "move_to_auspresseinheit_C"
    },
    "id": "KPIECE_move_to_auspresseinheit_C_105",
    "joint_names": [
        "shoulder_pan_joint",
        "shoulder_lift_joint",
        "elbow_joint",
        "wrist_1_joint",
        "wrist_2_joint",
        "wrist_3_joint"
    ],
    "metrics": {
        "cart_traj_len": 0.49337790160954853,
        "distance_elbow_joint": 0.9919164391721503,
        "distance_shoulder_lift_joint": 0.32081827654342543,
        "distance_shoulder_pan_joint": 0.2567886837614486,
        "distance_wrist_1_joint": 0.6572271362176056,
        "distance_wrist_2_joint": 1.3123529054700038,
        "distance_wrist_3_joint": 0.04020103515467355,
        "smoothness": 0.0,
        "time": 0.11329687599999999,
        "traj_len": 1.8919049860707349,
        "weighted_distance": 2.3726117651896326
    },
    "planner": "KPIECE",
    "start": {
        "state": {
            "elbow_joint": 1.7527959577730765,
            "shoulder_lift_joint": -0.9740617694224828,
            "shoulder_pan_joint": -2.967991417825869,
            "wrist_1_joint": -0.7595177689779385,
            "wrist_2_joint": 1.7443932448376545,
            "wrist_3_joint": 3.1991315425061013
        }
    },
    "waypoints": [
        {
            "positions": [
                -2.967991417825869,
                -0.9740617694224828,
                1.7527959577730765,
                -0.7595177689779385,
                1.7443932448376545,
                3.1991315425061013
            ]
        },
        {
            "positions": [
                -2.942312549449724,
                -0.9419799417681403,
                1.6536043138558614,
                -0.693795055356178,
                1.613157954290654,
                3.195111438990634
            ]
        },
        {
            "positions": [
                -2.9166336810735793,
                -0.9098981141137977,
                1.5544126699386465,
                -0.6280723417344174,
                1.4819226637436538,
                3.1910913354751664
            ]
        },
        {
            "positions": [
                -2.8909548126974345,
                -0.8778162864594552,
                1.4552210260214316,
                -0.5623496281126569,
                1.3506873731966533,
                3.1870712319596994
            ]
        },
        {
            "positions": [
                -2.8652759443212896,
                -0.8457344588051126,
                1.3560293821042164,
                -0.4966269144908963,
                1.2194520826496529,
                3.183051128444232
            ]
        },
        {
            "positions": [
                -2.8395970759451448,
                -0.8136526311507701,
                1.2568377381870013,
                -0.4309042008691357,
                1.0882167921026524,
                3.1790310249287645
            ]
        },
        {
            "positions": [
                -2.813918207569,
                -0.7815708034964275,
                1.1576460942697864,
                -0.36518148724737515,
                0.9569815015556522,
                3.175010921413297
            ]
        },
        {
            "positions": [
                -2.788239339192855,
                -0.7494889758420851,
                1.0584544503525715,
                -0.2994587736256146,
                0.8257462110086519,
                3.1709908178978297
            ]
        },
        {
            "positions": [
                -2.76256047081671,
                -0.7174071481877424,
                0.9592628064353562,
                -0.23373606000385405,
                0.6945109204616513,
                3.1669707143823627
            ]
        },
        {
            "positions": [
                -2.7368816024405653,
                -0.6853253205333999,
                0.8600711625181412,
                -0.16801334638209342,
                0.5632756299146511,
                3.162950610866895
            ]
        },
        {
            "positions": [
                -2.7112027340644205,
                -0.6532434928790574,
                0.7608795186009262,
                -0.10229063276033286,
                0.43204033936765057,
                3.1589305073514278
            ]
        }
    ]
}