{
    "goal": {
        "global_pose": {
            "orientation": {
                "w": 0.7047431493862688,
                "x": -0.7094548369677653,
                "y": 0.0024358444001904,
                "z": -0.0022348060817251984
            },
            "position": {
                "x": -0.39052492380142206,
                "y": 0.3671506643295288,
                "z": 0.19426114857196808
            }
        },
        "name": "move_to_magneteinheit_D"
    },
    "id": "KPIECE_move_to_magneteinheit_D_89",
    "joint_names": [
        "shoulder_pan_joint",
        "shoulder_lift_joint",
        "elbow_joint",
        "wrist_1_joint",
        "wrist_2_joint",
        "wrist_3_joint"
    ],
    "metrics": {
        "cart_traj_len": 4.392662552914893,
        "distance_elbow_joint": 3.1488363476376047,
        "distance_shoulder_lift_joint": 1.6281468846939056,
        "distance_shoulder_pan_joint": 3.0585736677470603,
        "distance_wrist_1_joint": 1.5112069040909313,
        "distance_wrist_2_joint": 0.7576724625671487,
        "distance_wrist_3_joint": 3.036691579883343,
        "smoothness": 0.19625822028623685,
        "time": 0.770159183,
        "traj_len": 3.62506935749097,
        "weighted_distance": 4.6350178395605734
    },
    "planner": "KPIECE",
    "start": {
        "state": {
            "elbow_joint": 0.7495348899011911,
            "shoulder_lift_joint": -0.6476975780737668,
            "shoulder_pan_joint": -2.711696901376276,
            "wrist_1_joint": -0.0750647808097303,
            "wrist_2_joint": 0.43296659715458535,
            "wrist_3_joint": 3.1361499051832418
        }
    },
    "waypoints": [
        {
            "positions": [
                -2.711696901376276,
                -0.6476975780737668,
                0.7495348899011911,
                -0.0750647808097303,
                0.43296659715458535,
                3.1361499051832418
            ]
        },
        {
            "positions": [
                -2.722627599511423,
                -0.6751291139519005,
                0.7501987017803438,
                0.006092878392924189,
                0.45651101479558887,
                3.0429736611254468
            ]
        },
        {
            "positions": [
                -2.733558297646569,
                -0.7025606498300341,
                0.7508625136594965,
                0.08725053759557867,
                0.48005543243659243,
                2.9497974170676518
            ]
        },
        {
            "positions": [
                -2.725199739783948,
                -0.7494858817277253,
                0.7497136901450234,
                0.20070061896073854,
                0.520007660285897,
                2.815970070611278
            ]
        },
        {
            "positions": [
                -2.716841181921326,
                -0.7964111136254166,
                0.7485648666305503,
                0.3141507003258984,
                0.5599598881352014,
                2.682142724154904
            ]
        },
        {
            "positions": [
                -2.7084826240587048,
                -0.843336345523108,
                0.7474160431160773,
                0.4276007816910583,
                0.5999121159845059,
                2.5483153776985303
            ]
        },
        {
            "positions": [
                -2.700124066196083,
                -0.8902615774207993,
                0.7462672196016042,
                0.5410508630562182,
                0.6398643438338103,
                2.4144880312421564
            ]
        },
        {
            "positions": [
                -2.6917655083334617,
                -0.9371868093184905,
                0.7451183960871312,
                0.6545009444213781,
                0.6798165716831148,
                2.2806606847857824
            ]
        },
        {
            "positions": [
                -2.5771113409503354,
                -0.992522998855101,
                0.6398871937914327,
                0.677745158210083,
                0.6692941836506674,
                2.1987888607275066
            ]
        },
        {
            "positions": [
                -2.462457173567209,
                -1.0478591883917114,
                0.5346559914957343,
                0.700989371998788,
                0.6587717956182199,
                2.116917036669231
            ]
        },
        {
            "positions": [
                -2.3478030061840824,
                -1.1031953779283217,
                0.42942478920003574,
                0.7242335857874929,
                0.6482494075857724,
                2.0350452126109553
            ]
        },
        {
            "positions": [
                -2.233148838800956,
                -1.1585315674649321,
                0.3241935869043373,
                0.7474777995761978,
                0.6377270195533249,
                1.9531733885526796
            ]
        },
        {
            "positions": [
                -2.11849467141783,
                -1.2138677570015426,
                0.21896238460863882,
                0.7707220133649028,
                0.6272046315208775,
                1.871301564494404
            ]
        },
        {
            "positions": [
                -2.003840504034703,
                -1.2692039465381528,
                0.11373118231294033,
                0.7939662271536077,
                0.6166822434884299,
                1.7894297404361281
            ]
        },
        {
            "positions": [
                -1.8891863366515769,
                -1.3245401360747633,
                0.008499980017241837,
                0.8172104409423127,
                0.6061598554559825,
                1.7075579163778525
            ]
        },
        {
            "positions": [
                -1.7745321692684506,
                -1.3798763256113737,
                -0.09673122227845654,
                0.8404546547310174,
                0.595637467423535,
                1.6256860923195768
            ]
        },
        {
            "positions": [
                -1.6598780018853243,
                -1.4352125151479842,
                -0.20196242457415503,
                0.8636988685197224,
                0.5851150793910875,
                1.5438142682613012
            ]
        },
        {
            "positions": [
                -1.5452238345021978,
                -1.4905487046845947,
                -0.3071936268698535,
                0.8869430823084274,
                0.57459269135864,
                1.4619424442030255
            ]
        },
        {
            "positions": [
                -1.4305696671190715,
                -1.545884894221205,
                -0.412424829165552,
                0.9101872960971322,
                0.5640703033261926,
                1.3800706201447497
            ]
        },
        {
            "positions": [
                -1.315915499735945,
                -1.6012210837578154,
                -0.5176560314612505,
                0.9334315098858372,
                0.553547915293745,
                1.298198796086474
            ]
        },
        {
            "positions": [
                -1.2012613323528187,
                -1.6565572732944256,
                -0.6228872337569488,
                0.9566757236745421,
                0.5430255272612976,
                1.2163269720281984
            ]
        },
        {
            "positions": [
                -1.0866071649696922,
                -1.711893462831036,
                -0.7281184360526475,
                0.9799199374632471,
                0.5325031392288501,
                1.1344551479699225
            ]
        },
        {
            "positions": [
                -0.9719529975865657,
                -1.7672296523676465,
                -0.833349638348346,
                1.003164151251952,
                0.5219807511964026,
                1.0525833239116469
            ]
        },
        {
            "positions": [
                -0.8572988302034394,
                -1.822565841904257,
                -0.9385808406440442,
                1.0264083650406568,
                0.5114583631639551,
                0.9707114998533712
            ]
        },
        {
            "positions": [
                -0.7426446628203129,
                -1.8779020314408674,
                -1.0438120429397428,
                1.0496525788293618,
                0.5009359751315077,
                0.8888396757950954
            ]
        },
        {
            "positions": [
                -0.6279904954371869,
                -1.9332382209774779,
                -1.149043245235441,
                1.0728967926180668,
                0.4904135870990602,
                0.80696785173682
            ]
        },
        {
            "positions": [
                -0.5133363280540602,
                -1.9885744105140881,
                -1.2542744475311398,
                1.0961410064067718,
                0.4798911990666127,
                0.7250960276785443
            ]
        },
        {
            "positions": [
                -0.39868216067093387,
                -2.0439106000506984,
                -1.359505649826838,
                1.1193852201954768,
                0.46936881103416517,
                0.6432242036202684
            ]
        },
        {
            "positions": [
                -0.2840279932878076,
                -2.0992467895873093,
                -1.4647368521225368,
                1.1426294339841816,
                0.45884642300171774,
                0.5613523795619928
            ]
        },
        {
            "positions": [
                -0.1693738259046813,
                -2.1545829791239193,
                -1.569968054418235,
                1.1658736477728864,
                0.44832403496927026,
                0.47948055550371715
            ]
        },
        {
            "positions": [
                -0.05471965852155458,
                -2.2099191686605297,
                -1.6751992567139338,
                1.1891178615615914,
                0.4378016469368228,
                0.3976087314454413
            ]
        },
        {
            "positions": [
                0.0599345088615717,
                -2.26525535819714,
                -1.780430459009632,
                1.2123620753502964,
                0.4272792589043753,
                0.31573690738716553
            ]
        },
        {
            "positions": [
                -0.0008703573805849199,
                -2.267902634339773,
                -1.9344843968121748,
                1.2683070873330227,
                0.3627079650894054,
                0.2616672618653487
            ]
        },
        {
            "positions": [
                -0.06167522362274154,
                -2.2705499104824063,
                -2.0885383346147175,
                1.3242520993157487,
                0.29813667127443544,
                0.20759761634353194
            ]
        },
        {
            "positions": [
                -0.12248008986489817,
                -2.2731971866250396,
                -2.2425922724172604,
                1.3801971112984748,
                0.2335653774594655,
                0.15352797082171515
            ]
        },
        {
            "positions": [
                -0.18328495610705478,
                -2.2758444627676724,
                -2.396646210219803,
                1.436142123281201,
                0.1689940836444956,
                0.09945832529989833
            ]
        }
    ]
}