{
    "goal": {
        "global_pose": {
            "orientation": {
                "w": -0.00223480608172531,
                "x": 0.0024358444001904467,
                "y": 0.7094548369677653,
                "z": -0.704743149386269
            },
            "position": {
                "x": -0.37947507619857795,
                "y": -0.6371506643295288,
                "z": 0.19426114857196808
            }
        },
        "name": "move_to_magneteinheit_C"
    },
    "id": "KPIECE_move_to_magneteinheit_C_102",
    "joint_names": [
        "shoulder_pan_joint",
        "shoulder_lift_joint",
        "elbow_joint",
        "wrist_1_joint",
        "wrist_2_joint",
        "wrist_3_joint"
    ],
    "metrics": {
        "cart_traj_len": 1.0719801269370455,
        "distance_elbow_joint": 0.6985902757428428,
        "distance_shoulder_lift_joint": 0.49812781503797954,
        "distance_shoulder_pan_joint": 1.1910573333478467,
        "distance_wrist_1_joint": 1.3459107034907591,
        "distance_wrist_2_joint": 1.54488432717916,
        "distance_wrist_3_joint": 3.884565528371587,
        "smoothness": 0.9897904155945476,
        "time": 0.9587780490000001,
        "traj_len": 3.027067224752396,
        "weighted_distance": 4.452309745579622
    },
    "planner": "KPIECE",
    "start": {
        "state": {
            "elbow_joint": 1.9565354006593851,
            "shoulder_lift_joint": -1.4165861576512813,
            "shoulder_pan_joint": -1.6717766223278752,
            "wrist_1_joint": -0.528663328821883,
            "wrist_2_joint": 1.472756589259273,
            "wrist_3_joint": 3.159348288315503
        }
    },
    "waypoints": [
        {
            "positions": [
                -1.6717766223278752,
                -1.4165861576512813,
                1.9565354006593851,
                -0.528663328821883,
                1.472756589259273,
                3.159348288315503
            ]
        },
        {
            "positions": [
                -1.7145842350481906,
                -1.424017627389537,
                1.9380047241495713,
                -0.47708944003233666,
                1.4026032931485328,
                2.9638268309046265
            ]
        },
        {
            "positions": [
                -1.7573918477685058,
                -1.431449097127793,
                1.9194740476397574,
                -0.4255155512427902,
                1.3324499970377923,
                2.76830537349375
            ]
        },
        {
            "positions": [
                -1.8001994604888212,
                -1.4388805668660487,
                1.9009433711299435,
                -0.37394166245324384,
                1.262296700927052,
                2.572783916082874
            ]
        },
        {
            "positions": [
                -1.8430070732091366,
                -1.4463120366043045,
                1.8824126946201296,
                -0.3223677736636974,
                1.1921434048163118,
                2.3772624586719973
            ]
        },
        {
            "positions": [
                -1.8858146859294518,
                -1.4537435063425606,
                1.8638820181103157,
                -0.270793884874151,
                1.1219901087055713,
                2.1817410012611207
            ]
        },
        {
            "positions": [
                -1.9286222986497672,
                -1.4611749760808164,
                1.8453513416005016,
                -0.21921999608460463,
                1.051836812594831,
                1.9862195438502444
            ]
        },
        {
            "positions": [
                -1.9714299113700826,
                -1.4686064458190722,
                1.8268206650906877,
                -0.16764610729505824,
                0.9816835164840907,
                1.7906980864393678
            ]
        },
        {
            "positions": [
                -2.014237524090398,
                -1.476037915557328,
                1.8082899885808739,
                -0.11607221850551175,
                0.9115302203733502,
                1.5951766290284912
            ]
        },
        {
            "positions": [
                -2.0570451368107134,
                -1.4834693852955838,
                1.78975931207106,
                -0.06449832971596536,
                0.8413769242626099,
                1.3996551716176147
            ]
        },
        {
            "positions": [
                -2.0998527495310286,
                -1.4909008550338396,
                1.771228635561246,
                -0.012924440926418939,
                0.7712236281518695,
                1.2041337142067383
            ]
        },
        {
            "positions": [
                -2.2009125647988443,
                -1.466718228232346,
                1.8462756482985057,
                -0.09588442751789347,
                0.6772769976588666,
                1.203822598445932
            ]
        },
        {
            "positions": [
                -2.30197238006666,
                -1.4425356014308524,
                1.9213226610357652,
                -0.17884441410936802,
                0.5833303671658638,
                1.203511482685126
            ]
        },
        {
            "positions": [
                -2.4030321953344758,
                -1.4183529746293586,
                1.9963696737730248,
                -0.26180440070084254,
                0.489383736672861,
                1.20320036692432
            ]
        },
        {
            "positions": [
                -2.5040920106022915,
                -1.394170347827865,
                2.0714166865102843,
                -0.34476438729231706,
                0.39543710617985817,
                1.2028892511635139
            ]
        },
        {
            "positions": [
                -2.5275900295588545,
                -1.4010250107716082,
                2.055206139588359,
                -0.4056415237284655,
                0.442781718382963,
                1.4170640723535943
            ]
        },
        {
            "positions": [
                -2.551088048515417,
                -1.4078796737153512,
                2.038995592666434,
                -0.46651866016461396,
                0.4901263305860678,
                1.6312388935436748
            ]
        },
        {
            "positions": [
                -2.57458606747198,
                -1.4147343366590943,
                2.022785045744509,
                -0.5273957966007624,
                0.5374709427891726,
                1.845413714733755
            ]
        },
        {
            "positions": [
                -2.598084086428543,
                -1.4215889996028375,
                2.006574498822584,
                -0.5882729330369109,
                0.5848155549922776,
                2.0595885359238357
            ]
        },
        {
            "positions": [
                -2.621582105385106,
                -1.4284436625465806,
                1.9903639519006588,
                -0.6491500694730593,
                0.6321601671953824,
                2.273763357113916
            ]
        },
        {
            "positions": [
                -2.6450801243416686,
                -1.4352983254903235,
                1.974153404978734,
                -0.7100272059092078,
                0.6795047793984872,
                2.487938178303996
            ]
        },
        {
            "positions": [
                -2.6685781432982316,
                -1.4421529884340667,
                1.9579428580568088,
                -0.7709043423453562,
                0.726849391601592,
                2.702112999494077
            ]
        },
        {
            "positions": [
                -2.577341487864241,
                -1.3199873705196639,
                1.9953883857114274,
                -0.7680988244782521,
                0.6784430256356451,
                2.7712332937083852
            ]
        },
        {
            "positions": [
                -2.48610483243025,
                -1.197821752605261,
                2.032833913366046,
                -0.765293306611148,
                0.630036659669698,
                2.840353587922693
            ]
        },
        {
            "positions": [
                -2.4802135816754958,
                -1.1804373855980415,
                2.0204686253995696,
                -0.7985837458322229,
                0.6497065730427565,
                2.9856746651529025
            ]
        },
        {
            "positions": [
                -2.4743223309207414,
                -1.1630530185908217,
                2.008103337433093,
                -0.8318741850532978,
                0.6693764864158148,
                3.130995742383112
            ]
        }
    ]
}