{
    "goal": {
        "global_pose": {
            "orientation": {
                "w": 0.005598929693374612,
                "x": 0.007748599140229565,
                "y": 0.7110244013736278,
                "z": -0.7031023480610252
            },
            "position": {
                "x": 0.1141497679147869,
                "y": -0.7141253447532654,
                "z": 0.3711530566215515
            }
        },
        "name": "move_to_auspresseinheit_B"
    },
    "id": "KPIECE_move_to_auspresseinheit_B_59",
    "joint_names": [
        "shoulder_pan_joint",
        "shoulder_lift_joint",
        "elbow_joint",
        "wrist_1_joint",
        "wrist_2_joint",
        "wrist_3_joint"
    ],
    "metrics": {
        "cart_traj_len": 0.5644289461515185,
        "distance_elbow_joint": 0.05971069680699048,
        "distance_shoulder_lift_joint": 0.2949961001397159,
        "distance_shoulder_pan_joint": 0.5783656760232978,
        "distance_wrist_1_joint": 0.3176959965861139,
        "distance_wrist_2_joint": 0.9867458486988532,
        "distance_wrist_3_joint": 0.000318028015020122,
        "smoothness": 2.5376526478085547e-16,
        "time": 0.18027788,
        "traj_len": 1.495938617146436,
        "weighted_distance": 1.8822620029063433
    },
    "planner": "KPIECE",
    "start": {
        "state": {
            "elbow_joint": 2.0193061681459312,
            "shoulder_lift_joint": -1.1220205130644991,
            "shoulder_pan_joint": -1.0952072088045026,
            "wrist_1_joint": -0.8559671810662515,
            "wrist_2_joint": 0.4759638712940361,
            "wrist_3_joint": 3.159081874192446
        }
    },
    "waypoints": [
        {
            "positions": [
                -1.0952072088045026,
                -1.1220205130644991,
                2.0193061681459312,
                -0.8559671810662515,
                0.4759638712940361,
                3.159081874192446
            ]
        },
        {
            "positions": [
                -1.191601488141719,
                -1.1711865297544517,
                2.009354385344766,
                -0.8030178483018992,
                0.640421512743845,
                3.1591348788616163
            ]
        },
        {
            "positions": [
                -1.2879957674789353,
                -1.2203525464444045,
                1.9994026025436011,
                -0.7500685155375468,
                0.8048791541936537,
                3.159187883530786
            ]
        },
        {
            "positions": [
                -1.3843900468161516,
                -1.269518563134357,
                1.9894508197424359,
                -0.6971191827731945,
                0.9693367956434626,
                3.159240888199956
            ]
        },
        {
            "positions": [
                -1.4807843261533677,
                -1.3186845798243096,
                1.9794990369412708,
                -0.6441698500088422,
                1.1337944370932715,
                3.159293892869126
            ]
        },
        {
            "positions": [
                -1.577178605490584,
                -1.3678505965142624,
                1.9695472541401058,
                -0.5912205172444899,
                1.2982520785430804,
                3.1593468975382963
            ]
        },
        {
            "positions": [
                -1.6735728848278004,
                -1.417016613204215,
                1.9595954713389407,
                -0.5382711844801376,
                1.4627097199928893,
                3.159399902207466
            ]
        }
    ]
}