{
    "goal": {
        "global_pose": {
            "orientation": {
                "w": 0.7047431493862688,
                "x": -0.7094548369677653,
                "y": 0.0024358444001904,
                "z": -0.0022348060817251984
            },
            "position": {
                "x": -0.39052492380142206,
                "y": 0.3671506643295288,
                "z": 0.19426114857196808
            }
        },
        "name": "move_to_magneteinheit_D"
    },
    "id": "KPIECE_move_to_magneteinheit_D_21",
    "joint_names": [
        "shoulder_pan_joint",
        "shoulder_lift_joint",
        "elbow_joint",
        "wrist_1_joint",
        "wrist_2_joint",
        "wrist_3_joint"
    ],
    "metrics": {
        "cart_traj_len": 4.880760643463132,
        "distance_elbow_joint": 3.1630016658953837,
        "distance_shoulder_lift_joint": 1.6751703557824535,
        "distance_shoulder_pan_joint": 3.143267915824566,
        "distance_wrist_1_joint": 3.4059440575196493,
        "distance_wrist_2_joint": 1.419520918079753,
        "distance_wrist_3_joint": 3.8123276977428264,
        "smoothness": 0.47160592794085315,
        "time": 0.41965774499999997,
        "traj_len": 4.076669303591429,
        "weighted_distance": 5.391600224602126
    },
    "planner": "KPIECE",
    "start": {
        "state": {
            "elbow_joint": 0.7495348899011911,
            "shoulder_lift_joint": -0.6476975780737668,
            "shoulder_pan_joint": -2.711696901376276,
            "wrist_1_joint": -0.0750647808097303,
            "wrist_2_joint": 0.43296659715458535,
            "wrist_3_joint": 3.1361499051832418
        }
    },
    "waypoints": [
        {
            "positions": [
                -2.711696901376276,
                -0.6476975780737668,
                0.7495348899011911,
                -0.0750647808097303,
                0.43296659715458535,
                3.1361499051832418
            ]
        },
        {
            "positions": [
                -2.787958110214599,
                -0.6733244074125079,
                0.7542535641199537,
                -0.15002056304500488,
                0.3646672169029953,
                3.084069906093513
            ]
        },
        {
            "positions": [
                -2.8642193190529217,
                -0.6989512367512489,
                0.7589722383387164,
                -0.22497634528027943,
                0.29636783665140526,
                3.0319899070037843
            ]
        },
        {
            "positions": [
                -2.818738876348376,
                -0.7767057984180354,
                0.6887100542819572,
                -0.2970849201247433,
                0.23271331534342024,
                3.0664355396181278
            ]
        },
        {
            "positions": [
                -2.77325843364383,
                -0.8544603600848218,
                0.6184478702251979,
                -0.3691934949692071,
                0.16905879403543522,
                3.1008811722324716
            ]
        },
        {
            "positions": [
                -2.727777990939284,
                -0.9322149217516084,
                0.5481856861684387,
                -0.4413020698136709,
                0.1054042727274502,
                3.135326804846815
            ]
        },
        {
            "positions": [
                -2.682297548234738,
                -1.0099694834183948,
                0.47792350211167944,
                -0.5134106446581348,
                0.041749751419465186,
                3.169772437461159
            ]
        },
        {
            "positions": [
                -2.6368171055301923,
                -1.0877240450851813,
                0.40766131805492023,
                -0.5855192195025987,
                -0.02190476988851986,
                3.2042180700755023
            ]
        },
        {
            "positions": [
                -2.5913366628256465,
                -1.1654786067519678,
                0.337399133998161,
                -0.6576277943470624,
                -0.08555929119650485,
                3.238663702689846
            ]
        },
        {
            "positions": [
                -2.5458562201211006,
                -1.243233168418754,
                0.2671369499414018,
                -0.7297363691915263,
                -0.1492138125044899,
                3.2731093353041896
            ]
        },
        {
            "positions": [
                -2.5003757774165547,
                -1.3209877300855406,
                0.19687476588464248,
                -0.8018449440359902,
                -0.21286833381247489,
                3.3075549679185334
            ]
        },
        {
            "positions": [
                -2.454895334712009,
                -1.3987422917523271,
                0.12661258182788326,
                -0.873953518880454,
                -0.27652285512046,
                3.342000600532877
            ]
        },
        {
            "positions": [
                -2.409414892007463,
                -1.4764968534191136,
                0.05635039777112405,
                -0.9460620937249178,
                -0.340177376428445,
                3.3764462331472203
            ]
        },
        {
            "positions": [
                -2.363934449302917,
                -1.5542514150859001,
                -0.01391178628563522,
                -1.0181706685693817,
                -0.4038318977364299,
                3.410891865761564
            ]
        },
        {
            "positions": [
                -2.2543727834454685,
                -1.5868397953344062,
                -0.04110679037048883,
                -0.9400373587478634,
                -0.38012524663489566,
                3.290634444528357
            ]
        },
        {
            "positions": [
                -2.14481111758802,
                -1.6194281755829125,
                -0.06830179445534244,
                -0.8619040489263452,
                -0.3564185955333614,
                3.17037702329515
            ]
        },
        {
            "positions": [
                -2.0352494517305715,
                -1.6520165558314186,
                -0.09549679854019606,
                -0.783770739104827,
                -0.33271194443182717,
                3.050119602061943
            ]
        },
        {
            "positions": [
                -1.9256877858731227,
                -1.6846049360799247,
                -0.12269180262504967,
                -0.7056374292833087,
                -0.30900529333029286,
                2.9298621808287355
            ]
        },
        {
            "positions": [
                -1.816126120015674,
                -1.7171933163284308,
                -0.1498868067099033,
                -0.6275041194617905,
                -0.2852986422287586,
                2.8096047595955285
            ]
        },
        {
            "positions": [
                -1.7065644541582254,
                -1.749781696576937,
                -0.1770818107947569,
                -0.5493708096402724,
                -0.26159199112722437,
                2.6893473383623214
            ]
        },
        {
            "positions": [
                -1.597002788300777,
                -1.7823700768254431,
                -0.20427681487961052,
                -0.4712374998187542,
                -0.23788534002569012,
                2.5690899171291144
            ]
        },
        {
            "positions": [
                -1.4874411224433284,
                -1.8149584570739492,
                -0.23147181896446412,
                -0.39310418999723595,
                -0.21417868892415584,
                2.448832495895907
            ]
        },
        {
            "positions": [
                -1.3778794565858798,
                -1.8475468373224553,
                -0.25866682304931776,
                -0.3149708801757177,
                -0.1904720378226216,
                2.3285750746627
            ]
        },
        {
            "positions": [
                -1.268317790728431,
                -1.8801352175709616,
                -0.28586182713417135,
                -0.2368375703541995,
                -0.16676538672108734,
                2.208317653429493
            ]
        },
        {
            "positions": [
                -1.1587561248709826,
                -1.9127235978194677,
                -0.313056831219025,
                -0.15870426053268127,
                -0.14305873561955307,
                2.088060232196286
            ]
        },
        {
            "positions": [
                -1.049194459013534,
                -1.9453119780679737,
                -0.3402518353038786,
                -0.08057095071116316,
                -0.11935208451801882,
                1.9678028109630787
            ]
        },
        {
            "positions": [
                -0.9396327931560853,
                -1.97790035831648,
                -0.36744683938873224,
                -0.00243764088964471,
                -0.09564543341648452,
                1.8475453897298715
            ]
        },
        {
            "positions": [
                -0.8300711272986367,
                -2.010488738564986,
                -0.39464184347358583,
                0.0756956689318733,
                -0.07193878231495032,
                1.7272879684966644
            ]
        },
        {
            "positions": [
                -0.7205094614411882,
                -2.043077118813492,
                -0.4218368475584395,
                0.15382897875339152,
                -0.04823213121341602,
                1.6070305472634572
            ]
        },
        {
            "positions": [
                -0.6109477955837397,
                -2.0756654990619983,
                -0.449031851643293,
                0.23196228857490975,
                -0.02452548011188177,
                1.4867731260302501
            ]
        },
        {
            "positions": [
                -0.5013861297262909,
                -2.108253879310505,
                -0.47622685572814666,
                0.310095598396428,
                -0.0008188290103475215,
                1.366515704797043
            ]
        },
        {
            "positions": [
                -0.3918244638688424,
                -2.140842259559011,
                -0.5034218598130002,
                0.3882289082179462,
                0.022887822091186727,
                1.246258283563836
            ]
        },
        {
            "positions": [
                -0.28226279801139365,
                -2.173430639807517,
                -0.5306168638978539,
                0.4663622180394644,
                0.04659447319272103,
                1.1260008623306286
            ]
        },
        {
            "positions": [
                -0.17270113215394511,
                -2.206019020056023,
                -0.5578118679827075,
                0.5444955278609827,
                0.07030112429425522,
                1.0057434410974215
            ]
        },
        {
            "positions": [
                -0.06313946629649668,
                -2.238607400304529,
                -0.5850068720675612,
                0.6226288376825009,
                0.0940077753957895,
                0.8854860198642145
            ]
        },
        {
            "positions": [
                -0.0588434127918467,
                -2.2356229630995665,
                -0.7725209190849915,
                0.7037029012309757,
                0.1041366522004307,
                0.7935978143698327
            ]
        },
        {
            "positions": [
                -0.054547359287196714,
                -2.232638525894604,
                -0.9600349661024218,
                0.7847769647794505,
                0.1142655290050719,
                0.7017096088754509
            ]
        },
        {
            "positions": [
                -0.05025130578254673,
                -2.2296540886896414,
                -1.147549013119852,
                0.8658510283279253,
                0.12439440580971312,
                0.6098214033810689
            ]
        },
        {
            "positions": [
                -0.04595525227789675,
                -2.226669651484679,
                -1.3350630601372824,
                0.9469250918764001,
                0.1345232826143543,
                0.5179331978866871
            ]
        },
        {
            "positions": [
                -0.04165919877324677,
                -2.2236852142797168,
                -1.5225771071547127,
                1.0279991554248749,
                0.1446521594189955,
                0.4260449923923053
            ]
        },
        {
            "positions": [
                -0.037363145268596784,
                -2.220700777074754,
                -1.7100911541721429,
                1.1090732189733497,
                0.1547810362236367,
                0.3341567868979234
            ]
        },
        {
            "positions": [
                -0.0330670917639468,
                -2.2177163398697917,
                -1.8976052011895732,
                1.1901472825218244,
                0.16490991302827793,
                0.24226858140354157
            ]
        },
        {
            "positions": [
                -0.02877103825929682,
                -2.214731902664829,
                -2.0851192482070036,
                1.2712213460702992,
                0.17503878983291912,
                0.1503803759091598
            ]
        },
        {
            "positions": [
                -0.106419646936444,
                -2.2449244206208245,
                -2.239855663663073,
                1.3579444236304579,
                0.1769646576426135,
                0.11600325043256735
            ]
        },
        {
            "positions": [
                -0.18406825561359116,
                -2.2751169385768204,
                -2.394592079119142,
                1.4446675011906165,
                0.17889052545230788,
                0.08162612495597489
            ]
        }
    ]
}