{
    "goal": {
        "global_pose": {
            "orientation": {
                "w": 0.005598929693374612,
                "x": 0.007748599140229565,
                "y": 0.7110244013736278,
                "z": -0.7031023480610252
            },
            "position": {
                "x": 0.1141497679147869,
                "y": -0.7141253447532654,
                "z": 0.3711530566215515
            }
        },
        "name": "move_to_auspresseinheit_B"
    },
    "id": "KPIECE_move_to_auspresseinheit_B_24",
    "joint_names": [
        "shoulder_pan_joint",
        "shoulder_lift_joint",
        "elbow_joint",
        "wrist_1_joint",
        "wrist_2_joint",
        "wrist_3_joint"
    ],
    "metrics": {
        "cart_traj_len": 0.5651721023110753,
        "distance_elbow_joint": 0.065910918958338,
        "distance_shoulder_lift_joint": 0.2946788927031154,
        "distance_shoulder_pan_joint": 0.575541709647962,
        "distance_wrist_1_joint": 0.3381603153239391,
        "distance_wrist_2_joint": 1.0038809241460438,
        "distance_wrist_3_joint": 0.007391702965007685,
        "smoothness": 2.5376526478085547e-16,
        "time": 0.560529094,
        "traj_len": 1.5118083422657802,
        "weighted_distance": 1.9085044168522127
    },
    "planner": "KPIECE",
    "start": {
        "state": {
            "elbow_joint": 2.0193061681459312,
            "shoulder_lift_joint": -1.1220205130644991,
            "shoulder_pan_joint": -1.0952072088045026,
            "wrist_1_joint": -0.8559671810662515,
            "wrist_2_joint": 0.4759638712940361,
            "wrist_3_joint": 3.159081874192446
        }
    },
    "waypoints": [
        {
            "positions": [
                -1.0952072088045026,
                -1.1220205130644991,
                2.0193061681459312,
                -0.8559671810662515,
                0.4759638712940361,
                3.159081874192446
            ]
        },
        {
            "positions": [
                -1.191130827079163,
                -1.1711336618483517,
                2.0083210149862083,
                -0.7996071285122617,
                0.6432773586517101,
                3.160313824686614
            ]
        },
        {
            "positions": [
                -1.2870544453538233,
                -1.2202468106322042,
                1.9973358618264851,
                -0.7432470759582718,
                0.810590846009384,
                3.161545775180782
            ]
        },
        {
            "positions": [
                -1.3829780636284836,
                -1.269359959416057,
                1.9863507086667622,
                -0.6868870234042819,
                0.9779043333670581,
                3.1627777256749496
            ]
        },
        {
            "positions": [
                -1.478901681903144,
                -1.3184731081999095,
                1.9753655555070393,
                -0.6305269708502921,
                1.1452178207247319,
                3.1640096761691177
            ]
        },
        {
            "positions": [
                -1.5748253001778043,
                -1.367586256983762,
                1.9643804023473161,
                -0.5741669182963023,
                1.312531308082406,
                3.1652416266632857
            ]
        },
        {
            "positions": [
                -1.6707489184524646,
                -1.4166994057676146,
                1.9533952491875932,
                -0.5178068657423124,
                1.47984479544008,
                3.1664735771574537
            ]
        }
    ]
}