{
    "goal": {
        "global_pose": {
            "orientation": {
                "w": -0.00223480608172531,
                "x": 0.0024358444001904467,
                "y": 0.7094548369677653,
                "z": -0.704743149386269
            },
            "position": {
                "x": -0.37947507619857795,
                "y": -0.6371506643295288,
                "z": 0.19426114857196808
            }
        },
        "name": "move_to_magneteinheit_C"
    },
    "id": "KPIECE_move_to_magneteinheit_C_123",
    "joint_names": [
        "shoulder_pan_joint",
        "shoulder_lift_joint",
        "elbow_joint",
        "wrist_1_joint",
        "wrist_2_joint",
        "wrist_3_joint"
    ],
    "metrics": {
        "cart_traj_len": 1.3051722717713385,
        "distance_elbow_joint": 0.5924378368692509,
        "distance_shoulder_lift_joint": 0.3697032028953924,
        "distance_shoulder_pan_joint": 1.5174634216387444,
        "distance_wrist_1_joint": 0.5268586128689956,
        "distance_wrist_2_joint": 1.3744870782543055,
        "distance_wrist_3_joint": 0.6954374307934343,
        "smoothness": 1.6431382139669748,
        "time": 1.255213087,
        "traj_len": 2.2530840160367127,
        "weighted_distance": 2.892854669012996
    },
    "planner": "KPIECE",
    "start": {
        "state": {
            "elbow_joint": 1.9565354006593851,
            "shoulder_lift_joint": -1.4165861576512813,
            "shoulder_pan_joint": -1.6717766223278752,
            "wrist_1_joint": -0.528663328821883,
            "wrist_2_joint": 1.472756589259273,
            "wrist_3_joint": 3.159348288315503
        }
    },
    "waypoints": [
        {
            "positions": [
                -1.6717766223278752,
                -1.4165861576512813,
                1.9565354006593851,
                -0.528663328821883,
                1.472756589259273,
                3.159348288315503
            ]
        },
        {
            "positions": [
                -1.6197993836061824,
                -1.4235240518583168,
                1.9446341871471962,
                -0.5447575615325875,
                1.4307312105020635,
                3.139652730802151
            ]
        },
        {
            "positions": [
                -1.5433222653414578,
                -1.43616462476239,
                1.8798894045921226,
                -0.5588112102773732,
                1.3486385647508268,
                3.0520497873619195
            ]
        },
        {
            "positions": [
                -1.4668451470767332,
                -1.448805197666463,
                1.815144622037049,
                -0.572864859022159,
                1.2665459189995898,
                2.964446843921688
            ]
        },
        {
            "positions": [
                -1.3903680288120088,
                -1.4614457705705362,
                1.7503998394819758,
                -0.5869185077669448,
                1.1844532732483528,
                2.876843900481456
            ]
        },
        {
            "positions": [
                -1.3138909105472842,
                -1.4740863434746094,
                1.6856550569269022,
                -0.6009721565117305,
                1.102360627497116,
                2.7892409570412244
            ]
        },
        {
            "positions": [
                -1.3999461724003617,
                -1.46218409399372,
                1.7334977829924814,
                -0.6570424151415757,
                0.9833159089304107,
                2.8175275590729822
            ]
        },
        {
            "positions": [
                -1.4860014342534391,
                -1.4502818445128305,
                1.7813405090580603,
                -0.7131126737714208,
                0.8642711903637051,
                2.84581416110474
            ]
        },
        {
            "positions": [
                -1.5720566961065165,
                -1.4383795950319411,
                1.8291832351236392,
                -0.769182932401266,
                0.7452264717969996,
                2.8741007631364974
            ]
        },
        {
            "positions": [
                -1.658111957959594,
                -1.4264773455510518,
                1.8770259611892184,
                -0.8252531910311112,
                0.6261817532302942,
                2.9023873651682552
            ]
        },
        {
            "positions": [
                -1.7441672198126714,
                -1.4145750960701622,
                1.9248686872547975,
                -0.8813234496609563,
                0.5071370346635887,
                2.930673967200013
            ]
        },
        {
            "positions": [
                -1.8302224816657489,
                -1.4026728465892728,
                1.9727114133203765,
                -0.9373937082908015,
                0.3880923160968833,
                2.958960569231771
            ]
        },
        {
            "positions": [
                -1.991034016350671,
                -1.3424754665425909,
                1.9813366975062,
                -0.9078616499407822,
                0.4605480173698622,
                2.997863191063923
            ]
        },
        {
            "positions": [
                -2.1518455510355934,
                -1.282278086495909,
                1.9899619816920233,
                -0.878329591590763,
                0.5330037186428411,
                3.0367658128960757
            ]
        },
        {
            "positions": [
                -2.3126570857205153,
                -1.2220807064492272,
                1.9985872658778467,
                -0.8487975332407436,
                0.60545941991582,
                3.075668434728228
            ]
        },
        {
            "positions": [
                -2.4734686204054377,
                -1.1618833264025452,
                2.00721255006367,
                -0.8192654748907243,
                0.6779151211887988,
                3.11457105656038
            ]
        }
    ]
}