{
    "goal": {
        "global_pose": {
            "orientation": {
                "w": 0.5084816262002911,
                "x": -0.4908360881923452,
                "y": 0.5182115481033761,
                "z": -0.48164630358495003
            },
            "position": {
                "x": 0.5540239810943604,
                "y": -0.46912469901144505,
                "z": 0.16403168439865112
            }
        },
        "name": "move_to_storage_B"
    },
    "id": "KPIECE_move_to_storage_B_105",
    "joint_names": [
        "shoulder_pan_joint",
        "shoulder_lift_joint",
        "elbow_joint",
        "wrist_1_joint",
        "wrist_2_joint",
        "wrist_3_joint"
    ],
    "metrics": {
        "cart_traj_len": 0.9100643804034868,
        "distance_elbow_joint": 0.4579579725252423,
        "distance_shoulder_lift_joint": 0.4640994699271219,
        "distance_shoulder_pan_joint": 0.7079243095639622,
        "distance_wrist_1_joint": 3.737107715855416,
        "distance_wrist_2_joint": 2.704852239394639,
        "distance_wrist_3_joint": 3.159970215906849,
        "smoothness": 0.585755510437647,
        "time": 0.07488442099999999,
        "traj_len": 3.351404470244263,
        "weighted_distance": 4.89834791641396
    },
    "planner": "KPIECE",
    "start": {
        "state": {
            "elbow_joint": 1.6649325340416963,
            "shoulder_lift_joint": -0.6616387945129425,
            "shoulder_pan_joint": -0.9139837929255878,
            "wrist_1_joint": 2.1467571094334352,
            "wrist_2_joint": -2.234195976750228,
            "wrist_3_joint": 0.005470921511140723
        }
    },
    "waypoints": [
        {
            "positions": [
                -0.9139837929255878,
                -0.6616387945129425,
                1.6649325340416963,
                2.1467571094334352,
                -2.234195976750228,
                0.005470921511140723
            ]
        },
        {
            "positions": [
                -0.8928089100192164,
                -0.6591235373512072,
                1.633837298951375,
                2.1510995590311692,
                -2.2252725644433644,
                -0.008660978581846984
            ]
        },
        {
            "positions": [
                -0.8119587575602742,
                -0.6802386385032941,
                1.62615270493992,
                2.2754338534402567,
                -2.214483495613191,
                0.09655030225006364
            ]
        },
        {
            "positions": [
                -0.7311086051013321,
                -0.7013537396553811,
                1.6184681109284649,
                2.3997681478493447,
                -2.2036944267830174,
                0.20176158308197428
            ]
        },
        {
            "positions": [
                -0.65025845264239,
                -0.722468840807468,
                1.61078351691701,
                2.524102442258432,
                -2.192905357952844,
                0.3069728639138849
            ]
        },
        {
            "positions": [
                -0.6673430283839579,
                -0.737785721934742,
                1.6263146305862621,
                2.3948808121418774,
                -2.0904606802375647,
                0.41582688211842833
            ]
        },
        {
            "positions": [
                -0.6844276041255257,
                -0.7531026030620162,
                1.6418457442555143,
                2.265659182025323,
                -1.988016002522286,
                0.5246809003229718
            ]
        },
        {
            "positions": [
                -0.7015121798670936,
                -0.7684194841892902,
                1.6573768579247663,
                2.1364375519087684,
                -1.8855713248070067,
                0.6335349185275152
            ]
        },
        {
            "positions": [
                -0.7185967556086614,
                -0.7837363653165643,
                1.6729079715940185,
                2.0072159217922136,
                -1.7831266470917277,
                0.7423889367320586
            ]
        },
        {
            "positions": [
                -0.7356813313502293,
                -0.7990532464438383,
                1.6884390852632707,
                1.8779942916756593,
                -1.6806819693764488,
                0.8512429549366021
            ]
        },
        {
            "positions": [
                -0.7527659070917971,
                -0.8143701275711124,
                1.7039701989325229,
                1.7487726615591046,
                -1.5782372916611696,
                0.9600969731411455
            ]
        },
        {
            "positions": [
                -0.769850482833365,
                -0.8296870086983865,
                1.719501312601775,
                1.6195510314425503,
                -1.4757926139458908,
                1.068950991345689
            ]
        },
        {
            "positions": [
                -0.786935058574933,
                -0.8450038898256605,
                1.7350324262710273,
                1.4903294013259956,
                -1.3733479362306116,
                1.1778050095502324
            ]
        },
        {
            "positions": [
                -0.8040196343165008,
                -0.8603207709529346,
                1.7505635399402792,
                1.361107771209441,
                -1.2709032585153326,
                1.2866590277547758
            ]
        },
        {
            "positions": [
                -0.8211042100580687,
                -0.8756376520802087,
                1.7660946536095314,
                1.2318861410928863,
                -1.1684585808000534,
                1.3955130459593192
            ]
        },
        {
            "positions": [
                -0.8381887857996365,
                -0.8909545332074827,
                1.7816257672787836,
                1.102664510976332,
                -1.0660139030847746,
                1.5043670641638627
            ]
        },
        {
            "positions": [
                -0.8552733615412044,
                -0.9062714143347569,
                1.7971568809480358,
                0.9734428808597773,
                -0.9635692253694954,
                1.6132210823684061
            ]
        },
        {
            "positions": [
                -0.8723579372827722,
                -0.9215882954620309,
                1.812687994617288,
                0.8442212507432227,
                -0.8611245476542164,
                1.7220751005729495
            ]
        },
        {
            "positions": [
                -0.8894425130243401,
                -0.9369051765893049,
                1.82821910828654,
                0.7149996206266682,
                -0.7586798699389374,
                1.830929118777493
            ]
        },
        {
            "positions": [
                -0.9065270887659079,
                -0.952222057716579,
                1.8437502219557922,
                0.5857779905101137,
                -0.6562351922236584,
                1.9397831369820362
            ]
        },
        {
            "positions": [
                -0.9236116645074759,
                -0.9675389388438531,
                1.8592813356250444,
                0.45655636039355896,
                -0.5537905145083792,
                2.04863715518658
            ]
        },
        {
            "positions": [
                -0.9406962402490437,
                -0.9828558199711273,
                1.8748124492942966,
                0.3273347302770042,
                -0.45134583679310025,
                2.157491173391123
            ]
        },
        {
            "positions": [
                -0.9577808159906116,
                -0.9981727010984013,
                1.8903435629635488,
                0.19811310016044992,
                -0.34890115907782127,
                2.2663451915956667
            ]
        },
        {
            "positions": [
                -0.9748653917321795,
                -1.0134895822256753,
                1.9058746766328007,
                0.06889147004389562,
                -0.24645648136254228,
                2.37519920980021
            ]
        },
        {
            "positions": [
                -0.9919499674737473,
                -1.0288064633529495,
                1.921405790302053,
                -0.06033016007265957,
                -0.14401180364726285,
                2.4840532280047536
            ]
        },
        {
            "positions": [
                -1.0090345432153152,
                -1.0441233444802234,
                1.9369369039713051,
                -0.18955179018921386,
                -0.041567125931984084,
                2.5929072462092972
            ]
        },
        {
            "positions": [
                -1.026119118956883,
                -1.0594402256074975,
                1.9524680176405573,
                -0.31877342030576816,
                0.06087755178329468,
                2.7017612644138405
            ]
        },
        {
            "positions": [
                -1.0432036946984509,
                -1.0747571067347717,
                1.9679991313098095,
                -0.4479950504223229,
                0.1633222294985739,
                2.8106152826183837
            ]
        },
        {
            "positions": [
                -1.0602882704400187,
                -1.0900739878620458,
                1.9835302449790615,
                -0.5772166805388776,
                0.2657669072138531,
                2.9194693008229273
            ]
        },
        {
            "positions": [
                -1.0773728461815866,
                -1.1053908689893197,
                1.9990613586483137,
                -0.7064383106554324,
                0.3682115849291323,
                3.028323319027471
            ]
        },
        {
            "positions": [
                -1.0944574219231544,
                -1.1207077501165938,
                2.014592472317566,
                -0.8356599407719868,
                0.4706562626444112,
                3.137177337232014
            ]
        }
    ]
}