{
    "goal": {
        "global_pose": {
            "orientation": {
                "w": -0.4816463035849501,
                "x": 0.5182115481033762,
                "y": 0.4908360881923453,
                "z": -0.5084816262002911
            },
            "position": {
                "x": -0.8240239810943604,
                "y": -0.300875300988555,
                "z": 0.16403168439865112
            }
        },
        "name": "move_to_storage_C"
    },
    "id": "KPIECE_move_to_storage_C_143",
    "joint_names": [
        "shoulder_pan_joint",
        "shoulder_lift_joint",
        "elbow_joint",
        "wrist_1_joint",
        "wrist_2_joint",
        "wrist_3_joint"
    ],
    "metrics": {
        "cart_traj_len": 0.5771377030739673,
        "distance_elbow_joint": 0.25724486612586106,
        "distance_shoulder_lift_joint": 0.19003355697265134,
        "distance_shoulder_pan_joint": 0.4946215592936545,
        "distance_wrist_1_joint": 0.06708076572614974,
        "distance_wrist_2_joint": 1.0667978332201113,
        "distance_wrist_3_joint": 0.05758396517129771,
        "smoothness": 2.5376526478085547e-16,
        "time": 0.190682725,
        "traj_len": 1.4606034870935116,
        "weighted_distance": 1.8391326966259345
    },
    "planner": "KPIECE",
    "start": {
        "state": {
            "elbow_joint": 2.0108683149792914,
            "shoulder_lift_joint": -1.1634956873317392,
            "shoulder_pan_joint": -2.4736205022346,
            "wrist_1_joint": -0.8367026793690192,
            "wrist_2_joint": 0.6746043897045053,
            "wrist_3_joint": 3.133522094754363
        }
    },
    "waypoints": [
        {
            "positions": [
                -2.4736205022346,
                -1.1634956873317392,
                2.0108683149792914,
                -0.8367026793690192,
                0.6746043897045053,
                3.133522094754363
            ]
        },
        {
            "positions": [
                -2.5560574287835425,
                -1.1318234278362973,
                1.9679941706249813,
                -0.8255225517479943,
                0.8524040285745238,
                3.1431194222829126
            ]
        },
        {
            "positions": [
                -2.638494355332485,
                -1.1001511683408554,
                1.9251200262706711,
                -0.8143424241269693,
                1.0302036674445425,
                3.1527167498114625
            ]
        },
        {
            "positions": [
                -2.7209312818814273,
                -1.0684789088454136,
                1.882245881916361,
                -0.8031622965059444,
                1.208003306314561,
                3.162314077340012
            ]
        },
        {
            "positions": [
                -2.8033682084303697,
                -1.0368066493499717,
                1.8393717375620506,
                -0.7919821688849193,
                1.3858029451845795,
                3.1719114048685615
            ]
        },
        {
            "positions": [
                -2.885805134979312,
                -1.0051343898545297,
                1.7964975932077405,
                -0.7808020412638944,
                1.5636025840545982,
                3.1815087323971114
            ]
        },
        {
            "positions": [
                -2.9682420615282545,
                -0.9734621303590879,
                1.7536234488534304,
                -0.7696219136428695,
                1.7414022229246167,
                3.191106059925661
            ]
        }
    ]
}