{
    "goal": {
        "global_pose": {
            "orientation": {
                "w": 0.005598929693374612,
                "x": 0.007748599140229565,
                "y": 0.7110244013736278,
                "z": -0.7031023480610252
            },
            "position": {
                "x": -0.8858502320852131,
                "y": -0.7141253447532654,
                "z": 0.3711530566215515
            }
        },
        "name": "move_to_auspresseinheit_C"
    },
    "id": "KPIECE_move_to_auspresseinheit_C_106",
    "joint_names": [
        "shoulder_pan_joint",
        "shoulder_lift_joint",
        "elbow_joint",
        "wrist_1_joint",
        "wrist_2_joint",
        "wrist_3_joint"
    ],
    "metrics": {
        "cart_traj_len": 0.49367512893704185,
        "distance_elbow_joint": 1.0162662617771692,
        "distance_shoulder_lift_joint": 0.3324004236128628,
        "distance_shoulder_pan_joint": 0.2557539702523428,
        "distance_wrist_1_joint": 0.7132039312375387,
        "distance_wrist_2_joint": 1.3115878947409865,
        "distance_wrist_3_joint": 0.08780540881152588,
        "smoothness": 8.074349282788172e-16,
        "time": 1.3792360049999999,
        "traj_len": 1.9279569213113725,
        "weighted_distance": 2.43257487737459
    },
    "planner": "KPIECE",
    "start": {
        "state": {
            "elbow_joint": 1.7527959577730765,
            "shoulder_lift_joint": -0.9740617694224828,
            "shoulder_pan_joint": -2.967991417825869,
            "wrist_1_joint": -0.7595177689779385,
            "wrist_2_joint": 1.7443932448376545,
            "wrist_3_joint": 3.1991315425061013
        }
    },
    "waypoints": [
        {
            "positions": [
                -2.967991417825869,
                -0.9740617694224828,
                1.7527959577730765,
                -0.7595177689779385,
                1.7443932448376545,
                3.1991315425061013
            ]
        },
        {
            "positions": [
                -2.9424160208006347,
                -0.9408217270611965,
                1.6511693315953595,
                -0.6881973758541846,
                1.6132344553635558,
                3.190351001624949
            ]
        },
        {
            "positions": [
                -2.9168406237754003,
                -0.9075816846999102,
                1.5495427054176427,
                -0.6168769827304308,
                1.4820756658894572,
                3.1815704607437962
            ]
        },
        {
            "positions": [
                -2.8912652267501664,
                -0.874341642338624,
                1.4479160792399257,
                -0.545556589606677,
                1.3509168764153585,
                3.1727899198626437
            ]
        },
        {
            "positions": [
                -2.865689829724932,
                -0.8411015999773377,
                1.3462894530622087,
                -0.47423619648292303,
                1.2197580869412599,
                3.164009378981491
            ]
        },
        {
            "positions": [
                -2.8401144326996977,
                -0.8078615576160514,
                1.244662826884492,
                -0.40291580335916916,
                1.0885992974671612,
                3.1552288381003386
            ]
        },
        {
            "positions": [
                -2.8145390356744633,
                -0.7746215152547651,
                1.1430362007067751,
                -0.3315954102354153,
                0.9574405079930626,
                3.1464482972191856
            ]
        },
        {
            "positions": [
                -2.788963638649229,
                -0.7413814728934789,
                1.0414095745290581,
                -0.26027501711166146,
                0.826281718518964,
                3.137667756338033
            ]
        },
        {
            "positions": [
                -2.763388241623995,
                -0.7081414305321925,
                0.9397829483513411,
                -0.18895462398790752,
                0.6951229290448653,
                3.1288872154568805
            ]
        },
        {
            "positions": [
                -2.7378128445987606,
                -0.6749013881709063,
                0.8381563221736242,
                -0.11763423086415359,
                0.5639641395707666,
                3.120106674575728
            ]
        },
        {
            "positions": [
                -2.7122374475735263,
                -0.64166134580962,
                0.7365296959959073,
                -0.046313837740399814,
                0.4328053500966679,
                3.1113261336945754
            ]
        }
    ]
}