{
    "goal": {
        "global_pose": {
            "orientation": {
                "w": 0.005598929693374612,
                "x": 0.007748599140229565,
                "y": 0.7110244013736278,
                "z": -0.7031023480610252
            },
            "position": {
                "x": -0.8858502320852131,
                "y": -0.7141253447532654,
                "z": 0.3711530566215515
            }
        },
        "name": "move_to_auspresseinheit_C"
    },
    "id": "KPIECE_move_to_auspresseinheit_C_41",
    "joint_names": [
        "shoulder_pan_joint",
        "shoulder_lift_joint",
        "elbow_joint",
        "wrist_1_joint",
        "wrist_2_joint",
        "wrist_3_joint"
    ],
    "metrics": {
        "cart_traj_len": 0.49423851664264773,
        "distance_elbow_joint": 1.0097980789122551,
        "distance_shoulder_lift_joint": 0.32883341784359477,
        "distance_shoulder_pan_joint": 0.25717263083681674,
        "distance_wrist_1_joint": 0.7039845116247413,
        "distance_wrist_2_joint": 1.3065677705119303,
        "distance_wrist_3_joint": 0.08464271712821425,
        "smoothness": 8.074349282788172e-16,
        "time": 0.289434658,
        "traj_len": 1.9211973159614688,
        "weighted_distance": 2.422980982849567
    },
    "planner": "KPIECE",
    "start": {
        "state": {
            "elbow_joint": 1.7527959577730765,
            "shoulder_lift_joint": -0.9740617694224828,
            "shoulder_pan_joint": -2.967991417825869,
            "wrist_1_joint": -0.7595177689779385,
            "wrist_2_joint": 1.7443932448376545,
            "wrist_3_joint": 3.1991315425061013
        }
    },
    "waypoints": [
        {
            "positions": [
                -2.967991417825869,
                -0.9740617694224828,
                1.7527959577730765,
                -0.7595177689779385,
                1.7443932448376545,
                3.1991315425061013
            ]
        },
        {
            "positions": [
                -2.9422741547421873,
                -0.9411784276381233,
                1.651816149881851,
                -0.6891193178154644,
                1.6137364677864614,
                3.1906672707932797
            ]
        },
        {
            "positions": [
                -2.9165568916585056,
                -0.9082950858537638,
                1.5508363419906255,
                -0.6187208666529903,
                1.4830796907352684,
                3.1822029990804586
            ]
        },
        {
            "positions": [
                -2.890839628574824,
                -0.8754117440694044,
                1.4498565340993999,
                -0.5483224154905162,
                1.3524229136840753,
                3.173738727367637
            ]
        },
        {
            "positions": [
                -2.865122365491142,
                -0.8425284022850449,
                1.3488767262081744,
                -0.477923964328042,
                1.2217661366328825,
                3.165274455654816
            ]
        },
        {
            "positions": [
                -2.8394051024074605,
                -0.8096450605006854,
                1.247896918316949,
                -0.4075255131655679,
                1.0911093595816892,
                3.156810183941994
            ]
        },
        {
            "positions": [
                -2.813687839323779,
                -0.7767617187163259,
                1.1469171104257234,
                -0.3371270620030938,
                0.9604525825304963,
                3.1483459122291726
            ]
        },
        {
            "positions": [
                -2.7879705762400975,
                -0.7438783769319665,
                1.0459373025344978,
                -0.26672861084061966,
                0.8297958054793033,
                3.1398816405163514
            ]
        },
        {
            "positions": [
                -2.7622533131564158,
                -0.710995035147607,
                0.9449574946432724,
                -0.1963301596781455,
                0.6991390284281103,
                3.13141736880353
            ]
        },
        {
            "positions": [
                -2.736536050072734,
                -0.6781116933632475,
                0.8439776867520469,
                -0.12593170851567137,
                0.5684822513769172,
                3.1229530970907087
            ]
        },
        {
            "positions": [
                -2.7108187869890523,
                -0.645228351578888,
                0.7429978788608214,
                -0.05553325735319729,
                0.43782547432572416,
                3.114488825377887
            ]
        }
    ]
}