{
    "goal": {
        "global_pose": {
            "orientation": {
                "w": 0.7047431493862688,
                "x": -0.7094548369677653,
                "y": 0.0024358444001904,
                "z": -0.0022348060817251984
            },
            "position": {
                "x": -0.39052492380142206,
                "y": 0.3671506643295288,
                "z": 0.19426114857196808
            }
        },
        "name": "move_to_magneteinheit_D"
    },
    "id": "KPIECE_move_to_magneteinheit_D_106",
    "joint_names": [
        "shoulder_pan_joint",
        "shoulder_lift_joint",
        "elbow_joint",
        "wrist_1_joint",
        "wrist_2_joint",
        "wrist_3_joint"
    ],
    "metrics": {
        "cart_traj_len": 5.023086798559319,
        "distance_elbow_joint": 3.1128333017413636,
        "distance_shoulder_lift_joint": 1.113590957734779,
        "distance_shoulder_pan_joint": 3.8529596689580994,
        "distance_wrist_1_joint": 2.0996058231813146,
        "distance_wrist_2_joint": 1.8958566409909783,
        "distance_wrist_3_joint": 2.1611237271118005,
        "smoothness": 0.45675872270002776,
        "time": 0.185773501,
        "traj_len": 3.7730584569707286,
        "weighted_distance": 4.749071492209213
    },
    "planner": "KPIECE",
    "start": {
        "state": {
            "elbow_joint": 0.7495348899011911,
            "shoulder_lift_joint": -0.6476975780737668,
            "shoulder_pan_joint": -2.711696901376276,
            "wrist_1_joint": -0.0750647808097303,
            "wrist_2_joint": 0.43296659715458535,
            "wrist_3_joint": 3.1361499051832418
        }
    },
    "waypoints": [
        {
            "positions": [
                -2.711696901376276,
                -0.6476975780737668,
                0.7495348899011911,
                -0.0750647808097303,
                0.43296659715458535,
                3.1361499051832418
            ]
        },
        {
            "positions": [
                -2.780339241409615,
                -0.6461145464049426,
                0.7313536400220731,
                -0.11649558702331061,
                0.5062490574478173,
                3.0189632759177045
            ]
        },
        {
            "positions": [
                -2.848981581442954,
                -0.6445315147361182,
                0.7131723901429551,
                -0.15792639323689095,
                0.5795315177410493,
                2.9017766466521673
            ]
        },
        {
            "positions": [
                -2.917623921476293,
                -0.642948483067294,
                0.6949911402638371,
                -0.19935719945047126,
                0.6528139780342812,
                2.7845900173866296
            ]
        },
        {
            "positions": [
                -2.986266261509632,
                -0.6413654513984697,
                0.6768098903847191,
                -0.24078800566405156,
                0.7260964383275131,
                2.6674033881210923
            ]
        },
        {
            "positions": [
                -3.0549086015429707,
                -0.6397824197296454,
                0.6586286405056011,
                -0.28221881187763187,
                0.7993788986207451,
                2.550216758855555
            ]
        },
        {
            "positions": [
                -2.9273320951584316,
                -0.6689389784789362,
                0.5536324730891975,
                -0.33844692179855074,
                0.7492174669564927,
                2.530562502182161
            ]
        },
        {
            "positions": [
                -2.799755588773892,
                -0.698095537228227,
                0.4486363056727939,
                -0.39467503171946955,
                0.6990560352922403,
                2.5109082455087672
            ]
        },
        {
            "positions": [
                -2.672179082389353,
                -0.7272520959775178,
                0.3436401382563903,
                -0.45090314164038836,
                0.6488946036279879,
                2.491253988835373
            ]
        },
        {
            "positions": [
                -2.544602576004814,
                -0.7564086547268086,
                0.23864397083998667,
                -0.5071312515613072,
                0.5987331719637354,
                2.4715997321619794
            ]
        },
        {
            "positions": [
                -2.4170260696202743,
                -0.7855652134760994,
                0.13364780342358307,
                -0.5633593614822261,
                0.548571740299483,
                2.451945475488585
            ]
        },
        {
            "positions": [
                -2.2894495632357352,
                -0.8147217722253902,
                0.02865163600717946,
                -0.6195874714031449,
                0.49841030863523067,
                2.432291218815191
            ]
        },
        {
            "positions": [
                -2.1618730568511957,
                -0.8438783309746811,
                -0.07634453140922426,
                -0.6758155813240638,
                0.4482488769709782,
                2.4126369621417973
            ]
        },
        {
            "positions": [
                -2.0342965504666566,
                -0.8730348897239718,
                -0.18134069882562776,
                -0.7320436912449826,
                0.39808744530672585,
                2.392982705468403
            ]
        },
        {
            "positions": [
                -1.9067200440821175,
                -0.9021914484732627,
                -0.28633686624203136,
                -0.7882718011659013,
                0.34792601364247344,
                2.3733284487950095
            ]
        },
        {
            "positions": [
                -1.7791435376975782,
                -0.9313480072225535,
                -0.39133303365843497,
                -0.8444999110868202,
                0.297764581978221,
                2.3536741921216153
            ]
        },
        {
            "positions": [
                -1.651567031313039,
                -0.9605045659718443,
                -0.4963292010748387,
                -0.9007280210077391,
                0.24760315031396862,
                2.334019935448221
            ]
        },
        {
            "positions": [
                -1.5239905249285,
                -0.9896611247211351,
                -0.6013253684912422,
                -0.9569561309286578,
                0.19744171864971627,
                2.3143656787748275
            ]
        },
        {
            "positions": [
                -1.3964140185439604,
                -1.018817683470426,
                -0.7063215359076459,
                -1.0131842408495768,
                0.1472802869854638,
                2.2947114221014333
            ]
        },
        {
            "positions": [
                -1.268837512159421,
                -1.0479742422197167,
                -0.8113177033240496,
                -1.0694123507704956,
                0.09711885532121134,
                2.2750571654280396
            ]
        },
        {
            "positions": [
                -1.1412610057748822,
                -1.0771308009690075,
                -0.9163138707404531,
                -1.1256404606914145,
                0.046957423656959096,
                2.2554029087546454
            ]
        },
        {
            "positions": [
                -1.0136844993903429,
                -1.1062873597182983,
                -1.0213100381568565,
                -1.1818685706123333,
                -0.0032040080072933685,
                2.2357486520812513
            ]
        },
        {
            "positions": [
                -0.8861079930058033,
                -1.135443918467589,
                -1.1263062055732602,
                -1.238096680533252,
                -0.05336543967154583,
                2.2160943954078576
            ]
        },
        {
            "positions": [
                -0.7585314866212642,
                -1.1646004772168799,
                -1.231302372989664,
                -1.2943247904541708,
                -0.10352687133579819,
                2.1964401387344634
            ]
        },
        {
            "positions": [
                -0.6309549802367251,
                -1.1937570359661707,
                -1.3362985404060677,
                -1.3505529003750898,
                -0.15368830300005054,
                2.1767858820610697
            ]
        },
        {
            "positions": [
                -0.5033784738521856,
                -1.2229135947154615,
                -1.441294707822471,
                -1.4067810102960085,
                -0.20384973466430312,
                2.1571316253876756
            ]
        },
        {
            "positions": [
                -0.37580196746764694,
                -1.2520701534647523,
                -1.5462908752388747,
                -1.4630091202169273,
                -0.25401116632855536,
                2.1374773687142814
            ]
        },
        {
            "positions": [
                -0.2482254610831074,
                -1.281226712214043,
                -1.6512870426552784,
                -1.5192372301378463,
                -0.3041725979928078,
                2.1178231120408877
            ]
        },
        {
            "positions": [
                -0.12064895469856785,
                -1.3103832709633338,
                -1.756283210071682,
                -1.5754653400587653,
                -0.3543340296570603,
                2.0981688553674935
            ]
        },
        {
            "positions": [
                0.006927551685970812,
                -1.3395398297126246,
                -1.8612793774880854,
                -1.6316934499796838,
                -0.40449546132131253,
                2.0785145986941
            ]
        },
        {
            "positions": [
                0.13450405807051025,
                -1.3686963884619154,
                -1.966275544904489,
                -1.6879215599006028,
                -0.45465689298556494,
                2.0588603420207057
            ]
        },
        {
            "positions": [
                0.10595322026899381,
                -1.4166671700538607,
                -2.016922712596494,
                -1.7471569876003201,
                -0.4299109583159319,
                2.1978520210381713
            ]
        },
        {
            "positions": [
                0.07740238246747738,
                -1.464637951645806,
                -2.0675698802884983,
                -1.8063924153000375,
                -0.40516502364629886,
                2.3368437000556366
            ]
        },
        {
            "positions": [
                0.048851544665960936,
                -1.5126087332377511,
                -2.118217047980503,
                -1.8656278429997548,
                -0.3804190889766658,
                2.4758353790731022
            ]
        },
        {
            "positions": [
                0.020300706864444504,
                -1.5605795148296964,
                -2.1688642156725075,
                -1.9248632706994722,
                -0.3556731543070328,
                2.614827058090568
            ]
        },
        {
            "positions": [
                -0.008250130937071942,
                -1.6085502964216418,
                -2.2195113833645124,
                -1.9840986983991895,
                -0.33092721963739974,
                2.753818737108033
            ]
        },
        {
            "positions": [
                -0.036800968738588374,
                -1.656521078013587,
                -2.2701585510565168,
                -2.043334126098907,
                -0.3061812849677667,
                2.892810416125499
            ]
        },
        {
            "positions": [
                -0.06535180654010482,
                -1.7044918596055323,
                -2.3208057187485216,
                -2.102569553798624,
                -0.28143535029813366,
                3.0318020951429645
            ]
        },
        {
            "positions": [
                -0.1557113899655877,
                -1.7352166292416102,
                -2.35267523856726,
                -2.15664534144294,
                -0.2047950963748258,
                3.114971403263219
            ]
        },
        {
            "positions": [
                -0.18583125110741533,
                -1.745458219120303,
                -2.3632984118401725,
                -2.174670603991045,
                -0.1792483450670565,
                3.14269450596997
            ]
        }
    ]
}