{
    "goal": {
        "global_pose": {
            "orientation": {
                "w": -0.00223480608172531,
                "x": 0.0024358444001904467,
                "y": 0.7094548369677653,
                "z": -0.704743149386269
            },
            "position": {
                "x": 0.6205249238014221,
                "y": -0.6371506643295288,
                "z": 0.19426114857196808
            }
        },
        "name": "move_to_magneteinheit_B"
    },
    "id": "KPIECE_move_to_magneteinheit_B_83",
    "joint_names": [
        "shoulder_pan_joint",
        "shoulder_lift_joint",
        "elbow_joint",
        "wrist_1_joint",
        "wrist_2_joint",
        "wrist_3_joint"
    ],
    "metrics": {
        "cart_traj_len": 3.63440489451988,
        "distance_elbow_joint": 4.254090831049009,
        "distance_shoulder_lift_joint": 0.8331705881797726,
        "distance_shoulder_pan_joint": 2.2702006901172904,
        "distance_wrist_1_joint": 2.383217204787821,
        "distance_wrist_2_joint": 1.244691665441696,
        "distance_wrist_3_joint": 2.717713457070863,
        "smoothness": 0.5873344860868819,
        "time": 0.7068763770000001,
        "traj_len": 3.7017677448276594,
        "weighted_distance": 4.771417003471579
    },
    "planner": "KPIECE",
    "start": {
        "state": {
            "elbow_joint": 2.393587130804639,
            "shoulder_lift_joint": -1.9085141043513325,
            "shoulder_pan_joint": 0.7066247066698809,
            "wrist_1_joint": -0.4678290934590222,
            "wrist_2_joint": 0.7096259084215963,
            "wrist_3_joint": 3.147370379541726
        }
    },
    "waypoints": [
        {
            "positions": [
                0.7066247066698809,
                -1.9085141043513325,
                2.393587130804639,
                -0.4678290934590222,
                0.7096259084215963,
                3.147370379541726
            ]
        },
        {
            "positions": [
                0.7630252261222574,
                -1.9507498157267265,
                2.3795496049092995,
                -0.366088095562778,
                0.627291236704704,
                3.1535078481689505
            ]
        },
        {
            "positions": [
                0.8194257455746341,
                -1.9929855271021204,
                2.3655120790139597,
                -0.26434709766653375,
                0.5449565649878116,
                3.1596453167961753
            ]
        },
        {
            "positions": [
                0.8934747765911031,
                -1.9827197996109278,
                2.219085581894539,
                -0.33966323992925096,
                0.5066558051163118,
                3.1091979377253707
            ]
        },
        {
            "positions": [
                0.9675238076075721,
                -1.9724540721197352,
                2.072659084775118,
                -0.41497938219196817,
                0.4683550452448119,
                3.058750558654566
            ]
        },
        {
            "positions": [
                1.041572838624041,
                -1.9621883446285426,
                1.9262325876556972,
                -0.49029552445468544,
                0.43005428537331203,
                3.008303179583761
            ]
        },
        {
            "positions": [
                1.11562186964051,
                -1.95192261713735,
                1.7798060905362763,
                -0.5656116667174027,
                0.3917535255018122,
                2.9578558005129563
            ]
        },
        {
            "positions": [
                1.189670900656979,
                -1.9416568896461575,
                1.6333795934168553,
                -0.6409278089801198,
                0.35345276563031236,
                2.9074084214421516
            ]
        },
        {
            "positions": [
                1.263719931673448,
                -1.9313911621549649,
                1.4869530962974347,
                -0.7162439512428371,
                0.31515200575881247,
                2.856961042371347
            ]
        },
        {
            "positions": [
                1.337768962689917,
                -1.9211254346637723,
                1.3405265991780138,
                -0.7915600935055543,
                0.27685124588731264,
                2.8065136633005423
            ]
        },
        {
            "positions": [
                1.411817993706386,
                -1.9108597071725797,
                1.1941001020585928,
                -0.8668762357682716,
                0.23855048601581275,
                2.756066284229737
            ]
        },
        {
            "positions": [
                1.485867024722855,
                -1.900593979681387,
                1.047673604939172,
                -0.9421923780309888,
                0.2002497261443129,
                2.7056189051589326
            ]
        },
        {
            "positions": [
                1.559916055739324,
                -1.8903282521901945,
                0.901247107819751,
                -1.017508520293706,
                0.16194896627281302,
                2.655171526088128
            ]
        },
        {
            "positions": [
                1.6339650867557929,
                -1.880062524699002,
                0.7548206107003301,
                -1.0928246625564233,
                0.12364820640131319,
                2.6047241470173232
            ]
        },
        {
            "positions": [
                1.7080141177722619,
                -1.8697967972078096,
                0.6083941135809094,
                -1.1681408048191404,
                0.0853474465298133,
                2.5542767679465186
            ]
        },
        {
            "positions": [
                1.7820631487887308,
                -1.859531069716617,
                0.46196761646148854,
                -1.2434569470818577,
                0.047046686658313464,
                2.5038293888757135
            ]
        },
        {
            "positions": [
                1.8561121798051998,
                -1.8492653422254244,
                0.31554111934206786,
                -1.318773089344575,
                0.00874592678681363,
                2.453382009804909
            ]
        },
        {
            "positions": [
                1.930161210821669,
                -1.8389996147342318,
                0.16911462222264673,
                -1.3940892316072921,
                -0.029554833084686316,
                2.402934630734104
            ]
        },
        {
            "positions": [
                2.0042102418381376,
                -1.8287338872430392,
                0.022688125103226042,
                -1.4694053738700092,
                -0.06785559295618615,
                2.3524872516632995
            ]
        },
        {
            "positions": [
                2.078259272854607,
                -1.8184681597518466,
                -0.12373837201619509,
                -1.5447215161327268,
                -0.1061563528276861,
                2.302039872592495
            ]
        },
        {
            "positions": [
                2.1523083038710755,
                -1.808202432260654,
                -0.27016486913561577,
                -1.620037658395444,
                -0.14445711269918582,
                2.2515924935216898
            ]
        },
        {
            "positions": [
                2.226357334887545,
                -1.7979367047694614,
                -0.4165913662550369,
                -1.695353800658161,
                -0.18275787257068576,
                2.201145114450885
            ]
        },
        {
            "positions": [
                2.3004063659040135,
                -1.7876709772782688,
                -0.5630178633744576,
                -1.770669942920878,
                -0.2210586324421856,
                2.1506977353800805
            ]
        },
        {
            "positions": [
                2.374455396920483,
                -1.7774052497870763,
                -0.7094443604938787,
                -1.8459860851835956,
                -0.25935939231368554,
                2.1002503563092754
            ]
        },
        {
            "positions": [
                2.4485044279369514,
                -1.7671395222958837,
                -0.8558708576132994,
                -1.9213022274463127,
                -0.29766015218518527,
                2.049802977238471
            ]
        },
        {
            "positions": [
                2.522553458953421,
                -1.756873794804691,
                -1.00229735473272,
                -1.9966183697090303,
                -0.3359609120566852,
                1.9993555981676663
            ]
        },
        {
            "positions": [
                2.5966024899698894,
                -1.7466080673134985,
                -1.1487238518521408,
                -2.0719345119717474,
                -0.37426167192818505,
                1.9489082190968616
            ]
        },
        {
            "positions": [
                2.670651520986359,
                -1.736342339822306,
                -1.295150348971562,
                -2.1472506542344645,
                -0.412562431799685,
                1.8984608400260568
            ]
        },
        {
            "positions": [
                2.7447005520028274,
                -1.7260766123311133,
                -1.4415768460909826,
                -2.2225667964971816,
                -0.4508631916711847,
                1.848013460955252
            ]
        },
        {
            "positions": [
                2.818749583019297,
                -1.7158108848399207,
                -1.588003343210404,
                -2.297882938759899,
                -0.48916395154268455,
                1.7975660818844472
            ]
        },
        {
            "positions": [
                2.781616049959416,
                -1.7771918723591495,
                -1.6441218465079304,
                -2.298113449785038,
                -0.4778317518493051,
                1.9756778846210097
            ]
        },
        {
            "positions": [
                2.744482516899535,
                -1.8385728598783786,
                -1.7002403498054566,
                -2.2983439608101768,
                -0.46649955215592565,
                2.153789687357572
            ]
        },
        {
            "positions": [
                2.707348983839654,
                -1.8999538473976074,
                -1.756358853102983,
                -2.2985744718353156,
                -0.4551673524625462,
                2.3319014900941344
            ]
        },
        {
            "positions": [
                2.6956801801925963,
                -1.971799237549882,
                -1.7303226413176358,
                -2.3349514305419534,
                -0.45814365406186547,
                2.534157459267884
            ]
        },
        {
            "positions": [
                2.6840113765455382,
                -2.0436446277021565,
                -1.7042864295322886,
                -2.371328389248591,
                -0.46111995566118474,
                2.736413428441634
            ]
        },
        {
            "positions": [
                2.67234257289848,
                -2.115490017854431,
                -1.6782502177469414,
                -2.4077053479552286,
                -0.464096257260504,
                2.9386693976153833
            ]
        },
        {
            "positions": [
                2.6606737692514226,
                -2.187335408006706,
                -1.6522140059615942,
                -2.4440823066618664,
                -0.4670725588598233,
                3.140925366789133
            ]
        }
    ]
}