{
    "goal": {
        "global_pose": {
            "orientation": {
                "w": -0.00223480608172531,
                "x": 0.0024358444001904467,
                "y": 0.7094548369677653,
                "z": -0.704743149386269
            },
            "position": {
                "x": -0.37947507619857795,
                "y": -0.6371506643295288,
                "z": 0.19426114857196808
            }
        },
        "name": "move_to_magneteinheit_C"
    },
    "id": "KPIECE_move_to_magneteinheit_C_35",
    "joint_names": [
        "shoulder_pan_joint",
        "shoulder_lift_joint",
        "elbow_joint",
        "wrist_1_joint",
        "wrist_2_joint",
        "wrist_3_joint"
    ],
    "metrics": {
        "cart_traj_len": 2.459080220595723,
        "distance_elbow_joint": 2.868224516398819,
        "distance_shoulder_lift_joint": 0.6805784054579878,
        "distance_shoulder_pan_joint": 2.1042135695911908,
        "distance_wrist_1_joint": 2.115370347776348,
        "distance_wrist_2_joint": 2.6983112232339135,
        "distance_wrist_3_joint": 4.936115113121025,
        "smoothness": 1.2496197609902606,
        "time": 0.737533163,
        "traj_len": 3.924641789460445,
        "weighted_distance": 5.485319040204642
    },
    "planner": "KPIECE",
    "start": {
        "state": {
            "elbow_joint": 1.9565354006593851,
            "shoulder_lift_joint": -1.4165861576512813,
            "shoulder_pan_joint": -1.6717766223278752,
            "wrist_1_joint": -0.528663328821883,
            "wrist_2_joint": 1.472756589259273,
            "wrist_3_joint": 3.159348288315503
        }
    },
    "waypoints": [
        {
            "positions": [
                -1.6717766223278752,
                -1.4165861576512813,
                1.9565354006593851,
                -0.528663328821883,
                1.472756589259273,
                3.159348288315503
            ]
        },
        {
            "positions": [
                -1.6491501903140622,
                -1.5613150131359814,
                1.9206410261073656,
                -0.6166805865751096,
                1.504637611021202,
                3.1947384838795485
            ]
        },
        {
            "positions": [
                -1.5358788764542775,
                -1.5299423475998692,
                1.904774073723238,
                -0.6167994511214732,
                1.4957247932248683,
                3.0868803983949835
            ]
        },
        {
            "positions": [
                -1.4226075625944927,
                -1.4985696820637573,
                1.8889071213391102,
                -0.6169183156678368,
                1.4868119754285345,
                2.979022312910418
            ]
        },
        {
            "positions": [
                -1.309336248734708,
                -1.4671970165276451,
                1.8730401689549825,
                -0.6170371802142004,
                1.4778991576322007,
                2.871164227425853
            ]
        },
        {
            "positions": [
                -1.3312646001985937,
                -1.4589470116260328,
                1.8066298066868094,
                -0.5667837858169095,
                1.389750242299239,
                2.7268549632272934
            ]
        },
        {
            "positions": [
                -1.3531929516624794,
                -1.4506970067244203,
                1.7402194444186363,
                -0.5165303914196184,
                1.3016013269662774,
                2.5825456990287337
            ]
        },
        {
            "positions": [
                -1.3751213031263652,
                -1.442447001822808,
                1.673809082150463,
                -0.4662769970223275,
                1.2134524116333156,
                2.438236434830174
            ]
        },
        {
            "positions": [
                -1.3970496545902509,
                -1.4341969969211954,
                1.6073987198822899,
                -0.4160236026250365,
                1.1253034963003539,
                2.293927170631614
            ]
        },
        {
            "positions": [
                -1.4189780060541366,
                -1.425946992019583,
                1.5409883576141168,
                -0.36577020822774553,
                1.0371545809673923,
                2.1496179064330545
            ]
        },
        {
            "positions": [
                -1.4409063575180223,
                -1.4176969871179708,
                1.4745779953459435,
                -0.31551681383045455,
                0.9490056656344307,
                2.005308642234495
            ]
        },
        {
            "positions": [
                -1.4628347089819083,
                -1.4094469822163582,
                1.4081676330777704,
                -0.26526341943316356,
                0.860856750301469,
                1.860999378035935
            ]
        },
        {
            "positions": [
                -1.4847630604457938,
                -1.401196977314746,
                1.3417572708095973,
                -0.21501002503587263,
                0.7727078349685073,
                1.7166901138373754
            ]
        },
        {
            "positions": [
                -1.5066914119096797,
                -1.3929469724131334,
                1.2753469085414242,
                -0.16475663063858165,
                0.6845589196355456,
                1.5723808496388156
            ]
        },
        {
            "positions": [
                -1.5286197633735654,
                -1.384696967511521,
                1.208936546273251,
                -0.11450323624129066,
                0.596410004302584,
                1.428071585440256
            ]
        },
        {
            "positions": [
                -1.5505481148374511,
                -1.3764469626099087,
                1.142526184005078,
                -0.06424984184399973,
                0.5082610889696223,
                1.2837623212416964
            ]
        },
        {
            "positions": [
                -1.5724764663013369,
                -1.3681969577082962,
                1.0761158217369045,
                -0.013996447446708693,
                0.42011217363666065,
                1.1394530570431365
            ]
        },
        {
            "positions": [
                -1.5944048177652226,
                -1.3599469528066839,
                1.0097054594687314,
                0.036256946950582236,
                0.3319632583036989,
                0.9951437928445768
            ]
        },
        {
            "positions": [
                -1.6163331692291083,
                -1.3516969479050713,
                0.9432950972005583,
                0.08651034134787328,
                0.24381434297073734,
                0.850834528646017
            ]
        },
        {
            "positions": [
                -1.638261520692994,
                -1.343446943003459,
                0.8768847349323852,
                0.13676373574516426,
                0.1556654276377757,
                0.7065252644474576
            ]
        },
        {
            "positions": [
                -1.7496315938578575,
                -1.3403151364523855,
                0.9964884737069148,
                0.17563753028509776,
                0.13745945550539876,
                0.805521127643905
            ]
        },
        {
            "positions": [
                -1.8610016670227212,
                -1.337183329901312,
                1.1160922124814445,
                0.21451132482503124,
                0.11925348337302184,
                0.9045169908403525
            ]
        },
        {
            "positions": [
                -1.9723717401875849,
                -1.3340515233502388,
                1.235695951255974,
                0.2533851193649647,
                0.10104751124064493,
                1.0035128540368001
            ]
        },
        {
            "positions": [
                -2.0837418133524483,
                -1.3309197167991653,
                1.3552996900305037,
                0.2922589139048982,
                0.082841539108268,
                1.1025087172332475
            ]
        },
        {
            "positions": [
                -2.136529324135339,
                -1.3250838241560638,
                1.4462562237459526,
                0.26195307063257606,
                0.11365721925035542,
                1.2393140637165545
            ]
        },
        {
            "positions": [
                -2.189316834918229,
                -1.3192479315129624,
                1.5372127574614018,
                0.2316472273602539,
                0.14447289939244284,
                1.3761194101998617
            ]
        },
        {
            "positions": [
                -2.2421043457011196,
                -1.313412038869861,
                1.6281692911768508,
                0.20134138408793173,
                0.17528857953453028,
                1.512924756683169
            ]
        },
        {
            "positions": [
                -2.2948918564840097,
                -1.3075761462267592,
                1.7191258248922998,
                0.1710355408156096,
                0.20610425967661772,
                1.649730103166476
            ]
        },
        {
            "positions": [
                -2.3476793672669003,
                -1.3017402535836577,
                1.810082358607749,
                0.14072969754328743,
                0.23691993981870516,
                1.7865354496497832
            ]
        },
        {
            "positions": [
                -2.4004668780497904,
                -1.2959043609405563,
                1.9010388923231982,
                0.11042385427096527,
                0.26773561996079254,
                1.9233407961330902
            ]
        },
        {
            "positions": [
                -2.453254388832681,
                -1.2900684682974548,
                1.9919954260386472,
                0.0801180109986431,
                0.29855130010288,
                2.0601461426163974
            ]
        },
        {
            "positions": [
                -2.5048567303848976,
                -1.3014585991640595,
                1.9370481011392944,
                0.019206102887387493,
                0.24352331513152736,
                2.1924971419003425
            ]
        },
        {
            "positions": [
                -2.5564590719371147,
                -1.312848730030664,
                1.8821007762399418,
                -0.04170580522386812,
                0.18849533016017472,
                2.324848141184287
            ]
        },
        {
            "positions": [
                -2.6080614134893314,
                -1.3242388608972684,
                1.827153451340589,
                -0.10261771333512373,
                0.13346734518882206,
                2.4571991404682323
            ]
        },
        {
            "positions": [
                -2.659663755041548,
                -1.335628991763873,
                1.772206126441236,
                -0.16352962144637934,
                0.07843936021746942,
                2.589550139752177
            ]
        },
        {
            "positions": [
                -2.711266096593765,
                -1.3470191226304777,
                1.7172588015418833,
                -0.224441529557635,
                0.02341137524611675,
                2.721901139036122
            ]
        },
        {
            "positions": [
                -2.762868438145982,
                -1.3584092534970822,
                1.6623114766425306,
                -0.28535343766889054,
                -0.03161660972523589,
                2.854252138320067
            ]
        },
        {
            "positions": [
                -2.7148282703815236,
                -1.3256988835078933,
                1.7196080116707706,
                -0.3753681127840809,
                0.08484280006415125,
                2.898382942362113
            ]
        },
        {
            "positions": [
                -2.6667881026170654,
                -1.2929885135187043,
                1.7769045466990105,
                -0.4653827878992713,
                0.2013022098535384,
                2.942513746404159
            ]
        },
        {
            "positions": [
                -2.618747934852607,
                -1.2602781435295154,
                1.8342010817272505,
                -0.5553974630144617,
                0.31776161964292554,
                2.986644550446205
            ]
        },
        {
            "positions": [
                -2.5707077670881486,
                -1.2275677735403265,
                1.8914976167554904,
                -0.645412138129652,
                0.43422102943231267,
                3.030775354488251
            ]
        },
        {
            "positions": [
                -2.5226675993236904,
                -1.1948574035511375,
                1.9487941517837304,
                -0.7354268132448425,
                0.5506804392217,
                3.074906158530297
            ]
        },
        {
            "positions": [
                -2.4746274315592323,
                -1.1621470335619486,
                2.0060906868119703,
                -0.8254414883600328,
                0.6671398490110869,
                3.1190369625723426
            ]
        }
    ]
}