{
    "goal": {
        "global_pose": {
            "orientation": {
                "w": 0.7047431468963623,
                "x": -0.7094548344612122,
                "y": 0.0024358443915843964,
                "z": -0.0022348060738295317
            },
            "position": {
                "x": 0.6094750761985779,
                "y": 0.3671506643295288,
                "z": 0.19426114857196808
            }
        },
        "name": "move_to_magneteinheit_A"
    },
    "id": "KPIECE_move_to_magneteinheit_A_17",
    "joint_names": [
        "shoulder_pan_joint",
        "shoulder_lift_joint",
        "elbow_joint",
        "wrist_1_joint",
        "wrist_2_joint",
        "wrist_3_joint"
    ],
    "metrics": {
        "cart_traj_len": 1.5937012144303604,
        "distance_elbow_joint": 3.5514197867764175,
        "distance_shoulder_lift_joint": 1.1477636244495037,
        "distance_shoulder_pan_joint": 1.2418967182840182,
        "distance_wrist_1_joint": 3.9493548578792157,
        "distance_wrist_2_joint": 1.6950256399807129,
        "distance_wrist_3_joint": 5.1320175212228065,
        "smoothness": 5.853903230446514e-16,
        "time": 0.08273704900000001,
        "traj_len": 4.088701278962879,
        "weighted_distance": 5.7119080602630685
    },
    "planner": "KPIECE",
    "start": {
        "state": {
            "elbow_joint": -1.5739458827952972,
            "shoulder_lift_joint": 0.006533473998580023,
            "shoulder_pan_joint": -1.1188671628667068,
            "wrist_1_joint": 3.138208179676308,
            "wrist_2_joint": -1.5706037135050406,
            "wrist_3_joint": -2.0226958329764257
        }
    },
    "waypoints": [
        {
            "positions": [
                -1.1188671628667068,
                0.006533473998580023,
                -1.5739458827952972,
                3.138208179676308,
                -1.5706037135050406,
                -2.0226958329764257
            ]
        },
        {
            "positions": [
                -1.089985843836846,
                -0.02015870331419914,
                -1.4913547249632875,
                3.0463627178651635,
                -1.5311845125752566,
                -1.9033465882968257
            ]
        },
        {
            "positions": [
                -1.061104524806985,
                -0.0468508806269783,
                -1.408763567131278,
                2.954517256054019,
                -1.4917653116454725,
                -1.7839973436172254
            ]
        },
        {
            "positions": [
                -1.0322232057771241,
                -0.07354305793975746,
                -1.3261724092992682,
                2.8626717942428743,
                -1.4523461107156885,
                -1.6646480989376253
            ]
        },
        {
            "positions": [
                -1.0033418867472632,
                -0.10023523525253662,
                -1.2435812514672584,
                2.77082633243173,
                -1.4129269097859045,
                -1.545298854258025
            ]
        },
        {
            "positions": [
                -0.9744605677174024,
                -0.12692741256531578,
                -1.1609900936352486,
                2.6789808706205855,
                -1.3735077088561205,
                -1.425949609578425
            ]
        },
        {
            "positions": [
                -0.9455792486875415,
                -0.15361958987809493,
                -1.0783989358032389,
                2.587135408809441,
                -1.3340885079263365,
                -1.306600364898825
            ]
        },
        {
            "positions": [
                -0.9166979296576806,
                -0.1803117671908741,
                -0.9958077779712292,
                2.4952899469982963,
                -1.2946693069965525,
                -1.1872511202192246
            ]
        },
        {
            "positions": [
                -0.8878166106278198,
                -0.20700394450365325,
                -0.9132166201392196,
                2.4034444851871517,
                -1.2552501060667685,
                -1.0679018755396246
            ]
        },
        {
            "positions": [
                -0.8589352915979589,
                -0.23369612181643243,
                -0.8306254623072098,
                2.311599023376007,
                -1.2158309051369844,
                -0.9485526308600243
            ]
        },
        {
            "positions": [
                -0.830053972568098,
                -0.26038829912921163,
                -0.7480343044752001,
                2.219753561564863,
                -1.1764117042072004,
                -0.8292033861804242
            ]
        },
        {
            "positions": [
                -0.8011726535382371,
                -0.2870804764419908,
                -0.6654431466431904,
                2.127908099753718,
                -1.1369925032774164,
                -0.7098541415008239
            ]
        },
        {
            "positions": [
                -0.7722913345083762,
                -0.3137726537547699,
                -0.5828519888111807,
                2.0360626379425737,
                -1.0975733023476324,
                -0.5905048968212239
            ]
        },
        {
            "positions": [
                -0.7434100154785153,
                -0.3404648310675491,
                -0.5002608309791712,
                1.944217176131429,
                -1.0581541014178484,
                -0.4711556521416238
            ]
        },
        {
            "positions": [
                -0.7145286964486544,
                -0.3671570083803283,
                -0.4176696731471612,
                1.8523717143202842,
                -1.0187349004880644,
                -0.3518064074620235
            ]
        },
        {
            "positions": [
                -0.6856473774187934,
                -0.39384918569310745,
                -0.33507851531515165,
                1.7605262525091399,
                -0.9793156995582802,
                -0.23245716278242345
            ]
        },
        {
            "positions": [
                -0.6567660583889326,
                -0.42054136300588657,
                -0.2524873574831419,
                1.6686807906979955,
                -0.9398964986284962,
                -0.11310791810282339
            ]
        },
        {
            "positions": [
                -0.6278847393590719,
                -0.44723354031866575,
                -0.16989619965113234,
                1.5768353288868509,
                -0.9004772976987123,
                0.0062413265767768955
            ]
        },
        {
            "positions": [
                -0.5990034203292108,
                -0.4739257176314449,
                -0.08730504181912235,
                1.4849898670757062,
                -0.8610580967689282,
                0.12559057125637718
            ]
        },
        {
            "positions": [
                -0.5701221012993499,
                -0.500617894944224,
                -0.00471388398711281,
                1.3931444052645616,
                -0.8216388958391442,
                0.24493981593597702
            ]
        },
        {
            "positions": [
                -0.5412407822694891,
                -0.5273100722570032,
                0.07787727384489695,
                1.3012989434534172,
                -0.7822196949093602,
                0.3642890606155773
            ]
        },
        {
            "positions": [
                -0.5123594632396282,
                -0.5540022495697823,
                0.1604684316769065,
                1.2094534816422726,
                -0.7428004939795761,
                0.48363830529517715
            ]
        },
        {
            "positions": [
                -0.4834781442097673,
                -0.5806944268825616,
                0.24305958950891648,
                1.117608019831128,
                -0.7033812930497921,
                0.6029875499747779
            ]
        },
        {
            "positions": [
                -0.4545968251799065,
                -0.6073866041953406,
                0.3256507473409258,
                1.0257625580199838,
                -0.6639620921200082,
                0.7223367946543773
            ]
        },
        {
            "positions": [
                -0.4257155061500456,
                -0.6340787815081198,
                0.4082419051729358,
                0.9339170962088388,
                -0.6245428911902241,
                0.841686039333978
            ]
        },
        {
            "positions": [
                -0.3968341871201846,
                -0.660770958820899,
                0.4908330630049458,
                0.8420716343976942,
                -0.58512369026044,
                0.9610352840135783
            ]
        },
        {
            "positions": [
                -0.3679528680903238,
                -0.6874631361336782,
                0.5734242208369549,
                0.75022617258655,
                -0.5457044893306562,
                1.0803845286931781
            ]
        },
        {
            "positions": [
                -0.3390715490604629,
                -0.7141553134464573,
                0.6560153786689649,
                0.6583807107754054,
                -0.506285288400872,
                1.1997337733727784
            ]
        },
        {
            "positions": [
                -0.310190230030602,
                -0.7408474907592365,
                0.7386065365009749,
                0.5665352489642603,
                -0.46686608747108793,
                1.3190830180523787
            ]
        },
        {
            "positions": [
                -0.2813089110007412,
                -0.7675396680720156,
                0.8211976943329844,
                0.47468978715311616,
                -0.42744688654130414,
                1.4384322627319786
            ]
        },
        {
            "positions": [
                -0.25242759197088016,
                -0.7942318453847949,
                0.9037888521649939,
                0.38284432534197155,
                -0.3880276856115199,
                1.5577815074115788
            ]
        },
        {
            "positions": [
                -0.22354627294101936,
                -0.8209240226975739,
                0.9863800099970035,
                0.2909988635308274,
                -0.3486084846817361,
                1.6771307520911787
            ]
        },
        {
            "positions": [
                -0.19466495391115846,
                -0.8476162000103531,
                1.0689711678290135,
                0.19915340171968277,
                -0.30918928375195187,
                1.796479996770779
            ]
        },
        {
            "positions": [
                -0.16578363488129755,
                -0.8743083773231323,
                1.1515623256610235,
                0.10730793990853771,
                -0.26977008282216786,
                1.9158292414503793
            ]
        },
        {
            "positions": [
                -0.13690231585143675,
                -0.9010005546359114,
                1.2341534834930326,
                0.01546247809739354,
                -0.23035088189238406,
                2.0351784861299795
            ]
        },
        {
            "positions": [
                -0.10802099682157573,
                -0.9276927319486906,
                1.3167446413250425,
                -0.07638298371375107,
                -0.19093168096259983,
                2.1545277308095794
            ]
        },
        {
            "positions": [
                -0.07913967779171482,
                -0.9543849092614698,
                1.3993357991570525,
                -0.1682284455248957,
                -0.1515124800328158,
                2.27387697548918
            ]
        },
        {
            "positions": [
                -0.05025835876185414,
                -0.9810770865742489,
                1.481926956989062,
                -0.2600739073360403,
                -0.1120932791030318,
                2.39322622016878
            ]
        },
        {
            "positions": [
                -0.02137703973199301,
                -1.0077692638870281,
                1.5645181148210716,
                -0.3519193691471849,
                -0.07267407817324778,
                2.51257546484838
            ]
        },
        {
            "positions": [
                0.0075042792978676776,
                -1.0344614411998072,
                1.6471092726530812,
                -0.4437648309583291,
                -0.03325487724346399,
                2.6319247095279796
            ]
        },
        {
            "positions": [
                0.036385598327728585,
                -1.0611536185125865,
                1.7297004304850911,
                -0.5356102927694737,
                0.00616432368632025,
                2.7512739542075804
            ]
        },
        {
            "positions": [
                0.0652669173575895,
                -1.0878457958253656,
                1.8122915883171007,
                -0.6274557545806188,
                0.045583524616104265,
                2.87062319888718
            ]
        },
        {
            "positions": [
                0.0941482363874504,
                -1.1145379731381446,
                1.8948827461491102,
                -0.7193012163917629,
                0.08500272554588828,
                2.98997244356678
            ]
        },
        {
            "positions": [
                0.12302955541731123,
                -1.141230150450924,
                1.9774739039811204,
                -0.8111466782029074,
                0.12442192647567235,
                3.1093216882463808
            ]
        }
    ]
}