{
    "goal": {
        "global_pose": {
            "orientation": {
                "w": 0.7031023480610252,
                "x": -0.7110244013736278,
                "y": 0.0077485991402295624,
                "z": 0.005598929693374583
            },
            "position": {
                "x": -0.8841497679147869,
                "y": 0.44412534475326537,
                "z": 0.3711530566215515
            }
        },
        "name": "move_to_auspresseinheit_D"
    },
    "id": "KPIECE_move_to_auspresseinheit_D_89",
    "joint_names": [
        "shoulder_pan_joint",
        "shoulder_lift_joint",
        "elbow_joint",
        "wrist_1_joint",
        "wrist_2_joint",
        "wrist_3_joint"
    ],
    "metrics": {
        "cart_traj_len": 0.34266880229076485,
        "distance_elbow_joint": 0.6339931128760619,
        "distance_shoulder_lift_joint": 0.11971812372054114,
        "distance_shoulder_pan_joint": 0.1336463522936224,
        "distance_wrist_1_joint": 0.5060676399427861,
        "distance_wrist_2_joint": 1.4483244671759778,
        "distance_wrist_3_joint": 0.01697848709370886,
        "smoothness": 5.921189511553294e-16,
        "time": 0.802618301,
        "traj_len": 1.6907773901678183,
        "weighted_distance": 2.2016078816194495
    },
    "planner": "KPIECE",
    "start": {
        "state": {
            "elbow_joint": -1.8275484843655228,
            "shoulder_lift_joint": -2.1267897864000416,
            "shoulder_pan_joint": -0.035127520176001514,
            "wrist_1_joint": -2.3477863256791385,
            "wrist_2_joint": -1.605890476484521,
            "wrist_3_joint": -3.0880375317375353
        }
    },
    "waypoints": [
        {
            "positions": [
                -0.035127520176001514,
                -2.1267897864000416,
                -1.8275484843655228,
                -2.3477863256791385,
                -1.605890476484521,
                -3.0880375317375353
            ]
        },
        {
            "positions": [
                -0.05183331421270432,
                -2.1417545518651093,
                -1.748299345256015,
                -2.4110447806719866,
                -1.4248499180875238,
                -3.090159842624249
            ]
        },
        {
            "positions": [
                -0.06853910824940712,
                -2.156719317330177,
                -1.6690502061465073,
                -2.474303235664835,
                -1.2438093596905264,
                -3.0922821535109626
            ]
        },
        {
            "positions": [
                -0.08524490228610991,
                -2.1716840827952444,
                -1.5898010670369995,
                -2.5375616906576832,
                -1.0627688012935292,
                -3.0944044643976762
            ]
        },
        {
            "positions": [
                -0.10195069632281271,
                -2.186648848260312,
                -1.5105519279274917,
                -2.6008201456505313,
                -0.8817282428965321,
                -3.0965267752843895
            ]
        },
        {
            "positions": [
                -0.11865649035951552,
                -2.20161361372538,
                -1.4313027888179841,
                -2.66407860064338,
                -0.7006876844995349,
                -3.098649086171103
            ]
        },
        {
            "positions": [
                -0.1353622843962183,
                -2.216578379190447,
                -1.3520536497084763,
                -2.727337055636228,
                -0.5196471261025375,
                -3.100771397057817
            ]
        },
        {
            "positions": [
                -0.1520680784329211,
                -2.231543144655515,
                -1.2728045105989687,
                -2.7905955106290765,
                -0.3386065677055403,
                -3.1028937079445305
            ]
        },
        {
            "positions": [
                -0.16877387246962391,
                -2.2465079101205827,
                -1.193555371489461,
                -2.8538539656219246,
                -0.1575660093085432,
                -3.105016018831244
            ]
        }
    ]
}