{
    "goal": {
        "global_pose": {
            "orientation": {
                "w": 0.7031023480610252,
                "x": -0.7110244013736278,
                "y": 0.0077485991402295624,
                "z": 0.005598929693374583
            },
            "position": {
                "x": -0.8841497679147869,
                "y": 0.44412534475326537,
                "z": 0.3711530566215515
            }
        },
        "name": "move_to_auspresseinheit_D"
    },
    "id": "KPIECE_move_to_auspresseinheit_D_135",
    "joint_names": [
        "shoulder_pan_joint",
        "shoulder_lift_joint",
        "elbow_joint",
        "wrist_1_joint",
        "wrist_2_joint",
        "wrist_3_joint"
    ],
    "metrics": {
        "cart_traj_len": 0.3430750387868067,
        "distance_elbow_joint": 0.644994396798958,
        "distance_shoulder_lift_joint": 0.1246115810088746,
        "distance_shoulder_pan_joint": 0.13358017222178672,
        "distance_wrist_1_joint": 0.5648096338318949,
        "distance_wrist_2_joint": 1.4309561696458524,
        "distance_wrist_3_joint": 0.03430926140397261,
        "smoothness": 5.921189480296099e-16,
        "time": 0.349809634,
        "traj_len": 1.7126766229826749,
        "weighted_distance": 2.2355414425138784
    },
    "planner": "KPIECE",
    "start": {
        "state": {
            "elbow_joint": -1.8275484843655228,
            "shoulder_lift_joint": -2.1267897864000416,
            "shoulder_pan_joint": -0.035127520176001514,
            "wrist_1_joint": -2.3477863256791385,
            "wrist_2_joint": -1.605890476484521,
            "wrist_3_joint": -3.0880375317375353
        }
    },
    "waypoints": [
        {
            "positions": [
                -0.035127520176001514,
                -2.1267897864000416,
                -1.8275484843655228,
                -2.3477863256791385,
                -1.605890476484521,
                -3.0880375317375353
            ]
        },
        {
            "positions": [
                -0.05182504170372486,
                -2.142366234026151,
                -1.746924184765653,
                -2.4183875299081254,
                -1.4270209552787894,
                -3.0837488740620387
            ]
        },
        {
            "positions": [
                -0.0685225632314482,
                -2.15794268165226,
                -1.6662998851657833,
                -2.488988734137112,
                -1.248151434073058,
                -3.079460216386542
            ]
        },
        {
            "positions": [
                -0.08522008475917153,
                -2.1735191292783695,
                -1.5856755855659135,
                -2.559589938366099,
                -1.0692819128673263,
                -3.0751715587110455
            ]
        },
        {
            "positions": [
                -0.10191760628689488,
                -2.189095576904479,
                -1.5050512859660437,
                -2.630191142595086,
                -0.8904123916615948,
                -3.070882901035549
            ]
        },
        {
            "positions": [
                -0.11861512781461822,
                -2.204672024530588,
                -1.424426986366174,
                -2.700792346824073,
                -0.7115428704558633,
                -3.0665942433600524
            ]
        },
        {
            "positions": [
                -0.13531264934234155,
                -2.2202484721566975,
                -1.3438026867663042,
                -2.77139355105306,
                -0.5326733492501317,
                -3.062305585684556
            ]
        },
        {
            "positions": [
                -0.1520101708700649,
                -2.235824919782807,
                -1.2631783871664344,
                -2.8419947552820464,
                -0.35380382804440025,
                -3.058016928009059
            ]
        },
        {
            "positions": [
                -0.16870769239778824,
                -2.251401367408916,
                -1.1825540875665648,
                -2.9125959595110333,
                -0.17493430683866854,
                -3.0537282703335626
            ]
        }
    ]
}