{
    "goal": {
        "global_pose": {
            "orientation": {
                "w": -0.4816463035849501,
                "x": 0.5182115481033762,
                "y": 0.4908360881923453,
                "z": -0.5084816262002911
            },
            "position": {
                "x": -0.8240239810943604,
                "y": -0.300875300988555,
                "z": 0.16403168439865112
            }
        },
        "name": "move_to_storage_C"
    },
    "id": "KPIECE_move_to_storage_C_20",
    "joint_names": [
        "shoulder_pan_joint",
        "shoulder_lift_joint",
        "elbow_joint",
        "wrist_1_joint",
        "wrist_2_joint",
        "wrist_3_joint"
    ],
    "metrics": {
        "cart_traj_len": 0.5767003800084978,
        "distance_elbow_joint": 0.2602039520149013,
        "distance_shoulder_lift_joint": 0.18954177469674915,
        "distance_shoulder_pan_joint": 0.49549279636369015,
        "distance_wrist_1_joint": 0.08616334876384091,
        "distance_wrist_2_joint": 1.0600757564828565,
        "distance_wrist_3_joint": 0.06958277272268276,
        "smoothness": 0.0,
        "time": 0.10426433099999999,
        "traj_len": 1.4700545571660668,
        "weighted_distance": 1.8564657421392896
    },
    "planner": "KPIECE",
    "start": {
        "state": {
            "elbow_joint": 2.0108683149792914,
            "shoulder_lift_joint": -1.1634956873317392,
            "shoulder_pan_joint": -2.4736205022346,
            "wrist_1_joint": -0.8367026793690192,
            "wrist_2_joint": 0.6746043897045053,
            "wrist_3_joint": 3.133522094754363
        }
    },
    "waypoints": [
        {
            "positions": [
                -2.4736205022346,
                -1.1634956873317392,
                2.0108683149792914,
                -0.8367026793690192,
                0.6746043897045053,
                3.133522094754363
            ]
        },
        {
            "positions": [
                -2.5562026349618816,
                -1.1319053915489476,
                1.9675009896434745,
                -0.8223421212417124,
                0.8512836824516481,
                3.145119223541477
            ]
        },
        {
            "positions": [
                -2.6387847676891636,
                -1.1003150957661563,
                1.9241336643076576,
                -0.8079815631144056,
                1.0279629751987907,
                3.1567163523285906
            ]
        },
        {
            "positions": [
                -2.721366900416445,
                -1.0687247999833647,
                1.8807663389718408,
                -0.7936210049870988,
                1.2046422679459337,
                3.1683134811157045
            ]
        },
        {
            "positions": [
                -2.8039490331437267,
                -1.037134504200573,
                1.8373990136360239,
                -0.7792604468597919,
                1.3813215606930762,
                3.1799106099028185
            ]
        },
        {
            "positions": [
                -2.8865311658710087,
                -1.0055442084177817,
                1.794031688300207,
                -0.7648998887324852,
                1.5580008534402192,
                3.191507738689932
            ]
        },
        {
            "positions": [
                -2.96911329859829,
                -0.9739539126349901,
                1.75066436296439,
                -0.7505393306051783,
                1.7346801461873618,
                3.203104867477046
            ]
        }
    ]
}