{
    "goal": {
        "global_pose": {
            "orientation": {
                "w": -0.00223480608172531,
                "x": 0.0024358444001904467,
                "y": 0.7094548369677653,
                "z": -0.704743149386269
            },
            "position": {
                "x": -0.37947507619857795,
                "y": -0.6371506643295288,
                "z": 0.19426114857196808
            }
        },
        "name": "move_to_magneteinheit_C"
    },
    "id": "KPIECE_move_to_magneteinheit_C_46",
    "joint_names": [
        "shoulder_pan_joint",
        "shoulder_lift_joint",
        "elbow_joint",
        "wrist_1_joint",
        "wrist_2_joint",
        "wrist_3_joint"
    ],
    "metrics": {
        "cart_traj_len": 3.2801719512236462,
        "distance_elbow_joint": 1.5581327616458374,
        "distance_shoulder_lift_joint": 2.973508091142839,
        "distance_shoulder_pan_joint": 4.7939511119082505,
        "distance_wrist_1_joint": 2.377562661043439,
        "distance_wrist_2_joint": 3.5999087077848566,
        "distance_wrist_3_joint": 0.5804778229605696,
        "smoothness": 0.779526201561719,
        "time": 0.801027607,
        "traj_len": 3.9854160581407037,
        "weighted_distance": 4.798121316852589
    },
    "planner": "KPIECE",
    "start": {
        "state": {
            "elbow_joint": 1.9565354006593851,
            "shoulder_lift_joint": -1.4165861576512813,
            "shoulder_pan_joint": -1.6717766223278752,
            "wrist_1_joint": -0.528663328821883,
            "wrist_2_joint": 1.472756589259273,
            "wrist_3_joint": 3.159348288315503
        }
    },
    "waypoints": [
        {
            "positions": [
                -1.6717766223278752,
                -1.4165861576512813,
                1.9565354006593851,
                -0.528663328821883,
                1.472756589259273,
                3.159348288315503
            ]
        },
        {
            "positions": [
                -1.5767240949845884,
                -1.481376278041244,
                1.9948885513337344,
                -0.5923211813017213,
                1.3680215531739537,
                3.1445339589146717
            ]
        },
        {
            "positions": [
                -1.4816715676413017,
                -1.5461663984312068,
                2.0332417020080835,
                -0.6559790337815596,
                1.2632865170886343,
                3.12971962951384
            ]
        },
        {
            "positions": [
                -1.386619040298015,
                -1.6109565188211694,
                2.071594852682433,
                -0.7196368862613978,
                1.1585514810033146,
                3.1149053001130085
            ]
        },
        {
            "positions": [
                -1.291566512954728,
                -1.6757466392111322,
                2.109948003356782,
                -0.7832947387412361,
                1.0538164449179952,
                3.100090970712177
            ]
        },
        {
            "positions": [
                -1.1965139856114413,
                -1.740536759601095,
                2.1483011540311314,
                -0.8469525912210744,
                0.9490814088326758,
                3.0852766413113457
            ]
        },
        {
            "positions": [
                -1.1014614582681546,
                -1.8053268799910578,
                2.1866543047054803,
                -0.9106104437009126,
                0.8443463727473564,
                3.070462311910514
            ]
        },
        {
            "positions": [
                -1.0064089309248678,
                -1.8701170003810206,
                2.2250074553798296,
                -0.974268296180751,
                0.7396113366620369,
                3.0556479825096825
            ]
        },
        {
            "positions": [
                -0.9113564035815811,
                -1.9349071207709834,
                2.263360606054179,
                -1.0379261486605893,
                0.6348763005767174,
                3.040833653108851
            ]
        },
        {
            "positions": [
                -0.8163038762382944,
                -1.9996972411609462,
                2.301713756728528,
                -1.1015840011404274,
                0.530141264491398,
                3.0260193237080193
            ]
        },
        {
            "positions": [
                -0.7212513488950076,
                -2.064487361550909,
                2.3400669074028775,
                -1.1652418536202656,
                0.42540622840607845,
                3.011204994307188
            ]
        },
        {
            "positions": [
                -0.6261988215517207,
                -2.1292774819408717,
                2.378420058077227,
                -1.228899706100104,
                0.320671192320759,
                2.9963906649063565
            ]
        },
        {
            "positions": [
                -0.5311462942084342,
                -2.1940676023308345,
                2.416773208751576,
                -1.2925575585799423,
                0.2159361562354396,
                2.981576335505525
            ]
        },
        {
            "positions": [
                -0.4360937668651472,
                -2.2588577227207973,
                2.455126359425925,
                -1.3562154110597806,
                0.11120112015011996,
                2.9667620061046933
            ]
        },
        {
            "positions": [
                -0.3410412395218605,
                -2.32364784311076,
                2.4934795101002742,
                -1.4198732635396187,
                0.006466084064800759,
                2.951947676703862
            ]
        },
        {
            "positions": [
                -0.24598871217857377,
                -2.3884379635007225,
                2.5318326607746235,
                -1.483531116019457,
                -0.09826895202051888,
                2.9371333473030306
            ]
        },
        {
            "positions": [
                -0.15093618483528703,
                -2.4532280838906853,
                2.570185811448973,
                -1.5471889684992952,
                -0.2030039881058383,
                2.9223190179021987
            ]
        },
        {
            "positions": [
                -0.05588365749200008,
                -2.518018204280648,
                2.608538962123322,
                -1.6108468209791336,
                -0.30773902419115773,
                2.9075046885013673
            ]
        },
        {
            "positions": [
                0.039168869851286425,
                -2.582808324670611,
                2.646892112797671,
                -1.674504673458972,
                -0.41247406027647715,
                2.892690359100536
            ]
        },
        {
            "positions": [
                0.13422139719457338,
                -2.6475984450605736,
                2.6852452634720203,
                -1.7381625259388103,
                -0.5172090963617968,
                2.8778760296997046
            ]
        },
        {
            "positions": [
                0.22927392453785989,
                -2.7123885654505364,
                2.7235984141463696,
                -1.8018203784186482,
                -0.6219441324471162,
                2.8630617002988727
            ]
        },
        {
            "positions": [
                0.32432645188114684,
                -2.777178685840499,
                2.761951564820719,
                -1.8654782308984865,
                -0.7266791685324354,
                2.8482473708980414
            ]
        },
        {
            "positions": [
                0.1844340499961855,
                -2.696532907692818,
                2.7243157349464937,
                -1.8134408429501447,
                -0.6566555210327781,
                2.861716216175197
            ]
        },
        {
            "positions": [
                0.044541648111224186,
                -2.615887129545137,
                2.6866799050722685,
                -1.761403455001803,
                -0.5866318735331207,
                2.875185061452352
            ]
        },
        {
            "positions": [
                -0.09535075377373714,
                -2.535241351397456,
                2.6490440751980433,
                -1.7093660670534612,
                -0.5166082260334635,
                2.8886539067295076
            ]
        },
        {
            "positions": [
                -0.23524315565869847,
                -2.454595573249775,
                2.611408245323818,
                -1.6573286791051194,
                -0.4465845785338061,
                2.902122752006663
            ]
        },
        {
            "positions": [
                -0.3751355575436598,
                -2.373949795102094,
                2.573772415449593,
                -1.6052912911567776,
                -0.3765609310341488,
                2.9155915972838184
            ]
        },
        {
            "positions": [
                -0.5150279594286211,
                -2.293304016954413,
                2.5361365855753677,
                -1.553253903208436,
                -0.30653728353449144,
                2.929060442560974
            ]
        },
        {
            "positions": [
                -0.6549203613135823,
                -2.212658238806732,
                2.4985007557011425,
                -1.5012165152600943,
                -0.23651363603483416,
                2.9425292878381293
            ]
        },
        {
            "positions": [
                -0.7948127631985438,
                -2.132012460659051,
                2.4608649258269173,
                -1.4491791273117525,
                -0.16648998853517682,
                2.9559981331152847
            ]
        },
        {
            "positions": [
                -0.9347051650835052,
                -2.05136668251137,
                2.423229095952692,
                -1.3971417393634107,
                -0.09646634103551943,
                2.96946697839244
            ]
        },
        {
            "positions": [
                -1.0745975669684664,
                -1.970720904363689,
                2.385593266078467,
                -1.345104351415069,
                -0.02644269353586215,
                2.982935823669595
            ]
        },
        {
            "positions": [
                -1.2144899688534279,
                -1.890075126216008,
                2.3479574362042417,
                -1.2930669634667271,
                0.043580953963795244,
                2.9964046689467505
            ]
        },
        {
            "positions": [
                -1.354382370738389,
                -1.8094293480683272,
                2.310321606330017,
                -1.2410295755183856,
                0.11360460146345253,
                3.009873514223906
            ]
        },
        {
            "positions": [
                -1.4942747726233505,
                -1.728783569920646,
                2.2726857764557917,
                -1.1889921875700435,
                0.1836282489631098,
                3.0233423595010613
            ]
        },
        {
            "positions": [
                -1.6341671745083115,
                -1.6481377917729652,
                2.2350499465815665,
                -1.136954799621702,
                0.2536518964627671,
                3.0368112047782168
            ]
        },
        {
            "positions": [
                -1.774059576393273,
                -1.5674920136252841,
                2.1974141167073413,
                -1.0849174116733602,
                0.3236755439624246,
                3.050280050055372
            ]
        },
        {
            "positions": [
                -1.9139519782782344,
                -1.4868462354776029,
                2.159778286833116,
                -1.0328800237250184,
                0.39369919146208177,
                3.0637488953325276
            ]
        },
        {
            "positions": [
                -2.053844380163196,
                -1.406200457329922,
                2.122142456958891,
                -0.9808426357766766,
                0.46372283896173916,
                3.077217740609683
            ]
        },
        {
            "positions": [
                -2.1937367820481573,
                -1.325554679182241,
                2.0845066270846657,
                -0.9288052478283347,
                0.5337464864613966,
                3.0906865858868384
            ]
        },
        {
            "positions": [
                -2.3336291839331182,
                -1.24490890103456,
                2.0468707972104405,
                -0.8767678598799931,
                0.6037701339610537,
                3.104155431163994
            ]
        },
        {
            "positions": [
                -2.4735215858180797,
                -1.164263122886879,
                2.0092349673362153,
                -0.8247304719316513,
                0.6737937814607112,
                3.1176242764411493
            ]
        }
    ]
}