{
    "goal": {
        "global_pose": {
            "orientation": {
                "w": 0.7031023502349854,
                "x": -0.7110244035720825,
                "y": 0.007748599164187908,
                "z": 0.005598929710686207
            },
            "position": {
                "x": 0.11585023208521307,
                "y": 0.44412534475326537,
                "z": 0.3711530566215515
            }
        },
        "name": "move_to_auspresseinheit_A"
    },
    "id": "KPIECE_move_to_auspresseinheit_A_42",
    "joint_names": [
        "shoulder_pan_joint",
        "shoulder_lift_joint",
        "elbow_joint",
        "wrist_1_joint",
        "wrist_2_joint",
        "wrist_3_joint"
    ],
    "metrics": {
        "cart_traj_len": 0.9919988848044045,
        "distance_elbow_joint": 0.27759900367206747,
        "distance_shoulder_lift_joint": 1.6486031818317985,
        "distance_shoulder_pan_joint": 1.0404150162619863,
        "distance_wrist_1_joint": 2.0467635255166066,
        "distance_wrist_2_joint": 0.8737611020701079,
        "distance_wrist_3_joint": 0.6172479167321829,
        "smoothness": 1.6792745457116647,
        "time": 0.426828556,
        "traj_len": 2.5503705115305797,
        "weighted_distance": 3.2648752207604854
    },
    "planner": "KPIECE",
    "start": {
        "state": {
            "elbow_joint": 2.4225746994637096,
            "shoulder_lift_joint": -1.373653595662188,
            "shoulder_pan_joint": -0.3378633848294565,
            "wrist_1_joint": -1.0288595594406726,
            "wrist_2_joint": 1.2330228066703421,
            "wrist_3_joint": 3.189163495502006
        }
    },
    "waypoints": [
        {
            "positions": [
                -0.3378633848294565,
                -1.373653595662188,
                2.4225746994637096,
                -1.0288595594406726,
                1.2330228066703421,
                3.189163495502006
            ]
        },
        {
            "positions": [
                -0.27368534408784095,
                -1.4827220270047956,
                2.4071434829226126,
                -0.8978972107306337,
                1.1806068475974445,
                3.1788387892472025
            ]
        },
        {
            "positions": [
                -0.20950730334622542,
                -1.5917904583474032,
                2.3917122663815156,
                -0.7669348620205947,
                1.128190888524547,
                3.1685140829923997
            ]
        },
        {
            "positions": [
                -0.14532926260460988,
                -1.7008588896900108,
                2.376281049840419,
                -0.6359725133105558,
                1.0757749294516494,
                3.158189376737597
            ]
        },
        {
            "positions": [
                -0.08115122186299434,
                -1.8099273210326183,
                2.360849833299322,
                -0.5050101646005168,
                1.023358970378752,
                3.1478646704827935
            ]
        },
        {
            "positions": [
                -0.0169731811213788,
                -1.918995752375226,
                2.345418616758225,
                -0.37404781589047786,
                0.9709430113058544,
                3.13753996422799
            ]
        },
        {
            "positions": [
                0.04720485962023674,
                -2.0280641837178335,
                2.329987400217128,
                -0.24308546718043889,
                0.9185270522329568,
                3.1272152579731873
            ]
        },
        {
            "positions": [
                0.11138290036185222,
                -2.137132615060441,
                2.314556183676031,
                -0.11212311847040002,
                0.8661110931600593,
                3.1168905517183845
            ]
        },
        {
            "positions": [
                0.17556094110346782,
                -2.2462010464030486,
                2.2991249671349343,
                0.01883923023963896,
                0.8136951340871617,
                3.106565845463581
            ]
        },
        {
            "positions": [
                0.2397389818450834,
                -2.355269477745656,
                2.2836937505938373,
                0.14980157894967805,
                0.7612791750142641,
                3.096241139208778
            ]
        },
        {
            "positions": [
                0.3039170225866989,
                -2.4643379090882638,
                2.2682625340527403,
                0.2807639276597169,
                0.7088632159413666,
                3.085916432953975
            ]
        },
        {
            "positions": [
                0.3646778166000768,
                -2.360607576596016,
                2.286262349361291,
                0.1534877687466855,
                0.6730457113914476,
                3.0402035074728397
            ]
        },
        {
            "positions": [
                0.4254386106134547,
                -2.256877244103768,
                2.304262164669842,
                0.02621160983365406,
                0.6372282068415286,
                2.9944905819917045
            ]
        },
        {
            "positions": [
                0.48619940462683264,
                -2.15314691161152,
                2.3222619799783923,
                -0.1010645490793774,
                0.6014107022916096,
                2.9487776565105692
            ]
        },
        {
            "positions": [
                0.5469601986402106,
                -2.0494165791192724,
                2.3402617952869433,
                -0.2283407079924088,
                0.5655931977416906,
                2.903064731029434
            ]
        },
        {
            "positions": [
                0.6077209926535885,
                -1.9456862466270246,
                2.358261610595494,
                -0.35561686690544025,
                0.5297756931917716,
                2.8573518055482987
            ]
        },
        {
            "positions": [
                0.6551363120430591,
                -1.9260526436547827,
                2.3749054914546663,
                -0.40599648883097045,
                0.6150326874875404,
                3.0000699189375366
            ]
        },
        {
            "positions": [
                0.7025516314325299,
                -1.906419040682541,
                2.3915493723138384,
                -0.45637611075650064,
                0.7002896817833091,
                3.1427880323267745
            ]
        }
    ]
}