{
    "goal": {
        "global_pose": {
            "orientation": {
                "w": 0.005598929693374612,
                "x": 0.007748599140229565,
                "y": 0.7110244013736278,
                "z": -0.7031023480610252
            },
            "position": {
                "x": 0.1141497679147869,
                "y": -0.7141253447532654,
                "z": 0.3711530566215515
            }
        },
        "name": "move_to_auspresseinheit_B"
    },
    "id": "KPIECE_move_to_auspresseinheit_B_15",
    "joint_names": [
        "shoulder_pan_joint",
        "shoulder_lift_joint",
        "elbow_joint",
        "wrist_1_joint",
        "wrist_2_joint",
        "wrist_3_joint"
    ],
    "metrics": {
        "cart_traj_len": 0.5647531133256203,
        "distance_elbow_joint": 0.06107148776113647,
        "distance_shoulder_lift_joint": 0.29471675135908626,
        "distance_shoulder_pan_joint": 0.5769709582874702,
        "distance_wrist_1_joint": 0.31783259216656246,
        "distance_wrist_2_joint": 0.992646754556636,
        "distance_wrist_3_joint": 0.0024060697336696357,
        "smoothness": 2.5376526478085547e-16,
        "time": 0.012421287999999999,
        "traj_len": 1.4985475013707643,
        "weighted_distance": 1.8870442761247281
    },
    "planner": "KPIECE",
    "start": {
        "state": {
            "elbow_joint": 2.0193061681459312,
            "shoulder_lift_joint": -1.1220205130644991,
            "shoulder_pan_joint": -1.0952072088045026,
            "wrist_1_joint": -0.8559671810662515,
            "wrist_2_joint": 0.4759638712940361,
            "wrist_3_joint": 3.159081874192446
        }
    },
    "waypoints": [
        {
            "positions": [
                -1.0952072088045026,
                -1.1220205130644991,
                2.0193061681459312,
                -0.8559671810662515,
                0.4759638712940361,
                3.159081874192446
            ]
        },
        {
            "positions": [
                -1.1913690351857475,
                -1.171139971624347,
                2.0091275868524083,
                -0.8029950823718244,
                0.6414049970534754,
                3.1586808625701677
            ]
        },
        {
            "positions": [
                -1.2875308615669927,
                -1.2202594301841945,
                1.9989490055588857,
                -0.7500229836773973,
                0.8068461228129147,
                3.1582798509478893
            ]
        },
        {
            "positions": [
                -1.3836926879482379,
                -1.2693788887440423,
                1.988770424265363,
                -0.6970508849829702,
                0.9722872485723542,
                3.157878839325611
            ]
        },
        {
            "positions": [
                -1.4798545143294828,
                -1.31849834730389,
                1.9785918429718403,
                -0.6440787862885432,
                1.1377283743317934,
                3.157477827703333
            ]
        },
        {
            "positions": [
                -1.5760163407107277,
                -1.3676178058637376,
                1.9684132616783174,
                -0.591106687594116,
                1.303169500091233,
                3.1570768160810547
            ]
        },
        {
            "positions": [
                -1.6721781670919729,
                -1.4167372644235854,
                1.9582346803847948,
                -0.538134588899689,
                1.4686106258506721,
                3.1566758044587764
            ]
        }
    ]
}