{
    "goal": {
        "global_pose": {
            "orientation": {
                "w": 0.005598929693374612,
                "x": 0.007748599140229565,
                "y": 0.7110244013736278,
                "z": -0.7031023480610252
            },
            "position": {
                "x": 0.1141497679147869,
                "y": -0.7141253447532654,
                "z": 0.3711530566215515
            }
        },
        "name": "move_to_auspresseinheit_B"
    },
    "id": "KPIECE_move_to_auspresseinheit_B_148",
    "joint_names": [
        "shoulder_pan_joint",
        "shoulder_lift_joint",
        "elbow_joint",
        "wrist_1_joint",
        "wrist_2_joint",
        "wrist_3_joint"
    ],
    "metrics": {
        "cart_traj_len": 0.5648382650562818,
        "distance_elbow_joint": 0.06652948224450639,
        "distance_shoulder_lift_joint": 0.29390680423157267,
        "distance_shoulder_pan_joint": 0.5736014097564393,
        "distance_wrist_1_joint": 0.3363854706865401,
        "distance_wrist_2_joint": 1.009370895665119,
        "distance_wrist_3_joint": 0.007259528152782302,
        "smoothness": 0.0,
        "time": 0.14325004200000002,
        "traj_len": 1.5123007606745955,
        "weighted_distance": 1.9097981603808774
    },
    "planner": "KPIECE",
    "start": {
        "state": {
            "elbow_joint": 2.0193061681459312,
            "shoulder_lift_joint": -1.1220205130644991,
            "shoulder_pan_joint": -1.0952072088045026,
            "wrist_1_joint": -0.8559671810662515,
            "wrist_2_joint": 0.4759638712940361,
            "wrist_3_joint": 3.159081874192446
        }
    },
    "waypoints": [
        {
            "positions": [
                -1.0952072088045026,
                -1.1220205130644991,
                2.0193061681459312,
                -0.8559671810662515,
                0.4759638712940361,
                3.159081874192446
            ]
        },
        {
            "positions": [
                -1.1908074437639091,
                -1.171004980436428,
                2.0082179211051803,
                -0.7999029359518282,
                0.6441923539048893,
                3.157871952833649
            ]
        },
        {
            "positions": [
                -1.2864076787233156,
                -1.2199894478083566,
                1.997129674064429,
                -0.7438386908374047,
                0.8124208365157424,
                3.156662031474852
            ]
        },
        {
            "positions": [
                -1.3820079136827221,
                -1.2689739151802855,
                1.986041427023678,
                -0.6877744457229814,
                0.9806493191265957,
                3.155452110116055
            ]
        },
        {
            "positions": [
                -1.4776081486421289,
                -1.3179583825522143,
                1.974953179982927,
                -0.6317102006085581,
                1.1488778017374488,
                3.154242188757258
            ]
        },
        {
            "positions": [
                -1.5732083836015354,
                -1.366942849924143,
                1.963864932942176,
                -0.5756459554941347,
                1.3171062843483021,
                3.1530322673984608
            ]
        },
        {
            "positions": [
                -1.6688086185609419,
                -1.4159273172960718,
                1.9527766859014248,
                -0.5195817103797113,
                1.4853347669591552,
                3.1518223460396637
            ]
        }
    ]
}