{
    "goal": {
        "global_pose": {
            "orientation": {
                "w": -0.4816463035849501,
                "x": 0.5182115481033762,
                "y": 0.4908360881923453,
                "z": -0.5084816262002911
            },
            "position": {
                "x": -0.8240239810943604,
                "y": -0.300875300988555,
                "z": 0.16403168439865112
            }
        },
        "name": "move_to_storage_C"
    },
    "id": "KPIECE_move_to_storage_C_123",
    "joint_names": [
        "shoulder_pan_joint",
        "shoulder_lift_joint",
        "elbow_joint",
        "wrist_1_joint",
        "wrist_2_joint",
        "wrist_3_joint"
    ],
    "metrics": {
        "cart_traj_len": 0.5766790359645764,
        "distance_elbow_joint": 0.2566188240372438,
        "distance_shoulder_lift_joint": 0.18900420883489466,
        "distance_shoulder_pan_joint": 0.49287143047705495,
        "distance_wrist_1_joint": 0.06793082247004978,
        "distance_wrist_2_joint": 1.0807679225446256,
        "distance_wrist_3_joint": 0.05933945814877628,
        "smoothness": 2.5376526478085547e-16,
        "time": 0.047682182000000004,
        "traj_len": 1.4651050018727823,
        "weighted_distance": 1.8476770085231002
    },
    "planner": "KPIECE",
    "start": {
        "state": {
            "elbow_joint": 2.0108683149792914,
            "shoulder_lift_joint": -1.1634956873317392,
            "shoulder_pan_joint": -2.4736205022346,
            "wrist_1_joint": -0.8367026793690192,
            "wrist_2_joint": 0.6746043897045053,
            "wrist_3_joint": 3.133522094754363
        }
    },
    "waypoints": [
        {
            "positions": [
                -2.4736205022346,
                -1.1634956873317392,
                2.0108683149792914,
                -0.8367026793690192,
                0.6746043897045053,
                3.133522094754363
            ]
        },
        {
            "positions": [
                -2.5557657406474426,
                -1.1319949858592568,
                1.9680985109730842,
                -0.8253808756240109,
                0.8547323767952762,
                3.143412004445826
            ]
        },
        {
            "positions": [
                -2.637910979060285,
                -1.1004942843867744,
                1.9253287069668767,
                -0.8140590718790026,
                1.0348603638860472,
                3.1533019141372884
            ]
        },
        {
            "positions": [
                -2.7200562174731275,
                -1.0689935829142918,
                1.8825589029606695,
                -0.8027372681339944,
                1.2149883509768182,
                3.1631918238287513
            ]
        },
        {
            "positions": [
                -2.80220145588597,
                -1.0374928814418094,
                1.8397890989544623,
                -0.791415464388986,
                1.395116338067589,
                3.173081733520214
            ]
        },
        {
            "positions": [
                -2.8843466942988125,
                -1.005992179969327,
                1.7970192949482549,
                -0.7800936606439777,
                1.5752443251583599,
                3.1829716432116766
            ]
        },
        {
            "positions": [
                -2.966491932711655,
                -0.9744914784968446,
                1.7542494909420476,
                -0.7687718568989694,
                1.755372312249131,
                3.1928615529031394
            ]
        }
    ]
}