{
    "goal": {
        "global_pose": {
            "orientation": {
                "w": 0.005598929693374612,
                "x": 0.007748599140229565,
                "y": 0.7110244013736278,
                "z": -0.7031023480610252
            },
            "position": {
                "x": 0.1141497679147869,
                "y": -0.7141253447532654,
                "z": 0.3711530566215515
            }
        },
        "name": "move_to_auspresseinheit_B"
    },
    "id": "KPIECE_move_to_auspresseinheit_B_53",
    "joint_names": [
        "shoulder_pan_joint",
        "shoulder_lift_joint",
        "elbow_joint",
        "wrist_1_joint",
        "wrist_2_joint",
        "wrist_3_joint"
    ],
    "metrics": {
        "cart_traj_len": 0.5653518199700391,
        "distance_elbow_joint": 0.06438122065671292,
        "distance_shoulder_lift_joint": 0.2951869196561787,
        "distance_shoulder_pan_joint": 0.5781946747155045,
        "distance_wrist_1_joint": 0.3326611464979836,
        "distance_wrist_2_joint": 0.9903096383748091,
        "distance_wrist_3_joint": 0.00789732559591183,
        "smoothness": 3.806478935924272e-16,
        "time": 0.08068890000000001,
        "traj_len": 1.5061975054743322,
        "weighted_distance": 1.899314708404512
    },
    "planner": "KPIECE",
    "start": {
        "state": {
            "elbow_joint": 2.0193061681459312,
            "shoulder_lift_joint": -1.1220205130644991,
            "shoulder_pan_joint": -1.0952072088045026,
            "wrist_1_joint": -0.8559671810662515,
            "wrist_2_joint": 0.4759638712940361,
            "wrist_3_joint": 3.159081874192446
        }
    },
    "waypoints": [
        {
            "positions": [
                -1.0952072088045026,
                -1.1220205130644991,
                2.0193061681459312,
                -0.8559671810662515,
                0.4759638712940361,
                3.159081874192446
            ]
        },
        {
            "positions": [
                -1.1915729879237533,
                -1.1712183330071957,
                2.008575964703146,
                -0.8005236566499209,
                0.6410154776898376,
                3.157765653259794
            ]
        },
        {
            "positions": [
                -1.287938767043004,
                -1.220416152949892,
                1.9978457612603602,
                -0.7450801322335903,
                0.8060670840856392,
                3.156449432327142
            ]
        },
        {
            "positions": [
                -1.3843045461622547,
                -1.2696139728925884,
                1.9871155578175748,
                -0.6896366078172597,
                0.9711186904814406,
                3.15513321139449
            ]
        },
        {
            "positions": [
                -1.4806703252815057,
                -1.318811792835285,
                1.9763853543747893,
                -0.6341930834009291,
                1.1361702968772422,
                3.1538169904618383
            ]
        },
        {
            "positions": [
                -1.5770361044007564,
                -1.3680096127779815,
                1.9656551509320037,
                -0.5787495589845985,
                1.3012219032730437,
                3.152500769529186
            ]
        },
        {
            "positions": [
                -1.673401883520007,
                -1.4172074327206778,
                1.9549249474892183,
                -0.5233060345682679,
                1.4662735096688453,
                3.151184548596534
            ]
        }
    ]
}