{
    "goal": {
        "global_pose": {
            "orientation": {
                "w": 0.005598929693374612,
                "x": 0.007748599140229565,
                "y": 0.7110244013736278,
                "z": -0.7031023480610252
            },
            "position": {
                "x": 0.1141497679147869,
                "y": -0.7141253447532654,
                "z": 0.3711530566215515
            }
        },
        "name": "move_to_auspresseinheit_B"
    },
    "id": "KPIECE_move_to_auspresseinheit_B_135",
    "joint_names": [
        "shoulder_pan_joint",
        "shoulder_lift_joint",
        "elbow_joint",
        "wrist_1_joint",
        "wrist_2_joint",
        "wrist_3_joint"
    ],
    "metrics": {
        "cart_traj_len": 0.5638532789292849,
        "distance_elbow_joint": 0.05986704313239377,
        "distance_shoulder_lift_joint": 0.2948520538585513,
        "distance_shoulder_pan_joint": 0.577489186120075,
        "distance_wrist_1_joint": 0.3190507516012243,
        "distance_wrist_2_joint": 0.9877817512807263,
        "distance_wrist_3_joint": 0.0011699185681393054,
        "smoothness": 2.5376526478085547e-16,
        "time": 0.48068812099999997,
        "traj_len": 1.4967333445076683,
        "weighted_distance": 1.8839806380585071
    },
    "planner": "KPIECE",
    "start": {
        "state": {
            "elbow_joint": 2.0193061681459312,
            "shoulder_lift_joint": -1.1220205130644991,
            "shoulder_pan_joint": -1.0952072088045026,
            "wrist_1_joint": -0.8559671810662515,
            "wrist_2_joint": 0.4759638712940361,
            "wrist_3_joint": 3.159081874192446
        }
    },
    "waypoints": [
        {
            "positions": [
                -1.0952072088045026,
                -1.1220205130644991,
                2.0193061681459312,
                -0.8559671810662515,
                0.4759638712940361,
                3.159081874192446
            ]
        },
        {
            "positions": [
                -1.1914554064911818,
                -1.1711625220409243,
                2.009328327623866,
                -0.8027920557993807,
                0.6405941631741572,
                3.1588868877644227
            ]
        },
        {
            "positions": [
                -1.287703604177861,
                -1.2203045310173495,
                1.9993504871018,
                -0.74961693053251,
                0.8052244550542782,
                3.1586919013363994
            ]
        },
        {
            "positions": [
                -1.3839518018645403,
                -1.2694465399937749,
                1.9893726465797343,
                -0.6964418052656394,
                0.9698547469343992,
                3.158496914908376
            ]
        },
        {
            "positions": [
                -1.4801999995512194,
                -1.3185885489702,
                1.9793948060576687,
                -0.6432666799987686,
                1.1344850388145202,
                3.1583019284803533
            ]
        },
        {
            "positions": [
                -1.5764481972378985,
                -1.3677305579466252,
                1.969416965535603,
                -0.5900915547318979,
                1.2991153306946415,
                3.15810694205233
            ]
        },
        {
            "positions": [
                -1.6726963949245777,
                -1.4168725669230504,
                1.9594391250135375,
                -0.5369164294650272,
                1.4637456225747625,
                3.1579119556243067
            ]
        }
    ]
}