{
    "goal": {
        "global_pose": {
            "orientation": {
                "w": 0.5084816262002911,
                "x": -0.4908360881923452,
                "y": 0.5182115481033761,
                "z": -0.48164630358495003
            },
            "position": {
                "x": 0.5540239810943604,
                "y": -0.46912469901144505,
                "z": 0.16403168439865112
            }
        },
        "name": "move_to_storage_B"
    },
    "id": "KPIECE_move_to_storage_B_96",
    "joint_names": [
        "shoulder_pan_joint",
        "shoulder_lift_joint",
        "elbow_joint",
        "wrist_1_joint",
        "wrist_2_joint",
        "wrist_3_joint"
    ],
    "metrics": {
        "cart_traj_len": 0.8115083301053155,
        "distance_elbow_joint": 0.647212090227512,
        "distance_shoulder_lift_joint": 0.4620112840541357,
        "distance_shoulder_pan_joint": 0.5390049489069721,
        "distance_wrist_1_joint": 3.0150616058796103,
        "distance_wrist_2_joint": 2.712035074175663,
        "distance_wrist_3_joint": 3.51491948129433,
        "smoothness": 0.3017397528972171,
        "time": 0.095386969,
        "traj_len": 3.300037042903947,
        "weighted_distance": 4.862836633815921
    },
    "planner": "KPIECE",
    "start": {
        "state": {
            "elbow_joint": 1.6649325340416963,
            "shoulder_lift_joint": -0.6616387945129425,
            "shoulder_pan_joint": -0.9139837929255878,
            "wrist_1_joint": 2.1467571094334352,
            "wrist_2_joint": -2.234195976750228,
            "wrist_3_joint": 0.005470921511140723
        }
    },
    "waypoints": [
        {
            "positions": [
                -0.9139837929255878,
                -0.6616387945129425,
                1.6649325340416963,
                2.1467571094334352,
                -2.234195976750228,
                0.005470921511140723
            ]
        },
        {
            "positions": [
                -0.8470776611139087,
                -0.6791933303286117,
                1.6107001797739926,
                2.1327663454816923,
                -2.07936783501468,
                -0.06165698294132773
            ]
        },
        {
            "positions": [
                -0.7801715293022295,
                -0.6967478661442811,
                1.5564678255062887,
                2.11877558152995,
                -1.9245396932791323,
                -0.12878488739379618
            ]
        },
        {
            "positions": [
                -0.7355674414277769,
                -0.7084508900213939,
                1.520312922661153,
                2.109448405562121,
                -1.8213209321221004,
                -0.1735368236954418
            ]
        },
        {
            "positions": [
                -0.7499909853241433,
                -0.7250588575632213,
                1.5404166218150317,
                1.9903382894817894,
                -1.729354530940199,
                -0.04010035425193187
            ]
        },
        {
            "positions": [
                -0.7644145292205098,
                -0.7416668251050487,
                1.5605203209689105,
                1.8712281734014575,
                -1.6373881297582975,
                0.09333611519157806
            ]
        },
        {
            "positions": [
                -0.7788380731168763,
                -0.758274792646876,
                1.5806240201227892,
                1.7521180573211257,
                -1.5454217285763963,
                0.22677258463508795
            ]
        },
        {
            "positions": [
                -0.7932616170132426,
                -0.7748827601887034,
                1.600727719276668,
                1.6330079412407938,
                -1.4534553273944946,
                0.36020905407859793
            ]
        },
        {
            "positions": [
                -0.8076851609096091,
                -0.7914907277305308,
                1.6208314184305466,
                1.5138978251604618,
                -1.3614889262125933,
                0.4936455235221079
            ]
        },
        {
            "positions": [
                -0.8221087048059755,
                -0.8080986952723581,
                1.6409351175844253,
                1.3947877090801302,
                -1.2695225250306919,
                0.6270819929656177
            ]
        },
        {
            "positions": [
                -0.836532248702342,
                -0.8247066628141856,
                1.6610388167383041,
                1.275677592999798,
                -1.1775561238487904,
                0.7605184624091278
            ]
        },
        {
            "positions": [
                -0.8509557925987085,
                -0.841314630356013,
                1.6811425158921829,
                1.1565674769194665,
                -1.085589722666889,
                0.8939549318526376
            ]
        },
        {
            "positions": [
                -0.8653793364950748,
                -0.8579225978978403,
                1.7012462150460617,
                1.0374573608391346,
                -0.9936233214849874,
                1.0273914012961474
            ]
        },
        {
            "positions": [
                -0.8798028803914413,
                -0.8745305654396677,
                1.7213499141999404,
                0.9183472447588026,
                -0.901656920303086,
                1.1608278707396575
            ]
        },
        {
            "positions": [
                -0.8942264242878077,
                -0.891138532981495,
                1.7414536133538192,
                0.799237128678471,
                -0.8096905191211845,
                1.2942643401831673
            ]
        },
        {
            "positions": [
                -0.9086499681841742,
                -0.9077465005233224,
                1.7615573125076978,
                0.6801270125981391,
                -0.7177241179392833,
                1.4277008096266772
            ]
        },
        {
            "positions": [
                -0.9230735120805407,
                -0.9243544680651498,
                1.7816610116615768,
                0.5610168965178071,
                -0.6257577167573816,
                1.5611372790701872
            ]
        },
        {
            "positions": [
                -0.9374970559769071,
                -0.9409624356069771,
                1.8017647108154553,
                0.4419067804374752,
                -0.5337913155754801,
                1.6945737485136974
            ]
        },
        {
            "positions": [
                -0.9519205998732736,
                -0.9575704031488045,
                1.821868409969334,
                0.3227966643571436,
                -0.44182491439357885,
                1.828010217957207
            ]
        },
        {
            "positions": [
                -0.9663441437696401,
                -0.974178370690632,
                1.8419721091232129,
                0.20368654827681154,
                -0.3498585132116774,
                1.961446687400717
            ]
        },
        {
            "positions": [
                -0.9807676876660065,
                -0.9907863382324593,
                1.8620758082770916,
                0.0845764321964797,
                -0.2578921120297759,
                2.0948831568442268
            ]
        },
        {
            "positions": [
                -0.9951912315623729,
                -1.0073943057742867,
                1.8821795074309704,
                -0.03453368388385192,
                -0.16592571084787444,
                2.2283196262877363
            ]
        },
        {
            "positions": [
                -1.0096147754587395,
                -1.024002273316114,
                1.9022832065848492,
                -0.15364379996418398,
                -0.07395930966597297,
                2.3617560957312467
            ]
        },
        {
            "positions": [
                -1.024038319355106,
                -1.0406102408579414,
                1.922386905738728,
                -0.27275391604451604,
                0.018007091515928497,
                2.4951925651747566
            ]
        },
        {
            "positions": [
                -1.0384618632514722,
                -1.0572182083997688,
                1.9424906048926065,
                -0.39186403212484766,
                0.10997349269782974,
                2.628629034618266
            ]
        },
        {
            "positions": [
                -1.0528854071478386,
                -1.0738261759415961,
                1.9625943040464853,
                -0.5109741482051793,
                0.20193989387973144,
                2.762065504061776
            ]
        },
        {
            "positions": [
                -1.067308951044205,
                -1.0904341434834235,
                1.982698003200364,
                -0.6300842642855113,
                0.2939062950616327,
                2.895501973505286
            ]
        },
        {
            "positions": [
                -1.0817324949405716,
                -1.1070421110252509,
                2.002801702354243,
                -0.749194380365843,
                0.38587269624353393,
                3.028938442948796
            ]
        },
        {
            "positions": [
                -1.096156038836938,
                -1.1236500785670782,
                2.0229054015081216,
                -0.868304496446175,
                0.47783909742543573,
                3.162374912392306
            ]
        }
    ]
}