{
    "goal": {
        "global_pose": {
            "orientation": {
                "w": 0.005598929693374612,
                "x": 0.007748599140229565,
                "y": 0.7110244013736278,
                "z": -0.7031023480610252
            },
            "position": {
                "x": 0.1141497679147869,
                "y": -0.7141253447532654,
                "z": 0.3711530566215515
            }
        },
        "name": "move_to_auspresseinheit_B"
    },
    "id": "KPIECE_move_to_auspresseinheit_B_149",
    "joint_names": [
        "shoulder_pan_joint",
        "shoulder_lift_joint",
        "elbow_joint",
        "wrist_1_joint",
        "wrist_2_joint",
        "wrist_3_joint"
    ],
    "metrics": {
        "cart_traj_len": 0.5644088346890571,
        "distance_elbow_joint": 0.06333227665423369,
        "distance_shoulder_lift_joint": 0.29535660289183463,
        "distance_shoulder_pan_joint": 0.5775807956355317,
        "distance_wrist_1_joint": 0.3367674649386838,
        "distance_wrist_2_joint": 0.9936248699509833,
        "distance_wrist_3_joint": 0.010190654678727373,
        "smoothness": 3.806478935924272e-16,
        "time": 0.09400835,
        "traj_len": 1.5089243403000676,
        "weighted_distance": 1.9046328541210025
    },
    "planner": "KPIECE",
    "start": {
        "state": {
            "elbow_joint": 2.0193061681459312,
            "shoulder_lift_joint": -1.1220205130644991,
            "shoulder_pan_joint": -1.0952072088045026,
            "wrist_1_joint": -0.8559671810662515,
            "wrist_2_joint": 0.4759638712940361,
            "wrist_3_joint": 3.159081874192446
        }
    },
    "waypoints": [
        {
            "positions": [
                -1.0952072088045026,
                -1.1220205130644991,
                2.0193061681459312,
                -0.8559671810662515,
                0.4759638712940361,
                3.159081874192446
            ]
        },
        {
            "positions": [
                -1.191470674743758,
                -1.1712466135464716,
                2.008750788703559,
                -0.7998392702431375,
                0.6415680162858667,
                3.1573834317459912
            ]
        },
        {
            "positions": [
                -1.2877341406830132,
                -1.220472714028444,
                1.9981954092611867,
                -0.7437113594200235,
                0.8071721612776972,
                3.155684989299537
            ]
        },
        {
            "positions": [
                -1.3839976066222683,
                -1.2696988145104164,
                1.9876400298188144,
                -0.6875834485969096,
                0.9727763062695278,
                3.1539865468530826
            ]
        },
        {
            "positions": [
                -1.4802610725615237,
                -1.318924914992389,
                1.977084650376442,
                -0.6314555377737956,
                1.1383804512613582,
                3.1522881044066278
            ]
        },
        {
            "positions": [
                -1.5765245385007791,
                -1.3681510154743612,
                1.9665292709340698,
                -0.5753276269506816,
                1.3039845962531889,
                3.150589661960173
            ]
        },
        {
            "positions": [
                -1.6727880044400343,
                -1.4173771159563338,
                1.9559738914916975,
                -0.5191997161275677,
                1.4695887412450195,
                3.1488912195137186
            ]
        }
    ]
}