{
    "goal": {
        "global_pose": {
            "orientation": {
                "w": 0.7031023502349854,
                "x": -0.7110244035720825,
                "y": 0.007748599164187908,
                "z": 0.005598929710686207
            },
            "position": {
                "x": 0.11585023208521307,
                "y": 0.44412534475326537,
                "z": 0.3711530566215515
            }
        },
        "name": "move_to_auspresseinheit_A"
    },
    "id": "KPIECE_move_to_auspresseinheit_A_72",
    "joint_names": [
        "shoulder_pan_joint",
        "shoulder_lift_joint",
        "elbow_joint",
        "wrist_1_joint",
        "wrist_2_joint",
        "wrist_3_joint"
    ],
    "metrics": {
        "cart_traj_len": 2.0649407553884385,
        "distance_elbow_joint": 1.7955738319749495,
        "distance_shoulder_lift_joint": 0.7337443623772943,
        "distance_shoulder_pan_joint": 1.8846980387863033,
        "distance_wrist_1_joint": 2.4383672848088236,
        "distance_wrist_2_joint": 1.783968463116909,
        "distance_wrist_3_joint": 3.2279414858955917,
        "smoothness": 0.2774019115963345,
        "time": 0.404926736,
        "traj_len": 3.444458370623728,
        "weighted_distance": 4.747895553471747
    },
    "planner": "KPIECE",
    "start": {
        "state": {
            "elbow_joint": 2.4225746994637096,
            "shoulder_lift_joint": -1.373653595662188,
            "shoulder_pan_joint": -0.3378633848294565,
            "wrist_1_joint": -1.0288595594406726,
            "wrist_2_joint": 1.2330228066703421,
            "wrist_3_joint": 3.189163495502006
        }
    },
    "waypoints": [
        {
            "positions": [
                -0.3378633848294565,
                -1.373653595662188,
                2.4225746994637096,
                -1.0288595594406726,
                1.2330228066703421,
                3.189163495502006
            ]
        },
        {
            "positions": [
                -0.35155116840616973,
                -1.3680435927458396,
                2.354576591443421,
                -0.953729612948379,
                1.1558148802669912,
                3.0630518162384623
            ]
        },
        {
            "positions": [
                -0.365238951982883,
                -1.3624335898294913,
                2.286578483423132,
                -0.8785996664560853,
                1.0786069538636402,
                2.9369401369749193
            ]
        },
        {
            "positions": [
                -0.3789267355595962,
                -1.3568235869131429,
                2.2185803754028437,
                -0.8034697199637918,
                1.0013990274602893,
                2.810828457711376
            ]
        },
        {
            "positions": [
                -0.3926145191363095,
                -1.3512135839967945,
                2.1505822673825548,
                -0.7283397734714981,
                0.9241911010569381,
                2.6847167784478323
            ]
        },
        {
            "positions": [
                -0.40630230271302276,
                -1.345603581080446,
                2.0825841593622663,
                -0.6532098269792046,
                0.8469831746535872,
                2.5586050991842892
            ]
        },
        {
            "positions": [
                -0.419990086289736,
                -1.3399935781640977,
                2.0145860513419773,
                -0.578079880486911,
                0.7697752482502362,
                2.4324934199207457
            ]
        },
        {
            "positions": [
                -0.43367786986644924,
                -1.3343835752477493,
                1.9465879433216888,
                -0.5029499339946173,
                0.6925673218468853,
                2.3063817406572023
            ]
        },
        {
            "positions": [
                -0.4473656534431625,
                -1.328773572331401,
                1.8785898353014001,
                -0.42781998750232364,
                0.6153593954435342,
                2.180270061393659
            ]
        },
        {
            "positions": [
                -0.4610534370198757,
                -1.3231635694150525,
                1.8105917272811114,
                -0.3526900410100301,
                0.5381514690401833,
                2.0541583821301157
            ]
        },
        {
            "positions": [
                -0.47474122059658896,
                -1.3175535664987041,
                1.742593619260823,
                -0.27756009451773644,
                0.46094354263683235,
                1.9280467028665722
            ]
        },
        {
            "positions": [
                -0.48842900417330226,
                -1.3119435635823558,
                1.674595511240534,
                -0.2024301480254428,
                0.3837356162334814,
                1.801935023603029
            ]
        },
        {
            "positions": [
                -0.5021167877500154,
                -1.3063335606660074,
                1.6065974032202455,
                -0.12730020153314914,
                0.30652768983013035,
                1.6758233443394854
            ]
        },
        {
            "positions": [
                -0.5158045713267287,
                -1.300723557749659,
                1.5385992951999568,
                -0.05217025504085554,
                0.22931976342677937,
                1.5497116650759422
            ]
        },
        {
            "positions": [
                -0.35359405649942555,
                -1.3699425228325381,
                1.534281079231096,
                0.023632867322067708,
                0.208071892972709,
                1.5597276165621634
            ]
        },
        {
            "positions": [
                -0.19138354167212235,
                -1.439161487915417,
                1.5299628632622349,
                0.09943598968499096,
                0.1868240225186386,
                1.5697435680483847
            ]
        },
        {
            "positions": [
                -0.02917302684481915,
                -1.5083804529982963,
                1.525644647293374,
                0.1752391120479142,
                0.16557615206456824,
                1.579759519534606
            ]
        },
        {
            "positions": [
                0.13303748798248405,
                -1.5775994180811752,
                1.5213264313245132,
                0.25104223441083745,
                0.14432828161049788,
                1.589775471020827
            ]
        },
        {
            "positions": [
                0.29524800280978725,
                -1.6468183831640544,
                1.5170082153556523,
                0.32684535677376075,
                0.12308041115642748,
                1.5997914225070482
            ]
        },
        {
            "positions": [
                0.45745851763709044,
                -1.7160373482469333,
                1.5126899993867913,
                0.40264847913668395,
                0.10183254070235712,
                1.6098073739932695
            ]
        },
        {
            "positions": [
                0.6196690324643936,
                -1.7852563133298125,
                1.5083717834179304,
                0.4784516014996073,
                0.08058467024828672,
                1.6198233254794907
            ]
        },
        {
            "positions": [
                0.6847395023875105,
                -1.804364839934954,
                1.5546231408329285,
                0.4447770147316227,
                0.1300108898458196,
                1.72060480293568
            ]
        },
        {
            "positions": [
                0.7498099723106272,
                -1.823473366540095,
                1.6008744982479266,
                0.411102427963638,
                0.1794371094433525,
                1.821386280391869
            ]
        },
        {
            "positions": [
                0.8148804422337439,
                -1.8425818931452365,
                1.647125855662925,
                0.3774278411956533,
                0.22886332904088538,
                1.922167757848058
            ]
        },
        {
            "positions": [
                0.8799509121568607,
                -1.8616904197503779,
                1.693377213077923,
                0.3437532544276687,
                0.27828954863841826,
                2.0229492353042473
            ]
        },
        {
            "positions": [
                0.8897864222233667,
                -1.8714597949782372,
                1.7811777172707002,
                0.2684049713904522,
                0.335547573422873,
                2.156523772621498
            ]
        },
        {
            "positions": [
                0.8996219322898726,
                -1.8812291702060968,
                1.8689782214634771,
                0.19305668835323572,
                0.39280559820732774,
                2.290098309938749
            ]
        },
        {
            "positions": [
                0.9094574423563786,
                -1.8909985454339562,
                1.9567787256562543,
                0.11770840531601923,
                0.4500636229917825,
                2.4236728472559994
            ]
        },
        {
            "positions": [
                0.9192929524228847,
                -1.9007679206618158,
                2.0445792298490315,
                0.04236012227880276,
                0.5073216477762372,
                2.55724738457325
            ]
        },
        {
            "positions": [
                0.9291284624893906,
                -1.9105372958896751,
                2.1323797340418085,
                -0.032988160758413765,
                0.564579672560692,
                2.6908219218905005
            ]
        },
        {
            "positions": [
                0.9389639725558966,
                -1.9203066711175347,
                2.220180238234586,
                -0.10833644379563023,
                0.6218376973451467,
                2.824396459207751
            ]
        },
        {
            "positions": [
                0.9487994826224025,
                -1.930076046345394,
                2.307980742427363,
                -0.18368472683284678,
                0.6790957221296015,
                2.957970996525002
            ]
        },
        {
            "positions": [
                0.9452888428536113,
                -1.934355952712234,
                2.3577931647859107,
                -0.23274885795710165,
                0.7104893842247421,
                3.0347461278502514
            ]
        },
        {
            "positions": [
                0.8259677635680571,
                -1.9207649879611388,
                2.3737679320665057,
                -0.3426766901630189,
                0.709676577865543,
                3.0864737241978606
            ]
        },
        {
            "positions": [
                0.706646684282503,
                -1.9071740232100438,
                2.3897426993471007,
                -0.4526045223689361,
                0.7088637715063438,
                3.13820132054547
            ]
        }
    ]
}