{
    "goal": {
        "global_pose": {
            "orientation": {
                "w": 0.7047431468963623,
                "x": -0.7094548344612122,
                "y": 0.0024358443915843964,
                "z": -0.0022348060738295317
            },
            "position": {
                "x": 0.6094750761985779,
                "y": 0.3671506643295288,
                "z": 0.19426114857196808
            }
        },
        "name": "move_to_magneteinheit_A"
    },
    "id": "KPIECE_move_to_magneteinheit_A_83",
    "joint_names": [
        "shoulder_pan_joint",
        "shoulder_lift_joint",
        "elbow_joint",
        "wrist_1_joint",
        "wrist_2_joint",
        "wrist_3_joint"
    ],
    "metrics": {
        "cart_traj_len": 1.9689571692049181,
        "distance_elbow_joint": 3.575986415654171,
        "distance_shoulder_lift_joint": 0.7873960311641293,
        "distance_shoulder_pan_joint": 1.241838953394698,
        "distance_wrist_1_joint": 1.178607746189477,
        "distance_wrist_2_joint": 1.450297634309019,
        "distance_wrist_3_joint": 1.979402030420204,
        "smoothness": 5.921189474439232e-16,
        "time": 0.11794501800000001,
        "traj_len": 3.1958612002293996,
        "weighted_distance": 4.0989313549351625
    },
    "planner": "KPIECE",
    "start": {
        "state": {
            "elbow_joint": -1.5739458827952972,
            "shoulder_lift_joint": 0.006533473998580023,
            "shoulder_pan_joint": -1.1188671628667068,
            "wrist_1_joint": 3.138208179676308,
            "wrist_2_joint": -1.5706037135050406,
            "wrist_3_joint": -2.0226958329764257
        }
    },
    "waypoints": [
        {
            "positions": [
                -1.1188671628667068,
                0.006533473998580023,
                -1.5739458827952972,
                3.138208179676308,
                -1.5706037135050406,
                -2.0226958329764257
            ]
        },
        {
            "positions": [
                -1.07110412619768,
                -0.023750988738501875,
                -1.4364079437316752,
                3.0928771125151746,
                -1.514823035262386,
                -1.9465649856525717
            ]
        },
        {
            "positions": [
                -1.0233410895286532,
                -0.05403545147558377,
                -1.2988700046680532,
                3.0475460453540406,
                -1.4590423570197315,
                -1.8704341383287177
            ]
        },
        {
            "positions": [
                -0.9755780528596263,
                -0.08431991421266567,
                -1.1613320656044313,
                3.002214978192907,
                -1.4032616787770769,
                -1.7943032910048637
            ]
        },
        {
            "positions": [
                -0.9278150161905995,
                -0.11460437694974757,
                -1.0237941265408095,
                2.956883911031773,
                -1.3474810005344222,
                -1.7181724436810097
            ]
        },
        {
            "positions": [
                -0.8800519795215725,
                -0.14488883968682945,
                -0.8862561874771874,
                2.9115528438706395,
                -1.2917003222917676,
                -1.6420415963571557
            ]
        },
        {
            "positions": [
                -0.8322889428525457,
                -0.17517330242391135,
                -0.7487182484135654,
                2.866221776709506,
                -1.2359196440491131,
                -1.5659107490333017
            ]
        },
        {
            "positions": [
                -0.7845259061835189,
                -0.2054577651609932,
                -0.6111803093499436,
                2.820890709548372,
                -1.1801389658064585,
                -1.4897799017094477
            ]
        },
        {
            "positions": [
                -0.7367628695144921,
                -0.23574222789807514,
                -0.4736423702863215,
                2.7755596423872384,
                -1.1243582875638038,
                -1.4136490543855937
            ]
        },
        {
            "positions": [
                -0.6889998328454652,
                -0.26602669063515705,
                -0.33610443122269973,
                2.7302285752261044,
                -1.0685776093211494,
                -1.3375182070617397
            ]
        },
        {
            "positions": [
                -0.6412367961764383,
                -0.29631115337223896,
                -0.1985664921590775,
                2.684897508064971,
                -1.0127969310784948,
                -1.2613873597378857
            ]
        },
        {
            "positions": [
                -0.5934737595074115,
                -0.3265956161093208,
                -0.06102855309545574,
                2.6395664409038373,
                -0.9570162528358402,
                -1.1852565124140317
            ]
        },
        {
            "positions": [
                -0.5457107228383846,
                -0.35688007884640277,
                0.07650938596816648,
                2.5942353737427033,
                -0.9012355745931856,
                -1.1091256650901777
            ]
        },
        {
            "positions": [
                -0.4979476861693578,
                -0.3871645415834846,
                0.21404732503178825,
                2.5489043065815697,
                -0.8454548963505311,
                -1.0329948177663237
            ]
        },
        {
            "positions": [
                -0.450184649500331,
                -0.4174490043205665,
                0.35158526409541,
                2.5035732394204357,
                -0.7896742181078765,
                -0.9568639704424697
            ]
        },
        {
            "positions": [
                -0.4024216128313042,
                -0.4477334670576484,
                0.4891232031590318,
                2.458242172259302,
                -0.733893539865222,
                -0.8807331231186157
            ]
        },
        {
            "positions": [
                -0.35465857616227725,
                -0.47801792979473035,
                0.6266611422226542,
                2.4129111050981686,
                -0.6781128616225672,
                -0.8046022757947617
            ]
        },
        {
            "positions": [
                -0.30689553949325044,
                -0.5083023925318122,
                0.7641990812862762,
                2.3675800379370346,
                -0.6223321833799127,
                -0.7284714284709077
            ]
        },
        {
            "positions": [
                -0.2591325028242236,
                -0.538586855268894,
                0.9017370203498978,
                2.322248970775901,
                -0.5665515051372583,
                -0.6523405811470537
            ]
        },
        {
            "positions": [
                -0.2113694661551968,
                -0.5688713180059759,
                1.0392749594135198,
                2.276917903614767,
                -0.5107708268946036,
                -0.5762097338231997
            ]
        },
        {
            "positions": [
                -0.16360642948616977,
                -0.5991557807430579,
                1.1768128984771422,
                2.2315868364536335,
                -0.454990148651949,
                -0.5000788864993457
            ]
        },
        {
            "positions": [
                -0.11584339281714295,
                -0.6294402434801397,
                1.3143508375407642,
                2.1862557692925,
                -0.39920947040929433,
                -0.42394803917549173
            ]
        },
        {
            "positions": [
                -0.06808035614811625,
                -0.6597247062172216,
                1.4518887766043858,
                2.140924702131366,
                -0.3434287921666399,
                -0.34781719185163773
            ]
        },
        {
            "positions": [
                -0.020317319479089324,
                -0.6900091689543035,
                1.5894267156680078,
                2.0955936349702324,
                -0.28764811392398526,
                -0.27168634452778373
            ]
        },
        {
            "positions": [
                0.027445717189937602,
                -0.7202936316913855,
                1.7269646547316302,
                2.0502625678090984,
                -0.2318674356813306,
                -0.19555549720392973
            ]
        },
        {
            "positions": [
                0.0752087538589643,
                -0.7505780944284673,
                1.8645025937952517,
                2.004931500647965,
                -0.1760867574386762,
                -0.11942464988007573
            ]
        },
        {
            "positions": [
                0.12297179052799116,
                -0.7808625571655492,
                2.0020405328588735,
                1.959600433486831,
                -0.12030607919602153,
                -0.04329380255622164
            ]
        }
    ]
}