{
    "goal": {
        "global_pose": {
            "orientation": {
                "w": 0.5084816217422485,
                "x": -0.49083608388900757,
                "y": 0.5182115435600281,
                "z": -0.4816462993621826
            },
            "position": {
                "x": 0.5540239810943604,
                "y": 0.030875300988554955,
                "z": 0.16403168439865112
            }
        },
        "name": "move_to_storage_A"
    },
    "id": "KPIECE_move_to_storage_A_115",
    "joint_names": [
        "shoulder_pan_joint",
        "shoulder_lift_joint",
        "elbow_joint",
        "wrist_1_joint",
        "wrist_2_joint",
        "wrist_3_joint"
    ],
    "metrics": {
        "cart_traj_len": 0.3526651749123045,
        "distance_elbow_joint": 0.4508171351888264,
        "distance_shoulder_lift_joint": 0.2358495133296834,
        "distance_shoulder_pan_joint": 0.4626816914865914,
        "distance_wrist_1_joint": 0.24538571373923967,
        "distance_wrist_2_joint": 1.0921419471162848,
        "distance_wrist_3_joint": 0.09176608292764943,
        "smoothness": 8.881784232165597e-16,
        "time": 0.055792289,
        "traj_len": 1.6058150839334757,
        "weighted_distance": 2.0247720638380753
    },
    "planner": "KPIECE",
    "start": {
        "state": {
            "elbow_joint": 1.971548880431181,
            "shoulder_lift_joint": -1.1394869514688781,
            "shoulder_pan_joint": 0.12281150262730567,
            "wrist_1_joint": -0.7804693444481463,
            "wrist_2_joint": 0.12958644648617612,
            "wrist_3_joint": 3.0906942077768043
        }
    },
    "waypoints": [
        {
            "positions": [
                0.12281150262730567,
                -1.1394869514688781,
                1.971548880431181,
                -0.7804693444481463,
                0.12958644648617612,
                3.0906942077768043
            ]
        },
        {
            "positions": [
                0.05671411812922118,
                -1.1731797390874044,
                2.035951328315299,
                -0.8155244464108948,
                0.2856067246456454,
                3.10380364819504
            ]
        },
        {
            "positions": [
                -0.009383266368863302,
                -1.2068725267059306,
                2.100353776199417,
                -0.8505795483736434,
                0.44162700280511463,
                3.1169130886132757
            ]
        },
        {
            "positions": [
                -0.07548065086694777,
                -1.2405653143244568,
                2.164756224083535,
                -0.8856346503363919,
                0.5976472809645839,
                3.1300225290315113
            ]
        },
        {
            "positions": [
                -0.14157803536503227,
                -1.2742581019429828,
                2.229158671967653,
                -0.9206897522991404,
                0.7536675591240531,
                3.1431319694497466
            ]
        },
        {
            "positions": [
                -0.20767541986311677,
                -1.307950889561509,
                2.293561119851771,
                -0.9557448542618889,
                0.9096878372835224,
                3.1562414098679823
            ]
        },
        {
            "positions": [
                -0.2737728043612012,
                -1.3416436771800353,
                2.357963567735889,
                -0.9907999562246375,
                1.0657081154429915,
                3.169350850286218
            ]
        },
        {
            "positions": [
                -0.3398701888592857,
                -1.3753364647985615,
                2.4223660156200073,
                -1.025855058187386,
                1.221728393602461,
                3.1824602907044537
            ]
        }
    ]
}