{
    "goal": {
        "global_pose": {
            "orientation": {
                "w": 0.005598929693374612,
                "x": 0.007748599140229565,
                "y": 0.7110244013736278,
                "z": -0.7031023480610252
            },
            "position": {
                "x": 0.1141497679147869,
                "y": -0.7141253447532654,
                "z": 0.3711530566215515
            }
        },
        "name": "move_to_auspresseinheit_B"
    },
    "id": "KPIECE_move_to_auspresseinheit_B_100",
    "joint_names": [
        "shoulder_pan_joint",
        "shoulder_lift_joint",
        "elbow_joint",
        "wrist_1_joint",
        "wrist_2_joint",
        "wrist_3_joint"
    ],
    "metrics": {
        "cart_traj_len": 0.5640047941003131,
        "distance_elbow_joint": 0.0587207286324154,
        "distance_shoulder_lift_joint": 0.29701542235224876,
        "distance_shoulder_pan_joint": 0.5776081546009364,
        "distance_wrist_1_joint": 0.3177305230660158,
        "distance_wrist_2_joint": 0.9884418512231219,
        "distance_wrist_3_joint": 0.007132253859861493,
        "smoothness": 5.075305255429287e-16,
        "time": 0.28157281,
        "traj_len": 1.4988825616887402,
        "weighted_distance": 1.888673030395537
    },
    "planner": "KPIECE",
    "start": {
        "state": {
            "elbow_joint": 2.0193061681459312,
            "shoulder_lift_joint": -1.1220205130644991,
            "shoulder_pan_joint": -1.0952072088045026,
            "wrist_1_joint": -0.8559671810662515,
            "wrist_2_joint": 0.4759638712940361,
            "wrist_3_joint": 3.159081874192446
        }
    },
    "waypoints": [
        {
            "positions": [
                -1.0952072088045026,
                -1.1220205130644991,
                2.0193061681459312,
                -0.8559671810662515,
                0.4759638712940361,
                3.159081874192446
            ]
        },
        {
            "positions": [
                -1.1914752345713253,
                -1.1715230834565407,
                2.009519380040529,
                -0.8030120938885822,
                0.6407041798312231,
                3.1578931652158024
            ]
        },
        {
            "positions": [
                -1.287743260338148,
                -1.221025653848582,
                1.999732591935126,
                -0.7500570067109129,
                0.80544448836841,
                3.156704456239159
            ]
        },
        {
            "positions": [
                -1.384011286104971,
                -1.2705282242406235,
                1.9899458038297235,
                -0.6971019195332435,
                0.970184796905597,
                3.1555157472625153
            ]
        },
        {
            "positions": [
                -1.4802793118717936,
                -1.320030794632665,
                1.980159015724321,
                -0.6441468323555744,
                1.134925105442784,
                3.1543270382858717
            ]
        },
        {
            "positions": [
                -1.5765473376386163,
                -1.3695333650247064,
                1.9703722276189184,
                -0.591191745177905,
                1.299665413979971,
                3.153138329309228
            ]
        },
        {
            "positions": [
                -1.672815363405439,
                -1.4190359354167479,
                1.9605854395135158,
                -0.5382366580002357,
                1.464405722517158,
                3.1519496203325845
            ]
        }
    ]
}