{
    "goal": {
        "global_pose": {
            "orientation": {
                "w": 0.7047431468963623,
                "x": -0.7094548344612122,
                "y": 0.0024358443915843964,
                "z": -0.0022348060738295317
            },
            "position": {
                "x": 0.6094750761985779,
                "y": 0.3671506643295288,
                "z": 0.19426114857196808
            }
        },
        "name": "move_to_magneteinheit_A"
    },
    "id": "KPIECE_move_to_magneteinheit_A_89",
    "joint_names": [
        "shoulder_pan_joint",
        "shoulder_lift_joint",
        "elbow_joint",
        "wrist_1_joint",
        "wrist_2_joint",
        "wrist_3_joint"
    ],
    "metrics": {
        "cart_traj_len": 2.777113916181547,
        "distance_elbow_joint": 3.5665300580513835,
        "distance_shoulder_lift_joint": 1.7659551281548302,
        "distance_shoulder_pan_joint": 1.241108194028295,
        "distance_wrist_1_joint": 5.751467492065065,
        "distance_wrist_2_joint": 3.6636454567230947,
        "distance_wrist_3_joint": 1.0889115028882186,
        "smoothness": 0.3276022035547132,
        "time": 0.112967289,
        "traj_len": 4.13250745092019,
        "weighted_distance": 5.354489124694855
    },
    "planner": "KPIECE",
    "start": {
        "state": {
            "elbow_joint": -1.5739458827952972,
            "shoulder_lift_joint": 0.006533473998580023,
            "shoulder_pan_joint": -1.1188671628667068,
            "wrist_1_joint": 3.138208179676308,
            "wrist_2_joint": -1.5706037135050406,
            "wrist_3_joint": -2.0226958329764257
        }
    },
    "waypoints": [
        {
            "positions": [
                -1.1188671628667068,
                0.006533473998580023,
                -1.5739458827952972,
                3.138208179676308,
                -1.5706037135050406,
                -2.0226958329764257
            ]
        },
        {
            "positions": [
                -1.1155411171276313,
                -0.040604112423395074,
                -1.5102634360946667,
                2.9808923593647974,
                -1.483964034813911,
                -2.051181013143537
            ]
        },
        {
            "positions": [
                -1.1122150713885557,
                -0.08774169884537017,
                -1.446580989394036,
                2.823576539053287,
                -1.3973243561227813,
                -2.079666193310649
            ]
        },
        {
            "positions": [
                -1.10888902564948,
                -0.13487928526734527,
                -1.3828985426934055,
                2.666260718741776,
                -1.3106846774316514,
                -2.10815137347776
            ]
        },
        {
            "positions": [
                -1.1055629799104048,
                -0.18201687168932035,
                -1.319216095992775,
                2.508944898430266,
                -1.2240449987405218,
                -2.136636553644872
            ]
        },
        {
            "positions": [
                -1.1022369341713292,
                -0.22915445811129545,
                -1.2555336492921443,
                2.351629078118755,
                -1.137405320049392,
                -2.1651217338119833
            ]
        },
        {
            "positions": [
                -1.0989108884322536,
                -0.2762920445332706,
                -1.1918512025915138,
                2.1943132578072446,
                -1.0507656413582622,
                -2.193606913979095
            ]
        },
        {
            "positions": [
                -1.095584842693178,
                -0.3234296309552457,
                -1.1281687558908833,
                2.036997437495734,
                -0.9641259626671327,
                -2.2220920941462063
            ]
        },
        {
            "positions": [
                -1.0922587969541024,
                -0.37056721737722076,
                -1.0644863091902526,
                1.8796816171842232,
                -0.877486283976003,
                -2.250577274313318
            ]
        },
        {
            "positions": [
                -1.0889327512150269,
                -0.41770480379919595,
                -1.000803862489622,
                1.7223657968727126,
                -0.7908466052848732,
                -2.2790624544804294
            ]
        },
        {
            "positions": [
                -1.0856067054759515,
                -0.46484239022117096,
                -0.9371214157889916,
                1.565049976561202,
                -0.7042069265937436,
                -2.307547634647541
            ]
        },
        {
            "positions": [
                -1.082280659736876,
                -0.5119799766431461,
                -0.8734389690883609,
                1.4077341562496914,
                -0.6175672479026139,
                -2.3360328148146525
            ]
        },
        {
            "positions": [
                -1.0789546139978003,
                -0.5591175630651212,
                -0.8097565223877304,
                1.2504183359381809,
                -0.5309275692114841,
                -2.3645179949817643
            ]
        },
        {
            "positions": [
                -1.0756285682587248,
                -0.6062551494870962,
                -0.7460740756870998,
                1.0931025156266703,
                -0.44428789052035444,
                -2.3930031751488756
            ]
        },
        {
            "positions": [
                -1.0723025225196492,
                -0.6533927359090713,
                -0.6823916289864693,
                0.9357866953151595,
                -0.3576482118292248,
                -2.4214883553159874
            ]
        },
        {
            "positions": [
                -1.0689764767805736,
                -0.7005303223310465,
                -0.6187091822858387,
                0.7784708750036491,
                -0.2710085331380949,
                -2.4499735354830987
            ]
        },
        {
            "positions": [
                -1.0656504310414983,
                -0.7476679087530215,
                -0.5550267355852081,
                0.6211550546921383,
                -0.1843688544469655,
                -2.4784587156502105
            ]
        },
        {
            "positions": [
                -1.0623243853024227,
                -0.7948054951749965,
                -0.4913442888845776,
                0.4638392343806279,
                -0.09772917575583584,
                -2.506943895817322
            ]
        },
        {
            "positions": [
                -1.058998339563347,
                -0.8419430815969718,
                -0.42766184218394687,
                0.3065234140691171,
                -0.011089497064705744,
                -2.5354290759844336
            ]
        },
        {
            "positions": [
                -1.0556722938242715,
                -0.8890806680189468,
                -0.36397939548331637,
                0.14920759375760628,
                0.07555018162642368,
                -2.563914256151545
            ]
        },
        {
            "positions": [
                -1.052346248085196,
                -0.9362182544409219,
                -0.30029694878268587,
                -0.008108226553904085,
                0.16218986031755334,
                -2.5923994363186567
            ]
        },
        {
            "positions": [
                -1.0490202023461204,
                -0.983355840862897,
                -0.23661450208205537,
                -0.16542404686541445,
                0.248829539008683,
                -2.620884616485768
            ]
        },
        {
            "positions": [
                -1.045694156607045,
                -1.0304934272848723,
                -0.17293205538142464,
                -0.32273986717692527,
                0.33546921769981286,
                -2.6493697966528797
            ]
        },
        {
            "positions": [
                -1.0423681108679694,
                -1.0776310137068472,
                -0.10924960868079414,
                -0.4800556874884361,
                0.4221088963909425,
                -2.677854976819991
            ]
        },
        {
            "positions": [
                -1.0390420651288939,
                -1.1247686001288224,
                -0.04556716198016364,
                -0.6373715077999464,
                0.5087485750820724,
                -2.7063401569871024
            ]
        },
        {
            "positions": [
                -1.0357160193898183,
                -1.1719061865507974,
                0.018115284720466862,
                -0.7946873281114568,
                0.5953882537732018,
                -2.734825337154214
            ]
        },
        {
            "positions": [
                -1.0323899736507427,
                -1.2190437729727726,
                0.08179773142109759,
                -0.9520031484229676,
                0.6820279324643317,
                -2.763310517321326
            ]
        },
        {
            "positions": [
                -1.0290639279116671,
                -1.2661813593947477,
                0.1454801781217281,
                -1.1093189687344784,
                0.7686676111554616,
                -2.7917956974884373
            ]
        },
        {
            "positions": [
                -1.0257378821725918,
                -1.3133189458167227,
                0.2091626248223586,
                -1.2666347890459893,
                0.855307289846591,
                -2.8202808776555486
            ]
        },
        {
            "positions": [
                -1.0224118364335162,
                -1.3604565322386977,
                0.2728450715229891,
                -1.4239506093574992,
                0.9419469685377204,
                -2.8487660578226603
            ]
        },
        {
            "positions": [
                -1.0190857906944406,
                -1.407594118660673,
                0.3365275182236198,
                -1.58126642966901,
                1.0285866472288507,
                -2.877251237989772
            ]
        },
        {
            "positions": [
                -1.015759744955365,
                -1.454731705082648,
                0.4002099649242504,
                -1.7385822499805208,
                1.1152263259199802,
                -2.9057364181568834
            ]
        },
        {
            "positions": [
                -0.9282212237155993,
                -1.4312940166923709,
                0.5227002887959301,
                -1.6712993990260412,
                1.0400097553585899,
                -2.921572642595942
            ]
        },
        {
            "positions": [
                -0.8406827024758338,
                -1.407856328302094,
                0.6451906126676099,
                -1.6040165480715618,
                0.9647931847971996,
                -2.9374088670350007
            ]
        },
        {
            "positions": [
                -0.7531441812360682,
                -1.3844186399118168,
                0.7676809365392896,
                -1.5367336971170822,
                0.8895766142358092,
                -2.953245091474059
            ]
        },
        {
            "positions": [
                -0.6656056599963025,
                -1.3609809515215396,
                0.8901712604109693,
                -1.4694508461626026,
                0.814360043674419,
                -2.9690813159131175
            ]
        },
        {
            "positions": [
                -0.5780671387565368,
                -1.3375432631312627,
                1.012661584282649,
                -1.4021679952081232,
                0.7391434731130287,
                -2.984917540352176
            ]
        },
        {
            "positions": [
                -0.49052861751677124,
                -1.3141055747409855,
                1.1351519081543286,
                -1.3348851442536436,
                0.6639269025516384,
                -3.000753764791235
            ]
        },
        {
            "positions": [
                -0.40299009627700555,
                -1.2906678863507084,
                1.2576422320260083,
                -1.2676022932991642,
                0.5887103319902482,
                -3.016589989230293
            ]
        },
        {
            "positions": [
                -0.31545157503723986,
                -1.2672301979604312,
                1.3801325558976882,
                -1.2003194423446844,
                0.5134937614288579,
                -3.0324262136693516
            ]
        },
        {
            "positions": [
                -0.22791305379747429,
                -1.2437925095701543,
                1.5026228797693677,
                -1.133036591390205,
                0.43827719086746764,
                -3.0482624381084102
            ]
        },
        {
            "positions": [
                -0.1403745325577086,
                -1.2203548211798771,
                1.6251132036410478,
                -1.0657537404357256,
                0.36306062030607733,
                -3.064098662547469
            ]
        },
        {
            "positions": [
                -0.05283601131794302,
                -1.1969171327896002,
                1.7476035275127275,
                -0.998470889481246,
                0.28784404974468714,
                -3.079934886986527
            ]
        },
        {
            "positions": [
                0.034702509921822555,
                -1.173479444399323,
                1.8700938513844072,
                -0.9311880385267663,
                0.21262747918329672,
                -3.0957711114255857
            ]
        },
        {
            "positions": [
                0.12224103116158831,
                -1.150041756009046,
                1.9925841752560867,
                -0.8639051875722868,
                0.13741090862190652,
                -3.1116073358646443
            ]
        }
    ]
}