{
    "goal": {
        "global_pose": {
            "orientation": {
                "w": 0.005598929693374612,
                "x": 0.007748599140229565,
                "y": 0.7110244013736278,
                "z": -0.7031023480610252
            },
            "position": {
                "x": 0.1141497679147869,
                "y": -0.7141253447532654,
                "z": 0.3711530566215515
            }
        },
        "name": "move_to_auspresseinheit_B"
    },
    "id": "KPIECE_move_to_auspresseinheit_B_57",
    "joint_names": [
        "shoulder_pan_joint",
        "shoulder_lift_joint",
        "elbow_joint",
        "wrist_1_joint",
        "wrist_2_joint",
        "wrist_3_joint"
    ],
    "metrics": {
        "cart_traj_len": 0.5639085761014979,
        "distance_elbow_joint": 0.06187343118831823,
        "distance_shoulder_lift_joint": 0.29472236149838915,
        "distance_shoulder_pan_joint": 0.5748338689091588,
        "distance_wrist_1_joint": 0.3228142758658008,
        "distance_wrist_2_joint": 0.9992380980704647,
        "distance_wrist_3_joint": 0.006980443839462502,
        "smoothness": 0.0,
        "time": 0.305607454,
        "traj_len": 1.5034834483197992,
        "weighted_distance": 1.896437644898135
    },
    "planner": "KPIECE",
    "start": {
        "state": {
            "elbow_joint": 2.0193061681459312,
            "shoulder_lift_joint": -1.1220205130644991,
            "shoulder_pan_joint": -1.0952072088045026,
            "wrist_1_joint": -0.8559671810662515,
            "wrist_2_joint": 0.4759638712940361,
            "wrist_3_joint": 3.159081874192446
        }
    },
    "waypoints": [
        {
            "positions": [
                -1.0952072088045026,
                -1.1220205130644991,
                2.0193061681459312,
                -0.8559671810662515,
                0.4759638712940361,
                3.159081874192446
            ]
        },
        {
            "positions": [
                -1.1910128536226958,
                -1.171140906647564,
                2.0089939296145447,
                -0.8021648017552847,
                0.6425035543057802,
                3.157918466885869
            ]
        },
        {
            "positions": [
                -1.2868184984408888,
                -1.2202613002306288,
                1.9986816910831584,
                -0.7483624224443178,
                0.8090432373175243,
                3.1567550595792917
            ]
        },
        {
            "positions": [
                -1.382624143259082,
                -1.2693816938136937,
                1.988369452551772,
                -0.6945600431333511,
                0.9755829203292685,
                3.1555916522727148
            ]
        },
        {
            "positions": [
                -1.4784297880772752,
                -1.3185020873967586,
                1.9780572140203858,
                -0.6407576638223843,
                1.1421226033410126,
                3.154428244966138
            ]
        },
        {
            "positions": [
                -1.5742354328954682,
                -1.3676224809798234,
                1.9677449754889993,
                -0.5869552845114174,
                1.3086622863527568,
                3.1532648376595604
            ]
        },
        {
            "positions": [
                -1.6700410777136614,
                -1.4167428745628883,
                1.957432736957613,
                -0.5331529052004507,
                1.4752019693645009,
                3.1521014303529835
            ]
        }
    ]
}