{
    "goal": {
        "global_pose": {
            "orientation": {
                "w": 0.5084816262002911,
                "x": -0.4908360881923452,
                "y": 0.5182115481033761,
                "z": -0.48164630358495003
            },
            "position": {
                "x": 0.5540239810943604,
                "y": -0.46912469901144505,
                "z": 0.16403168439865112
            }
        },
        "name": "move_to_storage_B"
    },
    "id": "KPIECE_move_to_storage_B_63",
    "joint_names": [
        "shoulder_pan_joint",
        "shoulder_lift_joint",
        "elbow_joint",
        "wrist_1_joint",
        "wrist_2_joint",
        "wrist_3_joint"
    ],
    "metrics": {
        "cart_traj_len": 1.7773909738594036,
        "distance_elbow_joint": 0.35241033161752244,
        "distance_shoulder_lift_joint": 1.2389041310868412,
        "distance_shoulder_pan_joint": 1.4462485726728094,
        "distance_wrist_1_joint": 2.988181289429122,
        "distance_wrist_2_joint": 2.7068264415555476,
        "distance_wrist_3_joint": 3.503063638917216,
        "smoothness": 0.2032788633169706,
        "time": 0.075156958,
        "traj_len": 3.4979471701669627,
        "weighted_distance": 4.993672938238764
    },
    "planner": "KPIECE",
    "start": {
        "state": {
            "elbow_joint": 1.6649325340416963,
            "shoulder_lift_joint": -0.6616387945129425,
            "shoulder_pan_joint": -0.9139837929255878,
            "wrist_1_joint": 2.1467571094334352,
            "wrist_2_joint": -2.234195976750228,
            "wrist_3_joint": 0.005470921511140723
        }
    },
    "waypoints": [
        {
            "positions": [
                -0.9139837929255878,
                -0.6616387945129425,
                1.6649325340416963,
                2.1467571094334352,
                -2.234195976750228,
                0.005470921511140723
            ]
        },
        {
            "positions": [
                -0.8653582439891557,
                -0.7269829862332827,
                1.6733200789273555,
                2.041102157317098,
                -2.095375822014999,
                -0.008528312224525644
            ]
        },
        {
            "positions": [
                -0.8167326950527236,
                -0.792327177953623,
                1.6817076238130146,
                1.9354472052007605,
                -1.95655566727977,
                -0.022527545960192012
            ]
        },
        {
            "positions": [
                -0.7681071461162916,
                -0.8576713696739633,
                1.6900951686986736,
                1.829792253084423,
                -1.817735512544541,
                -0.03652677969585838
            ]
        },
        {
            "positions": [
                -0.7194815971798594,
                -0.9230155613943035,
                1.6984827135843328,
                1.7241373009680858,
                -1.678915357809312,
                -0.05052601343152475
            ]
        },
        {
            "positions": [
                -0.6708560482434274,
                -0.9883597531146437,
                1.706870258469992,
                1.6184823488517484,
                -1.5400952030740829,
                -0.06452524716719113
            ]
        },
        {
            "positions": [
                -0.6222304993069953,
                -1.053703944834984,
                1.7152578033556511,
                1.512827396735411,
                -1.4012750483388539,
                -0.07852448090285749
            ]
        },
        {
            "positions": [
                -0.5736049503705631,
                -1.1190481365553242,
                1.72364534824131,
                1.4071724446190736,
                -1.2624548936036248,
                -0.09252371463852385
            ]
        },
        {
            "positions": [
                -0.524979401434131,
                -1.1843923282756645,
                1.7320328931269693,
                1.3015174925027362,
                -1.1236347388683956,
                -0.10652294837419023
            ]
        },
        {
            "positions": [
                -0.47635385249769896,
                -1.2497365199960049,
                1.7404204380126285,
                1.1958625403863987,
                -0.9848145841331666,
                -0.12052218210985659
            ]
        },
        {
            "positions": [
                -0.42772830356126684,
                -1.315080711716345,
                1.7488079828982876,
                1.0902075882700615,
                -0.8459944293979376,
                -0.13452141584552296
            ]
        },
        {
            "positions": [
                -0.3791027546248348,
                -1.3804249034366851,
                1.7571955277839466,
                0.984552636153724,
                -0.7071742746627085,
                -0.1485206495811893
            ]
        },
        {
            "positions": [
                -0.33047720568840266,
                -1.4457690951570257,
                1.7655830726696058,
                0.8788976840373866,
                -0.5683541199274795,
                -0.16251988331685568
            ]
        },
        {
            "positions": [
                -0.28185165675197055,
                -1.5111132868773658,
                1.773970617555265,
                0.7732427319210493,
                -0.4295339651922505,
                -0.17651911705252205
            ]
        },
        {
            "positions": [
                -0.324699890251928,
                -1.4906169901025017,
                1.7867796832449467,
                0.6882602628728,
                -0.3820516267713257,
                -0.0017257696654929267
            ]
        },
        {
            "positions": [
                -0.36754812375188556,
                -1.4701206933276376,
                1.7995887489346285,
                0.6032777938245506,
                -0.3345692883504009,
                0.1730675777215362
            ]
        },
        {
            "positions": [
                -0.41039635725184304,
                -1.4496243965527735,
                1.8123978146243103,
                0.5182953247763014,
                -0.28708694992947614,
                0.3478609251085653
            ]
        },
        {
            "positions": [
                -0.45324459075180057,
                -1.4291280997779094,
                1.825206880313992,
                0.433312855728052,
                -0.23960461150855134,
                0.5226542724955945
            ]
        },
        {
            "positions": [
                -0.49609282425175805,
                -1.4086318030030454,
                1.8380159460036738,
                0.34833038667980265,
                -0.19212227308762655,
                0.6974476198826236
            ]
        },
        {
            "positions": [
                -0.5389410577517155,
                -1.3881355062281813,
                1.8508250116933556,
                0.2633479176315533,
                -0.14463993466670177,
                0.8722409672696527
            ]
        },
        {
            "positions": [
                -0.5817892912516731,
                -1.3676392094533172,
                1.8636340773830373,
                0.17836544858330394,
                -0.09715759624577697,
                1.0470343146566818
            ]
        },
        {
            "positions": [
                -0.6246375247516305,
                -1.347142912678453,
                1.876443143072719,
                0.0933829795350547,
                -0.04967525782485216,
                1.221827662043711
            ]
        },
        {
            "positions": [
                -0.6674857582515881,
                -1.326646615903589,
                1.8892522087624009,
                0.008400510486805346,
                -0.002192919403927407,
                1.39662100943074
            ]
        },
        {
            "positions": [
                -0.7103339917515455,
                -1.306150319128725,
                1.9020612744520826,
                -0.07658195856144401,
                0.0452894190169974,
                1.5714143568177692
            ]
        },
        {
            "positions": [
                -0.753182225251503,
                -1.2856540223538606,
                1.9148703401417646,
                -0.16156442760969347,
                0.09277175743792221,
                1.7462077042047983
            ]
        },
        {
            "positions": [
                -0.7960304587514605,
                -1.2651577255789965,
                1.9276794058314464,
                -0.24654689665794272,
                0.14025409585884696,
                1.9210010515918274
            ]
        },
        {
            "positions": [
                -0.8388786922514181,
                -1.2446614288041324,
                1.9404884715211281,
                -0.3315293657061922,
                0.18773643427977182,
                2.0957943989788563
            ]
        },
        {
            "positions": [
                -0.8817269257513756,
                -1.2241651320292684,
                1.95329753721081,
                -0.4165118347544414,
                0.23521877270069658,
                2.2705877463658855
            ]
        },
        {
            "positions": [
                -0.924575159251333,
                -1.2036688352544043,
                1.9661066029004917,
                -0.5014943038026907,
                0.28270111112162144,
                2.4453810937529146
            ]
        },
        {
            "positions": [
                -0.9674233927512905,
                -1.1831725384795402,
                1.9789156685901734,
                -0.5864767728509399,
                0.3301834495425462,
                2.6201744411399437
            ]
        },
        {
            "positions": [
                -1.0102716262512481,
                -1.162676241704676,
                1.9917247342798552,
                -0.6714592418991894,
                0.37766578796347094,
                2.794967788526973
            ]
        },
        {
            "positions": [
                -1.0531198597512055,
                -1.142179944929812,
                2.0045337999695367,
                -0.7564417109474386,
                0.4251481263843957,
                2.969761135914002
            ]
        },
        {
            "positions": [
                -1.095968093251163,
                -1.121683648154948,
                2.0173428656592187,
                -0.8414241799956882,
                0.4726304648053206,
                3.144554483301031
            ]
        }
    ]
}