{
    "goal": {
        "global_pose": {
            "orientation": {
                "w": 0.5084816217422485,
                "x": -0.49083608388900757,
                "y": 0.5182115435600281,
                "z": -0.4816462993621826
            },
            "position": {
                "x": 0.5540239810943604,
                "y": 0.030875300988554955,
                "z": 0.16403168439865112
            }
        },
        "name": "move_to_storage_A"
    },
    "id": "KPIECE_move_to_storage_A_114",
    "joint_names": [
        "shoulder_pan_joint",
        "shoulder_lift_joint",
        "elbow_joint",
        "wrist_1_joint",
        "wrist_2_joint",
        "wrist_3_joint"
    ],
    "metrics": {
        "cart_traj_len": 0.3522849030547074,
        "distance_elbow_joint": 0.4515484569938215,
        "distance_shoulder_lift_joint": 0.23397508306281134,
        "distance_shoulder_pan_joint": 0.4569936481014712,
        "distance_wrist_1_joint": 0.25065542956450426,
        "distance_wrist_2_joint": 1.1130621735304076,
        "distance_wrist_3_joint": 0.09588575977249558,
        "smoothness": 9.992007236661072e-16,
        "time": 0.031587133,
        "traj_len": 1.6131089705985493,
        "weighted_distance": 2.0390217442846
    },
    "planner": "KPIECE",
    "start": {
        "state": {
            "elbow_joint": 1.971548880431181,
            "shoulder_lift_joint": -1.1394869514688781,
            "shoulder_pan_joint": 0.12281150262730567,
            "wrist_1_joint": -0.7804693444481463,
            "wrist_2_joint": 0.12958644648617612,
            "wrist_3_joint": 3.0906942077768043
        }
    },
    "waypoints": [
        {
            "positions": [
                0.12281150262730567,
                -1.1394869514688781,
                1.971548880431181,
                -0.7804693444481463,
                0.12958644648617612,
                3.0906942077768043
            ]
        },
        {
            "positions": [
                0.057526695755666934,
                -1.172911963334994,
                2.03605580285887,
                -0.8162772629573612,
                0.2885953284190915,
                3.1043921734585895
            ]
        },
        {
            "positions": [
                -0.0077581111159718,
                -1.20633697520111,
                2.1005627252865584,
                -0.8520851814665761,
                0.44760421035200687,
                3.1180901391403744
            ]
        },
        {
            "positions": [
                -0.07304291798761053,
                -1.2397619870672258,
                2.1650696477142475,
                -0.887893099975791,
                0.6066130922849222,
                3.1317881048221596
            ]
        },
        {
            "positions": [
                -0.13832772485924927,
                -1.2731869989333418,
                2.229576570141936,
                -0.9237010184850059,
                0.7656219742178376,
                3.1454860705039445
            ]
        },
        {
            "positions": [
                -0.20361253173088806,
                -1.3066120107994577,
                2.2940834925696247,
                -0.9595089369942208,
                0.924630856150753,
                3.1591840361857297
            ]
        },
        {
            "positions": [
                -0.26889733860252674,
                -1.3400370226655736,
                2.358590414997314,
                -0.9953168555034356,
                1.0836397380836682,
                3.1728820018675146
            ]
        },
        {
            "positions": [
                -0.3341821454741655,
                -1.3734620345316895,
                2.4230973374250024,
                -1.0311247740126506,
                1.2426486200165836,
                3.1865799675493
            ]
        }
    ]
}