{
    "goal": {
        "global_pose": {
            "orientation": {
                "w": -0.00223480608172531,
                "x": 0.0024358444001904467,
                "y": 0.7094548369677653,
                "z": -0.704743149386269
            },
            "position": {
                "x": -0.37947507619857795,
                "y": -0.6371506643295288,
                "z": 0.19426114857196808
            }
        },
        "name": "move_to_magneteinheit_C"
    },
    "id": "KPIECE_move_to_magneteinheit_C_59",
    "joint_names": [
        "shoulder_pan_joint",
        "shoulder_lift_joint",
        "elbow_joint",
        "wrist_1_joint",
        "wrist_2_joint",
        "wrist_3_joint"
    ],
    "metrics": {
        "cart_traj_len": 1.5850462980809548,
        "distance_elbow_joint": 0.34625583021682904,
        "distance_shoulder_lift_joint": 0.43629145070331754,
        "distance_shoulder_pan_joint": 2.004472568410133,
        "distance_wrist_1_joint": 0.9302056694586519,
        "distance_wrist_2_joint": 2.5437270268874874,
        "distance_wrist_3_joint": 0.9497818231353135,
        "smoothness": 1.3461110733727164,
        "time": 0.308741282,
        "traj_len": 2.685281059556287,
        "weighted_distance": 3.5474259275464086
    },
    "planner": "KPIECE",
    "start": {
        "state": {
            "elbow_joint": 1.9565354006593851,
            "shoulder_lift_joint": -1.4165861576512813,
            "shoulder_pan_joint": -1.6717766223278752,
            "wrist_1_joint": -0.528663328821883,
            "wrist_2_joint": 1.472756589259273,
            "wrist_3_joint": 3.159348288315503
        }
    },
    "waypoints": [
        {
            "positions": [
                -1.6717766223278752,
                -1.4165861576512813,
                1.9565354006593851,
                -0.528663328821883,
                1.472756589259273,
                3.159348288315503
            ]
        },
        {
            "positions": [
                -1.5883783495862045,
                -1.4079391122026208,
                1.9269345898886623,
                -0.5125787937971622,
                1.352776831661703,
                3.061449187600902
            ]
        },
        {
            "positions": [
                -1.504980076844534,
                -1.3992920667539603,
                1.8973337791179394,
                -0.49649425877244135,
                1.232797074064133,
                2.963550086886301
            ]
        },
        {
            "positions": [
                -1.4215818041028634,
                -1.3906450213052999,
                1.8677329683472166,
                -0.48040972374772056,
                1.112817316466563,
                2.8656509861717003
            ]
        },
        {
            "positions": [
                -1.3381835313611927,
                -1.3819979758566394,
                1.8381321575764937,
                -0.4643251887229997,
                0.9928375588689928,
                2.7677518854570993
            ]
        },
        {
            "positions": [
                -1.2547852586195223,
                -1.373350930407979,
                1.8085313468057709,
                -0.44824065369827887,
                0.8728578012714228,
                2.669852784742498
            ]
        },
        {
            "positions": [
                -1.4106888391707408,
                -1.38328185843546,
                1.817261130328559,
                -0.4216173732926872,
                0.7535209706981055,
                2.7039649677778628
            ]
        },
        {
            "positions": [
                -1.5665924197219596,
                -1.393212786462941,
                1.8259909138513475,
                -0.3949940928870956,
                0.6341841401247883,
                2.7380771508132273
            ]
        },
        {
            "positions": [
                -1.7224960002731782,
                -1.4031437144904224,
                1.8347206973741357,
                -0.36837081248150394,
                0.5148473095514712,
                2.7721893338485923
            ]
        },
        {
            "positions": [
                -1.878399580824397,
                -1.4130746425179035,
                1.8434504808969239,
                -0.3417475320759123,
                0.3955104789781539,
                2.806301516883957
            ]
        },
        {
            "positions": [
                -2.0343031613756155,
                -1.4230055705453846,
                1.8521802644197123,
                -0.31512425167032065,
                0.2761736484048366,
                2.8404136999193215
            ]
        },
        {
            "positions": [
                -2.190206741926834,
                -1.4329364985728656,
                1.8609100479425005,
                -0.28850097126472896,
                0.15683681783151948,
                2.874525882954686
            ]
        },
        {
            "positions": [
                -2.3461103224780526,
                -1.442867426600347,
                1.8696398314652887,
                -0.2618776908591373,
                0.03749998725820225,
                2.908638065990051
            ]
        },
        {
            "positions": [
                -2.5020139030292716,
                -1.452798354627828,
                1.878369614988077,
                -0.2352544104535457,
                -0.08183684331511498,
                2.9427502490254156
            ]
        },
        {
            "positions": [
                -2.65791748358049,
                -1.462729282655309,
                1.8870993985108653,
                -0.20863113004795403,
                -0.2011736738884322,
                2.97686243206078
            ]
        },
        {
            "positions": [
                -2.6442086323549185,
                -1.3873239185760498,
                1.9127285315368356,
                -0.29336280078067634,
                -0.05943479320877723,
                2.997355769130062
            ]
        },
        {
            "positions": [
                -2.6304997811293465,
                -1.3119185544967902,
                1.938357664562806,
                -0.3780944715133987,
                0.08230408747087772,
                3.0178491061993435
            ]
        },
        {
            "positions": [
                -2.6167909299037744,
                -1.2365131904175308,
                1.9639867975887761,
                -0.462826142246121,
                0.22404296815053268,
                3.0383424432686255
            ]
        },
        {
            "positions": [
                -2.6030820786782027,
                -1.1611078263382715,
                1.9896159306147465,
                -0.5475578129788433,
                0.36578184883018766,
                3.0588357803379074
            ]
        },
        {
            "positions": [
                -2.559910887065361,
                -1.161793297970154,
                1.9953383281328263,
                -0.6379734088967878,
                0.46672892917057496,
                3.0826035549935407
            ]
        },
        {
            "positions": [
                -2.51673969545252,
                -1.1624787696020364,
                2.001060725650906,
                -0.7283890048147323,
                0.5676760095109623,
                3.1063713296491735
            ]
        },
        {
            "positions": [
                -2.473568503839678,
                -1.163164241233919,
                2.0067831231689857,
                -0.8188046007326768,
                0.6686230898513496,
                3.130139104304807
            ]
        }
    ]
}