{
    "goal": {
        "global_pose": {
            "orientation": {
                "w": 0.7047431493862688,
                "x": -0.7094548369677653,
                "y": 0.0024358444001904,
                "z": -0.0022348060817251984
            },
            "position": {
                "x": -0.39052492380142206,
                "y": 0.3671506643295288,
                "z": 0.19426114857196808
            }
        },
        "name": "move_to_magneteinheit_D"
    },
    "id": "KPIECE_move_to_magneteinheit_D_141",
    "joint_names": [
        "shoulder_pan_joint",
        "shoulder_lift_joint",
        "elbow_joint",
        "wrist_1_joint",
        "wrist_2_joint",
        "wrist_3_joint"
    ],
    "metrics": {
        "cart_traj_len": 4.200889907389664,
        "distance_elbow_joint": 3.2004483393863326,
        "distance_shoulder_lift_joint": 1.6278421639484721,
        "distance_shoulder_pan_joint": 2.944562091995068,
        "distance_wrist_1_joint": 1.526033609503017,
        "distance_wrist_2_joint": 0.9792214965033074,
        "distance_wrist_3_joint": 3.095654554944046,
        "smoothness": 0.14968395090839423,
        "time": 0.10109895799999999,
        "traj_len": 3.657015484829158,
        "weighted_distance": 4.697906605305672
    },
    "planner": "KPIECE",
    "start": {
        "state": {
            "elbow_joint": 0.7495348899011911,
            "shoulder_lift_joint": -0.6476975780737668,
            "shoulder_pan_joint": -2.711696901376276,
            "wrist_1_joint": -0.0750647808097303,
            "wrist_2_joint": 0.43296659715458535,
            "wrist_3_joint": 3.1361499051832418
        }
    },
    "waypoints": [
        {
            "positions": [
                -2.711696901376276,
                -0.6476975780737668,
                0.7495348899011911,
                -0.0750647808097303,
                0.43296659715458535,
                3.1361499051832418
            ]
        },
        {
            "positions": [
                -2.7081469688824567,
                -0.7171978292503032,
                0.7563866876179437,
                0.023736682488890465,
                0.5206909856659556,
                3.072677366935425
            ]
        },
        {
            "positions": [
                -2.7045970363886367,
                -0.7866980804268394,
                0.7632384853346962,
                0.12253814578751122,
                0.6084153741773259,
                3.0092048286876074
            ]
        },
        {
            "positions": [
                -2.701047103894817,
                -0.8561983316033757,
                0.7700902830514487,
                0.22133960908613198,
                0.6961397626886963,
                2.94573229043979
            ]
        },
        {
            "positions": [
                -2.6974971714009977,
                -0.925698582779912,
                0.7769420807682013,
                0.32014107238475276,
                0.7838641512000665,
                2.882259752191973
            ]
        },
        {
            "positions": [
                -2.5928428735916667,
                -0.9631286970740762,
                0.6777235897986685,
                0.3436297124855907,
                0.7615658191277145,
                2.776025814489303
            ]
        },
        {
            "positions": [
                -2.4881885757823357,
                -1.0005588113682404,
                0.5785050988291358,
                0.36711835258642866,
                0.7392674870553626,
                2.6697918767866327
            ]
        },
        {
            "positions": [
                -2.3835342779730047,
                -1.0379889256624046,
                0.4792866078596031,
                0.3906069926872667,
                0.7169691549830106,
                2.563557939083963
            ]
        },
        {
            "positions": [
                -2.2788799801636737,
                -1.0754190399565688,
                0.38006811689007036,
                0.41409563278810463,
                0.6946708229106586,
                2.4573240013812927
            ]
        },
        {
            "positions": [
                -2.1742256823543427,
                -1.112849154250733,
                0.28084962592053764,
                0.4375842728889426,
                0.6723724908383067,
                2.3510900636786225
            ]
        },
        {
            "positions": [
                -2.0695713845450117,
                -1.1502792685448973,
                0.1816311349510049,
                0.4610729129897806,
                0.6500741587659548,
                2.2448561259759527
            ]
        },
        {
            "positions": [
                -1.9649170867356804,
                -1.1877093828390617,
                0.0824126439814723,
                0.48456155309061855,
                0.6277758266936029,
                2.1386221882732825
            ]
        },
        {
            "positions": [
                -1.8602627889263492,
                -1.225139497133226,
                -0.016805846988060535,
                0.5080501931914565,
                0.6054774946212509,
                2.0323882505706123
            ]
        },
        {
            "positions": [
                -1.7556084911170182,
                -1.26256961142739,
                -0.11602433795759315,
                0.5315388332922945,
                0.5831791625488989,
                1.9261543128679424
            ]
        },
        {
            "positions": [
                -1.6509541933076872,
                -1.2999997257215543,
                -0.21524282892712598,
                0.5550274733931324,
                0.5608808304765469,
                1.8199203751652722
            ]
        },
        {
            "positions": [
                -1.5462998954983562,
                -1.3374298400157185,
                -0.3144613198966586,
                0.5785161134939704,
                0.538582498404195,
                1.7136864374626022
            ]
        },
        {
            "positions": [
                -1.4416455976890252,
                -1.3748599543098827,
                -0.41367981086619143,
                0.6020047535948083,
                0.516284166331843,
                1.607452499759932
            ]
        },
        {
            "positions": [
                -1.3369912998796942,
                -1.412290068604047,
                -0.512898301835724,
                0.6254933936956464,
                0.4939858342594911,
                1.501218562057262
            ]
        },
        {
            "positions": [
                -1.2323370020703632,
                -1.4497201828982111,
                -0.6121167928052567,
                0.6489820337964842,
                0.4716875021871392,
                1.394984624354592
            ]
        },
        {
            "positions": [
                -1.1276827042610322,
                -1.4871502971923753,
                -0.7113352837747893,
                0.6724706738973223,
                0.44938917011478724,
                1.288750686651922
            ]
        },
        {
            "positions": [
                -1.023028406451701,
                -1.5245804114865398,
                -0.8105537747443223,
                0.6959593139981602,
                0.42709083804243525,
                1.1825167489492516
            ]
        },
        {
            "positions": [
                -0.91837410864237,
                -1.5620105257807038,
                -0.9097722657138549,
                0.7194479540989982,
                0.4047925059700833,
                1.0762828112465816
            ]
        },
        {
            "positions": [
                -0.813719810833039,
                -1.5994406400748682,
                -1.0089907566833876,
                0.7429365941998362,
                0.3824941738977314,
                0.9700488735439117
            ]
        },
        {
            "positions": [
                -0.7090655130237082,
                -1.6368707543690322,
                -1.1082092476529202,
                0.7664252343006741,
                0.36019584182537945,
                0.8638149358412415
            ]
        },
        {
            "positions": [
                -0.6044112152143768,
                -1.6743008686631966,
                -1.2074277386224532,
                0.7899138744015122,
                0.3378975097530274,
                0.7575809981385713
            ]
        },
        {
            "positions": [
                -0.4997569174050458,
                -1.7117309829573606,
                -1.3066462295919858,
                0.81340251450235,
                0.31559917768067547,
                0.6513470604359015
            ]
        },
        {
            "positions": [
                -0.3951026195957148,
                -1.749161097251525,
                -1.4058647205615185,
                0.836891154603188,
                0.29330084560832353,
                0.5451131227332313
            ]
        },
        {
            "positions": [
                -0.2904483217863838,
                -1.786591211545689,
                -1.505083211531051,
                0.8603797947040259,
                0.2710025135359716,
                0.4388791850305611
            ]
        },
        {
            "positions": [
                -0.1857940239770528,
                -1.8240213258398534,
                -1.6043017025005841,
                0.883868434804864,
                0.2487041814636196,
                0.3326452473278909
            ]
        },
        {
            "positions": [
                -0.0811397261677218,
                -1.8614514401340176,
                -1.7035201934701167,
                0.9073570749057019,
                0.22640584939126773,
                0.22641130962522116
            ]
        },
        {
            "positions": [
                0.023514571641609302,
                -1.8988815544281819,
                -1.8027386844396496,
                0.9308457150065399,
                0.20410751731891572,
                0.12017737192255112
            ]
        },
        {
            "positions": [
                0.0074500343427953974,
                -1.9680758443098845,
                -1.9007610857012414,
                1.0363196268096109,
                0.1954402132188327,
                0.10460641306759463
            ]
        },
        {
            "positions": [
                -0.008614502956018507,
                -2.037270134191587,
                -1.998783486962833,
                1.1417935386126818,
                0.18677290911874972,
                0.08903545421263814
            ]
        },
        {
            "positions": [
                -0.024679040254832408,
                -2.1064644240732893,
                -2.0968058882244245,
                1.2472674504157528,
                0.17810560501866673,
                0.07346449535768167
            ]
        },
        {
            "positions": [
                -0.04074357755364632,
                -2.175658713954992,
                -2.1948282894860163,
                1.3527413622188238,
                0.16943830091858372,
                0.057893536502725176
            ]
        },
        {
            "positions": [
                -0.08910773414762194,
                -2.2089523899774077,
                -2.261918548907718,
                1.3854838510436447,
                0.17407099831069814,
                0.06369293192390149
            ]
        },
        {
            "positions": [
                -0.18583604733557318,
                -2.275539742022239,
                -2.396099067751121,
                1.4509688286932867,
                0.18333639309492697,
                0.07529172276625412
            ]
        }
    ]
}