{
    "goal": {
        "global_pose": {
            "orientation": {
                "w": -0.4816463035849501,
                "x": 0.5182115481033762,
                "y": 0.4908360881923453,
                "z": -0.5084816262002911
            },
            "position": {
                "x": -0.8240239810943604,
                "y": 0.19912469901144506,
                "z": 0.16403168439865112
            }
        },
        "name": "move_to_storage_D"
    },
    "id": "KPIECE_move_to_storage_D_8",
    "joint_names": [
        "shoulder_pan_joint",
        "shoulder_lift_joint",
        "elbow_joint",
        "wrist_1_joint",
        "wrist_2_joint",
        "wrist_3_joint"
    ],
    "metrics": {
        "cart_traj_len": 3.591605452246974,
        "distance_elbow_joint": 4.209391627252679,
        "distance_shoulder_lift_joint": 1.2631957996712864,
        "distance_shoulder_pan_joint": 3.506577096541681,
        "distance_wrist_1_joint": 2.26080457811372,
        "distance_wrist_2_joint": 1.9521467775096975,
        "distance_wrist_3_joint": 3.2688630749466983,
        "smoothness": 0.09889019128410165,
        "time": 0.078204911,
        "traj_len": 4.057213200466025,
        "weighted_distance": 5.216479316507694
    },
    "planner": "KPIECE",
    "start": {
        "state": {
            "elbow_joint": -2.384821990628643,
            "shoulder_lift_joint": -2.278805467437664,
            "shoulder_pan_joint": -0.18546946439364564,
            "wrist_1_joint": 1.4845938187801415,
            "wrist_2_joint": 0.178987772454074,
            "wrist_3_joint": 0.03710569632802521
        }
    },
    "waypoints": [
        {
            "positions": [
                -0.18546946439364564,
                -2.278805467437664,
                -2.384821990628643,
                1.4845938187801415,
                0.178987772454074,
                0.03710569632802521
            ]
        },
        {
            "positions": [
                -0.16323543618396896,
                -2.2592837559249004,
                -2.3800084381873665,
                1.4759895617682381,
                0.15930937397298062,
                0.016492447287947114
            ]
        },
        {
            "positions": [
                -0.06202492829402044,
                -2.225352795837265,
                -2.2906225924934853,
                1.4351971010032059,
                0.14253888050294664,
                -0.08613167158541797
            ]
        },
        {
            "positions": [
                0.03918557959592808,
                -2.191421835749629,
                -2.2012367467996037,
                1.3944046402381733,
                0.12576838703291263,
                -0.18875579045878307
            ]
        },
        {
            "positions": [
                0.14039608748587662,
                -2.1574908756619937,
                -2.1118509011057225,
                1.353612179473141,
                0.10899789356287864,
                -0.29137990933214813
            ]
        },
        {
            "positions": [
                0.24160659537582513,
                -2.1235599155743583,
                -2.022465055411841,
                1.3128197187081085,
                0.09222740009284465,
                -0.3940040282055132
            ]
        },
        {
            "positions": [
                0.34281710326577364,
                -2.0896289554867225,
                -1.9330792097179597,
                1.2720272579430763,
                0.07545690662281067,
                -0.4966281470788783
            ]
        },
        {
            "positions": [
                0.4440276111557222,
                -2.055697995399087,
                -1.843693364024078,
                1.2312347971780437,
                0.05868641315277667,
                -0.5992522659522435
            ]
        },
        {
            "positions": [
                0.5452381190456708,
                -2.0217670353114516,
                -1.7543075183301968,
                1.1904423364130114,
                0.04191591968274268,
                -0.7018763848256085
            ]
        },
        {
            "positions": [
                0.6464486269356192,
                -1.987836075223816,
                -1.6649216726363154,
                1.1496498756479792,
                0.025145426212708683,
                -0.8045005036989736
            ]
        },
        {
            "positions": [
                0.7476591348255679,
                -1.9539051151361804,
                -1.575535826942434,
                1.1088574148829466,
                0.008374932742674673,
                -0.9071246225723388
            ]
        },
        {
            "positions": [
                0.8488696427155162,
                -1.919974155048545,
                -1.4861499812485526,
                1.0680649541179144,
                -0.00839556072735928,
                -1.0097487414457038
            ]
        },
        {
            "positions": [
                0.9500801506054648,
                -1.8860431949609093,
                -1.3967641355546712,
                1.0272724933528818,
                -0.02516605419739329,
                -1.112372860319069
            ]
        },
        {
            "positions": [
                1.0512906584954134,
                -1.8521122348732737,
                -1.3073782898607897,
                0.9864800325878496,
                -0.04193654766742727,
                -1.214996979192434
            ]
        },
        {
            "positions": [
                1.152501166385362,
                -1.8181812747856383,
                -1.2179924441669083,
                0.9456875718228172,
                -0.05870704113746128,
                -1.3176210980657992
            ]
        },
        {
            "positions": [
                1.2537116742753105,
                -1.7842503146980027,
                -1.1286065984730271,
                0.9048951110577848,
                -0.07547753460749526,
                -1.4202452169391642
            ]
        },
        {
            "positions": [
                1.354922182165259,
                -1.750319354610367,
                -1.0392207527791455,
                0.8641026502927524,
                -0.09224802807752924,
                -1.5228693358125294
            ]
        },
        {
            "positions": [
                1.4561326900552074,
                -1.7163883945227316,
                -0.9498349070852643,
                0.8233101895277201,
                -0.10901852154756325,
                -1.6254934546858943
            ]
        },
        {
            "positions": [
                1.557343197945156,
                -1.682457434435096,
                -0.8604490613913829,
                0.7825177287626877,
                -0.1257890150175972,
                -1.7281175735592593
            ]
        },
        {
            "positions": [
                1.6585537058351048,
                -1.6485264743474604,
                -0.7710632156975012,
                0.7417252679976551,
                -0.14255950848763127,
                -1.8307416924326247
            ]
        },
        {
            "positions": [
                1.759764213725053,
                -1.614595514259825,
                -0.68167737000362,
                0.7009328072326229,
                -0.15933000195766522,
                -1.9333658113059897
            ]
        },
        {
            "positions": [
                1.8609747216150014,
                -1.5806645541721893,
                -0.5922915243097386,
                0.6601403464675905,
                -0.17610049542769918,
                -2.0359899301793547
            ]
        },
        {
            "positions": [
                1.9621852295049498,
                -1.5467335940845537,
                -0.5029056786158574,
                0.6193478857025582,
                -0.1928709888977332,
                -2.1386140490527197
            ]
        },
        {
            "positions": [
                2.063395737394899,
                -1.5128026339969183,
                -0.4135198329219758,
                0.5785554249375257,
                -0.2096414823677672,
                -2.241238167926085
            ]
        },
        {
            "positions": [
                2.1646062452848476,
                -1.4788716739092826,
                -0.3241339872280946,
                0.5377629641724934,
                -0.2264119758378012,
                -2.34386228679945
            ]
        },
        {
            "positions": [
                2.2658167531747955,
                -1.444940713821647,
                -0.23474814153421297,
                0.49697050340746096,
                -0.24318246930783516,
                -2.446486405672815
            ]
        },
        {
            "positions": [
                2.3670272610647443,
                -1.4110097537340116,
                -0.14536229584033178,
                0.45617804264242867,
                -0.2599529627778691,
                -2.54911052454618
            ]
        },
        {
            "positions": [
                2.468237768954693,
                -1.377078793646376,
                -0.05597645014645014,
                0.41538558187739616,
                -0.2767234562479032,
                -2.6517346434195455
            ]
        },
        {
            "positions": [
                2.569448276844641,
                -1.3431478335587403,
                0.03340939554743105,
                0.37459312111236387,
                -0.29349394971793713,
                -2.7543587622929104
            ]
        },
        {
            "positions": [
                2.6706587847345897,
                -1.309216873471105,
                0.12279524124131225,
                0.33380066034733136,
                -0.31026444318797114,
                -2.8569828811662754
            ]
        },
        {
            "positions": [
                2.7718692926245385,
                -1.2752859133834695,
                0.21218108693519389,
                0.29300819958229907,
                -0.3270349366580051,
                -2.9596070000396404
            ]
        },
        {
            "positions": [
                2.8730798005144873,
                -1.241354953295834,
                0.3015669326290755,
                0.25221573881726655,
                -0.3438054301280391,
                -3.062231118913006
            ]
        },
        {
            "positions": [
                2.974290308404435,
                -1.2074239932081983,
                0.3909527783229567,
                0.21142327805223426,
                -0.3605759235980731,
                -3.164855237786371
            ]
        },
        {
            "positions": [
                2.9453888647591353,
                -1.1914394660880465,
                0.5104208498480467,
                0.1291204416034165,
                -0.24286066680994395,
                -3.1592800593836787
            ]
        },
        {
            "positions": [
                2.9164874211138354,
                -1.1754549389678948,
                0.6298889213731366,
                0.04681760515459876,
                -0.12514541002181476,
                -3.153704880980987
            ]
        },
        {
            "positions": [
                2.887585977468535,
                -1.159470411847743,
                0.7493569928982265,
                -0.035485231294219016,
                -0.007430153233685566,
                -3.148129702578295
            ]
        },
        {
            "positions": [
                2.858684533823235,
                -1.1434858847275913,
                0.8688250644233164,
                -0.11778806774303674,
                0.1102851035544436,
                -3.1425545241756034
            ]
        },
        {
            "positions": [
                2.8297830901779353,
                -1.1275013576074395,
                0.9882931359484065,
                -0.20009090419185455,
                0.22800036034257287,
                -3.1369793457729114
            ]
        },
        {
            "positions": [
                2.800881646532635,
                -1.1115168304872878,
                1.1077612074734964,
                -0.2823937406406723,
                0.345715617130702,
                -3.1314041673702198
            ]
        },
        {
            "positions": [
                2.771980202887335,
                -1.0955323033671363,
                1.2272292789985864,
                -0.3646965770894901,
                0.4634308739188312,
                -3.1258289889675277
            ]
        },
        {
            "positions": [
                2.743078759242035,
                -1.0795477762469845,
                1.3466973505236761,
                -0.44699941353830774,
                0.5811461307069603,
                -3.1202538105648356
            ]
        },
        {
            "positions": [
                2.7141773155967353,
                -1.0635632491268328,
                1.4661654220487663,
                -0.5293022499871256,
                0.6988613874950896,
                -3.114678632162144
            ]
        },
        {
            "positions": [
                2.6852758719514354,
                -1.047578722006681,
                1.5856334935738563,
                -0.6116050864359434,
                0.8165766442832189,
                -3.109103453759452
            ]
        },
        {
            "positions": [
                2.656374428306135,
                -1.0315941948865293,
                1.705101565098946,
                -0.6939079228847611,
                0.9342919010713479,
                -3.1035282753567603
            ]
        },
        {
            "positions": [
                2.627472984660835,
                -1.0156096677663775,
                1.824569636624036,
                -0.7762107593335789,
                1.0520071578594772,
                -3.0979530969540683
            ]
        }
    ]
}