{
    "goal": {
        "global_pose": {
            "orientation": {
                "w": 0.005598929693374612,
                "x": 0.007748599140229565,
                "y": 0.7110244013736278,
                "z": -0.7031023480610252
            },
            "position": {
                "x": -0.8858502320852131,
                "y": -0.7141253447532654,
                "z": 0.3711530566215515
            }
        },
        "name": "move_to_auspresseinheit_C"
    },
    "id": "KPIECE_move_to_auspresseinheit_C_7",
    "joint_names": [
        "shoulder_pan_joint",
        "shoulder_lift_joint",
        "elbow_joint",
        "wrist_1_joint",
        "wrist_2_joint",
        "wrist_3_joint"
    ],
    "metrics": {
        "cart_traj_len": 0.4929499841566823,
        "distance_elbow_joint": 1.0107353701288602,
        "distance_shoulder_lift_joint": 0.3304753183063833,
        "distance_shoulder_pan_joint": 0.25535193220549113,
        "distance_wrist_1_joint": 0.699162953459751,
        "distance_wrist_2_joint": 1.3192921938274098,
        "distance_wrist_3_joint": 0.07405007925725693,
        "smoothness": 1.1304088990788627e-15,
        "time": 1.8714676330000002,
        "traj_len": 1.9206946262186377,
        "weighted_distance": 2.419839489095677
    },
    "planner": "KPIECE",
    "start": {
        "state": {
            "elbow_joint": 1.7527959577730765,
            "shoulder_lift_joint": -0.9740617694224828,
            "shoulder_pan_joint": -2.967991417825869,
            "wrist_1_joint": -0.7595177689779385,
            "wrist_2_joint": 1.7443932448376545,
            "wrist_3_joint": 3.1991315425061013
        }
    },
    "waypoints": [
        {
            "positions": [
                -2.967991417825869,
                -0.9740617694224828,
                1.7527959577730765,
                -0.7595177689779385,
                1.7443932448376545,
                3.1991315425061013
            ]
        },
        {
            "positions": [
                -2.94245622460532,
                -0.9410142375918444,
                1.6517224207601906,
                -0.6896014736319634,
                1.6124640254549134,
                3.1917265345803756
            ]
        },
        {
            "positions": [
                -2.9169210313847707,
                -0.9079667057612061,
                1.5506488837473045,
                -0.6196851782859883,
                1.4805348060721726,
                3.18432152665465
            ]
        },
        {
            "positions": [
                -2.8913858381642217,
                -0.8749191739305678,
                1.4495753467344183,
                -0.5497688829400132,
                1.3486055866894315,
                3.176916518728924
            ]
        },
        {
            "positions": [
                -2.8658506449436727,
                -0.8418716420999295,
                1.3485018097215324,
                -0.4798525875940381,
                1.2166763673066905,
                3.1695115108031984
            ]
        },
        {
            "positions": [
                -2.8403154517231233,
                -0.8088241102692911,
                1.2474282727086465,
                -0.409936292248063,
                1.0847471479239497,
                3.1621065028774726
            ]
        },
        {
            "positions": [
                -2.8147802585025743,
                -0.7757765784386528,
                1.1463547356957604,
                -0.3400199969020879,
                0.9528179285412086,
                3.1547014949517473
            ]
        },
        {
            "positions": [
                -2.7892450652820253,
                -0.7427290466080145,
                1.0452811986828743,
                -0.2701037015561128,
                0.8208887091584677,
                3.1472964870260216
            ]
        },
        {
            "positions": [
                -2.7637098720614763,
                -0.7096815147773761,
                0.9442076616699884,
                -0.20018740621013764,
                0.6889594897757265,
                3.139891479100296
            ]
        },
        {
            "positions": [
                -2.738174678840927,
                -0.6766339829467378,
                0.8431341246571024,
                -0.13027111086416254,
                0.5570302703929857,
                3.13248647117457
            ]
        },
        {
            "positions": [
                -2.712639485620378,
                -0.6435864511160995,
                0.7420605876442163,
                -0.06035481551818749,
                0.42510105101024465,
                3.1250814632488444
            ]
        }
    ]
}