{
    "goal": {
        "global_pose": {
            "orientation": {
                "w": -0.4816463035849501,
                "x": 0.5182115481033762,
                "y": 0.4908360881923453,
                "z": -0.5084816262002911
            },
            "position": {
                "x": -0.8240239810943604,
                "y": -0.300875300988555,
                "z": 0.16403168439865112
            }
        },
        "name": "move_to_storage_C"
    },
    "id": "KPIECE_move_to_storage_C_126",
    "joint_names": [
        "shoulder_pan_joint",
        "shoulder_lift_joint",
        "elbow_joint",
        "wrist_1_joint",
        "wrist_2_joint",
        "wrist_3_joint"
    ],
    "metrics": {
        "cart_traj_len": 0.5772927103301834,
        "distance_elbow_joint": 0.2610272033141958,
        "distance_shoulder_lift_joint": 0.18936298778910954,
        "distance_shoulder_pan_joint": 0.4949275053139033,
        "distance_wrist_1_joint": 0.08873813344176618,
        "distance_wrist_2_joint": 1.070859414257721,
        "distance_wrist_3_joint": 0.06280317505964295,
        "smoothness": 0.0,
        "time": 0.275061141,
        "traj_len": 1.4723173636062092,
        "weighted_distance": 1.8582040568772613
    },
    "planner": "KPIECE",
    "start": {
        "state": {
            "elbow_joint": 2.0108683149792914,
            "shoulder_lift_joint": -1.1634956873317392,
            "shoulder_pan_joint": -2.4736205022346,
            "wrist_1_joint": -0.8367026793690192,
            "wrist_2_joint": 0.6746043897045053,
            "wrist_3_joint": 3.133522094754363
        }
    },
    "waypoints": [
        {
            "positions": [
                -2.4736205022346,
                -1.1634956873317392,
                2.0108683149792914,
                -0.8367026793690192,
                0.6746043897045053,
                3.133522094754363
            ]
        },
        {
            "positions": [
                -2.5561084197869173,
                -1.1319351893668876,
                1.9673637810935922,
                -0.8219129904620581,
                0.8530809587474588,
                3.143989290597637
            ]
        },
        {
            "positions": [
                -2.6385963373392345,
                -1.100374691402036,
                1.9238592472078928,
                -0.8071233015550972,
                1.0315575277904123,
                3.154456486440911
            ]
        },
        {
            "positions": [
                -2.7210842548915517,
                -1.0688141934371844,
                1.8803547133221934,
                -0.7923336126481362,
                1.2100340968333658,
                3.1649236822841846
            ]
        },
        {
            "positions": [
                -2.803572172443869,
                -1.0372536954723328,
                1.8368501794364942,
                -0.7775439237411751,
                1.3885106658763193,
                3.1753908781274585
            ]
        },
        {
            "positions": [
                -2.886060089996186,
                -1.0056931975074812,
                1.793345645550795,
                -0.762754234834214,
                1.5669872349192728,
                3.1858580739707323
            ]
        },
        {
            "positions": [
                -2.9685480075485033,
                -0.9741326995426297,
                1.7498411116650956,
                -0.747964545927253,
                1.7454638039622263,
                3.196325269814006
            ]
        }
    ]
}