{
    "goal": {
        "global_pose": {
            "orientation": {
                "w": 0.7031023502349854,
                "x": -0.7110244035720825,
                "y": 0.007748599164187908,
                "z": 0.005598929710686207
            },
            "position": {
                "x": 0.11585023208521307,
                "y": 0.44412534475326537,
                "z": 0.3711530566215515
            }
        },
        "name": "move_to_auspresseinheit_A"
    },
    "id": "KPIECE_move_to_auspresseinheit_A_82",
    "joint_names": [
        "shoulder_pan_joint",
        "shoulder_lift_joint",
        "elbow_joint",
        "wrist_1_joint",
        "wrist_2_joint",
        "wrist_3_joint"
    ],
    "metrics": {
        "cart_traj_len": 0.7639696371647161,
        "distance_elbow_joint": 0.43378869294042977,
        "distance_shoulder_lift_joint": 0.5329886665942767,
        "distance_shoulder_pan_joint": 1.0462702546578984,
        "distance_wrist_1_joint": 1.1111510447432622,
        "distance_wrist_2_joint": 0.711328466517175,
        "distance_wrist_3_joint": 0.581966503718073,
        "smoothness": 1.223246437903026,
        "time": 0.150012592,
        "traj_len": 2.101783440122011,
        "weighted_distance": 2.721011971283423
    },
    "planner": "KPIECE",
    "start": {
        "state": {
            "elbow_joint": 2.4225746994637096,
            "shoulder_lift_joint": -1.373653595662188,
            "shoulder_pan_joint": -0.3378633848294565,
            "wrist_1_joint": -1.0288595594406726,
            "wrist_2_joint": 1.2330228066703421,
            "wrist_3_joint": 3.189163495502006
        }
    },
    "waypoints": [
        {
            "positions": [
                -0.3378633848294565,
                -1.373653595662188,
                2.4225746994637096,
                -1.0288595594406726,
                1.2330228066703421,
                3.189163495502006
            ]
        },
        {
            "positions": [
                -0.28549235138799955,
                -1.454394621124916,
                2.4084486205290427,
                -0.9171691829632838,
                1.1594575156742852,
                3.1498579435070875
            ]
        },
        {
            "positions": [
                -0.23312131794654267,
                -1.5351356465876436,
                2.394322541594376,
                -0.8054788064858949,
                1.0858922246782285,
                3.1105523915121687
            ]
        },
        {
            "positions": [
                -0.18075028450508573,
                -1.6158766720503714,
                2.3801964626597085,
                -0.693788430008506,
                1.0123269336821719,
                3.0712468395172503
            ]
        },
        {
            "positions": [
                -0.12837925106362882,
                -1.696617697513099,
                2.3660703837250416,
                -0.5820980535311172,
                0.938761642686115,
                3.031941287522332
            ]
        },
        {
            "positions": [
                -0.07600821762217186,
                -1.7773587229758272,
                2.3519443047903748,
                -0.4704076770537283,
                0.8651963516900582,
                2.992635735527413
            ]
        },
        {
            "positions": [
                -0.02363718418071499,
                -1.8580997484385549,
                2.337818225855708,
                -0.35871730057633944,
                0.7916310606940014,
                2.9533301835324948
            ]
        },
        {
            "positions": [
                0.10235816825716214,
                -1.8741621751346054,
                2.2885993257591775,
                -0.3024409609941678,
                0.7333256186872389,
                2.9257220607120176
            ]
        },
        {
            "positions": [
                0.22835352069503928,
                -1.8902246018306559,
                2.239380425662647,
                -0.2461646214119961,
                0.6750201766804765,
                2.898113937891541
            ]
        },
        {
            "positions": [
                0.35434887313291646,
                -1.9062870285267064,
                2.1901615255661167,
                -0.18988828182982442,
                0.6167147346737141,
                2.8705058150710636
            ]
        },
        {
            "positions": [
                0.4723682053647582,
                -1.9061686172834535,
                2.2572866985803954,
                -0.28061487087396236,
                0.6483881995138964,
                2.9582754228334407
            ]
        },
        {
            "positions": [
                0.5903875375966,
                -1.906050206040201,
                2.3244118715946747,
                -0.3713414599181003,
                0.6800616643540787,
                3.0460450305958173
            ]
        },
        {
            "positions": [
                0.7084068698284418,
                -1.905931794796948,
                2.3915370446089534,
                -0.46206804896223824,
                0.711735129194261,
                3.1338146383581944
            ]
        }
    ]
}