{
    "goal": {
        "global_pose": {
            "orientation": {
                "w": 0.7047431468963623,
                "x": -0.7094548344612122,
                "y": 0.0024358443915843964,
                "z": -0.0022348060738295317
            },
            "position": {
                "x": 0.6094750761985779,
                "y": 0.3671506643295288,
                "z": 0.19426114857196808
            }
        },
        "name": "move_to_magneteinheit_A"
    },
    "id": "KPIECE_move_to_magneteinheit_A_137",
    "joint_names": [
        "shoulder_pan_joint",
        "shoulder_lift_joint",
        "elbow_joint",
        "wrist_1_joint",
        "wrist_2_joint",
        "wrist_3_joint"
    ],
    "metrics": {
        "cart_traj_len": 1.5867625752385484,
        "distance_elbow_joint": 3.5327518192268403,
        "distance_shoulder_lift_joint": 1.1443993924287055,
        "distance_shoulder_pan_joint": 1.241493240569636,
        "distance_wrist_1_joint": 3.8496936035111378,
        "distance_wrist_2_joint": 1.7067746690541503,
        "distance_wrist_3_joint": 1.2235168419765459,
        "smoothness": 0.010534927985031922,
        "time": 0.195534758,
        "traj_len": 3.5635136546345683,
        "weighted_distance": 4.5499595078731625
    },
    "planner": "KPIECE",
    "start": {
        "state": {
            "elbow_joint": -1.5739458827952972,
            "shoulder_lift_joint": 0.006533473998580023,
            "shoulder_pan_joint": -1.1188671628667068,
            "wrist_1_joint": 3.138208179676308,
            "wrist_2_joint": -1.5706037135050406,
            "wrist_3_joint": -2.0226958329764257
        }
    },
    "waypoints": [
        {
            "positions": [
                -1.1188671628667068,
                0.006533473998580023,
                -1.5739458827952972,
                3.138208179676308,
                -1.5706037135050406,
                -2.0226958329764257
            ]
        },
        {
            "positions": [
                -1.080636594631936,
                -0.029159363050884603,
                -1.464464431453867,
                3.018170102150641,
                -1.518229435062414,
                -2.0595251439144078
            ]
        },
        {
            "positions": [
                -1.042406026397165,
                -0.06485220010034923,
                -1.354982980112437,
                2.8981320246249735,
                -1.4658551566197875,
                -2.0963544548523902
            ]
        },
        {
            "positions": [
                -1.0041754581623943,
                -0.10054503714981385,
                -1.2455015287710067,
                2.778093947099306,
                -1.4134808781771608,
                -2.1331837657903723
            ]
        },
        {
            "positions": [
                -0.9659448899276234,
                -0.13623787419927846,
                -1.1360200774295766,
                2.6580558695736385,
                -1.3611065997345342,
                -2.1700130767283543
            ]
        },
        {
            "positions": [
                -0.9277143216928525,
                -0.1719307112487431,
                -1.0265386260881466,
                2.538017792047971,
                -1.3087323212919078,
                -2.206842387666337
            ]
        },
        {
            "positions": [
                -0.8894837534580817,
                -0.2076235482982077,
                -0.9170571747467163,
                2.417979714522304,
                -1.256358042849281,
                -2.243671698604319
            ]
        },
        {
            "positions": [
                -0.8512531852233108,
                -0.24331638534767233,
                -0.8075757234052862,
                2.2979416369966366,
                -1.2039837644066544,
                -2.280501009542301
            ]
        },
        {
            "positions": [
                -0.81302261698854,
                -0.279009222397137,
                -0.698094272063856,
                2.1779035594709693,
                -1.1516094859640278,
                -2.3173303204802833
            ]
        },
        {
            "positions": [
                -0.7747920487537692,
                -0.3147020594466016,
                -0.5886128207224258,
                2.057865481945302,
                -1.0992352075214014,
                -2.3541596314182653
            ]
        },
        {
            "positions": [
                -0.7365614805189983,
                -0.35039489649606625,
                -0.47913136938099576,
                1.9378274044196344,
                -1.0468609290787747,
                -2.3909889423562474
            ]
        },
        {
            "positions": [
                -0.6983309122842274,
                -0.3860877335455309,
                -0.3696499180395656,
                1.817789326893967,
                -0.9944866506361482,
                -2.4278182532942294
            ]
        },
        {
            "positions": [
                -0.6601003440494566,
                -0.42178057059499546,
                -0.2601684666981354,
                1.6977512493682996,
                -0.9421123721935216,
                -2.464647564232212
            ]
        },
        {
            "positions": [
                -0.6218697758146857,
                -0.4574734076444601,
                -0.15068701535670526,
                1.5777131718426323,
                -0.889738093750895,
                -2.501476875170194
            ]
        },
        {
            "positions": [
                -0.5836392075799148,
                -0.4931662446939247,
                -0.04120556401527509,
                1.457675094316965,
                -0.8373638153082684,
                -2.5383061861081764
            ]
        },
        {
            "positions": [
                -0.545408639345144,
                -0.5288590817433894,
                0.06827588732615508,
                1.3376370167912974,
                -0.7849895368656418,
                -2.5751354970461584
            ]
        },
        {
            "positions": [
                -0.5071780711103732,
                -0.5645519187928539,
                0.17775733866758525,
                1.2175989392656301,
                -0.7326152584230152,
                -2.6119648079841404
            ]
        },
        {
            "positions": [
                -0.4689475028756023,
                -0.6002447558423185,
                0.2872387900090154,
                1.0975608617399626,
                -0.6802409799803887,
                -2.6487941189221225
            ]
        },
        {
            "positions": [
                -0.4307169346408315,
                -0.6359375928917832,
                0.3967202413504456,
                0.9775227842142953,
                -0.627866701537762,
                -2.6856234298601045
            ]
        },
        {
            "positions": [
                -0.3924863664060606,
                -0.6716304299412478,
                0.5062016926918755,
                0.857484706688628,
                -0.5754924230951355,
                -2.722452740798087
            ]
        },
        {
            "positions": [
                -0.3542557981712897,
                -0.7073232669907125,
                0.6156831440333057,
                0.7374466291629607,
                -0.5231181446525088,
                -2.759282051736069
            ]
        },
        {
            "positions": [
                -0.31602522993651894,
                -0.743016104040177,
                0.7251645953747359,
                0.6174085516372934,
                -0.4707438662098824,
                -2.7961113626740515
            ]
        },
        {
            "positions": [
                -0.27779466170174805,
                -0.7787089410896417,
                0.834646046716166,
                0.49737047411162605,
                -0.41836958776725575,
                -2.8329406736120335
            ]
        },
        {
            "positions": [
                -0.23956409346697716,
                -0.8144017781391063,
                0.9441274980575962,
                0.3773323965859583,
                -0.3659953093246291,
                -2.8697699845500155
            ]
        },
        {
            "positions": [
                -0.20133352523220638,
                -0.8500946151885709,
                1.0536089493990264,
                0.257294319060291,
                -0.31362103088200266,
                -2.9065992954879976
            ]
        },
        {
            "positions": [
                -0.1631029569974355,
                -0.8857874522380356,
                1.1630904007404566,
                0.13725624153462368,
                -0.261246752439376,
                -2.94342860642598
            ]
        },
        {
            "positions": [
                -0.1248723887626646,
                -0.9214802892875001,
                1.2725718520818867,
                0.01721816400895637,
                -0.20887247399674935,
                -2.980257917363962
            ]
        },
        {
            "positions": [
                -0.08664182052789382,
                -0.9571731263369648,
                1.382053303423317,
                -0.10281991351671094,
                -0.1564981955541227,
                -3.0170872283019445
            ]
        },
        {
            "positions": [
                -0.04841125229312282,
                -0.9928659633864294,
                1.491534754764747,
                -0.22285799104237825,
                -0.10412391711149627,
                -3.0539165392399266
            ]
        },
        {
            "positions": [
                -0.01018068405835204,
                -1.028558800435894,
                1.6010162061061772,
                -0.342896068568046,
                -0.05174963866886961,
                -3.0907458501779086
            ]
        },
        {
            "positions": [
                0.028049884176418738,
                -1.0642516374853588,
                1.7104976574476074,
                -0.4629341460937133,
                0.0006246397737570408,
                -3.1275751611158906
            ]
        },
        {
            "positions": [
                0.06628045241118974,
                -1.0999444745348232,
                1.8199791087890376,
                -0.5829722236193806,
                0.05299891821638347,
                -3.1644044720538727
            ]
        },
        {
            "positions": [
                0.10451102064596055,
                -1.135637311584288,
                1.9294605601304677,
                -0.7030103011450478,
                0.10537319665901024,
                -3.201233782991855
            ]
        },
        {
            "positions": [
                0.12262607770292905,
                -1.1334087047384505,
                1.9588059364315433,
                -0.7114854238348296,
                0.13617095554910985,
                -3.2462126749529716
            ]
        }
    ]
}