{
    "goal": {
        "global_pose": {
            "orientation": {
                "w": -0.4816463035849501,
                "x": 0.5182115481033762,
                "y": 0.4908360881923453,
                "z": -0.5084816262002911
            },
            "position": {
                "x": -0.8240239810943604,
                "y": -0.300875300988555,
                "z": 0.16403168439865112
            }
        },
        "name": "move_to_storage_C"
    },
    "id": "KPIECE_move_to_storage_C_97",
    "joint_names": [
        "shoulder_pan_joint",
        "shoulder_lift_joint",
        "elbow_joint",
        "wrist_1_joint",
        "wrist_2_joint",
        "wrist_3_joint"
    ],
    "metrics": {
        "cart_traj_len": 0.5760635026029722,
        "distance_elbow_joint": 0.2563173820737037,
        "distance_shoulder_lift_joint": 0.1896063052442254,
        "distance_shoulder_pan_joint": 0.4938782781448867,
        "distance_wrist_1_joint": 0.07311792413962792,
        "distance_wrist_2_joint": 1.0704498158991995,
        "distance_wrist_3_joint": 0.0737767922777719,
        "smoothness": 0.0,
        "time": 0.134629834,
        "traj_len": 1.4687227436720025,
        "weighted_distance": 1.85695121701508
    },
    "planner": "KPIECE",
    "start": {
        "state": {
            "elbow_joint": 2.0108683149792914,
            "shoulder_lift_joint": -1.1634956873317392,
            "shoulder_pan_joint": -2.4736205022346,
            "wrist_1_joint": -0.8367026793690192,
            "wrist_2_joint": 0.6746043897045053,
            "wrist_3_joint": 3.133522094754363
        }
    },
    "waypoints": [
        {
            "positions": [
                -2.4736205022346,
                -1.1634956873317392,
                2.0108683149792914,
                -0.8367026793690192,
                0.6746043897045053,
                3.133522094754363
            ]
        },
        {
            "positions": [
                -2.555933548592081,
                -1.1318946364577016,
                1.9681487513003408,
                -0.8245163586790812,
                0.8530126923543719,
                3.1458182268006585
            ]
        },
        {
            "positions": [
                -2.638246594949562,
                -1.1002935855836642,
                1.9254291876213903,
                -0.8123300379891433,
                1.0314209950042383,
                3.158114358846954
            ]
        },
        {
            "positions": [
                -2.7205596413070436,
                -1.0686925347096266,
                1.8827096239424397,
                -0.8001437172992052,
                1.209829297654105,
                3.170410490893249
            ]
        },
        {
            "positions": [
                -2.8028726876645247,
                -1.037091483835589,
                1.8399900602634889,
                -0.7879573966092672,
                1.3882376003039716,
                3.1827066229395444
            ]
        },
        {
            "positions": [
                -2.8851857340220057,
                -1.0054904329615515,
                1.7972704965845383,
                -0.7757710759193293,
                1.5666459029538382,
                3.1950027549858397
            ]
        },
        {
            "positions": [
                -2.9674987803794868,
                -0.9738893820875139,
                1.7545509329055877,
                -0.7635847552293913,
                1.7450542056037048,
                3.207298887032135
            ]
        }
    ]
}