{
    "goal": {
        "global_pose": {
            "orientation": {
                "w": 0.7031023480610252,
                "x": -0.7110244013736278,
                "y": 0.0077485991402295624,
                "z": 0.005598929693374583
            },
            "position": {
                "x": -0.8841497679147869,
                "y": 0.44412534475326537,
                "z": 0.3711530566215515
            }
        },
        "name": "move_to_auspresseinheit_D"
    },
    "id": "KPIECE_move_to_auspresseinheit_D_13",
    "joint_names": [
        "shoulder_pan_joint",
        "shoulder_lift_joint",
        "elbow_joint",
        "wrist_1_joint",
        "wrist_2_joint",
        "wrist_3_joint"
    ],
    "metrics": {
        "cart_traj_len": 0.34347094000095835,
        "distance_elbow_joint": 0.6481589747074801,
        "distance_shoulder_lift_joint": 0.12707595492392532,
        "distance_shoulder_pan_joint": 0.13336374025926653,
        "distance_wrist_1_joint": 0.5509581902138638,
        "distance_wrist_2_joint": 1.4474220521911343,
        "distance_wrist_3_joint": 0.018574239897362066,
        "smoothness": 5.921189480296099e-16,
        "time": 0.043285154,
        "traj_len": 1.7104248455261144,
        "weighted_distance": 2.227348619860114
    },
    "planner": "KPIECE",
    "start": {
        "state": {
            "elbow_joint": -1.8275484843655228,
            "shoulder_lift_joint": -2.1267897864000416,
            "shoulder_pan_joint": -0.035127520176001514,
            "wrist_1_joint": -2.3477863256791385,
            "wrist_2_joint": -1.605890476484521,
            "wrist_3_joint": -3.0880375317375353
        }
    },
    "waypoints": [
        {
            "positions": [
                -0.035127520176001514,
                -2.1267897864000416,
                -1.8275484843655228,
                -2.3477863256791385,
                -1.605890476484521,
                -3.0880375317375353
            ]
        },
        {
            "positions": [
                -0.051797987708409834,
                -2.142674280765532,
                -1.7465286125270878,
                -2.4166560994558717,
                -1.4249627199606292,
                -3.085715751750365
            ]
        },
        {
            "positions": [
                -0.06846845524081815,
                -2.1585587751310227,
                -1.6655087406886526,
                -2.4855258732326044,
                -1.2440349634367374,
                -3.083393971763195
            ]
        },
        {
            "positions": [
                -0.08513892277322646,
                -2.1744432694965137,
                -1.5844888688502177,
                -2.554395647009337,
                -1.0631072069128455,
                -3.0810721917760246
            ]
        },
        {
            "positions": [
                -0.10180939030563478,
                -2.1903277638620042,
                -1.5034689970117827,
                -2.6232654207860704,
                -0.8821794503889538,
                -3.078750411788854
            ]
        },
        {
            "positions": [
                -0.1184798578380431,
                -2.206212258227495,
                -1.4224491251733478,
                -2.6921351945628036,
                -0.701251693865062,
                -3.076428631801684
            ]
        },
        {
            "positions": [
                -0.1351503253704514,
                -2.222096752592986,
                -1.3414292533349128,
                -2.7610049683395363,
                -0.5203239373411703,
                -3.0741068518145136
            ]
        },
        {
            "positions": [
                -0.1518207929028597,
                -2.2379812469584763,
                -1.2604093814964776,
                -2.829874742116269,
                -0.3393961808172785,
                -3.0717850718273434
            ]
        },
        {
            "positions": [
                -0.16849126043526805,
                -2.253865741323967,
                -1.1793895096580427,
                -2.8987445158930023,
                -0.15846842429338664,
                -3.069463291840173
            ]
        }
    ]
}