{
    "goal": {
        "global_pose": {
            "orientation": {
                "w": 0.7047431493862688,
                "x": -0.7094548369677653,
                "y": 0.0024358444001904,
                "z": -0.0022348060817251984
            },
            "position": {
                "x": -0.39052492380142206,
                "y": 0.3671506643295288,
                "z": 0.19426114857196808
            }
        },
        "name": "move_to_magneteinheit_D"
    },
    "id": "KPIECE_move_to_magneteinheit_D_52",
    "joint_names": [
        "shoulder_pan_joint",
        "shoulder_lift_joint",
        "elbow_joint",
        "wrist_1_joint",
        "wrist_2_joint",
        "wrist_3_joint"
    ],
    "metrics": {
        "cart_traj_len": 4.244485686114716,
        "distance_elbow_joint": 3.109942100406569,
        "distance_shoulder_lift_joint": 1.5910259564485416,
        "distance_shoulder_pan_joint": 2.8996928047423807,
        "distance_wrist_1_joint": 4.1127910884150545,
        "distance_wrist_2_joint": 1.1860156825247155,
        "distance_wrist_3_joint": 4.979701855422396,
        "smoothness": 0.26565922557499455,
        "time": 0.116992948,
        "traj_len": 4.228376696553851,
        "weighted_distance": 5.756507619185804
    },
    "planner": "KPIECE",
    "start": {
        "state": {
            "elbow_joint": 0.7495348899011911,
            "shoulder_lift_joint": -0.6476975780737668,
            "shoulder_pan_joint": -2.711696901376276,
            "wrist_1_joint": -0.0750647808097303,
            "wrist_2_joint": 0.43296659715458535,
            "wrist_3_joint": 3.1361499051832418
        }
    },
    "waypoints": [
        {
            "positions": [
                -2.711696901376276,
                -0.6476975780737668,
                0.7495348899011911,
                -0.0750647808097303,
                0.43296659715458535,
                3.1361499051832418
            ]
        },
        {
            "positions": [
                -2.718253935431105,
                -0.6253469523816598,
                0.6821224264106464,
                0.015876275988027738,
                0.4356756735143919,
                2.9449295541681404
            ]
        },
        {
            "positions": [
                -2.724810969485934,
                -0.6029963266895528,
                0.6147099629201016,
                0.10681733278578577,
                0.4383847498741984,
                2.753709203153039
            ]
        },
        {
            "positions": [
                -2.7313680035407626,
                -0.5806457009974458,
                0.547297499429557,
                0.1977583895835438,
                0.44109382623400495,
                2.5624888521379376
            ]
        },
        {
            "positions": [
                -2.7379250375955912,
                -0.5582950753053388,
                0.4798850359390122,
                0.28869944638130185,
                0.44380290259381144,
                2.3712685011228363
            ]
        },
        {
            "positions": [
                -2.74448207165042,
                -0.5359444496132318,
                0.4124725724484675,
                0.37964050317905984,
                0.446511978953618,
                2.180048150107735
            ]
        },
        {
            "positions": [
                -2.751039105705249,
                -0.5135938239211248,
                0.34506010895792283,
                0.4705815599768179,
                0.4492210553134245,
                1.9888277990926335
            ]
        },
        {
            "positions": [
                -2.7575961397600777,
                -0.4912431982290178,
                0.2776476454673781,
                0.5615226167745758,
                0.45193013167323104,
                1.7976074480775321
            ]
        },
        {
            "positions": [
                -2.7641531738149063,
                -0.46889257253691075,
                0.21023518197683333,
                0.6524636735723339,
                0.45463920803303753,
                1.6063870970624308
            ]
        },
        {
            "positions": [
                -2.770710207869735,
                -0.44654194684480375,
                0.14282271848628858,
                0.743404730370092,
                0.4573482843928441,
                1.4151667460473294
            ]
        },
        {
            "positions": [
                -2.777267241924564,
                -0.42419132115269675,
                0.07541025499574394,
                0.8343457871678499,
                0.4600573607526506,
                1.223946395032228
            ]
        },
        {
            "positions": [
                -2.7838242759793927,
                -0.40184069546058976,
                0.007997791505199248,
                0.9252868439656081,
                0.46276643711245713,
                1.0327260440171266
            ]
        },
        {
            "positions": [
                -2.7343722316948025,
                -0.4133876346389285,
                -0.07885607756945258,
                0.8658825011884598,
                0.3347208342026775,
                0.9788676208549593
            ]
        },
        {
            "positions": [
                -2.6849201874102127,
                -0.42493457381726724,
                -0.1657099466441044,
                0.8064781584113113,
                0.20667523129289794,
                0.9250091976927918
            ]
        },
        {
            "positions": [
                -2.6354681431256224,
                -0.436481512995606,
                -0.25256381571875625,
                0.747073815634163,
                0.07862962838311838,
                0.8711507745306244
            ]
        },
        {
            "positions": [
                -2.586016098841032,
                -0.4480284521739447,
                -0.33941768479340806,
                0.6876694728570145,
                -0.049415974526661244,
                0.8172923513684569
            ]
        },
        {
            "positions": [
                -2.536564054556442,
                -0.4595753913522835,
                -0.4262715538680599,
                0.6282651300798662,
                -0.17746157743644086,
                0.7634339282062895
            ]
        },
        {
            "positions": [
                -2.487112010271852,
                -0.4711223305306222,
                -0.5131254229427118,
                0.5688607873027178,
                -0.3055071803462204,
                0.7095755050441221
            ]
        },
        {
            "positions": [
                -2.4376599659872618,
                -0.48266926970896096,
                -0.5999792920173637,
                0.5094564445255694,
                -0.43355278325599994,
                0.6557170818819547
            ]
        },
        {
            "positions": [
                -2.3429974624897305,
                -0.5298106667121149,
                -0.6400444314953584,
                0.4083416672341063,
                -0.4245596154771988,
                0.7470018157602112
            ]
        },
        {
            "positions": [
                -2.2483349589921993,
                -0.5769520637152687,
                -0.6801095709733531,
                0.30722688994264324,
                -0.4155664476983977,
                0.8382865496384678
            ]
        },
        {
            "positions": [
                -2.1536724554946685,
                -0.6240934607184228,
                -0.7201747104513478,
                0.20611211265118023,
                -0.4065732799195965,
                0.9295712835167244
            ]
        },
        {
            "positions": [
                -2.059009951997137,
                -0.6712348577215766,
                -0.7602398499293426,
                0.10499733535971717,
                -0.3975801121407954,
                1.020856017394981
            ]
        },
        {
            "positions": [
                -1.964347448499606,
                -0.7183762547247305,
                -0.8003049894073373,
                0.003882558068254105,
                -0.38858694436199426,
                1.1121407512732375
            ]
        },
        {
            "positions": [
                -1.869684945002075,
                -0.7655176517278844,
                -0.840370128885332,
                -0.0972322192232089,
                -0.37959377658319315,
                1.203425485151494
            ]
        },
        {
            "positions": [
                -1.7750224415045437,
                -0.8126590487310383,
                -0.8804352683633268,
                -0.19834699651467202,
                -0.370600608804392,
                1.2947102190297506
            ]
        },
        {
            "positions": [
                -1.6803599380070127,
                -0.8598004457341923,
                -0.9205004078413215,
                -0.29946177380613503,
                -0.3616074410255909,
                1.3859949529080073
            ]
        },
        {
            "positions": [
                -1.5856974345094814,
                -0.9069418427373461,
                -0.9605655473193161,
                -0.40057655109759804,
                -0.35261427324678973,
                1.4772796867862636
            ]
        },
        {
            "positions": [
                -1.4910349310119502,
                -0.9540832397405001,
                -1.000630686797311,
                -0.5016913283890612,
                -0.34362110546798863,
                1.5685644206645204
            ]
        },
        {
            "positions": [
                -1.3963724275144191,
                -1.001224636743654,
                -1.0406958262753054,
                -0.6028061056805243,
                -0.33462793768918747,
                1.659849154542777
            ]
        },
        {
            "positions": [
                -1.3017099240168881,
                -1.048366033746808,
                -1.0807609657533002,
                -0.7039208829719872,
                -0.32563476991038637,
                1.7511338884210335
            ]
        },
        {
            "positions": [
                -1.2070474205193569,
                -1.095507430749962,
                -1.1208261052312949,
                -0.8050356602634503,
                -0.3166416021315852,
                1.8424186222992902
            ]
        },
        {
            "positions": [
                -1.1123849170218256,
                -1.1426488277531157,
                -1.1608912447092896,
                -0.9061504375549134,
                -0.3076484343527841,
                1.9337033561775467
            ]
        },
        {
            "positions": [
                -1.0177224135242946,
                -1.1897902247562697,
                -1.2009563841872843,
                -1.0072652148463763,
                -0.298655266573983,
                2.0249880900558033
            ]
        },
        {
            "positions": [
                -0.9230599100267636,
                -1.2369316217594237,
                -1.241021523665279,
                -1.1083799921378394,
                -0.2896620987951818,
                2.11627282393406
            ]
        },
        {
            "positions": [
                -0.8283974065292323,
                -1.2840730187625775,
                -1.2810866631432738,
                -1.2094947694293026,
                -0.2806689310163807,
                2.2075575578123168
            ]
        },
        {
            "positions": [
                -0.7337349030317013,
                -1.3312144157657313,
                -1.3211518026212685,
                -1.3106095467207655,
                -0.2716757632375796,
                2.2988422916905726
            ]
        },
        {
            "positions": [
                -0.63907239953417,
                -1.3783558127688855,
                -1.3612169420992632,
                -1.4117243240122286,
                -0.2626825954587784,
                2.3901270255688294
            ]
        },
        {
            "positions": [
                -0.5444098960366388,
                -1.4254972097720393,
                -1.401282081577258,
                -1.5128391013036917,
                -0.25368942767997726,
                2.481411759447086
            ]
        },
        {
            "positions": [
                -0.4497473925391078,
                -1.472638606775193,
                -1.4413472210552527,
                -1.6139538785951544,
                -0.24469625990117616,
                2.572696493325343
            ]
        },
        {
            "positions": [
                -0.35508488904157653,
                -1.519780003778347,
                -1.4814123605332474,
                -1.715068655886618,
                -0.23570309212237503,
                2.663981227203599
            ]
        },
        {
            "positions": [
                -0.2604223855440453,
                -1.566921400781501,
                -1.5214775000112422,
                -1.816183433178081,
                -0.2267099243435739,
                2.755265961081856
            ]
        },
        {
            "positions": [
                -0.16575988204651448,
                -1.614062797784655,
                -1.5615426394892369,
                -1.9172982104695437,
                -0.21771675656477277,
                2.8465506949601123
            ]
        },
        {
            "positions": [
                -0.07109737854898325,
                -1.661204194787809,
                -1.6016077789672316,
                -2.018412987761007,
                -0.20872358878597164,
                2.937835428838369
            ]
        },
        {
            "positions": [
                -0.07616752785633749,
                -1.6858127765186355,
                -1.7553002169904468,
                -2.066235745469155,
                -0.19634480052611544,
                2.99180618612647
            ]
        },
        {
            "positions": [
                -0.08123767716369171,
                -1.7104213582494623,
                -1.908992655013662,
                -2.1140585031773034,
                -0.18396601226625925,
                3.0457769434145714
            ]
        },
        {
            "positions": [
                -0.13358679421076458,
                -1.7287155637727083,
                -2.1346999327595197,
                -2.1506055614257056,
                -0.17881108666193596,
                3.100381528708816
            ]
        },
        {
            "positions": [
                -0.18593591125783746,
                -1.7470097692959543,
                -2.360407210505377,
                -2.187152619674108,
                -0.1736561610576127,
                3.154986114003061
            ]
        }
    ]
}