{
    "goal": {
        "global_pose": {
            "orientation": {
                "w": 0.7047431493862688,
                "x": -0.7094548369677653,
                "y": 0.0024358444001904,
                "z": -0.0022348060817251984
            },
            "position": {
                "x": -0.39052492380142206,
                "y": 0.3671506643295288,
                "z": 0.19426114857196808
            }
        },
        "name": "move_to_magneteinheit_D"
    },
    "id": "KPIECE_move_to_magneteinheit_D_2",
    "joint_names": [
        "shoulder_pan_joint",
        "shoulder_lift_joint",
        "elbow_joint",
        "wrist_1_joint",
        "wrist_2_joint",
        "wrist_3_joint"
    ],
    "metrics": {
        "cart_traj_len": 4.4894146048603165,
        "distance_elbow_joint": 3.7509442483744815,
        "distance_shoulder_lift_joint": 1.1053552285884165,
        "distance_shoulder_pan_joint": 2.993906003357005,
        "distance_wrist_1_joint": 2.3218692660236866,
        "distance_wrist_2_joint": 0.8301295926258034,
        "distance_wrist_3_joint": 6.213918924961268,
        "smoothness": 0.5035910608526446,
        "time": 0.517197975,
        "traj_len": 4.149231647417466,
        "weighted_distance": 5.726775704748937
    },
    "planner": "KPIECE",
    "start": {
        "state": {
            "elbow_joint": 0.7495348899011911,
            "shoulder_lift_joint": -0.6476975780737668,
            "shoulder_pan_joint": -2.711696901376276,
            "wrist_1_joint": -0.0750647808097303,
            "wrist_2_joint": 0.43296659715458535,
            "wrist_3_joint": 3.1361499051832418
        }
    },
    "waypoints": [
        {
            "positions": [
                -2.711696901376276,
                -0.6476975780737668,
                0.7495348899011911,
                -0.0750647808097303,
                0.43296659715458535,
                3.1361499051832418
            ]
        },
        {
            "positions": [
                -2.7185234679143484,
                -0.6831407566560924,
                0.8161184586398801,
                -0.13007976292035175,
                0.35551671051188527,
                3.0690657355493793
            ]
        },
        {
            "positions": [
                -2.72535003445242,
                -0.7185839352384181,
                0.8827020273785691,
                -0.18509474503097323,
                0.27806682386918513,
                3.0019815659155165
            ]
        },
        {
            "positions": [
                -2.7321766009904924,
                -0.7540271138207437,
                0.949285596117258,
                -0.2401097271415947,
                0.200616937226485,
                2.934897396281654
            ]
        },
        {
            "positions": [
                -2.68932796666671,
                -0.7791811594327943,
                0.881041285800463,
                -0.26452513061827854,
                0.13298103452383803,
                2.7796587271596254
            ]
        },
        {
            "positions": [
                -2.6464793323429276,
                -0.8043352050448449,
                0.8127969754836681,
                -0.2889405340949624,
                0.06534513182119103,
                2.624420058037597
            ]
        },
        {
            "positions": [
                -2.6036306980191455,
                -0.8294892506568955,
                0.7445526651668731,
                -0.31335593757164626,
                -0.0022907708814559613,
                2.4691813889155685
            ]
        },
        {
            "positions": [
                -2.560782063695363,
                -0.8546432962689461,
                0.6763083548500781,
                -0.33777134104833006,
                -0.06992667358410293,
                2.3139427197935403
            ]
        },
        {
            "positions": [
                -2.5179334293715803,
                -0.8797973418809967,
                0.6080640445332832,
                -0.3621867445250139,
                -0.13756257628674995,
                2.1587040506715116
            ]
        },
        {
            "positions": [
                -2.475084795047798,
                -0.9049513874930473,
                0.5398197342164882,
                -0.3866021480016978,
                -0.20519847898939694,
                2.003465381549483
            ]
        },
        {
            "positions": [
                -2.3943532271928913,
                -0.9282528246954268,
                0.4568651409126692,
                -0.4383300422877712,
                -0.20804654708542022,
                1.8539195862526385
            ]
        },
        {
            "positions": [
                -2.3136216593379846,
                -0.9515542618978065,
                0.37391054760885023,
                -0.49005793657384467,
                -0.21089461518144353,
                1.704373790955794
            ]
        },
        {
            "positions": [
                -2.2328900914830783,
                -0.974855699100186,
                0.2909559543050313,
                -0.5417858308599182,
                -0.21374268327746682,
                1.5548279956589495
            ]
        },
        {
            "positions": [
                -2.1521585236281715,
                -0.9981571363025656,
                0.2080013610012123,
                -0.5935137251459915,
                -0.21659075137349013,
                1.405282200362105
            ]
        },
        {
            "positions": [
                -2.0714269557732647,
                -1.0214585735049453,
                0.1250467676973933,
                -0.6452416194320649,
                -0.2194388194695134,
                1.2557364050652606
            ]
        },
        {
            "positions": [
                -1.9906953879183582,
                -1.0447600107073247,
                0.04209217439357438,
                -0.6969695137181384,
                -0.22228688756553672,
                1.106190609768416
            ]
        },
        {
            "positions": [
                -1.9099638200634514,
                -1.0680614479097044,
                -0.04086241891024467,
                -0.7486974080042119,
                -0.22513495566156,
                0.9566448144715716
            ]
        },
        {
            "positions": [
                -1.829232252208545,
                -1.091362885112084,
                -0.1238170122140636,
                -0.8004253022902854,
                -0.22798302375758328,
                0.8070990191747272
            ]
        },
        {
            "positions": [
                -1.7485006843536381,
                -1.1146643223144634,
                -0.20677160551788265,
                -0.8521531965763588,
                -0.2308310918536066,
                0.6575532238778825
            ]
        },
        {
            "positions": [
                -1.6677691164987314,
                -1.137965759516843,
                -0.2897261988217016,
                -0.9038810908624322,
                -0.23367915994962987,
                0.5080074285810381
            ]
        },
        {
            "positions": [
                -1.5870375486438248,
                -1.1612671967192227,
                -0.37268079212552063,
                -0.9556089851485057,
                -0.23652722804565318,
                0.35846163328419345
            ]
        },
        {
            "positions": [
                -1.5063059807889183,
                -1.1845686339216024,
                -0.45563538542933946,
                -1.007336879434579,
                -0.23937529614167646,
                0.20891583798734925
            ]
        },
        {
            "positions": [
                -1.4255744129340115,
                -1.2078700711239818,
                -0.5385899787331586,
                -1.0590647737206527,
                -0.24222336423769975,
                0.05937004269050461
            ]
        },
        {
            "positions": [
                -1.3448428450791048,
                -1.2311715083263615,
                -0.6215445720369775,
                -1.110792668006726,
                -0.24507143233372305,
                -0.09017575260633981
            ]
        },
        {
            "positions": [
                -1.2641112772241982,
                -1.2544729455287411,
                -0.7044991653407965,
                -1.1625205622927994,
                -0.24791950042974634,
                -0.23972154790318445
            ]
        },
        {
            "positions": [
                -1.1833797093692915,
                -1.2777743827311205,
                -0.7874537586446154,
                -1.214248456578873,
                -0.25076756852576965,
                -0.38926734320002865
            ]
        },
        {
            "positions": [
                -1.102648141514385,
                -1.3010758199335002,
                -0.8704083519484344,
                -1.2659763508649462,
                -0.25361563662179293,
                -0.5388131384968733
            ]
        },
        {
            "positions": [
                -1.0219165736594782,
                -1.3243772571358798,
                -0.9533629452522535,
                -1.31770424515102,
                -0.2564637047178162,
                -0.6883589337937179
            ]
        },
        {
            "positions": [
                -0.9411850058045714,
                -1.3476786943382595,
                -1.0363175385560726,
                -1.3694321394370932,
                -0.25931177281383955,
                -0.8379047290905621
            ]
        },
        {
            "positions": [
                -0.8604534379496649,
                -1.370980131540639,
                -1.1192721318598915,
                -1.4211600337231665,
                -0.26215984090986283,
                -0.9874505243874068
            ]
        },
        {
            "positions": [
                -0.7797218700947584,
                -1.3942815687430186,
                -1.2022267251637104,
                -1.4728879280092402,
                -0.2650079090058861,
                -1.136996319684251
            ]
        },
        {
            "positions": [
                -0.6989903022398516,
                -1.417583005945398,
                -1.2851813184675294,
                -1.5246158222953134,
                -0.2678559771019094,
                -1.286542114981096
            ]
        },
        {
            "positions": [
                -0.6182587343849448,
                -1.4408844431477776,
                -1.3681359117713483,
                -1.5763437165813872,
                -0.2707040451979327,
                -1.4360879102779402
            ]
        },
        {
            "positions": [
                -0.5375271665300383,
                -1.4641858803501573,
                -1.4510905050751672,
                -1.6280716108674604,
                -0.273552113293956,
                -1.5856337055747844
            ]
        },
        {
            "positions": [
                -0.45679559867513175,
                -1.487487317552537,
                -1.5340450983789862,
                -1.6797995051535337,
                -0.2764001813899793,
                -1.735179500871629
            ]
        },
        {
            "positions": [
                -0.376064030820225,
                -1.5107887547549166,
                -1.6169996916828056,
                -1.7315273994396074,
                -0.2792482494860026,
                -1.8847252961684737
            ]
        },
        {
            "positions": [
                -0.29533246296531823,
                -1.534090191957296,
                -1.6999542849866245,
                -1.7832552937256807,
                -0.28209631758202586,
                -2.0342710914653184
            ]
        },
        {
            "positions": [
                -0.21460089511041147,
                -1.5573916291596757,
                -1.7829088782904434,
                -1.834983188011754,
                -0.28494438567804914,
                -2.1838168867621626
            ]
        },
        {
            "positions": [
                -0.13386932725550515,
                -1.580693066362055,
                -1.865863471594262,
                -1.8867110822978277,
                -0.2877924537740725,
                -2.3333626820590068
            ]
        },
        {
            "positions": [
                -0.053137759400598394,
                -1.6039945035644347,
                -1.9488180648980813,
                -1.938438976583901,
                -0.29064052187009576,
                -2.482908477355852
            ]
        },
        {
            "positions": [
                0.02759380845430836,
                -1.6272959407668144,
                -2.0317726582019002,
                -1.9901668708699745,
                -0.29348858996611904,
                -2.632454272652696
            ]
        },
        {
            "positions": [
                -0.0039804338097878325,
                -1.6582905949412199,
                -2.1428404312813143,
                -2.072785121060992,
                -0.275007880429021,
                -2.721393608020307
            ]
        },
        {
            "positions": [
                -0.035554676073884024,
                -1.6892852491156256,
                -2.2539082043607284,
                -2.1554033712520098,
                -0.256527170891923,
                -2.8103329433879174
            ]
        },
        {
            "positions": [
                -0.06712891833798021,
                -1.7202799032900313,
                -2.3649759774401424,
                -2.2380216214430275,
                -0.23804646135482493,
                -2.899272278755528
            ]
        },
        {
            "positions": [
                -0.0987031606020764,
                -1.7512745574644368,
                -2.4760437505195565,
                -2.3206398716340453,
                -0.21956575181772692,
                -2.9882116141231387
            ]
        },
        {
            "positions": [
                -0.14238262322287776,
                -1.7521636820633102,
                -2.4131116527587566,
                -2.2824927840343596,
                -0.2046899681393735,
                -3.0329903169505825
            ]
        },
        {
            "positions": [
                -0.1860620858436791,
                -1.7530528066621833,
                -2.3501795549979567,
                -2.2443456964346735,
                -0.18981418446102008,
                -3.0777690197780263
            ]
        }
    ]
}