{
    "goal": {
        "global_pose": {
            "orientation": {
                "w": 0.7047431493862688,
                "x": -0.7094548369677653,
                "y": 0.0024358444001904,
                "z": -0.0022348060817251984
            },
            "position": {
                "x": -0.39052492380142206,
                "y": 0.3671506643295288,
                "z": 0.19426114857196808
            }
        },
        "name": "move_to_magneteinheit_D"
    },
    "id": "KPIECE_move_to_magneteinheit_D_146",
    "joint_names": [
        "shoulder_pan_joint",
        "shoulder_lift_joint",
        "elbow_joint",
        "wrist_1_joint",
        "wrist_2_joint",
        "wrist_3_joint"
    ],
    "metrics": {
        "cart_traj_len": 7.384754818617256,
        "distance_elbow_joint": 4.6838142377649685,
        "distance_shoulder_lift_joint": 2.992898300542158,
        "distance_shoulder_pan_joint": 8.851942257311798,
        "distance_wrist_1_joint": 4.146622385855231,
        "distance_wrist_2_joint": 3.616096319364332,
        "distance_wrist_3_joint": 6.260926057132789,
        "smoothness": 0.27186097931469677,
        "time": 0.300236403,
        "traj_len": 5.527413460016476,
        "weighted_distance": 7.129997922682479
    },
    "planner": "KPIECE",
    "start": {
        "state": {
            "elbow_joint": 0.7495348899011911,
            "shoulder_lift_joint": -0.6476975780737668,
            "shoulder_pan_joint": -2.711696901376276,
            "wrist_1_joint": -0.0750647808097303,
            "wrist_2_joint": 0.43296659715458535,
            "wrist_3_joint": 3.1361499051832418
        }
    },
    "waypoints": [
        {
            "positions": [
                -2.711696901376276,
                -0.6476975780737668,
                0.7495348899011911,
                -0.0750647808097303,
                0.43296659715458535,
                3.1361499051832418
            ]
        },
        {
            "positions": [
                -2.6936189412735496,
                -0.6915285244824607,
                0.8043402974592879,
                -0.0075466906554962215,
                0.49314517885891296,
                3.003049287801141
            ]
        },
        {
            "positions": [
                -2.675540981170823,
                -0.7353594708911546,
                0.8591457050173847,
                0.05997139949873785,
                0.5533237605632406,
                2.8699486704190402
            ]
        },
        {
            "positions": [
                -2.657463021068097,
                -0.7791904172998485,
                0.9139511125754816,
                0.1274894896529719,
                0.6135023422675683,
                2.7368480530369395
            ]
        },
        {
            "positions": [
                -2.6393850609653704,
                -0.8230213637085424,
                0.9687565201335784,
                0.195007579807206,
                0.6736809239718959,
                2.6037474356548387
            ]
        },
        {
            "positions": [
                -2.621307100862644,
                -0.8668523101172362,
                1.0235619276916752,
                0.2625256699614401,
                0.7338595056762235,
                2.470646818272738
            ]
        },
        {
            "positions": [
                -2.6032291407599173,
                -0.9106832565259301,
                1.078367335249772,
                0.33004376011567416,
                0.7940380873805511,
                2.337546200890637
            ]
        },
        {
            "positions": [
                -2.585151180657191,
                -0.954514202934624,
                1.1331727428078686,
                0.3975618502699082,
                0.8542166690848787,
                2.2044455835085364
            ]
        },
        {
            "positions": [
                -2.5670732205544646,
                -0.9983451493433179,
                1.1879781503659657,
                0.4650799404241423,
                0.9143952507892064,
                2.0713449661264356
            ]
        },
        {
            "positions": [
                -2.548995260451738,
                -1.0421760957520116,
                1.2427835579240623,
                0.5325980305783763,
                0.974573832493534,
                1.9382443487443346
            ]
        },
        {
            "positions": [
                -2.5309173003490115,
                -1.0860070421607055,
                1.2975889654821593,
                0.6001161207326104,
                1.0347524141978617,
                1.8051437313622336
            ]
        },
        {
            "positions": [
                -2.5128393402462854,
                -1.1298379885693994,
                1.352394373040256,
                0.6676342108868444,
                1.0949309959021893,
                1.6720431139801328
            ]
        },
        {
            "positions": [
                -2.494761380143559,
                -1.1736689349780933,
                1.4071997805983527,
                0.7351523010410785,
                1.155109577606517,
                1.538942496598032
            ]
        },
        {
            "positions": [
                -2.4766834200408323,
                -1.2174998813867872,
                1.4620051881564495,
                0.8026703911953126,
                1.2152881593108444,
                1.4058418792159313
            ]
        },
        {
            "positions": [
                -2.4273380506985256,
                -1.2694664826471616,
                1.4867025796276148,
                0.849566711175159,
                1.2615456212404959,
                1.2423092317973463
            ]
        },
        {
            "positions": [
                -2.3779926813562184,
                -1.3214330839075357,
                1.5113999710987798,
                0.8964630311550055,
                1.3078030831701473,
                1.0787765843787613
            ]
        },
        {
            "positions": [
                -2.3286473120139117,
                -1.37339968516791,
                1.536097362569945,
                0.9433593511348519,
                1.3540605450997987,
                0.9152439369601763
            ]
        },
        {
            "positions": [
                -2.2468528914327632,
                -1.412828183299076,
                1.490825977581194,
                0.9262557586230359,
                1.349285084390247,
                0.7820670004074564
            ]
        },
        {
            "positions": [
                -2.1650584708516143,
                -1.4522566814302416,
                1.445554592592443,
                0.9091521661112199,
                1.3445096236806957,
                0.6488900638547364
            ]
        },
        {
            "positions": [
                -2.083264050270466,
                -1.4916851795614074,
                1.400283207603692,
                0.8920485735994038,
                1.3397341629711441,
                0.5157131273020165
            ]
        },
        {
            "positions": [
                -1.9299125744329142,
                -1.4629898766169762,
                1.3299759007602205,
                0.8464273431790734,
                1.2760701318348904,
                0.4877965830887621
            ]
        },
        {
            "positions": [
                -1.7765610985953626,
                -1.434294573672545,
                1.259668593916749,
                0.8008061127587429,
                1.2124061006986366,
                0.45988003887550777
            ]
        },
        {
            "positions": [
                -1.623209622757811,
                -1.4055992707281135,
                1.1893612870732775,
                0.7551848823384125,
                1.148742069562383,
                0.4319634946622534
            ]
        },
        {
            "positions": [
                -1.4698581469202594,
                -1.3769039677836823,
                1.1190539802298058,
                0.7095636519180821,
                1.0850780384261294,
                0.4040469504489991
            ]
        },
        {
            "positions": [
                -1.3165066710827078,
                -1.348208664839251,
                1.0487466733863344,
                0.6639424214977516,
                1.0214140072898756,
                0.37613040623574473
            ]
        },
        {
            "positions": [
                -1.1631551952451562,
                -1.3195133618948196,
                0.9784393665428629,
                0.6183211910774213,
                0.9577499761536219,
                0.3482138620224904
            ]
        },
        {
            "positions": [
                -1.0098037194076046,
                -1.2908180589503884,
                0.9081320596993914,
                0.5726999606570908,
                0.8940859450173682,
                0.320297317809236
            ]
        },
        {
            "positions": [
                -0.856452243570053,
                -1.2621227560059571,
                0.83782475285592,
                0.5270787302367603,
                0.8304219138811145,
                0.2923807735959817
            ]
        },
        {
            "positions": [
                -0.7031007677325016,
                -1.233427453061526,
                0.7675174460124484,
                0.48145749981643005,
                0.7667578827448609,
                0.26446422938272734
            ]
        },
        {
            "positions": [
                -0.5497492918949498,
                -1.2047321501170947,
                0.6972101391689769,
                0.43583626939609954,
                0.703093851608607,
                0.236547685169473
            ]
        },
        {
            "positions": [
                -0.39639781605739843,
                -1.1760368471726634,
                0.6269028323255055,
                0.39021503897576915,
                0.6394298204723534,
                0.20863114095621865
            ]
        },
        {
            "positions": [
                -0.2430463402198466,
                -1.147341544228232,
                0.5565955254820338,
                0.34459380855543875,
                0.5757657893360997,
                0.18071459674296425
            ]
        },
        {
            "positions": [
                -0.08969486438229524,
                -1.1186462412838007,
                0.4862882186385624,
                0.29897257813510836,
                0.512101758199846,
                0.15279805252970996
            ]
        },
        {
            "positions": [
                0.06365661145525658,
                -1.0899509383393693,
                0.4159809117950909,
                0.25335134771477785,
                0.4484377270635923,
                0.12488150831645556
            ]
        },
        {
            "positions": [
                0.21700808729280796,
                -1.061255635394938,
                0.34567360495161936,
                0.20773011729444746,
                0.3847736959273387,
                0.09696496410320127
            ]
        },
        {
            "positions": [
                0.3703595631303598,
                -1.0325603324505068,
                0.27536629810814794,
                0.16210888687411695,
                0.32110966479108494,
                0.06904841988994687
            ]
        },
        {
            "positions": [
                0.5237110389679112,
                -1.0038650295060756,
                0.2050589912646763,
                0.11648765645378667,
                0.2574456336548312,
                0.041131875676692575
            ]
        },
        {
            "positions": [
                0.6770625148054625,
                -0.9751697265616444,
                0.1347516844212049,
                0.07086642603345628,
                0.19378160251857768,
                0.013215331463438229
            ]
        },
        {
            "positions": [
                0.8304139906430148,
                -0.9464744236172129,
                0.06444437757773325,
                0.02524519561312566,
                0.13011757138232372,
                -0.014701212749816173
            ]
        },
        {
            "positions": [
                0.9837654664805662,
                -0.9177791206727817,
                -0.00586292926573817,
                -0.020376034807204735,
                0.06645354024606998,
                -0.04261775696307046
            ]
        },
        {
            "positions": [
                1.1371169423181176,
                -0.8890838177283504,
                -0.07617023610920959,
                -0.06599726522753513,
                0.002789509109816457,
                -0.07053430117632487
            ]
        },
        {
            "positions": [
                1.290468418155669,
                -0.8603885147839192,
                -0.146477542952681,
                -0.11161849564786552,
                -0.06087452202643728,
                -0.09845084538957916
            ]
        },
        {
            "positions": [
                1.4438198939932212,
                -0.8316932118394877,
                -0.21678484979615287,
                -0.15723972606819603,
                -0.12453855316269102,
                -0.12636738960283356
            ]
        },
        {
            "positions": [
                1.5971713698307726,
                -0.8029979088950565,
                -0.2870921566396243,
                -0.2028609564885263,
                -0.18820258429894476,
                -0.15428393381608796
            ]
        },
        {
            "positions": [
                1.750522845668324,
                -0.7743026059506253,
                -0.3573994634830957,
                -0.24848218690885682,
                -0.2518666154351983,
                -0.18220047802934225
            ]
        },
        {
            "positions": [
                1.9038743215058753,
                -0.745607303006194,
                -0.4277067703265671,
                -0.2941034173291871,
                -0.315530646571452,
                -0.21011702224259654
            ]
        },
        {
            "positions": [
                2.0572257973434276,
                -0.7169120000617626,
                -0.49801407717003876,
                -0.3397246477495178,
                -0.379194677707706,
                -0.23803356645585094
            ]
        },
        {
            "positions": [
                2.210577273180979,
                -0.6882166971173314,
                -0.5683213840135102,
                -0.3853458781698481,
                -0.4428587088439595,
                -0.26595011066910534
            ]
        },
        {
            "positions": [
                2.3639287490185303,
                -0.6595213941729001,
                -0.6386286908569816,
                -0.4309671085901784,
                -0.5065227399802132,
                -0.29386665488235963
            ]
        },
        {
            "positions": [
                2.5172802248560817,
                -0.6308260912284689,
                -0.7089359977004532,
                -0.4765883390105089,
                -0.5701867711164668,
                -0.3217831990956139
            ]
        },
        {
            "positions": [
                2.670631700693634,
                -0.6021307882840375,
                -0.7792433045439249,
                -0.5222095694308394,
                -0.6338508022527207,
                -0.3496997433088683
            ]
        },
        {
            "positions": [
                2.8239831765311854,
                -0.5734354853396062,
                -0.8495506113873961,
                -0.5678307998511699,
                -0.6975148333889742,
                -0.37761628752212273
            ]
        },
        {
            "positions": [
                2.9773346523687367,
                -0.544740182395175,
                -0.9198579182308677,
                -0.6134520302715001,
                -0.761178864525228,
                -0.405532831735377
            ]
        },
        {
            "positions": [
                2.860189811495893,
                -0.5892574306132595,
                -0.9732392695010678,
                -0.6716515440679556,
                -0.7397061622365579,
                -0.5062455472988648
            ]
        },
        {
            "positions": [
                2.743044970623049,
                -0.6337746788313441,
                -1.0266206207712678,
                -0.7298510578644111,
                -0.7182334599478878,
                -0.6069582628623527
            ]
        },
        {
            "positions": [
                2.625900129750205,
                -0.6782919270494288,
                -1.0800019720414678,
                -0.7880505716608665,
                -0.6967607576592177,
                -0.7076709784258405
            ]
        },
        {
            "positions": [
                2.508755288877361,
                -0.7228091752675133,
                -1.1333833233116677,
                -0.8462500854573219,
                -0.6752880553705476,
                -0.8083836939893283
            ]
        },
        {
            "positions": [
                2.3916104480045175,
                -0.7673264234855979,
                -1.1867646745818679,
                -0.9044495992537773,
                -0.6538153530818775,
                -0.9090964095528161
            ]
        },
        {
            "positions": [
                2.2744656071316736,
                -0.8118436717036825,
                -1.2401460258520678,
                -0.9626491130502328,
                -0.6323426507932075,
                -1.009809125116304
            ]
        },
        {
            "positions": [
                2.1573207662588296,
                -0.856360919921767,
                -1.2935273771222677,
                -1.0208486268466883,
                -0.6108699485045374,
                -1.1105218406797919
            ]
        },
        {
            "positions": [
                2.0401759253859857,
                -0.9008781681398517,
                -1.3469087283924677,
                -1.0790481406431438,
                -0.5893972462158673,
                -1.2112345562432796
            ]
        },
        {
            "positions": [
                1.9230310845131418,
                -0.9453954163579362,
                -1.4002900796626676,
                -1.1372476544395993,
                -0.5679245439271972,
                -1.3119472718067673
            ]
        },
        {
            "positions": [
                1.805886243640298,
                -0.9899126645760208,
                -1.4536714309328678,
                -1.1954471682360546,
                -0.5464518416385271,
                -1.4126599873702552
            ]
        },
        {
            "positions": [
                1.688741402767454,
                -1.0344299127941055,
                -1.5070527822030677,
                -1.2536466820325103,
                -0.5249791393498571,
                -1.513372702933743
            ]
        },
        {
            "positions": [
                1.5715965618946102,
                -1.0789471610121901,
                -1.5604341334732679,
                -1.3118461958289656,
                -0.5035064370611869,
                -1.6140854184972309
            ]
        },
        {
            "positions": [
                1.4544517210217662,
                -1.1234644092302746,
                -1.6138154847434678,
                -1.3700457096254213,
                -0.4820337347725169,
                -1.7147981340607186
            ]
        },
        {
            "positions": [
                1.3373068801489225,
                -1.167981657448359,
                -1.6671968360136677,
                -1.4282452234218765,
                -0.4605610324838468,
                -1.8155108496242065
            ]
        },
        {
            "positions": [
                1.2201620392760784,
                -1.2124989056664437,
                -1.7205781872838677,
                -1.4864447372183323,
                -0.4390883301951767,
                -1.9162235651876944
            ]
        },
        {
            "positions": [
                1.1030171984032346,
                -1.2570161538845284,
                -1.7739595385540676,
                -1.5446442510147875,
                -0.4176156279065066,
                -2.016936280751182
            ]
        },
        {
            "positions": [
                0.9858723575303905,
                -1.301533402102613,
                -1.8273408898242678,
                -1.6028437648112432,
                -0.3961429256178365,
                -2.11764899631467
            ]
        },
        {
            "positions": [
                0.8687275166575468,
                -1.3460506503206975,
                -1.8807222410944677,
                -1.6610432786076985,
                -0.37467022332916644,
                -2.218361711878158
            ]
        },
        {
            "positions": [
                0.7515826757847028,
                -1.3905678985387822,
                -1.934103592364668,
                -1.719242792404154,
                -0.3531975210404963,
                -2.3190744274416457
            ]
        },
        {
            "positions": [
                0.6344378349118593,
                -1.4350851467568666,
                -1.9874849436348678,
                -1.7774423062006093,
                -0.33172481875182624,
                -2.4197871430051334
            ]
        },
        {
            "positions": [
                0.517292994039015,
                -1.4796023949749513,
                -2.0408662949050678,
                -1.835641819997065,
                -0.31025211646315615,
                -2.5204998585686216
            ]
        },
        {
            "positions": [
                0.40014815316617147,
                -1.524119643193036,
                -2.0942476461752677,
                -1.8938413337935203,
                -0.2887794141744861,
                -2.621212574132109
            ]
        },
        {
            "positions": [
                0.2830033122933271,
                -1.5686368914111206,
                -2.1476289974454676,
                -1.952040847589976,
                -0.26730671188581595,
                -2.721925289695597
            ]
        },
        {
            "positions": [
                0.1658584714204836,
                -1.613154139629205,
                -2.201010348715668,
                -2.0102403613864315,
                -0.24583400959714585,
                -2.8226380052590847
            ]
        },
        {
            "positions": [
                0.048713630547639664,
                -1.6576713878472897,
                -2.2543916999858675,
                -2.0684398751828867,
                -0.2243613073084758,
                -2.923350720822573
            ]
        },
        {
            "positions": [
                -0.06843121032520427,
                -1.7021886360653742,
                -2.307773051256068,
                -2.126639388979342,
                -0.20288860501980577,
                -3.02406343638606
            ]
        },
        {
            "positions": [
                -0.1855760511980481,
                -1.7467058842834589,
                -2.361154402526268,
                -2.1848389027757977,
                -0.18141590273113561,
                -3.1247761519495483
            ]
        }
    ]
}