{
    "goal": {
        "global_pose": {
            "orientation": {
                "w": 0.7031023480610252,
                "x": -0.7110244013736278,
                "y": 0.0077485991402295624,
                "z": 0.005598929693374583
            },
            "position": {
                "x": -0.8841497679147869,
                "y": 0.44412534475326537,
                "z": 0.3711530566215515
            }
        },
        "name": "move_to_auspresseinheit_D"
    },
    "id": "KPIECE_move_to_auspresseinheit_D_35",
    "joint_names": [
        "shoulder_pan_joint",
        "shoulder_lift_joint",
        "elbow_joint",
        "wrist_1_joint",
        "wrist_2_joint",
        "wrist_3_joint"
    ],
    "metrics": {
        "cart_traj_len": 0.3448052899515642,
        "distance_elbow_joint": 0.6683453682180798,
        "distance_shoulder_lift_joint": 0.13762054768107124,
        "distance_shoulder_pan_joint": 0.13359287538195624,
        "distance_wrist_1_joint": 0.6247546533451369,
        "distance_wrist_2_joint": 1.437204423800738,
        "distance_wrist_3_joint": 0.07890335672378201,
        "smoothness": 2.9605947279411004e-16,
        "time": 0.059699962,
        "traj_len": 1.7551128810281018,
        "weighted_distance": 2.30221350351009
    },
    "planner": "KPIECE",
    "start": {
        "state": {
            "elbow_joint": -1.8275484843655228,
            "shoulder_lift_joint": -2.1267897864000416,
            "shoulder_pan_joint": -0.035127520176001514,
            "wrist_1_joint": -2.3477863256791385,
            "wrist_2_joint": -1.605890476484521,
            "wrist_3_joint": -3.0880375317375353
        }
    },
    "waypoints": [
        {
            "positions": [
                -0.035127520176001514,
                -2.1267897864000416,
                -1.8275484843655228,
                -2.3477863256791385,
                -1.605890476484521,
                -3.0880375317375353
            ]
        },
        {
            "positions": [
                -0.051826629598746045,
                -2.1439923548601754,
                -1.7440053133382627,
                -2.4258806573472804,
                -1.4262399235094287,
                -3.0781746121470626
            ]
        },
        {
            "positions": [
                -0.06852573902149058,
                -2.161194923320309,
                -1.6604621423110029,
                -2.503974989015423,
                -1.2465893705343365,
                -3.06831169255659
            ]
        },
        {
            "positions": [
                -0.08522484844423511,
                -2.1783974917804434,
                -1.5769189712837428,
                -2.5820693206835648,
                -1.0669388175592442,
                -3.058448772966117
            ]
        },
        {
            "positions": [
                -0.10192395786697964,
                -2.195600060240577,
                -1.4933758002564828,
                -2.6601636523517067,
                -0.887288264584152,
                -3.048585853375644
            ]
        },
        {
            "positions": [
                -0.11862306728972416,
                -2.212802628700711,
                -1.409832629229223,
                -2.738257984019849,
                -0.7076377116090597,
                -3.0387229337851713
            ]
        },
        {
            "positions": [
                -0.1353221767124687,
                -2.230005197160845,
                -1.3262894582019629,
                -2.816352315687991,
                -0.5279871586339675,
                -3.0288600141946986
            ]
        },
        {
            "positions": [
                -0.15202128613521323,
                -2.247207765620979,
                -1.242746287174703,
                -2.8944466473561334,
                -0.34833660565887525,
                -3.018997094604226
            ]
        },
        {
            "positions": [
                -0.16872039555795776,
                -2.264410334081113,
                -1.159203116147443,
                -2.9725409790242754,
                -0.16868605268378292,
                -3.0091341750137532
            ]
        }
    ]
}