{
    "goal": {
        "global_pose": {
            "orientation": {
                "w": 0.7047431468963623,
                "x": -0.7094548344612122,
                "y": 0.0024358443915843964,
                "z": -0.0022348060738295317
            },
            "position": {
                "x": 0.6094750761985779,
                "y": 0.3671506643295288,
                "z": 0.19426114857196808
            }
        },
        "name": "move_to_magneteinheit_A"
    },
    "id": "KPIECE_move_to_magneteinheit_A_138",
    "joint_names": [
        "shoulder_pan_joint",
        "shoulder_lift_joint",
        "elbow_joint",
        "wrist_1_joint",
        "wrist_2_joint",
        "wrist_3_joint"
    ],
    "metrics": {
        "cart_traj_len": 1.5971266459382953,
        "distance_elbow_joint": 3.5387106145145752,
        "distance_shoulder_lift_joint": 1.1409582349861094,
        "distance_shoulder_pan_joint": 1.2411908416510196,
        "distance_wrist_1_joint": 3.886183472604317,
        "distance_wrist_2_joint": 1.702752436638527,
        "distance_wrist_3_joint": 1.1989605045398486,
        "smoothness": 6.791952646107427e-16,
        "time": 0.309582467,
        "traj_len": 3.5649342357096008,
        "weighted_distance": 4.549243126417507
    },
    "planner": "KPIECE",
    "start": {
        "state": {
            "elbow_joint": -1.5739458827952972,
            "shoulder_lift_joint": 0.006533473998580023,
            "shoulder_pan_joint": -1.1188671628667068,
            "wrist_1_joint": 3.138208179676308,
            "wrist_2_joint": -1.5706037135050406,
            "wrist_3_joint": -2.0226958329764257
        }
    },
    "waypoints": [
        {
            "positions": [
                -1.1188671628667068,
                0.006533473998580023,
                -1.5739458827952972,
                3.138208179676308,
                -1.5706037135050406,
                -2.0226958329764257
            ]
        },
        {
            "positions": [
                -1.0809965102302426,
                -0.028533486957279496,
                -1.4650705455826827,
                3.0168853877540642,
                -1.517955498942091,
                -2.059653059104372
            ]
        },
        {
            "positions": [
                -1.043125857593778,
                -0.06360044791313901,
                -1.3561952083700684,
                2.8955625958318203,
                -1.465307284379141,
                -2.096610285232318
            ]
        },
        {
            "positions": [
                -1.0052552049573138,
                -0.09866740886899854,
                -1.2473198711574538,
                2.774239803909577,
                -1.4126590698161914,
                -2.133567511360264
            ]
        },
        {
            "positions": [
                -0.9673845523208495,
                -0.13373436982485803,
                -1.1384445339448392,
                2.652917011987333,
                -1.3600108552532417,
                -2.1705247374882104
            ]
        },
        {
            "positions": [
                -0.9295138996843852,
                -0.16880133078071755,
                -1.0295691967322247,
                2.531594220065089,
                -1.3073626406902918,
                -2.2074819636161562
            ]
        },
        {
            "positions": [
                -0.8916432470479209,
                -0.20386829173657708,
                -0.9206938595196102,
                2.410271428142845,
                -1.2547144261273422,
                -2.2444391897441025
            ]
        },
        {
            "positions": [
                -0.8537725944114565,
                -0.2389352526924366,
                -0.8118185223069958,
                2.288948636220601,
                -1.2020662115643925,
                -2.2813964158720488
            ]
        },
        {
            "positions": [
                -0.8159019417749922,
                -0.27400221364829613,
                -0.7029431850943813,
                2.1676258442983576,
                -1.1494179970014429,
                -2.3183536419999946
            ]
        },
        {
            "positions": [
                -0.7780312891385279,
                -0.30906917460415567,
                -0.5940678478817667,
                2.0463030523761137,
                -1.0967697824384932,
                -2.355310868127941
            ]
        },
        {
            "positions": [
                -0.7401606365020635,
                -0.34413613556001516,
                -0.48519251066915214,
                1.9249802604538697,
                -1.0441215678755433,
                -2.392268094255887
            ]
        },
        {
            "positions": [
                -0.7022899838655992,
                -0.3792030965158747,
                -0.3763171734565378,
                1.803657468531626,
                -0.9914733533125937,
                -2.429225320383833
            ]
        },
        {
            "positions": [
                -0.6644193312291349,
                -0.41427005747173423,
                -0.26744183624392326,
                1.682334676609382,
                -0.9388251387496439,
                -2.4661825465117793
            ]
        },
        {
            "positions": [
                -0.6265486785926706,
                -0.4493370184275937,
                -0.1585664990313087,
                1.5610118846871384,
                -0.8861769241866942,
                -2.5031397726397255
            ]
        },
        {
            "positions": [
                -0.5886780259562062,
                -0.48440397938345325,
                -0.049691161818694374,
                1.4396890927648944,
                -0.8335287096237445,
                -2.5400969987676714
            ]
        },
        {
            "positions": [
                -0.5508073733197418,
                -0.5194709403393127,
                0.05918417539392018,
                1.3183663008426507,
                -0.7808804950607948,
                -2.5770542248956176
            ]
        },
        {
            "positions": [
                -0.5129367206832776,
                -0.5545379012951722,
                0.16805951260653473,
                1.1970435089204068,
                -0.728232280497845,
                -2.614011451023564
            ]
        },
        {
            "positions": [
                -0.4750660680468133,
                -0.5896048622510317,
                0.2769348498191493,
                1.075720716998163,
                -0.6755840659348953,
                -2.6509686771515097
            ]
        },
        {
            "positions": [
                -0.4371954154103489,
                -0.6246718232068913,
                0.38581018703176384,
                0.9543979250759191,
                -0.6229358513719456,
                -2.687925903279456
            ]
        },
        {
            "positions": [
                -0.3993247627738845,
                -0.6597387841627508,
                0.4946855242443784,
                0.8330751331536752,
                -0.570287636808996,
                -2.7248831294074023
            ]
        },
        {
            "positions": [
                -0.36145411013742024,
                -0.6948057451186103,
                0.603560861456993,
                0.7117523412314313,
                -0.5176394222460461,
                -2.761840355535348
            ]
        },
        {
            "positions": [
                -0.32358345750095596,
                -0.7298727060744699,
                0.7124361986696071,
                0.5904295493091878,
                -0.46499120768309643,
                -2.7987975816632944
            ]
        },
        {
            "positions": [
                -0.2857128048644916,
                -0.7649396670303293,
                0.8213115358822216,
                0.46910675738694385,
                -0.4123429931201468,
                -2.8357548077912407
            ]
        },
        {
            "positions": [
                -0.2478421522280272,
                -0.8000066279861888,
                0.9301868730948362,
                0.3477839654646999,
                -0.3596947785571971,
                -2.8727120339191865
            ]
        },
        {
            "positions": [
                -0.20997149959156292,
                -0.8350735889420484,
                1.0390622103074507,
                0.22646117354245598,
                -0.30704656399424723,
                -2.9096692600471328
            ]
        },
        {
            "positions": [
                -0.17210084695509864,
                -0.8701405498979079,
                1.1479375475200653,
                0.10513838162021205,
                -0.2543983494312976,
                -2.946626486175079
            ]
        },
        {
            "positions": [
                -0.13423019431863425,
                -0.9052075108537674,
                1.2568128847326798,
                -0.016184410302031438,
                -0.20175013486834792,
                -2.983583712303025
            ]
        },
        {
            "positions": [
                -0.09635954168216987,
                -0.9402744718096269,
                1.3656882219452944,
                -0.13750720222427537,
                -0.14910192030539804,
                -3.020540938430971
            ]
        },
        {
            "positions": [
                -0.058488889045705594,
                -0.9753414327654865,
                1.4745635591579085,
                -0.2588299941465193,
                -0.09645370574244838,
                -3.0574981645589174
            ]
        },
        {
            "positions": [
                -0.02061823640924132,
                -1.010408393721346,
                1.583438896370523,
                -0.38015278606876324,
                -0.04380549117949872,
                -3.0944553906868633
            ]
        },
        {
            "positions": [
                0.017252416227223177,
                -1.0454753546772055,
                1.6923142335831376,
                -0.5014755779910067,
                0.008842723383450934,
                -3.131412616814809
            ]
        },
        {
            "positions": [
                0.05512306886368745,
                -1.080542315633065,
                1.8011895707957521,
                -0.6227983699132507,
                0.061490937946400814,
                -3.168369842942756
            ]
        },
        {
            "positions": [
                0.09299372150015174,
                -1.1156092765889245,
                1.9100649080083665,
                -0.7441211618354946,
                0.11413915250935056,
                -3.2053270690707016
            ]
        },
        {
            "positions": [
                0.12232367878431283,
                -1.1344247609875293,
                1.964764731719278,
                -0.7479752929280087,
                0.13214872313348644,
                -3.2216563375162743
            ]
        }
    ]
}