{
    "goal": {
        "global_pose": {
            "orientation": {
                "w": 0.005598929693374612,
                "x": 0.007748599140229565,
                "y": 0.7110244013736278,
                "z": -0.7031023480610252
            },
            "position": {
                "x": -0.8858502320852131,
                "y": -0.7141253447532654,
                "z": 0.3711530566215515
            }
        },
        "name": "move_to_auspresseinheit_C"
    },
    "id": "KPIECE_move_to_auspresseinheit_C_14",
    "joint_names": [
        "shoulder_pan_joint",
        "shoulder_lift_joint",
        "elbow_joint",
        "wrist_1_joint",
        "wrist_2_joint",
        "wrist_3_joint"
    ],
    "metrics": {
        "cart_traj_len": 0.4941999931810793,
        "distance_elbow_joint": 1.0074132953463295,
        "distance_shoulder_lift_joint": 0.32802545498037694,
        "distance_shoulder_pan_joint": 0.2570273049817198,
        "distance_wrist_1_joint": 0.6941379773214397,
        "distance_wrist_2_joint": 1.3092623909844618,
        "distance_wrist_3_joint": 0.07945891779900416,
        "smoothness": 6.45947944157498e-16,
        "time": 0.011002484,
        "traj_len": 1.9171138050239303,
        "weighted_distance": 2.41612159158376
    },
    "planner": "KPIECE",
    "start": {
        "state": {
            "elbow_joint": 1.7527959577730765,
            "shoulder_lift_joint": -0.9740617694224828,
            "shoulder_pan_joint": -2.967991417825869,
            "wrist_1_joint": -0.7595177689779385,
            "wrist_2_joint": 1.7443932448376545,
            "wrist_3_joint": 3.1991315425061013
        }
    },
    "waypoints": [
        {
            "positions": [
                -2.967991417825869,
                -0.9740617694224828,
                1.7527959577730765,
                -0.7595177689779385,
                1.7443932448376545,
                3.1991315425061013
            ]
        },
        {
            "positions": [
                -2.942288687327697,
                -0.941259223924445,
                1.6520546282384436,
                -0.6901039712457946,
                1.6134670057392082,
                3.191185650726201
            ]
        },
        {
            "positions": [
                -2.916585956829525,
                -0.9084566784264074,
                1.5513132987038105,
                -0.6206901735136506,
                1.4825407666407622,
                3.1832397589463004
            ]
        },
        {
            "positions": [
                -2.8908832263313533,
                -0.8756541329283697,
                1.4505719691691776,
                -0.5512763757815067,
                1.351614527542316,
                3.1752938671664
            ]
        },
        {
            "positions": [
                -2.8651804958331812,
                -0.842851587430332,
                1.3498306396345447,
                -0.48186257804936267,
                1.2206882884438697,
                3.1673479753864995
            ]
        },
        {
            "positions": [
                -2.839477765335009,
                -0.8100490419322943,
                1.2490893100999116,
                -0.4124487803172187,
                1.0897620493454236,
                3.159402083606599
            ]
        },
        {
            "positions": [
                -2.813775034836837,
                -0.7772464964342567,
                1.148347980565279,
                -0.34303498258507475,
                0.9588358102469774,
                3.151456191826699
            ]
        },
        {
            "positions": [
                -2.788072304338665,
                -0.744443950936219,
                1.0476066510306459,
                -0.2736211848529308,
                0.8279095711485313,
                3.1435103000467985
            ]
        },
        {
            "positions": [
                -2.7623695738404934,
                -0.7116414054381812,
                0.9468653214960129,
                -0.2042073871207868,
                0.6969833320500849,
                3.135564408266898
            ]
        },
        {
            "positions": [
                -2.7366668433423214,
                -0.6788388599401436,
                0.8461239919613799,
                -0.13479358938864283,
                0.5660570929516389,
                3.1276185164869976
            ]
        },
        {
            "positions": [
                -2.7109641128441493,
                -0.6460363144421059,
                0.745382662426747,
                -0.06537979165649885,
                0.43513085385319256,
                3.119672624707097
            ]
        }
    ]
}