{
    "goal": {
        "global_pose": {
            "orientation": {
                "w": 0.7031023502349854,
                "x": -0.7110244035720825,
                "y": 0.007748599164187908,
                "z": 0.005598929710686207
            },
            "position": {
                "x": 0.11585023208521307,
                "y": 0.44412534475326537,
                "z": 0.3711530566215515
            }
        },
        "name": "move_to_auspresseinheit_A"
    },
    "id": "KPIECE_move_to_auspresseinheit_A_129",
    "joint_names": [
        "shoulder_pan_joint",
        "shoulder_lift_joint",
        "elbow_joint",
        "wrist_1_joint",
        "wrist_2_joint",
        "wrist_3_joint"
    ],
    "metrics": {
        "cart_traj_len": 0.9113837838138598,
        "distance_elbow_joint": 0.24039493965988834,
        "distance_shoulder_lift_joint": 0.6448599189779862,
        "distance_shoulder_pan_joint": 1.320646894536443,
        "distance_wrist_1_joint": 1.1475339661932147,
        "distance_wrist_2_joint": 0.8177158866956487,
        "distance_wrist_3_joint": 0.10952253544057244,
        "smoothness": 2.308032612773864,
        "time": 0.20968189399999998,
        "traj_len": 2.068979009440104,
        "weighted_distance": 2.542630343812046
    },
    "planner": "KPIECE",
    "start": {
        "state": {
            "elbow_joint": 2.4225746994637096,
            "shoulder_lift_joint": -1.373653595662188,
            "shoulder_pan_joint": -0.3378633848294565,
            "wrist_1_joint": -1.0288595594406726,
            "wrist_2_joint": 1.2330228066703421,
            "wrist_3_joint": 3.189163495502006
        }
    },
    "waypoints": [
        {
            "positions": [
                -0.3378633848294565,
                -1.373653595662188,
                2.4225746994637096,
                -1.0288595594406726,
                1.2330228066703421,
                3.189163495502006
            ]
        },
        {
            "positions": [
                -0.20668034209765213,
                -1.4391699122029717,
                2.4075125934996695,
                -0.9332825775882158,
                1.158146164173468,
                3.1805991051067855
            ]
        },
        {
            "positions": [
                -0.07549729936584776,
                -1.5046862287437555,
                2.3924504875356294,
                -0.8377055957357589,
                1.083269521676594,
                3.1720347147115646
            ]
        },
        {
            "positions": [
                0.05568574336595661,
                -1.5702025452845392,
                2.377388381571589,
                -0.7421286138833021,
                1.00839287917972,
                3.1634703243163442
            ]
        },
        {
            "positions": [
                0.18686878609776097,
                -1.635718861825323,
                2.3623262756075487,
                -0.6465516320308452,
                0.933516236682846,
                3.1549059339211234
            ]
        },
        {
            "positions": [
                0.31805182882956534,
                -1.7012351783661064,
                2.3472641696435086,
                -0.5509746501783883,
                0.8586395941859719,
                3.146341543525903
            ]
        },
        {
            "positions": [
                0.4492348715613697,
                -1.76675149490689,
                2.3322020636794685,
                -0.45539766832593154,
                0.7837629516890979,
                3.137777153130682
            ]
        },
        {
            "positions": [
                0.580417914293174,
                -1.8322678114476738,
                2.317139957715428,
                -0.35982068647347454,
                0.7088863091922238,
                3.129212762735462
            ]
        },
        {
            "positions": [
                0.7116009570249784,
                -1.8977841279884575,
                2.302077851751388,
                -0.26424370462101776,
                0.6340096666953499,
                3.120648372340241
            ]
        },
        {
            "positions": [
                0.8427839997567829,
                -1.9633004445292412,
                2.2870157457873477,
                -0.16866672276856087,
                0.5591330241984758,
                3.1120839819450206
            ]
        },
        {
            "positions": [
                0.7727842447816811,
                -1.9356939094737746,
                2.339433738779111,
                -0.3123372875291124,
                0.6310460763103669,
                3.128305492886814
            ]
        },
        {
            "positions": [
                0.7027844898065791,
                -1.9080873744183082,
                2.391851731770874,
                -0.45600785228966384,
                0.702959128422258,
                3.1445270038286077
            ]
        }
    ]
}