{
    "goal": {
        "global_pose": {
            "orientation": {
                "w": 0.7047431493862688,
                "x": -0.7094548369677653,
                "y": 0.0024358444001904,
                "z": -0.0022348060817251984
            },
            "position": {
                "x": -0.39052492380142206,
                "y": 0.3671506643295288,
                "z": 0.19426114857196808
            }
        },
        "name": "move_to_magneteinheit_D"
    },
    "id": "KPIECE_move_to_magneteinheit_D_18",
    "joint_names": [
        "shoulder_pan_joint",
        "shoulder_lift_joint",
        "elbow_joint",
        "wrist_1_joint",
        "wrist_2_joint",
        "wrist_3_joint"
    ],
    "metrics": {
        "cart_traj_len": 4.419156528913683,
        "distance_elbow_joint": 4.466070013208734,
        "distance_shoulder_lift_joint": 1.689346692404152,
        "distance_shoulder_pan_joint": 3.1161624456060277,
        "distance_wrist_1_joint": 5.088206699635886,
        "distance_wrist_2_joint": 2.0289460551345138,
        "distance_wrist_3_joint": 5.1901283074955735,
        "smoothness": 0.45735703320207477,
        "time": 0.285900815,
        "traj_len": 4.645305179800879,
        "weighted_distance": 6.251101469600889
    },
    "planner": "KPIECE",
    "start": {
        "state": {
            "elbow_joint": 0.7495348899011911,
            "shoulder_lift_joint": -0.6476975780737668,
            "shoulder_pan_joint": -2.711696901376276,
            "wrist_1_joint": -0.0750647808097303,
            "wrist_2_joint": 0.43296659715458535,
            "wrist_3_joint": 3.1361499051832418
        }
    },
    "waypoints": [
        {
            "positions": [
                -2.711696901376276,
                -0.6476975780737668,
                0.7495348899011911,
                -0.0750647808097303,
                0.43296659715458535,
                3.1361499051832418
            ]
        },
        {
            "positions": [
                -2.7096681577439137,
                -0.666590914477765,
                0.7814501120142479,
                0.04512074467939152,
                0.39070651273593726,
                2.982545422117762
            ]
        },
        {
            "positions": [
                -2.7076394141115507,
                -0.6854842508817631,
                0.8133653341273047,
                0.16530627016851335,
                0.3484464283172891,
                2.8289409390522824
            ]
        },
        {
            "positions": [
                -2.7056106704791882,
                -0.7043775872857612,
                0.8452805562403615,
                0.28549179565763516,
                0.306186343898641,
                2.6753364559868027
            ]
        },
        {
            "positions": [
                -2.7035819268468257,
                -0.7232709236897593,
                0.8771957783534182,
                0.405677321146757,
                0.26392625947999293,
                2.521731972921323
            ]
        },
        {
            "positions": [
                -2.7015531832144632,
                -0.7421642600937575,
                0.9091110004664751,
                0.5258628466358788,
                0.22166617506134478,
                2.3681274898558433
            ]
        },
        {
            "positions": [
                -2.6995244395821008,
                -0.7610575964977556,
                0.9410262225795318,
                0.6460483721250005,
                0.1794060906426967,
                2.2145230067903636
            ]
        },
        {
            "positions": [
                -2.697495695949738,
                -0.7799509329017538,
                0.9729414446925886,
                0.7662338976141224,
                0.13714600622404854,
                2.060918523724884
            ]
        },
        {
            "positions": [
                -2.6954669523173753,
                -0.7988442693057518,
                1.0048566668056453,
                0.8864194231032442,
                0.09488592180540051,
                1.907314040659404
            ]
        },
        {
            "positions": [
                -2.693438208685013,
                -0.8177376057097501,
                1.036771888918702,
                1.006604948592366,
                0.05262583738675236,
                1.753709557593924
            ]
        },
        {
            "positions": [
                -2.69140946505265,
                -0.8366309421137481,
                1.068687111031759,
                1.126790474081488,
                0.010365752968104214,
                1.6001050745284444
            ]
        },
        {
            "positions": [
                -2.6893807214202874,
                -0.8555242785177463,
                1.1006023331448158,
                1.2469759995706098,
                -0.03189433145054382,
                1.4465005914629647
            ]
        },
        {
            "positions": [
                -2.687351977787925,
                -0.8744176149217444,
                1.1325175552578726,
                1.3671615250597315,
                -0.07415441586919197,
                1.292896108397485
            ]
        },
        {
            "positions": [
                -2.675552853121578,
                -0.8956718298487896,
                1.1556067407636483,
                1.4910783584049176,
                -0.1209205546711788,
                1.1247242088058247
            ]
        },
        {
            "positions": [
                -2.663753728455231,
                -0.9169260447758348,
                1.178695926269424,
                1.6149951917501038,
                -0.16768669347316564,
                0.9565523092141645
            ]
        },
        {
            "positions": [
                -2.651954603788884,
                -0.93818025970288,
                1.2017851117751999,
                1.7389120250952899,
                -0.2144528322751525,
                0.7883804096225041
            ]
        },
        {
            "positions": [
                -2.6401554791225372,
                -0.9594344746299251,
                1.2248742972809756,
                1.862828858440476,
                -0.2612189710771393,
                0.6202085100308439
            ]
        },
        {
            "positions": [
                -2.6283563544561903,
                -0.9806886895569704,
                1.2479634827867514,
                1.9867456917856623,
                -0.3079851098791262,
                0.4520366104391834
            ]
        },
        {
            "positions": [
                -2.6165572297898434,
                -1.0019429044840156,
                1.2710526682925272,
                2.1106625251308486,
                -0.354751248681113,
                0.2838647108475232
            ]
        },
        {
            "positions": [
                -2.604758105123497,
                -1.0231971194110607,
                1.294141853798303,
                2.2345793584760347,
                -0.4015173874830999,
                0.11569281125586284
            ]
        },
        {
            "positions": [
                -2.59295898045715,
                -1.0444513343381059,
                1.3172310393040787,
                2.358496191821221,
                -0.44828352628508666,
                -0.052479088335797286
            ]
        },
        {
            "positions": [
                -2.581159855790803,
                -1.065705549265151,
                1.3403202248098545,
                2.482413025166407,
                -0.49504966508707354,
                -0.22065098792745763
            ]
        },
        {
            "positions": [
                -2.569360731124456,
                -1.0869597641921964,
                1.3634094103156302,
                2.606329858511593,
                -0.5418158038890604,
                -0.3888228875191182
            ]
        },
        {
            "positions": [
                -2.5575616064581093,
                -1.1082139791192416,
                1.386498595821406,
                2.730246691856779,
                -0.5885819426910472,
                -0.5569947871107783
            ]
        },
        {
            "positions": [
                -2.5457624817917623,
                -1.1294681940462867,
                1.4095877813271818,
                2.8541635252019653,
                -0.6353480814930341,
                -0.7251666867024387
            ]
        },
        {
            "positions": [
                -2.4379309998828176,
                -1.1711550941368583,
                1.3109983689516334,
                2.779718429685104,
                -0.6123950804731793,
                -0.680559487843365
            ]
        },
        {
            "positions": [
                -2.330099517973873,
                -1.2128419942274298,
                1.2124089565760847,
                2.7052733341682424,
                -0.5894420794533245,
                -0.6359522889842911
            ]
        },
        {
            "positions": [
                -2.222268036064928,
                -1.254528894318001,
                1.1138195442005363,
                2.630828238651381,
                -0.5664890784334696,
                -0.5913450901252174
            ]
        },
        {
            "positions": [
                -2.1144365541559833,
                -1.2962157944085726,
                1.015230131824988,
                2.5563831431345196,
                -0.5435360774136149,
                -0.5467378912661437
            ]
        },
        {
            "positions": [
                -2.0066050722470385,
                -1.3379026944991441,
                0.9166407194494393,
                2.481938047617658,
                -0.52058307639376,
                -0.5021306924070699
            ]
        },
        {
            "positions": [
                -1.8987735903380938,
                -1.3795895945897156,
                0.8180513070738908,
                2.4074929521007964,
                -0.49763007537390525,
                -0.45752349354799615
            ]
        },
        {
            "positions": [
                -1.7909421084291488,
                -1.4212764946802872,
                0.7194618946983423,
                2.333047856583935,
                -0.4746770743540504,
                -0.4129162946889224
            ]
        },
        {
            "positions": [
                -1.6831106265202043,
                -1.4629633947708585,
                0.6208724823227939,
                2.2586027610670736,
                -0.4517240733341956,
                -0.36830909582984867
            ]
        },
        {
            "positions": [
                -1.5752791446112593,
                -1.5046502948614302,
                0.5222830699472454,
                2.184157665550212,
                -0.42877107231434075,
                -0.3237018969707749
            ]
        },
        {
            "positions": [
                -1.4674476627023145,
                -1.5463371949520015,
                0.42369365757169686,
                2.1097125700333508,
                -0.40581807129448594,
                -0.2790946981117011
            ]
        },
        {
            "positions": [
                -1.3596161807933698,
                -1.588024095042573,
                0.32510424519614856,
                2.0352674745164894,
                -0.3828650702746311,
                -0.2344874992526274
            ]
        },
        {
            "positions": [
                -1.251784698884425,
                -1.6297109951331445,
                0.22651483282059992,
                1.9608223789996277,
                -0.3599120692547763,
                -0.18988030039355364
            ]
        },
        {
            "positions": [
                -1.1439532169754802,
                -1.6713978952237158,
                0.1279254204450515,
                1.8863772834827663,
                -0.3369590682349215,
                -0.14527310153447992
            ]
        },
        {
            "positions": [
                -1.0361217350665353,
                -1.7130847953142876,
                0.029336008069502872,
                1.8119321879659047,
                -0.31400606721506663,
                -0.1006659026754061
            ]
        },
        {
            "positions": [
                -0.9282902531575907,
                -1.7547716954048589,
                -0.06925340430604554,
                1.7374870924490433,
                -0.2910530661952119,
                -0.05605870381633238
            ]
        },
        {
            "positions": [
                -0.820458771248646,
                -1.7964585954954304,
                -0.16784281668159395,
                1.663041996932182,
                -0.26810006517535706,
                -0.011451504957258662
            ]
        },
        {
            "positions": [
                -0.712627289339701,
                -1.838145495586002,
                -0.2664322290571426,
                1.5885969014153203,
                -0.2451470641555022,
                0.033155693901815164
            ]
        },
        {
            "positions": [
                -0.6047958074307562,
                -1.8798323956765735,
                -0.365021641432691,
                1.514151805898459,
                -0.22219406313564738,
                0.07776289276088888
            ]
        },
        {
            "positions": [
                -0.49696432552181147,
                -1.921519295767145,
                -0.4636110538082394,
                1.4397067103815977,
                -0.19924106211579262,
                0.1223700916199626
            ]
        },
        {
            "positions": [
                -0.3891328436128667,
                -1.9632061958577165,
                -0.562200466183788,
                1.365261614864736,
                -0.17628806109593775,
                0.16697729047903642
            ]
        },
        {
            "positions": [
                -0.28130136170392195,
                -2.004893095948288,
                -0.6607898785593367,
                1.2908165193478747,
                -0.15333506007608294,
                0.21158448933811014
            ]
        },
        {
            "positions": [
                -0.1734698797949772,
                -2.0465799960388593,
                -0.7593792909348847,
                1.2163714238310133,
                -0.13038205905622813,
                0.25619168819718385
            ]
        },
        {
            "positions": [
                -0.06563839788603243,
                -2.088266896129431,
                -0.8579687033104335,
                1.1419263283141516,
                -0.10742905803637326,
                0.3007988870562577
            ]
        },
        {
            "positions": [
                0.04219308402291254,
                -2.1299537962200024,
                -0.956558115685982,
                1.0674812327972902,
                -0.08447605701651847,
                0.3454060859153314
            ]
        },
        {
            "positions": [
                0.05569354191176411,
                -2.1235731718840443,
                -1.1703450166823508,
                1.1255297279768108,
                -0.017851642592189007,
                0.32112636742976675
            ]
        },
        {
            "positions": [
                0.06919399980061569,
                -2.1171925475480866,
                -1.3841319176787197,
                1.1835782231563314,
                0.04877277183214046,
                0.29684664894420204
            ]
        },
        {
            "positions": [
                0.08269445768946726,
                -2.1108119232121285,
                -1.5979188186750886,
                1.241626718335852,
                0.11539718625646994,
                0.2725669304586374
            ]
        },
        {
            "positions": [
                0.09619491557831883,
                -2.104431298876171,
                -1.8117057196714574,
                1.2996752135153726,
                0.1820216006807994,
                0.24828721197307274
            ]
        },
        {
            "positions": [
                0.1096953734671704,
                -2.0980506745402128,
                -2.0254926206678263,
                1.3577237086948932,
                0.2486460151051289,
                0.22400749348750806
            ]
        },
        {
            "positions": [
                0.011438649879643534,
                -2.1564464587329217,
                -2.149138193930405,
                1.3850749171355297,
                0.22310025514221898,
                0.17839404329940994
            ]
        },
        {
            "positions": [
                -0.08681807370788333,
                -2.2148422429256307,
                -2.2727837671929834,
                1.412426125576166,
                0.1975544951793091,
                0.13278059311131185
            ]
        },
        {
            "positions": [
                -0.18507479729541018,
                -2.2732380271183397,
                -2.396429340455562,
                1.4397773340168025,
                0.17200873521639917,
                0.08716714292321372
            ]
        }
    ]
}