{
    "goal": {
        "global_pose": {
            "orientation": {
                "w": 0.7047431493862688,
                "x": -0.7094548369677653,
                "y": 0.0024358444001904,
                "z": -0.0022348060817251984
            },
            "position": {
                "x": -0.39052492380142206,
                "y": 0.3671506643295288,
                "z": 0.19426114857196808
            }
        },
        "name": "move_to_magneteinheit_D"
    },
    "id": "KPIECE_move_to_magneteinheit_D_41",
    "joint_names": [
        "shoulder_pan_joint",
        "shoulder_lift_joint",
        "elbow_joint",
        "wrist_1_joint",
        "wrist_2_joint",
        "wrist_3_joint"
    ],
    "metrics": {
        "cart_traj_len": 4.066037071577891,
        "distance_elbow_joint": 4.042780622292642,
        "distance_shoulder_lift_joint": 1.6286942522144214,
        "distance_shoulder_pan_joint": 2.920921252322637,
        "distance_wrist_1_joint": 2.596907959547851,
        "distance_wrist_2_joint": 1.2222444545323325,
        "distance_wrist_3_joint": 3.2374241148660063,
        "smoothness": 0.8462440669271387,
        "time": 0.178721286,
        "traj_len": 3.9558782407672632,
        "weighted_distance": 5.093424515940928
    },
    "planner": "KPIECE",
    "start": {
        "state": {
            "elbow_joint": 0.7495348899011911,
            "shoulder_lift_joint": -0.6476975780737668,
            "shoulder_pan_joint": -2.711696901376276,
            "wrist_1_joint": -0.0750647808097303,
            "wrist_2_joint": 0.43296659715458535,
            "wrist_3_joint": 3.1361499051832418
        }
    },
    "waypoints": [
        {
            "positions": [
                -2.711696901376276,
                -0.6476975780737668,
                0.7495348899011911,
                -0.0750647808097303,
                0.43296659715458535,
                3.1361499051832418
            ]
        },
        {
            "positions": [
                -2.716361856740755,
                -0.7081712175473978,
                0.8121965026409006,
                0.014234951748401656,
                0.48666147331049914,
                3.1153123216968472
            ]
        },
        {
            "positions": [
                -2.721026812105234,
                -0.7686448570210287,
                0.8748581153806101,
                0.1035346843065336,
                0.5403563494664129,
                3.094474738210453
            ]
        },
        {
            "positions": [
                -2.6973324732035207,
                -0.851417988832594,
                0.9008740417030767,
                0.23460187814328204,
                0.5586546283338554,
                2.9908956611559665
            ]
        },
        {
            "positions": [
                -2.673638134301807,
                -0.9341911206441593,
                0.9268899680255434,
                0.3656690719800305,
                0.576952907201298,
                2.8873165841014803
            ]
        },
        {
            "positions": [
                -2.6499437954000937,
                -1.0169642524557245,
                0.95290589434801,
                0.496736265816779,
                0.5952511860687406,
                2.783737507046994
            ]
        },
        {
            "positions": [
                -2.6262494564983805,
                -1.09973738426729,
                0.9789218206704766,
                0.6278034596535274,
                0.6135494649361831,
                2.6801584299925074
            ]
        },
        {
            "positions": [
                -2.602555117596667,
                -1.1825105160788554,
                1.0049377469929432,
                0.7588706534902758,
                0.6318477438036256,
                2.5765793529380208
            ]
        },
        {
            "positions": [
                -2.5788607786949536,
                -1.2652836478904206,
                1.0309536733154099,
                0.8899378473270243,
                0.6501460226710682,
                2.4730002758835345
            ]
        },
        {
            "positions": [
                -2.423672722303396,
                -1.2793781155678923,
                0.9111836043936712,
                0.867815330598757,
                0.6185094032072607,
                2.421457123155748
            ]
        },
        {
            "positions": [
                -2.2684846659118385,
                -1.293472583245364,
                0.7914135354719325,
                0.8456928138704898,
                0.5868727837434532,
                2.369913970427962
            ]
        },
        {
            "positions": [
                -2.113296609520281,
                -1.3075670509228354,
                0.6716434665501938,
                0.8235702971422226,
                0.5552361642796457,
                2.3183708177001754
            ]
        },
        {
            "positions": [
                -1.9581085531287237,
                -1.3216615186003071,
                0.5518733976284551,
                0.8014477804139554,
                0.5235995448158381,
                2.2668276649723893
            ]
        },
        {
            "positions": [
                -1.8029204967371661,
                -1.3357559862777788,
                0.4321033287067164,
                0.7793252636856881,
                0.4919629253520306,
                2.2152845122446028
            ]
        },
        {
            "positions": [
                -1.6477324403456088,
                -1.3498504539552503,
                0.3123332597849777,
                0.757202746957421,
                0.4603263058882231,
                2.1637413595168162
            ]
        },
        {
            "positions": [
                -1.4925443839540513,
                -1.363944921632722,
                0.19256319086323903,
                0.7350802302291537,
                0.4286896864244156,
                2.11219820678903
            ]
        },
        {
            "positions": [
                -1.3373563275624938,
                -1.3780393893101937,
                0.07279312194150034,
                0.7129577135008864,
                0.39705306696060805,
                2.0606550540612436
            ]
        },
        {
            "positions": [
                -1.1821682711709363,
                -1.3921338569876653,
                -0.046976946980238354,
                0.6908351967726192,
                0.3654164474968005,
                2.009111901333457
            ]
        },
        {
            "positions": [
                -1.0269802147793787,
                -1.406228324665137,
                -0.16674701590197705,
                0.6687126800443519,
                0.333779828032993,
                1.957568748605671
            ]
        },
        {
            "positions": [
                -0.8717921583878214,
                -1.4203227923426085,
                -0.28651708482371574,
                0.6465901633160848,
                0.3021432085691855,
                1.9060255958778844
            ]
        },
        {
            "positions": [
                -0.7166041019962639,
                -1.4344172600200802,
                -0.40628715374545443,
                0.6244676465878175,
                0.27050658910537795,
                1.8544824431500981
            ]
        },
        {
            "positions": [
                -0.5614160456047066,
                -1.4485117276975519,
                -0.5260572226671931,
                0.6023451298595502,
                0.23886996964157042,
                1.8029392904223118
            ]
        },
        {
            "positions": [
                -0.40622798921314907,
                -1.4626061953750233,
                -0.6458272915889318,
                0.5802226131312831,
                0.2072333501777629,
                1.7513961376945253
            ]
        },
        {
            "positions": [
                -0.25103993282159154,
                -1.476700663052495,
                -0.7655973605106705,
                0.5581000964030158,
                0.17559673071395537,
                1.699852984966739
            ]
        },
        {
            "positions": [
                -0.09585187643003401,
                -1.4907951307299667,
                -0.8853674294324092,
                0.5359775796747486,
                0.14396011125014785,
                1.6483098322389527
            ]
        },
        {
            "positions": [
                -0.08764301603317254,
                -1.5299632218225578,
                -1.002112513434844,
                0.6211984643552207,
                0.16617499899235125,
                1.5302054837246024
            ]
        },
        {
            "positions": [
                -0.07943415563631107,
                -1.5691313129151492,
                -1.118857597437279,
                0.7064193490356929,
                0.18838988673455465,
                1.4121011352102522
            ]
        },
        {
            "positions": [
                -0.07122529523944959,
                -1.6082994040077403,
                -1.2356026814397139,
                0.7916402337161651,
                0.21060477447675802,
                1.2939967866959021
            ]
        },
        {
            "positions": [
                -0.06301643484258812,
                -1.6474674951003316,
                -1.3523477654421487,
                0.8768611183966373,
                0.23281966221896142,
                1.1758924381815519
            ]
        },
        {
            "positions": [
                -0.05480757444572665,
                -1.6866355861929228,
                -1.4690928494445836,
                0.9620820030771094,
                0.2550345499611648,
                1.0577880896672016
            ]
        },
        {
            "positions": [
                -0.046598714048865175,
                -1.7258036772855139,
                -1.5858379334470185,
                1.0473028877575816,
                0.2772494377033682,
                0.9396837411528514
            ]
        },
        {
            "positions": [
                -0.038389853652003696,
                -1.7649717683781052,
                -1.7025830174494534,
                1.132523772438054,
                0.2994643254455716,
                0.8215793926385011
            ]
        },
        {
            "positions": [
                -0.03018099325514223,
                -1.8041398594706963,
                -1.8193281014518883,
                1.217744657118526,
                0.321679213187775,
                0.703475044124151
            ]
        },
        {
            "positions": [
                -0.021972132858280757,
                -1.8433079505632877,
                -1.9360731854543232,
                1.302965541798998,
                0.3438941009299784,
                0.5853706956098006
            ]
        },
        {
            "positions": [
                -0.013763272461419285,
                -1.8824760416558788,
                -2.052818269456758,
                1.3881864264794703,
                0.3661089886721818,
                0.46726634709545034
            ]
        },
        {
            "positions": [
                -0.005554412064557812,
                -1.9216441327484701,
                -2.1695633534591927,
                1.4734073111599426,
                0.38832387641438515,
                0.3491619985811003
            ]
        },
        {
            "positions": [
                0.0026544483323036605,
                -1.9608122238410612,
                -2.286308437461628,
                1.5586281958404147,
                0.4105387641565886,
                0.23105765006675
            ]
        },
        {
            "positions": [
                -0.006877788184115477,
                -2.0501991570496605,
                -2.3772448663760866,
                1.5021602026009078,
                0.3520141939372324,
                0.2573780983947162
            ]
        },
        {
            "positions": [
                -0.016410024700534615,
                -2.13958609025826,
                -2.4681812952905453,
                1.445692209361401,
                0.29348962371787624,
                0.28369854672268247
            ]
        },
        {
            "positions": [
                -0.025942261216953755,
                -2.228973023466859,
                -2.559117724205004,
                1.3892242161218942,
                0.23496505349852004,
                0.31001899505064867
            ]
        },
        {
            "positions": [
                -0.10559894702039575,
                -2.2526824268775236,
                -2.4734725035260006,
                1.4321694500592113,
                0.20660167648331018,
                0.18333373766784086
            ]
        },
        {
            "positions": [
                -0.18525563282383775,
                -2.2763918302881883,
                -2.3878272828469966,
                1.4751146839965281,
                0.17823829946810033,
                0.05664848028503306
            ]
        }
    ]
}