{
    "goal": {
        "global_pose": {
            "orientation": {
                "w": -0.00223480608172531,
                "x": 0.0024358444001904467,
                "y": 0.7094548369677653,
                "z": -0.704743149386269
            },
            "position": {
                "x": 0.6205249238014221,
                "y": -0.6371506643295288,
                "z": 0.19426114857196808
            }
        },
        "name": "move_to_magneteinheit_B"
    },
    "id": "KPIECE_move_to_magneteinheit_B_44",
    "joint_names": [
        "shoulder_pan_joint",
        "shoulder_lift_joint",
        "elbow_joint",
        "wrist_1_joint",
        "wrist_2_joint",
        "wrist_3_joint"
    ],
    "metrics": {
        "cart_traj_len": 3.487754753629265,
        "distance_elbow_joint": 4.797783730013487,
        "distance_shoulder_lift_joint": 0.8807530484271562,
        "distance_shoulder_pan_joint": 2.1742079145888003,
        "distance_wrist_1_joint": 2.3750622978084728,
        "distance_wrist_2_joint": 3.3703654222748516,
        "distance_wrist_3_joint": 3.111940087159754,
        "smoothness": 0.38822153951216615,
        "time": 0.7791140329999999,
        "traj_len": 4.087800447706873,
        "weighted_distance": 5.355317020931191
    },
    "planner": "KPIECE",
    "start": {
        "state": {
            "elbow_joint": 2.393587130804639,
            "shoulder_lift_joint": -1.9085141043513325,
            "shoulder_pan_joint": 0.7066247066698809,
            "wrist_1_joint": -0.4678290934590222,
            "wrist_2_joint": 0.7096259084215963,
            "wrist_3_joint": 3.147370379541726
        }
    },
    "waypoints": [
        {
            "positions": [
                0.7066247066698809,
                -1.9085141043513325,
                2.393587130804639,
                -0.4678290934590222,
                0.7096259084215963,
                3.147370379541726
            ]
        },
        {
            "positions": [
                0.6517014277862313,
                -1.9285259572163733,
                2.3749387373291215,
                -0.4509494552930174,
                0.7688101245613554,
                2.991920382465949
            ]
        },
        {
            "positions": [
                0.5967781489025817,
                -1.948537810081414,
                2.356290343853604,
                -0.4340698171270126,
                0.8279943407011146,
                2.8364703853901725
            ]
        },
        {
            "positions": [
                0.6261885930281175,
                -1.9520743773178342,
                2.296915231416552,
                -0.355307236280838,
                0.9082333283951043,
                2.700677123184143
            ]
        },
        {
            "positions": [
                0.6555990371536532,
                -1.9556109445542544,
                2.2375401189795,
                -0.2765446554346634,
                0.9884723160890941,
                2.5648838609781133
            ]
        },
        {
            "positions": [
                0.6850094812791889,
                -1.959147511790675,
                2.1781650065424483,
                -0.19778207458848884,
                1.068711303783084,
                2.429090598772084
            ]
        },
        {
            "positions": [
                0.7144199254047247,
                -1.9626840790270952,
                2.1187898941053964,
                -0.11901949374231419,
                1.1489502914770737,
                2.293297336566054
            ]
        },
        {
            "positions": [
                0.7438303695302604,
                -1.9662206462635154,
                2.0594147816683446,
                -0.04025691289613964,
                1.2291892791710635,
                2.1575040743600247
            ]
        },
        {
            "positions": [
                0.7826843071146252,
                -1.965485174268386,
                2.0054444204378203,
                0.03275780591868131,
                1.287531867824512,
                2.059392203492371
            ]
        },
        {
            "positions": [
                0.8215382446989901,
                -1.9647497022732567,
                1.951474059207296,
                0.10577252473350227,
                1.3458744564779606,
                1.961280332624717
            ]
        },
        {
            "positions": [
                0.8603921822833549,
                -1.9640142302781274,
                1.897503697976772,
                0.17878724354832318,
                1.404217045131409,
                1.8631684617570632
            ]
        },
        {
            "positions": [
                0.8992461198677199,
                -1.963278758282998,
                1.8435333367462479,
                0.25180196236314417,
                1.4625596337848576,
                1.7650565908894094
            ]
        },
        {
            "positions": [
                0.9381000574520847,
                -1.9625432862878687,
                1.7895629755157236,
                0.3248166811779651,
                1.5209022224383062,
                1.6669447200217555
            ]
        },
        {
            "positions": [
                0.9897342830324555,
                -1.9555845836212278,
                1.6300777814768315,
                0.3035193017813487,
                1.4388064066762183,
                1.6098851226927389
            ]
        },
        {
            "positions": [
                1.0413685086128261,
                -1.9486258809545867,
                1.4705925874379395,
                0.28222192238473237,
                1.3567105909141304,
                1.552825525363722
            ]
        },
        {
            "positions": [
                1.093002734193197,
                -1.9416671782879458,
                1.3111073933990474,
                0.26092454298811596,
                1.2746147751520422,
                1.4957659280347053
            ]
        },
        {
            "positions": [
                1.1446369597735677,
                -1.9347084756213047,
                1.1516221993601552,
                0.2396271635914996,
                1.1925189593899543,
                1.4387063307056884
            ]
        },
        {
            "positions": [
                1.1962711853539383,
                -1.9277497729546638,
                0.9921370053212633,
                0.21832978419488325,
                1.1104231436278664,
                1.3816467333766718
            ]
        },
        {
            "positions": [
                1.247905410934309,
                -1.9207910702880229,
                0.8326518112823712,
                0.1970324047982669,
                1.0283273278657785,
                1.324587136047655
            ]
        },
        {
            "positions": [
                1.2995396365146799,
                -1.9138323676213818,
                0.6731666172434791,
                0.17573502540165054,
                0.9462315121036906,
                1.2675275387186382
            ]
        },
        {
            "positions": [
                1.3511738620950506,
                -1.9068736649547409,
                0.513681423204587,
                0.15443764600503415,
                0.8641356963416026,
                1.2104679413896213
            ]
        },
        {
            "positions": [
                1.4028080876754214,
                -1.8999149622880998,
                0.3541962291656948,
                0.13314026660841777,
                0.7820398805795146,
                1.1534083440606047
            ]
        },
        {
            "positions": [
                1.4544423132557922,
                -1.8929562596214589,
                0.19471103512680288,
                0.11184288721180144,
                0.6999440648174268,
                1.096348746731588
            ]
        },
        {
            "positions": [
                1.506076538836163,
                -1.885997556954818,
                0.035225841087910714,
                0.09054550781518506,
                0.6178482490553387,
                1.039289149402571
            ]
        },
        {
            "positions": [
                1.5577107644165336,
                -1.8790388542881769,
                -0.12425935295098123,
                0.0692481284185687,
                0.5357524332932508,
                0.9822295520735544
            ]
        },
        {
            "positions": [
                1.6093449899969046,
                -1.872080151621536,
                -0.2837445469898736,
                0.04795074902195229,
                0.4536566175311627,
                0.9251699547445376
            ]
        },
        {
            "positions": [
                1.6609792155772751,
                -1.8651214489548948,
                -0.44322974102876533,
                0.026653369625335988,
                0.371560801769075,
                0.8681103574155208
            ]
        },
        {
            "positions": [
                1.7126134411576457,
                -1.858162746288254,
                -0.6027149350676575,
                0.0053559902287196315,
                0.2894649860069871,
                0.8110507600865041
            ]
        },
        {
            "positions": [
                1.7642476667380165,
                -1.8512040436216128,
                -0.7622001291065497,
                -0.01594138916789678,
                0.20736917024489898,
                0.7539911627574872
            ]
        },
        {
            "positions": [
                1.8158818923183873,
                -1.844245340954972,
                -0.9216853231454418,
                -0.037238768564513136,
                0.12527335448281107,
                0.6969315654284706
            ]
        },
        {
            "positions": [
                1.867516117898758,
                -1.837286638288331,
                -1.081170517184334,
                -0.05853614796112955,
                0.04317753872072294,
                0.6398719680994538
            ]
        },
        {
            "positions": [
                1.9191503434791288,
                -1.83032793562169,
                -1.2406557112232262,
                -0.0798335273577459,
                -0.03891827704136497,
                0.5828123707704369
            ]
        },
        {
            "positions": [
                1.9707845690594996,
                -1.823369232955049,
                -1.4001409052621179,
                -0.1011309067543622,
                -0.12101409280345266,
                0.5257527734414202
            ]
        },
        {
            "positions": [
                2.0224187946398704,
                -1.816410530288408,
                -1.5596260993010105,
                -0.12242828615097862,
                -0.2031099085655408,
                0.46869317611240335
            ]
        },
        {
            "positions": [
                2.074053020220241,
                -1.809451827621767,
                -1.7191112933399022,
                -0.14372566554759494,
                -0.28520572432762864,
                0.41163357878338674
            ]
        },
        {
            "positions": [
                2.150575210881617,
                -1.8557323001091601,
                -1.825117693289855,
                -0.12966266257729786,
                -0.260178888049746,
                0.35077262865764075
            ]
        },
        {
            "positions": [
                2.2270974015429927,
                -1.9020127725965534,
                -1.9311240932398077,
                -0.1155996596070008,
                -0.23515205177186335,
                0.2899116785318947
            ]
        },
        {
            "positions": [
                2.3036195922043685,
                -1.9482932450839465,
                -2.0371304931897605,
                -0.10153665663670372,
                -0.2101252154939807,
                0.2290507284061487
            ]
        },
        {
            "positions": [
                2.350219490793822,
                -2.0125942942340926,
                -1.9985789033233934,
                0.02271306801623499,
                -0.13027192613566446,
                0.20547930037826886
            ]
        },
        {
            "positions": [
                2.3968193893832757,
                -2.0768953433842388,
                -1.9600273134570263,
                0.1469627926691737,
                -0.05041863677734826,
                0.18190787235038905
            ]
        },
        {
            "positions": [
                2.4434192879727292,
                -2.141196392534385,
                -1.9214757235906592,
                0.2712125173221124,
                0.029434652580967974,
                0.1583364443225092
            ]
        },
        {
            "positions": [
                2.4900191865621824,
                -2.2054974416845305,
                -1.8829241337242923,
                0.3954622419750511,
                0.10928794193928418,
                0.1347650162946294
            ]
        },
        {
            "positions": [
                2.536619085151636,
                -2.2697984908346767,
                -1.8443725438579253,
                0.5197119666279898,
                0.18914123129760044,
                0.11119358826674954
            ]
        },
        {
            "positions": [
                2.5832189837410895,
                -2.334099539984823,
                -1.8058209539915582,
                0.6439616912809285,
                0.26899452065591667,
                0.0876221602388697
            ]
        },
        {
            "positions": [
                2.629818882330543,
                -2.398400589134969,
                -1.767269364125191,
                0.7682114159338672,
                0.34884781001423293,
                0.06405073221098986
            ]
        },
        {
            "positions": [
                2.6454791940273132,
                -2.4370650523149804,
                -1.7186668756479335,
                0.8691799634160986,
                0.4083116235894053,
                0.04974051229648121
            ]
        },
        {
            "positions": [
                2.661139505724083,
                -2.475729515494992,
                -1.6700643871706762,
                0.9701485108983299,
                0.46777543716457765,
                0.03543029238197255
            ]
        }
    ]
}