{
    "goal": {
        "global_pose": {
            "orientation": {
                "w": -0.4816463035849501,
                "x": 0.5182115481033762,
                "y": 0.4908360881923453,
                "z": -0.5084816262002911
            },
            "position": {
                "x": -0.8240239810943604,
                "y": -0.300875300988555,
                "z": 0.16403168439865112
            }
        },
        "name": "move_to_storage_C"
    },
    "id": "KPIECE_move_to_storage_C_65",
    "joint_names": [
        "shoulder_pan_joint",
        "shoulder_lift_joint",
        "elbow_joint",
        "wrist_1_joint",
        "wrist_2_joint",
        "wrist_3_joint"
    ],
    "metrics": {
        "cart_traj_len": 0.5762274710864527,
        "distance_elbow_joint": 0.2592537685711589,
        "distance_shoulder_lift_joint": 0.18960232180541325,
        "distance_shoulder_pan_joint": 0.49477782487804767,
        "distance_wrist_1_joint": 0.0854909672541474,
        "distance_wrist_2_joint": 1.0641078714994627,
        "distance_wrist_3_joint": 0.06412479532984872,
        "smoothness": 5.075305295617109e-16,
        "time": 0.011396811,
        "traj_len": 1.4687945905871518,
        "weighted_distance": 1.8534308670008133
    },
    "planner": "KPIECE",
    "start": {
        "state": {
            "elbow_joint": 2.0108683149792914,
            "shoulder_lift_joint": -1.1634956873317392,
            "shoulder_pan_joint": -2.4736205022346,
            "wrist_1_joint": -0.8367026793690192,
            "wrist_2_joint": 0.6746043897045053,
            "wrist_3_joint": 3.133522094754363
        }
    },
    "waypoints": [
        {
            "positions": [
                -2.4736205022346,
                -1.1634956873317392,
                2.0108683149792914,
                -0.8367026793690192,
                0.6746043897045053,
                3.133522094754363
            ]
        },
        {
            "positions": [
                -2.556083473047608,
                -1.1318953003641703,
                1.967659353550765,
                -0.8224541848266613,
                0.8519557016210824,
                3.1442095606426714
            ]
        },
        {
            "positions": [
                -2.638546443860616,
                -1.1002949133966016,
                1.9244503921222385,
                -0.8082056902843034,
                1.0293070135376596,
                3.1548970265309793
            ]
        },
        {
            "positions": [
                -2.721009414673624,
                -1.0686945264290326,
                1.881241430693712,
                -0.7939571957419456,
                1.2066583254542367,
                3.1655844924192875
            ]
        },
        {
            "positions": [
                -2.8034723854866317,
                -1.0370941394614637,
                1.8380324692651855,
                -0.7797087011995876,
                1.3840096373708137,
                3.176271958307596
            ]
        },
        {
            "positions": [
                -2.88593535629964,
                -1.005493752493895,
                1.794823507836659,
                -0.7654602066572297,
                1.561360949287391,
                3.1869594241959036
            ]
        },
        {
            "positions": [
                -2.9683983271126477,
                -0.973893365526326,
                1.7516145464081325,
                -0.7512117121148718,
                1.738712261203968,
                3.197646890084212
            ]
        }
    ]
}