{
    "goal": {
        "global_pose": {
            "orientation": {
                "w": 0.7031023480610252,
                "x": -0.7110244013736278,
                "y": 0.0077485991402295624,
                "z": 0.005598929693374583
            },
            "position": {
                "x": -0.8841497679147869,
                "y": 0.44412534475326537,
                "z": 0.3711530566215515
            }
        },
        "name": "move_to_auspresseinheit_D"
    },
    "id": "KPIECE_move_to_auspresseinheit_D_12",
    "joint_names": [
        "shoulder_pan_joint",
        "shoulder_lift_joint",
        "elbow_joint",
        "wrist_1_joint",
        "wrist_2_joint",
        "wrist_3_joint"
    ],
    "metrics": {
        "cart_traj_len": 0.344412641914829,
        "distance_elbow_joint": 0.6573932584046795,
        "distance_shoulder_lift_joint": 0.13173787258254155,
        "distance_shoulder_pan_joint": 0.1346043526587113,
        "distance_wrist_1_joint": 0.5969356005736084,
        "distance_wrist_2_joint": 1.4309650914346526,
        "distance_wrist_3_joint": 0.06305308298911028,
        "smoothness": 2.7632217386568918e-15,
        "time": 0.08858026599999999,
        "traj_len": 1.7362860532306605,
        "weighted_distance": 2.2734766584748094
    },
    "planner": "KPIECE",
    "start": {
        "state": {
            "elbow_joint": -1.8275484843655228,
            "shoulder_lift_joint": -2.1267897864000416,
            "shoulder_pan_joint": -0.035127520176001514,
            "wrist_1_joint": -2.3477863256791385,
            "wrist_2_joint": -1.605890476484521,
            "wrist_3_joint": -3.0880375317375353
        }
    },
    "waypoints": [
        {
            "positions": [
                -0.035127520176001514,
                -2.1267897864000416,
                -1.8275484843655228,
                -2.3477863256791385,
                -1.605890476484521,
                -3.0880375317375353
            ]
        },
        {
            "positions": [
                -0.051953064258340426,
                -2.143257020472859,
                -1.7453743270649378,
                -2.4224032757508396,
                -1.4270198400551894,
                -3.0801558963638964
            ]
        },
        {
            "positions": [
                -0.06877860834067934,
                -2.1597242545456767,
                -1.6632001697643528,
                -2.4970202258225407,
                -1.248149203625858,
                -3.0722742609902576
            ]
        },
        {
            "positions": [
                -0.08560415242301825,
                -2.1761914886184948,
                -1.5810260124637678,
                -2.571637175894242,
                -1.0692785671965264,
                -3.0643926256166187
            ]
        },
        {
            "positions": [
                -0.10242969650535716,
                -2.1926587226913123,
                -1.498851855163183,
                -2.6462541259659424,
                -0.8904079307671947,
                -3.0565109902429803
            ]
        },
        {
            "positions": [
                -0.11925524058769607,
                -2.20912595676413,
                -1.416677697862598,
                -2.7208710760376436,
                -0.7115372943378632,
                -3.0486293548693415
            ]
        },
        {
            "positions": [
                -0.13608078467003498,
                -2.225593190836948,
                -1.3345035405620131,
                -2.7954880261093447,
                -0.5326666579085315,
                -3.0407477194957027
            ]
        },
        {
            "positions": [
                -0.1529063287523739,
                -2.2420604249097655,
                -1.2523293832614282,
                -2.8701049761810458,
                -0.3537960214792,
                -3.032866084122064
            ]
        },
        {
            "positions": [
                -0.1697318728347128,
                -2.258527658982583,
                -1.1701552259608432,
                -2.944721926252747,
                -0.17492538504986835,
                -3.024984448748425
            ]
        }
    ]
}