{
    "goal": {
        "global_pose": {
            "orientation": {
                "w": 0.5084816262002911,
                "x": -0.4908360881923452,
                "y": 0.5182115481033761,
                "z": -0.48164630358495003
            },
            "position": {
                "x": 0.5540239810943604,
                "y": -0.46912469901144505,
                "z": 0.16403168439865112
            }
        },
        "name": "move_to_storage_B"
    },
    "id": "KPIECE_move_to_storage_B_86",
    "joint_names": [
        "shoulder_pan_joint",
        "shoulder_lift_joint",
        "elbow_joint",
        "wrist_1_joint",
        "wrist_2_joint",
        "wrist_3_joint"
    ],
    "metrics": {
        "cart_traj_len": 5.517026079420842,
        "distance_elbow_joint": 4.141945043686148,
        "distance_shoulder_lift_joint": 0.5582891639940251,
        "distance_shoulder_pan_joint": 5.4815180548878795,
        "distance_wrist_1_joint": 3.0743887064757986,
        "distance_wrist_2_joint": 2.718021167518013,
        "distance_wrist_3_joint": 3.3624431111147355,
        "smoothness": 0.2598120970024523,
        "time": 0.062254993,
        "traj_len": 4.397340701796552,
        "weighted_distance": 5.643926057621581
    },
    "planner": "KPIECE",
    "start": {
        "state": {
            "elbow_joint": 1.6649325340416963,
            "shoulder_lift_joint": -0.6616387945129425,
            "shoulder_pan_joint": -0.9139837929255878,
            "wrist_1_joint": 2.1467571094334352,
            "wrist_2_joint": -2.234195976750228,
            "wrist_3_joint": 0.005470921511140723
        }
    },
    "waypoints": [
        {
            "positions": [
                -0.9139837929255878,
                -0.6616387945129425,
                1.6649325340416963,
                2.1467571094334352,
                -2.234195976750228,
                0.005470921511140723
            ]
        },
        {
            "positions": [
                -0.7935145136457168,
                -0.680482184932481,
                1.5789162622507877,
                2.127274487615303,
                -2.2005364888593224,
                0.10768865445066178
            ]
        },
        {
            "positions": [
                -0.6730452343658458,
                -0.6993255753520194,
                1.492899990459879,
                2.107791865797171,
                -2.166877000968417,
                0.20990638739018286
            ]
        },
        {
            "positions": [
                -0.5525759550859748,
                -0.718168965771558,
                1.4068837186689704,
                2.0883092439790385,
                -2.1332175130775113,
                0.3121241203297039
            ]
        },
        {
            "positions": [
                -0.4321066758061038,
                -0.7370123561910965,
                1.320867446878062,
                2.0688266221609064,
                -2.0995580251866053,
                0.41434185326922496
            ]
        },
        {
            "positions": [
                -0.3116373965262328,
                -0.7558557466106349,
                1.2348511750871531,
                2.0493440003427743,
                -2.0658985372956997,
                0.516559586208746
            ]
        },
        {
            "positions": [
                -0.19116811724636185,
                -0.7746991370301735,
                1.1488349032962446,
                2.029861378524642,
                -2.032239049404794,
                0.6187773191482671
            ]
        },
        {
            "positions": [
                -0.07069883796649079,
                -0.7935425274497119,
                1.062818631505336,
                2.0103787567065097,
                -1.9985795615138886,
                0.7209950520877881
            ]
        },
        {
            "positions": [
                0.049770441313380265,
                -0.8123859178692504,
                0.9768023597144273,
                1.9908961348883776,
                -1.964920073622983,
                0.8232127850273092
            ]
        },
        {
            "positions": [
                0.17023972059325132,
                -0.8312293082887889,
                0.8907860879235187,
                1.9714135130702455,
                -1.9312605857320775,
                0.9254305179668303
            ]
        },
        {
            "positions": [
                0.29070899987312226,
                -0.8500726987083274,
                0.8047698161326101,
                1.9519308912521134,
                -1.8976010978411717,
                1.0276482509063514
            ]
        },
        {
            "positions": [
                0.4111782791529932,
                -0.8689160891278659,
                0.7187535443417015,
                1.932448269433981,
                -1.8639416099502661,
                1.1298659838458724
            ]
        },
        {
            "positions": [
                0.5316475584328642,
                -0.8877594795474044,
                0.6327372725507929,
                1.912965647615849,
                -1.8302821220593606,
                1.2320837167853935
            ]
        },
        {
            "positions": [
                0.6521168377127353,
                -0.9066028699669428,
                0.5467210007598842,
                1.8934830257977167,
                -1.7966226341684548,
                1.3343014497249146
            ]
        },
        {
            "positions": [
                0.7725861169926063,
                -0.9254462603864814,
                0.46070472896897563,
                1.8740004039795846,
                -1.7629631462775492,
                1.4365191826644357
            ]
        },
        {
            "positions": [
                0.893055396272477,
                -0.9442896508060199,
                0.3746884571780671,
                1.8545177821614522,
                -1.7293036583866437,
                1.5387369156039565
            ]
        },
        {
            "positions": [
                1.0135246755523484,
                -0.9631330412255583,
                0.28867218538715833,
                1.8350351603433201,
                -1.6956441704957381,
                1.6409546485434778
            ]
        },
        {
            "positions": [
                1.1339939548322193,
                -0.9819764316450967,
                0.2026559135962498,
                1.8155525385251878,
                -1.6619846826048326,
                1.7431723814829987
            ]
        },
        {
            "positions": [
                1.2544632341120905,
                -1.0008198220646354,
                0.11663964180534103,
                1.7960699167070557,
                -1.6283251947139268,
                1.84539011442252
            ]
        },
        {
            "positions": [
                1.3749325133919612,
                -1.0196632124841738,
                0.030623370014432494,
                1.7765872948889234,
                -1.5946657068230212,
                1.9476078473620408
            ]
        },
        {
            "positions": [
                1.4954017926718324,
                -1.0385066029037122,
                -0.055392901776476045,
                1.7571046730707913,
                -1.5610062189321154,
                2.0498255803015617
            ]
        },
        {
            "positions": [
                1.6158710719517035,
                -1.0573499933232509,
                -0.1414091735673848,
                1.737622051252659,
                -1.5273467310412099,
                2.1520433132410828
            ]
        },
        {
            "positions": [
                1.736340351231574,
                -1.0761933837427893,
                -0.2274254453582933,
                1.718139429434527,
                -1.4936872431503043,
                2.254261046180604
            ]
        },
        {
            "positions": [
                1.6647169758567761,
                -1.0815092169271314,
                -0.16607794009202953,
                1.5729402774510977,
                -1.4014091364065178,
                2.248731645318418
            ]
        },
        {
            "positions": [
                1.5930936004819785,
                -1.0868250501114738,
                -0.1047304348257658,
                1.4277411254676684,
                -1.3091310296627314,
                2.243202244456232
            ]
        },
        {
            "positions": [
                1.5214702251071806,
                -1.092140883295816,
                -0.04338292955950207,
                1.2825419734842392,
                -1.216852922918945,
                2.237672843594046
            ]
        },
        {
            "positions": [
                1.4498468497323826,
                -1.097456716480158,
                0.017964575706761687,
                1.13734282150081,
                -1.1245748161751585,
                2.23214344273186
            ]
        },
        {
            "positions": [
                1.3782234743575847,
                -1.1027725496645004,
                0.07931208097302545,
                0.9921436695173805,
                -1.032296709431372,
                2.226614041869674
            ]
        },
        {
            "positions": [
                1.3066000989827868,
                -1.1080883828488426,
                0.14065958623928915,
                0.8469445175339513,
                -0.9400186026875856,
                2.221084641007488
            ]
        },
        {
            "positions": [
                1.2349767236079892,
                -1.1134042160331847,
                0.20200709150555296,
                0.7017453655505219,
                -0.8477404959437991,
                2.215555240145302
            ]
        },
        {
            "positions": [
                1.1633533482331913,
                -1.118720049217527,
                0.26335459677181666,
                0.5565462135670927,
                -0.7554623892000126,
                2.210025839283116
            ]
        },
        {
            "positions": [
                1.0917299728583933,
                -1.1240358824018692,
                0.3247021020380804,
                0.4113470615836634,
                -0.6631842824562262,
                2.20449643842093
            ]
        },
        {
            "positions": [
                1.0201065974835954,
                -1.1293517155862114,
                0.3860496073043442,
                0.26614790960023416,
                -0.5709061757124397,
                2.1989670375587442
            ]
        },
        {
            "positions": [
                0.9484832221087975,
                -1.1346675487705538,
                0.44739711257060794,
                0.12094875761680468,
                -0.4786280689686533,
                2.193437636696558
            ]
        },
        {
            "positions": [
                0.8768598467339999,
                -1.139983381954896,
                0.5087446178368715,
                -0.02425039436662435,
                -0.38634996222486695,
                2.187908235834372
            ]
        },
        {
            "positions": [
                0.805236471359202,
                -1.145299215139238,
                0.5700921231031353,
                -0.1694495463500536,
                -0.2940718554810804,
                2.182378834972186
            ]
        },
        {
            "positions": [
                0.733613095984404,
                -1.1506150483235804,
                0.6314396283693993,
                -0.3146486983334831,
                -0.20179374873729383,
                2.17684943411
            ]
        },
        {
            "positions": [
                0.6619897206096061,
                -1.1559308815079226,
                0.692787133635663,
                -0.45984785031691233,
                -0.10951564199350727,
                2.171320033247814
            ]
        },
        {
            "positions": [
                0.5903663452348085,
                -1.1612467146922647,
                0.7541346389019266,
                -0.6050470023003416,
                -0.017237535249720937,
                2.165790632385628
            ]
        },
        {
            "positions": [
                0.5187429698600106,
                -1.166562547876607,
                0.8154821441681903,
                -0.7502461542837708,
                0.0750405714940654,
                2.160261231523442
            ]
        },
        {
            "positions": [
                0.4471195944852127,
                -1.1718783810609492,
                0.8768296494344542,
                -0.8954453062672,
                0.16731867823785201,
                2.154731830661256
            ]
        },
        {
            "positions": [
                0.3069402168502713,
                -1.1675102376567656,
                0.9809507375702189,
                -0.8925192798330942,
                0.19609199755875498,
                2.246924900745431
            ]
        },
        {
            "positions": [
                0.1667608392153298,
                -1.1631420942525823,
                1.0850718257059835,
                -0.8895932533989885,
                0.22486531687965794,
                2.339117970829606
            ]
        },
        {
            "positions": [
                0.026581461580388377,
                -1.1587739508483987,
                1.1891929138417483,
                -0.8866672269648828,
                0.25363863620056093,
                2.431311040913781
            ]
        },
        {
            "positions": [
                -0.1135979160545531,
                -1.1544058074442152,
                1.293314001977513,
                -0.883741200530777,
                0.28241195552146386,
                2.523504110997956
            ]
        },
        {
            "positions": [
                -0.2537772936894945,
                -1.1500376640400318,
                1.3974350901132775,
                -0.8808151740966712,
                0.3111852748423668,
                2.615697181082131
            ]
        },
        {
            "positions": [
                -0.39395667132443596,
                -1.1456695206358483,
                1.501556178249042,
                -0.8778891476625655,
                0.3399585941632698,
                2.707890251166306
            ]
        },
        {
            "positions": [
                -0.5341360489593774,
                -1.141301377231665,
                1.605677266384807,
                -0.8749631212284598,
                0.3687319134841728,
                2.8000833212504808
            ]
        },
        {
            "positions": [
                -0.674315426594319,
                -1.1369332338274813,
                1.7097983545205717,
                -0.872037094794354,
                0.39750523280507577,
                2.892276391334656
            ]
        },
        {
            "positions": [
                -0.8144948042292606,
                -1.1325650904232978,
                1.8139194426563363,
                -0.8691110683602482,
                0.4262785521259787,
                2.984469461418831
            ]
        },
        {
            "positions": [
                -0.9546741818642017,
                -1.1281969470191144,
                1.918040530792101,
                -0.8661850419261425,
                0.45505187144688164,
                3.076662531503006
            ]
        },
        {
            "positions": [
                -1.0948535594991433,
                -1.1238288036149309,
                2.0221616189278655,
                -0.8632590154920368,
                0.48382519076778463,
                3.1688556015871807
            ]
        }
    ]
}