{
    "goal": {
        "global_pose": {
            "orientation": {
                "w": -0.4816463035849501,
                "x": 0.5182115481033762,
                "y": 0.4908360881923453,
                "z": -0.5084816262002911
            },
            "position": {
                "x": -0.8240239810943604,
                "y": 0.19912469901144506,
                "z": 0.16403168439865112
            }
        },
        "name": "move_to_storage_D"
    },
    "id": "KPIECE_move_to_storage_D_96",
    "joint_names": [
        "shoulder_pan_joint",
        "shoulder_lift_joint",
        "elbow_joint",
        "wrist_1_joint",
        "wrist_2_joint",
        "wrist_3_joint"
    ],
    "metrics": {
        "cart_traj_len": 4.449258989525998,
        "distance_elbow_joint": 4.212269291556035,
        "distance_shoulder_lift_joint": 3.244799844334306,
        "distance_shoulder_pan_joint": 3.984035521946852,
        "distance_wrist_1_joint": 2.6642012578922394,
        "distance_wrist_2_joint": 7.591460991580281,
        "distance_wrist_3_joint": 11.182520971315412,
        "smoothness": 0.5063198185479897,
        "time": 0.20803827800000002,
        "traj_len": 5.734046379183301,
        "weighted_distance": 8.093206538247276
    },
    "planner": "KPIECE",
    "start": {
        "state": {
            "elbow_joint": -2.384821990628643,
            "shoulder_lift_joint": -2.278805467437664,
            "shoulder_pan_joint": -0.18546946439364564,
            "wrist_1_joint": 1.4845938187801415,
            "wrist_2_joint": 0.178987772454074,
            "wrist_3_joint": 0.03710569632802521
        }
    },
    "waypoints": [
        {
            "positions": [
                -0.18546946439364564,
                -2.278805467437664,
                -2.384821990628643,
                1.4845938187801415,
                0.178987772454074,
                0.03710569632802521
            ]
        },
        {
            "positions": [
                -0.13263325908964635,
                -2.1887172613908,
                -2.3518955802654764,
                1.397552658248899,
                0.08199928839452204,
                0.007269120505152757
            ]
        },
        {
            "positions": [
                -0.07979705378564705,
                -2.098629055343937,
                -2.31896916990231,
                1.3105114977176564,
                -0.0149891956650299,
                -0.022567455317719698
            ]
        },
        {
            "positions": [
                -0.05100543083463525,
                -2.0729476999656495,
                -2.246479760023209,
                1.2091156963903076,
                0.1072448201119431,
                -0.057584280681364286
            ]
        },
        {
            "positions": [
                -0.02221380788362344,
                -2.047266344587362,
                -2.1739903501441082,
                1.1077198950629588,
                0.2294788358889161,
                -0.09260110604500887
            ]
        },
        {
            "positions": [
                0.0065778150673883595,
                -2.0215849892090745,
                -2.1015009402650078,
                1.00632409373561,
                0.35171285166588906,
                -0.12761793140865346
            ]
        },
        {
            "positions": [
                0.03536943801840017,
                -1.995903633830787,
                -2.029011530385907,
                0.9049282924082611,
                0.47394686744286213,
                -0.16263475677229805
            ]
        },
        {
            "positions": [
                0.06416106096941196,
                -1.9702222784524994,
                -1.956522120506806,
                0.8035324910809124,
                0.5961808832198351,
                -0.19765158213594264
            ]
        },
        {
            "positions": [
                0.09295268392042377,
                -1.944540923074212,
                -1.8840327106277053,
                0.7021366897535636,
                0.718414898996808,
                -0.2326684074995872
            ]
        },
        {
            "positions": [
                0.12174430687143559,
                -1.9188595676959244,
                -1.8115433007486046,
                0.6007408884262148,
                0.8406489147737811,
                -0.2676852328632318
            ]
        },
        {
            "positions": [
                0.1505359298224474,
                -1.8931782123176368,
                -1.7390538908695037,
                0.49934508709886594,
                0.9628829305507541,
                -0.3027020582268764
            ]
        },
        {
            "positions": [
                0.17932755277345924,
                -1.8674968569393493,
                -1.6665644809904028,
                0.3979492857715171,
                1.085116946327727,
                -0.337718883590521
            ]
        },
        {
            "positions": [
                0.20811917572447097,
                -1.841815501561062,
                -1.594075071111302,
                0.2965534844441684,
                1.2073509621047,
                -0.3727357089541656
            ]
        },
        {
            "positions": [
                0.23691079867548281,
                -1.8161341461827742,
                -1.5215856612322014,
                0.19515768311681958,
                1.329584977881673,
                -0.40775253431781017
            ]
        },
        {
            "positions": [
                0.2657024216264946,
                -1.790452790804487,
                -1.4490962513531005,
                0.09376188178947076,
                1.4518189936586459,
                -0.4427693596814547
            ]
        },
        {
            "positions": [
                0.29449404457750644,
                -1.7647714354261994,
                -1.3766068414739996,
                -0.007633919537878064,
                1.574053009435619,
                -0.47778618504509934
            ]
        },
        {
            "positions": [
                0.32328566752851823,
                -1.7390900800479119,
                -1.304117431594899,
                -0.10902972086522689,
                1.6962870252125921,
                -0.512803010408744
            ]
        },
        {
            "positions": [
                0.35207729047953,
                -1.7134087246696244,
                -1.2316280217157982,
                -0.2104255221925755,
                1.818521040989565,
                -0.5478198357723885
            ]
        },
        {
            "positions": [
                0.38086891343054186,
                -1.6877273692913368,
                -1.1591386118366973,
                -0.31182132351992453,
                1.9407550567665381,
                -0.5828366611360332
            ]
        },
        {
            "positions": [
                0.40966053638155364,
                -1.6620460139130493,
                -1.0866492019575966,
                -0.41321712484727313,
                2.062989072543511,
                -0.6178534864996776
            ]
        },
        {
            "positions": [
                0.43845215933256554,
                -1.6363646585347618,
                -1.0141597920784957,
                -0.5146129261746222,
                2.185223088320484,
                -0.6528703118633223
            ]
        },
        {
            "positions": [
                0.4672437822835773,
                -1.6106833031564745,
                -0.9416703821993948,
                -0.6160087275019708,
                2.307457104097457,
                -0.6878871372269668
            ]
        },
        {
            "positions": [
                0.496035405234589,
                -1.585001947778187,
                -0.8691809723202941,
                -0.7174045288293196,
                2.42969111987443,
                -0.7229039625906115
            ]
        },
        {
            "positions": [
                0.5248270281856009,
                -1.5593205923998994,
                -0.7966915624411932,
                -0.8188003301566686,
                2.551925135651403,
                -0.757920787954256
            ]
        },
        {
            "positions": [
                0.5536186511366127,
                -1.5336392370216119,
                -0.7242021525620925,
                -0.9201961314840172,
                2.674159151428376,
                -0.7929376133179007
            ]
        },
        {
            "positions": [
                0.6342468176357304,
                -1.56363112805796,
                -0.6632172232518596,
                -0.9222386255872563,
                2.5785074792631204,
                -0.6709179158853026
            ]
        },
        {
            "positions": [
                0.7148749841348481,
                -1.5936230190943081,
                -0.6022322939416267,
                -0.9242811196904954,
                2.4828558070978652,
                -0.5488982184527045
            ]
        },
        {
            "positions": [
                0.7955031506339658,
                -1.6236149101306563,
                -0.5412473646313938,
                -0.9263236137937345,
                2.3872041349326096,
                -0.4268785210201065
            ]
        },
        {
            "positions": [
                0.8761313171330836,
                -1.6536068011670044,
                -0.48026243532116086,
                -0.9283661078969736,
                2.291552462767354,
                -0.3048588235875084
            ]
        },
        {
            "positions": [
                0.9567594836322012,
                -1.6835986922033526,
                -0.41927750601092795,
                -0.9304086020002127,
                2.1959007906020984,
                -0.18283912615491038
            ]
        },
        {
            "positions": [
                1.0373876501313188,
                -1.7135905832397007,
                -0.3582925767006951,
                -0.9324510961034518,
                2.1002491184368433,
                -0.060819428722312274
            ]
        },
        {
            "positions": [
                1.1180158166304366,
                -1.7435824742760488,
                -0.29730764739046217,
                -0.9344935902066909,
                2.0045974462715876,
                0.06120026871028583
            ]
        },
        {
            "positions": [
                1.1986439831295543,
                -1.773574365312397,
                -0.23632271808022925,
                -0.93653608430993,
                1.908945774106332,
                0.18321996614288394
            ]
        },
        {
            "positions": [
                1.2792721496286719,
                -1.8035662563487451,
                -0.1753377887699964,
                -0.938578578413169,
                1.8132941019410767,
                0.30523966357548193
            ]
        },
        {
            "positions": [
                1.3599003161277898,
                -1.8335581473850933,
                -0.11435285945976337,
                -0.9406210725164081,
                1.7176424297758213,
                0.42725936100807993
            ]
        },
        {
            "positions": [
                1.4405284826269074,
                -1.8635500384214412,
                -0.05336793014953056,
                -0.9426635666196472,
                1.6219907576105657,
                0.5492790584406779
            ]
        },
        {
            "positions": [
                1.521156649126025,
                -1.8935419294577895,
                0.0076169991607023535,
                -0.9447060607228863,
                1.52633908544531,
                0.6712987558732761
            ]
        },
        {
            "positions": [
                1.6017848156251429,
                -1.9235338204941375,
                0.06860192847093527,
                -0.9467485548261254,
                1.4306874132800547,
                0.7933184533058741
            ]
        },
        {
            "positions": [
                1.6824129821242604,
                -1.9535257115304858,
                0.12958685778116819,
                -0.9487910489293645,
                1.335035741114799,
                0.9153381507384724
            ]
        },
        {
            "positions": [
                1.7630411486233784,
                -1.9835176025668337,
                0.1905717870914011,
                -0.9508335430326036,
                1.2393840689495437,
                1.0373578481710704
            ]
        },
        {
            "positions": [
                1.8436693151224959,
                -2.013509493603182,
                0.251556716401634,
                -0.9528760371358427,
                1.1437323967842883,
                1.1593775456036686
            ]
        },
        {
            "positions": [
                1.9242974816216134,
                -2.04350138463953,
                0.3125416457118668,
                -0.9549185312390818,
                1.0480807246190327,
                1.2813972430362663
            ]
        },
        {
            "positions": [
                2.0049256481207314,
                -2.073493275675878,
                0.37352657502209974,
                -0.9569610253423209,
                0.9524290524537773,
                1.4034169404688646
            ]
        },
        {
            "positions": [
                2.085553814619849,
                -2.1034851667122263,
                0.4345115043323329,
                -0.95900351944556,
                0.8567773802885217,
                1.5254366379014628
            ]
        },
        {
            "positions": [
                2.166181981118967,
                -2.1334770577485744,
                0.4954964336425658,
                -0.961046013548799,
                0.7611257081232663,
                1.6474563353340606
            ]
        },
        {
            "positions": [
                2.2468101476180844,
                -2.1634689487849226,
                0.5564813629527985,
                -0.9630885076520381,
                0.6654740359580109,
                1.7694760327666588
            ]
        },
        {
            "positions": [
                2.327438314117202,
                -2.1934608398212707,
                0.6174662922630314,
                -0.9651310017552772,
                0.5698223637927553,
                1.8914957301992565
            ]
        },
        {
            "positions": [
                2.40806648061632,
                -2.223452730857619,
                0.6784512215732645,
                -0.9671734958585163,
                0.4741706916274997,
                2.013515427631855
            ]
        },
        {
            "positions": [
                2.4886946471154374,
                -2.253444621893967,
                0.7394361508834972,
                -0.9692159899617554,
                0.3785190194622441,
                2.135535125064453
            ]
        },
        {
            "positions": [
                2.5693228136145554,
                -2.283436512930315,
                0.8004210801937302,
                -0.9712584840649945,
                0.2828673472969889,
                2.257554822497051
            ]
        },
        {
            "positions": [
                2.649950980113673,
                -2.3134284039666633,
                0.8614060095039631,
                -0.9733009781682336,
                0.18721567513173332,
                2.379574519929649
            ]
        },
        {
            "positions": [
                2.730579146612791,
                -2.3434202950030114,
                0.9223909388141962,
                -0.9753434722714727,
                0.09156400296647771,
                2.501594217362247
            ]
        },
        {
            "positions": [
                2.8112073131119084,
                -2.3734121860393596,
                0.9833758681244289,
                -0.9773859663747118,
                -0.004087669198777899,
                2.6236139147948454
            ]
        },
        {
            "positions": [
                2.891835479611026,
                -2.4034040770757077,
                1.0443607974346618,
                -0.9794284604779508,
                -0.09973934136403306,
                2.745633612227443
            ]
        },
        {
            "positions": [
                2.972463646110144,
                -2.433395968112056,
                1.1053457267448947,
                -0.9814709545811899,
                -0.19539101352928867,
                2.8676533096600414
            ]
        },
        {
            "positions": [
                3.053091812609262,
                -2.463387859148404,
                1.1663306560551279,
                -0.983513448684429,
                -0.2910426856945443,
                2.9896730070926396
            ]
        },
        {
            "positions": [
                3.1337199791083794,
                -2.493379750184752,
                1.2273155853653606,
                -0.9855559427876681,
                -0.38669435785979944,
                3.111692704525238
            ]
        },
        {
            "positions": [
                3.214348145607497,
                -2.5233716412211002,
                1.2883005146755933,
                -0.9875984368909072,
                -0.48234603002505505,
                3.233712401957836
            ]
        },
        {
            "positions": [
                3.1934832201808643,
                -2.4694465980168587,
                1.307555757041729,
                -0.9807409725258648,
                -0.4269235123495429,
                3.007789986015202
            ]
        },
        {
            "positions": [
                3.172618294754232,
                -2.4155215548126168,
                1.326810999407865,
                -0.9738835081608223,
                -0.3715009946740307,
                2.781867570072569
            ]
        },
        {
            "positions": [
                3.1517533693275994,
                -2.3615965116083752,
                1.3460662417740008,
                -0.9670260437957798,
                -0.31607847699851854,
                2.555945154129935
            ]
        },
        {
            "positions": [
                3.130888443900967,
                -2.3076714684041333,
                1.3653214841401367,
                -0.9601685794307373,
                -0.26065595932300634,
                2.330022738187301
            ]
        },
        {
            "positions": [
                3.1100235184743346,
                -2.2537464251998918,
                1.3845767265062725,
                -0.9533111150656949,
                -0.20523344164749419,
                2.1041003222446673
            ]
        },
        {
            "positions": [
                3.089158593047702,
                -2.1998213819956502,
                1.4038319688724081,
                -0.9464536507006525,
                -0.14981092397198204,
                1.8781779063020339
            ]
        },
        {
            "positions": [
                3.0682936676210697,
                -2.1458963387914083,
                1.423087211238544,
                -0.9395961863356099,
                -0.09438840629646983,
                1.6522554903594
            ]
        },
        {
            "positions": [
                3.047428742194437,
                -2.0919712955871668,
                1.4423424536046798,
                -0.9327387219705675,
                -0.03896588862095768,
                1.4263330744167664
            ]
        },
        {
            "positions": [
                3.026563816767805,
                -2.038046252382925,
                1.4615976959708157,
                -0.925881257605525,
                0.016456629054554583,
                1.2004106584741323
            ]
        },
        {
            "positions": [
                3.005698891341172,
                -1.9841212091786833,
                1.4808529383369515,
                -0.9190237932404826,
                0.07187914673006668,
                0.9744882425314989
            ]
        },
        {
            "positions": [
                2.9848339659145395,
                -1.9301961659744415,
                1.5001081807030874,
                -0.9121663288754401,
                0.12730166440557888,
                0.7485658265888651
            ]
        },
        {
            "positions": [
                2.9639690404879073,
                -1.8762711227701998,
                1.5193634230692232,
                -0.9053088645103976,
                0.18272418208109098,
                0.5226434106462317
            ]
        },
        {
            "positions": [
                2.9431041150612747,
                -1.822346079565958,
                1.538618665435359,
                -0.8984514001453552,
                0.2381466997566033,
                0.29672099470359736
            ]
        },
        {
            "positions": [
                2.9222391896346425,
                -1.7684210363617163,
                1.5578739078014947,
                -0.8915939357803127,
                0.2935692174321154,
                0.07079857876096396
            ]
        },
        {
            "positions": [
                2.90137426420801,
                -1.7144959931574748,
                1.5771291501676306,
                -0.8847364714152702,
                0.3489917351076275,
                -0.15512383718166944
            ]
        },
        {
            "positions": [
                2.880509338781377,
                -1.660570949953233,
                1.5963843925337664,
                -0.8778790070502278,
                0.4044142527831397,
                -0.3810462531243033
            ]
        },
        {
            "positions": [
                2.859644413354745,
                -1.6066459067489913,
                1.6156396348999023,
                -0.8710215426851853,
                0.4598367704586518,
                -0.6069686690669367
            ]
        },
        {
            "positions": [
                2.8387794879281123,
                -1.5527208635447496,
                1.634894877266038,
                -0.8641640783201429,
                0.5152592881341642,
                -0.8328910850095714
            ]
        },
        {
            "positions": [
                2.8179145625014796,
                -1.4987958203405078,
                1.654150119632174,
                -0.8573066139551004,
                0.5706818058096763,
                -1.0588135009522053
            ]
        },
        {
            "positions": [
                2.7970496370748474,
                -1.444870777136266,
                1.6734053619983098,
                -0.8504491495900579,
                0.6261043234851884,
                -1.2847359168948382
            ]
        },
        {
            "positions": [
                2.776184711648215,
                -1.3909457339320246,
                1.6926606043644457,
                -0.8435916852250155,
                0.6815268411607005,
                -1.510658332837472
            ]
        },
        {
            "positions": [
                2.7553197862215826,
                -1.3370206907277828,
                1.7119158467305815,
                -0.8367342208599731,
                0.7369493588362128,
                -1.736580748780106
            ]
        },
        {
            "positions": [
                2.73445486079495,
                -1.283095647523541,
                1.7311710890967174,
                -0.8298767564949305,
                0.7923718765117249,
                -1.962503164722739
            ]
        },
        {
            "positions": [
                2.7135899353683177,
                -1.2291706043192996,
                1.750426331462853,
                -0.8230192921298881,
                0.847794394187237,
                -2.1884255806653727
            ]
        },
        {
            "positions": [
                2.692725009941685,
                -1.1752455611150576,
                1.769681573828989,
                -0.8161618277648456,
                0.9032169118627493,
                -2.4143479966080075
            ]
        },
        {
            "positions": [
                2.6718600845150524,
                -1.1213205179108159,
                1.788936816195125,
                -0.8093043633998032,
                0.9586394295382616,
                -2.6402704125506413
            ]
        },
        {
            "positions": [
                2.6509951590884198,
                -1.0673954747065744,
                1.8081920585612605,
                -0.8024468990347606,
                1.0140619472137737,
                -2.8661928284932743
            ]
        },
        {
            "positions": [
                2.6301302336617876,
                -1.0134704315023326,
                1.8274473009273964,
                -0.7955894346697182,
                1.0694844648892858,
                -3.0921152444359086
            ]
        }
    ]
}