{
    "goal": {
        "global_pose": {
            "orientation": {
                "w": 0.5084816262002911,
                "x": -0.4908360881923452,
                "y": 0.5182115481033761,
                "z": -0.48164630358495003
            },
            "position": {
                "x": 0.5540239810943604,
                "y": -0.46912469901144505,
                "z": 0.16403168439865112
            }
        },
        "name": "move_to_storage_B"
    },
    "id": "KPIECE_move_to_storage_B_1",
    "joint_names": [
        "shoulder_pan_joint",
        "shoulder_lift_joint",
        "elbow_joint",
        "wrist_1_joint",
        "wrist_2_joint",
        "wrist_3_joint"
    ],
    "metrics": {
        "cart_traj_len": 2.3732895471276505,
        "distance_elbow_joint": 0.35179596751725906,
        "distance_shoulder_lift_joint": 1.1851741541259246,
        "distance_shoulder_pan_joint": 2.601145384525492,
        "distance_wrist_1_joint": 2.991660490503635,
        "distance_wrist_2_joint": 2.704647657757066,
        "distance_wrist_3_joint": 4.583026084743468,
        "smoothness": 0.29925825174552284,
        "time": 0.087827532,
        "traj_len": 3.7970317011019077,
        "weighted_distance": 5.411082152113427
    },
    "planner": "KPIECE",
    "start": {
        "state": {
            "elbow_joint": 1.6649325340416963,
            "shoulder_lift_joint": -0.6616387945129425,
            "shoulder_pan_joint": -0.9139837929255878,
            "wrist_1_joint": 2.1467571094334352,
            "wrist_2_joint": -2.234195976750228,
            "wrist_3_joint": 0.005470921511140723
        }
    },
    "waypoints": [
        {
            "positions": [
                -0.9139837929255878,
                -0.6616387945129425,
                1.6649325340416963,
                2.1467571094334352,
                -2.234195976750228,
                0.005470921511140723
            ]
        },
        {
            "positions": [
                -0.8131646773969397,
                -0.7301287181575558,
                1.6776559894451997,
                2.0857890788174083,
                -2.1493223573181943,
                0.06560475085840821
            ]
        },
        {
            "positions": [
                -0.7123455618682915,
                -0.798618641802169,
                1.6903794448487033,
                2.0248210482013818,
                -2.0644487378861607,
                0.12573858020567572
            ]
        },
        {
            "positions": [
                -0.6115264463396433,
                -0.8671085654467823,
                1.7031029002522067,
                1.9638530175853548,
                -1.9795751184541273,
                0.1858724095529432
            ]
        },
        {
            "positions": [
                -0.5107073308109951,
                -0.9355984890913955,
                1.7158263556557103,
                1.902884986969328,
                -1.8947014990220938,
                0.2460062389002107
            ]
        },
        {
            "positions": [
                -0.40988821528234687,
                -1.0040884127360088,
                1.7285498110592137,
                1.8419169563533013,
                -1.8098278795900602,
                0.3061400682474782
            ]
        },
        {
            "positions": [
                -0.3090690997536987,
                -1.072578336380622,
                1.7412732664627173,
                1.7809489257372746,
                -1.7249542601580266,
                0.36627389759474566
            ]
        },
        {
            "positions": [
                -0.20824998422505048,
                -1.1410682600252353,
                1.7539967218662207,
                1.7199808951212479,
                -1.640080640725993,
                0.4264077269420132
            ]
        },
        {
            "positions": [
                -0.10743086869640228,
                -1.2095581836698486,
                1.766720177269724,
                1.6590128645052211,
                -1.5552070212939595,
                0.48654155628928064
            ]
        },
        {
            "positions": [
                -0.006611753167754086,
                -1.2780481073144618,
                1.7794436326732277,
                1.5980448338891944,
                -1.4703334018619258,
                0.5466753856365482
            ]
        },
        {
            "positions": [
                0.09420736236089411,
                -1.346538030959075,
                1.792167088076731,
                1.5370768032731674,
                -1.3854597824298922,
                0.6068092149838157
            ]
        },
        {
            "positions": [
                0.1950264778895423,
                -1.4150279546036884,
                1.8048905434802345,
                1.476108772657141,
                -1.3005861629978588,
                0.6669430443310831
            ]
        },
        {
            "positions": [
                0.29584559341819044,
                -1.4835178782483016,
                1.817613998883738,
                1.415140742041114,
                -1.2157125435658251,
                0.7270768736783506
            ]
        },
        {
            "positions": [
                0.24019295349092187,
                -1.468986075432679,
                1.8255785789907468,
                1.3247389771166613,
                -1.1482659745829187,
                0.5726200683753003
            ]
        },
        {
            "positions": [
                0.1845403135636533,
                -1.4544542726170564,
                1.8335431590977556,
                1.234337212192209,
                -1.080819405600012,
                0.41816326307225
            ]
        },
        {
            "positions": [
                0.12888767363638473,
                -1.4399224698014337,
                1.841507739204764,
                1.1439354472677565,
                -1.0133728366171055,
                0.26370645776919976
            ]
        },
        {
            "positions": [
                0.07323503370911616,
                -1.4253906669858112,
                1.8494723193117728,
                1.053533682343304,
                -0.945926267634199,
                0.10924965246614937
            ]
        },
        {
            "positions": [
                0.01758239378184756,
                -1.4108588641701885,
                1.8574368994187815,
                0.9631319174188513,
                -0.8784796986512924,
                -0.04520715283690091
            ]
        },
        {
            "positions": [
                -0.03807024614542098,
                -1.396327061354566,
                1.8654014795257903,
                0.8727301524943989,
                -0.8110331296683859,
                -0.19966395813995108
            ]
        },
        {
            "positions": [
                -0.09372288607268958,
                -1.3817952585389432,
                1.873366059632799,
                0.7823283875699463,
                -0.7435865606854792,
                -0.3541207634430015
            ]
        },
        {
            "positions": [
                -0.14937552599995813,
                -1.3672634557233208,
                1.8813306397398075,
                0.6919266226454939,
                -0.6761399917025728,
                -0.5085775687460519
            ]
        },
        {
            "positions": [
                -0.20502816592722667,
                -1.352731652907698,
                1.8892952198468163,
                0.6015248577210414,
                -0.6086934227196663,
                -0.663034374049102
            ]
        },
        {
            "positions": [
                -0.2606808058544953,
                -1.3381998500920753,
                1.897259799953825,
                0.5111230927965887,
                -0.5412468537367596,
                -0.8174911793521524
            ]
        },
        {
            "positions": [
                -0.31633344578176387,
                -1.3236680472764528,
                1.9052243800608337,
                0.42072132787213634,
                -0.47380028475385316,
                -0.9719479846552026
            ]
        },
        {
            "positions": [
                -0.3719860857090324,
                -1.30913624446083,
                1.9131889601678425,
                0.33031956294768383,
                -0.4063537157709467,
                -1.1264047899582528
            ]
        },
        {
            "positions": [
                -0.42763872563630095,
                -1.2946044416452076,
                1.921153540274851,
                0.2399177980232312,
                -0.33890714678804,
                -1.2808615952613034
            ]
        },
        {
            "positions": [
                -0.4832913655635696,
                -1.2800726388295849,
                1.9291181203818597,
                0.1495160330987786,
                -0.27146057780513344,
                -1.4353184005643536
            ]
        },
        {
            "positions": [
                -0.5389440054908381,
                -1.2655408360139624,
                1.9370827004888684,
                0.05911426817432619,
                -0.2040140088222271,
                -1.5897752058674037
            ]
        },
        {
            "positions": [
                -0.5945966454181066,
                -1.2510090331983397,
                1.9450472805958772,
                -0.03128749675012621,
                -0.1365674398393204,
                -1.7442320111704543
            ]
        },
        {
            "positions": [
                -0.6502492853453754,
                -1.236477230382717,
                1.953011860702886,
                -0.12168926167457883,
                -0.06912087085641394,
                -1.8986888164735045
            ]
        },
        {
            "positions": [
                -0.7059019252726437,
                -1.2219454275670945,
                1.9609764408098944,
                -0.21209102659903123,
                -0.0016743018735074777,
                -2.0531456217765545
            ]
        },
        {
            "positions": [
                -0.7615545651999123,
                -1.2074136247514717,
                1.9689410209169032,
                -0.30249279152348385,
                0.06577226710939921,
                -2.207602427079605
            ]
        },
        {
            "positions": [
                -0.817207205127181,
                -1.1928818219358492,
                1.9769056010239119,
                -0.39289455644793647,
                0.1332188360923059,
                -2.3620592323826557
            ]
        },
        {
            "positions": [
                -0.8728598450544494,
                -1.1783500191202265,
                1.9848701811309206,
                -0.48329632137238887,
                0.20066540507521213,
                -2.5165160376857054
            ]
        },
        {
            "positions": [
                -0.9285124849817181,
                -1.163818216304604,
                1.9928347612379294,
                -0.5736980862968413,
                0.2681119740581188,
                -2.670972842988756
            ]
        },
        {
            "positions": [
                -0.9841651249089867,
                -1.1492864134889813,
                2.000799341344938,
                -0.6640998512212941,
                0.3355585430410255,
                -2.8254296482918067
            ]
        },
        {
            "positions": [
                -1.0398177648362552,
                -1.1347546106733586,
                2.008763921451947,
                -0.7545016161457463,
                0.40300511202393174,
                -2.9798864535948564
            ]
        },
        {
            "positions": [
                -1.0954704047635238,
                -1.120222807857736,
                2.0167285015589553,
                -0.8449033810701988,
                0.4704516810068384,
                -3.134343258897907
            ]
        }
    ]
}