{
    "goal": {
        "global_pose": {
            "orientation": {
                "w": -0.4816463035849501,
                "x": 0.5182115481033762,
                "y": 0.4908360881923453,
                "z": -0.5084816262002911
            },
            "position": {
                "x": -0.8240239810943604,
                "y": 0.19912469901144506,
                "z": 0.16403168439865112
            }
        },
        "name": "move_to_storage_D"
    },
    "id": "KPIECE_move_to_storage_D_126",
    "joint_names": [
        "shoulder_pan_joint",
        "shoulder_lift_joint",
        "elbow_joint",
        "wrist_1_joint",
        "wrist_2_joint",
        "wrist_3_joint"
    ],
    "metrics": {
        "cart_traj_len": 3.8951053809329057,
        "distance_elbow_joint": 4.212377885838503,
        "distance_shoulder_lift_joint": 1.2639635645755565,
        "distance_shoulder_pan_joint": 2.8134071848044258,
        "distance_wrist_1_joint": 2.2612798569073354,
        "distance_wrist_2_joint": 0.9646584591876707,
        "distance_wrist_3_joint": 3.2339211019748335,
        "smoothness": 0.25971883562148945,
        "time": 0.290383701,
        "traj_len": 3.840521846479763,
        "weighted_distance": 4.944025543353614
    },
    "planner": "KPIECE",
    "start": {
        "state": {
            "elbow_joint": -2.384821990628643,
            "shoulder_lift_joint": -2.278805467437664,
            "shoulder_pan_joint": -0.18546946439364564,
            "wrist_1_joint": 1.4845938187801415,
            "wrist_2_joint": 0.178987772454074,
            "wrist_3_joint": 0.03710569632802521
        }
    },
    "waypoints": [
        {
            "positions": [
                -0.18546946439364564,
                -2.278805467437664,
                -2.384821990628643,
                1.4845938187801415,
                0.178987772454074,
                0.03710569632802521
            ]
        },
        {
            "positions": [
                -0.13892872145532895,
                -2.2707202336523435,
                -2.3865595291801958,
                1.459727367943703,
                0.1337666799077336,
                -0.012911885392871726
            ]
        },
        {
            "positions": [
                -0.0639174043203361,
                -2.2381172161369607,
                -2.2731094340694944,
                1.3892474895038704,
                0.1530766733128483,
                0.07091083885811258
            ]
        },
        {
            "positions": [
                0.011093912814656742,
                -2.205514198621578,
                -2.159659338958793,
                1.3187676110640378,
                0.17238666671796296,
                0.1547335631090969
            ]
        },
        {
            "positions": [
                0.08610522994964959,
                -2.172911181106195,
                -2.046209243848092,
                1.2482877326242052,
                0.19169666012307765,
                0.2385562873600812
            ]
        },
        {
            "positions": [
                0.16111654708464243,
                -2.1403081635908117,
                -1.9327591487373907,
                1.1778078541843726,
                0.2110066535281923,
                0.32237901161106547
            ]
        },
        {
            "positions": [
                0.23612786421963525,
                -2.107705146075429,
                -1.8193090536266894,
                1.10732797574454,
                0.230316646933307,
                0.4062017358620498
            ]
        },
        {
            "positions": [
                0.31113918135462815,
                -2.075102128560046,
                -1.7058589585159882,
                1.0368480973047072,
                0.2496266403384217,
                0.4900244601130341
            ]
        },
        {
            "positions": [
                0.3861504984896209,
                -2.042499111044663,
                -1.592408863405287,
                0.9663682188648746,
                0.2689366337435364,
                0.5738471843640185
            ]
        },
        {
            "positions": [
                0.4611618156246138,
                -2.0098960935292802,
                -1.4789587682945857,
                0.895888340425042,
                0.288246627148651,
                0.6576699086150027
            ]
        },
        {
            "positions": [
                0.5361731327596067,
                -1.9772930760138971,
                -1.3655086731838844,
                0.8254084619852092,
                0.30755662055376576,
                0.7414926328659871
            ]
        },
        {
            "positions": [
                0.6111844498945994,
                -1.9446900584985143,
                -1.2520585780731832,
                0.7549285835453767,
                0.3268666139588804,
                0.8253153571169713
            ]
        },
        {
            "positions": [
                0.6861957670295924,
                -1.9120870409831312,
                -1.1386084829624818,
                0.684448705105544,
                0.34617660736399514,
                0.9091380813679557
            ]
        },
        {
            "positions": [
                0.7612070841645852,
                -1.8794840234677483,
                -1.0251583878517807,
                0.6139688266657114,
                0.36548660076910977,
                0.99296080561894
            ]
        },
        {
            "positions": [
                0.836218401299578,
                -1.8468810059523655,
                -0.9117082927410793,
                0.5434889482258787,
                0.38479659417422446,
                1.0767835298699242
            ]
        },
        {
            "positions": [
                0.9112297184345708,
                -1.8142779884369826,
                -0.7982581976303782,
                0.4730090697860462,
                0.40410658757933915,
                1.1606062541209086
            ]
        },
        {
            "positions": [
                0.9862410355695637,
                -1.7816749709215995,
                -0.684808102519677,
                0.40252919134621346,
                0.42341658098445384,
                1.244428978371893
            ]
        },
        {
            "positions": [
                1.0612523527045565,
                -1.7490719534062167,
                -0.5713580074089757,
                0.33204931290638084,
                0.4427265743895685,
                1.328251702622877
            ]
        },
        {
            "positions": [
                1.1362636698395492,
                -1.7164689358908336,
                -0.45790791229827454,
                0.26156943446654823,
                0.46203656779468316,
                1.4120744268738614
            ]
        },
        {
            "positions": [
                1.2112749869745423,
                -1.6838659183754507,
                -0.34445781718757296,
                0.1910895560267154,
                0.4813465611997979,
                1.4958971511248458
            ]
        },
        {
            "positions": [
                1.2862863041095352,
                -1.6512629008600679,
                -0.23100772207687204,
                0.12060967758688279,
                0.5006565546049125,
                1.5797198753758301
            ]
        },
        {
            "positions": [
                1.3612976212445278,
                -1.618659883344685,
                -0.11755762696617067,
                0.0501297991470504,
                0.5199665480100273,
                1.6635425996268143
            ]
        },
        {
            "positions": [
                1.4363089383795207,
                -1.5860568658293022,
                -0.004107531855469748,
                -0.02035007929278221,
                0.5392765414151419,
                1.7473653238777986
            ]
        },
        {
            "positions": [
                1.5113202555145138,
                -1.5534538483139189,
                0.10934256325523206,
                -0.09082995773261504,
                0.5585865348202566,
                1.831188048128783
            ]
        },
        {
            "positions": [
                1.5863315726495064,
                -1.520850830798536,
                0.22279265836593298,
                -0.16130983617244765,
                0.5778965282253712,
                1.9150107723797674
            ]
        },
        {
            "positions": [
                1.6613428897844993,
                -1.4882478132831531,
                0.33624275347663435,
                -0.23178971461228026,
                0.5972065216304859,
                1.9988334966307515
            ]
        },
        {
            "positions": [
                1.736354206919492,
                -1.4556447957677703,
                0.44969284858733527,
                -0.3022695930521129,
                0.6165165150356006,
                2.0826562208817356
            ]
        },
        {
            "positions": [
                1.811365524054485,
                -1.4230417782523874,
                0.5631429436980371,
                -0.3727494714919457,
                0.6358265084407153,
                2.16647894513272
            ]
        },
        {
            "positions": [
                1.8863768411894777,
                -1.3904387607370046,
                0.676593038808738,
                -0.4432293499317783,
                0.6551365018458299,
                2.2503016693837044
            ]
        },
        {
            "positions": [
                1.9613881583244706,
                -1.3578357432216215,
                0.7900431339194394,
                -0.5137092283716107,
                0.6744464952509447,
                2.334124393634689
            ]
        },
        {
            "positions": [
                2.0363994754594636,
                -1.3252327257062386,
                0.9034932290301403,
                -0.5841891068114435,
                0.6937564886560593,
                2.417947117885673
            ]
        },
        {
            "positions": [
                2.1114107925944565,
                -1.2926297081908555,
                1.0169433241408417,
                -0.6546689852512761,
                0.7130664820611741,
                2.5017698421366577
            ]
        },
        {
            "positions": [
                2.1864221097294494,
                -1.2600266906754727,
                1.130393419251543,
                -0.7251488636911085,
                0.7323764754662887,
                2.585592566387642
            ]
        },
        {
            "positions": [
                2.2600080448430044,
                -1.2191625593732451,
                1.2460079857274116,
                -0.7337383927637894,
                0.785847737313418,
                2.683159077799879
            ]
        },
        {
            "positions": [
                2.3335939799565595,
                -1.1782984280710176,
                1.36162255220328,
                -0.7423279218364702,
                0.8393189991605471,
                2.7807255892121163
            ]
        },
        {
            "positions": [
                2.4071799150701145,
                -1.13743429676879,
                1.4772371186791484,
                -0.7509174509091512,
                0.8927902610076763,
                2.8782921006243534
            ]
        },
        {
            "positions": [
                2.4807658501836696,
                -1.0965701654665625,
                1.592851685155017,
                -0.759506979981832,
                0.9462615228548055,
                2.9758586120365904
            ]
        },
        {
            "positions": [
                2.5543517852972246,
                -1.055706034164335,
                1.7084662516308855,
                -0.7680965090545129,
                0.9997327847019348,
                3.073425123448828
            ]
        },
        {
            "positions": [
                2.6279377204107797,
                -1.0148419028621074,
                1.824080818106754,
                -0.7766860381271937,
                1.053204046549064,
                3.170991634861065
            ]
        }
    ]
}