{
    "goal": {
        "global_pose": {
            "orientation": {
                "w": 0.7047431493862688,
                "x": -0.7094548369677653,
                "y": 0.0024358444001904,
                "z": -0.0022348060817251984
            },
            "position": {
                "x": -0.39052492380142206,
                "y": 0.3671506643295288,
                "z": 0.19426114857196808
            }
        },
        "name": "move_to_magneteinheit_D"
    },
    "id": "KPIECE_move_to_magneteinheit_D_67",
    "joint_names": [
        "shoulder_pan_joint",
        "shoulder_lift_joint",
        "elbow_joint",
        "wrist_1_joint",
        "wrist_2_joint",
        "wrist_3_joint"
    ],
    "metrics": {
        "cart_traj_len": 5.491171195031908,
        "distance_elbow_joint": 3.4735156666044795,
        "distance_shoulder_lift_joint": 1.6267479114517187,
        "distance_shoulder_pan_joint": 4.379420220595549,
        "distance_wrist_1_joint": 2.908959348595225,
        "distance_wrist_2_joint": 1.5980077567261586,
        "distance_wrist_3_joint": 3.178951580742232,
        "smoothness": 0.42889108977026447,
        "time": 1.020478335,
        "traj_len": 4.143139206533538,
        "weighted_distance": 5.294381243499678
    },
    "planner": "KPIECE",
    "start": {
        "state": {
            "elbow_joint": 0.7495348899011911,
            "shoulder_lift_joint": -0.6476975780737668,
            "shoulder_pan_joint": -2.711696901376276,
            "wrist_1_joint": -0.0750647808097303,
            "wrist_2_joint": 0.43296659715458535,
            "wrist_3_joint": 3.1361499051832418
        }
    },
    "waypoints": [
        {
            "positions": [
                -2.711696901376276,
                -0.6476975780737668,
                0.7495348899011911,
                -0.0750647808097303,
                0.43296659715458535,
                3.1361499051832418
            ]
        },
        {
            "positions": [
                -2.723285013040684,
                -0.67537158461165,
                0.7825859584555568,
                -0.1615532492658297,
                0.5178120366008215,
                2.999948287907071
            ]
        },
        {
            "positions": [
                -2.734873124705091,
                -0.7030455911495332,
                0.8156370270099224,
                -0.24804171772192912,
                0.6026574760470578,
                2.8637466706308996
            ]
        },
        {
            "positions": [
                -2.7464612363694987,
                -0.7307195976874166,
                0.848688095564288,
                -0.33453018617802854,
                0.6875029154932939,
                2.7275450533547287
            ]
        },
        {
            "positions": [
                -2.758049348033906,
                -0.7583936042252998,
                0.8817391641186536,
                -0.42101865463412796,
                0.77234835493953,
                2.5913434360785574
            ]
        },
        {
            "positions": [
                -2.7696374596983135,
                -0.786067610763183,
                0.9147902326730193,
                -0.5075071230902274,
                0.8571937943857663,
                2.4551418188023866
            ]
        },
        {
            "positions": [
                -2.7438688468235832,
                -0.8096984624106482,
                0.8955108172763507,
                -0.5600182574626987,
                0.9068905755170795,
                2.304356495799313
            ]
        },
        {
            "positions": [
                -2.7181002339488525,
                -0.8333293140581134,
                0.8762314018796822,
                -0.6125293918351701,
                0.9565873566483928,
                2.1535711727962394
            ]
        },
        {
            "positions": [
                -2.692331621074122,
                -0.8569601657055786,
                0.8569519864830136,
                -0.6650405262076414,
                1.006284137779706,
                2.002785849793166
            ]
        },
        {
            "positions": [
                -2.6665630081993914,
                -0.8805910173530438,
                0.8376725710863451,
                -0.7175516605801128,
                1.0559809189110192,
                1.852000526790092
            ]
        },
        {
            "positions": [
                -2.640794395324661,
                -0.904221869000509,
                0.8183931556896765,
                -0.7700627949525841,
                1.1056777000423326,
                1.7012152037870185
            ]
        },
        {
            "positions": [
                -2.517704929055821,
                -0.9490927317281842,
                0.7317089238542404,
                -0.7131952039515453,
                1.0864012431587735,
                1.6387677840102821
            ]
        },
        {
            "positions": [
                -2.3946154627869807,
                -0.9939635944558594,
                0.6450246920188043,
                -0.6563276129505067,
                1.0671247862752145,
                1.5763203642335457
            ]
        },
        {
            "positions": [
                -2.2715259965181405,
                -1.0388344571835344,
                0.5583404601833681,
                -0.5994600219494679,
                1.0478483293916554,
                1.513872944456809
            ]
        },
        {
            "positions": [
                -2.1484365302493003,
                -1.0837053199112097,
                0.471656228347932,
                -0.5425924309484291,
                1.0285718725080963,
                1.4514255246800727
            ]
        },
        {
            "positions": [
                -2.02534706398046,
                -1.1285761826388847,
                0.38497199651249586,
                -0.48572483994739046,
                1.0092954156245373,
                1.3889781049033363
            ]
        },
        {
            "positions": [
                -1.90225759771162,
                -1.1734470453665597,
                0.29828776467705975,
                -0.42885724894635174,
                0.9900189587409781,
                1.3265306851265999
            ]
        },
        {
            "positions": [
                -1.77916813144278,
                -1.218317908094235,
                0.2116035328416236,
                -0.371989657945313,
                0.9707425018574191,
                1.2640832653498633
            ]
        },
        {
            "positions": [
                -1.6560786651739399,
                -1.2631887708219103,
                0.12491930100618753,
                -0.31512206694427425,
                0.95146604497386,
                1.2016358455731269
            ]
        },
        {
            "positions": [
                -1.5329891989050997,
                -1.3080596335495853,
                0.03823506917075137,
                -0.2582544759432356,
                0.932189588090301,
                1.1391884257963905
            ]
        },
        {
            "positions": [
                -1.4098997326362595,
                -1.3529304962772604,
                -0.0484491626646848,
                -0.2013868849421968,
                0.9129131312067418,
                1.076741006019654
            ]
        },
        {
            "positions": [
                -1.2868102663674192,
                -1.3978013590049356,
                -0.13513339450012085,
                -0.14451929394115803,
                0.8936366743231827,
                1.0142935862429177
            ]
        },
        {
            "positions": [
                -1.163720800098579,
                -1.4426722217326107,
                -0.22181762633555702,
                -0.08765170294011937,
                0.8743602174396237,
                0.9518461664661811
            ]
        },
        {
            "positions": [
                -1.0406313338297388,
                -1.487543084460286,
                -0.3085018581709932,
                -0.030784111939080594,
                0.8550837605560646,
                0.8893987466894447
            ]
        },
        {
            "positions": [
                -0.9175418675608988,
                -1.532413947187961,
                -0.39518609000642935,
                0.02608347906195807,
                0.8358073036725056,
                0.8269513269127082
            ]
        },
        {
            "positions": [
                -0.7944524012920584,
                -1.5772848099156362,
                -0.4818703218418655,
                0.08295107006299696,
                0.8165308467889465,
                0.7645039071359717
            ]
        },
        {
            "positions": [
                -0.6713629350232184,
                -1.6221556726433113,
                -0.5685545536773015,
                0.13981866106403562,
                0.7972543899053874,
                0.7020564873592353
            ]
        },
        {
            "positions": [
                -0.548273468754378,
                -1.6670265353709866,
                -0.6552387855127378,
                0.1966862520650744,
                0.7779779330218284,
                0.6396090675824988
            ]
        },
        {
            "positions": [
                -0.4251840024855382,
                -1.7118973980986616,
                -0.7419230173481738,
                0.25355384306611295,
                0.7587014761382693,
                0.5771616478057624
            ]
        },
        {
            "positions": [
                -0.3020945362166976,
                -1.7567682608263366,
                -0.82860724918361,
                0.31042143406715195,
                0.7394250192547102,
                0.514714228029026
            ]
        },
        {
            "positions": [
                -0.1790050699478578,
                -1.8016391235540117,
                -0.9152914810190461,
                0.3672890250681905,
                0.7201485623711511,
                0.4522668082522896
            ]
        },
        {
            "positions": [
                -0.055915603679017156,
                -1.8465099862816872,
                -1.0019757128544824,
                0.4241566160692293,
                0.700872105487592,
                0.389819388475553
            ]
        },
        {
            "positions": [
                0.06717386258982261,
                -1.8913808490093622,
                -1.0886599446899181,
                0.48102420707026805,
                0.681595648604033,
                0.3273719686988166
            ]
        },
        {
            "positions": [
                0.19026332885866282,
                -1.9362517117370373,
                -1.1753441765253547,
                0.5378917980713068,
                0.6623191917204738,
                0.26492454892208017
            ]
        },
        {
            "positions": [
                0.313352795127503,
                -1.9811225744647123,
                -1.2620284083607904,
                0.5947593890723454,
                0.6430427348369148,
                0.20247712914534377
            ]
        },
        {
            "positions": [
                0.43644226139634323,
                -2.025993437192388,
                -1.3487126401962266,
                0.6516269800733842,
                0.6237662779533557,
                0.14002970936860715
            ]
        },
        {
            "positions": [
                0.5595317276651834,
                -2.0708642999200624,
                -1.4353968720316628,
                0.7084945710744229,
                0.6044898210697967,
                0.07758228959187097
            ]
        },
        {
            "positions": [
                0.6826211939340237,
                -2.115735162647738,
                -1.522081103867099,
                0.7653621620754617,
                0.5852133641862376,
                0.015134869815134344
            ]
        },
        {
            "positions": [
                0.573968567853877,
                -2.1355739535074565,
                -1.6310047272786656,
                0.8501792092535023,
                0.534609324438448,
                0.022376937986899752
            ]
        },
        {
            "positions": [
                0.46531594177373026,
                -2.1554127443671747,
                -1.7399283506902323,
                0.9349962564315429,
                0.4840052846906584,
                0.02961900615866516
            ]
        },
        {
            "positions": [
                0.35666331569358356,
                -2.1752515352268933,
                -1.8488519741017988,
                1.0198133036095836,
                0.43340124494286875,
                0.036861074330430565
            ]
        },
        {
            "positions": [
                0.24801068961343686,
                -2.1950903260866115,
                -1.9577755975133655,
                1.1046303507876243,
                0.38279720519507915,
                0.04410314250219598
            ]
        },
        {
            "positions": [
                0.13935806353329017,
                -2.21492911694633,
                -2.0666992209249324,
                1.1894473979656648,
                0.33219316544728955,
                0.05134521067396139
            ]
        },
        {
            "positions": [
                0.03070543745314347,
                -2.2347679078060487,
                -2.1756228443364987,
                1.2742644451437055,
                0.2815891256994999,
                0.058587278845726794
            ]
        },
        {
            "positions": [
                -0.07794718862700323,
                -2.254606698665767,
                -2.2845464677480654,
                1.3590814923217462,
                0.2309850859517103,
                0.0658293470174922
            ]
        },
        {
            "positions": [
                -0.18659981470714998,
                -2.2744454895254855,
                -2.393470091159632,
                1.4438985394997867,
                0.1803810462039207,
                0.07307141518925761
            ]
        }
    ]
}