{
    "goal": {
        "global_pose": {
            "orientation": {
                "w": 0.005598929693374612,
                "x": 0.007748599140229565,
                "y": 0.7110244013736278,
                "z": -0.7031023480610252
            },
            "position": {
                "x": -0.8858502320852131,
                "y": -0.7141253447532654,
                "z": 0.3711530566215515
            }
        },
        "name": "move_to_auspresseinheit_C"
    },
    "id": "KPIECE_move_to_auspresseinheit_C_118",
    "joint_names": [
        "shoulder_pan_joint",
        "shoulder_lift_joint",
        "elbow_joint",
        "wrist_1_joint",
        "wrist_2_joint",
        "wrist_3_joint"
    ],
    "metrics": {
        "cart_traj_len": 0.4930423055698069,
        "distance_elbow_joint": 1.0084309346234739,
        "distance_shoulder_lift_joint": 0.3286979648855727,
        "distance_shoulder_pan_joint": 0.2551997725208883,
        "distance_wrist_1_joint": 0.6936092362315498,
        "distance_wrist_2_joint": 1.3185143408102458,
        "distance_wrist_3_joint": 0.0717662081932855,
        "smoothness": 8.074349282788172e-16,
        "time": 0.012667923,
        "traj_len": 1.9173467232780346,
        "weighted_distance": 2.414927421413195
    },
    "planner": "KPIECE",
    "start": {
        "state": {
            "elbow_joint": 1.7527959577730765,
            "shoulder_lift_joint": -0.9740617694224828,
            "shoulder_pan_joint": -2.967991417825869,
            "wrist_1_joint": -0.7595177689779385,
            "wrist_2_joint": 1.7443932448376545,
            "wrist_3_joint": 3.1991315425061013
        }
    },
    "waypoints": [
        {
            "positions": [
                -2.967991417825869,
                -0.9740617694224828,
                1.7527959577730765,
                -0.7595177689779385,
                1.7443932448376545,
                3.1991315425061013
            ]
        },
        {
            "positions": [
                -2.9424714405737804,
                -0.9411919729339255,
                1.651952864310729,
                -0.6901568453547836,
                1.6125418107566298,
                3.1919549216867726
            ]
        },
        {
            "positions": [
                -2.9169514633216913,
                -0.9083221764453683,
                1.5511097708483816,
                -0.6207959217316286,
                1.4806903766756052,
                3.1847783008674444
            ]
        },
        {
            "positions": [
                -2.8914314860696027,
                -0.875452379956811,
                1.4502666773860344,
                -0.5514349981084736,
                1.3488389425945808,
                3.1776016800481157
            ]
        },
        {
            "positions": [
                -2.8659115088175136,
                -0.8425825834682537,
                1.349423583923687,
                -0.48207407448531864,
                1.2169875085135562,
                3.170425059228787
            ]
        },
        {
            "positions": [
                -2.840391531565425,
                -0.8097127869796965,
                1.2485804904613396,
                -0.41271315086216365,
                1.0851360744325316,
                3.1632484384094584
            ]
        },
        {
            "positions": [
                -2.8148715543133362,
                -0.7768429904911391,
                1.1477373969989921,
                -0.34335222723900866,
                0.9532846403515071,
                3.15607181759013
            ]
        },
        {
            "positions": [
                -2.789351577061247,
                -0.743973194002582,
                1.0468943035366447,
                -0.2739913036158537,
                0.8214332062704824,
                3.1488951967708014
            ]
        },
        {
            "positions": [
                -2.7638315998091585,
                -0.7111033975140246,
                0.9460512100742974,
                -0.20463037999269873,
                0.6895817721894577,
                3.1417185759514727
            ]
        },
        {
            "positions": [
                -2.7383116225570694,
                -0.6782336010254674,
                0.8452081166119499,
                -0.13526945636954368,
                0.5577303381084333,
                3.1345419551321445
            ]
        },
        {
            "positions": [
                -2.7127916453049807,
                -0.6453638045369101,
                0.7443650231496025,
                -0.06590853274638878,
                0.4258789040274088,
                3.127365334312816
            ]
        }
    ]
}