{
    "goal": {
        "global_pose": {
            "orientation": {
                "w": -0.4816463035849501,
                "x": 0.5182115481033762,
                "y": 0.4908360881923453,
                "z": -0.5084816262002911
            },
            "position": {
                "x": -0.8240239810943604,
                "y": 0.19912469901144506,
                "z": 0.16403168439865112
            }
        },
        "name": "move_to_storage_D"
    },
    "id": "KPIECE_move_to_storage_D_17",
    "joint_names": [
        "shoulder_pan_joint",
        "shoulder_lift_joint",
        "elbow_joint",
        "wrist_1_joint",
        "wrist_2_joint",
        "wrist_3_joint"
    ],
    "metrics": {
        "cart_traj_len": 3.8327307358957943,
        "distance_elbow_joint": 4.212805332544211,
        "distance_shoulder_lift_joint": 1.2649832241742647,
        "distance_shoulder_pan_joint": 2.8134855038678634,
        "distance_wrist_1_joint": 2.282000329536361,
        "distance_wrist_2_joint": 0.8735015408491913,
        "distance_wrist_3_joint": 3.1516001355778247,
        "smoothness": 3.188332813913312e-16,
        "time": 0.07224088099999999,
        "traj_len": 3.820782127595045,
        "weighted_distance": 4.904801546249442
    },
    "planner": "KPIECE",
    "start": {
        "state": {
            "elbow_joint": -2.384821990628643,
            "shoulder_lift_joint": -2.278805467437664,
            "shoulder_pan_joint": -0.18546946439364564,
            "wrist_1_joint": 1.4845938187801415,
            "wrist_2_joint": 0.178987772454074,
            "wrist_3_joint": 0.03710569632802521
        }
    },
    "waypoints": [
        {
            "positions": [
                -0.18546946439364564,
                -2.278805467437664,
                -2.384821990628643,
                1.4845938187801415,
                0.178987772454074,
                0.03710569632802521
            ]
        },
        {
            "positions": [
                -0.0442235198364562,
                -2.211476633812133,
                -2.3606143271955418,
                1.471877181537024,
                0.22887646055801614,
                0.13030021186647883
            ]
        },
        {
            "positions": [
                0.09702242472073325,
                -2.1441478001866026,
                -2.3364066637624403,
                1.4591605442939062,
                0.27876514866195823,
                0.22349472740493243
            ]
        },
        {
            "positions": [
                0.23826836927792272,
                -2.0768189665610723,
                -2.312199000329339,
                1.4464439070507886,
                0.3286538367659004,
                0.31668924294338596
            ]
        },
        {
            "positions": [
                0.37951431383511214,
                -2.0094901329355417,
                -2.2879913368962375,
                1.433727269807671,
                0.3785425248698425,
                0.40988375848183967
            ]
        },
        {
            "positions": [
                0.5207602583923018,
                -1.942161299310011,
                -2.263783673463136,
                1.4210106325645533,
                0.42843121297378467,
                0.5030782740202933
            ]
        },
        {
            "positions": [
                0.6620062029494911,
                -1.8748324656844804,
                -2.2395760100300346,
                1.4082939953214357,
                0.47831990107772676,
                0.5962727895587467
            ]
        },
        {
            "positions": [
                0.8032521475066806,
                -1.8075036320589497,
                -2.215368346596933,
                1.3955773580783182,
                0.528208589181669,
                0.6894673050972004
            ]
        },
        {
            "positions": [
                0.9444980920638699,
                -1.7401747984334193,
                -2.1911606831638317,
                1.3828607208352004,
                0.578097277285611,
                0.782661820635654
            ]
        },
        {
            "positions": [
                1.0857440366210596,
                -1.6728459648078886,
                -2.1669530197307303,
                1.3701440835920828,
                0.6279859653895532,
                0.8758563361741076
            ]
        },
        {
            "positions": [
                1.1389258298228926,
                -1.6501210088925613,
                -2.0291965934670646,
                1.295400959649038,
                0.6426240118693364,
                0.9556097670614091
            ]
        },
        {
            "positions": [
                1.1921076230247256,
                -1.6273960529772342,
                -1.8914401672033994,
                1.220657835705993,
                0.6572620583491195,
                1.0353631979487106
            ]
        },
        {
            "positions": [
                1.2452894162265586,
                -1.604671097061907,
                -1.753683740939734,
                1.1459147117629482,
                0.6719001048289027,
                1.1151166288360121
            ]
        },
        {
            "positions": [
                1.2984712094283917,
                -1.5819461411465796,
                -1.6159273146760684,
                1.0711715878199033,
                0.6865381513086859,
                1.1948700597233135
            ]
        },
        {
            "positions": [
                1.3516530026302247,
                -1.5592211852312525,
                -1.4781708884124027,
                0.9964284638768584,
                0.7011761977884691,
                1.274623490610615
            ]
        },
        {
            "positions": [
                1.4048347958320577,
                -1.5364962293159252,
                -1.3404144621487375,
                0.9216853399338136,
                0.7158142442682522,
                1.3543769214979164
            ]
        },
        {
            "positions": [
                1.4580165890338908,
                -1.5137712734005981,
                -1.2026580358850718,
                0.8469422159907687,
                0.7304522907480354,
                1.434130352385218
            ]
        },
        {
            "positions": [
                1.5111983822357238,
                -1.4910463174852708,
                -1.0649016096214066,
                0.7721990920477237,
                0.7450903372278186,
                1.5138837832725194
            ]
        },
        {
            "positions": [
                1.564380175437557,
                -1.4683213615699435,
                -0.9271451833577411,
                0.6974559681046789,
                0.7597283837076018,
                1.593637214159821
            ]
        },
        {
            "positions": [
                1.61756196863939,
                -1.4455964056546164,
                -0.7893887570940754,
                0.622712844161634,
                0.7743664301873849,
                1.6733906450471223
            ]
        },
        {
            "positions": [
                1.6707437618412229,
                -1.4228714497392891,
                -0.6516323308304102,
                0.5479697202185891,
                0.7890044766671681,
                1.753144075934424
            ]
        },
        {
            "positions": [
                1.7239255550430561,
                -1.400146493823962,
                -0.5138759045667447,
                0.4732265962755443,
                0.8036425231469513,
                1.8328975068217253
            ]
        },
        {
            "positions": [
                1.7771073482448891,
                -1.3774215379086348,
                -0.376119478303079,
                0.39848347233249937,
                0.8182805696267346,
                1.9126509377090268
            ]
        },
        {
            "positions": [
                1.8302891414467222,
                -1.3546965819933074,
                -0.23836305203941355,
                0.32374034838945454,
                0.8329186161065176,
                1.9924043685963282
            ]
        },
        {
            "positions": [
                1.8834709346485554,
                -1.3319716260779804,
                -0.10060662577574808,
                0.2489972244464096,
                0.8475566625863009,
                2.0721577994836298
            ]
        },
        {
            "positions": [
                1.9366527278503882,
                -1.309246670162653,
                0.03714980048791716,
                0.17425410050336465,
                0.862194709066084,
                2.1519112303709313
            ]
        },
        {
            "positions": [
                1.9898345210522213,
                -1.2865217142473258,
                0.1749062267515824,
                0.09951097656031993,
                0.8768327555458673,
                2.2316646612582325
            ]
        },
        {
            "positions": [
                2.0430163142540545,
                -1.2637967583319987,
                0.3126626530152481,
                0.024767852617274988,
                0.8914708020256503,
                2.3114180921455345
            ]
        },
        {
            "positions": [
                2.096198107455887,
                -1.2410718024166714,
                0.4504190792789138,
                -0.049975271325769954,
                0.9061088485054336,
                2.3911715230328356
            ]
        },
        {
            "positions": [
                2.1493799006577206,
                -1.218346846501344,
                0.5881755055425795,
                -0.1247183952688149,
                0.9207468949852168,
                2.4709249539201372
            ]
        },
        {
            "positions": [
                2.202561693859553,
                -1.195621890586017,
                0.7259319318062447,
                -0.19946151921185962,
                0.935384941465,
                2.550678384807439
            ]
        },
        {
            "positions": [
                2.2557434870613866,
                -1.17289693467069,
                0.86368835806991,
                -0.27420464315490456,
                0.950022987944783,
                2.63043181569474
            ]
        },
        {
            "positions": [
                2.3089252802632196,
                -1.1501719787553624,
                1.0014447843335756,
                -0.3489477670979495,
                0.9646610344245663,
                2.7101852465820415
            ]
        },
        {
            "positions": [
                2.3621070734650527,
                -1.1274470228400353,
                1.1392012105972409,
                -0.4236908910409942,
                0.9792990809043495,
                2.789938677469343
            ]
        },
        {
            "positions": [
                2.4152888666668852,
                -1.1047220669247082,
                1.2769576368609061,
                -0.49843401498403916,
                0.9939371273841326,
                2.8696921083566442
            ]
        },
        {
            "positions": [
                2.4684706598687187,
                -1.081997111009381,
                1.4147140631245723,
                -0.5731771389270841,
                1.0085751738639157,
                2.9494455392439463
            ]
        },
        {
            "positions": [
                2.5216524530705517,
                -1.0592721550940536,
                1.5524704893882375,
                -0.6479202628701288,
                1.023213220343699,
                3.0291989701312474
            ]
        },
        {
            "positions": [
                2.5748342462723848,
                -1.0365471991787265,
                1.6902269156519032,
                -0.7226633868131738,
                1.0378512668234823,
                3.1089524010185485
            ]
        },
        {
            "positions": [
                2.628016039474218,
                -1.0138222432633992,
                1.8279833419155682,
                -0.7974065107562189,
                1.0524893133032653,
                3.18870583190585
            ]
        }
    ]
}