{
    "goal": {
        "global_pose": {
            "orientation": {
                "w": -0.4816463035849501,
                "x": 0.5182115481033762,
                "y": 0.4908360881923453,
                "z": -0.5084816262002911
            },
            "position": {
                "x": -0.8240239810943604,
                "y": 0.19912469901144506,
                "z": 0.16403168439865112
            }
        },
        "name": "move_to_storage_D"
    },
    "id": "KPIECE_move_to_storage_D_56",
    "joint_names": [
        "shoulder_pan_joint",
        "shoulder_lift_joint",
        "elbow_joint",
        "wrist_1_joint",
        "wrist_2_joint",
        "wrist_3_joint"
    ],
    "metrics": {
        "cart_traj_len": 3.817953849249242,
        "distance_elbow_joint": 4.208955300704135,
        "distance_shoulder_lift_joint": 1.5812978383227143,
        "distance_shoulder_pan_joint": 2.8116145992182346,
        "distance_wrist_1_joint": 2.2702091172662007,
        "distance_wrist_2_joint": 0.8920527389165136,
        "distance_wrist_3_joint": 3.15685207123736,
        "smoothness": 0.14461134676735274,
        "time": 0.208133015,
        "traj_len": 3.862768652879066,
        "weighted_distance": 4.939326640780361
    },
    "planner": "KPIECE",
    "start": {
        "state": {
            "elbow_joint": -2.384821990628643,
            "shoulder_lift_joint": -2.278805467437664,
            "shoulder_pan_joint": -0.18546946439364564,
            "wrist_1_joint": 1.4845938187801415,
            "wrist_2_joint": 0.178987772454074,
            "wrist_3_joint": 0.03710569632802521
        }
    },
    "waypoints": [
        {
            "positions": [
                -0.18546946439364564,
                -2.278805467437664,
                -2.384821990628643,
                1.4845938187801415,
                0.178987772454074,
                0.03710569632802521
            ]
        },
        {
            "positions": [
                -0.15909987078149124,
                -2.2862920456171256,
                -2.33918651383945,
                1.4868865688652306,
                0.16768623734865445,
                0.03205554933146815
            ]
        },
        {
            "positions": [
                -0.07244402837383869,
                -2.2388556649580074,
                -2.240471549801054,
                1.4173747083868025,
                0.17262576575925723,
                0.11361373628553069
            ]
        },
        {
            "positions": [
                0.014211814033813858,
                -2.1914192842988895,
                -2.141756585762658,
                1.3478628479083743,
                0.17756529416986003,
                0.19517192323959323
            ]
        },
        {
            "positions": [
                0.10086765644146645,
                -2.1439829036397713,
                -2.043041621724262,
                1.2783509874299464,
                0.1825048225804628,
                0.2767301101936558
            ]
        },
        {
            "positions": [
                0.18752349884911895,
                -2.0965465229806535,
                -1.944326657685866,
                1.2088391269515182,
                0.1874443509910656,
                0.3582882971477183
            ]
        },
        {
            "positions": [
                0.2741793412567715,
                -2.049110142321535,
                -1.84561169364747,
                1.13932726647309,
                0.19238387940166837,
                0.43984648410178084
            ]
        },
        {
            "positions": [
                0.36083518366442413,
                -2.0016737616624174,
                -1.746896729609074,
                1.0698154059946618,
                0.19732340781227117,
                0.5214046710558434
            ]
        },
        {
            "positions": [
                0.4474910260720767,
                -1.9542373810032994,
                -1.648181765570678,
                1.0003035455162337,
                0.20226293622287395,
                0.602962858009906
            ]
        },
        {
            "positions": [
                0.5341468684797291,
                -1.9068010003441813,
                -1.5494668015322821,
                0.9307916850378056,
                0.20720246463347675,
                0.6845210449639685
            ]
        },
        {
            "positions": [
                0.6208027108873817,
                -1.8593646196850633,
                -1.4507518374938861,
                0.8612798245593776,
                0.21214199304407952,
                0.7660792319180311
            ]
        },
        {
            "positions": [
                0.7074585532950343,
                -1.8119282390259452,
                -1.3520368734554902,
                0.7917679640809494,
                0.2170815214546823,
                0.8476374188720935
            ]
        },
        {
            "positions": [
                0.7941143957026868,
                -1.7644918583668272,
                -1.2533219094170942,
                0.7222561036025213,
                0.2220210498652851,
                0.9291956058261561
            ]
        },
        {
            "positions": [
                0.8807702381103395,
                -1.7170554777077092,
                -1.1546069453786982,
                0.6527442431240931,
                0.2269605782758879,
                1.0107537927802186
            ]
        },
        {
            "positions": [
                0.967426080517992,
                -1.669619097048591,
                -1.0558919813403023,
                0.583232382645665,
                0.23190010668649066,
                1.0923119797342813
            ]
        },
        {
            "positions": [
                1.0540819229256446,
                -1.622182716389473,
                -0.9571770173019063,
                0.5137205221672368,
                0.23683963509709344,
                1.173870166688344
            ]
        },
        {
            "positions": [
                1.140737765333297,
                -1.5747463357303548,
                -0.8584620532635103,
                0.4442086616888088,
                0.24177916350769624,
                1.2554283536424062
            ]
        },
        {
            "positions": [
                1.2273936077409495,
                -1.527309955071237,
                -0.7597470892251144,
                0.3746968012103806,
                0.24671869191829904,
                1.336986540596469
            ]
        },
        {
            "positions": [
                1.3140494501486022,
                -1.4798735744121188,
                -0.6610321251867184,
                0.3051849407319527,
                0.25165822032890184,
                1.4185447275505316
            ]
        },
        {
            "positions": [
                1.4007052925562546,
                -1.432437193753001,
                -0.5623171611483224,
                0.23567308025352451,
                0.2565977487395046,
                1.5001029145045939
            ]
        },
        {
            "positions": [
                1.4873611349639073,
                -1.3850008130938827,
                -0.46360219710992645,
                0.16616121977509635,
                0.2615372771501074,
                1.5816611014586566
            ]
        },
        {
            "positions": [
                1.5740169773715598,
                -1.3375644324347649,
                -0.3648872330715305,
                0.09664935929666818,
                0.2664768055607102,
                1.6632192884127188
            ]
        },
        {
            "positions": [
                1.6606728197792122,
                -1.2901280517756466,
                -0.2661722690331345,
                0.027137498818240235,
                0.27141633397131293,
                1.7447774753667815
            ]
        },
        {
            "positions": [
                1.747328662186865,
                -1.2426916711165288,
                -0.16745730499473854,
                -0.04237436166018793,
                0.27635586238191573,
                1.8263356623208442
            ]
        },
        {
            "positions": [
                1.8339845045945176,
                -1.1952552904574105,
                -0.06874234095634257,
                -0.11188622213861632,
                0.28129539079251853,
                1.907893849274907
            ]
        },
        {
            "positions": [
                1.9206403470021702,
                -1.1478189097982925,
                0.029972623082053396,
                -0.1813980826170445,
                0.28623491920312133,
                1.9894520362289692
            ]
        },
        {
            "positions": [
                2.0072961894098227,
                -1.1003825291391744,
                0.12868758712044936,
                -0.25090994309547243,
                0.29117444761372413,
                2.071010223183032
            ]
        },
        {
            "positions": [
                2.093952031817475,
                -1.0529461484800564,
                0.22740255115884533,
                -0.3204218035739006,
                0.2961139760243269,
                2.152568410137094
            ]
        },
        {
            "positions": [
                2.1806078742251276,
                -1.0055097678209384,
                0.3261175151972413,
                -0.38993366405232877,
                0.3010535044349297,
                2.234126597091157
            ]
        },
        {
            "positions": [
                2.2672637166327805,
                -0.9580733871618203,
                0.4248324792356373,
                -0.45944552453075693,
                0.3059930328455325,
                2.3156847840452195
            ]
        },
        {
            "positions": [
                2.353919559040433,
                -0.9106370065027023,
                0.5235474432740332,
                -0.5289573850091851,
                0.3109325612561352,
                2.3972429709992817
            ]
        },
        {
            "positions": [
                2.4405754014480854,
                -0.8632006258435843,
                0.6222624073124294,
                -0.5984692454876133,
                0.315872089666738,
                2.4788011579533444
            ]
        },
        {
            "positions": [
                2.4637716181201483,
                -0.8820406058897983,
                0.7724962701578123,
                -0.6212893145911467,
                0.4074427586033643,
                2.56693319740571
            ]
        },
        {
            "positions": [
                2.4869678347922113,
                -0.9008805859360122,
                0.9227301330031952,
                -0.6441093836946802,
                0.4990134275399907,
                2.655065236858076
            ]
        },
        {
            "positions": [
                2.5101640514642742,
                -0.9197205659822261,
                1.0729639958485782,
                -0.6669294527982136,
                0.5905840964766169,
                2.743197276310442
            ]
        },
        {
            "positions": [
                2.533360268136337,
                -0.9385605460284401,
                1.2231978586939611,
                -0.6897495219017471,
                0.6821547654132434,
                2.8313293157628077
            ]
        },
        {
            "positions": [
                2.5565564848084006,
                -0.9574005260746541,
                1.373431721539344,
                -0.7125695910052805,
                0.7737254343498696,
                2.9194613552151734
            ]
        },
        {
            "positions": [
                2.5797527014804635,
                -0.976240506120868,
                1.5236655843847269,
                -0.7353896601088139,
                0.8652961032864959,
                3.0075933946675395
            ]
        },
        {
            "positions": [
                2.6029489181525265,
                -0.9950804861670819,
                1.6738994472301096,
                -0.7582097292123473,
                0.9568667722231223,
                3.095725434119905
            ]
        },
        {
            "positions": [
                2.6261451348245894,
                -1.013920466213296,
                1.8241333100754926,
                -0.7810297983158808,
                1.0484374411597486,
                3.183857473572271
            ]
        }
    ]
}