{
    "goal": {
        "global_pose": {
            "orientation": {
                "w": -0.00223480608172531,
                "x": 0.0024358444001904467,
                "y": 0.7094548369677653,
                "z": -0.704743149386269
            },
            "position": {
                "x": -0.37947507619857795,
                "y": -0.6371506643295288,
                "z": 0.19426114857196808
            }
        },
        "name": "move_to_magneteinheit_C"
    },
    "id": "KPIECE_move_to_magneteinheit_C_54",
    "joint_names": [
        "shoulder_pan_joint",
        "shoulder_lift_joint",
        "elbow_joint",
        "wrist_1_joint",
        "wrist_2_joint",
        "wrist_3_joint"
    ],
    "metrics": {
        "cart_traj_len": 2.555869122823357,
        "distance_elbow_joint": 1.1842486312888736,
        "distance_shoulder_lift_joint": 0.9467103095818428,
        "distance_shoulder_pan_joint": 4.64792982880523,
        "distance_wrist_1_joint": 1.8946570912243548,
        "distance_wrist_2_joint": 1.967810399649017,
        "distance_wrist_3_joint": 3.8008241954314483,
        "smoothness": 0.9882854473760951,
        "time": 0.329255617,
        "traj_len": 3.800286891272916,
        "weighted_distance": 5.089822819874679
    },
    "planner": "KPIECE",
    "start": {
        "state": {
            "elbow_joint": 1.9565354006593851,
            "shoulder_lift_joint": -1.4165861576512813,
            "shoulder_pan_joint": -1.6717766223278752,
            "wrist_1_joint": -0.528663328821883,
            "wrist_2_joint": 1.472756589259273,
            "wrist_3_joint": 3.159348288315503
        }
    },
    "waypoints": [
        {
            "positions": [
                -1.6717766223278752,
                -1.4165861576512813,
                1.9565354006593851,
                -0.528663328821883,
                1.472756589259273,
                3.159348288315503
            ]
        },
        {
            "positions": [
                -1.5801331312790619,
                -1.443294191117148,
                1.9553547502209652,
                -0.46780335791997063,
                1.42724219243085,
                3.012048240579508
            ]
        },
        {
            "positions": [
                -1.4884896402302488,
                -1.4700022245830147,
                1.9541740997825454,
                -0.40694338701805816,
                1.3817277956024268,
                2.864748192843513
            ]
        },
        {
            "positions": [
                -1.3968461491814357,
                -1.4967102580488814,
                1.9529934493441254,
                -0.34608341611614574,
                1.3362133987740037,
                2.7174481451075176
            ]
        },
        {
            "positions": [
                -1.3052026581326224,
                -1.523418291514748,
                1.9518127989057057,
                -0.28522344521423326,
                1.2906990019455806,
                2.5701480973715225
            ]
        },
        {
            "positions": [
                -1.213559167083809,
                -1.5501263249806148,
                1.9506321484672857,
                -0.22436347431232084,
                1.2451846051171576,
                2.4228480496355274
            ]
        },
        {
            "positions": [
                -1.121915676034996,
                -1.5768343584464815,
                1.9494514980288657,
                -0.16350350341040842,
                1.1996702082887345,
                2.275548001899532
            ]
        },
        {
            "positions": [
                -1.030272184986183,
                -1.6035423919123482,
                1.948270847590446,
                -0.102643532508496,
                1.1541558114603112,
                2.128247954163537
            ]
        },
        {
            "positions": [
                -0.9386286939373696,
                -1.6302504253782149,
                1.947090197152026,
                -0.04178356160658353,
                1.1086414146318881,
                1.980947906427542
            ]
        },
        {
            "positions": [
                -0.8469852028885565,
                -1.6569584588440815,
                1.945909546713606,
                0.019076409295328833,
                1.063127017803465,
                1.8336478586915468
            ]
        },
        {
            "positions": [
                -0.7553417118397432,
                -1.6836664923099482,
                1.9447288962751863,
                0.07993638019724136,
                1.0176126209750418,
                1.6863478109555516
            ]
        },
        {
            "positions": [
                -0.6636982207909301,
                -1.710374525775815,
                1.9435482458367663,
                0.14079635109915378,
                0.9720982241466188,
                1.5390477632195565
            ]
        },
        {
            "positions": [
                -0.5720547297421168,
                -1.7370825592416816,
                1.9423675953983466,
                0.2016563220010662,
                0.9265838273181957,
                1.3917477154835614
            ]
        },
        {
            "positions": [
                -0.4804112386933038,
                -1.7637905927075483,
                1.9411869449599266,
                0.26251629290297857,
                0.8810694304897726,
                1.2444476677475662
            ]
        },
        {
            "positions": [
                -0.6406671077658471,
                -1.758218613828421,
                1.9776470753912185,
                0.20866310838364202,
                0.8346018950562006,
                1.3307627508190207
            ]
        },
        {
            "positions": [
                -0.8009229768383903,
                -1.752646634949294,
                2.0141072058225107,
                0.15480992386430548,
                0.7881343596226286,
                1.417077833890475
            ]
        },
        {
            "positions": [
                -0.9611788459109337,
                -1.7470746560701667,
                2.0505673362538026,
                0.10095673934496896,
                0.7416668241890566,
                1.5033929169619296
            ]
        },
        {
            "positions": [
                -1.121434714983477,
                -1.7415026771910393,
                2.0870274666850945,
                0.047103554825632415,
                0.6951992887554845,
                1.5897080000333839
            ]
        },
        {
            "positions": [
                -1.2816905840560202,
                -1.735930698311912,
                2.123487597116387,
                -0.006749629693704129,
                0.6487317533219126,
                1.6760230831048384
            ]
        },
        {
            "positions": [
                -1.4419464531285637,
                -1.730358719432785,
                2.159947727547679,
                -0.060602814213040646,
                0.6022642178883406,
                1.762338166176293
            ]
        },
        {
            "positions": [
                -1.6022023222011068,
                -1.7247867405536577,
                2.1964078579789708,
                -0.11445599873237716,
                0.5557966824547687,
                1.848653249247747
            ]
        },
        {
            "positions": [
                -1.7624581912736499,
                -1.7192147616745304,
                2.2328679884102627,
                -0.16830918325171373,
                0.5093291470211966,
                1.9349683323192015
            ]
        },
        {
            "positions": [
                -1.9227140603461934,
                -1.7136427827954033,
                2.2693281188415546,
                -0.22216236777105025,
                0.4628616115876246,
                2.021283415390656
            ]
        },
        {
            "positions": [
                -2.082969929418737,
                -1.708070803916276,
                2.305788249272847,
                -0.2760155522903868,
                0.4163940761540526,
                2.1075984984621106
            ]
        },
        {
            "positions": [
                -2.24322579849128,
                -1.7024988250371487,
                2.342248379704139,
                -0.32986873680972334,
                0.3699265407204806,
                2.1939135815335646
            ]
        },
        {
            "positions": [
                -2.4034816675638235,
                -1.6969268461580214,
                2.378708510135431,
                -0.38372192132905986,
                0.3234590052869085,
                2.280228664605019
            ]
        },
        {
            "positions": [
                -2.5637375366363666,
                -1.6913548672788943,
                2.4151686405667228,
                -0.4375751058483964,
                0.27699146985333667,
                2.3665437476764737
            ]
        },
        {
            "positions": [
                -2.7239934057089097,
                -1.685782888399767,
                2.4516287709980147,
                -0.4914282903677329,
                0.2305239344197646,
                2.452858830747928
            ]
        },
        {
            "positions": [
                -2.884249274781453,
                -1.6802109095206397,
                2.4880889014293066,
                -0.5452814748870694,
                0.18405639898619264,
                2.5391739138193827
            ]
        },
        {
            "positions": [
                -3.0445051438539963,
                -1.6746389306415126,
                2.524549031860599,
                -0.599134659406406,
                0.13758886355262057,
                2.625488996890837
            ]
        },
        {
            "positions": [
                -3.20476101292654,
                -1.6690669517623853,
                2.561009162291891,
                -0.6529878439257426,
                0.0911213281190486,
                2.7118040799622913
            ]
        },
        {
            "positions": [
                -3.1132341790593623,
                -1.6059691725648337,
                2.4923744175097093,
                -0.676484510509589,
                0.1643932204326477,
                2.7641249752933894
            ]
        },
        {
            "positions": [
                -3.0217073451921843,
                -1.5428713933672822,
                2.423739672727528,
                -0.6999811770934354,
                0.23766511274624677,
                2.816445870624488
            ]
        },
        {
            "positions": [
                -2.930180511325007,
                -1.4797736141697306,
                2.355104927945347,
                -0.7234778436772819,
                0.31093700505984584,
                2.868766765955586
            ]
        },
        {
            "positions": [
                -2.8386536774578293,
                -1.416675834972179,
                2.2864701831631655,
                -0.7469745102611283,
                0.38420889737344494,
                2.921087661286684
            ]
        },
        {
            "positions": [
                -2.7471268435906513,
                -1.3535780557746273,
                2.217835438380984,
                -0.7704711768449747,
                0.45748078968704403,
                2.9734085566177826
            ]
        },
        {
            "positions": [
                -2.6556000097234738,
                -1.2904802765770758,
                2.149200693598803,
                -0.7939678434288211,
                0.5307526820006431,
                3.0257294519488807
            ]
        },
        {
            "positions": [
                -2.5640731758562962,
                -1.2273824973795242,
                2.0805659488166217,
                -0.8174645100126675,
                0.6040245743142422,
                3.078050347279979
            ]
        },
        {
            "positions": [
                -2.4725463419891183,
                -1.1642847181819727,
                2.01193120403444,
                -0.8409611765965139,
                0.6772964666278413,
                3.1303712426110772
            ]
        }
    ]
}