{
    "goal": {
        "global_pose": {
            "orientation": {
                "w": -0.00223480608172531,
                "x": 0.0024358444001904467,
                "y": 0.7094548369677653,
                "z": -0.704743149386269
            },
            "position": {
                "x": -0.37947507619857795,
                "y": -0.6371506643295288,
                "z": 0.19426114857196808
            }
        },
        "name": "move_to_magneteinheit_C"
    },
    "id": "KPIECE_move_to_magneteinheit_C_118",
    "joint_names": [
        "shoulder_pan_joint",
        "shoulder_lift_joint",
        "elbow_joint",
        "wrist_1_joint",
        "wrist_2_joint",
        "wrist_3_joint"
    ],
    "metrics": {
        "cart_traj_len": 2.6403306535346776,
        "distance_elbow_joint": 2.480178864909479,
        "distance_shoulder_lift_joint": 0.7423793903041664,
        "distance_shoulder_pan_joint": 1.8531388955395454,
        "distance_wrist_1_joint": 1.1222066542265159,
        "distance_wrist_2_joint": 1.481954884175056,
        "distance_wrist_3_joint": 3.3398283891580345,
        "smoothness": 0.9659382290373062,
        "time": 0.20016483200000001,
        "traj_len": 3.3195914023133617,
        "weighted_distance": 4.505941122011077
    },
    "planner": "KPIECE",
    "start": {
        "state": {
            "elbow_joint": 1.9565354006593851,
            "shoulder_lift_joint": -1.4165861576512813,
            "shoulder_pan_joint": -1.6717766223278752,
            "wrist_1_joint": -0.528663328821883,
            "wrist_2_joint": 1.472756589259273,
            "wrist_3_joint": 3.159348288315503
        }
    },
    "waypoints": [
        {
            "positions": [
                -1.6717766223278752,
                -1.4165861576512813,
                1.9565354006593851,
                -0.528663328821883,
                1.472756589259273,
                3.159348288315503
            ]
        },
        {
            "positions": [
                -1.5915203354763738,
                -1.4097056792105527,
                1.95363805471221,
                -0.5642945389057326,
                1.455563493292264,
                3.0117646501409343
            ]
        },
        {
            "positions": [
                -1.5112640486248727,
                -1.402825200769824,
                1.9507407087650352,
                -0.5999257489895822,
                1.4383703973252553,
                2.8641810119663655
            ]
        },
        {
            "positions": [
                -1.496021852113117,
                -1.409930871265681,
                1.8305823661280547,
                -0.6155522161421284,
                1.3505939259577757,
                2.7437812505482992
            ]
        },
        {
            "positions": [
                -1.4807796556013613,
                -1.4170365417615378,
                1.710424023491074,
                -0.6311786832946745,
                1.262817454590296,
                2.6233814891302325
            ]
        },
        {
            "positions": [
                -1.4655374590896058,
                -1.4241422122573948,
                1.5902656808540934,
                -0.6468051504472208,
                1.1750409832228164,
                2.502981727712166
            ]
        },
        {
            "positions": [
                -1.45029526257785,
                -1.4312478827532518,
                1.4701073382171126,
                -0.662431617599767,
                1.0872645118553366,
                2.3825819662940995
            ]
        },
        {
            "positions": [
                -1.4350530660660943,
                -1.4383535532491085,
                1.349948995580132,
                -0.6780580847523132,
                0.999488040487857,
                2.262182204876033
            ]
        },
        {
            "positions": [
                -1.4198108695543386,
                -1.4454592237449655,
                1.2297906529431515,
                -0.6936845519048593,
                0.9117115691203773,
                2.141782443457967
            ]
        },
        {
            "positions": [
                -1.4045686730425828,
                -1.4525648942408225,
                1.109632310306171,
                -0.7093110190574056,
                0.8239350977528977,
                2.0213826820399
            ]
        },
        {
            "positions": [
                -1.3893264765308273,
                -1.4596705647366794,
                0.98947396766919,
                -0.7249374862099518,
                0.736158626385418,
                1.9009829206218338
            ]
        },
        {
            "positions": [
                -1.3740842800190716,
                -1.4667762352325362,
                0.8693156250322094,
                -0.7405639533624979,
                0.6483821550179384,
                1.7805831592037673
            ]
        },
        {
            "positions": [
                -1.3588420835073158,
                -1.4738819057283932,
                0.7491572823952289,
                -0.7561904205150441,
                0.5606056836504587,
                1.6601833977857008
            ]
        },
        {
            "positions": [
                -1.4613212988399804,
                -1.4715704387026807,
                0.8594148100449821,
                -0.6950548012372953,
                0.5467821185664826,
                1.6234498589631041
            ]
        },
        {
            "positions": [
                -1.563800514172645,
                -1.4692589716769682,
                0.9696723376947354,
                -0.6339191819595464,
                0.5329585534825065,
                1.5867163201405072
            ]
        },
        {
            "positions": [
                -1.6662797295053098,
                -1.4669475046512557,
                1.0799298653444884,
                -0.5727835626817976,
                0.5191349883985306,
                1.5499827813179106
            ]
        },
        {
            "positions": [
                -1.7687589448379744,
                -1.4646360376255432,
                1.190187392994242,
                -0.5116479434040488,
                0.5053114233145545,
                1.5132492424953137
            ]
        },
        {
            "positions": [
                -1.871238160170639,
                -1.4623245705998307,
                1.300444920643995,
                -0.45051232412630005,
                0.4914878582305784,
                1.476515703672717
            ]
        },
        {
            "positions": [
                -1.9878076643478169,
                -1.4871013232275305,
                1.4028813944906016,
                -0.521248445713439,
                0.4682756438806555,
                1.4888155516444894
            ]
        },
        {
            "positions": [
                -2.104377168524995,
                -1.5118780758552306,
                1.505317868337208,
                -0.5919845673005778,
                0.4450634295307327,
                1.5011153996162618
            ]
        },
        {
            "positions": [
                -2.2209466727021727,
                -1.5366548284829304,
                1.6077543421838145,
                -0.6627206888877167,
                0.4218512151808098,
                1.5134152475880343
            ]
        },
        {
            "positions": [
                -2.3375161768793506,
                -1.5614315811106305,
                1.710190816030421,
                -0.7334568104748556,
                0.398639000830887,
                1.5257150955598064
            ]
        },
        {
            "positions": [
                -2.4540856810565286,
                -1.5862083337383304,
                1.8126272898770275,
                -0.8041929320619945,
                0.3754267864809641,
                1.5380149435315789
            ]
        },
        {
            "positions": [
                -2.5706551852337065,
                -1.6109850863660302,
                1.915063763723634,
                -0.8749290536491334,
                0.35221457213104124,
                1.5503147915033513
            ]
        },
        {
            "positions": [
                -2.6872246894108844,
                -1.6357618389937303,
                2.0175002375702404,
                -0.9456651752362724,
                0.3290023577811184,
                1.5626146394751237
            ]
        },
        {
            "positions": [
                -2.6569644392943963,
                -1.5682522497163478,
                2.0168634102173386,
                -0.9322582302313239,
                0.3773167367378185,
                1.7870284778626724
            ]
        },
        {
            "positions": [
                -2.626704189177908,
                -1.500742660438965,
                2.016226582864437,
                -0.9188512852263756,
                0.42563111569451867,
                2.0114423162502213
            ]
        },
        {
            "positions": [
                -2.59644393906142,
                -1.4332330711615826,
                2.015589755511535,
                -0.9054443402214272,
                0.4739454946512188,
                2.23585615463777
            ]
        },
        {
            "positions": [
                -2.5661836889449314,
                -1.3657234818842,
                2.0149529281586336,
                -0.8920373952164787,
                0.5222598736079189,
                2.460269993025319
            ]
        },
        {
            "positions": [
                -2.5359234388284433,
                -1.2982138926068174,
                2.0143161008057318,
                -0.8786304502115303,
                0.5705742525646191,
                2.684683831412868
            ]
        },
        {
            "positions": [
                -2.505663188711955,
                -1.2307043033294347,
                2.01367927345283,
                -0.865223505206582,
                0.6188886315213191,
                2.9090976698004165
            ]
        },
        {
            "positions": [
                -2.475402938595467,
                -1.1631947140520522,
                2.013042446099928,
                -0.8518165602016335,
                0.6672030104780193,
                3.1335115081879654
            ]
        }
    ]
}