{
    "goal": {
        "global_pose": {
            "orientation": {
                "w": -0.4816463035849501,
                "x": 0.5182115481033762,
                "y": 0.4908360881923453,
                "z": -0.5084816262002911
            },
            "position": {
                "x": -0.8240239810943604,
                "y": 0.19912469901144506,
                "z": 0.16403168439865112
            }
        },
        "name": "move_to_storage_D"
    },
    "id": "KPIECE_move_to_storage_D_31",
    "joint_names": [
        "shoulder_pan_joint",
        "shoulder_lift_joint",
        "elbow_joint",
        "wrist_1_joint",
        "wrist_2_joint",
        "wrist_3_joint"
    ],
    "metrics": {
        "cart_traj_len": 4.6833846932811705,
        "distance_elbow_joint": 4.275541482284703,
        "distance_shoulder_lift_joint": 1.263191320270454,
        "distance_shoulder_pan_joint": 2.8128564906950113,
        "distance_wrist_1_joint": 3.8247952103134066,
        "distance_wrist_2_joint": 2.0951388350596822,
        "distance_wrist_3_joint": 3.1205743167376694,
        "smoothness": 0.27389663315416346,
        "time": 0.105929984,
        "traj_len": 4.1703833942889394,
        "weighted_distance": 5.436283687797147
    },
    "planner": "KPIECE",
    "start": {
        "state": {
            "elbow_joint": -2.384821990628643,
            "shoulder_lift_joint": -2.278805467437664,
            "shoulder_pan_joint": -0.18546946439364564,
            "wrist_1_joint": 1.4845938187801415,
            "wrist_2_joint": 0.178987772454074,
            "wrist_3_joint": 0.03710569632802521
        }
    },
    "waypoints": [
        {
            "positions": [
                -0.18546946439364564,
                -2.278805467437664,
                -2.384821990628643,
                1.4845938187801415,
                0.178987772454074,
                0.03710569632802521
            ]
        },
        {
            "positions": [
                -0.13761852243741016,
                -2.232031138282686,
                -2.4145496540936415,
                1.4433004964182614,
                0.1384428756604857,
                -0.08284771525418505
            ]
        },
        {
            "positions": [
                -0.052738465171309964,
                -2.197502841933564,
                -2.352807494338933,
                1.3226774747923726,
                0.19780499981824023,
                -0.10468231613932355
            ]
        },
        {
            "positions": [
                0.03214159209479023,
                -2.1629745455844414,
                -2.291065334584225,
                1.2020544531664836,
                0.2571671239759948,
                -0.12651691702446205
            ]
        },
        {
            "positions": [
                0.1170216493608904,
                -2.1284462492353193,
                -2.2293231748295166,
                1.0814314315405948,
                0.31652924813374933,
                -0.14835151790960055
            ]
        },
        {
            "positions": [
                0.2019017066269906,
                -2.093917952886197,
                -2.1675810150748087,
                0.9608084099147061,
                0.37589137229150393,
                -0.17018611879473905
            ]
        },
        {
            "positions": [
                0.28678176389309085,
                -2.059389656537075,
                -2.1058388553201004,
                0.8401853882888171,
                0.4352534964492585,
                -0.19202071967987755
            ]
        },
        {
            "positions": [
                0.371661821159191,
                -2.024861360187953,
                -2.044096695565392,
                0.7195623666629283,
                0.494615620607013,
                -0.21385532056501602
            ]
        },
        {
            "positions": [
                0.45654187842529126,
                -1.9903330638388304,
                -1.9823545358106838,
                0.5989393450370394,
                0.5539777447647676,
                -0.23568992145015455
            ]
        },
        {
            "positions": [
                0.5414219356913914,
                -1.9558047674897083,
                -1.9206123760559755,
                0.4783163234111506,
                0.6133398689225221,
                -0.257524522335293
            ]
        },
        {
            "positions": [
                0.6263019929574916,
                -1.921276471140586,
                -1.8588702163012671,
                0.3576933017852617,
                0.6727019930802767,
                -0.27935912322043155
            ]
        },
        {
            "positions": [
                0.7111820502235918,
                -1.8867481747914638,
                -1.7971280565465588,
                0.2370702801593727,
                0.7320641172380313,
                -0.30119372410557005
            ]
        },
        {
            "positions": [
                0.796062107489692,
                -1.8522198784423416,
                -1.7353858967918507,
                0.11644725853348392,
                0.7914262413957858,
                -0.32302832499070855
            ]
        },
        {
            "positions": [
                0.8809421647557921,
                -1.8176915820932193,
                -1.6736437370371426,
                -0.0041757630924048605,
                0.8507883655535402,
                -0.344862925875847
            ]
        },
        {
            "positions": [
                0.9658222220218925,
                -1.7831632857440973,
                -1.6119015772824343,
                -0.12479878471829364,
                0.9101504897112949,
                -0.36669752676098555
            ]
        },
        {
            "positions": [
                1.0507022792879925,
                -1.7486349893949749,
                -1.550159417527726,
                -0.24542180634418265,
                0.9695126138690495,
                -0.38853212764612405
            ]
        },
        {
            "positions": [
                1.1355823365540927,
                -1.7141066930458528,
                -1.4884172577730177,
                -0.3660448279700712,
                1.028874738026804,
                -0.4103667285312625
            ]
        },
        {
            "positions": [
                1.2204623938201928,
                -1.6795783966967306,
                -1.4266750980183094,
                -0.4866678495959602,
                1.0882368621845586,
                -0.432201329416401
            ]
        },
        {
            "positions": [
                1.3053424510862932,
                -1.6450501003476083,
                -1.364932938263601,
                -0.6072908712218492,
                1.147598986342313,
                -0.45403593030153955
            ]
        },
        {
            "positions": [
                1.3902225083523931,
                -1.6105218039984863,
                -1.303190778508893,
                -0.727913892847738,
                1.2069611105000675,
                -0.475870531186678
            ]
        },
        {
            "positions": [
                1.4751025656184935,
                -1.575993507649364,
                -1.2414486187541847,
                -0.8485369144736268,
                1.2663232346578221,
                -0.4977051320718165
            ]
        },
        {
            "positions": [
                1.5599826228845937,
                -1.5414652113002418,
                -1.1797064589994763,
                -0.969159936099516,
                1.3256853588155768,
                -0.5195397329569551
            ]
        },
        {
            "positions": [
                1.6448626801506938,
                -1.5069369149511198,
                -1.1179642992447683,
                -1.0897829577254043,
                1.3850474829733312,
                -0.5413743338420935
            ]
        },
        {
            "positions": [
                1.729742737416794,
                -1.4724086186019973,
                -1.05622213949006,
                -1.2104059793512936,
                1.4444096071310857,
                -0.563208934727232
            ]
        },
        {
            "positions": [
                1.8146227946828943,
                -1.4378803222528753,
                -0.9944799797353516,
                -1.3310290009771824,
                1.5037717312888403,
                -0.5850435356123704
            ]
        },
        {
            "positions": [
                1.8995028519489943,
                -1.403352025903753,
                -0.9327378199806435,
                -1.4516520226030711,
                1.5631338554465948,
                -0.6068781364975089
            ]
        },
        {
            "positions": [
                1.9843829092150946,
                -1.3688237295546308,
                -0.8709956602259352,
                -1.5722750442289597,
                1.6224959796043494,
                -0.6287127373826474
            ]
        },
        {
            "positions": [
                2.0182252311670035,
                -1.3502337515342402,
                -0.7287714589126721,
                -1.5318578680550488,
                1.5924675146400216,
                -0.7579104154366999
            ]
        },
        {
            "positions": [
                2.0520675531189125,
                -1.3316437735138498,
                -0.5865472575994091,
                -1.4914406918811378,
                1.5624390496756937,
                -0.8871080934907524
            ]
        },
        {
            "positions": [
                2.0859098750708216,
                -1.3130537954934591,
                -0.4443230562861459,
                -1.4510235157072269,
                1.5324105847113658,
                -1.016305771544805
            ]
        },
        {
            "positions": [
                2.1197521970227307,
                -1.2944638174730685,
                -0.3020988549728828,
                -1.410606339533316,
                1.5023821197470377,
                -1.1455034495988574
            ]
        },
        {
            "positions": [
                2.1535945189746397,
                -1.2758738394526778,
                -0.15987465365961961,
                -1.370189163359405,
                1.4723536547827099,
                -1.2747011276529099
            ]
        },
        {
            "positions": [
                2.1874368409265483,
                -1.2572838614322874,
                -0.017650452346356538,
                -1.329771987185494,
                1.442325189818382,
                -1.4038988057069623
            ]
        },
        {
            "positions": [
                2.2212791628784574,
                -1.2386938834118968,
                0.12457374896690654,
                -1.2893548110115831,
                1.412296724854054,
                -1.5330964837610148
            ]
        },
        {
            "positions": [
                2.2551214848303665,
                -1.2201039053915061,
                0.2667979502801696,
                -1.2489376348376724,
                1.3822682598897262,
                -1.6622941618150673
            ]
        },
        {
            "positions": [
                2.2889638067822755,
                -1.2015139273711155,
                0.4090221515934329,
                -1.2085204586637612,
                1.3522397949253984,
                -1.7914918398691198
            ]
        },
        {
            "positions": [
                2.3228061287341846,
                -1.182923949350725,
                0.551246352906696,
                -1.1681032824898505,
                1.3222113299610703,
                -1.9206895179231722
            ]
        },
        {
            "positions": [
                2.3566484506860936,
                -1.1643339713303344,
                0.6934705542199593,
                -1.1276861063159394,
                1.2921828649967424,
                -2.0498871959772247
            ]
        },
        {
            "positions": [
                2.3904907726380022,
                -1.1457439933099438,
                0.8356947555332221,
                -1.0872689301420286,
                1.2621544000324145,
                -2.179084874031277
            ]
        },
        {
            "positions": [
                2.4243330945899113,
                -1.1271540152895532,
                0.9779189568464854,
                -1.0468517539681175,
                1.2321259350680867,
                -2.3082825520853296
            ]
        },
        {
            "positions": [
                2.4581754165418204,
                -1.1085640372691627,
                1.1201431581597483,
                -1.0064345777942068,
                1.2020974701037588,
                -2.437480230139382
            ]
        },
        {
            "positions": [
                2.4920177384937294,
                -1.089974059248772,
                1.2623673594730118,
                -0.9660174016202957,
                1.1720690051394307,
                -2.5666779081934346
            ]
        },
        {
            "positions": [
                2.5258600604456385,
                -1.0713840812283815,
                1.4045915607862745,
                -0.9256002254463849,
                1.142040540175103,
                -2.695875586247487
            ]
        },
        {
            "positions": [
                2.559702382397547,
                -1.052794103207991,
                1.546815762099538,
                -0.8851830492724739,
                1.112012075210775,
                -2.8250732643015395
            ]
        },
        {
            "positions": [
                2.593544704349456,
                -1.0342041251876004,
                1.689039963412801,
                -0.844765873098563,
                1.0819836102464473,
                -2.954270942355592
            ]
        },
        {
            "positions": [
                2.6273870263013652,
                -1.0156141471672098,
                1.8312641647260641,
                -0.804348696924652,
                1.0519551452821192,
                -3.0834686204096444
            ]
        }
    ]
}