{
    "goal": {
        "global_pose": {
            "orientation": {
                "w": 0.5084816217422485,
                "x": -0.49083608388900757,
                "y": 0.5182115435600281,
                "z": -0.4816462993621826
            },
            "position": {
                "x": 0.5540239810943604,
                "y": 0.030875300988554955,
                "z": 0.16403168439865112
            }
        },
        "name": "move_to_storage_A"
    },
    "id": "KPIECE_move_to_storage_A_6",
    "joint_names": [
        "shoulder_pan_joint",
        "shoulder_lift_joint",
        "elbow_joint",
        "wrist_1_joint",
        "wrist_2_joint",
        "wrist_3_joint"
    ],
    "metrics": {
        "cart_traj_len": 0.3535170372574569,
        "distance_elbow_joint": 0.4476244520266335,
        "distance_shoulder_lift_joint": 0.23428071131642692,
        "distance_shoulder_pan_joint": 0.46046329669396585,
        "distance_wrist_1_joint": 0.2344282074772146,
        "distance_wrist_2_joint": 1.1070369689291741,
        "distance_wrist_3_joint": 0.08689403411933405,
        "smoothness": 8.881784197001252e-16,
        "time": 0.019849462999999998,
        "traj_len": 1.603348892338392,
        "weighted_distance": 2.0213809426250675
    },
    "planner": "KPIECE",
    "start": {
        "state": {
            "elbow_joint": 1.971548880431181,
            "shoulder_lift_joint": -1.1394869514688781,
            "shoulder_pan_joint": 0.12281150262730567,
            "wrist_1_joint": -0.7804693444481463,
            "wrist_2_joint": 0.12958644648617612,
            "wrist_3_joint": 3.0906942077768043
        }
    },
    "waypoints": [
        {
            "positions": [
                0.12281150262730567,
                -1.1394869514688781,
                1.971548880431181,
                -0.7804693444481463,
                0.12958644648617612,
                3.0906942077768043
            ]
        },
        {
            "positions": [
                0.05703103167102484,
                -1.172955624514082,
                2.0354952307207,
                -0.8139590883734626,
                0.28773458490462955,
                3.103107641222423
            ]
        },
        {
            "positions": [
                -0.008749439285255983,
                -1.2064242975592858,
                2.099441581010219,
                -0.847448832298779,
                0.445882723323083,
                3.1155210746680426
            ]
        },
        {
            "positions": [
                -0.07452991024153682,
                -1.2398929706044897,
                2.163387931299738,
                -0.8809385762240954,
                0.6040308617415364,
                3.1279345081136616
            ]
        },
        {
            "positions": [
                -0.14031038119781764,
                -1.2733616436496935,
                2.227334281589257,
                -0.9144283201494118,
                0.7621790001599899,
                3.140347941559281
            ]
        },
        {
            "positions": [
                -0.2060908521540985,
                -1.3068303166948974,
                2.2912806318787764,
                -0.9479180640747282,
                0.9203271385784434,
                3.1527613750049
            ]
        },
        {
            "positions": [
                -0.2718713231103793,
                -1.3402989897401012,
                2.355226982168295,
                -0.9814078080000446,
                1.0784752769968966,
                3.1651748084505194
            ]
        },
        {
            "positions": [
                -0.3376517940666602,
                -1.373767662785305,
                2.4191733324578144,
                -1.014897551925361,
                1.2366234154153501,
                3.1775882418961383
            ]
        }
    ]
}