{
    "goal": {
        "global_pose": {
            "orientation": {
                "w": -0.00223480608172531,
                "x": 0.0024358444001904467,
                "y": 0.7094548369677653,
                "z": -0.704743149386269
            },
            "position": {
                "x": 0.6205249238014221,
                "y": -0.6371506643295288,
                "z": 0.19426114857196808
            }
        },
        "name": "move_to_magneteinheit_B"
    },
    "id": "KPIECE_move_to_magneteinheit_B_92",
    "joint_names": [
        "shoulder_pan_joint",
        "shoulder_lift_joint",
        "elbow_joint",
        "wrist_1_joint",
        "wrist_2_joint",
        "wrist_3_joint"
    ],
    "metrics": {
        "cart_traj_len": 4.052873372824376,
        "distance_elbow_joint": 4.049570643909127,
        "distance_shoulder_lift_joint": 0.27589277477489627,
        "distance_shoulder_pan_joint": 2.505079302696471,
        "distance_wrist_1_joint": 3.3140943978925117,
        "distance_wrist_2_joint": 6.001458676244814,
        "distance_wrist_3_joint": 4.522631182782197,
        "smoothness": 0.36350873738481754,
        "time": 3.480726529,
        "traj_len": 4.54628716408236,
        "weighted_distance": 6.247362837069873
    },
    "planner": "KPIECE",
    "start": {
        "state": {
            "elbow_joint": 2.393587130804639,
            "shoulder_lift_joint": -1.9085141043513325,
            "shoulder_pan_joint": 0.7066247066698809,
            "wrist_1_joint": -0.4678290934590222,
            "wrist_2_joint": 0.7096259084215963,
            "wrist_3_joint": 3.147370379541726
        }
    },
    "waypoints": [
        {
            "positions": [
                0.7066247066698809,
                -1.9085141043513325,
                2.393587130804639,
                -0.4678290934590222,
                0.7096259084215963,
                3.147370379541726
            ]
        },
        {
            "positions": [
                0.7716871978409009,
                -1.9308044366954922,
                2.3650062553303504,
                -0.3208159128775634,
                0.7607735110129364,
                3.0930887192437857
            ]
        },
        {
            "positions": [
                0.836749689011921,
                -1.953094769039652,
                2.3364253798560615,
                -0.1738027322961046,
                0.8119211136042764,
                3.038807058945846
            ]
        },
        {
            "positions": [
                0.9018121801829411,
                -1.9753851013838117,
                2.307844504381773,
                -0.026789551714645754,
                0.8630687161956165,
                2.9845253986479054
            ]
        },
        {
            "positions": [
                0.9435743553616084,
                -1.9909983172225698,
                2.238607261866641,
                0.08862787141701747,
                0.883076385477652,
                2.889154179528249
            ]
        },
        {
            "positions": [
                0.9853365305402757,
                -2.006611533061328,
                2.1693700193515086,
                0.2040452945486807,
                0.9030840547596874,
                2.793782960408593
            ]
        },
        {
            "positions": [
                1.0482464822385142,
                -2.008364934746559,
                2.048477362739252,
                0.12955646304145926,
                0.9744415006267705,
                2.7320343318694906
            ]
        },
        {
            "positions": [
                1.1111564339367528,
                -2.01011833643179,
                1.927584706126995,
                0.055067631534237826,
                1.0457989464938535,
                2.6702857033303884
            ]
        },
        {
            "positions": [
                1.1740663856349913,
                -2.011871738117021,
                1.8066920495147383,
                -0.01942119997298361,
                1.1171563923609367,
                2.608537074791286
            ]
        },
        {
            "positions": [
                1.2369763373332299,
                -2.0136251398022518,
                1.6857993929024815,
                -0.09391003148020505,
                1.1885138382280198,
                2.546788446252184
            ]
        },
        {
            "positions": [
                1.2998862890314684,
                -2.015378541487483,
                1.564906736290225,
                -0.16839886298742646,
                1.2598712840951027,
                2.4850398177130817
            ]
        },
        {
            "positions": [
                1.362796240729707,
                -2.0171319431727137,
                1.444014079677968,
                -0.24288769449464792,
                1.3312287299621859,
                2.4232911891739795
            ]
        },
        {
            "positions": [
                1.4257061924279455,
                -2.018885344857945,
                1.3231214230657113,
                -0.3173765260018694,
                1.402586175829269,
                2.361542560634877
            ]
        },
        {
            "positions": [
                1.488616144126184,
                -2.0206387465431757,
                1.2022287664534546,
                -0.3918653575090908,
                1.473943621696352,
                2.299793932095775
            ]
        },
        {
            "positions": [
                1.5515260958244226,
                -2.022392148228407,
                1.0813361098411978,
                -0.4663541890163123,
                1.545301067563435,
                2.2380453035566727
            ]
        },
        {
            "positions": [
                1.6144360475226611,
                -2.0241455499136376,
                0.960443453228941,
                -0.5408430205235336,
                1.6166585134305183,
                2.1762966750175705
            ]
        },
        {
            "positions": [
                1.6773459992208997,
                -2.025898951598869,
                0.8395507966166842,
                -0.6153318520307551,
                1.6880159592976014,
                2.1145480464784683
            ]
        },
        {
            "positions": [
                1.7402559509191382,
                -2.0276523532840995,
                0.7186581400044274,
                -0.6898206835379765,
                1.7593734051646843,
                2.052799417939366
            ]
        },
        {
            "positions": [
                1.8031659026173767,
                -2.0294057549693307,
                0.5977654833921706,
                -0.7643095150451981,
                1.8307308510317675,
                1.9910507894002636
            ]
        },
        {
            "positions": [
                1.8660758543156153,
                -2.0311591566545615,
                0.47687282677991405,
                -0.8387983465524195,
                1.9020882968988504,
                1.9293021608611614
            ]
        },
        {
            "positions": [
                1.9289858060138538,
                -2.0329125583397927,
                0.35598017016765704,
                -0.9132871780596409,
                1.9734457427659335,
                1.8675535323220591
            ]
        },
        {
            "positions": [
                1.9918957577120924,
                -2.0346659600250234,
                0.23508751355540047,
                -0.9877760095668623,
                2.0448031886330167,
                1.8058049037829569
            ]
        },
        {
            "positions": [
                2.054805709410331,
                -2.0364193617102546,
                0.11419485694314391,
                -1.0622648410740836,
                2.1161606345000994,
                1.7440562752438546
            ]
        },
        {
            "positions": [
                2.1177156611085692,
                -2.0381727633954854,
                -0.0066977996691131025,
                -1.1367536725813054,
                2.187518080367183,
                1.6823076467047522
            ]
        },
        {
            "positions": [
                2.180625612806808,
                -2.0399261650807166,
                -0.1275904562813701,
                -1.2112425040885269,
                2.2588755262342657,
                1.6205590181656502
            ]
        },
        {
            "positions": [
                2.2435355645050468,
                -2.0416795667659473,
                -0.24848311289362668,
                -1.2857313355957478,
                2.330232972101349,
                1.558810389626548
            ]
        },
        {
            "positions": [
                2.306445516203285,
                -2.0434329684511785,
                -0.36937576950588324,
                -1.3602201671029692,
                2.401590417968432,
                1.4970617610874457
            ]
        },
        {
            "positions": [
                2.3693554679015234,
                -2.0451863701364092,
                -0.49026842611814025,
                -1.434708998610191,
                2.472947863835515,
                1.4353131325483433
            ]
        },
        {
            "positions": [
                2.432265419599762,
                -2.0469397718216404,
                -0.6111610827303968,
                -1.5091978301174125,
                2.5443053097025983,
                1.373564504009241
            ]
        },
        {
            "positions": [
                2.495175371298001,
                -2.048693173506871,
                -0.7320537393426538,
                -1.583686661624634,
                2.615662755569681,
                1.311815875470139
            ]
        },
        {
            "positions": [
                2.5580853229962393,
                -2.0504465751921024,
                -0.8529463959549104,
                -1.6581754931318553,
                2.687020201436764,
                1.2500672469310368
            ]
        },
        {
            "positions": [
                2.6209952746944776,
                -2.052199976877333,
                -0.9738390525671674,
                -1.7326643246390767,
                2.7583776473038473,
                1.1883186183919343
            ]
        },
        {
            "positions": [
                2.6839052263927163,
                -2.0539533785625643,
                -1.094731709179424,
                -1.8071531561462981,
                2.8297350931709304,
                1.126569989852832
            ]
        },
        {
            "positions": [
                2.746815178090955,
                -2.055706780247795,
                -1.2156243657916805,
                -1.8816419876535195,
                2.9010925390380136,
                1.0648213613137298
            ]
        },
        {
            "positions": [
                2.8097251297891934,
                -2.0574601819330263,
                -1.3365170224039375,
                -1.956130819160741,
                2.9724499849050963,
                1.0030727327746278
            ]
        },
        {
            "positions": [
                2.8726350814874317,
                -2.059213583618257,
                -1.4574096790161946,
                -2.0306196506679624,
                3.04380743077218,
                0.9413241042355254
            ]
        },
        {
            "positions": [
                2.9355450331856705,
                -2.060966985303488,
                -1.578302335628451,
                -2.1051084821751838,
                3.115164876639263,
                0.8795754756964231
            ]
        },
        {
            "positions": [
                2.9193003875279833,
                -2.0682281555283555,
                -1.582871816656453,
                -2.124700613537592,
                2.9036401879317837,
                1.0122129038691818
            ]
        },
        {
            "positions": [
                2.9030557418702965,
                -2.0754893257532223,
                -1.587441297684455,
                -2.144292744900001,
                2.6921154992243044,
                1.1448503320419403
            ]
        },
        {
            "positions": [
                2.8868110962126092,
                -2.0827504959780896,
                -1.592010778712457,
                -2.163884876262409,
                2.480590810516825,
                1.277487760214699
            ]
        },
        {
            "positions": [
                2.870566450554922,
                -2.0900116662029564,
                -1.596580259740459,
                -2.1834770076248176,
                2.2690661218093457,
                1.4101251883874575
            ]
        },
        {
            "positions": [
                2.8543218048972347,
                -2.0972728364278237,
                -1.6011497407684612,
                -2.2030691389872263,
                2.057541433101866,
                1.5427626165602162
            ]
        },
        {
            "positions": [
                2.838077159239548,
                -2.104534006652691,
                -1.605719221796463,
                -2.2226612703496347,
                1.846016744394387,
                1.6754000447329749
            ]
        },
        {
            "positions": [
                2.8218325135818607,
                -2.111795176877558,
                -1.6102887028244652,
                -2.242253401712043,
                1.6344920556869076,
                1.8080374729057334
            ]
        },
        {
            "positions": [
                2.8055878679241735,
                -2.119056347102425,
                -1.6148581838524672,
                -2.261845533074452,
                1.4229673669794283,
                1.940674901078492
            ]
        },
        {
            "positions": [
                2.7893432222664867,
                -2.126317517327292,
                -1.6194276648804693,
                -2.28143766443686,
                1.211442678271949,
                2.0733123292512508
            ]
        },
        {
            "positions": [
                2.7730985766087994,
                -2.133578687552159,
                -1.6239971459084712,
                -2.301029795799269,
                0.9999179895644694,
                2.2059497574240092
            ]
        },
        {
            "positions": [
                2.756853930951112,
                -2.140839857777026,
                -1.6285666269364734,
                -2.3206219271616773,
                0.7883933008569901,
                2.3385871855967677
            ]
        },
        {
            "positions": [
                2.7406092852934254,
                -2.1481010280018933,
                -1.6331361079644753,
                -2.3402140585240856,
                0.5768686121495108,
                2.4712246137695266
            ]
        },
        {
            "positions": [
                2.724364639635738,
                -2.1553621982267606,
                -1.6377055889924774,
                -2.359806189886494,
                0.3653439234420319,
                2.6038620419422847
            ]
        },
        {
            "positions": [
                2.708119993978051,
                -2.1626233684516274,
                -1.6422750700204793,
                -2.3793983212489027,
                0.15381923473455217,
                2.7364994701150436
            ]
        },
        {
            "positions": [
                2.6918753483203637,
                -2.1698845386764947,
                -1.6468445510484815,
                -2.398990452611311,
                -0.057705453972927145,
                2.8691368982878025
            ]
        },
        {
            "positions": [
                2.675630702662677,
                -2.1771457089013615,
                -1.6514140320764834,
                -2.41858258397372,
                -0.26923014268040646,
                3.001774326460561
            ]
        },
        {
            "positions": [
                2.6593860570049896,
                -2.1844068791262288,
                -1.6559835131044855,
                -2.438174715336128,
                -0.4807548313878858,
                3.1344117546333194
            ]
        }
    ]
}