{
    "goal": {
        "global_pose": {
            "orientation": {
                "w": -0.00223480608172531,
                "x": 0.0024358444001904467,
                "y": 0.7094548369677653,
                "z": -0.704743149386269
            },
            "position": {
                "x": 0.6205249238014221,
                "y": -0.6371506643295288,
                "z": 0.19426114857196808
            }
        },
        "name": "move_to_magneteinheit_B"
    },
    "id": "KPIECE_move_to_magneteinheit_B_7",
    "joint_names": [
        "shoulder_pan_joint",
        "shoulder_lift_joint",
        "elbow_joint",
        "wrist_1_joint",
        "wrist_2_joint",
        "wrist_3_joint"
    ],
    "metrics": {
        "cart_traj_len": 4.233330041651393,
        "distance_elbow_joint": 4.341190459726838,
        "distance_shoulder_lift_joint": 1.0298849988339815,
        "distance_shoulder_pan_joint": 3.325234875549535,
        "distance_wrist_1_joint": 1.629603052678803,
        "distance_wrist_2_joint": 2.2202621728028094,
        "distance_wrist_3_joint": 4.547510672919894,
        "smoothness": 0.32219896785718727,
        "time": 0.896883618,
        "traj_len": 4.134451140418987,
        "weighted_distance": 5.480745643051979
    },
    "planner": "KPIECE",
    "start": {
        "state": {
            "elbow_joint": 2.393587130804639,
            "shoulder_lift_joint": -1.9085141043513325,
            "shoulder_pan_joint": 0.7066247066698809,
            "wrist_1_joint": -0.4678290934590222,
            "wrist_2_joint": 0.7096259084215963,
            "wrist_3_joint": 3.147370379541726
        }
    },
    "waypoints": [
        {
            "positions": [
                0.7066247066698809,
                -1.9085141043513325,
                2.393587130804639,
                -0.4678290934590222,
                0.7096259084215963,
                3.147370379541726
            ]
        },
        {
            "positions": [
                0.5695669690494686,
                -1.8683348664309918,
                2.363345727092088,
                -0.34570109075710254,
                0.7256072369004493,
                3.1522744522373256
            ]
        },
        {
            "positions": [
                0.43250923142905634,
                -1.828155628510651,
                2.333104323379537,
                -0.2235730880551829,
                0.7415885653793022,
                3.1571785249329247
            ]
        },
        {
            "positions": [
                0.29545149380864416,
                -1.7879763905903103,
                2.3028629196669863,
                -0.1014450853532633,
                0.7575698938581552,
                3.1620825976285243
            ]
        },
        {
            "positions": [
                0.15839375618823182,
                -1.7477971526699696,
                2.272621515954435,
                0.020682917348656404,
                0.7735512223370081,
                3.1669866703241234
            ]
        },
        {
            "positions": [
                0.021336018567819654,
                -1.7076179147496289,
                2.2423801122418845,
                0.14281092005057602,
                0.789532550815861,
                3.171890743019723
            ]
        },
        {
            "positions": [
                0.04410232026306869,
                -1.7042676248708721,
                2.0816923921114654,
                0.16658843993408587,
                0.772883196398962,
                3.0402429081637523
            ]
        },
        {
            "positions": [
                0.06686862195831773,
                -1.7009173349921154,
                1.9210046719810463,
                0.19036595981759571,
                0.7562338419820629,
                2.9085950733077817
            ]
        },
        {
            "positions": [
                0.08963492365356676,
                -1.6975670451133584,
                1.7603169518506272,
                0.21414347970110556,
                0.7395844875651638,
                2.776947238451811
            ]
        },
        {
            "positions": [
                0.1124012253488158,
                -1.6942167552346017,
                1.599629231720208,
                0.23792099958461543,
                0.7229351331482647,
                2.645299403595841
            ]
        },
        {
            "positions": [
                0.13516752704406484,
                -1.690866465355845,
                1.438941511589789,
                0.2616985194681253,
                0.7062857787313657,
                2.51365156873987
            ]
        },
        {
            "positions": [
                0.1579338287393139,
                -1.6875161754770882,
                1.27825379145937,
                0.2854760393516351,
                0.6896364243144666,
                2.3820037338838995
            ]
        },
        {
            "positions": [
                0.18070013043456293,
                -1.6841658855983312,
                1.1175660713289508,
                0.30925355923514497,
                0.6729870698975675,
                2.250355899027929
            ]
        },
        {
            "positions": [
                0.20346643212981197,
                -1.6808155957195745,
                0.9568783511985317,
                0.3330310791186548,
                0.6563377154806684,
                2.1187080641719582
            ]
        },
        {
            "positions": [
                0.226232733825061,
                -1.6774653058408178,
                0.7961906310681126,
                0.35680859900216466,
                0.6396883610637694,
                1.9870602293159878
            ]
        },
        {
            "positions": [
                0.3112109320209942,
                -1.6931121820232928,
                0.6777537875287436,
                0.3524751931959062,
                0.5905154965981317,
                1.8666997775404168
            ]
        },
        {
            "positions": [
                0.3961891302169274,
                -1.708759058205768,
                0.5593169439893747,
                0.3481417873896478,
                0.5413426321324941,
                1.7463393257648459
            ]
        },
        {
            "positions": [
                0.4811673284128606,
                -1.724405934388243,
                0.4408801004500058,
                0.34380838158338933,
                0.4921697676668566,
                1.6259788739892749
            ]
        },
        {
            "positions": [
                0.5661455266087938,
                -1.740052810570718,
                0.3224432569106368,
                0.3394749757771309,
                0.442996903201219,
                1.505618422213704
            ]
        },
        {
            "positions": [
                0.651123724804727,
                -1.755699686753193,
                0.2040064133712679,
                0.33514156997087247,
                0.3938240387355814,
                1.385257970438133
            ]
        },
        {
            "positions": [
                0.7361019230006602,
                -1.7713465629356682,
                0.085569569831899,
                0.33080816416461406,
                0.34465117426994385,
                1.264897518662562
            ]
        },
        {
            "positions": [
                0.8210801211965935,
                -1.7869934391181432,
                -0.03286727370747,
                0.3264747583583556,
                0.2954783098043062,
                1.144537066886991
            ]
        },
        {
            "positions": [
                0.9060583193925267,
                -1.8026403153006183,
                -0.151304117246839,
                0.3221413525520972,
                0.2463054453386686,
                1.02417661511142
            ]
        },
        {
            "positions": [
                0.99103651758846,
                -1.8182871914830934,
                -0.269740960786208,
                0.31780794674583873,
                0.19713258087303098,
                0.903816163335849
            ]
        },
        {
            "positions": [
                1.0760147157843931,
                -1.8339340676655684,
                -0.3881778043255768,
                0.3134745409395803,
                0.14795971640739347,
                0.783455711560278
            ]
        },
        {
            "positions": [
                1.1609929139803263,
                -1.8495809438480435,
                -0.5066146478649458,
                0.30914113513332186,
                0.09878685194175585,
                0.6630952597847071
            ]
        },
        {
            "positions": [
                1.2459711121762593,
                -1.8652278200305186,
                -0.6250514914043146,
                0.30480772932706346,
                0.04961398747611834,
                0.5427348080091361
            ]
        },
        {
            "positions": [
                1.3309493103721928,
                -1.8808746962129936,
                -0.7434883349436838,
                0.300474323520805,
                0.0004411230104806041,
                0.4223743562335651
            ]
        },
        {
            "positions": [
                1.4159275085681258,
                -1.8965215723954687,
                -0.8619251784830526,
                0.29614091771454654,
                -0.04873174145515691,
                0.30201390445799414
            ]
        },
        {
            "positions": [
                1.500905706764059,
                -1.9121684485779438,
                -0.9803620220224214,
                0.29180751190828813,
                -0.09790460592079442,
                0.1816534526824234
            ]
        },
        {
            "positions": [
                1.5858839049599922,
                -1.9278153247604188,
                -1.0987988655617906,
                0.28747410610202967,
                -0.14707747038643215,
                0.06129300090685219
            ]
        },
        {
            "positions": [
                1.6708621031559254,
                -1.943462200942894,
                -1.2172357091011596,
                0.28314070029577126,
                -0.19625033485206966,
                -0.059067450868718785
            ]
        },
        {
            "positions": [
                1.7558403013518589,
                -1.959109077125369,
                -1.3356725526405286,
                0.2788072944895128,
                -0.2454231993177074,
                -0.17942790264428976
            ]
        },
        {
            "positions": [
                1.8408184995477919,
                -1.974755953307844,
                -1.4541093961798972,
                0.2744738886832544,
                -0.2945960637833449,
                -0.29978835441986074
            ]
        },
        {
            "positions": [
                1.925796697743725,
                -1.990402829490319,
                -1.5725462397192662,
                0.27014048287699594,
                -0.3437689282489824,
                -0.4201488061954317
            ]
        },
        {
            "positions": [
                2.0107748959396585,
                -2.006049705672794,
                -1.6909830832586352,
                0.2658070770707375,
                -0.39294179271462015,
                -0.5405092579710027
            ]
        },
        {
            "positions": [
                2.0957530941355915,
                -2.0216965818552692,
                -1.8094199267980042,
                0.26147367126447907,
                -0.4421146571802577,
                -0.6608697097465736
            ]
        },
        {
            "positions": [
                2.167106849398731,
                -2.07111725221665,
                -1.8082784539487957,
                0.3360897691635278,
                -0.3547348867547044,
                -0.602364546789275
            ]
        },
        {
            "positions": [
                2.2384606046618707,
                -2.120537922578031,
                -1.807136981099587,
                0.4107058670625765,
                -0.267355116329151,
                -0.5438593838319763
            ]
        },
        {
            "positions": [
                2.30981435992501,
                -2.1699585929394116,
                -1.8059955082503785,
                0.4853219649616252,
                -0.17997534590359765,
                -0.4853542208746777
            ]
        },
        {
            "positions": [
                2.3613940719415405,
                -2.213734009084018,
                -1.7878366983894622,
                0.5547452791632547,
                -0.08885834622972319,
                -0.4130409918346681
            ]
        },
        {
            "positions": [
                2.412973783958071,
                -2.2575094252286245,
                -1.769677888528546,
                0.6241685933648842,
                0.0022586534441512707,
                -0.34072776279465844
            ]
        },
        {
            "positions": [
                2.4645534959746014,
                -2.301284841373231,
                -1.7515190786676298,
                0.6935919075665137,
                0.09337565311802576,
                -0.2684145337546488
            ]
        },
        {
            "positions": [
                2.516133207991132,
                -2.3450602575178374,
                -1.7333602688067136,
                0.7630152217681432,
                0.1844926527919002,
                -0.19610130471463916
            ]
        },
        {
            "positions": [
                2.5677129200076623,
                -2.388835673662444,
                -1.7152014589457973,
                0.8324385359697727,
                0.27560965246577473,
                -0.12378807567462952
            ]
        },
        {
            "positions": [
                2.6192926320241927,
                -2.4326110898070503,
                -1.6970426490848811,
                0.9018618501714022,
                0.3667266521396492,
                -0.05147484663461986
            ]
        },
        {
            "positions": [
                2.6612822060152936,
                -2.4763015061642846,
                -1.6712365246738075,
                0.9711041037444096,
                0.46659366523216733,
                0.02936014692902762
            ]
        }
    ]
}