{
    "goal": {
        "global_pose": {
            "orientation": {
                "w": 0.005598929693374612,
                "x": 0.007748599140229565,
                "y": 0.7110244013736278,
                "z": -0.7031023480610252
            },
            "position": {
                "x": 0.1141497679147869,
                "y": -0.7141253447532654,
                "z": 0.3711530566215515
            }
        },
        "name": "move_to_auspresseinheit_B"
    },
    "id": "KPIECE_move_to_auspresseinheit_B_147",
    "joint_names": [
        "shoulder_pan_joint",
        "shoulder_lift_joint",
        "elbow_joint",
        "wrist_1_joint",
        "wrist_2_joint",
        "wrist_3_joint"
    ],
    "metrics": {
        "cart_traj_len": 0.5652599594961909,
        "distance_elbow_joint": 0.06533771695109714,
        "distance_shoulder_lift_joint": 0.29436144569703826,
        "distance_shoulder_pan_joint": 0.5789195080285188,
        "distance_wrist_1_joint": 0.3391720505059491,
        "distance_wrist_2_joint": 0.9887817241990591,
        "distance_wrist_3_joint": 0.005212912867673225,
        "smoothness": 0.0,
        "time": 0.351144431,
        "traj_len": 1.5072442928236072,
        "weighted_distance": 1.9000434096856025
    },
    "planner": "KPIECE",
    "start": {
        "state": {
            "elbow_joint": 2.0193061681459312,
            "shoulder_lift_joint": -1.1220205130644991,
            "shoulder_pan_joint": -1.0952072088045026,
            "wrist_1_joint": -0.8559671810662515,
            "wrist_2_joint": 0.4759638712940361,
            "wrist_3_joint": 3.159081874192446
        }
    },
    "waypoints": [
        {
            "positions": [
                -1.0952072088045026,
                -1.1220205130644991,
                2.0193061681459312,
                -0.8559671810662515,
                0.4759638712940361,
                3.159081874192446
            ]
        },
        {
            "positions": [
                -1.1916937934759224,
                -1.1710807540140056,
                2.0084165486540817,
                -0.7994385059819267,
                0.6407608253272126,
                3.158213055381167
            ]
        },
        {
            "positions": [
                -1.2881803781473422,
                -1.2201409949635118,
                1.9975269291622322,
                -0.7429098308976018,
                0.8055577793603892,
                3.1573442365698883
            ]
        },
        {
            "positions": [
                -1.384666962818762,
                -1.2692012359130183,
                1.9866373096703827,
                -0.6863811558132769,
                0.9703547333935656,
                3.1564754177586094
            ]
        },
        {
            "positions": [
                -1.4811535474901818,
                -1.3182614768625247,
                1.9757476901785331,
                -0.6298524807289521,
                1.1351516874267422,
                3.1556065989473305
            ]
        },
        {
            "positions": [
                -1.5776401321616016,
                -1.367321717812031,
                1.9648580706866836,
                -0.5733238056446273,
                1.2999486414599186,
                3.1547377801360517
            ]
        },
        {
            "positions": [
                -1.6741267168330214,
                -1.4163819587615374,
                1.953968451194834,
                -0.5167951305603024,
                1.4647455954930952,
                3.153868961324773
            ]
        }
    ]
}