{
    "goal": {
        "global_pose": {
            "orientation": {
                "w": 0.7047431493862688,
                "x": -0.7094548369677653,
                "y": 0.0024358444001904,
                "z": -0.0022348060817251984
            },
            "position": {
                "x": -0.39052492380142206,
                "y": 0.3671506643295288,
                "z": 0.19426114857196808
            }
        },
        "name": "move_to_magneteinheit_D"
    },
    "id": "KPIECE_move_to_magneteinheit_D_110",
    "joint_names": [
        "shoulder_pan_joint",
        "shoulder_lift_joint",
        "elbow_joint",
        "wrist_1_joint",
        "wrist_2_joint",
        "wrist_3_joint"
    ],
    "metrics": {
        "cart_traj_len": 7.045122056996458,
        "distance_elbow_joint": 3.714871245011567,
        "distance_shoulder_lift_joint": 1.5662618115096505,
        "distance_shoulder_pan_joint": 7.960502866418607,
        "distance_wrist_1_joint": 2.844961050978653,
        "distance_wrist_2_joint": 5.4761632995799765,
        "distance_wrist_3_joint": 6.350355363083411,
        "smoothness": 0.5430310702633526,
        "time": 0.393722856,
        "traj_len": 5.283286442791252,
        "weighted_distance": 6.995352079295749
    },
    "planner": "KPIECE",
    "start": {
        "state": {
            "elbow_joint": 0.7495348899011911,
            "shoulder_lift_joint": -0.6476975780737668,
            "shoulder_pan_joint": -2.711696901376276,
            "wrist_1_joint": -0.0750647808097303,
            "wrist_2_joint": 0.43296659715458535,
            "wrist_3_joint": 3.1361499051832418
        }
    },
    "waypoints": [
        {
            "positions": [
                -2.711696901376276,
                -0.6476975780737668,
                0.7495348899011911,
                -0.0750647808097303,
                0.43296659715458535,
                3.1361499051832418
            ]
        },
        {
            "positions": [
                -2.6875961424362194,
                -0.7490946791911142,
                0.6635604580238021,
                -0.09870803928185626,
                0.5405368881226157,
                3.11284912666265
            ]
        },
        {
            "positions": [
                -2.7639464247552277,
                -0.8296280580454258,
                0.6393467354835641,
                -0.205330376117067,
                0.5168536570298147,
                3.167876061009787
            ]
        },
        {
            "positions": [
                -2.662425634077506,
                -0.86346917533813,
                0.6249496130689006,
                -0.24550022577603606,
                0.4970943125258846,
                2.9940698215404877
            ]
        },
        {
            "positions": [
                -2.560904843399784,
                -0.8973102926308342,
                0.6105524906542371,
                -0.2856700754350051,
                0.47733496802195446,
                2.820263582071188
            ]
        },
        {
            "positions": [
                -2.4593840527220623,
                -0.9311514099235383,
                0.5961553682395736,
                -0.32583992509397414,
                0.4575756235180244,
                2.6464573426018885
            ]
        },
        {
            "positions": [
                -2.3578632620443405,
                -0.9649925272162425,
                0.5817582458249102,
                -0.36600977475294316,
                0.43781627901409426,
                2.4726511031325886
            ]
        },
        {
            "positions": [
                -2.2563424713666187,
                -0.9988336445089466,
                0.5673611234102467,
                -0.40617962441191224,
                0.4180569345101642,
                2.298844863663289
            ]
        },
        {
            "positions": [
                -2.154821680688897,
                -1.0326747618016507,
                0.5529640009955832,
                -0.4463494740708813,
                0.3982975900062341,
                2.12503862419399
            ]
        },
        {
            "positions": [
                -2.053300890011175,
                -1.066515879094355,
                0.5385668785809197,
                -0.48651932372985035,
                0.37853824550230397,
                1.95123238472469
            ]
        },
        {
            "positions": [
                -1.9517800993334535,
                -1.1003569963870592,
                0.5241697561662562,
                -0.5266891733888194,
                0.35877890099837384,
                1.7774261452553903
            ]
        },
        {
            "positions": [
                -1.8502593086557317,
                -1.1341981136797632,
                0.5097726337515927,
                -0.5668590230477883,
                0.3390195564944438,
                1.603619905786091
            ]
        },
        {
            "positions": [
                -1.74873851797801,
                -1.1680392309724674,
                0.4953755113369292,
                -0.6070288727067574,
                0.3192602119905137,
                1.4298136663167913
            ]
        },
        {
            "positions": [
                -1.6472177273002881,
                -1.2018803482651716,
                0.4809783889222657,
                -0.6471987223657265,
                0.29950086748658356,
                1.2560074268474914
            ]
        },
        {
            "positions": [
                -1.5456969366225664,
                -1.2357214655578757,
                0.46658126650760223,
                -0.6873685720246956,
                0.2797415229826535,
                1.082201187378192
            ]
        },
        {
            "positions": [
                -1.4441761459448446,
                -1.2695625828505799,
                0.4521841440929387,
                -0.7275384216836647,
                0.25998217847872335,
                0.9083949479088922
            ]
        },
        {
            "positions": [
                -1.342655355267123,
                -1.303403700143284,
                0.4377870216782752,
                -0.7677082713426338,
                0.24022283397479327,
                0.7345887084395928
            ]
        },
        {
            "positions": [
                -1.241134564589401,
                -1.3372448174359883,
                0.4233898992636117,
                -0.8078781210016028,
                0.22046348947086314,
                0.5607824689702929
            ]
        },
        {
            "positions": [
                -1.1396137739116794,
                -1.3710859347286926,
                0.40899277684894825,
                -0.8480479706605717,
                0.20070414496693306,
                0.38697622950099353
            ]
        },
        {
            "positions": [
                -1.0380929832339576,
                -1.4049270520213966,
                0.39459565443428474,
                -0.8882178203195408,
                0.18094480046300299,
                0.21316999003169412
            ]
        },
        {
            "positions": [
                -0.9365721925562358,
                -1.4387681693141006,
                0.3801985320196212,
                -0.9283876699785099,
                0.1611854559590729,
                0.03936375056239472
            ]
        },
        {
            "positions": [
                -0.835051401878514,
                -1.4726092866068048,
                0.3658014096049577,
                -0.9685575196374789,
                0.14142611145514278,
                -0.13444248890690513
            ]
        },
        {
            "positions": [
                -0.7335306112007922,
                -1.506450403899509,
                0.35140428719029426,
                -1.008727369296448,
                0.1216667669512127,
                -0.30824872837620454
            ]
        },
        {
            "positions": [
                -0.6320098205230706,
                -1.5402915211922132,
                0.33700716477563075,
                -1.048897218955417,
                0.10190742244728258,
                -0.4820549678455042
            ]
        },
        {
            "positions": [
                -0.47761224815119685,
                -1.528663796651974,
                0.35224846937918963,
                -1.1248380354972547,
                -0.02828472021209101,
                -0.48201454823444945
            ]
        },
        {
            "positions": [
                -0.3232146757793231,
                -1.517036072111735,
                0.36748977398274857,
                -1.2007788520390925,
                -0.15847686287146462,
                -0.4819741286233947
            ]
        },
        {
            "positions": [
                -0.16881710340744943,
                -1.505408347571496,
                0.38273107858630745,
                -1.2767196685809301,
                -0.28866900553083813,
                -0.48193370901233995
            ]
        },
        {
            "positions": [
                -0.014419531035575583,
                -1.493780623031257,
                0.3979723831898664,
                -1.3526604851227677,
                -0.4188611481902118,
                -0.4818932894012852
            ]
        },
        {
            "positions": [
                0.1399780413362981,
                -1.4821528984910177,
                0.41321368779342527,
                -1.4286013016646053,
                -0.5490532908495853,
                -0.48185286979023045
            ]
        },
        {
            "positions": [
                0.2943756137081718,
                -1.4705251739507788,
                0.42845499239698415,
                -1.5045421182064431,
                -0.6792454335089588,
                -0.4818124501791757
            ]
        },
        {
            "positions": [
                0.44877318608004546,
                -1.4588974494105398,
                0.4436962970005431,
                -1.5804829347482807,
                -0.8094375761683325,
                -0.4817720305681209
            ]
        },
        {
            "positions": [
                0.6031707584519195,
                -1.4472697248703006,
                0.45893760160410196,
                -1.6564237512901183,
                -0.9396297188277062,
                -0.4817316109570662
            ]
        },
        {
            "positions": [
                0.757568330823793,
                -1.4356420003300614,
                0.4741789062076609,
                -1.7323645678319561,
                -1.0698218614870796,
                -0.4816911913460114
            ]
        },
        {
            "positions": [
                0.9119659031956668,
                -1.4240142757898224,
                0.4894202108112198,
                -1.8083053843737937,
                -1.200014004146453,
                -0.48165077173495663
            ]
        },
        {
            "positions": [
                1.0663634755675406,
                -1.4123865512495835,
                0.5046615154147787,
                -1.8842462009156313,
                -1.3302061468058268,
                -0.4816103521239019
            ]
        },
        {
            "positions": [
                1.2207610479394142,
                -1.4007588267093443,
                0.5199028200183375,
                -1.9601870174574691,
                -1.4603982894652001,
                -0.48156993251284713
            ]
        },
        {
            "positions": [
                1.3751586203112882,
                -1.389131102169105,
                0.5351441246218965,
                -2.0361278339993065,
                -1.5905904321245738,
                -0.4815295129017924
            ]
        },
        {
            "positions": [
                1.5295561926831616,
                -1.377503377628866,
                0.5503854292254554,
                -2.1120686505411443,
                -1.7207825747839474,
                -0.48148909329073764
            ]
        },
        {
            "positions": [
                1.6839537650550354,
                -1.3658756530886271,
                0.5656267338290143,
                -2.188009467082982,
                -1.850974717443321,
                -0.48144867367968286
            ]
        },
        {
            "positions": [
                1.8383513374269096,
                -1.354247928548388,
                0.5808680384325732,
                -2.26395028362482,
                -1.9811668601026948,
                -0.48140825406862814
            ]
        },
        {
            "positions": [
                1.992748909798783,
                -1.3426202040081487,
                0.5961093430361322,
                -2.3398911001666574,
                -2.111359002762068,
                -0.48136783445757336
            ]
        },
        {
            "positions": [
                2.1471464821706565,
                -1.3309924794679098,
                0.611350647639691,
                -2.415831916708495,
                -2.241551145421442,
                -0.4813274148465186
            ]
        },
        {
            "positions": [
                2.3015440545425303,
                -1.3193647549276708,
                0.6265919522432499,
                -2.4917727332503325,
                -2.371743288080815,
                -0.48128699523546387
            ]
        },
        {
            "positions": [
                2.455941626914404,
                -1.3077370303874316,
                0.6418332568468088,
                -2.5677135497921704,
                -2.501935430740189,
                -0.4812465756244091
            ]
        },
        {
            "positions": [
                2.3649014967940625,
                -1.3229478365111014,
                0.5384705869221595,
                -2.5555648504129906,
                -2.421724372472977,
                -0.5716358249050746
            ]
        },
        {
            "positions": [
                2.273861366673721,
                -1.3381586426347711,
                0.4351079169975103,
                -2.543416151033811,
                -2.3415133142057654,
                -0.66202507418574
            ]
        },
        {
            "positions": [
                2.182821236553379,
                -1.353369448758441,
                0.33174524707286107,
                -2.531267451654631,
                -2.261302255938553,
                -0.7524143234664054
            ]
        },
        {
            "positions": [
                2.091781106433037,
                -1.3685802548821107,
                0.2283825771482118,
                -2.5191187522754515,
                -2.1810911976713414,
                -0.8428035727470709
            ]
        },
        {
            "positions": [
                2.0007409763126955,
                -1.3837910610057804,
                0.1250199072235625,
                -2.5069700528962717,
                -2.1008801394041297,
                -0.9331928220277363
            ]
        },
        {
            "positions": [
                1.9097008461923537,
                -1.39900186712945,
                0.021657237298913334,
                -2.494821353517092,
                -2.020669081136918,
                -1.0235820713084016
            ]
        },
        {
            "positions": [
                1.8186607160720119,
                -1.4142126732531197,
                -0.08170543262573593,
                -2.4826726541379123,
                -1.940458022869706,
                -1.1139713205890671
            ]
        },
        {
            "positions": [
                1.7276205859516702,
                -1.4294234793767895,
                -0.1850681025503852,
                -2.4705239547587325,
                -1.860246964602494,
                -1.2043605698697326
            ]
        },
        {
            "positions": [
                1.6365804558313286,
                -1.4446342855004592,
                -0.28843077247503446,
                -2.458375255379553,
                -1.7800359063352822,
                -1.294749819150398
            ]
        },
        {
            "positions": [
                1.5455403257109868,
                -1.459845091624129,
                -0.39179344239968383,
                -2.446226556000373,
                -1.6998248480680704,
                -1.3851390684310636
            ]
        },
        {
            "positions": [
                1.4545001955906451,
                -1.4750558977477988,
                -0.4951561123243329,
                -2.4340778566211934,
                -1.6196137898008587,
                -1.475528317711729
            ]
        },
        {
            "positions": [
                1.3634600654703033,
                -1.4902667038714685,
                -0.5985187822489821,
                -2.4219291572420136,
                -1.5394027315336467,
                -1.5659175669923944
            ]
        },
        {
            "positions": [
                1.2724199353499617,
                -1.5054775099951383,
                -0.7018814521736314,
                -2.409780457862834,
                -1.459191673266435,
                -1.6563068162730599
            ]
        },
        {
            "positions": [
                1.1813798052296198,
                -1.520688316118808,
                -0.8052441220982807,
                -2.397631758483654,
                -1.378980614999223,
                -1.7466960655537254
            ]
        },
        {
            "positions": [
                1.090339675109278,
                -1.5358991222424776,
                -0.9086067920229299,
                -2.385483059104474,
                -1.298769556732011,
                -1.8370853148343909
            ]
        },
        {
            "positions": [
                0.9992995449889364,
                -1.5511099283661474,
                -1.0119694619475792,
                -2.3733343597252943,
                -1.2185584984647992,
                -1.9274745641150564
            ]
        },
        {
            "positions": [
                0.9082594148685947,
                -1.5663207344898171,
                -1.1153321318722282,
                -2.3611856603461145,
                -1.1383474401975875,
                -2.0178638133957216
            ]
        },
        {
            "positions": [
                0.8172192847482529,
                -1.5815315406134869,
                -1.2186948017968777,
                -2.349036960966935,
                -1.0581363819303755,
                -2.108253062676387
            ]
        },
        {
            "positions": [
                0.7261791546279113,
                -1.5967423467371566,
                -1.3220574717215268,
                -2.336888261587755,
                -0.9779253236631638,
                -2.1986423119570526
            ]
        },
        {
            "positions": [
                0.6351390245075694,
                -1.6119531528608264,
                -1.4254201416461765,
                -2.3247395622085754,
                -0.8977142653959518,
                -2.289031561237718
            ]
        },
        {
            "positions": [
                0.5440988943872278,
                -1.6271639589844962,
                -1.5287828115708253,
                -2.3125908628293956,
                -0.81750320712874,
                -2.3794208105183836
            ]
        },
        {
            "positions": [
                0.4530587642668862,
                -1.642374765108166,
                -1.6321454814954746,
                -2.300442163450216,
                -0.7372921488615283,
                -2.469810059799049
            ]
        },
        {
            "positions": [
                0.3620186341465441,
                -1.6575855712318357,
                -1.7355081514201238,
                -2.288293464071036,
                -0.6570810905943163,
                -2.5601993090797146
            ]
        },
        {
            "positions": [
                0.2709785040262025,
                -1.6727963773555055,
                -1.838870821344773,
                -2.2761447646918564,
                -0.5768700323271045,
                -2.6505885583603797
            ]
        },
        {
            "positions": [
                0.17993837390586087,
                -1.688007183479175,
                -1.9422334912694224,
                -2.2639960653126767,
                -0.4966589740598928,
                -2.740977807641045
            ]
        },
        {
            "positions": [
                0.08889824378551925,
                -1.7032179896028448,
                -2.0455961611940716,
                -2.251847365933497,
                -0.41644791579268103,
                -2.8313670569217106
            ]
        },
        {
            "positions": [
                -0.0021418863348223738,
                -1.7184287957265145,
                -2.148958831118721,
                -2.2396986665543173,
                -0.3362368575254693,
                -2.921756306202376
            ]
        },
        {
            "positions": [
                -0.09318201645516444,
                -1.7336396018501843,
                -2.25232150104337,
                -2.2275499671751375,
                -0.2560257992582571,
                -3.0121455554830416
            ]
        },
        {
            "positions": [
                -0.1842221465755061,
                -1.748850407973854,
                -2.3556841709680194,
                -2.215401267795958,
                -0.17581474099104533,
                -3.102534804763707
            ]
        }
    ]
}