{
    "goal": {
        "global_pose": {
            "orientation": {
                "w": 0.5084816217422485,
                "x": -0.49083608388900757,
                "y": 0.5182115435600281,
                "z": -0.4816462993621826
            },
            "position": {
                "x": 0.5540239810943604,
                "y": 0.030875300988554955,
                "z": 0.16403168439865112
            }
        },
        "name": "move_to_storage_A"
    },
    "id": "KPIECE_move_to_storage_A_37",
    "joint_names": [
        "shoulder_pan_joint",
        "shoulder_lift_joint",
        "elbow_joint",
        "wrist_1_joint",
        "wrist_2_joint",
        "wrist_3_joint"
    ],
    "metrics": {
        "cart_traj_len": 0.3526760553358884,
        "distance_elbow_joint": 0.44832885013657964,
        "distance_shoulder_lift_joint": 0.2357983008058222,
        "distance_shoulder_pan_joint": 0.4584068477057447,
        "distance_wrist_1_joint": 0.23339177275226541,
        "distance_wrist_2_joint": 1.1105729377130342,
        "distance_wrist_3_joint": 0.096624685805895,
        "smoothness": 4.440892098500626e-16,
        "time": 0.08726319299999999,
        "traj_len": 1.6072098167069977,
        "weighted_distance": 2.029861442807472
    },
    "planner": "KPIECE",
    "start": {
        "state": {
            "elbow_joint": 1.971548880431181,
            "shoulder_lift_joint": -1.1394869514688781,
            "shoulder_pan_joint": 0.12281150262730567,
            "wrist_1_joint": -0.7804693444481463,
            "wrist_2_joint": 0.12958644648617612,
            "wrist_3_joint": 3.0906942077768043
        }
    },
    "waypoints": [
        {
            "positions": [
                0.12281150262730567,
                -1.1394869514688781,
                1.971548880431181,
                -0.7804693444481463,
                0.12958644648617612,
                3.0906942077768043
            ]
        },
        {
            "positions": [
                0.05732481009791357,
                -1.173172423012567,
                2.035595859022121,
                -0.8138110262698985,
                0.28823972330232384,
                3.1044977343205034
            ]
        },
        {
            "positions": [
                -0.008161882431478529,
                -1.2068578945562558,
                2.099642837613061,
                -0.8471527080916507,
                0.4468930001184716,
                3.118301260864203
            ]
        },
        {
            "positions": [
                -0.07364857496087063,
                -1.2405433660999448,
                2.1636898162040006,
                -0.8804943899134029,
                0.6055462769346194,
                3.132104787407902
            ]
        },
        {
            "positions": [
                -0.13913526749026273,
                -1.2742288376436337,
                2.2277367947949407,
                -0.9138360717351551,
                0.7641995537507671,
                3.1459083139516015
            ]
        },
        {
            "positions": [
                -0.20462196001965482,
                -1.3079143091873227,
                2.291783773385881,
                -0.9471777535569073,
                0.9228528305669149,
                3.1597118404953006
            ]
        },
        {
            "positions": [
                -0.2701086525490469,
                -1.3415997807310114,
                2.3558307519768205,
                -0.9805194353786595,
                1.0815061073830625,
                3.173515367039
            ]
        },
        {
            "positions": [
                -0.335595345078439,
                -1.3752852522747003,
                2.4198777305677606,
                -1.0138611172004117,
                1.2401593841992102,
                3.1873188935826993
            ]
        }
    ]
}