{
    "goal": {
        "global_pose": {
            "orientation": {
                "w": 0.005598929693374612,
                "x": 0.007748599140229565,
                "y": 0.7110244013736278,
                "z": -0.7031023480610252
            },
            "position": {
                "x": -0.8858502320852131,
                "y": -0.7141253447532654,
                "z": 0.3711530566215515
            }
        },
        "name": "move_to_auspresseinheit_C"
    },
    "id": "KPIECE_move_to_auspresseinheit_C_120",
    "joint_names": [
        "shoulder_pan_joint",
        "shoulder_lift_joint",
        "elbow_joint",
        "wrist_1_joint",
        "wrist_2_joint",
        "wrist_3_joint"
    ],
    "metrics": {
        "cart_traj_len": 0.4936348062493497,
        "distance_elbow_joint": 1.0110554354462091,
        "distance_shoulder_lift_joint": 0.3301292530884101,
        "distance_shoulder_pan_joint": 0.25584294092180304,
        "distance_wrist_1_joint": 0.6984395685980115,
        "distance_wrist_2_joint": 1.3168758800516782,
        "distance_wrist_3_joint": 0.07943115384414057,
        "smoothness": 1.130408897695056e-15,
        "time": 0.236947518,
        "traj_len": 1.9213990298608596,
        "weighted_distance": 2.421972747222442
    },
    "planner": "KPIECE",
    "start": {
        "state": {
            "elbow_joint": 1.7527959577730765,
            "shoulder_lift_joint": -0.9740617694224828,
            "shoulder_pan_joint": -2.967991417825869,
            "wrist_1_joint": -0.7595177689779385,
            "wrist_2_joint": 1.7443932448376545,
            "wrist_3_joint": 3.1991315425061013
        }
    },
    "waypoints": [
        {
            "positions": [
                -2.967991417825869,
                -0.9740617694224828,
                1.7527959577730765,
                -0.7595177689779385,
                1.7443932448376545,
                3.1991315425061013
            ]
        },
        {
            "positions": [
                -2.942407123733689,
                -0.9410488441136418,
                1.6516904142284556,
                -0.6896738121181374,
                1.6127056568324867,
                3.1911884271216873
            ]
        },
        {
            "positions": [
                -2.9168228296415086,
                -0.9080359188048007,
                1.5505848706838345,
                -0.6198298552583362,
                1.4810180688273187,
                3.183245311737273
            ]
        },
        {
            "positions": [
                -2.891238535549328,
                -0.8750229934959598,
                1.4494793271392137,
                -0.5499858983985351,
                1.3493304808221511,
                3.175302196352859
            ]
        },
        {
            "positions": [
                -2.8656542414571478,
                -0.8420100681871188,
                1.3483737835945928,
                -0.48014194153873396,
                1.2176428928169831,
                3.167359080968445
            ]
        },
        {
            "positions": [
                -2.8400699473649675,
                -0.8089971428782777,
                1.247268240049972,
                -0.4102979846789328,
                1.0859553048118153,
                3.159415965584031
            ]
        },
        {
            "positions": [
                -2.8144856532727873,
                -0.7759842175694367,
                1.146162696505351,
                -0.34045402781913164,
                0.9542677168066476,
                3.151472850199617
            ]
        },
        {
            "positions": [
                -2.788901359180607,
                -0.7429712922605958,
                1.0450571529607302,
                -0.27061007095933054,
                0.8225801288014798,
                3.143529734815203
            ]
        },
        {
            "positions": [
                -2.7633170650884264,
                -0.7099583669517546,
                0.9439516094161091,
                -0.20076611409952938,
                0.6908925407963118,
                3.135586619430789
            ]
        },
        {
            "positions": [
                -2.7377327709962462,
                -0.6769454416429137,
                0.8428460658714882,
                -0.13092215723972822,
                0.559204952791144,
                3.127643504046375
            ]
        },
        {
            "positions": [
                -2.712148476904066,
                -0.6439325163340727,
                0.7417405223268675,
                -0.061078200379927026,
                0.4275173647859762,
                3.1197003886619608
            ]
        }
    ]
}