{
    "goal": {
        "global_pose": {
            "orientation": {
                "w": 0.7031023480610252,
                "x": -0.7110244013736278,
                "y": 0.0077485991402295624,
                "z": 0.005598929693374583
            },
            "position": {
                "x": -0.8841497679147869,
                "y": 0.44412534475326537,
                "z": 0.3711530566215515
            }
        },
        "name": "move_to_auspresseinheit_D"
    },
    "id": "KPIECE_move_to_auspresseinheit_D_83",
    "joint_names": [
        "shoulder_pan_joint",
        "shoulder_lift_joint",
        "elbow_joint",
        "wrist_1_joint",
        "wrist_2_joint",
        "wrist_3_joint"
    ],
    "metrics": {
        "cart_traj_len": 0.34322691508813463,
        "distance_elbow_joint": 0.6281636340114158,
        "distance_shoulder_lift_joint": 0.11512658152619126,
        "distance_shoulder_pan_joint": 0.1344112904232008,
        "distance_wrist_1_joint": 0.5007777850907909,
        "distance_wrist_2_joint": 1.4320842343755984,
        "distance_wrist_3_joint": 0.03187003225511553,
        "smoothness": 9.868649123407766e-16,
        "time": 0.055667695999999996,
        "traj_len": 1.6859518254334294,
        "weighted_distance": 2.199780816731279
    },
    "planner": "KPIECE",
    "start": {
        "state": {
            "elbow_joint": -1.8275484843655228,
            "shoulder_lift_joint": -2.1267897864000416,
            "shoulder_pan_joint": -0.035127520176001514,
            "wrist_1_joint": -2.3477863256791385,
            "wrist_2_joint": -1.605890476484521,
            "wrist_3_joint": -3.0880375317375353
        }
    },
    "waypoints": [
        {
            "positions": [
                -0.035127520176001514,
                -2.1267897864000416,
                -1.8275484843655228,
                -2.3477863256791385,
                -1.605890476484521,
                -3.0880375317375353
            ]
        },
        {
            "positions": [
                -0.05192893147890161,
                -2.1411806090908154,
                -1.7490280301140957,
                -2.410383548815487,
                -1.4268799471875713,
                -3.092021285769425
            ]
        },
        {
            "positions": [
                -0.0687303427818017,
                -2.1555714317815893,
                -1.6705075758626688,
                -2.4729807719518364,
                -1.2478694178906213,
                -3.096005039801314
            ]
        },
        {
            "positions": [
                -0.08553175408470182,
                -2.169962254472363,
                -1.5919871216112418,
                -2.535577995088185,
                -1.0688588885936716,
                -3.0999887938332034
            ]
        },
        {
            "positions": [
                -0.10233316538760191,
                -2.184353077163137,
                -1.5134666673598147,
                -2.598175218224534,
                -0.8898483592967218,
                -3.103972547865093
            ]
        },
        {
            "positions": [
                -0.11913457669050201,
                -2.1987438998539113,
                -1.4349462131083879,
                -2.6607724413608826,
                -0.710837829999772,
                -3.1079563018969827
            ]
        },
        {
            "positions": [
                -0.13593598799340212,
                -2.213134722544685,
                -1.3564257588569608,
                -2.7233696644972314,
                -0.5318273007028222,
                -3.111940055928872
            ]
        },
        {
            "positions": [
                -0.1527373992963022,
                -2.227525545235459,
                -1.2779053046055338,
                -2.7859668876335806,
                -0.3528167714058723,
                -3.115923809960761
            ]
        },
        {
            "positions": [
                -0.1695388105992023,
                -2.241916367926233,
                -1.199384850354107,
                -2.8485641107699293,
                -0.17380624210892254,
                -3.119907563992651
            ]
        }
    ]
}