{
    "goal": {
        "global_pose": {
            "orientation": {
                "w": -0.4816463035849501,
                "x": 0.5182115481033762,
                "y": 0.4908360881923453,
                "z": -0.5084816262002911
            },
            "position": {
                "x": -0.8240239810943604,
                "y": 0.19912469901144506,
                "z": 0.16403168439865112
            }
        },
        "name": "move_to_storage_D"
    },
    "id": "KPIECE_move_to_storage_D_143",
    "joint_names": [
        "shoulder_pan_joint",
        "shoulder_lift_joint",
        "elbow_joint",
        "wrist_1_joint",
        "wrist_2_joint",
        "wrist_3_joint"
    ],
    "metrics": {
        "cart_traj_len": 4.17311001727266,
        "distance_elbow_joint": 4.212498927104482,
        "distance_shoulder_lift_joint": 1.2651118148247462,
        "distance_shoulder_pan_joint": 2.8123086143354543,
        "distance_wrist_1_joint": 2.277825577134276,
        "distance_wrist_2_joint": 1.5560672459605376,
        "distance_wrist_3_joint": 3.14066877236235,
        "smoothness": 0.07203994287627838,
        "time": 0.05147841,
        "traj_len": 3.9069784938903673,
        "weighted_distance": 5.037828035923949
    },
    "planner": "KPIECE",
    "start": {
        "state": {
            "elbow_joint": -2.384821990628643,
            "shoulder_lift_joint": -2.278805467437664,
            "shoulder_pan_joint": -0.18546946439364564,
            "wrist_1_joint": 1.4845938187801415,
            "wrist_2_joint": 0.178987772454074,
            "wrist_3_joint": 0.03710569632802521
        }
    },
    "waypoints": [
        {
            "positions": [
                -0.18546946439364564,
                -2.278805467437664,
                -2.384821990628643,
                1.4845938187801415,
                0.178987772454074,
                0.03710569632802521
            ]
        },
        {
            "positions": [
                -0.06470204812813098,
                -2.2370312014934512,
                -2.3650892979100506,
                1.3485443250974924,
                0.14459576674142277,
                0.06495593502264202
            ]
        },
        {
            "positions": [
                0.05606536813738369,
                -2.195256935549238,
                -2.345356605191458,
                1.2124948314148432,
                0.11020376102877155,
                0.09280617371725884
            ]
        },
        {
            "positions": [
                0.17683278440289835,
                -2.1534826696050255,
                -2.325623912472865,
                1.076445337732194,
                0.07581175531612033,
                0.12065641241187565
            ]
        },
        {
            "positions": [
                0.29760020066841303,
                -2.1117084036608125,
                -2.3058912197542725,
                0.9403958440495449,
                0.041419749603469114,
                0.14850665110649247
            ]
        },
        {
            "positions": [
                0.41836761693392766,
                -2.0699341377166,
                -2.28615852703568,
                0.8043463503668957,
                0.007027743890817895,
                0.17635688980110928
            ]
        },
        {
            "positions": [
                0.5391350331994423,
                -2.028159871772387,
                -2.2664258343170873,
                0.6682968566842465,
                -0.027364261821833324,
                0.2042071284957261
            ]
        },
        {
            "positions": [
                0.6599024494649569,
                -1.9863856058281741,
                -2.2466931415984948,
                0.5322473630015975,
                -0.061756267534484516,
                0.2320573671903429
            ]
        },
        {
            "positions": [
                0.7806698657304717,
                -1.9446113398839615,
                -2.2269604488799017,
                0.3961978693189483,
                -0.09614827324713576,
                0.25990760588495976
            ]
        },
        {
            "positions": [
                0.9014372819959864,
                -1.9028370739397487,
                -2.207227756161309,
                0.260148375636299,
                -0.13054027895978698,
                0.28775784457957654
            ]
        },
        {
            "positions": [
                1.022204698261501,
                -1.8610628079955358,
                -2.1874950634427166,
                0.12409888195364982,
                -0.16493228467243823,
                0.3156080832741933
            ]
        },
        {
            "positions": [
                1.0775369207332357,
                -1.8318431819478593,
                -2.0490408565489733,
                0.0924667909085538,
                -0.12313410574712702,
                0.4143034758747513
            ]
        },
        {
            "positions": [
                1.1328691432049705,
                -1.8026235559001829,
                -1.91058664965523,
                0.06083469986345777,
                -0.08133592682181581,
                0.5129988684753093
            ]
        },
        {
            "positions": [
                1.1882013656767052,
                -1.7734039298525064,
                -1.7721324427614866,
                0.029202608818361744,
                -0.039537747896504605,
                0.6116942610758673
            ]
        },
        {
            "positions": [
                1.24353358814844,
                -1.74418430380483,
                -1.6336782358677433,
                -0.002429482226734281,
                0.002260431028806603,
                0.7103896536764251
            ]
        },
        {
            "positions": [
                1.2988658106201747,
                -1.7149646777571534,
                -1.495224028974,
                -0.03406157327183032,
                0.04405860995411781,
                0.8090850462769832
            ]
        },
        {
            "positions": [
                1.3541980330919094,
                -1.685745051709477,
                -1.3567698220802569,
                -0.06569366431692633,
                0.08585678887942902,
                0.9077804388775412
            ]
        },
        {
            "positions": [
                1.4095302555636442,
                -1.6565254256618003,
                -1.2183156151865135,
                -0.09732575536202237,
                0.1276549678047402,
                1.0064758314780993
            ]
        },
        {
            "positions": [
                1.464862478035379,
                -1.627305799614124,
                -1.0798614082927702,
                -0.12895784640711838,
                0.16945314673005143,
                1.105171224078657
            ]
        },
        {
            "positions": [
                1.5201947005071137,
                -1.5980861735664473,
                -0.9414072013990269,
                -0.16058993745221445,
                0.21125132565536262,
                1.2038666166792151
            ]
        },
        {
            "positions": [
                1.5755269229788484,
                -1.5688665475187709,
                -0.8029529945052836,
                -0.19222202849731046,
                0.2530495045806739,
                1.3025620092797732
            ]
        },
        {
            "positions": [
                1.630859145450583,
                -1.5396469214710944,
                -0.6644987876115405,
                -0.22385411954240647,
                0.294847683505985,
                1.401257401880331
            ]
        },
        {
            "positions": [
                1.6861913679223177,
                -1.510427295423418,
                -0.5260445807177971,
                -0.2554862105875025,
                0.33664586243129624,
                1.499952794480889
            ]
        },
        {
            "positions": [
                1.7415235903940525,
                -1.4812076693757414,
                -0.3875903738240538,
                -0.28711830163259855,
                0.37844404135660736,
                1.598648187081447
            ]
        },
        {
            "positions": [
                1.7968558128657872,
                -1.451988043328065,
                -0.2491361669303105,
                -0.31875039267769456,
                0.4202422202819186,
                1.697343579682005
            ]
        },
        {
            "positions": [
                1.852188035337522,
                -1.4227684172803885,
                -0.11068196003656716,
                -0.3503824837227906,
                0.46204039920722983,
                1.7960389722825632
            ]
        },
        {
            "positions": [
                1.9075202578092567,
                -1.393548791232712,
                0.027772246857176164,
                -0.3820145747678866,
                0.5038385781325411,
                1.8947343648831207
            ]
        },
        {
            "positions": [
                1.9628524802809912,
                -1.3643291651850356,
                0.16622645375091905,
                -0.4136466658129826,
                0.5456367570578522,
                1.9934297574836788
            ]
        },
        {
            "positions": [
                2.018184702752726,
                -1.3351095391373589,
                0.3046806606446628,
                -0.4452787568580787,
                0.5874349359831634,
                2.092125150084237
            ]
        },
        {
            "positions": [
                2.073516925224461,
                -1.3058899130896826,
                0.4431348675384057,
                -0.4769108479031746,
                0.6292331149084747,
                2.190820542684795
            ]
        },
        {
            "positions": [
                2.1288491476961955,
                -1.276670287042006,
                0.5815890744321495,
                -0.5085429389482707,
                0.6710312938337859,
                2.289515935285353
            ]
        },
        {
            "positions": [
                2.1841813701679307,
                -1.2474506609943297,
                0.7200432813258928,
                -0.5401750299933668,
                0.712829472759097,
                2.388211327885911
            ]
        },
        {
            "positions": [
                2.239513592639665,
                -1.218231034946653,
                0.8584974882196357,
                -0.5718071210384628,
                0.7546276516844083,
                2.486906720486469
            ]
        },
        {
            "positions": [
                2.2948458151114,
                -1.1890114088989767,
                0.9969516951133794,
                -0.6034392120835588,
                0.7964258306097195,
                2.585602113087027
            ]
        },
        {
            "positions": [
                2.3501780375831345,
                -1.1597917828513,
                1.1354059020071223,
                -0.6350713031286548,
                0.8382240095350307,
                2.684297505687585
            ]
        },
        {
            "positions": [
                2.4055102600548692,
                -1.1305721568036238,
                1.2738601089008657,
                -0.6667033941737508,
                0.8800221884603417,
                2.7829928982881427
            ]
        },
        {
            "positions": [
                2.460842482526604,
                -1.101352530755947,
                1.412314315794609,
                -0.6983354852188469,
                0.921820367385653,
                2.881688290888701
            ]
        },
        {
            "positions": [
                2.5161747049983387,
                -1.0721329047082706,
                1.5507685226883523,
                -0.7299675762639429,
                0.9636185463109642,
                2.9803836834892588
            ]
        },
        {
            "positions": [
                2.5715069274700735,
                -1.0429132786605941,
                1.6892227295820956,
                -0.7615996673090389,
                1.0054167252362756,
                3.079079076089817
            ]
        },
        {
            "positions": [
                2.6268391499418082,
                -1.0136936526129177,
                1.8276769364758392,
                -0.793231758354135,
                1.0472149041615868,
                3.177774468690375
            ]
        }
    ]
}