{
    "goal": {
        "global_pose": {
            "orientation": {
                "w": 0.005598929693374612,
                "x": 0.007748599140229565,
                "y": 0.7110244013736278,
                "z": -0.7031023480610252
            },
            "position": {
                "x": -0.8858502320852131,
                "y": -0.7141253447532654,
                "z": 0.3711530566215515
            }
        },
        "name": "move_to_auspresseinheit_C"
    },
    "id": "KPIECE_move_to_auspresseinheit_C_98",
    "joint_names": [
        "shoulder_pan_joint",
        "shoulder_lift_joint",
        "elbow_joint",
        "wrist_1_joint",
        "wrist_2_joint",
        "wrist_3_joint"
    ],
    "metrics": {
        "cart_traj_len": 0.49444056193888464,
        "distance_elbow_joint": 1.0105623489280724,
        "distance_shoulder_lift_joint": 0.32933871523761793,
        "distance_shoulder_pan_joint": 0.25690529642604654,
        "distance_wrist_1_joint": 0.6993541529129068,
        "distance_wrist_2_joint": 1.3040149834251147,
        "distance_wrist_3_joint": 0.07466162840812096,
        "smoothness": 1.6148698667872622e-16,
        "time": 0.253167594,
        "traj_len": 1.9169864697847712,
        "weighted_distance": 2.414027654873105
    },
    "planner": "KPIECE",
    "start": {
        "state": {
            "elbow_joint": 1.7527959577730765,
            "shoulder_lift_joint": -0.9740617694224828,
            "shoulder_pan_joint": -2.967991417825869,
            "wrist_1_joint": -0.7595177689779385,
            "wrist_2_joint": 1.7443932448376545,
            "wrist_3_joint": 3.1991315425061013
        }
    },
    "waypoints": [
        {
            "positions": [
                -2.967991417825869,
                -0.9740617694224828,
                1.7527959577730765,
                -0.7595177689779385,
                1.7443932448376545,
                3.1991315425061013
            ]
        },
        {
            "positions": [
                -2.942300888183264,
                -0.941127897898721,
                1.6517397228802693,
                -0.6895823536866479,
                1.613991746495143,
                3.1916653796652894
            ]
        },
        {
            "positions": [
                -2.9166103585406598,
                -0.9081940263749592,
                1.550683487987462,
                -0.6196469383953571,
                1.4835902481526315,
                3.184199216824477
            ]
        },
        {
            "positions": [
                -2.8909198288980553,
                -0.8752601548511975,
                1.4496272530946548,
                -0.5497115231040666,
                1.35318874981012,
                3.176733053983665
            ]
        },
        {
            "positions": [
                -2.8652292992554504,
                -0.8423262833274356,
                1.3485710182018475,
                -0.4797761078127758,
                1.2227872514676086,
                3.1692668911428528
            ]
        },
        {
            "positions": [
                -2.8395387696128456,
                -0.8093924118036738,
                1.2475147833090403,
                -0.40984069252148514,
                1.0923857531250971,
                3.161800728302041
            ]
        },
        {
            "positions": [
                -2.813848239970241,
                -0.776458540279912,
                1.146458548416233,
                -0.3399052772301945,
                0.9619842547825856,
                3.154334565461229
            ]
        },
        {
            "positions": [
                -2.7881577103276367,
                -0.7435246687561503,
                1.0454023135234258,
                -0.2699698619389038,
                0.8315827564400743,
                3.1468684026204166
            ]
        },
        {
            "positions": [
                -2.762467180685032,
                -0.7105907972323884,
                0.9443460786306186,
                -0.20003444664761305,
                0.7011812580975627,
                3.1394022397796046
            ]
        },
        {
            "positions": [
                -2.736776651042427,
                -0.6776569257086267,
                0.8432898437378114,
                -0.1300990313563224,
                0.5707797597550512,
                3.1319360769387923
            ]
        },
        {
            "positions": [
                -2.7110861213998225,
                -0.6447230541848649,
                0.7422336088450041,
                -0.0601636160650317,
                0.4403782614125397,
                3.1244699140979804
            ]
        }
    ]
}