{
    "goal": {
        "global_pose": {
            "orientation": {
                "w": -0.00223480608172531,
                "x": 0.0024358444001904467,
                "y": 0.7094548369677653,
                "z": -0.704743149386269
            },
            "position": {
                "x": 0.6205249238014221,
                "y": -0.6371506643295288,
                "z": 0.19426114857196808
            }
        },
        "name": "move_to_magneteinheit_B"
    },
    "id": "KPIECE_move_to_magneteinheit_B_137",
    "joint_names": [
        "shoulder_pan_joint",
        "shoulder_lift_joint",
        "elbow_joint",
        "wrist_1_joint",
        "wrist_2_joint",
        "wrist_3_joint"
    ],
    "metrics": {
        "cart_traj_len": 1.4531910932225172,
        "distance_elbow_joint": 0.7293514776404912,
        "distance_shoulder_lift_joint": 1.2478246214768827,
        "distance_shoulder_pan_joint": 1.6207943098152713,
        "distance_wrist_1_joint": 2.6103269841453502,
        "distance_wrist_2_joint": 2.9426127081939653,
        "distance_wrist_3_joint": 3.150518718975836,
        "smoothness": 4.037174644193617e-16,
        "time": 0.208952286,
        "traj_len": 3.5073392793181264,
        "weighted_distance": 4.914814945706379
    },
    "planner": "KPIECE",
    "start": {
        "state": {
            "elbow_joint": 2.393587130804639,
            "shoulder_lift_joint": -1.9085141043513325,
            "shoulder_pan_joint": 0.7066247066698809,
            "wrist_1_joint": -0.4678290934590222,
            "wrist_2_joint": 0.7096259084215963,
            "wrist_3_joint": 3.147370379541726
        }
    },
    "waypoints": [
        {
            "positions": [
                0.7066247066698809,
                -1.9085141043513325,
                2.393587130804639,
                -0.4678290934590222,
                0.7096259084215963,
                3.147370379541726
            ]
        },
        {
            "positions": [
                0.6559748844881537,
                -1.86951958493018,
                2.3707948971283734,
                -0.38625637520448,
                0.6176692612905349,
                3.0489166695737313
            ]
        },
        {
            "positions": [
                0.6053250623064264,
                -1.8305250655090273,
                2.348002663452108,
                -0.30468365694993776,
                0.5257126141594735,
                2.950462959605736
            ]
        },
        {
            "positions": [
                0.5546752401246992,
                -1.7915305460878748,
                2.3252104297758427,
                -0.22311093869539556,
                0.4337559670284121,
                2.8520092496377414
            ]
        },
        {
            "positions": [
                0.504025417942972,
                -1.7525360266667223,
                2.3024181960995773,
                -0.14153822044085335,
                0.3417993198973507,
                2.7535555396697466
            ]
        },
        {
            "positions": [
                0.45337559576124475,
                -1.7135415072455695,
                2.279625962423312,
                -0.05996550218631114,
                0.24984267276628924,
                2.655101829701752
            ]
        },
        {
            "positions": [
                0.4027257735795175,
                -1.674546987824417,
                2.2568337287470466,
                0.021607216068231072,
                0.1578860256352279,
                2.5566481197337567
            ]
        },
        {
            "positions": [
                0.35207595139779024,
                -1.6355524684032643,
                2.234041495070781,
                0.10317993432277323,
                0.06592937850416647,
                2.458194409765762
            ]
        },
        {
            "positions": [
                0.30142612921606304,
                -1.5965579489821118,
                2.211249261394516,
                0.1847526525773155,
                -0.026027268626894973,
                2.359740699797767
            ]
        },
        {
            "positions": [
                0.25077630703433584,
                -1.5575634295609593,
                2.1884570277182505,
                0.26632537083185776,
                -0.11798391575795641,
                2.261286989829772
            ]
        },
        {
            "positions": [
                0.20012648485260864,
                -1.5185689101398068,
                2.1656647940419855,
                0.3478980890863999,
                -0.20994056288901786,
                2.1628332798617773
            ]
        },
        {
            "positions": [
                0.14947666267088133,
                -1.479574390718654,
                2.1428725603657197,
                0.42947080734094206,
                -0.3018972100200792,
                2.0643795698937826
            ]
        },
        {
            "positions": [
                0.09882684048915413,
                -1.4405798712975015,
                2.120080326689455,
                0.5110435255954844,
                -0.3938538571511405,
                1.9659258599257874
            ]
        },
        {
            "positions": [
                0.04817701830742693,
                -1.4015853518763488,
                2.0972880930131894,
                0.5926162438500266,
                -0.48581050428220207,
                1.8674721499577926
            ]
        },
        {
            "positions": [
                -0.0024728038743003777,
                -1.3625908324551963,
                2.074495859336924,
                0.6741889621045687,
                -0.5777671514132634,
                1.7690184399897977
            ]
        },
        {
            "positions": [
                -0.05312262605602758,
                -1.3235963130340438,
                2.0517036256606587,
                0.755761680359111,
                -0.669723798544325,
                1.670564730021803
            ]
        },
        {
            "positions": [
                -0.10377244823775478,
                -1.2846017936128913,
                2.0289113919843933,
                0.8373343986136532,
                -0.7616804456753863,
                1.572111020053808
            ]
        },
        {
            "positions": [
                -0.15442227041948198,
                -1.2456072741917386,
                2.006119158308128,
                0.9189071168681955,
                -0.8536370928064476,
                1.473657310085813
            ]
        },
        {
            "positions": [
                -0.20507209260120918,
                -1.206612754770586,
                1.9833269246318626,
                1.0004798351227377,
                -0.9455937399375092,
                1.3752036001178183
            ]
        },
        {
            "positions": [
                -0.2557219147829365,
                -1.1676182353494333,
                1.9605346909555972,
                1.0820525533772798,
                -1.0375503870685705,
                1.2767498901498233
            ]
        },
        {
            "positions": [
                -0.3063717369646636,
                -1.1286237159282808,
                1.9377424572793318,
                1.163625271631822,
                -1.129507034199632,
                1.1782961801818286
            ]
        },
        {
            "positions": [
                -0.3570215591463909,
                -1.0896291965071283,
                1.9149502236030664,
                1.2451979898863643,
                -1.2214636813306934,
                1.0798424702138334
            ]
        },
        {
            "positions": [
                -0.4076713813281182,
                -1.0506346770859758,
                1.892157989926801,
                1.3267707081409064,
                -1.3134203284617547,
                0.9813887602458387
            ]
        },
        {
            "positions": [
                -0.4583212035098453,
                -1.011640157664823,
                1.8693657562505357,
                1.4083434263954486,
                -1.405376975592816,
                0.8829350502778439
            ]
        },
        {
            "positions": [
                -0.5089710256915726,
                -0.9726456382436706,
                1.8465735225742703,
                1.489916144649991,
                -1.4973336227238774,
                0.7844813403098487
            ]
        },
        {
            "positions": [
                -0.5596208478732999,
                -0.933651118822518,
                1.823781288898005,
                1.571488862904533,
                -1.5892902698549392,
                0.686027630341854
            ]
        },
        {
            "positions": [
                -0.610270670055027,
                -0.8946565994013653,
                1.8009890552217396,
                1.6530615811590754,
                -1.6812469169860005,
                0.5875739203738592
            ]
        },
        {
            "positions": [
                -0.6609204922367543,
                -0.8556620799802128,
                1.7781968215454742,
                1.7346342994136175,
                -1.7732035641170618,
                0.4891202104058645
            ]
        },
        {
            "positions": [
                -0.7115703144184816,
                -0.8166675605590601,
                1.7554045878692088,
                1.8162070176681595,
                -1.8651602112481231,
                0.3906665004378693
            ]
        },
        {
            "positions": [
                -0.7622201366002087,
                -0.7776730411379076,
                1.7326123541929435,
                1.897779735922702,
                -1.9571168583791845,
                0.2922127904698746
            ]
        },
        {
            "positions": [
                -0.812869958781936,
                -0.7386785217167551,
                1.7098201205166783,
                1.979352454177244,
                -2.049073505510246,
                0.19375908050187984
            ]
        },
        {
            "positions": [
                -0.8635197809636631,
                -0.6996840022956023,
                1.687027886840413,
                2.0609251724317863,
                -2.1410301526413074,
                0.09530537053388466
            ]
        },
        {
            "positions": [
                -0.9141696031453903,
                -0.6606894828744498,
                1.6642356531641476,
                2.1424978906863283,
                -2.2329867997723687,
                -0.003148339434109927
            ]
        }
    ]
}