{
    "goal": {
        "global_pose": {
            "orientation": {
                "w": 0.005598929693374612,
                "x": 0.007748599140229565,
                "y": 0.7110244013736278,
                "z": -0.7031023480610252
            },
            "position": {
                "x": -0.8858502320852131,
                "y": -0.7141253447532654,
                "z": 0.3711530566215515
            }
        },
        "name": "move_to_auspresseinheit_C"
    },
    "id": "KPIECE_move_to_auspresseinheit_C_34",
    "joint_names": [
        "shoulder_pan_joint",
        "shoulder_lift_joint",
        "elbow_joint",
        "wrist_1_joint",
        "wrist_2_joint",
        "wrist_3_joint"
    ],
    "metrics": {
        "cart_traj_len": 0.4939763990792075,
        "distance_elbow_joint": 1.0174444710433617,
        "distance_shoulder_lift_joint": 0.3334981573269721,
        "distance_shoulder_pan_joint": 0.2555672826048614,
        "distance_wrist_1_joint": 0.7072894312730706,
        "distance_wrist_2_joint": 1.3176522161263484,
        "distance_wrist_3_joint": 0.08282116987187127,
        "smoothness": 1.6148698667872622e-16,
        "time": 0.29027089699999997,
        "traj_len": 1.927244854253472,
        "weighted_distance": 2.429991093685252
    },
    "planner": "KPIECE",
    "start": {
        "state": {
            "elbow_joint": 1.7527959577730765,
            "shoulder_lift_joint": -0.9740617694224828,
            "shoulder_pan_joint": -2.967991417825869,
            "wrist_1_joint": -0.7595177689779385,
            "wrist_2_joint": 1.7443932448376545,
            "wrist_3_joint": 3.1991315425061013
        }
    },
    "waypoints": [
        {
            "positions": [
                -2.967991417825869,
                -0.9740617694224828,
                1.7527959577730765,
                -0.7595177689779385,
                1.7443932448376545,
                3.1991315425061013
            ]
        },
        {
            "positions": [
                -2.942434689565383,
                -0.9407119536897856,
                1.6510515106687405,
                -0.6887888258506315,
                1.6126280232250196,
                3.1908494255189144
            ]
        },
        {
            "positions": [
                -2.916877961304897,
                -0.9073621379570884,
                1.5493070635644042,
                -0.6180598827233243,
                1.4808628016123848,
                3.182567308531727
            ]
        },
        {
            "positions": [
                -2.8913212330444105,
                -0.8740123222243912,
                1.447562616460068,
                -0.5473309395960173,
                1.34909757999975,
                3.17428519154454
            ]
        },
        {
            "positions": [
                -2.8657645047839244,
                -0.8406625064916939,
                1.3458181693557318,
                -0.47660199646871027,
                1.217332358387115,
                3.1660030745573526
            ]
        },
        {
            "positions": [
                -2.8402077765234384,
                -0.8073126907589967,
                1.2440737222513958,
                -0.4058730533414032,
                1.0855671367744804,
                3.1577209575701657
            ]
        },
        {
            "positions": [
                -2.8146510482629523,
                -0.7739628750262996,
                1.1423292751470595,
                -0.3351441102140962,
                0.9538019151618454,
                3.1494388405829787
            ]
        },
        {
            "positions": [
                -2.7890943200024663,
                -0.7406130592936023,
                1.0405848280427232,
                -0.26441516708678914,
                0.8220366935492106,
                3.1411567235957913
            ]
        },
        {
            "positions": [
                -2.7635375917419798,
                -0.7072632435609052,
                0.9388403809383872,
                -0.19368622395948198,
                0.6902714719365757,
                3.1328746066086044
            ]
        },
        {
            "positions": [
                -2.7379808634814937,
                -0.673913427828208,
                0.837095933834051,
                -0.12295728083217494,
                0.5585062503239409,
                3.124592489621417
            ]
        },
        {
            "positions": [
                -2.7124241352210077,
                -0.6405636120955107,
                0.7353514867297148,
                -0.052228337704867935,
                0.426741028711306,
                3.11631037263423
            ]
        }
    ]
}