{
    "goal": {
        "global_pose": {
            "orientation": {
                "w": 0.5084816262002911,
                "x": -0.4908360881923452,
                "y": 0.5182115481033761,
                "z": -0.48164630358495003
            },
            "position": {
                "x": 0.5540239810943604,
                "y": -0.46912469901144505,
                "z": 0.16403168439865112
            }
        },
        "name": "move_to_storage_B"
    },
    "id": "KPIECE_move_to_storage_B_30",
    "joint_names": [
        "shoulder_pan_joint",
        "shoulder_lift_joint",
        "elbow_joint",
        "wrist_1_joint",
        "wrist_2_joint",
        "wrist_3_joint"
    ],
    "metrics": {
        "cart_traj_len": 1.2186905176542309,
        "distance_elbow_joint": 0.718147304127523,
        "distance_shoulder_lift_joint": 0.4599462011311981,
        "distance_shoulder_pan_joint": 1.0364104809808183,
        "distance_wrist_1_joint": 3.3161800946828555,
        "distance_wrist_2_joint": 2.734587605423497,
        "distance_wrist_3_joint": 4.010127343394764,
        "smoothness": 0.5337668058134706,
        "time": 0.087026784,
        "traj_len": 3.5036265539781293,
        "weighted_distance": 5.132876524585073
    },
    "planner": "KPIECE",
    "start": {
        "state": {
            "elbow_joint": 1.6649325340416963,
            "shoulder_lift_joint": -0.6616387945129425,
            "shoulder_pan_joint": -0.9139837929255878,
            "wrist_1_joint": 2.1467571094334352,
            "wrist_2_joint": -2.234195976750228,
            "wrist_3_joint": 0.005470921511140723
        }
    },
    "waypoints": [
        {
            "positions": [
                -0.9139837929255878,
                -0.6616387945129425,
                1.6649325340416963,
                2.1467571094334352,
                -2.234195976750228,
                0.005470921511140723
            ]
        },
        {
            "positions": [
                -0.8069087922292559,
                -0.7428296160629848,
                1.6189431627078774,
                2.1886197335542987,
                -2.2367942942577788,
                0.1133258472111408
            ]
        },
        {
            "positions": [
                -0.699833791532924,
                -0.8240204376130272,
                1.5729537913740583,
                2.230482357675162,
                -2.2393926117653296,
                0.2211807729111409
            ]
        },
        {
            "positions": [
                -0.5927587908365921,
                -0.9052112591630697,
                1.5269644200402395,
                2.2723449817960253,
                -2.24199092927288,
                0.32903569861114096
            ]
        },
        {
            "positions": [
                -0.48568379014026014,
                -0.986402080713112,
                1.4809750487064206,
                2.314207605916889,
                -2.2445892467804307,
                0.43689062431114106
            ]
        },
        {
            "positions": [
                -0.5074020215043848,
                -0.9912300419606487,
                1.5000532565204294,
                2.2017529774097673,
                -2.147296591944956,
                0.30907963714704234
            ]
        },
        {
            "positions": [
                -0.5291202528685095,
                -0.9960580032081855,
                1.5191314643344382,
                2.0892983489026458,
                -2.050003937109481,
                0.18126864998294367
            ]
        },
        {
            "positions": [
                -0.5508384842326342,
                -1.0008859644557222,
                1.538209672148447,
                1.9768437203955243,
                -1.9527112822740063,
                0.05345766281884501
            ]
        },
        {
            "positions": [
                -0.5725567155967588,
                -1.005713925703259,
                1.5572878799624559,
                1.8643890918884027,
                -1.8554186274385316,
                -0.07435332434525371
            ]
        },
        {
            "positions": [
                -0.5942749469608835,
                -1.0105418869507956,
                1.5763660877764647,
                1.7519344633812812,
                -1.7581259726030567,
                -0.2021643115093525
            ]
        },
        {
            "positions": [
                -0.6159931783250081,
                -1.0153698481983324,
                1.5954442955904735,
                1.6394798348741597,
                -1.6608333177675818,
                -0.32997529867345105
            ]
        },
        {
            "positions": [
                -0.6377114096891328,
                -1.020197809445869,
                1.6145225034044826,
                1.5270252063670382,
                -1.5635406629321071,
                -0.4577862858375498
            ]
        },
        {
            "positions": [
                -0.6594296410532574,
                -1.0250257706934058,
                1.6336007112184912,
                1.414570577859917,
                -1.4662480080966325,
                -0.5855972730016485
            ]
        },
        {
            "positions": [
                -0.6811478724173821,
                -1.0298537319409427,
                1.6526789190325002,
                1.3021159493527952,
                -1.3689553532611574,
                -0.7134082601657474
            ]
        },
        {
            "positions": [
                -0.7028661037815067,
                -1.0346816931884792,
                1.671757126846509,
                1.1896613208456739,
                -1.2716626984256827,
                -0.8412192473298461
            ]
        },
        {
            "positions": [
                -0.7245843351456314,
                -1.039509654436016,
                1.6908353346605178,
                1.0772066923385524,
                -1.174370043590208,
                -0.9690302344939445
            ]
        },
        {
            "positions": [
                -0.746302566509756,
                -1.0443376156835529,
                1.7099135424745266,
                0.9647520638314309,
                -1.0770773887547331,
                -1.0968412216580432
            ]
        },
        {
            "positions": [
                -0.7680207978738807,
                -1.0491655769310895,
                1.7289917502885355,
                0.8522974353243093,
                -0.9797847339192582,
                -1.224652208822142
            ]
        },
        {
            "positions": [
                -0.7897390292380053,
                -1.0539935381786263,
                1.7480699581025443,
                0.7398428068171878,
                -0.8824920790837836,
                -1.3524631959862408
            ]
        },
        {
            "positions": [
                -0.81145726060213,
                -1.058821499426163,
                1.767148165916553,
                0.6273881783100663,
                -0.7851994242483089,
                -1.4802741831503394
            ]
        },
        {
            "positions": [
                -0.8331754919662546,
                -1.0636494606736997,
                1.786226373730562,
                0.514933549802945,
                -0.687906769412834,
                -1.608085170314438
            ]
        },
        {
            "positions": [
                -0.8548937233303793,
                -1.0684774219212365,
                1.8053045815445707,
                0.4024789212958235,
                -0.5906141145773594,
                -1.7358961574785368
            ]
        },
        {
            "positions": [
                -0.876611954694504,
                -1.0733053831687733,
                1.8243827893585798,
                0.29002429278870157,
                -0.49332145974188424,
                -1.8637071446426359
            ]
        },
        {
            "positions": [
                -0.8983301860586287,
                -1.07813334441631,
                1.8434609971725884,
                0.17756966428158005,
                -0.39602880490640957,
                -1.9915181318067345
            ]
        },
        {
            "positions": [
                -0.9200484174227533,
                -1.0829613056638467,
                1.8625392049865974,
                0.06511503577445898,
                -0.2987361500709347,
                -2.119329118970833
            ]
        },
        {
            "positions": [
                -0.941766648786878,
                -1.0877892669113836,
                1.881617412800606,
                -0.04733959273266253,
                -0.20144349523546,
                -2.2471401061349314
            ]
        },
        {
            "positions": [
                -0.9634848801510026,
                -1.0926172281589202,
                1.900695620614615,
                -0.15979422123978404,
                -0.10415084039998534,
                -2.37495109329903
            ]
        },
        {
            "positions": [
                -0.9852031115151273,
                -1.097445189406457,
                1.9197738284286237,
                -0.27224884974690555,
                -0.006858185564510677,
                -2.5027620804631288
            ]
        },
        {
            "positions": [
                -1.0069213428792518,
                -1.1022731506539936,
                1.9388520362426327,
                -0.38470347825402706,
                0.09043446927096443,
                -2.6305730676272274
            ]
        },
        {
            "positions": [
                -1.0286395742433767,
                -1.1071011119015304,
                1.9579302440566415,
                -0.4971581067611486,
                0.1877271241064391,
                -2.7583840547913265
            ]
        },
        {
            "positions": [
                -1.0503578056075014,
                -1.1119290731490672,
                1.9770084518706503,
                -0.6096127352682701,
                0.2850197789419142,
                -2.886195041955425
            ]
        },
        {
            "positions": [
                -1.072076036971626,
                -1.1167570343966038,
                1.9960866596846591,
                -0.7220673637753916,
                0.3823124337773889,
                -3.014006029119524
            ]
        },
        {
            "positions": [
                -1.0937942683357507,
                -1.1215849956441406,
                2.015164867498668,
                -0.8345219922825132,
                0.4796050886128635,
                -3.1418170162836225
            ]
        }
    ]
}