{
    "goal": {
        "global_pose": {
            "orientation": {
                "w": 0.005598929693374612,
                "x": 0.007748599140229565,
                "y": 0.7110244013736278,
                "z": -0.7031023480610252
            },
            "position": {
                "x": -0.8858502320852131,
                "y": -0.7141253447532654,
                "z": 0.3711530566215515
            }
        },
        "name": "move_to_auspresseinheit_C"
    },
    "id": "KPIECE_move_to_auspresseinheit_C_50",
    "joint_names": [
        "shoulder_pan_joint",
        "shoulder_lift_joint",
        "elbow_joint",
        "wrist_1_joint",
        "wrist_2_joint",
        "wrist_3_joint"
    ],
    "metrics": {
        "cart_traj_len": 0.4939073600211424,
        "distance_elbow_joint": 1.0129791436038498,
        "distance_shoulder_lift_joint": 0.33114822094842344,
        "distance_shoulder_pan_joint": 0.2559220850644488,
        "distance_wrist_1_joint": 0.70062970932281,
        "distance_wrist_2_joint": 1.3215926957676811,
        "distance_wrist_3_joint": 0.07242335162043068,
        "smoothness": 1.6148698667872622e-16,
        "time": 0.011372734,
        "traj_len": 1.9221589961102707,
        "weighted_distance": 2.4211080757907104
    },
    "planner": "KPIECE",
    "start": {
        "state": {
            "elbow_joint": 1.7527959577730765,
            "shoulder_lift_joint": -0.9740617694224828,
            "shoulder_pan_joint": -2.967991417825869,
            "wrist_1_joint": -0.7595177689779385,
            "wrist_2_joint": 1.7443932448376545,
            "wrist_3_joint": 3.1991315425061013
        }
    },
    "waypoints": [
        {
            "positions": [
                -2.967991417825869,
                -0.9740617694224828,
                1.7527959577730765,
                -0.7595177689779385,
                1.7443932448376545,
                3.1991315425061013
            ]
        },
        {
            "positions": [
                -2.942399209319424,
                -0.9409469473276404,
                1.6514980434126916,
                -0.6894547980456576,
                1.6122339752608863,
                3.191889207344058
            ]
        },
        {
            "positions": [
                -2.9168070008129794,
                -0.9078321252327981,
                1.5502001290523064,
                -0.6193918271133765,
                1.4800747056841181,
                3.1846468721820154
            ]
        },
        {
            "positions": [
                -2.8912147923065343,
                -0.8747173031379558,
                1.4489022146919215,
                -0.5493288561810956,
                1.3479154361073502,
                3.177404537019972
            ]
        },
        {
            "positions": [
                -2.8656225838000897,
                -0.8416024810431134,
                1.3476043003315366,
                -0.4792658852488145,
                1.215756166530582,
                3.170162201857929
            ]
        },
        {
            "positions": [
                -2.8400303752936447,
                -0.808487658948271,
                1.2463063859711516,
                -0.40920291431653355,
                1.083596896953814,
                3.162919866695886
            ]
        },
        {
            "positions": [
                -2.8144381667871996,
                -0.7753728368534287,
                1.1450084716107667,
                -0.3391399433842526,
                0.9514376273770458,
                3.155677531533843
            ]
        },
        {
            "positions": [
                -2.788845958280755,
                -0.7422580147585864,
                1.0437105572503818,
                -0.2690769724519716,
                0.8192783578002777,
                3.1484351963718
            ]
        },
        {
            "positions": [
                -2.76325374977431,
                -0.709143192663744,
                0.9424126428899966,
                -0.1990140015196905,
                0.6871190882235094,
                3.1411928612097566
            ]
        },
        {
            "positions": [
                -2.7376615412678653,
                -0.6760283705689016,
                0.8411147285296117,
                -0.12895103058740953,
                0.5549598186467415,
                3.133950526047714
            ]
        },
        {
            "positions": [
                -2.7120693327614203,
                -0.6429135484740593,
                0.7398168141692266,
                -0.05888805965512853,
                0.4228005490699732,
                3.1267081908856706
            ]
        }
    ]
}