{
    "goal": {
        "global_pose": {
            "orientation": {
                "w": 0.5084816262002911,
                "x": -0.4908360881923452,
                "y": 0.5182115481033761,
                "z": -0.48164630358495003
            },
            "position": {
                "x": 0.5540239810943604,
                "y": -0.46912469901144505,
                "z": 0.16403168439865112
            }
        },
        "name": "move_to_storage_B"
    },
    "id": "KPIECE_move_to_storage_B_26",
    "joint_names": [
        "shoulder_pan_joint",
        "shoulder_lift_joint",
        "elbow_joint",
        "wrist_1_joint",
        "wrist_2_joint",
        "wrist_3_joint"
    ],
    "metrics": {
        "cart_traj_len": 4.831715314787871,
        "distance_elbow_joint": 4.547123396086189,
        "distance_shoulder_lift_joint": 0.8084704735560944,
        "distance_shoulder_pan_joint": 4.538313927844879,
        "distance_wrist_1_joint": 2.9799852057029304,
        "distance_wrist_2_joint": 2.7063812053630354,
        "distance_wrist_3_joint": 3.127994090711985,
        "smoothness": 0.35359427432103774,
        "time": 0.056939434,
        "traj_len": 4.325305572935294,
        "weighted_distance": 5.536300469786213
    },
    "planner": "KPIECE",
    "start": {
        "state": {
            "elbow_joint": 1.6649325340416963,
            "shoulder_lift_joint": -0.6616387945129425,
            "shoulder_pan_joint": -0.9139837929255878,
            "wrist_1_joint": 2.1467571094334352,
            "wrist_2_joint": -2.234195976750228,
            "wrist_3_joint": 0.005470921511140723
        }
    },
    "waypoints": [
        {
            "positions": [
                -0.9139837929255878,
                -0.6616387945129425,
                1.6649325340416963,
                2.1467571094334352,
                -2.234195976750228,
                0.005470921511140723
            ]
        },
        {
            "positions": [
                -0.8192536188631552,
                -0.689197355641452,
                1.5736614194288192,
                2.104062029807031,
                -2.1852272268628847,
                0.08890593580852238
            ]
        },
        {
            "positions": [
                -0.7245234448007224,
                -0.7167559167699615,
                1.4823903048159421,
                2.0613669501806267,
                -2.1362584769755415,
                0.17234095010590406
            ]
        },
        {
            "positions": [
                -0.6297932707382896,
                -0.744314477898471,
                1.391119190203065,
                2.0186718705542224,
                -2.0872897270881983,
                0.2557759644032857
            ]
        },
        {
            "positions": [
                -0.5350630966758569,
                -0.7718730390269806,
                1.2998480755901878,
                1.975976790927818,
                -2.0383209772008546,
                0.33921097870066735
            ]
        },
        {
            "positions": [
                -0.4403329226134242,
                -0.7994316001554901,
                1.208576960977311,
                1.9332817113014138,
                -1.9893522273135114,
                0.42264599299804906
            ]
        },
        {
            "positions": [
                -0.3456027485509915,
                -0.8269901612839996,
                1.1173058463644336,
                1.8905866316750095,
                -1.9403834774261681,
                0.5060810072954307
            ]
        },
        {
            "positions": [
                -0.2508725744885587,
                -0.8545487224125092,
                1.0260347317515566,
                1.8478915520486052,
                -1.891414727538825,
                0.5895160215928125
            ]
        },
        {
            "positions": [
                -0.15614240042612604,
                -0.8821072835410186,
                0.9347636171386795,
                1.805196472422201,
                -1.8424459776514817,
                0.672951035890194
            ]
        },
        {
            "positions": [
                -0.061412226363693256,
                -0.9096658446695283,
                0.8434925025258023,
                1.7625013927957967,
                -1.7934772277641382,
                0.7563860501875758
            ]
        },
        {
            "positions": [
                0.033317947698739414,
                -0.9372244057980377,
                0.7522213879129254,
                1.7198063131693924,
                -1.744508477876795,
                0.8398210644849574
            ]
        },
        {
            "positions": [
                0.1280481217611722,
                -0.9647829669265473,
                0.6609502733000481,
                1.677111233542988,
                -1.6955397279894515,
                0.9232560787823391
            ]
        },
        {
            "positions": [
                0.22277829582360487,
                -0.9923415280550567,
                0.5696791586871712,
                1.6344161539165838,
                -1.6465709781021083,
                1.0066910930797208
            ]
        },
        {
            "positions": [
                0.31750846988603754,
                -1.0199000891835663,
                0.47840804407429416,
                1.5917210742901795,
                -1.597602228214765,
                1.0901261073771025
            ]
        },
        {
            "positions": [
                0.41223864394847043,
                -1.047458650312076,
                0.38713692946141687,
                1.5490259946637752,
                -1.5486334783274218,
                1.1735611216744843
            ]
        },
        {
            "positions": [
                0.5069688180109031,
                -1.0750172114405854,
                0.2958658148485398,
                1.506330915037371,
                -1.4996647284400786,
                1.2569961359718658
            ]
        },
        {
            "positions": [
                0.6016989920733358,
                -1.1025757725690948,
                0.20459470023566273,
                1.4636358354109666,
                -1.4506959785527351,
                1.3404311502692474
            ]
        },
        {
            "positions": [
                0.6964291661357684,
                -1.1301343336976044,
                0.11332358562278566,
                1.4209407557845624,
                -1.401727228665392,
                1.423866164566629
            ]
        },
        {
            "positions": [
                0.7911593401982013,
                -1.157692894826114,
                0.02205247100990837,
                1.378245676158158,
                -1.3527584787780484,
                1.507301178864011
            ]
        },
        {
            "positions": [
                0.885889514260634,
                -1.1852514559546234,
                -0.0692186436029687,
                1.3355505965317538,
                -1.3037897288907052,
                1.5907361931613926
            ]
        },
        {
            "positions": [
                0.9806196883230667,
                -1.2128100170831329,
                -0.16048975821584555,
                1.2928555169053495,
                -1.254820979003362,
                1.6741712074587742
            ]
        },
        {
            "positions": [
                1.0753498623854993,
                -1.2403685782116425,
                -0.2517608728287226,
                1.2501604372789452,
                -1.2058522291160187,
                1.7576062217561557
            ]
        },
        {
            "positions": [
                1.1700800364479322,
                -1.267927139340152,
                -0.34303198744160013,
                1.207465357652541,
                -1.1568834792286753,
                1.8410412360535375
            ]
        },
        {
            "positions": [
                1.264810210510365,
                -1.2954857004686615,
                -0.4343031020544772,
                1.1647702780261366,
                -1.107914729341332,
                1.9244762503509192
            ]
        },
        {
            "positions": [
                1.1704294135340079,
                -1.2885007577646466,
                -0.3363875916548765,
                1.0848503430543115,
                -1.0447107310231665,
                1.9728358008258073
            ]
        },
        {
            "positions": [
                1.0760486165576508,
                -1.2815158150606314,
                -0.2384720812552758,
                1.0049304080824861,
                -0.9815067327050011,
                2.0211953513006957
            ]
        },
        {
            "positions": [
                0.9816678195812938,
                -1.2745308723566164,
                -0.14055657085567513,
                0.925010473110661,
                -0.9183027343868355,
                2.069554901775584
            ]
        },
        {
            "positions": [
                0.8872870226049367,
                -1.2675459296526015,
                -0.04264106045607441,
                0.8450905381388357,
                -0.85509873606867,
                2.1179144522504725
            ]
        },
        {
            "positions": [
                0.7929062256285796,
                -1.2605609869485865,
                0.05527444994352626,
                0.7651706031670105,
                -0.7918947377505046,
                2.1662740027253604
            ]
        },
        {
            "positions": [
                0.6985254286522226,
                -1.2535760442445714,
                0.15318996034312693,
                0.6852506681951853,
                -0.7286907394323391,
                2.214633553200249
            ]
        },
        {
            "positions": [
                0.6041446316758654,
                -1.2465911015405564,
                0.2511054707427277,
                0.60533073322336,
                -0.6654867411141735,
                2.262993103675137
            ]
        },
        {
            "positions": [
                0.5097638346995085,
                -1.2396061588365415,
                0.3490209811423284,
                0.5254107982515348,
                -0.602282742796008,
                2.311352654150025
            ]
        },
        {
            "positions": [
                0.41538303772315144,
                -1.2326212161325265,
                0.44693649154192905,
                0.44549086327970966,
                -0.5390787444778425,
                2.3597122046249135
            ]
        },
        {
            "positions": [
                0.3210022407467943,
                -1.2256362734285113,
                0.5448520019415297,
                0.3655709283078843,
                -0.47587474615967706,
                2.408071755099802
            ]
        },
        {
            "positions": [
                0.22662144377043725,
                -1.2186513307244964,
                0.6427675123411305,
                0.28565099333605914,
                -0.4126707478415116,
                2.4564313055746902
            ]
        },
        {
            "positions": [
                0.1322406467940802,
                -1.2116663880204814,
                0.7406830227407311,
                0.205731058364234,
                -0.3494667495233461,
                2.504790856049578
            ]
        },
        {
            "positions": [
                0.03785984981772317,
                -1.2046814453164663,
                0.8385985331403318,
                0.12581112339240863,
                -0.2862627512051805,
                2.5531504065244666
            ]
        },
        {
            "positions": [
                -0.056520947158634094,
                -1.1976965026124513,
                0.9365140435399326,
                0.04589118842058326,
                -0.22305875288701493,
                2.601509956999355
            ]
        },
        {
            "positions": [
                -0.1509017441349909,
                -1.1907115599084364,
                1.0344295539395332,
                -0.03402874655124166,
                -0.15985475456884957,
                2.649869507474243
            ]
        },
        {
            "positions": [
                -0.24528254111134795,
                -1.1837266172044214,
                1.132345064339134,
                -0.11394868152306703,
                -0.09665075625068398,
                2.6982290579491313
            ]
        },
        {
            "positions": [
                -0.3396633380877052,
                -1.1767416745004062,
                1.2302605747387347,
                -0.1938686164948924,
                -0.03344675793251839,
                2.7465886084240196
            ]
        },
        {
            "positions": [
                -0.43404413506406203,
                -1.1697567317963913,
                1.3281760851383353,
                -0.2737885514667173,
                0.029757240385646977,
                2.794948158898908
            ]
        },
        {
            "positions": [
                -0.5284249320404193,
                -1.1627717890923763,
                1.4260915955379359,
                -0.3537084864385427,
                0.09296123870381234,
                2.8433077093737964
            ]
        },
        {
            "positions": [
                -0.6228057290167763,
                -1.1557868463883612,
                1.5240071059375366,
                -0.43362842141036806,
                0.15616523702197793,
                2.891667259848685
            ]
        },
        {
            "positions": [
                -0.7171865259931332,
                -1.1488019036843462,
                1.6219226163371374,
                -0.513548356382193,
                0.2193692353401433,
                2.9400268103235727
            ]
        },
        {
            "positions": [
                -0.8115673229694904,
                -1.1418169609803313,
                1.7198381267367382,
                -0.5934682913540184,
                0.2825732336583089,
                2.988386360798461
            ]
        },
        {
            "positions": [
                -0.9059481199458475,
                -1.1348320182763163,
                1.817753637136339,
                -0.6733882263258437,
                0.3457772319764745,
                3.036745911273349
            ]
        },
        {
            "positions": [
                -1.0003289169222045,
                -1.1278470755723011,
                1.9156691475359393,
                -0.7533081612976686,
                0.40898123029463984,
                3.0851054617482374
            ]
        },
        {
            "positions": [
                -1.0947097138985615,
                -1.1208621328682862,
                2.01358465793554,
                -0.833228096269494,
                0.4721852286128055,
                3.133465012223126
            ]
        }
    ]
}