{
    "goal": {
        "global_pose": {
            "orientation": {
                "w": 0.5084816217422485,
                "x": -0.49083608388900757,
                "y": 0.5182115435600281,
                "z": -0.4816462993621826
            },
            "position": {
                "x": 0.5540239810943604,
                "y": 0.030875300988554955,
                "z": 0.16403168439865112
            }
        },
        "name": "move_to_storage_A"
    },
    "id": "KPIECE_move_to_storage_A_118",
    "joint_names": [
        "shoulder_pan_joint",
        "shoulder_lift_joint",
        "elbow_joint",
        "wrist_1_joint",
        "wrist_2_joint",
        "wrist_3_joint"
    ],
    "metrics": {
        "cart_traj_len": 0.3533515384869833,
        "distance_elbow_joint": 0.4523132327540409,
        "distance_shoulder_lift_joint": 0.23279356851536548,
        "distance_shoulder_pan_joint": 0.4629145286221036,
        "distance_wrist_1_joint": 0.25964757554770346,
        "distance_wrist_2_joint": 1.09460972921201,
        "distance_wrist_3_joint": 0.10885206775729728,
        "smoothness": 1.3322676330666221e-15,
        "time": 0.012837077,
        "traj_len": 1.615899347858189,
        "weighted_distance": 2.0452608984388343
    },
    "planner": "KPIECE",
    "start": {
        "state": {
            "elbow_joint": 1.971548880431181,
            "shoulder_lift_joint": -1.1394869514688781,
            "shoulder_pan_joint": 0.12281150262730567,
            "wrist_1_joint": -0.7804693444481463,
            "wrist_2_joint": 0.12958644648617612,
            "wrist_3_joint": 3.0906942077768043
        }
    },
    "waypoints": [
        {
            "positions": [
                0.12281150262730567,
                -1.1394869514688781,
                1.971548880431181,
                -0.7804693444481463,
                0.12958644648617612,
                3.0906942077768043
            ]
        },
        {
            "positions": [
                0.05668085568129087,
                -1.1727431755425017,
                2.036165056538901,
                -0.8175618552406754,
                0.28595926494503465,
                3.106244503170704
            ]
        },
        {
            "positions": [
                -0.009449791264723922,
                -1.2059993996161253,
                2.100781232646621,
                -0.8546543660332044,
                0.44233208340389324,
                3.1217947985646033
            ]
        },
        {
            "positions": [
                -0.0755804382107387,
                -1.239255623689749,
                2.1653974087543415,
                -0.8917468768257335,
                0.5987049018627518,
                3.137345093958503
            ]
        },
        {
            "positions": [
                -0.1417110851567535,
                -1.2725118477633726,
                2.2300135848620615,
                -0.9288393876182626,
                0.7550777203216104,
                3.1528953893524028
            ]
        },
        {
            "positions": [
                -0.20784173210276835,
                -1.3057680718369964,
                2.2946297609697814,
                -0.9659318984107916,
                0.911450538780469,
                3.1684456847463025
            ]
        },
        {
            "positions": [
                -0.2739723790487831,
                -1.33902429591062,
                2.359245937077502,
                -1.0030244092033207,
                1.0678233572393276,
                3.183995980140202
            ]
        },
        {
            "positions": [
                -0.3401030259947979,
                -1.3722805199842436,
                2.423862113185222,
                -1.0401169199958498,
                1.224196175698186,
                3.1995462755341015
            ]
        }
    ]
}