{
    "goal": {
        "global_pose": {
            "orientation": {
                "w": 0.5084816262002911,
                "x": -0.4908360881923452,
                "y": 0.5182115481033761,
                "z": -0.48164630358495003
            },
            "position": {
                "x": 0.5540239810943604,
                "y": -0.46912469901144505,
                "z": 0.16403168439865112
            }
        },
        "name": "move_to_storage_B"
    },
    "id": "KPIECE_move_to_storage_B_127",
    "joint_names": [
        "shoulder_pan_joint",
        "shoulder_lift_joint",
        "elbow_joint",
        "wrist_1_joint",
        "wrist_2_joint",
        "wrist_3_joint"
    ],
    "metrics": {
        "cart_traj_len": 2.2528241763790775,
        "distance_elbow_joint": 3.1020762828374764,
        "distance_shoulder_lift_joint": 0.4595736380200135,
        "distance_shoulder_pan_joint": 1.699770726187046,
        "distance_wrist_1_joint": 2.998109551681022,
        "distance_wrist_2_joint": 2.713814025220599,
        "distance_wrist_3_joint": 3.1509207621670727,
        "smoothness": 0.28181561160320745,
        "time": 0.096714101,
        "traj_len": 3.7582263085281635,
        "weighted_distance": 5.112536560979198
    },
    "planner": "KPIECE",
    "start": {
        "state": {
            "elbow_joint": 1.6649325340416963,
            "shoulder_lift_joint": -0.6616387945129425,
            "shoulder_pan_joint": -0.9139837929255878,
            "wrist_1_joint": 2.1467571094334352,
            "wrist_2_joint": -2.234195976750228,
            "wrist_3_joint": 0.005470921511140723
        }
    },
    "waypoints": [
        {
            "positions": [
                -0.9139837929255878,
                -0.6616387945129425,
                1.6649325340416963,
                2.1467571094334352,
                -2.234195976750228,
                0.005470921511140723
            ]
        },
        {
            "positions": [
                -0.8129462751844736,
                -0.6723773190494678,
                1.5655171019640712,
                2.137572092680233,
                -2.177769657617379,
                0.01210318827318876
            ]
        },
        {
            "positions": [
                -0.7119087574433595,
                -0.6831158435859932,
                1.466101669886446,
                2.1283870759270305,
                -2.12134333848453,
                0.018735455035236798
            ]
        },
        {
            "positions": [
                -0.6720558230665684,
                -0.693962710762776,
                1.3821474816669903,
                2.0531823597412098,
                -2.010431121323816,
                0.0779555126696174
            ]
        },
        {
            "positions": [
                -0.6322028886897773,
                -0.7048095779395589,
                1.2981932934475346,
                1.9779776435553893,
                -1.8995189041631018,
                0.13717557030399802
            ]
        },
        {
            "positions": [
                -0.5923499543129862,
                -0.7156564451163417,
                1.214239105228079,
                1.9027729273695688,
                -1.7886066870023876,
                0.19639562793837861
            ]
        },
        {
            "positions": [
                -0.5524970199361952,
                -0.7265033122931246,
                1.1302849170086233,
                1.8275682111837483,
                -1.6776944698416734,
                0.2556156855727592
            ]
        },
        {
            "positions": [
                -0.512644085559404,
                -0.7373501794699074,
                1.0463307287891677,
                1.7523634949979277,
                -1.5667822526809592,
                0.3148357432071398
            ]
        },
        {
            "positions": [
                -0.47279115118261295,
                -0.7481970466466903,
                0.9623765405697121,
                1.6771587788121072,
                -1.455870035520245,
                0.37405580084152046
            ]
        },
        {
            "positions": [
                -0.43293821680582184,
                -0.7590439138234731,
                0.8784223523502565,
                1.6019540626262865,
                -1.3449578183595308,
                0.433275858475901
            ]
        },
        {
            "positions": [
                -0.3930852824290308,
                -0.769890781000256,
                0.7944681641308008,
                1.5267493464404662,
                -1.2340456011988168,
                0.49249591611028165
            ]
        },
        {
            "positions": [
                -0.35323234805223963,
                -0.7807376481770388,
                0.7105139759113451,
                1.4515446302546455,
                -1.1231333840381024,
                0.5517159737446622
            ]
        },
        {
            "positions": [
                -0.3133794136754486,
                -0.7915845153538217,
                0.6265597876918895,
                1.3763399140688248,
                -1.0122211668773884,
                0.6109360313790428
            ]
        },
        {
            "positions": [
                -0.2735264792986575,
                -0.8024313825306045,
                0.5426055994724339,
                1.3011351978830044,
                -0.9013089497166742,
                0.6701560890134234
            ]
        },
        {
            "positions": [
                -0.23367354492186643,
                -0.8132782497073874,
                0.45865141125297826,
                1.2259304816971839,
                -0.79039673255596,
                0.729376146647804
            ]
        },
        {
            "positions": [
                -0.19382061054507527,
                -0.8241251168841702,
                0.3746972230335226,
                1.1507257655113632,
                -0.6794845153952458,
                0.7885962042821847
            ]
        },
        {
            "positions": [
                -0.15396767616828422,
                -0.8349719840609531,
                0.29074303481406694,
                1.0755210493255427,
                -0.5685722982345316,
                0.8478162619165652
            ]
        },
        {
            "positions": [
                -0.1987178956649386,
                -0.848602481607239,
                0.37302335784310725,
                0.9837651687744412,
                -0.5186584722009648,
                0.9577484248575961
            ]
        },
        {
            "positions": [
                -0.243468115161593,
                -0.8622329791535248,
                0.4553036808721476,
                0.8920092882233397,
                -0.4687446461673981,
                1.067680587798627
            ]
        },
        {
            "positions": [
                -0.2882183346582474,
                -0.8758634766998107,
                0.537584003901188,
                0.8002534076722383,
                -0.4188308201338313,
                1.1776127507396579
            ]
        },
        {
            "positions": [
                -0.3329685541549018,
                -0.8894939742460964,
                0.6198643269302283,
                0.7084975271211368,
                -0.3689169941002646,
                1.2875449136806887
            ]
        },
        {
            "positions": [
                -0.3777187736515562,
                -0.9031244717923823,
                0.7021446499592686,
                0.6167416465700353,
                -0.3190031680666978,
                1.3974770766217195
            ]
        },
        {
            "positions": [
                -0.4224689931482106,
                -0.9167549693386682,
                0.784424972988309,
                0.5249857660189339,
                -0.269089342033131,
                1.5074092395627505
            ]
        },
        {
            "positions": [
                -0.467219212644865,
                -0.930385466884954,
                0.8667052960173494,
                0.43322988546783237,
                -0.21917551599956425,
                1.6173414025037813
            ]
        },
        {
            "positions": [
                -0.5119694321415194,
                -0.9440159644312399,
                0.9489856190463897,
                0.34147400491673086,
                -0.1692616899659975,
                1.7272735654448121
            ]
        },
        {
            "positions": [
                -0.5567196516381738,
                -0.9576464619775258,
                1.03126594207543,
                0.24971812436562946,
                -0.11934786393243074,
                1.8372057283858432
            ]
        },
        {
            "positions": [
                -0.6014698711348282,
                -0.9712769595238115,
                1.1135462651044703,
                0.15796224381452795,
                -0.06943403789886399,
                1.947137891326874
            ]
        },
        {
            "positions": [
                -0.6462200906314827,
                -0.9849074570700975,
                1.1958265881335108,
                0.06620636326342644,
                -0.019520211865297177,
                2.0570700542679052
            ]
        },
        {
            "positions": [
                -0.690970310128137,
                -0.9985379546163833,
                1.278106911162551,
                -0.02554951728767496,
                0.030393614168269578,
                2.167002217208936
            ]
        },
        {
            "positions": [
                -0.7357205296247915,
                -1.0121684521626693,
                1.3603872341915915,
                -0.11730539783877658,
                0.08030744020183633,
                2.276934380149967
            ]
        },
        {
            "positions": [
                -0.7804707491214458,
                -1.025798949708955,
                1.4426675572206318,
                -0.20906127838987798,
                0.1302212662354031,
                2.3868665430909974
            ]
        },
        {
            "positions": [
                -0.8252209686181002,
                -1.039429447255241,
                1.524947880249672,
                -0.3008171589409796,
                0.18013509226896995,
                2.4967987060320285
            ]
        },
        {
            "positions": [
                -0.8699711881147546,
                -1.0530599448015268,
                1.6072282032787124,
                -0.392573039492081,
                0.2300489183025366,
                2.6067308689730595
            ]
        },
        {
            "positions": [
                -0.9147214076114091,
                -1.0666904423478125,
                1.689508526307753,
                -0.4843289200431826,
                0.27996274433610346,
                2.7166630319140905
            ]
        },
        {
            "positions": [
                -0.9594716271080634,
                -1.0803209398940985,
                1.771788849336793,
                -0.5760848005942838,
                0.3298765703696701,
                2.826595194855121
            ]
        },
        {
            "positions": [
                -1.0042218466047177,
                -1.0939514374403843,
                1.8540691723658336,
                -0.6678406811453854,
                0.379790396403237,
                2.936527357796152
            ]
        },
        {
            "positions": [
                -1.0489720661013722,
                -1.10758193498667,
                1.9363494953948737,
                -0.7595965616964868,
                0.4297042224368036,
                3.0464595207371827
            ]
        },
        {
            "positions": [
                -1.0937222855980266,
                -1.121212432532956,
                2.018629818423914,
                -0.8513524422475883,
                0.4796180484703704,
                3.1563916836782138
            ]
        }
    ]
}