{
    "goal": {
        "global_pose": {
            "orientation": {
                "w": 0.7047431468963623,
                "x": -0.7094548344612122,
                "y": 0.0024358443915843964,
                "z": -0.0022348060738295317
            },
            "position": {
                "x": 0.6094750761985779,
                "y": 0.3671506643295288,
                "z": 0.19426114857196808
            }
        },
        "name": "move_to_magneteinheit_A"
    },
    "id": "KPIECE_move_to_magneteinheit_A_51",
    "joint_names": [
        "shoulder_pan_joint",
        "shoulder_lift_joint",
        "elbow_joint",
        "wrist_1_joint",
        "wrist_2_joint",
        "wrist_3_joint"
    ],
    "metrics": {
        "cart_traj_len": 1.5916760341104834,
        "distance_elbow_joint": 3.559070765823098,
        "distance_shoulder_lift_joint": 1.1541412435290284,
        "distance_shoulder_pan_joint": 1.2412754157720225,
        "distance_wrist_1_joint": 3.9866234145419437,
        "distance_wrist_2_joint": 1.6954493726337132,
        "distance_wrist_3_joint": 5.180513893635501,
        "smoothness": 5.248327033332108e-16,
        "time": 0.066361991,
        "traj_len": 4.100862605103383,
        "weighted_distance": 5.7323794954959135
    },
    "planner": "KPIECE",
    "start": {
        "state": {
            "elbow_joint": -1.5739458827952972,
            "shoulder_lift_joint": 0.006533473998580023,
            "shoulder_pan_joint": -1.1188671628667068,
            "wrist_1_joint": 3.138208179676308,
            "wrist_2_joint": -1.5706037135050406,
            "wrist_3_joint": -2.0226958329764257
        }
    },
    "waypoints": [
        {
            "positions": [
                -1.1188671628667068,
                0.006533473998580023,
                -1.5739458827952972,
                3.138208179676308,
                -1.5706037135050406,
                -2.0226958329764257
            ]
        },
        {
            "positions": [
                -1.0900002927324737,
                -0.020307020036978783,
                -1.491176795218016,
                3.0454960072451,
                -1.5311746583275123,
                -1.9022187656825769
            ]
        },
        {
            "positions": [
                -1.0611334225982407,
                -0.04714751407253759,
                -1.4084077076407344,
                2.952783834813892,
                -1.491745603149984,
                -1.781741698388728
            ]
        },
        {
            "positions": [
                -1.0322665524640076,
                -0.07398800810809639,
                -1.3256386200634531,
                2.8600716623826843,
                -1.452316547972456,
                -1.661264631094879
            ]
        },
        {
            "positions": [
                -1.0033996823297746,
                -0.1008285021436552,
                -1.2428695324861718,
                2.767359489951476,
                -1.4128874927949278,
                -1.5407875638010302
            ]
        },
        {
            "positions": [
                -0.9745328121955414,
                -0.12766899617921398,
                -1.1601004449088905,
                2.674647317520268,
                -1.3734584376173995,
                -1.4203104965071813
            ]
        },
        {
            "positions": [
                -0.9456659420613084,
                -0.15450949021477278,
                -1.0773313573316092,
                2.5819351450890604,
                -1.3340293824398712,
                -1.2998334292133324
            ]
        },
        {
            "positions": [
                -0.9167990719270753,
                -0.1813499842503316,
                -0.9945622697543277,
                2.4892229726578523,
                -1.294600327262343,
                -1.1793563619194836
            ]
        },
        {
            "positions": [
                -0.8879322017928422,
                -0.2081904782858904,
                -0.9117931821770464,
                2.396510800226644,
                -1.255171272084815,
                -1.058879294625635
            ]
        },
        {
            "positions": [
                -0.8590653316586091,
                -0.2350309723214492,
                -0.829024094599765,
                2.303798627795436,
                -1.2157422169072867,
                -0.938402227331786
            ]
        },
        {
            "positions": [
                -0.830198461524376,
                -0.26187146635700803,
                -0.7462550070224837,
                2.211086455364228,
                -1.1763131617297584,
                -0.8179251600379371
            ]
        },
        {
            "positions": [
                -0.8013315913901429,
                -0.28871196039256686,
                -0.6634859194452024,
                2.1183742829330203,
                -1.1368841065522302,
                -0.6974480927440883
            ]
        },
        {
            "positions": [
                -0.7724647212559099,
                -0.31555245442812563,
                -0.5807168318679211,
                2.025662110501812,
                -1.097455051374702,
                -0.5769710254502394
            ]
        },
        {
            "positions": [
                -0.7435978511216768,
                -0.3423929484636844,
                -0.4979477442906397,
                1.9329499380706043,
                -1.0580259961971739,
                -0.4564939581563907
            ]
        },
        {
            "positions": [
                -0.7147309809874437,
                -0.3692334424992433,
                -0.4151786567133582,
                1.8402377656393962,
                -1.0185969410196456,
                -0.3360168908625416
            ]
        },
        {
            "positions": [
                -0.6858641108532106,
                -0.39607393653480205,
                -0.3324095691360769,
                1.7475255932081883,
                -0.9791678858421173,
                -0.21553982356869272
            ]
        },
        {
            "positions": [
                -0.6569972407189775,
                -0.4229144305703609,
                -0.2496404815587956,
                1.6548134207769802,
                -0.9397388306645892,
                -0.09506275627484406
            ]
        },
        {
            "positions": [
                -0.6281303705847445,
                -0.44975492460591965,
                -0.1668713939815143,
                1.5621012483457724,
                -0.9003097754870609,
                0.02541431101900482
            ]
        },
        {
            "positions": [
                -0.5992635004505114,
                -0.4765954186414785,
                -0.08410230640423277,
                1.4693890759145642,
                -0.8608807203095327,
                0.1458913783128537
            ]
        },
        {
            "positions": [
                -0.5703966303162783,
                -0.5034359126770372,
                -0.0013332188269514766,
                1.3766769034833564,
                -0.8214516651320045,
                0.2663684456067026
            ]
        },
        {
            "positions": [
                -0.5415297601820452,
                -0.530276406712596,
                0.08143586875032982,
                1.2839647310521483,
                -0.7820226099544763,
                0.38684551290055147
            ]
        },
        {
            "positions": [
                -0.5126628900478122,
                -0.5571169007481548,
                0.16420495632761112,
                1.1912525586209404,
                -0.7425935547769481,
                0.5073225801944004
            ]
        },
        {
            "positions": [
                -0.483796019913579,
                -0.5839573947837137,
                0.24697404390489242,
                1.098540386189732,
                -0.7031644995994198,
                0.6277996474882492
            ]
        },
        {
            "positions": [
                -0.45492914977934606,
                -0.6107978888192723,
                0.3297431314821737,
                1.0058282137585244,
                -0.6637354444218917,
                0.7482767147820977
            ]
        },
        {
            "positions": [
                -0.4260622796451129,
                -0.6376383828548312,
                0.412512219059455,
                0.9131160413273163,
                -0.6243063892443634,
                0.868753782075947
            ]
        },
        {
            "positions": [
                -0.3971954095108797,
                -0.6644788768903901,
                0.49528130663673653,
                0.8204038688961082,
                -0.5848773340668352,
                0.9892308493697959
            ]
        },
        {
            "positions": [
                -0.3683285393766468,
                -0.6913193709259488,
                0.5780503942140178,
                0.7276916964649005,
                -0.5454482788893071,
                1.1097079166636443
            ]
        },
        {
            "positions": [
                -0.3394616692424136,
                -0.7181598649615076,
                0.6608194817912991,
                0.6349795240336924,
                -0.5060192237117789,
                1.2301849839574936
            ]
        },
        {
            "positions": [
                -0.31059479910818055,
                -0.7450003589970665,
                0.7435885693685809,
                0.5422673516024843,
                -0.4665901685342506,
                1.3506620512513425
            ]
        },
        {
            "positions": [
                -0.2817279289739475,
                -0.7718408530326253,
                0.8263576569458617,
                0.44955517917127663,
                -0.42716111335672236,
                1.471139118545191
            ]
        },
        {
            "positions": [
                -0.25286105883971444,
                -0.7986813470681841,
                0.9091267445231435,
                0.3568430067400685,
                -0.3877320581791941,
                1.5916161858390403
            ]
        },
        {
            "positions": [
                -0.22399418870548138,
                -0.8255218411037428,
                0.9918958321004243,
                0.2641308343088604,
                -0.34830300300166606,
                1.7120932531328887
            ]
        },
        {
            "positions": [
                -0.1951273185712482,
                -0.8523623351393017,
                1.074664919677706,
                0.1714186618776523,
                -0.3088739478241378,
                1.8325703204267376
            ]
        },
        {
            "positions": [
                -0.16626044843701515,
                -0.8792028291748605,
                1.1574340072549874,
                0.0787064894464442,
                -0.26944489264660954,
                1.953047387720587
            ]
        },
        {
            "positions": [
                -0.1373935783027821,
                -0.9060433232104192,
                1.2402030948322686,
                -0.014005682984763457,
                -0.23001583746908127,
                2.0735244550144354
            ]
        },
        {
            "positions": [
                -0.10852670816854904,
                -0.9328838172459781,
                1.32297218240955,
                -0.10671785541597156,
                -0.19058678229155301,
                2.1940015223082843
            ]
        },
        {
            "positions": [
                -0.07965983803431587,
                -0.9597243112815369,
                1.4057412699868317,
                -0.19943002784717967,
                -0.15115772711402475,
                2.314478589602133
            ]
        },
        {
            "positions": [
                -0.05079296790008292,
                -0.9865648053170957,
                1.4885103575641125,
                -0.29214220027838733,
                -0.11172867193649672,
                2.434955656895982
            ]
        },
        {
            "positions": [
                -0.02192609776584975,
                -1.0134052993526546,
                1.5712794451413943,
                -0.38485437270959544,
                -0.07229961675896845,
                2.555432724189831
            ]
        },
        {
            "positions": [
                0.006940772368383197,
                -1.0402457933882132,
                1.6540485327186751,
                -0.47756654514080354,
                -0.032870561581440416,
                2.67590979148368
            ]
        },
        {
            "positions": [
                0.035807642502616366,
                -1.067086287423772,
                1.7368176202959569,
                -0.5702787175720117,
                0.006558493596088066,
                2.7963868587775287
            ]
        },
        {
            "positions": [
                0.06467451263684953,
                -1.093926781459331,
                1.8195867078732382,
                -0.6629908900032198,
                0.04598754877361633,
                2.9168639260713776
            ]
        },
        {
            "positions": [
                0.09354138277108248,
                -1.1207672754948896,
                1.9023557954505195,
                -0.7557030624344274,
                0.08541660395114437,
                3.0373409933652264
            ]
        },
        {
            "positions": [
                0.12240825290531561,
                -1.1476077695304485,
                1.9851248830278008,
                -0.8484152348656354,
                0.12484565912867265,
                3.1578180606590753
            ]
        }
    ]
}