{
    "goal": {
        "global_pose": {
            "orientation": {
                "w": 0.7031023502349854,
                "x": -0.7110244035720825,
                "y": 0.007748599164187908,
                "z": 0.005598929710686207
            },
            "position": {
                "x": 0.11585023208521307,
                "y": 0.44412534475326537,
                "z": 0.3711530566215515
            }
        },
        "name": "move_to_auspresseinheit_A"
    },
    "id": "KPIECE_move_to_auspresseinheit_A_46",
    "joint_names": [
        "shoulder_pan_joint",
        "shoulder_lift_joint",
        "elbow_joint",
        "wrist_1_joint",
        "wrist_2_joint",
        "wrist_3_joint"
    ],
    "metrics": {
        "cart_traj_len": 0.767249755277011,
        "distance_elbow_joint": 0.764720587641428,
        "distance_shoulder_lift_joint": 0.5359676448739266,
        "distance_shoulder_pan_joint": 1.618555803037193,
        "distance_wrist_1_joint": 3.9953775339766695,
        "distance_wrist_2_joint": 1.3389314852465057,
        "distance_wrist_3_joint": 3.6062859895205146,
        "smoothness": 0.9042228308581178,
        "time": 0.738425316,
        "traj_len": 3.4438117027933215,
        "weighted_distance": 4.940315783688371
    },
    "planner": "KPIECE",
    "start": {
        "state": {
            "elbow_joint": 2.4225746994637096,
            "shoulder_lift_joint": -1.373653595662188,
            "shoulder_pan_joint": -0.3378633848294565,
            "wrist_1_joint": -1.0288595594406726,
            "wrist_2_joint": 1.2330228066703421,
            "wrist_3_joint": 3.189163495502006
        }
    },
    "waypoints": [
        {
            "positions": [
                -0.3378633848294565,
                -1.373653595662188,
                2.4225746994637096,
                -1.0288595594406726,
                1.2330228066703421,
                3.189163495502006
            ]
        },
        {
            "positions": [
                -0.3582183803777882,
                -1.381496687552883,
                2.4488281085007424,
                -1.1515057727621436,
                1.1670054881276026,
                3.0591124280715034
            ]
        },
        {
            "positions": [
                -0.37857337592611984,
                -1.389339779443578,
                2.4750815175377756,
                -1.2741519860836148,
                1.1009881695848631,
                2.9290613606410014
            ]
        },
        {
            "positions": [
                -0.39892837147445154,
                -1.397182871334273,
                2.5013349265748084,
                -1.3967981994050858,
                1.0349708510421234,
                2.799010293210499
            ]
        },
        {
            "positions": [
                -0.41928336702278324,
                -1.405025963224968,
                2.527588335611841,
                -1.519444412726557,
                0.9689535324993839,
                2.6689592257799966
            ]
        },
        {
            "positions": [
                -0.4396383625711149,
                -1.4128690551156629,
                2.5538417446488744,
                -1.642090626048028,
                0.9029362139566443,
                2.5389081583494946
            ]
        },
        {
            "positions": [
                -0.4599933581194466,
                -1.420712147006358,
                2.580095153685907,
                -1.7647368393694989,
                0.8369188954139047,
                2.408857090918992
            ]
        },
        {
            "positions": [
                -0.4803483536677783,
                -1.428555238897053,
                2.60634856272294,
                -1.88738305269097,
                0.7709015768711651,
                2.2788060234884897
            ]
        },
        {
            "positions": [
                -0.5007033492161099,
                -1.436398330787748,
                2.632601971759973,
                -2.010029266012441,
                0.7048842583284256,
                2.1487549560579877
            ]
        },
        {
            "positions": [
                -0.5210583447644417,
                -1.4442414226784428,
                2.658855380797006,
                -2.132675479333912,
                0.6388669397856859,
                2.018703888627485
            ]
        },
        {
            "positions": [
                -0.5414133403127733,
                -1.452084514569138,
                2.685108789834039,
                -2.255321692655383,
                0.5728496212429464,
                1.8886528211969829
            ]
        },
        {
            "positions": [
                -0.561768335861105,
                -1.459927606459833,
                2.711362198871072,
                -2.3779679059768544,
                0.5068323027002068,
                1.7586017537664804
            ]
        },
        {
            "positions": [
                -0.5821233314094366,
                -1.4677706983505279,
                2.7376156079081047,
                -2.5006141192983256,
                0.44081498415746734,
                1.6285506863359782
            ]
        },
        {
            "positions": [
                -0.6024783269577684,
                -1.4756137902412227,
                2.763869016945138,
                -2.6232603326197967,
                0.3747976656147276,
                1.4984996189054758
            ]
        },
        {
            "positions": [
                -0.6228333225061,
                -1.4834568821319178,
                2.7901224259821706,
                -2.7459065459412675,
                0.3087803470719881,
                1.3684485514749736
            ]
        },
        {
            "positions": [
                -0.54438709513195,
                -1.5085253738027529,
                2.766759316504349,
                -2.6118871019720866,
                0.33317381916893823,
                1.4734821423863549
            ]
        },
        {
            "positions": [
                -0.4659408677578001,
                -1.5335938654735881,
                2.7433962070265276,
                -2.4778676580029058,
                0.3575672912658883,
                1.5785157332977362
            ]
        },
        {
            "positions": [
                -0.3874946403836501,
                -1.5586623571444231,
                2.720033097548706,
                -2.343848214033725,
                0.38196076336283846,
                1.6835493242091175
            ]
        },
        {
            "positions": [
                -0.3090484130095002,
                -1.5837308488152582,
                2.696669988070884,
                -2.209828770064544,
                0.40635423545978855,
                1.7885829151204988
            ]
        },
        {
            "positions": [
                -0.23060218563535023,
                -1.6087993404860934,
                2.6733068785930625,
                -2.075809326095363,
                0.4307477075567387,
                1.8936165060318801
            ]
        },
        {
            "positions": [
                -0.15215595826120026,
                -1.6338678321569284,
                2.649943769115241,
                -1.9417898821261823,
                0.45514117965368883,
                1.9986500969432617
            ]
        },
        {
            "positions": [
                -0.07370973088705035,
                -1.6589363238277635,
                2.6265806596374195,
                -1.8077704381570017,
                0.4795346517506389,
                2.1036836878546428
            ]
        },
        {
            "positions": [
                0.004736496487099617,
                -1.6840048154985987,
                2.6032175501595978,
                -1.6737509941878208,
                0.503928123847589,
                2.2087172787660245
            ]
        },
        {
            "positions": [
                0.08318272386124959,
                -1.7090733071694337,
                2.5798544406817765,
                -1.53973155021864,
                0.5283215959445392,
                2.3137508696774054
            ]
        },
        {
            "positions": [
                0.16162895123539955,
                -1.7341417988402688,
                2.5564913312039548,
                -1.405712106249459,
                0.5527150680414893,
                2.418784460588787
            ]
        },
        {
            "positions": [
                0.24007517860954952,
                -1.759210290511104,
                2.533128221726133,
                -1.2716926622802782,
                0.5771085401384395,
                2.5238180515001685
            ]
        },
        {
            "positions": [
                0.3185214059836995,
                -1.784278782181939,
                2.509765112248312,
                -1.1376732183110974,
                0.6015020122353896,
                2.62885164241155
            ]
        },
        {
            "positions": [
                0.39696763335784935,
                -1.809347273852774,
                2.48640200277049,
                -1.0036537743419167,
                0.6258954843323397,
                2.7338852333229307
            ]
        },
        {
            "positions": [
                0.4754138607319993,
                -1.8344157655236093,
                2.4630388932926683,
                -0.8696343303727359,
                0.6502889564292897,
                2.8389188242343124
            ]
        },
        {
            "positions": [
                0.5538600881061493,
                -1.8594842571944443,
                2.4396757838148466,
                -0.735614886403555,
                0.6746824285262398,
                2.9439524151456937
            ]
        },
        {
            "positions": [
                0.6323063154802993,
                -1.8845527488652793,
                2.4163126743370253,
                -0.6015954424343741,
                0.6990759006231899,
                3.048986006057075
            ]
        },
        {
            "positions": [
                0.7107525428544491,
                -1.9096212405361146,
                2.3929495648592036,
                -0.4675759984651932,
                0.7234693727201401,
                3.1540195969684564
            ]
        }
    ]
}