{
    "goal": {
        "global_pose": {
            "orientation": {
                "w": 0.7031023480610252,
                "x": -0.7110244013736278,
                "y": 0.0077485991402295624,
                "z": 0.005598929693374583
            },
            "position": {
                "x": -0.8841497679147869,
                "y": 0.44412534475326537,
                "z": 0.3711530566215515
            }
        },
        "name": "move_to_auspresseinheit_D"
    },
    "id": "KPIECE_move_to_auspresseinheit_D_22",
    "joint_names": [
        "shoulder_pan_joint",
        "shoulder_lift_joint",
        "elbow_joint",
        "wrist_1_joint",
        "wrist_2_joint",
        "wrist_3_joint"
    ],
    "metrics": {
        "cart_traj_len": 0.34425383342336824,
        "distance_elbow_joint": 0.6635947398573729,
        "distance_shoulder_lift_joint": 0.13588067084297784,
        "distance_shoulder_pan_joint": 0.13395091631939715,
        "distance_wrist_1_joint": 0.6112518495071946,
        "distance_wrist_2_joint": 1.4467931956981777,
        "distance_wrist_3_joint": 0.06878184713152757,
        "smoothness": 4.934324565125532e-16,
        "time": 0.154028365,
        "traj_len": 1.7493579448919674,
        "weighted_distance": 2.2925666748919378
    },
    "planner": "KPIECE",
    "start": {
        "state": {
            "elbow_joint": -1.8275484843655228,
            "shoulder_lift_joint": -2.1267897864000416,
            "shoulder_pan_joint": -0.035127520176001514,
            "wrist_1_joint": -2.3477863256791385,
            "wrist_2_joint": -1.605890476484521,
            "wrist_3_joint": -3.0880375317375353
        }
    },
    "waypoints": [
        {
            "positions": [
                -0.035127520176001514,
                -2.1267897864000416,
                -1.8275484843655228,
                -2.3477863256791385,
                -1.605890476484521,
                -3.0880375317375353
            ]
        },
        {
            "positions": [
                -0.05187138471592616,
                -2.143774870255414,
                -1.744599141883351,
                -2.424192806867538,
                -1.4250413270222488,
                -3.079439800846094
            ]
        },
        {
            "positions": [
                -0.0686152492558508,
                -2.160759954110786,
                -1.6616497994011796,
                -2.500599288055937,
                -1.2441921775599765,
                -3.0708420699546535
            ]
        },
        {
            "positions": [
                -0.08535911379577545,
                -2.177745037966158,
                -1.578700456919008,
                -2.5770057692443364,
                -1.0633430280977043,
                -3.0622443390632124
            ]
        },
        {
            "positions": [
                -0.10210297833570009,
                -2.1947301218215305,
                -1.4957511144368363,
                -2.6534122504327358,
                -0.8824938786354322,
                -3.0536466081717712
            ]
        },
        {
            "positions": [
                -0.11884684287562473,
                -2.211715205676903,
                -1.4128017719546646,
                -2.729818731621135,
                -0.70164472917316,
                -3.0450488772803306
            ]
        },
        {
            "positions": [
                -0.13559070741554938,
                -2.228700289532275,
                -1.329852429472493,
                -2.8062252128095344,
                -0.5207955797108876,
                -3.0364511463888895
            ]
        },
        {
            "positions": [
                -0.152334571955474,
                -2.245685373387647,
                -1.2469030869903215,
                -2.8826316939979337,
                -0.3399464302486155,
                -3.027853415497449
            ]
        },
        {
            "positions": [
                -0.16907843649539867,
                -2.2626704572430194,
                -1.1639537445081498,
                -2.959038175186333,
                -0.1590972807863434,
                -3.0192556846060077
            ]
        }
    ]
}