{
    "goal": {
        "global_pose": {
            "orientation": {
                "w": -0.00223480608172531,
                "x": 0.0024358444001904467,
                "y": 0.7094548369677653,
                "z": -0.704743149386269
            },
            "position": {
                "x": -0.37947507619857795,
                "y": -0.6371506643295288,
                "z": 0.19426114857196808
            }
        },
        "name": "move_to_magneteinheit_C"
    },
    "id": "KPIECE_move_to_magneteinheit_C_91",
    "joint_names": [
        "shoulder_pan_joint",
        "shoulder_lift_joint",
        "elbow_joint",
        "wrist_1_joint",
        "wrist_2_joint",
        "wrist_3_joint"
    ],
    "metrics": {
        "cart_traj_len": 3.4120450178208594,
        "distance_elbow_joint": 3.3221883789281126,
        "distance_shoulder_lift_joint": 0.49352410609776753,
        "distance_shoulder_pan_joint": 2.1278564060350753,
        "distance_wrist_1_joint": 1.940107064828067,
        "distance_wrist_2_joint": 1.6333892031142685,
        "distance_wrist_3_joint": 5.024528298991091,
        "smoothness": 0.7128482358709287,
        "time": 3.404835478,
        "traj_len": 3.813344130549246,
        "weighted_distance": 5.306990326344952
    },
    "planner": "KPIECE",
    "start": {
        "state": {
            "elbow_joint": 1.9565354006593851,
            "shoulder_lift_joint": -1.4165861576512813,
            "shoulder_pan_joint": -1.6717766223278752,
            "wrist_1_joint": -0.528663328821883,
            "wrist_2_joint": 1.472756589259273,
            "wrist_3_joint": 3.159348288315503
        }
    },
    "waypoints": [
        {
            "positions": [
                -1.6717766223278752,
                -1.4165861576512813,
                1.9565354006593851,
                -0.528663328821883,
                1.472756589259273,
                3.159348288315503
            ]
        },
        {
            "positions": [
                -1.6074705248985763,
                -1.3935889947443076,
                1.941572142730858,
                -0.49545665947635675,
                1.423754736184954,
                3.1144209668363665
            ]
        },
        {
            "positions": [
                -1.5431644274692777,
                -1.3705918318373338,
                1.9266088848023313,
                -0.46224999013083046,
                1.3747528831106353,
                3.0694936453572295
            ]
        },
        {
            "positions": [
                -1.4580870030812987,
                -1.343351475234521,
                1.8929161936244867,
                -0.4167092850549833,
                1.3075173083625067,
                2.989600404291548
            ]
        },
        {
            "positions": [
                -1.3730095786933194,
                -1.3161111186317083,
                1.8592235024466421,
                -0.3711685799791361,
                1.2402817336143783,
                2.909707163225867
            ]
        },
        {
            "positions": [
                -1.2879321543053404,
                -1.2888707620288953,
                1.8255308112687976,
                -0.3256278749032889,
                1.1730461588662497,
                2.8298139221601857
            ]
        },
        {
            "positions": [
                -1.202854729917361,
                -1.2616304054260825,
                1.791838120090953,
                -0.28008716982744175,
                1.1058105841181214,
                2.7499206810945047
            ]
        },
        {
            "positions": [
                -1.117777305529382,
                -1.2343900488232697,
                1.7581454289131084,
                -0.23454646475159463,
                1.0385750093699928,
                2.6700274400288233
            ]
        },
        {
            "positions": [
                -1.1058939994014383,
                -1.2430397185960405,
                1.6574173243056014,
                -0.22862271356509234,
                1.0075356593311982,
                2.515783502759265
            ]
        },
        {
            "positions": [
                -1.0940106932734945,
                -1.2516893883688112,
                1.5566892196980944,
                -0.22269896237859008,
                0.9764963092924034,
                2.361539565489707
            ]
        },
        {
            "positions": [
                -1.0821273871455508,
                -1.2603390581415819,
                1.4559611150905873,
                -0.2167752111920878,
                0.9454569592536086,
                2.207295628220149
            ]
        },
        {
            "positions": [
                -1.070244081017607,
                -1.2689887279143526,
                1.3552330104830803,
                -0.21085146000558552,
                0.914417609214814,
                2.053051690950591
            ]
        },
        {
            "positions": [
                -1.1305208546567032,
                -1.2635099416280464,
                1.2613877358924956,
                -0.27420652504721943,
                0.9323356676150755,
                1.9238657365416847
            ]
        },
        {
            "positions": [
                -1.1907976282957993,
                -1.2580311553417403,
                1.167542461301911,
                -0.3375615900888534,
                0.9502537260153369,
                1.7946797821327782
            ]
        },
        {
            "positions": [
                -1.2510744019348954,
                -1.252552369055434,
                1.0736971867113265,
                -0.4009166551304873,
                0.9681717844155984,
                1.665493827723872
            ]
        },
        {
            "positions": [
                -1.3113511755739915,
                -1.247073582769128,
                0.9798519121207419,
                -0.46427172017212126,
                0.9860898428158599,
                1.5363078733149655
            ]
        },
        {
            "positions": [
                -1.3716279492130874,
                -1.2415947964828218,
                0.8860066375301573,
                -0.5276267852137552,
                1.0040079012161214,
                1.4071219189060593
            ]
        },
        {
            "positions": [
                -1.4319047228521835,
                -1.2361160101965158,
                0.7921613629395727,
                -0.5909818502553891,
                1.0219259596163828,
                1.277935964497153
            ]
        },
        {
            "positions": [
                -1.4921814964912796,
                -1.2306372239102097,
                0.6983160883489881,
                -0.654336915297023,
                1.0398440180166442,
                1.1487500100882468
            ]
        },
        {
            "positions": [
                -1.5524582701303757,
                -1.2251584376239035,
                0.6044708137584034,
                -0.717691980338657,
                1.0577620764169058,
                1.0195640556793404
            ]
        },
        {
            "positions": [
                -1.6127350437694719,
                -1.2196796513375974,
                0.5106255391678187,
                -0.7810470453802909,
                1.0756801348171672,
                0.8903781012704339
            ]
        },
        {
            "positions": [
                -1.673011817408568,
                -1.2142008650512912,
                0.41678026457723427,
                -0.8444021104219248,
                1.0935981932174288,
                0.7611921468615279
            ]
        },
        {
            "positions": [
                -1.733288591047664,
                -1.208722078764985,
                0.32293498998664966,
                -0.9077571754635587,
                1.1115162516176902,
                0.6320061924526215
            ]
        },
        {
            "positions": [
                -1.8019144262252003,
                -1.19581248736386,
                0.41131280738154635,
                -0.950917671358694,
                1.1356618555722318,
                0.7387700867663801
            ]
        },
        {
            "positions": [
                -1.8705402614027364,
                -1.1829028959627352,
                0.499690624776443,
                -0.9940781672538292,
                1.1598074595267736,
                0.8455339810801388
            ]
        },
        {
            "positions": [
                -1.9391660965802726,
                -1.1699933045616102,
                0.5880684421713397,
                -1.0372386631489645,
                1.1839530634813151,
                0.9522978753938975
            ]
        },
        {
            "positions": [
                -2.007791931757809,
                -1.1570837131604854,
                0.6764462595662364,
                -1.0803991590440998,
                1.208098667435857,
                1.059061769707656
            ]
        },
        {
            "positions": [
                -2.076417766935345,
                -1.1441741217593604,
                0.7648240769611331,
                -1.123559654939235,
                1.2322442713903985,
                1.1658256640214149
            ]
        },
        {
            "positions": [
                -2.145043602112881,
                -1.1312645303582356,
                0.8532018943560298,
                -1.1667201508343703,
                1.25638987534494,
                1.2725895583351736
            ]
        },
        {
            "positions": [
                -2.2136694372904175,
                -1.1183549389571106,
                0.9415797117509264,
                -1.2098806467295056,
                1.2805354792994819,
                1.3793534526489322
            ]
        },
        {
            "positions": [
                -2.271479502862808,
                -1.1082676329594034,
                1.028266556537274,
                -1.241556967084597,
                1.2945710191832935,
                1.4830369138851933
            ]
        },
        {
            "positions": [
                -2.3292895684351986,
                -1.0981803269616965,
                1.1149534013236218,
                -1.273233287439688,
                1.308606559067105,
                1.5867203751214545
            ]
        },
        {
            "positions": [
                -2.3870996340075896,
                -1.0880930209639894,
                1.2016402461099693,
                -1.3049096077947793,
                1.3226420989509164,
                1.6904038363577154
            ]
        },
        {
            "positions": [
                -2.44490969957998,
                -1.0780057149662823,
                1.288327090896317,
                -1.3365859281498707,
                1.3366776388347281,
                1.7940872975939766
            ]
        },
        {
            "positions": [
                -2.4627198176551413,
                -1.0846792876564455,
                1.4060634153976732,
                -1.3006137557123074,
                1.2731420318845748,
                1.9342063976476103
            ]
        },
        {
            "positions": [
                -2.4805299357303023,
                -1.0913528603466087,
                1.5237997398990293,
                -1.2646415832747442,
                1.2096064249344212,
                2.074325497701244
            ]
        },
        {
            "positions": [
                -2.498340053805463,
                -1.0980264330367722,
                1.6415360644003856,
                -1.2286694108371807,
                1.1460708179842678,
                2.214444597754878
            ]
        },
        {
            "positions": [
                -2.516150171880624,
                -1.1047000057269354,
                1.7592723889017416,
                -1.1926972383996175,
                1.0825352110341142,
                2.3545636978085116
            ]
        },
        {
            "positions": [
                -2.533960289955785,
                -1.1113735784170986,
                1.877008713403098,
                -1.1567250659620543,
                1.0189996040839608,
                2.4946827978621453
            ]
        },
        {
            "positions": [
                -2.518308376009128,
                -1.1244681888620454,
                1.9106372746128302,
                -1.0775500995421374,
                0.9352215644091788,
                2.653310197291817
            ]
        },
        {
            "positions": [
                -2.502656462062471,
                -1.137562799306992,
                1.9442658358225626,
                -0.9983751331222205,
                0.8514435247343968,
                2.8119375967214886
            ]
        },
        {
            "positions": [
                -2.4870045481158134,
                -1.1506574097519384,
                1.977894397032295,
                -0.9192001667023035,
                0.7676654850596148,
                2.9705649961511607
            ]
        },
        {
            "positions": [
                -2.4713526341691563,
                -1.1637520201968852,
                2.0115229582420273,
                -0.8400252002823867,
                0.6838874453848328,
                3.1291923955808323
            ]
        }
    ]
}