{
    "goal": {
        "global_pose": {
            "orientation": {
                "w": 0.005598929693374612,
                "x": 0.007748599140229565,
                "y": 0.7110244013736278,
                "z": -0.7031023480610252
            },
            "position": {
                "x": -0.8858502320852131,
                "y": -0.7141253447532654,
                "z": 0.3711530566215515
            }
        },
        "name": "move_to_auspresseinheit_C"
    },
    "id": "KPIECE_move_to_auspresseinheit_C_147",
    "joint_names": [
        "shoulder_pan_joint",
        "shoulder_lift_joint",
        "elbow_joint",
        "wrist_1_joint",
        "wrist_2_joint",
        "wrist_3_joint"
    ],
    "metrics": {
        "cart_traj_len": 0.4941288590924231,
        "distance_elbow_joint": 1.015342657134735,
        "distance_shoulder_lift_joint": 0.3323951922173899,
        "distance_shoulder_pan_joint": 0.25627460756942266,
        "distance_wrist_1_joint": 0.7073292697691355,
        "distance_wrist_2_joint": 1.3195506425680295,
        "distance_wrist_3_joint": 0.08154242613102358,
        "smoothness": 9.689219149575435e-16,
        "time": 2.649053973,
        "traj_len": 1.9267679661520576,
        "weighted_distance": 2.4294854516932074
    },
    "planner": "KPIECE",
    "start": {
        "state": {
            "elbow_joint": 1.7527959577730765,
            "shoulder_lift_joint": -0.9740617694224828,
            "shoulder_pan_joint": -2.967991417825869,
            "wrist_1_joint": -0.7595177689779385,
            "wrist_2_joint": 1.7443932448376545,
            "wrist_3_joint": 3.1991315425061013
        }
    },
    "waypoints": [
        {
            "positions": [
                -2.967991417825869,
                -0.9740617694224828,
                1.7527959577730765,
                -0.7595177689779385,
                1.7443932448376545,
                3.1991315425061013
            ]
        },
        {
            "positions": [
                -2.9423639570689266,
                -0.9408222502007438,
                1.651261692059603,
                -0.688784842001025,
                1.6124381805808514,
                3.190977299892999
            ]
        },
        {
            "positions": [
                -2.9167364963119846,
                -0.9075827309790048,
                1.5497274263461294,
                -0.6180519150241115,
                1.4804831163240486,
                3.182823057279897
            ]
        },
        {
            "positions": [
                -2.891109035555042,
                -0.8743432117572658,
                1.448193160632656,
                -0.5473189880471979,
                1.3485280520672456,
                3.174668814666794
            ]
        },
        {
            "positions": [
                -2.8654815747981,
                -0.8411036925355269,
                1.3466588949191824,
                -0.47658606107028434,
                1.2165729878104425,
                3.166514572053692
            ]
        },
        {
            "positions": [
                -2.8398541140411577,
                -0.8078641733137879,
                1.245124629205709,
                -0.4058531340933708,
                1.0846179235536397,
                3.1583603294405895
            ]
        },
        {
            "positions": [
                -2.8142266532842153,
                -0.7746246540920488,
                1.1435903634922355,
                -0.3351202071164573,
                0.9526628592968368,
                3.1502060868274873
            ]
        },
        {
            "positions": [
                -2.7885991925272733,
                -0.7413851348703099,
                1.042056097778762,
                -0.26438728013954377,
                0.8207077950400339,
                3.142051844214385
            ]
        },
        {
            "positions": [
                -2.762971731770331,
                -0.7081456156485708,
                0.9405218320652884,
                -0.19365435316263013,
                0.6887527307832308,
                3.1338976016012823
            ]
        },
        {
            "positions": [
                -2.737344271013389,
                -0.6749060964268319,
                0.8389875663518149,
                -0.12292142618571666,
                0.5567976665264278,
                3.12574335898818
            ]
        },
        {
            "positions": [
                -2.7117168102564464,
                -0.6416665772050929,
                0.7374533006383414,
                -0.05218849920880313,
                0.4248426022696251,
                3.1175891163750777
            ]
        }
    ]
}