{
    "goal": {
        "global_pose": {
            "orientation": {
                "w": 0.005598929693374612,
                "x": 0.007748599140229565,
                "y": 0.7110244013736278,
                "z": -0.7031023480610252
            },
            "position": {
                "x": 0.1141497679147869,
                "y": -0.7141253447532654,
                "z": 0.3711530566215515
            }
        },
        "name": "move_to_auspresseinheit_B"
    },
    "id": "KPIECE_move_to_auspresseinheit_B_26",
    "joint_names": [
        "shoulder_pan_joint",
        "shoulder_lift_joint",
        "elbow_joint",
        "wrist_1_joint",
        "wrist_2_joint",
        "wrist_3_joint"
    ],
    "metrics": {
        "cart_traj_len": 0.5643095834924714,
        "distance_elbow_joint": 0.058193848814811044,
        "distance_shoulder_lift_joint": 0.2964636677591297,
        "distance_shoulder_pan_joint": 0.5784288298283307,
        "distance_wrist_1_joint": 0.31594537604132233,
        "distance_wrist_2_joint": 0.987601834641211,
        "distance_wrist_3_joint": 0.00043522761037939617,
        "smoothness": 5.075305255429287e-16,
        "time": 0.456753573,
        "traj_len": 1.4956833838400372,
        "weighted_distance": 1.8818837505538106
    },
    "planner": "KPIECE",
    "start": {
        "state": {
            "elbow_joint": 2.0193061681459312,
            "shoulder_lift_joint": -1.1220205130644991,
            "shoulder_pan_joint": -1.0952072088045026,
            "wrist_1_joint": -0.8559671810662515,
            "wrist_2_joint": 0.4759638712940361,
            "wrist_3_joint": 3.159081874192446
        }
    },
    "waypoints": [
        {
            "positions": [
                -1.0952072088045026,
                -1.1220205130644991,
                2.0193061681459312,
                -0.8559671810662515,
                0.4759638712940361,
                3.159081874192446
            ]
        },
        {
            "positions": [
                -1.191612013775891,
                -1.1714311243576874,
                2.009607193343463,
                -0.8033096183926978,
                0.6405641770675713,
                3.159009336257383
            ]
        },
        {
            "positions": [
                -1.2880168187472796,
                -1.2208417356508756,
                1.9999082185409942,
                -0.7506520557191441,
                0.8051644828411064,
                3.1589367983223196
            ]
        },
        {
            "positions": [
                -1.384421623718668,
                -1.2702523469440639,
                1.9902092437385257,
                -0.6979944930455904,
                0.9697647886146417,
                3.158864260387256
            ]
        },
        {
            "positions": [
                -1.4808264286900563,
                -1.3196629582372523,
                1.9805102689360572,
                -0.6453369303720367,
                1.1343650943881767,
                3.158791722452193
            ]
        },
        {
            "positions": [
                -1.577231233661445,
                -1.3690735695304406,
                1.9708112941335887,
                -0.5926793676984828,
                1.298965400161712,
                3.15871918451713
            ]
        },
        {
            "positions": [
                -1.6736360386328333,
                -1.4184841808236288,
                1.9611123193311202,
                -0.5400218050249291,
                1.4635657059352472,
                3.1586466465820666
            ]
        }
    ]
}