{
    "goal": {
        "global_pose": {
            "orientation": {
                "w": -0.00223480608172531,
                "x": 0.0024358444001904467,
                "y": 0.7094548369677653,
                "z": -0.704743149386269
            },
            "position": {
                "x": 0.6205249238014221,
                "y": -0.6371506643295288,
                "z": 0.19426114857196808
            }
        },
        "name": "move_to_magneteinheit_B"
    },
    "id": "KPIECE_move_to_magneteinheit_B_62",
    "joint_names": [
        "shoulder_pan_joint",
        "shoulder_lift_joint",
        "elbow_joint",
        "wrist_1_joint",
        "wrist_2_joint",
        "wrist_3_joint"
    ],
    "metrics": {
        "cart_traj_len": 4.368867058625041,
        "distance_elbow_joint": 6.133033861417219,
        "distance_shoulder_lift_joint": 2.3175710831164835,
        "distance_shoulder_pan_joint": 2.5068044525059503,
        "distance_wrist_1_joint": 6.920341282483174,
        "distance_wrist_2_joint": 4.272468799158121,
        "distance_wrist_3_joint": 10.15375334352907,
        "smoothness": 0.6293520023838262,
        "time": 3.7062799120000003,
        "traj_len": 5.683658401259707,
        "weighted_distance": 7.987758733894598
    },
    "planner": "KPIECE",
    "start": {
        "state": {
            "elbow_joint": 2.393587130804639,
            "shoulder_lift_joint": -1.9085141043513325,
            "shoulder_pan_joint": 0.7066247066698809,
            "wrist_1_joint": -0.4678290934590222,
            "wrist_2_joint": 0.7096259084215963,
            "wrist_3_joint": 3.147370379541726
        }
    },
    "waypoints": [
        {
            "positions": [
                0.7066247066698809,
                -1.9085141043513325,
                2.393587130804639,
                -0.4678290934590222,
                0.7096259084215963,
                3.147370379541726
            ]
        },
        {
            "positions": [
                0.6696581811071454,
                -1.882130661877122,
                2.4368232750299335,
                -0.480209710882487,
                0.7380869847865794,
                3.2303049574971396
            ]
        },
        {
            "positions": [
                0.63269165554441,
                -1.8557472194029119,
                2.480059419255228,
                -0.49259032830595173,
                0.7665480611515625,
                3.3132395354525532
            ]
        },
        {
            "positions": [
                0.5869302052976225,
                -1.8742910216737798,
                2.3410603743557306,
                -0.5003814274340205,
                0.7361134876636848,
                3.2155018738233894
            ]
        },
        {
            "positions": [
                0.541168755050835,
                -1.892834823944648,
                2.2020613294562335,
                -0.5081725265620893,
                0.7056789141758072,
                3.1177642121942255
            ]
        },
        {
            "positions": [
                0.4954073048040475,
                -1.911378626215516,
                2.063062284556736,
                -0.5159636256901581,
                0.6752443406879295,
                3.0200265505650616
            ]
        },
        {
            "positions": [
                0.5418791845165446,
                -1.8942461578826892,
                1.9655117979134968,
                -0.5719522192686368,
                0.6302157085028969,
                2.8878414371316232
            ]
        },
        {
            "positions": [
                0.5883510642290417,
                -1.8771136895498624,
                1.867961311270258,
                -0.6279408128471156,
                0.5851870763178644,
                2.755656323698185
            ]
        },
        {
            "positions": [
                0.6348229439415388,
                -1.8599812212170357,
                1.7704108246270192,
                -0.6839294064255942,
                0.5401584441328318,
                2.6234712102647464
            ]
        },
        {
            "positions": [
                0.6812948236540359,
                -1.8428487528842088,
                1.67286033798378,
                -0.7399180000040729,
                0.49512981194779926,
                2.491286096831308
            ]
        },
        {
            "positions": [
                0.7277667033665332,
                -1.8257162845513821,
                1.575309851340541,
                -0.7959065935825517,
                0.45010117976276665,
                2.3591009833978696
            ]
        },
        {
            "positions": [
                0.7742385830790302,
                -1.8085838162185555,
                1.4777593646973022,
                -0.8518951871610303,
                0.4050725475777341,
                2.226915869964431
            ]
        },
        {
            "positions": [
                0.8207104627915274,
                -1.7914513478857286,
                1.3802088780540633,
                -0.907883780739509,
                0.3600439153927015,
                2.0947307565309927
            ]
        },
        {
            "positions": [
                0.8671823425040244,
                -1.774318879552902,
                1.2826583914108243,
                -0.9638723743179878,
                0.315015283207669,
                1.9625456430975543
            ]
        },
        {
            "positions": [
                0.9136542222165216,
                -1.7571864112200752,
                1.1851079047675852,
                -1.0198609678964665,
                0.2699866510226364,
                1.8303605296641159
            ]
        },
        {
            "positions": [
                0.9601261019290187,
                -1.7400539428872484,
                1.0875574181243464,
                -1.0758495614749453,
                0.2249580188376038,
                1.6981754162306775
            ]
        },
        {
            "positions": [
                1.0065979816415158,
                -1.7229214745544217,
                0.9900069314811075,
                -1.131838155053424,
                0.1799293866525713,
                1.565990302797239
            ]
        },
        {
            "positions": [
                1.0530698613540128,
                -1.705789006221595,
                0.8924564448378685,
                -1.1878267486319025,
                0.13490075446753869,
                1.4338051893638006
            ]
        },
        {
            "positions": [
                1.09954174106651,
                -1.6886565378887681,
                0.7949059581946296,
                -1.2438153422103813,
                0.08987212228250618,
                1.3016200759303624
            ]
        },
        {
            "positions": [
                1.1460136207790073,
                -1.6715240695559415,
                0.6973554715513905,
                -1.29980393578886,
                0.04484349009747346,
                1.1694349624969236
            ]
        },
        {
            "positions": [
                1.1924855004915043,
                -1.6543916012231148,
                0.5998049849081517,
                -1.3557925293673387,
                -0.0001851420875590426,
                1.0372498490634854
            ]
        },
        {
            "positions": [
                1.2389573802040013,
                -1.637259132890288,
                0.5022544982649126,
                -1.4117811229458175,
                -0.045213774272591545,
                0.905064735630047
            ]
        },
        {
            "positions": [
                1.2854292599164987,
                -1.620126664557461,
                0.4047040116216736,
                -1.4677697165242962,
                -0.09024240645762416,
                0.7728796221966086
            ]
        },
        {
            "positions": [
                1.3319011396289957,
                -1.6029941962246343,
                0.30715352497843473,
                -1.523758310102775,
                -0.13527103864265666,
                0.6406945087631701
            ]
        },
        {
            "positions": [
                1.3783730193414927,
                -1.5858617278918077,
                0.2096030383351959,
                -1.5797469036812535,
                -0.18029967082768927,
                0.5085093953297317
            ]
        },
        {
            "positions": [
                1.42484489905399,
                -1.5687292595589808,
                0.11205255169195683,
                -1.6357354972597324,
                -0.2253283030127219,
                0.3763242818962933
            ]
        },
        {
            "positions": [
                1.4713167787664871,
                -1.5515967912261541,
                0.01450206504871776,
                -1.691724090838211,
                -0.2703569351977544,
                0.24413916846285488
            ]
        },
        {
            "positions": [
                1.5177886584789841,
                -1.5344643228933275,
                -0.08304842159452086,
                -1.7477126844166897,
                -0.3153855673827869,
                0.11195405502941647
            ]
        },
        {
            "positions": [
                1.5642605381914814,
                -1.5173318545605006,
                -0.18059890823775993,
                -1.8037012779951684,
                -0.3604141995678195,
                -0.02023105840402195
            ]
        },
        {
            "positions": [
                1.6107324179039784,
                -1.500199386227674,
                -0.278149394880999,
                -1.8596898715736472,
                -0.4054428317528521,
                -0.15241617183746037
            ]
        },
        {
            "positions": [
                1.6572042976164756,
                -1.4830669178948472,
                -0.37569988152423806,
                -1.915678465152126,
                -0.45047146393788473,
                -0.28460128527089923
            ]
        },
        {
            "positions": [
                1.7036761773289726,
                -1.4659344495620203,
                -0.4732503681674767,
                -1.9716670587306044,
                -0.4955000961229171,
                -0.41678639870433676
            ]
        },
        {
            "positions": [
                1.7501480570414698,
                -1.4488019812291937,
                -0.5708008548107157,
                -2.0276556523090834,
                -0.5405287283079497,
                -0.5489715121377756
            ]
        },
        {
            "positions": [
                1.796619936753967,
                -1.4316695128963668,
                -0.6683513414539548,
                -2.0836442458875624,
                -0.5855573604929826,
                -0.6811566255712145
            ]
        },
        {
            "positions": [
                1.8430918164664638,
                -1.4145370445635401,
                -0.7659018280971934,
                -2.1396328394660404,
                -0.630585992678015,
                -0.813341739004652
            ]
        },
        {
            "positions": [
                1.889563696178961,
                -1.3974045762307135,
                -0.8634523147404325,
                -2.1956214330445194,
                -0.6756146248630476,
                -0.9455268524380909
            ]
        },
        {
            "positions": [
                1.9360355758914582,
                -1.3802721078978866,
                -0.961002801383672,
                -2.2516100266229984,
                -0.7206432570480802,
                -1.0777119658715293
            ]
        },
        {
            "positions": [
                1.9825074556039552,
                -1.36313963956506,
                -1.0585532880269106,
                -2.307598620201477,
                -0.7656718892331126,
                -1.2098970793049677
            ]
        },
        {
            "positions": [
                2.0289793353164525,
                -1.346007171232233,
                -1.1561037746701497,
                -2.3635872137799554,
                -0.8107005214181452,
                -1.3420821927384061
            ]
        },
        {
            "positions": [
                2.0754512150289495,
                -1.3288747028994063,
                -1.2536542613133888,
                -2.4195758073584344,
                -0.8557291536031778,
                -1.4742673061718445
            ]
        },
        {
            "positions": [
                2.1219230947414465,
                -1.3117422345665797,
                -1.3512047479566274,
                -2.475564400936913,
                -0.9007577857882102,
                -1.606452419605283
            ]
        },
        {
            "positions": [
                2.168394974453944,
                -1.2946097662337528,
                -1.4487552345998664,
                -2.531552994515392,
                -0.9457864179732428,
                -1.7386375330387214
            ]
        },
        {
            "positions": [
                2.214866854166441,
                -1.2774772979009261,
                -1.5463057212431055,
                -2.5875415880938704,
                -0.9908150501582756,
                -1.8708226464721598
            ]
        },
        {
            "positions": [
                2.261338733878938,
                -1.2603448295680995,
                -1.6438562078863441,
                -2.643530181672349,
                -1.035843682343308,
                -2.003007759905598
            ]
        },
        {
            "positions": [
                2.3078106135914354,
                -1.2432123612352726,
                -1.7414066945295832,
                -2.699518775250828,
                -1.0808723145283405,
                -2.1351928733390366
            ]
        },
        {
            "positions": [
                2.3542824933039324,
                -1.226079892902446,
                -1.8389571811728223,
                -2.755507368829307,
                -1.1259009467133732,
                -2.267377986772475
            ]
        },
        {
            "positions": [
                2.4007543730164294,
                -1.2089474245696192,
                -1.9365076678160609,
                -2.8114959624077853,
                -1.1709295788984058,
                -2.3995631002059135
            ]
        },
        {
            "positions": [
                2.4472262527289264,
                -1.1918149562367923,
                -2.0340581544593004,
                -2.867484555986264,
                -1.2159582110834384,
                -2.531748213639352
            ]
        },
        {
            "positions": [
                2.493698132441424,
                -1.1746824879039655,
                -2.131608641102539,
                -2.923473149564743,
                -1.260986843268471,
                -2.6639333270727903
            ]
        },
        {
            "positions": [
                2.540170012153921,
                -1.157550019571139,
                -2.2291591277457776,
                -2.9794617431432213,
                -1.3060154754535032,
                -2.7961184405062287
            ]
        },
        {
            "positions": [
                2.586641891866418,
                -1.1404175512383121,
                -2.326709614389017,
                -3.0354503367217003,
                -1.3510441076385358,
                -2.928303553939667
            ]
        },
        {
            "positions": [
                2.6331137715789152,
                -1.1232850829054852,
                -2.4242601010322558,
                -3.091438930300179,
                -1.3960727398235684,
                -3.0604886673731055
            ]
        },
        {
            "positions": [
                2.6795856512914122,
                -1.1061526145726588,
                -2.5218105876754944,
                -3.1474275238786573,
                -1.441101372008601,
                -3.192673780806544
            ]
        },
        {
            "positions": [
                2.7260575310039092,
                -1.089020146239832,
                -2.619361074318734,
                -3.2034161174571363,
                -1.4861300041936338,
                -3.324858894239983
            ]
        },
        {
            "positions": [
                2.723962794731643,
                -1.1337560917682117,
                -2.588808136273809,
                -3.0684240446027795,
                -1.4228116628683771,
                -3.216801289145605
            ]
        },
        {
            "positions": [
                2.7218680584593766,
                -1.1784920372965915,
                -2.5582551982288844,
                -2.9334319717484227,
                -1.3594933215431202,
                -3.1087436840512273
            ]
        },
        {
            "positions": [
                2.7197733221871103,
                -1.2232279828249715,
                -2.5277022601839594,
                -2.798439898894066,
                -1.2961749802178635,
                -3.0006860789568495
            ]
        },
        {
            "positions": [
                2.717678585914844,
                -1.2679639283533513,
                -2.4971493221390344,
                -2.663447826039709,
                -1.2328566388926068,
                -2.8926284738624717
            ]
        },
        {
            "positions": [
                2.7155838496425777,
                -1.312699873881731,
                -2.46659638409411,
                -2.528455753185353,
                -1.1695382975673498,
                -2.784570868768094
            ]
        },
        {
            "positions": [
                2.7134891133703114,
                -1.357435819410111,
                -2.436043446049185,
                -2.393463680330996,
                -1.1062199562420931,
                -2.676513263673716
            ]
        },
        {
            "positions": [
                2.711394377098045,
                -1.4021717649384908,
                -2.4054905080042603,
                -2.2584716074766393,
                -1.0429016149168362,
                -2.568455658579338
            ]
        },
        {
            "positions": [
                2.709299640825779,
                -1.4469077104668706,
                -2.3749375699593354,
                -2.1234795346222826,
                -0.9795832735915795,
                -2.46039805348496
            ]
        },
        {
            "positions": [
                2.7072049045535125,
                -1.4916436559952504,
                -2.3443846319144104,
                -1.9884874617679258,
                -0.9162649322663227,
                -2.3523404483905823
            ]
        },
        {
            "positions": [
                2.705110168281246,
                -1.5363796015236302,
                -2.313831693869486,
                -1.8534953889135692,
                -0.8529465909410658,
                -2.2442828432962045
            ]
        },
        {
            "positions": [
                2.70301543200898,
                -1.5811155470520102,
                -2.283278755824561,
                -1.7185033160592125,
                -0.789628249615809,
                -2.1362252382018267
            ]
        },
        {
            "positions": [
                2.7009206957367136,
                -1.62585149258039,
                -2.252725817779636,
                -1.5835112432048557,
                -0.7263099082905523,
                -2.028167633107449
            ]
        },
        {
            "positions": [
                2.6988259594644473,
                -1.67058743810877,
                -2.2221728797347113,
                -1.448519170350499,
                -0.6629915669652955,
                -1.9201100280130712
            ]
        },
        {
            "positions": [
                2.696731223192181,
                -1.7153233836371498,
                -2.1916199416897864,
                -1.3135270974961424,
                -0.5996732256400387,
                -1.8120524229186934
            ]
        },
        {
            "positions": [
                2.6946364869199146,
                -1.7600593291655295,
                -2.1610670036448614,
                -1.1785350246417856,
                -0.5363548843147818,
                -1.7039948178243156
            ]
        },
        {
            "positions": [
                2.692541750647649,
                -1.8047952746939093,
                -2.130514065599937,
                -1.0435429517874288,
                -0.47303654298952513,
                -1.5959372127299378
            ]
        },
        {
            "positions": [
                2.6904470143753825,
                -1.849531220222289,
                -2.099961127555012,
                -0.9085508789330725,
                -0.4097182016642684,
                -1.48787960763556
            ]
        },
        {
            "positions": [
                2.688352278103116,
                -1.8942671657506691,
                -2.069408189510087,
                -0.7735588060787153,
                -0.3463998603390115,
                -1.379822002541182
            ]
        },
        {
            "positions": [
                2.68625754183085,
                -1.939003111279049,
                -2.0388552514651623,
                -0.6385667332243585,
                -0.2830815190137548,
                -1.2717643974468045
            ]
        },
        {
            "positions": [
                2.6841628055585836,
                -1.9837390568074287,
                -2.0083023134202374,
                -0.5035746603700022,
                -0.21976317768849785,
                -1.1637067923524267
            ]
        },
        {
            "positions": [
                2.6820680692863172,
                -2.0284750023358082,
                -1.9777493753753126,
                -0.36858258751564543,
                -0.15644483636324114,
                -1.055649187258049
            ]
        },
        {
            "positions": [
                2.679973333014051,
                -2.0732109478641885,
                -1.9471964373303878,
                -0.23359051466128866,
                -0.0931264950379842,
                -0.9475915821636707
            ]
        },
        {
            "positions": [
                2.6778785967417846,
                -2.1179468933925683,
                -1.9166434992854628,
                -0.09859844180693189,
                -0.029808153712727492,
                -0.8395339770692929
            ]
        },
        {
            "positions": [
                2.6757838604695183,
                -2.162682838920948,
                -1.886090561240538,
                0.03639363104742488,
                0.03351018761252922,
                -0.7314763719749156
            ]
        },
        {
            "positions": [
                2.673689124197252,
                -2.207418784449328,
                -1.8555376231956133,
                0.1713857039017812,
                0.09682852893778593,
                -0.6234187668805378
            ]
        },
        {
            "positions": [
                2.6715943879249857,
                -2.2521547299777076,
                -1.8249846851506883,
                0.3063777767561384,
                0.16014687026304286,
                -0.5153611617861595
            ]
        },
        {
            "positions": [
                2.6694996516527194,
                -2.296890675506088,
                -1.7944317471057636,
                0.4413698496104952,
                0.22346521158829957,
                -0.40730355669178175
            ]
        },
        {
            "positions": [
                2.667404915380453,
                -2.341626621034467,
                -1.7638788090608388,
                0.5763619224648515,
                0.2867835529135565,
                -0.29924595159740397
            ]
        },
        {
            "positions": [
                2.665310179108187,
                -2.3863625665628474,
                -1.733325871015914,
                0.7113539953192083,
                0.3501018942388132,
                -0.19118834650302663
            ]
        },
        {
            "positions": [
                2.6632154428359205,
                -2.431098512091227,
                -1.702772932970989,
                0.8463460681735651,
                0.41342023556407015,
                -0.0831307414086484
            ]
        },
        {
            "positions": [
                2.661120706563654,
                -2.475834457619607,
                -1.6722199949260643,
                0.9813381410279222,
                0.4767385768893269,
                0.024926863685729245
            ]
        }
    ]
}