{
    "goal": {
        "global_pose": {
            "orientation": {
                "w": 0.7047431468963623,
                "x": -0.7094548344612122,
                "y": 0.0024358443915843964,
                "z": -0.0022348060738295317
            },
            "position": {
                "x": 0.6094750761985779,
                "y": 0.3671506643295288,
                "z": 0.19426114857196808
            }
        },
        "name": "move_to_magneteinheit_A"
    },
    "id": "KPIECE_move_to_magneteinheit_A_19",
    "joint_names": [
        "shoulder_pan_joint",
        "shoulder_lift_joint",
        "elbow_joint",
        "wrist_1_joint",
        "wrist_2_joint",
        "wrist_3_joint"
    ],
    "metrics": {
        "cart_traj_len": 1.5936112038298125,
        "distance_elbow_joint": 3.5312364081578997,
        "distance_shoulder_lift_joint": 1.1381359850297574,
        "distance_shoulder_pan_joint": 1.2424066160639895,
        "distance_wrist_1_joint": 3.850064468608348,
        "distance_wrist_2_joint": 1.705184326910335,
        "distance_wrist_3_joint": 5.057714955576875,
        "smoothness": 3.3048499599367216e-16,
        "time": 0.106740009,
        "traj_len": 4.0650636846606965,
        "weighted_distance": 5.674100939093314
    },
    "planner": "KPIECE",
    "start": {
        "state": {
            "elbow_joint": -1.5739458827952972,
            "shoulder_lift_joint": 0.006533473998580023,
            "shoulder_pan_joint": -1.1188671628667068,
            "wrist_1_joint": 3.138208179676308,
            "wrist_2_joint": -1.5706037135050406,
            "wrist_3_joint": -2.0226958329764257
        }
    },
    "waypoints": [
        {
            "positions": [
                -1.1188671628667068,
                0.006533473998580023,
                -1.5739458827952972,
                3.138208179676308,
                -1.5706037135050406,
                -2.0226958329764257
            ]
        },
        {
            "positions": [
                -1.0892860529604214,
                -0.02056500183546182,
                -1.4898688254582044,
                3.046539978042776,
                -1.530004086673842,
                -1.9022740483198335
            ]
        },
        {
            "positions": [
                -1.0597049430541359,
                -0.047663477669503664,
                -1.4057917681211116,
                2.954871776409244,
                -1.4894044598426437,
                -1.7818522636632412
            ]
        },
        {
            "positions": [
                -1.0301238331478504,
                -0.0747619535035455,
                -1.3217147107840188,
                2.863203574775712,
                -1.4488048330114451,
                -1.661430479006649
            ]
        },
        {
            "positions": [
                -1.000542723241565,
                -0.10186042933758735,
                -1.2376376534469258,
                2.77153537314218,
                -1.4082052061802468,
                -1.5410086943500567
            ]
        },
        {
            "positions": [
                -0.9709616133352795,
                -0.12895890517162917,
                -1.153560596109833,
                2.679867171508648,
                -1.3676055793490483,
                -1.4205869096934645
            ]
        },
        {
            "positions": [
                -0.941380503428994,
                -0.15605738100567101,
                -1.0694835387727402,
                2.5881989698751156,
                -1.32700595251785,
                -1.3001651250368722
            ]
        },
        {
            "positions": [
                -0.9117993935227087,
                -0.18315585683971286,
                -0.9854064814356474,
                2.4965307682415836,
                -1.2864063256866514,
                -1.17974334038028
            ]
        },
        {
            "positions": [
                -0.8822182836164232,
                -0.2102543326737547,
                -0.9013294240985544,
                2.4048625666080516,
                -1.245806698855453,
                -1.0593215557236877
            ]
        },
        {
            "positions": [
                -0.8526371737101377,
                -0.23735280850779655,
                -0.8172523667614616,
                2.3131943649745192,
                -1.2052070720242545,
                -0.9388997710670954
            ]
        },
        {
            "positions": [
                -0.8230560638038522,
                -0.2644512843418384,
                -0.7331753094243688,
                2.2215261633409873,
                -1.1646074451930561,
                -0.8184779864105032
            ]
        },
        {
            "positions": [
                -0.7934749538975667,
                -0.2915497601758803,
                -0.6490982520872758,
                2.1298579617074553,
                -1.1240078183618576,
                -0.6980562017539107
            ]
        },
        {
            "positions": [
                -0.7638938439912812,
                -0.3186482360099221,
                -0.5650211947501831,
                2.038189760073923,
                -1.0834081915306593,
                -0.5776344170973187
            ]
        },
        {
            "positions": [
                -0.7343127340849958,
                -0.345746711843964,
                -0.48094413741309006,
                1.946521558440391,
                -1.0428085646994607,
                -0.4572126324407262
            ]
        },
        {
            "positions": [
                -0.7047316241787104,
                -0.3728451876780058,
                -0.39686708007599747,
                1.854853356806859,
                -1.0022089378682622,
                -0.33679084778413415
            ]
        },
        {
            "positions": [
                -0.6751505142724249,
                -0.39994366351204763,
                -0.31279002273890444,
                1.7631851551733269,
                -0.9616093110370637,
                -0.21636906312754167
            ]
        },
        {
            "positions": [
                -0.6455694043661395,
                -0.4270421393460895,
                -0.22871296540181163,
                1.6715169535397947,
                -0.9210096842058654,
                -0.09594727847094964
            ]
        },
        {
            "positions": [
                -0.6159882944598539,
                -0.4541406151801313,
                -0.14463590806471882,
                1.5798487519062625,
                -0.8804100573746668,
                0.02447450618564284
            ]
        },
        {
            "positions": [
                -0.5864071845535686,
                -0.48123909101417317,
                -0.06055885072762601,
                1.4881805502727306,
                -0.8398104305434685,
                0.14489629084223488
            ]
        },
        {
            "positions": [
                -0.5568260746472831,
                -0.508337566848215,
                0.02351820660946702,
                1.3965123486391984,
                -0.7992108037122699,
                0.26531807549882735
            ]
        },
        {
            "positions": [
                -0.5272449647409976,
                -0.5354360426822568,
                0.1075952639465596,
                1.3048441470056664,
                -0.7586111768810716,
                0.3857398601554194
            ]
        },
        {
            "positions": [
                -0.4976638548347121,
                -0.5625345185162987,
                0.19167232128365264,
                1.2131759453721342,
                -0.718011550049873,
                0.5061616448120119
            ]
        },
        {
            "positions": [
                -0.4680827449284266,
                -0.5896329943503406,
                0.27574937862074567,
                1.121507743738602,
                -0.6774119232186745,
                0.6265834294686043
            ]
        },
        {
            "positions": [
                -0.4385016350221411,
                -0.6167314701843823,
                0.3598264359578385,
                1.0298395421050697,
                -0.636812296387476,
                0.7470052141251968
            ]
        },
        {
            "positions": [
                -0.40892052511585575,
                -0.6438299460184241,
                0.44390349329493106,
                0.9381713404715382,
                -0.5962126695562777,
                0.8674269987817884
            ]
        },
        {
            "positions": [
                -0.37933941520957026,
                -0.670928421852466,
                0.5279805506320241,
                0.8465031388380058,
                -0.5556130427250792,
                0.9878487834383809
            ]
        },
        {
            "positions": [
                -0.3497583053032848,
                -0.6980268976865079,
                0.6120576079691171,
                0.7548349372044738,
                -0.5150134158938808,
                1.1082705680949734
            ]
        },
        {
            "positions": [
                -0.3201771953969993,
                -0.7251253735205497,
                0.6961346653062097,
                0.6631667355709414,
                -0.4744137890626823,
                1.2286923527515659
            ]
        },
        {
            "positions": [
                -0.2905960854907139,
                -0.7522238493545915,
                0.7802117226433023,
                0.5714985339374099,
                -0.43381416223148395,
                1.3491141374081574
            ]
        },
        {
            "positions": [
                -0.26101497558442843,
                -0.7793223251886334,
                0.8642887799803953,
                0.4798303323038775,
                -0.3932145354002854,
                1.46953592206475
            ]
        },
        {
            "positions": [
                -0.23143386567814295,
                -0.8064208010226752,
                0.9483658373174884,
                0.38816213067034555,
                -0.35261490856908684,
                1.5899577067213424
            ]
        },
        {
            "positions": [
                -0.20185275577185735,
                -0.8335192768567171,
                1.0324428946545814,
                0.29649392903681315,
                -0.3120152817378885,
                1.7103794913779349
            ]
        },
        {
            "positions": [
                -0.1722716458655721,
                -0.8606177526907589,
                1.116519951991674,
                0.2048257274032812,
                -0.2714156549066902,
                1.8308012760345265
            ]
        },
        {
            "positions": [
                -0.1426905359592865,
                -0.8877162285248008,
                1.200597009328767,
                0.11315752576974925,
                -0.23081602807549162,
                1.951223060691119
            ]
        },
        {
            "positions": [
                -0.113109426053001,
                -0.9148147043588426,
                1.2846740666658596,
                0.021489324136216847,
                -0.19021640124429307,
                2.0716448453477114
            ]
        },
        {
            "positions": [
                -0.08352831614671552,
                -0.9419131801928845,
                1.3687511240029526,
                -0.0701788774973151,
                -0.14961677441309473,
                2.192066630004304
            ]
        },
        {
            "positions": [
                -0.05394720624043026,
                -0.9690116560269263,
                1.4528281813400452,
                -0.16184707913084706,
                -0.1090171475818964,
                2.3124884146608955
            ]
        },
        {
            "positions": [
                -0.02436609633414477,
                -0.9961101318609682,
                1.5369052386771382,
                -0.253515280764379,
                -0.06841752075069785,
                2.432910199317488
            ]
        },
        {
            "positions": [
                0.005215013572140714,
                -1.02320860769501,
                1.6209822960142313,
                -0.3451834823979114,
                -0.027817893919499292,
                2.5533319839740805
            ]
        },
        {
            "positions": [
                0.0347961234784262,
                -1.0503070835290518,
                1.7050593533513239,
                -0.43685168403144337,
                0.012781732911699262,
                2.673753768630673
            ]
        },
        {
            "positions": [
                0.06437723338471169,
                -1.0774055593630936,
                1.7891364106884164,
                -0.5285198856649753,
                0.05338135974289737,
                2.7941755532872645
            ]
        },
        {
            "positions": [
                0.09395834329099717,
                -1.1045040351971356,
                1.8732134680255095,
                -0.6201880872985073,
                0.09398098657409593,
                2.914597337943857
            ]
        },
        {
            "positions": [
                0.12353945319728266,
                -1.1316025110311774,
                1.9572905253626025,
                -0.7118562889320397,
                0.13458061340529442,
                3.035019122600449
            ]
        }
    ]
}