{
    "goal": {
        "global_pose": {
            "orientation": {
                "w": 0.5084816217422485,
                "x": -0.49083608388900757,
                "y": 0.5182115435600281,
                "z": -0.4816462993621826
            },
            "position": {
                "x": 0.5540239810943604,
                "y": 0.030875300988554955,
                "z": 0.16403168439865112
            }
        },
        "name": "move_to_storage_A"
    },
    "id": "KPIECE_move_to_storage_A_136",
    "joint_names": [
        "shoulder_pan_joint",
        "shoulder_lift_joint",
        "elbow_joint",
        "wrist_1_joint",
        "wrist_2_joint",
        "wrist_3_joint"
    ],
    "metrics": {
        "cart_traj_len": 0.35306352916385436,
        "distance_elbow_joint": 0.4496262578061916,
        "distance_shoulder_lift_joint": 0.23434458649422707,
        "distance_shoulder_pan_joint": 0.45777705745165537,
        "distance_wrist_1_joint": 0.23994998528786038,
        "distance_wrist_2_joint": 1.1157166635575773,
        "distance_wrist_3_joint": 0.0948028851210343,
        "smoothness": 2.1094237388036135e-15,
        "time": 0.037128023999999996,
        "traj_len": 1.610036470306976,
        "weighted_distance": 2.034082066880796
    },
    "planner": "KPIECE",
    "start": {
        "state": {
            "elbow_joint": 1.971548880431181,
            "shoulder_lift_joint": -1.1394869514688781,
            "shoulder_pan_joint": 0.12281150262730567,
            "wrist_1_joint": -0.7804693444481463,
            "wrist_2_joint": 0.12958644648617612,
            "wrist_3_joint": 3.0906942077768043
        }
    },
    "waypoints": [
        {
            "positions": [
                0.12281150262730567,
                -1.1394869514688781,
                1.971548880431181,
                -0.7804693444481463,
                0.12958644648617612,
                3.0906942077768043
            ]
        },
        {
            "positions": [
                0.05741478013421204,
                -1.172964749539482,
                2.0357812029749227,
                -0.8147479137749835,
                0.2889745412801157,
                3.1042374770798093
            ]
        },
        {
            "positions": [
                -0.007981942358881583,
                -1.206442547610086,
                2.1000135255186643,
                -0.8490264831018207,
                0.4483626360740553,
                3.117780746382814
            ]
        },
        {
            "positions": [
                -0.0733786648519752,
                -1.2399203456806898,
                2.164245848062406,
                -0.8833050524286579,
                0.6077507308679949,
                3.131324015685819
            ]
        },
        {
            "positions": [
                -0.13877538734506883,
                -1.2733981437512936,
                2.2284781706061474,
                -0.9175836217554951,
                0.7671388256619345,
                3.1448672849888237
            ]
        },
        {
            "positions": [
                -0.20417210983816247,
                -1.3068759418218976,
                2.2927104931498894,
                -0.9518621910823323,
                0.9265269204558741,
                3.158410554291829
            ]
        },
        {
            "positions": [
                -0.26956883233125606,
                -1.3403537398925014,
                2.356942815693631,
                -0.9861407604091694,
                1.0859150152498138,
                3.1719538235948335
            ]
        },
        {
            "positions": [
                -0.3349655548243497,
                -1.3738315379631052,
                2.4211751382373725,
                -1.0204193297360067,
                1.2453031100437535,
                3.1854970928978386
            ]
        }
    ]
}