{
    "goal": {
        "global_pose": {
            "orientation": {
                "w": -0.00223480608172531,
                "x": 0.0024358444001904467,
                "y": 0.7094548369677653,
                "z": -0.704743149386269
            },
            "position": {
                "x": 0.6205249238014221,
                "y": -0.6371506643295288,
                "z": 0.19426114857196808
            }
        },
        "name": "move_to_magneteinheit_B"
    },
    "id": "KPIECE_move_to_magneteinheit_B_101",
    "joint_names": [
        "shoulder_pan_joint",
        "shoulder_lift_joint",
        "elbow_joint",
        "wrist_1_joint",
        "wrist_2_joint",
        "wrist_3_joint"
    ],
    "metrics": {
        "cart_traj_len": 1.4542101006561707,
        "distance_elbow_joint": 0.73292165600275,
        "distance_shoulder_lift_joint": 1.2493466598477336,
        "distance_shoulder_pan_joint": 1.6207691638692645,
        "distance_wrist_1_joint": 2.607506486008301,
        "distance_wrist_2_joint": 2.942998958810673,
        "distance_wrist_3_joint": 3.1460020757984326,
        "smoothness": 4.037174644193617e-16,
        "time": 0.236894596,
        "traj_len": 3.507070715046555,
        "weighted_distance": 4.913456481617905
    },
    "planner": "KPIECE",
    "start": {
        "state": {
            "elbow_joint": 2.393587130804639,
            "shoulder_lift_joint": -1.9085141043513325,
            "shoulder_pan_joint": 0.7066247066698809,
            "wrist_1_joint": -0.4678290934590222,
            "wrist_2_joint": 0.7096259084215963,
            "wrist_3_joint": 3.147370379541726
        }
    },
    "waypoints": [
        {
            "positions": [
                0.7066247066698809,
                -1.9085141043513325,
                2.393587130804639,
                -0.4678290934590222,
                0.7096259084215963,
                3.147370379541726
            ]
        },
        {
            "positions": [
                0.6559756702989663,
                -1.869472021231091,
                2.370683329054553,
                -0.3863445157712628,
                0.6176571909587628,
                3.049057814673025
            ]
        },
        {
            "positions": [
                0.6053266339280519,
                -1.830429938110849,
                2.347779527304467,
                -0.30485993808350337,
                0.5256884734959293,
                2.950745249804324
            ]
        },
        {
            "positions": [
                0.5546775975571373,
                -1.7913878549906075,
                2.324875725554381,
                -0.22337536039574396,
                0.43371975603309576,
                2.852432684935623
            ]
        },
        {
            "positions": [
                0.5040285611862227,
                -1.7523457718703659,
                2.3019719238042953,
                -0.14189078270798455,
                0.34175103857026223,
                2.754120120066922
            ]
        },
        {
            "positions": [
                0.4533795248153083,
                -1.713303688750124,
                2.279068122054209,
                -0.060406205020225145,
                0.2497823211074287,
                2.655807555198221
            ]
        },
        {
            "positions": [
                0.40273048844439374,
                -1.6742616056298825,
                2.2561643203041233,
                0.021078372667534262,
                0.15781360364459518,
                2.55749499032952
            ]
        },
        {
            "positions": [
                0.35208145207347924,
                -1.6352195225096406,
                2.233260518554037,
                0.10256295035529367,
                0.06584488618176165,
                2.4591824254608188
            ]
        },
        {
            "positions": [
                0.30143241570256474,
                -1.596177439389399,
                2.2103567168039513,
                0.18404752804305308,
                -0.026123831281071874,
                2.3608698605921177
            ]
        },
        {
            "positions": [
                0.25078337933165024,
                -1.5571353562691574,
                2.1874529150538655,
                0.2655321057308125,
                -0.1180925487439054,
                2.262557295723417
            ]
        },
        {
            "positions": [
                0.20013434296073573,
                -1.5180932731489158,
                2.1645491133037793,
                0.3470166834185719,
                -0.21006126620673893,
                2.164244730854716
            ]
        },
        {
            "positions": [
                0.14948530658982118,
                -1.479051190028674,
                2.1416453115536935,
                0.4285012611063313,
                -0.30202998366957234,
                2.065932165986015
            ]
        },
        {
            "positions": [
                0.09883627021890662,
                -1.4400091069084324,
                2.1187415098036073,
                0.5099858387940908,
                -0.393998701132406,
                1.9676196011173137
            ]
        },
        {
            "positions": [
                0.04818723384799217,
                -1.4009670237881906,
                2.0958377080535215,
                0.5914704164818503,
                -0.4859674185952396,
                1.8693070362486128
            ]
        },
        {
            "positions": [
                -0.002461802522922385,
                -1.361924940667949,
                2.0729339063034358,
                0.6729549941696096,
                -0.577936136058073,
                1.7709944713799117
            ]
        },
        {
            "positions": [
                -0.05311083889383683,
                -1.3228828575477074,
                2.0500301045533496,
                0.7544395718573689,
                -0.6699048535209065,
                1.6726819065112108
            ]
        },
        {
            "positions": [
                -0.10375987526475139,
                -1.2838407744274658,
                2.027126302803264,
                0.8359241495451284,
                -0.7618735709837401,
                1.5743693416425097
            ]
        },
        {
            "positions": [
                -0.15440891163566595,
                -1.244798691307224,
                2.004222501053178,
                0.9174087272328879,
                -0.8538422884465737,
                1.4760567767738086
            ]
        },
        {
            "positions": [
                -0.2050579480065804,
                -1.2057566081869824,
                1.9813186993030918,
                0.9988933049206472,
                -0.9458110059094071,
                1.3777442119051078
            ]
        },
        {
            "positions": [
                -0.25570698437749495,
                -1.1667145250667406,
                1.958414897553006,
                1.0803778826084065,
                -1.0377797233722406,
                1.2794316470364067
            ]
        },
        {
            "positions": [
                -0.3063560207484094,
                -1.127672441946499,
                1.93551109580292,
                1.161862460296166,
                -1.1297484408350742,
                1.1811190821677058
            ]
        },
        {
            "positions": [
                -0.35700505711932407,
                -1.0886303588262574,
                1.912607294052834,
                1.2433470379839255,
                -1.2217171582979078,
                1.0828065172990047
            ]
        },
        {
            "positions": [
                -0.4076540934902385,
                -1.0495882757060158,
                1.8897034923027483,
                1.3248316156716848,
                -1.313685875760741,
                0.9844939524303036
            ]
        },
        {
            "positions": [
                -0.45830312986115296,
                -1.010546192585774,
                1.8667996905526623,
                1.4063161933594441,
                -1.4056545932235747,
                0.8861813875616025
            ]
        },
        {
            "positions": [
                -0.5089521662320676,
                -0.9715041094655323,
                1.8438958888025763,
                1.4878007710472037,
                -1.4976233106864083,
                0.7878688226929014
            ]
        },
        {
            "positions": [
                -0.5596012026029821,
                -0.9324620263452906,
                1.8209920870524903,
                1.5692853487349632,
                -1.589592028149242,
                0.6895562578242007
            ]
        },
        {
            "positions": [
                -0.6102502389738965,
                -0.8934199432250489,
                1.7980882853024043,
                1.6507699264227227,
                -1.6815607456120756,
                0.5912436929554996
            ]
        },
        {
            "positions": [
                -0.660899275344811,
                -0.8543778601048073,
                1.7751844835523185,
                1.7322545041104818,
                -1.7735294630749088,
                0.4929311280867985
            ]
        },
        {
            "positions": [
                -0.7115483117157256,
                -0.8153357769845655,
                1.7522806818022325,
                1.8137390817982413,
                -1.8654981805377424,
                0.3946185632180974
            ]
        },
        {
            "positions": [
                -0.7621973480866401,
                -0.7762936938643239,
                1.7293768800521465,
                1.8952236594860008,
                -1.957466898000576,
                0.2963059983493963
            ]
        },
        {
            "positions": [
                -0.8128463844575545,
                -0.7372516107440823,
                1.7064730783020607,
                1.9767082371737599,
                -2.049435615463409,
                0.19799343348069565
            ]
        },
        {
            "positions": [
                -0.8634954208284692,
                -0.6982095276238405,
                1.6835692765519747,
                2.058192814861519,
                -2.1414043329262427,
                0.09968086861199454
            ]
        },
        {
            "positions": [
                -0.9141444571993836,
                -0.6591674445035989,
                1.6606654748018888,
                2.1396773925492787,
                -2.2333730503890763,
                0.0013683037432934678
            ]
        }
    ]
}