{
    "goal": {
        "global_pose": {
            "orientation": {
                "w": -0.00223480608172531,
                "x": 0.0024358444001904467,
                "y": 0.7094548369677653,
                "z": -0.704743149386269
            },
            "position": {
                "x": -0.37947507619857795,
                "y": -0.6371506643295288,
                "z": 0.19426114857196808
            }
        },
        "name": "move_to_magneteinheit_C"
    },
    "id": "KPIECE_move_to_magneteinheit_C_110",
    "joint_names": [
        "shoulder_pan_joint",
        "shoulder_lift_joint",
        "elbow_joint",
        "wrist_1_joint",
        "wrist_2_joint",
        "wrist_3_joint"
    ],
    "metrics": {
        "cart_traj_len": 7.944174439756906,
        "distance_elbow_joint": 8.667168392976057,
        "distance_shoulder_lift_joint": 1.099219970721673,
        "distance_shoulder_pan_joint": 6.23943760287607,
        "distance_wrist_1_joint": 2.791797976465025,
        "distance_wrist_2_joint": 7.42733813173901,
        "distance_wrist_3_joint": 11.010596084263176,
        "smoothness": 0.42534657607472576,
        "time": 0.20552984700000002,
        "traj_len": 6.102094571459954,
        "weighted_distance": 8.335219639323931
    },
    "planner": "KPIECE",
    "start": {
        "state": {
            "elbow_joint": 1.9565354006593851,
            "shoulder_lift_joint": -1.4165861576512813,
            "shoulder_pan_joint": -1.6717766223278752,
            "wrist_1_joint": -0.528663328821883,
            "wrist_2_joint": 1.472756589259273,
            "wrist_3_joint": 3.159348288315503
        }
    },
    "waypoints": [
        {
            "positions": [
                -1.6717766223278752,
                -1.4165861576512813,
                1.9565354006593851,
                -0.528663328821883,
                1.472756589259273,
                3.159348288315503
            ]
        },
        {
            "positions": [
                -1.65592684078636,
                -1.413819971733083,
                1.954720196147652,
                -0.5243390318693184,
                1.4796254153273658,
                3.148347831964943
            ]
        },
        {
            "positions": [
                -1.5549865786434474,
                -1.4178002492712811,
                1.9198610049317955,
                -0.5040345124896413,
                1.4505406884042888,
                3.019548066697599
            ]
        },
        {
            "positions": [
                -1.4540463165005346,
                -1.421780526809479,
                1.885001813715939,
                -0.483729993109964,
                1.421455961481212,
                2.890748301430255
            ]
        },
        {
            "positions": [
                -1.3799515407186467,
                -1.4376322868749405,
                1.8438115254749419,
                -0.4729785559996845,
                1.3557272211024118,
                2.7580429836659617
            ]
        },
        {
            "positions": [
                -1.3058567649367587,
                -1.4534840469404022,
                1.802621237233945,
                -0.4622271188894051,
                1.2899984807236118,
                2.6253376659016685
            ]
        },
        {
            "positions": [
                -1.2399254998474936,
                -1.4516852544091035,
                1.6728233636352692,
                -0.4715380614367035,
                1.2109091145427324,
                2.5174855028055823
            ]
        },
        {
            "positions": [
                -1.1739942347582282,
                -1.4498864618778045,
                1.5430254900365934,
                -0.48084900398400193,
                1.1318197483618533,
                2.409633339709496
            ]
        },
        {
            "positions": [
                -1.1080629696689628,
                -1.4480876693465055,
                1.4132276164379176,
                -0.49015994653130035,
                1.052730382180974,
                2.3017811766134098
            ]
        },
        {
            "positions": [
                -1.0421317045796976,
                -1.4462888768152067,
                1.283429742839242,
                -0.4994708890785988,
                0.9736410160000946,
                2.1939290135173235
            ]
        },
        {
            "positions": [
                -0.9762004394904323,
                -1.444490084283908,
                1.153631869240566,
                -0.5087818316258972,
                0.8945516498192153,
                2.0860768504212377
            ]
        },
        {
            "positions": [
                -0.9102691744011671,
                -1.442691291752609,
                1.0238339956418905,
                -0.5180927741731957,
                0.8154622836383361,
                1.9782246873251512
            ]
        },
        {
            "positions": [
                -0.8443379093119018,
                -1.44089249922131,
                0.8940361220432147,
                -0.5274037167204941,
                0.7363729174574567,
                1.8703725242290652
            ]
        },
        {
            "positions": [
                -0.7784066442226365,
                -1.4390937066900111,
                0.7642382484445389,
                -0.5367146592677925,
                0.6572835512765774,
                1.762520361132979
            ]
        },
        {
            "positions": [
                -0.7124753791333712,
                -1.4372949141587124,
                0.6344403748458631,
                -0.546025601815091,
                0.5781941850956982,
                1.6546681980368927
            ]
        },
        {
            "positions": [
                -0.6465441140441059,
                -1.4354961216274134,
                0.5046425012471873,
                -0.5553365443623893,
                0.49910481891481884,
                1.5468160349408064
            ]
        },
        {
            "positions": [
                -0.5806128489548407,
                -1.4336973290961144,
                0.37484462764851156,
                -0.5646474869096878,
                0.4200154527339396,
                1.4389638718447202
            ]
        },
        {
            "positions": [
                -0.5146815838655754,
                -1.4318985365648156,
                0.245046754049836,
                -0.5739584294569862,
                0.34092608655306034,
                1.331111708748634
            ]
        },
        {
            "positions": [
                -0.4487503187763101,
                -1.4300997440335168,
                0.11524888045116022,
                -0.5832693720042846,
                0.261836720372181,
                1.2232595456525477
            ]
        },
        {
            "positions": [
                -0.38281905368704483,
                -1.4283009515022178,
                -0.014548993147515565,
                -0.5925803145515831,
                0.18274735419130161,
                1.1154073825564617
            ]
        },
        {
            "positions": [
                -0.31688778859777955,
                -1.4265021589709188,
                -0.14434686674619135,
                -0.6018912570988815,
                0.10365798801042247,
                1.0075552194603754
            ]
        },
        {
            "positions": [
                -0.2509565235085143,
                -1.42470336643962,
                -0.27414474034486713,
                -0.6112021996461799,
                0.024568621829543114,
                0.8997030563642892
            ]
        },
        {
            "positions": [
                -0.1850252584192491,
                -1.4229045739083213,
                -0.4039426139435427,
                -0.6205131421934783,
                -0.05452074435133625,
                0.7918508932682029
            ]
        },
        {
            "positions": [
                -0.11909399332998372,
                -1.4211057813770223,
                -0.5337404875422187,
                -0.6298240847407768,
                -0.1336101105322154,
                0.6839987301721167
            ]
        },
        {
            "positions": [
                -0.05316272824071833,
                -1.4193069888457233,
                -0.6635383611408943,
                -0.6391350272880751,
                -0.21269947671309475,
                0.5761465670760306
            ]
        },
        {
            "positions": [
                0.012768536848546841,
                -1.4175081963144245,
                -0.7933362347395703,
                -0.6484459698353736,
                -0.2917888428939741,
                0.4682944039799444
            ]
        },
        {
            "positions": [
                0.07869980193781201,
                -1.4157094037831257,
                -0.9231341083382458,
                -0.6577569123826721,
                -0.37087820907485325,
                0.3604422408838581
            ]
        },
        {
            "positions": [
                0.1446310670270774,
                -1.4139106112518267,
                -1.0529319819369218,
                -0.6670678549299704,
                -0.4499675752557326,
                0.25259007778777187
            ]
        },
        {
            "positions": [
                0.2105623321163428,
                -1.4121118187205277,
                -1.1827298555355974,
                -0.6763787974772689,
                -0.529056941436612,
                0.14473791469168562
            ]
        },
        {
            "positions": [
                0.27649359720560795,
                -1.410313026189229,
                -1.312527729134273,
                -0.6856897400245674,
                -0.6081463076174911,
                0.03688575159559937
            ]
        },
        {
            "positions": [
                0.3424248622948731,
                -1.4085142336579302,
                -1.442325602732949,
                -0.6950006825718658,
                -0.6872356737983705,
                -0.07096641150048688
            ]
        },
        {
            "positions": [
                0.4083561273841385,
                -1.4067154411266312,
                -1.5721234763316245,
                -0.7043116251191641,
                -0.7663250399792498,
                -0.17881857459657313
            ]
        },
        {
            "positions": [
                0.4742873924734039,
                -1.4049166485953322,
                -1.7019213499303005,
                -0.7136225676664626,
                -0.845414406160129,
                -0.28667073769265894
            ]
        },
        {
            "positions": [
                0.5402186575626691,
                -1.4031178560640334,
                -1.831719223528976,
                -0.7229335102137611,
                -0.9245037723410086,
                -0.3945229007887452
            ]
        },
        {
            "positions": [
                0.6061499226519342,
                -1.4013190635327346,
                -1.961517097127652,
                -0.7322444527610594,
                -1.0035931385218877,
                -0.5023750638848314
            ]
        },
        {
            "positions": [
                0.6720811877411996,
                -1.3995202710014356,
                -2.0913149707263274,
                -0.7415553953083579,
                -1.0826825047027668,
                -0.6102272269809177
            ]
        },
        {
            "positions": [
                0.738012452830465,
                -1.3977214784701366,
                -2.2211128443250034,
                -0.7508663378556564,
                -1.1617718708836464,
                -0.7180793900770039
            ]
        },
        {
            "positions": [
                0.8039437179197302,
                -1.3959226859388378,
                -2.3509107179236794,
                -0.7601772804029547,
                -1.2408612370645256,
                -0.8259315531730902
            ]
        },
        {
            "positions": [
                0.6972388700779676,
                -1.3772459772994454,
                -2.2648481006159518,
                -0.7244211403979015,
                -1.1407583363166254,
                -0.8726082823352828
            ]
        },
        {
            "positions": [
                0.590534022236205,
                -1.358569268660053,
                -2.178785483308224,
                -0.6886650003928483,
                -1.0406554355687252,
                -0.9192850114974753
            ]
        },
        {
            "positions": [
                0.4838291743944424,
                -1.3398925600206604,
                -2.0927228660004964,
                -0.652908860387795,
                -0.9405525348208248,
                -0.9659617406596678
            ]
        },
        {
            "positions": [
                0.37712432655267986,
                -1.321215851381268,
                -2.0066602486927687,
                -0.6171527203827419,
                -0.8404496340729246,
                -1.0126384698218605
            ]
        },
        {
            "positions": [
                0.2704194787109172,
                -1.3025391427418755,
                -1.9205976313850408,
                -0.5813965803776887,
                -0.7403467333250244,
                -1.0593151989840528
            ]
        },
        {
            "positions": [
                0.1637146308691546,
                -1.2838624341024831,
                -1.8345350140773131,
                -0.5456404403726355,
                -0.6402438325771241,
                -1.1059919281462454
            ]
        },
        {
            "positions": [
                0.057009783027392014,
                -1.2651857254630907,
                -1.7484723967695854,
                -0.5098843003675823,
                -0.540140931829224,
                -1.152668657308438
            ]
        },
        {
            "positions": [
                -0.04969506481437047,
                -1.246509016823698,
                -1.6624097794618578,
                -0.4741281603625291,
                -0.44003803108132367,
                -1.1993453864706305
            ]
        },
        {
            "positions": [
                -0.15639991265613307,
                -1.2278323081843057,
                -1.57634716215413,
                -0.4383720203574759,
                -0.3399351303334236,
                -1.246022115632823
            ]
        },
        {
            "positions": [
                -0.2631047604978958,
                -1.2091555995449133,
                -1.4902845448464022,
                -0.40261588035242263,
                -0.2398322295855233,
                -1.2926988447950156
            ]
        },
        {
            "positions": [
                -0.36980960833965826,
                -1.1904788909055208,
                -1.4042219275386747,
                -0.36685974034736946,
                -0.13972932883762312,
                -1.339375573957208
            ]
        },
        {
            "positions": [
                -0.47651445618142096,
                -1.1718021822661282,
                -1.3181593102309468,
                -0.33110360034231623,
                -0.03962642808972272,
                -1.3860523031194005
            ]
        },
        {
            "positions": [
                -0.5832193040231834,
                -1.1531254736267358,
                -1.2320966929232193,
                -0.29534746033726306,
                0.06047647265817746,
                -1.432729032281593
            ]
        },
        {
            "positions": [
                -0.6899241518649462,
                -1.1344487649873434,
                -1.1460340756154914,
                -0.2595913203322098,
                0.16057937340607764,
                -1.4794057614437857
            ]
        },
        {
            "positions": [
                -0.7966289997067086,
                -1.115772056347951,
                -1.0599714583077637,
                -0.22383518032715666,
                0.2606822741539778,
                -1.5260824906059782
            ]
        },
        {
            "positions": [
                -0.9033338475484711,
                -1.0970953477085583,
                -0.973908841000036,
                -0.18807904032210343,
                0.3607851749018782,
                -1.5727592197681708
            ]
        },
        {
            "positions": [
                -1.0100386953902338,
                -1.0784186390691661,
                -0.8878462236923084,
                -0.1523229003170502,
                0.4608880756497782,
                -1.6194359489303634
            ]
        },
        {
            "positions": [
                -1.1167435432319963,
                -1.0597419304297735,
                -0.8017836063845807,
                -0.11656676031199709,
                0.5609909763976784,
                -1.666112678092556
            ]
        },
        {
            "positions": [
                -1.223448391073759,
                -1.041065221790381,
                -0.7157209890768528,
                -0.08081062030694375,
                0.661093877145579,
                -1.7127894072547485
            ]
        },
        {
            "positions": [
                -1.3301532389155217,
                -1.0223885131509887,
                -0.6296583717691251,
                -0.04505448030189052,
                0.761196777893479,
                -1.759466136416941
            ]
        },
        {
            "positions": [
                -1.436858086757284,
                -1.003711804511596,
                -0.5435957544613976,
                -0.009298340296837404,
                0.8612996786413794,
                -1.8061428655791336
            ]
        },
        {
            "positions": [
                -1.5435629345990467,
                -0.9850350958722037,
                -0.45753313715366994,
                0.026457799708215823,
                0.9614025793892793,
                -1.852819594741326
            ]
        },
        {
            "positions": [
                -1.6502677824408094,
                -0.9663583872328112,
                -0.37147051984594204,
                0.06221393971326905,
                1.0615054801371797,
                -1.8994963239035187
            ]
        },
        {
            "positions": [
                -1.7569726302825721,
                -0.9476816785934188,
                -0.28540790253821413,
                0.09797007971832228,
                1.1616083808850801,
                -1.946173053065711
            ]
        },
        {
            "positions": [
                -1.8636774781243344,
                -0.9290049699540264,
                -0.1993452852304869,
                0.1337262197233754,
                1.26171128163298,
                -1.9928497822279037
            ]
        },
        {
            "positions": [
                -1.970382325966097,
                -0.9103282613146338,
                -0.1132826679227592,
                0.16948235972842862,
                1.3618141823808805,
                -2.039526511390096
            ]
        },
        {
            "positions": [
                -2.07708717380786,
                -0.8916515526752413,
                -0.027220050615031077,
                0.20523849973348196,
                1.4619170831287809,
                -2.0862032405522886
            ]
        },
        {
            "positions": [
                -2.1837920216496225,
                -0.8729748440358489,
                0.05884256669269661,
                0.2409946397385352,
                1.5620199838766808,
                -2.132879969714481
            ]
        },
        {
            "positions": [
                -2.2904968694913848,
                -0.8542981353964565,
                0.1449051840004243,
                0.2767507797435882,
                1.6621228846245812,
                -2.1795566988766737
            ]
        },
        {
            "positions": [
                -2.3972017173331475,
                -0.835621426757064,
                0.23096780130815198,
                0.3125069197486414,
                1.7622257853724812,
                -2.2262334280388663
            ]
        },
        {
            "positions": [
                -2.50390656517491,
                -0.8169447181176716,
                0.31703041861587966,
                0.34826305975369465,
                1.8623286861203816,
                -2.272910157201059
            ]
        },
        {
            "positions": [
                -2.6106114130166724,
                -0.798268009478279,
                0.40309303592360735,
                0.3840191997587479,
                1.962431586868282,
                -2.3195868863632514
            ]
        },
        {
            "positions": [
                -2.717316260858435,
                -0.7795913008388866,
                0.48915565323133503,
                0.4197753397638011,
                2.062534487616182,
                -2.366263615525444
            ]
        },
        {
            "positions": [
                -2.7079909807103464,
                -0.794318107127142,
                0.5476039572020265,
                0.3717961480387149,
                2.008819605747016,
                -2.1553026855092043
            ]
        },
        {
            "positions": [
                -2.698665700562258,
                -0.8090449134153974,
                0.6060522611727179,
                0.32381695631362867,
                1.9551047238778498,
                -1.944341755492965
            ]
        },
        {
            "positions": [
                -2.6893404204141693,
                -0.8237717197036528,
                0.6645005651434094,
                0.2758377645885425,
                1.9013898420086839,
                -1.7333808254767253
            ]
        },
        {
            "positions": [
                -2.6800151402660806,
                -0.8384985259919081,
                0.7229488691141008,
                0.22785857286345626,
                1.8476749601395177,
                -1.522419895460486
            ]
        },
        {
            "positions": [
                -2.670689860117992,
                -0.8532253322801635,
                0.7813971730847923,
                0.17987938113837004,
                1.7939600782703518,
                -1.3114589654442463
            ]
        },
        {
            "positions": [
                -2.6613645799699035,
                -0.8679521385684189,
                0.8398454770554837,
                0.1319001894132838,
                1.7402451964011858,
                -1.1004980354280067
            ]
        },
        {
            "positions": [
                -2.6520392998218147,
                -0.8826789448566743,
                0.8982937810261751,
                0.08392099768819766,
                1.6865303145320196,
                -0.8895371054117676
            ]
        },
        {
            "positions": [
                -2.642714019673726,
                -0.8974057511449297,
                0.9567420849968666,
                0.03594180596311142,
                1.6328154326628534,
                -0.6785761753955277
            ]
        },
        {
            "positions": [
                -2.6333887395256372,
                -0.9121325574331851,
                1.015190388967558,
                -0.012037385761974773,
                1.5791005507936875,
                -0.46761524537928834
            ]
        },
        {
            "positions": [
                -2.624063459377549,
                -0.9268593637214404,
                1.0736386929382495,
                -0.06001657748706102,
                1.5253856689245215,
                -0.2566543153630487
            ]
        },
        {
            "positions": [
                -2.61473817922946,
                -0.9415861700096958,
                1.1320869969089409,
                -0.10799576921214726,
                1.4716707870553556,
                -0.045693385346809556
            ]
        },
        {
            "positions": [
                -2.6054128990813714,
                -0.9563129762979512,
                1.1905353008796324,
                -0.1559749609372335,
                1.4179559051861894,
                0.1652675446694305
            ]
        },
        {
            "positions": [
                -2.596087618933283,
                -0.9710397825862066,
                1.2489836048503238,
                -0.20395415266231964,
                1.3642410233170232,
                0.37622847468566967
            ]
        },
        {
            "positions": [
                -2.5867623387851943,
                -0.985766588874462,
                1.3074319088210151,
                -0.2519333443874058,
                1.3105261414478573,
                0.5871894047019088
            ]
        },
        {
            "positions": [
                -2.5774370586371056,
                -1.0004933951627173,
                1.3658802127917067,
                -0.299912536112492,
                1.2568112595786913,
                0.7981503347181484
            ]
        },
        {
            "positions": [
                -2.568111778489017,
                -1.0152202014509728,
                1.4243285167623982,
                -0.34789172783757827,
                1.2030963777095252,
                1.0091112647343885
            ]
        },
        {
            "positions": [
                -2.5587864983409285,
                -1.029947007739228,
                1.4827768207330896,
                -0.3958709195626645,
                1.1493814958403592,
                1.2200721947506277
            ]
        },
        {
            "positions": [
                -2.5494612181928398,
                -1.0446738140274836,
                1.541225124703781,
                -0.44385011128775065,
                1.095666613971193,
                1.4310331247668673
            ]
        },
        {
            "positions": [
                -2.540135938044751,
                -1.059400620315739,
                1.5996734286744723,
                -0.4918293030128369,
                1.041951732102027,
                1.6419940547831064
            ]
        },
        {
            "positions": [
                -2.5308106578966623,
                -1.0741274266039942,
                1.658121732645164,
                -0.5398084947379231,
                0.9882368502328609,
                1.8529549847993465
            ]
        },
        {
            "positions": [
                -2.521485377748574,
                -1.0888542328922497,
                1.7165700366158554,
                -0.5877876864630094,
                0.9345219683636949,
                2.0639159148155857
            ]
        },
        {
            "positions": [
                -2.512160097600485,
                -1.103581039180505,
                1.7750183405865467,
                -0.6357668781880956,
                0.880807086494529,
                2.274876844831825
            ]
        },
        {
            "positions": [
                -2.5028348174523964,
                -1.1183078454687605,
                1.833466644557238,
                -0.6837460699131817,
                0.8270922046253628,
                2.485837774848065
            ]
        },
        {
            "positions": [
                -2.4935095373043077,
                -1.1330346517570158,
                1.8919149485279296,
                -0.7317252616382681,
                0.7733773227561969,
                2.696798704864305
            ]
        },
        {
            "positions": [
                -2.4841842571562194,
                -1.147761458045271,
                1.9503632524986212,
                -0.7797044533633541,
                0.7196624408870307,
                2.907759634880544
            ]
        },
        {
            "positions": [
                -2.4748589770081306,
                -1.1624882643335266,
                2.0088115564693125,
                -0.8276836450884404,
                0.6659475590178647,
                3.1187205648967837
            ]
        }
    ]
}