{
    "goal": {
        "global_pose": {
            "orientation": {
                "w": 0.005598929693374612,
                "x": 0.007748599140229565,
                "y": 0.7110244013736278,
                "z": -0.7031023480610252
            },
            "position": {
                "x": -0.8858502320852131,
                "y": -0.7141253447532654,
                "z": 0.3711530566215515
            }
        },
        "name": "move_to_auspresseinheit_C"
    },
    "id": "KPIECE_move_to_auspresseinheit_C_127",
    "joint_names": [
        "shoulder_pan_joint",
        "shoulder_lift_joint",
        "elbow_joint",
        "wrist_1_joint",
        "wrist_2_joint",
        "wrist_3_joint"
    ],
    "metrics": {
        "cart_traj_len": 0.4936809148268887,
        "distance_elbow_joint": 0.9999836470787518,
        "distance_shoulder_lift_joint": 0.3247371283239603,
        "distance_shoulder_pan_joint": 0.2568443658299713,
        "distance_wrist_1_joint": 0.6763931662992761,
        "distance_wrist_2_joint": 1.3095752501147693,
        "distance_wrist_3_joint": 0.060562776327382384,
        "smoothness": 1.6148698667872622e-16,
        "time": 2.4926068,
        "traj_len": 1.9047562400407334,
        "weighted_distance": 2.3948257354227094
    },
    "planner": "KPIECE",
    "start": {
        "state": {
            "elbow_joint": 1.7527959577730765,
            "shoulder_lift_joint": -0.9740617694224828,
            "shoulder_pan_joint": -2.967991417825869,
            "wrist_1_joint": -0.7595177689779385,
            "wrist_2_joint": 1.7443932448376545,
            "wrist_3_joint": 3.1991315425061013
        }
    },
    "waypoints": [
        {
            "positions": [
                -2.967991417825869,
                -0.9740617694224828,
                1.7527959577730765,
                -0.7595177689779385,
                1.7443932448376545,
                3.1991315425061013
            ]
        },
        {
            "positions": [
                -2.942306981242872,
                -0.9415880565900867,
                1.6527975930652012,
                -0.6918784523480109,
                1.6134357198261775,
                3.193075264873363
            ]
        },
        {
            "positions": [
                -2.916622544659875,
                -0.9091143437576907,
                1.5527992283573262,
                -0.6242391357180833,
                1.4824781948147006,
                3.187018987240625
            ]
        },
        {
            "positions": [
                -2.8909381080768775,
                -0.8766406309252948,
                1.452800863649451,
                -0.5565998190881557,
                1.3515206698032236,
                3.1809627096078867
            ]
        },
        {
            "positions": [
                -2.8652536714938805,
                -0.8441669180928987,
                1.3528024989415757,
                -0.4889605024582281,
                1.2205631447917469,
                3.1749064319751485
            ]
        },
        {
            "positions": [
                -2.8395692349108836,
                -0.8116932052605026,
                1.2528041342337006,
                -0.42132118582830047,
                1.08960561978027,
                3.16885015434241
            ]
        },
        {
            "positions": [
                -2.8138847983278863,
                -0.7792194924281066,
                1.1528057695258256,
                -0.35368186919837286,
                0.9586480947687929,
                3.1627938767096717
            ]
        },
        {
            "positions": [
                -2.788200361744889,
                -0.7467457795957106,
                1.0528074048179503,
                -0.2860425525684453,
                0.827690569757316,
                3.1567375990769335
            ]
        },
        {
            "positions": [
                -2.762515925161892,
                -0.7142720667633146,
                0.9528090401100751,
                -0.21840323593851763,
                0.6967330447458391,
                3.1506813214441953
            ]
        },
        {
            "positions": [
                -2.736831488578895,
                -0.6817983539309185,
                0.8528106754021999,
                -0.15076391930859,
                0.5657755197343621,
                3.144625043811457
            ]
        },
        {
            "positions": [
                -2.711147051995898,
                -0.6493246410985225,
                0.7528123106943247,
                -0.08312460267866245,
                0.4348179947228851,
                3.138568766178719
            ]
        }
    ]
}