{
    "goal": {
        "global_pose": {
            "orientation": {
                "w": -0.00223480608172531,
                "x": 0.0024358444001904467,
                "y": 0.7094548369677653,
                "z": -0.704743149386269
            },
            "position": {
                "x": -0.37947507619857795,
                "y": -0.6371506643295288,
                "z": 0.19426114857196808
            }
        },
        "name": "move_to_magneteinheit_C"
    },
    "id": "KPIECE_move_to_magneteinheit_C_109",
    "joint_names": [
        "shoulder_pan_joint",
        "shoulder_lift_joint",
        "elbow_joint",
        "wrist_1_joint",
        "wrist_2_joint",
        "wrist_3_joint"
    ],
    "metrics": {
        "cart_traj_len": 0.5373349879122399,
        "distance_elbow_joint": 0.05179728213399026,
        "distance_shoulder_lift_joint": 0.2527308444472498,
        "distance_shoulder_pan_joint": 0.8010008289034121,
        "distance_wrist_1_joint": 0.39362211738672004,
        "distance_wrist_2_joint": 1.2832894158960513,
        "distance_wrist_3_joint": 0.16785495391997696,
        "smoothness": 0.7841134561280405,
        "time": 1.763964398,
        "traj_len": 1.717642408269952,
        "weighted_distance": 2.2277605086297148
    },
    "planner": "KPIECE",
    "start": {
        "state": {
            "elbow_joint": 1.9565354006593851,
            "shoulder_lift_joint": -1.4165861576512813,
            "shoulder_pan_joint": -1.6717766223278752,
            "wrist_1_joint": -0.528663328821883,
            "wrist_2_joint": 1.472756589259273,
            "wrist_3_joint": 3.159348288315503
        }
    },
    "waypoints": [
        {
            "positions": [
                -1.6717766223278752,
                -1.4165861576512813,
                1.9565354006593851,
                -0.528663328821883,
                1.472756589259273,
                3.159348288315503
            ]
        },
        {
            "positions": [
                -1.7470803746592556,
                -1.4027156349615733,
                1.958579070979531,
                -0.5184599654713684,
                1.2646606278914816,
                3.139643035777263
            ]
        },
        {
            "positions": [
                -1.8223841269906362,
                -1.388845112271865,
                1.9606227412996768,
                -0.5082566021208538,
                1.0565646665236899,
                3.119937783239023
            ]
        },
        {
            "positions": [
                -1.8976878793220167,
                -1.374974589582157,
                1.9626664116198227,
                -0.4980532387703392,
                0.8484687051558985,
                3.100232530700783
            ]
        },
        {
            "positions": [
                -1.9729916316533973,
                -1.3611040668924488,
                1.9647100819399685,
                -0.4878498754198246,
                0.6403727437881068,
                3.0805272781625432
            ]
        },
        {
            "positions": [
                -2.0482953839847777,
                -1.3472335442027408,
                1.9667537522601144,
                -0.47764651206930997,
                0.43227678242031536,
                3.060822025624303
            ]
        },
        {
            "positions": [
                -2.125629703930416,
                -1.3104782970116249,
                1.985616032181929,
                -0.5382009095825723,
                0.4686035996850464,
                3.0928707914181244
            ]
        },
        {
            "positions": [
                -2.202964023876055,
                -1.2737230498205092,
                2.0044783121037435,
                -0.5987553070958346,
                0.5049304169497774,
                3.1249195572119453
            ]
        },
        {
            "positions": [
                -2.337870737553671,
                -1.2187891815122702,
                2.0064054974485597,
                -0.7095035598996458,
                0.590008404213593,
                3.122303977391378
            ]
        },
        {
            "positions": [
                -2.4727774512312872,
                -1.1638553132040315,
                2.0083326827933754,
                -0.8202518127034569,
                0.6750863914774087,
                3.1196883975708105
            ]
        }
    ]
}