{
    "goal": {
        "global_pose": {
            "orientation": {
                "w": 0.7047431468963623,
                "x": -0.7094548344612122,
                "y": 0.0024358443915843964,
                "z": -0.0022348060738295317
            },
            "position": {
                "x": 0.6094750761985779,
                "y": 0.3671506643295288,
                "z": 0.19426114857196808
            }
        },
        "name": "move_to_magneteinheit_A"
    },
    "id": "KPIECE_move_to_magneteinheit_A_80",
    "joint_names": [
        "shoulder_pan_joint",
        "shoulder_lift_joint",
        "elbow_joint",
        "wrist_1_joint",
        "wrist_2_joint",
        "wrist_3_joint"
    ],
    "metrics": {
        "cart_traj_len": 1.970938903147761,
        "distance_elbow_joint": 3.5798523705376173,
        "distance_shoulder_lift_joint": 0.7890014316587333,
        "distance_shoulder_pan_joint": 1.2428486561089578,
        "distance_wrist_1_joint": 1.1736762379793593,
        "distance_wrist_2_joint": 1.4415418162506801,
        "distance_wrist_3_joint": 1.9794244710212963,
        "smoothness": 6.250144456581818e-16,
        "time": 0.17703071799999998,
        "traj_len": 3.1947370758102527,
        "weighted_distance": 4.096390115678593
    },
    "planner": "KPIECE",
    "start": {
        "state": {
            "elbow_joint": -1.5739458827952972,
            "shoulder_lift_joint": 0.006533473998580023,
            "shoulder_pan_joint": -1.1188671628667068,
            "wrist_1_joint": 3.138208179676308,
            "wrist_2_joint": -1.5706037135050406,
            "wrist_3_joint": -2.0226958329764257
        }
    },
    "waypoints": [
        {
            "positions": [
                -1.1188671628667068,
                0.006533473998580023,
                -1.5739458827952972,
                3.138208179676308,
                -1.5706037135050406,
                -2.0226958329764257
            ]
        },
        {
            "positions": [
                -1.0710652914779009,
                -0.02381273491137126,
                -1.436259253159235,
                3.093066785907871,
                -1.515159797495399,
                -1.9465641225525296
            ]
        },
        {
            "positions": [
                -1.0232634200890947,
                -0.05415894382132254,
                -1.2985726235231727,
                3.0479253921394345,
                -1.4597158814857574,
                -1.8704324121286338
            ]
        },
        {
            "positions": [
                -0.9754615487002887,
                -0.08450515273127382,
                -1.1608859938871106,
                3.0027839983709974,
                -1.404271965476116,
                -1.7943007017047377
            ]
        },
        {
            "positions": [
                -0.9276596773114826,
                -0.1148513616412251,
                -1.0231993642510484,
                2.957642604602561,
                -1.3488280494664744,
                -1.7181689912808418
            ]
        },
        {
            "positions": [
                -0.8798578059226765,
                -0.14519757055117638,
                -0.8855127346149861,
                2.9125012108341237,
                -1.2933841334568328,
                -1.6420372808569457
            ]
        },
        {
            "positions": [
                -0.8320559345338704,
                -0.17554377946112765,
                -0.747826104978924,
                2.8673598170656867,
                -1.2379402174471914,
                -1.5659055704330496
            ]
        },
        {
            "positions": [
                -0.7842540631450644,
                -0.2058899883710789,
                -0.6101394753428618,
                2.82221842329725,
                -1.1824963014375498,
                -1.4897738600091537
            ]
        },
        {
            "positions": [
                -0.7364521917562583,
                -0.2362361972810302,
                -0.4724528457067996,
                2.777077029528813,
                -1.1270523854279082,
                -1.4136421495852576
            ]
        },
        {
            "positions": [
                -0.6886503203674522,
                -0.2665824061909815,
                -0.3347662160707374,
                2.731935635760376,
                -1.0716084694182668,
                -1.3375104391613617
            ]
        },
        {
            "positions": [
                -0.6408484489786461,
                -0.2969286151009328,
                -0.19707958643467505,
                2.6867942419919393,
                -1.016164553408625,
                -1.2613787287374656
            ]
        },
        {
            "positions": [
                -0.5930465775898401,
                -0.32727482401088404,
                -0.05939295679861312,
                2.641652848223502,
                -0.9607206373989836,
                -1.1852470183135697
            ]
        },
        {
            "positions": [
                -0.5452447062010339,
                -0.35762103292083536,
                0.07829367283744926,
                2.596511454455065,
                -0.905276721389342,
                -1.1091153078896736
            ]
        },
        {
            "positions": [
                -0.49744283481222795,
                -0.3879672418307866,
                0.2159803024735114,
                2.5513700606866285,
                -0.8498328053797005,
                -1.0329835974657775
            ]
        },
        {
            "positions": [
                -0.44964096342342197,
                -0.4183134507407379,
                0.35366693210957356,
                2.506228666918192,
                -0.794388889370059,
                -0.9568518870418816
            ]
        },
        {
            "positions": [
                -0.4018390920346159,
                -0.44865965965068916,
                0.4913535617456357,
                2.461087273149755,
                -0.7389449733604175,
                -0.8807201766179857
            ]
        },
        {
            "positions": [
                -0.35403722064580967,
                -0.4790058685606405,
                0.6290401913816981,
                2.4159458793813178,
                -0.6835010573507758,
                -0.8045884661940894
            ]
        },
        {
            "positions": [
                -0.3062353492570037,
                -0.5093520774705917,
                0.7667268210177605,
                2.370804485612881,
                -0.6280571413411343,
                -0.7284567557701935
            ]
        },
        {
            "positions": [
                -0.2584334778681976,
                -0.539698286380543,
                0.9044134506538224,
                2.325663091844444,
                -0.5726132253314928,
                -0.6523250453462976
            ]
        },
        {
            "positions": [
                -0.2106316064793916,
                -0.5700444952904942,
                1.0421000802898843,
                2.280521698076007,
                -0.5171693093218512,
                -0.5761933349224015
            ]
        },
        {
            "positions": [
                -0.1628297350905854,
                -0.6003907042004456,
                1.1797867099259471,
                2.2353803043075704,
                -0.46172539331220963,
                -0.5000616244985054
            ]
        },
        {
            "positions": [
                -0.11502786370177942,
                -0.6307369131103968,
                1.317473339562009,
                2.1902389105391333,
                -0.40628147730256825,
                -0.42392991407460956
            ]
        },
        {
            "positions": [
                -0.06722599231297344,
                -0.661083122020348,
                1.455159969198071,
                2.1450975167706963,
                -0.35083756129292665,
                -0.34779820365071346
            ]
        },
        {
            "positions": [
                -0.019424120924167232,
                -0.6914293309302993,
                1.5928465988341334,
                2.0999561230022596,
                -0.29539364528328504,
                -0.2716664932268176
            ]
        },
        {
            "positions": [
                0.028377750464638973,
                -0.7217755398402507,
                1.7305332284701958,
                2.0548147292338226,
                -0.23994972927364344,
                -0.19553478280292147
            ]
        },
        {
            "positions": [
                0.07617962185344496,
                -0.752121748750202,
                1.8682198581062581,
                2.0096733354653855,
                -0.18450581326400206,
                -0.11940307237902537
            ]
        },
        {
            "positions": [
                0.12398149324225093,
                -0.7824679576601532,
                2.0059064877423203,
                1.964531941696949,
                -0.1290618972543605,
                -0.04327136195512955
            ]
        }
    ]
}