{
    "goal": {
        "global_pose": {
            "orientation": {
                "w": 0.7031023480610252,
                "x": -0.7110244013736278,
                "y": 0.0077485991402295624,
                "z": 0.005598929693374583
            },
            "position": {
                "x": -0.8841497679147869,
                "y": 0.44412534475326537,
                "z": 0.3711530566215515
            }
        },
        "name": "move_to_auspresseinheit_D"
    },
    "id": "KPIECE_move_to_auspresseinheit_D_70",
    "joint_names": [
        "shoulder_pan_joint",
        "shoulder_lift_joint",
        "elbow_joint",
        "wrist_1_joint",
        "wrist_2_joint",
        "wrist_3_joint"
    ],
    "metrics": {
        "cart_traj_len": 0.3444659589526443,
        "distance_elbow_joint": 0.653888449619181,
        "distance_shoulder_lift_joint": 0.12981486427679423,
        "distance_shoulder_pan_joint": 0.13488623945355904,
        "distance_wrist_1_joint": 0.5833454849329289,
        "distance_wrist_2_joint": 1.4342721294264886,
        "distance_wrist_3_joint": 0.04667013695046052,
        "smoothness": 3.9474596431116675e-16,
        "time": 0.078729274,
        "traj_len": 1.7271008380113226,
        "weighted_distance": 2.2569526341772774
    },
    "planner": "KPIECE",
    "start": {
        "state": {
            "elbow_joint": -1.8275484843655228,
            "shoulder_lift_joint": -2.1267897864000416,
            "shoulder_pan_joint": -0.035127520176001514,
            "wrist_1_joint": -2.3477863256791385,
            "wrist_2_joint": -1.605890476484521,
            "wrist_3_joint": -3.0880375317375353
        }
    },
    "waypoints": [
        {
            "positions": [
                -0.035127520176001514,
                -2.1267897864000416,
                -1.8275484843655228,
                -2.3477863256791385,
                -1.605890476484521,
                -3.0880375317375353
            ]
        },
        {
            "positions": [
                -0.051988300107696395,
                -2.143016644434641,
                -1.745812428163125,
                -2.420704511295755,
                -1.4266064603062099,
                -3.0822037646187277
            ]
        },
        {
            "positions": [
                -0.06884908003939127,
                -2.15924350246924,
                -1.6640763719607274,
                -2.4936226969123707,
                -1.247322444127899,
                -3.07636999749992
            ]
        },
        {
            "positions": [
                -0.08570985997108616,
                -2.1754703605038395,
                -1.5823403157583298,
                -2.5665408825289866,
                -1.0680384279495878,
                -3.0705362303811126
            ]
        },
        {
            "positions": [
                -0.10257063990278104,
                -2.1916972185384385,
                -1.5006042595559324,
                -2.639459068145603,
                -0.8887544117712767,
                -3.064702463262305
            ]
        },
        {
            "positions": [
                -0.11943141983447592,
                -2.207924076573038,
                -1.4188682033535347,
                -2.7123772537622193,
                -0.7094703955929655,
                -3.0588686961434974
            ]
        },
        {
            "positions": [
                -0.1362921997661708,
                -2.2241509346076374,
                -1.337132147151137,
                -2.785295439378835,
                -0.5301863794146546,
                -3.05303492902469
            ]
        },
        {
            "positions": [
                -0.15315297969786568,
                -2.2403777926422364,
                -1.2553960909487394,
                -2.858213624995451,
                -0.3509023632363435,
                -3.0472011619058823
            ]
        },
        {
            "positions": [
                -0.17001375962956056,
                -2.256604650676836,
                -1.1736600347463417,
                -2.9311318106120674,
                -0.1716183470580323,
                -3.0413673947870747
            ]
        }
    ]
}