{
    "goal": {
        "global_pose": {
            "orientation": {
                "w": -0.4816463035849501,
                "x": 0.5182115481033762,
                "y": 0.4908360881923453,
                "z": -0.5084816262002911
            },
            "position": {
                "x": -0.8240239810943604,
                "y": -0.300875300988555,
                "z": 0.16403168439865112
            }
        },
        "name": "move_to_storage_C"
    },
    "id": "KPIECE_move_to_storage_C_72",
    "joint_names": [
        "shoulder_pan_joint",
        "shoulder_lift_joint",
        "elbow_joint",
        "wrist_1_joint",
        "wrist_2_joint",
        "wrist_3_joint"
    ],
    "metrics": {
        "cart_traj_len": 0.5767289476273263,
        "distance_elbow_joint": 0.2527943210529626,
        "distance_shoulder_lift_joint": 0.1886490424238868,
        "distance_shoulder_pan_joint": 0.4962000710553909,
        "distance_wrist_1_joint": 0.06257526360600574,
        "distance_wrist_2_joint": 1.062017616383161,
        "distance_wrist_3_joint": 0.053996907081914625,
        "smoothness": 1.2688263138573217e-16,
        "time": 0.20636312499999998,
        "traj_len": 1.4547278857584747,
        "weighted_distance": 1.8299781189282884
    },
    "planner": "KPIECE",
    "start": {
        "state": {
            "elbow_joint": 2.0108683149792914,
            "shoulder_lift_joint": -1.1634956873317392,
            "shoulder_pan_joint": -2.4736205022346,
            "wrist_1_joint": -0.8367026793690192,
            "wrist_2_joint": 0.6746043897045053,
            "wrist_3_joint": 3.133522094754363
        }
    },
    "waypoints": [
        {
            "positions": [
                -2.4736205022346,
                -1.1634956873317392,
                2.0108683149792914,
                -0.8367026793690192,
                0.6746043897045053,
                3.133522094754363
            ]
        },
        {
            "positions": [
                -2.556320514077165,
                -1.1320541802610915,
                1.968735928137131,
                -0.8262734687680182,
                0.8516073257683654,
                3.1425215792680157
            ]
        },
        {
            "positions": [
                -2.6390205259197304,
                -1.1006126731904438,
                1.9266035412949705,
                -0.8158442581670173,
                1.0286102618322257,
                3.151521063781668
            ]
        },
        {
            "positions": [
                -2.7217205377622955,
                -1.0691711661197958,
                1.88447115445281,
                -0.8054150475660163,
                1.2056131978960858,
                3.1605205482953203
            ]
        },
        {
            "positions": [
                -2.8044205496048606,
                -1.037729659049148,
                1.8423387676106497,
                -0.7949858369650153,
                1.3826161339599459,
                3.1695200328089728
            ]
        },
        {
            "positions": [
                -2.887120561447426,
                -1.0062881519785003,
                1.8002063807684892,
                -0.7845566263640145,
                1.5596190700238062,
                3.1785195173226253
            ]
        },
        {
            "positions": [
                -2.969820573289991,
                -0.9748466449078524,
                1.7580739939263288,
                -0.7741274157630135,
                1.7366220060876663,
                3.187519001836278
            ]
        }
    ]
}