{
    "goal": {
        "global_pose": {
            "orientation": {
                "w": 0.005598929693374612,
                "x": 0.007748599140229565,
                "y": 0.7110244013736278,
                "z": -0.7031023480610252
            },
            "position": {
                "x": -0.8858502320852131,
                "y": -0.7141253447532654,
                "z": 0.3711530566215515
            }
        },
        "name": "move_to_auspresseinheit_C"
    },
    "id": "KPIECE_move_to_auspresseinheit_C_19",
    "joint_names": [
        "shoulder_pan_joint",
        "shoulder_lift_joint",
        "elbow_joint",
        "wrist_1_joint",
        "wrist_2_joint",
        "wrist_3_joint"
    ],
    "metrics": {
        "cart_traj_len": 0.4938853855716187,
        "distance_elbow_joint": 1.0153010286603035,
        "distance_shoulder_lift_joint": 0.332156109651248,
        "distance_shoulder_pan_joint": 0.2562450279180828,
        "distance_wrist_1_joint": 0.710815872658497,
        "distance_wrist_2_joint": 1.3060989107782897,
        "distance_wrist_3_joint": 0.07426624772300094,
        "smoothness": 6.459479467149049e-16,
        "time": 3.4152179990000002,
        "traj_len": 1.9222078965058438,
        "weighted_distance": 2.420811945664555
    },
    "planner": "KPIECE",
    "start": {
        "state": {
            "elbow_joint": 1.7527959577730765,
            "shoulder_lift_joint": -0.9740617694224828,
            "shoulder_pan_joint": -2.967991417825869,
            "wrist_1_joint": -0.7595177689779385,
            "wrist_2_joint": 1.7443932448376545,
            "wrist_3_joint": 3.1991315425061013
        }
    },
    "waypoints": [
        {
            "positions": [
                -2.967991417825869,
                -0.9740617694224828,
                1.7527959577730765,
                -0.7595177689779385,
                1.7443932448376545,
                3.1991315425061013
            ]
        },
        {
            "positions": [
                -2.942366915034061,
                -0.940846158457358,
                1.6512658549070462,
                -0.6884361817120889,
                1.6137833537598254,
                3.191704917733801
            ]
        },
        {
            "positions": [
                -2.9167424122422525,
                -0.9076305474922332,
                1.5497357520410158,
                -0.6173545944462391,
                1.4831734626819966,
                3.1842782929615012
            ]
        },
        {
            "positions": [
                -2.8911179094504442,
                -0.8744149365271084,
                1.4482056491749855,
                -0.5462730071803894,
                1.3525635716041675,
                3.176851668189201
            ]
        },
        {
            "positions": [
                -2.865493406658636,
                -0.8411993255619836,
                1.346675546308955,
                -0.4751914199145397,
                1.2219536805263385,
                3.169425043416901
            ]
        },
        {
            "positions": [
                -2.8398689038668277,
                -0.8079837145968588,
                1.2451454434429248,
                -0.40410983264869005,
                1.0913437894485096,
                3.161998418644601
            ]
        },
        {
            "positions": [
                -2.8142444010750194,
                -0.774768103631734,
                1.1436153405768943,
                -0.33302824538284037,
                0.9607338983706807,
                3.1545717938723006
            ]
        },
        {
            "positions": [
                -2.788619898283211,
                -0.7415524926666093,
                1.042085237710864,
                -0.2619466581169907,
                0.8301240072928517,
                3.1471451691000008
            ]
        },
        {
            "positions": [
                -2.762995395491403,
                -0.7083368817014843,
                0.9405551348448337,
                -0.1908650708511409,
                0.6995141162150227,
                3.1397185443277005
            ]
        },
        {
            "positions": [
                -2.7373708926995945,
                -0.6751212707363596,
                0.8390250319788034,
                -0.11978348358529123,
                0.5689042251371936,
                3.1322919195554006
            ]
        },
        {
            "positions": [
                -2.7117463899077863,
                -0.6419056597712348,
                0.7374949291127731,
                -0.04870189631944154,
                0.43829433405936485,
                3.1248652947831004
            ]
        }
    ]
}