{
    "goal": {
        "global_pose": {
            "orientation": {
                "w": -0.00223480608172531,
                "x": 0.0024358444001904467,
                "y": 0.7094548369677653,
                "z": -0.704743149386269
            },
            "position": {
                "x": -0.37947507619857795,
                "y": -0.6371506643295288,
                "z": 0.19426114857196808
            }
        },
        "name": "move_to_magneteinheit_C"
    },
    "id": "KPIECE_move_to_magneteinheit_C_49",
    "joint_names": [
        "shoulder_pan_joint",
        "shoulder_lift_joint",
        "elbow_joint",
        "wrist_1_joint",
        "wrist_2_joint",
        "wrist_3_joint"
    ],
    "metrics": {
        "cart_traj_len": 1.774966286872667,
        "distance_elbow_joint": 0.30617027663807606,
        "distance_shoulder_lift_joint": 0.5866691058446183,
        "distance_shoulder_pan_joint": 2.6472634758397042,
        "distance_wrist_1_joint": 2.2336597968104512,
        "distance_wrist_2_joint": 2.8174767818764845,
        "distance_wrist_3_joint": 0.6635718390634362,
        "smoothness": 1.5158161169313402,
        "time": 0.217304876,
        "traj_len": 3.0421721312366214,
        "weighted_distance": 3.9538704496842807
    },
    "planner": "KPIECE",
    "start": {
        "state": {
            "elbow_joint": 1.9565354006593851,
            "shoulder_lift_joint": -1.4165861576512813,
            "shoulder_pan_joint": -1.6717766223278752,
            "wrist_1_joint": -0.528663328821883,
            "wrist_2_joint": 1.472756589259273,
            "wrist_3_joint": 3.159348288315503
        }
    },
    "waypoints": [
        {
            "positions": [
                -1.6717766223278752,
                -1.4165861576512813,
                1.9565354006593851,
                -0.528663328821883,
                1.472756589259273,
                3.159348288315503
            ]
        },
        {
            "positions": [
                -1.5518821551158202,
                -1.4583063368867035,
                1.9249063383569918,
                -0.536066508049942,
                1.417128039615699,
                3.0896120757566297
            ]
        },
        {
            "positions": [
                -1.4319876879037654,
                -1.5000265161221256,
                1.8932772760545986,
                -0.5434696872780012,
                1.3614994899721253,
                3.0198758631977562
            ]
        },
        {
            "positions": [
                -1.3120932206917106,
                -1.5417466953575478,
                1.8616482137522052,
                -0.5508728665060602,
                1.3058709403285516,
                2.950139650638883
            ]
        },
        {
            "positions": [
                -1.1921987534796556,
                -1.58346687459297,
                1.8300191514498119,
                -0.5582760457341192,
                1.2502423906849776,
                2.8804034380800094
            ]
        },
        {
            "positions": [
                -1.3359265760113643,
                -1.5643556835192067,
                1.8409185800841692,
                -0.47765350420947206,
                1.1180891439969334,
                2.8742845942046795
            ]
        },
        {
            "positions": [
                -1.4796543985430732,
                -1.5452444924454434,
                1.8518180087185265,
                -0.3970309626848249,
                0.9859358973088892,
                2.8681657503293496
            ]
        },
        {
            "positions": [
                -1.623382221074782,
                -1.5261333013716802,
                1.862717437352884,
                -0.31640842116017776,
                0.8537826506208449,
                2.8620469064540197
            ]
        },
        {
            "positions": [
                -1.7671100436064906,
                -1.5070221102979169,
                1.8736168659872414,
                -0.23578587963553066,
                0.7216294039328007,
                2.85592806257869
            ]
        },
        {
            "positions": [
                -1.9108378661381995,
                -1.4879109192241535,
                1.8845162946215988,
                -0.1551633381108835,
                0.5894761572447564,
                2.84980921870336
            ]
        },
        {
            "positions": [
                -2.0545656886699084,
                -1.4687997281503902,
                1.895415723255956,
                -0.07454079658623641,
                0.45732291055671226,
                2.8436903748280304
            ]
        },
        {
            "positions": [
                -2.198293511201617,
                -1.4496885370766268,
                1.9063151518903134,
                0.006081744938410738,
                0.32516966386866797,
                2.8375715309527005
            ]
        },
        {
            "positions": [
                -2.3420213337333258,
                -1.4305773460028635,
                1.9172145805246708,
                0.08670428646305783,
                0.1930164171806239,
                2.8314526870773706
            ]
        },
        {
            "positions": [
                -2.485749156265035,
                -1.4114661549291,
                1.928114009159028,
                0.16732682798770493,
                0.06086317049257972,
                2.8253338432020407
            ]
        },
        {
            "positions": [
                -2.6294769787967436,
                -1.392354963855337,
                1.9390134377933856,
                0.24794936951235214,
                -0.07129007619546468,
                2.819214999326711
            ]
        },
        {
            "positions": [
                -2.7732048013284523,
                -1.3732437727815736,
                1.949912866427743,
                0.3285719110369991,
                -0.20344332288350886,
                2.813096155451381
            ]
        },
        {
            "positions": [
                -2.916932623860161,
                -1.3541325817078103,
                1.9608122950621003,
                0.4091944525616463,
                -0.335596569571553,
                2.806977311576051
            ]
        },
        {
            "positions": [
                -2.867715764236719,
                -1.3329710154836136,
                1.9662412821527908,
                0.2717970546058186,
                -0.2234717225664798,
                2.841555185167605
            ]
        },
        {
            "positions": [
                -2.8184989046132767,
                -1.311809449259417,
                1.9716702692434813,
                0.13439965664999087,
                -0.11134687556140663,
                2.8761330587591587
            ]
        },
        {
            "positions": [
                -2.7692820449898345,
                -1.2906478830352204,
                1.9770992563341718,
                -0.002997741305836854,
                0.0007779714436665364,
                2.9107109323507125
            ]
        },
        {
            "positions": [
                -2.7200651853663924,
                -1.2694863168110238,
                1.9825282434248623,
                -0.14039513926166458,
                0.11290281844873973,
                2.9452888059422664
            ]
        },
        {
            "positions": [
                -2.6708483257429503,
                -1.2483247505868271,
                1.9879572305155526,
                -0.2777925372174924,
                0.22502766545381298,
                2.97986667953382
            ]
        },
        {
            "positions": [
                -2.621631466119508,
                -1.2271631843626305,
                1.9933862176062431,
                -0.41518993517332003,
                0.33715251245888606,
                3.0144445531253736
            ]
        },
        {
            "positions": [
                -2.572414606496066,
                -1.2060016181384339,
                1.9988152046969336,
                -0.5525873331291479,
                0.44927735946395925,
                3.0490224267169275
            ]
        },
        {
            "positions": [
                -2.523197746872624,
                -1.1848400519142372,
                2.0042441917876244,
                -0.6899847310849755,
                0.5614022064690325,
                3.0836003003084813
            ]
        },
        {
            "positions": [
                -2.4739808872491817,
                -1.1636784856900406,
                2.0096731788783146,
                -0.8273821290408033,
                0.6735270534741056,
                3.118178173900035
            ]
        }
    ]
}