{
    "goal": {
        "global_pose": {
            "orientation": {
                "w": -0.00223480608172531,
                "x": 0.0024358444001904467,
                "y": 0.7094548369677653,
                "z": -0.704743149386269
            },
            "position": {
                "x": -0.37947507619857795,
                "y": -0.6371506643295288,
                "z": 0.19426114857196808
            }
        },
        "name": "move_to_magneteinheit_C"
    },
    "id": "KPIECE_move_to_magneteinheit_C_150",
    "joint_names": [
        "shoulder_pan_joint",
        "shoulder_lift_joint",
        "elbow_joint",
        "wrist_1_joint",
        "wrist_2_joint",
        "wrist_3_joint"
    ],
    "metrics": {
        "cart_traj_len": 0.8362440503480786,
        "distance_elbow_joint": 0.292925129055728,
        "distance_shoulder_lift_joint": 0.8146845315012259,
        "distance_shoulder_pan_joint": 0.9587038371683361,
        "distance_wrist_1_joint": 0.5139907546801606,
        "distance_wrist_2_joint": 1.5668376804162478,
        "distance_wrist_3_joint": 5.41550091682657,
        "smoothness": 1.3650893924053957,
        "time": 0.39501201599999997,
        "traj_len": 3.092352316546138,
        "weighted_distance": 4.740724957050115
    },
    "planner": "KPIECE",
    "start": {
        "state": {
            "elbow_joint": 1.9565354006593851,
            "shoulder_lift_joint": -1.4165861576512813,
            "shoulder_pan_joint": -1.6717766223278752,
            "wrist_1_joint": -0.528663328821883,
            "wrist_2_joint": 1.472756589259273,
            "wrist_3_joint": 3.159348288315503
        }
    },
    "waypoints": [
        {
            "positions": [
                -1.6717766223278752,
                -1.4165861576512813,
                1.9565354006593851,
                -0.528663328821883,
                1.472756589259273,
                3.159348288315503
            ]
        },
        {
            "positions": [
                -1.632806557812569,
                -1.451813312702709,
                1.980340726007173,
                -0.516547403901717,
                1.3417108676035798,
                3.1829022664102267
            ]
        },
        {
            "positions": [
                -1.5938364932972626,
                -1.4870404677541371,
                2.004146051354961,
                -0.5044314789815512,
                1.2106651459478865,
                3.20645624450495
            ]
        },
        {
            "positions": [
                -1.6482284468560138,
                -1.5062024011730335,
                2.014608021403205,
                -0.4969766621697814,
                1.2453823235978336,
                2.9584960264072864
            ]
        },
        {
            "positions": [
                -1.702620400414765,
                -1.5253643345919297,
                2.0250699914514487,
                -0.48952184535801174,
                1.280099501247781,
                2.7105358083096225
            ]
        },
        {
            "positions": [
                -1.757012353973516,
                -1.544526268010826,
                2.0355319614996925,
                -0.482067028546242,
                1.314816678897728,
                2.462575590211959
            ]
        },
        {
            "positions": [
                -1.8114043075322672,
                -1.5636882014297224,
                2.0459939315479363,
                -0.4746122117344723,
                1.349533856547675,
                2.214615372114295
            ]
        },
        {
            "positions": [
                -1.8657962610910181,
                -1.5828501348486186,
                2.05645590159618,
                -0.4671573949227026,
                1.3842510341976224,
                1.966655154016632
            ]
        },
        {
            "positions": [
                -1.9201882146497693,
                -1.602012068267515,
                2.0669178716444243,
                -0.4597025781109329,
                1.4189682118475695,
                1.7186949359189683
            ]
        },
        {
            "positions": [
                -1.9745801682085204,
                -1.6211740016864113,
                2.077379841692668,
                -0.45224776129916316,
                1.4536853894975166,
                1.4707347178213046
            ]
        },
        {
            "positions": [
                -2.028972121767272,
                -1.6403359351053075,
                2.087841811740912,
                -0.4447929444873935,
                1.4884025671474639,
                1.222774499723641
            ]
        },
        {
            "positions": [
                -2.0833640753260227,
                -1.659497868524204,
                2.0983037817891557,
                -0.43733812767562374,
                1.523119744797411,
                0.974814281625977
            ]
        },
        {
            "positions": [
                -2.137756028884774,
                -1.6786598019431,
                2.1087657518373994,
                -0.429883310863854,
                1.557836922447358,
                0.726854063528314
            ]
        },
        {
            "positions": [
                -2.192147982443525,
                -1.6978217353619964,
                2.1192277218856432,
                -0.4224284940520843,
                1.5925541000973054,
                0.47889384543065017
            ]
        },
        {
            "positions": [
                -2.218797189886162,
                -1.6590682672153485,
                2.1207525085352805,
                -0.45291051539582244,
                1.5244663033068595,
                0.6803232891034416
            ]
        },
        {
            "positions": [
                -2.2454463973287986,
                -1.6203147990687006,
                2.1222772951849174,
                -0.4833925367395606,
                1.4563785065164137,
                0.8817527327762331
            ]
        },
        {
            "positions": [
                -2.2720956047714354,
                -1.5815613309220526,
                2.1238020818345547,
                -0.5138745580832987,
                1.3882907097259678,
                1.0831821764490246
            ]
        },
        {
            "positions": [
                -2.298744812214072,
                -1.5428078627754047,
                2.125326868484192,
                -0.5443565794270369,
                1.320202912935522,
                1.284611620121816
            ]
        },
        {
            "positions": [
                -2.325394019656709,
                -1.5040543946287568,
                2.1268516551338292,
                -0.5748386007707751,
                1.2521151161450759,
                1.4860410637946078
            ]
        },
        {
            "positions": [
                -2.3520432270993457,
                -1.4653009264821089,
                2.128376441783466,
                -0.6053206221145132,
                1.18402731935463,
                1.6874705074673992
            ]
        },
        {
            "positions": [
                -2.3786924345419824,
                -1.426547458335461,
                2.1299012284331034,
                -0.6358026434582513,
                1.1159395225641842,
                1.8888999511401907
            ]
        },
        {
            "positions": [
                -2.394677062357483,
                -1.3828516788747984,
                2.109974678219435,
                -0.6681996052089505,
                1.0415657383271306,
                2.094037360449071
            ]
        },
        {
            "positions": [
                -2.410661690172984,
                -1.339155899414136,
                2.090048128005767,
                -0.7005965669596497,
                0.9671919540900771,
                2.2991747697579514
            ]
        },
        {
            "positions": [
                -2.4266463179884843,
                -1.2954601199534732,
                2.0701215777920985,
                -0.7329935287103488,
                0.8928181698530235,
                2.5043121790668317
            ]
        },
        {
            "positions": [
                -2.4426309458039848,
                -1.2517643404928107,
                2.05019502757843,
                -0.7653904904610479,
                0.81844438561597,
                2.709449588375712
            ]
        },
        {
            "positions": [
                -2.4586155736194857,
                -1.2080685610321482,
                2.030268477364762,
                -0.7977874522117471,
                0.7440706013789163,
                2.914586997684592
            ]
        },
        {
            "positions": [
                -2.474600201434986,
                -1.1643727815714857,
                2.0103419271510936,
                -0.8301844139624462,
                0.6696968171418628,
                3.1197244069934724
            ]
        }
    ]
}