{
    "goal": {
        "global_pose": {
            "orientation": {
                "w": 0.7031023502349854,
                "x": -0.7110244035720825,
                "y": 0.007748599164187908,
                "z": 0.005598929710686207
            },
            "position": {
                "x": 0.11585023208521307,
                "y": 0.44412534475326537,
                "z": 0.3711530566215515
            }
        },
        "name": "move_to_auspresseinheit_A"
    },
    "id": "KPIECE_move_to_auspresseinheit_A_44",
    "joint_names": [
        "shoulder_pan_joint",
        "shoulder_lift_joint",
        "elbow_joint",
        "wrist_1_joint",
        "wrist_2_joint",
        "wrist_3_joint"
    ],
    "metrics": {
        "cart_traj_len": 1.3045259190632317,
        "distance_elbow_joint": 0.7902050726132885,
        "distance_shoulder_lift_joint": 0.9319098541721378,
        "distance_shoulder_pan_joint": 1.457334593290418,
        "distance_wrist_1_joint": 2.0244427192984014,
        "distance_wrist_2_joint": 1.0846875802863654,
        "distance_wrist_3_joint": 2.7905652347386876,
        "smoothness": 0.5437009537901389,
        "time": 0.5116113529999999,
        "traj_len": 3.0131619694930603,
        "weighted_distance": 4.215377304994352
    },
    "planner": "KPIECE",
    "start": {
        "state": {
            "elbow_joint": 2.4225746994637096,
            "shoulder_lift_joint": -1.373653595662188,
            "shoulder_pan_joint": -0.3378633848294565,
            "wrist_1_joint": -1.0288595594406726,
            "wrist_2_joint": 1.2330228066703421,
            "wrist_3_joint": 3.189163495502006
        }
    },
    "waypoints": [
        {
            "positions": [
                -0.3378633848294565,
                -1.373653595662188,
                2.4225746994637096,
                -1.0288595594406726,
                1.2330228066703421,
                3.189163495502006
            ]
        },
        {
            "positions": [
                -0.2983666175833553,
                -1.4225245706637022,
                2.3768382393746146,
                -0.9564429305161586,
                1.210029138161985,
                3.0315987629714867
            ]
        },
        {
            "positions": [
                -0.2588698503372542,
                -1.4713955456652161,
                2.3311017792855195,
                -0.8840263015916445,
                1.1870354696536276,
                2.8740340304409675
            ]
        },
        {
            "positions": [
                -0.219373083091153,
                -1.5202665206667303,
                2.285365319196424,
                -0.8116096726671305,
                1.1640418011452704,
                2.7164692979104483
            ]
        },
        {
            "positions": [
                -0.17987631584505184,
                -1.5691374956682442,
                2.239628859107329,
                -0.7391930437426164,
                1.141048132636913,
                2.5589045653799287
            ]
        },
        {
            "positions": [
                -0.14037954859895066,
                -1.6180084706697584,
                2.193892399018234,
                -0.6667764148181021,
                1.118054464128556,
                2.4013398328494096
            ]
        },
        {
            "positions": [
                -0.1008827813528495,
                -1.6668794456712723,
                2.148155938929139,
                -0.5943597858935882,
                1.0950607956201985,
                2.2437751003188904
            ]
        },
        {
            "positions": [
                -0.06138601410674832,
                -1.7157504206727865,
                2.1024194788400434,
                -0.521943156969074,
                1.0720671271118414,
                2.086210367788371
            ]
        },
        {
            "positions": [
                -0.021889246860647193,
                -1.7646213956743004,
                2.0566830187509484,
                -0.44952652804456006,
                1.049073458603484,
                1.928645635257852
            ]
        },
        {
            "positions": [
                0.01760752038545401,
                -1.8134923706758146,
                2.0109465586618533,
                -0.3771098991200459,
                1.0260797900951268,
                1.7710809027273327
            ]
        },
        {
            "positions": [
                0.12590972820963994,
                -1.8623159845152522,
                2.0322930663148595,
                -0.27154434740267996,
                0.9554260321127458,
                1.7803436421417662
            ]
        },
        {
            "positions": [
                0.2342119360338259,
                -1.9111395983546895,
                2.0536395739678652,
                -0.1659787956853141,
                0.8847722741303649,
                1.7896063815561996
            ]
        },
        {
            "positions": [
                0.3425141438580118,
                -1.959963212194127,
                2.0749860816208714,
                -0.06041324396794817,
                0.8141185161479838,
                1.798869120970633
            ]
        },
        {
            "positions": [
                0.45081635168219775,
                -2.0087868260335644,
                2.0963325892738776,
                0.0451523077494177,
                0.7434647581656029,
                1.8081318603850665
            ]
        },
        {
            "positions": [
                0.5591185595063838,
                -2.057610439873002,
                2.1176790969268833,
                0.15071785946678362,
                0.6728110001832217,
                1.8173945997995
            ]
        },
        {
            "positions": [
                0.6674207673305697,
                -2.1064340537124395,
                2.1390256045798894,
                0.25628341118414955,
                0.6021572422008408,
                1.8266573392139334
            ]
        },
        {
            "positions": [
                0.7491517513665307,
                -2.0675579078580437,
                2.1640468515969427,
                0.26173743052813647,
                0.5448510902252656,
                2.008327619770369
            ]
        },
        {
            "positions": [
                0.8308827354024917,
                -2.0286817620036475,
                2.1890680986139963,
                0.26719144987212345,
                0.48754493824969036,
                2.189997900326805
            ]
        },
        {
            "positions": [
                0.9126137194384528,
                -1.9898056161492517,
                2.2140893456310495,
                0.2726454692161104,
                0.4302387862741151,
                2.371668180883241
            ]
        },
        {
            "positions": [
                0.8781374712680345,
                -1.9760554563894686,
                2.2433283697714224,
                0.15215585410917404,
                0.4772227129224715,
                2.500317408184592
            ]
        },
        {
            "positions": [
                0.8436612230976164,
                -1.9623052966296854,
                2.2725673939117947,
                0.031666239002237695,
                0.5242066395708278,
                2.628966635485943
            ]
        },
        {
            "positions": [
                0.8091849749271982,
                -1.9485551368699023,
                2.3018064180521676,
                -0.08882337610469865,
                0.5711905662191842,
                2.757615862787294
            ]
        },
        {
            "positions": [
                0.7747087267567799,
                -1.9348049771101195,
                2.3310454421925404,
                -0.209312991211635,
                0.6181744928675406,
                2.886265090088645
            ]
        },
        {
            "positions": [
                0.7402324785863617,
                -1.9210548173503363,
                2.360284466332913,
                -0.32980260631857133,
                0.6651584195158969,
                3.014914317389996
            ]
        },
        {
            "positions": [
                0.7057562304159435,
                -1.9073046575905532,
                2.3895234904732856,
                -0.45029222142550773,
                0.7121423461642533,
                3.143563544691347
            ]
        }
    ]
}