{
    "goal": {
        "global_pose": {
            "orientation": {
                "w": -0.00223480608172531,
                "x": 0.0024358444001904467,
                "y": 0.7094548369677653,
                "z": -0.704743149386269
            },
            "position": {
                "x": -0.37947507619857795,
                "y": -0.6371506643295288,
                "z": 0.19426114857196808
            }
        },
        "name": "move_to_magneteinheit_C"
    },
    "id": "KPIECE_move_to_magneteinheit_C_94",
    "joint_names": [
        "shoulder_pan_joint",
        "shoulder_lift_joint",
        "elbow_joint",
        "wrist_1_joint",
        "wrist_2_joint",
        "wrist_3_joint"
    ],
    "metrics": {
        "cart_traj_len": 3.4922024280695445,
        "distance_elbow_joint": 0.09548183911719499,
        "distance_shoulder_lift_joint": 1.4583365900316128,
        "distance_shoulder_pan_joint": 4.9458985332413175,
        "distance_wrist_1_joint": 0.29050077082106585,
        "distance_wrist_2_joint": 2.5946801186614112,
        "distance_wrist_3_joint": 4.606999124324236,
        "smoothness": 0.7890563922801707,
        "time": 3.1125012169999997,
        "traj_len": 3.7405744179466387,
        "weighted_distance": 5.1079424540932115
    },
    "planner": "KPIECE",
    "start": {
        "state": {
            "elbow_joint": 1.9565354006593851,
            "shoulder_lift_joint": -1.4165861576512813,
            "shoulder_pan_joint": -1.6717766223278752,
            "wrist_1_joint": -0.528663328821883,
            "wrist_2_joint": 1.472756589259273,
            "wrist_3_joint": 3.159348288315503
        }
    },
    "waypoints": [
        {
            "positions": [
                -1.6717766223278752,
                -1.4165861576512813,
                1.9565354006593851,
                -0.528663328821883,
                1.472756589259273,
                3.159348288315503
            ]
        },
        {
            "positions": [
                -1.5541495822034987,
                -1.4486385406837743,
                1.9607863702917574,
                -0.5324983357581868,
                1.3728570134090623,
                3.0229389174377785
            ]
        },
        {
            "positions": [
                -1.4365225420791223,
                -1.4806909237162673,
                1.9650373399241294,
                -0.5363333426944906,
                1.2729574375588513,
                2.8865295465600536
            ]
        },
        {
            "positions": [
                -1.3188955019547457,
                -1.5127433067487603,
                1.9692883095565017,
                -0.5401683496307945,
                1.1730578617086405,
                2.750120175682329
            ]
        },
        {
            "positions": [
                -1.2012684618303693,
                -1.5447956897812534,
                1.973539279188874,
                -0.5440033565670983,
                1.0731582858584297,
                2.613710804804604
            ]
        },
        {
            "positions": [
                -1.0836414217059929,
                -1.5768480728137464,
                1.977790248821246,
                -0.5478383635034021,
                0.9732587100082188,
                2.4773014339268795
            ]
        },
        {
            "positions": [
                -0.9660143815816165,
                -1.6089004558462394,
                1.9820412184536182,
                -0.5516733704397059,
                0.8733591341580079,
                2.3408920630491545
            ]
        },
        {
            "positions": [
                -0.8483873414572402,
                -1.6409528388787322,
                1.9862921880859905,
                -0.5555083773760097,
                0.7734595583077971,
                2.20448269217143
            ]
        },
        {
            "positions": [
                -0.7307603013328636,
                -1.6730052219112252,
                1.9905431577183625,
                -0.5593433843123135,
                0.6735599824575862,
                2.0680733212937055
            ]
        },
        {
            "positions": [
                -0.6131332612084872,
                -1.7050576049437183,
                1.9947941273507348,
                -0.5631783912486173,
                0.5736604066073754,
                1.9316639504159807
            ]
        },
        {
            "positions": [
                -0.4955062210841108,
                -1.7371099879762113,
                1.9990450969831068,
                -0.5670133981849211,
                0.47376083075716446,
                1.795254579538256
            ]
        },
        {
            "positions": [
                -0.37787918095973416,
                -1.7691623710087043,
                2.003296066615479,
                -0.5708484051212249,
                0.37386125490695354,
                1.6588452086605312
            ]
        },
        {
            "positions": [
                -0.26025214083535775,
                -1.8012147540411974,
                2.007547036247851,
                -0.5746834120575287,
                0.27396167905674274,
                1.5224358377828064
            ]
        },
        {
            "positions": [
                -0.14262510071098156,
                -1.8332671370736904,
                2.0117980058802236,
                -0.5785184189938325,
                0.17406210320653193,
                1.386026466905082
            ]
        },
        {
            "positions": [
                -0.024998060586605142,
                -1.8653195201061834,
                2.0160489755125957,
                -0.5823534259301363,
                0.07416252735632112,
                1.2496170960273572
            ]
        },
        {
            "positions": [
                0.0926289795377715,
                -1.8973719031386764,
                2.0202999451449677,
                -0.5861884328664402,
                -0.02573704849388969,
                1.1132077251496324
            ]
        },
        {
            "positions": [
                0.2102560196621479,
                -1.9294242861711695,
                2.02455091477734,
                -0.590023439802744,
                -0.12563662434410072,
                0.9767983542719074
            ]
        },
        {
            "positions": [
                0.32788305978652427,
                -1.9614766692036625,
                2.028801884409712,
                -0.5938584467390478,
                -0.22553620019431161,
                0.8403889833941829
            ]
        },
        {
            "positions": [
                0.13630340940519248,
                -1.9043651604605458,
                2.028492317887931,
                -0.6003863454580465,
                -0.20668890887808286,
                0.9516266137768331
            ]
        },
        {
            "positions": [
                -0.05527624097613931,
                -1.847253651717429,
                2.02818275136615,
                -0.6069142441770452,
                -0.1878416175618541,
                1.0628642441594833
            ]
        },
        {
            "positions": [
                -0.24685589135747116,
                -1.7901421429743123,
                2.0278731848443687,
                -0.6134421428960439,
                -0.16899432624562535,
                1.1741018745421334
            ]
        },
        {
            "positions": [
                -0.4384355417388029,
                -1.7330306342311954,
                2.0275636183225876,
                -0.6199700416150428,
                -0.15014703492939663,
                1.2853395049247838
            ]
        },
        {
            "positions": [
                -0.6300151921201347,
                -1.6759191254880788,
                2.0272540518008064,
                -0.6264979403340415,
                -0.13129974361316787,
                1.3965771353074339
            ]
        },
        {
            "positions": [
                -0.8215948425014665,
                -1.6188076167449619,
                2.0269444852790253,
                -0.6330258390530402,
                -0.1124524522969391,
                1.507814765690084
            ]
        },
        {
            "positions": [
                -1.0131744928827982,
                -1.5616961080018452,
                2.026634918757244,
                -0.6395537377720389,
                -0.09360516098071037,
                1.6190523960727343
            ]
        },
        {
            "positions": [
                -1.20475414326413,
                -1.5045845992587283,
                2.0263253522354634,
                -0.6460816364910377,
                -0.07475786966448161,
                1.7302900264553844
            ]
        },
        {
            "positions": [
                -1.3963337936454616,
                -1.4474730905156117,
                2.0260157857136822,
                -0.6526095352100364,
                -0.05591057834825286,
                1.8415276568380345
            ]
        },
        {
            "positions": [
                -1.5879134440267935,
                -1.390361581772495,
                2.025706219191901,
                -0.6591374339290351,
                -0.037063287032024134,
                1.9527652872206849
            ]
        },
        {
            "positions": [
                -1.779493094408125,
                -1.3332500730293781,
                2.02539665267012,
                -0.6656653326480338,
                -0.01821599571579538,
                2.064002917603335
            ]
        },
        {
            "positions": [
                -1.9710727447894574,
                -1.2761385642862613,
                2.0250870861483388,
                -0.6721932313670327,
                0.0006312956004334014,
                2.175240547985985
            ]
        },
        {
            "positions": [
                -2.162652395170789,
                -1.2190270555431446,
                2.0247775196265576,
                -0.6787211300860314,
                0.019478586916662155,
                2.286478178368635
            ]
        },
        {
            "positions": [
                -2.354232045552121,
                -1.161915546800028,
                2.0244679531047765,
                -0.6852490288050301,
                0.03832587823289088,
                2.3977158087512858
            ]
        },
        {
            "positions": [
                -2.5458116959334527,
                -1.104804038056911,
                2.0241583865829953,
                -0.6917769275240289,
                0.057173169549119635,
                2.508953439133936
            ]
        },
        {
            "positions": [
                -2.527675672081718,
                -1.118997399890031,
                2.0195154221979577,
                -0.7236237205537589,
                0.21059265941521843,
                2.663822280049727
            ]
        },
        {
            "positions": [
                -2.5095396482299837,
                -1.1331907617231511,
                2.0148724578129196,
                -0.7554705135834889,
                0.3640121492813172,
                2.818691120965518
            ]
        },
        {
            "positions": [
                -2.4914036243782487,
                -1.1473841235562712,
                2.010229493427882,
                -0.7873173066132189,
                0.5174316391474161,
                2.9735599618813087
            ]
        },
        {
            "positions": [
                -2.473267600526514,
                -1.1615774853893912,
                2.0055865290428443,
                -0.8191640996429489,
                0.6708511290135148,
                3.1284288027971
            ]
        }
    ]
}