{
    "goal": {
        "global_pose": {
            "orientation": {
                "w": -0.00223480608172531,
                "x": 0.0024358444001904467,
                "y": 0.7094548369677653,
                "z": -0.704743149386269
            },
            "position": {
                "x": -0.37947507619857795,
                "y": -0.6371506643295288,
                "z": 0.19426114857196808
            }
        },
        "name": "move_to_magneteinheit_C"
    },
    "id": "KPIECE_move_to_magneteinheit_C_10",
    "joint_names": [
        "shoulder_pan_joint",
        "shoulder_lift_joint",
        "elbow_joint",
        "wrist_1_joint",
        "wrist_2_joint",
        "wrist_3_joint"
    ],
    "metrics": {
        "cart_traj_len": 1.8523945429580482,
        "distance_elbow_joint": 1.4594481798702217,
        "distance_shoulder_lift_joint": 0.6260967645375066,
        "distance_shoulder_pan_joint": 1.6776149375950296,
        "distance_wrist_1_joint": 1.7337995539256246,
        "distance_wrist_2_joint": 1.470879564471475,
        "distance_wrist_3_joint": 2.4984220085421187,
        "smoothness": 1.0835320245195925,
        "time": 0.689455951,
        "traj_len": 3.0767289462905207,
        "weighted_distance": 4.203306334830155
    },
    "planner": "KPIECE",
    "start": {
        "state": {
            "elbow_joint": 1.9565354006593851,
            "shoulder_lift_joint": -1.4165861576512813,
            "shoulder_pan_joint": -1.6717766223278752,
            "wrist_1_joint": -0.528663328821883,
            "wrist_2_joint": 1.472756589259273,
            "wrist_3_joint": 3.159348288315503
        }
    },
    "waypoints": [
        {
            "positions": [
                -1.6717766223278752,
                -1.4165861576512813,
                1.9565354006593851,
                -0.528663328821883,
                1.472756589259273,
                3.159348288315503
            ]
        },
        {
            "positions": [
                -1.6636166688884289,
                -1.4519974003525915,
                1.9362551407370865,
                -0.4613802852165634,
                1.4851869743213602,
                3.0957028781713762
            ]
        },
        {
            "positions": [
                -1.6554567154489828,
                -1.487408643053902,
                1.9159748808147876,
                -0.3940972416112437,
                1.497617359383447,
                3.0320574680272494
            ]
        },
        {
            "positions": [
                -1.6421864260692325,
                -1.5261223367618288,
                1.8810566778087534,
                -0.3062140230936173,
                1.5033588339729709,
                2.9405019015999083
            ]
        },
        {
            "positions": [
                -1.6289161366894824,
                -1.564836030469756,
                1.8461384748027194,
                -0.21833080457599083,
                1.5091003085624946,
                2.8489463351725677
            ]
        },
        {
            "positions": [
                -1.6156458473097322,
                -1.6035497241776828,
                1.8112202717966852,
                -0.1304475860583644,
                1.5148417831520185,
                2.7573907687452266
            ]
        },
        {
            "positions": [
                -1.5611644277399648,
                -1.5962607551618273,
                1.7328740486974363,
                -0.08510788329595584,
                1.4422104215913454,
                2.634226546818455
            ]
        },
        {
            "positions": [
                -1.5066830081701974,
                -1.5889717861459716,
                1.6545278255981875,
                -0.03976818053354726,
                1.3695790600306725,
                2.5110623248916832
            ]
        },
        {
            "positions": [
                -1.45220158860043,
                -1.581682817130116,
                1.5761816024989386,
                0.005571522228861314,
                1.2969476984699995,
                2.3878981029649116
            ]
        },
        {
            "positions": [
                -1.3977201690306624,
                -1.5743938481142603,
                1.4978353793996897,
                0.05091122499126988,
                1.2243163369093266,
                2.26473388103814
            ]
        },
        {
            "positions": [
                -1.343238749460895,
                -1.5671048790984048,
                1.4194891563004406,
                0.09625092775367847,
                1.1516849753486536,
                2.1415696591113678
            ]
        },
        {
            "positions": [
                -1.2887573298911277,
                -1.559815910082549,
                1.3411429332011917,
                0.14159063051608703,
                1.0790536137879807,
                2.018405437184596
            ]
        },
        {
            "positions": [
                -1.2342759103213603,
                -1.5525269410666935,
                1.2627967101019428,
                0.1869303332784956,
                1.0064222522273076,
                1.8952412152578244
            ]
        },
        {
            "positions": [
                -1.285904640131186,
                -1.5307062531421467,
                1.3315744460546555,
                0.1017450728366101,
                0.9492787767378612,
                1.973691354025161
            ]
        },
        {
            "positions": [
                -1.337533369941012,
                -1.5088855652176,
                1.400352182007368,
                0.01655981239472462,
                0.8921353012484148,
                2.0521414927924977
            ]
        },
        {
            "positions": [
                -1.3891620997508376,
                -1.4870648772930533,
                1.4691299179600805,
                -0.06862544804716084,
                0.8349918257589684,
                2.130591631559834
            ]
        },
        {
            "positions": [
                -1.4407908295606633,
                -1.4652441893685064,
                1.5379076539127932,
                -0.15381070848904635,
                0.7778483502695218,
                2.209041770327171
            ]
        },
        {
            "positions": [
                -1.492419559370489,
                -1.4434235014439598,
                1.6066853898655058,
                -0.2389959689309318,
                0.7207048747800754,
                2.2874919090945074
            ]
        },
        {
            "positions": [
                -1.544048289180315,
                -1.421602813519413,
                1.6754631258182182,
                -0.32418122937281724,
                0.663561399290629,
                2.365942047861844
            ]
        },
        {
            "positions": [
                -1.5956770189901406,
                -1.3997821255948661,
                1.7442408617709309,
                -0.4093664898147028,
                0.6064179238011825,
                2.4443921866291802
            ]
        },
        {
            "positions": [
                -1.6473057487999663,
                -1.3779614376703195,
                1.8130185977236435,
                -0.49455175025658826,
                0.549274448311736,
                2.522842325396517
            ]
        },
        {
            "positions": [
                -1.6989344786097922,
                -1.3561407497457727,
                1.881796333676356,
                -0.5797370106984738,
                0.49213097282228957,
                2.6012924641638535
            ]
        },
        {
            "positions": [
                -1.7505632084196177,
                -1.334320061821226,
                1.9505740696290685,
                -0.6649222711403592,
                0.43498749733284314,
                2.6797426029311904
            ]
        },
        {
            "positions": [
                -1.8021919382294436,
                -1.3124993738966793,
                2.019351805581781,
                -0.7501075315822447,
                0.37784402184339666,
                2.758192741698527
            ]
        },
        {
            "positions": [
                -1.9702414876495515,
                -1.2754786619641538,
                2.017063207123546,
                -0.7703995383233713,
                0.4507931741609237,
                2.8510335939594613
            ]
        },
        {
            "positions": [
                -2.138291037069659,
                -1.2384579500316284,
                2.0147746086653107,
                -0.7906915450644977,
                0.5237423264784508,
                2.943874446220396
            ]
        },
        {
            "positions": [
                -2.306340586489767,
                -1.2014372380991032,
                2.012486010207075,
                -0.8109835518056241,
                0.5966914787959778,
                3.03671529848133
            ]
        },
        {
            "positions": [
                -2.474390135909875,
                -1.1644165261665778,
                2.01019741174884,
                -0.8312755585467506,
                0.6696406311135048,
                3.1295561507422645
            ]
        }
    ]
}