{
    "goal": {
        "global_pose": {
            "orientation": {
                "w": 0.005598929693374612,
                "x": 0.007748599140229565,
                "y": 0.7110244013736278,
                "z": -0.7031023480610252
            },
            "position": {
                "x": 0.1141497679147869,
                "y": -0.7141253447532654,
                "z": 0.3711530566215515
            }
        },
        "name": "move_to_auspresseinheit_B"
    },
    "id": "KPIECE_move_to_auspresseinheit_B_104",
    "joint_names": [
        "shoulder_pan_joint",
        "shoulder_lift_joint",
        "elbow_joint",
        "wrist_1_joint",
        "wrist_2_joint",
        "wrist_3_joint"
    ],
    "metrics": {
        "cart_traj_len": 0.5642800612170651,
        "distance_elbow_joint": 0.06691801567625277,
        "distance_shoulder_lift_joint": 0.2928684872731011,
        "distance_shoulder_pan_joint": 0.5768649052552124,
        "distance_wrist_1_joint": 0.33964436990281177,
        "distance_wrist_2_joint": 0.9887365732348017,
        "distance_wrist_3_joint": 0.010259070507110835,
        "smoothness": 6.344131583732827e-16,
        "time": 0.235522299,
        "traj_len": 1.508406915208655,
        "weighted_distance": 1.903730681057887
    },
    "planner": "KPIECE",
    "start": {
        "state": {
            "elbow_joint": 2.0193061681459312,
            "shoulder_lift_joint": -1.1220205130644991,
            "shoulder_pan_joint": -1.0952072088045026,
            "wrist_1_joint": -0.8559671810662515,
            "wrist_2_joint": 0.4759638712940361,
            "wrist_3_joint": 3.159081874192446
        }
    },
    "waypoints": [
        {
            "positions": [
                -1.0952072088045026,
                -1.1220205130644991,
                2.0193061681459312,
                -0.8559671810662515,
                0.4759638712940361,
                3.159081874192446
            ]
        },
        {
            "positions": [
                -1.1913513596803713,
                -1.170831927610016,
                2.0081531655332223,
                -0.7993597860824495,
                0.6407533001665031,
                3.1573720291079277
            ]
        },
        {
            "positions": [
                -1.28749551055624,
                -1.2196433421555328,
                1.9970001629205136,
                -0.7427523910986475,
                0.8055427290389701,
                3.155662184023409
            ]
        },
        {
            "positions": [
                -1.3836396614321087,
                -1.2684547567010496,
                1.985847160307805,
                -0.6861449961148456,
                0.970332157911437,
                3.1539523389388906
            ]
        },
        {
            "positions": [
                -1.4797838123079776,
                -1.3172661712465665,
                1.974694157695096,
                -0.6295376011310436,
                1.135121586783904,
                3.1522424938543723
            ]
        },
        {
            "positions": [
                -1.5759279631838463,
                -1.3660775857920835,
                1.9635411550823871,
                -0.5729302061472417,
                1.299911015656371,
                3.1505326487698535
            ]
        },
        {
            "positions": [
                -1.672072114059715,
                -1.4148890003376002,
                1.9523881524696785,
                -0.5163228111634397,
                1.4647004445288379,
                3.148822803685335
            ]
        }
    ]
}