{
    "goal": {
        "global_pose": {
            "orientation": {
                "w": 0.5084816262002911,
                "x": -0.4908360881923452,
                "y": 0.5182115481033761,
                "z": -0.48164630358495003
            },
            "position": {
                "x": 0.5540239810943604,
                "y": -0.46912469901144505,
                "z": 0.16403168439865112
            }
        },
        "name": "move_to_storage_B"
    },
    "id": "KPIECE_move_to_storage_B_108",
    "joint_names": [
        "shoulder_pan_joint",
        "shoulder_lift_joint",
        "elbow_joint",
        "wrist_1_joint",
        "wrist_2_joint",
        "wrist_3_joint"
    ],
    "metrics": {
        "cart_traj_len": 1.929393919511614,
        "distance_elbow_joint": 1.369517385924113,
        "distance_shoulder_lift_joint": 1.889494791741801,
        "distance_shoulder_pan_joint": 2.229568841084032,
        "distance_wrist_1_joint": 4.109605963584393,
        "distance_wrist_2_joint": 2.70571607998112,
        "distance_wrist_3_joint": 3.1324929639722923,
        "smoothness": 0.28790642994037785,
        "time": 0.066656968,
        "traj_len": 3.928917920533305,
        "weighted_distance": 5.340103369579829
    },
    "planner": "KPIECE",
    "start": {
        "state": {
            "elbow_joint": 1.6649325340416963,
            "shoulder_lift_joint": -0.6616387945129425,
            "shoulder_pan_joint": -0.9139837929255878,
            "wrist_1_joint": 2.1467571094334352,
            "wrist_2_joint": -2.234195976750228,
            "wrist_3_joint": 0.005470921511140723
        }
    },
    "waypoints": [
        {
            "positions": [
                -0.9139837929255878,
                -0.6616387945129425,
                1.6649325340416963,
                2.1467571094334352,
                -2.234195976750228,
                0.005470921511140723
            ]
        },
        {
            "positions": [
                -0.8286541954272129,
                -0.7594759351891638,
                1.7365705888465577,
                2.193560940434244,
                -2.1887753319887815,
                -0.03148911890392578
            ]
        },
        {
            "positions": [
                -0.7433245979288379,
                -0.857313075865385,
                1.808208643651419,
                2.2403647714350527,
                -2.143354687227335,
                -0.06844915931899229
            ]
        },
        {
            "positions": [
                -0.6579950004304629,
                -0.9551502165416061,
                1.8798466984562805,
                2.2871686024358615,
                -2.097934042465888,
                -0.1054091997340588
            ]
        },
        {
            "positions": [
                -0.5726654029320879,
                -1.0529873572178274,
                1.951484753261142,
                2.3339724334366703,
                -2.0525133977044416,
                -0.14236924014912528
            ]
        },
        {
            "positions": [
                -0.4873358054337128,
                -1.1508244978940487,
                2.0231228080660033,
                2.380776264437479,
                -2.007092752942995,
                -0.17932928056419178
            ]
        },
        {
            "positions": [
                -0.4020062079353378,
                -1.2486616385702698,
                2.094760862870865,
                2.4275800954382882,
                -1.9616721081815487,
                -0.2162893209792583
            ]
        },
        {
            "positions": [
                -0.3166766104369627,
                -1.3464987792464913,
                2.166398917675726,
                2.474383926439097,
                -1.9162514634201022,
                -0.25324936139432486
            ]
        },
        {
            "positions": [
                -0.23134701293858784,
                -1.4443359199227124,
                2.2380369724805877,
                2.5211877574399058,
                -1.8708308186586557,
                -0.2902094018093913
            ]
        },
        {
            "positions": [
                -0.14601741544021274,
                -1.5421730605989337,
                2.309675027285449,
                2.5679915884407145,
                -1.825410173897209,
                -0.3271694422244578
            ]
        },
        {
            "positions": [
                -0.06068781794183775,
                -1.640010201275155,
                2.3813130820903106,
                2.6147954194415233,
                -1.7799895291357624,
                -0.3641294826395243
            ]
        },
        {
            "positions": [
                0.024641779556537124,
                -1.737847341951376,
                2.452951136895172,
                2.661599250442332,
                -1.7345688843743159,
                -0.40108952305459084
            ]
        },
        {
            "positions": [
                0.10997137705491222,
                -1.8356844826275973,
                2.5245891917000334,
                2.708403081443141,
                -1.6891482396128694,
                -0.43804956346965734
            ]
        },
        {
            "positions": [
                0.06691374594407179,
                -1.8101327289266278,
                2.5063798799762558,
                2.5816902246011875,
                -1.611981513082735,
                -0.5340842948622107
            ]
        },
        {
            "positions": [
                0.023856114833231343,
                -1.7845809752256583,
                2.488170568252478,
                2.4549773677592346,
                -1.5348147865526007,
                -0.630119026254764
            ]
        },
        {
            "positions": [
                -0.019201516277609104,
                -1.7590292215246888,
                2.4699612565287,
                2.3282645109172817,
                -1.4576480600224664,
                -0.7261537576473174
            ]
        },
        {
            "positions": [
                -0.06225914738844954,
                -1.7334774678237193,
                2.4517519448049225,
                2.2015516540753284,
                -1.380481333492332,
                -0.8221884890398707
            ]
        },
        {
            "positions": [
                -0.10531677849929,
                -1.7079257141227497,
                2.433542633081145,
                2.074838797233375,
                -1.3033146069621977,
                -0.9182232204324241
            ]
        },
        {
            "positions": [
                -0.14837440961013043,
                -1.6823739604217802,
                2.415333321357367,
                1.9481259403914222,
                -1.2261478804320634,
                -1.0142579518249775
            ]
        },
        {
            "positions": [
                -0.19143204072097086,
                -1.6568222067208107,
                2.3971240096335893,
                1.8214130835494688,
                -1.148981153901929,
                -1.1102926832175308
            ]
        },
        {
            "positions": [
                -0.2344896718318113,
                -1.6312704530198412,
                2.3789146979098117,
                1.694700226707516,
                -1.0718144273717947,
                -1.206327414610084
            ]
        },
        {
            "positions": [
                -0.2775473029426518,
                -1.6057186993188717,
                2.360705386186034,
                1.5679873698655626,
                -0.9946477008416603,
                -1.3023621460026376
            ]
        },
        {
            "positions": [
                -0.3206049340534922,
                -1.5801669456179022,
                2.3424960744622565,
                1.4412745130236095,
                -0.917480974311526,
                -1.398396877395191
            ]
        },
        {
            "positions": [
                -0.3636625651643326,
                -1.5546151919169326,
                2.3242867627384785,
                1.3145616561816564,
                -0.8403142477813916,
                -1.494431608787744
            ]
        },
        {
            "positions": [
                -0.4067201962751731,
                -1.5290634382159634,
                2.306077451014701,
                1.1878487993397036,
                -0.7631475212512573,
                -1.5904663401802974
            ]
        },
        {
            "positions": [
                -0.4497778273860136,
                -1.5035116845149936,
                2.2878681392909233,
                1.0611359424977502,
                -0.6859807947211229,
                -1.6865010715728508
            ]
        },
        {
            "positions": [
                -0.49283545849685395,
                -1.4779599308140243,
                2.269658827567145,
                0.9344230856557971,
                -0.6088140681909886,
                -1.7825358029654041
            ]
        },
        {
            "positions": [
                -0.5358930896076943,
                -1.4524081771130546,
                2.2514495158433676,
                0.807710228813844,
                -0.5316473416608543,
                -1.8785705343579575
            ]
        },
        {
            "positions": [
                -0.5789507207185348,
                -1.4268564234120853,
                2.23324020411959,
                0.6809973719718911,
                -0.4544806151307199,
                -1.9746052657505107
            ]
        },
        {
            "positions": [
                -0.6220083518293752,
                -1.4013046697111158,
                2.2150308923958124,
                0.5542845151299378,
                -0.37731388860058557,
                -2.070639997143064
            ]
        },
        {
            "positions": [
                -0.6650659829402158,
                -1.3757529160101463,
                2.196821580672035,
                0.4275716582879845,
                -0.3001471620704512,
                -2.1666747285356176
            ]
        },
        {
            "positions": [
                -0.7081236140510562,
                -1.3502011623091765,
                2.1786122689482568,
                0.3008588014460316,
                -0.22298043554031688,
                -2.262709459928171
            ]
        },
        {
            "positions": [
                -0.7511812451618967,
                -1.3246494086082072,
                2.160402957224479,
                0.17414594460407828,
                -0.14581370901018254,
                -2.3587441913207243
            ]
        },
        {
            "positions": [
                -0.794238876272737,
                -1.2990976549072377,
                2.1421936455007016,
                0.0474330877621254,
                -0.06864698248004819,
                -2.454778922713278
            ]
        },
        {
            "positions": [
                -0.8372965073835774,
                -1.2735459012062682,
                2.1239843337769235,
                -0.07927976907982792,
                0.008519744050086153,
                -2.550813654105831
            ]
        },
        {
            "positions": [
                -0.8803541384944179,
                -1.2479941475052987,
                2.105775022053146,
                -0.2059926259217808,
                0.0856864705802205,
                -2.646848385498384
            ]
        },
        {
            "positions": [
                -0.9234117696052584,
                -1.2224423938043292,
                2.0875657103293683,
                -0.3327054827637337,
                0.16285319711035484,
                -2.7428831168909378
            ]
        },
        {
            "positions": [
                -0.9664694007160988,
                -1.1968906401033594,
                2.0693563986055907,
                -0.45941833960568745,
                0.24001992364048919,
                -2.8389178482834914
            ]
        },
        {
            "positions": [
                -1.0095270318269394,
                -1.1713388864023901,
                2.051147086881813,
                -0.5861311964476403,
                0.31718665017062353,
                -2.9349525796760445
            ]
        },
        {
            "positions": [
                -1.0525846629377797,
                -1.1457871327014206,
                2.032937775158035,
                -0.7128440532895937,
                0.3943533767007579,
                -3.030987311068598
            ]
        },
        {
            "positions": [
                -1.0956422940486201,
                -1.1202353790004511,
                2.0147284634342575,
                -0.8395569101315467,
                0.47152010323089244,
                -3.1270220424611512
            ]
        }
    ]
}