{
    "goal": {
        "global_pose": {
            "orientation": {
                "w": 0.005598929693374612,
                "x": 0.007748599140229565,
                "y": 0.7110244013736278,
                "z": -0.7031023480610252
            },
            "position": {
                "x": -0.8858502320852131,
                "y": -0.7141253447532654,
                "z": 0.3711530566215515
            }
        },
        "name": "move_to_auspresseinheit_C"
    },
    "id": "KPIECE_move_to_auspresseinheit_C_57",
    "joint_names": [
        "shoulder_pan_joint",
        "shoulder_lift_joint",
        "elbow_joint",
        "wrist_1_joint",
        "wrist_2_joint",
        "wrist_3_joint"
    ],
    "metrics": {
        "cart_traj_len": 0.4923644758566577,
        "distance_elbow_joint": 0.9978504876838428,
        "distance_shoulder_lift_joint": 0.32427707590716726,
        "distance_shoulder_pan_joint": 0.2560967501660838,
        "distance_wrist_1_joint": 0.6773518781554706,
        "distance_wrist_2_joint": 1.3050112292649478,
        "distance_wrist_3_joint": 0.06266978560111269,
        "smoothness": 3.2297397335745243e-16,
        "time": 0.01123229,
        "traj_len": 1.9034855415207714,
        "weighted_distance": 2.393942331260565
    },
    "planner": "KPIECE",
    "start": {
        "state": {
            "elbow_joint": 1.7527959577730765,
            "shoulder_lift_joint": -0.9740617694224828,
            "shoulder_pan_joint": -2.967991417825869,
            "wrist_1_joint": -0.7595177689779385,
            "wrist_2_joint": 1.7443932448376545,
            "wrist_3_joint": 3.1991315425061013
        }
    },
    "waypoints": [
        {
            "positions": [
                -2.967991417825869,
                -0.9740617694224828,
                1.7527959577730765,
                -0.7595177689779385,
                1.7443932448376545,
                3.1991315425061013
            ]
        },
        {
            "positions": [
                -2.9423817428092605,
                -0.941634061831766,
                1.6530109090046923,
                -0.6917825811623914,
                1.6138921219111597,
                3.19286456394599
            ]
        },
        {
            "positions": [
                -2.9167720677926523,
                -0.9092063542410493,
                1.5532258602363078,
                -0.6240473933468444,
                1.4833909989846648,
                3.186597585385879
            ]
        },
        {
            "positions": [
                -2.891162392776044,
                -0.8767786466503327,
                1.4534408114679236,
                -0.5563122055312973,
                1.3528898760581702,
                3.1803306068257675
            ]
        },
        {
            "positions": [
                -2.8655527177594355,
                -0.8443509390596159,
                1.3536557626995394,
                -0.4885770177157503,
                1.2223887531316753,
                3.1740636282656562
            ]
        },
        {
            "positions": [
                -2.839943042742827,
                -0.8119232314688991,
                1.2538707139311551,
                -0.42084182990020325,
                1.0918876302051805,
                3.167796649705545
            ]
        },
        {
            "positions": [
                -2.814333367726219,
                -0.7794955238781824,
                1.154085665162771,
                -0.3531066420846562,
                0.9613865072786858,
                3.1615296711454337
            ]
        },
        {
            "positions": [
                -2.7887236927096106,
                -0.7470678162874658,
                1.0543006163943867,
                -0.28537145426910915,
                0.8308853843521911,
                3.1552626925853224
            ]
        },
        {
            "positions": [
                -2.763114017693002,
                -0.714640108696749,
                0.9545155676260022,
                -0.21763626645356204,
                0.7003842614256961,
                3.148995714025211
            ]
        },
        {
            "positions": [
                -2.7375043426763934,
                -0.6822124011060322,
                0.854730518857618,
                -0.14990107863801494,
                0.5698831384992014,
                3.1427287354651
            ]
        },
        {
            "positions": [
                -2.7118946676597853,
                -0.6497846935153155,
                0.7549454700892337,
                -0.08216589082246795,
                0.4393820155727067,
                3.1364617569049886
            ]
        }
    ]
}