{
    "goal": {
        "global_pose": {
            "orientation": {
                "w": 0.7031023502349854,
                "x": -0.7110244035720825,
                "y": 0.007748599164187908,
                "z": 0.005598929710686207
            },
            "position": {
                "x": 0.11585023208521307,
                "y": 0.44412534475326537,
                "z": 0.3711530566215515
            }
        },
        "name": "move_to_auspresseinheit_A"
    },
    "id": "KPIECE_move_to_auspresseinheit_A_102",
    "joint_names": [
        "shoulder_pan_joint",
        "shoulder_lift_joint",
        "elbow_joint",
        "wrist_1_joint",
        "wrist_2_joint",
        "wrist_3_joint"
    ],
    "metrics": {
        "cart_traj_len": 1.242427028202294,
        "distance_elbow_joint": 1.0978642332950321,
        "distance_shoulder_lift_joint": 0.6708229737693789,
        "distance_shoulder_pan_joint": 1.17954144563459,
        "distance_wrist_1_joint": 1.6808406148609905,
        "distance_wrist_2_joint": 1.1808920550140707,
        "distance_wrist_3_joint": 1.4285992286468359,
        "smoothness": 0.7529762460386619,
        "time": 0.281942739,
        "traj_len": 2.690457312655396,
        "weighted_distance": 3.5996516051403686
    },
    "planner": "KPIECE",
    "start": {
        "state": {
            "elbow_joint": 2.4225746994637096,
            "shoulder_lift_joint": -1.373653595662188,
            "shoulder_pan_joint": -0.3378633848294565,
            "wrist_1_joint": -1.0288595594406726,
            "wrist_2_joint": 1.2330228066703421,
            "wrist_3_joint": 3.189163495502006
        }
    },
    "waypoints": [
        {
            "positions": [
                -0.3378633848294565,
                -1.373653595662188,
                2.4225746994637096,
                -1.0288595594406726,
                1.2330228066703421,
                3.189163495502006
            ]
        },
        {
            "positions": [
                -0.34757920727792035,
                -1.387937301459138,
                2.341953438469096,
                -0.9259130422981079,
                1.1873694738817084,
                3.0958709677056473
            ]
        },
        {
            "positions": [
                -0.3572950297263842,
                -1.402221007256088,
                2.2613321774744817,
                -0.8229665251555431,
                1.141716141093075,
                3.0025784399092887
            ]
        },
        {
            "positions": [
                -0.3670108521748481,
                -1.416504713053038,
                2.180710916479868,
                -0.7200200080129784,
                1.0960628083044412,
                2.9092859121129306
            ]
        },
        {
            "positions": [
                -0.376726674623312,
                -1.430788418849988,
                2.1000896554852537,
                -0.6170734908704136,
                1.0504094755158075,
                2.815993384316572
            ]
        },
        {
            "positions": [
                -0.38644249707177586,
                -1.445072124646938,
                2.01946839449064,
                -0.5141269737278489,
                1.0047561427271738,
                2.7227008565202135
            ]
        },
        {
            "positions": [
                -0.3961583195202397,
                -1.4593558304438878,
                1.938847133496026,
                -0.4111804565852841,
                0.9591028099385404,
                2.629408328723855
            ]
        },
        {
            "positions": [
                -0.4058741419687036,
                -1.4736395362408379,
                1.858225872501412,
                -0.3082339394427193,
                0.9134494771499067,
                2.5361158009274964
            ]
        },
        {
            "positions": [
                -0.28665209644383827,
                -1.545474607110149,
                1.9006640248690405,
                -0.2504156890571413,
                0.837491602539139,
                2.52362387649381
            ]
        },
        {
            "positions": [
                -0.16743005091897292,
                -1.6173096779794602,
                1.943102177236669,
                -0.1925974386715633,
                0.7615337279283713,
                2.5111319520601243
            ]
        },
        {
            "positions": [
                -0.04820800539410758,
                -1.6891447488487712,
                1.9855403296042975,
                -0.13477918828598526,
                0.6855758533176035,
                2.498640027626438
            ]
        },
        {
            "positions": [
                0.07101404013075774,
                -1.7609798197180824,
                2.027978481971926,
                -0.07696093790040726,
                0.6096179787068359,
                2.4861481031927517
            ]
        },
        {
            "positions": [
                0.19023608565562317,
                -1.8328148905873936,
                2.0704166343395545,
                -0.019142687514829226,
                0.5336601040960681,
                2.4736561787590654
            ]
        },
        {
            "positions": [
                0.3094581311804884,
                -1.9046499614567047,
                2.112854786707183,
                0.0386755628707488,
                0.4577022294853005,
                2.4611642543253796
            ]
        },
        {
            "positions": [
                0.42868017670535385,
                -1.976485032326016,
                2.1552929390748115,
                0.09649381325632686,
                0.3817443548745327,
                2.4486723298916933
            ]
        },
        {
            "positions": [
                0.4669900814858806,
                -1.9710407632074347,
                2.204282237579731,
                0.01797091676668837,
                0.4199775623671163,
                2.562189333803758
            ]
        },
        {
            "positions": [
                0.5052999862664074,
                -1.9655964940888535,
                2.2532715360846503,
                -0.06055197972295013,
                0.45821076985969994,
                2.6757063377158223
            ]
        },
        {
            "positions": [
                0.5553891263314654,
                -1.9513207443717564,
                2.2878889717720243,
                -0.16016234201912877,
                0.5214975669179734,
                2.790974851518921
            ]
        },
        {
            "positions": [
                0.6054782663965235,
                -1.9370449946546593,
                2.3225064074593984,
                -0.2597727043153074,
                0.5847843639762469,
                2.9062433653220197
            ]
        },
        {
            "positions": [
                0.6555674064615814,
                -1.922769244937562,
                2.3571238431467725,
                -0.359383066611486,
                0.6480711610345204,
                3.021511879125118
            ]
        },
        {
            "positions": [
                0.7056565465266394,
                -1.9084934952204649,
                2.3917412788341466,
                -0.45899342890766465,
                0.7113579580927939,
                3.1367803929282165
            ]
        }
    ]
}