{
    "goal": {
        "global_pose": {
            "orientation": {
                "w": 0.5084816262002911,
                "x": -0.4908360881923452,
                "y": 0.5182115481033761,
                "z": -0.48164630358495003
            },
            "position": {
                "x": 0.5540239810943604,
                "y": -0.46912469901144505,
                "z": 0.16403168439865112
            }
        },
        "name": "move_to_storage_B"
    },
    "id": "KPIECE_move_to_storage_B_150",
    "joint_names": [
        "shoulder_pan_joint",
        "shoulder_lift_joint",
        "elbow_joint",
        "wrist_1_joint",
        "wrist_2_joint",
        "wrist_3_joint"
    ],
    "metrics": {
        "cart_traj_len": 5.32779274967287,
        "distance_elbow_joint": 4.645046933306965,
        "distance_shoulder_lift_joint": 1.393403273342533,
        "distance_shoulder_pan_joint": 3.7758529552299676,
        "distance_wrist_1_joint": 3.4163792699907454,
        "distance_wrist_2_joint": 2.7003514021451065,
        "distance_wrist_3_joint": 3.1403239364769586,
        "smoothness": 0.31515184779958033,
        "time": 0.052780538,
        "traj_len": 4.367076570257531,
        "weighted_distance": 5.609700198369077
    },
    "planner": "KPIECE",
    "start": {
        "state": {
            "elbow_joint": 1.6649325340416963,
            "shoulder_lift_joint": -0.6616387945129425,
            "shoulder_pan_joint": -0.9139837929255878,
            "wrist_1_joint": 2.1467571094334352,
            "wrist_2_joint": -2.234195976750228,
            "wrist_3_joint": 0.005470921511140723
        }
    },
    "waypoints": [
        {
            "positions": [
                -0.9139837929255878,
                -0.6616387945129425,
                1.6649325340416963,
                2.1467571094334352,
                -2.234195976750228,
                0.005470921511140723
            ]
        },
        {
            "positions": [
                -0.8241238763483502,
                -0.7078779044924455,
                1.5574557121363684,
                2.1577071256093014,
                -2.1493542864091904,
                0.04314020676411174
            ]
        },
        {
            "positions": [
                -0.7342639597711125,
                -0.7541170144719486,
                1.4499788902310404,
                2.1686571417851677,
                -2.0645125960681527,
                0.08080949201708275
            ]
        },
        {
            "positions": [
                -0.6444040431938749,
                -0.8003561244514515,
                1.3425020683257127,
                2.179607157961034,
                -1.979670905727115,
                0.11847877727005375
            ]
        },
        {
            "positions": [
                -0.5545441266166371,
                -0.8465952344309546,
                1.2350252464203848,
                2.1905571741369,
                -1.8948292153860773,
                0.1561480625230248
            ]
        },
        {
            "positions": [
                -0.46468421003939947,
                -0.8928343444104576,
                1.1275484245150569,
                2.2015071903127663,
                -1.8099875250450395,
                0.1938173477759958
            ]
        },
        {
            "positions": [
                -0.37482429346216184,
                -0.9390734543899606,
                1.020071602609729,
                2.2124572064886325,
                -1.7251458347040018,
                0.2314866330289668
            ]
        },
        {
            "positions": [
                -0.28496437688492415,
                -0.9853125643694636,
                0.9125947807044011,
                2.2234072226644988,
                -1.6403041443629642,
                0.2691559182819378
            ]
        },
        {
            "positions": [
                -0.19510446030768636,
                -1.0315516743489668,
                0.8051179587990732,
                2.234357238840365,
                -1.5554624540219266,
                0.30682520353490883
            ]
        },
        {
            "positions": [
                -0.10524454373044878,
                -1.0777907843284698,
                0.6976411368937453,
                2.245307255016231,
                -1.4706207636808888,
                0.3444944887878798
            ]
        },
        {
            "positions": [
                -0.015384627153211095,
                -1.1240298943079727,
                0.5901643149884175,
                2.256257271192097,
                -1.3857790733398512,
                0.38216377404085083
            ]
        },
        {
            "positions": [
                0.0744752894240267,
                -1.170269004287476,
                0.48268749308308956,
                2.267207287367963,
                -1.3009373829988133,
                0.41983305929382186
            ]
        },
        {
            "positions": [
                0.16433520600126417,
                -1.2165081142669787,
                0.37521067117776186,
                2.2781573035438294,
                -1.216095692657776,
                0.45750234454679284
            ]
        },
        {
            "positions": [
                0.25419512257850196,
                -1.262747224246482,
                0.2677338492724337,
                2.2891073197196956,
                -1.1312540023167381,
                0.49517162979976387
            ]
        },
        {
            "positions": [
                0.34405503915573954,
                -1.3089863342259846,
                0.160257027367106,
                2.300057335895562,
                -1.0464123119757005,
                0.5328409150527349
            ]
        },
        {
            "positions": [
                0.43391495573297734,
                -1.3552254442054879,
                0.052780205461778085,
                2.311007352071428,
                -0.9615706216346629,
                0.5705102003057059
            ]
        },
        {
            "positions": [
                0.5237748723102151,
                -1.401464554184991,
                -0.05469661644354984,
                2.3219573682472943,
                -0.8767289312936251,
                0.608179485558677
            ]
        },
        {
            "positions": [
                0.6136347888874525,
                -1.4477036641644938,
                -0.16217343834887754,
                2.3329073844231605,
                -0.7918872409525874,
                0.6458487708116479
            ]
        },
        {
            "positions": [
                0.7034947054646903,
                -1.493942774143997,
                -0.2696502602542057,
                2.3438574005990267,
                -0.7070455506115496,
                0.6835180560646189
            ]
        },
        {
            "positions": [
                0.7933546220419279,
                -1.5401818841234998,
                -0.3771270821595334,
                2.354807416774893,
                -0.6222038602705122,
                0.7211873413175899
            ]
        },
        {
            "positions": [
                0.8832145386191657,
                -1.586420994103003,
                -0.4846039040648611,
                2.365757432950759,
                -0.5373621699294745,
                0.758856626570561
            ]
        },
        {
            "positions": [
                0.8172593844963252,
                -1.5708002916445871,
                -0.4014202208915142,
                2.259178134734978,
                -0.5039115834186626,
                0.8384212342844789
            ]
        },
        {
            "positions": [
                0.7513042303734848,
                -1.5551795891861715,
                -0.3182365377181673,
                2.1525988365191977,
                -0.47046099690785076,
                0.9179858419983968
            ]
        },
        {
            "positions": [
                0.6853490762506443,
                -1.5395588867277556,
                -0.23505285454482036,
                2.0460195383034168,
                -0.4370104103970389,
                0.9975504497123149
            ]
        },
        {
            "positions": [
                0.619393922127804,
                -1.52393818426934,
                -0.1518691713714735,
                1.9394402400876363,
                -0.403559823886227,
                1.0771150574262327
            ]
        },
        {
            "positions": [
                0.5534387680049635,
                -1.5083174818109242,
                -0.06868548819812659,
                1.8328609418718556,
                -0.3701092373754152,
                1.1566796651401507
            ]
        },
        {
            "positions": [
                0.487483613882123,
                -1.4926967793525086,
                0.014498194975220369,
                1.7262816436560748,
                -0.3366586508646033,
                1.2362442728540688
            ]
        },
        {
            "positions": [
                0.4215284597592826,
                -1.4770760768940927,
                0.09768187814856732,
                1.619702345440294,
                -0.30320806435379144,
                1.3158088805679866
            ]
        },
        {
            "positions": [
                0.3555733056364422,
                -1.461455374435677,
                0.18086556132191411,
                1.5131230472245134,
                -0.26975747784297954,
                1.3953734882819047
            ]
        },
        {
            "positions": [
                0.2896181515136018,
                -1.4458346719772612,
                0.264049244495261,
                1.4065437490087325,
                -0.2363068913321677,
                1.4749380959958227
            ]
        },
        {
            "positions": [
                0.22366299739076134,
                -1.4302139695188454,
                0.3472329276686079,
                1.299964450792952,
                -0.20285630482135586,
                1.5545027037097405
            ]
        },
        {
            "positions": [
                0.15770784326792098,
                -1.4145932670604298,
                0.4304166108419548,
                1.1933851525771713,
                -0.16940571831054396,
                1.6340673114236584
            ]
        },
        {
            "positions": [
                0.09175268914508039,
                -1.398972564602014,
                0.5136002940153018,
                1.0868058543613903,
                -0.13595513179973207,
                1.7136319191375766
            ]
        },
        {
            "positions": [
                0.025797535022240026,
                -1.3833518621435983,
                0.5967839771886487,
                0.9802265561456096,
                -0.10250454528892022,
                1.7931965268514944
            ]
        },
        {
            "positions": [
                -0.04015761910060045,
                -1.3677311596851824,
                0.6799676603619957,
                0.8736472579298289,
                -0.06905395877810833,
                1.8727611345654123
            ]
        },
        {
            "positions": [
                -0.10611277322344081,
                -1.3521104572267668,
                0.7631513435353425,
                0.7670679597140482,
                -0.035603372267296485,
                1.9523257422793303
            ]
        },
        {
            "positions": [
                -0.1720679273462813,
                -1.336489754768351,
                0.8463350267086893,
                0.6604886614982675,
                -0.0021527857564845876,
                2.0318903499932484
            ]
        },
        {
            "positions": [
                -0.23802308146912154,
                -1.3208690523099351,
                0.9295187098820363,
                0.5539093632824867,
                0.0312978007543272,
                2.111454957707166
            ]
        },
        {
            "positions": [
                -0.303978235591962,
                -1.3052483498515195,
                1.0127023930553831,
                0.44733006506670603,
                0.0647483872651391,
                2.191019565421084
            ]
        },
        {
            "positions": [
                -0.3699333897148025,
                -1.2896276473931036,
                1.0958860762287301,
                0.3407507668509253,
                0.09819897377595099,
                2.270584173135002
            ]
        },
        {
            "positions": [
                -0.43588854383764297,
                -1.274006944934688,
                1.179069759402077,
                0.23417146863514482,
                0.13164956028676278,
                2.35014878084892
            ]
        },
        {
            "positions": [
                -0.5018436979604832,
                -1.2583862424762722,
                1.262253442575424,
                0.12759217041936388,
                0.16510014679757468,
                2.429713388562838
            ]
        },
        {
            "positions": [
                -0.5677988520833237,
                -1.2427655400178566,
                1.3454371257487707,
                0.021012872203583388,
                0.19855073330838657,
                2.509277996276756
            ]
        },
        {
            "positions": [
                -0.6337540062061644,
                -1.2271448375594407,
                1.428620808922118,
                -0.085566426012198,
                0.23200131981919847,
                2.588842603990674
            ]
        },
        {
            "positions": [
                -0.6997091603290049,
                -1.2115241351010249,
                1.5118044920954647,
                -0.1921457242279785,
                0.26545190633001037,
                2.668407211704592
            ]
        },
        {
            "positions": [
                -0.7656643144518451,
                -1.1959034326426092,
                1.5949881752688118,
                -0.2987250224437594,
                0.29890249284082226,
                2.7479718194185097
            ]
        },
        {
            "positions": [
                -0.8316194685746856,
                -1.1802827301841934,
                1.6781718584421585,
                -0.4053043206595399,
                0.33235307935163405,
                2.827536427132428
            ]
        },
        {
            "positions": [
                -0.8975746226975261,
                -1.1646620277257778,
                1.7613555416155053,
                -0.5118836188753209,
                0.36580366586244595,
                2.9071010348463457
            ]
        },
        {
            "positions": [
                -0.9635297768203666,
                -1.149041325267362,
                1.8445392247888526,
                -0.6184629170911013,
                0.39925425237325785,
                2.9866656425602636
            ]
        },
        {
            "positions": [
                -1.0294849309432068,
                -1.1334206228089463,
                1.9277229079621994,
                -0.7250422153068823,
                0.43270483888406963,
                3.066230250274182
            ]
        },
        {
            "positions": [
                -1.0954400850660473,
                -1.1177999203505304,
                2.010906591135546,
                -0.8316215135226626,
                0.46615542539488164,
                3.1457948579880997
            ]
        }
    ]
}