{
    "goal": {
        "global_pose": {
            "orientation": {
                "w": 0.7031023480610252,
                "x": -0.7110244013736278,
                "y": 0.0077485991402295624,
                "z": 0.005598929693374583
            },
            "position": {
                "x": -0.8841497679147869,
                "y": 0.44412534475326537,
                "z": 0.3711530566215515
            }
        },
        "name": "move_to_auspresseinheit_D"
    },
    "id": "KPIECE_move_to_auspresseinheit_D_145",
    "joint_names": [
        "shoulder_pan_joint",
        "shoulder_lift_joint",
        "elbow_joint",
        "wrist_1_joint",
        "wrist_2_joint",
        "wrist_3_joint"
    ],
    "metrics": {
        "cart_traj_len": 0.3424209263395136,
        "distance_elbow_joint": 0.6354057456053812,
        "distance_shoulder_lift_joint": 0.11994818377443606,
        "distance_shoulder_pan_joint": 0.13323657651032464,
        "distance_wrist_1_joint": 0.5227816695007546,
        "distance_wrist_2_joint": 1.4458089127931044,
        "distance_wrist_3_joint": 0.00048048156842517287,
        "smoothness": 1.3816108766519434e-15,
        "time": 0.183274555,
        "traj_len": 1.6904619397526897,
        "weighted_distance": 2.1970919678482135
    },
    "planner": "KPIECE",
    "start": {
        "state": {
            "elbow_joint": -1.8275484843655228,
            "shoulder_lift_joint": -2.1267897864000416,
            "shoulder_pan_joint": -0.035127520176001514,
            "wrist_1_joint": -2.3477863256791385,
            "wrist_2_joint": -1.605890476484521,
            "wrist_3_joint": -3.0880375317375353
        }
    },
    "waypoints": [
        {
            "positions": [
                -0.035127520176001514,
                -2.1267897864000416,
                -1.8275484843655228,
                -2.3477863256791385,
                -1.605890476484521,
                -3.0880375317375353
            ]
        },
        {
            "positions": [
                -0.05178209223979209,
                -2.141783309371846,
                -1.7481227661648502,
                -2.413134034366733,
                -1.425164362385383,
                -3.0880975919335882
            ]
        },
        {
            "positions": [
                -0.06843666430358267,
                -2.1567768323436507,
                -1.6686970479641774,
                -2.478481743054327,
                -1.2444382482862448,
                -3.0881576521296417
            ]
        },
        {
            "positions": [
                -0.08509123636737326,
                -2.1717703553154553,
                -1.5892713297635048,
                -2.5438294517419213,
                -1.063712134187107,
                -3.0882177123256946
            ]
        },
        {
            "positions": [
                -0.10174580843116383,
                -2.18676387828726,
                -1.5098456115628323,
                -2.6091771604295158,
                -0.8829860200879688,
                -3.0882777725217476
            ]
        },
        {
            "positions": [
                -0.11840038049495441,
                -2.201757401259064,
                -1.4304198933621595,
                -2.67452486911711,
                -0.7022599059888307,
                -3.088337832717801
            ]
        },
        {
            "positions": [
                -0.135054952558745,
                -2.2167509242308685,
                -1.350994175161487,
                -2.7398725778047046,
                -0.5215337918896927,
                -3.088397892913854
            ]
        },
        {
            "positions": [
                -0.15170952462253556,
                -2.231744447202673,
                -1.2715684569608143,
                -2.8052202864922986,
                -0.34080767779055465,
                -3.0884579531099075
            ]
        },
        {
            "positions": [
                -0.16836409668632615,
                -2.2467379701744776,
                -1.1921427387601415,
                -2.870567995179893,
                -0.16008156369141657,
                -3.0885180133059604
            ]
        }
    ]
}