{
    "goal": {
        "global_pose": {
            "orientation": {
                "w": 0.7031023480610252,
                "x": -0.7110244013736278,
                "y": 0.0077485991402295624,
                "z": 0.005598929693374583
            },
            "position": {
                "x": -0.8841497679147869,
                "y": 0.44412534475326537,
                "z": 0.3711530566215515
            }
        },
        "name": "move_to_auspresseinheit_D"
    },
    "id": "KPIECE_move_to_auspresseinheit_D_59",
    "joint_names": [
        "shoulder_pan_joint",
        "shoulder_lift_joint",
        "elbow_joint",
        "wrist_1_joint",
        "wrist_2_joint",
        "wrist_3_joint"
    ],
    "metrics": {
        "cart_traj_len": 0.34259940357928653,
        "distance_elbow_joint": 0.6305494786225136,
        "distance_shoulder_lift_joint": 0.11728579426380037,
        "distance_shoulder_pan_joint": 0.13400585862786177,
        "distance_wrist_1_joint": 0.508518023686614,
        "distance_wrist_2_joint": 1.4351601646433005,
        "distance_wrist_3_joint": 0.01583594469205618,
        "smoothness": 1.9737298371844314e-16,
        "time": 0.093454326,
        "traj_len": 1.6856320074488818,
        "weighted_distance": 2.194699374003231
    },
    "planner": "KPIECE",
    "start": {
        "state": {
            "elbow_joint": -1.8275484843655228,
            "shoulder_lift_joint": -2.1267897864000416,
            "shoulder_pan_joint": -0.035127520176001514,
            "wrist_1_joint": -2.3477863256791385,
            "wrist_2_joint": -1.605890476484521,
            "wrist_3_joint": -3.0880375317375353
        }
    },
    "waypoints": [
        {
            "positions": [
                -0.035127520176001514,
                -2.1267897864000416,
                -1.8275484843655228,
                -2.3477863256791385,
                -1.605890476484521,
                -3.0880375317375353
            ]
        },
        {
            "positions": [
                -0.05187825250448423,
                -2.1414505106830166,
                -1.7487297995377085,
                -2.4113510786399655,
                -1.4264954559041083,
                -3.0900170248240424
            ]
        },
        {
            "positions": [
                -0.06862898483296695,
                -2.1561112349659917,
                -1.6699111147098944,
                -2.474915831600792,
                -1.2471004353236959,
                -3.091996517910549
            ]
        },
        {
            "positions": [
                -0.08537971716144968,
                -2.1707719592489667,
                -1.59109242988208,
                -2.5384805845616185,
                -1.0677054147432834,
                -3.093976010997056
            ]
        },
        {
            "positions": [
                -0.1021304494899324,
                -2.1854326835319418,
                -1.5122737450542658,
                -2.6020453375224455,
                -0.8883103941628707,
                -3.0959555040835633
            ]
        },
        {
            "positions": [
                -0.11888118181841512,
                -2.200093407814917,
                -1.4334550602264517,
                -2.6656100904832725,
                -0.7089153735824582,
                -3.0979349971700705
            ]
        },
        {
            "positions": [
                -0.13563191414689785,
                -2.214754132097892,
                -1.3546363753986375,
                -2.729174843444099,
                -0.5295203530020456,
                -3.0999144902565776
            ]
        },
        {
            "positions": [
                -0.15238264647538058,
                -2.229414856380867,
                -1.2758176905708232,
                -2.7927395964049255,
                -0.3501253324216329,
                -3.1018939833430843
            ]
        },
        {
            "positions": [
                -0.16913337880386328,
                -2.244075580663842,
                -1.196999005743009,
                -2.8563043493657525,
                -0.17073031184122037,
                -3.1038734764295914
            ]
        }
    ]
}