{
    "goal": {
        "global_pose": {
            "orientation": {
                "w": 0.7047431468963623,
                "x": -0.7094548344612122,
                "y": 0.0024358443915843964,
                "z": -0.0022348060738295317
            },
            "position": {
                "x": 0.6094750761985779,
                "y": 0.3671506643295288,
                "z": 0.19426114857196808
            }
        },
        "name": "move_to_magneteinheit_A"
    },
    "id": "KPIECE_move_to_magneteinheit_A_146",
    "joint_names": [
        "shoulder_pan_joint",
        "shoulder_lift_joint",
        "elbow_joint",
        "wrist_1_joint",
        "wrist_2_joint",
        "wrist_3_joint"
    ],
    "metrics": {
        "cart_traj_len": 1.5912166355405983,
        "distance_elbow_joint": 3.5569009371504112,
        "distance_shoulder_lift_joint": 1.153389497906086,
        "distance_shoulder_pan_joint": 1.2413968037779688,
        "distance_wrist_1_joint": 3.9764158652775263,
        "distance_wrist_2_joint": 1.6939952578939057,
        "distance_wrist_3_joint": 1.1239996728619843,
        "smoothness": 2.0898315923129273e-16,
        "time": 0.049647668000000006,
        "traj_len": 3.5701677880553286,
        "weighted_distance": 4.545823193192107
    },
    "planner": "KPIECE",
    "start": {
        "state": {
            "elbow_joint": -1.5739458827952972,
            "shoulder_lift_joint": 0.006533473998580023,
            "shoulder_pan_joint": -1.1188671628667068,
            "wrist_1_joint": 3.138208179676308,
            "wrist_2_joint": -1.5706037135050406,
            "wrist_3_joint": -2.0226958329764257
        }
    },
    "waypoints": [
        {
            "positions": [
                -1.1188671628667068,
                0.006533473998580023,
                -1.5739458827952972,
                3.138208179676308,
                -1.5706037135050406,
                -2.0226958329764257
            ]
        },
        {
            "positions": [
                -1.081249077903738,
                -0.028417722907665005,
                -1.4661610059119514,
                3.017710729213353,
                -1.519270523871892,
                -2.0567564291237588
            ]
        },
        {
            "positions": [
                -1.0436309929407694,
                -0.06336891981391003,
                -1.3583761290286056,
                2.8972132787503977,
                -1.4679373342387432,
                -2.0908170252710914
            ]
        },
        {
            "positions": [
                -1.0060129079778006,
                -0.09832011672015506,
                -1.2505912521452598,
                2.776715828287442,
                -1.4166041446055946,
                -2.1248776214184244
            ]
        },
        {
            "positions": [
                -0.9683948230148318,
                -0.13327131362640007,
                -1.142806375261914,
                2.6562183778244868,
                -1.365270954972446,
                -2.158938217565757
            ]
        },
        {
            "positions": [
                -0.9307767380518631,
                -0.16822251053264511,
                -1.0350214983785682,
                2.5357209273615315,
                -1.3139377653392974,
                -2.19299881371309
            ]
        },
        {
            "positions": [
                -0.8931586530888943,
                -0.20317370743889013,
                -0.9272366214952225,
                2.415223476898576,
                -1.2626045757061486,
                -2.227059409860423
            ]
        },
        {
            "positions": [
                -0.8555405681259256,
                -0.23812490434513517,
                -0.8194517446118766,
                2.2947260264356206,
                -1.211271386073,
                -2.2611200060077556
            ]
        },
        {
            "positions": [
                -0.8179224831629568,
                -0.2730761012513802,
                -0.7116668677285308,
                2.1742285759726654,
                -1.1599381964398514,
                -2.2951806021550887
            ]
        },
        {
            "positions": [
                -0.7803043981999881,
                -0.3080272981576252,
                -0.6038819908451851,
                2.05373112550971,
                -1.1086050068067026,
                -2.3292411983024213
            ]
        },
        {
            "positions": [
                -0.7426863132370194,
                -0.3429784950638703,
                -0.4960971139618393,
                1.9332336750467547,
                -1.057271817173554,
                -2.3633017944497543
            ]
        },
        {
            "positions": [
                -0.7050682282740506,
                -0.3779296919701153,
                -0.3883122370784935,
                1.8127362245837995,
                -1.0059386275404054,
                -2.3973623905970873
            ]
        },
        {
            "positions": [
                -0.6674501433110818,
                -0.4128808888763603,
                -0.2805273601951477,
                1.692238774120844,
                -0.9546054379072567,
                -2.43142298674442
            ]
        },
        {
            "positions": [
                -0.6298320583481132,
                -0.4478320857826053,
                -0.17274248331180186,
                1.5717413236578888,
                -0.903272248274108,
                -2.465483582891753
            ]
        },
        {
            "positions": [
                -0.5922139733851444,
                -0.4827832826888504,
                -0.06495760642845605,
                1.4512438731949333,
                -0.8519390586409593,
                -2.499544179039086
            ]
        },
        {
            "positions": [
                -0.5545958884221756,
                -0.5177344795950953,
                0.04282727045488954,
                1.330746422731978,
                -0.8006058690078107,
                -2.5336047751864186
            ]
        },
        {
            "positions": [
                -0.5169778034592069,
                -0.5526856765013404,
                0.15061214733823558,
                1.2102489722690226,
                -0.749272679374662,
                -2.5676653713337516
            ]
        },
        {
            "positions": [
                -0.47935971849623804,
                -0.5876368734075854,
                0.2583970242215812,
                1.0897515218060674,
                -0.6979394897415134,
                -2.601725967481084
            ]
        },
        {
            "positions": [
                -0.44174163353326934,
                -0.6225880703138303,
                0.366181901104927,
                0.9692540713431121,
                -0.6466063001083648,
                -2.6357865636284172
            ]
        },
        {
            "positions": [
                -0.40412354857030053,
                -0.6575392672200755,
                0.473966777988273,
                0.8487566208801565,
                -0.595273110475216,
                -2.6698471597757503
            ]
        },
        {
            "positions": [
                -0.3665054636073318,
                -0.6924904641263205,
                0.5817516548716186,
                0.7282591704172012,
                -0.5439399208420674,
                -2.703907755923083
            ]
        },
        {
            "positions": [
                -0.3288873786443631,
                -0.7274416610325655,
                0.6895365317549642,
                0.607761719954246,
                -0.49260673120891885,
                -2.737968352070416
            ]
        },
        {
            "positions": [
                -0.2912692936813943,
                -0.7623928579388105,
                0.7973214086383102,
                0.48726426949129076,
                -0.44127354157577026,
                -2.7720289482177485
            ]
        },
        {
            "positions": [
                -0.2536512087184255,
                -0.7973440548450557,
                0.9051062855216563,
                0.3667668190283351,
                -0.38994035194262144,
                -2.8060895443650815
            ]
        },
        {
            "positions": [
                -0.2160331237554568,
                -0.8322952517513006,
                1.0128911624050019,
                0.24626936856537984,
                -0.33860716230947285,
                -2.8401501405124145
            ]
        },
        {
            "positions": [
                -0.1784150387924881,
                -0.8672464486575456,
                1.1206760392883475,
                0.1257719181024246,
                -0.28727397267632404,
                -2.874210736659747
            ]
        },
        {
            "positions": [
                -0.1407969538295194,
                -0.9021976455637906,
                1.2284609161716935,
                0.005274467639469371,
                -0.23594078304317545,
                -2.90827133280708
            ]
        },
        {
            "positions": [
                -0.10317886886655048,
                -0.9371488424700357,
                1.3362457930550395,
                -0.11522298282348631,
                -0.18460759341002664,
                -2.942331928954413
            ]
        },
        {
            "positions": [
                -0.06556078390358189,
                -0.9721000393762808,
                1.4440306699383851,
                -0.23572043328644154,
                -0.13327440377687805,
                -2.976392525101746
            ]
        },
        {
            "positions": [
                -0.027942698940613075,
                -1.0070512362825257,
                1.5518155468217307,
                -0.3562178837493968,
                -0.08194121414372946,
                -3.0104531212490784
            ]
        },
        {
            "positions": [
                0.009675386022355736,
                -1.0420024331887707,
                1.6596004237050763,
                -0.476715334212352,
                -0.030608024510580867,
                -3.0445137173964114
            ]
        },
        {
            "positions": [
                0.04729347098532455,
                -1.0769536300950158,
                1.7673853005884228,
                -0.5972127846753077,
                0.020725165122567946,
                -3.0785743135437444
            ]
        },
        {
            "positions": [
                0.08491155594829314,
                -1.1119048270012608,
                1.8751701774717684,
                -0.7177102351382629,
                0.07205835475571654,
                -3.112634909691077
            ]
        },
        {
            "positions": [
                0.12252964091126205,
                -1.1468560239075059,
                1.982955054355114,
                -0.8382076856012184,
                0.12339154438886511,
                -3.14669550583841
            ]
        }
    ]
}