{
    "goal": {
        "global_pose": {
            "orientation": {
                "w": -0.00223480608172531,
                "x": 0.0024358444001904467,
                "y": 0.7094548369677653,
                "z": -0.704743149386269
            },
            "position": {
                "x": 0.6205249238014221,
                "y": -0.6371506643295288,
                "z": 0.19426114857196808
            }
        },
        "name": "move_to_magneteinheit_B"
    },
    "id": "KPIECE_move_to_magneteinheit_B_72",
    "joint_names": [
        "shoulder_pan_joint",
        "shoulder_lift_joint",
        "elbow_joint",
        "wrist_1_joint",
        "wrist_2_joint",
        "wrist_3_joint"
    ],
    "metrics": {
        "cart_traj_len": 1.4543024695989142,
        "distance_elbow_joint": 0.7298004643468841,
        "distance_shoulder_lift_joint": 1.2481963632964757,
        "distance_shoulder_pan_joint": 1.6217329475275006,
        "distance_wrist_1_joint": 2.6118221972053735,
        "distance_wrist_2_joint": 2.9404764633528573,
        "distance_wrist_3_joint": 3.140924603185048,
        "smoothness": 2.153159807199991e-16,
        "time": 0.378368708,
        "traj_len": 3.506130778923419,
        "weighted_distance": 4.911934538024958
    },
    "planner": "KPIECE",
    "start": {
        "state": {
            "elbow_joint": 2.393587130804639,
            "shoulder_lift_joint": -1.9085141043513325,
            "shoulder_pan_joint": 0.7066247066698809,
            "wrist_1_joint": -0.4678290934590222,
            "wrist_2_joint": 0.7096259084215963,
            "wrist_3_joint": 3.147370379541726
        }
    },
    "waypoints": [
        {
            "positions": [
                0.7066247066698809,
                -1.9085141043513325,
                2.393587130804639,
                -0.4678290934590222,
                0.7096259084215963,
                3.147370379541726
            ]
        },
        {
            "positions": [
                0.6559455520596464,
                -1.8695079679983175,
                2.370780866293799,
                -0.38620964979635425,
                0.6177360189418195,
                3.0492164856921935
            ]
        },
        {
            "positions": [
                0.6052663974494121,
                -1.8305018316453028,
                2.3479746017829584,
                -0.30459020613368637,
                0.5258461294620428,
                2.9510625918426605
            ]
        },
        {
            "positions": [
                0.5545872428391777,
                -1.791495695292288,
                2.3251683372721184,
                -0.22297076247101844,
                0.433956239982266,
                2.852908697993128
            ]
        },
        {
            "positions": [
                0.5039080882289433,
                -1.752489558939273,
                2.3023620727612784,
                -0.1413513188083505,
                0.34206635050248924,
                2.754754804143595
            ]
        },
        {
            "positions": [
                0.45322893361870886,
                -1.713483422586258,
                2.2795558082504384,
                -0.05973187514568257,
                0.25017646102271246,
                2.6566009102940624
            ]
        },
        {
            "positions": [
                0.4025497790084745,
                -1.6744772862332433,
                2.256749543739598,
                0.021887568516985312,
                0.15828657154293568,
                2.5584470164445294
            ]
        },
        {
            "positions": [
                0.35187062439824013,
                -1.6354711498802286,
                2.233943279228758,
                0.10350701217965325,
                0.06639668206315896,
                2.460293122594997
            ]
        },
        {
            "positions": [
                0.3011914697880057,
                -1.5964650135272136,
                2.211137014717918,
                0.18512645584232118,
                -0.02549320741661787,
                2.362139228745464
            ]
        },
        {
            "positions": [
                0.2505123151777713,
                -1.5574588771741986,
                2.1883307502070775,
                0.2667458995049891,
                -0.1173830968963947,
                2.2639853348959313
            ]
        },
        {
            "positions": [
                0.19983316056753686,
                -1.5184527408211839,
                2.1655244856962375,
                0.34836534316765705,
                -0.20927298637617142,
                2.1658314410463984
            ]
        },
        {
            "positions": [
                0.14915400595730255,
                -1.4794466044681691,
                2.1427182211853975,
                0.429984786830325,
                -0.30116287585594814,
                2.067677547196866
            ]
        },
        {
            "positions": [
                0.09847485134706813,
                -1.4404404681151541,
                2.1199119566745575,
                0.5116042304929929,
                -0.393052765335725,
                1.969523653347333
            ]
        },
        {
            "positions": [
                0.047795696736833704,
                -1.4014343317621392,
                2.097105692163717,
                0.5932236741556609,
                -0.4849426548155018,
                1.8713697594978003
            ]
        },
        {
            "positions": [
                -0.0028834578734006078,
                -1.3624281954091244,
                2.074299427652877,
                0.6748431178183287,
                -0.5768325442952784,
                1.7732158656482675
            ]
        },
        {
            "positions": [
                -0.05356261248363503,
                -1.3234220590561097,
                2.051493163142037,
                0.7564625614809968,
                -0.6687224337750552,
                1.6750619717987347
            ]
        },
        {
            "positions": [
                -0.10424176709386945,
                -1.2844159227030947,
                2.0286868986311966,
                0.8380820051436646,
                -0.7606123232548321,
                1.576908077949202
            ]
        },
        {
            "positions": [
                -0.15492092170410388,
                -1.2454097863500797,
                2.0058806341203566,
                0.9197014488063324,
                -0.8525022127346089,
                1.4787541840996692
            ]
        },
        {
            "positions": [
                -0.2056000763143383,
                -1.206403649997065,
                1.9830743696095166,
                1.0013208924690005,
                -0.9443921022143857,
                1.3806002902501364
            ]
        },
        {
            "positions": [
                -0.2562792309245726,
                -1.1673975136440502,
                1.9602681050986763,
                1.0829403361316683,
                -1.0362819916941624,
                1.2824463964006036
            ]
        },
        {
            "positions": [
                -0.30695838553480714,
                -1.1283913772910352,
                1.9374618405878363,
                1.1645597797943363,
                -1.1281718811739392,
                1.1842925025510709
            ]
        },
        {
            "positions": [
                -0.35763754014504145,
                -1.0893852409380202,
                1.914655576076996,
                1.2461792234570042,
                -1.220061770653716,
                1.086138608701538
            ]
        },
        {
            "positions": [
                -0.40831669475527577,
                -1.0503791045850055,
                1.891849311566156,
                1.3277986671196722,
                -1.3119516601334926,
                0.9879847148520056
            ]
        },
        {
            "positions": [
                -0.4589958493655103,
                -1.0113729682319907,
                1.8690430470553159,
                1.40941811078234,
                -1.4038415496132697,
                0.8898308210024726
            ]
        },
        {
            "positions": [
                -0.5096750039757446,
                -0.9723668318789758,
                1.8462367825444757,
                1.4910375544450079,
                -1.4957314390930463,
                0.79167692715294
            ]
        },
        {
            "positions": [
                -0.5603541585859789,
                -0.9333606955259609,
                1.8234305180336356,
                1.5726569981076757,
                -1.587621328572823,
                0.693523033303407
            ]
        },
        {
            "positions": [
                -0.6110333131962135,
                -0.894354559172946,
                1.8006242535227956,
                1.654276441770344,
                -1.6795112180526,
                0.5953691394538745
            ]
        },
        {
            "positions": [
                -0.6617124678064478,
                -0.8553484228199311,
                1.7778179890119554,
                1.7358958854330118,
                -1.7714011075323766,
                0.4972152456043415
            ]
        },
        {
            "positions": [
                -0.7123916224166821,
                -0.8163422864669163,
                1.7550117245011152,
                1.8175153290956796,
                -1.8632909970121532,
                0.39906135175480895
            ]
        },
        {
            "positions": [
                -0.7630707770269166,
                -0.7773361501139016,
                1.7322054599902752,
                1.8991347727583474,
                -1.9551808864919302,
                0.30090745790527595
            ]
        },
        {
            "positions": [
                -0.8137499316371509,
                -0.7383300137608866,
                1.709399195479435,
                1.9807542164210157,
                -2.047070775971707,
                0.2027535640557434
            ]
        },
        {
            "positions": [
                -0.8644290862473855,
                -0.6993238774078716,
                1.6865929309685948,
                2.0623736600836833,
                -2.138960665451484,
                0.10459967020621042
            ]
        },
        {
            "positions": [
                -0.9151082408576197,
                -0.6603177410548567,
                1.6637866664577547,
                2.143993103746351,
                -2.2308505549312607,
                0.006445776356677904
            ]
        }
    ]
}