{
    "goal": {
        "global_pose": {
            "orientation": {
                "w": 0.005598929693374612,
                "x": 0.007748599140229565,
                "y": 0.7110244013736278,
                "z": -0.7031023480610252
            },
            "position": {
                "x": -0.8858502320852131,
                "y": -0.7141253447532654,
                "z": 0.3711530566215515
            }
        },
        "name": "move_to_auspresseinheit_C"
    },
    "id": "KPIECE_move_to_auspresseinheit_C_103",
    "joint_names": [
        "shoulder_pan_joint",
        "shoulder_lift_joint",
        "elbow_joint",
        "wrist_1_joint",
        "wrist_2_joint",
        "wrist_3_joint"
    ],
    "metrics": {
        "cart_traj_len": 0.49284538871534805,
        "distance_elbow_joint": 0.9938279826763435,
        "distance_shoulder_lift_joint": 0.3219998287416833,
        "distance_shoulder_pan_joint": 0.2564497784002451,
        "distance_wrist_1_joint": 0.6650121757348093,
        "distance_wrist_2_joint": 1.3099241847686034,
        "distance_wrist_3_joint": 0.058353173657194723,
        "smoothness": 4.844609574787718e-16,
        "time": 0.8813260509999999,
        "traj_len": 1.89883309534537,
        "weighted_distance": 2.3868828693081445
    },
    "planner": "KPIECE",
    "start": {
        "state": {
            "elbow_joint": 1.7527959577730765,
            "shoulder_lift_joint": -0.9740617694224828,
            "shoulder_pan_joint": -2.967991417825869,
            "wrist_1_joint": -0.7595177689779385,
            "wrist_2_joint": 1.7443932448376545,
            "wrist_3_joint": 3.1991315425061013
        }
    },
    "waypoints": [
        {
            "positions": [
                -2.967991417825869,
                -0.9740617694224828,
                1.7527959577730765,
                -0.7595177689779385,
                1.7443932448376545,
                3.1991315425061013
            ]
        },
        {
            "positions": [
                -2.9423464399858448,
                -0.9418617865483144,
                1.6534131595054422,
                -0.6930165514044576,
                1.6134008263607942,
                3.193296225140382
            ]
        },
        {
            "positions": [
                -2.91670146214582,
                -0.9096618036741462,
                1.5540303612378077,
                -0.6265153338309767,
                1.4824084078839337,
                3.1874609077746623
            ]
        },
        {
            "positions": [
                -2.8910564843057953,
                -0.8774618207999778,
                1.4546475629701734,
                -0.5600141162574958,
                1.3514159894070734,
                3.181625590408943
            ]
        },
        {
            "positions": [
                -2.865411506465771,
                -0.8452618379258094,
                1.355264764702539,
                -0.4935128986840148,
                1.2204235709302131,
                3.1757902730432233
            ]
        },
        {
            "positions": [
                -2.8397665286257467,
                -0.8130618550516411,
                1.2558819664349048,
                -0.4270116811105339,
                1.0894311524533529,
                3.169954955677504
            ]
        },
        {
            "positions": [
                -2.814121550785722,
                -0.7808618721774728,
                1.1564991681672705,
                -0.36051046353705296,
                0.9584387339764925,
                3.1641196383117847
            ]
        },
        {
            "positions": [
                -2.7884765729456973,
                -0.7486618893033045,
                1.057116369899636,
                -0.2940092459635721,
                0.8274463154996321,
                3.158284320946065
            ]
        },
        {
            "positions": [
                -2.762831595105673,
                -0.7164619064291362,
                0.9577335716320017,
                -0.2275080283900911,
                0.6964538970227716,
                3.1524490035803456
            ]
        },
        {
            "positions": [
                -2.7371866172656487,
                -0.6842619235549678,
                0.8583507733643673,
                -0.16100681081661017,
                0.5654614785459113,
                3.146613686214626
            ]
        },
        {
            "positions": [
                -2.711541639425624,
                -0.6520619406807995,
                0.758967975096733,
                -0.09450559324312925,
                0.434469060069051,
                3.1407783688489066
            ]
        }
    ]
}