{
    "goal": {
        "global_pose": {
            "orientation": {
                "w": 0.005598929693374612,
                "x": 0.007748599140229565,
                "y": 0.7110244013736278,
                "z": -0.7031023480610252
            },
            "position": {
                "x": -0.8858502320852131,
                "y": -0.7141253447532654,
                "z": 0.3711530566215515
            }
        },
        "name": "move_to_auspresseinheit_C"
    },
    "id": "KPIECE_move_to_auspresseinheit_C_87",
    "joint_names": [
        "shoulder_pan_joint",
        "shoulder_lift_joint",
        "elbow_joint",
        "wrist_1_joint",
        "wrist_2_joint",
        "wrist_3_joint"
    ],
    "metrics": {
        "cart_traj_len": 0.49315037440648396,
        "distance_elbow_joint": 0.9917321278499011,
        "distance_shoulder_lift_joint": 0.32145180664115514,
        "distance_shoulder_pan_joint": 0.256783024135248,
        "distance_wrist_1_joint": 0.6555927906817016,
        "distance_wrist_2_joint": 1.3167915722240193,
        "distance_wrist_3_joint": 0.04934321243111128,
        "smoothness": 4.844609600361787e-16,
        "time": 3.6924770590000002,
        "traj_len": 1.895176649804217,
        "weighted_distance": 2.3796565554153144
    },
    "planner": "KPIECE",
    "start": {
        "state": {
            "elbow_joint": 1.7527959577730765,
            "shoulder_lift_joint": -0.9740617694224828,
            "shoulder_pan_joint": -2.967991417825869,
            "wrist_1_joint": -0.7595177689779385,
            "wrist_2_joint": 1.7443932448376545,
            "wrist_3_joint": 3.1991315425061013
        }
    },
    "waypoints": [
        {
            "positions": [
                -2.967991417825869,
                -0.9740617694224828,
                1.7527959577730765,
                -0.7595177689779385,
                1.7443932448376545,
                3.1991315425061013
            ]
        },
        {
            "positions": [
                -2.942313115412344,
                -0.9419165887583673,
                1.6536227449880865,
                -0.6939584899097684,
                1.6127140876152526,
                3.19419722126299
            ]
        },
        {
            "positions": [
                -2.9166348129988195,
                -0.9097714080942517,
                1.5544495322030962,
                -0.6283992108415982,
                1.4810349303928505,
                3.189262900019879
            ]
        },
        {
            "positions": [
                -2.8909565105852946,
                -0.8776262274301363,
                1.4552763194181062,
                -0.5628399317734281,
                1.3493557731704486,
                3.184328578776768
            ]
        },
        {
            "positions": [
                -2.86527820817177,
                -0.8454810467660208,
                1.3561031066331162,
                -0.4972806527052579,
                1.2176766159480468,
                3.179394257533657
            ]
        },
        {
            "positions": [
                -2.839599905758245,
                -0.8133358661019052,
                1.256929893848126,
                -0.43172137363708774,
                1.085997458725645,
                3.1744599362905457
            ]
        },
        {
            "positions": [
                -2.81392160334472,
                -0.7811906854377897,
                1.157756681063136,
                -0.3661620945689176,
                0.9543183015032429,
                3.1695256150474345
            ]
        },
        {
            "positions": [
                -2.7882433009311955,
                -0.7490455047736742,
                1.0585834682781456,
                -0.30060281550074747,
                0.822639144280841,
                3.1645912938043232
            ]
        },
        {
            "positions": [
                -2.7625649985176706,
                -0.7169003241095586,
                0.9594102554931556,
                -0.23504353643257725,
                0.6909599870584389,
                3.1596569725612125
            ]
        },
        {
            "positions": [
                -2.736886696104146,
                -0.6847551434454431,
                0.8602370427081656,
                -0.1694842573644071,
                0.559280829836037,
                3.1547226513181013
            ]
        },
        {
            "positions": [
                -2.711208393690621,
                -0.6526099627813277,
                0.7610638299231754,
                -0.10392497829623694,
                0.4276016726136351,
                3.14978833007499
            ]
        }
    ]
}