{
    "goal": {
        "global_pose": {
            "orientation": {
                "w": -0.4816463035849501,
                "x": 0.5182115481033762,
                "y": 0.4908360881923453,
                "z": -0.5084816262002911
            },
            "position": {
                "x": -0.8240239810943604,
                "y": -0.300875300988555,
                "z": 0.16403168439865112
            }
        },
        "name": "move_to_storage_C"
    },
    "id": "KPIECE_move_to_storage_C_51",
    "joint_names": [
        "shoulder_pan_joint",
        "shoulder_lift_joint",
        "elbow_joint",
        "wrist_1_joint",
        "wrist_2_joint",
        "wrist_3_joint"
    ],
    "metrics": {
        "cart_traj_len": 0.5765462470957405,
        "distance_elbow_joint": 0.25933201845845266,
        "distance_shoulder_lift_joint": 0.18974306613796055,
        "distance_shoulder_pan_joint": 0.4939382328213582,
        "distance_wrist_1_joint": 0.07798826257623814,
        "distance_wrist_2_joint": 1.068018522376889,
        "distance_wrist_3_joint": 0.07157118959250086,
        "smoothness": 2.5376526478085547e-16,
        "time": 0.010668533000000001,
        "traj_len": 1.469894993515999,
        "weighted_distance": 1.8573476939177351
    },
    "planner": "KPIECE",
    "start": {
        "state": {
            "elbow_joint": 2.0108683149792914,
            "shoulder_lift_joint": -1.1634956873317392,
            "shoulder_pan_joint": -2.4736205022346,
            "wrist_1_joint": -0.8367026793690192,
            "wrist_2_joint": 0.6746043897045053,
            "wrist_3_joint": 3.133522094754363
        }
    },
    "waypoints": [
        {
            "positions": [
                -2.4736205022346,
                -1.1634956873317392,
                2.0108683149792914,
                -0.8367026793690192,
                0.6746043897045053,
                3.133522094754363
            ]
        },
        {
            "positions": [
                -2.5559435410381597,
                -1.1318718429754124,
                1.9676463119028826,
                -0.8237046356063129,
                0.8526074767673202,
                3.1454506263531132
            ]
        },
        {
            "positions": [
                -2.6382665798417193,
                -1.1002479986190856,
                1.9244243088264739,
                -0.8107065918436065,
                1.0306105638301348,
                3.1573791579518633
            ]
        },
        {
            "positions": [
                -2.7205896186452794,
                -1.068624154262759,
                1.881202305750065,
                -0.7977085480809001,
                1.20861365089295,
                3.169307689550614
            ]
        },
        {
            "positions": [
                -2.802912657448839,
                -1.0370003099064322,
                1.8379803026736563,
                -0.7847105043181938,
                1.3866167379557646,
                3.181236221149364
            ]
        },
        {
            "positions": [
                -2.8852356962523986,
                -1.0053764655501054,
                1.7947582995972475,
                -0.7717124605554875,
                1.5646198250185797,
                3.193164752748114
            ]
        },
        {
            "positions": [
                -2.9675587350559582,
                -0.9737526211937787,
                1.7515362965208388,
                -0.7587144167927811,
                1.7426229120813943,
                3.205093284346864
            ]
        }
    ]
}