{
    "goal": {
        "global_pose": {
            "orientation": {
                "w": -0.00223480608172531,
                "x": 0.0024358444001904467,
                "y": 0.7094548369677653,
                "z": -0.704743149386269
            },
            "position": {
                "x": 0.6205249238014221,
                "y": -0.6371506643295288,
                "z": 0.19426114857196808
            }
        },
        "name": "move_to_magneteinheit_B"
    },
    "id": "KPIECE_move_to_magneteinheit_B_4",
    "joint_names": [
        "shoulder_pan_joint",
        "shoulder_lift_joint",
        "elbow_joint",
        "wrist_1_joint",
        "wrist_2_joint",
        "wrist_3_joint"
    ],
    "metrics": {
        "cart_traj_len": 4.361460503007664,
        "distance_elbow_joint": 5.687264918347991,
        "distance_shoulder_lift_joint": 1.263419248659807,
        "distance_shoulder_pan_joint": 3.295159200014589,
        "distance_wrist_1_joint": 2.746066600658924,
        "distance_wrist_2_joint": 2.411727201423427,
        "distance_wrist_3_joint": 3.7274780241660017,
        "smoothness": 0.7820170359341754,
        "time": 1.01938354,
        "traj_len": 4.373913029916202,
        "weighted_distance": 5.634169419150003
    },
    "planner": "KPIECE",
    "start": {
        "state": {
            "elbow_joint": 2.393587130804639,
            "shoulder_lift_joint": -1.9085141043513325,
            "shoulder_pan_joint": 0.7066247066698809,
            "wrist_1_joint": -0.4678290934590222,
            "wrist_2_joint": 0.7096259084215963,
            "wrist_3_joint": 3.147370379541726
        }
    },
    "waypoints": [
        {
            "positions": [
                0.7066247066698809,
                -1.9085141043513325,
                2.393587130804639,
                -0.4678290934590222,
                0.7096259084215963,
                3.147370379541726
            ]
        },
        {
            "positions": [
                0.6220893125454778,
                -1.8533515684603399,
                2.421063908785635,
                -0.5924171260800182,
                0.6487799491955596,
                3.1507833962974776
            ]
        },
        {
            "positions": [
                0.5375539184210747,
                -1.7981890325693473,
                2.448540686766631,
                -0.7170051587010141,
                0.5879339899695227,
                3.1541964130532287
            ]
        },
        {
            "positions": [
                0.45301852429667167,
                -1.7430264966783546,
                2.476017464747627,
                -0.84159319132201,
                0.527088030743486,
                3.1576094298089803
            ]
        },
        {
            "positions": [
                0.3684831301722686,
                -1.687863960787362,
                2.5034942427286233,
                -0.9661812239430061,
                0.4662420715174491,
                3.1610224465647314
            ]
        },
        {
            "positions": [
                0.28394773604786555,
                -1.6327014248963694,
                2.5309710207096194,
                -1.090769256564002,
                0.40539611229141237,
                3.164435463320483
            ]
        },
        {
            "positions": [
                0.3441648503080451,
                -1.6758227422801635,
                2.4934024661521184,
                -1.1500045247648787,
                0.4757251135683903,
                3.090856246669518
            ]
        },
        {
            "positions": [
                0.4043819645682246,
                -1.7189440596639576,
                2.4558339115946177,
                -1.2092397929657555,
                0.5460541148453683,
                3.017277030018553
            ]
        },
        {
            "positions": [
                0.4645990788284041,
                -1.762065377047752,
                2.418265357037117,
                -1.2684750611666322,
                0.6163831161223463,
                2.9436978133675877
            ]
        },
        {
            "positions": [
                0.5248161930885837,
                -1.805186694431546,
                2.380696802479616,
                -1.327710329367509,
                0.6867121173993243,
                2.870118596716623
            ]
        },
        {
            "positions": [
                0.5850333073487632,
                -1.84830801181534,
                2.343128247922115,
                -1.3869455975683858,
                0.7570411186763022,
                2.796539380065658
            ]
        },
        {
            "positions": [
                0.6452504216089427,
                -1.8914293291991342,
                2.3055596933646143,
                -1.4461808657692625,
                0.8273701199532801,
                2.722960163414693
            ]
        },
        {
            "positions": [
                0.6276278817601886,
                -1.8758860134158681,
                2.1723803769247554,
                -1.418809071276797,
                0.7527790405146093,
                2.62123889824815
            ]
        },
        {
            "positions": [
                0.6100053419114344,
                -1.8603426976326018,
                2.0392010604848965,
                -1.3914372767843315,
                0.6781879610759385,
                2.519517633081607
            ]
        },
        {
            "positions": [
                0.5923828020626801,
                -1.8447993818493358,
                1.906021744045037,
                -1.3640654822918659,
                0.6035968816372677,
                2.4177963679150647
            ]
        },
        {
            "positions": [
                0.574760262213926,
                -1.8292560660660697,
                1.7728424276051782,
                -1.3366936877994002,
                0.5290058021985968,
                2.316075102748522
            ]
        },
        {
            "positions": [
                0.5571377223651718,
                -1.8137127502828037,
                1.639663111165319,
                -1.3093218933069348,
                0.45441472275992606,
                2.214353837581979
            ]
        },
        {
            "positions": [
                0.5395151825164175,
                -1.7981694344995374,
                1.5064837947254601,
                -1.2819500988144692,
                0.3798236433212553,
                2.112632572415436
            ]
        },
        {
            "positions": [
                0.5218926426676633,
                -1.7826261187162713,
                1.373304478285601,
                -1.2545783043220036,
                0.30523256388258446,
                2.010911307248893
            ]
        },
        {
            "positions": [
                0.5042701028189092,
                -1.7670828029330052,
                1.240125161845742,
                -1.2272065098295382,
                0.23064148444391364,
                1.9091900420823502
            ]
        },
        {
            "positions": [
                0.486647562970155,
                -1.751539487149739,
                1.1069458454058827,
                -1.1998347153370725,
                0.1560504050052428,
                1.8074687769158073
            ]
        },
        {
            "positions": [
                0.46902502312140076,
                -1.7359961713664729,
                0.9737665289660238,
                -1.1724629208446071,
                0.08145932556657198,
                1.7057475117492646
            ]
        },
        {
            "positions": [
                0.45140248327264654,
                -1.7204528555832068,
                0.8405872125261649,
                -1.1450911263521415,
                0.006868246127901267,
                1.6040262465827217
            ]
        },
        {
            "positions": [
                0.43377994342389237,
                -1.7049095397999408,
                0.7074078960863059,
                -1.1177193318596759,
                -0.06772283331076956,
                1.502304981416179
            ]
        },
        {
            "positions": [
                0.4161574035751382,
                -1.6893662240166745,
                0.5742285796464466,
                -1.0903475373672102,
                -0.14231391274944039,
                1.4005837162496362
            ]
        },
        {
            "positions": [
                0.39853486372638397,
                -1.6738229082334084,
                0.44104926320658755,
                -1.0629757428747448,
                -0.21690499218811116,
                1.2988624510830933
            ]
        },
        {
            "positions": [
                0.5358341028402819,
                -1.6744801729879373,
                0.25415498766230293,
                -1.0664071636977988,
                -0.24866674096213637,
                1.3048810522327303
            ]
        },
        {
            "positions": [
                0.6731333419541797,
                -1.675137437742466,
                0.06726071211801832,
                -1.069838584520853,
                -0.2804284897361616,
                1.3108996533823674
            ]
        },
        {
            "positions": [
                0.8104325810680776,
                -1.6757947024969948,
                -0.1196335634262663,
                -1.0732700053439068,
                -0.3121902385101868,
                1.3169182545320044
            ]
        },
        {
            "positions": [
                0.9477318201819755,
                -1.6764519672515235,
                -0.3065278389705509,
                -1.076701426166961,
                -0.343951987284212,
                1.3229368556816414
            ]
        },
        {
            "positions": [
                1.0850310592958734,
                -1.6771092320060523,
                -0.49342211451483553,
                -1.0801328469900149,
                -0.3757137360582372,
                1.3289554568312785
            ]
        },
        {
            "positions": [
                1.2223302984097713,
                -1.677766496760581,
                -0.6803163900591201,
                -1.083564267813069,
                -0.4074754848322624,
                1.3349740579809155
            ]
        },
        {
            "positions": [
                1.359629537523669,
                -1.6784237615151099,
                -0.8672106656034045,
                -1.086995688636123,
                -0.43923723360628764,
                1.3409926591305528
            ]
        },
        {
            "positions": [
                1.496928776637567,
                -1.6790810262696385,
                -1.0541049411476893,
                -1.090427109459177,
                -0.47099898238031285,
                1.3470112602801898
            ]
        },
        {
            "positions": [
                1.6342280157514648,
                -1.6797382910241674,
                -1.2409992166919737,
                -1.093858530282231,
                -0.5027607311543381,
                1.3530298614298268
            ]
        },
        {
            "positions": [
                1.7715272548653627,
                -1.680395555778696,
                -1.4278934922362585,
                -1.0972899511052852,
                -0.5345224799283632,
                1.3590484625794639
            ]
        },
        {
            "positions": [
                1.9088264939792605,
                -1.681052820533225,
                -1.614787767780543,
                -1.100721371928339,
                -0.5662842287023885,
                1.365067063729101
            ]
        },
        {
            "positions": [
                2.0461257330931586,
                -1.6817100852877536,
                -1.8016820433248277,
                -1.1041527927513932,
                -0.5980459774764137,
                1.371085664878738
            ]
        },
        {
            "positions": [
                2.1834249722070562,
                -1.6823673500422824,
                -1.9885763188691123,
                -1.1075842135744471,
                -0.6298077262504389,
                1.377104266028375
            ]
        },
        {
            "positions": [
                2.279075550285178,
                -1.7076549362309066,
                -2.0579987771515755,
                -1.1560953782384489,
                -0.6368603576955439,
                1.5109465601790768
            ]
        },
        {
            "positions": [
                2.3747261283632994,
                -1.7329425224195307,
                -2.1274212354340385,
                -1.2046065429024506,
                -0.6439129891406489,
                1.6447888543297786
            ]
        },
        {
            "positions": [
                2.4703767064414213,
                -1.7582301086081547,
                -2.196843693716502,
                -1.2531177075664526,
                -0.6509656205857539,
                1.7786311484804802
            ]
        },
        {
            "positions": [
                2.566027284519543,
                -1.7835176947967788,
                -2.2662661519989653,
                -1.3016288722304543,
                -0.6580182520308588,
                1.9124734426311822
            ]
        },
        {
            "positions": [
                2.6616778625976645,
                -1.808805280985403,
                -2.3356886102814283,
                -1.350140036894456,
                -0.6650708834759639,
                2.046315736781884
            ]
        },
        {
            "positions": [
                2.6615310862557027,
                -1.850615266672554,
                -2.259775121675655,
                -1.4720673048316175,
                -0.6436172841201715,
                2.168247585943113
            ]
        },
        {
            "positions": [
                2.661384309913741,
                -1.892425252359705,
                -2.1838616330698817,
                -1.5939945727687792,
                -0.622163684764379,
                2.2901794351043425
            ]
        },
        {
            "positions": [
                2.661237533571779,
                -1.934235238046856,
                -2.1079481444641086,
                -1.7159218407059407,
                -0.6007100854085866,
                2.4121112842655723
            ]
        },
        {
            "positions": [
                2.6610907572298172,
                -1.976045223734007,
                -2.0320346558583355,
                -1.8378491086431021,
                -0.5792564860527941,
                2.5340431334268017
            ]
        },
        {
            "positions": [
                2.660943980887855,
                -2.0178552094211577,
                -1.9561211672525622,
                -1.9597763765802638,
                -0.5578028866970017,
                2.655974982588031
            ]
        },
        {
            "positions": [
                2.660797204545893,
                -2.059665195108309,
                -1.8802076786467892,
                -2.0817036445174253,
                -0.5363492873412092,
                2.7779068317492603
            ]
        },
        {
            "positions": [
                2.6606504282039314,
                -2.1014751807954597,
                -1.8042941900410159,
                -2.203630912454587,
                -0.5148956879854169,
                2.8998386809104897
            ]
        },
        {
            "positions": [
                2.6605036518619696,
                -2.1432851664826105,
                -1.7283807014352428,
                -2.325558180391748,
                -0.4934420886296244,
                3.0217705300717195
            ]
        },
        {
            "positions": [
                2.6603568755200078,
                -2.1850951521697617,
                -1.6524672128294695,
                -2.44748544832891,
                -0.47198848927383197,
                3.143702379232949
            ]
        }
    ]
}