{
    "goal": {
        "global_pose": {
            "orientation": {
                "w": 0.7031023502349854,
                "x": -0.7110244035720825,
                "y": 0.007748599164187908,
                "z": 0.005598929710686207
            },
            "position": {
                "x": 0.11585023208521307,
                "y": 0.44412534475326537,
                "z": 0.3711530566215515
            }
        },
        "name": "move_to_auspresseinheit_A"
    },
    "id": "KPIECE_move_to_auspresseinheit_A_33",
    "joint_names": [
        "shoulder_pan_joint",
        "shoulder_lift_joint",
        "elbow_joint",
        "wrist_1_joint",
        "wrist_2_joint",
        "wrist_3_joint"
    ],
    "metrics": {
        "cart_traj_len": 1.5512586285376513,
        "distance_elbow_joint": 1.5461358466104582,
        "distance_shoulder_lift_joint": 1.139390840852304,
        "distance_shoulder_pan_joint": 1.2513642410587649,
        "distance_wrist_1_joint": 1.5074417405996445,
        "distance_wrist_2_joint": 0.8893707026846969,
        "distance_wrist_3_joint": 2.538184130800399,
        "smoothness": 1.6197165687909882,
        "time": 0.193855962,
        "traj_len": 2.9785713861860463,
        "weighted_distance": 4.042903437814388
    },
    "planner": "KPIECE",
    "start": {
        "state": {
            "elbow_joint": 2.4225746994637096,
            "shoulder_lift_joint": -1.373653595662188,
            "shoulder_pan_joint": -0.3378633848294565,
            "wrist_1_joint": -1.0288595594406726,
            "wrist_2_joint": 1.2330228066703421,
            "wrist_3_joint": 3.189163495502006
        }
    },
    "waypoints": [
        {
            "positions": [
                -0.3378633848294565,
                -1.373653595662188,
                2.4225746994637096,
                -1.0288595594406726,
                1.2330228066703421,
                3.189163495502006
            ]
        },
        {
            "positions": [
                -0.32816562547502137,
                -1.3900312640460544,
                2.3350426596854206,
                -0.9589899193543512,
                1.1983555466594233,
                3.0494907294310356
            ]
        },
        {
            "positions": [
                -0.3184678661205862,
                -1.4064089324299205,
                2.2475106199071315,
                -0.8891202792680296,
                1.1636882866485048,
                2.9098179633600654
            ]
        },
        {
            "positions": [
                -0.3087701067661511,
                -1.4227866008137868,
                2.1599785801288425,
                -0.819250639181708,
                1.129021026637586,
                2.7701451972890947
            ]
        },
        {
            "positions": [
                -0.29907234741171596,
                -1.439164269197653,
                2.072446540350554,
                -0.7493809990953866,
                1.0943537666266674,
                2.6304724312181245
            ]
        },
        {
            "positions": [
                -0.2893745880572808,
                -1.4555419375815193,
                1.9849145005722646,
                -0.679511359009065,
                1.0596865066157486,
                2.4907996651471542
            ]
        },
        {
            "positions": [
                -0.27967682870284566,
                -1.4719196059653854,
                1.8973824607939758,
                -0.6096417189227435,
                1.02501924660483,
                2.351126899076184
            ]
        },
        {
            "positions": [
                -0.26997906934841054,
                -1.4882972743492517,
                1.8098504210156867,
                -0.539772078836422,
                0.9903519865939112,
                2.2114541330052138
            ]
        },
        {
            "positions": [
                -0.26028130999397536,
                -1.5046749427331179,
                1.7223183812373977,
                -0.4699024387501005,
                0.9556847265829925,
                2.0717813669342435
            ]
        },
        {
            "positions": [
                -0.25058355063954024,
                -1.5210526111169842,
                1.6347863414591086,
                -0.40003279866377894,
                0.9210174665720738,
                1.9321086008632729
            ]
        },
        {
            "positions": [
                -0.16400001094793448,
                -1.5966592409440277,
                1.7081894341800483,
                -0.366321283724078,
                0.8908382923542415,
                1.988158908224468
            ]
        },
        {
            "positions": [
                -0.0774164712563287,
                -1.6722658707710714,
                1.7815925269009882,
                -0.33260976878437715,
                0.8606591181364092,
                2.044209215585663
            ]
        },
        {
            "positions": [
                0.009167068435277093,
                -1.7478725005981148,
                1.854995619621928,
                -0.2988982538446762,
                0.8304799439185768,
                2.100259522946858
            ]
        },
        {
            "positions": [
                0.09575060812688285,
                -1.8234791304251583,
                1.9283987123428676,
                -0.26518673890497535,
                0.8003007697007444,
                2.1563098303080532
            ]
        },
        {
            "positions": [
                0.18233414781848867,
                -1.899085760252202,
                2.0018018050638076,
                -0.23147522396527442,
                0.770121595482912,
                2.2123601376692483
            ]
        },
        {
            "positions": [
                0.2689176875100944,
                -1.9746923900792455,
                2.0752048977847473,
                -0.19776370902557353,
                0.7399424212650797,
                2.2684104450304434
            ]
        },
        {
            "positions": [
                0.31941297596382495,
                -1.9657178620303801,
                2.1198079256608637,
                -0.23478650578622404,
                0.7380071650325022,
                2.389765408230171
            ]
        },
        {
            "positions": [
                0.3699082644175554,
                -1.9567433339815148,
                2.1644109535369798,
                -0.2718093025468746,
                0.7360719087999247,
                2.5111203714298984
            ]
        },
        {
            "positions": [
                0.42040355287128595,
                -1.9477688059326494,
                2.2090139814130962,
                -0.3088320993075251,
                0.7341366525673472,
                2.632475334629626
            ]
        },
        {
            "positions": [
                0.39490743822763213,
                -1.8787604787031127,
                2.2253799772044083,
                -0.25818140551550817,
                0.6836121708313414,
                2.769976869011273
            ]
        },
        {
            "positions": [
                0.3694113235839783,
                -1.809752151473576,
                2.2417459729957208,
                -0.2075307117234912,
                0.6330876890953357,
                2.90747840339292
            ]
        },
        {
            "positions": [
                0.34391520894032457,
                -1.7407438242440392,
                2.2581119687870332,
                -0.15688001793147424,
                0.5825632073593301,
                3.044979937774567
            ]
        },
        {
            "positions": [
                0.31841909429667076,
                -1.6717354970145024,
                2.2744779645783453,
                -0.10622932413945729,
                0.5320387256233243,
                3.182481472156214
            ]
        },
        {
            "positions": [
                0.4161973054925226,
                -1.7305842853571283,
                2.30414193095,
                -0.19689800532308874,
                0.5791353810327441,
                3.1747923809390324
            ]
        },
        {
            "positions": [
                0.5139755166883745,
                -1.7894330736997541,
                2.3338058973216556,
                -0.2875666865067202,
                0.6262320364421639,
                3.167103289721851
            ]
        },
        {
            "positions": [
                0.6117537278842263,
                -1.84828186204238,
                2.363469863693311,
                -0.3782353676903516,
                0.6733286918515836,
                3.15941419850467
            ]
        },
        {
            "positions": [
                0.7095319390800782,
                -1.9071306503850058,
                2.393133830064966,
                -0.46890404887398307,
                0.7204253472610034,
                3.1517251072874886
            ]
        }
    ]
}