{
    "goal": {
        "global_pose": {
            "orientation": {
                "w": -0.00223480608172531,
                "x": 0.0024358444001904467,
                "y": 0.7094548369677653,
                "z": -0.704743149386269
            },
            "position": {
                "x": -0.37947507619857795,
                "y": -0.6371506643295288,
                "z": 0.19426114857196808
            }
        },
        "name": "move_to_magneteinheit_C"
    },
    "id": "KPIECE_move_to_magneteinheit_C_76",
    "joint_names": [
        "shoulder_pan_joint",
        "shoulder_lift_joint",
        "elbow_joint",
        "wrist_1_joint",
        "wrist_2_joint",
        "wrist_3_joint"
    ],
    "metrics": {
        "cart_traj_len": 3.820345400239929,
        "distance_elbow_joint": 2.7351662581331633,
        "distance_shoulder_lift_joint": 1.8821083399792826,
        "distance_shoulder_pan_joint": 1.6701045636947052,
        "distance_wrist_1_joint": 1.5311854667903777,
        "distance_wrist_2_joint": 3.1570662121943105,
        "distance_wrist_3_joint": 2.0155130357736706,
        "smoothness": 0.8137612556916501,
        "time": 0.23437849500000002,
        "traj_len": 3.6043229428792194,
        "weighted_distance": 4.65944434746221
    },
    "planner": "KPIECE",
    "start": {
        "state": {
            "elbow_joint": 1.9565354006593851,
            "shoulder_lift_joint": -1.4165861576512813,
            "shoulder_pan_joint": -1.6717766223278752,
            "wrist_1_joint": -0.528663328821883,
            "wrist_2_joint": 1.472756589259273,
            "wrist_3_joint": 3.159348288315503
        }
    },
    "waypoints": [
        {
            "positions": [
                -1.6717766223278752,
                -1.4165861576512813,
                1.9565354006593851,
                -0.528663328821883,
                1.472756589259273,
                3.159348288315503
            ]
        },
        {
            "positions": [
                -1.6355575578799972,
                -1.4844005501527342,
                1.8446863631897916,
                -0.5032545599751234,
                1.550898571178065,
                3.1124337265325264
            ]
        },
        {
            "positions": [
                -1.5993384934321195,
                -1.5522149426541871,
                1.732837325720198,
                -0.4778457911283637,
                1.629040553096857,
                3.0655191647495497
            ]
        },
        {
            "positions": [
                -1.5631194289842416,
                -1.62002933515564,
                1.6209882882506048,
                -0.452437022281604,
                1.7071825350156489,
                3.018604602966573
            ]
        },
        {
            "positions": [
                -1.526900364536364,
                -1.6878437276570928,
                1.5091392507810113,
                -0.42702825343484435,
                1.7853245169344407,
                2.9716900411835963
            ]
        },
        {
            "positions": [
                -1.490681300088486,
                -1.755658120158546,
                1.3972902133114178,
                -0.4016194845880846,
                1.8634664988532326,
                2.9247754794006195
            ]
        },
        {
            "positions": [
                -1.4544622356406083,
                -1.8234725126599987,
                1.2854411758418243,
                -0.376210715741325,
                1.9416084807720244,
                2.8778609176176433
            ]
        },
        {
            "positions": [
                -1.4182431711927304,
                -1.8912869051614516,
                1.1735921383722308,
                -0.3508019468945653,
                2.0197504626908165,
                2.8309463558346666
            ]
        },
        {
            "positions": [
                -1.3820241067448524,
                -1.9591012976629045,
                1.0617431009026372,
                -0.32539317804780565,
                2.0978924446096086,
                2.78403179405169
            ]
        },
        {
            "positions": [
                -1.3458050422969747,
                -2.0269156901643575,
                0.949894063433044,
                -0.29998440920104597,
                2.1760344265284,
                2.737117232268713
            ]
        },
        {
            "positions": [
                -1.3095859778490968,
                -2.0947300826658104,
                0.8380450259634502,
                -0.2745756403542862,
                2.2541764084471922,
                2.6902026704857365
            ]
        },
        {
            "positions": [
                -1.273366913401219,
                -2.1625444751672633,
                0.7261959884938569,
                -0.2491668715075266,
                2.332318390365984,
                2.6432881087027598
            ]
        },
        {
            "positions": [
                -1.2371478489533412,
                -2.2303588676687163,
                0.6143469510242635,
                -0.2237581026607669,
                2.410460372284776,
                2.596373546919783
            ]
        },
        {
            "positions": [
                -1.2648179893698837,
                -2.1823537684959233,
                0.6601670186024222,
                -0.20138957468591528,
                2.225126023540957,
                2.5449558530026506
            ]
        },
        {
            "positions": [
                -1.2924881297864261,
                -2.1343486693231304,
                0.7059870861805809,
                -0.17902104671106367,
                2.039791674797138,
                2.493538159085518
            ]
        },
        {
            "positions": [
                -1.3201582702029688,
                -2.0863435701503374,
                0.7518071537587396,
                -0.15665251873621205,
                1.8544573260533188,
                2.442120465168386
            ]
        },
        {
            "positions": [
                -1.3478284106195113,
                -2.0383384709775445,
                0.7976272213368983,
                -0.13428399076136044,
                1.6691229773094998,
                2.3907027712512536
            ]
        },
        {
            "positions": [
                -1.3754985510360538,
                -1.9903333718047518,
                0.843447288915057,
                -0.11191546278650882,
                1.4837886285656807,
                2.339285077334121
            ]
        },
        {
            "positions": [
                -1.4031686914525963,
                -1.942328272631959,
                0.8892673564932158,
                -0.08954693481165721,
                1.2984542798218617,
                2.2878673834169887
            ]
        },
        {
            "positions": [
                -1.430838831869139,
                -1.8943231734591661,
                0.9350874240713745,
                -0.0671784068368056,
                1.1131199310780426,
                2.2364496894998567
            ]
        },
        {
            "positions": [
                -1.4585089722856814,
                -1.8463180742863732,
                0.9809074916495332,
                -0.04480987886195398,
                0.9277855823342236,
                2.185031995582724
            ]
        },
        {
            "positions": [
                -1.486179112702224,
                -1.7983129751135802,
                1.0267275592276919,
                -0.022441350887102376,
                0.7424512335904045,
                2.1336143016655917
            ]
        },
        {
            "positions": [
                -1.5885209326872969,
                -1.7687238776175098,
                1.1190210954872497,
                -0.009959275282547309,
                0.7691833652495635,
                2.237300704321241
            ]
        },
        {
            "positions": [
                -1.6908627526723696,
                -1.7391347801214394,
                1.2113146317468078,
                0.0025228003220077594,
                0.7959154969087227,
                2.340987106976891
            ]
        },
        {
            "positions": [
                -1.7932045726574426,
                -1.709545682625369,
                1.3036081680063656,
                0.015004875926562827,
                0.8226476285678817,
                2.4446735096325405
            ]
        },
        {
            "positions": [
                -1.8955463926425153,
                -1.6799565851292986,
                1.3959017042659236,
                0.027486951531117895,
                0.8493797602270406,
                2.5483599122881904
            ]
        },
        {
            "positions": [
                -1.9978882126275885,
                -1.6503674876332282,
                1.4881952405254815,
                0.03996902713567296,
                0.8761118918861998,
                2.65204631494384
            ]
        },
        {
            "positions": [
                -2.1002300326126613,
                -1.6207783901371577,
                1.5804887767850393,
                0.05245110274022803,
                0.9028440235453588,
                2.7557327175994892
            ]
        },
        {
            "positions": [
                -2.202571852597734,
                -1.5911892926410873,
                1.6727823130445973,
                0.0649331783447831,
                0.9295761552045178,
                2.859419120255139
            ]
        },
        {
            "positions": [
                -2.304913672582807,
                -1.561600195145017,
                1.7650758493041554,
                0.07741525394933817,
                0.9563082868636767,
                2.963105522910789
            ]
        },
        {
            "positions": [
                -2.40725549256788,
                -1.5320110976489465,
                1.8573693855637132,
                0.08989732955389323,
                0.9830404185228359,
                3.0667919255664384
            ]
        },
        {
            "positions": [
                -2.4203291219090066,
                -1.4580135256605309,
                1.8873604603554317,
                -0.09262763212902708,
                0.9208875974144347,
                3.078112210611021
            ]
        },
        {
            "positions": [
                -2.433402751250133,
                -1.3840159536721153,
                1.91735153514715,
                -0.2751525938119474,
                0.8587347763060337,
                3.0894324956556036
            ]
        },
        {
            "positions": [
                -2.4464763805912595,
                -1.3100183816836999,
                1.9473426099388684,
                -0.4576775554948677,
                0.7965819551976325,
                3.100752780700186
            ]
        },
        {
            "positions": [
                -2.4595500099323857,
                -1.2360208096952843,
                1.9773336847305867,
                -0.6402025171777881,
                0.7344291340892315,
                3.1120730657447684
            ]
        },
        {
            "positions": [
                -2.4726236392735124,
                -1.1620232377068687,
                2.007324759522305,
                -0.8227274788607083,
                0.6722763129808303,
                3.123393350789351
            ]
        }
    ]
}