{
    "goal": {
        "global_pose": {
            "orientation": {
                "w": 0.5084816217422485,
                "x": -0.49083608388900757,
                "y": 0.5182115435600281,
                "z": -0.4816462993621826
            },
            "position": {
                "x": 0.5540239810943604,
                "y": 0.030875300988554955,
                "z": 0.16403168439865112
            }
        },
        "name": "move_to_storage_A"
    },
    "id": "KPIECE_move_to_storage_A_58",
    "joint_names": [
        "shoulder_pan_joint",
        "shoulder_lift_joint",
        "elbow_joint",
        "wrist_1_joint",
        "wrist_2_joint",
        "wrist_3_joint"
    ],
    "metrics": {
        "cart_traj_len": 0.3528770248133003,
        "distance_elbow_joint": 0.4523109618859593,
        "distance_shoulder_lift_joint": 0.23446746702268118,
        "distance_shoulder_pan_joint": 0.46284966763767865,
        "distance_wrist_1_joint": 0.25023714927446883,
        "distance_wrist_2_joint": 1.0928419956420594,
        "distance_wrist_3_joint": 0.09081731845440233,
        "smoothness": 8.881784197001252e-16,
        "time": 0.046166469,
        "traj_len": 1.6073346135504112,
        "weighted_distance": 2.026878965735888
    },
    "planner": "KPIECE",
    "start": {
        "state": {
            "elbow_joint": 1.971548880431181,
            "shoulder_lift_joint": -1.1394869514688781,
            "shoulder_pan_joint": 0.12281150262730567,
            "wrist_1_joint": -0.7804693444481463,
            "wrist_2_joint": 0.12958644648617612,
            "wrist_3_joint": 3.0906942077768043
        }
    },
    "waypoints": [
        {
            "positions": [
                0.12281150262730567,
                -1.1394869514688781,
                1.971548880431181,
                -0.7804693444481463,
                0.12958644648617612,
                3.0906942077768043
            ]
        },
        {
            "positions": [
                0.056690121536208726,
                -1.1729823039006897,
                2.036164732129175,
                -0.8162175086302133,
                0.2857067315778989,
                3.1036681104131474
            ]
        },
        {
            "positions": [
                -0.009431259554888216,
                -1.2064776563325013,
                2.100780583827169,
                -0.8519656728122802,
                0.44182701666962165,
                3.1166420130494905
            ]
        },
        {
            "positions": [
                -0.07555264064598516,
                -1.2399730087643128,
                2.1653964355251634,
                -0.8877138369943472,
                0.5979473017613444,
                3.1296159156858336
            ]
        },
        {
            "positions": [
                -0.1416740217370821,
                -1.2734683611961244,
                2.2300122872231576,
                -0.9234620011764142,
                0.7540675868530672,
                3.142589818322177
            ]
        },
        {
            "positions": [
                -0.2077954028281791,
                -1.3069637136279362,
                2.294628138921152,
                -0.9592101653584812,
                0.91018787194479,
                3.1555637209585203
            ]
        },
        {
            "positions": [
                -0.273916783919276,
                -1.3404590660597477,
                2.359243990619146,
                -0.9949583295405482,
                1.0663081570365127,
                3.1685376235948635
            ]
        },
        {
            "positions": [
                -0.340038165010373,
                -1.3739544184915593,
                2.4238598423171402,
                -1.0307064937226151,
                1.2224284421282356,
                3.1815115262312066
            ]
        }
    ]
}