{
    "goal": {
        "global_pose": {
            "orientation": {
                "w": -0.00223480608172531,
                "x": 0.0024358444001904467,
                "y": 0.7094548369677653,
                "z": -0.704743149386269
            },
            "position": {
                "x": -0.37947507619857795,
                "y": -0.6371506643295288,
                "z": 0.19426114857196808
            }
        },
        "name": "move_to_magneteinheit_C"
    },
    "id": "KPIECE_move_to_magneteinheit_C_96",
    "joint_names": [
        "shoulder_pan_joint",
        "shoulder_lift_joint",
        "elbow_joint",
        "wrist_1_joint",
        "wrist_2_joint",
        "wrist_3_joint"
    ],
    "metrics": {
        "cart_traj_len": 2.1517346839369313,
        "distance_elbow_joint": 3.9306363881911466,
        "distance_shoulder_lift_joint": 2.236512421013236,
        "distance_shoulder_pan_joint": 1.2963668924570129,
        "distance_wrist_1_joint": 3.7484171719349835,
        "distance_wrist_2_joint": 4.399989054135535,
        "distance_wrist_3_joint": 5.983502022850102,
        "smoothness": 0.4428614106949198,
        "time": 0.806191626,
        "traj_len": 4.6470876848389695,
        "weighted_distance": 6.458392541674187
    },
    "planner": "KPIECE",
    "start": {
        "state": {
            "elbow_joint": 1.9565354006593851,
            "shoulder_lift_joint": -1.4165861576512813,
            "shoulder_pan_joint": -1.6717766223278752,
            "wrist_1_joint": -0.528663328821883,
            "wrist_2_joint": 1.472756589259273,
            "wrist_3_joint": 3.159348288315503
        }
    },
    "waypoints": [
        {
            "positions": [
                -1.6717766223278752,
                -1.4165861576512813,
                1.9565354006593851,
                -0.528663328821883,
                1.472756589259273,
                3.159348288315503
            ]
        },
        {
            "positions": [
                -1.685196389728683,
                -1.422152436960746,
                1.9260185649189712,
                -0.4128705253832006,
                1.3878628572641216,
                3.0163244159103018
            ]
        },
        {
            "positions": [
                -1.6986161571294907,
                -1.4277187162702107,
                1.8955017291785572,
                -0.2970777219445182,
                1.3029691252689701,
                2.8733005435051004
            ]
        },
        {
            "positions": [
                -1.7120359245302985,
                -1.4332849955796754,
                1.8649848934381432,
                -0.18128491850583583,
                1.2180753932738186,
                2.730276671099899
            ]
        },
        {
            "positions": [
                -1.7254556919311064,
                -1.4388512748891402,
                1.8344680576977292,
                -0.06549211506715341,
                1.1331816612786672,
                2.5872527986946974
            ]
        },
        {
            "positions": [
                -1.738875459331914,
                -1.4444175541986048,
                1.8039512219573153,
                0.05030068837152901,
                1.0482879292835157,
                2.444228926289496
            ]
        },
        {
            "positions": [
                -1.7522952267327219,
                -1.4499838335080697,
                1.7734343862169013,
                0.16609349181021138,
                0.9633941972883642,
                2.3012050538842947
            ]
        },
        {
            "positions": [
                -1.7657149941335297,
                -1.4555501128175343,
                1.7429175504764873,
                0.28188629524889386,
                0.8785004652932126,
                2.1581811814790934
            ]
        },
        {
            "positions": [
                -1.7791347615343374,
                -1.4611163921269992,
                1.7124007147360734,
                0.3976790986875762,
                0.7936067332980611,
                2.015157309073892
            ]
        },
        {
            "positions": [
                -1.7925545289351452,
                -1.4666826714364638,
                1.6818838789956594,
                0.5134719021262587,
                0.7087130013029096,
                1.8721334366686906
            ]
        },
        {
            "positions": [
                -1.827206823488312,
                -1.4537610021331218,
                1.635420111513818,
                0.5896414196901993,
                0.6348858446159636,
                1.764366931126829
            ]
        },
        {
            "positions": [
                -1.861859118041479,
                -1.4408393328297797,
                1.5889563440319765,
                0.6658109372541401,
                0.5610586879290177,
                1.6566004255849678
            ]
        },
        {
            "positions": [
                -1.8965114125946458,
                -1.427917663526438,
                1.542492576550135,
                0.7419804548180808,
                0.4872315312420718,
                1.5488339200431063
            ]
        },
        {
            "positions": [
                -1.9311637071478127,
                -1.4149959942230959,
                1.4960288090682936,
                0.8181499723820215,
                0.41340437455512585,
                1.4410674145012448
            ]
        },
        {
            "positions": [
                -1.9919302073570133,
                -1.3715216253261737,
                1.4208349224495913,
                0.8475695609608261,
                0.33053319066456543,
                1.341797155477584
            ]
        },
        {
            "positions": [
                -2.0526967075662137,
                -1.3280472564292514,
                1.3456410358308888,
                0.8769891495396309,
                0.24766200677400496,
                1.2425268964539233
            ]
        },
        {
            "positions": [
                -2.1134632077754145,
                -1.2845728875323292,
                1.2704471492121865,
                0.9064087381184356,
                0.16479082288344452,
                1.1432566374302624
            ]
        },
        {
            "positions": [
                -2.174229707984615,
                -1.2410985186354069,
                1.1952532625934842,
                0.9358283266972404,
                0.08191963899288407,
                1.0439863784066017
            ]
        },
        {
            "positions": [
                -2.2349962081938153,
                -1.1976241497384847,
                1.1200593759747817,
                0.965247915276045,
                -0.0009515448976763485,
                0.944716119382941
            ]
        },
        {
            "positions": [
                -2.295762708403016,
                -1.1541497808415626,
                1.0448654893560794,
                0.9946675038548498,
                -0.08382272878823682,
                0.8454458603592802
            ]
        },
        {
            "positions": [
                -2.3565292086122165,
                -1.1106754119446403,
                0.9696716027373771,
                1.0240870924336545,
                -0.16669391267879724,
                0.7461756013356194
            ]
        },
        {
            "positions": [
                -2.417295708821417,
                -1.0672010430477181,
                0.8944777161186747,
                1.0535066810124591,
                -0.24956509656935771,
                0.6469053423119586
            ]
        },
        {
            "positions": [
                -2.4780622090306172,
                -1.023726674150796,
                0.8192838294999724,
                1.0829262695912638,
                -0.3324362804599181,
                0.5476350832882979
            ]
        },
        {
            "positions": [
                -2.538828709239818,
                -0.9802523052538736,
                0.7440899428812698,
                1.1123458581700687,
                -0.41530746435047855,
                0.4483648242646371
            ]
        },
        {
            "positions": [
                -2.5995952094490185,
                -0.9367779363569515,
                0.6688960562625675,
                1.1417654467488734,
                -0.498178648241039,
                0.3490945652409765
            ]
        },
        {
            "positions": [
                -2.6603617096582193,
                -0.8933035674600293,
                0.5937021696438651,
                1.171185035327678,
                -0.5810498321315996,
                0.24982430621731555
            ]
        },
        {
            "positions": [
                -2.7211282098674197,
                -0.849829198563107,
                0.5185082830251628,
                1.2006046239064827,
                -0.6639210160221599,
                0.15055404719365487
            ]
        },
        {
            "positions": [
                -2.714380748855713,
                -0.7869017072109076,
                0.4682139687348583,
                1.0920682758488,
                -0.710677958564838,
                0.25715630633461617
            ]
        },
        {
            "positions": [
                -2.707633287844006,
                -0.7239742158587081,
                0.41791965444455376,
                0.9835319277911173,
                -0.7574349011075161,
                0.3637585654755774
            ]
        },
        {
            "positions": [
                -2.700885826832299,
                -0.6610467245065086,
                0.36762534015424925,
                0.8749955797334347,
                -0.8041918436501941,
                0.4703608246165386
            ]
        },
        {
            "positions": [
                -2.694138365820592,
                -0.5981192331543091,
                0.3173310258639447,
                0.7664592316757519,
                -0.8509487861928722,
                0.5769630837574999
            ]
        },
        {
            "positions": [
                -2.6873909048088853,
                -0.5351917418021097,
                0.2670367115736402,
                0.6579228836180693,
                -0.8977057287355503,
                0.6835653428984612
            ]
        },
        {
            "positions": [
                -2.680643443797179,
                -0.47226425044991027,
                0.21674239728333566,
                0.5493865355603866,
                -0.9444626712782282,
                0.7901676020394224
            ]
        },
        {
            "positions": [
                -2.673895982785472,
                -0.40933675909771083,
                0.16644808299303115,
                0.440850187502704,
                -0.9912196138209064,
                0.8967698611803836
            ]
        },
        {
            "positions": [
                -2.667148521773765,
                -0.3464092677455113,
                0.11615376870272653,
                0.33231383944502113,
                -1.0379765563635845,
                1.003372120321345
            ]
        },
        {
            "positions": [
                -2.6604010607620583,
                -0.28348177639331185,
                0.06585945441242202,
                0.2237774913873385,
                -1.0847334989062625,
                1.1099743794623063
            ]
        },
        {
            "positions": [
                -2.6536535997503514,
                -0.2205542850411124,
                0.01556514012211746,
                0.11524114332965585,
                -1.1314904414489406,
                1.2165766386032675
            ]
        },
        {
            "positions": [
                -2.6446765650103314,
                -0.26756866108274757,
                0.11504844650481139,
                0.06855185639816622,
                -1.0417033402775746,
                1.3120108981191996
            ]
        },
        {
            "positions": [
                -2.6356995302703115,
                -0.31458303712438274,
                0.2145317528875053,
                0.021862569466676585,
                -0.9519162391062084,
                1.4074451576351317
            ]
        },
        {
            "positions": [
                -2.6267224955302915,
                -0.3615974131660179,
                0.3140150592701992,
                -0.024826717464813047,
                -0.8621291379348422,
                1.5028794171510635
            ]
        },
        {
            "positions": [
                -2.6177454607902715,
                -0.40861178920765306,
                0.41349836565289316,
                -0.07151600439630268,
                -0.7723420367634761,
                1.5983136766669956
            ]
        },
        {
            "positions": [
                -2.6087684260502515,
                -0.4556261652492882,
                0.5129816720355871,
                -0.11820529132779231,
                -0.68255493559211,
                1.6937479361829277
            ]
        },
        {
            "positions": [
                -2.5997913913102315,
                -0.5026405412909234,
                0.612464978418281,
                -0.16489457825928194,
                -0.5927678344207439,
                1.7891821956988596
            ]
        },
        {
            "positions": [
                -2.5908143565702115,
                -0.5496549173325584,
                0.7119482848009748,
                -0.21158386519077155,
                -0.5029807332493778,
                1.8846164552147915
            ]
        },
        {
            "positions": [
                -2.5818373218301915,
                -0.5966692933741937,
                0.8114315911836689,
                -0.2582731521222612,
                -0.41319363207801163,
                1.9800507147307238
            ]
        },
        {
            "positions": [
                -2.5728602870901716,
                -0.6436836694158288,
                0.9109148975663628,
                -0.30496243905375087,
                -0.3234065309066455,
                2.0754849742466557
            ]
        },
        {
            "positions": [
                -2.563883252350151,
                -0.6906980454574639,
                1.0103982039490567,
                -0.35165172598524047,
                -0.23361942973527938,
                2.1709192337625876
            ]
        },
        {
            "positions": [
                -2.554906217610131,
                -0.7377124214990991,
                1.1098815103317508,
                -0.3983410129167302,
                -0.14383232856391315,
                2.26635349327852
            ]
        },
        {
            "positions": [
                -2.545929182870111,
                -0.7847267975407343,
                1.2093648167144444,
                -0.44503029984821973,
                -0.054045227392547135,
                2.3617877527944517
            ]
        },
        {
            "positions": [
                -2.536952148130091,
                -0.8317411735823694,
                1.3088481230971385,
                -0.4917195867797094,
                0.0357418737788191,
                2.4572220123103836
            ]
        },
        {
            "positions": [
                -2.527975113390071,
                -0.8787555496240045,
                1.4083314294798321,
                -0.5384088737111989,
                0.1255289749501851,
                2.552656271826316
            ]
        },
        {
            "positions": [
                -2.518998078650051,
                -0.9257699256656398,
                1.5078147358625262,
                -0.5850981606426886,
                0.21531607612155113,
                2.648090531342248
            ]
        },
        {
            "positions": [
                -2.5100210439100312,
                -0.9727843017072749,
                1.6072980422452203,
                -0.6317874475741783,
                0.30510317729291736,
                2.74352479085818
            ]
        },
        {
            "positions": [
                -2.5010440091700112,
                -1.01979867774891,
                1.706781348627914,
                -0.6784767345056679,
                0.3948902784642834,
                2.838959050374112
            ]
        },
        {
            "positions": [
                -2.4920669744299913,
                -1.0668130537905451,
                1.806264655010608,
                -0.7251660214371576,
                0.4846773796356496,
                2.9343933098900443
            ]
        },
        {
            "positions": [
                -2.4830899396899713,
                -1.1138274298321802,
                1.9057479613933017,
                -0.7718553083686471,
                0.5744644808070156,
                3.0298275694059758
            ]
        },
        {
            "positions": [
                -2.4741129049499513,
                -1.1608418058738155,
                2.005231267775996,
                -0.8185445953001368,
                0.6642515819783817,
                3.125261828921908
            ]
        }
    ]
}