{
    "goal": {
        "global_pose": {
            "orientation": {
                "w": 0.7031023502349854,
                "x": -0.7110244035720825,
                "y": 0.007748599164187908,
                "z": 0.005598929710686207
            },
            "position": {
                "x": 0.11585023208521307,
                "y": 0.44412534475326537,
                "z": 0.3711530566215515
            }
        },
        "name": "move_to_auspresseinheit_A"
    },
    "id": "KPIECE_move_to_auspresseinheit_A_20",
    "joint_names": [
        "shoulder_pan_joint",
        "shoulder_lift_joint",
        "elbow_joint",
        "wrist_1_joint",
        "wrist_2_joint",
        "wrist_3_joint"
    ],
    "metrics": {
        "cart_traj_len": 2.5650744913609205,
        "distance_elbow_joint": 1.573870059839333,
        "distance_shoulder_lift_joint": 0.5334633037182224,
        "distance_shoulder_pan_joint": 2.9662470521027373,
        "distance_wrist_1_joint": 1.8761041770229498,
        "distance_wrist_2_joint": 4.624748804581912,
        "distance_wrist_3_joint": 3.0078012220720005,
        "smoothness": 0.8181573307568049,
        "time": 0.468811232,
        "traj_len": 3.818669220990102,
        "weighted_distance": 5.205640214717688
    },
    "planner": "KPIECE",
    "start": {
        "state": {
            "elbow_joint": 2.4225746994637096,
            "shoulder_lift_joint": -1.373653595662188,
            "shoulder_pan_joint": -0.3378633848294565,
            "wrist_1_joint": -1.0288595594406726,
            "wrist_2_joint": 1.2330228066703421,
            "wrist_3_joint": 3.189163495502006
        }
    },
    "waypoints": [
        {
            "positions": [
                -0.3378633848294565,
                -1.373653595662188,
                2.4225746994637096,
                -1.0288595594406726,
                1.2330228066703421,
                3.189163495502006
            ]
        },
        {
            "positions": [
                -0.39440718871569425,
                -1.403134662010356,
                2.375412228836274,
                -1.0674897958050864,
                1.3535019005284175,
                3.099393537364242
            ]
        },
        {
            "positions": [
                -0.450950992601932,
                -1.432615728358524,
                2.328249758208838,
                -1.1061200321695002,
                1.4739809943864928,
                3.0096235792264783
            ]
        },
        {
            "positions": [
                -0.5074947964881698,
                -1.4620967947066918,
                2.281087287581402,
                -1.1447502685339142,
                1.594460088244568,
                2.9198536210887145
            ]
        },
        {
            "positions": [
                -0.5640386003744076,
                -1.4915778610548598,
                2.2339248169539663,
                -1.183380504898328,
                1.7149391821026434,
                2.830083662950951
            ]
        },
        {
            "positions": [
                -0.6205824042606453,
                -1.521058927403028,
                2.1867623463265304,
                -1.2220107412627417,
                1.8354182759607187,
                2.7403137048131874
            ]
        },
        {
            "positions": [
                -0.6771262081468831,
                -1.5505399937511959,
                2.1395998756990946,
                -1.2606409776271557,
                1.955897369818794,
                2.6505437466754236
            ]
        },
        {
            "positions": [
                -0.7336700120331208,
                -1.5800210600993638,
                2.092437405071659,
                -1.2992712139915694,
                2.076376463676869,
                2.56077378853766
            ]
        },
        {
            "positions": [
                -0.7902138159193586,
                -1.6095021264475318,
                2.0452749344442234,
                -1.3379014503559832,
                2.1968555575349447,
                2.471003830399896
            ]
        },
        {
            "positions": [
                -0.8467576198055964,
                -1.6389831927956997,
                1.9981124638167873,
                -1.376531686720397,
                2.31733465139302,
                2.3812338722621327
            ]
        },
        {
            "positions": [
                -0.903301423691834,
                -1.6684642591438676,
                1.9509499931893515,
                -1.4151619230848107,
                2.4378137452510953,
                2.291463914124369
            ]
        },
        {
            "positions": [
                -0.9598452275780718,
                -1.6979453254920356,
                1.9037875225619156,
                -1.4537921594492247,
                2.5582928391091704,
                2.201693955986605
            ]
        },
        {
            "positions": [
                -1.0163890314643096,
                -1.7274263918402037,
                1.8566250519344798,
                -1.4924223958136384,
                2.678771932967246,
                2.1119239978488413
            ]
        },
        {
            "positions": [
                -1.0729328353505472,
                -1.7569074581883717,
                1.8094625813070442,
                -1.5310526321780522,
                2.799251026825321,
                2.0221540397110775
            ]
        },
        {
            "positions": [
                -1.129476639236785,
                -1.7863885245365396,
                1.7623001106796083,
                -1.569682868542466,
                2.919730120683396,
                1.932384081573314
            ]
        },
        {
            "positions": [
                -1.1860204431230228,
                -1.8158695908847076,
                1.7151376400521725,
                -1.60831310490688,
                3.0402092145414716,
                1.8426141234355502
            ]
        },
        {
            "positions": [
                -1.2425642470092606,
                -1.8453506572328755,
                1.6679751694247367,
                -1.6469433412712937,
                3.160688308399547,
                1.7528441652977866
            ]
        },
        {
            "positions": [
                -1.2991080508954984,
                -1.8748317235810434,
                1.6208126987973008,
                -1.6855735776357075,
                3.2811674022576223,
                1.6630742071600229
            ]
        },
        {
            "positions": [
                -1.203631746798513,
                -1.8763691129048228,
                1.6575797492341067,
                -1.6275073795962829,
                3.1584719637340686,
                1.7336319182900237
            ]
        },
        {
            "positions": [
                -1.1081554427015274,
                -1.8779065022286021,
                1.6943467996709127,
                -1.5694411815568585,
                3.0357765252105144,
                1.8041896294200246
            ]
        },
        {
            "positions": [
                -1.012679138604542,
                -1.8794438915523817,
                1.7311138501077186,
                -1.511374983517434,
                2.9130810866869608,
                1.8747473405500252
            ]
        },
        {
            "positions": [
                -0.9172028345075565,
                -1.880981280876161,
                1.7678809005445244,
                -1.4533087854780093,
                2.7903856481634066,
                1.945305051680026
            ]
        },
        {
            "positions": [
                -0.821726530410571,
                -1.8825186701999403,
                1.8046479509813305,
                -1.395242587438585,
                2.667690209639853,
                2.015862762810027
            ]
        },
        {
            "positions": [
                -0.7262502263135854,
                -1.8840560595237197,
                1.8414150014181363,
                -1.3371763893991604,
                2.544994771116299,
                2.086420473940028
            ]
        },
        {
            "positions": [
                -0.6307739222165999,
                -1.885593448847499,
                1.8781820518549421,
                -1.2791101913597358,
                2.422299332592745,
                2.1569781850700287
            ]
        },
        {
            "positions": [
                -0.5352976181196144,
                -1.8871308381712786,
                1.914949102291748,
                -1.2210439933203112,
                2.2996038940691914,
                2.2275358962000293
            ]
        },
        {
            "positions": [
                -0.4398213140226289,
                -1.888668227495058,
                1.951716152728554,
                -1.1629777952808866,
                2.1769084555456377,
                2.2980936073300304
            ]
        },
        {
            "positions": [
                -0.34434500992564343,
                -1.8902056168188373,
                1.9884832031653599,
                -1.1049115972414623,
                2.0542130170220836,
                2.368651318460031
            ]
        },
        {
            "positions": [
                -0.24886870582865783,
                -1.8917430061426166,
                2.0252502536021657,
                -1.0468453992020377,
                1.9315175784985295,
                2.439209029590032
            ]
        },
        {
            "positions": [
                -0.15339240173167235,
                -1.893280395466396,
                2.0620173040389718,
                -0.9887792011626132,
                1.8088221399749758,
                2.509766740720033
            ]
        },
        {
            "positions": [
                -0.05791609763468686,
                -1.8948177847901753,
                2.098784354475778,
                -0.9307130031231886,
                1.6861267014514218,
                2.580324451850034
            ]
        },
        {
            "positions": [
                0.03756020646229863,
                -1.8963551741139548,
                2.1355514049125834,
                -0.8726468050837641,
                1.563431262927868,
                2.6508821629800345
            ]
        },
        {
            "positions": [
                0.13303651055928434,
                -1.8978925634377342,
                2.1723184553493895,
                -0.8145806070443395,
                1.440735824404314,
                2.721439874110035
            ]
        },
        {
            "positions": [
                0.2285128146562696,
                -1.8994299527615135,
                2.209085505786195,
                -0.7565144090049152,
                1.3180403858807603,
                2.7919975852400363
            ]
        },
        {
            "positions": [
                0.3239891187532553,
                -1.9009673420852928,
                2.245852556223001,
                -0.6984482109654906,
                1.1953449473572064,
                2.8625552963700374
            ]
        },
        {
            "positions": [
                0.4194654228502406,
                -1.9025047314090722,
                2.2826196066598072,
                -0.640382012926066,
                1.0726495088336527,
                2.9331130075000376
            ]
        },
        {
            "positions": [
                0.5149417269472263,
                -1.9040421207328517,
                2.3193866570966133,
                -0.5823158148866414,
                0.9499540703100986,
                3.0036707186300386
            ]
        },
        {
            "positions": [
                0.6104180310442116,
                -1.905579510056631,
                2.356153707533419,
                -0.524249616847217,
                0.8272586317865449,
                3.0742284297600397
            ]
        },
        {
            "positions": [
                0.7058943351411971,
                -1.9071168993804104,
                2.392920757970225,
                -0.4661834188077924,
                0.7045631932629907,
                3.1447861408900404
            ]
        }
    ]
}