{
    "goal": {
        "global_pose": {
            "orientation": {
                "w": -0.00223480608172531,
                "x": 0.0024358444001904467,
                "y": 0.7094548369677653,
                "z": -0.704743149386269
            },
            "position": {
                "x": 0.6205249238014221,
                "y": -0.6371506643295288,
                "z": 0.19426114857196808
            }
        },
        "name": "move_to_magneteinheit_B"
    },
    "id": "KPIECE_move_to_magneteinheit_B_115",
    "joint_names": [
        "shoulder_pan_joint",
        "shoulder_lift_joint",
        "elbow_joint",
        "wrist_1_joint",
        "wrist_2_joint",
        "wrist_3_joint"
    ],
    "metrics": {
        "cart_traj_len": 1.4533778492769913,
        "distance_elbow_joint": 0.7299832442241427,
        "distance_shoulder_lift_joint": 1.2483196083263617,
        "distance_shoulder_pan_joint": 1.6215655313884403,
        "distance_wrist_1_joint": 2.60766659315637,
        "distance_wrist_2_joint": 2.9442683963502425,
        "distance_wrist_3_joint": 3.1555194536156357,
        "smoothness": 4.0371746290105915e-16,
        "time": 0.190795682,
        "traj_len": 3.5081794177409447,
        "weighted_distance": 4.916329598775806
    },
    "planner": "KPIECE",
    "start": {
        "state": {
            "elbow_joint": 2.393587130804639,
            "shoulder_lift_joint": -1.9085141043513325,
            "shoulder_pan_joint": 0.7066247066698809,
            "wrist_1_joint": -0.4678290934590222,
            "wrist_2_joint": 0.7096259084215963,
            "wrist_3_joint": 3.147370379541726
        }
    },
    "waypoints": [
        {
            "positions": [
                0.7066247066698809,
                -1.9085141043513325,
                2.393587130804639,
                -0.4678290934590222,
                0.7096259084215963,
                3.147370379541726
            ]
        },
        {
            "positions": [
                0.6559507838139921,
                -1.8695041165911337,
                2.3707751544226343,
                -0.3863395124228856,
                0.6176175210356513,
                3.0487603966162373
            ]
        },
        {
            "positions": [
                0.6052768609581034,
                -1.8304941288309349,
                2.34796317804063,
                -0.3048499313867491,
                0.5256091336497062,
                2.950150413690749
            ]
        },
        {
            "positions": [
                0.5546029381022146,
                -1.791484141070736,
                2.3251512016586253,
                -0.22336035035061252,
                0.4336007462637611,
                2.8515404307652603
            ]
        },
        {
            "positions": [
                0.5039290152463258,
                -1.7524741533105372,
                2.302339225276621,
                -0.14187076931447595,
                0.341592358877816,
                2.7529304478397716
            ]
        },
        {
            "positions": [
                0.45325509239043704,
                -1.7134641655503384,
                2.2795272488946163,
                -0.06038118827833938,
                0.24958397149187095,
                2.654320464914283
            ]
        },
        {
            "positions": [
                0.4025811695345483,
                -1.6744541777901396,
                2.2567152725126123,
                0.021108392757797134,
                0.15757558410592587,
                2.555710481988794
            ]
        },
        {
            "positions": [
                0.3519072466786596,
                -1.6354441900299408,
                2.233903296130608,
                0.1025979737939337,
                0.06556719671998079,
                2.457100499063306
            ]
        },
        {
            "positions": [
                0.3012333238227708,
                -1.5964342022697422,
                2.2110913197486033,
                0.18408755483007028,
                -0.026441190665964287,
                2.358490516137817
            ]
        },
        {
            "positions": [
                0.250559400966882,
                -1.5574242145095432,
                2.188279343366599,
                0.26557713586620685,
                -0.11844957805190937,
                2.2598805332123284
            ]
        },
        {
            "positions": [
                0.19988547811099322,
                -1.5184142267493446,
                2.1654673669845943,
                0.3470667169023434,
                -0.21045796543785444,
                2.16127055028684
            ]
        },
        {
            "positions": [
                0.14921155525510454,
                -1.4794042389891457,
                2.14265539060259,
                0.42855629793848,
                -0.30246635282379963,
                2.0626605673613514
            ]
        },
        {
            "positions": [
                0.09853763239921576,
                -1.440394251228947,
                2.1198434142205853,
                0.5100458789746165,
                -0.3944747402097446,
                1.9640505844358627
            ]
        },
        {
            "positions": [
                0.04786370954332697,
                -1.4013842634687481,
                2.097031437838581,
                0.5915354600107532,
                -0.48648312759568957,
                1.865440601510374
            ]
        },
        {
            "positions": [
                -0.0028102133125617046,
                -1.3623742757085493,
                2.0742194614565763,
                0.6730250410468896,
                -0.5784915149816348,
                1.7668306185848854
            ]
        },
        {
            "positions": [
                -0.05348413616845049,
                -1.3233642879483505,
                2.051407485074572,
                0.7545146220830263,
                -0.67049990236758,
                1.668220635659397
            ]
        },
        {
            "positions": [
                -0.10415805902433928,
                -1.2843543001881517,
                2.0285955086925673,
                0.8360042031191628,
                -0.7625082897535249,
                1.5696106527339082
            ]
        },
        {
            "positions": [
                -0.15483198188022806,
                -1.2453443124279528,
                2.005783532310563,
                0.9174937841552993,
                -0.8545166771394699,
                1.4710006698084195
            ]
        },
        {
            "positions": [
                -0.20550590473611685,
                -1.206334324667754,
                1.9829715559285586,
                0.9989833651914359,
                -0.9465250645254151,
                1.372390686882931
            ]
        },
        {
            "positions": [
                -0.2561798275920055,
                -1.1673243369075552,
                1.960159579546554,
                1.0804729462275724,
                -1.0385334519113603,
                1.2737807039574425
            ]
        },
        {
            "positions": [
                -0.3068537504478944,
                -1.1283143491473564,
                1.9373476031645496,
                1.161962527263709,
                -1.1305418392973052,
                1.1751707210319537
            ]
        },
        {
            "positions": [
                -0.357527673303783,
                -1.0893043613871578,
                1.914535626782545,
                1.2434521082998455,
                -1.2225502266832502,
                1.076560738106465
            ]
        },
        {
            "positions": [
                -0.4082015961596718,
                -1.0502943736269588,
                1.8917236504005408,
                1.3249416893359822,
                -1.3145586140691956,
                0.9779507551809767
            ]
        },
        {
            "positions": [
                -0.45887551901556056,
                -1.0112843858667602,
                1.8689116740185363,
                1.4064312703721187,
                -1.4065670014551406,
                0.879340772255488
            ]
        },
        {
            "positions": [
                -0.5095494418714493,
                -0.9722743981065612,
                1.8460996976365318,
                1.4879208514082551,
                -1.4985753888410855,
                0.7807307893299993
            ]
        },
        {
            "positions": [
                -0.5602233647273381,
                -0.9332644103463624,
                1.8232877212545273,
                1.5694104324443916,
                -1.5905837762270305,
                0.6821208064045106
            ]
        },
        {
            "positions": [
                -0.6108972875832269,
                -0.8942544225861637,
                1.8004757448725228,
                1.6509000134805285,
                -1.6825921636129755,
                0.5835108234790218
            ]
        },
        {
            "positions": [
                -0.6615712104391157,
                -0.8552444348259649,
                1.7776637684905183,
                1.732389594516665,
                -1.774600550998921,
                0.48490084055353355
            ]
        },
        {
            "positions": [
                -0.7122451332950043,
                -0.8162344470657661,
                1.7548517921085138,
                1.8138791755528014,
                -1.8666089383848659,
                0.3862908576280448
            ]
        },
        {
            "positions": [
                -0.7629190561508931,
                -0.7772244593055673,
                1.7320398157265093,
                1.8953687565889379,
                -1.9586173257708108,
                0.2876808747025561
            ]
        },
        {
            "positions": [
                -0.8135929790067818,
                -0.7382144715453685,
                1.7092278393445048,
                1.9768583376250748,
                -2.050625713156756,
                0.18907089177706782
            ]
        },
        {
            "positions": [
                -0.8642669018626706,
                -0.6992044837851696,
                1.6864158629625006,
                2.058347918661211,
                -2.1426341005427014,
                0.09046090885157909
            ]
        },
        {
            "positions": [
                -0.9149408247185594,
                -0.6601944960249707,
                1.663603886580496,
                2.1398374996973475,
                -2.234642487928646,
                -0.00814907407390976
            ]
        }
    ]
}