{
    "goal": {
        "global_pose": {
            "orientation": {
                "w": -0.00223480608172531,
                "x": 0.0024358444001904467,
                "y": 0.7094548369677653,
                "z": -0.704743149386269
            },
            "position": {
                "x": 0.6205249238014221,
                "y": -0.6371506643295288,
                "z": 0.19426114857196808
            }
        },
        "name": "move_to_magneteinheit_B"
    },
    "id": "KPIECE_move_to_magneteinheit_B_127",
    "joint_names": [
        "shoulder_pan_joint",
        "shoulder_lift_joint",
        "elbow_joint",
        "wrist_1_joint",
        "wrist_2_joint",
        "wrist_3_joint"
    ],
    "metrics": {
        "cart_traj_len": 1.452816480386148,
        "distance_elbow_joint": 0.7259398426631065,
        "distance_shoulder_lift_joint": 1.2455276264350807,
        "distance_shoulder_pan_joint": 1.6221990034953726,
        "distance_wrist_1_joint": 2.613559911603793,
        "distance_wrist_2_joint": 2.934108387083247,
        "distance_wrist_3_joint": 3.139324065533224,
        "smoothness": 3.8857805856418593e-16,
        "time": 0.089951296,
        "traj_len": 3.504377096833876,
        "weighted_distance": 4.909885463691317
    },
    "planner": "KPIECE",
    "start": {
        "state": {
            "elbow_joint": 2.393587130804639,
            "shoulder_lift_joint": -1.9085141043513325,
            "shoulder_pan_joint": 0.7066247066698809,
            "wrist_1_joint": -0.4678290934590222,
            "wrist_2_joint": 0.7096259084215963,
            "wrist_3_joint": 3.147370379541726
        }
    },
    "waypoints": [
        {
            "positions": [
                0.7066247066698809,
                -1.9085141043513325,
                2.393587130804639,
                -0.4678290934590222,
                0.7096259084215963,
                3.147370379541726
            ]
        },
        {
            "positions": [
                0.6542957065571269,
                -1.8683357938211687,
                2.370169716525184,
                -0.38352070921373854,
                0.6149772507737497,
                3.0461018612987187
            ]
        },
        {
            "positions": [
                0.601966706444373,
                -1.8281574832910048,
                2.346752302245729,
                -0.29921232496845485,
                0.520328593125903,
                2.9448333430557114
            ]
        },
        {
            "positions": [
                0.549637706331619,
                -1.7879791727608407,
                2.323334887966274,
                -0.2149039407231712,
                0.4256799354780564,
                2.8435648248127046
            ]
        },
        {
            "positions": [
                0.497308706218865,
                -1.7478008622306769,
                2.2999174736868184,
                -0.13059555647788756,
                0.3310312778302097,
                2.7422963065696973
            ]
        },
        {
            "positions": [
                0.4449797061061111,
                -1.707622551700513,
                2.2765000594073634,
                -0.046287172232603924,
                0.23638262018236306,
                2.64102778832669
            ]
        },
        {
            "positions": [
                0.39265070599335716,
                -1.6674442411703492,
                2.2530826451279085,
                0.03802121201267977,
                0.14173396253451642,
                2.5397592700836826
            ]
        },
        {
            "positions": [
                0.3403217058806032,
                -1.6272659306401853,
                2.2296652308484535,
                0.12232959625796341,
                0.04708530488666973,
                2.4384907518406758
            ]
        },
        {
            "positions": [
                0.28799270576784924,
                -1.5870876201100215,
                2.2062478165689985,
                0.20663798050324705,
                -0.04756335276117696,
                2.337222233597668
            ]
        },
        {
            "positions": [
                0.23566370565509526,
                -1.5469093095798574,
                2.1828304022895435,
                0.2909463647485308,
                -0.14221201040902365,
                2.235953715354661
            ]
        },
        {
            "positions": [
                0.18333470554234133,
                -1.5067309990496935,
                2.1594129880100885,
                0.37525474899381434,
                -0.23686066805687023,
                2.134685197111654
            ]
        },
        {
            "positions": [
                0.13100570542958734,
                -1.4665526885195297,
                2.135995573730633,
                0.4595631332390981,
                -0.33150932570471703,
                2.0334166788686465
            ]
        },
        {
            "positions": [
                0.07867670531683346,
                -1.4263743779893658,
                2.112578159451178,
                0.5438715174843818,
                -0.4261579833525635,
                1.9321481606256394
            ]
        },
        {
            "positions": [
                0.026347705204079475,
                -1.3861960674592018,
                2.089160745171723,
                0.6281799017296654,
                -0.5208066410004104,
                1.8308796423826321
            ]
        },
        {
            "positions": [
                -0.025981294908674513,
                -1.346017756929038,
                2.065743330892268,
                0.7124882859749491,
                -0.6154552986482569,
                1.729611124139625
            ]
        },
        {
            "positions": [
                -0.0783102950214285,
                -1.305839446398874,
                2.042325916612813,
                0.7967966702202327,
                -0.7101039562961036,
                1.6283426058966177
            ]
        },
        {
            "positions": [
                -0.13063929513418238,
                -1.2656611358687102,
                2.018908502333358,
                0.8811050544655163,
                -0.8047526139439503,
                1.5270740876536104
            ]
        },
        {
            "positions": [
                -0.18296829524693625,
                -1.2254828253385464,
                1.995491088053903,
                0.9654134387108,
                -0.8994012715917967,
                1.4258055694106033
            ]
        },
        {
            "positions": [
                -0.23529729535969035,
                -1.1853045148083825,
                1.972073673774448,
                1.0497218229560838,
                -0.9940499292396436,
                1.3245370511675958
            ]
        },
        {
            "positions": [
                -0.28762629547244434,
                -1.1451262042782187,
                1.9486562594949928,
                1.1340302072013673,
                -1.0886985868874903,
                1.2232685329245887
            ]
        },
        {
            "positions": [
                -0.3399552955851982,
                -1.1049478937480546,
                1.9252388452155378,
                1.218338591446651,
                -1.1833472445353368,
                1.1220000146815816
            ]
        },
        {
            "positions": [
                -0.3922842956979521,
                -1.0647695832178907,
                1.9018214309360828,
                1.3026469756919345,
                -1.2779959021831835,
                1.0207314964385743
            ]
        },
        {
            "positions": [
                -0.4446132958107062,
                -1.0245912726877267,
                1.8784040166566278,
                1.3869553599372184,
                -1.3726445598310304,
                0.919462978195567
            ]
        },
        {
            "positions": [
                -0.49694229592346006,
                -0.9844129621575629,
                1.8549866023771728,
                1.471263744182502,
                -1.467293217478877,
                0.8181944599525597
            ]
        },
        {
            "positions": [
                -0.5492712960362139,
                -0.9442346516273991,
                1.8315691880977176,
                1.5555721284277857,
                -1.5619418751267233,
                0.7169259417095528
            ]
        },
        {
            "positions": [
                -0.601600296148968,
                -0.9040563410972351,
                1.8081517738182626,
                1.6398805126730693,
                -1.65659053277457,
                0.6156574234665455
            ]
        },
        {
            "positions": [
                -0.6539292962617219,
                -0.8638780305670712,
                1.7847343595388074,
                1.724188896918353,
                -1.7512391904224172,
                0.5143889052235382
            ]
        },
        {
            "positions": [
                -0.706258296374476,
                -0.8236997200369074,
                1.7613169452593525,
                1.8084972811636366,
                -1.8458878480702634,
                0.4131203869805309
            ]
        },
        {
            "positions": [
                -0.7585872964872299,
                -0.7835214095067435,
                1.7378995309798975,
                1.8928056654089203,
                -1.94053650571811,
                0.311851868737524
            ]
        },
        {
            "positions": [
                -0.8109162965999838,
                -0.7433430989765797,
                1.7144821167004425,
                1.977114049654204,
                -2.0351851633659566,
                0.2105833504945167
            ]
        },
        {
            "positions": [
                -0.8632452967127379,
                -0.7031647884464156,
                1.6910647024209873,
                2.0614224338994873,
                -2.1298338210138033,
                0.1093148322515094
            ]
        },
        {
            "positions": [
                -0.9155742968254916,
                -0.6629864779162516,
                1.6676472881415323,
                2.145730818144771,
                -2.2244824786616504,
                0.008046314008502274
            ]
        }
    ]
}