{
    "goal": {
        "global_pose": {
            "orientation": {
                "w": 0.5084816262002911,
                "x": -0.4908360881923452,
                "y": 0.5182115481033761,
                "z": -0.48164630358495003
            },
            "position": {
                "x": 0.5540239810943604,
                "y": -0.46912469901144505,
                "z": 0.16403168439865112
            }
        },
        "name": "move_to_storage_B"
    },
    "id": "KPIECE_move_to_storage_B_39",
    "joint_names": [
        "shoulder_pan_joint",
        "shoulder_lift_joint",
        "elbow_joint",
        "wrist_1_joint",
        "wrist_2_joint",
        "wrist_3_joint"
    ],
    "metrics": {
        "cart_traj_len": 0.8792871900379591,
        "distance_elbow_joint": 0.3569787212146809,
        "distance_shoulder_lift_joint": 0.5458352254356684,
        "distance_shoulder_pan_joint": 0.18121038267958656,
        "distance_wrist_1_joint": 2.9830681720298684,
        "distance_wrist_2_joint": 2.7005013306886676,
        "distance_wrist_3_joint": 3.1408231927433286,
        "smoothness": 0.011142034213803696,
        "time": 0.062539913,
        "traj_len": 3.1477638133747905,
        "weighted_distance": 4.6769255834358745
    },
    "planner": "KPIECE",
    "start": {
        "state": {
            "elbow_joint": 1.6649325340416963,
            "shoulder_lift_joint": -0.6616387945129425,
            "shoulder_pan_joint": -0.9139837929255878,
            "wrist_1_joint": 2.1467571094334352,
            "wrist_2_joint": -2.234195976750228,
            "wrist_3_joint": 0.005470921511140723
        }
    },
    "waypoints": [
        {
            "positions": [
                -0.9139837929255878,
                -0.6616387945129425,
                1.6649325340416963,
                2.1467571094334352,
                -2.234195976750228,
                0.005470921511140723
            ]
        },
        {
            "positions": [
                -0.9340231655989134,
                -0.7131983811951246,
                1.7021681270958813,
                2.0656241327363785,
                -2.138836705400489,
                0.11233226917824148
            ]
        },
        {
            "positions": [
                -0.9540625382722391,
                -0.7647579678773067,
                1.7394037201500663,
                1.984491156039322,
                -2.04347743405075,
                0.21919361684534225
            ]
        },
        {
            "positions": [
                -0.9741019109455646,
                -0.8163175545594888,
                1.7766393132042513,
                1.9033581793422651,
                -1.9481181627010113,
                0.326054964512443
            ]
        },
        {
            "positions": [
                -0.9941412836188903,
                -0.8678771412416709,
                1.8138749062584363,
                1.8222252026452086,
                -1.8527588913512725,
                0.43291631217954374
            ]
        },
        {
            "positions": [
                -1.014180656292216,
                -0.9194367279238531,
                1.8511104993126213,
                1.7410922259481518,
                -1.7573996200015336,
                0.5397776598466445
            ]
        },
        {
            "positions": [
                -1.0342200289655414,
                -0.9709963146060352,
                1.8883460923668063,
                1.6599592492510953,
                -1.6620403486517947,
                0.6466390075137453
            ]
        },
        {
            "positions": [
                -1.054259401638867,
                -1.0225559012882173,
                1.9255816854209913,
                1.5788262725540385,
                -1.5666810773020559,
                0.753500355180846
            ]
        },
        {
            "positions": [
                -1.059558173082991,
                -1.0576392706114646,
                1.948534289920525,
                1.5033690135481277,
                -1.4806659883540836,
                0.8414857000681656
            ]
        },
        {
            "positions": [
                -1.064856944527115,
                -1.0927226399347119,
                1.9714868944200588,
                1.4279117545422166,
                -1.3946508994061115,
                0.929471044955485
            ]
        },
        {
            "positions": [
                -1.070155715971239,
                -1.1278060092579592,
                1.9944394989195926,
                1.3524544955363058,
                -1.3086358104581395,
                1.0174563898428046
            ]
        },
        {
            "positions": [
                -1.0754544874153629,
                -1.1628893785812064,
                2.0173921034191262,
                1.276997236530395,
                -1.2226207215101672,
                1.1054417347301242
            ]
        },
        {
            "positions": [
                -1.076770466628017,
                -1.1599170691567129,
                2.017090826629976,
                1.1361100165886064,
                -1.1100256498135934,
                1.2414985600317472
            ]
        },
        {
            "positions": [
                -1.0780864458406711,
                -1.156944759732219,
                2.016789549840826,
                0.9952227966468179,
                -0.9974305781170196,
                1.3775553853333702
            ]
        },
        {
            "positions": [
                -1.0794024250533252,
                -1.1539724503077256,
                2.016488273051676,
                0.8543355767050294,
                -0.8848355064204458,
                1.5136122106349932
            ]
        },
        {
            "positions": [
                -1.0807184042659792,
                -1.151000140883232,
                2.016186996262526,
                0.7134483567632408,
                -0.772240434723872,
                1.6496690359366162
            ]
        },
        {
            "positions": [
                -1.0820343834786335,
                -1.1480278314587382,
                2.015885719473376,
                0.5725611368214523,
                -0.6596453630272984,
                1.7857258612382392
            ]
        },
        {
            "positions": [
                -1.0833503626912875,
                -1.1450555220342447,
                2.0155844426842258,
                0.4316739168796637,
                -0.5470502913307245,
                1.9217826865398624
            ]
        },
        {
            "positions": [
                -1.0846663419039415,
                -1.142083212609751,
                2.0152831658950756,
                0.2907866969378752,
                -0.4344552196341508,
                2.057839511841485
            ]
        },
        {
            "positions": [
                -1.0859823211165958,
                -1.1391109031852573,
                2.014981889105926,
                0.14989947699608663,
                -0.321860147937577,
                2.1938963371431086
            ]
        },
        {
            "positions": [
                -1.0872983003292498,
                -1.1361385937607638,
                2.0146806123167758,
                0.00901225705429809,
                -0.20926507624100332,
                2.329953162444731
            ]
        },
        {
            "positions": [
                -1.0886142795419038,
                -1.1331662843362702,
                2.0143793355276256,
                -0.13187496288749045,
                -0.09667000454442953,
                2.4660099877463546
            ]
        },
        {
            "positions": [
                -1.089930258754558,
                -1.1301939749117764,
                2.0140780587384755,
                -0.272762182829279,
                0.015925067152144257,
                2.602066813047977
            ]
        },
        {
            "positions": [
                -1.091246237967212,
                -1.1272216654872829,
                2.0137767819493253,
                -0.41364940277106754,
                0.12852013884871827,
                2.7381236383496006
            ]
        },
        {
            "positions": [
                -1.0925622171798661,
                -1.1242493560627893,
                2.0134755051601756,
                -0.5545366227128561,
                0.24111521054529184,
                2.8741804636512236
            ]
        },
        {
            "positions": [
                -1.0938781963925204,
                -1.1212770466382955,
                2.0131742283710254,
                -0.6954238426546446,
                0.3537102822418656,
                3.0102372889528466
            ]
        },
        {
            "positions": [
                -1.0951941756051744,
                -1.118304737213802,
                2.0128729515818753,
                -0.8363110625964333,
                0.46630535393843947,
                3.1462941142544696
            ]
        }
    ]
}