{
    "goal": {
        "global_pose": {
            "orientation": {
                "w": -0.00223480608172531,
                "x": 0.0024358444001904467,
                "y": 0.7094548369677653,
                "z": -0.704743149386269
            },
            "position": {
                "x": -0.37947507619857795,
                "y": -0.6371506643295288,
                "z": 0.19426114857196808
            }
        },
        "name": "move_to_magneteinheit_C"
    },
    "id": "KPIECE_move_to_magneteinheit_C_13",
    "joint_names": [
        "shoulder_pan_joint",
        "shoulder_lift_joint",
        "elbow_joint",
        "wrist_1_joint",
        "wrist_2_joint",
        "wrist_3_joint"
    ],
    "metrics": {
        "cart_traj_len": 2.4298388486765075,
        "distance_elbow_joint": 1.6266330709381827,
        "distance_shoulder_lift_joint": 1.0279997513178643,
        "distance_shoulder_pan_joint": 2.282186227554028,
        "distance_wrist_1_joint": 1.8291198511802378,
        "distance_wrist_2_joint": 1.8096254289097358,
        "distance_wrist_3_joint": 5.187713224411721,
        "smoothness": 0.734938461161481,
        "time": 0.794000351,
        "traj_len": 3.709889156607212,
        "weighted_distance": 5.27043160312561
    },
    "planner": "KPIECE",
    "start": {
        "state": {
            "elbow_joint": 1.9565354006593851,
            "shoulder_lift_joint": -1.4165861576512813,
            "shoulder_pan_joint": -1.6717766223278752,
            "wrist_1_joint": -0.528663328821883,
            "wrist_2_joint": 1.472756589259273,
            "wrist_3_joint": 3.159348288315503
        }
    },
    "waypoints": [
        {
            "positions": [
                -1.6717766223278752,
                -1.4165861576512813,
                1.9565354006593851,
                -0.528663328821883,
                1.472756589259273,
                3.159348288315503
            ]
        },
        {
            "positions": [
                -1.577845942420211,
                -1.4003818150077927,
                1.9327043039756588,
                -0.5231636089699776,
                1.452413289771454,
                2.925101090254199
            ]
        },
        {
            "positions": [
                -1.4839152625125467,
                -1.3841774723643043,
                1.9088732072919323,
                -0.517663889118072,
                1.4320699902836345,
                2.690853892192895
            ]
        },
        {
            "positions": [
                -1.3899845826048827,
                -1.3679731297208158,
                1.885042110608206,
                -0.5121641692661666,
                1.4117266907958153,
                2.456606694131591
            ]
        },
        {
            "positions": [
                -1.2960539026972184,
                -1.3517687870773274,
                1.8612110139244795,
                -0.506664449414261,
                1.3913833913079958,
                2.222359496070287
            ]
        },
        {
            "positions": [
                -1.2021232227895542,
                -1.3355644444338388,
                1.8373799172407532,
                -0.5011647295623556,
                1.3710400918201766,
                1.988112298008983
            ]
        },
        {
            "positions": [
                -1.123847656199834,
                -1.322060825564265,
                1.8175206700043147,
                -0.49658162968576763,
                1.3540873422469937,
                1.7929062996245628
            ]
        },
        {
            "positions": [
                -1.045572089610114,
                -1.3085572066946913,
                1.797661422767876,
                -0.4919985298091797,
                1.337134592673811,
                1.5977003012401427
            ]
        },
        {
            "positions": [
                -1.0648478573112117,
                -1.3232946507109595,
                1.6972680840912562,
                -0.5392526352484817,
                1.252453985927586,
                1.4879836372162516
            ]
        },
        {
            "positions": [
                -1.0841236250123094,
                -1.3380320947272277,
                1.5968747454146366,
                -0.5865067406877837,
                1.1677733791813614,
                1.3782669731923605
            ]
        },
        {
            "positions": [
                -1.1033993927134074,
                -1.3527695387434957,
                1.4964814067380168,
                -0.6337608461270857,
                1.0830927724351365,
                1.2685503091684693
            ]
        },
        {
            "positions": [
                -1.122675160414505,
                -1.367506982759764,
                1.3960880680613972,
                -0.6810149515663878,
                0.9984121656889117,
                1.158833645144578
            ]
        },
        {
            "positions": [
                -1.1419509281156028,
                -1.382244426776032,
                1.2956947293847774,
                -0.7282690570056898,
                0.9137315589426869,
                1.0491169811206869
            ]
        },
        {
            "positions": [
                -1.2536872476713277,
                -1.398678301329973,
                1.3145311016265333,
                -0.8020383508696136,
                0.8272805398015275,
                0.9806432069617195
            ]
        },
        {
            "positions": [
                -1.3654235672270527,
                -1.415112175883914,
                1.3333674738682892,
                -0.8758076447335373,
                0.7408295206603682,
                0.912169432802752
            ]
        },
        {
            "positions": [
                -1.4771598867827778,
                -1.4315460504378552,
                1.352203846110045,
                -0.9495769385974612,
                0.6543785015192088,
                0.8436956586437845
            ]
        },
        {
            "positions": [
                -1.5888962063385026,
                -1.4479799249917962,
                1.371040218351801,
                -1.023346232461385,
                0.5679274823780496,
                0.7752218844848171
            ]
        },
        {
            "positions": [
                -1.7006325258942274,
                -1.4644137995457371,
                1.3898765905935568,
                -1.0971155263253087,
                0.48147646323689014,
                0.7067481103258497
            ]
        },
        {
            "positions": [
                -1.8123688454499525,
                -1.480847674099678,
                1.4087129628353128,
                -1.1708848201892326,
                0.3950254440957308,
                0.6382743361668822
            ]
        },
        {
            "positions": [
                -1.9084497874301238,
                -1.5045692604387366,
                1.512408205749879,
                -1.2476995162932056,
                0.3783610723912448,
                0.6206048849634648
            ]
        },
        {
            "positions": [
                -2.004530729410295,
                -1.5282908467777951,
                1.6161034486644454,
                -1.3245142123971785,
                0.36169670068675874,
                0.6029354337600473
            ]
        },
        {
            "positions": [
                -2.1006116713904666,
                -1.5520124331168537,
                1.7197986915790116,
                -1.4013289085011515,
                0.34503232898227276,
                0.5852659825566298
            ]
        },
        {
            "positions": [
                -2.196692613370638,
                -1.5757340194559122,
                1.8234939344935779,
                -1.4781436046051244,
                0.3283679572777867,
                0.5675965313532123
            ]
        },
        {
            "positions": [
                -2.2927735553508093,
                -1.5994556057949707,
                1.9271891774081442,
                -1.5549583007090975,
                0.3117035855733007,
                0.5499270801497949
            ]
        },
        {
            "positions": [
                -2.4005166344011504,
                -1.5606311677106306,
                1.964119807074412,
                -1.480798409730662,
                0.2521917606360715,
                0.6237244236736561
            ]
        },
        {
            "positions": [
                -2.5082597134514915,
                -1.5218067296262905,
                2.0010504367406794,
                -1.4066385187522263,
                0.1926799356988424,
                0.6975217671975175
            ]
        },
        {
            "positions": [
                -2.502539034758863,
                -1.619239008045779,
                2.136047217230905,
                -1.3930868581821754,
                0.17457054270696765,
                0.725538260155156
            ]
        },
        {
            "positions": [
                -2.5137746433090826,
                -1.5768127187282508,
                2.131681327920844,
                -1.3490179280686667,
                0.2161337145680076,
                0.9252696724397083
            ]
        },
        {
            "positions": [
                -2.525010251859302,
                -1.5343864294107228,
                2.1273154386107835,
                -1.3049489979551583,
                0.25769688642904753,
                1.1250010847242604
            ]
        },
        {
            "positions": [
                -2.5362458604095215,
                -1.4919601400931946,
                2.122949549300723,
                -1.2608800678416496,
                0.2992600582900875,
                1.3247324970088126
            ]
        },
        {
            "positions": [
                -2.5474814689597407,
                -1.4495338507756665,
                2.118583659990662,
                -1.2168111377281412,
                0.3408232301511274,
                1.524463909293365
            ]
        },
        {
            "positions": [
                -2.5587170775099604,
                -1.4071075614581383,
                2.114217770680601,
                -1.1727422076146325,
                0.3823864020121674,
                1.724195321577917
            ]
        },
        {
            "positions": [
                -2.5699526860601796,
                -1.3646812721406103,
                2.1098518813705405,
                -1.1286732775011241,
                0.4239495738732073,
                1.9239267338624693
            ]
        },
        {
            "positions": [
                -2.5811882946103992,
                -1.322254982823082,
                2.10548599206048,
                -1.0846043473876155,
                0.4655127457342473,
                2.1236581461470214
            ]
        },
        {
            "positions": [
                -2.559403468120254,
                -1.2908535385330562,
                2.0865102547310754,
                -1.0327760817983886,
                0.5096121816002774,
                2.3245703361967784
            ]
        },
        {
            "positions": [
                -2.537618641630109,
                -1.2594520942430303,
                2.067534517401671,
                -0.9809478162091617,
                0.5537116174663077,
                2.525482526246536
            ]
        },
        {
            "positions": [
                -2.5158338151399646,
                -1.2280506499530046,
                2.048558780072266,
                -0.9291195506199348,
                0.5978110533323377,
                2.726394716296293
            ]
        },
        {
            "positions": [
                -2.4940489886498196,
                -1.1966492056629787,
                2.029583042742862,
                -0.877291285030708,
                0.641910489198368,
                2.9273069063460504
            ]
        },
        {
            "positions": [
                -2.4722641621596746,
                -1.1652477613729528,
                2.0106073054134574,
                -0.825463019441481,
                0.6860099250643982,
                3.1282190963958074
            ]
        }
    ]
}