{
    "goal": {
        "global_pose": {
            "orientation": {
                "w": 0.7031023480610252,
                "x": -0.7110244013736278,
                "y": 0.0077485991402295624,
                "z": 0.005598929693374583
            },
            "position": {
                "x": -0.8841497679147869,
                "y": 0.44412534475326537,
                "z": 0.3711530566215515
            }
        },
        "name": "move_to_auspresseinheit_D"
    },
    "id": "KPIECE_move_to_auspresseinheit_D_108",
    "joint_names": [
        "shoulder_pan_joint",
        "shoulder_lift_joint",
        "elbow_joint",
        "wrist_1_joint",
        "wrist_2_joint",
        "wrist_3_joint"
    ],
    "metrics": {
        "cart_traj_len": 0.34198315469181967,
        "distance_elbow_joint": 0.6264825337992335,
        "distance_shoulder_lift_joint": 0.11464488456120803,
        "distance_shoulder_pan_joint": 0.13310896975904976,
        "distance_wrist_1_joint": 0.4996172028719492,
        "distance_wrist_2_joint": 1.4315995789597153,
        "distance_wrist_3_joint": 0.02104885345398877,
        "smoothness": 9.868649106494575e-16,
        "time": 0.077255061,
        "traj_len": 1.68122039703459,
        "weighted_distance": 2.1908483544382498
    },
    "planner": "KPIECE",
    "start": {
        "state": {
            "elbow_joint": -1.8275484843655228,
            "shoulder_lift_joint": -2.1267897864000416,
            "shoulder_pan_joint": -0.035127520176001514,
            "wrist_1_joint": -2.3477863256791385,
            "wrist_2_joint": -1.605890476484521,
            "wrist_3_joint": -3.0880375317375353
        }
    },
    "waypoints": [
        {
            "positions": [
                -0.035127520176001514,
                -2.1267897864000416,
                -1.8275484843655228,
                -2.3477863256791385,
                -1.605890476484521,
                -3.0880375317375353
            ]
        },
        {
            "positions": [
                -0.05176614139588273,
                -2.1411203969701926,
                -1.7492381676406186,
                -2.410238476038132,
                -1.4269405291145565,
                -3.0906686384192836
            ]
        },
        {
            "positions": [
                -0.06840476261576395,
                -2.1554510075403437,
                -1.6709278509157144,
                -2.472690626397126,
                -1.2479905817445922,
                -3.0932997451010324
            ]
        },
        {
            "positions": [
                -0.08504338383564518,
                -2.1697816181104947,
                -1.5926175341908102,
                -2.5351427767561194,
                -1.0690406343746277,
                -3.0959308517827813
            ]
        },
        {
            "positions": [
                -0.1016820050555264,
                -2.184112228680646,
                -1.514307217465906,
                -2.597594927115113,
                -0.8900906870046633,
                -3.0985619584645296
            ]
        },
        {
            "positions": [
                -0.11832062627540761,
                -2.1984428392507964,
                -1.4359969007410018,
                -2.6600470774741067,
                -0.7111407396346989,
                -3.101193065146278
            ]
        },
        {
            "positions": [
                -0.13495924749528884,
                -2.2127734498209475,
                -1.3576865840160977,
                -2.7224992278331004,
                -0.5321907922647344,
                -3.103824171828027
            ]
        },
        {
            "positions": [
                -0.15159786871517006,
                -2.2271040603910985,
                -1.2793762672911935,
                -2.784951378192094,
                -0.35324084489477015,
                -3.1064552785097757
            ]
        },
        {
            "positions": [
                -0.16823648993505128,
                -2.2414346709612496,
                -1.2010659505662893,
                -2.8474035285510877,
                -0.17429089752480567,
                -3.109086385191524
            ]
        }
    ]
}