{
    "goal": {
        "global_pose": {
            "orientation": {
                "w": 0.005598929693374612,
                "x": 0.007748599140229565,
                "y": 0.7110244013736278,
                "z": -0.7031023480610252
            },
            "position": {
                "x": 0.1141497679147869,
                "y": -0.7141253447532654,
                "z": 0.3711530566215515
            }
        },
        "name": "move_to_auspresseinheit_B"
    },
    "id": "KPIECE_move_to_auspresseinheit_B_111",
    "joint_names": [
        "shoulder_pan_joint",
        "shoulder_lift_joint",
        "elbow_joint",
        "wrist_1_joint",
        "wrist_2_joint",
        "wrist_3_joint"
    ],
    "metrics": {
        "cart_traj_len": 0.5645294826042169,
        "distance_elbow_joint": 0.06434595445326319,
        "distance_shoulder_lift_joint": 0.29362638743567016,
        "distance_shoulder_pan_joint": 0.5749140574570408,
        "distance_wrist_1_joint": 0.32870722517570916,
        "distance_wrist_2_joint": 1.0012399757509736,
        "distance_wrist_3_joint": 0.00655043275162992,
        "smoothness": 2.5376526478085547e-16,
        "time": 0.12396357799999999,
        "traj_len": 1.5064474876424625,
        "weighted_distance": 1.9006399184101732
    },
    "planner": "KPIECE",
    "start": {
        "state": {
            "elbow_joint": 2.0193061681459312,
            "shoulder_lift_joint": -1.1220205130644991,
            "shoulder_pan_joint": -1.0952072088045026,
            "wrist_1_joint": -0.8559671810662515,
            "wrist_2_joint": 0.4759638712940361,
            "wrist_3_joint": 3.159081874192446
        }
    },
    "waypoints": [
        {
            "positions": [
                -1.0952072088045026,
                -1.1220205130644991,
                2.0193061681459312,
                -0.8559671810662515,
                0.4759638712940361,
                3.159081874192446
            ]
        },
        {
            "positions": [
                -1.1910262183806761,
                -1.1709582443037774,
                2.0085818424037205,
                -0.8011826435369667,
                0.642837200585865,
                3.1579901354005075
            ]
        },
        {
            "positions": [
                -1.2868452279568496,
                -1.2198959755430558,
                1.9978575166615102,
                -0.7463981060076817,
                0.8097105298776939,
                3.1568983966085695
            ]
        },
        {
            "positions": [
                -1.3826642375330231,
                -1.2688337067823343,
                1.9871331909192995,
                -0.6916135684783968,
                0.9765838591695228,
                3.155806657816631
            ]
        },
        {
            "positions": [
                -1.4784832471091964,
                -1.3177714380216126,
                1.976408865177089,
                -0.636829030949112,
                1.1434571884613518,
                3.1547149190246926
            ]
        },
        {
            "positions": [
                -1.57430225668537,
                -1.3667091692608908,
                1.9656845394348785,
                -0.5820444934198272,
                1.3103305177531808,
                3.1536231802327546
            ]
        },
        {
            "positions": [
                -1.6701212662615434,
                -1.4156469005001693,
                1.954960213692668,
                -0.5272599558905423,
                1.4772038470450097,
                3.152531441440816
            ]
        }
    ]
}