{
    "goal": {
        "global_pose": {
            "orientation": {
                "w": 0.7047431468963623,
                "x": -0.7094548344612122,
                "y": 0.0024358443915843964,
                "z": -0.0022348060738295317
            },
            "position": {
                "x": 0.6094750761985779,
                "y": 0.3671506643295288,
                "z": 0.19426114857196808
            }
        },
        "name": "move_to_magneteinheit_A"
    },
    "id": "KPIECE_move_to_magneteinheit_A_30",
    "joint_names": [
        "shoulder_pan_joint",
        "shoulder_lift_joint",
        "elbow_joint",
        "wrist_1_joint",
        "wrist_2_joint",
        "wrist_3_joint"
    ],
    "metrics": {
        "cart_traj_len": 1.9592091729018346,
        "distance_elbow_joint": 3.559701587415905,
        "distance_shoulder_lift_joint": 0.781228489245041,
        "distance_shoulder_pan_joint": 1.2422287720864043,
        "distance_wrist_1_joint": 1.2314235980693016,
        "distance_wrist_2_joint": 1.4461257838874173,
        "distance_wrist_3_joint": 2.054025544294317,
        "smoothness": 2.537652629914275e-16,
        "time": 0.195013505,
        "traj_len": 3.2116559241298535,
        "weighted_distance": 4.135255039963526
    },
    "planner": "KPIECE",
    "start": {
        "state": {
            "elbow_joint": -1.5739458827952972,
            "shoulder_lift_joint": 0.006533473998580023,
            "shoulder_pan_joint": -1.1188671628667068,
            "wrist_1_joint": 3.138208179676308,
            "wrist_2_joint": -1.5706037135050406,
            "wrist_3_joint": -2.0226958329764257
        }
    },
    "waypoints": [
        {
            "positions": [
                -1.1188671628667068,
                0.006533473998580023,
                -1.5739458827952972,
                3.138208179676308,
                -1.5706037135050406,
                -2.0226958329764257
            ]
        },
        {
            "positions": [
                -1.0728586898264696,
                -0.02240091449197705,
                -1.4421050832613749,
                3.092599898266334,
                -1.5170434992869881,
                -1.946620812817377
            ]
        },
        {
            "positions": [
                -1.0268502167862326,
                -0.05133530298253412,
                -1.3102642837274525,
                3.04699161685636,
                -1.4634832850689357,
                -1.8705457926583282
            ]
        },
        {
            "positions": [
                -0.9808417437459953,
                -0.0802696914730912,
                -1.1784234841935302,
                3.001383335446386,
                -1.4099230708508832,
                -1.7944707724992794
            ]
        },
        {
            "positions": [
                -0.9348332707057581,
                -0.10920407996364827,
                -1.0465826846596076,
                2.955775054036412,
                -1.3563628566328307,
                -1.7183957523402307
            ]
        },
        {
            "positions": [
                -0.8888247976655209,
                -0.13813846845420533,
                -0.9147418851256852,
                2.9101667726264377,
                -1.302802642414778,
                -1.642320732181182
            ]
        },
        {
            "positions": [
                -0.8428163246252837,
                -0.1670728569447624,
                -0.7829010855917629,
                2.864558491216463,
                -1.2492424281967256,
                -1.5662457120221331
            ]
        },
        {
            "positions": [
                -0.7968078515850465,
                -0.19600724543531947,
                -0.6510602860578405,
                2.818950209806489,
                -1.1956822139786731,
                -1.4901706918630844
            ]
        },
        {
            "positions": [
                -0.7507993785448093,
                -0.22494163392587654,
                -0.5192194865239181,
                2.773341928396515,
                -1.1421219997606207,
                -1.4140956717040356
            ]
        },
        {
            "positions": [
                -0.7047909055045721,
                -0.25387602241643364,
                -0.3873786869899958,
                2.727733646986541,
                -1.0885617855425682,
                -1.3380206515449868
            ]
        },
        {
            "positions": [
                -0.658782432464335,
                -0.2828104109069907,
                -0.2555378874560732,
                2.682125365576567,
                -1.0350015713245155,
                -1.261945631385938
            ]
        },
        {
            "positions": [
                -0.6127739594240977,
                -0.3117447993975478,
                -0.12369708792215084,
                2.636517084166593,
                -0.9814413571064632,
                -1.1858706112268893
            ]
        },
        {
            "positions": [
                -0.5667654863838605,
                -0.34067918788810486,
                0.00814371161177152,
                2.5909088027566187,
                -0.9278811428884107,
                -1.1097955910678405
            ]
        },
        {
            "positions": [
                -0.5207570133436233,
                -0.36961357637866193,
                0.13998451114569388,
                2.5453005213466446,
                -0.8743209286703582,
                -1.0337205709087918
            ]
        },
        {
            "positions": [
                -0.4747485403033862,
                -0.398547964869219,
                0.27182531067961624,
                2.49969223993667,
                -0.8207607144523057,
                -0.957645550749743
            ]
        },
        {
            "positions": [
                -0.42874006726314895,
                -0.4274823533597761,
                0.4036661102135388,
                2.454083958526696,
                -0.7672005002342531,
                -0.881570530590694
            ]
        },
        {
            "positions": [
                -0.3827315942229118,
                -0.45641674185033315,
                0.535506909747461,
                2.408475677116722,
                -0.7136402860162008,
                -0.8054955104316455
            ]
        },
        {
            "positions": [
                -0.33672312118267456,
                -0.4853511303408902,
                0.6673477092813835,
                2.362867395706748,
                -0.6600800717981482,
                -0.7294204902725965
            ]
        },
        {
            "positions": [
                -0.2907146481424374,
                -0.5142855188314472,
                0.7991885088153057,
                2.317259114296774,
                -0.6065198575800957,
                -0.6533454701135479
            ]
        },
        {
            "positions": [
                -0.24470617510220016,
                -0.5432199073220043,
                0.9310293083492283,
                2.2716508328867997,
                -0.5529596433620432,
                -0.5772704499544989
            ]
        },
        {
            "positions": [
                -0.19869770206196302,
                -0.5721542958125614,
                1.0628701078831508,
                2.2260425514768256,
                -0.4993994291439907,
                -0.5011954297954504
            ]
        },
        {
            "positions": [
                -0.15268922902172577,
                -0.6010886843031185,
                1.1947109074170734,
                2.1804342700668515,
                -0.44583921492593825,
                -0.4251204096364014
            ]
        },
        {
            "positions": [
                -0.10668075598148863,
                -0.6300230727936755,
                1.3265517069509956,
                2.1348259886568774,
                -0.3922790007078858,
                -0.34904538947735286
            ]
        },
        {
            "positions": [
                -0.060672282941251376,
                -0.6589574612842326,
                1.4583925064849181,
                2.0892177072469034,
                -0.33871878648983333,
                -0.2729703693183039
            ]
        },
        {
            "positions": [
                -0.014663809901014124,
                -0.6878918497747897,
                1.5902333060188403,
                2.0436094258369293,
                -0.2851585722717809,
                -0.19689534915925533
            ]
        },
        {
            "positions": [
                0.03134466313922313,
                -0.7168262382653467,
                1.7220741055527629,
                1.9980011444269548,
                -0.2315983580537282,
                -0.12082032900020634
            ]
        },
        {
            "positions": [
                0.07735313617946016,
                -0.7457606267559038,
                1.853914905086685,
                1.952392863016981,
                -0.17803814383567573,
                -0.044745308841157794
            ]
        },
        {
            "positions": [
                0.12336160921969731,
                -0.7746950152464609,
                1.9857557046206074,
                1.9067845816070066,
                -0.12447792961762327,
                0.031329711317891105
            ]
        }
    ]
}