{
    "goal": {
        "global_pose": {
            "orientation": {
                "w": -0.00223480608172531,
                "x": 0.0024358444001904467,
                "y": 0.7094548369677653,
                "z": -0.704743149386269
            },
            "position": {
                "x": -0.37947507619857795,
                "y": -0.6371506643295288,
                "z": 0.19426114857196808
            }
        },
        "name": "move_to_magneteinheit_C"
    },
    "id": "KPIECE_move_to_magneteinheit_C_20",
    "joint_names": [
        "shoulder_pan_joint",
        "shoulder_lift_joint",
        "elbow_joint",
        "wrist_1_joint",
        "wrist_2_joint",
        "wrist_3_joint"
    ],
    "metrics": {
        "cart_traj_len": 0.6214302448742887,
        "distance_elbow_joint": 0.4888576502502924,
        "distance_shoulder_lift_joint": 0.730581531133206,
        "distance_shoulder_pan_joint": 0.8013196380337388,
        "distance_wrist_1_joint": 0.29847531672943883,
        "distance_wrist_2_joint": 0.7959780761131048,
        "distance_wrist_3_joint": 3.2667942631622275,
        "smoothness": 0.9350032939034721,
        "time": 1.205180092,
        "traj_len": 2.5262633424530403,
        "weighted_distance": 3.7429999191275716
    },
    "planner": "KPIECE",
    "start": {
        "state": {
            "elbow_joint": 1.9565354006593851,
            "shoulder_lift_joint": -1.4165861576512813,
            "shoulder_pan_joint": -1.6717766223278752,
            "wrist_1_joint": -0.528663328821883,
            "wrist_2_joint": 1.472756589259273,
            "wrist_3_joint": 3.159348288315503
        }
    },
    "waypoints": [
        {
            "positions": [
                -1.6717766223278752,
                -1.4165861576512813,
                1.9565354006593851,
                -0.528663328821883,
                1.472756589259273,
                3.159348288315503
            ]
        },
        {
            "positions": [
                -1.7258325931861276,
                -1.4431877613713873,
                1.9865494479270833,
                -0.5550803541794997,
                1.436293158083599,
                2.975499950324811
            ]
        },
        {
            "positions": [
                -1.7798885640443798,
                -1.4697893650914933,
                2.0165634951947813,
                -0.5814973795371164,
                1.399829726907925,
                2.791651612334119
            ]
        },
        {
            "positions": [
                -1.8339445349026322,
                -1.496390968811599,
                2.0465775424624795,
                -0.6079144048947333,
                1.3633662957322508,
                2.6078032743434267
            ]
        },
        {
            "positions": [
                -1.8880005057608846,
                -1.522992572531705,
                2.0765915897301777,
                -0.63433143025235,
                1.3269028645565766,
                2.4239549363527346
            ]
        },
        {
            "positions": [
                -1.942056476619137,
                -1.549594176251811,
                2.106605636997876,
                -0.6607484556099666,
                1.2904394333809026,
                2.2401065983620425
            ]
        },
        {
            "positions": [
                -1.9961124474773893,
                -1.576195779971917,
                2.136619684265574,
                -0.6871654809675833,
                1.2539760022052284,
                2.0562582603713504
            ]
        },
        {
            "positions": [
                -2.0501684183356415,
                -1.6027973836920228,
                2.166633731533272,
                -0.7135825063252001,
                1.2175125710295542,
                1.872409922380658
            ]
        },
        {
            "positions": [
                -2.104224389193894,
                -1.6293989874121289,
                2.1966477788009704,
                -0.7399995316828168,
                1.1810491398538803,
                1.688561584389966
            ]
        },
        {
            "positions": [
                -2.1582803600521463,
                -1.6560005911322349,
                2.2266618260686686,
                -0.7664165570404335,
                1.144585708678206,
                1.5047132463992738
            ]
        },
        {
            "positions": [
                -2.2572699398634226,
                -1.6152199179081315,
                2.2276788510724526,
                -0.7657477096373874,
                1.131808033497371,
                1.6352518628308346
            ]
        },
        {
            "positions": [
                -2.315684207087156,
                -1.5671719956435572,
                2.213858454517573,
                -0.770364879592477,
                1.0960591062611214,
                1.7928801285805145
            ]
        },
        {
            "positions": [
                -2.3740984743108897,
                -1.5191240733789828,
                2.2000380579626935,
                -0.7749820495475666,
                1.0603101790248715,
                1.9505083943301944
            ]
        },
        {
            "positions": [
                -2.432512741534623,
                -1.4710761511144086,
                2.186217661407814,
                -0.7795992195026562,
                1.0245612517886218,
                2.1081366600798743
            ]
        },
        {
            "positions": [
                -2.4406294453000212,
                -1.4098276195875235,
                2.1509670593732966,
                -0.7888395657511709,
                0.955004704060131,
                2.309883821592954
            ]
        },
        {
            "positions": [
                -2.4487461490654194,
                -1.348579088060638,
                2.115716457338779,
                -0.7980799119996855,
                0.8854481563316404,
                2.5116309831060333
            ]
        },
        {
            "positions": [
                -2.4568628528308176,
                -1.287330556533753,
                2.0804658553042623,
                -0.8073202582482002,
                0.8158916086031497,
                2.7133781446191128
            ]
        },
        {
            "positions": [
                -2.464979556596216,
                -1.2260820250068676,
                2.045215253269745,
                -0.8165606044967149,
                0.7463350608746591,
                2.9151253061321927
            ]
        },
        {
            "positions": [
                -2.473096260361614,
                -1.1648334934799824,
                2.0099646512352276,
                -0.8258009507452295,
                0.6767785131461683,
                3.116872467645272
            ]
        }
    ]
}