{
    "goal": {
        "global_pose": {
            "orientation": {
                "w": 0.7031023480610252,
                "x": -0.7110244013736278,
                "y": 0.0077485991402295624,
                "z": 0.005598929693374583
            },
            "position": {
                "x": -0.8841497679147869,
                "y": 0.44412534475326537,
                "z": 0.3711530566215515
            }
        },
        "name": "move_to_auspresseinheit_D"
    },
    "id": "KPIECE_move_to_auspresseinheit_D_47",
    "joint_names": [
        "shoulder_pan_joint",
        "shoulder_lift_joint",
        "elbow_joint",
        "wrist_1_joint",
        "wrist_2_joint",
        "wrist_3_joint"
    ],
    "metrics": {
        "cart_traj_len": 0.34339871962276897,
        "distance_elbow_joint": 0.6469555367445325,
        "distance_shoulder_lift_joint": 0.12591684686312243,
        "distance_shoulder_pan_joint": 0.13346023624977738,
        "distance_wrist_1_joint": 0.559087064704296,
        "distance_wrist_2_joint": 1.446278310066923,
        "distance_wrist_3_joint": 0.030724121149266814,
        "smoothness": 5.921189511553294e-16,
        "time": 0.127175868,
        "traj_len": 1.7153489778403455,
        "weighted_distance": 2.238132197357357
    },
    "planner": "KPIECE",
    "start": {
        "state": {
            "elbow_joint": -1.8275484843655228,
            "shoulder_lift_joint": -2.1267897864000416,
            "shoulder_pan_joint": -0.035127520176001514,
            "wrist_1_joint": -2.3477863256791385,
            "wrist_2_joint": -1.605890476484521,
            "wrist_3_joint": -3.0880375317375353
        }
    },
    "waypoints": [
        {
            "positions": [
                -0.035127520176001514,
                -2.1267897864000416,
                -1.8275484843655228,
                -2.3477863256791385,
                -1.605890476484521,
                -3.0880375317375353
            ]
        },
        {
            "positions": [
                -0.051810049707223686,
                -2.142529392257932,
                -1.746679042272456,
                -2.4176722087671756,
                -1.4251056877261556,
                -3.084197016593877
            ]
        },
        {
            "positions": [
                -0.06849257923844586,
                -2.158268998115822,
                -1.6658096001793896,
                -2.4875580918552123,
                -1.2443208989677903,
                -3.0803565014502183
            ]
        },
        {
            "positions": [
                -0.08517510876966802,
                -2.1740086039737125,
                -1.5849401580863232,
                -2.5574439749432494,
                -1.0635361102094247,
                -3.07651598630656
            ]
        },
        {
            "positions": [
                -0.1018576383008902,
                -2.1897482098316026,
                -1.5040707159932565,
                -2.6273298580312865,
                -0.8827513214510595,
                -3.072675471162902
            ]
        },
        {
            "positions": [
                -0.11854016783211238,
                -2.205487815689493,
                -1.4232012739001898,
                -2.6972157411193236,
                -0.7019665326926942,
                -3.0688349560192436
            ]
        },
        {
            "positions": [
                -0.13522269736333453,
                -2.2212274215473835,
                -1.3423318318071233,
                -2.7671016242073607,
                -0.5211817439343287,
                -3.0649944408755854
            ]
        },
        {
            "positions": [
                -0.1519052268945567,
                -2.2369670274052735,
                -1.2614623897140569,
                -2.8369875072953974,
                -0.34039695517596336,
                -3.0611539257319267
            ]
        },
        {
            "positions": [
                -0.1685877564257789,
                -2.252706633263164,
                -1.1805929476209902,
                -2.9068733903834345,
                -0.15961216641759798,
                -3.0573134105882684
            ]
        }
    ]
}