{
    "goal": {
        "global_pose": {
            "orientation": {
                "w": 0.5084816262002911,
                "x": -0.4908360881923452,
                "y": 0.5182115481033761,
                "z": -0.48164630358495003
            },
            "position": {
                "x": 0.5540239810943604,
                "y": -0.46912469901144505,
                "z": 0.16403168439865112
            }
        },
        "name": "move_to_storage_B"
    },
    "id": "KPIECE_move_to_storage_B_126",
    "joint_names": [
        "shoulder_pan_joint",
        "shoulder_lift_joint",
        "elbow_joint",
        "wrist_1_joint",
        "wrist_2_joint",
        "wrist_3_joint"
    ],
    "metrics": {
        "cart_traj_len": 1.1648409474927588,
        "distance_elbow_joint": 0.4843393158778502,
        "distance_shoulder_lift_joint": 0.45857820597722676,
        "distance_shoulder_pan_joint": 0.8747269276715719,
        "distance_wrist_1_joint": 2.9768370575324146,
        "distance_wrist_2_joint": 2.715145420624656,
        "distance_wrist_3_joint": 3.1262160237787673,
        "smoothness": 0.11655785960541551,
        "time": 0.140298861,
        "traj_len": 3.261264011309493,
        "weighted_distance": 4.75186884048551
    },
    "planner": "KPIECE",
    "start": {
        "state": {
            "elbow_joint": 1.6649325340416963,
            "shoulder_lift_joint": -0.6616387945129425,
            "shoulder_pan_joint": -0.9139837929255878,
            "wrist_1_joint": 2.1467571094334352,
            "wrist_2_joint": -2.234195976750228,
            "wrist_3_joint": 0.005470921511140723
        }
    },
    "waypoints": [
        {
            "positions": [
                -0.9139837929255878,
                -0.6616387945129425,
                1.6649325340416963,
                2.1467571094334352,
                -2.234195976750228,
                0.005470921511140723
            ]
        },
        {
            "positions": [
                -0.8444656150247078,
                -0.7309238696897248,
                1.65130852794664,
                2.146754877434806,
                -2.1044451472177172,
                0.04255476800920063
            ]
        },
        {
            "positions": [
                -0.7749474371238277,
                -0.8002089448665071,
                1.6376845218515836,
                2.1467526454361767,
                -1.974694317685206,
                0.07963861450726054
            ]
        },
        {
            "positions": [
                -0.7054292592229477,
                -0.8694940200432895,
                1.6240605157565275,
                2.1467504134375477,
                -1.8449434881526954,
                0.11672246100532044
            ]
        },
        {
            "positions": [
                -0.6359110813220676,
                -0.9387790952200717,
                1.6104365096614712,
                2.146748181438918,
                -1.7151926586201842,
                0.15380630750338037
            ]
        },
        {
            "positions": [
                -0.5663929034211876,
                -1.008064170396854,
                1.596812503566415,
                2.146745949440289,
                -1.5854418290876735,
                0.19089015400144027
            ]
        },
        {
            "positions": [
                -0.589311861602369,
                -1.0129403804009112,
                1.614908994236092,
                2.0173187365037992,
                -1.4955987302632343,
                0.31875088405746055
            ]
        },
        {
            "positions": [
                -0.6122308197835504,
                -1.0178165904049683,
                1.6330054849057687,
                1.8878915235673093,
                -1.4057556314387951,
                0.4466116141134809
            ]
        },
        {
            "positions": [
                -0.6351497779647318,
                -1.0226928004090257,
                1.6511019755754457,
                1.7584643106308193,
                -1.315912532614356,
                0.5744723441695012
            ]
        },
        {
            "positions": [
                -0.6580687361459132,
                -1.0275690104130828,
                1.6691984662451225,
                1.6290370976943294,
                -1.2260694337899167,
                0.7023330742255215
            ]
        },
        {
            "positions": [
                -0.6809876943270945,
                -1.03244522041714,
                1.6872949569147995,
                1.4996098847578394,
                -1.1362263349654773,
                0.8301938042815419
            ]
        },
        {
            "positions": [
                -0.7039066525082759,
                -1.037321430421197,
                1.7053914475844762,
                1.3701826718213495,
                -1.0463832361410383,
                0.9580545343375622
            ]
        },
        {
            "positions": [
                -0.7268256106894573,
                -1.0421976404252544,
                1.7234879382541533,
                1.2407554588848595,
                -0.9565401373165989,
                1.0859152643935825
            ]
        },
        {
            "positions": [
                -0.7497445688706387,
                -1.0470738504293116,
                1.7415844289238303,
                1.1113282459483698,
                -0.8666970384921597,
                1.2137759944496027
            ]
        },
        {
            "positions": [
                -0.7726635270518201,
                -1.0519500604333687,
                1.759680919593507,
                0.9819010330118798,
                -0.7768539396677204,
                1.341636724505623
            ]
        },
        {
            "positions": [
                -0.7955824852330015,
                -1.0568262704374258,
                1.777777410263184,
                0.8524738200753899,
                -0.6870108408432813,
                1.4694974545616435
            ]
        },
        {
            "positions": [
                -0.8185014434141828,
                -1.061702480441483,
                1.7958739009328608,
                0.7230466071388999,
                -0.597167742018842,
                1.5973581846176639
            ]
        },
        {
            "positions": [
                -0.8414204015953641,
                -1.0665786904455403,
                1.8139703916025378,
                0.59361939420241,
                -0.507324643194403,
                1.725218914673684
            ]
        },
        {
            "positions": [
                -0.8643393597765455,
                -1.0714549004495975,
                1.8320668822722146,
                0.4641921812659202,
                -0.41748154436996376,
                1.8530796447297042
            ]
        },
        {
            "positions": [
                -0.8872583179577269,
                -1.0763311104536546,
                1.8501633729418916,
                0.33476496832943003,
                -0.32763844554552435,
                1.9809403747857248
            ]
        },
        {
            "positions": [
                -0.9101772761389083,
                -1.0812073204577117,
                1.8682598636115686,
                0.20533775539294008,
                -0.23779534672108515,
                2.108801104841745
            ]
        },
        {
            "positions": [
                -0.9330962343200897,
                -1.0860835304617689,
                1.8863563542812454,
                0.07591054245645035,
                -0.14795224789664596,
                2.236661834897765
            ]
        },
        {
            "positions": [
                -0.956015192501271,
                -1.0909597404658262,
                1.9044528449509222,
                -0.05351667048003961,
                -0.05810914907220677,
                2.364522564953786
            ]
        },
        {
            "positions": [
                -0.9789341506824525,
                -1.0958359504698834,
                1.9225493356205992,
                -0.18294388341652956,
                0.03173394975223265,
                2.492383295009806
            ]
        },
        {
            "positions": [
                -1.0018531088636338,
                -1.1007121604739405,
                1.9406458262902762,
                -0.3123710963530195,
                0.12157704857667184,
                2.6202440250658263
            ]
        },
        {
            "positions": [
                -1.0247720670448153,
                -1.1055883704779976,
                1.958742316959953,
                -0.44179830928950947,
                0.21142014740111081,
                2.7481047551218465
            ]
        },
        {
            "positions": [
                -1.0476910252259966,
                -1.110464580482055,
                1.97683880762963,
                -0.5712255222259994,
                0.30126324622555,
                2.8759654851778667
            ]
        },
        {
            "positions": [
                -1.070609983407178,
                -1.1153407904861121,
                1.994935298299307,
                -0.7006527351624894,
                0.3911063450499894,
                3.0038262152338877
            ]
        },
        {
            "positions": [
                -1.0935289415883593,
                -1.1202170004901693,
                2.0130317889689837,
                -0.8300799480989794,
                0.48094944387442856,
                3.131686945289908
            ]
        }
    ]
}