{
    "goal": {
        "global_pose": {
            "orientation": {
                "w": 0.7047431493862688,
                "x": -0.7094548369677653,
                "y": 0.0024358444001904,
                "z": -0.0022348060817251984
            },
            "position": {
                "x": -0.39052492380142206,
                "y": 0.3671506643295288,
                "z": 0.19426114857196808
            }
        },
        "name": "move_to_magneteinheit_D"
    },
    "id": "KPIECE_move_to_magneteinheit_D_132",
    "joint_names": [
        "shoulder_pan_joint",
        "shoulder_lift_joint",
        "elbow_joint",
        "wrist_1_joint",
        "wrist_2_joint",
        "wrist_3_joint"
    ],
    "metrics": {
        "cart_traj_len": 4.183630234056456,
        "distance_elbow_joint": 3.4073285783332032,
        "distance_shoulder_lift_joint": 1.094440426817223,
        "distance_shoulder_pan_joint": 2.7847665792399305,
        "distance_wrist_1_joint": 2.667705986841155,
        "distance_wrist_2_joint": 1.5719156530625065,
        "distance_wrist_3_joint": 2.3443806775047666,
        "smoothness": 0.5748079592045887,
        "time": 0.167533937,
        "traj_len": 3.7243171054300395,
        "weighted_distance": 4.774821556530881
    },
    "planner": "KPIECE",
    "start": {
        "state": {
            "elbow_joint": 0.7495348899011911,
            "shoulder_lift_joint": -0.6476975780737668,
            "shoulder_pan_joint": -2.711696901376276,
            "wrist_1_joint": -0.0750647808097303,
            "wrist_2_joint": 0.43296659715458535,
            "wrist_3_joint": 3.1361499051832418
        }
    },
    "waypoints": [
        {
            "positions": [
                -2.711696901376276,
                -0.6476975780737668,
                0.7495348899011911,
                -0.0750647808097303,
                0.43296659715458535,
                3.1361499051832418
            ]
        },
        {
            "positions": [
                -2.706065765369276,
                -0.7347269560054853,
                0.7860229211327128,
                -0.0023299515562280604,
                0.5229388036217157,
                3.074321576581694
            ]
        },
        {
            "positions": [
                -2.7004346293622756,
                -0.8217563339372038,
                0.8225109523642343,
                0.07040487769727417,
                0.6129110100888461,
                3.0124932479801463
            ]
        },
        {
            "positions": [
                -2.6948034933552756,
                -0.9087857118689222,
                0.8589989835957559,
                0.14313970695077644,
                0.7028832165559764,
                2.9506649193785988
            ]
        },
        {
            "positions": [
                -2.6891723573482755,
                -0.9958150898006407,
                0.8954870148272775,
                0.21587453620427866,
                0.7928554230231069,
                2.888836590777051
            ]
        },
        {
            "positions": [
                -2.572005585301782,
                -1.0114545431915518,
                0.7778325379447876,
                0.14341587779294943,
                0.7699517899102453,
                2.8467783989384987
            ]
        },
        {
            "positions": [
                -2.454838813255289,
                -1.0270939965824628,
                0.6601780610622976,
                0.0709572193816202,
                0.7470481567973836,
                2.8047202070999466
            ]
        },
        {
            "positions": [
                -2.3376720412087955,
                -1.042733449973374,
                0.5425235841798076,
                -0.0015014390297090063,
                0.7241445236845219,
                2.7626620152613945
            ]
        },
        {
            "positions": [
                -2.2205052691623024,
                -1.058372903364285,
                0.4248691072973176,
                -0.07396009744103826,
                0.7012408905716603,
                2.7206038234228425
            ]
        },
        {
            "positions": [
                -2.103338497115809,
                -1.074012356755196,
                0.30721463041482766,
                -0.14641875585236747,
                0.6783372574587987,
                2.6785456315842904
            ]
        },
        {
            "positions": [
                -1.9861717250693158,
                -1.0896518101461072,
                0.18956015353233768,
                -0.21887741426369667,
                0.655433624345937,
                2.6364874397457383
            ]
        },
        {
            "positions": [
                -1.8690049530228223,
                -1.1052912635370182,
                0.0719056766498476,
                -0.2913360726750259,
                0.6325299912330753,
                2.5944292479071858
            ]
        },
        {
            "positions": [
                -1.751838180976329,
                -1.1209307169279294,
                -0.045748800232642384,
                -0.3637947310863552,
                0.6096263581202137,
                2.5523710560686337
            ]
        },
        {
            "positions": [
                -1.6346714089298358,
                -1.1365701703188404,
                -0.16340327711513236,
                -0.43625338949768444,
                0.5867227250073521,
                2.5103128642300816
            ]
        },
        {
            "positions": [
                -1.5175046368833425,
                -1.1522096237097514,
                -0.28105775399762223,
                -0.5087120479090136,
                0.5638190918944904,
                2.4682546723915295
            ]
        },
        {
            "positions": [
                -1.4003378648368492,
                -1.1678490771006627,
                -0.3987122308801123,
                -0.5811707063203428,
                0.5409154587816287,
                2.4261964805529774
            ]
        },
        {
            "positions": [
                -1.283171092790356,
                -1.1834885304915737,
                -0.5163667077626022,
                -0.653629364731672,
                0.5180118256687671,
                2.3841382887144253
            ]
        },
        {
            "positions": [
                -1.1660043207438624,
                -1.1991279838824849,
                -0.6340211846450923,
                -0.7260880231430014,
                0.4951081925559055,
                2.3420800968758733
            ]
        },
        {
            "positions": [
                -1.0488375486973693,
                -1.2147674372733959,
                -0.7516756615275824,
                -0.7985466815543305,
                0.47220455944304385,
                2.300021905037321
            ]
        },
        {
            "positions": [
                -0.931670776650876,
                -1.2304068906643069,
                -0.8693301384100722,
                -0.8710053399656597,
                0.4493009263301822,
                2.257963713198769
            ]
        },
        {
            "positions": [
                -0.8145040046043825,
                -1.246046344055218,
                -0.9869846152925623,
                -0.943463998376989,
                0.42639729321732056,
                2.2159055213602166
            ]
        },
        {
            "positions": [
                -0.6973372325578895,
                -1.261685797446129,
                -1.1046390921750524,
                -1.0159226567883182,
                0.4034936601044589,
                2.1738473295216645
            ]
        },
        {
            "positions": [
                -0.580170460511396,
                -1.2773252508370403,
                -1.2222935690575423,
                -1.0883813151996475,
                0.3805900269915973,
                2.1317891376831124
            ]
        },
        {
            "positions": [
                -0.4630036884649029,
                -1.2929647042279513,
                -1.3399480459400321,
                -1.1608399736109767,
                0.35768639387873563,
                2.0897309458445603
            ]
        },
        {
            "positions": [
                -0.3458369164184094,
                -1.3086041576188623,
                -1.457602522822522,
                -1.2332986320223058,
                0.334782760765874,
                2.0476727540060082
            ]
        },
        {
            "positions": [
                -0.2286701443719159,
                -1.3242436110097735,
                -1.5752569997050123,
                -1.3057572904336352,
                0.31187912765301234,
                2.005614562167456
            ]
        },
        {
            "positions": [
                -0.11150337232542298,
                -1.3398830644006845,
                -1.692911476587502,
                -1.3782159488449643,
                0.2889754945401507,
                1.963556370328904
            ]
        },
        {
            "positions": [
                -0.09782946229246364,
                -1.3459758071196326,
                -1.7835185897504826,
                -1.5313330117394905,
                0.31885745619302946,
                2.0623000633128523
            ]
        },
        {
            "positions": [
                -0.0841555522595043,
                -1.3520685498385807,
                -1.8741257029134633,
                -1.6844500746340167,
                0.34873941784590823,
                2.1610437562968006
            ]
        },
        {
            "positions": [
                -0.07048164222654497,
                -1.3581612925575288,
                -1.964732816076444,
                -1.8375671375285432,
                0.37862137949878694,
                2.2597874492807493
            ]
        },
        {
            "positions": [
                -0.05680773219358563,
                -1.364254035276477,
                -2.0553399292394245,
                -1.9906842004230694,
                0.4085033411516657,
                2.3585311422646975
            ]
        },
        {
            "positions": [
                -0.0784539672031254,
                -1.4272346968788958,
                -2.1070981807961604,
                -2.0190521892897024,
                0.3104001658017466,
                2.487999870717137
            ]
        },
        {
            "positions": [
                -0.10010020221266518,
                -1.4902153584813145,
                -2.1588564323528963,
                -2.0474201781563353,
                0.2122969904518275,
                2.617468599169576
            ]
        },
        {
            "positions": [
                -0.12174643722220495,
                -1.5531960200837334,
                -2.210614683909632,
                -2.0757881670229685,
                0.1141938151019084,
                2.7469373276220153
            ]
        },
        {
            "positions": [
                -0.14339267223174473,
                -1.6161766816861522,
                -2.262372935466368,
                -2.1041561558896014,
                0.016090639751989322,
                2.8764060560744547
            ]
        },
        {
            "positions": [
                -0.1650389072412845,
                -1.679157343288571,
                -2.314131187023104,
                -2.1325241447562346,
                -0.08201253559792981,
                3.0058747845268936
            ]
        },
        {
            "positions": [
                -0.18668514225082425,
                -1.7421380048909898,
                -2.3658894385798397,
                -2.1608921336228675,
                -0.18011571094784887,
                3.135343512979333
            ]
        }
    ]
}