{
    "goal": {
        "global_pose": {
            "orientation": {
                "w": 0.5084816262002911,
                "x": -0.4908360881923452,
                "y": 0.5182115481033761,
                "z": -0.48164630358495003
            },
            "position": {
                "x": 0.5540239810943604,
                "y": -0.46912469901144505,
                "z": 0.16403168439865112
            }
        },
        "name": "move_to_storage_B"
    },
    "id": "KPIECE_move_to_storage_B_134",
    "joint_names": [
        "shoulder_pan_joint",
        "shoulder_lift_joint",
        "elbow_joint",
        "wrist_1_joint",
        "wrist_2_joint",
        "wrist_3_joint"
    ],
    "metrics": {
        "cart_traj_len": 0.6683934459633245,
        "distance_elbow_joint": 0.34868915188035987,
        "distance_shoulder_lift_joint": 0.4569419573138416,
        "distance_shoulder_pan_joint": 0.29993976780882226,
        "distance_wrist_1_joint": 2.988303040517538,
        "distance_wrist_2_joint": 2.700040095324817,
        "distance_wrist_3_joint": 3.1367325780659248,
        "smoothness": 0.04896998719578102,
        "time": 0.11682994399999999,
        "traj_len": 3.151292844359487,
        "weighted_distance": 4.678937366847895
    },
    "planner": "KPIECE",
    "start": {
        "state": {
            "elbow_joint": 1.6649325340416963,
            "shoulder_lift_joint": -0.6616387945129425,
            "shoulder_pan_joint": -0.9139837929255878,
            "wrist_1_joint": 2.1467571094334352,
            "wrist_2_joint": -2.234195976750228,
            "wrist_3_joint": 0.005470921511140723
        }
    },
    "waypoints": [
        {
            "positions": [
                -0.9139837929255878,
                -0.6616387945129425,
                1.6649325340416963,
                2.1467571094334352,
                -2.234195976750228,
                0.005470921511140723
            ]
        },
        {
            "positions": [
                -0.8548874458671206,
                -0.7460104295756124,
                1.6715478605577105,
                2.1103484447330247,
                -2.174131279243559,
                0.008273458502182567
            ]
        },
        {
            "positions": [
                -0.8645211826971348,
                -0.7609132424656593,
                1.6852308135722844,
                1.9922726697003397,
                -2.068532263330833,
                -0.11708374314081273
            ]
        },
        {
            "positions": [
                -0.8741549195271491,
                -0.7758160553557061,
                1.698913766586858,
                1.8741968946676546,
                -1.9629332474181072,
                -0.24244094478380804
            ]
        },
        {
            "positions": [
                -0.8837886563571632,
                -0.790718868245753,
                1.712596719601432,
                1.7561211196349693,
                -1.8573342315053814,
                -0.3677981464268033
            ]
        },
        {
            "positions": [
                -0.8934223931871774,
                -0.8056216811357998,
                1.726279672616006,
                1.6380453446022842,
                -1.7517352155926553,
                -0.4931553480697986
            ]
        },
        {
            "positions": [
                -0.9030561300171916,
                -0.8205244940258467,
                1.7399626256305796,
                1.5199695695695992,
                -1.6461361996799293,
                -0.618512549712794
            ]
        },
        {
            "positions": [
                -0.9126898668472059,
                -0.8354273069158936,
                1.7536455786451535,
                1.401893794536914,
                -1.5405371837672035,
                -0.7438697513557893
            ]
        },
        {
            "positions": [
                -0.92232360367722,
                -0.8503301198059404,
                1.7673285316597274,
                1.2838180195042288,
                -1.4349381678544775,
                -0.8692269529987846
            ]
        },
        {
            "positions": [
                -0.9319573405072342,
                -0.8652329326959873,
                1.781011484674301,
                1.1657422444715437,
                -1.3293391519417517,
                -0.9945841546417798
            ]
        },
        {
            "positions": [
                -0.9415910773372484,
                -0.8801357455860341,
                1.794694437688875,
                1.0476664694388587,
                -1.2237401360290256,
                -1.119941356284775
            ]
        },
        {
            "positions": [
                -0.9512248141672627,
                -0.895038558476081,
                1.8083773907034488,
                0.9295906944061736,
                -1.1181411201162998,
                -1.2452985579277704
            ]
        },
        {
            "positions": [
                -0.9608585509972768,
                -0.909941371366128,
                1.8220603437180225,
                0.8115149193734885,
                -1.0125421042035738,
                -1.3706557595707656
            ]
        },
        {
            "positions": [
                -0.970492287827291,
                -0.9248441842561748,
                1.8357432967325964,
                0.6934391443408034,
                -0.906943088290848,
                -1.496012961213761
            ]
        },
        {
            "positions": [
                -0.9801260246573053,
                -0.9397469971462217,
                1.8494262497471703,
                0.5753633693081182,
                -0.801344072378122,
                -1.6213701628567563
            ]
        },
        {
            "positions": [
                -0.9897597614873195,
                -0.9546498100362686,
                1.8631092027617442,
                0.45728759427543286,
                -0.695745056465396,
                -1.7467273644997516
            ]
        },
        {
            "positions": [
                -0.9993934983173336,
                -0.9695526229263154,
                1.8767921557763179,
                0.339211819242748,
                -0.5901460405526702,
                -1.8720845661427468
            ]
        },
        {
            "positions": [
                -1.009027235147348,
                -0.9844554358163623,
                1.8904751087908918,
                0.22113604421006294,
                -0.48454702463994437,
                -1.9974417677857421
            ]
        },
        {
            "positions": [
                -1.018660971977362,
                -0.9993582487064092,
                1.9041580618054657,
                0.10306026917737743,
                -0.37894800872721834,
                -2.1227989694287377
            ]
        },
        {
            "positions": [
                -1.0282947088073762,
                -1.014261061596456,
                1.9178410148200393,
                -0.01501550585530742,
                -0.27334899281449254,
                -2.248156171071733
            ]
        },
        {
            "positions": [
                -1.0379284456373905,
                -1.0291638744865028,
                1.9315239678346132,
                -0.13309128088799227,
                -0.16774997690176674,
                -2.3735133727147284
            ]
        },
        {
            "positions": [
                -1.0475621824674046,
                -1.0440666873765498,
                1.9452069208491871,
                -0.25116705592067756,
                -0.062150960989040716,
                -2.4988705743577238
            ]
        },
        {
            "positions": [
                -1.0571959192974187,
                -1.0589695002665966,
                1.9588898738637608,
                -0.3692428309533624,
                0.04344805492368531,
                -2.6242277760007187
            ]
        },
        {
            "positions": [
                -1.066829656127433,
                -1.0738723131566434,
                1.9725728268783347,
                -0.4873186059860477,
                0.14904707083641133,
                -2.749584977643714
            ]
        },
        {
            "positions": [
                -1.0764633929574472,
                -1.0887751260466905,
                1.9862557798929086,
                -0.605394381018733,
                0.25464608674913736,
                -2.87494217928671
            ]
        },
        {
            "positions": [
                -1.0860971297874615,
                -1.1036779389367373,
                1.9999387329074823,
                -0.7234701560514178,
                0.36024510266186294,
                -3.0002993809297047
            ]
        },
        {
            "positions": [
                -1.0957308666174757,
                -1.118580751826784,
                2.013621685922056,
                -0.8415459310841029,
                0.46584411857458885,
                -3.1256565825727
            ]
        }
    ]
}