{
    "goal": {
        "global_pose": {
            "orientation": {
                "w": 0.005598929693374612,
                "x": 0.007748599140229565,
                "y": 0.7110244013736278,
                "z": -0.7031023480610252
            },
            "position": {
                "x": -0.8858502320852131,
                "y": -0.7141253447532654,
                "z": 0.3711530566215515
            }
        },
        "name": "move_to_auspresseinheit_C"
    },
    "id": "KPIECE_move_to_auspresseinheit_C_60",
    "joint_names": [
        "shoulder_pan_joint",
        "shoulder_lift_joint",
        "elbow_joint",
        "wrist_1_joint",
        "wrist_2_joint",
        "wrist_3_joint"
    ],
    "metrics": {
        "cart_traj_len": 0.4939562352176711,
        "distance_elbow_joint": 1.0092619536394496,
        "distance_shoulder_lift_joint": 0.3285127571255074,
        "distance_shoulder_pan_joint": 0.2573440868954022,
        "distance_wrist_1_joint": 0.7083001633770266,
        "distance_wrist_2_joint": 1.301363939032281,
        "distance_wrist_3_joint": 0.08121742004841925,
        "smoothness": 6.45947944157498e-16,
        "time": 0.81295962,
        "traj_len": 1.9198959138760845,
        "weighted_distance": 2.420351061855332
    },
    "planner": "KPIECE",
    "start": {
        "state": {
            "elbow_joint": 1.7527959577730765,
            "shoulder_lift_joint": -0.9740617694224828,
            "shoulder_pan_joint": -2.967991417825869,
            "wrist_1_joint": -0.7595177689779385,
            "wrist_2_joint": 1.7443932448376545,
            "wrist_3_joint": 3.1991315425061013
        }
    },
    "waypoints": [
        {
            "positions": [
                -2.967991417825869,
                -0.9740617694224828,
                1.7527959577730765,
                -0.7595177689779385,
                1.7443932448376545,
                3.1991315425061013
            ]
        },
        {
            "positions": [
                -2.9422570091363287,
                -0.941210493709932,
                1.6518697624091316,
                -0.6886877526402359,
                1.6142568509344264,
                3.1910098005012593
            ]
        },
        {
            "positions": [
                -2.916522600446789,
                -0.9083592179973813,
                1.5509435670451865,
                -0.6178577363025333,
                1.484120457031198,
                3.1828880584964176
            ]
        },
        {
            "positions": [
                -2.8907881917572484,
                -0.8755079422848305,
                1.4500173716812417,
                -0.5470277199648306,
                1.35398406312797,
                3.1747663164915756
            ]
        },
        {
            "positions": [
                -2.865053783067708,
                -0.8426566665722798,
                1.3490911763172966,
                -0.4761977036271279,
                1.223847669224742,
                3.1666445744867335
            ]
        },
        {
            "positions": [
                -2.839319374378168,
                -0.8098053908597291,
                1.2481649809533517,
                -0.40536768728942524,
                1.093711275321514,
                3.158522832481892
            ]
        },
        {
            "positions": [
                -2.813584965688628,
                -0.7769541151471784,
                1.1472387855894066,
                -0.3345376709517226,
                0.9635748814182858,
                3.15040109047705
            ]
        },
        {
            "positions": [
                -2.7878505569990875,
                -0.7441028394346276,
                1.0463125902254617,
                -0.26370765461401996,
                0.8334384875150578,
                3.142279348472208
            ]
        },
        {
            "positions": [
                -2.762116148309547,
                -0.7112515637220769,
                0.9453863948615168,
                -0.1928776382763172,
                0.7033020936118295,
                3.1341576064673657
            ]
        },
        {
            "positions": [
                -2.736381739620007,
                -0.6784002880095261,
                0.8444601994975719,
                -0.12204762193861463,
                0.5731656997086014,
                3.126035864462524
            ]
        },
        {
            "positions": [
                -2.710647330930467,
                -0.6455490122969754,
                0.7435340041336268,
                -0.05121760560091197,
                0.44302930580537325,
                3.117914122457682
            ]
        }
    ]
}