{
    "goal": {
        "global_pose": {
            "orientation": {
                "w": -0.4816463035849501,
                "x": 0.5182115481033762,
                "y": 0.4908360881923453,
                "z": -0.5084816262002911
            },
            "position": {
                "x": -0.8240239810943604,
                "y": -0.300875300988555,
                "z": 0.16403168439865112
            }
        },
        "name": "move_to_storage_C"
    },
    "id": "KPIECE_move_to_storage_C_139",
    "joint_names": [
        "shoulder_pan_joint",
        "shoulder_lift_joint",
        "elbow_joint",
        "wrist_1_joint",
        "wrist_2_joint",
        "wrist_3_joint"
    ],
    "metrics": {
        "cart_traj_len": 0.5766918326921262,
        "distance_elbow_joint": 0.2545007789413698,
        "distance_shoulder_lift_joint": 0.18862361816662376,
        "distance_shoulder_pan_joint": 0.49573359182660903,
        "distance_wrist_1_joint": 0.06648620198325528,
        "distance_wrist_2_joint": 1.0626288453815538,
        "distance_wrist_3_joint": 0.06457497700272219,
        "smoothness": 2.5376526478085547e-16,
        "time": 0.144217866,
        "traj_len": 1.4603246260000322,
        "weighted_distance": 1.8414160351947593
    },
    "planner": "KPIECE",
    "start": {
        "state": {
            "elbow_joint": 2.0108683149792914,
            "shoulder_lift_joint": -1.1634956873317392,
            "shoulder_pan_joint": -2.4736205022346,
            "wrist_1_joint": -0.8367026793690192,
            "wrist_2_joint": 0.6746043897045053,
            "wrist_3_joint": 3.133522094754363
        }
    },
    "waypoints": [
        {
            "positions": [
                -2.4736205022346,
                -1.1634956873317392,
                2.0108683149792914,
                -0.8367026793690192,
                0.6746043897045053,
                3.133522094754363
            ]
        },
        {
            "positions": [
                -2.556242767539035,
                -1.1320584176373019,
                1.9684515184890632,
                -0.8256216457051433,
                0.8517091972680976,
                3.1442845909214836
            ]
        },
        {
            "positions": [
                -2.6388650328434697,
                -1.1006211479428647,
                1.9260347219988347,
                -0.8145406120412675,
                1.0288140048316898,
                3.155047087088604
            ]
        },
        {
            "positions": [
                -2.7214872981479044,
                -1.0691838782484273,
                1.8836179255086065,
                -0.8034595783773916,
                1.2059188123952822,
                3.165809583255724
            ]
        },
        {
            "positions": [
                -2.8041095634523394,
                -1.0377466085539901,
                1.8412011290183783,
                -0.7923785447135157,
                1.3830236199588746,
                3.1765720794228445
            ]
        },
        {
            "positions": [
                -2.8867318287567745,
                -1.0063093388595528,
                1.7987843325281498,
                -0.7812975110496398,
                1.560128427522467,
                3.187334575589965
            ]
        },
        {
            "positions": [
                -2.969354094061209,
                -0.9748720691651155,
                1.7563675360379216,
                -0.7702164773857639,
                1.737233235086059,
                3.1980970717570854
            ]
        }
    ]
}