{
    "goal": {
        "global_pose": {
            "orientation": {
                "w": 0.7047431468963623,
                "x": -0.7094548344612122,
                "y": 0.0024358443915843964,
                "z": -0.0022348060738295317
            },
            "position": {
                "x": 0.6094750761985779,
                "y": 0.3671506643295288,
                "z": 0.19426114857196808
            }
        },
        "name": "move_to_magneteinheit_A"
    },
    "id": "KPIECE_move_to_magneteinheit_A_77",
    "joint_names": [
        "shoulder_pan_joint",
        "shoulder_lift_joint",
        "elbow_joint",
        "wrist_1_joint",
        "wrist_2_joint",
        "wrist_3_joint"
    ],
    "metrics": {
        "cart_traj_len": 1.5914056769627078,
        "distance_elbow_joint": 3.56164048799598,
        "distance_shoulder_lift_joint": 1.1556083454876718,
        "distance_shoulder_pan_joint": 1.2417688348612825,
        "distance_wrist_1_joint": 4.003244363293553,
        "distance_wrist_2_joint": 1.6912463628433385,
        "distance_wrist_3_joint": 1.094238370953287,
        "smoothness": 3.134747373732925e-16,
        "time": 0.13154253,
        "traj_len": 3.570398684381775,
        "weighted_distance": 4.542104603978048
    },
    "planner": "KPIECE",
    "start": {
        "state": {
            "elbow_joint": -1.5739458827952972,
            "shoulder_lift_joint": 0.006533473998580023,
            "shoulder_pan_joint": -1.1188671628667068,
            "wrist_1_joint": 3.138208179676308,
            "wrist_2_joint": -1.5706037135050406,
            "wrist_3_joint": -2.0226958329764257
        }
    },
    "waypoints": [
        {
            "positions": [
                -1.1188671628667068,
                0.006533473998580023,
                -1.5739458827952972,
                3.138208179676308,
                -1.5706037135050406,
                -2.0226958329764257
            ]
        },
        {
            "positions": [
                -1.0812378042345467,
                -0.028484960713167605,
                -1.4660173831590555,
                3.0168977444249885,
                -1.519353823721909,
                -2.055854571490162
            ]
        },
        {
            "positions": [
                -1.0436084456023866,
                -0.06350339542491523,
                -1.3580888835228135,
                2.895587309173669,
                -1.4681039339387776,
                -2.0890133100038977
            ]
        },
        {
            "positions": [
                -1.0059790869702265,
                -0.09852183013666287,
                -1.2501603838865718,
                2.7742768739223487,
                -1.416854044155646,
                -2.122172048517634
            ]
        },
        {
            "positions": [
                -0.9683497283380665,
                -0.13354026484841047,
                -1.1422318842503298,
                2.652966438671029,
                -1.3656041543725146,
                -2.1553307870313696
            ]
        },
        {
            "positions": [
                -0.9307203697059064,
                -0.16855869956015812,
                -1.034303384614088,
                2.5316560034197093,
                -1.314354264589383,
                -2.188489525545106
            ]
        },
        {
            "positions": [
                -0.8930910110737464,
                -0.20357713427190574,
                -0.9263748849778463,
                2.410345568168389,
                -1.2631043748062518,
                -2.2216482640588415
            ]
        },
        {
            "positions": [
                -0.8554616524415863,
                -0.2385955689836534,
                -0.8184463853416044,
                2.2890351329170695,
                -1.2118544850231203,
                -2.2548070025725777
            ]
        },
        {
            "positions": [
                -0.8178322938094262,
                -0.273614003695401,
                -0.7105178857053626,
                2.16772469766575,
                -1.1606045952399888,
                -2.2879657410863135
            ]
        },
        {
            "positions": [
                -0.7802029351772661,
                -0.30863243840714866,
                -0.6025893860691209,
                2.04641426241443,
                -1.1093547054568573,
                -2.3211244796000496
            ]
        },
        {
            "positions": [
                -0.742573576545106,
                -0.3436508731188963,
                -0.494660886432879,
                1.9251038271631102,
                -1.0581048156737258,
                -2.3542832181137854
            ]
        },
        {
            "positions": [
                -0.704944217912946,
                -0.3786693078306439,
                -0.38673238679663724,
                1.8037933919117906,
                -1.0068549258905946,
                -2.3874419566275216
            ]
        },
        {
            "positions": [
                -0.6673148592807859,
                -0.41368774254239155,
                -0.2788038871603953,
                1.6824829566604707,
                -0.955605036107463,
                -2.4206006951412573
            ]
        },
        {
            "positions": [
                -0.6296855006486259,
                -0.44870617725413914,
                -0.17087538752415354,
                1.561172521409151,
                -0.9043551463243314,
                -2.4537594336549935
            ]
        },
        {
            "positions": [
                -0.5920561420164657,
                -0.48372461196588684,
                -0.06294688788791158,
                1.439862086157831,
                -0.8531052565412,
                -2.4869181721687292
            ]
        },
        {
            "positions": [
                -0.5544267833843057,
                -0.5187430466776344,
                0.04498161174833015,
                1.3185516509065114,
                -0.8018553667580686,
                -2.5200769106824654
            ]
        },
        {
            "positions": [
                -0.5167974247521456,
                -0.553761481389382,
                0.1529101113845721,
                1.1972412156551915,
                -0.7506054769749371,
                -2.553235649196201
            ]
        },
        {
            "positions": [
                -0.4791680661199855,
                -0.5887799161011297,
                0.2608386110208136,
                1.0759307804038718,
                -0.6993555871918056,
                -2.5863943877099373
            ]
        },
        {
            "positions": [
                -0.44153870748782553,
                -0.6237983508128773,
                0.36876711065705536,
                0.9546203451525521,
                -0.6481056974086742,
                -2.619553126223673
            ]
        },
        {
            "positions": [
                -0.4039093488556653,
                -0.658816785524625,
                0.47669561029329777,
                0.833309909901232,
                -0.5968558076255426,
                -2.6527118647374093
            ]
        },
        {
            "positions": [
                -0.3662799902235053,
                -0.6938352202363726,
                0.5846241099295393,
                0.7119994746499123,
                -0.5456059178424111,
                -2.685870603251145
            ]
        },
        {
            "positions": [
                -0.3286506315913452,
                -0.7288536549481202,
                0.6925526095657812,
                0.5906890393985926,
                -0.4943560280592798,
                -2.719029341764881
            ]
        },
        {
            "positions": [
                -0.29102127295918523,
                -0.7638720896598677,
                0.8004811092020228,
                0.46937860414727295,
                -0.4431061382761483,
                -2.752188080278617
            ]
        },
        {
            "positions": [
                -0.253391914327025,
                -0.7988905243716155,
                0.9084096088382647,
                0.3480681688959528,
                -0.3918562484930166,
                -2.785346818792353
            ]
        },
        {
            "positions": [
                -0.21576255569486502,
                -0.833908959083363,
                1.0163381084745067,
                0.22675773364463314,
                -0.3406063587098853,
                -2.8185055573060893
            ]
        },
        {
            "positions": [
                -0.17813319706270492,
                -0.8689273937951106,
                1.1242666081107482,
                0.10544729839331346,
                -0.2893564689267538,
                -2.851664295819825
            ]
        },
        {
            "positions": [
                -0.14050383843054493,
                -0.9039458285068582,
                1.2321951077469901,
                -0.01586313685800622,
                -0.23810657914362232,
                -2.884823034333561
            ]
        },
        {
            "positions": [
                -0.10287447979838471,
                -0.938964263218606,
                1.340123607383232,
                -0.13717357210932635,
                -0.18685668936049082,
                -2.917981772847297
            ]
        },
        {
            "positions": [
                -0.0652451211662246,
                -0.9739826979303536,
                1.448052107019474,
                -0.25848400736064603,
                -0.13560679957735933,
                -2.951140511361033
            ]
        },
        {
            "positions": [
                -0.027615762534064725,
                -1.0090011326421011,
                1.5559806066557156,
                -0.3797944426119657,
                -0.08435690979422805,
                -2.984299249874769
            ]
        },
        {
            "positions": [
                0.010013596098095379,
                -1.0440195673538488,
                1.6639091062919575,
                -0.5011048778632854,
                -0.033107020011096555,
                -3.0174579883885047
            ]
        },
        {
            "positions": [
                0.047642954730255704,
                -1.0790380020655965,
                1.7718376059281995,
                -0.6224153131146055,
                0.018142869772035164,
                -3.050616726902241
            ]
        },
        {
            "positions": [
                0.08527231336241559,
                -1.114056436777344,
                1.8797661055644415,
                -0.7437257483659252,
                0.06939275955516644,
                -3.083775465415977
            ]
        },
        {
            "positions": [
                0.12290167199457572,
                -1.1490748714890917,
                1.987694605200683,
                -0.8650361836172449,
                0.12064264933829787,
                -3.1169342039297128
            ]
        }
    ]
}