{
    "goal": {
        "global_pose": {
            "orientation": {
                "w": 0.5084816217422485,
                "x": -0.49083608388900757,
                "y": 0.5182115435600281,
                "z": -0.4816462993621826
            },
            "position": {
                "x": 0.5540239810943604,
                "y": 0.030875300988554955,
                "z": 0.16403168439865112
            }
        },
        "name": "move_to_storage_A"
    },
    "id": "KPIECE_move_to_storage_A_42",
    "joint_names": [
        "shoulder_pan_joint",
        "shoulder_lift_joint",
        "elbow_joint",
        "wrist_1_joint",
        "wrist_2_joint",
        "wrist_3_joint"
    ],
    "metrics": {
        "cart_traj_len": 0.353068872835145,
        "distance_elbow_joint": 0.4543128342929854,
        "distance_shoulder_lift_joint": 0.23211446816727666,
        "distance_shoulder_pan_joint": 0.4616084444274379,
        "distance_wrist_1_joint": 0.2620931195403984,
        "distance_wrist_2_joint": 1.0987016195609405,
        "distance_wrist_3_joint": 0.10808603863208477,
        "smoothness": 4.440892133664971e-16,
        "time": 0.012770097,
        "traj_len": 1.6176886364876042,
        "weighted_distance": 2.0478972974704157
    },
    "planner": "KPIECE",
    "start": {
        "state": {
            "elbow_joint": 1.971548880431181,
            "shoulder_lift_joint": -1.1394869514688781,
            "shoulder_pan_joint": 0.12281150262730567,
            "wrist_1_joint": -0.7804693444481463,
            "wrist_2_joint": 0.12958644648617612,
            "wrist_3_joint": 3.0906942077768043
        }
    },
    "waypoints": [
        {
            "positions": [
                0.12281150262730567,
                -1.1394869514688781,
                1.971548880431181,
                -0.7804693444481463,
                0.12958644648617612,
                3.0906942077768043
            ]
        },
        {
            "positions": [
                0.056867439137671685,
                -1.1726461612070604,
                2.0364507139016075,
                -0.8179112186682033,
                0.2865438207091676,
                3.1061350704385307
            ]
        },
        {
            "positions": [
                -0.009076624351962298,
                -1.205805370945243,
                2.101352547372034,
                -0.8553530928882601,
                0.4435011949321591,
                3.121575933100257
            ]
        },
        {
            "positions": [
                -0.0750206878415963,
                -1.2389645806834253,
                2.1662543808424606,
                -0.8927949671083171,
                0.6004585691551506,
                3.1370167957619834
            ]
        },
        {
            "positions": [
                -0.14096475133123026,
                -1.2721237904216076,
                2.231156214312887,
                -0.9302368413283739,
                0.7574159433781421,
                3.15245765842371
            ]
        },
        {
            "positions": [
                -0.20690881482086426,
                -1.3052830001597902,
                2.2960580477833132,
                -0.9676787155484309,
                0.9143733176011336,
                3.1678985210854362
            ]
        },
        {
            "positions": [
                -0.27285287831049826,
                -1.3384422098979725,
                2.36095988125374,
                -1.0051205897684878,
                1.0713306918241252,
                3.1833393837471626
            ]
        },
        {
            "positions": [
                -0.33879694180013226,
                -1.3716014196361548,
                2.4258617147241663,
                -1.0425624639885447,
                1.2282880660471165,
                3.198780246408889
            ]
        }
    ]
}