{
    "goal": {
        "global_pose": {
            "orientation": {
                "w": 0.7031023480610252,
                "x": -0.7110244013736278,
                "y": 0.0077485991402295624,
                "z": 0.005598929693374583
            },
            "position": {
                "x": -0.8841497679147869,
                "y": 0.44412534475326537,
                "z": 0.3711530566215515
            }
        },
        "name": "move_to_auspresseinheit_D"
    },
    "id": "KPIECE_move_to_auspresseinheit_D_124",
    "joint_names": [
        "shoulder_pan_joint",
        "shoulder_lift_joint",
        "elbow_joint",
        "wrist_1_joint",
        "wrist_2_joint",
        "wrist_3_joint"
    ],
    "metrics": {
        "cart_traj_len": 0.34255368457223623,
        "distance_elbow_joint": 0.6343925605138847,
        "distance_shoulder_lift_joint": 0.11942116449523654,
        "distance_shoulder_pan_joint": 0.13403643452486538,
        "distance_wrist_1_joint": 0.5275321923900234,
        "distance_wrist_2_joint": 1.43051860808718,
        "distance_wrist_3_joint": 0.01030393071668323,
        "smoothness": 0.0,
        "time": 0.09300488800000001,
        "traj_len": 1.6900310324748102,
        "weighted_distance": 2.198832315716331
    },
    "planner": "KPIECE",
    "start": {
        "state": {
            "elbow_joint": -1.8275484843655228,
            "shoulder_lift_joint": -2.1267897864000416,
            "shoulder_pan_joint": -0.035127520176001514,
            "wrist_1_joint": -2.3477863256791385,
            "wrist_2_joint": -1.605890476484521,
            "wrist_3_joint": -3.0880375317375353
        }
    },
    "waypoints": [
        {
            "positions": [
                -0.035127520176001514,
                -2.1267897864000416,
                -1.8275484843655228,
                -2.3477863256791385,
                -1.605890476484521,
                -3.0880375317375353
            ]
        },
        {
            "positions": [
                -0.051882074491609684,
                -2.141717431961946,
                -1.7482494143012872,
                -2.4137278497278913,
                -1.4270756504736235,
                -3.089325523077121
            ]
        },
        {
            "positions": [
                -0.06863662880721785,
                -2.1566450775238506,
                -1.6689503442370515,
                -2.479669373776644,
                -1.248260824462726,
                -3.090613514416706
            ]
        },
        {
            "positions": [
                -0.08539118312282604,
                -2.171572723085755,
                -1.589651274172816,
                -2.545610897825397,
                -1.0694459984518285,
                -3.0919015057562915
            ]
        },
        {
            "positions": [
                -0.1021457374384342,
                -2.1865003686476596,
                -1.5103522041085804,
                -2.6115524218741504,
                -0.890631172440931,
                -3.093189497095877
            ]
        },
        {
            "positions": [
                -0.11890029175404238,
                -2.2014280142095646,
                -1.4310531340443449,
                -2.6774939459229032,
                -0.7118163464300336,
                -3.094477488435462
            ]
        },
        {
            "positions": [
                -0.13565484606965056,
                -2.216355659771469,
                -1.3517540639801093,
                -2.743435469971656,
                -0.5330015204191361,
                -3.095765479775048
            ]
        },
        {
            "positions": [
                -0.15240940038525874,
                -2.2312833053333736,
                -1.2724549939158736,
                -2.809376994020409,
                -0.3541866944082386,
                -3.097053471114633
            ]
        },
        {
            "positions": [
                -0.1691639547008669,
                -2.246210950895278,
                -1.193155923851638,
                -2.875318518069162,
                -0.1753718683973411,
                -3.0983414624542185
            ]
        }
    ]
}