{
    "goal": {
        "global_pose": {
            "orientation": {
                "w": 0.005598929693374612,
                "x": 0.007748599140229565,
                "y": 0.7110244013736278,
                "z": -0.7031023480610252
            },
            "position": {
                "x": 0.1141497679147869,
                "y": -0.7141253447532654,
                "z": 0.3711530566215515
            }
        },
        "name": "move_to_auspresseinheit_B"
    },
    "id": "KPIECE_move_to_auspresseinheit_B_29",
    "joint_names": [
        "shoulder_pan_joint",
        "shoulder_lift_joint",
        "elbow_joint",
        "wrist_1_joint",
        "wrist_2_joint",
        "wrist_3_joint"
    ],
    "metrics": {
        "cart_traj_len": 0.5645525546998664,
        "distance_elbow_joint": 0.06531789958526324,
        "distance_shoulder_lift_joint": 0.29253744274717075,
        "distance_shoulder_pan_joint": 0.576892325323894,
        "distance_wrist_1_joint": 0.33346169651196034,
        "distance_wrist_2_joint": 0.9921218905683113,
        "distance_wrist_3_joint": 0.0062876471184059035,
        "smoothness": 0.0,
        "time": 0.40390550399999997,
        "traj_len": 1.5055294423740126,
        "weighted_distance": 1.898625235050901
    },
    "planner": "KPIECE",
    "start": {
        "state": {
            "elbow_joint": 2.0193061681459312,
            "shoulder_lift_joint": -1.1220205130644991,
            "shoulder_pan_joint": -1.0952072088045026,
            "wrist_1_joint": -0.8559671810662515,
            "wrist_2_joint": 0.4759638712940361,
            "wrist_3_joint": 3.159081874192446
        }
    },
    "waypoints": [
        {
            "positions": [
                -1.0952072088045026,
                -1.1220205130644991,
                2.0193061681459312,
                -0.8559671810662515,
                0.4759638712940361,
                3.159081874192446
            ]
        },
        {
            "positions": [
                -1.1913559296918184,
                -1.170776753522361,
                2.0084198515483873,
                -0.8003902316475914,
                0.641317519722088,
                3.158033933006045
            ]
        },
        {
            "positions": [
                -1.2875046505791339,
                -1.2195329939802226,
                1.9975335349508434,
                -0.7448132822289314,
                0.80667116815014,
                3.156985991819644
            ]
        },
        {
            "positions": [
                -1.3836533714664496,
                -1.2682892344380845,
                1.9866472183532995,
                -0.6892363328102713,
                0.9720248165781917,
                3.1559380506332433
            ]
        },
        {
            "positions": [
                -1.4798020923537654,
                -1.3170454748959464,
                1.9757609017557558,
                -0.6336593833916113,
                1.1373784650062437,
                3.1548901094468422
            ]
        },
        {
            "positions": [
                -1.5759508132410809,
                -1.365801715353808,
                1.964874585158212,
                -0.5780824339729511,
                1.3027321134342955,
                3.153842168260441
            ]
        },
        {
            "positions": [
                -1.6720995341283966,
                -1.4145579558116699,
                1.953988268560668,
                -0.5225054845542911,
                1.4680857618623475,
                3.15279422707404
            ]
        }
    ]
}