{
    "goal": {
        "global_pose": {
            "orientation": {
                "w": -0.4816463035849501,
                "x": 0.5182115481033762,
                "y": 0.4908360881923453,
                "z": -0.5084816262002911
            },
            "position": {
                "x": -0.8240239810943604,
                "y": 0.19912469901144506,
                "z": 0.16403168439865112
            }
        },
        "name": "move_to_storage_D"
    },
    "id": "KPIECE_move_to_storage_D_115",
    "joint_names": [
        "shoulder_pan_joint",
        "shoulder_lift_joint",
        "elbow_joint",
        "wrist_1_joint",
        "wrist_2_joint",
        "wrist_3_joint"
    ],
    "metrics": {
        "cart_traj_len": 4.038198920257779,
        "distance_elbow_joint": 4.231620372370885,
        "distance_shoulder_lift_joint": 1.2642820998232955,
        "distance_shoulder_pan_joint": 2.8125460249943135,
        "distance_wrist_1_joint": 2.83372419356279,
        "distance_wrist_2_joint": 1.16770617507314,
        "distance_wrist_3_joint": 3.2414782701394227,
        "smoothness": 0.3470386163319949,
        "time": 0.07051451,
        "traj_len": 3.943520905987927,
        "weighted_distance": 5.102523301747737
    },
    "planner": "KPIECE",
    "start": {
        "state": {
            "elbow_joint": -2.384821990628643,
            "shoulder_lift_joint": -2.278805467437664,
            "shoulder_pan_joint": -0.18546946439364564,
            "wrist_1_joint": 1.4845938187801415,
            "wrist_2_joint": 0.178987772454074,
            "wrist_3_joint": 0.03710569632802521
        }
    },
    "waypoints": [
        {
            "positions": [
                -0.18546946439364564,
                -2.278805467437664,
                -2.384821990628643,
                1.4845938187801415,
                0.178987772454074,
                0.03710569632802521
            ]
        },
        {
            "positions": [
                -0.14276233374542185,
                -2.2352507548954392,
                -2.393626110298772,
                1.4185981212690284,
                0.1378269731921195,
                -0.010187573476722736
            ]
        },
        {
            "positions": [
                -0.06384670717997669,
                -2.2025252988781268,
                -2.291054637720053,
                1.3429931623162668,
                0.16876614750635552,
                0.06021466106339911
            ]
        },
        {
            "positions": [
                0.015068919385468477,
                -2.169799842860814,
                -2.1884831651413346,
                1.267388203363505,
                0.19970532182059153,
                0.13061689560352097
            ]
        },
        {
            "positions": [
                0.09398454595091366,
                -2.1370743868435014,
                -2.0859116925626155,
                1.1917832444107435,
                0.23064449613482754,
                0.20101913014364275
            ]
        },
        {
            "positions": [
                0.1729001725163588,
                -2.1043489308261885,
                -1.983340219983897,
                1.1161782854579818,
                0.26158367044906355,
                0.27142136468376465
            ]
        },
        {
            "positions": [
                0.25181579908180396,
                -2.071623474808876,
                -1.8807687474051782,
                1.0405733265052202,
                0.2925228447632996,
                0.3418235992238865
            ]
        },
        {
            "positions": [
                0.33073142564724917,
                -2.038898018791563,
                -1.7781972748264594,
                0.9649683675524585,
                0.3234620190775356,
                0.4122258337640083
            ]
        },
        {
            "positions": [
                0.4096470522126943,
                -2.0061725627742506,
                -1.6756258022477404,
                0.8893634085996968,
                0.35440119339177156,
                0.48262806830413013
            ]
        },
        {
            "positions": [
                0.48856267877813947,
                -1.973447106756938,
                -1.5730543296690218,
                0.8137584496469351,
                0.3853403677060076,
                0.553030302844252
            ]
        },
        {
            "positions": [
                0.5674783053435846,
                -1.9407216507396252,
                -1.470482857090303,
                0.7381534906941736,
                0.4162795420202436,
                0.6234325373843738
            ]
        },
        {
            "positions": [
                0.6463939319090297,
                -1.9079961947223125,
                -1.3679113845115842,
                0.6625485317414118,
                0.4472187163344796,
                0.6938347719244957
            ]
        },
        {
            "positions": [
                0.7253095584744749,
                -1.8752707387049998,
                -1.2653399119328654,
                0.5869435727886503,
                0.4781578906487156,
                0.7642370064646175
            ]
        },
        {
            "positions": [
                0.8042251850399202,
                -1.8425452826876871,
                -1.1627684393541464,
                0.5113386138358885,
                0.5090970649629516,
                0.8346392410047393
            ]
        },
        {
            "positions": [
                0.8831408116053654,
                -1.8098198266703744,
                -1.0601969667754279,
                0.435733654883127,
                0.5400362392771876,
                0.9050414755448611
            ]
        },
        {
            "positions": [
                0.9620564381708105,
                -1.7770943706530618,
                -0.9576254941967088,
                0.3601286959303651,
                0.5709754135914237,
                0.975443710084983
            ]
        },
        {
            "positions": [
                1.0409720647362557,
                -1.744368914635749,
                -0.8550540216179903,
                0.2845237369776037,
                0.6019145879056597,
                1.0458459446251047
            ]
        },
        {
            "positions": [
                1.1198876913017008,
                -1.7116434586184366,
                -0.7524825490392713,
                0.20891877802484182,
                0.6328537622198958,
                1.1162481791652268
            ]
        },
        {
            "positions": [
                1.198803317867146,
                -1.6789180026011237,
                -0.6499110764605527,
                0.1333138190720804,
                0.6637929365341317,
                1.1866504137053484
            ]
        },
        {
            "positions": [
                1.2777189444325912,
                -1.6461925465838112,
                -0.5473396038818339,
                0.05770886011931875,
                0.6947321108483677,
                1.2570526482454702
            ]
        },
        {
            "positions": [
                1.3566345709980365,
                -1.6134670905664983,
                -0.4447681313031149,
                -0.01789609883344312,
                0.7256712851626037,
                1.3274548827855923
            ]
        },
        {
            "positions": [
                1.4355501975634815,
                -1.5807416345491858,
                -0.3421966587243963,
                -0.09350105778620477,
                0.7566104594768397,
                1.3978571173257142
            ]
        },
        {
            "positions": [
                1.5144658241289266,
                -1.5480161785318731,
                -0.2396251861456773,
                -0.1691060167389664,
                0.7875496337910757,
                1.4682593518658358
            ]
        },
        {
            "positions": [
                1.5933814506943718,
                -1.5152907225145604,
                -0.13705371356695872,
                -0.24471097569172784,
                0.8184888081053117,
                1.5386615864059576
            ]
        },
        {
            "positions": [
                1.6722970772598171,
                -1.4825652664972477,
                -0.03448224098823971,
                -0.3203159346444897,
                0.8494279824195479,
                1.6090638209460797
            ]
        },
        {
            "positions": [
                1.7512127038252623,
                -1.449839810479935,
                0.0680892315904793,
                -0.39592089359725136,
                0.8803671567337839,
                1.6794660554862013
            ]
        },
        {
            "positions": [
                1.8301283303907072,
                -1.4171143544626226,
                0.17066070416919787,
                -0.471525852550013,
                0.9113063310480198,
                1.7498682900263232
            ]
        },
        {
            "positions": [
                1.9090439569561526,
                -1.3843888984453097,
                0.27323217674791644,
                -0.5471308115027744,
                0.9422455053622558,
                1.820270524566445
            ]
        },
        {
            "positions": [
                1.9879595835215977,
                -1.351663442427997,
                0.37580364932663546,
                -0.6227357704555363,
                0.9731846796764918,
                1.890672759106567
            ]
        },
        {
            "positions": [
                2.066875210087043,
                -1.3189379864106843,
                0.4783751219053545,
                -0.6983407294082982,
                1.0041238539907278,
                1.9610749936466887
            ]
        },
        {
            "positions": [
                2.145790836652488,
                -1.2862125303933718,
                0.580946594484073,
                -0.7739456883610596,
                1.0350630283049638,
                2.0314772281868105
            ]
        },
        {
            "positions": [
                2.224706463217933,
                -1.253487074376059,
                0.6835180670627916,
                -0.849550647313821,
                1.0660022026191998,
                2.101879462726932
            ]
        },
        {
            "positions": [
                2.3036220897833783,
                -1.2207616183587464,
                0.7860895396415106,
                -0.9251556062665829,
                1.096941376933436,
                2.1722816972670542
            ]
        },
        {
            "positions": [
                2.3825377163488235,
                -1.1880361623414337,
                0.8886610122202296,
                -1.0007605652193448,
                1.127880551247672,
                2.2426839318071763
            ]
        },
        {
            "positions": [
                2.4614533429142686,
                -1.155310706324121,
                0.9912324847989481,
                -1.076365524172106,
                1.158819725561908,
                2.313086166347298
            ]
        },
        {
            "positions": [
                2.4851138025837543,
                -1.135198229365585,
                1.1109407215993816,
                -1.0373991169420285,
                1.1437407793559942,
                2.4375020607059628
            ]
        },
        {
            "positions": [
                2.50877426225324,
                -1.1150857524070488,
                1.230648958399815,
                -0.998432709711951,
                1.1286618331500802,
                2.5619179550646276
            ]
        },
        {
            "positions": [
                2.5324347219227255,
                -1.0949732754485126,
                1.3503571952002484,
                -0.9594663024818735,
                1.1135828869441664,
                2.6863338494232925
            ]
        },
        {
            "positions": [
                2.5560951815922115,
                -1.0748607984899767,
                1.4700654320006818,
                -0.9204998952517961,
                1.0985039407382524,
                2.8107497437819573
            ]
        },
        {
            "positions": [
                2.579755641261697,
                -1.0547483215314406,
                1.5897736688011155,
                -0.8815334880217186,
                1.0834249945323386,
                2.9351656381406226
            ]
        },
        {
            "positions": [
                2.6034161009311827,
                -1.0346358445729045,
                1.7094819056015487,
                -0.8425670807916411,
                1.0683460483264247,
                3.0595815324992874
            ]
        },
        {
            "positions": [
                2.6270765606006683,
                -1.0145233676143683,
                1.8291901424019823,
                -0.8036006735615636,
                1.053267102120511,
                3.1839974268579523
            ]
        }
    ]
}