{
    "goal": {
        "global_pose": {
            "orientation": {
                "w": 0.005598929693374612,
                "x": 0.007748599140229565,
                "y": 0.7110244013736278,
                "z": -0.7031023480610252
            },
            "position": {
                "x": 0.1141497679147869,
                "y": -0.7141253447532654,
                "z": 0.3711530566215515
            }
        },
        "name": "move_to_auspresseinheit_B"
    },
    "id": "KPIECE_move_to_auspresseinheit_B_49",
    "joint_names": [
        "shoulder_pan_joint",
        "shoulder_lift_joint",
        "elbow_joint",
        "wrist_1_joint",
        "wrist_2_joint",
        "wrist_3_joint"
    ],
    "metrics": {
        "cart_traj_len": 0.5639731590433418,
        "distance_elbow_joint": 0.06183164738829583,
        "distance_shoulder_lift_joint": 0.29438460665428545,
        "distance_shoulder_pan_joint": 0.5777269377314509,
        "distance_wrist_1_joint": 0.32578104673313546,
        "distance_wrist_2_joint": 0.9864577866399007,
        "distance_wrist_3_joint": 0.009328908289377047,
        "smoothness": 5.075305255429287e-16,
        "time": 0.10228039,
        "traj_len": 1.5018358543584067,
        "weighted_distance": 1.8937812923852204
    },
    "planner": "KPIECE",
    "start": {
        "state": {
            "elbow_joint": 2.0193061681459312,
            "shoulder_lift_joint": -1.1220205130644991,
            "shoulder_pan_joint": -1.0952072088045026,
            "wrist_1_joint": -0.8559671810662515,
            "wrist_2_joint": 0.4759638712940361,
            "wrist_3_joint": 3.159081874192446
        }
    },
    "waypoints": [
        {
            "positions": [
                -1.0952072088045026,
                -1.1220205130644991,
                2.0193061681459312,
                -0.8559671810662515,
                0.4759638712940361,
                3.159081874192446
            ]
        },
        {
            "positions": [
                -1.1914950317597444,
                -1.1710846141735467,
                2.009000893581215,
                -0.8016703399440622,
                0.6403735024006862,
                3.1575270561442164
            ]
        },
        {
            "positions": [
                -1.2877828547149863,
                -1.2201487152825943,
                1.9986956190164993,
                -0.747373498821873,
                0.8047831335073363,
                3.155972238095987
            ]
        },
        {
            "positions": [
                -1.384070677670228,
                -1.2692128163916419,
                1.9883903444517834,
                -0.6930766576996837,
                0.9691927646139864,
                3.1544174200477575
            ]
        },
        {
            "positions": [
                -1.4803585006254698,
                -1.3182769175006894,
                1.9780850698870673,
                -0.6387798165774945,
                1.1336023957206365,
                3.152862601999528
            ]
        },
        {
            "positions": [
                -1.5766463235807118,
                -1.367341018609737,
                1.9677797953223513,
                -0.5844829754553053,
                1.2980120268272868,
                3.1513077839512986
            ]
        },
        {
            "positions": [
                -1.6729341465359535,
                -1.4164051197187846,
                1.9574745207576354,
                -0.530186134333116,
                1.4624216579339369,
                3.149752965903069
            ]
        }
    ]
}