{
    "goal": {
        "global_pose": {
            "orientation": {
                "w": 0.5084816217422485,
                "x": -0.49083608388900757,
                "y": 0.5182115435600281,
                "z": -0.4816462993621826
            },
            "position": {
                "x": 0.5540239810943604,
                "y": 0.030875300988554955,
                "z": 0.16403168439865112
            }
        },
        "name": "move_to_storage_A"
    },
    "id": "KPIECE_move_to_storage_A_23",
    "joint_names": [
        "shoulder_pan_joint",
        "shoulder_lift_joint",
        "elbow_joint",
        "wrist_1_joint",
        "wrist_2_joint",
        "wrist_3_joint"
    ],
    "metrics": {
        "cart_traj_len": 0.3533525998870428,
        "distance_elbow_joint": 0.45270507225261203,
        "distance_shoulder_lift_joint": 0.23477554006629076,
        "distance_shoulder_pan_joint": 0.4625267617528364,
        "distance_wrist_1_joint": 0.2517343832736887,
        "distance_wrist_2_joint": 1.0979860166644055,
        "distance_wrist_3_joint": 0.09002259185128114,
        "smoothness": 0.0,
        "time": 0.030368233,
        "traj_len": 1.609270134520962,
        "weighted_distance": 2.029659072233997
    },
    "planner": "KPIECE",
    "start": {
        "state": {
            "elbow_joint": 1.971548880431181,
            "shoulder_lift_joint": -1.1394869514688781,
            "shoulder_pan_joint": 0.12281150262730567,
            "wrist_1_joint": -0.7804693444481463,
            "wrist_2_joint": 0.12958644648617612,
            "wrist_3_joint": 3.0906942077768043
        }
    },
    "waypoints": [
        {
            "positions": [
                0.12281150262730567,
                -1.1394869514688781,
                1.971548880431181,
                -0.7804693444481463,
                0.12958644648617612,
                3.0906942077768043
            ]
        },
        {
            "positions": [
                0.05673625094832904,
                -1.173026314335491,
                2.0362210336101256,
                -0.8164313992015304,
                0.28644159172394834,
                3.103554578041273
            ]
        },
        {
            "positions": [
                -0.009339000730647584,
                -1.206565677202104,
                2.10089318678907,
                -0.8523934539549145,
                0.44329673696172056,
                3.1164149483057417
            ]
        },
        {
            "positions": [
                -0.07541425240962421,
                -1.240105040068717,
                2.1655653399680146,
                -0.8883555087082986,
                0.6001518821994928,
                3.1292753185702105
            ]
        },
        {
            "positions": [
                -0.14148950408860084,
                -1.27364440293533,
                2.230237493146959,
                -0.9243175634616827,
                0.757007027437265,
                3.142135688834679
            ]
        },
        {
            "positions": [
                -0.2075647557675775,
                -1.307183765801943,
                2.294909646325904,
                -0.9602796182150668,
                0.9138621726750372,
                3.154996059099148
            ]
        },
        {
            "positions": [
                -0.2736400074465541,
                -1.340723128668556,
                2.3595817995048485,
                -0.9962416729684509,
                1.0707173179128096,
                3.1678564293636167
            ]
        },
        {
            "positions": [
                -0.33971525912553074,
                -1.3742624915351689,
                2.424253952683793,
                -1.032203727721835,
                1.2275724631505815,
                3.1807167996280854
            ]
        }
    ]
}