{
    "goal": {
        "global_pose": {
            "orientation": {
                "w": -0.00223480608172531,
                "x": 0.0024358444001904467,
                "y": 0.7094548369677653,
                "z": -0.704743149386269
            },
            "position": {
                "x": -0.37947507619857795,
                "y": -0.6371506643295288,
                "z": 0.19426114857196808
            }
        },
        "name": "move_to_magneteinheit_C"
    },
    "id": "KPIECE_move_to_magneteinheit_C_45",
    "joint_names": [
        "shoulder_pan_joint",
        "shoulder_lift_joint",
        "elbow_joint",
        "wrist_1_joint",
        "wrist_2_joint",
        "wrist_3_joint"
    ],
    "metrics": {
        "cart_traj_len": 0.8755254361813153,
        "distance_elbow_joint": 0.06670532548162256,
        "distance_shoulder_lift_joint": 0.25508982015876747,
        "distance_shoulder_pan_joint": 1.118937419501237,
        "distance_wrist_1_joint": 0.29621851208442296,
        "distance_wrist_2_joint": 0.8006294464023479,
        "distance_wrist_3_joint": 0.0966309161921588,
        "smoothness": 0.6962565289471416,
        "time": 0.833539594,
        "traj_len": 1.6230253971582074,
        "weighted_distance": 1.9809899622894722
    },
    "planner": "KPIECE",
    "start": {
        "state": {
            "elbow_joint": 1.9565354006593851,
            "shoulder_lift_joint": -1.4165861576512813,
            "shoulder_pan_joint": -1.6717766223278752,
            "wrist_1_joint": -0.528663328821883,
            "wrist_2_joint": 1.472756589259273,
            "wrist_3_joint": 3.159348288315503
        }
    },
    "waypoints": [
        {
            "positions": [
                -1.6717766223278752,
                -1.4165861576512813,
                1.9565354006593851,
                -0.528663328821883,
                1.472756589259273,
                3.159348288315503
            ]
        },
        {
            "positions": [
                -1.618949069052368,
                -1.3964208598675247,
                1.9539930320899983,
                -0.5635807628265742,
                1.304488160385673,
                3.1365667248004008
            ]
        },
        {
            "positions": [
                -1.5661215157768609,
                -1.3762555620837682,
                1.9514506635206113,
                -0.5984981968312653,
                1.1362197315120728,
                3.113785161285299
            ]
        },
        {
            "positions": [
                -1.5132939625013537,
                -1.3560902643000117,
                1.9489082949512244,
                -0.6334156308359564,
                0.9679513026384727,
                3.0910035977701966
            ]
        },
        {
            "positions": [
                -1.705384914436297,
                -1.317171478938512,
                1.9607239389059168,
                -0.6717088728500263,
                0.9087864706821632,
                3.096660842899567
            ]
        },
        {
            "positions": [
                -1.8974758663712399,
                -1.2782526935770124,
                1.9725395828606092,
                -0.7100021148640963,
                0.8496216387258537,
                3.1023180880289374
            ]
        },
        {
            "positions": [
                -2.089566818306183,
                -1.239333908215513,
                1.9843552268153015,
                -0.7482953568781662,
                0.7904568067695442,
                3.107975333158308
            ]
        },
        {
            "positions": [
                -2.281657770241126,
                -1.2004151228540134,
                1.9961708707699939,
                -0.7865885988922361,
                0.7312919748132347,
                3.1136325782876786
            ]
        },
        {
            "positions": [
                -2.4737487221760692,
                -1.1614963374925138,
                2.0079865147246863,
                -0.824881840906306,
                0.6721271428569252,
                3.119289823417049
            ]
        }
    ]
}