{
    "goal": {
        "global_pose": {
            "orientation": {
                "w": 0.7031023502349854,
                "x": -0.7110244035720825,
                "y": 0.007748599164187908,
                "z": 0.005598929710686207
            },
            "position": {
                "x": 0.11585023208521307,
                "y": 0.44412534475326537,
                "z": 0.3711530566215515
            }
        },
        "name": "move_to_auspresseinheit_A"
    },
    "id": "KPIECE_move_to_auspresseinheit_A_143",
    "joint_names": [
        "shoulder_pan_joint",
        "shoulder_lift_joint",
        "elbow_joint",
        "wrist_1_joint",
        "wrist_2_joint",
        "wrist_3_joint"
    ],
    "metrics": {
        "cart_traj_len": 0.8871118128499137,
        "distance_elbow_joint": 0.5225253832784214,
        "distance_shoulder_lift_joint": 0.5356790589137559,
        "distance_shoulder_pan_joint": 1.0390565692845155,
        "distance_wrist_1_joint": 0.5518575057190414,
        "distance_wrist_2_joint": 0.7762920020621015,
        "distance_wrist_3_joint": 0.570397815152305,
        "smoothness": 0.7806523726270593,
        "time": 0.811833306,
        "traj_len": 1.9989518089264033,
        "weighted_distance": 2.542587947838952
    },
    "planner": "KPIECE",
    "start": {
        "state": {
            "elbow_joint": 2.4225746994637096,
            "shoulder_lift_joint": -1.373653595662188,
            "shoulder_pan_joint": -0.3378633848294565,
            "wrist_1_joint": -1.0288595594406726,
            "wrist_2_joint": 1.2330228066703421,
            "wrist_3_joint": 3.189163495502006
        }
    },
    "waypoints": [
        {
            "positions": [
                -0.3378633848294565,
                -1.373653595662188,
                2.4225746994637096,
                -1.0288595594406726,
                1.2330228066703421,
                3.189163495502006
            ]
        },
        {
            "positions": [
                -0.27617240029162465,
                -1.4467825671850019,
                2.383295122849312,
                -0.9791615338356365,
                1.1390900773362502,
                3.1460976713010136
            ]
        },
        {
            "positions": [
                -0.21448141575379284,
                -1.5199115387078157,
                2.3440155462349144,
                -0.9294635082306004,
                1.0451573480021583,
                3.103031847100021
            ]
        },
        {
            "positions": [
                -0.152790431215961,
                -1.5930405102306298,
                2.3047359696205167,
                -0.8797654826255642,
                0.9512246186680664,
                3.0599660228990286
            ]
        },
        {
            "positions": [
                -0.09109944667812919,
                -1.6661694817534436,
                2.265456393006119,
                -0.8300674570205281,
                0.8572918893339745,
                3.016900198698036
            ]
        },
        {
            "positions": [
                -0.029408462140297353,
                -1.7392984532762576,
                2.2261768163917215,
                -0.7803694314154919,
                0.7633591599998826,
                2.9738343744970437
            ]
        },
        {
            "positions": [
                0.032282522397534485,
                -1.8124274247990715,
                2.186897239777324,
                -0.7306714058104558,
                0.6694264306657907,
                2.930768550296051
            ]
        },
        {
            "positions": [
                0.09397350693536632,
                -1.8855563963218853,
                2.1476176631629262,
                -0.6809733802054196,
                0.5754937013316987,
                2.8877027260950587
            ]
        },
        {
            "positions": [
                0.24378614082752292,
                -1.8962996274441761,
                2.2166357159189065,
                -0.6261608245344014,
                0.6053230885686713,
                2.959769727269857
            ]
        },
        {
            "positions": [
                0.3935987747196795,
                -1.9070428585664667,
                2.2856537686748872,
                -0.5713482688633831,
                0.6351524758056439,
                3.031836728444655
            ]
        },
        {
            "positions": [
                0.5111702946374981,
                -1.9070691087858958,
                2.3259069173380253,
                -0.5328996035954876,
                0.6632889088322118,
                3.0747587644986147
            ]
        },
        {
            "positions": [
                0.6287418145553165,
                -1.9070953590053246,
                2.3661600660011635,
                -0.49445093832759224,
                0.6914253418587797,
                3.1176808005525745
            ]
        },
        {
            "positions": [
                0.7011931844550592,
                -1.909332654575944,
                2.395186010140564,
                -0.47700205372163135,
                0.6942565980551568,
                3.1566397718404167
            ]
        }
    ]
}