{
    "goal": {
        "global_pose": {
            "orientation": {
                "w": 0.7031023480610252,
                "x": -0.7110244013736278,
                "y": 0.0077485991402295624,
                "z": 0.005598929693374583
            },
            "position": {
                "x": -0.8841497679147869,
                "y": 0.44412534475326537,
                "z": 0.3711530566215515
            }
        },
        "name": "move_to_auspresseinheit_D"
    },
    "id": "KPIECE_move_to_auspresseinheit_D_3",
    "joint_names": [
        "shoulder_pan_joint",
        "shoulder_lift_joint",
        "elbow_joint",
        "wrist_1_joint",
        "wrist_2_joint",
        "wrist_3_joint"
    ],
    "metrics": {
        "cart_traj_len": 0.3437607939590393,
        "distance_elbow_joint": 0.6490954206858446,
        "distance_shoulder_lift_joint": 0.12670276680586,
        "distance_shoulder_pan_joint": 0.13367078370332194,
        "distance_wrist_1_joint": 0.5677037269568972,
        "distance_wrist_2_joint": 1.4343890702799424,
        "distance_wrist_3_joint": 0.029927436491941517,
        "smoothness": 1.9737298371844314e-16,
        "time": 0.067714742,
        "traj_len": 1.7150770259448431,
        "weighted_distance": 2.236836354127081
    },
    "planner": "KPIECE",
    "start": {
        "state": {
            "elbow_joint": -1.8275484843655228,
            "shoulder_lift_joint": -2.1267897864000416,
            "shoulder_pan_joint": -0.035127520176001514,
            "wrist_1_joint": -2.3477863256791385,
            "wrist_2_joint": -1.605890476484521,
            "wrist_3_joint": -3.0880375317375353
        }
    },
    "waypoints": [
        {
            "positions": [
                -0.035127520176001514,
                -2.1267897864000416,
                -1.8275484843655228,
                -2.3477863256791385,
                -1.605890476484521,
                -3.0880375317375353
            ]
        },
        {
            "positions": [
                -0.05183636813891676,
                -2.142627632250774,
                -1.7464115567797922,
                -2.4187492915487505,
                -1.426591842699528,
                -3.0842966021760425
            ]
        },
        {
            "positions": [
                -0.06854521610183201,
                -2.1584654781015065,
                -1.6652746291940617,
                -2.489712257418363,
                -1.2472932089145354,
                -3.0805556726145498
            ]
        },
        {
            "positions": [
                -0.08525406406474724,
                -2.174303323952239,
                -1.5841377016083311,
                -2.560675223287975,
                -1.0679945751295425,
                -3.076814743053057
            ]
        },
        {
            "positions": [
                -0.10196291202766249,
                -2.1901411698029714,
                -1.5030007740226003,
                -2.631638189157587,
                -0.8886959413445498,
                -3.0730738134915647
            ]
        },
        {
            "positions": [
                -0.11867175999057773,
                -2.2059790156537042,
                -1.42186384643687,
                -2.702601155027199,
                -0.709397307559557,
                -3.069332883930072
            ]
        },
        {
            "positions": [
                -0.13538060795349297,
                -2.2218168615044367,
                -1.3407269188511393,
                -2.773564120896811,
                -0.5300986737745641,
                -3.0655919543685792
            ]
        },
        {
            "positions": [
                -0.1520894559164082,
                -2.237654707355169,
                -1.2595899912654087,
                -2.8445270867664236,
                -0.35080003998957143,
                -3.0618510248070865
            ]
        },
        {
            "positions": [
                -0.16879830387932346,
                -2.2534925532059016,
                -1.1784530636796782,
                -2.9154900526360357,
                -0.17150140620457846,
                -3.0581100952455937
            ]
        }
    ]
}