{
    "goal": {
        "global_pose": {
            "orientation": {
                "w": 0.7031023480610252,
                "x": -0.7110244013736278,
                "y": 0.0077485991402295624,
                "z": 0.005598929693374583
            },
            "position": {
                "x": -0.8841497679147869,
                "y": 0.44412534475326537,
                "z": 0.3711530566215515
            }
        },
        "name": "move_to_auspresseinheit_D"
    },
    "id": "KPIECE_move_to_auspresseinheit_D_104",
    "joint_names": [
        "shoulder_pan_joint",
        "shoulder_lift_joint",
        "elbow_joint",
        "wrist_1_joint",
        "wrist_2_joint",
        "wrist_3_joint"
    ],
    "metrics": {
        "cart_traj_len": 0.3423988764317107,
        "distance_elbow_joint": 0.6300741668535896,
        "distance_shoulder_lift_joint": 0.11764968630327521,
        "distance_shoulder_pan_joint": 0.13421084601564207,
        "distance_wrist_1_joint": 0.5053298159975146,
        "distance_wrist_2_joint": 1.4321602454242806,
        "distance_wrist_3_joint": 0.021178109245228782,
        "smoothness": 3.9474596431116675e-16,
        "time": 0.058839174,
        "traj_len": 1.685408813860759,
        "weighted_distance": 2.1955521286801147
    },
    "planner": "KPIECE",
    "start": {
        "state": {
            "elbow_joint": -1.8275484843655228,
            "shoulder_lift_joint": -2.1267897864000416,
            "shoulder_pan_joint": -0.035127520176001514,
            "wrist_1_joint": -2.3477863256791385,
            "wrist_2_joint": -1.605890476484521,
            "wrist_3_joint": -3.0880375317375353
        }
    },
    "waypoints": [
        {
            "positions": [
                -0.035127520176001514,
                -2.1267897864000416,
                -1.8275484843655228,
                -2.3477863256791385,
                -1.605890476484521,
                -3.0880375317375353
            ]
        },
        {
            "positions": [
                -0.05190387592795677,
                -2.141495997187951,
                -1.748789213508824,
                -2.410952552678828,
                -1.426870445806486,
                -3.090684795393189
            ]
        },
        {
            "positions": [
                -0.06868023167991202,
                -2.1562022079758605,
                -1.6700299426521252,
                -2.474118779678517,
                -1.2478504151284509,
                -3.0933320590488425
            ]
        },
        {
            "positions": [
                -0.08545658743186729,
                -2.1709084187637697,
                -1.5912706717954266,
                -2.5372850066782062,
                -1.0688303844504157,
                -3.095979322704496
            ]
        },
        {
            "positions": [
                -0.10223294318382255,
                -2.1856146295516794,
                -1.512511400938728,
                -2.6004512336778958,
                -0.8898103537723807,
                -3.0986265863601496
            ]
        },
        {
            "positions": [
                -0.1190092989357778,
                -2.2003208403395886,
                -1.4337521300820293,
                -2.6636174606775853,
                -0.7107903230943456,
                -3.1012738500158035
            ]
        },
        {
            "positions": [
                -0.13578565468773307,
                -2.215027051127498,
                -1.3549928592253306,
                -2.7267836876772744,
                -0.5317702924163106,
                -3.103921113671457
            ]
        },
        {
            "positions": [
                -0.1525620104396883,
                -2.2297332619154075,
                -1.2762335883686318,
                -2.7899499146769635,
                -0.3527502617382756,
                -3.10656837732711
            ]
        },
        {
            "positions": [
                -0.16933836619164358,
                -2.244439472703317,
                -1.1974743175119331,
                -2.853116141676653,
                -0.1737302310602404,
                -3.109215640982764
            ]
        }
    ]
}