{
    "goal": {
        "global_pose": {
            "orientation": {
                "w": -0.00223480608172531,
                "x": 0.0024358444001904467,
                "y": 0.7094548369677653,
                "z": -0.704743149386269
            },
            "position": {
                "x": 0.6205249238014221,
                "y": -0.6371506643295288,
                "z": 0.19426114857196808
            }
        },
        "name": "move_to_magneteinheit_B"
    },
    "id": "KPIECE_move_to_magneteinheit_B_47",
    "joint_names": [
        "shoulder_pan_joint",
        "shoulder_lift_joint",
        "elbow_joint",
        "wrist_1_joint",
        "wrist_2_joint",
        "wrist_3_joint"
    ],
    "metrics": {
        "cart_traj_len": 1.453587034408414,
        "distance_elbow_joint": 0.732799256124576,
        "distance_shoulder_lift_joint": 1.2490577584497928,
        "distance_shoulder_pan_joint": 1.619469247537653,
        "distance_wrist_1_joint": 2.6086311581515456,
        "distance_wrist_2_joint": 2.9511370925771416,
        "distance_wrist_3_joint": 3.155496209418118,
        "smoothness": 3.7680296739872524e-16,
        "time": 0.220593822,
        "traj_len": 3.5095000672829206,
        "weighted_distance": 4.918063784847017
    },
    "planner": "KPIECE",
    "start": {
        "state": {
            "elbow_joint": 2.393587130804639,
            "shoulder_lift_joint": -1.9085141043513325,
            "shoulder_pan_joint": 0.7066247066698809,
            "wrist_1_joint": -0.4678290934590222,
            "wrist_2_joint": 0.7096259084215963,
            "wrist_3_joint": 3.147370379541726
        }
    },
    "waypoints": [
        {
            "positions": [
                0.7066247066698809,
                -1.9085141043513325,
                2.393587130804639,
                -0.4678290934590222,
                0.7096259084215963,
                3.147370379541726
            ]
        },
        {
            "positions": [
                0.6560162926843291,
                -1.8694810493997764,
                2.3706871540507457,
                -0.38630936976678637,
                0.6174028742785607,
                3.04876112299741
            ]
        },
        {
            "positions": [
                0.6054078786987775,
                -1.8304479944482204,
                2.3477871772968526,
                -0.3047896460745506,
                0.525179840135525,
                2.9501518664530937
            ]
        },
        {
            "positions": [
                0.5547994647132259,
                -1.7914149394966645,
                2.32488720054296,
                -0.2232699223823148,
                0.4329568059924893,
                2.8515426099087775
            ]
        },
        {
            "positions": [
                0.5041910507276742,
                -1.7523818845451085,
                2.301987223789067,
                -0.141750198690079,
                0.34073377184945364,
                2.7529333533644613
            ]
        },
        {
            "positions": [
                0.45358263674212257,
                -1.7133488295935524,
                2.2790872470351737,
                -0.060230474997843175,
                0.24851073770641796,
                2.654324096820145
            ]
        },
        {
            "positions": [
                0.4029742227565709,
                -1.6743157746419963,
                2.2561872702812806,
                0.021289248694392582,
                0.15628770356338229,
                2.555714840275829
            ]
        },
        {
            "positions": [
                0.35236580877101925,
                -1.6352827196904403,
                2.233287293527388,
                0.1028089723866284,
                0.06406466942034661,
                2.4571055837315128
            ]
        },
        {
            "positions": [
                0.3017573947854676,
                -1.5962496647388842,
                2.210387316773495,
                0.1843286960788642,
                -0.028158364722689067,
                2.3584963271871966
            ]
        },
        {
            "positions": [
                0.25114898079991593,
                -1.5572166097873283,
                2.1874873400196018,
                0.2658484197711,
                -0.12038139886572474,
                2.2598870706428804
            ]
        },
        {
            "positions": [
                0.20054056681436427,
                -1.5181835548357723,
                2.1645873632657087,
                0.34736814346333583,
                -0.21260443300876042,
                2.1612778140985642
            ]
        },
        {
            "positions": [
                0.14993215282881256,
                -1.4791504998842162,
                2.141687386511816,
                0.42888786715557164,
                -0.3048274671517961,
                2.062668557554248
            ]
        },
        {
            "positions": [
                0.09932373884326096,
                -1.4401174449326601,
                2.118787409757923,
                0.5104075908478074,
                -0.39705050129483177,
                1.9640593010099319
            ]
        },
        {
            "positions": [
                0.04871532485770935,
                -1.4010843899811043,
                2.09588743300403,
                0.5919273145400432,
                -0.48927353543786745,
                1.8654500444656157
            ]
        },
        {
            "positions": [
                -0.0018930891278423623,
                -1.3620513350295482,
                2.0729874562501367,
                0.673447038232279,
                -0.5814965695809031,
                1.7668407879212995
            ]
        },
        {
            "positions": [
                -0.05250150311339408,
                -1.3230182800779922,
                2.050087479496244,
                0.7549667619245148,
                -0.6737196037239388,
                1.6682315313769833
            ]
        },
        {
            "positions": [
                -0.10310991709894568,
                -1.283985225126436,
                2.027187502742351,
                0.8364864856167507,
                -0.7659426378669745,
                1.5696222748326671
            ]
        },
        {
            "positions": [
                -0.15371833108449728,
                -1.24495217017488,
                2.004287525988458,
                0.9180062093089865,
                -0.8581656720100101,
                1.471013018288351
            ]
        },
        {
            "positions": [
                -0.204326745070049,
                -1.205919115223324,
                1.9813875492345647,
                0.9995259330012223,
                -0.9503887061530458,
                1.3724037617440348
            ]
        },
        {
            "positions": [
                -0.2549351590556007,
                -1.1668860602717679,
                1.9584875724806718,
                1.081045656693458,
                -1.0426117402960815,
                1.2737945051997186
            ]
        },
        {
            "positions": [
                -0.3055435730411523,
                -1.127853005320212,
                1.935587595726779,
                1.162565380385694,
                -1.1348347744391172,
                1.1751852486554024
            ]
        },
        {
            "positions": [
                -0.3561519870267039,
                -1.088819950368656,
                1.9126876189728859,
                1.2440851040779297,
                -1.2270578085821529,
                1.0765759921110862
            ]
        },
        {
            "positions": [
                -0.40676040101225575,
                -1.0497868954171,
                1.8897876422189928,
                1.3256048277701655,
                -1.3192808427251885,
                0.97796673556677
            ]
        },
        {
            "positions": [
                -0.45736881499780735,
                -1.010753840465544,
                1.8668876654650999,
                1.4071245514624013,
                -1.4115038768682242,
                0.8793574790224539
            ]
        },
        {
            "positions": [
                -0.507977228983359,
                -0.9717207855139879,
                1.8439876887112068,
                1.488644275154637,
                -1.5037269110112599,
                0.7807482224781377
            ]
        },
        {
            "positions": [
                -0.5585856429689106,
                -0.9326877305624318,
                1.821087711957314,
                1.570163998846873,
                -1.5959499451542956,
                0.6821389659338215
            ]
        },
        {
            "positions": [
                -0.6091940569544622,
                -0.8936546756108759,
                1.7981877352034208,
                1.6516837225391086,
                -1.6881729792973312,
                0.5835297093895053
            ]
        },
        {
            "positions": [
                -0.659802470940014,
                -0.8546216206593198,
                1.7752877584495277,
                1.7332034462313446,
                -1.780396013440367,
                0.48492045284518914
            ]
        },
        {
            "positions": [
                -0.7104108849255656,
                -0.8155885657077637,
                1.7523877816956348,
                1.8147231699235802,
                -1.8726190475834026,
                0.38631119630087296
            ]
        },
        {
            "positions": [
                -0.7610192989111172,
                -0.7765555107562077,
                1.729487804941742,
                1.8962428936158162,
                -1.9648420817264383,
                0.2877019397565568
            ]
        },
        {
            "positions": [
                -0.811627712896669,
                -0.7375224558046518,
                1.7065878281878488,
                1.9777626173080518,
                -2.0570651158694737,
                0.1890926832122406
            ]
        },
        {
            "positions": [
                -0.8622361268822206,
                -0.6984894008530957,
                1.6836878514339557,
                2.0592823410002876,
                -2.1492881500125094,
                0.09048342666792442
            ]
        },
        {
            "positions": [
                -0.9128445408677722,
                -0.6594563459015397,
                1.6607878746800628,
                2.140802064692523,
                -2.241511184155545,
                -0.00812582987639168
            ]
        }
    ]
}