{
    "goal": {
        "global_pose": {
            "orientation": {
                "w": 0.5084816262002911,
                "x": -0.4908360881923452,
                "y": 0.5182115481033761,
                "z": -0.48164630358495003
            },
            "position": {
                "x": 0.5540239810943604,
                "y": -0.46912469901144505,
                "z": 0.16403168439865112
            }
        },
        "name": "move_to_storage_B"
    },
    "id": "KPIECE_move_to_storage_B_130",
    "joint_names": [
        "shoulder_pan_joint",
        "shoulder_lift_joint",
        "elbow_joint",
        "wrist_1_joint",
        "wrist_2_joint",
        "wrist_3_joint"
    ],
    "metrics": {
        "cart_traj_len": 3.565593453780375,
        "distance_elbow_joint": 2.8873758188407925,
        "distance_shoulder_lift_joint": 1.1727430387458442,
        "distance_shoulder_pan_joint": 2.8503527440155665,
        "distance_wrist_1_joint": 3.0142716038683854,
        "distance_wrist_2_joint": 2.7113285431562515,
        "distance_wrist_3_joint": 3.1187594116330755,
        "smoothness": 0.3130151184719948,
        "time": 0.078145153,
        "traj_len": 3.9692355889087656,
        "weighted_distance": 5.264783958582793
    },
    "planner": "KPIECE",
    "start": {
        "state": {
            "elbow_joint": 1.6649325340416963,
            "shoulder_lift_joint": -0.6616387945129425,
            "shoulder_pan_joint": -0.9139837929255878,
            "wrist_1_joint": 2.1467571094334352,
            "wrist_2_joint": -2.234195976750228,
            "wrist_3_joint": 0.005470921511140723
        }
    },
    "waypoints": [
        {
            "positions": [
                -0.9139837929255878,
                -0.6616387945129425,
                1.6649325340416963,
                2.1467571094334352,
                -2.234195976750228,
                0.005470921511140723
            ]
        },
        {
            "positions": [
                -0.8472751274912408,
                -0.7025299073792646,
                1.601706280043013,
                2.0607399576537104,
                -2.0993813131407517,
                0.002365749594541936
            ]
        },
        {
            "positions": [
                -0.7805664620568937,
                -0.7434210202455867,
                1.5384800260443299,
                1.974722805873986,
                -1.9645666495312755,
                -0.0007394223220568508
            ]
        },
        {
            "positions": [
                -0.7138577966225467,
                -0.7843121331119086,
                1.475253772045647,
                1.8887056540942613,
                -1.8297519859217992,
                -0.003844594238655636
            ]
        },
        {
            "positions": [
                -0.6471491311881996,
                -0.8252032459782307,
                1.4120275180469637,
                1.8026885023145367,
                -1.6949373223123227,
                -0.006949766155254424
            ]
        },
        {
            "positions": [
                -0.5804404657538524,
                -0.8660943588445528,
                1.3488012640482805,
                1.7166713505348121,
                -1.5601226587028465,
                -0.01005493807185321
            ]
        },
        {
            "positions": [
                -0.5137318003195055,
                -0.9069854717108748,
                1.2855750100495973,
                1.6306541987550875,
                -1.4253079950933703,
                -0.013160109988451994
            ]
        },
        {
            "positions": [
                -0.4470231348851584,
                -0.9478765845771968,
                1.222348756050914,
                1.544637046975363,
                -1.290493331483894,
                -0.01626528190505078
            ]
        },
        {
            "positions": [
                -0.38031446945081127,
                -0.9887676974435189,
                1.1591225020522309,
                1.4586198951956382,
                -1.1556786678744175,
                -0.01937045382164957
            ]
        },
        {
            "positions": [
                -0.3136058040164642,
                -1.029658810309841,
                1.0958962480535477,
                1.3726027434159138,
                -1.0208640042649413,
                -0.022475625738248354
            ]
        },
        {
            "positions": [
                -0.24689713858211715,
                -1.070549923176163,
                1.0326699940548647,
                1.286585591636189,
                -0.886049340655465,
                -0.02558079765484714
            ]
        },
        {
            "positions": [
                -0.18018847314776998,
                -1.1114410360424851,
                0.9694437400561815,
                1.2005684398564644,
                -0.7512346770459886,
                -0.02868596957144593
            ]
        },
        {
            "positions": [
                -0.11347980771342303,
                -1.1523321489088072,
                0.9062174860574984,
                1.1145512880767399,
                -0.6164200134365125,
                -0.03179114148804471
            ]
        },
        {
            "positions": [
                -0.04677114227907586,
                -1.1932232617751293,
                0.8429912320588152,
                1.0285341362970153,
                -0.48160534982703607,
                -0.034896313404643504
            ]
        },
        {
            "positions": [
                0.019937523155271086,
                -1.2341143746414511,
                0.7797649780601321,
                0.9425169845172907,
                -0.34679068621756004,
                -0.038001485321242284
            ]
        },
        {
            "positions": [
                0.08664618858961814,
                -1.2750054875077734,
                0.7165387240614489,
                0.8564998327375661,
                -0.21197602260808335,
                -0.04110665723784107
            ]
        },
        {
            "positions": [
                0.15335485402396531,
                -1.3158966003740953,
                0.6533124700627657,
                0.7704826809578413,
                -0.0771613589986071,
                -0.044211829154439865
            ]
        },
        {
            "positions": [
                0.22006351945831226,
                -1.3567877132404174,
                0.5900862160640827,
                0.684465529178117,
                0.05765330461086915,
                -0.047317001071038645
            ]
        },
        {
            "positions": [
                0.28677218489265943,
                -1.3976788261067394,
                0.5268599620653993,
                0.5984483773983922,
                0.1924679682203454,
                -0.05042217298763743
            ]
        },
        {
            "positions": [
                0.3534808503270064,
                -1.4385699389730615,
                0.46363370806671633,
                0.5124312256186676,
                0.32728263182982165,
                -0.05352734490423622
            ]
        },
        {
            "positions": [
                0.42018951576135355,
                -1.4794610518393836,
                0.400407454068033,
                0.42641407383894303,
                0.462097295439298,
                -0.056632516820835005
            ]
        },
        {
            "positions": [
                0.34438054399492224,
                -1.4617150127684135,
                0.4815499910113895,
                0.36171764542524837,
                0.4628490589876344,
                -0.20946531548588998
            ]
        },
        {
            "positions": [
                0.26857157222849093,
                -1.4439689736974433,
                0.562692527954746,
                0.2970212170115537,
                0.46360082253597074,
                -0.3622981141509449
            ]
        },
        {
            "positions": [
                0.19276260046205967,
                -1.4262229346264732,
                0.6438350648981024,
                0.23232478859785907,
                0.46435258608430713,
                -0.5151309128159999
            ]
        },
        {
            "positions": [
                0.11695362869562831,
                -1.408476895555503,
                0.7249776018414589,
                0.16762836018416444,
                0.46510434963264347,
                -0.6679637114810549
            ]
        },
        {
            "positions": [
                0.041144656929197054,
                -1.3907308564845329,
                0.8061201387848154,
                0.10293193177046978,
                0.46585611318097986,
                -0.8207965101461099
            ]
        },
        {
            "positions": [
                -0.0346643148372342,
                -1.3729848174135626,
                0.8872626757281719,
                0.038235503356775113,
                0.46660787672931625,
                -0.9736293088111648
            ]
        },
        {
            "positions": [
                -0.11047328660366551,
                -1.3552387783425925,
                0.9684052126715282,
                -0.026460925056919493,
                0.4673596402776526,
                -1.1264621074762198
            ]
        },
        {
            "positions": [
                -0.18628225837009693,
                -1.3374927392716223,
                1.0495477496148848,
                -0.09115735347061416,
                0.468111403825989,
                -1.2792949061412748
            ]
        },
        {
            "positions": [
                -0.26209123013652813,
                -1.3197467002006522,
                1.130690286558241,
                -0.15585378188430887,
                0.4688631673743253,
                -1.43212770480633
            ]
        },
        {
            "positions": [
                -0.33790020190295944,
                -1.3020006611296822,
                1.2118328235015978,
                -0.22055021029800348,
                0.4696149309226617,
                -1.5849605034713847
            ]
        },
        {
            "positions": [
                -0.41370917366939086,
                -1.2842546220587119,
                1.292975360444954,
                -0.2852466387116982,
                0.4703666944709981,
                -1.7377933021364398
            ]
        },
        {
            "positions": [
                -0.48951814543582195,
                -1.2665085829877418,
                1.3741178973883106,
                -0.3499430671253928,
                0.47111845801933444,
                -1.8906261008014946
            ]
        },
        {
            "positions": [
                -0.5653271172022534,
                -1.2487625439167716,
                1.455260434331667,
                -0.4146394955390874,
                0.47187022156767083,
                -2.0434588994665495
            ]
        },
        {
            "positions": [
                -0.6411360889686846,
                -1.2310165048458015,
                1.5364029712750233,
                -0.479335923952782,
                0.47262198511600717,
                -2.1962916981316045
            ]
        },
        {
            "positions": [
                -0.716945060735116,
                -1.2132704657748312,
                1.61754550821838,
                -0.5440323523664767,
                0.47337374866434356,
                -2.3491244967966596
            ]
        },
        {
            "positions": [
                -0.7927540325015474,
                -1.1955244267038612,
                1.6986880451617368,
                -0.6087287807801713,
                0.47412551221267996,
                -2.5019572954617146
            ]
        },
        {
            "positions": [
                -0.8685630042679784,
                -1.177778387632891,
                1.779830582105093,
                -0.673425209193866,
                0.4748772757610163,
                -2.6547900941267693
            ]
        },
        {
            "positions": [
                -0.9443719760344098,
                -1.1600323485619208,
                1.8609731190484493,
                -0.7381216376075608,
                0.4756290393093527,
                -2.8076228927918248
            ]
        },
        {
            "positions": [
                -1.020180947800841,
                -1.1422863094909506,
                1.942115655991806,
                -0.8028180660212554,
                0.476380802857689,
                -2.9604556914568794
            ]
        },
        {
            "positions": [
                -1.0959899195672724,
                -1.1245402704199805,
                2.0232581929351623,
                -0.86751449443495,
                0.4771325664060254,
                -3.1132884901219344
            ]
        }
    ]
}