{
    "goal": {
        "global_pose": {
            "orientation": {
                "w": 0.7047431493862688,
                "x": -0.7094548369677653,
                "y": 0.0024358444001904,
                "z": -0.0022348060817251984
            },
            "position": {
                "x": -0.39052492380142206,
                "y": 0.3671506643295288,
                "z": 0.19426114857196808
            }
        },
        "name": "move_to_magneteinheit_D"
    },
    "id": "KPIECE_move_to_magneteinheit_D_50",
    "joint_names": [
        "shoulder_pan_joint",
        "shoulder_lift_joint",
        "elbow_joint",
        "wrist_1_joint",
        "wrist_2_joint",
        "wrist_3_joint"
    ],
    "metrics": {
        "cart_traj_len": 4.66895377492431,
        "distance_elbow_joint": 6.581049588357515,
        "distance_shoulder_lift_joint": 1.7010158105458706,
        "distance_shoulder_pan_joint": 2.9170937581991985,
        "distance_wrist_1_joint": 2.8035492053937165,
        "distance_wrist_2_joint": 2.3002140578079198,
        "distance_wrist_3_joint": 3.8161888957023185,
        "smoothness": 0.4349931552107931,
        "time": 0.334424248,
        "traj_len": 4.485433236155292,
        "weighted_distance": 5.731950136787026
    },
    "planner": "KPIECE",
    "start": {
        "state": {
            "elbow_joint": 0.7495348899011911,
            "shoulder_lift_joint": -0.6476975780737668,
            "shoulder_pan_joint": -2.711696901376276,
            "wrist_1_joint": -0.0750647808097303,
            "wrist_2_joint": 0.43296659715458535,
            "wrist_3_joint": 3.1361499051832418
        }
    },
    "waypoints": [
        {
            "positions": [
                -2.711696901376276,
                -0.6476975780737668,
                0.7495348899011911,
                -0.0750647808097303,
                0.43296659715458535,
                3.1361499051832418
            ]
        },
        {
            "positions": [
                -2.696990472632981,
                -0.6935786033840269,
                0.8356258224811045,
                -0.10875347467703494,
                0.47447125411214564,
                2.97004215585113
            ]
        },
        {
            "positions": [
                -2.6822840438896858,
                -0.7394596286942868,
                0.9217167550610179,
                -0.1424421685443396,
                0.515975911069706,
                2.8039344065190184
            ]
        },
        {
            "positions": [
                -2.667577615146391,
                -0.7853406540045469,
                1.0078076876409314,
                -0.17613086241164427,
                0.5574805680272662,
                2.637826657186907
            ]
        },
        {
            "positions": [
                -2.652871186403096,
                -0.8312216793148068,
                1.0938986202208447,
                -0.20981955627894894,
                0.5989852249848265,
                2.4717189078547954
            ]
        },
        {
            "positions": [
                -2.6381647576598004,
                -0.8771027046250669,
                1.1799895528007582,
                -0.2435082501462536,
                0.6404898819423868,
                2.3056111585226837
            ]
        },
        {
            "positions": [
                -2.6234583289165054,
                -0.922983729935327,
                1.2660804853806717,
                -0.27719694401355827,
                0.6819945388999471,
                2.139503409190572
            ]
        },
        {
            "positions": [
                -2.6087519001732105,
                -0.9688647552455869,
                1.352171417960585,
                -0.3108856378808629,
                0.7234991958575073,
                1.9733956598584605
            ]
        },
        {
            "positions": [
                -2.5940454714299155,
                -1.014745780555847,
                1.4382623505404986,
                -0.34457433174816754,
                0.7650038528150677,
                1.8072879105263489
            ]
        },
        {
            "positions": [
                -2.57933904268662,
                -1.060626805866107,
                1.524353283120412,
                -0.3782630256154722,
                0.8065085097726279,
                1.6411801611942372
            ]
        },
        {
            "positions": [
                -2.564632613943325,
                -1.106507831176367,
                1.6104442157003254,
                -0.41195171948277687,
                0.8480131667301882,
                1.4750724118621257
            ]
        },
        {
            "positions": [
                -2.5492736679606494,
                -1.1469717970549793,
                1.6852811559527123,
                -0.44005097789611086,
                0.8845542651022373,
                1.327835343521756
            ]
        },
        {
            "positions": [
                -2.533914721977973,
                -1.1874357629335914,
                1.760118096205099,
                -0.4681502363094449,
                0.9210953634742864,
                1.1805982751813866
            ]
        },
        {
            "positions": [
                -2.5185557759952975,
                -1.2278997288122038,
                1.834955036457486,
                -0.4962494947227789,
                0.9576364618463356,
                1.033361206841017
            ]
        },
        {
            "positions": [
                -2.5031968300126217,
                -1.268363694690816,
                1.909791976709873,
                -0.524348753136113,
                0.9941775602183847,
                0.8861241385006474
            ]
        },
        {
            "positions": [
                -2.487837884029946,
                -1.3088276605694282,
                1.9846289169622597,
                -0.552448011549447,
                1.0307186585904338,
                0.7388870701602778
            ]
        },
        {
            "positions": [
                -2.47247893804727,
                -1.3492916264480403,
                2.0594658572146467,
                -0.5805472699627809,
                1.0672597569624829,
                0.5916500018199082
            ]
        },
        {
            "positions": [
                -2.457119992064594,
                -1.3897555923266527,
                2.1343027974670337,
                -0.608646528376115,
                1.103800855334532,
                0.4444129334795386
            ]
        },
        {
            "positions": [
                -2.433822046538071,
                -1.429191660733734,
                2.203440141415531,
                -0.6304118689393389,
                1.1391933299722277,
                0.298331610989816
            ]
        },
        {
            "positions": [
                -2.4105241010115477,
                -1.4686277291408152,
                2.2725774853640286,
                -0.6521772095025627,
                1.1745858046099236,
                0.15225028850009337
            ]
        },
        {
            "positions": [
                -2.3872261554850245,
                -1.5080637975478965,
                2.341714829312526,
                -0.6739425500657866,
                1.2099782792476192,
                0.006168966010370688
            ]
        },
        {
            "positions": [
                -2.258779641120789,
                -1.5137151683468733,
                2.294566868073336,
                -0.5926448582623967,
                1.2117400049551241,
                -0.053585330558968566
            ]
        },
        {
            "positions": [
                -2.130333126756554,
                -1.5193665391458497,
                2.247418906834146,
                -0.5113471664590068,
                1.2135017306626288,
                -0.11333962712830782
            ]
        },
        {
            "positions": [
                -2.0018866123923185,
                -1.5250179099448262,
                2.2002709455949563,
                -0.4300494746556168,
                1.2152634563701334,
                -0.1730939236976471
            ]
        },
        {
            "positions": [
                -1.8734400980280832,
                -1.530669280743803,
                2.1531229843557664,
                -0.3487517828522269,
                1.2170251820776383,
                -0.23284822026698634
            ]
        },
        {
            "positions": [
                -1.7701384655025612,
                -1.5197802686498354,
                2.0318856752646877,
                -0.27991845874225424,
                1.1845975401137425,
                -0.22591286308462882
            ]
        },
        {
            "positions": [
                -1.666836832977039,
                -1.5088912565558676,
                1.9106483661736084,
                -0.21108513463228157,
                1.152169898149847,
                -0.2189775059022713
            ]
        },
        {
            "positions": [
                -1.563535200451517,
                -1.4980022444619001,
                1.7894110570825295,
                -0.14225181052230887,
                1.1197422561859511,
                -0.21204214871991378
            ]
        },
        {
            "positions": [
                -1.48484422696306,
                -1.5150854154049325,
                1.6136894341537518,
                -0.07655514962117574,
                1.0791389799327387,
                -0.20390794946159305
            ]
        },
        {
            "positions": [
                -1.4061532534746028,
                -1.5321685863479646,
                1.437967811224974,
                -0.010858488720042608,
                1.0385357036795262,
                -0.1957737502032723
            ]
        },
        {
            "positions": [
                -1.327462279986146,
                -1.549251757290997,
                1.2622461882961964,
                0.05483817218109052,
                0.9979324274263137,
                -0.18763955094495158
            ]
        },
        {
            "positions": [
                -1.2487713064976886,
                -1.5663349282340293,
                1.0865245653674187,
                0.12053483308222365,
                0.9573291511731011,
                -0.17950535168663084
            ]
        },
        {
            "positions": [
                -1.1700803330092318,
                -1.5834180991770617,
                0.910802942438641,
                0.18623149398335678,
                0.9167258749198887,
                -0.17137115242831008
            ]
        },
        {
            "positions": [
                -1.0913893595207746,
                -1.6005012701200938,
                0.7350813195098633,
                0.25192815488448994,
                0.8761225986666762,
                -0.16323695316998937
            ]
        },
        {
            "positions": [
                -1.0126983860323175,
                -1.6175844410631262,
                0.5593596965810856,
                0.31762481578562296,
                0.8355193224134637,
                -0.1551027539116686
            ]
        },
        {
            "positions": [
                -0.9340074125438604,
                -1.6346676120061585,
                0.38363807365230795,
                0.3833214766867562,
                0.7949160461602511,
                -0.14696855465334788
            ]
        },
        {
            "positions": [
                -0.8553164390554034,
                -1.6517507829491906,
                0.20791645072353027,
                0.44901813758788933,
                0.7543127699070387,
                -0.13883435539502714
            ]
        },
        {
            "positions": [
                -0.7766254655669463,
                -1.668833953892223,
                0.03219482779475258,
                0.5147147984890225,
                0.7137094936538262,
                -0.1307001561367064
            ]
        },
        {
            "positions": [
                -0.6979344920784892,
                -1.6859171248352554,
                -0.14352679513402533,
                0.5804114593901557,
                0.6731062174006137,
                -0.12256595687838566
            ]
        },
        {
            "positions": [
                -0.6192435185900322,
                -1.7030002957782875,
                -0.3192484180628028,
                0.6461081202912887,
                0.6325029411474012,
                -0.11443175762006494
            ]
        },
        {
            "positions": [
                -0.5405525451015751,
                -1.7200834667213198,
                -0.4949700409915805,
                0.7118047811924219,
                0.5918996648941888,
                -0.10629755836174419
            ]
        },
        {
            "positions": [
                -0.461861571613118,
                -1.7371666376643522,
                -0.6706916639203582,
                0.7775014420935549,
                0.5512963886409763,
                -0.09816335910342347
            ]
        },
        {
            "positions": [
                -0.3831705981246609,
                -1.7542498086073843,
                -0.8464132868491359,
                0.8431981029946881,
                0.5106931123877638,
                -0.09002915984510272
            ]
        },
        {
            "positions": [
                -0.3044796246362038,
                -1.7713329795504167,
                -1.0221349097779135,
                0.9088947638958212,
                0.47008983613455124,
                -0.08189496058678197
            ]
        },
        {
            "positions": [
                -0.22578865114774693,
                -1.788416150493449,
                -1.1978565327066912,
                0.9745914247969544,
                0.4294865598813389,
                -0.07376076132846124
            ]
        },
        {
            "positions": [
                -0.14709767765928983,
                -1.8054993214364814,
                -1.373578155635469,
                1.0402880856980874,
                0.3888832836281263,
                -0.0656265620701405
            ]
        },
        {
            "positions": [
                -0.06840670417083272,
                -1.8225824923795135,
                -1.5492997785642466,
                1.1059847465992205,
                0.3482800073749138,
                -0.05749236281181977
            ]
        },
        {
            "positions": [
                0.010284269317624328,
                -1.8396656633225459,
                -1.725021401493024,
                1.1716814075003537,
                0.30767673112170135,
                -0.049358163553499035
            ]
        },
        {
            "positions": [
                0.00821333229947876,
                -1.9196628201035817,
                -1.8820934786014099,
                1.1901533149830372,
                0.23405464800774134,
                -0.020467043788586645
            ]
        },
        {
            "positions": [
                0.00614239528133319,
                -1.9996599768846175,
                -2.0391655557097956,
                1.2086252224657208,
                0.16043256489378135,
                0.008424075976325746
            ]
        },
        {
            "positions": [
                0.004071458263187622,
                -2.0796571336656533,
                -2.196237632818181,
                1.2270971299484044,
                0.0868104817798214,
                0.03731519574123812
            ]
        },
        {
            "positions": [
                0.0020005212450420525,
                -2.159654290446689,
                -2.3533097099265667,
                1.245569037431088,
                0.013188398665861356,
                0.06620631550615053
            ]
        },
        {
            "positions": [
                -7.041577310351599e-05,
                -2.239651447227725,
                -2.5103817870349525,
                1.2640409449137715,
                -0.06043368444809863,
                0.0950974352710629
            ]
        },
        {
            "positions": [
                -0.061656383244627466,
                -2.2542274035037604,
                -2.4647907761687193,
                1.3529369252998058,
                0.0191318510049448,
                0.05534906369971482
            ]
        },
        {
            "positions": [
                -0.12324235071615142,
                -2.2688033597797963,
                -2.4191997653024857,
                1.4418329056858399,
                0.09869738645798823,
                0.015600692128366733
            ]
        },
        {
            "positions": [
                -0.18482831818767537,
                -2.2833793160558318,
                -2.3736087544362525,
                1.5307288860718742,
                0.17826292191103166,
                -0.024147679442981344
            ]
        }
    ]
}