{
    "goal": {
        "global_pose": {
            "orientation": {
                "w": -0.4816463035849501,
                "x": 0.5182115481033762,
                "y": 0.4908360881923453,
                "z": -0.5084816262002911
            },
            "position": {
                "x": -0.8240239810943604,
                "y": 0.19912469901144506,
                "z": 0.16403168439865112
            }
        },
        "name": "move_to_storage_D"
    },
    "id": "KPIECE_move_to_storage_D_34",
    "joint_names": [
        "shoulder_pan_joint",
        "shoulder_lift_joint",
        "elbow_joint",
        "wrist_1_joint",
        "wrist_2_joint",
        "wrist_3_joint"
    ],
    "metrics": {
        "cart_traj_len": 0.7702504649704647,
        "distance_elbow_joint": 0.5563143120510177,
        "distance_shoulder_lift_joint": 0.5563677098445368,
        "distance_shoulder_pan_joint": 0.15043978524857765,
        "distance_wrist_1_joint": 3.827325886746224,
        "distance_wrist_2_joint": 1.7833108986277284,
        "distance_wrist_3_joint": 3.7387919434088035,
        "smoothness": 0.23899936970078056,
        "time": 0.10447136,
        "traj_len": 3.257690982264415,
        "weighted_distance": 4.868343784914789
    },
    "planner": "KPIECE",
    "start": {
        "state": {
            "elbow_joint": -2.384821990628643,
            "shoulder_lift_joint": -2.278805467437664,
            "shoulder_pan_joint": -0.18546946439364564,
            "wrist_1_joint": 1.4845938187801415,
            "wrist_2_joint": 0.178987772454074,
            "wrist_3_joint": 0.03710569632802521
        }
    },
    "waypoints": [
        {
            "positions": [
                -0.18546946439364564,
                -2.278805467437664,
                -2.384821990628643,
                1.4845938187801415,
                0.178987772454074,
                0.03710569632802521
            ]
        },
        {
            "positions": [
                -0.13907517597344943,
                -2.1792686826018564,
                -2.3452395276745412,
                1.475043187794354,
                0.10643281951373501,
                0.12410960388994677
            ]
        },
        {
            "positions": [
                -0.09268088755325318,
                -2.0797318977660493,
                -2.3056570647204397,
                1.4654925568085662,
                0.03387786657339603,
                0.21111351145186832
            ]
        },
        {
            "positions": [
                -0.04628659913305695,
                -1.9801951129302418,
                -2.266074601766338,
                1.4559419258227786,
                -0.038677086366942975,
                0.2981174190137899
            ]
        },
        {
            "positions": [
                -0.043718862724497154,
                -1.9241400072450103,
                -2.208684774908012,
                1.4029441164117966,
                -0.03826356736323766,
                0.34666205408847206
            ]
        },
        {
            "positions": [
                -0.043356813408687606,
                -1.932544267647172,
                -2.1928440625609125,
                1.2468742753960518,
                -0.10348158906336291,
                0.20377723801979053
            ]
        },
        {
            "positions": [
                -0.04299476409287806,
                -1.940948528049334,
                -2.177003350213813,
                1.0908044343803067,
                -0.16869961076348816,
                0.060892421951109
            ]
        },
        {
            "positions": [
                -0.04263271477706851,
                -1.9493527884514958,
                -2.1611626378667137,
                0.9347345933645618,
                -0.23391763246361344,
                -0.08199239411757253
            ]
        },
        {
            "positions": [
                -0.042270665461258954,
                -1.9577570488536575,
                -2.1453219255196143,
                0.7786647523488168,
                -0.29913565416373866,
                -0.22487721018625406
            ]
        },
        {
            "positions": [
                -0.041908616145449405,
                -1.9661613092558192,
                -2.1294812131725145,
                0.6225949113330719,
                -0.36435367586386397,
                -0.3677620262549356
            ]
        },
        {
            "positions": [
                -0.04154656682963986,
                -1.9745655696579811,
                -2.113640500825415,
                0.46652507031732693,
                -0.4295716975639892,
                -0.5106468423236171
            ]
        },
        {
            "positions": [
                -0.04118451751383031,
                -1.982969830060143,
                -2.0977997884783157,
                0.31045522930158187,
                -0.4947897192641145,
                -0.6535316583922987
            ]
        },
        {
            "positions": [
                -0.04082246819802076,
                -1.9913740904623047,
                -2.0819590761312163,
                0.15438538828583703,
                -0.5600077409642397,
                -0.7964164744609802
            ]
        },
        {
            "positions": [
                -0.040460418882211205,
                -1.9997783508644664,
                -2.066118363784117,
                -0.0016844527299080259,
                -0.625225762664365,
                -0.9393012905296617
            ]
        },
        {
            "positions": [
                -0.040098369566401657,
                -2.008182611266628,
                -2.0502776514370176,
                -0.15775429374565286,
                -0.6904437843644903,
                -1.0821861065983431
            ]
        },
        {
            "positions": [
                -0.03973632025059211,
                -2.0165868716687902,
                -2.034436939089918,
                -0.3138241347613977,
                -0.7556618060646155,
                -1.2250709226670247
            ]
        },
        {
            "positions": [
                -0.03937427093478256,
                -2.024991132070952,
                -2.018596226742819,
                -0.46989397577714276,
                -0.8208798277647408,
                -1.3679557387357062
            ]
        },
        {
            "positions": [
                -0.03901222161897301,
                -2.0333953924731136,
                -2.0027555143957194,
                -0.6259638167928874,
                -0.886097849464866,
                -1.5108405548043877
            ]
        },
        {
            "positions": [
                -0.03865017230316346,
                -2.0417996528752758,
                -1.9869148020486198,
                -0.7820336578086329,
                -0.9513158711649914,
                -1.6537253708730693
            ]
        },
        {
            "positions": [
                -0.038288122987353915,
                -2.0502039132774375,
                -1.9710740897015204,
                -0.9381034988243775,
                -1.0165338928651164,
                -1.7966101869417508
            ]
        },
        {
            "positions": [
                -0.03792607367154436,
                -2.058608173679599,
                -1.955233377354421,
                -1.0941733398401225,
                -1.0817519145652417,
                -1.9394950030104323
            ]
        },
        {
            "positions": [
                -0.03756402435573481,
                -2.067012434081761,
                -1.9393926650073214,
                -1.2502431808558676,
                -1.1469699362653671,
                -2.082379819079114
            ]
        },
        {
            "positions": [
                -0.03720197503992526,
                -2.0754166944839225,
                -1.923551952660222,
                -1.4063130218716127,
                -1.2121879579654924,
                -2.2252646351477954
            ]
        },
        {
            "positions": [
                -0.036839925724115714,
                -2.0838209548860847,
                -1.9077112403131227,
                -1.5623828628873573,
                -1.2774059796656176,
                -2.368149451216477
            ]
        },
        {
            "positions": [
                -0.036477876408306166,
                -2.0922252152882463,
                -1.8918705279660233,
                -1.7184527039031023,
                -1.342624001365743,
                -2.5110342672851584
            ]
        },
        {
            "positions": [
                -0.03611582709249661,
                -2.100629475690408,
                -1.876029815618924,
                -1.8745225449188474,
                -1.4078420230658681,
                -2.65391908335384
            ]
        },
        {
            "positions": [
                -0.03575377777668706,
                -2.10903373609257,
                -1.8601891032718245,
                -2.0305923859345922,
                -1.4730600447659934,
                -2.7968038994225215
            ]
        },
        {
            "positions": [
                -0.035391728460877514,
                -2.117437996494732,
                -1.844348390924725,
                -2.1866622269503377,
                -1.5382780664661186,
                -2.939688715491203
            ]
        },
        {
            "positions": [
                -0.035029679145067966,
                -2.1258422568968935,
                -1.8285076785776255,
                -2.3427320679660824,
                -1.603496088166244,
                -3.0825735315598846
            ]
        }
    ]
}