{
    "goal": {
        "global_pose": {
            "orientation": {
                "w": -0.4816463035849501,
                "x": 0.5182115481033762,
                "y": 0.4908360881923453,
                "z": -0.5084816262002911
            },
            "position": {
                "x": -0.8240239810943604,
                "y": -0.300875300988555,
                "z": 0.16403168439865112
            }
        },
        "name": "move_to_storage_C"
    },
    "id": "KPIECE_move_to_storage_C_1",
    "joint_names": [
        "shoulder_pan_joint",
        "shoulder_lift_joint",
        "elbow_joint",
        "wrist_1_joint",
        "wrist_2_joint",
        "wrist_3_joint"
    ],
    "metrics": {
        "cart_traj_len": 0.5759533607200236,
        "distance_elbow_joint": 0.26050069181483293,
        "distance_shoulder_lift_joint": 0.18909757960474738,
        "distance_shoulder_pan_joint": 0.492590326325844,
        "distance_wrist_1_joint": 0.0869546073589269,
        "distance_wrist_2_joint": 1.077115388308587,
        "distance_wrist_3_joint": 0.060316357987893365,
        "smoothness": 2.5376526478085547e-16,
        "time": 0.143398019,
        "traj_len": 1.4719289899315224,
        "weighted_distance": 1.8577614655935062
    },
    "planner": "KPIECE",
    "start": {
        "state": {
            "elbow_joint": 2.0108683149792914,
            "shoulder_lift_joint": -1.1634956873317392,
            "shoulder_pan_joint": -2.4736205022346,
            "wrist_1_joint": -0.8367026793690192,
            "wrist_2_joint": 0.6746043897045053,
            "wrist_3_joint": 3.133522094754363
        }
    },
    "waypoints": [
        {
            "positions": [
                -2.4736205022346,
                -1.1634956873317392,
                2.0108683149792914,
                -0.8367026793690192,
                0.6746043897045053,
                3.133522094754363
            ]
        },
        {
            "positions": [
                -2.555718889955574,
                -1.1319794240642813,
                1.9674515330101525,
                -0.822210244809198,
                0.8541236210892698,
                3.1435748210856786
            ]
        },
        {
            "positions": [
                -2.637817277676548,
                -1.1004631607968234,
                1.9240347510410138,
                -0.8077178102493769,
                1.0336428524740344,
                3.153627547416994
            ]
        },
        {
            "positions": [
                -2.7199156653975223,
                -1.0689468975293654,
                1.880617969071875,
                -0.7932253756895558,
                1.2131620838587989,
                3.1636802737483096
            ]
        },
        {
            "positions": [
                -2.802014053118496,
                -1.0374306342619077,
                1.837201187102736,
                -0.7787329411297346,
                1.3926813152435633,
                3.1737330000796256
            ]
        },
        {
            "positions": [
                -2.88411244083947,
                -1.0059143709944498,
                1.7937844051335974,
                -0.7642405065699135,
                1.572200546628328,
                3.183785726410941
            ]
        },
        {
            "positions": [
                -2.966210828560444,
                -0.9743981077269919,
                1.7503676231644585,
                -0.7497480720100923,
                1.7517197780130924,
                3.1938384527422565
            ]
        }
    ]
}