{
    "goal": {
        "global_pose": {
            "orientation": {
                "w": -0.4816463035849501,
                "x": 0.5182115481033762,
                "y": 0.4908360881923453,
                "z": -0.5084816262002911
            },
            "position": {
                "x": -0.8240239810943604,
                "y": -0.300875300988555,
                "z": 0.16403168439865112
            }
        },
        "name": "move_to_storage_C"
    },
    "id": "KPIECE_move_to_storage_C_57",
    "joint_names": [
        "shoulder_pan_joint",
        "shoulder_lift_joint",
        "elbow_joint",
        "wrist_1_joint",
        "wrist_2_joint",
        "wrist_3_joint"
    ],
    "metrics": {
        "cart_traj_len": 0.576163028425648,
        "distance_elbow_joint": 0.2568360104313707,
        "distance_shoulder_lift_joint": 0.18975821937685278,
        "distance_shoulder_pan_joint": 0.4920460165226799,
        "distance_wrist_1_joint": 0.06776340445671125,
        "distance_wrist_2_joint": 1.081007699539626,
        "distance_wrist_3_joint": 0.06597109289454961,
        "smoothness": 5.075305295617109e-16,
        "time": 0.024196992,
        "traj_len": 1.4674407801413283,
        "weighted_distance": 1.853131331829244
    },
    "planner": "KPIECE",
    "start": {
        "state": {
            "elbow_joint": 2.0108683149792914,
            "shoulder_lift_joint": -1.1634956873317392,
            "shoulder_pan_joint": -2.4736205022346,
            "wrist_1_joint": -0.8367026793690192,
            "wrist_2_joint": 0.6746043897045053,
            "wrist_3_joint": 3.133522094754363
        }
    },
    "waypoints": [
        {
            "positions": [
                -2.4736205022346,
                -1.1634956873317392,
                2.0108683149792914,
                -0.8367026793690192,
                0.6746043897045053,
                3.133522094754363
            ]
        },
        {
            "positions": [
                -2.5556281716550466,
                -1.1318693174355972,
                1.9680623132407296,
                -0.825408778626234,
                0.8547723396277763,
                3.144517276903455
            ]
        },
        {
            "positions": [
                -2.637635841075493,
                -1.100242947539455,
                1.925256311502168,
                -0.8141148778834488,
                1.0349402895510473,
                3.1555124590525465
            ]
        },
        {
            "positions": [
                -2.71964351049594,
                -1.0686165776433127,
                1.882450309763606,
                -0.8028209771406636,
                1.2151082394743185,
                3.1665076412016377
            ]
        },
        {
            "positions": [
                -2.801651179916387,
                -1.0369902077471707,
                1.8396443080250442,
                -0.7915270763978783,
                1.3952761893975894,
                3.1775028233507294
            ]
        },
        {
            "positions": [
                -2.8836588493368334,
                -1.0053638378510286,
                1.7968383062864826,
                -0.7802331756550932,
                1.5754441393208602,
                3.188498005499821
            ]
        },
        {
            "positions": [
                -2.96566651875728,
                -0.9737374679548865,
                1.7540323045479207,
                -0.768939274912308,
                1.7556120892441314,
                3.1994931876489128
            ]
        }
    ]
}