{
    "goal": {
        "global_pose": {
            "orientation": {
                "w": 0.7031023480610252,
                "x": -0.7110244013736278,
                "y": 0.0077485991402295624,
                "z": 0.005598929693374583
            },
            "position": {
                "x": -0.8841497679147869,
                "y": 0.44412534475326537,
                "z": 0.3711530566215515
            }
        },
        "name": "move_to_auspresseinheit_D"
    },
    "id": "KPIECE_move_to_auspresseinheit_D_93",
    "joint_names": [
        "shoulder_pan_joint",
        "shoulder_lift_joint",
        "elbow_joint",
        "wrist_1_joint",
        "wrist_2_joint",
        "wrist_3_joint"
    ],
    "metrics": {
        "cart_traj_len": 0.34386919141155614,
        "distance_elbow_joint": 0.6474215033592858,
        "distance_shoulder_lift_joint": 0.12668059399390552,
        "distance_shoulder_pan_joint": 0.13485875648826828,
        "distance_wrist_1_joint": 0.5624230808896908,
        "distance_wrist_2_joint": 1.4360004610224277,
        "distance_wrist_3_joint": 0.023513851962975618,
        "smoothness": 3.9474596431116675e-16,
        "time": 0.20518424999999998,
        "traj_len": 1.7119866377155384,
        "weighted_distance": 2.2307732949707426
    },
    "planner": "KPIECE",
    "start": {
        "state": {
            "elbow_joint": -1.8275484843655228,
            "shoulder_lift_joint": -2.1267897864000416,
            "shoulder_pan_joint": -0.035127520176001514,
            "wrist_1_joint": -2.3477863256791385,
            "wrist_2_joint": -1.605890476484521,
            "wrist_3_joint": -3.0880375317375353
        }
    },
    "waypoints": [
        {
            "positions": [
                -0.035127520176001514,
                -2.1267897864000416,
                -1.8275484843655228,
                -2.3477863256791385,
                -1.605890476484521,
                -3.0880375317375353
            ]
        },
        {
            "positions": [
                -0.05198486473703505,
                -2.14262486064928,
                -1.746620796445612,
                -2.4180892107903498,
                -1.4263904188567176,
                -3.0850983002421635
            ]
        },
        {
            "positions": [
                -0.06884220929806859,
                -2.158459934898518,
                -1.6656931085257014,
                -2.488392095901561,
                -1.246890361228914,
                -3.0821590687467912
            ]
        },
        {
            "positions": [
                -0.08569955385910212,
                -2.174295009147756,
                -1.5847654206057906,
                -2.5586949810127724,
                -1.0673903036011105,
                -3.0792198372514195
            ]
        },
        {
            "positions": [
                -0.10255689842013566,
                -2.190130083396994,
                -1.5038377326858798,
                -2.628997866123984,
                -0.8878902459733071,
                -3.0762806057560477
            ]
        },
        {
            "positions": [
                -0.11941424298116919,
                -2.2059651576462325,
                -1.422910044765969,
                -2.6993007512351954,
                -0.7083901883455037,
                -3.0733413742606754
            ]
        },
        {
            "positions": [
                -0.13627158754220273,
                -2.221800231895471,
                -1.3419823568460583,
                -2.7696036363464067,
                -0.5288901307177001,
                -3.0704021427653037
            ]
        },
        {
            "positions": [
                -0.15312893210323625,
                -2.2376353061447087,
                -1.2610546689261477,
                -2.839906521457618,
                -0.34939007308989667,
                -3.0674629112699314
            ]
        },
        {
            "positions": [
                -0.1699862766642698,
                -2.253470380393947,
                -1.180126981006237,
                -2.9102094065688293,
                -0.1698900154620933,
                -3.0645236797745596
            ]
        }
    ]
}