{
    "goal": {
        "global_pose": {
            "orientation": {
                "w": -0.4816463035849501,
                "x": 0.5182115481033762,
                "y": 0.4908360881923453,
                "z": -0.5084816262002911
            },
            "position": {
                "x": -0.8240239810943604,
                "y": -0.300875300988555,
                "z": 0.16403168439865112
            }
        },
        "name": "move_to_storage_C"
    },
    "id": "KPIECE_move_to_storage_C_105",
    "joint_names": [
        "shoulder_pan_joint",
        "shoulder_lift_joint",
        "elbow_joint",
        "wrist_1_joint",
        "wrist_2_joint",
        "wrist_3_joint"
    ],
    "metrics": {
        "cart_traj_len": 0.5769307244077049,
        "distance_elbow_joint": 0.25761557857998274,
        "distance_shoulder_lift_joint": 0.19025950911562117,
        "distance_shoulder_pan_joint": 0.4948269825095757,
        "distance_wrist_1_joint": 0.07262994219754715,
        "distance_wrist_2_joint": 1.066065206942057,
        "distance_wrist_3_joint": 0.06429780467323232,
        "smoothness": 0.0,
        "time": 0.022643827999999998,
        "traj_len": 1.464819109657577,
        "weighted_distance": 1.8474268003101193
    },
    "planner": "KPIECE",
    "start": {
        "state": {
            "elbow_joint": 2.0108683149792914,
            "shoulder_lift_joint": -1.1634956873317392,
            "shoulder_pan_joint": -2.4736205022346,
            "wrist_1_joint": -0.8367026793690192,
            "wrist_2_joint": 0.6746043897045053,
            "wrist_3_joint": 3.133522094754363
        }
    },
    "waypoints": [
        {
            "positions": [
                -2.4736205022346,
                -1.1634956873317392,
                2.0108683149792914,
                -0.8367026793690192,
                0.6746043897045053,
                3.133522094754363
            ]
        },
        {
            "positions": [
                -2.556091665986196,
                -1.1317857691458024,
                1.967932385215961,
                -0.8245976890027613,
                0.8522819241948482,
                3.144238395533235
            ]
        },
        {
            "positions": [
                -2.638562829737792,
                -1.1000758509598656,
                1.9249964554526304,
                -0.8124926986365035,
                1.029959458685191,
                3.154954696312107
            ]
        },
        {
            "positions": [
                -2.721033993489388,
                -1.0683659327739288,
                1.8820605256893002,
                -0.8003877082702456,
                1.2076369931755337,
                3.165670997090979
            ]
        },
        {
            "positions": [
                -2.8035051572409837,
                -1.0366560145879917,
                1.8391245959259697,
                -0.7882827179039877,
                1.3853145276658767,
                3.1763872978698515
            ]
        },
        {
            "positions": [
                -2.88597632099258,
                -1.004946096402055,
                1.7961886661626392,
                -0.77617772753773,
                1.5629920621562197,
                3.1871035986487235
            ]
        },
        {
            "positions": [
                -2.9684474847441757,
                -0.9732361782161181,
                1.7532527363993087,
                -0.7640727371714721,
                1.7406695966465624,
                3.1978198994275955
            ]
        }
    ]
}