{
    "goal": {
        "global_pose": {
            "orientation": {
                "w": -0.00223480608172531,
                "x": 0.0024358444001904467,
                "y": 0.7094548369677653,
                "z": -0.704743149386269
            },
            "position": {
                "x": -0.37947507619857795,
                "y": -0.6371506643295288,
                "z": 0.19426114857196808
            }
        },
        "name": "move_to_magneteinheit_C"
    },
    "id": "KPIECE_move_to_magneteinheit_C_7",
    "joint_names": [
        "shoulder_pan_joint",
        "shoulder_lift_joint",
        "elbow_joint",
        "wrist_1_joint",
        "wrist_2_joint",
        "wrist_3_joint"
    ],
    "metrics": {
        "cart_traj_len": 1.0955154112267194,
        "distance_elbow_joint": 0.8777080040439531,
        "distance_shoulder_lift_joint": 0.6669434107243886,
        "distance_shoulder_pan_joint": 1.056139764938776,
        "distance_wrist_1_joint": 1.5473244161575912,
        "distance_wrist_2_joint": 1.989261632843775,
        "distance_wrist_3_joint": 4.778568364720071,
        "smoothness": 0.7198795607530235,
        "time": 0.842674641,
        "traj_len": 3.3039288117979417,
        "weighted_distance": 4.899966160278056
    },
    "planner": "KPIECE",
    "start": {
        "state": {
            "elbow_joint": 1.9565354006593851,
            "shoulder_lift_joint": -1.4165861576512813,
            "shoulder_pan_joint": -1.6717766223278752,
            "wrist_1_joint": -0.528663328821883,
            "wrist_2_joint": 1.472756589259273,
            "wrist_3_joint": 3.159348288315503
        }
    },
    "waypoints": [
        {
            "positions": [
                -1.6717766223278752,
                -1.4165861576512813,
                1.9565354006593851,
                -0.528663328821883,
                1.472756589259273,
                3.159348288315503
            ]
        },
        {
            "positions": [
                -1.7344693219223222,
                -1.4337911880846097,
                1.946334082381316,
                -0.5134559936585336,
                1.3706800925987386,
                2.9774556841155033
            ]
        },
        {
            "positions": [
                -1.7971620215167694,
                -1.4509962185179384,
                1.9361327641032469,
                -0.498248658495184,
                1.268603595938204,
                2.7955630799155036
            ]
        },
        {
            "positions": [
                -1.8598547211112164,
                -1.4682012489512668,
                1.9259314458251777,
                -0.48304132333183447,
                1.1665270992776695,
                2.613670475715504
            ]
        },
        {
            "positions": [
                -1.9225474207056634,
                -1.4854062793845952,
                1.9157301275471086,
                -0.4678339881684849,
                1.0644506026171352,
                2.431777871515504
            ]
        },
        {
            "positions": [
                -1.9852401203001107,
                -1.5026113098179237,
                1.9055288092690394,
                -0.4526266530051354,
                0.9623741059566006,
                2.2498852673155043
            ]
        },
        {
            "positions": [
                -2.047932819894558,
                -1.5198163402512521,
                1.89532749099097,
                -0.4374193178417859,
                0.8602976092960661,
                2.0679926631155046
            ]
        },
        {
            "positions": [
                -2.110625519489005,
                -1.5370213706845808,
                1.885126172712901,
                -0.42221198267843635,
                0.7582211126355316,
                1.8861000589155048
            ]
        },
        {
            "positions": [
                -2.173318219083452,
                -1.5542264011179092,
                1.8749248544348318,
                -0.40700464751508686,
                0.6561446159749972,
                1.704207454715505
            ]
        },
        {
            "positions": [
                -2.2360109186778994,
                -1.5714314315512377,
                1.8647235361567627,
                -0.3917973123517373,
                0.5540681193144626,
                1.5223148505155053
            ]
        },
        {
            "positions": [
                -2.2987036182723464,
                -1.5886364619845663,
                1.8545222178786935,
                -0.37658997718838777,
                0.451991622653928,
                1.3404222463155056
            ]
        },
        {
            "positions": [
                -2.3613963178667934,
                -1.6058414924178948,
                1.8443208996006244,
                -0.3613826420250383,
                0.3499151259933937,
                1.1585296421155058
            ]
        },
        {
            "positions": [
                -2.4240890174612404,
                -1.6230465228512232,
                1.8341195813225553,
                -0.34617530686168874,
                0.2478386293328592,
                0.976637037915506
            ]
        },
        {
            "positions": [
                -2.441115629010661,
                -1.621279195059995,
                1.7783405101744816,
                -0.4738732246725693,
                0.1902726298020913,
                0.904169324890951
            ]
        },
        {
            "positions": [
                -2.4581422405600812,
                -1.619511867268767,
                1.7225614390264077,
                -0.6015711424834499,
                0.1327066302713234,
                0.831701611866396
            ]
        },
        {
            "positions": [
                -2.4751688521095017,
                -1.6177445394775387,
                1.666782367878334,
                -0.7292690602943305,
                0.07514063074055553,
                0.759233898841841
            ]
        },
        {
            "positions": [
                -2.492138124438281,
                -1.6071703311636365,
                1.7315787317633105,
                -0.8211732269209349,
                0.0989636590539551,
                0.9050944505574743
            ]
        },
        {
            "positions": [
                -2.5091073967670607,
                -1.596596122849734,
                1.796375095648287,
                -0.9130773935475394,
                0.12278668736735468,
                1.0509550022731076
            ]
        },
        {
            "positions": [
                -2.52607666909584,
                -1.5860219145358319,
                1.8611714595332634,
                -1.0049815601741439,
                0.14660971568075426,
                1.1968155539887408
            ]
        },
        {
            "positions": [
                -2.5430459414246194,
                -1.5754477062219296,
                1.9259678234182398,
                -1.0968857268007484,
                0.1704327439941538,
                1.3426761057043741
            ]
        },
        {
            "positions": [
                -2.560015213753399,
                -1.5648734979080272,
                1.9907641873032162,
                -1.1887898934273526,
                0.1942557723075534,
                1.4885366574200074
            ]
        },
        {
            "positions": [
                -2.5769844860821784,
                -1.554299289594125,
                2.0555605511881927,
                -1.2806940600539571,
                0.21807880062095297,
                1.6343972091356407
            ]
        },
        {
            "positions": [
                -2.584961751317907,
                -1.512572657526639,
                2.0816106235967005,
                -1.250333871978294,
                0.2909914801401806,
                1.8115365533905543
            ]
        },
        {
            "positions": [
                -2.592939016553635,
                -1.470846025459153,
                2.1076606960052087,
                -1.2199736839026305,
                0.36390415965940826,
                1.988675897645468
            ]
        },
        {
            "positions": [
                -2.600916281789363,
                -1.429119393391667,
                2.1337107684137164,
                -1.1896134958269673,
                0.43681683917863595,
                2.1658152419003818
            ]
        },
        {
            "positions": [
                -2.5797495975431484,
                -1.384693407380852,
                2.113539673292463,
                -1.133073983030611,
                0.4751450834931322,
                2.3277940139316935
            ]
        },
        {
            "positions": [
                -2.558582913296934,
                -1.340267421370037,
                2.09336857817121,
                -1.0765344702342543,
                0.5134733278076284,
                2.489772785963005
            ]
        },
        {
            "positions": [
                -2.537416229050719,
                -1.2958414353592218,
                2.073197483049957,
                -1.019994957437898,
                0.5518015721221247,
                2.6517515579943165
            ]
        },
        {
            "positions": [
                -2.5162495448045044,
                -1.2514154493484066,
                2.0530263879287034,
                -0.9634554446415415,
                0.5901298164366209,
                2.8137303300256282
            ]
        },
        {
            "positions": [
                -2.49508286055829,
                -1.2069894633375917,
                2.03285529280745,
                -0.9069159318451849,
                0.6284580607511172,
                2.97570910205694
            ]
        },
        {
            "positions": [
                -2.473916176312075,
                -1.1625634773267766,
                2.012684197686197,
                -0.8503764190488285,
                0.6667863050656134,
                3.1376878740882517
            ]
        }
    ]
}