{
    "goal": {
        "global_pose": {
            "orientation": {
                "w": 0.005598929693374612,
                "x": 0.007748599140229565,
                "y": 0.7110244013736278,
                "z": -0.7031023480610252
            },
            "position": {
                "x": -0.8858502320852131,
                "y": -0.7141253447532654,
                "z": 0.3711530566215515
            }
        },
        "name": "move_to_auspresseinheit_C"
    },
    "id": "KPIECE_move_to_auspresseinheit_C_142",
    "joint_names": [
        "shoulder_pan_joint",
        "shoulder_lift_joint",
        "elbow_joint",
        "wrist_1_joint",
        "wrist_2_joint",
        "wrist_3_joint"
    ],
    "metrics": {
        "cart_traj_len": 0.4940374912553961,
        "distance_elbow_joint": 1.0101118887146856,
        "distance_shoulder_lift_joint": 0.3285697861333101,
        "distance_shoulder_pan_joint": 0.256988109697593,
        "distance_wrist_1_joint": 0.7081201951255723,
        "distance_wrist_2_joint": 1.3030944047965647,
        "distance_wrist_3_joint": 0.08534539776471117,
        "smoothness": 4.844609600361787e-16,
        "time": 1.2050609,
        "traj_len": 1.9215175727097675,
        "weighted_distance": 2.4236615229202276
    },
    "planner": "KPIECE",
    "start": {
        "state": {
            "elbow_joint": 1.7527959577730765,
            "shoulder_lift_joint": -0.9740617694224828,
            "shoulder_pan_joint": -2.967991417825869,
            "wrist_1_joint": -0.7595177689779385,
            "wrist_2_joint": 1.7443932448376545,
            "wrist_3_joint": 3.1991315425061013
        }
    },
    "waypoints": [
        {
            "positions": [
                -2.967991417825869,
                -0.9740617694224828,
                1.7527959577730765,
                -0.7595177689779385,
                1.7443932448376545,
                3.1991315425061013
            ]
        },
        {
            "positions": [
                -2.94229260685611,
                -0.9412047908091518,
                1.6517847689016079,
                -0.6887057494653813,
                1.614083804357998,
                3.19059700272963
            ]
        },
        {
            "positions": [
                -2.9165937958863504,
                -0.9083478121958207,
                1.5507735800301394,
                -0.6178937299528241,
                1.4837743638783416,
                3.182062462953159
            ]
        },
        {
            "positions": [
                -2.8908949849165912,
                -0.8754908335824898,
                1.4497623911586708,
                -0.5470817104402669,
                1.353464923398685,
                3.173527923176688
            ]
        },
        {
            "positions": [
                -2.8651961739468317,
                -0.8426338549691588,
                1.3487512022872021,
                -0.4762696909277096,
                1.2231554829190285,
                3.164993383400217
            ]
        },
        {
            "positions": [
                -2.8394973629770726,
                -0.8097768763558277,
                1.2477400134157337,
                -0.4054576714151524,
                1.0928460424393722,
                3.1564588436237457
            ]
        },
        {
            "positions": [
                -2.8137985520073134,
                -0.7769198977424967,
                1.1467288245442653,
                -0.33464565190259515,
                0.9625366019597157,
                3.1479243038472746
            ]
        },
        {
            "positions": [
                -2.788099741037554,
                -0.7440629191291657,
                1.0457176356727966,
                -0.26383363239003793,
                0.8322271614800593,
                3.1393897640708035
            ]
        },
        {
            "positions": [
                -2.7624009300677947,
                -0.7112059405158346,
                0.944706446801328,
                -0.19302161287748065,
                0.7019177210004026,
                3.1308552242943324
            ]
        },
        {
            "positions": [
                -2.736702119098035,
                -0.6783489619025036,
                0.8436952579298594,
                -0.12220959336492343,
                0.5716082805207463,
                3.1223206845178613
            ]
        },
        {
            "positions": [
                -2.711003308128276,
                -0.6454919832891727,
                0.7426840690583908,
                -0.051397573852366235,
                0.44129884004108977,
                3.11378614474139
            ]
        }
    ]
}