{
    "goal": {
        "global_pose": {
            "orientation": {
                "w": 0.7047431468963623,
                "x": -0.7094548344612122,
                "y": 0.0024358443915843964,
                "z": -0.0022348060738295317
            },
            "position": {
                "x": 0.6094750761985779,
                "y": 0.3671506643295288,
                "z": 0.19426114857196808
            }
        },
        "name": "move_to_magneteinheit_A"
    },
    "id": "KPIECE_move_to_magneteinheit_A_74",
    "joint_names": [
        "shoulder_pan_joint",
        "shoulder_lift_joint",
        "elbow_joint",
        "wrist_1_joint",
        "wrist_2_joint",
        "wrist_3_joint"
    ],
    "metrics": {
        "cart_traj_len": 1.9813261099680177,
        "distance_elbow_joint": 3.597085947049508,
        "distance_shoulder_lift_joint": 0.7959473069404218,
        "distance_shoulder_pan_joint": 1.2411776217723536,
        "distance_wrist_1_joint": 1.1086678641922756,
        "distance_wrist_2_joint": 1.4414538002809774,
        "distance_wrist_3_joint": 1.8974514222130128,
        "smoothness": 4.605369568928285e-16,
        "time": 0.10526963,
        "traj_len": 3.1751825085258556,
        "weighted_distance": 4.0529999347826084
    },
    "planner": "KPIECE",
    "start": {
        "state": {
            "elbow_joint": -1.5739458827952972,
            "shoulder_lift_joint": 0.006533473998580023,
            "shoulder_pan_joint": -1.1188671628667068,
            "wrist_1_joint": 3.138208179676308,
            "wrist_2_joint": -1.5706037135050406,
            "wrist_3_joint": -2.0226958329764257
        }
    },
    "waypoints": [
        {
            "positions": [
                -1.1188671628667068,
                0.006533473998580023,
                -1.5739458827952972,
                3.138208179676308,
                -1.5706037135050406,
                -2.0226958329764257
            ]
        },
        {
            "positions": [
                -1.0711295620293086,
                -0.024079883960666973,
                -1.435596423293393,
                3.0955671079766054,
                -1.515163182725003,
                -1.949716932122079
            ]
        },
        {
            "positions": [
                -1.0233919611919104,
                -0.05469324191991397,
                -1.297246963791489,
                3.052926036276902,
                -1.4597226519449653,
                -1.8767380312677324
            ]
        },
        {
            "positions": [
                -0.9756543603545123,
                -0.08530659987916096,
                -1.1588975042895848,
                3.0102849645771994,
                -1.4042821211649277,
                -1.8037591304133858
            ]
        },
        {
            "positions": [
                -0.9279167595171139,
                -0.11591995783840796,
                -1.0205480447876805,
                2.9676438928774966,
                -1.3488415903848903,
                -1.730780229559039
            ]
        },
        {
            "positions": [
                -0.8801791586797157,
                -0.14653331579765494,
                -0.8821985852857764,
                2.9250028211777934,
                -1.2934010596048526,
                -1.6578013287046924
            ]
        },
        {
            "positions": [
                -0.8324415578423175,
                -0.17714667375690193,
                -0.7438491257838723,
                2.8823617494780907,
                -1.237960528824815,
                -1.5848224278503458
            ]
        },
        {
            "positions": [
                -0.7847039570049194,
                -0.2077600317161489,
                -0.6054996662819682,
                2.839720677778388,
                -1.1825199980447776,
                -1.511843526995999
            ]
        },
        {
            "positions": [
                -0.736966356167521,
                -0.23837338967539592,
                -0.4671502067800639,
                2.797079606078685,
                -1.12707946726474,
                -1.4388646261416524
            ]
        },
        {
            "positions": [
                -0.6892287553301228,
                -0.2689867476346429,
                -0.3288007472781598,
                2.754438534378982,
                -1.0716389364847023,
                -1.365885725287306
            ]
        },
        {
            "positions": [
                -0.6414911544927246,
                -0.29960010559388994,
                -0.19045128777625564,
                2.711797462679279,
                -1.0161984057046647,
                -1.2929068244329591
            ]
        },
        {
            "positions": [
                -0.5937535536553264,
                -0.3302134635531369,
                -0.0521018282743515,
                2.6691563909795764,
                -0.960757874924627,
                -1.2199279235786127
            ]
        },
        {
            "positions": [
                -0.5460159528179283,
                -0.36082682151238393,
                0.08624763122755263,
                2.626515319279873,
                -0.9053173441445894,
                -1.1469490227242658
            ]
        },
        {
            "positions": [
                -0.49827835198053005,
                -0.3914401794716309,
                0.22459709072945677,
                2.5838742475801704,
                -0.8498768133645519,
                -1.0739701218699194
            ]
        },
        {
            "positions": [
                -0.45054075114313186,
                -0.42205353743087787,
                0.3629465502313609,
                2.5412331758804676,
                -0.7944362825845144,
                -1.0009912210155727
            ]
        },
        {
            "positions": [
                -0.40280315030573366,
                -0.45266689539012483,
                0.501296009733265,
                2.498592104180765,
                -0.7389957518044767,
                -0.9280123201612263
            ]
        },
        {
            "positions": [
                -0.35506554946833535,
                -0.4832802533493719,
                0.6396454692351694,
                2.4559510324810616,
                -0.6835552210244391,
                -0.8550334193068794
            ]
        },
        {
            "positions": [
                -0.30732794863093715,
                -0.5138936113086188,
                0.7779949287370733,
                2.413309960781359,
                -0.6281146902444015,
                -0.7820545184525327
            ]
        },
        {
            "positions": [
                -0.25959034779353896,
                -0.5445069692678658,
                0.9163443882389777,
                2.3706688890816556,
                -0.572674159464364,
                -0.7090756175981863
            ]
        },
        {
            "positions": [
                -0.21185274695614087,
                -0.5751203272271128,
                1.0546938477408816,
                2.328027817381953,
                -0.5172336286843264,
                -0.6360967167438396
            ]
        },
        {
            "positions": [
                -0.16411514611874245,
                -0.6057336851863598,
                1.193043307242786,
                2.28538674568225,
                -0.4617930979042888,
                -0.5631178158894927
            ]
        },
        {
            "positions": [
                -0.11637754528134425,
                -0.6363470431456067,
                1.3313927667446899,
                2.2427456739825473,
                -0.40635256712425116,
                -0.49013891503514606
            ]
        },
        {
            "positions": [
                -0.06863994444394605,
                -0.6669604011048538,
                1.4697422262465942,
                2.200104602282844,
                -0.35091203634421353,
                -0.4171600141807996
            ]
        },
        {
            "positions": [
                -0.020902343606547857,
                -0.6975737590641008,
                1.6080916857484981,
                2.1574635305831413,
                -0.2954715055641761,
                -0.34418111332645296
            ]
        },
        {
            "positions": [
                0.02683525723085034,
                -0.7281871170233478,
                1.7464411452504025,
                2.114822458883438,
                -0.24003097478413826,
                -0.2712022124721061
            ]
        },
        {
            "positions": [
                0.07457285806824854,
                -0.7588004749825947,
                1.8847906047523069,
                2.0721813871837353,
                -0.18459044400410085,
                -0.19822331161775963
            ]
        },
        {
            "positions": [
                0.12231045890564682,
                -0.7894138329418418,
                2.0231400642542106,
                2.0295403154840326,
                -0.1291499132240633,
                -0.125244410763413
            ]
        }
    ]
}