{
    "goal": {
        "global_pose": {
            "orientation": {
                "w": 0.7047431493862688,
                "x": -0.7094548369677653,
                "y": 0.0024358444001904,
                "z": -0.0022348060817251984
            },
            "position": {
                "x": -0.39052492380142206,
                "y": 0.3671506643295288,
                "z": 0.19426114857196808
            }
        },
        "name": "move_to_magneteinheit_D"
    },
    "id": "KPIECE_move_to_magneteinheit_D_101",
    "joint_names": [
        "shoulder_pan_joint",
        "shoulder_lift_joint",
        "elbow_joint",
        "wrist_1_joint",
        "wrist_2_joint",
        "wrist_3_joint"
    ],
    "metrics": {
        "cart_traj_len": 6.480561175276856,
        "distance_elbow_joint": 4.011172563713634,
        "distance_shoulder_lift_joint": 1.0966157243015942,
        "distance_shoulder_pan_joint": 9.580673441853293,
        "distance_wrist_1_joint": 3.784494330150878,
        "distance_wrist_2_joint": 3.110265712566677,
        "distance_wrist_3_joint": 5.125852288448072,
        "smoothness": 0.48590635568492196,
        "time": 0.474305342,
        "traj_len": 5.1680822420927255,
        "weighted_distance": 6.622351446476381
    },
    "planner": "KPIECE",
    "start": {
        "state": {
            "elbow_joint": 0.7495348899011911,
            "shoulder_lift_joint": -0.6476975780737668,
            "shoulder_pan_joint": -2.711696901376276,
            "wrist_1_joint": -0.0750647808097303,
            "wrist_2_joint": 0.43296659715458535,
            "wrist_3_joint": 3.1361499051832418
        }
    },
    "waypoints": [
        {
            "positions": [
                -2.711696901376276,
                -0.6476975780737668,
                0.7495348899011911,
                -0.0750647808097303,
                0.43296659715458535,
                3.1361499051832418
            ]
        },
        {
            "positions": [
                -2.772960380489092,
                -0.7254135174845081,
                0.7077973680537502,
                -0.11721019945989539,
                0.32144671016854764,
                3.082858980532399
            ]
        },
        {
            "positions": [
                -2.834223859601908,
                -0.8031294568952494,
                0.6660598462063092,
                -0.1593556181100605,
                0.20992682318250994,
                3.029568055881557
            ]
        },
        {
            "positions": [
                -2.8954873387147235,
                -0.8808453963059908,
                0.6243223243588683,
                -0.20150103676022557,
                0.09840693619647228,
                2.9762771312307144
            ]
        },
        {
            "positions": [
                -2.9567508178275395,
                -0.9585613357167321,
                0.5825848025114273,
                -0.24364645541039065,
                -0.01311295078956548,
                2.922986206579872
            ]
        },
        {
            "positions": [
                -3.0180142969403554,
                -1.0362772751274734,
                0.5408472806639864,
                -0.28579187406055573,
                -0.12463283777560308,
                2.8696952819290296
            ]
        },
        {
            "positions": [
                -2.849886456877275,
                -1.0429119671066127,
                0.447732166921813,
                -0.26262480317044373,
                -0.090076543020253,
                2.806139984922276
            ]
        },
        {
            "positions": [
                -2.681758616814194,
                -1.0495466590857518,
                0.35461705317963965,
                -0.23945773228033174,
                -0.05552024826490291,
                2.7425846879155227
            ]
        },
        {
            "positions": [
                -2.5136307767511132,
                -1.0561813510648912,
                0.26150193943746636,
                -0.21629066139021974,
                -0.020963953509552824,
                2.6790293909087692
            ]
        },
        {
            "positions": [
                -2.3455029366880322,
                -1.0628160430440305,
                0.168386825695293,
                -0.19312359050010774,
                0.013592341245797251,
                2.615474093902016
            ]
        },
        {
            "positions": [
                -2.1773750966249517,
                -1.06945073502317,
                0.0752717119531196,
                -0.16995651960999575,
                0.048148636001147355,
                2.551918796895262
            ]
        },
        {
            "positions": [
                -2.0092472565618706,
                -1.076085427002309,
                -0.017843401789053637,
                -0.14678944871988378,
                0.08270493075649743,
                2.4883634998885085
            ]
        },
        {
            "positions": [
                -1.84111941649879,
                -1.0827201189814484,
                -0.11095851553122704,
                -0.12362237782977178,
                0.1172612255118475,
                2.424808202881755
            ]
        },
        {
            "positions": [
                -1.6729915764357093,
                -1.0893548109605877,
                -0.20407362927340034,
                -0.10045530693965979,
                0.15181752026719758,
                2.3612529058750016
            ]
        },
        {
            "positions": [
                -1.5048637363726285,
                -1.095989502939727,
                -0.29718874301557374,
                -0.07728823604954779,
                0.18637381502254768,
                2.297697608868248
            ]
        },
        {
            "positions": [
                -1.3367358963095477,
                -1.1026241949188662,
                -0.39030385675774715,
                -0.0541211651594358,
                0.2209301097778978,
                2.2341423118614943
            ]
        },
        {
            "positions": [
                -1.168608056246467,
                -1.1092588868980056,
                -0.48341897049992055,
                -0.030954094269323773,
                0.2554864045332479,
                2.170587014854741
            ]
        },
        {
            "positions": [
                -1.0004802161833863,
                -1.115893578877145,
                -0.5765340842420936,
                -0.007787023379211833,
                0.29004269928859794,
                2.1070317178479874
            ]
        },
        {
            "positions": [
                -0.8323523761203053,
                -1.122528270856284,
                -0.6696491979842671,
                0.015380047510900163,
                0.32459899404394804,
                2.043476420841234
            ]
        },
        {
            "positions": [
                -0.6642245360572248,
                -1.1291629628354234,
                -0.7627643117264404,
                0.03854711840101216,
                0.3591552887992981,
                1.9799211238344805
            ]
        },
        {
            "positions": [
                -0.49609669599414374,
                -1.1357976548145627,
                -0.855879425468614,
                0.061714189291124155,
                0.3937115835546482,
                1.916365826827727
            ]
        },
        {
            "positions": [
                -0.3279688559310632,
                -1.142432346793702,
                -0.948994539210787,
                0.08488126018123615,
                0.42826787830999824,
                1.8528105298209736
            ]
        },
        {
            "positions": [
                -0.1598410158679826,
                -1.1490670387728412,
                -1.0421096529529605,
                0.10804833107134815,
                0.4628241730653484,
                1.78925523281422
            ]
        },
        {
            "positions": [
                0.008286824195098408,
                -1.1557017307519806,
                -1.1352247666951338,
                0.13121540196146014,
                0.49738046782069845,
                1.7256999358074665
            ]
        },
        {
            "positions": [
                0.17641466425817942,
                -1.16233642273112,
                -1.2283398804373071,
                0.15438247285157214,
                0.5319367625760485,
                1.662144638800713
            ]
        },
        {
            "positions": [
                0.34454250432126,
                -1.168971114710259,
                -1.3214549941794806,
                0.17754954374168413,
                0.5664930573313987,
                1.5985893417939594
            ]
        },
        {
            "positions": [
                0.512670344384341,
                -1.1756058066893984,
                -1.414570107921654,
                0.20071661463179613,
                0.6010493520867487,
                1.535034044787206
            ]
        },
        {
            "positions": [
                0.6807981844474216,
                -1.1822404986685378,
                -1.5076852216638275,
                0.22388368552190818,
                0.6356056468420989,
                1.4714787477804523
            ]
        },
        {
            "positions": [
                0.8489260245105021,
                -1.188875190647677,
                -1.6008003354060005,
                0.24705075641202,
                0.6701619415974488,
                1.407923450773699
            ]
        },
        {
            "positions": [
                1.0170538645735827,
                -1.1955098826268162,
                -1.6939154491481736,
                0.27021782730213206,
                0.704718236352799,
                1.3443681537669456
            ]
        },
        {
            "positions": [
                1.1851817046366633,
                -1.2021445746059556,
                -1.7870305628903471,
                0.2933848981922441,
                0.739274531108149,
                1.280812856760192
            ]
        },
        {
            "positions": [
                1.3533095446997447,
                -1.208779266585095,
                -1.8801456766325206,
                0.31655196908235606,
                0.7738308258634992,
                1.2172575597534385
            ]
        },
        {
            "positions": [
                1.5214373847628253,
                -1.215413958564234,
                -1.9732607903746937,
                0.3397190399724681,
                0.8083871206188492,
                1.1537022627466849
            ]
        },
        {
            "positions": [
                1.6895652248259059,
                -1.2220486505433734,
                -2.0663759041168674,
                0.36288611086258005,
                0.8429434153741993,
                1.0901469657399314
            ]
        },
        {
            "positions": [
                1.8576930648889873,
                -1.2286833425225128,
                -2.1594910178590405,
                0.3860531817526921,
                0.8774997101295493,
                1.026591668733178
            ]
        },
        {
            "positions": [
                2.025820904952068,
                -1.2353180345016521,
                -2.2526061316012145,
                0.40922025264280404,
                0.9120560048848995,
                0.9630363717264243
            ]
        },
        {
            "positions": [
                2.1939487450151485,
                -1.2419527264807915,
                -2.3457212453433876,
                0.4323873235329161,
                0.9466122996402496,
                0.8994810747196709
            ]
        },
        {
            "positions": [
                2.362076585078229,
                -1.2485874184599306,
                -2.4388363590855606,
                0.45555439442302803,
                0.9811685943955996,
                0.8359257777129177
            ]
        },
        {
            "positions": [
                2.5302044251413096,
                -1.25522211043907,
                -2.5319514728277337,
                0.47872146531313997,
                1.0157248891509498,
                0.7723704807061642
            ]
        },
        {
            "positions": [
                2.69833226520439,
                -1.261856802418209,
                -2.6250665865699077,
                0.501888536203252,
                1.0502811839063,
                0.7088151836994103
            ]
        },
        {
            "positions": [
                2.8664601052674716,
                -1.2684914943973484,
                -2.7181817003120807,
                0.525055607093364,
                1.0848374786616497,
                0.6452598866926569
            ]
        },
        {
            "positions": [
                3.0345879453305526,
                -1.2751261863764878,
                -2.811296814054254,
                0.548222677983476,
                1.1193937734169999,
                0.5817045896859034
            ]
        },
        {
            "positions": [
                2.9195253094727565,
                -1.2918828690907334,
                -2.7952132119200326,
                0.45037436781004664,
                1.0726566424725754,
                0.6735405530055725
            ]
        },
        {
            "positions": [
                2.8044626736149603,
                -1.3086395518049787,
                -2.779129609785812,
                0.35252605763661726,
                1.0259195115281508,
                0.7653765163252415
            ]
        },
        {
            "positions": [
                2.689400037757164,
                -1.3253962345192243,
                -2.7630460076515906,
                0.2546777474631879,
                0.9791823805837263,
                0.8572124796449105
            ]
        },
        {
            "positions": [
                2.574337401899368,
                -1.3421529172334696,
                -2.7469624055173694,
                0.1568294372897585,
                0.9324452496393018,
                0.9490484429645796
            ]
        },
        {
            "positions": [
                2.4592747660415712,
                -1.3589095999477152,
                -2.7308788033831486,
                0.05898112711632908,
                0.8857081186948772,
                1.0408844062842486
            ]
        },
        {
            "positions": [
                2.344212130183775,
                -1.3756662826619606,
                -2.7147952012489274,
                -0.03886718305710024,
                0.8389709877504528,
                1.1327203696039176
            ]
        },
        {
            "positions": [
                2.229149494325979,
                -1.3924229653762061,
                -2.6987115991147066,
                -0.13671549323052967,
                0.7922338568060281,
                1.2245563329235867
            ]
        },
        {
            "positions": [
                2.1140868584681827,
                -1.4091796480904515,
                -2.6826279969804854,
                -0.234563803403959,
                0.7454967258616036,
                1.3163922962432557
            ]
        },
        {
            "positions": [
                1.9990242226103863,
                -1.425936330804697,
                -2.666544394846264,
                -0.33241211357738853,
                0.698759594917179,
                1.408228259562925
            ]
        },
        {
            "positions": [
                1.88396158675259,
                -1.4426930135189424,
                -2.6504607927120434,
                -0.43026042375081786,
                0.6520224639727545,
                1.500064222882594
            ]
        },
        {
            "positions": [
                1.7688989508947939,
                -1.459449696233188,
                -2.634377190577822,
                -0.5281087339242472,
                0.60528533302833,
                1.591900186202263
            ]
        },
        {
            "positions": [
                1.6538363150369977,
                -1.4762063789474333,
                -2.618293588443601,
                -0.6259570440976765,
                0.5585482020839055,
                1.683736149521932
            ]
        },
        {
            "positions": [
                1.5387736791792013,
                -1.492963061661679,
                -2.60220998630938,
                -0.723805354271106,
                0.511811071139481,
                1.775572112841601
            ]
        },
        {
            "positions": [
                1.423711043321405,
                -1.5097197443759245,
                -2.586126384175159,
                -0.8216536644445354,
                0.46507394019505643,
                1.8674080761612701
            ]
        },
        {
            "positions": [
                1.3086484074636089,
                -1.5264764270901698,
                -2.5700427820409377,
                -0.9195019746179647,
                0.4183368092506319,
                1.9592440394809392
            ]
        },
        {
            "positions": [
                1.1935857716058127,
                -1.5432331098044152,
                -2.553959179906717,
                -1.017350284791394,
                0.37159967830620744,
                2.0510800028006084
            ]
        },
        {
            "positions": [
                1.0785231357480165,
                -1.5599897925186608,
                -2.5378755777724957,
                -1.1151985949648233,
                0.3248625473617829,
                2.1429159661202775
            ]
        },
        {
            "positions": [
                0.9634604998902199,
                -1.5767464752329063,
                -2.5217919756382745,
                -1.213046905138253,
                0.2781254164173582,
                2.2347519294399465
            ]
        },
        {
            "positions": [
                0.8483978640324237,
                -1.5935031579471517,
                -2.5057083735040537,
                -1.3108952153116824,
                0.23138828547293377,
                2.3265878927596155
            ]
        },
        {
            "positions": [
                0.7333352281746275,
                -1.6102598406613973,
                -2.4896247713698325,
                -1.4087435254851117,
                0.18465115452850922,
                2.4184238560792846
            ]
        },
        {
            "positions": [
                0.6182725923168313,
                -1.6270165233756426,
                -2.4735411692356113,
                -1.5065918356585413,
                0.13791402358408478,
                2.5102598193989536
            ]
        },
        {
            "positions": [
                0.5032099564590351,
                -1.6437732060898882,
                -2.4574575671013905,
                -1.6044401458319704,
                0.09117689263966011,
                2.6020957827186226
            ]
        },
        {
            "positions": [
                0.3881473206012389,
                -1.6605298888041335,
                -2.4413739649671693,
                -1.7022884560054,
                0.04443976169523567,
                2.6939317460382917
            ]
        },
        {
            "positions": [
                0.2730846847434427,
                -1.6772865715183791,
                -2.4252903628329485,
                -1.800136766178829,
                -0.0022973692491887743,
                2.7857677093579607
            ]
        },
        {
            "positions": [
                0.15802204888564608,
                -1.6940432542326245,
                -2.4092067606987273,
                -1.8979850763522585,
                -0.04903450019361344,
                2.8776036726776297
            ]
        },
        {
            "positions": [
                0.04295941302784989,
                -1.71079993694687,
                -2.393123158564506,
                -1.995833386525688,
                -0.09577163113803788,
                2.9694396359972988
            ]
        },
        {
            "positions": [
                -0.0721032228299463,
                -1.7275566196611156,
                -2.3770395564302853,
                -2.093681696699117,
                -0.14250876208246255,
                3.061275599316968
            ]
        },
        {
            "positions": [
                -0.18716585868774271,
                -1.744313302375361,
                -2.360955954296064,
                -2.1915300068725467,
                -0.18924589302688696,
                3.153111562636637
            ]
        }
    ]
}