{
    "goal": {
        "global_pose": {
            "orientation": {
                "w": 0.005598929693374612,
                "x": 0.007748599140229565,
                "y": 0.7110244013736278,
                "z": -0.7031023480610252
            },
            "position": {
                "x": -0.8858502320852131,
                "y": -0.7141253447532654,
                "z": 0.3711530566215515
            }
        },
        "name": "move_to_auspresseinheit_C"
    },
    "id": "KPIECE_move_to_auspresseinheit_C_126",
    "joint_names": [
        "shoulder_pan_joint",
        "shoulder_lift_joint",
        "elbow_joint",
        "wrist_1_joint",
        "wrist_2_joint",
        "wrist_3_joint"
    ],
    "metrics": {
        "cart_traj_len": 0.49426328751048304,
        "distance_elbow_joint": 1.0118460099543198,
        "distance_shoulder_lift_joint": 0.329839851170343,
        "distance_shoulder_pan_joint": 0.25646307349288566,
        "distance_wrist_1_joint": 0.7020250508676424,
        "distance_wrist_2_joint": 1.3095369483325237,
        "distance_wrist_3_joint": 0.0805439467006206,
        "smoothness": 1.6148698667872622e-16,
        "time": 0.333546423,
        "traj_len": 1.9210036128332333,
        "weighted_distance": 2.4213435884070114
    },
    "planner": "KPIECE",
    "start": {
        "state": {
            "elbow_joint": 1.7527959577730765,
            "shoulder_lift_joint": -0.9740617694224828,
            "shoulder_pan_joint": -2.967991417825869,
            "wrist_1_joint": -0.7595177689779385,
            "wrist_2_joint": 1.7443932448376545,
            "wrist_3_joint": 3.1991315425061013
        }
    },
    "waypoints": [
        {
            "positions": [
                -2.967991417825869,
                -0.9740617694224828,
                1.7527959577730765,
                -0.7595177689779385,
                1.7443932448376545,
                3.1991315425061013
            ]
        },
        {
            "positions": [
                -2.9423451104765803,
                -0.9410777843054485,
                1.6516113567776445,
                -0.6893152638911743,
                1.613439550004402,
                3.1910771478360394
            ]
        },
        {
            "positions": [
                -2.916698803127292,
                -0.9080937991884142,
                1.5504267557822125,
                -0.6191127588044101,
                1.4824858551711497,
                3.1830227531659774
            ]
        },
        {
            "positions": [
                -2.8910524957780033,
                -0.8751098140713799,
                1.4492421547867806,
                -0.5489102537176458,
                1.3515321603378974,
                3.174968358495915
            ]
        },
        {
            "positions": [
                -2.865406188428715,
                -0.8421258289543456,
                1.3480575537913486,
                -0.47870774863088156,
                1.220578465504645,
                3.166913963825853
            ]
        },
        {
            "positions": [
                -2.8397598810794262,
                -0.8091418438373112,
                1.2468729527959166,
                -0.4085052435441173,
                1.0896247706713926,
                3.158859569155791
            ]
        },
        {
            "positions": [
                -2.8141135737301375,
                -0.776157858720277,
                1.1456883518004846,
                -0.3383027384573531,
                0.9586710758381403,
                3.150805174485729
            ]
        },
        {
            "positions": [
                -2.788467266380849,
                -0.7431738736032427,
                1.0445037508050525,
                -0.26810023337058886,
                0.827717381004888,
                3.142750779815667
            ]
        },
        {
            "positions": [
                -2.7628209590315604,
                -0.7101898884862083,
                0.9433191498096206,
                -0.19789772828382457,
                0.6967636861716355,
                3.1346963851456047
            ]
        },
        {
            "positions": [
                -2.737174651682272,
                -0.6772059033691741,
                0.8421345488141886,
                -0.12769522319706028,
                0.5658099913383832,
                3.1266419904755427
            ]
        },
        {
            "positions": [
                -2.7115283443329834,
                -0.6442219182521398,
                0.7409499478187567,
                -0.05749271811029607,
                0.4348562965051307,
                3.1185875958054807
            ]
        }
    ]
}