{
    "goal": {
        "global_pose": {
            "orientation": {
                "w": 0.7031023502349854,
                "x": -0.7110244035720825,
                "y": 0.007748599164187908,
                "z": 0.005598929710686207
            },
            "position": {
                "x": 0.11585023208521307,
                "y": 0.44412534475326537,
                "z": 0.3711530566215515
            }
        },
        "name": "move_to_auspresseinheit_A"
    },
    "id": "KPIECE_move_to_auspresseinheit_A_32",
    "joint_names": [
        "shoulder_pan_joint",
        "shoulder_lift_joint",
        "elbow_joint",
        "wrist_1_joint",
        "wrist_2_joint",
        "wrist_3_joint"
    ],
    "metrics": {
        "cart_traj_len": 1.429616608945262,
        "distance_elbow_joint": 1.133282065493336,
        "distance_shoulder_lift_joint": 0.8936918101358504,
        "distance_shoulder_pan_joint": 1.4494000386815342,
        "distance_wrist_1_joint": 0.8762126293503734,
        "distance_wrist_2_joint": 0.6579286395699789,
        "distance_wrist_3_joint": 4.544890129720512,
        "smoothness": 0.9967126027305064,
        "time": 0.551012689,
        "traj_len": 3.0911818634547505,
        "weighted_distance": 4.492140563396582
    },
    "planner": "KPIECE",
    "start": {
        "state": {
            "elbow_joint": 2.4225746994637096,
            "shoulder_lift_joint": -1.373653595662188,
            "shoulder_pan_joint": -0.3378633848294565,
            "wrist_1_joint": -1.0288595594406726,
            "wrist_2_joint": 1.2330228066703421,
            "wrist_3_joint": 3.189163495502006
        }
    },
    "waypoints": [
        {
            "positions": [
                -0.3378633848294565,
                -1.373653595662188,
                2.4225746994637096,
                -1.0288595594406726,
                1.2330228066703421,
                3.189163495502006
            ]
        },
        {
            "positions": [
                -0.35076682127945913,
                -1.428492410933853,
                2.3776980099217035,
                -0.973035035507042,
                1.187426653902462,
                3.0121453558036846
            ]
        },
        {
            "positions": [
                -0.3636702577294617,
                -1.483331226205518,
                2.332821320379697,
                -0.9172105115734113,
                1.1418305011345817,
                2.8351272161053633
            ]
        },
        {
            "positions": [
                -0.37657369417946435,
                -1.538170041477183,
                2.287944630837691,
                -0.8613859876397806,
                1.0962343483667016,
                2.658109076407042
            ]
        },
        {
            "positions": [
                -0.38947713062946693,
                -1.593008856748848,
                2.243067941295685,
                -0.8055614637061499,
                1.0506381955988213,
                2.4810909367087204
            ]
        },
        {
            "positions": [
                -0.40238056707946956,
                -1.6478476720205129,
                2.198191251753679,
                -0.7497369397725191,
                1.0050420428309412,
                2.304072797010399
            ]
        },
        {
            "positions": [
                -0.41528400352947215,
                -1.7026864872921779,
                2.1533145622116723,
                -0.6939124158388885,
                0.959445890063061,
                2.127054657312078
            ]
        },
        {
            "positions": [
                -0.4281874399794748,
                -1.7575253025638429,
                2.108437872669666,
                -0.6380878919052577,
                0.9138497372951808,
                1.9500365176137566
            ]
        },
        {
            "positions": [
                -0.4410908764294774,
                -1.8123641178355079,
                2.06356118312766,
                -0.582263367971627,
                0.8682535845273006,
                1.7730183779154352
            ]
        },
        {
            "positions": [
                -0.45399431287948,
                -1.8672029331071727,
                2.018684493585654,
                -0.5264388440379963,
                0.8226574317594204,
                1.596000238217114
            ]
        },
        {
            "positions": [
                -0.4668977493294826,
                -1.9220417483788377,
                1.9738078040436475,
                -0.47061432010436566,
                0.7770612789915403,
                1.4189820985187924
            ]
        },
        {
            "positions": [
                -0.4798011857794852,
                -1.9768805636505027,
                1.9289311145016415,
                -0.41478979617073497,
                0.7314651262236601,
                1.2419639588204714
            ]
        },
        {
            "positions": [
                -0.49270462222948785,
                -2.0317193789221677,
                1.8840544249596354,
                -0.3589652722371043,
                0.6858689734557799,
                1.06494581912215
            ]
        },
        {
            "positions": [
                -0.5056080586794904,
                -2.0865581941938327,
                1.839177735417629,
                -0.30314074830347365,
                0.6402728206878997,
                0.8879276794238287
            ]
        },
        {
            "positions": [
                -0.39230348216590283,
                -2.0706651842586346,
                1.8869145746593727,
                -0.3054157100240505,
                0.6442327367178252,
                1.0686961374548507
            ]
        },
        {
            "positions": [
                -0.2789989056523152,
                -2.054772174323436,
                1.9346514139011164,
                -0.3076906717446273,
                0.6481926527477508,
                1.2494645954858727
            ]
        },
        {
            "positions": [
                -0.16569432913872761,
                -2.038879164388238,
                1.98238825314286,
                -0.3099656334652041,
                0.6521525687776764,
                1.4302330535168948
            ]
        },
        {
            "positions": [
                -0.05238975262514001,
                -2.022986154453039,
                2.030125092384604,
                -0.3122405951857809,
                0.656112484807602,
                1.611001511547917
            ]
        },
        {
            "positions": [
                0.0609148238884476,
                -2.007093144517841,
                2.0778619316263476,
                -0.31451555690635774,
                0.6600724008375275,
                1.791769969578939
            ]
        },
        {
            "positions": [
                0.1742194004020352,
                -1.9912001345826427,
                2.1255987708680912,
                -0.3167905186269345,
                0.6640323168674531,
                1.9725384276099611
            ]
        },
        {
            "positions": [
                0.2875239769156228,
                -1.9753071246474443,
                2.173335610109835,
                -0.31906548034751137,
                0.6679922328973786,
                2.1533068856409834
            ]
        },
        {
            "positions": [
                0.4008285534292104,
                -1.9594141147122461,
                2.2210724493515785,
                -0.32134044206808815,
                0.6719521489273043,
                2.3340753436720054
            ]
        },
        {
            "positions": [
                0.514133129942798,
                -1.9435211047770478,
                2.268809288593322,
                -0.323615403788665,
                0.6759120649572298,
                2.5148438017030275
            ]
        },
        {
            "positions": [
                0.6274377064563856,
                -1.9276280948418494,
                2.316546127835066,
                -0.3258903655092418,
                0.6798719809871554,
                2.6956122597340495
            ]
        },
        {
            "positions": [
                0.7407422829699732,
                -1.911735084906651,
                2.3642829670768095,
                -0.3281653272298186,
                0.6838318970170809,
                2.8763807177650715
            ]
        },
        {
            "positions": [
                0.723089771378955,
                -1.9087530337481389,
                2.376672901970847,
                -0.39089994687323315,
                0.6946416856462585,
                3.0039813554156174
            ]
        },
        {
            "positions": [
                0.7054372597879367,
                -1.905770982589627,
                2.3890628368648845,
                -0.4536345665166477,
                0.7054514742754362,
                3.1315819930661632
            ]
        }
    ]
}