{
    "goal": {
        "global_pose": {
            "orientation": {
                "w": 0.7047431468963623,
                "x": -0.7094548344612122,
                "y": 0.0024358443915843964,
                "z": -0.0022348060738295317
            },
            "position": {
                "x": 0.6094750761985779,
                "y": 0.3671506643295288,
                "z": 0.19426114857196808
            }
        },
        "name": "move_to_magneteinheit_A"
    },
    "id": "KPIECE_move_to_magneteinheit_A_106",
    "joint_names": [
        "shoulder_pan_joint",
        "shoulder_lift_joint",
        "elbow_joint",
        "wrist_1_joint",
        "wrist_2_joint",
        "wrist_3_joint"
    ],
    "metrics": {
        "cart_traj_len": 2.1068537760616395,
        "distance_elbow_joint": 3.5242039280923647,
        "distance_shoulder_lift_joint": 3.651944177491247,
        "distance_shoulder_pan_joint": 1.241371381382365,
        "distance_wrist_1_joint": 3.827337335148386,
        "distance_wrist_2_joint": 1.693045525514264,
        "distance_wrist_3_joint": 1.2498619645699196,
        "smoothness": 0.17031150487755806,
        "time": 0.193371976,
        "traj_len": 3.897148228153318,
        "weighted_distance": 4.817454836529454
    },
    "planner": "KPIECE",
    "start": {
        "state": {
            "elbow_joint": -1.5739458827952972,
            "shoulder_lift_joint": 0.006533473998580023,
            "shoulder_pan_joint": -1.1188671628667068,
            "wrist_1_joint": 3.138208179676308,
            "wrist_2_joint": -1.5706037135050406,
            "wrist_3_joint": -2.0226958329764257
        }
    },
    "waypoints": [
        {
            "positions": [
                -1.1188671628667068,
                0.006533473998580023,
                -1.5739458827952972,
                3.138208179676308,
                -1.5706037135050406,
                -2.0226958329764257
            ]
        },
        {
            "positions": [
                -1.0936915811003594,
                -0.07322260292926755,
                -1.4714026370650344,
                3.030309154895659,
                -1.5351944157981976,
                -2.0623699009935215
            ]
        },
        {
            "positions": [
                -1.0685159993340119,
                -0.1529786798571151,
                -1.3688593913347713,
                2.922410130115009,
                -1.4997851180913544,
                -2.1020439690106176
            ]
        },
        {
            "positions": [
                -1.0433404175676644,
                -0.2327347567849627,
                -1.2663161456045084,
                2.8145111053343594,
                -1.4643758203845114,
                -2.1417180370277134
            ]
        },
        {
            "positions": [
                -1.018164835801317,
                -0.3124908337128103,
                -1.1637728998742456,
                2.70661208055371,
                -1.4289665226776682,
                -2.181392105044809
            ]
        },
        {
            "positions": [
                -0.9929892540349694,
                -0.3922469106406578,
                -1.0612296541439825,
                2.598713055773061,
                -1.3935572249708252,
                -2.2210661730619052
            ]
        },
        {
            "positions": [
                -0.9678136722686219,
                -0.47200298756850545,
                -0.9586864084137195,
                2.490814030992411,
                -1.3581479272639823,
                -2.260740241079001
            ]
        },
        {
            "positions": [
                -0.9426380905022744,
                -0.5517590644963529,
                -0.8561431626834566,
                2.382915006211762,
                -1.322738629557139,
                -2.3004143090960967
            ]
        },
        {
            "positions": [
                -0.9174625087359269,
                -0.6315151414242005,
                -0.7535999169531937,
                2.275015981431112,
                -1.287329331850296,
                -2.340088377113193
            ]
        },
        {
            "positions": [
                -0.8922869269695795,
                -0.7112712183520481,
                -0.6510566712229308,
                2.167116956650463,
                -1.251920034143453,
                -2.3797624451302886
            ]
        },
        {
            "positions": [
                -0.867111345203232,
                -0.7910272952798956,
                -0.5485134254926678,
                2.0592179318698136,
                -1.21651073643661,
                -2.4194365131473843
            ]
        },
        {
            "positions": [
                -0.8419357634368845,
                -0.8707833722077432,
                -0.44597017976240494,
                1.951318907089164,
                -1.181101438729767,
                -2.4591105811644804
            ]
        },
        {
            "positions": [
                -0.8167601816705369,
                -0.9505394491355909,
                -0.34342693403214186,
                1.8434198823085142,
                -1.1456921410229237,
                -2.498784649181576
            ]
        },
        {
            "positions": [
                -0.7915845999041894,
                -1.0302955260634383,
                -0.240883688301879,
                1.735520857527865,
                -1.1102828433160807,
                -2.538458717198672
            ]
        },
        {
            "positions": [
                -0.7664090181378419,
                -1.110051602991286,
                -0.13834044257161593,
                1.6276218327472154,
                -1.0748735456092375,
                -2.578132785215768
            ]
        },
        {
            "positions": [
                -0.7412334363714944,
                -1.1898076799191335,
                -0.035797196841353074,
                1.519722807966566,
                -1.0394642479023946,
                -2.6178068532328638
            ]
        },
        {
            "positions": [
                -0.7160578546051469,
                -1.269563756846981,
                0.06674604888890978,
                1.4118237831859164,
                -1.0040549501955516,
                -2.6574809212499595
            ]
        },
        {
            "positions": [
                -0.6908822728387994,
                -1.3493198337748287,
                0.16928929461917286,
                1.303924758405267,
                -0.9686456524887085,
                -2.6971549892670557
            ]
        },
        {
            "positions": [
                -0.665706691072452,
                -1.4290759107026763,
                0.2718325403494357,
                1.1960257336246176,
                -0.9332363547818654,
                -2.7368290572841514
            ]
        },
        {
            "positions": [
                -0.6405311093061045,
                -1.5088319876305236,
                0.37437578607969857,
                1.088126708843968,
                -0.8978270570750223,
                -2.776503125301247
            ]
        },
        {
            "positions": [
                -0.615355527539757,
                -1.5885880645583712,
                0.47691903180996165,
                0.9802276840633186,
                -0.8624177593681792,
                -2.8161771933183433
            ]
        },
        {
            "positions": [
                -0.5901799457734095,
                -1.6683441414862188,
                0.5794622775402243,
                0.8723286592826693,
                -0.8270084616613362,
                -2.855851261335439
            ]
        },
        {
            "positions": [
                -0.565004364007062,
                -1.7481002184140664,
                0.6820055232704874,
                0.7644296345020196,
                -0.7915991639544931,
                -2.8955253293525347
            ]
        },
        {
            "positions": [
                -0.5398287822407144,
                -1.8278562953419142,
                0.7845487690007504,
                0.6565306097213699,
                -0.7561898662476499,
                -2.935199397369631
            ]
        },
        {
            "positions": [
                -0.5146532004743669,
                -1.9076123722697618,
                0.8870920147310135,
                0.5486315849407202,
                -0.7207805685408069,
                -2.9748734653867266
            ]
        },
        {
            "positions": [
                -0.4894776187080194,
                -1.9873684491976094,
                0.9896352604612766,
                0.4407325601600709,
                -0.6853712708339639,
                -3.0145475334038228
            ]
        },
        {
            "positions": [
                -0.46430203694167194,
                -2.0671245261254567,
                1.0921785061915392,
                0.3328335353794216,
                -0.6499619731271208,
                -3.0542216014209185
            ]
        },
        {
            "positions": [
                -0.43912645517532445,
                -2.1468806030533045,
                1.1947217519218023,
                0.2249345105987719,
                -0.6145526754202777,
                -3.093895669438014
            ]
        },
        {
            "positions": [
                -0.41395087340897696,
                -2.226636679981152,
                1.2972649976520654,
                0.11703548581812262,
                -0.5791433777134346,
                -3.13356973745511
            ]
        },
        {
            "positions": [
                -0.3887752916426295,
                -2.3063927569089997,
                1.399808243382328,
                0.009136461037472898,
                -0.5437340800065915,
                -3.1732438054722056
            ]
        },
        {
            "positions": [
                -0.363599709876282,
                -2.386148833836847,
                1.502351489112591,
                -0.09876256374317616,
                -0.5083247822997484,
                -3.212917873489302
            ]
        },
        {
            "positions": [
                -0.30958816227717756,
                -2.246230848319534,
                1.5521188842441995,
                -0.1643588517130542,
                -0.4382396051543071,
                -3.219544531717862
            ]
        },
        {
            "positions": [
                -0.2555766146780731,
                -2.1063128628022203,
                1.601886279375808,
                -0.22995513968293224,
                -0.3681544280088658,
                -3.2261711899464225
            ]
        },
        {
            "positions": [
                -0.20156506707896865,
                -1.9663948772849071,
                1.6516536745074166,
                -0.2955514276528103,
                -0.2980692508634245,
                -3.232797848174983
            ]
        },
        {
            "positions": [
                -0.1475535194798642,
                -1.826476891767594,
                1.701421069639025,
                -0.3611477156226883,
                -0.22798407371798318,
                -3.239424506403543
            ]
        },
        {
            "positions": [
                -0.09354197188075974,
                -1.6865589062502804,
                1.7511884647706335,
                -0.42674400359256637,
                -0.1578988965725418,
                -3.246051164632104
            ]
        },
        {
            "positions": [
                -0.03953042428165532,
                -1.5466409207329672,
                1.800955859902242,
                -0.4923402915624444,
                -0.08781371942710053,
                -3.2526778228606643
            ]
        },
        {
            "positions": [
                0.014481123317449163,
                -1.406722935215654,
                1.8507232550338504,
                -0.5579365795323225,
                -0.01772854228165921,
                -3.2593044810892247
            ]
        },
        {
            "positions": [
                0.06849267091655359,
                -1.2668049496983407,
                1.900490650165459,
                -0.6235328675022005,
                0.05235663486378206,
                -3.265931139317785
            ]
        },
        {
            "positions": [
                0.12250421851565808,
                -1.1268869641810273,
                1.9502580452970675,
                -0.6891291554720785,
                0.12244181200922342,
                -3.2725577975463453
            ]
        }
    ]
}