{
    "goal": {
        "global_pose": {
            "orientation": {
                "w": -0.4816463035849501,
                "x": 0.5182115481033762,
                "y": 0.4908360881923453,
                "z": -0.5084816262002911
            },
            "position": {
                "x": -0.8240239810943604,
                "y": 0.19912469901144506,
                "z": 0.16403168439865112
            }
        },
        "name": "move_to_storage_D"
    },
    "id": "KPIECE_move_to_storage_D_7",
    "joint_names": [
        "shoulder_pan_joint",
        "shoulder_lift_joint",
        "elbow_joint",
        "wrist_1_joint",
        "wrist_2_joint",
        "wrist_3_joint"
    ],
    "metrics": {
        "cart_traj_len": 3.683944539342805,
        "distance_elbow_joint": 4.303230588826952,
        "distance_shoulder_lift_joint": 1.263234816287501,
        "distance_shoulder_pan_joint": 2.813292689239462,
        "distance_wrist_1_joint": 2.2625975950917434,
        "distance_wrist_2_joint": 1.2636604169228245,
        "distance_wrist_3_joint": 3.1326863987938336,
        "smoothness": 0.04129262195769076,
        "time": 0.287830883,
        "traj_len": 3.877976599357237,
        "weighted_distance": 4.983004446592894
    },
    "planner": "KPIECE",
    "start": {
        "state": {
            "elbow_joint": -2.384821990628643,
            "shoulder_lift_joint": -2.278805467437664,
            "shoulder_pan_joint": -0.18546946439364564,
            "wrist_1_joint": 1.4845938187801415,
            "wrist_2_joint": 0.178987772454074,
            "wrist_3_joint": 0.03710569632802521
        }
    },
    "waypoints": [
        {
            "positions": [
                -0.18546946439364564,
                -2.278805467437664,
                -2.384821990628643,
                1.4845938187801415,
                0.178987772454074,
                0.03710569632802521
            ]
        },
        {
            "positions": [
                -0.10545335604226672,
                -2.2640035682700996,
                -2.227163592841854,
                1.4263179382954285,
                0.2186989379985907,
                0.00497913641339201
            ]
        },
        {
            "positions": [
                -0.025437247690887788,
                -2.2492016691025354,
                -2.069505195055064,
                1.3680420578107153,
                0.25841010354310734,
                -0.02714742350124119
            ]
        },
        {
            "positions": [
                0.05457886066049114,
                -2.2343997699349707,
                -1.9118467972682747,
                1.3097661773260023,
                0.29812126908762404,
                -0.05927398341587439
            ]
        },
        {
            "positions": [
                0.13459496901187007,
                -2.2195978707674064,
                -1.7541883994814853,
                1.2514902968412893,
                0.33783243463214074,
                -0.0914005433305076
            ]
        },
        {
            "positions": [
                0.21461107736324903,
                -2.204795971599842,
                -1.5965300016946957,
                1.193214416356576,
                0.37754360017665745,
                -0.1235271032451408
            ]
        },
        {
            "positions": [
                0.2946271857146279,
                -2.189994072432278,
                -1.4388716039079061,
                1.134938535871863,
                0.41725476572117415,
                -0.155653663159774
            ]
        },
        {
            "positions": [
                0.3746432940660068,
                -2.1751921732647137,
                -1.2812132061211168,
                1.0766626553871501,
                0.4569659312656908,
                -0.1877802230744072
            ]
        },
        {
            "positions": [
                0.4546594024173858,
                -2.1603902740971495,
                -1.1235548083343272,
                1.018386774902437,
                0.4966770968102075,
                -0.2199067829890404
            ]
        },
        {
            "positions": [
                0.5346755107687647,
                -2.1455883749295848,
                -0.9658964105475376,
                0.9601108944177239,
                0.5363882623547243,
                -0.25203334290367363
            ]
        },
        {
            "positions": [
                0.6146916191201437,
                -2.1307864757620205,
                -0.8082380127607482,
                0.9018350139330109,
                0.5760994278992408,
                -0.28415990281830683
            ]
        },
        {
            "positions": [
                0.6947077274715227,
                -2.1159845765944563,
                -0.6505796149739587,
                0.8435591334482978,
                0.6158105934437575,
                -0.31628646273294003
            ]
        },
        {
            "positions": [
                0.7747238358229015,
                -2.101182677426892,
                -0.4929212171871691,
                0.7852832529635847,
                0.6555217589882743,
                -0.34841302264757323
            ]
        },
        {
            "positions": [
                0.8547399441742805,
                -2.0863807782593278,
                -0.3352628194003797,
                0.7270073724788717,
                0.6952329245327908,
                -0.38053958256220644
            ]
        },
        {
            "positions": [
                0.9347560525256593,
                -2.071578879091763,
                -0.17760442161359036,
                0.6687314919941586,
                0.7349440900773077,
                -0.41266614247683964
            ]
        },
        {
            "positions": [
                1.0147721608770384,
                -2.056776979924199,
                -0.019946023826800552,
                0.6104556115094455,
                0.7746552556218245,
                -0.44479270239147284
            ]
        },
        {
            "positions": [
                1.0947882692284172,
                -2.0419750807566346,
                0.1377123739599888,
                0.5521797310247325,
                0.8143664211663411,
                -0.47691926230610604
            ]
        },
        {
            "positions": [
                1.1748043775797963,
                -2.0271731815890703,
                0.2953707717467786,
                0.4939038505400193,
                0.8540775867108577,
                -0.5090458222207392
            ]
        },
        {
            "positions": [
                1.2548204859311751,
                -2.012371282421506,
                0.453029169533568,
                0.4356279700553063,
                0.8937887522553745,
                -0.5411723821353724
            ]
        },
        {
            "positions": [
                1.3348365942825542,
                -1.9975693832539416,
                0.6106875673203573,
                0.3773520895705933,
                0.933499917799891,
                -0.5732989420500056
            ]
        },
        {
            "positions": [
                1.414852702633933,
                -1.9827674840863774,
                0.7683459651071467,
                0.3190762090858803,
                0.9732110833444076,
                -0.6054255019646388
            ]
        },
        {
            "positions": [
                1.494868810985312,
                -1.967965584918813,
                0.9260043628939365,
                0.2608003286011671,
                1.0129222488889245,
                -0.637552061879272
            ]
        },
        {
            "positions": [
                1.574884919336691,
                -1.9531636857512487,
                1.0836627606807259,
                0.2025244481164541,
                1.052633414433441,
                -0.6696786217939052
            ]
        },
        {
            "positions": [
                1.6549010276880698,
                -1.9383617865836844,
                1.2413211584675157,
                0.14424856763174088,
                1.0923445799779579,
                -0.7018051817085385
            ]
        },
        {
            "positions": [
                1.7349171360394486,
                -1.92355988741612,
                1.398979556254305,
                0.08597268714702788,
                1.1320557455224745,
                -0.7339317416231717
            ]
        },
        {
            "positions": [
                1.814933244390828,
                -1.9087579882485557,
                1.5566379540410944,
                0.027696806662314888,
                1.1717669110669913,
                -0.7660583015378049
            ]
        },
        {
            "positions": [
                1.8949493527422065,
                -1.8939560890809912,
                1.7142963518278838,
                -0.030579073822398106,
                1.2114780766115079,
                -0.798184861452438
            ]
        },
        {
            "positions": [
                1.9749654610935856,
                -1.879154189913427,
                1.8719547496146736,
                -0.0888549543071113,
                1.2511892421560247,
                -0.8303114213670713
            ]
        },
        {
            "positions": [
                2.029370274739605,
                -1.8071888950164883,
                1.8680835955660373,
                -0.1462840228074856,
                1.2352343298876185,
                -1.0190838614586326
            ]
        },
        {
            "positions": [
                2.0837750883856243,
                -1.7352236001195496,
                1.8642124415174008,
                -0.20371309130785986,
                1.2192794176192123,
                -1.2078563015501942
            ]
        },
        {
            "positions": [
                2.138179902031643,
                -1.663258305222611,
                1.8603412874687646,
                -0.2611421598082342,
                1.2033245053508062,
                -1.3966287416417555
            ]
        },
        {
            "positions": [
                2.1925847156776626,
                -1.5912930103256724,
                1.8564701334201281,
                -0.3185712283086084,
                1.1873695930824,
                -1.585401181733317
            ]
        },
        {
            "positions": [
                2.246989529323682,
                -1.5193277154287337,
                1.8525989793714919,
                -0.3760002968089827,
                1.1714146808139938,
                -1.7741736218248785
            ]
        },
        {
            "positions": [
                2.301394342969701,
                -1.447362420531795,
                1.8487278253228556,
                -0.43342936530935705,
                1.1554597685455876,
                -1.9629460619164398
            ]
        },
        {
            "positions": [
                2.35579915661572,
                -1.3753971256348563,
                1.8448566712742192,
                -0.4908584338097314,
                1.1395048562771817,
                -2.151718502008001
            ]
        },
        {
            "positions": [
                2.4102039702617395,
                -1.3034318307379178,
                1.840985517225583,
                -0.5482875023101056,
                1.1235499440087755,
                -2.3404909420995628
            ]
        },
        {
            "positions": [
                2.464608783907759,
                -1.2314665358409789,
                1.8371143631769464,
                -0.6057165708104799,
                1.1075950317403693,
                -2.5292633821911243
            ]
        },
        {
            "positions": [
                2.519013597553778,
                -1.1595012409440404,
                1.8332432091283102,
                -0.6631456393108542,
                1.0916401194719632,
                -2.718035822282686
            ]
        },
        {
            "positions": [
                2.573418411199797,
                -1.0875359460471017,
                1.8293720550796737,
                -0.7205747078112285,
                1.075685207203557,
                -2.9068082623742466
            ]
        },
        {
            "positions": [
                2.6278232248458164,
                -1.015570651150163,
                1.8255009010310375,
                -0.7780037763116028,
                1.0597302949351508,
                -3.0955807024658086
            ]
        }
    ]
}