{
    "goal": {
        "global_pose": {
            "orientation": {
                "w": 0.7031023502349854,
                "x": -0.7110244035720825,
                "y": 0.007748599164187908,
                "z": 0.005598929710686207
            },
            "position": {
                "x": 0.11585023208521307,
                "y": 0.44412534475326537,
                "z": 0.3711530566215515
            }
        },
        "name": "move_to_auspresseinheit_A"
    },
    "id": "KPIECE_move_to_auspresseinheit_A_127",
    "joint_names": [
        "shoulder_pan_joint",
        "shoulder_lift_joint",
        "elbow_joint",
        "wrist_1_joint",
        "wrist_2_joint",
        "wrist_3_joint"
    ],
    "metrics": {
        "cart_traj_len": 1.6912541412923607,
        "distance_elbow_joint": 1.53412352861988,
        "distance_shoulder_lift_joint": 0.6728186666226093,
        "distance_shoulder_pan_joint": 1.0615955266856014,
        "distance_wrist_1_joint": 3.6551881501507975,
        "distance_wrist_2_joint": 1.5933388749032462,
        "distance_wrist_3_joint": 3.2678159388106383,
        "smoothness": 0.817620333927767,
        "time": 0.420302868,
        "traj_len": 3.4329114008073054,
        "weighted_distance": 4.854795524887542
    },
    "planner": "KPIECE",
    "start": {
        "state": {
            "elbow_joint": 2.4225746994637096,
            "shoulder_lift_joint": -1.373653595662188,
            "shoulder_pan_joint": -0.3378633848294565,
            "wrist_1_joint": -1.0288595594406726,
            "wrist_2_joint": 1.2330228066703421,
            "wrist_3_joint": 3.189163495502006
        }
    },
    "waypoints": [
        {
            "positions": [
                -0.3378633848294565,
                -1.373653595662188,
                2.4225746994637096,
                -1.0288595594406726,
                1.2330228066703421,
                3.189163495502006
            ]
        },
        {
            "positions": [
                -0.26175739357875805,
                -1.3994908889141113,
                2.344348786097189,
                -1.075272208804924,
                1.2490667666742525,
                3.0682332479435477
            ]
        },
        {
            "positions": [
                -0.18565140232805957,
                -1.4253281821660349,
                2.2661228727306684,
                -1.1216848581691752,
                1.2651107266781632,
                2.9473030003850895
            ]
        },
        {
            "positions": [
                -0.10954541107736113,
                -1.4511654754179582,
                2.187896959364148,
                -1.1680975075334266,
                1.2811546866820736,
                2.8263727528266314
            ]
        },
        {
            "positions": [
                -0.03343941982666265,
                -1.4770027686698817,
                2.1096710459976276,
                -1.2145101568976777,
                1.297198646685984,
                2.705442505268173
            ]
        },
        {
            "positions": [
                0.04266657142403579,
                -1.502840061921805,
                2.0314451326311067,
                -1.260922806261929,
                1.3132426066898946,
                2.584512257709715
            ]
        },
        {
            "positions": [
                0.11877256267473424,
                -1.5286773551737283,
                1.9532192192645863,
                -1.3073354556261805,
                1.329286566693805,
                2.4635820101512573
            ]
        },
        {
            "positions": [
                0.19487855392543268,
                -1.5545146484256518,
                1.874993305898066,
                -1.3537481049904316,
                1.3453305266977154,
                2.342651762592799
            ]
        },
        {
            "positions": [
                0.2709845451761312,
                -1.580351941677575,
                1.7967673925315453,
                -1.400160754354683,
                1.3613744867016258,
                2.221721515034341
            ]
        },
        {
            "positions": [
                0.3470905364268297,
                -1.6061892349294986,
                1.7185414791650246,
                -1.4465734037189342,
                1.3774184467055364,
                2.100791267475883
            ]
        },
        {
            "positions": [
                0.423196527677528,
                -1.632026528181422,
                1.6403155657985042,
                -1.4929860530831855,
                1.3934624067094468,
                1.9798610199174247
            ]
        },
        {
            "positions": [
                0.4224052558074049,
                -1.6608362466303956,
                1.6739924054540025,
                -1.317228449892576,
                1.3048377479876352,
                1.9423195285541914
            ]
        },
        {
            "positions": [
                0.4216139839372818,
                -1.6896459650793691,
                1.7076692451095006,
                -1.1414708467019663,
                1.2162130892658238,
                1.904778037190958
            ]
        },
        {
            "positions": [
                0.4208227120671586,
                -1.7184556835283429,
                1.7413460847649986,
                -0.9657132435113567,
                1.1275884305440123,
                1.8672365458277247
            ]
        },
        {
            "positions": [
                0.4200314401970355,
                -1.7472654019773166,
                1.775022924420497,
                -0.789955640320747,
                1.0389637718222007,
                1.8296950544644914
            ]
        },
        {
            "positions": [
                0.41924016832691235,
                -1.7760751204262901,
                1.8086997640759952,
                -0.6141980371301374,
                0.9503391131003891,
                1.792153563101258
            ]
        },
        {
            "positions": [
                0.41844889645678923,
                -1.8048848388752639,
                1.8423766037314933,
                -0.4384404339395278,
                0.8617144543785776,
                1.7546120717380247
            ]
        },
        {
            "positions": [
                0.4176576245866661,
                -1.8336945573242376,
                1.8760534433869915,
                -0.2626828307489182,
                0.773089795656766,
                1.7170705803747914
            ]
        },
        {
            "positions": [
                0.416866352716543,
                -1.862504275773211,
                1.9097302830424896,
                -0.08692522755830856,
                0.6844651369349546,
                1.6795290890115582
            ]
        },
        {
            "positions": [
                0.41607508084641986,
                -1.8913139942221848,
                1.9434071226979879,
                0.08883237563230106,
                0.595840478213143,
                1.6419875976483247
            ]
        },
        {
            "positions": [
                0.4152838089762967,
                -1.9201237126711586,
                1.977083962353486,
                0.2645899788229107,
                0.5072158194913315,
                1.6044461062850912
            ]
        },
        {
            "positions": [
                0.41449253710617356,
                -1.948933431120132,
                2.010760802008984,
                0.4403475820135203,
                0.4185911607695201,
                1.566904614921858
            ]
        },
        {
            "positions": [
                0.41370126523605044,
                -1.9777431495691058,
                2.0444376416644823,
                0.6161051852041299,
                0.32996650204770844,
                1.5293631235586247
            ]
        },
        {
            "positions": [
                0.4428053004097644,
                -1.9708702382975367,
                2.079211873573352,
                0.5079081433820328,
                0.36690683906794874,
                1.6901646802453505
            ]
        },
        {
            "positions": [
                0.4719093355834783,
                -1.9639973270259674,
                2.1139861054822218,
                0.3997111015599357,
                0.40384717608818904,
                1.850966236932076
            ]
        },
        {
            "positions": [
                0.5010133707571922,
                -1.9571244157543983,
                2.1487603373910913,
                0.29151405973783867,
                0.44078751310842934,
                2.0117677936188016
            ]
        },
        {
            "positions": [
                0.5301174059309062,
                -1.9502515044828292,
                2.183534569299961,
                0.18331701791574156,
                0.4777278501286696,
                2.1725693503055274
            ]
        },
        {
            "positions": [
                0.5592214411046201,
                -1.9433785932112602,
                2.2183088012088303,
                0.07511997609364451,
                0.5146681871489099,
                2.3333709069922532
            ]
        },
        {
            "positions": [
                0.5883254762783341,
                -1.9365056819396909,
                2.2530830331177003,
                -0.03307706572845259,
                0.5516085241691502,
                2.494172463678979
            ]
        },
        {
            "positions": [
                0.617429511452048,
                -1.9296327706681218,
                2.28785726502657,
                -0.1412741075505496,
                0.5885488611893905,
                2.654974020365705
            ]
        },
        {
            "positions": [
                0.646533546625762,
                -1.9227598593965527,
                2.3226314969354394,
                -0.2494711493726468,
                0.6254891982096308,
                2.81577557705243
            ]
        },
        {
            "positions": [
                0.675637581799476,
                -1.9158869481249834,
                2.3574057288443093,
                -0.3576681911947438,
                0.662429535229871,
                2.9765771337391564
            ]
        },
        {
            "positions": [
                0.7047416169731898,
                -1.9090140368534143,
                2.392179960753179,
                -0.4658652330168409,
                0.6993698722501114,
                3.137378690425882
            ]
        }
    ]
}