{
    "goal": {
        "global_pose": {
            "orientation": {
                "w": 0.005598929693374612,
                "x": 0.007748599140229565,
                "y": 0.7110244013736278,
                "z": -0.7031023480610252
            },
            "position": {
                "x": -0.8858502320852131,
                "y": -0.7141253447532654,
                "z": 0.3711530566215515
            }
        },
        "name": "move_to_auspresseinheit_C"
    },
    "id": "KPIECE_move_to_auspresseinheit_C_37",
    "joint_names": [
        "shoulder_pan_joint",
        "shoulder_lift_joint",
        "elbow_joint",
        "wrist_1_joint",
        "wrist_2_joint",
        "wrist_3_joint"
    ],
    "metrics": {
        "cart_traj_len": 0.49303852150590577,
        "distance_elbow_joint": 0.9949602529016887,
        "distance_shoulder_lift_joint": 0.3227341424662229,
        "distance_shoulder_pan_joint": 0.25585282289738176,
        "distance_wrist_1_joint": 0.6583630755280838,
        "distance_wrist_2_joint": 1.319335979215897,
        "distance_wrist_3_joint": 0.04031069444467672,
        "smoothness": 6.459479416000911e-16,
        "time": 2.276788905,
        "traj_len": 1.8951403556079827,
        "weighted_distance": 2.3769470778894686
    },
    "planner": "KPIECE",
    "start": {
        "state": {
            "elbow_joint": 1.7527959577730765,
            "shoulder_lift_joint": -0.9740617694224828,
            "shoulder_pan_joint": -2.967991417825869,
            "wrist_1_joint": -0.7595177689779385,
            "wrist_2_joint": 1.7443932448376545,
            "wrist_3_joint": 3.1991315425061013
        }
    },
    "waypoints": [
        {
            "positions": [
                -2.967991417825869,
                -0.9740617694224828,
                1.7527959577730765,
                -0.7595177689779385,
                1.7443932448376545,
                3.1991315425061013
            ]
        },
        {
            "positions": [
                -2.942406135536131,
                -0.9417883551758605,
                1.6532999324829076,
                -0.6936814614251302,
                1.6124596469160648,
                3.1951004730616335
            ]
        },
        {
            "positions": [
                -2.9168208532463926,
                -0.9095149409292382,
                1.5538039071927388,
                -0.6278451538723218,
                1.480526048994475,
                3.191069403617166
            ]
        },
        {
            "positions": [
                -2.8912355709566544,
                -0.8772415266826159,
                1.4543078819025699,
                -0.5620088463195134,
                1.3485924510728853,
                3.187038334172698
            ]
        },
        {
            "positions": [
                -2.865650288666916,
                -0.8449681124359936,
                1.354811856612401,
                -0.49617253876670503,
                1.2166588531512956,
                3.183007264728231
            ]
        },
        {
            "positions": [
                -2.840065006377178,
                -0.8126946981893713,
                1.2553158313222321,
                -0.43033623121389664,
                1.084725255229706,
                3.178976195283763
            ]
        },
        {
            "positions": [
                -2.81447972408744,
                -0.7804212839427491,
                1.1558198060320635,
                -0.36449992366108824,
                0.9527916573081163,
                3.174945125839295
            ]
        },
        {
            "positions": [
                -2.788894441797702,
                -0.7481478696961268,
                1.0563237807418946,
                -0.2986636161082799,
                0.8208580593865267,
                3.1709140563948277
            ]
        },
        {
            "positions": [
                -2.7633091595079637,
                -0.7158744554495045,
                0.9568277554517255,
                -0.2328273085554715,
                0.6889244614649368,
                3.16688298695036
            ]
        },
        {
            "positions": [
                -2.7377238772182255,
                -0.6836010412028821,
                0.8573317301615567,
                -0.16699100100266306,
                0.5569908635433471,
                3.1628519175058925
            ]
        },
        {
            "positions": [
                -2.7121385949284873,
                -0.6513276269562599,
                0.7578357048713878,
                -0.10115469344985471,
                0.4250572656217576,
                3.1588208480614246
            ]
        }
    ]
}