{
    "goal": {
        "global_pose": {
            "orientation": {
                "w": -0.00223480608172531,
                "x": 0.0024358444001904467,
                "y": 0.7094548369677653,
                "z": -0.704743149386269
            },
            "position": {
                "x": -0.37947507619857795,
                "y": -0.6371506643295288,
                "z": 0.19426114857196808
            }
        },
        "name": "move_to_magneteinheit_C"
    },
    "id": "KPIECE_move_to_magneteinheit_C_87",
    "joint_names": [
        "shoulder_pan_joint",
        "shoulder_lift_joint",
        "elbow_joint",
        "wrist_1_joint",
        "wrist_2_joint",
        "wrist_3_joint"
    ],
    "metrics": {
        "cart_traj_len": 1.9439237314198596,
        "distance_elbow_joint": 1.2328301677765048,
        "distance_shoulder_lift_joint": 0.6403108841062364,
        "distance_shoulder_pan_joint": 2.043735921960769,
        "distance_wrist_1_joint": 1.995897553446408,
        "distance_wrist_2_joint": 1.2217130729979115,
        "distance_wrist_3_joint": 8.703811209106808,
        "smoothness": 0.406166183963531,
        "time": 1.3536880370000002,
        "traj_len": 3.9797360225767036,
        "weighted_distance": 6.038504107314374
    },
    "planner": "KPIECE",
    "start": {
        "state": {
            "elbow_joint": 1.9565354006593851,
            "shoulder_lift_joint": -1.4165861576512813,
            "shoulder_pan_joint": -1.6717766223278752,
            "wrist_1_joint": -0.528663328821883,
            "wrist_2_joint": 1.472756589259273,
            "wrist_3_joint": 3.159348288315503
        }
    },
    "waypoints": [
        {
            "positions": [
                -1.6717766223278752,
                -1.4165861576512813,
                1.9565354006593851,
                -0.528663328821883,
                1.472756589259273,
                3.159348288315503
            ]
        },
        {
            "positions": [
                -1.6391116645857833,
                -1.4302821096402933,
                1.9732099392641553,
                -0.5878945846238928,
                1.3575415239185422,
                3.054883578361502
            ]
        },
        {
            "positions": [
                -1.5799039439757034,
                -1.4405850768026676,
                1.94553335037121,
                -0.5968566412372387,
                1.2930716806011393,
                2.8858441028058124
            ]
        },
        {
            "positions": [
                -1.5206962233656238,
                -1.4508880439650418,
                1.917856761478265,
                -0.6058186978505846,
                1.2286018372837364,
                2.716804627250123
            ]
        },
        {
            "positions": [
                -1.461488502755544,
                -1.461191011127416,
                1.8901801725853196,
                -0.6147807544639305,
                1.1641319939663333,
                2.5477651516944335
            ]
        },
        {
            "positions": [
                -1.4022807821454644,
                -1.47149397828979,
                1.8625035836923742,
                -0.6237428110772765,
                1.0996621506489304,
                2.3787256761387443
            ]
        },
        {
            "positions": [
                -1.3430730615353845,
                -1.4817969454521642,
                1.834826994799429,
                -0.6327048676906224,
                1.0351923073315272,
                2.2096862005830546
            ]
        },
        {
            "positions": [
                -1.283865340925305,
                -1.4920999126145384,
                1.8071504059064838,
                -0.6416669243039683,
                0.9707224640141244,
                2.040646725027365
            ]
        },
        {
            "positions": [
                -1.224657620315225,
                -1.5024028797769127,
                1.7794738170135385,
                -0.6506289809173142,
                0.9062526206967214,
                1.8716072494716758
            ]
        },
        {
            "positions": [
                -1.24587799292628,
                -1.512161648995539,
                1.7433670893456903,
                -0.5882742053184216,
                0.9035928308756012,
                1.6224317394234187
            ]
        },
        {
            "positions": [
                -1.267098365537335,
                -1.5219204182141655,
                1.707260361677842,
                -0.5259194297195289,
                0.900933041054481,
                1.3732562293751618
            ]
        },
        {
            "positions": [
                -1.2883187381483898,
                -1.5316791874327917,
                1.6711536340099937,
                -0.46356465412063624,
                0.8982732512333608,
                1.124080719326905
            ]
        },
        {
            "positions": [
                -1.3095391107594447,
                -1.5414379566514183,
                1.6350469063421453,
                -0.4012098785217435,
                0.8956134614122405,
                0.8749052092786478
            ]
        },
        {
            "positions": [
                -1.3307594833704997,
                -1.5511967258700445,
                1.5989401786742972,
                -0.33885510292285087,
                0.8929536715911203,
                0.6257296992303909
            ]
        },
        {
            "positions": [
                -1.3519798559815546,
                -1.560955495088671,
                1.5628334510064488,
                -0.27650032732395824,
                0.8902938817700001,
                0.376554189182134
            ]
        },
        {
            "positions": [
                -1.3732002285926095,
                -1.5707142643072973,
                1.5267267233386006,
                -0.2141455517250655,
                0.8876340919488799,
                0.1273786791338769
            ]
        },
        {
            "positions": [
                -1.3944206012036644,
                -1.5804730335259238,
                1.4906199956707522,
                -0.1517907761261728,
                0.8849743021277596,
                -0.1217968309143802
            ]
        },
        {
            "positions": [
                -1.4156409738147193,
                -1.5902318027445501,
                1.454513268002904,
                -0.08943600052728018,
                0.8823145123066394,
                -0.3709723409626373
            ]
        },
        {
            "positions": [
                -1.4368613464257742,
                -1.5999905719631764,
                1.4184065403350559,
                -0.027081224928387493,
                0.8796547224855192,
                -0.620147851010894
            ]
        },
        {
            "positions": [
                -1.4580817190368291,
                -1.609749341181803,
                1.3822998126672075,
                0.035273550670505194,
                0.876994932664399,
                -0.8693233610591511
            ]
        },
        {
            "positions": [
                -1.6279242769488296,
                -1.6088226642182426,
                1.4523718964642407,
                0.05868303461496948,
                0.90713896077734,
                -0.9185137227844786
            ]
        },
        {
            "positions": [
                -1.7977668348608302,
                -1.6078959872546823,
                1.5224439802612737,
                0.08209251855943377,
                0.937282988890281,
                -0.9677040845098062
            ]
        },
        {
            "positions": [
                -1.9676093927728306,
                -1.606969310291122,
                1.592516064058307,
                0.10550200250389806,
                0.9674270170032221,
                -1.0168944462351337
            ]
        },
        {
            "positions": [
                -2.1374519506848313,
                -1.606042633327562,
                1.66258814785534,
                0.12891148644836234,
                0.9975710451161632,
                -1.0660848079604612
            ]
        },
        {
            "positions": [
                -2.307294508596832,
                -1.6051159563640016,
                1.7326602316523732,
                0.15232097039282666,
                1.0277150732291043,
                -1.115275169685789
            ]
        },
        {
            "positions": [
                -2.477137066508832,
                -1.6041892794004413,
                1.8027323154494062,
                0.17573045433729093,
                1.0578591013420453,
                -1.1644655314111165
            ]
        },
        {
            "positions": [
                -2.646979624420833,
                -1.603262602436881,
                1.8728043992464394,
                0.19913993828175522,
                1.0880031294549863,
                -1.213655893136444
            ]
        },
        {
            "positions": [
                -2.63672698231245,
                -1.577341369388011,
                1.880730335481472,
                0.13889505697870186,
                1.063594704771901,
                -0.9589025385685113
            ]
        },
        {
            "positions": [
                -2.6264743402040667,
                -1.5514201363391407,
                1.8886562717165047,
                0.0786501756756485,
                1.0391862800888159,
                -0.7041491840005784
            ]
        },
        {
            "positions": [
                -2.616221698095684,
                -1.5254989032902706,
                1.8965822079515373,
                0.01840529437259511,
                1.0147778554057305,
                -0.44939582943264533
            ]
        },
        {
            "positions": [
                -2.6059690559873006,
                -1.4995776702414003,
                1.9045081441865699,
                -0.04183958693045822,
                0.9903694307226453,
                -0.19464247486471264
            ]
        },
        {
            "positions": [
                -2.5957164138789177,
                -1.4736564371925303,
                1.9124340804216025,
                -0.10208446823351161,
                0.96596100603956,
                0.06011087970322038
            ]
        },
        {
            "positions": [
                -2.585463771770535,
                -1.44773520414366,
                1.9203600166566352,
                -0.162329349536565,
                0.9415525813564748,
                0.3148642342711534
            ]
        },
        {
            "positions": [
                -2.5752111296621516,
                -1.42181397109479,
                1.9282859528916678,
                -0.22257423083961828,
                0.9171441566733896,
                0.569617588839086
            ]
        },
        {
            "positions": [
                -2.5649584875537688,
                -1.3958927380459196,
                1.9362118891267004,
                -0.28281911214267164,
                0.8927357319903042,
                0.8243709434070188
            ]
        },
        {
            "positions": [
                -2.5547058454453855,
                -1.3699715049970496,
                1.9441378253617332,
                -0.343063993445725,
                0.8683273073072191,
                1.079124297974952
            ]
        },
        {
            "positions": [
                -2.5444532033370026,
                -1.3440502719481793,
                1.9520637615967658,
                -0.4033088747487784,
                0.8439188826241337,
                1.3338776525428848
            ]
        },
        {
            "positions": [
                -2.5342005612286194,
                -1.3181290388993092,
                1.9599896978317983,
                -0.4635537560518318,
                0.8195104579410485,
                1.5886310071108176
            ]
        },
        {
            "positions": [
                -2.5239479191202365,
                -1.292207805850439,
                1.9679156340668311,
                -0.5237986373548852,
                0.7951020332579632,
                1.8433843616787509
            ]
        },
        {
            "positions": [
                -2.5136952770118537,
                -1.2662865728015689,
                1.9758415703018637,
                -0.5840435186579384,
                0.770693608574878,
                2.098137716246683
            ]
        },
        {
            "positions": [
                -2.5034426349034704,
                -1.2403653397526986,
                1.9837675065368963,
                -0.6442883999609917,
                0.7462851838917928,
                2.352891070814616
            ]
        },
        {
            "positions": [
                -2.4931899927950876,
                -1.2144441067038285,
                1.9916934427719288,
                -0.7045332812640451,
                0.7218767592087074,
                2.607644425382549
            ]
        },
        {
            "positions": [
                -2.4829373506867043,
                -1.1885228736549585,
                1.9996193790069616,
                -0.7647781625670985,
                0.6974683345256222,
                2.8623977799504816
            ]
        },
        {
            "positions": [
                -2.4726847085783215,
                -1.1626016406060882,
                2.007545315241994,
                -0.825023043870152,
                0.6730599098425369,
                3.117151134518415
            ]
        }
    ]
}