{
    "goal": {
        "global_pose": {
            "orientation": {
                "w": -0.4816463035849501,
                "x": 0.5182115481033762,
                "y": 0.4908360881923453,
                "z": -0.5084816262002911
            },
            "position": {
                "x": -0.8240239810943604,
                "y": 0.19912469901144506,
                "z": 0.16403168439865112
            }
        },
        "name": "move_to_storage_D"
    },
    "id": "KPIECE_move_to_storage_D_40",
    "joint_names": [
        "shoulder_pan_joint",
        "shoulder_lift_joint",
        "elbow_joint",
        "wrist_1_joint",
        "wrist_2_joint",
        "wrist_3_joint"
    ],
    "metrics": {
        "cart_traj_len": 1.564969279777362,
        "distance_elbow_joint": 0.5894180185737514,
        "distance_shoulder_lift_joint": 0.19175889262708834,
        "distance_shoulder_pan_joint": 1.7580627344565745,
        "distance_wrist_1_joint": 3.8278278026674806,
        "distance_wrist_2_joint": 1.7848757699420639,
        "distance_wrist_3_joint": 3.174280803302421,
        "smoothness": 0.3210815028796511,
        "time": 0.050738137,
        "traj_len": 3.365445590344521,
        "weighted_distance": 4.825711263718931
    },
    "planner": "KPIECE",
    "start": {
        "state": {
            "elbow_joint": -2.384821990628643,
            "shoulder_lift_joint": -2.278805467437664,
            "shoulder_pan_joint": -0.18546946439364564,
            "wrist_1_joint": 1.4845938187801415,
            "wrist_2_joint": 0.178987772454074,
            "wrist_3_joint": 0.03710569632802521
        }
    },
    "waypoints": [
        {
            "positions": [
                -0.18546946439364564,
                -2.278805467437664,
                -2.384821990628643,
                1.4845938187801415,
                0.178987772454074,
                0.03710569632802521
            ]
        },
        {
            "positions": [
                -0.1471079469788663,
                -2.273585333616814,
                -2.368219162323324,
                1.4590714035018892,
                0.184101117266854,
                0.06397572388016434
            ]
        },
        {
            "positions": [
                -0.06380440366534042,
                -2.2584395279290956,
                -2.3176921525869845,
                1.2944579736991304,
                0.1422032081855591,
                0.027956705771444823
            ]
        },
        {
            "positions": [
                0.019499139648185476,
                -2.2432937222413774,
                -2.267165142850645,
                1.1298445438963716,
                0.10030529910426418,
                -0.008062312337274696
            ]
        },
        {
            "positions": [
                0.10280268296171136,
                -2.228147916553659,
                -2.2166381331143055,
                0.965231114093613,
                0.0584073900229693,
                -0.0440813304459942
            ]
        },
        {
            "positions": [
                0.18610622627523726,
                -2.213002110865941,
                -2.166111123377966,
                0.800617684290854,
                0.01650948094167437,
                -0.08010034855471374
            ]
        },
        {
            "positions": [
                0.2694097695887631,
                -2.1978563051782225,
                -2.1155841136416265,
                0.6360042544880953,
                -0.0253884281396205,
                -0.11611936666343323
            ]
        },
        {
            "positions": [
                0.352713312902289,
                -2.1827104994905047,
                -2.065057103905287,
                0.47139082468533655,
                -0.0672863372209154,
                -0.15213838477215275
            ]
        },
        {
            "positions": [
                0.4360168562158149,
                -2.1675646938027864,
                -2.0145300941689475,
                0.3067773948825776,
                -0.10918424630221032,
                -0.18815740288087227
            ]
        },
        {
            "positions": [
                0.5193203995293408,
                -2.152418888115068,
                -1.9640030844326082,
                0.14216396507981877,
                -0.15108215538350525,
                -0.2241764209895918
            ]
        },
        {
            "positions": [
                0.6026239428428668,
                -2.13727308242735,
                -1.9134760746962687,
                -0.02244946472294007,
                -0.19298006446480012,
                -0.26019543909831133
            ]
        },
        {
            "positions": [
                0.6859274861563925,
                -2.1221272767396315,
                -1.8629490649599292,
                -0.1870628945256987,
                -0.234877973546095,
                -0.29621445720703077
            ]
        },
        {
            "positions": [
                0.7692310294699185,
                -2.1069814710519132,
                -1.8124220552235897,
                -0.3516763243284576,
                -0.27677588262738995,
                -0.3322334753157503
            ]
        },
        {
            "positions": [
                0.7245997938814179,
                -2.108088965287543,
                -1.8133675042885173,
                -0.4623184165261733,
                -0.3500472951404477,
                -0.4850780073465485
            ]
        },
        {
            "positions": [
                0.6799685582929174,
                -2.109196459523173,
                -1.814312953353445,
                -0.572960508723889,
                -0.42331870765350543,
                -0.6379225393773467
            ]
        },
        {
            "positions": [
                0.6353373227044168,
                -2.1103039537588026,
                -1.8152584024183727,
                -0.6836026009216047,
                -0.4965901201665632,
                -0.7907670714081448
            ]
        },
        {
            "positions": [
                0.5907060871159162,
                -2.1114114479944326,
                -1.8162038514833003,
                -0.7942446931193204,
                -0.5698615326796209,
                -0.943611603438943
            ]
        },
        {
            "positions": [
                0.5460748515274156,
                -2.1125189422300625,
                -1.817149300548228,
                -0.9048867853170361,
                -0.6431329451926787,
                -1.0964561354697413
            ]
        },
        {
            "positions": [
                0.5014436159389152,
                -2.1136264364656925,
                -1.8180947496131556,
                -1.015528877514752,
                -0.7164043577057364,
                -1.2493006675005394
            ]
        },
        {
            "positions": [
                0.45681238035041455,
                -2.1147339307013224,
                -1.8190401986780833,
                -1.1261709697124678,
                -0.7896757702187942,
                -1.4021451995313376
            ]
        },
        {
            "positions": [
                0.41218114476191403,
                -2.1158414249369524,
                -1.819985647743011,
                -1.2368130619101834,
                -0.8629471827318519,
                -1.5549897315621357
            ]
        },
        {
            "positions": [
                0.36754990917341346,
                -2.1169489191725823,
                -1.8209310968079386,
                -1.3474551541078992,
                -0.9362185952449097,
                -1.707834263592934
            ]
        },
        {
            "positions": [
                0.3229186735849129,
                -2.118056413408212,
                -1.8218765458728663,
                -1.4580972463056148,
                -1.0094900077579676,
                -1.8606787956237323
            ]
        },
        {
            "positions": [
                0.2782874379964123,
                -2.1191639076438418,
                -1.822821994937794,
                -1.5687393385033306,
                -1.0827614202710252,
                -2.0135233276545303
            ]
        },
        {
            "positions": [
                0.23365620240791185,
                -2.1202714018794717,
                -1.8237674440027216,
                -1.6793814307010462,
                -1.1560328327840828,
                -2.1663678596853284
            ]
        },
        {
            "positions": [
                0.18902496681941128,
                -2.1213788961151017,
                -1.8247128930676493,
                -1.790023522898762,
                -1.2293042452971408,
                -2.3192123917161265
            ]
        },
        {
            "positions": [
                0.1443937312309106,
                -2.1224863903507316,
                -1.825658342132577,
                -1.9006656150964778,
                -1.3025756578101984,
                -2.472056923746925
            ]
        },
        {
            "positions": [
                0.09976249564241002,
                -2.123593884586361,
                -1.8266037911975046,
                -2.0113077072941934,
                -1.3758470703232564,
                -2.624901455777723
            ]
        },
        {
            "positions": [
                0.05513126005390956,
                -2.124701378821991,
                -1.8275492402624323,
                -2.121949799491909,
                -1.449118482836314,
                -2.777745987808521
            ]
        },
        {
            "positions": [
                0.010500024465408986,
                -2.125808873057621,
                -1.82849468932736,
                -2.232591891689625,
                -1.5223898953493715,
                -2.9305905198393196
            ]
        },
        {
            "positions": [
                -0.03413121112309155,
                -2.126916367293251,
                -1.8294401383922876,
                -2.3432339838873406,
                -1.5956613078624295,
                -3.0834350518701177
            ]
        }
    ]
}