{
    "goal": {
        "global_pose": {
            "orientation": {
                "w": 0.5084816262002911,
                "x": -0.4908360881923452,
                "y": 0.5182115481033761,
                "z": -0.48164630358495003
            },
            "position": {
                "x": 0.5540239810943604,
                "y": -0.46912469901144505,
                "z": 0.16403168439865112
            }
        },
        "name": "move_to_storage_B"
    },
    "id": "KPIECE_move_to_storage_B_38",
    "joint_names": [
        "shoulder_pan_joint",
        "shoulder_lift_joint",
        "elbow_joint",
        "wrist_1_joint",
        "wrist_2_joint",
        "wrist_3_joint"
    ],
    "metrics": {
        "cart_traj_len": 1.494164147386655,
        "distance_elbow_joint": 1.750637825197928,
        "distance_shoulder_lift_joint": 0.8040700773583892,
        "distance_shoulder_pan_joint": 1.6153812913864054,
        "distance_wrist_1_joint": 2.9998322363344028,
        "distance_wrist_2_joint": 2.718294833448156,
        "distance_wrist_3_joint": 3.1302690628725527,
        "smoothness": 0.24322349222515496,
        "time": 0.086380718,
        "traj_len": 3.6081138184095347,
        "weighted_distance": 4.999715044092563
    },
    "planner": "KPIECE",
    "start": {
        "state": {
            "elbow_joint": 1.6649325340416963,
            "shoulder_lift_joint": -0.6616387945129425,
            "shoulder_pan_joint": -0.9139837929255878,
            "wrist_1_joint": 2.1467571094334352,
            "wrist_2_joint": -2.234195976750228,
            "wrist_3_joint": 0.005470921511140723
        }
    },
    "waypoints": [
        {
            "positions": [
                -0.9139837929255878,
                -0.6616387945129425,
                1.6649325340416963,
                2.1467571094334352,
                -2.234195976750228,
                0.005470921511140723
            ]
        },
        {
            "positions": [
                -0.8342537919679687,
                -0.6426003403676296,
                1.5874196880704268,
                2.0621633524502676,
                -2.1281864724740913,
                -0.006301959186026979
            ]
        },
        {
            "positions": [
                -0.7545237910103495,
                -0.6235618862223168,
                1.5099068420991575,
                1.9775695954670995,
                -2.0221769681979547,
                -0.01807483988319468
            ]
        },
        {
            "positions": [
                -0.6747937900527303,
                -0.6045234320770039,
                1.432393996127888,
                1.892975838483932,
                -1.9161674639218185,
                -0.029847720580362384
            ]
        },
        {
            "positions": [
                -0.5950637890951112,
                -0.585484977931691,
                1.3548811501566185,
                1.8083820815007638,
                -1.8101579596456818,
                -0.04162060127753008
            ]
        },
        {
            "positions": [
                -0.515333788137492,
                -0.566446523786378,
                1.277368304185349,
                1.7237883245175962,
                -1.7041484553695452,
                -0.053393481974697794
            ]
        },
        {
            "positions": [
                -0.4356037871798728,
                -0.5474080696410653,
                1.1998554582140797,
                1.6391945675344284,
                -1.5981389510934088,
                -0.0651663626718655
            ]
        },
        {
            "positions": [
                -0.35587378622225363,
                -0.5283696154957523,
                1.1223426122428102,
                1.5546008105512605,
                -1.492129446817272,
                -0.0769392433690332
            ]
        },
        {
            "positions": [
                -0.27614378526463446,
                -0.5093311613504394,
                1.044829766271541,
                1.4700070535680927,
                -1.3861199425411357,
                -0.0887121240662009
            ]
        },
        {
            "positions": [
                -0.19641378430701534,
                -0.4902927072051266,
                0.9673169203002713,
                1.3854132965849248,
                -1.280110438264999,
                -0.10048500476336861
            ]
        },
        {
            "positions": [
                -0.23232623561772864,
                -0.5156016668071495,
                1.0094378087585314,
                1.2958737596454892,
                -1.209542066466482,
                -0.22145753022729034
            ]
        },
        {
            "positions": [
                -0.26823868692844194,
                -0.5409106264091724,
                1.0515586972167914,
                1.2063342227060534,
                -1.1389736946679647,
                -0.3424300556912121
            ]
        },
        {
            "positions": [
                -0.30415113823915524,
                -0.5662195860111954,
                1.0936795856750516,
                1.1167946857666178,
                -1.0684053228694477,
                -0.4634025811551338
            ]
        },
        {
            "positions": [
                -0.3400635895498685,
                -0.5915285456132183,
                1.1358004741333116,
                1.027255148827182,
                -0.9978369510709306,
                -0.5843751066190556
            ]
        },
        {
            "positions": [
                -0.37597604086058184,
                -0.6168375052152413,
                1.1779213625915719,
                0.9377156118877463,
                -0.9272685792724135,
                -0.7053476320829773
            ]
        },
        {
            "positions": [
                -0.4118884921712951,
                -0.6421464648172641,
                1.2200422510498319,
                0.8481760749483106,
                -0.8567002074738964,
                -0.826320157546899
            ]
        },
        {
            "positions": [
                -0.44780094348200844,
                -0.6674554244192871,
                1.2621631395080921,
                0.7586365380088748,
                -0.7861318356753793,
                -0.9472926830108208
            ]
        },
        {
            "positions": [
                -0.4837133947927217,
                -0.69276438402131,
                1.3042840279663521,
                0.6690970010694391,
                -0.7155634638768621,
                -1.0682652084747424
            ]
        },
        {
            "positions": [
                -0.519625846103435,
                -0.7180733436233329,
                1.3464049164246124,
                0.5795574641300034,
                -0.644995092078345,
                -1.1892377339386642
            ]
        },
        {
            "positions": [
                -0.5555382974141483,
                -0.7433823032253559,
                1.3885258048828724,
                0.4900179271905677,
                -0.5744267202798279,
                -1.310210259402586
            ]
        },
        {
            "positions": [
                -0.5914507487248616,
                -0.7686912628273788,
                1.4306466933411326,
                0.40047839025113197,
                -0.5038583484813108,
                -1.4311827848665075
            ]
        },
        {
            "positions": [
                -0.6273632000355749,
                -0.7940002224294017,
                1.4727675817993926,
                0.31093885331169635,
                -0.4332899766827938,
                -1.5521553103304293
            ]
        },
        {
            "positions": [
                -0.6632756513462882,
                -0.8193091820314247,
                1.5148884702576528,
                0.2213993163722605,
                -0.3627216048842765,
                -1.673127835794351
            ]
        },
        {
            "positions": [
                -0.6991881026570015,
                -0.8446181416334476,
                1.5570093587159128,
                0.13185977943282468,
                -0.29215323308575936,
                -1.7941003612582729
            ]
        },
        {
            "positions": [
                -0.7351005539677147,
                -0.8699271012354706,
                1.5991302471741728,
                0.04232024249338928,
                -0.22158486128724242,
                -1.9150728867221944
            ]
        },
        {
            "positions": [
                -0.7710130052784281,
                -0.8952360608374934,
                1.641251135632433,
                -0.047219294446046556,
                -0.15101648948872515,
                -2.0360454121861165
            ]
        },
        {
            "positions": [
                -0.8069254565891415,
                -0.9205450204395165,
                1.6833720240906933,
                -0.1367588313854824,
                -0.0804481176902081,
                -2.1570179376500382
            ]
        },
        {
            "positions": [
                -0.8428379078998547,
                -0.9458539800415393,
                1.7254929125489533,
                -0.226298368324918,
                -0.00987974589169105,
                -2.27799046311396
            ]
        },
        {
            "positions": [
                -0.8787503592105679,
                -0.9711629396435623,
                1.7676138010072133,
                -0.3158379052643536,
                0.060688625906826,
                -2.398962988577882
            ]
        },
        {
            "positions": [
                -0.9146628105212813,
                -0.9964718992455852,
                1.8097346894654738,
                -0.40537744220378946,
                0.13125699770534327,
                -2.5199355140418036
            ]
        },
        {
            "positions": [
                -0.9505752618319945,
                -1.021780858847608,
                1.8518555779237338,
                -0.4949169791432251,
                0.20182536950386032,
                -2.640908039505725
            ]
        },
        {
            "positions": [
                -0.9864877131427079,
                -1.0470898184496311,
                1.8939764663819938,
                -0.5844565160826609,
                0.27239374130237737,
                -2.7618805649696467
            ]
        },
        {
            "positions": [
                -1.022400164453421,
                -1.072398778051654,
                1.9360973548402538,
                -0.6739960530220968,
                0.34296211310089464,
                -2.882853090433569
            ]
        },
        {
            "positions": [
                -1.0583126157641345,
                -1.0977077376536768,
                1.9782182432985138,
                -0.7635355899615321,
                0.41353048489941147,
                -3.0038256158974903
            ]
        },
        {
            "positions": [
                -1.0942250670748477,
                -1.1230166972556999,
                2.0203391317567743,
                -0.8530751269009681,
                0.4840988566979287,
                -3.124798141361412
            ]
        }
    ]
}