{
    "goal": {
        "global_pose": {
            "orientation": {
                "w": -0.4816463035849501,
                "x": 0.5182115481033762,
                "y": 0.4908360881923453,
                "z": -0.5084816262002911
            },
            "position": {
                "x": -0.8240239810943604,
                "y": 0.19912469901144506,
                "z": 0.16403168439865112
            }
        },
        "name": "move_to_storage_D"
    },
    "id": "KPIECE_move_to_storage_D_138",
    "joint_names": [
        "shoulder_pan_joint",
        "shoulder_lift_joint",
        "elbow_joint",
        "wrist_1_joint",
        "wrist_2_joint",
        "wrist_3_joint"
    ],
    "metrics": {
        "cart_traj_len": 0.643914449775139,
        "distance_elbow_joint": 0.5540278889621884,
        "distance_shoulder_lift_joint": 0.27319298127071656,
        "distance_shoulder_pan_joint": 0.6753595877986744,
        "distance_wrist_1_joint": 3.8354111002469913,
        "distance_wrist_2_joint": 1.7796711748170562,
        "distance_wrist_3_joint": 3.1642789390210053,
        "smoothness": 0.06960610130116576,
        "time": 0.08173167,
        "traj_len": 3.206546689527011,
        "weighted_distance": 4.714401534152844
    },
    "planner": "KPIECE",
    "start": {
        "state": {
            "elbow_joint": -2.384821990628643,
            "shoulder_lift_joint": -2.278805467437664,
            "shoulder_pan_joint": -0.18546946439364564,
            "wrist_1_joint": 1.4845938187801415,
            "wrist_2_joint": 0.178987772454074,
            "wrist_3_joint": 0.03710569632802521
        }
    },
    "waypoints": [
        {
            "positions": [
                -0.18546946439364564,
                -2.278805467437664,
                -2.384821990628643,
                1.4845938187801415,
                0.178987772454074,
                0.03710569632802521
            ]
        },
        {
            "positions": [
                -0.047766042276082665,
                -2.2990752572022863,
                -2.3109901204812506,
                1.4870500851586443,
                0.11545344231445456,
                0.09396559361967384
            ]
        },
        {
            "positions": [
                0.08993737984148031,
                -2.319345046966909,
                -2.2371582503338585,
                1.4895063515371474,
                0.051919112174835136,
                0.15082549091132247
            ]
        },
        {
            "positions": [
                0.22764080195904335,
                -2.3396148367315313,
                -2.163326380186466,
                1.4919626179156502,
                -0.011615217964784319,
                0.2076853882029711
            ]
        },
        {
            "positions": [
                0.21671374689879394,
                -2.330765519565829,
                -2.1494708685814654,
                1.3324608553693384,
                -0.07782639231470923,
                0.3324228568340569
            ]
        },
        {
            "positions": [
                0.2057866918385445,
                -2.321916202400127,
                -2.135615356976465,
                1.1729590928230267,
                -0.14403756666463413,
                0.4571603254651427
            ]
        },
        {
            "positions": [
                0.1948596367782951,
                -2.313066885234425,
                -2.1217598453714643,
                1.013457330276715,
                -0.21024874101455907,
                0.5818977940962284
            ]
        },
        {
            "positions": [
                0.18393258171804566,
                -2.304217568068723,
                -2.1079043337664642,
                0.8539555677304032,
                -0.27645991536448394,
                0.7066352627273143
            ]
        },
        {
            "positions": [
                0.17300552665779625,
                -2.295368250903021,
                -2.0940488221614637,
                0.6944538051840913,
                -0.3426710897144089,
                0.8313727313584001
            ]
        },
        {
            "positions": [
                0.16207847159754685,
                -2.286518933737319,
                -2.080193310556463,
                0.5349520426377795,
                -0.4088822640643338,
                0.9561101999894859
            ]
        },
        {
            "positions": [
                0.1511514165372974,
                -2.277669616571617,
                -2.0663377989514626,
                0.37545028009146764,
                -0.4750934384142588,
                1.0808476686205717
            ]
        },
        {
            "positions": [
                0.140224361477048,
                -2.268820299405915,
                -2.052482287346462,
                0.2159485175451561,
                -0.5413046127641836,
                1.2055851372516573
            ]
        },
        {
            "positions": [
                0.12929730641679857,
                -2.2599709822402128,
                -2.038626775741462,
                0.056446754998844106,
                -0.6075157871141086,
                1.3303226058827433
            ]
        },
        {
            "positions": [
                0.11837025135654915,
                -2.251121665074511,
                -2.0247712641364615,
                -0.10305500754746766,
                -0.6737269614640335,
                1.455060074513829
            ]
        },
        {
            "positions": [
                0.10744319629629974,
                -2.2422723479088087,
                -2.010915752531461,
                -0.2625567700937794,
                -0.7399381358139583,
                1.579797543144915
            ]
        },
        {
            "positions": [
                0.09651614123605032,
                -2.233423030743107,
                -1.9970602409264604,
                -0.4220585326400912,
                -0.8061493101638832,
                1.7045350117760005
            ]
        },
        {
            "positions": [
                0.08558908617580091,
                -2.2245737135774046,
                -1.9832047293214599,
                -0.581560295186403,
                -0.8723604845138082,
                1.8292724804070861
            ]
        },
        {
            "positions": [
                0.07466203111555147,
                -2.2157243964117024,
                -1.9693492177164595,
                -0.7410620577327149,
                -0.9385716588637332,
                1.9540099490381722
            ]
        },
        {
            "positions": [
                0.06373497605530207,
                -2.2068750792460006,
                -1.955493706111459,
                -0.9005638202790265,
                -1.0047828332136581,
                2.078747417669258
            ]
        },
        {
            "positions": [
                0.05280792099505266,
                -2.1980257620802983,
                -1.9416381945064585,
                -1.060065582825338,
                -1.0709940075635829,
                2.203484886300344
            ]
        },
        {
            "positions": [
                0.041880865934803224,
                -2.1891764449145965,
                -1.9277826829014582,
                -1.2195673453716505,
                -1.137205181913508,
                2.32822235493143
            ]
        },
        {
            "positions": [
                0.03095381087455379,
                -2.1803271277488943,
                -1.9139271712964576,
                -1.379069107917962,
                -1.2034163562634328,
                2.4529598235625154
            ]
        },
        {
            "positions": [
                0.02002675581430438,
                -2.1714778105831924,
                -1.900071659691457,
                -1.5385708704642735,
                -1.2696275306133578,
                2.577697292193601
            ]
        },
        {
            "positions": [
                0.009099700754054946,
                -2.16262849341749,
                -1.8862161480864565,
                -1.6980726330105855,
                -1.3358387049632827,
                2.702434760824687
            ]
        },
        {
            "positions": [
                -0.001827354306194462,
                -2.1537791762517884,
                -1.8723606364814562,
                -1.857574395556897,
                -1.4020498793132077,
                2.827172229455773
            ]
        },
        {
            "positions": [
                -0.01275440936644387,
                -2.144929859086086,
                -1.858505124876456,
                -2.017076158103209,
                -1.4682610536631324,
                2.9519096980868587
            ]
        },
        {
            "positions": [
                -0.023681464426693277,
                -2.136080541920384,
                -1.8446496132714554,
                -2.176577920649521,
                -1.5344722280130574,
                3.0766471667179447
            ]
        },
        {
            "positions": [
                -0.03460851948694271,
                -2.127231224754682,
                -1.8307941016664548,
                -2.3360796831958326,
                -1.6006834023629823,
                3.2013846353490303
            ]
        }
    ]
}