{
    "goal": {
        "global_pose": {
            "orientation": {
                "w": -0.4816463035849501,
                "x": 0.5182115481033762,
                "y": 0.4908360881923453,
                "z": -0.5084816262002911
            },
            "position": {
                "x": -0.8240239810943604,
                "y": -0.300875300988555,
                "z": 0.16403168439865112
            }
        },
        "name": "move_to_storage_C"
    },
    "id": "KPIECE_move_to_storage_C_7",
    "joint_names": [
        "shoulder_pan_joint",
        "shoulder_lift_joint",
        "elbow_joint",
        "wrist_1_joint",
        "wrist_2_joint",
        "wrist_3_joint"
    ],
    "metrics": {
        "cart_traj_len": 0.5760012298523551,
        "distance_elbow_joint": 0.2581948287164504,
        "distance_shoulder_lift_joint": 0.18799506485464568,
        "distance_shoulder_pan_joint": 0.4943808872766957,
        "distance_wrist_1_joint": 0.08188369410632557,
        "distance_wrist_2_joint": 1.0666055721081926,
        "distance_wrist_3_joint": 0.05921029658586541,
        "smoothness": 2.5376526478085547e-16,
        "time": 0.135298112,
        "traj_len": 1.4656979032693522,
        "weighted_distance": 1.848020617589107
    },
    "planner": "KPIECE",
    "start": {
        "state": {
            "elbow_joint": 2.0108683149792914,
            "shoulder_lift_joint": -1.1634956873317392,
            "shoulder_pan_joint": -2.4736205022346,
            "wrist_1_joint": -0.8367026793690192,
            "wrist_2_joint": 0.6746043897045053,
            "wrist_3_joint": 3.133522094754363
        }
    },
    "waypoints": [
        {
            "positions": [
                -2.4736205022346,
                -1.1634956873317392,
                2.0108683149792914,
                -0.8367026793690192,
                0.6746043897045053,
                3.133522094754363
            ]
        },
        {
            "positions": [
                -2.556017316780716,
                -1.1321631765226317,
                1.9678358435265497,
                -0.8230553970179649,
                0.8523719850558708,
                3.143390477518674
            ]
        },
        {
            "positions": [
                -2.638414131326832,
                -1.100830665713524,
                1.924803372073808,
                -0.8094081146669106,
                1.0301395804072362,
                3.153258860282985
            ]
        },
        {
            "positions": [
                -2.720810945872948,
                -1.0694981549044165,
                1.8817709006210661,
                -0.7957608323158565,
                1.2079071757586015,
                3.163127243047296
            ]
        },
        {
            "positions": [
                -2.8032077604190637,
                -1.0381656440953089,
                1.8387384291683244,
                -0.7821135499648022,
                1.385674771109967,
                3.1729956258116068
            ]
        },
        {
            "positions": [
                -2.8856045749651797,
                -1.006833133286201,
                1.7957059577155827,
                -0.7684662676137479,
                1.5634423664613326,
                3.1828640085759177
            ]
        },
        {
            "positions": [
                -2.9680013895112958,
                -0.9755006224770936,
                1.752673486262841,
                -0.7548189852626936,
                1.741209961812698,
                3.1927323913402286
            ]
        }
    ]
}