{
    "goal": {
        "global_pose": {
            "orientation": {
                "w": -0.00223480608172531,
                "x": 0.0024358444001904467,
                "y": 0.7094548369677653,
                "z": -0.704743149386269
            },
            "position": {
                "x": -0.37947507619857795,
                "y": -0.6371506643295288,
                "z": 0.19426114857196808
            }
        },
        "name": "move_to_magneteinheit_C"
    },
    "id": "KPIECE_move_to_magneteinheit_C_78",
    "joint_names": [
        "shoulder_pan_joint",
        "shoulder_lift_joint",
        "elbow_joint",
        "wrist_1_joint",
        "wrist_2_joint",
        "wrist_3_joint"
    ],
    "metrics": {
        "cart_traj_len": 0.9259020125637171,
        "distance_elbow_joint": 0.6823205732338653,
        "distance_shoulder_lift_joint": 0.5131601852005614,
        "distance_shoulder_pan_joint": 0.8728708101788849,
        "distance_wrist_1_joint": 2.686990531282436,
        "distance_wrist_2_joint": 1.8442606055661503,
        "distance_wrist_3_joint": 2.3627629863378186,
        "smoothness": 1.1053954127217436,
        "time": 0.14535022,
        "traj_len": 2.9937210444194227,
        "weighted_distance": 4.268388782822383
    },
    "planner": "KPIECE",
    "start": {
        "state": {
            "elbow_joint": 1.9565354006593851,
            "shoulder_lift_joint": -1.4165861576512813,
            "shoulder_pan_joint": -1.6717766223278752,
            "wrist_1_joint": -0.528663328821883,
            "wrist_2_joint": 1.472756589259273,
            "wrist_3_joint": 3.159348288315503
        }
    },
    "waypoints": [
        {
            "positions": [
                -1.6717766223278752,
                -1.4165861576512813,
                1.9565354006593851,
                -0.528663328821883,
                1.472756589259273,
                3.159348288315503
            ]
        },
        {
            "positions": [
                -1.719753246080643,
                -1.4266043877127474,
                1.9323352617733753,
                -0.4367634005009372,
                1.370973275041865,
                3.0672230634388793
            ]
        },
        {
            "positions": [
                -1.7677298698334112,
                -1.4366226177742136,
                1.9081351228873655,
                -0.3448634721799913,
                1.269189960824457,
                2.975097838562255
            ]
        },
        {
            "positions": [
                -1.815706493586179,
                -1.4466408478356798,
                1.883934984001356,
                -0.25296354385904546,
                1.167406646607049,
                2.8829726136856313
            ]
        },
        {
            "positions": [
                -1.8636831173389472,
                -1.456659077897146,
                1.8597348451153461,
                -0.16106361553809956,
                1.065623332389641,
                2.7908473888090075
            ]
        },
        {
            "positions": [
                -1.911659741091715,
                -1.4666773079586122,
                1.8355347062293363,
                -0.06916368721715371,
                0.963840018172233,
                2.6987221639323837
            ]
        },
        {
            "positions": [
                -1.9596363648444832,
                -1.4766955380200784,
                1.8113345673433265,
                0.022736241103792132,
                0.8620567039548249,
                2.6065969390557595
            ]
        },
        {
            "positions": [
                -2.007612988597251,
                -1.4867137680815445,
                1.787134428457317,
                0.11463616942473798,
                0.7602733897374169,
                2.5144717141791357
            ]
        },
        {
            "positions": [
                -2.055589612350019,
                -1.4967319981430107,
                1.7629342895713072,
                0.20653609774568393,
                0.6584900755200088,
                2.422346489302512
            ]
        },
        {
            "positions": [
                -2.103566236102787,
                -1.506750228204477,
                1.7387341506852974,
                0.29843602606662967,
                0.5567067613026009,
                2.330221264425888
            ]
        },
        {
            "positions": [
                -2.151542859855555,
                -1.516768458265943,
                1.7145340117992875,
                0.3903359543875756,
                0.45492344708519283,
                2.238096039549264
            ]
        },
        {
            "positions": [
                -2.1995194836083227,
                -1.5267866883274093,
                1.690333872913278,
                0.48223588270852147,
                0.3531401328677848,
                2.14597081467264
            ]
        },
        {
            "positions": [
                -2.247496107361091,
                -1.5368049183888755,
                1.6661337340272682,
                0.5741358110294673,
                0.25135681865037673,
                2.0538455897960164
            ]
        },
        {
            "positions": [
                -2.295472731113859,
                -1.5468231484503416,
                1.6419335951412584,
                0.6660357393504133,
                0.14957350443296857,
                1.9617203649193924
            ]
        },
        {
            "positions": [
                -2.323664915426921,
                -1.525651589374553,
                1.6829401707099592,
                0.567996439807587,
                0.19110508203022808,
                2.0630441422106824
            ]
        },
        {
            "positions": [
                -2.3518570997399832,
                -1.5044800302987646,
                1.7239467462786602,
                0.46995714026476076,
                0.23263665962748759,
                2.1643679195019727
            ]
        },
        {
            "positions": [
                -2.380049284053045,
                -1.4833084712229763,
                1.764953321847361,
                0.37191784072193446,
                0.27416823722474715,
                2.2656916967932625
            ]
        },
        {
            "positions": [
                -2.408241468366107,
                -1.4621369121471877,
                1.8059598974160618,
                0.2738785411791082,
                0.3156998148220066,
                2.367015474084553
            ]
        },
        {
            "positions": [
                -2.4364336526791694,
                -1.440965353071399,
                1.8469664729847628,
                0.1758392416362819,
                0.35723139241926616,
                2.468339251375843
            ]
        },
        {
            "positions": [
                -2.4646258369922314,
                -1.4197937939956107,
                1.8879730485534636,
                0.07779994209345567,
                0.39876297001652566,
                2.569663028667133
            ]
        },
        {
            "positions": [
                -2.479701324771285,
                -1.3823695685410142,
                1.9208100104706352,
                -0.06555016731628185,
                0.44807442449458085,
                2.677838310776336
            ]
        },
        {
            "positions": [
                -2.494776812550338,
                -1.344945343086418,
                1.9536469723878065,
                -0.20890027672601938,
                0.497385878972636,
                2.786013592885539
            ]
        },
        {
            "positions": [
                -2.5098523003293916,
                -1.3075211176318216,
                1.986483934304978,
                -0.352250386135757,
                0.5466973334506912,
                2.894188874994742
            ]
        },
        {
            "positions": [
                -2.4982539229369354,
                -1.2596473964374946,
                1.9942067438223177,
                -0.5102521653437467,
                0.5880152306913989,
                2.9717443926168614
            ]
        },
        {
            "positions": [
                -2.486655545544479,
                -1.2117736752431676,
                2.0019295533396573,
                -0.6682539445517365,
                0.6293331279321067,
                3.049299910238981
            ]
        },
        {
            "positions": [
                -2.475057168152023,
                -1.1638999540488406,
                2.009652362856997,
                -0.8262557237597262,
                0.6706510251728145,
                3.1268554278611003
            ]
        }
    ]
}