{
    "goal": {
        "global_pose": {
            "orientation": {
                "w": -0.4816463035849501,
                "x": 0.5182115481033762,
                "y": 0.4908360881923453,
                "z": -0.5084816262002911
            },
            "position": {
                "x": -0.8240239810943604,
                "y": -0.300875300988555,
                "z": 0.16403168439865112
            }
        },
        "name": "move_to_storage_C"
    },
    "id": "KPIECE_move_to_storage_C_132",
    "joint_names": [
        "shoulder_pan_joint",
        "shoulder_lift_joint",
        "elbow_joint",
        "wrist_1_joint",
        "wrist_2_joint",
        "wrist_3_joint"
    ],
    "metrics": {
        "cart_traj_len": 0.5757237665328365,
        "distance_elbow_joint": 0.2529805209819129,
        "distance_shoulder_lift_joint": 0.18767577086397136,
        "distance_shoulder_pan_joint": 0.4947832505453733,
        "distance_wrist_1_joint": 0.06344561403602633,
        "distance_wrist_2_joint": 1.0637722846041433,
        "distance_wrist_3_joint": 0.054223152812805875,
        "smoothness": 0.0,
        "time": 0.156445661,
        "traj_len": 1.4549503750452224,
        "weighted_distance": 1.8309955756664227
    },
    "planner": "KPIECE",
    "start": {
        "state": {
            "elbow_joint": 2.0108683149792914,
            "shoulder_lift_joint": -1.1634956873317392,
            "shoulder_pan_joint": -2.4736205022346,
            "wrist_1_joint": -0.8367026793690192,
            "wrist_2_joint": 0.6746043897045053,
            "wrist_3_joint": 3.133522094754363
        }
    },
    "waypoints": [
        {
            "positions": [
                -2.4736205022346,
                -1.1634956873317392,
                2.0108683149792914,
                -0.8367026793690192,
                0.6746043897045053,
                3.133522094754363
            ]
        },
        {
            "positions": [
                -2.5560843773254955,
                -1.132216392187744,
                1.9687048948156392,
                -0.8261284103630149,
                0.8518997704718625,
                3.142559286889831
            ]
        },
        {
            "positions": [
                -2.638548252416391,
                -1.1009370970437489,
                1.926541474651987,
                -0.8155541413570104,
                1.0291951512392197,
                3.1515964790252986
            ]
        },
        {
            "positions": [
                -2.7210121275072865,
                -1.0696578018997536,
                1.884378054488335,
                -0.804979872351006,
                1.206490532006577,
                3.160633671160766
            ]
        },
        {
            "positions": [
                -2.8034760025981824,
                -1.0383785067557583,
                1.8422146343246828,
                -0.7944056033450017,
                1.3837859127739343,
                3.1696708632962336
            ]
        },
        {
            "positions": [
                -2.885939877689078,
                -1.0070992116117632,
                1.8000512141610305,
                -0.7838313343389973,
                1.5610812935412914,
                3.1787080554317013
            ]
        },
        {
            "positions": [
                -2.9684037527799734,
                -0.9758199164677679,
                1.7578877939973785,
                -0.7732570653329929,
                1.7383766743086486,
                3.187745247567169
            ]
        }
    ]
}