{
    "goal": {
        "global_pose": {
            "orientation": {
                "w": -0.4816463035849501,
                "x": 0.5182115481033762,
                "y": 0.4908360881923453,
                "z": -0.5084816262002911
            },
            "position": {
                "x": -0.8240239810943604,
                "y": -0.300875300988555,
                "z": 0.16403168439865112
            }
        },
        "name": "move_to_storage_C"
    },
    "id": "KPIECE_move_to_storage_C_34",
    "joint_names": [
        "shoulder_pan_joint",
        "shoulder_lift_joint",
        "elbow_joint",
        "wrist_1_joint",
        "wrist_2_joint",
        "wrist_3_joint"
    ],
    "metrics": {
        "cart_traj_len": 0.5769500131154551,
        "distance_elbow_joint": 0.26212105252779216,
        "distance_shoulder_lift_joint": 0.19054348638120155,
        "distance_shoulder_pan_joint": 0.4934385771326366,
        "distance_wrist_1_joint": 0.08641674505845753,
        "distance_wrist_2_joint": 1.0734227504297518,
        "distance_wrist_3_joint": 0.06636653243532287,
        "smoothness": 5.075305295617109e-16,
        "time": 0.11792308200000001,
        "traj_len": 1.4738755524009355,
        "weighted_distance": 1.8614192715033377
    },
    "planner": "KPIECE",
    "start": {
        "state": {
            "elbow_joint": 2.0108683149792914,
            "shoulder_lift_joint": -1.1634956873317392,
            "shoulder_pan_joint": -2.4736205022346,
            "wrist_1_joint": -0.8367026793690192,
            "wrist_2_joint": 0.6746043897045053,
            "wrist_3_joint": 3.133522094754363
        }
    },
    "waypoints": [
        {
            "positions": [
                -2.4736205022346,
                -1.1634956873317392,
                2.0108683149792914,
                -0.8367026793690192,
                0.6746043897045053,
                3.133522094754363
            ]
        },
        {
            "positions": [
                -2.5558602650900397,
                -1.131738439601539,
                1.9671814728913262,
                -0.8222998885259429,
                0.8535081814427973,
                3.144583183493584
            ]
        },
        {
            "positions": [
                -2.638100027945479,
                -1.0999811918713387,
                1.9234946308033607,
                -0.8078970976828667,
                1.0324119731810892,
                3.155644272232804
            ]
        },
        {
            "positions": [
                -2.720339790800918,
                -1.0682239441411385,
                1.8798077887153952,
                -0.7934943068397904,
                1.211315764919381,
                3.1667053609720246
            ]
        },
        {
            "positions": [
                -2.802579553656358,
                -1.0364666964109381,
                1.83612094662743,
                -0.7790915159967142,
                1.3902195566576732,
                3.1777664497112452
            ]
        },
        {
            "positions": [
                -2.8848193165117975,
                -1.004709448680738,
                1.7924341045394647,
                -0.764688725153638,
                1.5691233483959652,
                3.1888275384504654
            ]
        },
        {
            "positions": [
                -2.9670590793672367,
                -0.9729522009505377,
                1.7487472624514993,
                -0.7502859343105617,
                1.748027140134257,
                3.199888627189686
            ]
        }
    ]
}