{
    "goal": {
        "global_pose": {
            "orientation": {
                "w": 0.5084816262002911,
                "x": -0.4908360881923452,
                "y": 0.5182115481033761,
                "z": -0.48164630358495003
            },
            "position": {
                "x": 0.5540239810943604,
                "y": -0.46912469901144505,
                "z": 0.16403168439865112
            }
        },
        "name": "move_to_storage_B"
    },
    "id": "KPIECE_move_to_storage_B_51",
    "joint_names": [
        "shoulder_pan_joint",
        "shoulder_lift_joint",
        "elbow_joint",
        "wrist_1_joint",
        "wrist_2_joint",
        "wrist_3_joint"
    ],
    "metrics": {
        "cart_traj_len": 0.7096353135562417,
        "distance_elbow_joint": 0.5964897154745794,
        "distance_shoulder_lift_joint": 0.4588354221705977,
        "distance_shoulder_pan_joint": 0.3783044176649457,
        "distance_wrist_1_joint": 2.9915191335766154,
        "distance_wrist_2_joint": 2.7109582488855795,
        "distance_wrist_3_joint": 3.1499573633902935,
        "smoothness": 0.09552818579068216,
        "time": 0.162077023,
        "traj_len": 3.2071894707301927,
        "weighted_distance": 4.721065177521424
    },
    "planner": "KPIECE",
    "start": {
        "state": {
            "elbow_joint": 1.6649325340416963,
            "shoulder_lift_joint": -0.6616387945129425,
            "shoulder_pan_joint": -0.9139837929255878,
            "wrist_1_joint": 2.1467571094334352,
            "wrist_2_joint": -2.234195976750228,
            "wrist_3_joint": 0.005470921511140723
        }
    },
    "waypoints": [
        {
            "positions": [
                -0.9139837929255878,
                -0.6616387945129425,
                1.6649325340416963,
                2.1467571094334352,
                -2.234195976750228,
                0.005470921511140723
            ]
        },
        {
            "positions": [
                -0.8151321525240829,
                -0.6895519584445448,
                1.5417763234892206,
                2.1445973800298694,
                -2.1207418187527303,
                0.007372778306858689
            ]
        },
        {
            "positions": [
                -0.8258803362649845,
                -0.7061258914537369,
                1.5599814582939169,
                2.029622018330906,
                -2.020837815257035,
                -0.11370627963908653
            ]
        },
        {
            "positions": [
                -0.8366285200058861,
                -0.722699824462929,
                1.5781865930986132,
                1.9146466566319424,
                -1.9209338117613395,
                -0.23478533758503173
            ]
        },
        {
            "positions": [
                -0.8473767037467876,
                -0.7392737574721211,
                1.5963917279033095,
                1.799671294932979,
                -1.821029808265644,
                -0.355864395530977
            ]
        },
        {
            "positions": [
                -0.8581248874876891,
                -0.7558476904813133,
                1.6145968627080058,
                1.6846959332340157,
                -1.7211258047699485,
                -0.4769434534769222
            ]
        },
        {
            "positions": [
                -0.8688730712285907,
                -0.7724216234905055,
                1.632801997512702,
                1.5697205715350522,
                -1.621221801274253,
                -0.5980225114228674
            ]
        },
        {
            "positions": [
                -0.8796212549694923,
                -0.7889955564996975,
                1.6510071323173983,
                1.4547452098360887,
                -1.5213177977785577,
                -0.7191015693688126
            ]
        },
        {
            "positions": [
                -0.8903694387103939,
                -0.8055694895088896,
                1.6692122671220946,
                1.3397698481371254,
                -1.4214137942828624,
                -0.8401806273147577
            ]
        },
        {
            "positions": [
                -0.9011176224512955,
                -0.8221434225180818,
                1.687417401926791,
                1.224794486438162,
                -1.3215097907871667,
                -0.961259685260703
            ]
        },
        {
            "positions": [
                -0.911865806192197,
                -0.838717355527274,
                1.7056225367314872,
                1.1098191247391984,
                -1.2216057872914714,
                -1.0823387432066482
            ]
        },
        {
            "positions": [
                -0.9226139899330985,
                -0.8552912885364661,
                1.7238276715361835,
                0.9948437630402349,
                -1.121701783795776,
                -1.2034178011525936
            ]
        },
        {
            "positions": [
                -0.9333621736740001,
                -0.8718652215456582,
                1.7420328063408799,
                0.8798684013412716,
                -1.0217977803000804,
                -1.3244968590985386
            ]
        },
        {
            "positions": [
                -0.9441103574149017,
                -0.8884391545548503,
                1.7602379411455762,
                0.7648930396423079,
                -0.9218937768043849,
                -1.445575917044484
            ]
        },
        {
            "positions": [
                -0.9548585411558033,
                -0.9050130875640425,
                1.7784430759502725,
                0.6499176779433447,
                -0.8219897733086896,
                -1.566654974990429
            ]
        },
        {
            "positions": [
                -0.9656067248967048,
                -0.9215870205732346,
                1.7966482107549686,
                0.5349423162443814,
                -0.7220857698129943,
                -1.6877340329363741
            ]
        },
        {
            "positions": [
                -0.9763549086376064,
                -0.9381609535824267,
                1.814853345559665,
                0.4199669545454179,
                -0.6221817663172988,
                -1.8088130908823192
            ]
        },
        {
            "positions": [
                -0.987103092378508,
                -0.9547348865916189,
                1.8330584803643613,
                0.30499159284645416,
                -0.5222777628216033,
                -1.9298921488282648
            ]
        },
        {
            "positions": [
                -0.9978512761194096,
                -0.9713088196008111,
                1.8512636151690576,
                0.1900162311474909,
                -0.4223737593259078,
                -2.05097120677421
            ]
        },
        {
            "positions": [
                -1.0085994598603112,
                -0.9878827526100031,
                1.869468749973754,
                0.07504086944852739,
                -0.32246975583021253,
                -2.172050264720155
            ]
        },
        {
            "positions": [
                -1.0193476436012125,
                -1.0044566856191952,
                1.8876738847784502,
                -0.039934492250436104,
                -0.22256575233451703,
                -2.2931293226661
            ]
        },
        {
            "positions": [
                -1.0300958273421141,
                -1.0210306186283873,
                1.9058790195831465,
                -0.1549098539493996,
                -0.12266174883882153,
                -2.414208380612046
            ]
        },
        {
            "positions": [
                -1.0408440110830157,
                -1.0376045516375796,
                1.9240841543878426,
                -0.2698852156483631,
                -0.022757745343126246,
                -2.5352874385579907
            ]
        },
        {
            "positions": [
                -1.0515921948239173,
                -1.0541784846467717,
                1.942289289192539,
                -0.38486057734732615,
                0.07714625815256948,
                -2.656366496503936
            ]
        },
        {
            "positions": [
                -1.0623403785648189,
                -1.0707524176559637,
                1.9604944239972353,
                -0.49983593904628965,
                0.17705026164826476,
                -2.777445554449881
            ]
        },
        {
            "positions": [
                -1.0730885623057205,
                -1.087326350665156,
                1.9786995588019316,
                -0.6148113007452536,
                0.2769542651439605,
                -2.8985246123958266
            ]
        },
        {
            "positions": [
                -1.083836746046622,
                -1.1039002836743481,
                1.996904693606628,
                -0.7297866624442166,
                0.37685826863965577,
                -3.0196036703417715
            ]
        },
        {
            "positions": [
                -1.0945849297875236,
                -1.1204742166835402,
                2.0151098284113242,
                -0.84476202414318,
                0.47676227213535116,
                -3.1406827282877168
            ]
        }
    ]
}