{
    "goal": {
        "global_pose": {
            "orientation": {
                "w": 0.5084816217422485,
                "x": -0.49083608388900757,
                "y": 0.5182115435600281,
                "z": -0.4816462993621826
            },
            "position": {
                "x": 0.5540239810943604,
                "y": 0.030875300988554955,
                "z": 0.16403168439865112
            }
        },
        "name": "move_to_storage_A"
    },
    "id": "KPIECE_move_to_storage_A_99",
    "joint_names": [
        "shoulder_pan_joint",
        "shoulder_lift_joint",
        "elbow_joint",
        "wrist_1_joint",
        "wrist_2_joint",
        "wrist_3_joint"
    ],
    "metrics": {
        "cart_traj_len": 0.35367874230571883,
        "distance_elbow_joint": 0.45317923318772935,
        "distance_shoulder_lift_joint": 0.23192048360686068,
        "distance_shoulder_pan_joint": 0.46197552998174696,
        "distance_wrist_1_joint": 0.26054355225277614,
        "distance_wrist_2_joint": 1.1012028804653093,
        "distance_wrist_3_joint": 0.10629015159542643,
        "smoothness": 2.2204460668324854e-16,
        "time": 0.061510215,
        "traj_len": 1.6171307402587611,
        "weighted_distance": 2.0468118054669286
    },
    "planner": "KPIECE",
    "start": {
        "state": {
            "elbow_joint": 1.971548880431181,
            "shoulder_lift_joint": -1.1394869514688781,
            "shoulder_pan_joint": 0.12281150262730567,
            "wrist_1_joint": -0.7804693444481463,
            "wrist_2_joint": 0.12958644648617612,
            "wrist_3_joint": 3.0906942077768043
        }
    },
    "waypoints": [
        {
            "positions": [
                0.12281150262730567,
                -1.1394869514688781,
                1.971548880431181,
                -0.7804693444481463,
                0.12958644648617612,
                3.0906942077768043
            ]
        },
        {
            "positions": [
                0.056814998344198966,
                -1.172618449127001,
                2.036288770886571,
                -0.8176898519128286,
                0.286901143695506,
                3.1058785151475794
            ]
        },
        {
            "positions": [
                -0.009181505938907736,
                -1.205749946785124,
                2.1010286613419606,
                -0.8549103593775109,
                0.4442158409048359,
                3.1210628225183545
            ]
        },
        {
            "positions": [
                -0.07517801022201445,
                -1.238881444443247,
                2.165768551797351,
                -0.8921308668421932,
                0.6015305381141658,
                3.1362471298891297
            ]
        },
        {
            "positions": [
                -0.14117451450512114,
                -1.27201294210137,
                2.2305084422527406,
                -0.9293513743068755,
                0.7588452353234957,
                3.1514314372599053
            ]
        },
        {
            "positions": [
                -0.20717101878822786,
                -1.305144439759493,
                2.2952483327081303,
                -0.9665718817715578,
                0.9161599325328257,
                3.1666157446306804
            ]
        },
        {
            "positions": [
                -0.2731675230713346,
                -1.3382759374176159,
                2.3599882231635205,
                -1.0037923892362401,
                1.0734746297421554,
                3.1818000520014555
            ]
        },
        {
            "positions": [
                -0.3391640273544413,
                -1.3714074350757388,
                2.4247281136189103,
                -1.0410128967009225,
                1.2307893269514856,
                3.1969843593722307
            ]
        }
    ]
}