{
    "goal": {
        "global_pose": {
            "orientation": {
                "w": -0.00223480608172531,
                "x": 0.0024358444001904467,
                "y": 0.7094548369677653,
                "z": -0.704743149386269
            },
            "position": {
                "x": 0.6205249238014221,
                "y": -0.6371506643295288,
                "z": 0.19426114857196808
            }
        },
        "name": "move_to_magneteinheit_B"
    },
    "id": "KPIECE_move_to_magneteinheit_B_95",
    "joint_names": [
        "shoulder_pan_joint",
        "shoulder_lift_joint",
        "elbow_joint",
        "wrist_1_joint",
        "wrist_2_joint",
        "wrist_3_joint"
    ],
    "metrics": {
        "cart_traj_len": 1.4523857688745736,
        "distance_elbow_joint": 0.725486106242079,
        "distance_shoulder_lift_joint": 1.2458346948879984,
        "distance_shoulder_pan_joint": 1.6218249417302375,
        "distance_wrist_1_joint": 2.612784479386365,
        "distance_wrist_2_joint": 2.9347211914498765,
        "distance_wrist_3_joint": 3.1330060218540106,
        "smoothness": 3.053113318408425e-16,
        "time": 0.119625549,
        "traj_len": 3.5033780035203974,
        "weighted_distance": 4.907868697316059
    },
    "planner": "KPIECE",
    "start": {
        "state": {
            "elbow_joint": 2.393587130804639,
            "shoulder_lift_joint": -1.9085141043513325,
            "shoulder_pan_joint": 0.7066247066698809,
            "wrist_1_joint": -0.4678290934590222,
            "wrist_2_joint": 0.7096259084215963,
            "wrist_3_joint": 3.147370379541726
        }
    },
    "waypoints": [
        {
            "positions": [
                0.7066247066698809,
                -1.9085141043513325,
                2.393587130804639,
                -0.4678290934590222,
                0.7096259084215963,
                3.147370379541726
            ]
        },
        {
            "positions": [
                0.6543077730656797,
                -1.8683258883872036,
                2.3701843531839266,
                -0.38354572315623625,
                0.6149574828909552,
                3.0463056691593384
            ]
        },
        {
            "positions": [
                0.6019908394614785,
                -1.8281376724230745,
                2.3467815755632144,
                -0.29926235285345026,
                0.5202890573603141,
                2.9452409587769512
            ]
        },
        {
            "positions": [
                0.5496739058572773,
                -1.7879494564589455,
                2.3233787979425022,
                -0.21497898255066428,
                0.42562063182967286,
                2.8441762483945636
            ]
        },
        {
            "positions": [
                0.49735697225307607,
                -1.7477612404948166,
                2.29997602032179,
                -0.13069561224787835,
                0.3309522062990317,
                2.7431115380121764
            ]
        },
        {
            "positions": [
                0.4450400386488748,
                -1.7075730245306877,
                2.276573242701078,
                -0.04641224194509236,
                0.23628378076839052,
                2.642046827629789
            ]
        },
        {
            "positions": [
                0.3927231050446736,
                -1.6673848085665586,
                2.2531704650803652,
                0.03787112835769363,
                0.14161535523774937,
                2.5409821172474016
            ]
        },
        {
            "positions": [
                0.3404061714404724,
                -1.6271965926024297,
                2.229767687459653,
                0.1221544986604795,
                0.04694692970710823,
                2.439917406865014
            ]
        },
        {
            "positions": [
                0.2880892378362712,
                -1.5870083766383007,
                2.206364909838941,
                0.2064378689632655,
                -0.04772149582353291,
                2.3388526964826264
            ]
        },
        {
            "positions": [
                0.23577230423206996,
                -1.5468201606741716,
                2.1829621322182287,
                0.2907212392660515,
                -0.14238992135417416,
                2.237787986100239
            ]
        },
        {
            "positions": [
                0.18345537062786876,
                -1.5066319447100427,
                2.1595593545975165,
                0.37500460956883747,
                -0.2370583468848153,
                2.136723275717852
            ]
        },
        {
            "positions": [
                0.13113843702366756,
                -1.4664437287459138,
                2.1361565769768043,
                0.45928797987162345,
                -0.33172677241545645,
                2.0356585653354644
            ]
        },
        {
            "positions": [
                0.07882150341946637,
                -1.4262555127817849,
                2.112753799356092,
                0.5435713501744095,
                -0.4263951979460976,
                1.9345938549530768
            ]
        },
        {
            "positions": [
                0.026504569815265167,
                -1.3860672968176557,
                2.08935102173538,
                0.6278547204771954,
                -0.5210636234767387,
                1.8335291445706894
            ]
        },
        {
            "positions": [
                -0.025812363788936032,
                -1.3458790808535268,
                2.0659482441146677,
                0.7121380907799812,
                -0.6157320490073799,
                1.732464434188302
            ]
        },
        {
            "positions": [
                -0.07812929739313734,
                -1.3056908648893977,
                2.0425454664939555,
                0.7964214610827673,
                -0.7104004745380212,
                1.6313997238059144
            ]
        },
        {
            "positions": [
                -0.13044623099733843,
                -1.2655026489252688,
                2.0191426888732433,
                0.8807048313855532,
                -0.8050689000686622,
                1.5303350134235272
            ]
        },
        {
            "positions": [
                -0.18276316460153963,
                -1.2253144329611398,
                1.9957399112525311,
                0.9649882016883391,
                -0.8997373255993033,
                1.4292703030411398
            ]
        },
        {
            "positions": [
                -0.23508009820574094,
                -1.185126216997011,
                1.9723371336318187,
                1.0492715719911252,
                -0.9944057511299447,
                1.3282055926587522
            ]
        },
        {
            "positions": [
                -0.28739703180994214,
                -1.144938001032882,
                1.9489343560111065,
                1.133554942293911,
                -1.0890741766605858,
                1.2271408822763648
            ]
        },
        {
            "positions": [
                -0.33971396541414334,
                -1.104749785068753,
                1.9255315783903943,
                1.2178383125966972,
                -1.183742602191227,
                1.1260761718939776
            ]
        },
        {
            "positions": [
                -0.3920308990183444,
                -1.064561569104624,
                1.9021288007696822,
                1.302121682899483,
                -1.2784110277218679,
                1.02501146151159
            ]
        },
        {
            "positions": [
                -0.44434783262254574,
                -1.0243733531404948,
                1.8787260231489697,
                1.3864050532022691,
                -1.3730794532525092,
                0.9239467511292023
            ]
        },
        {
            "positions": [
                -0.49666476622674705,
                -0.984185137176366,
                1.8553232455282576,
                1.470688423505055,
                -1.4677478787831506,
                0.8228820407468151
            ]
        },
        {
            "positions": [
                -0.5489816998309481,
                -0.943996921212237,
                1.8319204679075454,
                1.5549717938078411,
                -1.5624163043137915,
                0.7218173303644275
            ]
        },
        {
            "positions": [
                -0.6012986334351492,
                -0.9038087052481081,
                1.8085176902868332,
                1.639255164110627,
                -1.6570847298444324,
                0.6207526199820403
            ]
        },
        {
            "positions": [
                -0.6536155670393505,
                -0.8636204892839789,
                1.785114912666121,
                1.7235385344134129,
                -1.7517531553750738,
                0.5196879095996527
            ]
        },
        {
            "positions": [
                -0.7059325006435518,
                -0.82343227331985,
                1.7617121350454088,
                1.8078219047161987,
                -1.8464215809057152,
                0.4186231992172651
            ]
        },
        {
            "positions": [
                -0.7582494342477529,
                -0.7832440573557211,
                1.7383093574246966,
                1.8921052750189846,
                -1.941090006436356,
                0.3175584888348779
            ]
        },
        {
            "positions": [
                -0.8105663678519542,
                -0.7430558413915922,
                1.7149065798039844,
                1.9763886453217705,
                -2.0357584319669977,
                0.21649377845249074
            ]
        },
        {
            "positions": [
                -0.8628833014561555,
                -0.7028676254274631,
                1.691503802183272,
                2.0606720156245566,
                -2.130426857497639,
                0.11542906807010267
            ]
        },
        {
            "positions": [
                -0.9152002350603566,
                -0.6626794094633341,
                1.6681010245625598,
                2.1449553859273425,
                -2.22509528302828,
                0.014364357687715348
            ]
        }
    ]
}