{
    "goal": {
        "global_pose": {
            "orientation": {
                "w": 0.7047431493862688,
                "x": -0.7094548369677653,
                "y": 0.0024358444001904,
                "z": -0.0022348060817251984
            },
            "position": {
                "x": -0.39052492380142206,
                "y": 0.3671506643295288,
                "z": 0.19426114857196808
            }
        },
        "name": "move_to_magneteinheit_D"
    },
    "id": "KPIECE_move_to_magneteinheit_D_93",
    "joint_names": [
        "shoulder_pan_joint",
        "shoulder_lift_joint",
        "elbow_joint",
        "wrist_1_joint",
        "wrist_2_joint",
        "wrist_3_joint"
    ],
    "metrics": {
        "cart_traj_len": 4.7067462186008555,
        "distance_elbow_joint": 3.41366669388378,
        "distance_shoulder_lift_joint": 1.3648107363196702,
        "distance_shoulder_pan_joint": 3.165790500080615,
        "distance_wrist_1_joint": 3.437818585503234,
        "distance_wrist_2_joint": 1.9968632731564964,
        "distance_wrist_3_joint": 6.599020283009528,
        "smoothness": 0.4442584475598069,
        "time": 0.22446905900000003,
        "traj_len": 4.469672255541039,
        "weighted_distance": 6.213750276333296
    },
    "planner": "KPIECE",
    "start": {
        "state": {
            "elbow_joint": 0.7495348899011911,
            "shoulder_lift_joint": -0.6476975780737668,
            "shoulder_pan_joint": -2.711696901376276,
            "wrist_1_joint": -0.0750647808097303,
            "wrist_2_joint": 0.43296659715458535,
            "wrist_3_joint": 3.1361499051832418
        }
    },
    "waypoints": [
        {
            "positions": [
                -2.711696901376276,
                -0.6476975780737668,
                0.7495348899011911,
                -0.0750647808097303,
                0.43296659715458535,
                3.1361499051832418
            ]
        },
        {
            "positions": [
                -2.707023385316755,
                -0.6807700351282582,
                0.7690188226582985,
                -0.004659048863896106,
                0.5097241269883608,
                2.9457064616875965
            ]
        },
        {
            "positions": [
                -2.7023498692572336,
                -0.7138424921827496,
                0.7885027554154058,
                0.06574668308193808,
                0.5864816568221362,
                2.755263018191951
            ]
        },
        {
            "positions": [
                -2.6976763531977124,
                -0.746914949237241,
                0.8079866881725132,
                0.1361524150277723,
                0.6632391866559116,
                2.5648195746963056
            ]
        },
        {
            "positions": [
                -2.6930028371381907,
                -0.7799874062917324,
                0.8274706209296205,
                0.20655814697360647,
                0.739996716489687,
                2.3743761312006604
            ]
        },
        {
            "positions": [
                -2.6883293210786694,
                -0.8130598633462238,
                0.8469545536867279,
                0.27696387891944074,
                0.8167542463234625,
                2.1839326877050147
            ]
        },
        {
            "positions": [
                -2.683655805019148,
                -0.8461323204007152,
                0.8664384864438353,
                0.3473696108652749,
                0.8935117761572379,
                1.9934892442093695
            ]
        },
        {
            "positions": [
                -2.6739034080144317,
                -0.8748371538810644,
                0.8770030047550159,
                0.39875765137357116,
                0.951895499933683,
                1.821695356382855
            ]
        },
        {
            "positions": [
                -2.6641510110097153,
                -0.9035419873614136,
                0.8875675230661966,
                0.45014569188186737,
                1.0102792237101281,
                1.6499014685563407
            ]
        },
        {
            "positions": [
                -2.6543986140049984,
                -0.9322468208417627,
                0.8981320413773771,
                0.5015337323901636,
                1.0686629474865734,
                1.4781075807298265
            ]
        },
        {
            "positions": [
                -2.644646217000282,
                -0.9609516543221119,
                0.9086965596885578,
                0.5529217728984599,
                1.1270466712630185,
                1.3063136929033121
            ]
        },
        {
            "positions": [
                -2.571520951087464,
                -0.985223815633748,
                0.8353577312537684,
                0.4826854573313978,
                1.092763557114921,
                1.1860259633662298
            ]
        },
        {
            "positions": [
                -2.498395685174646,
                -1.009495976945384,
                0.7620189028189791,
                0.4124491417643356,
                1.0584804429668235,
                1.0657382338291477
            ]
        },
        {
            "positions": [
                -2.4252704192618277,
                -1.0337681382570199,
                0.6886800743841898,
                0.34221282619727345,
                1.024197328818726,
                0.9454505042920653
            ]
        },
        {
            "positions": [
                -2.3521451533490096,
                -1.058040299568656,
                0.6153412459494004,
                0.27197651063021133,
                0.9899142146706285,
                0.8251627747549831
            ]
        },
        {
            "positions": [
                -2.279019887436192,
                -1.0823124608802919,
                0.5420024175146111,
                0.20174019506314922,
                0.9556311005225309,
                0.7048750452179009
            ]
        },
        {
            "positions": [
                -2.205894621523374,
                -1.106584622191928,
                0.46866358907982175,
                0.13150387949608705,
                0.9213479863744334,
                0.5845873156808187
            ]
        },
        {
            "positions": [
                -2.132769355610556,
                -1.130856783503564,
                0.3953247606450324,
                0.06126756392902494,
                0.8870648722263359,
                0.46429958614373645
            ]
        },
        {
            "positions": [
                -2.0596440896977377,
                -1.1551289448151998,
                0.3219859322102431,
                -0.008968751638037231,
                0.8527817580782384,
                0.3440118566066541
            ]
        },
        {
            "positions": [
                -1.9865188237849196,
                -1.179401106126836,
                0.24864710377545374,
                -0.07920506720509934,
                0.8184986439301409,
                0.223724127069572
            ]
        },
        {
            "positions": [
                -1.9133935578721015,
                -1.2036732674384718,
                0.1753082753406644,
                -0.14944138277216146,
                0.7842155297820433,
                0.10343639753248968
            ]
        },
        {
            "positions": [
                -1.8402682919592834,
                -1.227945428750108,
                0.10196944690587506,
                -0.21967769833922368,
                0.7499324156339457,
                -0.016851332004592656
            ]
        },
        {
            "positions": [
                -1.7671430260464653,
                -1.2522175900617438,
                0.028630618471085723,
                -0.2899140139062858,
                0.7156493014858483,
                -0.13713906154167477
            ]
        },
        {
            "positions": [
                -1.6940177601336472,
                -1.27648975137338,
                -0.044708209963703616,
                -0.360150329473348,
                0.6813661873377508,
                -0.2574267910787571
            ]
        },
        {
            "positions": [
                -1.6208924942208291,
                -1.3007619126850158,
                -0.11804703839849295,
                -0.43038664504041,
                0.6470830731896533,
                -0.3777145206158392
            ]
        },
        {
            "positions": [
                -1.547767228308011,
                -1.325034073996652,
                -0.1913858668332823,
                -0.5006229606074724,
                0.6127999590415557,
                -0.49800225015292177
            ]
        },
        {
            "positions": [
                -1.4746419623951932,
                -1.3493062353082879,
                -0.26472469526807163,
                -0.5708592761745344,
                0.5785168448934582,
                -0.6182899796900039
            ]
        },
        {
            "positions": [
                -1.401516696482375,
                -1.3735783966199238,
                -0.33806352370286097,
                -0.6410955917415966,
                0.5442337307453607,
                -0.738577709227086
            ]
        },
        {
            "positions": [
                -1.328391430569557,
                -1.3978505579315599,
                -0.4114023521376503,
                -0.7113319073086586,
                0.5099506165972633,
                -0.8588654387641681
            ]
        },
        {
            "positions": [
                -1.255266164656739,
                -1.422122719243196,
                -0.48474118057243964,
                -0.7815682228757208,
                0.47566750244916567,
                -0.9791531683012507
            ]
        },
        {
            "positions": [
                -1.182140898743921,
                -1.446394880554832,
                -0.558080009007229,
                -0.8518045384427828,
                0.4413843883010682,
                -1.0994408978383328
            ]
        },
        {
            "positions": [
                -1.1090156328311027,
                -1.4706670418664678,
                -0.6314188374420185,
                -0.9220408540098453,
                0.4071012741529706,
                -1.2197286273754153
            ]
        },
        {
            "positions": [
                -1.0358903669182846,
                -1.494939203178104,
                -0.7047576658768077,
                -0.9922771695769073,
                0.3728181600048731,
                -1.3400163569124974
            ]
        },
        {
            "positions": [
                -0.9627651010054668,
                -1.51921136448974,
                -0.778096494311597,
                -1.0625134851439693,
                0.33853504585677563,
                -1.4603040864495795
            ]
        },
        {
            "positions": [
                -0.8896398350926487,
                -1.543483525801376,
                -0.8514353227463863,
                -1.1327498007110315,
                0.30425193170867815,
                -1.5805918159866617
            ]
        },
        {
            "positions": [
                -0.8165145691798303,
                -1.5677556871130118,
                -0.9247741511811759,
                -1.2029861162780937,
                0.26996881756058055,
                -1.7008795455237442
            ]
        },
        {
            "positions": [
                -0.7433893032670125,
                -1.5920278484246477,
                -0.998112979615965,
                -1.273222431845156,
                0.23568570341248307,
                -1.8211672750608263
            ]
        },
        {
            "positions": [
                -0.6702640373541944,
                -1.6163000097362838,
                -1.0714518080507545,
                -1.343458747412218,
                0.2014025892643856,
                -1.9414550045979084
            ]
        },
        {
            "positions": [
                -0.5971387714413763,
                -1.64057217104792,
                -1.1447906364855438,
                -1.41369506297928,
                0.1671194751162881,
                -2.0617427341349908
            ]
        },
        {
            "positions": [
                -0.5240135055285582,
                -1.6648443323595559,
                -1.2181294649203331,
                -1.4839313785463424,
                0.1328363609681904,
                -2.1820304636720733
            ]
        },
        {
            "positions": [
                -0.4508882396157401,
                -1.6891164936711918,
                -1.2914682933551225,
                -1.5541676941134046,
                0.09855324682009292,
                -2.302318193209156
            ]
        },
        {
            "positions": [
                -0.37776297370292244,
                -1.7133886549828279,
                -1.3648071217899118,
                -1.6244040096804664,
                0.06427013267199544,
                -2.4226059227462375
            ]
        },
        {
            "positions": [
                -0.30463770779010435,
                -1.7376608162944638,
                -1.4381459502247012,
                -1.6946403252475286,
                0.029987018523897957,
                -2.54289365228332
            ]
        },
        {
            "positions": [
                -0.2315124418772858,
                -1.7619329776061,
                -1.5114847786594905,
                -1.7648766408145908,
                -0.004296095624199525,
                -2.6631813818204026
            ]
        },
        {
            "positions": [
                -0.15838717596446816,
                -1.7862051389177358,
                -1.5848236070942798,
                -1.835112956381653,
                -0.03857920977229701,
                -2.7834691113574843
            ]
        },
        {
            "positions": [
                -0.08526191005165007,
                -1.8104773002293717,
                -1.6581624355290692,
                -1.9053492719487148,
                -0.07286232392039449,
                -2.903756840894567
            ]
        },
        {
            "positions": [
                -0.012136644138831976,
                -1.8347494615410078,
                -1.7315012639638585,
                -1.975585587515777,
                -0.10714543806849197,
                -3.0240445704316485
            ]
        },
        {
            "positions": [
                0.06098862177398612,
                -1.859021622852644,
                -1.8048400923986478,
                -2.0458219030828393,
                -0.14142855221658968,
                -3.144332299968731
            ]
        },
        {
            "positions": [
                0.13411388768680405,
                -1.8832937841642798,
                -1.8781789208334372,
                -2.1160582186499015,
                -0.17571166636468713,
                -3.2646200295058136
            ]
        },
        {
            "positions": [
                0.05411895993242019,
                -1.8509901516069904,
                -1.9950863067270417,
                -2.151271228711572,
                -0.17570545100959767,
                -3.2150574424256964
            ]
        },
        {
            "positions": [
                -0.025875967821963664,
                -1.8186865190497012,
                -2.111993692620646,
                -2.1864842387732426,
                -0.17569923565450818,
                -3.165494855345579
            ]
        },
        {
            "positions": [
                -0.10587089557634752,
                -1.786382886492412,
                -2.228901078514251,
                -2.2216972488349134,
                -0.17569302029941872,
                -3.1159322682654613
            ]
        },
        {
            "positions": [
                -0.18586582333073137,
                -1.7540792539351227,
                -2.3458084644078556,
                -2.2569102588965837,
                -0.17568680494432926,
                -3.066369681185344
            ]
        }
    ]
}