{
    "goal": {
        "global_pose": {
            "orientation": {
                "w": -0.4816463035849501,
                "x": 0.5182115481033762,
                "y": 0.4908360881923453,
                "z": -0.5084816262002911
            },
            "position": {
                "x": -0.8240239810943604,
                "y": 0.19912469901144506,
                "z": 0.16403168439865112
            }
        },
        "name": "move_to_storage_D"
    },
    "id": "KPIECE_move_to_storage_D_90",
    "joint_names": [
        "shoulder_pan_joint",
        "shoulder_lift_joint",
        "elbow_joint",
        "wrist_1_joint",
        "wrist_2_joint",
        "wrist_3_joint"
    ],
    "metrics": {
        "cart_traj_len": 1.2695959039619327,
        "distance_elbow_joint": 0.5544578042460979,
        "distance_shoulder_lift_joint": 1.7915895029425815,
        "distance_shoulder_pan_joint": 0.872780458419259,
        "distance_wrist_1_joint": 3.82168397468229,
        "distance_wrist_2_joint": 1.776257963142425,
        "distance_wrist_3_joint": 3.115675526049329,
        "smoothness": 0.2209271380521124,
        "time": 0.056283113,
        "traj_len": 3.4543371621024463,
        "weighted_distance": 4.874601339535918
    },
    "planner": "KPIECE",
    "start": {
        "state": {
            "elbow_joint": -2.384821990628643,
            "shoulder_lift_joint": -2.278805467437664,
            "shoulder_pan_joint": -0.18546946439364564,
            "wrist_1_joint": 1.4845938187801415,
            "wrist_2_joint": 0.178987772454074,
            "wrist_3_joint": 0.03710569632802521
        }
    },
    "waypoints": [
        {
            "positions": [
                -0.18546946439364564,
                -2.278805467437664,
                -2.384821990628643,
                1.4845938187801415,
                0.178987772454074,
                0.03710569632802521
            ]
        },
        {
            "positions": [
                -0.15702722413386566,
                -2.22481495019225,
                -2.3758605904182057,
                1.3440698066468961,
                0.10445355986391713,
                -0.04596115034591852
            ]
        },
        {
            "positions": [
                -0.12858498387408568,
                -2.170824432946836,
                -2.3668991902077683,
                1.2035457945136505,
                0.029919347273760277,
                -0.12902799701986226
            ]
        },
        {
            "positions": [
                -0.10014274361430572,
                -2.116833915701422,
                -2.357937789997331,
                1.063021782380405,
                -0.04461486531639658,
                -0.21209484369380602
            ]
        },
        {
            "positions": [
                -0.07170050335452574,
                -2.0628433984560077,
                -2.3489763897868934,
                0.9224977702471595,
                -0.11914907790655344,
                -0.29516169036774975
            ]
        },
        {
            "positions": [
                -0.04325826309474576,
                -2.008852881210594,
                -2.340014989576456,
                0.7819737581139139,
                -0.19368329049671035,
                -0.37822853704169357
            ]
        },
        {
            "positions": [
                -0.014816022834965803,
                -1.9548623639651799,
                -2.3310535893660185,
                0.6414497459806685,
                -0.26821750308686715,
                -0.4612953837156373
            ]
        },
        {
            "positions": [
                0.013626217424814208,
                -1.9008718467197658,
                -2.322092189155581,
                0.5009257338474229,
                -0.34275171567702406,
                -0.544362230389581
            ]
        },
        {
            "positions": [
                0.04206845768459416,
                -1.846881329474352,
                -2.3131307889451436,
                0.3604017217141775,
                -0.41728592826718086,
                -0.6274290770635247
            ]
        },
        {
            "positions": [
                0.07051069794437415,
                -1.7928908122289378,
                -2.3041693887347057,
                0.2198777095809319,
                -0.4918201408573378,
                -0.7104959237374685
            ]
        },
        {
            "positions": [
                0.09895293820415413,
                -1.738900294983524,
                -2.295207988524268,
                0.07935369744768628,
                -0.5663543534474946,
                -0.7935627704114123
            ]
        },
        {
            "positions": [
                0.1273951784639341,
                -1.6849097777381097,
                -2.2862465883138308,
                -0.061170314685559335,
                -0.6408885660376515,
                -0.876629617085356
            ]
        },
        {
            "positions": [
                0.15583741872371404,
                -1.6309192604926959,
                -2.2772851881033933,
                -0.2016943268188045,
                -0.7154227786278082,
                -0.9596964637592997
            ]
        },
        {
            "positions": [
                0.18427965898349402,
                -1.5769287432472818,
                -2.268323787892956,
                -0.3422183389520501,
                -0.7899569912179651,
                -1.0427633104332434
            ]
        },
        {
            "positions": [
                0.21272189924327406,
                -1.5229382260018678,
                -2.2593623876825184,
                -0.48274235108529573,
                -0.864491203808122,
                -1.1258301571071871
            ]
        },
        {
            "positions": [
                0.24116413950305404,
                -1.468947708756454,
                -2.250400987472081,
                -0.6232663632185413,
                -0.939025416398279,
                -1.208897003781131
            ]
        },
        {
            "positions": [
                0.26960637976283397,
                -1.41495719151104,
                -2.2414395872616435,
                -0.7637903753517865,
                -1.0135596289884357,
                -1.2919638504550746
            ]
        },
        {
            "positions": [
                0.29804862002261395,
                -1.360966674265626,
                -2.232478187051206,
                -0.9043143874850321,
                -1.0880938415785926,
                -1.3750306971290185
            ]
        },
        {
            "positions": [
                0.326490860282394,
                -1.3069761570202119,
                -2.2235167868407686,
                -1.0448383996182777,
                -1.1626280541687495,
                -1.4580975438029622
            ]
        },
        {
            "positions": [
                0.2987354653790694,
                -1.3700346333682987,
                -2.193274279113213,
                -1.1442423808708833,
                -1.1960620646702573,
                -1.5827492581043732
            ]
        },
        {
            "positions": [
                0.27098007047574485,
                -1.4330931097163857,
                -2.1630317713856573,
                -1.2436463621234886,
                -1.2294960751717652,
                -1.707400972405784
            ]
        },
        {
            "positions": [
                0.24322467557242028,
                -1.4961515860644725,
                -2.132789263658102,
                -1.343050343376094,
                -1.2629300856732728,
                -1.832052686707195
            ]
        },
        {
            "positions": [
                0.21546928066909568,
                -1.5592100624125593,
                -2.102546755930546,
                -1.4424543246286996,
                -1.2963640961747807,
                -1.9567044010086057
            ]
        },
        {
            "positions": [
                0.1877138857657711,
                -1.6222685387606464,
                -2.0723042482029905,
                -1.541858305881305,
                -1.3297981066762885,
                -2.0813561153100166
            ]
        },
        {
            "positions": [
                0.15995849086244654,
                -1.6853270151087332,
                -2.0420617404754347,
                -1.6412622871339104,
                -1.3632321171777964,
                -2.2060078296114276
            ]
        },
        {
            "positions": [
                0.13220309595912197,
                -1.74838549145682,
                -2.011819232747879,
                -1.7406662683865157,
                -1.396666127679304,
                -2.330659543912838
            ]
        },
        {
            "positions": [
                0.10444770105579737,
                -1.811443967804907,
                -1.9815767250203233,
                -1.8400702496391212,
                -1.4301001381808118,
                -2.455311258214249
            ]
        },
        {
            "positions": [
                0.07669230615247283,
                -1.8745024441529936,
                -1.951334217292768,
                -1.9394742308917268,
                -1.4635341486823197,
                -2.57996297251566
            ]
        },
        {
            "positions": [
                0.04893691124914823,
                -1.9375609205010806,
                -1.9210917095652122,
                -2.0388782121443323,
                -1.4969681591838275,
                -2.704614686817071
            ]
        },
        {
            "positions": [
                0.02118151634582366,
                -2.0006193968491677,
                -1.8908492018376566,
                -2.138282193396938,
                -1.5304021696853352,
                -2.829266401118482
            ]
        },
        {
            "positions": [
                -0.006573878557500912,
                -2.0636778731972543,
                -1.860606694110101,
                -2.237686174649543,
                -1.563836180186843,
                -2.953918115419893
            ]
        },
        {
            "positions": [
                -0.0343292734608255,
                -2.1267363495453413,
                -1.8303641863825453,
                -2.3370901559021484,
                -1.5972701906883509,
                -3.0785698297213036
            ]
        }
    ]
}