{
    "goal": {
        "global_pose": {
            "orientation": {
                "w": 0.5084816217422485,
                "x": -0.49083608388900757,
                "y": 0.5182115435600281,
                "z": -0.4816462993621826
            },
            "position": {
                "x": 0.5540239810943604,
                "y": 0.030875300988554955,
                "z": 0.16403168439865112
            }
        },
        "name": "move_to_storage_A"
    },
    "id": "KPIECE_move_to_storage_A_25",
    "joint_names": [
        "shoulder_pan_joint",
        "shoulder_lift_joint",
        "elbow_joint",
        "wrist_1_joint",
        "wrist_2_joint",
        "wrist_3_joint"
    ],
    "metrics": {
        "cart_traj_len": 0.35314109457650006,
        "distance_elbow_joint": 0.4501882074724455,
        "distance_shoulder_lift_joint": 0.23601701850777324,
        "distance_shoulder_pan_joint": 0.4595011706950566,
        "distance_wrist_1_joint": 0.23598310686652635,
        "distance_wrist_2_joint": 1.1101153752552637,
        "distance_wrist_3_joint": 0.0913373809700353,
        "smoothness": 4.440892098500626e-16,
        "time": 0.032501787000000004,
        "traj_len": 1.607215685515513,
        "weighted_distance": 2.02778586241964
    },
    "planner": "KPIECE",
    "start": {
        "state": {
            "elbow_joint": 1.971548880431181,
            "shoulder_lift_joint": -1.1394869514688781,
            "shoulder_pan_joint": 0.12281150262730567,
            "wrist_1_joint": -0.7804693444481463,
            "wrist_2_joint": 0.12958644648617612,
            "wrist_3_joint": 3.0906942077768043
        }
    },
    "waypoints": [
        {
            "positions": [
                0.12281150262730567,
                -1.1394869514688781,
                1.971548880431181,
                -0.7804693444481463,
                0.12958644648617612,
                3.0906942077768043
            ]
        },
        {
            "positions": [
                0.05716847824229759,
                -1.17320366839856,
                2.035861481498673,
                -0.8141812168576501,
                0.2881743572369281,
                3.103742405058238
            ]
        },
        {
            "positions": [
                -0.008474546142710482,
                -1.206920385328242,
                2.1001740825661654,
                -0.8478930892671538,
                0.44676226798768004,
                3.1167906023396714
            ]
        },
        {
            "positions": [
                -0.07411757052771856,
                -1.240637102257924,
                2.1644866836336574,
                -0.8816049616766576,
                0.605350178738432,
                3.1298387996211052
            ]
        },
        {
            "positions": [
                -0.13976059491272663,
                -1.2743538191876056,
                2.2287992847011497,
                -0.9153168340861614,
                0.763938089489184,
                3.1428869969025386
            ]
        },
        {
            "positions": [
                -0.20540361929773476,
                -1.3080705361172875,
                2.293111885768642,
                -0.9490287064956651,
                0.9225260002399359,
                3.1559351941839724
            ]
        },
        {
            "positions": [
                -0.2710466436827428,
                -1.3417872530469694,
                2.357424486836134,
                -0.9827405789051689,
                1.081113910990688,
                3.1689833914654058
            ]
        },
        {
            "positions": [
                -0.3366896680677509,
                -1.3755039699766514,
                2.4217370879036264,
                -1.0164524513146727,
                1.23970182174144,
                3.1820315887468396
            ]
        }
    ]
}