{
    "goal": {
        "global_pose": {
            "orientation": {
                "w": -0.4816463035849501,
                "x": 0.5182115481033762,
                "y": 0.4908360881923453,
                "z": -0.5084816262002911
            },
            "position": {
                "x": -0.8240239810943604,
                "y": 0.19912469901144506,
                "z": 0.16403168439865112
            }
        },
        "name": "move_to_storage_D"
    },
    "id": "KPIECE_move_to_storage_D_36",
    "joint_names": [
        "shoulder_pan_joint",
        "shoulder_lift_joint",
        "elbow_joint",
        "wrist_1_joint",
        "wrist_2_joint",
        "wrist_3_joint"
    ],
    "metrics": {
        "cart_traj_len": 3.9154895659479996,
        "distance_elbow_joint": 4.830162333816455,
        "distance_shoulder_lift_joint": 1.2654992955304945,
        "distance_shoulder_pan_joint": 2.844973772381487,
        "distance_wrist_1_joint": 2.4673542785347053,
        "distance_wrist_2_joint": 0.8681617130422746,
        "distance_wrist_3_joint": 3.1412673131054145,
        "smoothness": 0.30126253069050696,
        "time": 0.14907833,
        "traj_len": 3.9265020955566583,
        "weighted_distance": 5.003545675238574
    },
    "planner": "KPIECE",
    "start": {
        "state": {
            "elbow_joint": -2.384821990628643,
            "shoulder_lift_joint": -2.278805467437664,
            "shoulder_pan_joint": -0.18546946439364564,
            "wrist_1_joint": 1.4845938187801415,
            "wrist_2_joint": 0.178987772454074,
            "wrist_3_joint": 0.03710569632802521
        }
    },
    "waypoints": [
        {
            "positions": [
                -0.18546946439364564,
                -2.278805467437664,
                -2.384821990628643,
                1.4845938187801415,
                0.178987772454074,
                0.03710569632802521
            ]
        },
        {
            "positions": [
                -0.19099985188226995,
                -2.1718207103470712,
                -2.488122751006456,
                1.4236144757273281,
                0.2892701177931898,
                0.045747845530577626
            ]
        },
        {
            "positions": [
                -0.19653023937089423,
                -2.0648359532564786,
                -2.5914235113842685,
                1.362635132674515,
                0.39955246313230564,
                0.05438999473313004
            ]
        },
        {
            "positions": [
                -0.20206062685951853,
                -1.957851196165886,
                -2.694724271762081,
                1.3016557896217016,
                0.5098348084714215,
                0.06303214393568246
            ]
        },
        {
            "positions": [
                -0.1215810972170246,
                -1.932980244873071,
                -2.5673163677515327,
                1.237364899672076,
                0.5208258602026173,
                0.14551665764028052
            ]
        },
        {
            "positions": [
                -0.04110156757453068,
                -1.9081092935802564,
                -2.4399084637409842,
                1.1730740097224506,
                0.5318169119338132,
                0.22800117134487857
            ]
        },
        {
            "positions": [
                0.039377962067963235,
                -1.8832383422874415,
                -2.312500559730436,
                1.108783119772825,
                0.5428079636650089,
                0.3104856850494766
            ]
        },
        {
            "positions": [
                0.11985749171045718,
                -1.8583673909946266,
                -2.1850926557198873,
                1.0444922298231996,
                0.5537990153962048,
                0.3929701987540747
            ]
        },
        {
            "positions": [
                0.20033702135295106,
                -1.8334964397018119,
                -2.0576847517093393,
                0.980201339873574,
                0.5647900671274007,
                0.4754547124586727
            ]
        },
        {
            "positions": [
                0.280816550995445,
                -1.808625488408997,
                -1.9302768476987906,
                0.9159104499239485,
                0.5757811188585965,
                0.5579392261632707
            ]
        },
        {
            "positions": [
                0.36129608063793894,
                -1.7837545371161823,
                -1.8028689436882424,
                0.851619559974323,
                0.5867721705897924,
                0.6404237398678688
            ]
        },
        {
            "positions": [
                0.4417756102804329,
                -1.7588835858233673,
                -1.6754610396776939,
                0.7873286700246975,
                0.5977632223209882,
                0.7229082535724669
            ]
        },
        {
            "positions": [
                0.5222551399229267,
                -1.7340126345305524,
                -1.5480531356671454,
                0.723037780075072,
                0.608754274052184,
                0.8053927672770649
            ]
        },
        {
            "positions": [
                0.6027346695654207,
                -1.7091416832377377,
                -1.420645231656597,
                0.6587468901254465,
                0.6197453257833798,
                0.887877280981663
            ]
        },
        {
            "positions": [
                0.6832141992079146,
                -1.6842707319449228,
                -1.2932373276460485,
                0.594456000175821,
                0.6307363775145757,
                0.970361794686261
            ]
        },
        {
            "positions": [
                0.7636937288504085,
                -1.659399780652108,
                -1.1658294236355,
                0.5301651102261955,
                0.6417274292457715,
                1.0528463083908592
            ]
        },
        {
            "positions": [
                0.8441732584929024,
                -1.6345288293592932,
                -1.038421519624952,
                0.4658742202765701,
                0.6527184809769673,
                1.135330822095457
            ]
        },
        {
            "positions": [
                0.9246527881353964,
                -1.6096578780664783,
                -0.9110136156144035,
                0.4015833303269445,
                0.6637095327081632,
                1.2178153358000552
            ]
        },
        {
            "positions": [
                1.0051323177778904,
                -1.5847869267736634,
                -0.7836057116038551,
                0.337292440377319,
                0.674700584439359,
                1.3002998495046532
            ]
        },
        {
            "positions": [
                1.0856118474203842,
                -1.5599159754808487,
                -0.6561978075933066,
                0.2730015504276935,
                0.6856916361705548,
                1.3827843632092514
            ]
        },
        {
            "positions": [
                1.166091377062878,
                -1.5350450241880338,
                -0.5287899035827581,
                0.20871066047806797,
                0.6966826879017507,
                1.4652688769138493
            ]
        },
        {
            "positions": [
                1.2465709067053719,
                -1.5101740728952189,
                -0.40138199957220966,
                0.14441977052844246,
                0.7076737396329466,
                1.5477533906184473
            ]
        },
        {
            "positions": [
                1.3270504363478661,
                -1.4853031216024042,
                -0.2739740955616612,
                0.08012888057881695,
                0.7186647913641424,
                1.6302379043230455
            ]
        },
        {
            "positions": [
                1.40752996599036,
                -1.4604321703095893,
                -0.14656619155111272,
                0.015837990629191445,
                0.7296558430953382,
                1.7127224180276435
            ]
        },
        {
            "positions": [
                1.4880094956328538,
                -1.4355612190167744,
                -0.019158287540564256,
                -0.04845289932043406,
                0.7406468948265341,
                1.7952069317322417
            ]
        },
        {
            "positions": [
                1.5684890252753476,
                -1.4106902677239597,
                0.10824961646998421,
                -0.11274378927005957,
                0.7516379465577299,
                1.8776914454368396
            ]
        },
        {
            "positions": [
                1.6489685549178419,
                -1.3858193164311448,
                0.23565752048053268,
                -0.17703467921968508,
                0.7626289982889257,
                1.9601759591414378
            ]
        },
        {
            "positions": [
                1.7294480845603357,
                -1.3609483651383298,
                0.36306542449108115,
                -0.24132556916931058,
                0.7736200500201216,
                2.042660472846036
            ]
        },
        {
            "positions": [
                1.8099276142028295,
                -1.3360774138455151,
                0.4904733285016296,
                -0.3056164591189363,
                0.7846111017513174,
                2.1251449865506338
            ]
        },
        {
            "positions": [
                1.8904071438453234,
                -1.3112064625527005,
                0.6178812325121772,
                -0.3699073490685614,
                0.7956021534825132,
                2.2076295002552317
            ]
        },
        {
            "positions": [
                1.9708866734878172,
                -1.2863355112598853,
                0.7452891365227257,
                -0.4341982390181871,
                0.806593205213709,
                2.2901140139598297
            ]
        },
        {
            "positions": [
                2.0513662031303115,
                -1.2614645599670706,
                0.8726970405332741,
                -0.4984891289678126,
                0.8175842569449049,
                2.3725985276644277
            ]
        },
        {
            "positions": [
                2.1318457327728053,
                -1.236593608674256,
                1.0001049445438226,
                -0.5627800189174381,
                0.8285753086761007,
                2.4550830413690257
            ]
        },
        {
            "positions": [
                2.212325262415299,
                -1.2117226573814408,
                1.127512848554371,
                -0.6270709088670636,
                0.8395663604072965,
                2.5375675550736236
            ]
        },
        {
            "positions": [
                2.292804792057793,
                -1.1868517060886261,
                1.2549207525649195,
                -0.6913617988166891,
                0.8505574121384925,
                2.6200520687782216
            ]
        },
        {
            "positions": [
                2.3732843217002872,
                -1.1619807547958114,
                1.382328656575468,
                -0.7556526887663146,
                0.8615484638696882,
                2.7025365824828205
            ]
        },
        {
            "positions": [
                2.453763851342781,
                -1.1371098035029963,
                1.509736560586017,
                -0.8199435787159399,
                0.872539515600884,
                2.7850210961874184
            ]
        },
        {
            "positions": [
                2.534243380985275,
                -1.1122388522101816,
                1.637144464596565,
                -0.8842344686655657,
                0.8835305673320799,
                2.867505609892016
            ]
        },
        {
            "positions": [
                2.564936248342215,
                -1.0792612921091775,
                1.6999415700380218,
                -0.8513924716358999,
                0.9380702067201695,
                2.9711280764058237
            ]
        },
        {
            "positions": [
                2.5956291156991553,
                -1.0462837320081735,
                1.762738675479479,
                -0.8185504746062343,
                0.992609846108259,
                3.074750542919632
            ]
        },
        {
            "positions": [
                2.6263219830560955,
                -1.0133061719071694,
                1.8255357809209358,
                -0.7857084775765686,
                1.0471494854963486,
                3.1783730094334395
            ]
        }
    ]
}