{
    "goal": {
        "global_pose": {
            "orientation": {
                "w": -0.4816463035849501,
                "x": 0.5182115481033762,
                "y": 0.4908360881923453,
                "z": -0.5084816262002911
            },
            "position": {
                "x": -0.8240239810943604,
                "y": 0.19912469901144506,
                "z": 0.16403168439865112
            }
        },
        "name": "move_to_storage_D"
    },
    "id": "KPIECE_move_to_storage_D_120",
    "joint_names": [
        "shoulder_pan_joint",
        "shoulder_lift_joint",
        "elbow_joint",
        "wrist_1_joint",
        "wrist_2_joint",
        "wrist_3_joint"
    ],
    "metrics": {
        "cart_traj_len": 0.7604205673863152,
        "distance_elbow_joint": 0.5535413148775645,
        "distance_shoulder_lift_joint": 0.7188930678645611,
        "distance_shoulder_pan_joint": 0.15134819512997583,
        "distance_wrist_1_joint": 3.8225735820246367,
        "distance_wrist_2_joint": 1.7762494272851201,
        "distance_wrist_3_joint": 3.143701936714131,
        "smoothness": 0.048269479042621875,
        "time": 0.07912582800000001,
        "traj_len": 3.1884647597074034,
        "weighted_distance": 4.696012607163018
    },
    "planner": "KPIECE",
    "start": {
        "state": {
            "elbow_joint": -2.384821990628643,
            "shoulder_lift_joint": -2.278805467437664,
            "shoulder_pan_joint": -0.18546946439364564,
            "wrist_1_joint": 1.4845938187801415,
            "wrist_2_joint": 0.178987772454074,
            "wrist_3_joint": 0.03710569632802521
        }
    },
    "waypoints": [
        {
            "positions": [
                -0.18546946439364564,
                -2.278805467437664,
                -2.384821990628643,
                1.4845938187801415,
                0.178987772454074,
                0.03710569632802521
            ]
        },
        {
            "positions": [
                -0.1514151541121202,
                -2.1699401001359493,
                -2.3771479556920987,
                1.3821108038812921,
                0.12996193166073072,
                0.039095730772329904
            ]
        },
        {
            "positions": [
                -0.11736084383059475,
                -2.0610747328342347,
                -2.3694739207555537,
                1.2796277889824426,
                0.08093609086738743,
                0.0410857652166346
            ]
        },
        {
            "positions": [
                -0.0833065335490693,
                -1.9522093655325203,
                -2.361799885819009,
                1.1771447740835932,
                0.03191025007404413,
                0.0430757996609393
            ]
        },
        {
            "positions": [
                -0.049252223267543846,
                -1.8433439982308057,
                -2.3541258508824643,
                1.0746617591847438,
                -0.017115590719299148,
                0.04506583410524399
            ]
        },
        {
            "positions": [
                -0.04859435570215801,
                -1.8556671112159233,
                -2.3313934519637085,
                0.9262860408182552,
                -0.08581759350676639,
                -0.09127076584853482
            ]
        },
        {
            "positions": [
                -0.047936488136772176,
                -1.8679902242010409,
                -2.3086610530449523,
                0.7779103224517665,
                -0.15451959629423362,
                -0.2276073658023136
            ]
        },
        {
            "positions": [
                -0.04727862057138634,
                -1.8803133371861582,
                -2.2859286541261965,
                0.6295346040852778,
                -0.22322159908170086,
                -0.3639439657560924
            ]
        },
        {
            "positions": [
                -0.046620753006000507,
                -1.8926364501712758,
                -2.2631962552074407,
                0.4811588857187892,
                -0.2919236018691681,
                -0.5002805657098712
            ]
        },
        {
            "positions": [
                -0.04596288544061467,
                -1.9049595631563934,
                -2.240463856288685,
                0.3327831673523005,
                -0.36062560465663535,
                -0.63661716566365
            ]
        },
        {
            "positions": [
                -0.04530501787522884,
                -1.917282676141511,
                -2.2177314573699287,
                0.18440744898581185,
                -0.4293276074441026,
                -0.7729537656174288
            ]
        },
        {
            "positions": [
                -0.044647150309843,
                -1.9296057891266285,
                -2.194999058451173,
                0.03603173061932319,
                -0.4980296102315699,
                -0.9092903655712077
            ]
        },
        {
            "positions": [
                -0.04398928274445717,
                -1.9419289021117458,
                -2.172266659532417,
                -0.11234398774716547,
                -0.5667316130190371,
                -1.0456269655249866
            ]
        },
        {
            "positions": [
                -0.04333141517907133,
                -1.9542520150968634,
                -2.1495342606136614,
                -0.26071970611365414,
                -0.6354336158065044,
                -1.1819635654787655
            ]
        },
        {
            "positions": [
                -0.0426735476136855,
                -1.966575128081981,
                -2.126801861694905,
                -0.4090954244801428,
                -0.7041356185939716,
                -1.3183001654325441
            ]
        },
        {
            "positions": [
                -0.04201568004829967,
                -1.9788982410670986,
                -2.1040694627761494,
                -0.5574711428466315,
                -0.7728376213814389,
                -1.454636765386323
            ]
        },
        {
            "positions": [
                -0.04135781248291383,
                -1.991221354052216,
                -2.0813370638573936,
                -0.7058468612131201,
                -0.841539624168906,
                -1.5909733653401017
            ]
        },
        {
            "positions": [
                -0.040699944917528,
                -2.0035444670373335,
                -2.058604664938638,
                -0.8542225795796086,
                -0.9102416269563732,
                -1.7273099652938804
            ]
        },
        {
            "positions": [
                -0.04004207735214216,
                -2.015867580022451,
                -2.0358722660198816,
                -1.0025982979460974,
                -0.9789436297438406,
                -1.8636465652476595
            ]
        },
        {
            "positions": [
                -0.03938420978675633,
                -2.0281906930075686,
                -2.013139867101126,
                -1.1509740163125861,
                -1.047645632531308,
                -1.9999831652014384
            ]
        },
        {
            "positions": [
                -0.038726342221370495,
                -2.040513805992686,
                -1.99040746818237,
                -1.2993497346790748,
                -1.1163476353187751,
                -2.136319765155217
            ]
        },
        {
            "positions": [
                -0.03806847465598466,
                -2.0528369189778037,
                -1.967675069263614,
                -1.4477254530455634,
                -1.1850496381062423,
                -2.2726563651089955
            ]
        },
        {
            "positions": [
                -0.037410607090598826,
                -2.0651600319629213,
                -1.944942670344858,
                -1.596101171412052,
                -1.2537516408937097,
                -2.4089929650627746
            ]
        },
        {
            "positions": [
                -0.03675273952521299,
                -2.0774831449480384,
                -1.9222102714261022,
                -1.7444768897785408,
                -1.322453643681177,
                -2.5453295650165533
            ]
        },
        {
            "positions": [
                -0.036094871959827156,
                -2.089806257933156,
                -1.8994778725073465,
                -1.8928526081450294,
                -1.391155646468644,
                -2.681666164970332
            ]
        },
        {
            "positions": [
                -0.03543700439444132,
                -2.1021293709182736,
                -1.8767454735885905,
                -2.041228326511518,
                -1.4598576492561113,
                -2.8180027649241106
            ]
        },
        {
            "positions": [
                -0.034779136829055486,
                -2.114452483903391,
                -1.8540130746698344,
                -2.1896040448780067,
                -1.5285596520435787,
                -2.9543393648778897
            ]
        },
        {
            "positions": [
                -0.03412126926366965,
                -2.1267755968885087,
                -1.8312806757510787,
                -2.3379797632444954,
                -1.5972616548310459,
                -3.0906759648316684
            ]
        }
    ]
}