{
    "goal": {
        "global_pose": {
            "orientation": {
                "w": 0.7031023480610252,
                "x": -0.7110244013736278,
                "y": 0.0077485991402295624,
                "z": 0.005598929693374583
            },
            "position": {
                "x": -0.8841497679147869,
                "y": 0.44412534475326537,
                "z": 0.3711530566215515
            }
        },
        "name": "move_to_auspresseinheit_D"
    },
    "id": "KPIECE_move_to_auspresseinheit_D_14",
    "joint_names": [
        "shoulder_pan_joint",
        "shoulder_lift_joint",
        "elbow_joint",
        "wrist_1_joint",
        "wrist_2_joint",
        "wrist_3_joint"
    ],
    "metrics": {
        "cart_traj_len": 0.3445007603557052,
        "distance_elbow_joint": 0.6511100632150948,
        "distance_shoulder_lift_joint": 0.1274677681991574,
        "distance_shoulder_pan_joint": 0.1338909995028144,
        "distance_wrist_1_joint": 0.5651107080540099,
        "distance_wrist_2_joint": 1.4433805427403725,
        "distance_wrist_3_joint": 0.029224529098521135,
        "smoothness": 9.868649123407766e-16,
        "time": 0.11438254,
        "traj_len": 1.7176101451755488,
        "weighted_distance": 2.2398939528025417
    },
    "planner": "KPIECE",
    "start": {
        "state": {
            "elbow_joint": -1.8275484843655228,
            "shoulder_lift_joint": -2.1267897864000416,
            "shoulder_pan_joint": -0.035127520176001514,
            "wrist_1_joint": -2.3477863256791385,
            "wrist_2_joint": -1.605890476484521,
            "wrist_3_joint": -3.0880375317375353
        }
    },
    "waypoints": [
        {
            "positions": [
                -0.035127520176001514,
                -2.1267897864000416,
                -1.8275484843655228,
                -2.3477863256791385,
                -1.605890476484521,
                -3.0880375317375353
            ]
        },
        {
            "positions": [
                -0.051863895113853316,
                -2.142723257424936,
                -1.746159726463636,
                -2.41842516418589,
                -1.4254679086419744,
                -3.08438446560022
            ]
        },
        {
            "positions": [
                -0.06860027005170512,
                -2.158656728449831,
                -1.664770968561749,
                -2.4890640026926407,
                -1.245045340799428,
                -3.080731399462905
            ]
        },
        {
            "positions": [
                -0.08533664498955693,
                -2.1745901994747254,
                -1.5833822106598623,
                -2.559702841199392,
                -1.0646227729568813,
                -3.07707833332559
            ]
        },
        {
            "positions": [
                -0.10207301992740872,
                -2.19052367049962,
                -1.5019934527579752,
                -2.6303416797061434,
                -0.8842002051143347,
                -3.0734252671882745
            ]
        },
        {
            "positions": [
                -0.11880939486526051,
                -2.206457141524515,
                -1.4206046948560886,
                -2.7009805182128948,
                -0.7037776372717881,
                -3.0697722010509594
            ]
        },
        {
            "positions": [
                -0.13554576980311234,
                -2.2223906125494097,
                -1.3392159369542016,
                -2.771619356719646,
                -0.5233550694292417,
                -3.0661191349136443
            ]
        },
        {
            "positions": [
                -0.15228214474096413,
                -2.2383240835743043,
                -1.2578271790523148,
                -2.842258195226397,
                -0.3429325015866951,
                -3.062466068776329
            ]
        },
        {
            "positions": [
                -0.16901851967881593,
                -2.254257554599199,
                -1.176438421150428,
                -2.9128970337331483,
                -0.16250993374414854,
                -3.058813002639014
            ]
        }
    ]
}