{
    "goal": {
        "global_pose": {
            "orientation": {
                "w": 0.7047431493862688,
                "x": -0.7094548369677653,
                "y": 0.0024358444001904,
                "z": -0.0022348060817251984
            },
            "position": {
                "x": -0.39052492380142206,
                "y": 0.3671506643295288,
                "z": 0.19426114857196808
            }
        },
        "name": "move_to_magneteinheit_D"
    },
    "id": "KPIECE_move_to_magneteinheit_D_69",
    "joint_names": [
        "shoulder_pan_joint",
        "shoulder_lift_joint",
        "elbow_joint",
        "wrist_1_joint",
        "wrist_2_joint",
        "wrist_3_joint"
    ],
    "metrics": {
        "cart_traj_len": 8.710983819130359,
        "distance_elbow_joint": 4.363237740172296,
        "distance_shoulder_lift_joint": 1.6464635255929074,
        "distance_shoulder_pan_joint": 9.117559131116968,
        "distance_wrist_1_joint": 1.9593972485292845,
        "distance_wrist_2_joint": 0.906504375648279,
        "distance_wrist_3_joint": 4.86004228653308,
        "smoothness": 0.34586090397531416,
        "time": 0.390345025,
        "traj_len": 4.780502516220739,
        "weighted_distance": 5.953082437261939
    },
    "planner": "KPIECE",
    "start": {
        "state": {
            "elbow_joint": 0.7495348899011911,
            "shoulder_lift_joint": -0.6476975780737668,
            "shoulder_pan_joint": -2.711696901376276,
            "wrist_1_joint": -0.0750647808097303,
            "wrist_2_joint": 0.43296659715458535,
            "wrist_3_joint": 3.1361499051832418
        }
    },
    "waypoints": [
        {
            "positions": [
                -2.711696901376276,
                -0.6476975780737668,
                0.7495348899011911,
                -0.0750647808097303,
                0.43296659715458535,
                3.1361499051832418
            ]
        },
        {
            "positions": [
                -2.733011081826704,
                -0.7248385477873464,
                0.6318375874911227,
                -0.1074279113988506,
                0.4108199781008326,
                3.0634908740852413
            ]
        },
        {
            "positions": [
                -2.7543252622771313,
                -0.8019795175009259,
                0.5141402850810544,
                -0.13979104198797093,
                0.38867335904707984,
                2.990831842987241
            ]
        },
        {
            "positions": [
                -2.6950480303445574,
                -0.8341925109666464,
                0.4559666420669154,
                -0.15965005736150562,
                0.32538461263090096,
                2.844728699344624
            ]
        },
        {
            "positions": [
                -2.6357707984119836,
                -0.8664055044323669,
                0.39779299905277643,
                -0.1795090727350403,
                0.26209586621472203,
                2.698625555702007
            ]
        },
        {
            "positions": [
                -2.57649356647941,
                -0.8986184978980875,
                0.33961935603863747,
                -0.199368088108575,
                0.19880711979854315,
                2.5525224120593895
            ]
        },
        {
            "positions": [
                -2.5172163345468364,
                -0.9308314913638079,
                0.2814457130244985,
                -0.2192271034821097,
                0.13551837338236428,
                2.4064192684167725
            ]
        },
        {
            "positions": [
                -2.4579391026142625,
                -0.9630444848295284,
                0.22327207001035954,
                -0.23908611885564438,
                0.0722296269661854,
                2.2603161247741554
            ]
        },
        {
            "positions": [
                -2.398661870681689,
                -0.995257478295249,
                0.16509842699622057,
                -0.2589451342291791,
                0.00894088055000647,
                2.114212981131538
            ]
        },
        {
            "positions": [
                -2.3393846387491153,
                -1.0274704717609695,
                0.1069247839820816,
                -0.27880414960271377,
                -0.05434786586617241,
                1.968109837488921
            ]
        },
        {
            "positions": [
                -2.2801074068165414,
                -1.05968346522669,
                0.04875114096794264,
                -0.29866316497624845,
                -0.11763661228235124,
                1.822006693846304
            ]
        },
        {
            "positions": [
                -2.037041217799503,
                -1.0592554623686292,
                0.07648743495908308,
                -0.2978981910565176,
                -0.11916011110217721,
                1.702137541544943
            ]
        },
        {
            "positions": [
                -1.7939750287824654,
                -1.0588274595105682,
                0.10422372895022351,
                -0.2971332171367868,
                -0.12068360992200318,
                1.5822683892435818
            ]
        },
        {
            "positions": [
                -1.5509088397654274,
                -1.0583994566525075,
                0.13196002294136394,
                -0.29636824321705596,
                -0.12220710874182913,
                1.4623992369422207
            ]
        },
        {
            "positions": [
                -1.3078426507483893,
                -1.0579714537944467,
                0.15969631693250438,
                -0.29560326929732517,
                -0.1237306075616551,
                1.3425300846408597
            ]
        },
        {
            "positions": [
                -1.0647764617313513,
                -1.0575434509363857,
                0.1874326109236448,
                -0.2948382953775943,
                -0.12525410638148107,
                1.2226609323394984
            ]
        },
        {
            "positions": [
                -0.8217102727143133,
                -1.057115448078325,
                0.21516890491478524,
                -0.2940733214578635,
                -0.12677760520130704,
                1.1027917800381375
            ]
        },
        {
            "positions": [
                -0.578644083697275,
                -1.0566874452202641,
                0.24290519890592568,
                -0.2933083475381327,
                -0.128301104021133,
                0.9829226277367763
            ]
        },
        {
            "positions": [
                -0.335577894680237,
                -1.0562594423622031,
                0.2706414928970661,
                -0.2925433736184019,
                -0.12982460284095898,
                0.8630534754354151
            ]
        },
        {
            "positions": [
                -0.092511705663199,
                -1.0558314395041424,
                0.2983777868882066,
                -0.29177839969867103,
                -0.13134810166078492,
                0.743184323134054
            ]
        },
        {
            "positions": [
                0.1505544833538388,
                -1.0554034366460816,
                0.32611408087934696,
                -0.29101342577894024,
                -0.1328716004806109,
                0.6233151708326929
            ]
        },
        {
            "positions": [
                0.39362067237087706,
                -1.0549754337880208,
                0.3538503748704874,
                -0.2902484518592094,
                -0.13439509930043686,
                0.5034460185313319
            ]
        },
        {
            "positions": [
                0.6366868613879149,
                -1.0545474309299598,
                0.38158666886162784,
                -0.28948347793947854,
                -0.13591859812026283,
                0.3835768662299708
            ]
        },
        {
            "positions": [
                0.8797530504049531,
                -1.054119428071899,
                0.4093229628527683,
                -0.28871850401974775,
                -0.1374420969400888,
                0.2637077139286095
            ]
        },
        {
            "positions": [
                1.1228192394219914,
                -1.0536914252138383,
                0.43705925684390873,
                -0.2879535301000169,
                -0.13896559575991477,
                0.14383856162724862
            ]
        },
        {
            "positions": [
                1.3658854284390292,
                -1.0532634223557773,
                0.46479555083504914,
                -0.2871885561802861,
                -0.14048909457974074,
                0.023969409325887536
            ]
        },
        {
            "positions": [
                1.6089516174560674,
                -1.0528354194977165,
                0.4925318448261896,
                -0.28642358226055525,
                -0.1420125933995667,
                -0.09589974297547377
            ]
        },
        {
            "positions": [
                1.8520178064731052,
                -1.0524074166396558,
                0.52026813881733,
                -0.28565860834082446,
                -0.14353609221939267,
                -0.21576889527683463
            ]
        },
        {
            "positions": [
                2.0950839954901435,
                -1.0519794137815948,
                0.5480044328084706,
                -0.2848936344210936,
                -0.14505959103921862,
                -0.33563804757819593
            ]
        },
        {
            "positions": [
                2.3381501845071817,
                -1.051551410923534,
                0.575740726799611,
                -0.2841286605013628,
                -0.14658308985904459,
                -0.4555071998795568
            ]
        },
        {
            "positions": [
                2.581216373524219,
                -1.0511234080654732,
                0.6034770207907513,
                -0.28336368658163197,
                -0.14810658867887055,
                -0.5753763521809181
            ]
        },
        {
            "positions": [
                2.8242825625412573,
                -1.0506954052074122,
                0.6312133147818918,
                -0.2825987126619012,
                -0.14963008749869652,
                -0.6952455044822794
            ]
        },
        {
            "positions": [
                3.0673487515582956,
                -1.0502674023493515,
                0.6589496087730322,
                -0.2818337387421703,
                -0.1511535863185225,
                -0.8151146567836403
            ]
        },
        {
            "positions": [
                2.9468577605812336,
                -1.0956400532961161,
                0.5459031079051079,
                -0.21816820399666334,
                -0.1392134310527754,
                -0.7814562225404476
            ]
        },
        {
            "positions": [
                2.826366769604171,
                -1.1410127042428808,
                0.4328566070371835,
                -0.15450266925115635,
                -0.12727327578702832,
                -0.7477977882972547
            ]
        },
        {
            "positions": [
                2.7058757786271093,
                -1.1863853551896455,
                0.3198101061692591,
                -0.09083713450564937,
                -0.11533312052128124,
                -0.714139354054062
            ]
        },
        {
            "positions": [
                2.585384787650047,
                -1.2317580061364102,
                0.20676360530133475,
                -0.027171599760142384,
                -0.10339296525553415,
                -0.6804809198108692
            ]
        },
        {
            "positions": [
                2.464893796672985,
                -1.2771306570831746,
                0.09371710443341041,
                0.03649393498536457,
                -0.09145280998978705,
                -0.6468224855676765
            ]
        },
        {
            "positions": [
                2.3444028056959225,
                -1.3225033080299393,
                -0.019329396434514035,
                0.10015946973087159,
                -0.07951265472403998,
                -0.6131640513244838
            ]
        },
        {
            "positions": [
                2.2239118147188606,
                -1.367875958976704,
                -0.13237589730243837,
                0.16382500447637854,
                -0.0675724994582929,
                -0.579505617081291
            ]
        },
        {
            "positions": [
                2.103420823741798,
                -1.4132486099234687,
                -0.2454223981703627,
                0.22749053922188556,
                -0.0556323441925458,
                -0.5458471828380983
            ]
        },
        {
            "positions": [
                1.9829298327647362,
                -1.4586212608702334,
                -0.35846889903828716,
                0.2911560739673925,
                -0.043692188926798714,
                -0.5121887485949055
            ]
        },
        {
            "positions": [
                1.862438841787674,
                -1.503993911816998,
                -0.4715153999062114,
                0.35482160871289947,
                -0.03175203366105163,
                -0.4785303143517128
            ]
        },
        {
            "positions": [
                1.7419478508106119,
                -1.5493665627637627,
                -0.5845619007741358,
                0.41848714345840654,
                -0.019811878395304544,
                -0.44487188010852
            ]
        },
        {
            "positions": [
                1.6214568598335497,
                -1.5947392137105272,
                -0.6976084016420603,
                0.4821526782039135,
                -0.007871723129557473,
                -0.4112134458653273
            ]
        },
        {
            "positions": [
                1.5009658688564875,
                -1.640111864657292,
                -0.8106549025099845,
                0.5458182129494205,
                0.004068432136189626,
                -0.37755501162213456
            ]
        },
        {
            "positions": [
                1.3804748778794254,
                -1.6854845156040565,
                -0.923701403377909,
                0.6094837476949274,
                0.016008587401936697,
                -0.3438965773789418
            ]
        },
        {
            "positions": [
                1.259983886902363,
                -1.7308571665508214,
                -1.0367479042458334,
                0.6731492824404345,
                0.027948742667683824,
                -0.31023814313574904
            ]
        },
        {
            "positions": [
                1.139492895925301,
                -1.776229817497586,
                -1.1497944051137576,
                0.7368148171859414,
                0.039888897933430895,
                -0.27657970889255634
            ]
        },
        {
            "positions": [
                1.0190019049482388,
                -1.8216024684443506,
                -1.2628409059816823,
                0.8004803519314485,
                0.051829053199177993,
                -0.24292127464936353
            ]
        },
        {
            "positions": [
                0.8985109139711769,
                -1.8669751193911153,
                -1.3758874068496065,
                0.8641458866769554,
                0.06376920846492506,
                -0.20926284040617082
            ]
        },
        {
            "positions": [
                0.7780199229941145,
                -1.91234777033788,
                -1.4889339077175308,
                0.9278114214224624,
                0.07570936373067216,
                -0.175604406162978
            ]
        },
        {
            "positions": [
                0.6575289320170525,
                -1.9577204212846446,
                -1.601980408585455,
                0.9914769561679693,
                0.08764951899641923,
                -0.1419459719197853
            ]
        },
        {
            "positions": [
                0.5370379410399901,
                -2.003093072231409,
                -1.7150269094533797,
                1.0551424909134763,
                0.0995896742621663,
                -0.1082875376765925
            ]
        },
        {
            "positions": [
                0.4165469500629282,
                -2.048465723178174,
                -1.8280734103213039,
                1.1188080256589834,
                0.1115298295279134,
                -0.07462910343339979
            ]
        },
        {
            "positions": [
                0.2960559590858658,
                -2.0938383741249385,
                -1.9411199111892286,
                1.1824735604044905,
                0.1234699847936605,
                -0.04097066919020709
            ]
        },
        {
            "positions": [
                0.17556496810880384,
                -2.1392110250717034,
                -2.054166412057153,
                1.2461390951499973,
                0.13541014005940755,
                -0.007312234947014384
            ]
        },
        {
            "positions": [
                0.05507397713174145,
                -2.184583676018468,
                -2.167212912925077,
                1.3098046298955044,
                0.14735029532515465,
                0.02634619929617843
            ]
        },
        {
            "positions": [
                -0.0654170138453205,
                -2.2299563269652323,
                -2.2802594137930012,
                1.3734701646410112,
                0.15929045059090174,
                0.06000463353937113
            ]
        },
        {
            "positions": [
                -0.18590800482238282,
                -2.275328977911997,
                -2.393305914660926,
                1.4371356993865183,
                0.17123060585664882,
                0.09366306778256393
            ]
        }
    ]
}