{
    "goal": {
        "global_pose": {
            "orientation": {
                "w": -0.00223480608172531,
                "x": 0.0024358444001904467,
                "y": 0.7094548369677653,
                "z": -0.704743149386269
            },
            "position": {
                "x": 0.6205249238014221,
                "y": -0.6371506643295288,
                "z": 0.19426114857196808
            }
        },
        "name": "move_to_magneteinheit_B"
    },
    "id": "KPIECE_move_to_magneteinheit_B_27",
    "joint_names": [
        "shoulder_pan_joint",
        "shoulder_lift_joint",
        "elbow_joint",
        "wrist_1_joint",
        "wrist_2_joint",
        "wrist_3_joint"
    ],
    "metrics": {
        "cart_traj_len": 4.0212091129986955,
        "distance_elbow_joint": 4.654593245572288,
        "distance_shoulder_lift_joint": 0.8101426157356479,
        "distance_shoulder_pan_joint": 2.3500906545635014,
        "distance_wrist_1_joint": 1.992195650456001,
        "distance_wrist_2_joint": 1.1823518803642923,
        "distance_wrist_3_joint": 4.701843240131921,
        "smoothness": 0.06946613945425424,
        "time": 1.607654637,
        "traj_len": 3.961214117770415,
        "weighted_distance": 5.316902415684134
    },
    "planner": "KPIECE",
    "start": {
        "state": {
            "elbow_joint": 2.393587130804639,
            "shoulder_lift_joint": -1.9085141043513325,
            "shoulder_pan_joint": 0.7066247066698809,
            "wrist_1_joint": -0.4678290934590222,
            "wrist_2_joint": 0.7096259084215963,
            "wrist_3_joint": 3.147370379541726
        }
    },
    "waypoints": [
        {
            "positions": [
                0.7066247066698809,
                -1.9085141043513325,
                2.393587130804639,
                -0.4678290934590222,
                0.7096259084215963,
                3.147370379541726
            ]
        },
        {
            "positions": [
                0.6075489219686878,
                -1.8956005672795957,
                2.382519432389058,
                -0.4779101876948403,
                0.6439048823023525,
                3.0729467930589873
            ]
        },
        {
            "positions": [
                0.5084731372674947,
                -1.8826870302078587,
                2.371451733973477,
                -0.48799128193065844,
                0.5781838561831086,
                2.998523206576248
            ]
        },
        {
            "positions": [
                0.5091547053101965,
                -1.8667535557470045,
                2.236562323085161,
                -0.5387884558501136,
                0.5197327212763772,
                2.8646805503490493
            ]
        },
        {
            "positions": [
                0.5098362733528984,
                -1.8508200812861504,
                2.1016729121968454,
                -0.5895856297695686,
                0.4612815863696457,
                2.73083789412185
            ]
        },
        {
            "positions": [
                0.5105178413956002,
                -1.8348866068252963,
                1.9667835013085293,
                -0.6403828036890238,
                0.4028304514629143,
                2.5969952378946513
            ]
        },
        {
            "positions": [
                0.511199409438302,
                -1.8189531323644421,
                1.8318940904202132,
                -0.6911799776084789,
                0.3443793165561828,
                2.4631525816674524
            ]
        },
        {
            "positions": [
                0.5118809774810038,
                -1.803019657903588,
                1.6970046795318976,
                -0.741977151527934,
                0.28592818164945144,
                2.3293099254402536
            ]
        },
        {
            "positions": [
                0.5125625455237057,
                -1.7870861834427338,
                1.5621152686435815,
                -0.7927743254473891,
                0.22747704674271996,
                2.1954672692130544
            ]
        },
        {
            "positions": [
                0.5132441135664075,
                -1.7711527089818797,
                1.4272258577552654,
                -0.8435714993668442,
                0.16902591183598853,
                2.0616246129858555
            ]
        },
        {
            "positions": [
                0.5139256816091093,
                -1.7552192345210256,
                1.2923364468669496,
                -0.8943686732862994,
                0.11057477692925705,
                1.9277819567586565
            ]
        },
        {
            "positions": [
                0.5146072496518111,
                -1.7392857600601714,
                1.1574470359786337,
                -0.9451658472057545,
                0.05212364202252562,
                1.7939393005314574
            ]
        },
        {
            "positions": [
                0.5152888176945131,
                -1.7233522855993173,
                1.022557625090318,
                -0.9959630211252095,
                -0.006327492884205754,
                1.6600966443042586
            ]
        },
        {
            "positions": [
                0.5159703857372149,
                -1.7074188111384632,
                0.887668214202002,
                -1.0467601950446648,
                -0.06477862779093724,
                1.5262539880770596
            ]
        },
        {
            "positions": [
                0.5166519537799167,
                -1.691485336677609,
                0.752778803313686,
                -1.0975573689641198,
                -0.12322976269766872,
                1.3924113318498605
            ]
        },
        {
            "positions": [
                0.5173335218226185,
                -1.675551862216755,
                0.6178893924253699,
                -1.1483545428835749,
                -0.1816808976044002,
                1.2585686756226615
            ]
        },
        {
            "positions": [
                0.5180150898653204,
                -1.6596183877559008,
                0.48299998153705404,
                -1.19915171680303,
                -0.24013203251113158,
                1.1247260193954627
            ]
        },
        {
            "positions": [
                0.5186966579080222,
                -1.6436849132950466,
                0.3481105706487382,
                -1.2499488907224852,
                -0.298583167417863,
                0.9908833631682634
            ]
        },
        {
            "positions": [
                0.6391827809931565,
                -1.6436128791586684,
                0.1834934735074482,
                -1.3303226226295135,
                -0.30692503124007287,
                0.9766529994427049
            ]
        },
        {
            "positions": [
                0.7596689040782909,
                -1.6435408450222901,
                0.018876376366158243,
                -1.4106963545365416,
                -0.3152668950622827,
                0.9624226357171464
            ]
        },
        {
            "positions": [
                0.8801550271634252,
                -1.643468810885912,
                -0.14574072077513173,
                -1.4910700864435698,
                -0.3236087588844926,
                0.9481922719915878
            ]
        },
        {
            "positions": [
                1.0006411502485595,
                -1.6433967767495337,
                -0.3103578179164217,
                -1.571443818350598,
                -0.3319506227067025,
                0.9339619082660292
            ]
        },
        {
            "positions": [
                1.1211272733336939,
                -1.6433247426131554,
                -0.4749749150577117,
                -1.6518175502576264,
                -0.34029248652891236,
                0.9197315445404707
            ]
        },
        {
            "positions": [
                1.241613396418828,
                -1.6432527084767772,
                -0.6395920121990016,
                -1.7321912821646546,
                -0.3486343503511222,
                0.9055011808149122
            ]
        },
        {
            "positions": [
                1.3620995195039627,
                -1.643180674340399,
                -0.8042091093402917,
                -1.8125650140716827,
                -0.3569762141733321,
                0.8912708170893536
            ]
        },
        {
            "positions": [
                1.4825856425890969,
                -1.6431086402040207,
                -0.9688262064815816,
                -1.892938745978711,
                -0.36531807799554195,
                0.8770404533637951
            ]
        },
        {
            "positions": [
                1.6030717656742315,
                -1.6430366060676425,
                -1.1334433036228717,
                -1.9733124778857394,
                -0.37365994181775186,
                0.8628100896382366
            ]
        },
        {
            "positions": [
                1.7235578887593657,
                -1.6429645719312642,
                -1.2980604007641616,
                -2.0536862097927675,
                -0.38200180563996167,
                0.8485797259126779
            ]
        },
        {
            "positions": [
                1.8440440118444998,
                -1.642892537794886,
                -1.4626774979054515,
                -2.1340599416997956,
                -0.3903436694621716,
                0.8343493621871194
            ]
        },
        {
            "positions": [
                1.964530134929634,
                -1.6428205036585077,
                -1.6272945950467415,
                -2.214433673606824,
                -0.3986855332843814,
                0.8201189984615609
            ]
        },
        {
            "positions": [
                2.0850162580147686,
                -1.6427484695221295,
                -1.7919116921880316,
                -2.2948074055138523,
                -0.4070273971065913,
                0.8058886347360024
            ]
        },
        {
            "positions": [
                2.205502381099903,
                -1.6426764353857513,
                -1.9565287893293215,
                -2.3751811374208804,
                -0.41536926092880117,
                0.7916582710104438
            ]
        },
        {
            "positions": [
                2.2608113040607813,
                -1.697809696470664,
                -1.9382581630215645,
                -2.390477308621272,
                -0.4221204333739695,
                1.0334054142069802
            ]
        },
        {
            "positions": [
                2.31612022702166,
                -1.7529429575555766,
                -1.9199875367138073,
                -2.4057734798216632,
                -0.4288716058191378,
                1.2751525574035165
            ]
        },
        {
            "positions": [
                2.3714291499825384,
                -1.808076218640489,
                -1.9017169104060503,
                -2.421069651022055,
                -0.4356227782643062,
                1.5168997006000526
            ]
        },
        {
            "positions": [
                2.426738072943417,
                -1.8632094797254017,
                -1.883446284098293,
                -2.4363658222224465,
                -0.4423739507094745,
                1.7586468437965892
            ]
        },
        {
            "positions": [
                2.4820469959042954,
                -1.9183427408103144,
                -1.865175657790536,
                -2.451661993422838,
                -0.4491251231546428,
                2.0003939869931253
            ]
        },
        {
            "positions": [
                2.5177200412091585,
                -1.972070469079415,
                -1.8225508190106279,
                -2.4499894433244007,
                -0.4538452929122533,
                2.2278730701167166
            ]
        },
        {
            "positions": [
                2.553393086514021,
                -2.0257981973485157,
                -1.7799259802307195,
                -2.4483168932259636,
                -0.4585654626698637,
                2.455352153240308
            ]
        },
        {
            "positions": [
                2.589066131818884,
                -2.0795259256176166,
                -1.7373011414508113,
                -2.446644343127527,
                -0.46328563242747417,
                2.6828312363638993
            ]
        },
        {
            "positions": [
                2.6247391771237467,
                -2.133253653886717,
                -1.6946763026709029,
                -2.4449717930290897,
                -0.4680058021850846,
                2.9103103194874906
            ]
        },
        {
            "positions": [
                2.6604122224286098,
                -2.186981382155818,
                -1.6520514638909947,
                -2.4432992429306526,
                -0.47272597194269506,
                3.137789402611082
            ]
        }
    ]
}