{
    "goal": {
        "global_pose": {
            "orientation": {
                "w": -0.00223480608172531,
                "x": 0.0024358444001904467,
                "y": 0.7094548369677653,
                "z": -0.704743149386269
            },
            "position": {
                "x": -0.37947507619857795,
                "y": -0.6371506643295288,
                "z": 0.19426114857196808
            }
        },
        "name": "move_to_magneteinheit_C"
    },
    "id": "KPIECE_move_to_magneteinheit_C_55",
    "joint_names": [
        "shoulder_pan_joint",
        "shoulder_lift_joint",
        "elbow_joint",
        "wrist_1_joint",
        "wrist_2_joint",
        "wrist_3_joint"
    ],
    "metrics": {
        "cart_traj_len": 6.135991903135527,
        "distance_elbow_joint": 2.637038616970578,
        "distance_shoulder_lift_joint": 4.259705953502998,
        "distance_shoulder_pan_joint": 2.765918394741223,
        "distance_wrist_1_joint": 4.569763990759911,
        "distance_wrist_2_joint": 5.6438849593524445,
        "distance_wrist_3_joint": 2.929792505171359,
        "smoothness": 0.9625056475525847,
        "time": 2.309301234,
        "traj_len": 4.7755737268414675,
        "weighted_distance": 6.2353298534202315
    },
    "planner": "KPIECE",
    "start": {
        "state": {
            "elbow_joint": 1.9565354006593851,
            "shoulder_lift_joint": -1.4165861576512813,
            "shoulder_pan_joint": -1.6717766223278752,
            "wrist_1_joint": -0.528663328821883,
            "wrist_2_joint": 1.472756589259273,
            "wrist_3_joint": 3.159348288315503
        }
    },
    "waypoints": [
        {
            "positions": [
                -1.6717766223278752,
                -1.4165861576512813,
                1.9565354006593851,
                -0.528663328821883,
                1.472756589259273,
                3.159348288315503
            ]
        },
        {
            "positions": [
                -1.530784828208918,
                -1.3567778472424732,
                1.9366624998078605,
                -0.5950035549307704,
                1.4548165696834232,
                3.1482492405009515
            ]
        },
        {
            "positions": [
                -1.3897930340899607,
                -1.2969695368336653,
                1.9167895989563357,
                -0.6613437810396579,
                1.4368765501075735,
                3.1371501926864003
            ]
        },
        {
            "positions": [
                -1.451171310858325,
                -1.3607229617669527,
                1.8735693573383132,
                -0.733575288192235,
                1.3336751290132107,
                3.086749732169464
            ]
        },
        {
            "positions": [
                -1.5125495876266895,
                -1.4244763867002401,
                1.8303491157202907,
                -0.8058067953448123,
                1.230473707918848,
                3.0363492716525275
            ]
        },
        {
            "positions": [
                -1.5739278643950536,
                -1.4882298116335277,
                1.787128874102268,
                -0.8780383024973895,
                1.127272286824485,
                2.985948811135591
            ]
        },
        {
            "positions": [
                -1.635306141163418,
                -1.5519832365668151,
                1.7439086324842454,
                -0.9502698096499667,
                1.0240708657301223,
                2.935548350618655
            ]
        },
        {
            "positions": [
                -1.6966844179317824,
                -1.6157366615001028,
                1.700688390866223,
                -1.0225013168025439,
                0.9208694446357596,
                2.8851478901017185
            ]
        },
        {
            "positions": [
                -1.7580626947001468,
                -1.6794900864333902,
                1.6574681492482002,
                -1.094732823955121,
                0.8176680235413969,
                2.8347474295847817
            ]
        },
        {
            "positions": [
                -1.8194409714685111,
                -1.7432435113666775,
                1.6142479076301777,
                -1.1669643311076983,
                0.7144666024470341,
                2.7843469690678453
            ]
        },
        {
            "positions": [
                -1.8808192482368753,
                -1.806996936299965,
                1.5710276660121552,
                -1.2391958382602755,
                0.6112651813526713,
                2.733946508550909
            ]
        },
        {
            "positions": [
                -1.94219752500524,
                -1.8707503612332523,
                1.5278074243941326,
                -1.3114273454128527,
                0.5080637602583085,
                2.6835460480339726
            ]
        },
        {
            "positions": [
                -2.003575801773604,
                -1.93450378616654,
                1.4845871827761101,
                -1.38365885256543,
                0.40486233916394565,
                2.633145587517036
            ]
        },
        {
            "positions": [
                -2.0649540785419687,
                -1.9982572110998273,
                1.4413669411580874,
                -1.455890359718007,
                0.30166091806958306,
                2.5827451270001
            ]
        },
        {
            "positions": [
                -2.126332355310333,
                -2.062010636033115,
                1.3981466995400649,
                -1.5281218668705845,
                0.19845949697522025,
                2.5323446664831635
            ]
        },
        {
            "positions": [
                -2.187710632078697,
                -2.1257640609664024,
                1.3549264579220424,
                -1.6003533740231617,
                0.09525807588085744,
                2.481944205966227
            ]
        },
        {
            "positions": [
                -2.2490889088470616,
                -2.1895174858996898,
                1.3117062163040196,
                -1.672584881175739,
                -0.00794334521350537,
                2.4315437454492903
            ]
        },
        {
            "positions": [
                -2.3104671856154257,
                -2.253270910832977,
                1.268485974685997,
                -1.744816388328316,
                -0.11114476630786818,
                2.381143284932354
            ]
        },
        {
            "positions": [
                -2.3718454623837903,
                -2.3170243357662645,
                1.2252657330679746,
                -1.8170478954808933,
                -0.214346187402231,
                2.3307428244154176
            ]
        },
        {
            "positions": [
                -2.4332237391521545,
                -2.380777760699552,
                1.182045491449952,
                -1.8892794026334705,
                -0.3175476084965936,
                2.280342363898481
            ]
        },
        {
            "positions": [
                -2.4946020159205187,
                -2.4445311856328393,
                1.1388252498319296,
                -1.9615109097860477,
                -0.4207490295909566,
                2.229941903381545
            ]
        },
        {
            "positions": [
                -2.5559802926888833,
                -2.508284610566127,
                1.0956050082139068,
                -2.033742416938625,
                -0.5239504506853192,
                2.1795414428646085
            ]
        },
        {
            "positions": [
                -2.617358569457248,
                -2.5720380354994146,
                1.0523847665958843,
                -2.1059739240912023,
                -0.6271518717796822,
                2.129140982347672
            ]
        },
        {
            "positions": [
                -2.678736846225612,
                -2.635791460432702,
                1.0091645249778618,
                -2.1782054312437795,
                -0.730353292874045,
                2.0787405218307358
            ]
        },
        {
            "positions": [
                -2.740115122993976,
                -2.6995448853659894,
                0.9659442833598393,
                -2.2504369383963567,
                -0.8335547139684074,
                2.0283400613137994
            ]
        },
        {
            "positions": [
                -2.8014933997623404,
                -2.7632983102992767,
                0.9227240417418167,
                -2.322668445548934,
                -0.9367561350627707,
                1.9779396007968628
            ]
        },
        {
            "positions": [
                -2.862871676530705,
                -2.8270517352325646,
                0.879503800123794,
                -2.394899952701511,
                -1.039957556157133,
                1.9275391402799265
            ]
        },
        {
            "positions": [
                -2.924249953299069,
                -2.8908051601658515,
                0.8362835585057715,
                -2.4671314598540883,
                -1.1431589772514958,
                1.87713867976299
            ]
        },
        {
            "positions": [
                -2.9856282300674337,
                -2.9545585850991394,
                0.793063316887749,
                -2.5393629670066655,
                -1.2463603983458587,
                1.8267382192460537
            ]
        },
        {
            "positions": [
                -3.047006506835798,
                -3.0183120100324263,
                0.7498430752697265,
                -2.6115944741592427,
                -1.3495618194402215,
                1.7763377587291174
            ]
        },
        {
            "positions": [
                -3.1083847836041625,
                -3.082065434965714,
                0.7066228336517038,
                -2.68382598131182,
                -1.4527632405345843,
                1.7259372982121808
            ]
        },
        {
            "positions": [
                -3.1697630603725266,
                -3.1458188598990016,
                0.6634025920336812,
                -2.756057488464397,
                -1.555964661628947,
                1.6755368376952444
            ]
        },
        {
            "positions": [
                -3.142711146618163,
                -3.0567756328734736,
                0.694687201583148,
                -2.6670099506884943,
                -1.4550576716118904,
                1.727751079107528
            ]
        },
        {
            "positions": [
                -3.1156592328637998,
                -2.9677324058479457,
                0.7259718111326147,
                -2.5779624129125915,
                -1.3541506815948336,
                1.7799653205198114
            ]
        },
        {
            "positions": [
                -3.0886073191094363,
                -2.878689178822418,
                0.7572564206820814,
                -2.488914875136689,
                -1.253243691577777,
                1.832179561932095
            ]
        },
        {
            "positions": [
                -3.0615554053550724,
                -2.78964595179689,
                0.7885410302315481,
                -2.3998673373607864,
                -1.1523367015607202,
                1.8843938033443786
            ]
        },
        {
            "positions": [
                -3.034503491600709,
                -2.700602724771362,
                0.8198256397810149,
                -2.3108197995848836,
                -1.0514297115436633,
                1.936608044756662
            ]
        },
        {
            "positions": [
                -3.0074515778463455,
                -2.6115594977458345,
                0.8511102493304816,
                -2.221772261808981,
                -0.9505227215266067,
                1.9888222861689457
            ]
        },
        {
            "positions": [
                -2.980399664091982,
                -2.522516270720306,
                0.8823948588799484,
                -2.132724724033078,
                -0.8496157315095498,
                2.041036527581229
            ]
        },
        {
            "positions": [
                -2.9533477503376186,
                -2.4334730436947787,
                0.913679468429415,
                -2.0436771862571756,
                -0.7487087414924932,
                2.0932507689935127
            ]
        },
        {
            "positions": [
                -2.926295836583255,
                -2.3444298166692508,
                0.9449640779788818,
                -1.9546296484812729,
                -0.6478017514754364,
                2.1454650104057964
            ]
        },
        {
            "positions": [
                -2.8992439228288918,
                -2.255386589643723,
                0.9762486875283486,
                -1.86558211070537,
                -0.5468947614583797,
                2.1976792518180797
            ]
        },
        {
            "positions": [
                -2.8721920090745283,
                -2.166343362618195,
                1.0075332970778152,
                -1.7765345729294675,
                -0.44598777144132296,
                2.2498934932303634
            ]
        },
        {
            "positions": [
                -2.845140095320165,
                -2.077300135592667,
                1.038817906627282,
                -1.6874870351535647,
                -0.34508078142426624,
                2.3021077346426466
            ]
        },
        {
            "positions": [
                -2.818088181565801,
                -1.9882569085671393,
                1.0701025161767488,
                -1.598439497377662,
                -0.24417379140720952,
                2.3543219760549303
            ]
        },
        {
            "positions": [
                -2.7910362678114375,
                -1.8992136815416112,
                1.1013871257262156,
                -1.509391959601759,
                -0.14326680139015258,
                2.406536217467214
            ]
        },
        {
            "positions": [
                -2.763984354057074,
                -1.8101704545160833,
                1.1326717352756823,
                -1.4203444218258565,
                -0.04235981137309608,
                2.4587504588794973
            ]
        },
        {
            "positions": [
                -2.7369324403027107,
                -1.7211272274905556,
                1.1639563448251489,
                -1.331296884049954,
                0.05854717864396064,
                2.510964700291781
            ]
        },
        {
            "positions": [
                -2.709880526548347,
                -1.6320840004650274,
                1.1952409543746159,
                -1.2422493462740511,
                0.15945416866101758,
                2.5631789417040647
            ]
        },
        {
            "positions": [
                -2.6828286127939838,
                -1.5430407734394997,
                1.2265255639240824,
                -1.1532018084981486,
                0.2603611586780743,
                2.615393183116348
            ]
        },
        {
            "positions": [
                -2.6557766990396203,
                -1.453997546413972,
                1.257810173473549,
                -1.0641542707222458,
                0.3612681486951308,
                2.6676074245286316
            ]
        },
        {
            "positions": [
                -2.6287247852852564,
                -1.364954319388444,
                1.289094783023016,
                -0.975106732946343,
                0.46217513871218774,
                2.7198216659409153
            ]
        },
        {
            "positions": [
                -2.6016728715308934,
                -1.2759110923629162,
                1.3203793925724825,
                -0.8860591951704404,
                0.5630821287292442,
                2.7720359073531986
            ]
        },
        {
            "positions": [
                -2.5746209577765296,
                -1.1868678653373883,
                1.3516640021219493,
                -0.7970116573945378,
                0.6639891187463012,
                2.824250148765482
            ]
        },
        {
            "positions": [
                -2.547569044022166,
                -1.0978246383118604,
                1.382948611671416,
                -0.707964119618635,
                0.7648961087633581,
                2.876464390177766
            ]
        },
        {
            "positions": [
                -2.5205171302678027,
                -1.0087814112863325,
                1.4142332212208828,
                -0.6189165818427321,
                0.8658030987804146,
                2.9286786315900493
            ]
        },
        {
            "positions": [
                -2.521913319812966,
                -1.0438426179834308,
                1.5639764723590508,
                -0.6724644069596108,
                0.8284034351642297,
                2.9870400406469177
            ]
        },
        {
            "positions": [
                -2.523309509358129,
                -1.0789038246805291,
                1.7137197234972188,
                -0.7260122320764897,
                0.7910037715480448,
                3.0454014497037867
            ]
        },
        {
            "positions": [
                -2.524705698903292,
                -1.1139650313776275,
                1.8634629746353868,
                -0.7795600571933684,
                0.7536041079318598,
                3.103762858760655
            ]
        },
        {
            "positions": [
                -2.4741754174227633,
                -1.16298397229371,
                2.007308400378555,
                -0.8241455063384625,
                0.6724071507255561,
                3.1215178922463447
            ]
        }
    ]
}