{
    "goal": {
        "global_pose": {
            "orientation": {
                "w": 0.7031023480610252,
                "x": -0.7110244013736278,
                "y": 0.0077485991402295624,
                "z": 0.005598929693374583
            },
            "position": {
                "x": -0.8841497679147869,
                "y": 0.44412534475326537,
                "z": 0.3711530566215515
            }
        },
        "name": "move_to_auspresseinheit_D"
    },
    "id": "KPIECE_move_to_auspresseinheit_D_114",
    "joint_names": [
        "shoulder_pan_joint",
        "shoulder_lift_joint",
        "elbow_joint",
        "wrist_1_joint",
        "wrist_2_joint",
        "wrist_3_joint"
    ],
    "metrics": {
        "cart_traj_len": 0.34260980853019685,
        "distance_elbow_joint": 0.636679528027412,
        "distance_shoulder_lift_joint": 0.12020721068419116,
        "distance_shoulder_pan_joint": 0.13365950997457787,
        "distance_wrist_1_joint": 0.5381818339725739,
        "distance_wrist_2_joint": 1.4329295954098313,
        "distance_wrist_3_joint": 0.013157239374712137,
        "smoothness": 3.947459674368863e-16,
        "time": 0.089986029,
        "traj_len": 1.6955279170344848,
        "weighted_distance": 2.2073152981790183
    },
    "planner": "KPIECE",
    "start": {
        "state": {
            "elbow_joint": -1.8275484843655228,
            "shoulder_lift_joint": -2.1267897864000416,
            "shoulder_pan_joint": -0.035127520176001514,
            "wrist_1_joint": -2.3477863256791385,
            "wrist_2_joint": -1.605890476484521,
            "wrist_3_joint": -3.0880375317375353
        }
    },
    "waypoints": [
        {
            "positions": [
                -0.035127520176001514,
                -2.1267897864000416,
                -1.8275484843655228,
                -2.3477863256791385,
                -1.605890476484521,
                -3.0880375317375353
            ]
        },
        {
            "positions": [
                -0.05183495892282375,
                -2.1418156877355656,
                -1.7479635433620961,
                -2.41505905492571,
                -1.426774277058292,
                -3.086392876815696
            ]
        },
        {
            "positions": [
                -0.06854239766964598,
                -2.1568415890710892,
                -1.6683786023586697,
                -2.482331784172282,
                -1.2476580776320632,
                -3.0847482218938573
            ]
        },
        {
            "positions": [
                -0.08524983641646822,
                -2.1718674904066133,
                -1.5887936613552434,
                -2.5496045134188536,
                -1.0685418782058342,
                -3.083103566972018
            ]
        },
        {
            "positions": [
                -0.10195727516329045,
                -2.186893391742137,
                -1.5092087203518167,
                -2.616877242665425,
                -0.8894256787796053,
                -3.081458912050179
            ]
        },
        {
            "positions": [
                -0.11866471391011268,
                -2.201919293077661,
                -1.4296237793483901,
                -2.6841499719119972,
                -0.7103094793533764,
                -3.0798142571283402
            ]
        },
        {
            "positions": [
                -0.13537215265693492,
                -2.216945194413185,
                -1.3500388383449637,
                -2.751422701158569,
                -0.5311932799271475,
                -3.078169602206501
            ]
        },
        {
            "positions": [
                -0.15207959140375715,
                -2.2319710957487087,
                -1.2704538973415374,
                -2.818695430405141,
                -0.35207708050091857,
                -3.0765249472846623
            ]
        },
        {
            "positions": [
                -0.1687870301505794,
                -2.2469969970842327,
                -1.1908689563381107,
                -2.8859681596517124,
                -0.17296088107468974,
                -3.074880292362823
            ]
        }
    ]
}