{
    "goal": {
        "global_pose": {
            "orientation": {
                "w": 0.7031023502349854,
                "x": -0.7110244035720825,
                "y": 0.007748599164187908,
                "z": 0.005598929710686207
            },
            "position": {
                "x": 0.11585023208521307,
                "y": 0.44412534475326537,
                "z": 0.3711530566215515
            }
        },
        "name": "move_to_auspresseinheit_A"
    },
    "id": "KPIECE_move_to_auspresseinheit_A_61",
    "joint_names": [
        "shoulder_pan_joint",
        "shoulder_lift_joint",
        "elbow_joint",
        "wrist_1_joint",
        "wrist_2_joint",
        "wrist_3_joint"
    ],
    "metrics": {
        "cart_traj_len": 0.8695535613824459,
        "distance_elbow_joint": 0.6013051044955167,
        "distance_shoulder_lift_joint": 0.615848485510401,
        "distance_shoulder_pan_joint": 1.0423894548630832,
        "distance_wrist_1_joint": 0.966485878585218,
        "distance_wrist_2_joint": 1.487275798855527,
        "distance_wrist_3_joint": 2.9675891702558497,
        "smoothness": 1.080210694591902,
        "time": 0.200171868,
        "traj_len": 2.771442565265532,
        "weighted_distance": 4.008719734593333
    },
    "planner": "KPIECE",
    "start": {
        "state": {
            "elbow_joint": 2.4225746994637096,
            "shoulder_lift_joint": -1.373653595662188,
            "shoulder_pan_joint": -0.3378633848294565,
            "wrist_1_joint": -1.0288595594406726,
            "wrist_2_joint": 1.2330228066703421,
            "wrist_3_joint": 3.189163495502006
        }
    },
    "waypoints": [
        {
            "positions": [
                -0.3378633848294565,
                -1.373653595662188,
                2.4225746994637096,
                -1.0288595594406726,
                1.2330228066703421,
                3.189163495502006
            ]
        },
        {
            "positions": [
                -0.29389542073705255,
                -1.4215452096855965,
                2.396159902688457,
                -0.9647091328988129,
                1.1488650263033393,
                3.0637243633639715
            ]
        },
        {
            "positions": [
                -0.24992745664464858,
                -1.469436823709005,
                2.3697451059132035,
                -0.9005587063569531,
                1.0647072459363365,
                2.9382852312259375
            ]
        },
        {
            "positions": [
                -0.2059594925522446,
                -1.5173284377324134,
                2.3433303091379507,
                -0.8364082798150932,
                0.9805494655693334,
                2.812846099087903
            ]
        },
        {
            "positions": [
                -0.16199152845984066,
                -1.5652200517558221,
                2.3169155123626974,
                -0.7722578532732335,
                0.8963916852023306,
                2.687406966949869
            ]
        },
        {
            "positions": [
                -0.11802356436743666,
                -1.6131116657792306,
                2.2905007155874446,
                -0.7081074267313736,
                0.8122339048353278,
                2.5619678348118344
            ]
        },
        {
            "positions": [
                -0.07405560027503272,
                -1.661003279802639,
                2.2640859188121913,
                -0.6439570001895139,
                0.7280761244683248,
                2.4365287026738
            ]
        },
        {
            "positions": [
                -0.03008763618262872,
                -1.7088948938260475,
                2.2376711220369385,
                -0.5798065736476541,
                0.6439183441013219,
                2.311089570535766
            ]
        },
        {
            "positions": [
                0.01388032790977517,
                -1.756786507849456,
                2.2112563252616857,
                -0.5156561471057943,
                0.559760563734319,
                2.1856504383977318
            ]
        },
        {
            "positions": [
                0.05784829200217917,
                -1.8046781218728647,
                2.1848415284864324,
                -0.45150572056393456,
                0.4756027833673162,
                2.0602113062596974
            ]
        },
        {
            "positions": [
                0.10181625609458317,
                -1.8525697358962732,
                2.1584267317111796,
                -0.3873552940220747,
                0.39144500300031326,
                1.9347721741216632
            ]
        },
        {
            "positions": [
                0.14578422018698706,
                -1.9004613499196816,
                2.1320119349359263,
                -0.32320486748021504,
                0.30728722263331043,
                1.809333041983629
            ]
        },
        {
            "positions": [
                0.18975218427939106,
                -1.94835296394309,
                2.1055971381606735,
                -0.25905444093835517,
                0.22312944226630743,
                1.6838939098455947
            ]
        },
        {
            "positions": [
                0.25514958529907394,
                -1.9437942427576536,
                2.1439161051297377,
                -0.28531453053360556,
                0.28601772753700117,
                1.8752787913410298
            ]
        },
        {
            "positions": [
                0.32054698631875683,
                -1.939235521572217,
                2.1822350720988024,
                -0.31157462012885595,
                0.34890601280769484,
                2.066663672836465
            ]
        },
        {
            "positions": [
                0.3859443873384397,
                -1.9346768003867805,
                2.2205540390678666,
                -0.33783470972410634,
                0.41179429807838863,
                2.2580485543319
            ]
        },
        {
            "positions": [
                0.4513417883581226,
                -1.930118079201344,
                2.258873006036931,
                -0.36409479931935673,
                0.4746825833490823,
                2.4494334358273346
            ]
        },
        {
            "positions": [
                0.5167391893778055,
                -1.9255593580159074,
                2.2971919730059955,
                -0.3903548889146071,
                0.537570868619776,
                2.6408183173227697
            ]
        },
        {
            "positions": [
                0.5821365903974884,
                -1.9210006368304708,
                2.3355109399750598,
                -0.4166149785098575,
                0.6004591538904698,
                2.832203198818205
            ]
        },
        {
            "positions": [
                0.6433313302155574,
                -1.914102241772031,
                2.362717810664107,
                -0.43617508976555663,
                0.6504855153041347,
                2.989208346631619
            ]
        },
        {
            "positions": [
                0.7045260700336264,
                -1.9072038467135912,
                2.389924681353154,
                -0.4557352010212557,
                0.7005118767177995,
                3.1462134944450333
            ]
        }
    ]
}