{
    "goal": {
        "global_pose": {
            "orientation": {
                "w": 0.5084816262002911,
                "x": -0.4908360881923452,
                "y": 0.5182115481033761,
                "z": -0.48164630358495003
            },
            "position": {
                "x": 0.5540239810943604,
                "y": -0.46912469901144505,
                "z": 0.16403168439865112
            }
        },
        "name": "move_to_storage_B"
    },
    "id": "KPIECE_move_to_storage_B_144",
    "joint_names": [
        "shoulder_pan_joint",
        "shoulder_lift_joint",
        "elbow_joint",
        "wrist_1_joint",
        "wrist_2_joint",
        "wrist_3_joint"
    ],
    "metrics": {
        "cart_traj_len": 0.9354770943599732,
        "distance_elbow_joint": 0.8388052412849716,
        "distance_shoulder_lift_joint": 0.46131462371003185,
        "distance_shoulder_pan_joint": 0.745226920617371,
        "distance_wrist_1_joint": 3.026501143227405,
        "distance_wrist_2_joint": 2.71391302742417,
        "distance_wrist_3_joint": 3.1065858451923813,
        "smoothness": 0.13206985627067144,
        "time": 0.112650208,
        "traj_len": 3.3003555568235874,
        "weighted_distance": 4.7797419033346005
    },
    "planner": "KPIECE",
    "start": {
        "state": {
            "elbow_joint": 1.6649325340416963,
            "shoulder_lift_joint": -0.6616387945129425,
            "shoulder_pan_joint": -0.9139837929255878,
            "wrist_1_joint": 2.1467571094334352,
            "wrist_2_joint": -2.234195976750228,
            "wrist_3_joint": 0.005470921511140723
        }
    },
    "waypoints": [
        {
            "positions": [
                -0.9139837929255878,
                -0.6616387945129425,
                1.6649325340416963,
                2.1467571094334352,
                -2.234195976750228,
                0.005470921511140723
            ]
        },
        {
            "positions": [
                -0.8199048305360135,
                -0.6961844677135018,
                1.5849453305966779,
                2.121107859761586,
                -2.198152971100574,
                -0.024430003379345405
            ]
        },
        {
            "positions": [
                -0.7258258681464391,
                -0.7307301409140613,
                1.5049581271516592,
                2.0954586100897363,
                -2.1621099654509197,
                -0.05433092826983153
            ]
        },
        {
            "positions": [
                -0.6317469057568648,
                -0.7652758141146206,
                1.4249709237066408,
                2.069809360417887,
                -2.126066959801266,
                -0.08423185316031767
            ]
        },
        {
            "positions": [
                -0.6495542147356589,
                -0.779032645041865,
                1.4480033710508684,
                1.9563649991020462,
                -2.0258444978599117,
                -0.20026581741112243
            ]
        },
        {
            "positions": [
                -0.667361523714453,
                -0.7927894759691094,
                1.4710358183950958,
                1.8429206377862055,
                -1.9256220359185576,
                -0.3162997816619272
            ]
        },
        {
            "positions": [
                -0.6851688326932472,
                -0.8065463068963538,
                1.4940682657393234,
                1.7294762764703648,
                -1.8253995739772033,
                -0.43233374591273194
            ]
        },
        {
            "positions": [
                -0.7029761416720414,
                -0.8203031378235981,
                1.517100713083551,
                1.6160319151545242,
                -1.7251771120358492,
                -0.5483677101635367
            ]
        },
        {
            "positions": [
                -0.7207834506508355,
                -0.8340599687508425,
                1.5401331604277786,
                1.5025875538386835,
                -1.624954650094495,
                -0.6644016744143414
            ]
        },
        {
            "positions": [
                -0.7385907596296297,
                -0.8478167996780869,
                1.563165607772006,
                1.389143192522843,
                -1.5247321881531408,
                -0.7804356386651462
            ]
        },
        {
            "positions": [
                -0.7563980686084237,
                -0.8615736306053312,
                1.5861980551162336,
                1.2756988312070023,
                -1.4245097262117867,
                -0.8964696029159508
            ]
        },
        {
            "positions": [
                -0.774205377587218,
                -0.8753304615325757,
                1.6092305024604612,
                1.1622544698911617,
                -1.3242872642704326,
                -1.0125035671667557
            ]
        },
        {
            "positions": [
                -0.7920126865660121,
                -0.88908729245982,
                1.6322629498046886,
                1.048810108575321,
                -1.2240648023290785,
                -1.1285375314175603
            ]
        },
        {
            "positions": [
                -0.8098199955448062,
                -0.9028441233870643,
                1.6552953971489162,
                0.9353657472594803,
                -1.1238423403877242,
                -1.2445714956683651
            ]
        },
        {
            "positions": [
                -0.8276273045236004,
                -0.9166009543143088,
                1.6783278444931438,
                0.8219213859436398,
                -1.0236198784463704,
                -1.36060545991917
            ]
        },
        {
            "positions": [
                -0.8454346135023946,
                -0.9303577852415531,
                1.7013602918373714,
                0.7084770246277992,
                -0.923397416505016,
                -1.4766394241699747
            ]
        },
        {
            "positions": [
                -0.8632419224811887,
                -0.9441146161687974,
                1.724392739181599,
                0.5950326633119585,
                -0.823174954563662,
                -1.5926733884207793
            ]
        },
        {
            "positions": [
                -0.8810492314599828,
                -0.9578714470960419,
                1.7474251865258263,
                0.4815883019961178,
                -0.7229524926223079,
                -1.708707352671584
            ]
        },
        {
            "positions": [
                -0.8988565404387769,
                -0.9716282780232862,
                1.770457633870054,
                0.36814394068027734,
                -0.6227300306809538,
                -1.8247413169223887
            ]
        },
        {
            "positions": [
                -0.9166638494175712,
                -0.9853851089505307,
                1.7934900812142816,
                0.25469957936443643,
                -0.5225075687395995,
                -1.9407752811731938
            ]
        },
        {
            "positions": [
                -0.9344711583963653,
                -0.999141939877775,
                1.816522528558509,
                0.14125521804859598,
                -0.4222851067982454,
                -2.0568092454239983
            ]
        },
        {
            "positions": [
                -0.9522784673751594,
                -1.0128987708050194,
                1.8395549759027365,
                0.027810856732755074,
                -0.3220626448568913,
                -2.172843209674803
            ]
        },
        {
            "positions": [
                -0.9700857763539535,
                -1.0266556017322637,
                1.8625874232469641,
                -0.08563350458308516,
                -0.2218401829155372,
                -2.2888771739256075
            ]
        },
        {
            "positions": [
                -0.9878930853327478,
                -1.0404124326595081,
                1.8856198705911917,
                -0.1990778658989263,
                -0.12161772097418266,
                -2.4049111381764128
            ]
        },
        {
            "positions": [
                -1.005700394311542,
                -1.0541692635867526,
                1.9086523179354193,
                -0.3125222272147665,
                -0.021395259032828573,
                -2.520945102427217
            ]
        },
        {
            "positions": [
                -1.0235077032903361,
                -1.0679260945139968,
                1.9316847652796467,
                -0.4259665885306072,
                0.07882720290852507,
                -2.6369790666780224
            ]
        },
        {
            "positions": [
                -1.0413150122691301,
                -1.0816829254412412,
                1.954717212623874,
                -0.5394109498464479,
                0.17904966484987916,
                -2.7530130309288268
            ]
        },
        {
            "positions": [
                -1.0591223212479244,
                -1.0954397563684857,
                1.9777496599681017,
                -0.6528553111622886,
                0.2792721267912337,
                -2.869046995179632
            ]
        },
        {
            "positions": [
                -1.0769296302267186,
                -1.10919658729573,
                2.0007821073123293,
                -0.7662996724781292,
                0.3794945887325878,
                -2.9850809594304364
            ]
        },
        {
            "positions": [
                -1.0947369392055126,
                -1.1229534182229743,
                2.023814554656557,
                -0.8797440337939699,
                0.4797170506739417,
                -3.1011149236812408
            ]
        }
    ]
}