{
    "goal": {
        "global_pose": {
            "orientation": {
                "w": 0.7047431468963623,
                "x": -0.7094548344612122,
                "y": 0.0024358443915843964,
                "z": -0.0022348060738295317
            },
            "position": {
                "x": 0.6094750761985779,
                "y": 0.3671506643295288,
                "z": 0.19426114857196808
            }
        },
        "name": "move_to_magneteinheit_A"
    },
    "id": "KPIECE_move_to_magneteinheit_A_4",
    "joint_names": [
        "shoulder_pan_joint",
        "shoulder_lift_joint",
        "elbow_joint",
        "wrist_1_joint",
        "wrist_2_joint",
        "wrist_3_joint"
    ],
    "metrics": {
        "cart_traj_len": 1.9603009792307255,
        "distance_elbow_joint": 3.562363742152691,
        "distance_shoulder_lift_joint": 0.7825614138485337,
        "distance_shoulder_pan_joint": 1.2426498960116326,
        "distance_wrist_1_joint": 1.227343221092412,
        "distance_wrist_2_joint": 1.4444176628472423,
        "distance_wrist_3_joint": 2.031960514744894,
        "smoothness": 7.894919295566867e-16,
        "time": 0.082802404,
        "traj_len": 3.2080050577730397,
        "weighted_distance": 4.126375935869979
    },
    "planner": "KPIECE",
    "start": {
        "state": {
            "elbow_joint": -1.5739458827952972,
            "shoulder_lift_joint": 0.006533473998580023,
            "shoulder_pan_joint": -1.1188671628667068,
            "wrist_1_joint": 3.138208179676308,
            "wrist_2_joint": -1.5706037135050406,
            "wrist_3_joint": -2.0226958329764257
        }
    },
    "waypoints": [
        {
            "positions": [
                -1.1188671628667068,
                0.006533473998580023,
                -1.5739458827952972,
                3.138208179676308,
                -1.5706037135050406,
                -2.0226958329764257
            ]
        },
        {
            "positions": [
                -1.0710729360970286,
                -0.02356504191867128,
                -1.4369318927125014,
                3.091002671172754,
                -1.5150491880109158,
                -1.9445435054862374
            ]
        },
        {
            "positions": [
                -1.0232787093273505,
                -0.05366355783592258,
                -1.2999179026297056,
                3.0437971626691995,
                -1.459494662516791,
                -1.8663911779960494
            ]
        },
        {
            "positions": [
                -0.9754844825576723,
                -0.08376207375317389,
                -1.1629039125469098,
                2.996591654165645,
                -1.4039401370226665,
                -1.788238850505861
            ]
        },
        {
            "positions": [
                -0.9276902557879941,
                -0.11386058967042519,
                -1.025889922464114,
                2.949386145662091,
                -1.3483856115285417,
                -1.7100865230156728
            ]
        },
        {
            "positions": [
                -0.879896029018316,
                -0.14395910558767647,
                -0.8888759323813182,
                2.9021806371585366,
                -1.292831086034417,
                -1.6319341955254845
            ]
        },
        {
            "positions": [
                -0.8321018022486377,
                -0.1740576215049278,
                -0.7518619422985224,
                2.8549751286549823,
                -1.2372765605402924,
                -1.5537818680352964
            ]
        },
        {
            "positions": [
                -0.7843075754789597,
                -0.20415613742217906,
                -0.6148479522157266,
                2.807769620151428,
                -1.1817220350461677,
                -1.4756295405451083
            ]
        },
        {
            "positions": [
                -0.7365133487092814,
                -0.23425465333943038,
                -0.47783396213293083,
                2.7605641116478736,
                -1.126167509552043,
                -1.3974772130549198
            ]
        },
        {
            "positions": [
                -0.6887191219396033,
                -0.2643531692566817,
                -0.34081997205013503,
                2.7133586031443193,
                -1.0706129840579184,
                -1.3193248855647317
            ]
        },
        {
            "positions": [
                -0.6409248951699251,
                -0.294451685173933,
                -0.20380598196733923,
                2.666153094640765,
                -1.0150584585637934,
                -1.2411725580745434
            ]
        },
        {
            "positions": [
                -0.593130668400247,
                -0.3245502010911843,
                -0.06679199188454343,
                2.6189475861372107,
                -0.9595039330696689,
                -1.163020230584355
            ]
        },
        {
            "positions": [
                -0.5453364416305687,
                -0.35464871700843564,
                0.07022199819825237,
                2.5717420776336564,
                -0.9039494075755441,
                -1.084867903094167
            ]
        },
        {
            "positions": [
                -0.49754221486089056,
                -0.3847472329256869,
                0.20723598828104817,
                2.524536569130102,
                -0.8483948820814194,
                -1.0067155756039787
            ]
        },
        {
            "positions": [
                -0.4497479880912124,
                -0.4148457488429382,
                0.34424997836384397,
                2.4773310606265477,
                -0.7928403565872948,
                -0.9285632481137907
            ]
        },
        {
            "positions": [
                -0.40195376132153426,
                -0.4449442647601895,
                0.48126396844663977,
                2.430125552122994,
                -0.7372858310931701,
                -0.8504109206236024
            ]
        },
        {
            "positions": [
                -0.354159534551856,
                -0.4750427806774408,
                0.6182779585294356,
                2.382920043619439,
                -0.6817313055990453,
                -0.772258593133414
            ]
        },
        {
            "positions": [
                -0.30636530778217785,
                -0.5051412965946921,
                0.7552919486122314,
                2.335714535115885,
                -0.6261767801049206,
                -0.6941062656432258
            ]
        },
        {
            "positions": [
                -0.2585710810124997,
                -0.5352398125119433,
                0.8923059386950272,
                2.2885090266123305,
                -0.570622254610796,
                -0.6159539381530377
            ]
        },
        {
            "positions": [
                -0.21077685424282155,
                -0.5653383284291946,
                1.029319928777823,
                2.2413035181087766,
                -0.5150677291166712,
                -0.5378016106628494
            ]
        },
        {
            "positions": [
                -0.1629826274731433,
                -0.595436844346446,
                1.1663339188606188,
                2.194098009605222,
                -0.45951320362254644,
                -0.45964928317266107
            ]
        },
        {
            "positions": [
                -0.11518840070346514,
                -0.6255353602636973,
                1.3033479089434146,
                2.1468925011016675,
                -0.4039586781284219,
                -0.38149695568247277
            ]
        },
        {
            "positions": [
                -0.0673941739337871,
                -0.6556338761809486,
                1.4403618990262104,
                2.099686992598113,
                -0.34840415263429714,
                -0.3033446281922847
            ]
        },
        {
            "positions": [
                -0.019599947164108844,
                -0.6857323920981998,
                1.5773758891090062,
                2.0524814840945593,
                -0.2928496271401724,
                -0.2251923007020964
            ]
        },
        {
            "positions": [
                0.028194279605569417,
                -0.7158309080154512,
                1.714389879191802,
                2.0052759755910046,
                -0.2372951016460476,
                -0.1470399732119081
            ]
        },
        {
            "positions": [
                0.07598850637524768,
                -0.7459294239327025,
                1.8514038692745978,
                1.9580704670874505,
                -0.18174057615192307,
                -0.06888764572171979
            ]
        },
        {
            "positions": [
                0.12378273314492567,
                -0.7760279398499538,
                1.9884178593573936,
                1.9108649585838962,
                -0.12618605065779828,
                0.009264681768468116
            ]
        }
    ]
}