{
    "goal": {
        "global_pose": {
            "orientation": {
                "w": 0.7047431468963623,
                "x": -0.7094548344612122,
                "y": 0.0024358443915843964,
                "z": -0.0022348060738295317
            },
            "position": {
                "x": 0.6094750761985779,
                "y": 0.3671506643295288,
                "z": 0.19426114857196808
            }
        },
        "name": "move_to_magneteinheit_A"
    },
    "id": "KPIECE_move_to_magneteinheit_A_33",
    "joint_names": [
        "shoulder_pan_joint",
        "shoulder_lift_joint",
        "elbow_joint",
        "wrist_1_joint",
        "wrist_2_joint",
        "wrist_3_joint"
    ],
    "metrics": {
        "cart_traj_len": 1.8274251224599718,
        "distance_elbow_joint": 3.539997999226835,
        "distance_shoulder_lift_joint": 1.1437097679818569,
        "distance_shoulder_pan_joint": 1.240371743874162,
        "distance_wrist_1_joint": 4.639676422937132,
        "distance_wrist_2_joint": 1.6969453766205524,
        "distance_wrist_3_joint": 1.196962931223713,
        "smoothness": 0.1304546031364687,
        "time": 0.179547629,
        "traj_len": 3.6684689233881005,
        "weighted_distance": 4.710436487616553
    },
    "planner": "KPIECE",
    "start": {
        "state": {
            "elbow_joint": -1.5739458827952972,
            "shoulder_lift_joint": 0.006533473998580023,
            "shoulder_pan_joint": -1.1188671628667068,
            "wrist_1_joint": 3.138208179676308,
            "wrist_2_joint": -1.5706037135050406,
            "wrist_3_joint": -2.0226958329764257
        }
    },
    "waypoints": [
        {
            "positions": [
                -1.1188671628667068,
                0.006533473998580023,
                -1.5739458827952972,
                3.138208179676308,
                -1.5706037135050406,
                -2.0226958329764257
            ]
        },
        {
            "positions": [
                -1.0909022787951022,
                -0.021779347531341732,
                -1.4715466887058877,
                2.985827855261339,
                -1.512767179539323,
                -2.0458726658736044
            ]
        },
        {
            "positions": [
                -1.0629373947234977,
                -0.050092169061263486,
                -1.3691474946164781,
                2.83344753084637,
                -1.454930645573605,
                -2.0690494987707835
            ]
        },
        {
            "positions": [
                -1.034972510651893,
                -0.07840499059118525,
                -1.2667483005270685,
                2.6810672064314014,
                -1.3970941116078874,
                -2.092226331667962
            ]
        },
        {
            "positions": [
                -1.0070076265802885,
                -0.106717812121107,
                -1.164349106437659,
                2.5286868820164323,
                -1.3392575776421698,
                -2.1154031645651408
            ]
        },
        {
            "positions": [
                -0.9790427425086838,
                -0.13503063365102874,
                -1.0619499123482492,
                2.3763065576014633,
                -1.2814210436764522,
                -2.13857999746232
            ]
        },
        {
            "positions": [
                -0.9510778584370793,
                -0.1633434551809505,
                -0.9595507182588398,
                2.223926233186494,
                -1.2235845097107343,
                -2.1617568303594985
            ]
        },
        {
            "positions": [
                -0.9231129743654747,
                -0.19165627671087226,
                -0.8571515241694302,
                2.071545908771525,
                -1.1657479757450167,
                -2.184933663256677
            ]
        },
        {
            "positions": [
                -0.8951480902938701,
                -0.219969098240794,
                -0.7547523300800206,
                1.9191655843565563,
                -1.107911441779299,
                -2.2081104961538562
            ]
        },
        {
            "positions": [
                -0.8671832062222655,
                -0.24828191977071581,
                -0.652353135990611,
                1.766785259941587,
                -1.0500749078135811,
                -2.231287329051035
            ]
        },
        {
            "positions": [
                -0.8392183221506608,
                -0.27659474130063755,
                -0.5499539419012014,
                1.6144049355266181,
                -0.9922383738478635,
                -2.2544641619482135
            ]
        },
        {
            "positions": [
                -0.8112534380790564,
                -0.3049075628305593,
                -0.44755474781179183,
                1.462024611111649,
                -0.9344018398821459,
                -2.2776409948453926
            ]
        },
        {
            "positions": [
                -0.7832885540074517,
                -0.33322038436048107,
                -0.34515555372238227,
                1.3096442866966802,
                -0.8765653059164281,
                -2.3008178277425713
            ]
        },
        {
            "positions": [
                -0.7553236699358471,
                -0.36153320589040283,
                -0.2427563596329727,
                1.157263962281711,
                -0.8187287719507104,
                -2.32399466063975
            ]
        },
        {
            "positions": [
                -0.7273587858642425,
                -0.3898460274203246,
                -0.14035716554356314,
                1.004883637866742,
                -0.7608922379849927,
                -2.347171493536929
            ]
        },
        {
            "positions": [
                -0.6993939017926379,
                -0.41815884895024635,
                -0.03795797145415358,
                0.852503313451773,
                -0.7030557040192751,
                -2.3703483264341076
            ]
        },
        {
            "positions": [
                -0.6714290177210334,
                -0.44647167048016806,
                0.06444122263525598,
                0.7001229890368044,
                -0.6452191700535573,
                -2.3935251593312863
            ]
        },
        {
            "positions": [
                -0.6434641336494288,
                -0.4747844920100898,
                0.16684041672466554,
                0.5477426646218353,
                -0.5873826360878397,
                -2.416701992228465
            ]
        },
        {
            "positions": [
                -0.6154992495778241,
                -0.5030973135400116,
                0.2692396108140753,
                0.3953623402068658,
                -0.5295461021221219,
                -2.439878825125644
            ]
        },
        {
            "positions": [
                -0.5875343655062195,
                -0.5314101350699334,
                0.3716388049034849,
                0.2429820157918967,
                -0.4717095681564041,
                -2.4630556580228227
            ]
        },
        {
            "positions": [
                -0.5595694814346149,
                -0.559722956599855,
                0.47403799899289445,
                0.09060169137692808,
                -0.41387303419068644,
                -2.4862324909200018
            ]
        },
        {
            "positions": [
                -0.5316045973630104,
                -0.5880357781297768,
                0.576437193082304,
                -0.061778633038040986,
                -0.3560365002249688,
                -2.5094093238171804
            ]
        },
        {
            "positions": [
                -0.5036397132914058,
                -0.6163485996596986,
                0.6788363871717136,
                -0.21415895745301006,
                -0.29819996625925116,
                -2.532586156714359
            ]
        },
        {
            "positions": [
                -0.4756748292198012,
                -0.6446614211896203,
                0.7812355812611231,
                -0.3665392818679787,
                -0.24036343229353352,
                -2.5557629896115377
            ]
        },
        {
            "positions": [
                -0.4477099451481966,
                -0.6729742427195421,
                0.8836347753505327,
                -0.5189196062829478,
                -0.18252689832781566,
                -2.578939822508717
            ]
        },
        {
            "positions": [
                -0.41974506107659193,
                -0.7012870642494639,
                0.9860339694399423,
                -0.6712999306979173,
                -0.12469036436209802,
                -2.6021166554058954
            ]
        },
        {
            "positions": [
                -0.39178017700498735,
                -0.7295998857793856,
                1.0884331635293518,
                -0.8236802551128863,
                -0.06685383039638015,
                -2.6252934883030745
            ]
        },
        {
            "positions": [
                -0.3638152929333828,
                -0.7579127073093074,
                1.1908323576187614,
                -0.9760605795278554,
                -0.009017296430662514,
                -2.648470321200253
            ]
        },
        {
            "positions": [
                -0.3358504088617782,
                -0.7862255288392291,
                1.293231551708171,
                -1.1284409039428236,
                0.04881923753505513,
                -2.671647154097432
            ]
        },
        {
            "positions": [
                -0.270513981737602,
                -0.836361352431236,
                1.3893487752400804,
                -1.075151284040252,
                0.05989386976083459,
                -2.749934526969247
            ]
        },
        {
            "positions": [
                -0.20517755461342582,
                -0.8864971760232427,
                1.48546599877199,
                -1.0218616641376803,
                0.07096850198661406,
                -2.828221899841062
            ]
        },
        {
            "positions": [
                -0.13984112748924965,
                -0.9366329996152496,
                1.5815832223038995,
                -0.9685720442351086,
                0.08204313421239351,
                -2.9065092727128774
            ]
        },
        {
            "positions": [
                -0.07450470036507345,
                -0.9867688232072563,
                1.677700445835809,
                -0.9152824243325369,
                0.09311776643817299,
                -2.9847966455846926
            ]
        },
        {
            "positions": [
                -0.009168273240897251,
                -1.0369046467992633,
                1.7738176693677183,
                -0.8619928044299652,
                0.10419239866395244,
                -3.0630840184565082
            ]
        },
        {
            "positions": [
                0.05616815388327889,
                -1.08704047039127,
                1.8699348928996278,
                -0.8087031845273935,
                0.1152670308897319,
                -3.1413713913283234
            ]
        },
        {
            "positions": [
                0.12150458100745506,
                -1.1371762939832768,
                1.9660521164315374,
                -0.7554135646248219,
                0.12634166311551137,
                -3.2196587642001386
            ]
        }
    ]
}