{
    "goal": {
        "global_pose": {
            "orientation": {
                "w": -0.4816463035849501,
                "x": 0.5182115481033762,
                "y": 0.4908360881923453,
                "z": -0.5084816262002911
            },
            "position": {
                "x": -0.8240239810943604,
                "y": 0.19912469901144506,
                "z": 0.16403168439865112
            }
        },
        "name": "move_to_storage_D"
    },
    "id": "KPIECE_move_to_storage_D_144",
    "joint_names": [
        "shoulder_pan_joint",
        "shoulder_lift_joint",
        "elbow_joint",
        "wrist_1_joint",
        "wrist_2_joint",
        "wrist_3_joint"
    ],
    "metrics": {
        "cart_traj_len": 1.464707568495713,
        "distance_elbow_joint": 1.8431764968645747,
        "distance_shoulder_lift_joint": 0.19940413876412322,
        "distance_shoulder_pan_joint": 0.7068541609774438,
        "distance_wrist_1_joint": 3.8229149266093145,
        "distance_wrist_2_joint": 2.6003862477636854,
        "distance_wrist_3_joint": 3.151856349649681,
        "smoothness": 0.2648769168445418,
        "time": 0.086966319,
        "traj_len": 3.5106398733890125,
        "weighted_distance": 5.005157958976039
    },
    "planner": "KPIECE",
    "start": {
        "state": {
            "elbow_joint": -2.384821990628643,
            "shoulder_lift_joint": -2.278805467437664,
            "shoulder_pan_joint": -0.18546946439364564,
            "wrist_1_joint": 1.4845938187801415,
            "wrist_2_joint": 0.178987772454074,
            "wrist_3_joint": 0.03710569632802521
        }
    },
    "waypoints": [
        {
            "positions": [
                -0.18546946439364564,
                -2.278805467437664,
                -2.384821990628643,
                1.4845938187801415,
                0.178987772454074,
                0.03710569632802521
            ]
        },
        {
            "positions": [
                -0.12412367062394247,
                -2.2537003654362664,
                -2.2135124251251583,
                1.4723497191219181,
                0.2380543783478178,
                0.05878647626308248
            ]
        },
        {
            "positions": [
                -0.0627778768542393,
                -2.2285952634348694,
                -2.042202859621674,
                1.4601056194636948,
                0.29712098424156164,
                0.08046725619813974
            ]
        },
        {
            "positions": [
                -0.0014320830845361288,
                -2.203490161433472,
                -1.870893294118189,
                1.4478615198054714,
                0.35618759013530543,
                0.102148036133197
            ]
        },
        {
            "positions": [
                0.05991371068516704,
                -2.178385059432075,
                -1.6995837286147042,
                1.4356174201472482,
                0.4152541960290492,
                0.12382881606825427
            ]
        },
        {
            "positions": [
                0.12125950445487022,
                -2.1532799574306773,
                -1.5282741631112193,
                1.4233733204890249,
                0.4743208019227931,
                0.14550959600331154
            ]
        },
        {
            "positions": [
                0.1826052982245734,
                -2.1281748554292803,
                -1.3569645976077347,
                1.4111292208308015,
                0.5333874078165368,
                0.1671903759383688
            ]
        },
        {
            "positions": [
                0.24395109199427656,
                -2.103069753427883,
                -1.1856550321042498,
                1.3988851211725781,
                0.5924540137102807,
                0.18887115587342607
            ]
        },
        {
            "positions": [
                0.23285374781069573,
                -2.1040164904180565,
                -1.211415413637857,
                1.2493968720125082,
                0.5049772134499816,
                0.3088747914775973
            ]
        },
        {
            "positions": [
                0.22175640362711488,
                -2.10496322740823,
                -1.2371757951714644,
                1.099908622852438,
                0.41750041318968245,
                0.4288784270817685
            ]
        },
        {
            "positions": [
                0.21065905944353405,
                -2.105909964398404,
                -1.2629361767050715,
                0.950420373692368,
                0.3300236129293833,
                0.5488820626859398
            ]
        },
        {
            "positions": [
                0.1995617152599532,
                -2.1068567013885775,
                -1.288696558238679,
                0.8009321245322979,
                0.24254681266908418,
                0.668885698290111
            ]
        },
        {
            "positions": [
                0.18846437107637237,
                -2.107803438378751,
                -1.314456939772286,
                0.6514438753722278,
                0.15507001240878504,
                0.7888893338942823
            ]
        },
        {
            "positions": [
                0.17736702689279155,
                -2.108750175368925,
                -1.3402173213058934,
                0.5019556262121578,
                0.0675932121484859,
                0.9088929694984534
            ]
        },
        {
            "positions": [
                0.1662696827092107,
                -2.1096969123590985,
                -1.3659777028395006,
                0.35246737705208764,
                -0.019883588111813233,
                1.0288966051026247
            ]
        },
        {
            "positions": [
                0.15517233852562984,
                -2.110643649349272,
                -1.3917380843731078,
                0.20297912789201766,
                -0.10736038837211237,
                1.1489002407067959
            ]
        },
        {
            "positions": [
                0.144074994342049,
                -2.111590386339446,
                -1.4174984659067151,
                0.05349087873194769,
                -0.1948371886324114,
                1.2689038763109672
            ]
        },
        {
            "positions": [
                0.13297765015846819,
                -2.1125371233296195,
                -1.4432588474403225,
                -0.09599737042812251,
                -0.28231398889271064,
                1.3889075119151384
            ]
        },
        {
            "positions": [
                0.12188030597488735,
                -2.113483860319793,
                -1.4690192289739297,
                -0.24548561958819248,
                -0.3697907891530098,
                1.5089111475193095
            ]
        },
        {
            "positions": [
                0.1107829617913065,
                -2.114430597309967,
                -1.4947796105075368,
                -0.39497386874826246,
                -0.4572675894133089,
                1.6289147831234807
            ]
        },
        {
            "positions": [
                0.09968561760772568,
                -2.115377334300141,
                -1.5205399920411442,
                -0.5444621179083327,
                -0.5447443896736079,
                1.7489184187276519
            ]
        },
        {
            "positions": [
                0.08858827342414483,
                -2.1163240712903146,
                -1.5463003735747514,
                -0.6939503670684029,
                -0.6322211899339072,
                1.8689220543318235
            ]
        },
        {
            "positions": [
                0.077490929240564,
                -2.1172708082804883,
                -1.5720607551083585,
                -0.8434386162284726,
                -0.7196979901942062,
                1.9889256899359942
            ]
        },
        {
            "positions": [
                0.06639358505698315,
                -2.118217545270662,
                -1.597821136641966,
                -0.9929268653885428,
                -0.8071747904545055,
                2.1089293255401658
            ]
        },
        {
            "positions": [
                0.05529624087340232,
                -2.1191642822608356,
                -1.6235815181755733,
                -1.142415114548613,
                -0.8946515907148047,
                2.228932961144337
            ]
        },
        {
            "positions": [
                0.04419889668982149,
                -2.1201110192510093,
                -1.6493418997091804,
                -1.2919033637086828,
                -0.9821283909751035,
                2.348936596748508
            ]
        },
        {
            "positions": [
                0.03310155250624064,
                -2.121057756241183,
                -1.6751022812427876,
                -1.441391612868753,
                -1.0696051912354028,
                2.4689402323526792
            ]
        },
        {
            "positions": [
                0.022004208322659813,
                -2.1220044932313566,
                -1.700862662776395,
                -1.5908798620288231,
                -1.157081991495702,
                2.588943867956851
            ]
        },
        {
            "positions": [
                0.010906864139078987,
                -2.1229512302215303,
                -1.7266230443100021,
                -1.740368111188893,
                -1.244558791756001,
                2.7089475035610215
            ]
        },
        {
            "positions": [
                -0.00019048004450186728,
                -2.123897967211704,
                -1.7523834258436093,
                -1.889856360348963,
                -1.3320355920163003,
                2.828951139165193
            ]
        },
        {
            "positions": [
                -0.011287824228082721,
                -2.1248447042018777,
                -1.7781438073772167,
                -2.0393446095090333,
                -1.4195123922765995,
                2.9489547747693643
            ]
        },
        {
            "positions": [
                -0.022385168411663547,
                -2.1257914411920513,
                -1.803904188910824,
                -2.188832858669103,
                -1.5069891925368986,
                3.0689584103735355
            ]
        },
        {
            "positions": [
                -0.03348251259524437,
                -2.126738178182225,
                -1.8296645704444312,
                -2.3383211078291732,
                -1.5944659927971976,
                3.1889620459777066
            ]
        }
    ]
}