{
    "goal": {
        "global_pose": {
            "orientation": {
                "w": -0.00223480608172531,
                "x": 0.0024358444001904467,
                "y": 0.7094548369677653,
                "z": -0.704743149386269
            },
            "position": {
                "x": -0.37947507619857795,
                "y": -0.6371506643295288,
                "z": 0.19426114857196808
            }
        },
        "name": "move_to_magneteinheit_C"
    },
    "id": "KPIECE_move_to_magneteinheit_C_86",
    "joint_names": [
        "shoulder_pan_joint",
        "shoulder_lift_joint",
        "elbow_joint",
        "wrist_1_joint",
        "wrist_2_joint",
        "wrist_3_joint"
    ],
    "metrics": {
        "cart_traj_len": 2.408242041279358,
        "distance_elbow_joint": 1.6812161955528355,
        "distance_shoulder_lift_joint": 1.2719481103262338,
        "distance_shoulder_pan_joint": 3.276506689652187,
        "distance_wrist_1_joint": 4.432573040661335,
        "distance_wrist_2_joint": 3.945319213912448,
        "distance_wrist_3_joint": 0.0385485738071627,
        "smoothness": 0.8387263567659999,
        "time": 0.264938454,
        "traj_len": 3.827023885986629,
        "weighted_distance": 4.8063604968937055
    },
    "planner": "KPIECE",
    "start": {
        "state": {
            "elbow_joint": 1.9565354006593851,
            "shoulder_lift_joint": -1.4165861576512813,
            "shoulder_pan_joint": -1.6717766223278752,
            "wrist_1_joint": -0.528663328821883,
            "wrist_2_joint": 1.472756589259273,
            "wrist_3_joint": 3.159348288315503
        }
    },
    "waypoints": [
        {
            "positions": [
                -1.6717766223278752,
                -1.4165861576512813,
                1.9565354006593851,
                -0.528663328821883,
                1.472756589259273,
                3.159348288315503
            ]
        },
        {
            "positions": [
                -1.6030435845790632,
                -1.444885672779682,
                2.0046955748047273,
                -0.4139102147214687,
                1.3408662303973378,
                3.15746020627355
            ]
        },
        {
            "positions": [
                -1.5343105468302511,
                -1.4731851879080826,
                2.052855748950069,
                -0.2991571006210544,
                1.2089758715354024,
                3.155572124231597
            ]
        },
        {
            "positions": [
                -1.4655775090814394,
                -1.5014847030364833,
                2.101015923095411,
                -0.18440398652064005,
                1.077085512673467,
                3.153684042189644
            ]
        },
        {
            "positions": [
                -1.3968444713326273,
                -1.529784218164884,
                2.149176097240753,
                -0.06965087242022572,
                0.9451951538115319,
                3.151795960147691
            ]
        },
        {
            "positions": [
                -1.3281114335838153,
                -1.5580837332932846,
                2.197336271386095,
                0.045102241680188615,
                0.8133047949495965,
                3.1499078781057377
            ]
        },
        {
            "positions": [
                -1.2593783958350033,
                -1.5863832484216853,
                2.245496445531437,
                0.15985535578060295,
                0.6814144360876613,
                3.148019796063785
            ]
        },
        {
            "positions": [
                -1.1906453580861913,
                -1.614682763550086,
                2.2936566196767787,
                0.2746084698810173,
                0.5495240772257258,
                3.146131714021832
            ]
        },
        {
            "positions": [
                -1.1219123203373793,
                -1.6429822786784867,
                2.341816793822121,
                0.3893615839814316,
                0.4176337183637906,
                3.1442436319798786
            ]
        },
        {
            "positions": [
                -1.0531792825885673,
                -1.6712817938068874,
                2.389976967967463,
                0.504114698081846,
                0.28574335950185525,
                3.1423555499379257
            ]
        },
        {
            "positions": [
                -0.9844462448397554,
                -1.699581308935288,
                2.438137142112805,
                0.6188678121822603,
                0.1538530006399199,
                3.1404674678959728
            ]
        },
        {
            "positions": [
                -0.9157132070909434,
                -1.7278808240636887,
                2.4862973162581468,
                0.7336209262826746,
                0.02196264177798457,
                3.1385793858540194
            ]
        },
        {
            "positions": [
                -0.8469801693421315,
                -1.7561803391920894,
                2.5344574904034887,
                0.848374040383089,
                -0.10992771708395055,
                3.1366913038120665
            ]
        },
        {
            "positions": [
                -0.7782471315933195,
                -1.78447985432049,
                2.5826176645488306,
                0.9631271544835033,
                -0.2418180759458859,
                3.1348032217701136
            ]
        },
        {
            "positions": [
                -0.7095140938445076,
                -1.8127793694488907,
                2.630777838694173,
                1.0778802685839177,
                -0.37370843480782145,
                3.1329151397281603
            ]
        },
        {
            "positions": [
                -0.6407810560956955,
                -1.8410788845772914,
                2.678938012839515,
                1.192633382684332,
                -0.5055987936697568,
                3.1310270576862074
            ]
        },
        {
            "positions": [
                -0.5720480183468837,
                -1.869378399705692,
                2.7270981869848567,
                1.3073864967847464,
                -0.6374891525316919,
                3.1291389756442545
            ]
        },
        {
            "positions": [
                -0.5033149805980717,
                -1.8976779148340928,
                2.7752583611301986,
                1.4221396108851607,
                -0.769379511393627,
                3.127250893602301
            ]
        },
        {
            "positions": [
                -0.43458194284925966,
                -1.9259774299624934,
                2.8234185352755405,
                1.536892724985575,
                -0.9012698702555624,
                3.1253628115603482
            ]
        },
        {
            "positions": [
                -0.5365475433579382,
                -1.8878495880617423,
                2.7827018822287064,
                1.4185418756428811,
                -0.8227052325356816,
                3.125134656707748
            ]
        },
        {
            "positions": [
                -0.6385131438666167,
                -1.8497217461609914,
                2.7419852291818727,
                1.3001910263001875,
                -0.744140594815801,
                3.1249065018551474
            ]
        },
        {
            "positions": [
                -0.7404787443752954,
                -1.8115939042602403,
                2.7012685761350386,
                1.1818401769574935,
                -0.6655759570959202,
                3.124678347002547
            ]
        },
        {
            "positions": [
                -0.8424443448839739,
                -1.7734660623594891,
                2.6605519230882044,
                1.0634893276147999,
                -0.5870113193760396,
                3.1244501921499466
            ]
        },
        {
            "positions": [
                -0.9444099453926524,
                -1.735338220458738,
                2.6198352700413707,
                0.945138478272106,
                -0.5084466816561588,
                3.124222037297346
            ]
        },
        {
            "positions": [
                -1.046375545901331,
                -1.6972103785579868,
                2.5791186169945366,
                0.8267876289294122,
                -0.4298820439362781,
                3.1239938824447457
            ]
        },
        {
            "positions": [
                -1.1483411464100095,
                -1.659082536657236,
                2.5384019639477025,
                0.7084367795867184,
                -0.3513174062163974,
                3.1237657275921453
            ]
        },
        {
            "positions": [
                -1.2503067469186881,
                -1.6209546947564848,
                2.4976853109008683,
                0.5900859302440244,
                -0.27275276849651664,
                3.123537572739545
            ]
        },
        {
            "positions": [
                -1.3522723474273666,
                -1.5828268528557337,
                2.4569686578540346,
                0.47173508090133054,
                -0.19418813077663588,
                3.1233094178869445
            ]
        },
        {
            "positions": [
                -1.4542379479360452,
                -1.5446990109549827,
                2.4162520048072005,
                0.35338423155863685,
                -0.11562349305675523,
                3.1230812630343445
            ]
        },
        {
            "positions": [
                -1.5562035484447239,
                -1.5065711690542316,
                2.3755353517603663,
                0.23503338221594294,
                -0.037058855336874474,
                3.122853108181744
            ]
        },
        {
            "positions": [
                -1.6581691489534023,
                -1.4684433271534805,
                2.3348186987135326,
                0.11668253287324926,
                0.04150578238300617,
                3.1226249533291437
            ]
        },
        {
            "positions": [
                -1.760134749462081,
                -1.4303154852527293,
                2.2941020456666985,
                -0.0016683164694446528,
                0.12007042010288704,
                3.1223967984765433
            ]
        },
        {
            "positions": [
                -1.8621003499707593,
                -1.3921876433519782,
                2.2533853926198644,
                -0.12001916581213834,
                0.19863505782276758,
                3.122168643623943
            ]
        },
        {
            "positions": [
                -1.964065950479438,
                -1.3540598014512273,
                2.2126687395730302,
                -0.23837001515483225,
                0.27719969554264834,
                3.1219404887713424
            ]
        },
        {
            "positions": [
                -2.0660315509881166,
                -1.3159319595504761,
                2.1719520865261965,
                -0.35672086449752616,
                0.3557643332625291,
                3.121712333918742
            ]
        },
        {
            "positions": [
                -2.1679971514967953,
                -1.2778041176497252,
                2.1312354334793624,
                -0.4750717138402196,
                0.43432897098240963,
                3.1214841790661416
            ]
        },
        {
            "positions": [
                -2.2699627520054735,
                -1.239676275748974,
                2.0905187804325283,
                -0.593422563182914,
                0.5128936087022906,
                3.121256024213541
            ]
        },
        {
            "positions": [
                -2.371928352514152,
                -1.201548433848223,
                2.0498021273856946,
                -0.7117734125256074,
                0.5914582464221712,
                3.121027869360941
            ]
        },
        {
            "positions": [
                -2.4738939530228308,
                -1.1634205919474718,
                2.0090854743388604,
                -0.8301242618683013,
                0.670022884142052,
                3.1207997145083404
            ]
        }
    ]
}