{
    "goal": {
        "global_pose": {
            "orientation": {
                "w": 0.7031023480610252,
                "x": -0.7110244013736278,
                "y": 0.0077485991402295624,
                "z": 0.005598929693374583
            },
            "position": {
                "x": -0.8841497679147869,
                "y": 0.44412534475326537,
                "z": 0.3711530566215515
            }
        },
        "name": "move_to_auspresseinheit_D"
    },
    "id": "KPIECE_move_to_auspresseinheit_D_4",
    "joint_names": [
        "shoulder_pan_joint",
        "shoulder_lift_joint",
        "elbow_joint",
        "wrist_1_joint",
        "wrist_2_joint",
        "wrist_3_joint"
    ],
    "metrics": {
        "cart_traj_len": 0.34455452845300766,
        "distance_elbow_joint": 0.6531839601068046,
        "distance_shoulder_lift_joint": 0.12891864578369727,
        "distance_shoulder_pan_joint": 0.13487077374193526,
        "distance_wrist_1_joint": 0.585382577790476,
        "distance_wrist_2_joint": 1.4294083281937728,
        "distance_wrist_3_joint": 0.05419239682774535,
        "smoothness": 0.0,
        "time": 0.08876737800000001,
        "traj_len": 1.7279920955966297,
        "weighted_distance": 2.2603389971604195
    },
    "planner": "KPIECE",
    "start": {
        "state": {
            "elbow_joint": -1.8275484843655228,
            "shoulder_lift_joint": -2.1267897864000416,
            "shoulder_pan_joint": -0.035127520176001514,
            "wrist_1_joint": -2.3477863256791385,
            "wrist_2_joint": -1.605890476484521,
            "wrist_3_joint": -3.0880375317375353
        }
    },
    "waypoints": [
        {
            "positions": [
                -0.035127520176001514,
                -2.1267897864000416,
                -1.8275484843655228,
                -2.3477863256791385,
                -1.605890476484521,
                -3.0880375317375353
            ]
        },
        {
            "positions": [
                -0.05198636689374342,
                -2.142904617123004,
                -1.7459004893521721,
                -2.420959147902948,
                -1.4272144354602994,
                -3.081263482134067
            ]
        },
        {
            "positions": [
                -0.06884521361148532,
                -2.159019447845966,
                -1.6642524943388217,
                -2.4941319701267575,
                -1.2485383944360777,
                -3.0744894325305987
            ]
        },
        {
            "positions": [
                -0.08570406032922724,
                -2.175134278568928,
                -1.582604499325471,
                -2.567304792350567,
                -1.0698623534118563,
                -3.0677153829271306
            ]
        },
        {
            "positions": [
                -0.10256290704696915,
                -2.19124910929189,
                -1.5009565043121205,
                -2.6404776145743765,
                -0.8911863123876346,
                -3.0609413333236626
            ]
        },
        {
            "positions": [
                -0.11942175376471105,
                -2.2073639400148526,
                -1.4193085092987698,
                -2.713650436798186,
                -0.7125102713634129,
                -3.0541672837201945
            ]
        },
        {
            "positions": [
                -0.13628060048245297,
                -2.2234787707378145,
                -1.3376605142854192,
                -2.7868232590219955,
                -0.5338342303391914,
                -3.0473932341167265
            ]
        },
        {
            "positions": [
                -0.15313944720019487,
                -2.2395936014607765,
                -1.2560125192720688,
                -2.859996081245805,
                -0.3551581893149698,
                -3.040619184513258
            ]
        },
        {
            "positions": [
                -0.16999829391793678,
                -2.255708432183739,
                -1.1743645242587182,
                -2.9331689034696145,
                -0.17648214829074807,
                -3.03384513490979
            ]
        }
    ]
}