{
    "goal": {
        "global_pose": {
            "orientation": {
                "w": 0.7047431468963623,
                "x": -0.7094548344612122,
                "y": 0.0024358443915843964,
                "z": -0.0022348060738295317
            },
            "position": {
                "x": 0.6094750761985779,
                "y": 0.3671506643295288,
                "z": 0.19426114857196808
            }
        },
        "name": "move_to_magneteinheit_A"
    },
    "id": "KPIECE_move_to_magneteinheit_A_112",
    "joint_names": [
        "shoulder_pan_joint",
        "shoulder_lift_joint",
        "elbow_joint",
        "wrist_1_joint",
        "wrist_2_joint",
        "wrist_3_joint"
    ],
    "metrics": {
        "cart_traj_len": 1.593860614720476,
        "distance_elbow_joint": 3.5324557803410337,
        "distance_shoulder_lift_joint": 1.1384326275803358,
        "distance_shoulder_pan_joint": 1.2426687185098515,
        "distance_wrist_1_joint": 3.8580506991882446,
        "distance_wrist_2_joint": 1.710649929753524,
        "distance_wrist_3_joint": 5.054003421441542,
        "smoothness": 8.468677971473364e-16,
        "time": 0.077329992,
        "traj_len": 4.066480195059917,
        "weighted_distance": 5.675646980621626
    },
    "planner": "KPIECE",
    "start": {
        "state": {
            "elbow_joint": -1.5739458827952972,
            "shoulder_lift_joint": 0.006533473998580023,
            "shoulder_pan_joint": -1.1188671628667068,
            "wrist_1_joint": 3.138208179676308,
            "wrist_2_joint": -1.5706037135050406,
            "wrist_3_joint": -2.0226958329764257
        }
    },
    "waypoints": [
        {
            "positions": [
                -1.1188671628667068,
                0.006533473998580023,
                -1.5739458827952972,
                3.138208179676308,
                -1.5706037135050406,
                -2.0226958329764257
            ]
        },
        {
            "positions": [
                -1.0892798124259961,
                -0.020572064753332734,
                -1.4898397927871774,
                3.0463498296956355,
                -1.5298739532728138,
                -1.9023624181801986
            ]
        },
        {
            "positions": [
                -1.0596924619852854,
                -0.04767760350524549,
                -1.4057337027790575,
                2.9544914797149633,
                -1.489144193040587,
                -1.7820290033839714
            ]
        },
        {
            "positions": [
                -1.0301051115445745,
                -0.07478314225715825,
                -1.3216276127709377,
                2.8626331297342906,
                -1.4484144328083604,
                -1.6616955885877442
            ]
        },
        {
            "positions": [
                -1.0005177611038638,
                -0.101888681009071,
                -1.2375215227628178,
                2.7707747797536184,
                -1.4076846725761336,
                -1.541362173791517
            ]
        },
        {
            "positions": [
                -0.9709304106631531,
                -0.12899421976098374,
                -1.153415432754698,
                2.6789164297729458,
                -1.3669549123439069,
                -1.42102875899529
            ]
        },
        {
            "positions": [
                -0.9413430602224424,
                -0.1560997585128965,
                -1.0693093427465783,
                2.587058079792273,
                -1.3262251521116801,
                -1.3006953441990627
            ]
        },
        {
            "positions": [
                -0.9117557097817316,
                -0.18320529726480925,
                -0.9852032527384583,
                2.495199729811601,
                -1.2854953918794534,
                -1.1803619294028356
            ]
        },
        {
            "positions": [
                -0.8821683593410209,
                -0.210310836016722,
                -0.9010971627303385,
                2.403341379830928,
                -1.2447656316472264,
                -1.0600285146066084
            ]
        },
        {
            "positions": [
                -0.8525810089003101,
                -0.23741637476863478,
                -0.8169910727222186,
                2.3114830298502556,
                -1.2040358714149997,
                -0.939695099810381
            ]
        },
        {
            "positions": [
                -0.8229936584595994,
                -0.26452191352054755,
                -0.7328849827140987,
                2.2196246798695833,
                -1.163306111182773,
                -0.8193616850141539
            ]
        },
        {
            "positions": [
                -0.7934063080188886,
                -0.29162745227246034,
                -0.6487788927059789,
                2.1277663298889107,
                -1.1225763509505462,
                -0.6990282702179267
            ]
        },
        {
            "positions": [
                -0.7638189575781779,
                -0.3187329910243731,
                -0.5646728026978591,
                2.035907979908238,
                -1.0818465907183195,
                -0.5786948554216995
            ]
        },
        {
            "positions": [
                -0.734231607137467,
                -0.3458385297762859,
                -0.48056671268973905,
                1.9440496299275658,
                -1.0411168304860925,
                -0.45836144062547235
            ]
        },
        {
            "positions": [
                -0.7046442566967563,
                -0.37294406852819856,
                -0.3964606226816194,
                1.8521912799468934,
                -1.000387070253866,
                -0.3380280258292452
            ]
        },
        {
            "positions": [
                -0.6750569062560456,
                -0.40004960728011135,
                -0.31235453267349955,
                1.7603329299662207,
                -0.9596573100216391,
                -0.2176946110330178
            ]
        },
        {
            "positions": [
                -0.6454695558153349,
                -0.4271551460320241,
                -0.2282484426653797,
                1.6684745799855485,
                -0.9189275497894124,
                -0.09736119623679085
            ]
        },
        {
            "positions": [
                -0.6158822053746241,
                -0.4542606847839369,
                -0.14414235265725983,
                1.5766162300048758,
                -0.8781977895571856,
                0.02297221855943654
            ]
        },
        {
            "positions": [
                -0.5862948549339134,
                -0.4813662235358496,
                -0.06003626264913997,
                1.4847578800242034,
                -0.8374680293249589,
                0.1433056333556637
            ]
        },
        {
            "positions": [
                -0.5567075044932026,
                -0.5084717622877624,
                0.02406982735897989,
                1.3928995300435307,
                -0.796738269092732,
                0.2636390481518909
            ]
        },
        {
            "positions": [
                -0.5271201540524919,
                -0.535577301039675,
                0.10817591736709975,
                1.3010411800628585,
                -0.7560085088605054,
                0.38397246294811804
            ]
        },
        {
            "positions": [
                -0.4975328036117811,
                -0.5626828397915878,
                0.1922820073752196,
                1.2091828300821859,
                -0.7152787486282786,
                0.5043058777443452
            ]
        },
        {
            "positions": [
                -0.4679454531710703,
                -0.5897883785435006,
                0.27638809738333947,
                1.1173244801015132,
                -0.6745489883960517,
                0.6246392925405724
            ]
        },
        {
            "positions": [
                -0.4383581027303596,
                -0.6168939172954134,
                0.36049418739145955,
                1.0254661301208405,
                -0.633819228163825,
                0.7449727073368
            ]
        },
        {
            "positions": [
                -0.4087707522896489,
                -0.6439994560473261,
                0.44460027739957897,
                0.9336077801401683,
                -0.5930894679315983,
                0.8653061221330267
            ]
        },
        {
            "positions": [
                -0.37918340184893806,
                -0.6711049947992389,
                0.5287063674076988,
                0.8417494301594961,
                -0.5523597076993716,
                0.9856395369292539
            ]
        },
        {
            "positions": [
                -0.34959605140822736,
                -0.6982105335511517,
                0.6128124574158191,
                0.7498910801788234,
                -0.5116299474671446,
                1.105972951725481
            ]
        },
        {
            "positions": [
                -0.32000870096751655,
                -0.7253160723030644,
                0.696918547423939,
                0.6580327301981508,
                -0.4709001872349179,
                1.2263063665217087
            ]
        },
        {
            "positions": [
                -0.29042135052680584,
                -0.7524216110549771,
                0.7810246374320584,
                0.5661743802174786,
                -0.43017042700269137,
                1.3466397813179354
            ]
        },
        {
            "positions": [
                -0.26083400008609514,
                -0.7795271498068899,
                0.8651307274401783,
                0.4743160302368059,
                -0.3894406667704644,
                1.4669731961141625
            ]
        },
        {
            "positions": [
                -0.23124664964538433,
                -0.8066326885588027,
                0.9492368174482981,
                0.38245768025613325,
                -0.34871090653823766,
                1.5873066109103902
            ]
        },
        {
            "positions": [
                -0.20165929920467351,
                -0.8337382273107155,
                1.0333429074564184,
                0.2905993302754606,
                -0.3079811463060109,
                1.7076400257066173
            ]
        },
        {
            "positions": [
                -0.17207194876396292,
                -0.8608437660626281,
                1.1174489974645379,
                0.19874098029478882,
                -0.2672513860737842,
                1.827973440502844
            ]
        },
        {
            "positions": [
                -0.1424845983232521,
                -0.8879493048145409,
                1.2015550874726577,
                0.10688263031411616,
                -0.22652162584155744,
                1.9483068552990712
            ]
        },
        {
            "positions": [
                -0.11289724788254141,
                -0.9150548435664537,
                1.2856611774807776,
                0.015024280333443496,
                -0.1857918656093307,
                2.068640270095299
            ]
        },
        {
            "positions": [
                -0.08330989744183048,
                -0.9421603823183665,
                1.3697672674888974,
                -0.07683406964722916,
                -0.14506210537710373,
                2.188973684891526
            ]
        },
        {
            "positions": [
                -0.05372254700112,
                -0.9692659210702792,
                1.4538733574970173,
                -0.16869241962790138,
                -0.10433234514487721,
                2.309307099687753
            ]
        },
        {
            "positions": [
                -0.024135196560409078,
                -0.996371459822192,
                1.5379794475051372,
                -0.26055076960857404,
                -0.06360258491265047,
                2.4296405144839803
            ]
        },
        {
            "positions": [
                0.0054521538803016245,
                -1.0234769985741048,
                1.622085537513257,
                -0.3524091195892467,
                -0.02287282468042351,
                2.5499739292802075
            ]
        },
        {
            "positions": [
                0.03503950432101255,
                -1.0505825373260176,
                1.7061916275213769,
                -0.4442674695699189,
                0.017856935551803232,
                2.6703073440764347
            ]
        },
        {
            "positions": [
                0.06462685476172303,
                -1.0776880760779302,
                1.7902977175294967,
                -0.5361258195505911,
                0.05858669578402975,
                2.790640758872662
            ]
        },
        {
            "positions": [
                0.09421420520243395,
                -1.104793614829843,
                1.8744038075376166,
                -0.6279841695312638,
                0.09931645601625672,
                2.910974173668889
            ]
        },
        {
            "positions": [
                0.12380155564314464,
                -1.1318991535817557,
                1.9585098975457365,
                -0.7198425195119365,
                0.14004621624848354,
                3.031307588465116
            ]
        }
    ]
}