{
    "goal": {
        "global_pose": {
            "orientation": {
                "w": 0.5084816262002911,
                "x": -0.4908360881923452,
                "y": 0.5182115481033761,
                "z": -0.48164630358495003
            },
            "position": {
                "x": 0.5540239810943604,
                "y": -0.46912469901144505,
                "z": 0.16403168439865112
            }
        },
        "name": "move_to_storage_B"
    },
    "id": "KPIECE_move_to_storage_B_45",
    "joint_names": [
        "shoulder_pan_joint",
        "shoulder_lift_joint",
        "elbow_joint",
        "wrist_1_joint",
        "wrist_2_joint",
        "wrist_3_joint"
    ],
    "metrics": {
        "cart_traj_len": 0.8745215915652653,
        "distance_elbow_joint": 0.8431481169447312,
        "distance_shoulder_lift_joint": 0.5231092249317435,
        "distance_shoulder_pan_joint": 0.684882177219768,
        "distance_wrist_1_joint": 3.3288172226781345,
        "distance_wrist_2_joint": 2.700807993183765,
        "distance_wrist_3_joint": 3.1152376335800596,
        "smoothness": 0.4027760727299529,
        "time": 0.13457127400000002,
        "traj_len": 3.346042792394951,
        "weighted_distance": 4.84315009591487
    },
    "planner": "KPIECE",
    "start": {
        "state": {
            "elbow_joint": 1.6649325340416963,
            "shoulder_lift_joint": -0.6616387945129425,
            "shoulder_pan_joint": -0.9139837929255878,
            "wrist_1_joint": 2.1467571094334352,
            "wrist_2_joint": -2.234195976750228,
            "wrist_3_joint": 0.005470921511140723
        }
    },
    "waypoints": [
        {
            "positions": [
                -0.9139837929255878,
                -0.6616387945129425,
                1.6649325340416963,
                2.1467571094334352,
                -2.234195976750228,
                0.005470921511140723
            ]
        },
        {
            "positions": [
                -0.7882037688299294,
                -0.6456549488142612,
                1.5428960885479643,
                2.2257790636094077,
                -2.223590600742931,
                -0.0062106625751873245
            ]
        },
        {
            "positions": [
                -0.6624237447342709,
                -0.6296711031155799,
                1.4208596430542324,
                2.3048010177853797,
                -2.2129852247356343,
                -0.01789224666151537
            ]
        },
        {
            "positions": [
                -0.6784727124760653,
                -0.64786153028352,
                1.443047614385983,
                2.187364969106632,
                -2.1137408824701094,
                -0.13240611575067845
            ]
        },
        {
            "positions": [
                -0.6945216802178599,
                -0.6660519574514601,
                1.4652355857177337,
                2.069928920427884,
                -2.0144965402045845,
                -0.24691998483984154
            ]
        },
        {
            "positions": [
                -0.7105706479596543,
                -0.6842423846194,
                1.4874235570494843,
                1.9524928717491363,
                -1.9152521979390598,
                -0.3614338539290046
            ]
        },
        {
            "positions": [
                -0.7266196157014488,
                -0.7024328117873401,
                1.509611528381235,
                1.8350568230703888,
                -1.8160078556735348,
                -0.4759477230181677
            ]
        },
        {
            "positions": [
                -0.7426685834432433,
                -0.7206232389552801,
                1.5317994997129856,
                1.717620774391641,
                -1.71676351340801,
                -0.5904615921073307
            ]
        },
        {
            "positions": [
                -0.7587175511850378,
                -0.7388136661232202,
                1.5539874710447363,
                1.6001847257128932,
                -1.6175191711424852,
                -0.7049754611964939
            ]
        },
        {
            "positions": [
                -0.7747665189268322,
                -0.7570040932911601,
                1.5761754423764869,
                1.4827486770341454,
                -1.5182748288769603,
                -0.819489330285657
            ]
        },
        {
            "positions": [
                -0.7908154866686268,
                -0.7751945204591002,
                1.5983634137082374,
                1.3653126283553978,
                -1.4190304866114354,
                -0.93400319937482
            ]
        },
        {
            "positions": [
                -0.8068644544104212,
                -0.7933849476270403,
                1.6205513850399882,
                1.24787657967665,
                -1.3197861443459105,
                -1.0485170684639833
            ]
        },
        {
            "positions": [
                -0.8229134221522157,
                -0.8115753747949803,
                1.6427393563717387,
                1.1304405309979022,
                -1.2205418020803855,
                -1.1630309375531462
            ]
        },
        {
            "positions": [
                -0.8389623898940102,
                -0.8297658019629204,
                1.6649273277034895,
                1.0130044823191544,
                -1.1212974598148608,
                -1.2775448066423094
            ]
        },
        {
            "positions": [
                -0.8550113576358047,
                -0.8479562291308603,
                1.68711529903524,
                0.8955684336404066,
                -1.022053117549336,
                -1.3920586757314726
            ]
        },
        {
            "positions": [
                -0.8710603253775991,
                -0.8661466562988004,
                1.7093032703669908,
                0.7781323849616588,
                -0.922808775283811,
                -1.5065725448206355
            ]
        },
        {
            "positions": [
                -0.8871092931193937,
                -0.8843370834667404,
                1.7314912416987414,
                0.660696336282911,
                -0.8235644330182861,
                -1.6210864139097987
            ]
        },
        {
            "positions": [
                -0.9031582608611881,
                -0.9025275106346805,
                1.7536792130304921,
                0.5432602876041632,
                -0.7243200907527612,
                -1.7356002829989619
            ]
        },
        {
            "positions": [
                -0.9192072286029827,
                -0.9207179378026205,
                1.7758671843622427,
                0.42582423892541565,
                -0.6250757484872365,
                -1.8501141520881248
            ]
        },
        {
            "positions": [
                -0.9352561963447772,
                -0.9389083649705605,
                1.7980551556939934,
                0.30838819024666764,
                -0.5258314062217115,
                -1.9646280211772882
            ]
        },
        {
            "positions": [
                -0.9513051640865715,
                -0.9570987921385006,
                1.820243127025744,
                0.19095214156792029,
                -0.4265870639561866,
                -2.079141890266451
            ]
        },
        {
            "positions": [
                -0.967354131828366,
                -0.9752892193064406,
                1.8424310983574945,
                0.07351609288917205,
                -0.3273427216906617,
                -2.193655759355614
            ]
        },
        {
            "positions": [
                -0.9834030995701606,
                -0.9934796464743807,
                1.8646190696892453,
                -0.043919955789575305,
                -0.228098379425137,
                -2.308169628444777
            ]
        },
        {
            "positions": [
                -0.999452067311955,
                -1.0116700736423208,
                1.8868070410209958,
                -0.16135600446832354,
                -0.12885403715961186,
                -2.4226834975339404
            ]
        },
        {
            "positions": [
                -1.0155010350537494,
                -1.0298605008102606,
                1.9089950123527466,
                -0.2787920531470709,
                -0.02960969489408738,
                -2.5371973666231034
            ]
        },
        {
            "positions": [
                -1.031550002795544,
                -1.0480509279782009,
                1.9311829836844971,
                -0.3962281018258187,
                0.06963464737143754,
                -2.6517112357122667
            ]
        },
        {
            "positions": [
                -1.0475989705373385,
                -1.0662413551461407,
                1.953370955016248,
                -0.5136641505045665,
                0.16887898963696246,
                -2.7662251048014297
            ]
        },
        {
            "positions": [
                -1.063647938279133,
                -1.0844317823140808,
                1.9755589263479985,
                -0.6311001991833143,
                0.2681233319024874,
                -2.8807389738905926
            ]
        },
        {
            "positions": [
                -1.0796969060209274,
                -1.1026222094820208,
                1.997746897679749,
                -0.7485362478620621,
                0.3673676741680123,
                -2.9952528429797556
            ]
        },
        {
            "positions": [
                -1.095745873762722,
                -1.120812636649961,
                2.0199348690114998,
                -0.8659722965408101,
                0.4666120164335371,
                -3.109766712068919
            ]
        }
    ]
}