{
    "goal": {
        "global_pose": {
            "orientation": {
                "w": 0.005598929693374612,
                "x": 0.007748599140229565,
                "y": 0.7110244013736278,
                "z": -0.7031023480610252
            },
            "position": {
                "x": -0.8858502320852131,
                "y": -0.7141253447532654,
                "z": 0.3711530566215515
            }
        },
        "name": "move_to_auspresseinheit_C"
    },
    "id": "KPIECE_move_to_auspresseinheit_C_10",
    "joint_names": [
        "shoulder_pan_joint",
        "shoulder_lift_joint",
        "elbow_joint",
        "wrist_1_joint",
        "wrist_2_joint",
        "wrist_3_joint"
    ],
    "metrics": {
        "cart_traj_len": 0.49198865718065526,
        "distance_elbow_joint": 0.9924418871684634,
        "distance_shoulder_lift_joint": 0.3211062055546766,
        "distance_shoulder_pan_joint": 0.2561607692334782,
        "distance_wrist_1_joint": 0.6710927661917929,
        "distance_wrist_2_joint": 1.3017702207962143,
        "distance_wrist_3_joint": 0.05877203038677825,
        "smoothness": 6.45947944157498e-16,
        "time": 0.012195099,
        "traj_len": 1.8977207063557595,
        "weighted_distance": 2.385739073556236
    },
    "planner": "KPIECE",
    "start": {
        "state": {
            "elbow_joint": 1.7527959577730765,
            "shoulder_lift_joint": -0.9740617694224828,
            "shoulder_pan_joint": -2.967991417825869,
            "wrist_1_joint": -0.7595177689779385,
            "wrist_2_joint": 1.7443932448376545,
            "wrist_3_joint": 3.1991315425061013
        }
    },
    "waypoints": [
        {
            "positions": [
                -2.967991417825869,
                -0.9740617694224828,
                1.7527959577730765,
                -0.7595177689779385,
                1.7443932448376545,
                3.1991315425061013
            ]
        },
        {
            "positions": [
                -2.942375340902521,
                -0.9419511488670151,
                1.6535517690562302,
                -0.6924084923587592,
                1.614216222758033,
                3.1932543394674235
            ]
        },
        {
            "positions": [
                -2.9167592639791735,
                -0.9098405283115475,
                1.5543075803393838,
                -0.6252992157395799,
                1.4840392006784116,
                3.1873771364287458
            ]
        },
        {
            "positions": [
                -2.8911431870558255,
                -0.8777299077560798,
                1.4550633916225375,
                -0.5581899391204007,
                1.35386217859879,
                3.181499933390068
            ]
        },
        {
            "positions": [
                -2.865527110132478,
                -0.8456192872006121,
                1.3558192029056912,
                -0.49108066250122134,
                1.2236851565191689,
                3.17562273035139
            ]
        },
        {
            "positions": [
                -2.83991103320913,
                -0.8135086666451445,
                1.2565750141888448,
                -0.4239713858820421,
                1.0935081344395474,
                3.1697455273127124
            ]
        },
        {
            "positions": [
                -2.814294956285782,
                -0.7813980460896768,
                1.1573308254719985,
                -0.3568621092628628,
                0.9633311123599259,
                3.163868324274034
            ]
        },
        {
            "positions": [
                -2.7886788793624344,
                -0.7492874255342092,
                1.058086636755152,
                -0.2897528326436835,
                0.8331540902803045,
                3.1579911212353564
            ]
        },
        {
            "positions": [
                -2.7630628024390864,
                -0.7171768049787415,
                0.9588424480383058,
                -0.22264355602450414,
                0.7029770682006831,
                3.1521139181966786
            ]
        },
        {
            "positions": [
                -2.737446725515739,
                -0.6850661844232738,
                0.8595982593214595,
                -0.15553427940532494,
                0.5728000461210616,
                3.146236715158001
            ]
        },
        {
            "positions": [
                -2.711830648592391,
                -0.6529555638678062,
                0.7603540706046131,
                -0.08842500278614567,
                0.4426230240414402,
                3.140359512119323
            ]
        }
    ]
}