{
    "goal": {
        "global_pose": {
            "orientation": {
                "w": 0.5084816217422485,
                "x": -0.49083608388900757,
                "y": 0.5182115435600281,
                "z": -0.4816462993621826
            },
            "position": {
                "x": 0.5540239810943604,
                "y": 0.030875300988554955,
                "z": 0.16403168439865112
            }
        },
        "name": "move_to_storage_A"
    },
    "id": "KPIECE_move_to_storage_A_11",
    "joint_names": [
        "shoulder_pan_joint",
        "shoulder_lift_joint",
        "elbow_joint",
        "wrist_1_joint",
        "wrist_2_joint",
        "wrist_3_joint"
    ],
    "metrics": {
        "cart_traj_len": 0.35357043119031456,
        "distance_elbow_joint": 0.45272157468412666,
        "distance_shoulder_lift_joint": 0.23289421475995398,
        "distance_shoulder_pan_joint": 0.4600007403747867,
        "distance_wrist_1_joint": 0.25653533243929516,
        "distance_wrist_2_joint": 1.1094084815982854,
        "distance_wrist_3_joint": 0.09400655052711304,
        "smoothness": 2.2204460668324854e-16,
        "time": 0.064843244,
        "traj_len": 1.614176847307494,
        "weighted_distance": 2.0394910662896684
    },
    "planner": "KPIECE",
    "start": {
        "state": {
            "elbow_joint": 1.971548880431181,
            "shoulder_lift_joint": -1.1394869514688781,
            "shoulder_pan_joint": 0.12281150262730567,
            "wrist_1_joint": -0.7804693444481463,
            "wrist_2_joint": 0.12958644648617612,
            "wrist_3_joint": 3.0906942077768043
        }
    },
    "waypoints": [
        {
            "positions": [
                0.12281150262730567,
                -1.1394869514688781,
                1.971548880431181,
                -0.7804693444481463,
                0.12958644648617612,
                3.0906942077768043
            ]
        },
        {
            "positions": [
                0.05709711114519328,
                -1.172757553577443,
                2.036223391100342,
                -0.8171172490823313,
                0.2880733724287883,
                3.104123714994963
            ]
        },
        {
            "positions": [
                -0.008617280336919109,
                -1.2060281556860077,
                2.100897901769503,
                -0.8537651537165163,
                0.4465602983714005,
                3.117553222213122
            ]
        },
        {
            "positions": [
                -0.0743316718190315,
                -1.2392987577945727,
                2.1655724124386637,
                -0.8904130583507014,
                0.6050472243140127,
                3.130982729431281
            ]
        },
        {
            "positions": [
                -0.14004606330114389,
                -1.2725693599031376,
                2.2302469231078246,
                -0.9270609629848864,
                0.7635341502566249,
                3.1444122366494405
            ]
        },
        {
            "positions": [
                -0.20576045478325627,
                -1.3058399620117025,
                2.294921433776986,
                -0.9637088676190715,
                0.9220210761992371,
                3.1578417438675994
            ]
        },
        {
            "positions": [
                -0.27147484626536866,
                -1.3391105641202672,
                2.3595959444461467,
                -1.0003567722532565,
                1.0805080021418494,
                3.1712712510857584
            ]
        },
        {
            "positions": [
                -0.33718923774748105,
                -1.372381166228832,
                2.4242704551153076,
                -1.0370046768874415,
                1.2389949280844617,
                3.1847007583039173
            ]
        }
    ]
}