{
    "goal": {
        "global_pose": {
            "orientation": {
                "w": 0.7047431468963623,
                "x": -0.7094548344612122,
                "y": 0.0024358443915843964,
                "z": -0.0022348060738295317
            },
            "position": {
                "x": 0.6094750761985779,
                "y": 0.3671506643295288,
                "z": 0.19426114857196808
            }
        },
        "name": "move_to_magneteinheit_A"
    },
    "id": "KPIECE_move_to_magneteinheit_A_124",
    "joint_names": [
        "shoulder_pan_joint",
        "shoulder_lift_joint",
        "elbow_joint",
        "wrist_1_joint",
        "wrist_2_joint",
        "wrist_3_joint"
    ],
    "metrics": {
        "cart_traj_len": 1.97267561513133,
        "distance_elbow_joint": 3.5848080121480583,
        "distance_shoulder_lift_joint": 0.7916122815182721,
        "distance_shoulder_pan_joint": 1.2408677106666914,
        "distance_wrist_1_joint": 1.1520709338258632,
        "distance_wrist_2_joint": 1.4386647731379323,
        "distance_wrist_3_joint": 1.9570019834623322,
        "smoothness": 4.2764146201067877e-16,
        "time": 0.046366537,
        "traj_len": 3.1882637429734624,
        "weighted_distance": 4.082862398936268
    },
    "planner": "KPIECE",
    "start": {
        "state": {
            "elbow_joint": -1.5739458827952972,
            "shoulder_lift_joint": 0.006533473998580023,
            "shoulder_pan_joint": -1.1188671628667068,
            "wrist_1_joint": 3.138208179676308,
            "wrist_2_joint": -1.5706037135050406,
            "wrist_3_joint": -2.0226958329764257
        }
    },
    "waypoints": [
        {
            "positions": [
                -1.1188671628667068,
                0.006533473998580023,
                -1.5739458827952972,
                3.138208179676308,
                -1.5706037135050406,
                -2.0226958329764257
            ]
        },
        {
            "positions": [
                -1.0711414816872187,
                -0.023913152213661214,
                -1.4360686515588335,
                3.0938977591445442,
                -1.5152704529997354,
                -1.9474265259201822
            ]
        },
        {
            "positions": [
                -1.0234158005077305,
                -0.05435977842590245,
                -1.2981914203223697,
                3.0495873386127803,
                -1.4599371924944304,
                -1.8721572188639386
            ]
        },
        {
            "positions": [
                -0.9756901193282425,
                -0.08480640463814369,
                -1.160314189085906,
                3.0052769180810164,
                -1.4046039319891253,
                -1.796887911807695
            ]
        },
        {
            "positions": [
                -0.9279644381487543,
                -0.11525303085038492,
                -1.022436957849442,
                2.9609664975492525,
                -1.3492706714838203,
                -1.7216186047514515
            ]
        },
        {
            "positions": [
                -0.8802387569692662,
                -0.14569965706262614,
                -0.8845597266129783,
                2.916656077017488,
                -1.2939374109785151,
                -1.6463492976952079
            ]
        },
        {
            "positions": [
                -0.8325130757897781,
                -0.1761462832748674,
                -0.7466824953765145,
                2.872345656485724,
                -1.23860415047321,
                -1.5710799906389643
            ]
        },
        {
            "positions": [
                -0.7847873946102899,
                -0.2065929094871086,
                -0.6088052641400508,
                2.8280352359539602,
                -1.183270889967905,
                -1.495810683582721
            ]
        },
        {
            "positions": [
                -0.7370617134308017,
                -0.23703953569934985,
                -0.470928032903587,
                2.7837248154221963,
                -1.1279376294625998,
                -1.4205413765264774
            ]
        },
        {
            "positions": [
                -0.6893360322513137,
                -0.2674861619115911,
                -0.3330508016671232,
                2.7394143948904324,
                -1.0726043689572948,
                -1.3452720694702338
            ]
        },
        {
            "positions": [
                -0.6416103510718255,
                -0.29793278812383234,
                -0.19517357043065942,
                2.6951039743586684,
                -1.0172711084519896,
                -1.2700027624139902
            ]
        },
        {
            "positions": [
                -0.5938846698923373,
                -0.3283794143360736,
                -0.057296339194195633,
                2.6507935538269045,
                -0.9619378479466846,
                -1.1947334553577469
            ]
        },
        {
            "positions": [
                -0.5461589887128492,
                -0.35882604054831485,
                0.08058089204226815,
                2.6064831332951406,
                -0.9066045874413795,
                -1.119464148301503
            ]
        },
        {
            "positions": [
                -0.4984333075333611,
                -0.38927266676055605,
                0.21845812327873193,
                2.5621727127633767,
                -0.8512713269360744,
                -1.0441948412452597
            ]
        },
        {
            "positions": [
                -0.45070762635387307,
                -0.41971929297279725,
                0.3563353545151957,
                2.5178622922316127,
                -0.7959380664307694,
                -0.9689255341890162
            ]
        },
        {
            "positions": [
                -0.4029819451743849,
                -0.4501659191850385,
                0.4942125857516595,
                2.473551871699849,
                -0.7406048059254643,
                -0.8936562271327726
            ]
        },
        {
            "positions": [
                -0.35525626399489674,
                -0.48061254539727977,
                0.6320898169881233,
                2.4292414511680844,
                -0.6852715454201591,
                -0.818386920076529
            ]
        },
        {
            "positions": [
                -0.30753058281540857,
                -0.511059171609521,
                0.7699670482245871,
                2.3849310306363205,
                -0.629938284914854,
                -0.7431176130202855
            ]
        },
        {
            "positions": [
                -0.2598049016359205,
                -0.5415057978217621,
                0.9078442794610508,
                2.3406206101045566,
                -0.574605024409549,
                -0.6678483059640419
            ]
        },
        {
            "positions": [
                -0.21207922045643235,
                -0.5719524240340034,
                1.0457215106975146,
                2.2963101895727926,
                -0.5192717639042439,
                -0.5925789989077985
            ]
        },
        {
            "positions": [
                -0.16435353927694418,
                -0.6023990502462446,
                1.1835987419339784,
                2.2519997690410287,
                -0.4639385033989387,
                -0.5173096918515547
            ]
        },
        {
            "positions": [
                -0.11662785809745602,
                -0.6328456764584859,
                1.3214759731704422,
                2.207689348509265,
                -0.40860524289363376,
                -0.44204038479531116
            ]
        },
        {
            "positions": [
                -0.06890217691796785,
                -0.6632923026707271,
                1.459353204406906,
                2.163378927977501,
                -0.3532719823883286,
                -0.3667710777390678
            ]
        },
        {
            "positions": [
                -0.021176495738479906,
                -0.6937389288829683,
                1.5972304356433698,
                2.119068507445737,
                -0.2979387218830236,
                -0.29150177068282423
            ]
        },
        {
            "positions": [
                0.026549185441008483,
                -0.7241855550952097,
                1.7351076668798335,
                2.074758086913973,
                -0.24260546137771843,
                -0.21623246362658044
            ]
        },
        {
            "positions": [
                0.07427486662049643,
                -0.7546321813074508,
                1.8729848981162973,
                2.0304476663822086,
                -0.18727220087241325,
                -0.1409631565703371
            ]
        },
        {
            "positions": [
                0.12200054779998457,
                -0.7850788075196921,
                2.010862129352761,
                1.986137245850445,
                -0.1319389403671083,
                -0.06569384951409354
            ]
        }
    ]
}