{
    "goal": {
        "global_pose": {
            "orientation": {
                "w": -0.00223480608172531,
                "x": 0.0024358444001904467,
                "y": 0.7094548369677653,
                "z": -0.704743149386269
            },
            "position": {
                "x": -0.37947507619857795,
                "y": -0.6371506643295288,
                "z": 0.19426114857196808
            }
        },
        "name": "move_to_magneteinheit_C"
    },
    "id": "KPIECE_move_to_magneteinheit_C_58",
    "joint_names": [
        "shoulder_pan_joint",
        "shoulder_lift_joint",
        "elbow_joint",
        "wrist_1_joint",
        "wrist_2_joint",
        "wrist_3_joint"
    ],
    "metrics": {
        "cart_traj_len": 0.7968065084593634,
        "distance_elbow_joint": 0.45445260530690024,
        "distance_shoulder_lift_joint": 0.3237529318263226,
        "distance_shoulder_pan_joint": 1.0007424927468016,
        "distance_wrist_1_joint": 2.1714150514068056,
        "distance_wrist_2_joint": 0.7999452473342717,
        "distance_wrist_3_joint": 2.5393267921696943,
        "smoothness": 1.4565345938699887,
        "time": 1.601985516,
        "traj_len": 2.6999324289305457,
        "weighted_distance": 3.9165863968347825
    },
    "planner": "KPIECE",
    "start": {
        "state": {
            "elbow_joint": 1.9565354006593851,
            "shoulder_lift_joint": -1.4165861576512813,
            "shoulder_pan_joint": -1.6717766223278752,
            "wrist_1_joint": -0.528663328821883,
            "wrist_2_joint": 1.472756589259273,
            "wrist_3_joint": 3.159348288315503
        }
    },
    "waypoints": [
        {
            "positions": [
                -1.6717766223278752,
                -1.4165861576512813,
                1.9565354006593851,
                -0.528663328821883,
                1.472756589259273,
                3.159348288315503
            ]
        },
        {
            "positions": [
                -1.7446697256588615,
                -1.4204936461073354,
                1.9555484168079862,
                -0.42430052837107446,
                1.407404729107479,
                3.0159726229938935
            ]
        },
        {
            "positions": [
                -1.8175628289898478,
                -1.4244011345633896,
                1.9545614329565875,
                -0.31993772792026587,
                1.3420528689556848,
                2.872596957672284
            ]
        },
        {
            "positions": [
                -1.8904559323208343,
                -1.4283086230194437,
                1.9535744491051885,
                -0.21557492746945722,
                1.2767010088038906,
                2.7292212923506742
            ]
        },
        {
            "positions": [
                -1.9633490356518206,
                -1.4322161114754979,
                1.9525874652537898,
                -0.11121212701864863,
                1.2113491486520964,
                2.5858456270290646
            ]
        },
        {
            "positions": [
                -2.036242138982807,
                -1.4361235999315523,
                1.9516004814023908,
                -0.006849326567839986,
                1.1459972885003022,
                2.442469961707455
            ]
        },
        {
            "positions": [
                -2.1091352423137932,
                -1.4400310883876064,
                1.9506134975509921,
                0.0975134738829686,
                1.080645428348508,
                2.299094296385846
            ]
        },
        {
            "positions": [
                -2.1820283456447798,
                -1.4439385768436606,
                1.9496265136995932,
                0.2018762743337773,
                1.015293568196714,
                2.155718631064236
            ]
        },
        {
            "positions": [
                -2.254921448975766,
                -1.4478460652997147,
                1.9486395298481944,
                0.3062390747845858,
                0.9499417080449197,
                2.0123429657426266
            ]
        },
        {
            "positions": [
                -2.3278145523067524,
                -1.4517535537557689,
                1.9476525459967955,
                0.4106018752353945,
                0.8845898478931256,
                1.8689673004210168
            ]
        },
        {
            "positions": [
                -2.362835724055468,
                -1.4152526077191447,
                1.9836903318193506,
                0.2734707090348206,
                0.877908050948401,
                2.0072800430431887
            ]
        },
        {
            "positions": [
                -2.3978568958041837,
                -1.3787516616825204,
                2.0197281176419057,
                0.13633954283424676,
                0.8712262540036764,
                2.145592785665361
            ]
        },
        {
            "positions": [
                -2.4328780675528994,
                -1.3422507156458963,
                2.0557659034644606,
                -0.0007916233663270988,
                0.8645444570589518,
                2.283905528287533
            ]
        },
        {
            "positions": [
                -2.467899239301615,
                -1.305749769609272,
                2.091803689287016,
                -0.13792278956690096,
                0.8578626601142272,
                2.4222182709097053
            ]
        },
        {
            "positions": [
                -2.5029204110503307,
                -1.2692488235726478,
                2.127841475109571,
                -0.27505395576747493,
                0.8511808631695026,
                2.560531013531877
            ]
        },
        {
            "positions": [
                -2.5379415827990464,
                -1.2327478775360237,
                2.1638792609321262,
                -0.4121851219680487,
                0.844499066224778,
                2.6988437561540493
            ]
        },
        {
            "positions": [
                -2.572962754547762,
                -1.1962469314993993,
                2.199917046754681,
                -0.5493162881686227,
                0.8378172692800534,
                2.8371564987762214
            ]
        },
        {
            "positions": [
                -2.5397773010387903,
                -1.185220627010911,
                2.135481963459206,
                -0.6400601828171264,
                0.7828152934950361,
                2.9307420340828894
            ]
        },
        {
            "positions": [
                -2.506591847529819,
                -1.1741943225224223,
                2.071046880163731,
                -0.7308040774656301,
                0.7278133177100187,
                3.024327569389557
            ]
        },
        {
            "positions": [
                -2.4734063940208473,
                -1.1631680180339339,
                2.006611796868256,
                -0.8215479721141339,
                0.6728113419250014,
                3.1179131046962247
            ]
        }
    ]
}