{
    "goal": {
        "global_pose": {
            "orientation": {
                "w": 0.005598929693374612,
                "x": 0.007748599140229565,
                "y": 0.7110244013736278,
                "z": -0.7031023480610252
            },
            "position": {
                "x": 0.1141497679147869,
                "y": -0.7141253447532654,
                "z": 0.3711530566215515
            }
        },
        "name": "move_to_auspresseinheit_B"
    },
    "id": "KPIECE_move_to_auspresseinheit_B_101",
    "joint_names": [
        "shoulder_pan_joint",
        "shoulder_lift_joint",
        "elbow_joint",
        "wrist_1_joint",
        "wrist_2_joint",
        "wrist_3_joint"
    ],
    "metrics": {
        "cart_traj_len": 0.5646907829246223,
        "distance_elbow_joint": 0.06510193215466376,
        "distance_shoulder_lift_joint": 0.29435855778654885,
        "distance_shoulder_pan_joint": 0.574500496250359,
        "distance_wrist_1_joint": 0.33273664788931645,
        "distance_wrist_2_joint": 1.0045638810453037,
        "distance_wrist_3_joint": 0.0054653539929372386,
        "smoothness": 3.806478935924272e-16,
        "time": 0.147344494,
        "traj_len": 1.5088826558480712,
        "weighted_distance": 1.903932274541199
    },
    "planner": "KPIECE",
    "start": {
        "state": {
            "elbow_joint": 2.0193061681459312,
            "shoulder_lift_joint": -1.1220205130644991,
            "shoulder_pan_joint": -1.0952072088045026,
            "wrist_1_joint": -0.8559671810662515,
            "wrist_2_joint": 0.4759638712940361,
            "wrist_3_joint": 3.159081874192446
        }
    },
    "waypoints": [
        {
            "positions": [
                -1.0952072088045026,
                -1.1220205130644991,
                2.0193061681459312,
                -0.8559671810662515,
                0.4759638712940361,
                3.159081874192446
            ]
        },
        {
            "positions": [
                -1.1909572915128959,
                -1.1710802726955907,
                2.008455846120154,
                -0.8005110730846987,
                0.6433911848015867,
                3.1581709818602897
            ]
        },
        {
            "positions": [
                -1.286707374221289,
                -1.220140032326682,
                1.9976055240943766,
                -0.745054965103146,
                0.8108184983091373,
                3.1572600895281338
            ]
        },
        {
            "positions": [
                -1.3824574569296821,
                -1.2691997919577735,
                1.9867552020685992,
                -0.6895988571215932,
                0.9782458118166879,
                3.1563491971959774
            ]
        },
        {
            "positions": [
                -1.4782075396380754,
                -1.318259551588865,
                1.975904880042822,
                -0.6341427491400405,
                1.1456731253242385,
                3.155438304863821
            ]
        },
        {
            "positions": [
                -1.5739576223464686,
                -1.3673193112199564,
                1.9650545580170449,
                -0.5786866411584877,
                1.3131004388317893,
                3.154527412531665
            ]
        },
        {
            "positions": [
                -1.6697077050548617,
                -1.416379070851048,
                1.9542042359912675,
                -0.523230533176935,
                1.4805277523393399,
                3.1536165201995088
            ]
        }
    ]
}