{
    "goal": {
        "global_pose": {
            "orientation": {
                "w": 0.5084816217422485,
                "x": -0.49083608388900757,
                "y": 0.5182115435600281,
                "z": -0.4816462993621826
            },
            "position": {
                "x": 0.5540239810943604,
                "y": 0.030875300988554955,
                "z": 0.16403168439865112
            }
        },
        "name": "move_to_storage_A"
    },
    "id": "KPIECE_move_to_storage_A_138",
    "joint_names": [
        "shoulder_pan_joint",
        "shoulder_lift_joint",
        "elbow_joint",
        "wrist_1_joint",
        "wrist_2_joint",
        "wrist_3_joint"
    ],
    "metrics": {
        "cart_traj_len": 0.35314774746884187,
        "distance_elbow_joint": 0.4469535091042871,
        "distance_shoulder_lift_joint": 0.23411706995255277,
        "distance_shoulder_pan_joint": 0.4607141660547443,
        "distance_wrist_1_joint": 0.23515199794545127,
        "distance_wrist_2_joint": 1.1026947774362523,
        "distance_wrist_3_joint": 0.09139400625947092,
        "smoothness": 6.661338165333112e-16,
        "time": 0.094650003,
        "traj_len": 1.6034417752923735,
        "weighted_distance": 2.022785286344896
    },
    "planner": "KPIECE",
    "start": {
        "state": {
            "elbow_joint": 1.971548880431181,
            "shoulder_lift_joint": -1.1394869514688781,
            "shoulder_pan_joint": 0.12281150262730567,
            "wrist_1_joint": -0.7804693444481463,
            "wrist_2_joint": 0.12958644648617612,
            "wrist_3_joint": 3.0906942077768043
        }
    },
    "waypoints": [
        {
            "positions": [
                0.12281150262730567,
                -1.1394869514688781,
                1.971548880431181,
                -0.7804693444481463,
                0.12958644648617612,
                3.0906942077768043
            ]
        },
        {
            "positions": [
                0.05699519319091363,
                -1.1729322471763857,
                2.0353993817317932,
                -0.8140624870117822,
                0.2871142718342121,
                3.1037504943853
            ]
        },
        {
            "positions": [
                -0.008821116245478405,
                -1.2063775428838932,
                2.099249883032406,
                -0.8476556295754181,
                0.4446420971822482,
                3.116806780993796
            ]
        },
        {
            "positions": [
                -0.07463742568187046,
                -1.2398228385914007,
                2.1631003843330183,
                -0.881248772139054,
                0.6021699225302842,
                3.1298630676022916
            ]
        },
        {
            "positions": [
                -0.14045373511826248,
                -1.2732681342989083,
                2.226950885633631,
                -0.9148419147026898,
                0.7596977478783202,
                3.142919354210788
            ]
        },
        {
            "positions": [
                -0.20627004455465453,
                -1.3067134300064158,
                2.290801386934243,
                -0.9484350572663258,
                0.9172255732263563,
                3.1559756408192836
            ]
        },
        {
            "positions": [
                -0.2720863539910466,
                -1.3401587257139234,
                2.3546518882348555,
                -0.9820281998299617,
                1.0747533985743924,
                3.1690319274277794
            ]
        },
        {
            "positions": [
                -0.33790266342743863,
                -1.373604021421431,
                2.418502389535468,
                -1.0156213423935976,
                1.2322812239224283,
                3.182088214036275
            ]
        }
    ]
}