{
    "goal": {
        "global_pose": {
            "orientation": {
                "w": -0.4816463035849501,
                "x": 0.5182115481033762,
                "y": 0.4908360881923453,
                "z": -0.5084816262002911
            },
            "position": {
                "x": -0.8240239810943604,
                "y": -0.300875300988555,
                "z": 0.16403168439865112
            }
        },
        "name": "move_to_storage_C"
    },
    "id": "KPIECE_move_to_storage_C_46",
    "joint_names": [
        "shoulder_pan_joint",
        "shoulder_lift_joint",
        "elbow_joint",
        "wrist_1_joint",
        "wrist_2_joint",
        "wrist_3_joint"
    ],
    "metrics": {
        "cart_traj_len": 0.5768782960542553,
        "distance_elbow_joint": 0.2591537700905566,
        "distance_shoulder_lift_joint": 0.18822630760619552,
        "distance_shoulder_pan_joint": 0.4959114167570342,
        "distance_wrist_1_joint": 0.08375380802427523,
        "distance_wrist_2_joint": 1.0607927729515996,
        "distance_wrist_3_joint": 0.0606910751188412,
        "smoothness": 2.5376526478085547e-16,
        "time": 0.019272557,
        "traj_len": 1.4657861885515577,
        "weighted_distance": 1.847825176190123
    },
    "planner": "KPIECE",
    "start": {
        "state": {
            "elbow_joint": 2.0108683149792914,
            "shoulder_lift_joint": -1.1634956873317392,
            "shoulder_pan_joint": -2.4736205022346,
            "wrist_1_joint": -0.8367026793690192,
            "wrist_2_joint": 0.6746043897045053,
            "wrist_3_joint": 3.133522094754363
        }
    },
    "waypoints": [
        {
            "positions": [
                -2.4736205022346,
                -1.1634956873317392,
                2.0108683149792914,
                -0.8367026793690192,
                0.6746043897045053,
                3.133522094754363
            ]
        },
        {
            "positions": [
                -2.556272405027439,
                -1.13212463606404,
                1.9676760199641987,
                -0.8227437113649734,
                0.8514031851964385,
                3.1436372739408367
            ]
        },
        {
            "positions": [
                -2.638924307820278,
                -1.1007535847963408,
                1.9244837249491058,
                -0.8087847433609274,
                1.0282019806883718,
                3.1537524531273102
            ]
        },
        {
            "positions": [
                -2.721576210613117,
                -1.0693825335286415,
                1.881291429934013,
                -0.7948257753568816,
                1.205000776180305,
                3.1638676323137838
            ]
        },
        {
            "positions": [
                -2.8042281134059563,
                -1.0380114822609423,
                1.8380991349189204,
                -0.7808668073528358,
                1.3817995716722384,
                3.1739828115002573
            ]
        },
        {
            "positions": [
                -2.8868800161987953,
                -1.0066404309932429,
                1.7949068399038275,
                -0.7669078393487898,
                1.5585983671641717,
                3.184097990686731
            ]
        },
        {
            "positions": [
                -2.9695319189916343,
                -0.9752693797255437,
                1.7517145448887348,
                -0.752948871344744,
                1.7353971626561049,
                3.1942131698732044
            ]
        }
    ]
}