{
    "goal": {
        "global_pose": {
            "orientation": {
                "w": 0.5084816262002911,
                "x": -0.4908360881923452,
                "y": 0.5182115481033761,
                "z": -0.48164630358495003
            },
            "position": {
                "x": 0.5540239810943604,
                "y": -0.46912469901144505,
                "z": 0.16403168439865112
            }
        },
        "name": "move_to_storage_B"
    },
    "id": "KPIECE_move_to_storage_B_78",
    "joint_names": [
        "shoulder_pan_joint",
        "shoulder_lift_joint",
        "elbow_joint",
        "wrist_1_joint",
        "wrist_2_joint",
        "wrist_3_joint"
    ],
    "metrics": {
        "cart_traj_len": 0.9004408781323299,
        "distance_elbow_joint": 0.728840857979393,
        "distance_shoulder_lift_joint": 0.5222327198045489,
        "distance_shoulder_pan_joint": 0.18118635434709507,
        "distance_wrist_1_joint": 3.0067014483419916,
        "distance_wrist_2_joint": 2.7060791002219258,
        "distance_wrist_3_joint": 3.1173266075664614,
        "smoothness": 0.04412676930569452,
        "time": 0.084315996,
        "traj_len": 3.2034929511802295,
        "weighted_distance": 4.712727538481114
    },
    "planner": "KPIECE",
    "start": {
        "state": {
            "elbow_joint": 1.6649325340416963,
            "shoulder_lift_joint": -0.6616387945129425,
            "shoulder_pan_joint": -0.9139837929255878,
            "wrist_1_joint": 2.1467571094334352,
            "wrist_2_joint": -2.234195976750228,
            "wrist_3_joint": 0.005470921511140723
        }
    },
    "waypoints": [
        {
            "positions": [
                -0.9139837929255878,
                -0.6616387945129425,
                1.6649325340416963,
                2.1467571094334352,
                -2.234195976750228,
                0.005470921511140723
            ]
        },
        {
            "positions": [
                -0.9234532491701305,
                -0.7025984358870387,
                1.7100531691590657,
                2.0083990071712665,
                -2.1274289538071,
                -0.02506224034733307
            ]
        },
        {
            "positions": [
                -0.9329227054146731,
                -0.7435580772611351,
                1.7551738042764349,
                1.8700409049090978,
                -2.0206619308639726,
                -0.05559540220580687
            ]
        },
        {
            "positions": [
                -0.9423921616592159,
                -0.7845177186352313,
                1.8002944393938043,
                1.731682802646929,
                -1.913894907920845,
                -0.08612856406428067
            ]
        },
        {
            "positions": [
                -0.9518616179037586,
                -0.8254773600093276,
                1.8454150745111735,
                1.5933247003847606,
                -1.8071278849777173,
                -0.11666172592275446
            ]
        },
        {
            "positions": [
                -0.9613310741483012,
                -0.8664370013834239,
                1.890535709628543,
                1.4549665981225917,
                -1.7003608620345896,
                -0.14719488778122825
            ]
        },
        {
            "positions": [
                -0.9708005303928439,
                -0.9073966427575202,
                1.935656344745912,
                1.3166084958604232,
                -1.593593839091462,
                -0.17772804963970204
            ]
        },
        {
            "positions": [
                -0.9802699866373865,
                -0.9483562841316164,
                1.9807769798632815,
                1.1782503935982545,
                -1.4868268161483342,
                -0.20826121149817584
            ]
        },
        {
            "positions": [
                -0.9897394428819292,
                -0.9893159255057127,
                2.025897614980651,
                1.039892291336086,
                -1.3800597932052066,
                -0.23879437335664963
            ]
        },
        {
            "positions": [
                -0.9992088991264718,
                -1.030275566879809,
                2.07101825009802,
                0.9015341890739172,
                -1.2732927702620789,
                -0.2693275352151234
            ]
        },
        {
            "positions": [
                -1.0086783553710146,
                -1.0712352082539054,
                2.1161388852153893,
                0.7631760868117483,
                -1.1665257473189512,
                -0.29986069707359725
            ]
        },
        {
            "positions": [
                -1.0181478116155571,
                -1.1121948496280016,
                2.161259520332759,
                0.6248179845495798,
                -1.0597587243758235,
                -0.330393858932071
            ]
        },
        {
            "positions": [
                -1.0276172678600999,
                -1.1531544910020979,
                2.206380155450128,
                0.486459882287411,
                -0.9529917014326958,
                -0.36092702079054484
            ]
        },
        {
            "positions": [
                -1.0321207931542722,
                -1.1511066894477384,
                2.193887273012064,
                0.3966996008743465,
                -0.8580000464390696,
                -0.5443222651415299
            ]
        },
        {
            "positions": [
                -1.0366243184484443,
                -1.1490588878933787,
                2.181394390574,
                0.3069393194612821,
                -0.7630083914454433,
                -0.727717509492515
            ]
        },
        {
            "positions": [
                -1.0411278437426166,
                -1.1470110863390193,
                2.168901508135936,
                0.21717903804821764,
                -0.668016736451817,
                -0.9111127538435
            ]
        },
        {
            "positions": [
                -1.0456313690367887,
                -1.1449632847846596,
                2.1564086256978716,
                0.12741875663515323,
                -0.5730250814581909,
                -1.094507998194485
            ]
        },
        {
            "positions": [
                -1.050134894330961,
                -1.1429154832303001,
                2.1439157432598077,
                0.037658475222088816,
                -0.47803342646456465,
                -1.2779032425454702
            ]
        },
        {
            "positions": [
                -1.054638419625133,
                -1.1408676816759404,
                2.131422860821744,
                -0.05210180619097571,
                -0.3830417714709383,
                -1.4612984868964551
            ]
        },
        {
            "positions": [
                -1.0591419449193054,
                -1.138819880121581,
                2.1189299783836795,
                -0.14186208760404007,
                -0.28805011647731216,
                -1.6446937312474401
            ]
        },
        {
            "positions": [
                -1.0636454702134774,
                -1.1367720785672213,
                2.1064370959456156,
                -0.23162236901710453,
                -0.19305846148368588,
                -1.8280889755984253
            ]
        },
        {
            "positions": [
                -1.0681489955076497,
                -1.1347242770128618,
                2.0939442135075512,
                -0.3213826504301689,
                -0.09806680649005972,
                -2.01148421994941
            ]
        },
        {
            "positions": [
                -1.0726525208018218,
                -1.1326764754585021,
                2.0814513310694873,
                -0.41114293184323336,
                -0.003075151496433448,
                -2.1948794643003953
            ]
        },
        {
            "positions": [
                -1.0771560460959941,
                -1.1306286739041427,
                2.0689584486314234,
                -0.5009032132562977,
                0.09191650349719271,
                -2.3782747086513805
            ]
        },
        {
            "positions": [
                -1.0816595713901662,
                -1.128580872349783,
                2.056465566193359,
                -0.5906634946693624,
                0.1869081584908192,
                -2.561669953002365
            ]
        },
        {
            "positions": [
                -1.0861630966843385,
                -1.1265330707954235,
                2.043972683755295,
                -0.6804237760824267,
                0.28189981348444526,
                -2.745065197353351
            ]
        },
        {
            "positions": [
                -1.0906666219785106,
                -1.1244852692410638,
                2.031479801317231,
                -0.7701840574954911,
                0.37689146847807153,
                -2.9284604417043356
            ]
        },
        {
            "positions": [
                -1.095170147272683,
                -1.1224374676867044,
                2.018986918879167,
                -0.8599443389085557,
                0.4718831234716979,
                -3.111855686055321
            ]
        }
    ]
}