{
    "goal": {
        "global_pose": {
            "orientation": {
                "w": 0.7047431493862688,
                "x": -0.7094548369677653,
                "y": 0.0024358444001904,
                "z": -0.0022348060817251984
            },
            "position": {
                "x": -0.39052492380142206,
                "y": 0.3671506643295288,
                "z": 0.19426114857196808
            }
        },
        "name": "move_to_magneteinheit_D"
    },
    "id": "KPIECE_move_to_magneteinheit_D_109",
    "joint_names": [
        "shoulder_pan_joint",
        "shoulder_lift_joint",
        "elbow_joint",
        "wrist_1_joint",
        "wrist_2_joint",
        "wrist_3_joint"
    ],
    "metrics": {
        "cart_traj_len": 7.3438692494433715,
        "distance_elbow_joint": 5.813962772764317,
        "distance_shoulder_lift_joint": 1.6283275800642427,
        "distance_shoulder_pan_joint": 7.906778825702951,
        "distance_wrist_1_joint": 4.268798187498556,
        "distance_wrist_2_joint": 5.918970477477649,
        "distance_wrist_3_joint": 3.4823208226561158,
        "smoothness": 0.42206869834533073,
        "time": 0.413400507,
        "traj_len": 5.38694335093324,
        "weighted_distance": 6.794966444100532
    },
    "planner": "KPIECE",
    "start": {
        "state": {
            "elbow_joint": 0.7495348899011911,
            "shoulder_lift_joint": -0.6476975780737668,
            "shoulder_pan_joint": -2.711696901376276,
            "wrist_1_joint": -0.0750647808097303,
            "wrist_2_joint": 0.43296659715458535,
            "wrist_3_joint": 3.1361499051832418
        }
    },
    "waypoints": [
        {
            "positions": [
                -2.711696901376276,
                -0.6476975780737668,
                0.7495348899011911,
                -0.0750647808097303,
                0.43296659715458535,
                3.1361499051832418
            ]
        },
        {
            "positions": [
                -2.721016556158519,
                -0.6801029764794851,
                0.7374092766597857,
                -0.06156091583328749,
                0.4299086417419787,
                3.0085088341101125
            ]
        },
        {
            "positions": [
                -2.7306806122075744,
                -0.728879499124582,
                0.7143480800996054,
                -0.03964902853052668,
                0.4224496427084265,
                2.8102856764364015
            ]
        },
        {
            "positions": [
                -2.7403446682566295,
                -0.7776560217696791,
                0.6912868835394251,
                -0.017737141227765867,
                0.41499064367487437,
                2.61206251876269
            ]
        },
        {
            "positions": [
                -2.750008724305685,
                -0.826432544414776,
                0.6682256869792448,
                0.004174746074994949,
                0.4075316446413222,
                2.413839361088979
            ]
        },
        {
            "positions": [
                -2.714471640632812,
                -0.8586072590054679,
                0.6102275654879689,
                0.026592696556486925,
                0.3742617831666563,
                2.227337669775313
            ]
        },
        {
            "positions": [
                -2.67893455695994,
                -0.8907819735961598,
                0.552229443996693,
                0.0490106470379789,
                0.3409919216919904,
                2.0408359784616468
            ]
        },
        {
            "positions": [
                -2.643397473287067,
                -0.9229566881868517,
                0.4942313225054171,
                0.07142859751947087,
                0.3077220602173245,
                1.854334287147981
            ]
        },
        {
            "positions": [
                -2.6078603896141948,
                -0.9551314027775437,
                0.43623320101414126,
                0.09384654800096286,
                0.2744521987426586,
                1.667832595834315
            ]
        },
        {
            "positions": [
                -2.572323305941322,
                -0.9873061173682356,
                0.3782350795228654,
                0.11626449848245482,
                0.2411823372679927,
                1.4813309045206489
            ]
        },
        {
            "positions": [
                -2.4241008097291243,
                -1.021869655420575,
                0.41754864411224724,
                0.07605314876396616,
                0.324475309698897,
                1.433768643506389
            ]
        },
        {
            "positions": [
                -2.2758783135169267,
                -1.0564331934729148,
                0.4568622087016291,
                0.03584179904547749,
                0.40776828212980126,
                1.386206382492129
            ]
        },
        {
            "positions": [
                -2.1276558173047295,
                -1.0909967315252542,
                0.496175773291011,
                -0.004369550673011188,
                0.4910612545607056,
                1.338644121477869
            ]
        },
        {
            "positions": [
                -1.979433321092532,
                -1.125560269577594,
                0.5354893378803929,
                -0.04458090039149984,
                0.5743542269916098,
                1.2910818604636092
            ]
        },
        {
            "positions": [
                -1.8312108248803343,
                -1.1601238076299334,
                0.5748029024697747,
                -0.08479225010998853,
                0.6576471994225142,
                1.2435195994493493
            ]
        },
        {
            "positions": [
                -1.6829883286681366,
                -1.194687345682273,
                0.6141164670591566,
                -0.1250035998284772,
                0.7409401718534184,
                1.1959573384350892
            ]
        },
        {
            "positions": [
                -1.5347658324559392,
                -1.2292508837346126,
                0.6534300316485384,
                -0.16521494954696583,
                0.8242331442843227,
                1.1483950774208294
            ]
        },
        {
            "positions": [
                -1.3865433362437416,
                -1.263814421786952,
                0.6927435962379203,
                -0.2054262992654545,
                0.9075261167152269,
                1.1008328164065695
            ]
        },
        {
            "positions": [
                -1.238320840031544,
                -1.2983779598392917,
                0.7320571608273021,
                -0.24563764898394322,
                0.9908190891461313,
                1.0532705553923094
            ]
        },
        {
            "positions": [
                -1.0900983438193463,
                -1.3329414978916314,
                0.7713707254166839,
                -0.28584899870243186,
                1.0741120615770356,
                1.0057082943780495
            ]
        },
        {
            "positions": [
                -0.9418758476071489,
                -1.3675050359439709,
                0.8106842900060658,
                -0.3260603484209206,
                1.1574050340079398,
                0.9581460333637896
            ]
        },
        {
            "positions": [
                -0.7936533513949513,
                -1.4020685739963104,
                0.8499978545954476,
                -0.3662716981394092,
                1.2406980064388442,
                0.9105837723495297
            ]
        },
        {
            "positions": [
                -0.6454308551827539,
                -1.4366321120486498,
                0.8893114191848295,
                -0.4064830478578979,
                1.3239909788697484,
                0.8630215113352698
            ]
        },
        {
            "positions": [
                -0.4972083589705565,
                -1.4711956501009895,
                0.9286249837742113,
                -0.4466943975763865,
                1.4072839513006525,
                0.8154592503210099
            ]
        },
        {
            "positions": [
                -0.34898586275835886,
                -1.5057591881533292,
                0.9679385483635933,
                -0.48690574729487524,
                1.490576923731557,
                0.7678969893067499
            ]
        },
        {
            "positions": [
                -0.20076336654616123,
                -1.5403227262056687,
                1.0072521129529752,
                -0.5271170970133638,
                1.573869896162461,
                0.72033472829249
            ]
        },
        {
            "positions": [
                -0.052540870333963596,
                -1.5748862642580082,
                1.046565677542357,
                -0.5673284467318526,
                1.6571628685933655,
                0.67277246727823
            ]
        },
        {
            "positions": [
                0.09568162587823403,
                -1.6094498023103478,
                1.085879242131739,
                -0.6075397964503413,
                1.7404558410242699,
                0.6252102062639701
            ]
        },
        {
            "positions": [
                0.24390412209043166,
                -1.6440133403626875,
                1.1251928067211208,
                -0.6477511461688299,
                1.823748813455174,
                0.5776479452497102
            ]
        },
        {
            "positions": [
                0.3921266183026293,
                -1.678576878415027,
                1.1645063713105026,
                -0.6879624958873186,
                1.9070417858860784,
                0.5300856842354502
            ]
        },
        {
            "positions": [
                0.5403491145148269,
                -1.7131404164673665,
                1.2038199358998845,
                -0.7281738456058072,
                1.9903347583169826,
                0.48252342322119024
            ]
        },
        {
            "positions": [
                0.6885716107270241,
                -1.7477039545197062,
                1.2431335004892663,
                -0.7683851953242959,
                2.073627730747887,
                0.43496116220693026
            ]
        },
        {
            "positions": [
                0.8367941069392217,
                -1.7822674925720459,
                1.2824470650786481,
                -0.8085965450427847,
                2.1569207031787916,
                0.3873989011926704
            ]
        },
        {
            "positions": [
                0.9850166031514194,
                -1.8168310306243853,
                1.32176062966803,
                -0.8488078947612733,
                2.2402136756096955,
                0.33983664017841053
            ]
        },
        {
            "positions": [
                1.133239099363617,
                -1.8513945686767248,
                1.3610741942574118,
                -0.889019244479762,
                2.3235066480406,
                0.29227437916415044
            ]
        },
        {
            "positions": [
                1.2814615955758142,
                -1.8859581067290643,
                1.4003877588467937,
                -0.9292305941982506,
                2.4067996204715043,
                0.2447121181498908
            ]
        },
        {
            "positions": [
                1.4296840917880118,
                -1.9205216447814037,
                1.4397013234361755,
                -0.9694419439167392,
                2.4900925929024083,
                0.1971498571356307
            ]
        },
        {
            "positions": [
                1.577906588000209,
                -1.9550851828337434,
                1.4790148880255574,
                -1.0096532936352278,
                2.5733855653333126,
                0.14958759612137085
            ]
        },
        {
            "positions": [
                1.726129084212407,
                -1.9896487208860831,
                1.5183284526149392,
                -1.0498646433537164,
                2.656678537764217,
                0.10202533510711098
            ]
        },
        {
            "positions": [
                1.8743515804246043,
                -2.0242122589384226,
                1.557642017204321,
                -1.0900759930722053,
                2.7399715101951214,
                0.054463074092850894
            ]
        },
        {
            "positions": [
                2.0225740766368023,
                -2.058775796990762,
                1.596955581793703,
                -1.1302873427906939,
                2.823264482626026,
                0.006900813078591028
            ]
        },
        {
            "positions": [
                2.1707965728489995,
                -2.093339335043102,
                1.6362691463830847,
                -1.1704986925091825,
                2.9065574550569298,
                -0.04066144793566884
            ]
        },
        {
            "positions": [
                2.3190190690611976,
                -2.1279028730954415,
                1.6755827109724666,
                -1.2107100422276713,
                2.989850427487834,
                -0.08822370894992893
            ]
        },
        {
            "positions": [
                2.4672415652733948,
                -2.162466411147781,
                1.7148962755618484,
                -1.25092139194616,
                3.0731433999187385,
                -0.1357859699641888
            ]
        },
        {
            "positions": [
                2.3869016648735624,
                -2.165907585299,
                1.590471979611939,
                -1.168791603528652,
                2.9854093043144867,
                -0.1294106685245317
            ]
        },
        {
            "positions": [
                2.3065617644737304,
                -2.169348759450219,
                1.4660476836620298,
                -1.0866618151111445,
                2.897675208710235,
                -0.12303536708487463
            ]
        },
        {
            "positions": [
                2.226221864073898,
                -2.1727899336014382,
                1.3416233877121206,
                -1.0045320266936366,
                2.809941113105983,
                -0.11666006564521755
            ]
        },
        {
            "positions": [
                2.1458819636740656,
                -2.176231107752657,
                1.2171990917622113,
                -0.9224022382761289,
                2.722207017501731,
                -0.11028476420556046
            ]
        },
        {
            "positions": [
                2.0655420632742336,
                -2.1796722819038763,
                1.092774795812302,
                -0.8402724498586212,
                2.6344729218974794,
                -0.10390946276590338
            ]
        },
        {
            "positions": [
                1.9852021628744012,
                -2.183113456055095,
                0.9683504998623927,
                -0.7581426614411133,
                2.5467388262932276,
                -0.0975341613262463
            ]
        },
        {
            "positions": [
                1.9048622624745688,
                -2.1865546302063144,
                0.8439262039124834,
                -0.6760128730236056,
                2.4590047306889757,
                -0.09115885988658923
            ]
        },
        {
            "positions": [
                1.8245223620747368,
                -2.189995804357533,
                0.7195019079625742,
                -0.5938830846060978,
                2.371270635084724,
                -0.08478355844693214
            ]
        },
        {
            "positions": [
                1.7441824616749044,
                -2.1934369785087524,
                0.5950776120126651,
                -0.5117532961885901,
                2.283536539480472,
                -0.07840825700727506
            ]
        },
        {
            "positions": [
                1.663842561275072,
                -2.196878152659971,
                0.4706533160627555,
                -0.42962350777108227,
                2.1958024438762203,
                -0.07203295556761798
            ]
        },
        {
            "positions": [
                1.58350266087524,
                -2.2003193268111905,
                0.3462290201128464,
                -0.34749371935357454,
                2.1080683482719684,
                -0.0656576541279609
            ]
        },
        {
            "positions": [
                1.5031627604754076,
                -2.2037605009624097,
                0.22180472416293706,
                -0.2653639309360667,
                2.020334252667716,
                -0.05928235268830381
            ]
        },
        {
            "positions": [
                1.4228228600755755,
                -2.2072016751136285,
                0.09738042821302773,
                -0.18323414251855907,
                1.9326001570634646,
                -0.05290705124864674
            ]
        },
        {
            "positions": [
                1.342482959675743,
                -2.2106428492648478,
                -0.02704386773688161,
                -0.10110435410105123,
                1.8448660614592127,
                -0.04653174980898965
            ]
        },
        {
            "positions": [
                1.2621430592759109,
                -2.2140840234160666,
                -0.15146816368679072,
                -0.01897456568354361,
                1.757131965854961,
                -0.040156448369332576
            ]
        },
        {
            "positions": [
                1.1818031588760787,
                -2.217525197567286,
                -0.27589245963670006,
                0.06315522273396423,
                1.669397870250709,
                -0.0337811469296755
            ]
        },
        {
            "positions": [
                1.1014632584762463,
                -2.2209663717185046,
                -0.4003167555866094,
                0.14528501115147208,
                1.5816637746464572,
                -0.027405845490018413
            ]
        },
        {
            "positions": [
                1.021123358076414,
                -2.224407545869724,
                -0.5247410515365183,
                0.2274147995689797,
                1.4939296790422054,
                -0.02103054405036134
            ]
        },
        {
            "positions": [
                0.9407834576765817,
                -2.2278487200209427,
                -0.6491653474864281,
                0.30954458798648776,
                1.4061955834379534,
                -0.01465524261070425
            ]
        },
        {
            "positions": [
                0.8604435572767495,
                -2.231289894172162,
                -0.7735896434363374,
                0.3916743764039954,
                1.3184614878337018,
                -0.008279941171047162
            ]
        },
        {
            "positions": [
                0.7801036568769173,
                -2.2347310683233808,
                -0.8980139393862463,
                0.473804164821503,
                1.23072739222945,
                -0.001904639731390101
            ]
        },
        {
            "positions": [
                0.6997637564770851,
                -2.2381722424746,
                -1.0224382353361556,
                0.5559339532390108,
                1.142993296625198,
                0.0044706617082669875
            ]
        },
        {
            "positions": [
                0.6194238560772527,
                -2.2416134166258193,
                -1.1468625312860654,
                0.6380637416565187,
                1.055259201020946,
                0.010845963147924076
            ]
        },
        {
            "positions": [
                0.5390839556774205,
                -2.245054590777038,
                -1.2712868272359743,
                0.7201935300740265,
                0.9675251054166942,
                0.017221264587581164
            ]
        },
        {
            "positions": [
                0.4587440552775881,
                -2.2484957649282573,
                -1.3957111231858836,
                0.8023233184915339,
                0.8797910098124424,
                0.023596566027238225
            ]
        },
        {
            "positions": [
                0.37840415487775614,
                -2.251936939079476,
                -1.520135419135793,
                0.8844531069090418,
                0.7920569142081906,
                0.029971867466895313
            ]
        },
        {
            "positions": [
                0.29806425447792373,
                -2.2553781132306954,
                -1.6445597150857023,
                0.9665828953265496,
                0.7043228186039387,
                0.0363471689065524
            ]
        },
        {
            "positions": [
                0.21772435407809132,
                -2.258819287381914,
                -1.7689840110356116,
                1.0487126837440575,
                0.6165887229996869,
                0.04272247034620949
            ]
        },
        {
            "positions": [
                0.13738445367825936,
                -2.2622604615331334,
                -1.8934083069855205,
                1.1308424721615653,
                0.5288546273954351,
                0.04909777178586655
            ]
        },
        {
            "positions": [
                0.057044553278426946,
                -2.2657016356843522,
                -2.01783260293543,
                1.2129722605790727,
                0.44112053179118327,
                0.05547307322552364
            ]
        },
        {
            "positions": [
                -0.023295347121405463,
                -2.2691428098355715,
                -2.1422568988853397,
                1.295102048996581,
                0.35338643618693144,
                0.06184837466518073
            ]
        },
        {
            "positions": [
                -0.10363524752123743,
                -2.2725839839867903,
                -2.2666811948352485,
                1.3772318374140884,
                0.2656523405826796,
                0.06822367610483779
            ]
        },
        {
            "positions": [
                -0.18397514792106967,
                -2.2760251581380095,
                -2.3911054907851583,
                1.4593616258315962,
                0.17791824497842773,
                0.07459897754449488
            ]
        }
    ]
}