{
    "goal": {
        "global_pose": {
            "orientation": {
                "w": 0.7031023480610252,
                "x": -0.7110244013736278,
                "y": 0.0077485991402295624,
                "z": 0.005598929693374583
            },
            "position": {
                "x": -0.8841497679147869,
                "y": 0.44412534475326537,
                "z": 0.3711530566215515
            }
        },
        "name": "move_to_auspresseinheit_D"
    },
    "id": "KPIECE_move_to_auspresseinheit_D_98",
    "joint_names": [
        "shoulder_pan_joint",
        "shoulder_lift_joint",
        "elbow_joint",
        "wrist_1_joint",
        "wrist_2_joint",
        "wrist_3_joint"
    ],
    "metrics": {
        "cart_traj_len": 0.3449273858204897,
        "distance_elbow_joint": 0.6711954349688507,
        "distance_shoulder_lift_joint": 0.14030202060435748,
        "distance_shoulder_pan_joint": 0.13424472948921923,
        "distance_wrist_1_joint": 0.6287199206167191,
        "distance_wrist_2_joint": 1.4436911696505885,
        "distance_wrist_3_joint": 0.08496432578360746,
        "smoothness": 0.0,
        "time": 0.099827482,
        "traj_len": 1.7615668029096547,
        "weighted_distance": 2.3120245117532523
    },
    "planner": "KPIECE",
    "start": {
        "state": {
            "elbow_joint": -1.8275484843655228,
            "shoulder_lift_joint": -2.1267897864000416,
            "shoulder_pan_joint": -0.035127520176001514,
            "wrist_1_joint": -2.3477863256791385,
            "wrist_2_joint": -1.605890476484521,
            "wrist_3_joint": -3.0880375317375353
        }
    },
    "waypoints": [
        {
            "positions": [
                -0.035127520176001514,
                -2.1267897864000416,
                -1.8275484843655228,
                -2.3477863256791385,
                -1.605890476484521,
                -3.0880375317375353
            ]
        },
        {
            "positions": [
                -0.05190811136215392,
                -2.1443275389755865,
                -1.7436490549944164,
                -2.4263763157562286,
                -1.4254290802781975,
                -3.0774169910145845
            ]
        },
        {
            "positions": [
                -0.06868870254830632,
                -2.161865291551131,
                -1.6597496256233102,
                -2.5049663058333183,
                -1.2449676840718737,
                -3.0667964502916334
            ]
        },
        {
            "positions": [
                -0.08546929373445872,
                -2.1794030441266754,
                -1.5758501962522038,
                -2.583556295910408,
                -1.0645062878655502,
                -3.0561759095686822
            ]
        },
        {
            "positions": [
                -0.10224988492061113,
                -2.1969407967022203,
                -1.4919507668810974,
                -2.662146285987498,
                -0.8840448916592267,
                -3.0455553688457315
            ]
        },
        {
            "positions": [
                -0.11903047610676354,
                -2.214478549277765,
                -1.408051337509991,
                -2.740736276064588,
                -0.7035834954529032,
                -3.034934828122781
            ]
        },
        {
            "positions": [
                -0.13581106729291592,
                -2.2320163018533097,
                -1.3241519081388846,
                -2.819326266141678,
                -0.5231220992465795,
                -3.0243142873998297
            ]
        },
        {
            "positions": [
                -0.15259165847906833,
                -2.249554054428854,
                -1.2402524787677784,
                -2.8979162562187675,
                -0.342660703040256,
                -3.0136937466768785
            ]
        },
        {
            "positions": [
                -0.16937224966522074,
                -2.267091807004399,
                -1.156353049396672,
                -2.9765062462958576,
                -0.16219930683393247,
                -3.003073205953928
            ]
        }
    ]
}