{
    "goal": {
        "global_pose": {
            "orientation": {
                "w": 0.5084816262002911,
                "x": -0.4908360881923452,
                "y": 0.5182115481033761,
                "z": -0.48164630358495003
            },
            "position": {
                "x": 0.5540239810943604,
                "y": -0.46912469901144505,
                "z": 0.16403168439865112
            }
        },
        "name": "move_to_storage_B"
    },
    "id": "KPIECE_move_to_storage_B_37",
    "joint_names": [
        "shoulder_pan_joint",
        "shoulder_lift_joint",
        "elbow_joint",
        "wrist_1_joint",
        "wrist_2_joint",
        "wrist_3_joint"
    ],
    "metrics": {
        "cart_traj_len": 0.604683542711794,
        "distance_elbow_joint": 0.35203785350775463,
        "distance_shoulder_lift_joint": 0.4595088340062965,
        "distance_shoulder_pan_joint": 0.23454478142894586,
        "distance_wrist_1_joint": 2.990835152167663,
        "distance_wrist_2_joint": 2.714036884341059,
        "distance_wrist_3_joint": 3.1333633105418333,
        "smoothness": 0.026907386136616567,
        "time": 0.130480363,
        "traj_len": 3.143934925534171,
        "weighted_distance": 4.675032136101948
    },
    "planner": "KPIECE",
    "start": {
        "state": {
            "elbow_joint": 1.6649325340416963,
            "shoulder_lift_joint": -0.6616387945129425,
            "shoulder_pan_joint": -0.9139837929255878,
            "wrist_1_joint": 2.1467571094334352,
            "wrist_2_joint": -2.234195976750228,
            "wrist_3_joint": 0.005470921511140723
        }
    },
    "waypoints": [
        {
            "positions": [
                -0.9139837929255878,
                -0.6616387945129425,
                1.6649325340416963,
                2.1467571094334352,
                -2.234195976750228,
                0.005470921511140723
            ]
        },
        {
            "positions": [
                -0.8872629278180606,
                -0.6951167709819973,
                1.6866557245902007,
                1.9863254564825468,
                -2.133729700883528,
                -0.0065782099360791645
            ]
        },
        {
            "positions": [
                -0.8955758844709173,
                -0.7121580052834869,
                1.6998683111085708,
                1.8731093165138757,
                -2.0291868765445535,
                -0.13143077709986367
            ]
        },
        {
            "positions": [
                -0.9038888411237741,
                -0.7291992395849767,
                1.7130808976269407,
                1.7598931765452048,
                -1.9246440522055792,
                -0.2562833442636482
            ]
        },
        {
            "positions": [
                -0.9122017977766308,
                -0.7462404738864663,
                1.7262934841453108,
                1.6466770365765337,
                -1.8201012278666049,
                -0.3811359114274327
            ]
        },
        {
            "positions": [
                -0.9205147544294876,
                -0.7632817081879559,
                1.7395060706636807,
                1.5334608966078629,
                -1.7155584035276303,
                -0.5059884785912172
            ]
        },
        {
            "positions": [
                -0.9288277110823443,
                -0.7803229424894457,
                1.7527186571820508,
                1.4202447566391918,
                -1.611015579188656,
                -0.6308410457550018
            ]
        },
        {
            "positions": [
                -0.9371406677352011,
                -0.7973641767909353,
                1.7659312437004209,
                1.307028616670521,
                -1.5064727548496817,
                -0.7556936129187862
            ]
        },
        {
            "positions": [
                -0.9454536243880578,
                -0.814405411092425,
                1.7791438302187907,
                1.1938124767018499,
                -1.4019299305107071,
                -0.8805461800825708
            ]
        },
        {
            "positions": [
                -0.9537665810409146,
                -0.8314466453939147,
                1.7923564167371608,
                1.080596336733179,
                -1.2973871061717328,
                -1.0053987472463553
            ]
        },
        {
            "positions": [
                -0.9620795376937713,
                -0.8484878796954043,
                1.8055690032555307,
                0.9673801967645079,
                -1.1928442818327585,
                -1.1302513144101398
            ]
        },
        {
            "positions": [
                -0.970392494346628,
                -0.865529113996894,
                1.8187815897739008,
                0.8541640567958368,
                -1.0883014574937842,
                -1.2551038815739244
            ]
        },
        {
            "positions": [
                -0.9787054509994848,
                -0.8825703482983837,
                1.831994176292271,
                0.740947916827166,
                -0.9837586331548098,
                -1.3799564487377087
            ]
        },
        {
            "positions": [
                -0.9870184076523415,
                -0.8996115825998733,
                1.8452067628106408,
                0.6277317768584951,
                -0.8792158088158355,
                -1.5048090159014933
            ]
        },
        {
            "positions": [
                -0.9953313643051983,
                -0.916652816901363,
                1.8584193493290109,
                0.5145156368898238,
                -0.7746729844768612,
                -1.6296615830652779
            ]
        },
        {
            "positions": [
                -1.003644320958055,
                -0.9336940512028526,
                1.8716319358473807,
                0.40129949692115274,
                -0.6701301601378866,
                -1.7545141502290624
            ]
        },
        {
            "positions": [
                -1.0119572776109118,
                -0.9507352855043423,
                1.8848445223657508,
                0.2880833569524821,
                -0.5655873357989125,
                -1.8793667173928468
            ]
        },
        {
            "positions": [
                -1.0202702342637684,
                -0.967776519805832,
                1.898057108884121,
                0.17486721698381102,
                -0.46104451145993797,
                -2.0042192845566316
            ]
        },
        {
            "positions": [
                -1.0285831909166252,
                -0.9848177541073218,
                1.9112696954024908,
                0.06165107701513994,
                -0.35650168712096364,
                -2.129071851720416
            ]
        },
        {
            "positions": [
                -1.036896147569482,
                -1.0018589884088114,
                1.924482281920861,
                -0.051565062953530916,
                -0.2519588627819893,
                -2.2539244188842007
            ]
        },
        {
            "positions": [
                -1.0452091042223388,
                -1.018900222710301,
                1.9376948684392308,
                -0.16478120292220177,
                -0.14741603844301499,
                -2.3787769860479853
            ]
        },
        {
            "positions": [
                -1.0535220608751956,
                -1.0359414570117906,
                1.9509074549576009,
                -0.2779973428908731,
                -0.042873214104040436,
                -2.50362955321177
            ]
        },
        {
            "positions": [
                -1.0618350175280522,
                -1.0529826913132803,
                1.964120041475971,
                -0.39121348285954394,
                0.06166961023493345,
                -2.628482120375554
            ]
        },
        {
            "positions": [
                -1.070147974180909,
                -1.07002392561477,
                1.9773326279943408,
                -0.5044296228282148,
                0.16621243457390822,
                -2.7533346875393385
            ]
        },
        {
            "positions": [
                -1.0784609308337658,
                -1.0870651599162597,
                1.990545214512711,
                -0.6176457627968861,
                0.27075525891288255,
                -2.8781872547031235
            ]
        },
        {
            "positions": [
                -1.0867738874866224,
                -1.1041063942177494,
                2.003757801031081,
                -0.7308619027655565,
                0.3752980832518569,
                -3.0030398218669077
            ]
        },
        {
            "positions": [
                -1.0950868441394792,
                -1.121147628519239,
                2.016970387549451,
                -0.8440780427342278,
                0.4798409075908311,
                -3.1278923890306922
            ]
        }
    ]
}