{
    "goal": {
        "global_pose": {
            "orientation": {
                "w": 0.5084816262002911,
                "x": -0.4908360881923452,
                "y": 0.5182115481033761,
                "z": -0.48164630358495003
            },
            "position": {
                "x": 0.5540239810943604,
                "y": -0.46912469901144505,
                "z": 0.16403168439865112
            }
        },
        "name": "move_to_storage_B"
    },
    "id": "KPIECE_move_to_storage_B_132",
    "joint_names": [
        "shoulder_pan_joint",
        "shoulder_lift_joint",
        "elbow_joint",
        "wrist_1_joint",
        "wrist_2_joint",
        "wrist_3_joint"
    ],
    "metrics": {
        "cart_traj_len": 2.5388889088220115,
        "distance_elbow_joint": 1.446748142006659,
        "distance_shoulder_lift_joint": 1.297953086699201,
        "distance_shoulder_pan_joint": 2.0100609929017326,
        "distance_wrist_1_joint": 2.997988562732127,
        "distance_wrist_2_joint": 2.702327166986946,
        "distance_wrist_3_joint": 3.1271078028867456,
        "smoothness": 0.22453089458852166,
        "time": 0.0818793,
        "traj_len": 3.685401708662627,
        "weighted_distance": 5.053386695049765
    },
    "planner": "KPIECE",
    "start": {
        "state": {
            "elbow_joint": 1.6649325340416963,
            "shoulder_lift_joint": -0.6616387945129425,
            "shoulder_pan_joint": -0.9139837929255878,
            "wrist_1_joint": 2.1467571094334352,
            "wrist_2_joint": -2.234195976750228,
            "wrist_3_joint": 0.005470921511140723
        }
    },
    "waypoints": [
        {
            "positions": [
                -0.9139837929255878,
                -0.6616387945129425,
                1.6649325340416963,
                2.1467571094334352,
                -2.234195976750228,
                0.005470921511140723
            ]
        },
        {
            "positions": [
                -0.897011983126236,
                -0.6729936221510472,
                1.6528509764971124,
                2.122834045674071,
                -2.2157544483044296,
                -0.0022952980905083667
            ]
        },
        {
            "positions": [
                -0.8596166876873556,
                -0.7091127291959842,
                1.6305151847191397,
                2.008063850025035,
                -2.119675067634067,
                -0.08085769491976522
            ]
        },
        {
            "positions": [
                -0.8222213922484751,
                -0.7452318362409213,
                1.608179392941167,
                1.893293654375999,
                -2.023595686963705,
                -0.15942009174902208
            ]
        },
        {
            "positions": [
                -0.7848260968095946,
                -0.7813509432858583,
                1.5858436011631944,
                1.7785234587269634,
                -1.927516306293343,
                -0.23798248857827894
            ]
        },
        {
            "positions": [
                -0.7474308013707142,
                -0.8174700503307952,
                1.5635078093852217,
                1.6637532630779275,
                -1.8314369256229805,
                -0.3165448854075358
            ]
        },
        {
            "positions": [
                -0.7100355059318337,
                -0.8535891573757324,
                1.541172017607249,
                1.5489830674288916,
                -1.7353575449526182,
                -0.39510728223679265
            ]
        },
        {
            "positions": [
                -0.6726402104929532,
                -0.8897082644206693,
                1.5188362258292762,
                1.4342128717798557,
                -1.639278164282256,
                -0.4736696790660495
            ]
        },
        {
            "positions": [
                -0.6352449150540728,
                -0.9258273714656065,
                1.4965004340513035,
                1.3194426761308198,
                -1.5431987836118939,
                -0.5522320758953063
            ]
        },
        {
            "positions": [
                -0.5978496196151923,
                -0.9619464785105434,
                1.474164642273331,
                1.204672480481784,
                -1.4471194029415315,
                -0.6307944727245631
            ]
        },
        {
            "positions": [
                -0.5604543241763119,
                -0.9980655855554804,
                1.4518288504953583,
                1.089902284832748,
                -1.3510400222711691,
                -0.70935686955382
            ]
        },
        {
            "positions": [
                -0.5230590287374315,
                -1.0341846926004175,
                1.4294930587173855,
                0.9751320891837121,
                -1.254960641600807,
                -0.7879192663830769
            ]
        },
        {
            "positions": [
                -0.485663733298551,
                -1.0703037996453544,
                1.4071572669394128,
                0.8603618935346764,
                -1.1588812609304449,
                -0.8664816632123337
            ]
        },
        {
            "positions": [
                -0.4482684378596705,
                -1.1064229066902915,
                1.38482147516144,
                0.7455916978856405,
                -1.0628018802600825,
                -0.9450440600415906
            ]
        },
        {
            "positions": [
                -0.4108731424207901,
                -1.1425420137352285,
                1.3624856833834675,
                0.6308215022366048,
                -0.9667224995897203,
                -1.0236064568708474
            ]
        },
        {
            "positions": [
                -0.37347784698190956,
                -1.1786611207801656,
                1.3401498916054948,
                0.5160513065875687,
                -0.870643118919358,
                -1.1021688537001044
            ]
        },
        {
            "positions": [
                -0.33608255154302913,
                -1.2147802278251025,
                1.317814099827522,
                0.401281110938533,
                -0.7745637382489958,
                -1.1807312505293612
            ]
        },
        {
            "positions": [
                -0.2986872561041487,
                -1.2508993348700397,
                1.2954783080495496,
                0.2865109152894971,
                -0.6784843575786335,
                -1.259293647358618
            ]
        },
        {
            "positions": [
                -0.26129196066526816,
                -1.2870184419149766,
                1.2731425162715766,
                0.171740719640461,
                -0.5824049769082711,
                -1.337856044187875
            ]
        },
        {
            "positions": [
                -0.22389666522638785,
                -1.3231375489599135,
                1.250806724493604,
                0.056970523991425104,
                -0.48632559623790894,
                -1.4164184410171319
            ]
        },
        {
            "positions": [
                -0.18650136978750742,
                -1.3592566560048507,
                1.2284709327156313,
                -0.057799671657610574,
                -0.3902462155675468,
                -1.4949808378463887
            ]
        },
        {
            "positions": [
                -0.14910607434862688,
                -1.3953757630497878,
                1.2061351409376586,
                -0.1725698673066467,
                -0.2941668348971844,
                -1.5735432346756455
            ]
        },
        {
            "positions": [
                -0.11171077890974646,
                -1.4314948700947245,
                1.183799349159686,
                -0.2873400629556824,
                -0.19808745422682206,
                -1.6521056315049023
            ]
        },
        {
            "positions": [
                -0.07431548347086603,
                -1.4676139771396617,
                1.1614635573817134,
                -0.40211025860471805,
                -0.10200807355646013,
                -1.7306680283341591
            ]
        },
        {
            "positions": [
                -0.03692018803198549,
                -1.5037330841845988,
                1.1391277656037406,
                -0.5168804542537542,
                -0.005928692886097764,
                -1.8092304251634161
            ]
        },
        {
            "positions": [
                0.0004751074068948813,
                -1.5398521912295358,
                1.116791973825768,
                -0.63165064990279,
                0.09015068778426451,
                -1.887792821992673
            ]
        },
        {
            "positions": [
                -0.09912508282667326,
                -1.5016940375947532,
                1.1984835721703797,
                -0.6516125411205993,
                0.12451255164357855,
                -1.9999604637547577
            ]
        },
        {
            "positions": [
                -0.1987252730602414,
                -1.4635358839599708,
                1.2801751705149917,
                -0.6715744323384086,
                0.1588744155028926,
                -2.1121281055168426
            ]
        },
        {
            "positions": [
                -0.29832546329380955,
                -1.4253777303251882,
                1.3618667688596036,
                -0.691536323556218,
                0.19323627936220666,
                -2.2242957472789273
            ]
        },
        {
            "positions": [
                -0.3979256535273777,
                -1.3872195766904056,
                1.4435583672042154,
                -0.7114982147740273,
                0.22759814322152072,
                -2.336463389041012
            ]
        },
        {
            "positions": [
                -0.49752584376094583,
                -1.349061423055623,
                1.5252499655488272,
                -0.7314601059918366,
                0.2619600070808348,
                -2.4486310308030967
            ]
        },
        {
            "positions": [
                -0.5971260339945139,
                -1.3109032694208407,
                1.606941563893439,
                -0.7514219972096461,
                0.2963218709401488,
                -2.5607986725651815
            ]
        },
        {
            "positions": [
                -0.6967262242280821,
                -1.272745115786058,
                1.688633162238051,
                -0.7713838884274553,
                0.3306837347994629,
                -2.672966314327266
            ]
        },
        {
            "positions": [
                -0.7963264144616502,
                -1.2345869621512755,
                1.770324760582663,
                -0.7913457796452648,
                0.3650455986587769,
                -2.7851339560893513
            ]
        },
        {
            "positions": [
                -0.8959266046952183,
                -1.196428808516493,
                1.852016358927275,
                -0.8113076708630741,
                0.399407462518091,
                -2.897301597851436
            ]
        },
        {
            "positions": [
                -0.9955267949287865,
                -1.1582706548817105,
                1.9337079572718867,
                -0.8312695620808834,
                0.433769326377405,
                -3.0094692396135208
            ]
        },
        {
            "positions": [
                -1.0951269851623546,
                -1.120112501246928,
                2.0153995556164985,
                -0.8512314532986928,
                0.46813119023671906,
                -3.1216368813756055
            ]
        }
    ]
}