{
    "goal": {
        "global_pose": {
            "orientation": {
                "w": -0.4816463035849501,
                "x": 0.5182115481033762,
                "y": 0.4908360881923453,
                "z": -0.5084816262002911
            },
            "position": {
                "x": -0.8240239810943604,
                "y": -0.300875300988555,
                "z": 0.16403168439865112
            }
        },
        "name": "move_to_storage_C"
    },
    "id": "KPIECE_move_to_storage_C_127",
    "joint_names": [
        "shoulder_pan_joint",
        "shoulder_lift_joint",
        "elbow_joint",
        "wrist_1_joint",
        "wrist_2_joint",
        "wrist_3_joint"
    ],
    "metrics": {
        "cart_traj_len": 0.576271785302894,
        "distance_elbow_joint": 0.25584375503577395,
        "distance_shoulder_lift_joint": 0.18875304527333114,
        "distance_shoulder_pan_joint": 0.49426078254459505,
        "distance_wrist_1_joint": 0.06969232705532447,
        "distance_wrist_2_joint": 1.0685505531176613,
        "distance_wrist_3_joint": 0.05500569243075493,
        "smoothness": 5.075305295617109e-16,
        "time": 0.192298527,
        "traj_len": 1.4601733306212112,
        "weighted_distance": 1.838575649923586
    },
    "planner": "KPIECE",
    "start": {
        "state": {
            "elbow_joint": 2.0108683149792914,
            "shoulder_lift_joint": -1.1634956873317392,
            "shoulder_pan_joint": -2.4736205022346,
            "wrist_1_joint": -0.8367026793690192,
            "wrist_2_joint": 0.6746043897045053,
            "wrist_3_joint": 3.133522094754363
        }
    },
    "waypoints": [
        {
            "positions": [
                -2.4736205022346,
                -1.1634956873317392,
                2.0108683149792914,
                -0.8367026793690192,
                0.6746043897045053,
                3.133522094754363
            ]
        },
        {
            "positions": [
                -2.555997299325366,
                -1.1320368464528507,
                1.9682276891399957,
                -0.8250872915264651,
                0.8526961485574489,
                3.142689710159489
            ]
        },
        {
            "positions": [
                -2.6383740964161317,
                -1.1005780055739622,
                1.9255870633007002,
                -0.8134719036839111,
                1.0307879074103923,
                3.151857325564615
            ]
        },
        {
            "positions": [
                -2.7207508935068976,
                -1.0691191646950737,
                1.8829464374614044,
                -0.801856515841357,
                1.208879666263336,
                3.1610249409697406
            ]
        },
        {
            "positions": [
                -2.8031276905976634,
                -1.0376603238161852,
                1.8403058116221087,
                -0.7902411279988029,
                1.3869714251162795,
                3.1701925563748663
            ]
        },
        {
            "positions": [
                -2.8855044876884293,
                -1.0062014829372967,
                1.7976651857828132,
                -0.7786257401562489,
                1.5650631839692233,
                3.1793601717799924
            ]
        },
        {
            "positions": [
                -2.967881284779195,
                -0.9747426420584081,
                1.7550245599435175,
                -0.7670103523136947,
                1.7431549428221667,
                3.188527787185118
            ]
        }
    ]
}