{
    "goal": {
        "global_pose": {
            "orientation": {
                "w": 0.7047431493862688,
                "x": -0.7094548369677653,
                "y": 0.0024358444001904,
                "z": -0.0022348060817251984
            },
            "position": {
                "x": -0.39052492380142206,
                "y": 0.3671506643295288,
                "z": 0.19426114857196808
            }
        },
        "name": "move_to_magneteinheit_D"
    },
    "id": "KPIECE_move_to_magneteinheit_D_62",
    "joint_names": [
        "shoulder_pan_joint",
        "shoulder_lift_joint",
        "elbow_joint",
        "wrist_1_joint",
        "wrist_2_joint",
        "wrist_3_joint"
    ],
    "metrics": {
        "cart_traj_len": 4.07756525724336,
        "distance_elbow_joint": 3.336546460135773,
        "distance_shoulder_lift_joint": 1.096503276980008,
        "distance_shoulder_pan_joint": 2.8606125991099893,
        "distance_wrist_1_joint": 4.884220752481912,
        "distance_wrist_2_joint": 1.8925300452971483,
        "distance_wrist_3_joint": 3.9379176053884395,
        "smoothness": 0.1506670308833751,
        "time": 0.293069655,
        "traj_len": 4.243622360601054,
        "weighted_distance": 5.7149730312530105
    },
    "planner": "KPIECE",
    "start": {
        "state": {
            "elbow_joint": 0.7495348899011911,
            "shoulder_lift_joint": -0.6476975780737668,
            "shoulder_pan_joint": -2.711696901376276,
            "wrist_1_joint": -0.0750647808097303,
            "wrist_2_joint": 0.43296659715458535,
            "wrist_3_joint": 3.1361499051832418
        }
    },
    "waypoints": [
        {
            "positions": [
                -2.711696901376276,
                -0.6476975780737668,
                0.7495348899011911,
                -0.0750647808097303,
                0.43296659715458535,
                3.1361499051832418
            ]
        },
        {
            "positions": [
                -2.713019799509964,
                -0.6772424839230688,
                0.7763236133990808,
                0.031417484566923684,
                0.4815070729646909,
                3.0247009466012305
            ]
        },
        {
            "positions": [
                -2.7143426976436515,
                -0.7067873897723709,
                0.8031123368969705,
                0.13789974994357768,
                0.5300475487747964,
                2.913251988019219
            ]
        },
        {
            "positions": [
                -2.7156655957773395,
                -0.7363322956216729,
                0.8299010603948602,
                0.24438201532023165,
                0.578588024584902,
                2.801803029437208
            ]
        },
        {
            "positions": [
                -2.7029756148538424,
                -0.7674159502918423,
                0.837758715685999,
                0.3283225696398875,
                0.6174256270556662,
                2.6992328847982026
            ]
        },
        {
            "positions": [
                -2.690285633930346,
                -0.7984996049620117,
                0.8456163709771379,
                0.41226312395954334,
                0.6562632295264305,
                2.596662740159197
            ]
        },
        {
            "positions": [
                -2.6775956530068488,
                -0.829583259632181,
                0.8534740262682767,
                0.4962036782791992,
                0.6951008319971946,
                2.4940925955201916
            ]
        },
        {
            "positions": [
                -2.651969753441667,
                -0.8730311898042963,
                0.853071112699509,
                0.5977998855668875,
                0.7425356379266497,
                2.3589478008353506
            ]
        },
        {
            "positions": [
                -2.6263438538764854,
                -0.9164791199764115,
                0.8526681991307412,
                0.6993960928545757,
                0.7899704438561046,
                2.2238030061505096
            ]
        },
        {
            "positions": [
                -2.600717954311304,
                -0.9599270501485266,
                0.8522652855619736,
                0.8009923001422639,
                0.8374052497855596,
                2.0886582114656687
            ]
        },
        {
            "positions": [
                -2.5750920547461225,
                -1.003374980320642,
                0.8518623719932058,
                0.9025885074299521,
                0.8848400557150147,
                1.9535134167808277
            ]
        },
        {
            "positions": [
                -2.5494661551809408,
                -1.046822910492757,
                0.851459458424438,
                1.0041847147176404,
                0.9322748616444696,
                1.8183686220959867
            ]
        },
        {
            "positions": [
                -2.5238402556157595,
                -1.0902708406648722,
                0.8510565448556704,
                1.1057809220053285,
                0.9797096675739246,
                1.6832238274111455
            ]
        },
        {
            "positions": [
                -2.498214356050578,
                -1.1337187708369876,
                0.8506536312869026,
                1.2073771292930169,
                1.0271444735033797,
                1.5480790327263045
            ]
        },
        {
            "positions": [
                -2.472588456485396,
                -1.1771667010091027,
                0.8502507177181349,
                1.308973336580705,
                1.0745792794328346,
                1.4129342380414636
            ]
        },
        {
            "positions": [
                -2.39783825676077,
                -1.1899278421037645,
                0.7781290213503936,
                1.2662918957473606,
                1.0654863074833072,
                1.3826252992733714
            ]
        },
        {
            "positions": [
                -2.2806249365559617,
                -1.1986112871209587,
                0.6576042957632908,
                1.1663419689578465,
                1.0373373634979912,
                1.3719498309567293
            ]
        },
        {
            "positions": [
                -2.163411616351153,
                -1.2072947321381529,
                0.5370795701761881,
                1.0663920421683324,
                1.0091884195126752,
                1.3612743626400872
            ]
        },
        {
            "positions": [
                -2.0461982961463447,
                -1.215978177155347,
                0.4165548445890853,
                0.9664421153788183,
                0.9810394755273594,
                1.350598894323445
            ]
        },
        {
            "positions": [
                -1.928984975941536,
                -1.2246616221725415,
                0.29603011900198256,
                0.8664921885893042,
                0.9528905315420435,
                1.339923426006803
            ]
        },
        {
            "positions": [
                -1.8117716557367274,
                -1.2333450671897357,
                0.1755053934148798,
                0.7665422617997901,
                0.9247415875567275,
                1.3292479576901608
            ]
        },
        {
            "positions": [
                -1.694558335531919,
                -1.24202851220693,
                0.054980667827777,
                0.666592335010276,
                0.8965926435714116,
                1.3185724893735187
            ]
        },
        {
            "positions": [
                -1.5773450153271105,
                -1.250711957224124,
                -0.06554405775932581,
                0.566642408220762,
                0.8684436995860957,
                1.3078970210568766
            ]
        },
        {
            "positions": [
                -1.460131695122302,
                -1.2593954022413183,
                -0.1860687833464285,
                0.46669248143124786,
                0.8402947556007798,
                1.2972215527402344
            ]
        },
        {
            "positions": [
                -1.3429183749174933,
                -1.2680788472585125,
                -0.3065935089335313,
                0.3667425546417338,
                0.8121458116154638,
                1.2865460844235923
            ]
        },
        {
            "positions": [
                -1.2257050547126849,
                -1.276762292275707,
                -0.427118234520634,
                0.2667926278522196,
                0.7839968676301479,
                1.2758706161069502
            ]
        },
        {
            "positions": [
                -1.1084917345078762,
                -1.2854457372929011,
                -0.5476429601077369,
                0.16684270106270538,
                0.7558479236448319,
                1.2651951477903078
            ]
        },
        {
            "positions": [
                -0.991278414303068,
                -1.2941291823100953,
                -0.6681676856948396,
                0.06689277427319151,
                0.727698979659516,
                1.2545196794736657
            ]
        },
        {
            "positions": [
                -0.8740650940982593,
                -1.3028126273272895,
                -0.7886924112819426,
                -0.033057152516322796,
                0.6995500356742002,
                1.2438442111570236
            ]
        },
        {
            "positions": [
                -0.7568517738934508,
                -1.3114960723444837,
                -0.9092171368690453,
                -0.13300707930583666,
                0.6714010916888842,
                1.2331687428403815
            ]
        },
        {
            "positions": [
                -0.6396384536886421,
                -1.320179517361678,
                -1.0297418624561483,
                -0.23295700609535097,
                0.6432521477035682,
                1.2224932745237393
            ]
        },
        {
            "positions": [
                -0.5224251334838337,
                -1.3288629623788721,
                -1.1502665880432508,
                -0.33290693288486484,
                0.6151032037182523,
                1.2118178062070972
            ]
        },
        {
            "positions": [
                -0.4052118132790252,
                -1.3375464073960666,
                -1.2707913136303537,
                -0.43285685967437915,
                0.5869542597329364,
                1.201142337890455
            ]
        },
        {
            "positions": [
                -0.28799849307421654,
                -1.3462298524132608,
                -1.3913160392174562,
                -0.532806786463893,
                0.5588053157476205,
                1.190466869573813
            ]
        },
        {
            "positions": [
                -0.17078517286940798,
                -1.354913297430455,
                -1.511840764804559,
                -0.6327567132534073,
                0.5306563717623045,
                1.1797914012571709
            ]
        },
        {
            "positions": [
                -0.15868503368646572,
                -1.3776783860463402,
                -1.5784614582818293,
                -0.7385056028895238,
                0.4844966575872228,
                1.3009630978983575
            ]
        },
        {
            "positions": [
                -0.14658489450352347,
                -1.4004434746622254,
                -1.6450821517590994,
                -0.8442544925256402,
                0.43833694341214113,
                1.4221347945395442
            ]
        },
        {
            "positions": [
                -0.13448475532058118,
                -1.4232085632781106,
                -1.7117028452363696,
                -0.9500033821617566,
                0.3921772292370594,
                1.5433064911807306
            ]
        },
        {
            "positions": [
                -0.12238461613763894,
                -1.4459736518939958,
                -1.7783235387136398,
                -1.0557522717978731,
                0.3460175150619777,
                1.6644781878219173
            ]
        },
        {
            "positions": [
                -0.11028447695469668,
                -1.468738740509881,
                -1.8449442321909102,
                -1.1615011614339896,
                0.29985780088689595,
                1.785649884463104
            ]
        },
        {
            "positions": [
                -0.09818433777175442,
                -1.4915038291257665,
                -1.9115649256681804,
                -1.2672500510701061,
                0.25369808671181426,
                1.9068215811042906
            ]
        },
        {
            "positions": [
                -0.08608419858881215,
                -1.5142689177416517,
                -1.9781856191454505,
                -1.3729989407062226,
                0.20753837253673252,
                2.027993277745477
            ]
        },
        {
            "positions": [
                -0.07398405940586991,
                -1.537034006357537,
                -2.044806312622721,
                -1.478747830342339,
                0.16137865836165088,
                2.1491649743866637
            ]
        },
        {
            "positions": [
                -0.061883920222927644,
                -1.5597990949734222,
                -2.111427006099991,
                -1.5844967199784554,
                0.11521894418656914,
                2.2703366710278505
            ]
        },
        {
            "positions": [
                -0.049783781039985375,
                -1.5825641835893074,
                -2.1780476995772613,
                -1.690245609614572,
                0.0690592300114874,
                2.3915083676690374
            ]
        },
        {
            "positions": [
                -0.03768364185704312,
                -1.6053292722051926,
                -2.2446683930545315,
                -1.7959944992506882,
                0.022899515836405704,
                2.5126800643102234
            ]
        },
        {
            "positions": [
                -0.02558350267410086,
                -1.6280943608210778,
                -2.3112890865318017,
                -1.9017433888868047,
                -0.023260198338675965,
                2.6338517609514103
            ]
        },
        {
            "positions": [
                -0.022126891802957113,
                -1.6511737789655345,
                -2.369675722839093,
                -2.000546110118542,
                -0.06763130554780789,
                2.756413334697025
            ]
        },
        {
            "positions": [
                -0.0852248861793828,
                -1.6896741190821754,
                -2.3659386053559075,
                -2.082942083427751,
                -0.11051398236069368,
                2.921201798814213
            ]
        },
        {
            "positions": [
                -0.1483228805558085,
                -1.728174459198816,
                -2.3622014878727224,
                -2.16533805673696,
                -0.15339665917357947,
                3.0859902629314013
            ]
        },
        {
            "positions": [
                -0.18523209253750084,
                -1.7442008550537749,
                -2.360218148177776,
                -2.1912092985107736,
                -0.176338083586064,
                3.161350502719539
            ]
        }
    ]
}