{
    "goal": {
        "global_pose": {
            "orientation": {
                "w": -0.00223480608172531,
                "x": 0.0024358444001904467,
                "y": 0.7094548369677653,
                "z": -0.704743149386269
            },
            "position": {
                "x": 0.6205249238014221,
                "y": -0.6371506643295288,
                "z": 0.19426114857196808
            }
        },
        "name": "move_to_magneteinheit_B"
    },
    "id": "KPIECE_move_to_magneteinheit_B_64",
    "joint_names": [
        "shoulder_pan_joint",
        "shoulder_lift_joint",
        "elbow_joint",
        "wrist_1_joint",
        "wrist_2_joint",
        "wrist_3_joint"
    ],
    "metrics": {
        "cart_traj_len": 3.5560812186635338,
        "distance_elbow_joint": 4.746657866453743,
        "distance_shoulder_lift_joint": 3.529331593854758,
        "distance_shoulder_pan_joint": 3.0680833008598287,
        "distance_wrist_1_joint": 1.4811584555215238,
        "distance_wrist_2_joint": 1.4796096620798314,
        "distance_wrist_3_joint": 8.468812095592948,
        "smoothness": 0.45766067443007397,
        "time": 0.42206381699999995,
        "traj_len": 4.772174868376331,
        "weighted_distance": 6.532384349006867
    },
    "planner": "KPIECE",
    "start": {
        "state": {
            "elbow_joint": 2.393587130804639,
            "shoulder_lift_joint": -1.9085141043513325,
            "shoulder_pan_joint": 0.7066247066698809,
            "wrist_1_joint": -0.4678290934590222,
            "wrist_2_joint": 0.7096259084215963,
            "wrist_3_joint": 3.147370379541726
        }
    },
    "waypoints": [
        {
            "positions": [
                0.7066247066698809,
                -1.9085141043513325,
                2.393587130804639,
                -0.4678290934590222,
                0.7096259084215963,
                3.147370379541726
            ]
        },
        {
            "positions": [
                0.7405891157284068,
                -1.9667958331797064,
                2.4063074759835414,
                -0.47074644786217523,
                0.5590883451096267,
                3.0589295925340276
            ]
        },
        {
            "positions": [
                0.7745535247869328,
                -2.02507756200808,
                2.4190278211624436,
                -0.47366380226532834,
                0.408550781797657,
                2.970488805526329
            ]
        },
        {
            "positions": [
                0.8356465258574025,
                -1.988125765596728,
                2.308986174452931,
                -0.4464775853452394,
                0.39450981408104985,
                2.8298130990997157
            ]
        },
        {
            "positions": [
                0.8967395269278722,
                -1.9511739691853758,
                2.1989445277434183,
                -0.4192913684251505,
                0.38046884636444267,
                2.689137392673102
            ]
        },
        {
            "positions": [
                0.957832527998342,
                -1.9142221727740236,
                2.088902881033906,
                -0.39210515150506164,
                0.3664278786478355,
                2.548461686246488
            ]
        },
        {
            "positions": [
                1.0189255290688117,
                -1.8772703763626715,
                1.9788612343243934,
                -0.3649189345849727,
                0.3523869109312283,
                2.4077859798198746
            ]
        },
        {
            "positions": [
                1.0800185301392813,
                -1.8403185799513193,
                1.8688195876148808,
                -0.3377327176648838,
                0.3383459432146212,
                2.267110273393261
            ]
        },
        {
            "positions": [
                1.1411115312097508,
                -1.8033667835399672,
                1.758777940905368,
                -0.3105465007447949,
                0.324304975498014,
                2.1264345669666476
            ]
        },
        {
            "positions": [
                1.2022045322802206,
                -1.766414987128615,
                1.6487362941958557,
                -0.283360283824706,
                0.31026400778140684,
                1.985758860540034
            ]
        },
        {
            "positions": [
                1.2632975333506904,
                -1.7294631907172628,
                1.538694647486343,
                -0.2561740669046171,
                0.29622304006479966,
                1.8450831541134203
            ]
        },
        {
            "positions": [
                1.32439053442116,
                -1.6925113943059107,
                1.4286530007768303,
                -0.22898784998452817,
                0.2821820723481925,
                1.7044074476868065
            ]
        },
        {
            "positions": [
                1.3854835354916297,
                -1.6555595978945585,
                1.3186113540673179,
                -0.20180163306443927,
                0.2681411046315853,
                1.563731741260193
            ]
        },
        {
            "positions": [
                1.4465765365620995,
                -1.6186078014832064,
                1.2085697073578052,
                -0.17461541614435033,
                0.2541001369149781,
                1.4230560348335792
            ]
        },
        {
            "positions": [
                1.507669537632569,
                -1.5816560050718542,
                1.0985280606482928,
                -0.14742919922426145,
                0.24005916919837098,
                1.2823803284069657
            ]
        },
        {
            "positions": [
                1.5687625387030388,
                -1.544704208660502,
                0.9884864139387801,
                -0.12024298230417252,
                0.22601820148176377,
                1.1417046219803522
            ]
        },
        {
            "positions": [
                1.6298555397735084,
                -1.50775241224915,
                0.8784447672292677,
                -0.09305676538408364,
                0.21197723376515662,
                1.0010289155537386
            ]
        },
        {
            "positions": [
                1.6909485408439782,
                -1.4708006158377978,
                0.768403120519755,
                -0.06587054846399476,
                0.19793626604854944,
                0.8603532091271249
            ]
        },
        {
            "positions": [
                1.752041541914448,
                -1.4338488194264456,
                0.6583614738102423,
                -0.038684331543905826,
                0.18389529833194226,
                0.7196775027005113
            ]
        },
        {
            "positions": [
                1.8131345429849175,
                -1.3968970230150934,
                0.5483198271007299,
                -0.011498114623816946,
                0.16985433061533511,
                0.5790017962738978
            ]
        },
        {
            "positions": [
                1.8742275440553873,
                -1.3599452266037413,
                0.43827818039121724,
                0.01568810229627199,
                0.15581336289872794,
                0.43832608984728383
            ]
        },
        {
            "positions": [
                1.9353205451258568,
                -1.3229934301923891,
                0.328236533681705,
                0.04287431921636087,
                0.14177239518212076,
                0.2976503834206703
            ]
        },
        {
            "positions": [
                1.9964135461963266,
                -1.286041633781037,
                0.21819488697219214,
                0.0700605361364498,
                0.12773142746551358,
                0.15697467699405676
            ]
        },
        {
            "positions": [
                2.0575065472667964,
                -1.2490898373696848,
                0.10815324026267925,
                0.09724675305653874,
                0.1136904597489064,
                0.016298970567443227
            ]
        },
        {
            "positions": [
                2.118599548337266,
                -1.2121380409583327,
                -0.0018884064468331907,
                0.12443296997662767,
                0.09964949203229923,
                -0.12437673585917075
            ]
        },
        {
            "positions": [
                2.1796925494077355,
                -1.1751862445469805,
                -0.11193005315634519,
                0.1516191868967165,
                0.0856085243156921,
                -0.26505244228578384
            ]
        },
        {
            "positions": [
                2.240785550478205,
                -1.1382344481356284,
                -0.22197169986585807,
                0.17880540381680543,
                0.07156755659908492,
                -0.4057281487123978
            ]
        },
        {
            "positions": [
                2.301878551548675,
                -1.1012826517242762,
                -0.33201334657537096,
                0.20599162073689437,
                0.05752658888247775,
                -0.5464038551390114
            ]
        },
        {
            "positions": [
                2.362971552619145,
                -1.064330855312924,
                -0.4420549932848834,
                0.2331778376569833,
                0.043485621165870514,
                -0.6870795615656249
            ]
        },
        {
            "positions": [
                2.4240645536896146,
                -1.0273790589015719,
                -0.5520966399943963,
                0.26036405457707223,
                0.029444653449263336,
                -0.8277552679922389
            ]
        },
        {
            "positions": [
                2.485157554760084,
                -0.9904272624902197,
                -0.6621382867039083,
                0.28755027149716106,
                0.015403685732656214,
                -0.968430974418852
            ]
        },
        {
            "positions": [
                2.5462505558305537,
                -0.9534754660788676,
                -0.7721799334134207,
                0.31473648841725,
                0.001362718016049036,
                -1.1091066808454655
            ]
        },
        {
            "positions": [
                2.6073435569010233,
                -0.9165236696675154,
                -0.8822215801229336,
                0.3419227053373388,
                -0.012678249700558142,
                -1.2497823872720795
            ]
        },
        {
            "positions": [
                2.6684365579714933,
                -0.8795718732561633,
                -0.9922632268324465,
                0.36910892225742775,
                -0.02671921741716532,
                -1.3904580936986934
            ]
        },
        {
            "positions": [
                2.7295295590419633,
                -0.8426200768448111,
                -1.102304873541959,
                0.3962951391775167,
                -0.0407601851337725,
                -1.5311338001253065
            ]
        },
        {
            "positions": [
                2.790622560112433,
                -0.805668280433459,
                -1.212346520251471,
                0.4234813560976055,
                -0.05480115285037962,
                -1.6718095065519205
            ]
        },
        {
            "positions": [
                2.8517155611829024,
                -0.7687164840221068,
                -1.3223881669609838,
                0.45066757301769444,
                -0.0688421205669868,
                -1.8124852129785336
            ]
        },
        {
            "positions": [
                2.912808562253372,
                -0.7317646876107546,
                -1.4324298136704963,
                0.4778537899377834,
                -0.08288308828359403,
                -1.9531609194051476
            ]
        },
        {
            "positions": [
                2.9739015633238415,
                -0.6948128911994025,
                -1.5424714603800092,
                0.5050400068578723,
                -0.09692405600020115,
                -2.0938366258317616
            ]
        },
        {
            "positions": [
                3.034994564394311,
                -0.6578610947880503,
                -1.652513107089522,
                0.5322262237779614,
                -0.11096502371680839,
                -2.2345123322583746
            ]
        },
        {
            "positions": [
                3.0960875654647806,
                -0.6209092983766982,
                -1.7625547537990336,
                0.5594124406980501,
                -0.1250059914334155,
                -2.3751880386849886
            ]
        },
        {
            "positions": [
                3.157180566535251,
                -0.583957501965346,
                -1.872596400508547,
                0.586598657618139,
                -0.13904695915002263,
                -2.5158637451116017
            ]
        },
        {
            "positions": [
                3.2182735676057206,
                -0.5470057055539939,
                -1.982638047218059,
                0.6137848745382279,
                -0.15308792686662986,
                -2.656539451538216
            ]
        },
        {
            "positions": [
                3.185542129963133,
                -0.6608113690683423,
                -1.9638409114700923,
                0.6366010551212669,
                -0.11679993705535885,
                -2.4997804948021565
            ]
        },
        {
            "positions": [
                3.1528106923205454,
                -0.7746170325826907,
                -1.945043775722126,
                0.6594172357043058,
                -0.08051194724408785,
                -2.3430215380660973
            ]
        },
        {
            "positions": [
                3.120079254677958,
                -0.8884226960970389,
                -1.9262466399741593,
                0.6822334162873447,
                -0.04422395743281683,
                -2.1862625813300376
            ]
        },
        {
            "positions": [
                3.0873478170353703,
                -1.0022283596113875,
                -1.9074495042261927,
                0.7050495968703836,
                -0.00793596762154583,
                -2.0295036245939784
            ]
        },
        {
            "positions": [
                3.0546163793927827,
                -1.1160340231257357,
                -1.8886523684782262,
                0.7278657774534225,
                0.028352022189725185,
                -1.8727446678579187
            ]
        },
        {
            "positions": [
                3.021884941750195,
                -1.229839686640084,
                -1.8698552327302598,
                0.7506819580364613,
                0.0646400120009962,
                -1.715985711121859
            ]
        },
        {
            "positions": [
                2.9891535041076076,
                -1.3436453501544325,
                -1.8510580969822932,
                0.7734981386195002,
                0.10092800181226719,
                -1.5592267543857998
            ]
        },
        {
            "positions": [
                2.95642206646502,
                -1.4574510136687808,
                -1.8322609612343266,
                0.7963143192025391,
                0.1372159916235382,
                -1.4024677976497404
            ]
        },
        {
            "positions": [
                2.9236906288224325,
                -1.5712566771831293,
                -1.8134638254863602,
                0.8191304997855781,
                0.17350398143480922,
                -1.2457088409136807
            ]
        },
        {
            "positions": [
                2.890959191179845,
                -1.6850623406974776,
                -1.7946666897383936,
                0.841946680368617,
                0.20979197124608023,
                -1.0889498841776213
            ]
        },
        {
            "positions": [
                2.8582277535372573,
                -1.7988680042118261,
                -1.775869553990427,
                0.8647628609516559,
                0.24607996105735125,
                -0.9321909274415618
            ]
        },
        {
            "positions": [
                2.8254963158946698,
                -1.9126736677261744,
                -1.7570724182424606,
                0.8875790415346947,
                0.28236795086862226,
                -0.7754319707055022
            ]
        },
        {
            "positions": [
                2.792764878252082,
                -2.0264793312405227,
                -1.738275282494494,
                0.9103952221177336,
                0.3186559406798932,
                -0.6186730139694432
            ]
        },
        {
            "positions": [
                2.7600334406094946,
                -2.1402849947548708,
                -1.7194781467465274,
                0.9332114027007725,
                0.35494393049116424,
                -0.4619140572333835
            ]
        },
        {
            "positions": [
                2.727302002966907,
                -2.2540906582692193,
                -1.700681010998561,
                0.9560275832838114,
                0.39123192030243525,
                -0.30515510049732386
            ]
        },
        {
            "positions": [
                2.6945705653243195,
                -2.367896321783568,
                -1.6818838752505945,
                0.9788437638668503,
                0.42751991011370627,
                -0.14839614376126464
            ]
        },
        {
            "positions": [
                2.661839127681732,
                -2.4817019852979163,
                -1.6630867395026279,
                1.0016599444498893,
                0.4638078999249773,
                0.0083628129747951
            ]
        }
    ]
}