{
    "goal": {
        "global_pose": {
            "orientation": {
                "w": -0.00223480608172531,
                "x": 0.0024358444001904467,
                "y": 0.7094548369677653,
                "z": -0.704743149386269
            },
            "position": {
                "x": -0.37947507619857795,
                "y": -0.6371506643295288,
                "z": 0.19426114857196808
            }
        },
        "name": "move_to_magneteinheit_C"
    },
    "id": "KPIECE_move_to_magneteinheit_C_40",
    "joint_names": [
        "shoulder_pan_joint",
        "shoulder_lift_joint",
        "elbow_joint",
        "wrist_1_joint",
        "wrist_2_joint",
        "wrist_3_joint"
    ],
    "metrics": {
        "cart_traj_len": 1.3611267531493492,
        "distance_elbow_joint": 0.9377672634847685,
        "distance_shoulder_lift_joint": 0.9868086128006539,
        "distance_shoulder_pan_joint": 2.2071419672282193,
        "distance_wrist_1_joint": 0.3934280183279586,
        "distance_wrist_2_joint": 0.9354135855039604,
        "distance_wrist_3_joint": 0.28654113225401456,
        "smoothness": 1.3535492488481846,
        "time": 0.12022803300000001,
        "traj_len": 2.3973111144779633,
        "weighted_distance": 2.7656869757692255
    },
    "planner": "KPIECE",
    "start": {
        "state": {
            "elbow_joint": 1.9565354006593851,
            "shoulder_lift_joint": -1.4165861576512813,
            "shoulder_pan_joint": -1.6717766223278752,
            "wrist_1_joint": -0.528663328821883,
            "wrist_2_joint": 1.472756589259273,
            "wrist_3_joint": 3.159348288315503
        }
    },
    "waypoints": [
        {
            "positions": [
                -1.6717766223278752,
                -1.4165861576512813,
                1.9565354006593851,
                -0.528663328821883,
                1.472756589259273,
                3.159348288315503
            ]
        },
        {
            "positions": [
                -1.8866221680643918,
                -1.469039459364265,
                2.0271856356239795,
                -0.5214455469740786,
                1.4832209245870023,
                3.1766040981729917
            ]
        },
        {
            "positions": [
                -2.1014677138009086,
                -1.521492761077249,
                2.097835870588574,
                -0.5142277651262743,
                1.4936852599147314,
                3.1938599080304804
            ]
        },
        {
            "positions": [
                -2.3163132595374254,
                -1.5739460627902329,
                2.1684861055531686,
                -0.5070099832784699,
                1.5041495952424606,
                3.211115717887969
            ]
        },
        {
            "positions": [
                -2.531158805273942,
                -1.6263993645032169,
                2.239136340517763,
                -0.4997922014306655,
                1.5146139305701896,
                3.228371527745458
            ]
        },
        {
            "positions": [
                -2.746004351010459,
                -1.6788526662162007,
                2.3097865754823577,
                -0.49257441958286113,
                1.5250782658979187,
                3.2456273376029467
            ]
        },
        {
            "positions": [
                -2.9608498967469754,
                -1.7313059679291847,
                2.3804368104469518,
                -0.4853566377350568,
                1.535542601225648,
                3.2628831474604354
            ]
        },
        {
            "positions": [
                -3.1756954424834922,
                -1.7837592696421685,
                2.4510870454115463,
                -0.47813885588725236,
                1.546006936553377,
                3.280138957317924
            ]
        },
        {
            "positions": [
                -3.087792549099417,
                -1.7063048320409475,
                2.3956850930699702,
                -0.5210017990614183,
                1.438236531777145,
                3.2594201494114747
            ]
        },
        {
            "positions": [
                -2.9998896557153416,
                -1.6288503944397268,
                2.3402831407283946,
                -0.5638647422355844,
                1.330466127000913,
                3.238701341505026
            ]
        },
        {
            "positions": [
                -2.9119867623312663,
                -1.551395956838506,
                2.2848811883868185,
                -0.6067276854097503,
                1.2226957222246808,
                3.2179825335985766
            ]
        },
        {
            "positions": [
                -2.824083868947191,
                -1.4739415192372851,
                2.2294792360452425,
                -0.6495906285839164,
                1.1149253174484488,
                3.1972637256921272
            ]
        },
        {
            "positions": [
                -2.7361809755631157,
                -1.3964870816360642,
                2.174077283703667,
                -0.6924535717580823,
                1.0071549126722168,
                3.176544917785678
            ]
        },
        {
            "positions": [
                -2.6482780821790404,
                -1.3190326440348434,
                2.1186753313620907,
                -0.7353165149322483,
                0.8993845078959848,
                3.1558261098792286
            ]
        },
        {
            "positions": [
                -2.560375188794965,
                -1.2415782064336227,
                2.063273379020515,
                -0.7781794581064143,
                0.7916141031197527,
                3.1351073019727798
            ]
        },
        {
            "positions": [
                -2.4724722954108898,
                -1.1641237688324018,
                2.007871426678939,
                -0.8210424012805803,
                0.6838436983435207,
                3.1143884940663304
            ]
        }
    ]
}