{
    "goal": {
        "global_pose": {
            "orientation": {
                "w": 0.7031023502349854,
                "x": -0.7110244035720825,
                "y": 0.007748599164187908,
                "z": 0.005598929710686207
            },
            "position": {
                "x": 0.11585023208521307,
                "y": 0.44412534475326537,
                "z": 0.3711530566215515
            }
        },
        "name": "move_to_auspresseinheit_A"
    },
    "id": "KPIECE_move_to_auspresseinheit_A_88",
    "joint_names": [
        "shoulder_pan_joint",
        "shoulder_lift_joint",
        "elbow_joint",
        "wrist_1_joint",
        "wrist_2_joint",
        "wrist_3_joint"
    ],
    "metrics": {
        "cart_traj_len": 0.9153887348016395,
        "distance_elbow_joint": 0.534683521490861,
        "distance_shoulder_lift_joint": 0.534294582202518,
        "distance_shoulder_pan_joint": 1.4888301005824491,
        "distance_wrist_1_joint": 0.5738246380306073,
        "distance_wrist_2_joint": 2.1504761741889755,
        "distance_wrist_3_joint": 2.3222894395004787,
        "smoothness": 1.112559501697803,
        "time": 0.253626522,
        "traj_len": 2.757607378869568,
        "weighted_distance": 3.869532032070084
    },
    "planner": "KPIECE",
    "start": {
        "state": {
            "elbow_joint": 2.4225746994637096,
            "shoulder_lift_joint": -1.373653595662188,
            "shoulder_pan_joint": -0.3378633848294565,
            "wrist_1_joint": -1.0288595594406726,
            "wrist_2_joint": 1.2330228066703421,
            "wrist_3_joint": 3.189163495502006
        }
    },
    "waypoints": [
        {
            "positions": [
                -0.3378633848294565,
                -1.373653595662188,
                2.4225746994637096,
                -1.0288595594406726,
                1.2330228066703421,
                3.189163495502006
            ]
        },
        {
            "positions": [
                -0.36250608561593695,
                -1.432884077937164,
                2.450546181860769,
                -0.9977408631575637,
                1.3237386216763338,
                3.0569624601765026
            ]
        },
        {
            "positions": [
                -0.38714878640241746,
                -1.49211456021214,
                2.478517664257828,
                -0.9666221668744549,
                1.4144544366823255,
                2.9247614248509994
            ]
        },
        {
            "positions": [
                -0.4117914871888979,
                -1.551345042487116,
                2.506489146654887,
                -0.935503470591346,
                1.5051702516883172,
                2.7925603895254962
            ]
        },
        {
            "positions": [
                -0.43643418797537836,
                -1.6105755247620919,
                2.5344606290519462,
                -0.904384774308237,
                1.5958860666943089,
                2.660359354199993
            ]
        },
        {
            "positions": [
                -0.46107688876185887,
                -1.669806007037068,
                2.562432111449006,
                -0.8732660780251282,
                1.6866018817003008,
                2.52815831887449
            ]
        },
        {
            "positions": [
                -0.4857195895483393,
                -1.7290364893120438,
                2.590403593846065,
                -0.8421473817420193,
                1.7773176967062922,
                2.3959572835489866
            ]
        },
        {
            "positions": [
                -0.5103622903348198,
                -1.7882669715870199,
                2.618375076243124,
                -0.8110286854589104,
                1.8680335117122842,
                2.2637562482234834
            ]
        },
        {
            "positions": [
                -0.5350049911213003,
                -1.8474974538619957,
                2.6463465586401833,
                -0.7799099891758016,
                1.9587493267182756,
                2.1315552128979802
            ]
        },
        {
            "positions": [
                -0.5596476919077807,
                -1.9067279361369718,
                2.6743180410372425,
                -0.7487912928926926,
                2.0494651417242675,
                1.999354177572477
            ]
        },
        {
            "positions": [
                -0.44446171068013307,
                -1.9068388672031293,
                2.6485962064993034,
                -0.7220861682124537,
                1.9281893381665356,
                2.102306915897109
            ]
        },
        {
            "positions": [
                -0.32927572945248534,
                -1.9069497982692871,
                2.6228743719613647,
                -0.695381043532215,
                1.8069135346088039,
                2.2052596542217406
            ]
        },
        {
            "positions": [
                -0.21408974822483767,
                -1.9070607293354447,
                2.5971525374234257,
                -0.6686759188519761,
                1.685637731051072,
                2.3082123925463724
            ]
        },
        {
            "positions": [
                -0.09890376699718995,
                -1.9071716604016025,
                2.5714307028854866,
                -0.6419707941717372,
                1.5643619274933402,
                2.4111651308710043
            ]
        },
        {
            "positions": [
                0.016282214230457726,
                -1.90728259146776,
                2.545708868347548,
                -0.6152656694914984,
                1.4430861239356085,
                2.514117869195636
            ]
        },
        {
            "positions": [
                0.1314681954581054,
                -1.9073935225339178,
                2.519987033809609,
                -0.5885605448112595,
                1.3218103203778766,
                2.617070607520268
            ]
        },
        {
            "positions": [
                0.24665417668575307,
                -1.9075044536000754,
                2.4942651992716702,
                -0.5618554201310206,
                1.2005345168201447,
                2.7200233458448997
            ]
        },
        {
            "positions": [
                0.36184015791340085,
                -1.9076153846662331,
                2.468543364733731,
                -0.5351502954507819,
                1.079258713262413,
                2.8229760841695315
            ]
        },
        {
            "positions": [
                0.4770261391410485,
                -1.9077263157323907,
                2.442821530195792,
                -0.508445170770543,
                0.957982909704681,
                2.9259288224941633
            ]
        },
        {
            "positions": [
                0.5922121203686962,
                -1.9078372467985485,
                2.4170996956578534,
                -0.48174004609030413,
                0.8367071061469493,
                3.028881560818795
            ]
        },
        {
            "positions": [
                0.707398101596344,
                -1.907948177864706,
                2.3913778611199143,
                -0.4550349214100653,
                0.7154313025892173,
                3.131834299143427
            ]
        }
    ]
}