{
    "goal": {
        "global_pose": {
            "orientation": {
                "w": 0.7031023480610252,
                "x": -0.7110244013736278,
                "y": 0.0077485991402295624,
                "z": 0.005598929693374583
            },
            "position": {
                "x": -0.8841497679147869,
                "y": 0.44412534475326537,
                "z": 0.3711530566215515
            }
        },
        "name": "move_to_auspresseinheit_D"
    },
    "id": "KPIECE_move_to_auspresseinheit_D_142",
    "joint_names": [
        "shoulder_pan_joint",
        "shoulder_lift_joint",
        "elbow_joint",
        "wrist_1_joint",
        "wrist_2_joint",
        "wrist_3_joint"
    ],
    "metrics": {
        "cart_traj_len": 0.34310355039965945,
        "distance_elbow_joint": 0.6475495983406336,
        "distance_shoulder_lift_joint": 0.12629624533319683,
        "distance_shoulder_pan_joint": 0.13345951009333662,
        "distance_wrist_1_joint": 0.5692512602740898,
        "distance_wrist_2_joint": 1.4334721183587804,
        "distance_wrist_3_joint": 0.04087773627481406,
        "smoothness": 0.0,
        "time": 0.071941321,
        "traj_len": 1.7178202666969706,
        "weighted_distance": 2.243966425742005
    },
    "planner": "KPIECE",
    "start": {
        "state": {
            "elbow_joint": -1.8275484843655228,
            "shoulder_lift_joint": -2.1267897864000416,
            "shoulder_pan_joint": -0.035127520176001514,
            "wrist_1_joint": -2.3477863256791385,
            "wrist_2_joint": -1.605890476484521,
            "wrist_3_joint": -3.0880375317375353
        }
    },
    "waypoints": [
        {
            "positions": [
                -0.035127520176001514,
                -2.1267897864000416,
                -1.8275484843655228,
                -2.3477863256791385,
                -1.605890476484521,
                -3.0880375317375353
            ]
        },
        {
            "positions": [
                -0.05180995893766859,
                -2.1425768170666912,
                -1.7466047845729435,
                -2.4189427332133997,
                -1.4267064616896734,
                -3.0829278147031833
            ]
        },
        {
            "positions": [
                -0.06849239769933567,
                -2.158363847733341,
                -1.6656610847803643,
                -2.490099140747661,
                -1.2475224468948258,
                -3.077818097668832
            ]
        },
        {
            "positions": [
                -0.08517483646100274,
                -2.1741508783999905,
                -1.5847173849877851,
                -2.561255548281922,
                -1.0683384320999783,
                -3.07270838063448
            ]
        },
        {
            "positions": [
                -0.10185727522266982,
                -2.18993790906664,
                -1.503773685195206,
                -2.6324119558161834,
                -0.8891544173051308,
                -3.067598663600128
            ]
        },
        {
            "positions": [
                -0.11853971398433691,
                -2.2057249397332894,
                -1.4228299854026267,
                -2.7035683633504446,
                -0.7099704025102832,
                -3.0624889465657765
            ]
        },
        {
            "positions": [
                -0.13522215274600397,
                -2.221511970399939,
                -1.3418862856100475,
                -2.774724770884706,
                -0.5307863877154357,
                -3.0573792295314246
            ]
        },
        {
            "positions": [
                -0.15190459150767105,
                -2.2372990010665887,
                -1.2609425858174683,
                -2.845881178418967,
                -0.35160237292058816,
                -3.052269512497073
            ]
        },
        {
            "positions": [
                -0.16858703026933813,
                -2.2530860317332384,
                -1.1799988860248891,
                -2.9170375859532283,
                -0.17241835812574063,
                -3.047159795462721
            ]
        }
    ]
}