{
    "goal": {
        "global_pose": {
            "orientation": {
                "w": 0.7031023502349854,
                "x": -0.7110244035720825,
                "y": 0.007748599164187908,
                "z": 0.005598929710686207
            },
            "position": {
                "x": 0.11585023208521307,
                "y": 0.44412534475326537,
                "z": 0.3711530566215515
            }
        },
        "name": "move_to_auspresseinheit_A"
    },
    "id": "KPIECE_move_to_auspresseinheit_A_23",
    "joint_names": [
        "shoulder_pan_joint",
        "shoulder_lift_joint",
        "elbow_joint",
        "wrist_1_joint",
        "wrist_2_joint",
        "wrist_3_joint"
    ],
    "metrics": {
        "cart_traj_len": 6.516214731192976,
        "distance_elbow_joint": 9.575101270780458,
        "distance_shoulder_lift_joint": 1.4541555240662916,
        "distance_shoulder_pan_joint": 9.828673843032323,
        "distance_wrist_1_joint": 6.485904083697161,
        "distance_wrist_2_joint": 5.929827754216067,
        "distance_wrist_3_joint": 7.5346747932562135,
        "smoothness": 0.41065391378420457,
        "time": 0.23001830099999998,
        "traj_len": 6.388140360781724,
        "weighted_distance": 8.26398322199859
    },
    "planner": "KPIECE",
    "start": {
        "state": {
            "elbow_joint": 2.4225746994637096,
            "shoulder_lift_joint": -1.373653595662188,
            "shoulder_pan_joint": -0.3378633848294565,
            "wrist_1_joint": -1.0288595594406726,
            "wrist_2_joint": 1.2330228066703421,
            "wrist_3_joint": 3.189163495502006
        }
    },
    "waypoints": [
        {
            "positions": [
                -0.3378633848294565,
                -1.373653595662188,
                2.4225746994637096,
                -1.0288595594406726,
                1.2330228066703421,
                3.189163495502006
            ]
        },
        {
            "positions": [
                -0.3992577378134923,
                -1.3608578809858323,
                2.289145238106663,
                -1.0027515250481853,
                1.2853236567182555,
                3.083776918057235
            ]
        },
        {
            "positions": [
                -0.4606520907975281,
                -1.3480621663094763,
                2.155715776749616,
                -0.9766434906556978,
                1.3376245067661687,
                2.978390340612464
            ]
        },
        {
            "positions": [
                -0.522046443781564,
                -1.3352664516331205,
                2.0222863153925688,
                -0.9505354562632103,
                1.3899253568140821,
                2.8730037631676937
            ]
        },
        {
            "positions": [
                -0.5834407967655997,
                -1.3224707369567645,
                1.888856854035522,
                -0.9244274218707229,
                1.4422262068619955,
                2.767617185722923
            ]
        },
        {
            "positions": [
                -0.6448351497496355,
                -1.3096750222804088,
                1.7554273926784751,
                -0.8983193874782356,
                1.494527056909909,
                2.662230608278152
            ]
        },
        {
            "positions": [
                -0.7062295027336714,
                -1.296879307604053,
                1.6219979313214283,
                -0.8722113530857482,
                1.5468279069578221,
                2.556844030833381
            ]
        },
        {
            "positions": [
                -0.7676238557177071,
                -1.284083592927697,
                1.4885684699643813,
                -0.8461033186932607,
                1.5991287570057355,
                2.45145745338861
            ]
        },
        {
            "positions": [
                -0.8290182087017428,
                -1.2712878782513413,
                1.3551390086073345,
                -0.8199952843007733,
                1.651429607053649,
                2.34607087594384
            ]
        },
        {
            "positions": [
                -0.8904125616857788,
                -1.2584921635749855,
                1.2217095472502875,
                -0.7938872499082859,
                1.7037304571015621,
                2.240684298499069
            ]
        },
        {
            "positions": [
                -0.9518069146698145,
                -1.2456964488986295,
                1.0882800858932404,
                -0.7677792155157984,
                1.7560313071494758,
                2.135297721054298
            ]
        },
        {
            "positions": [
                -1.0132012676538504,
                -1.2329007342222738,
                0.9548506245361936,
                -0.741671181123311,
                1.808332157197389,
                2.029911143609527
            ]
        },
        {
            "positions": [
                -1.0745956206378862,
                -1.2201050195459178,
                0.8214211631791468,
                -0.7155631467308237,
                1.8606330072453021,
                1.9245245661647565
            ]
        },
        {
            "positions": [
                -1.1359899736219219,
                -1.207309304869562,
                0.6879917018220998,
                -0.6894551123383361,
                1.9129338572932157,
                1.8191379887199857
            ]
        },
        {
            "positions": [
                -1.1973843266059576,
                -1.194513590193206,
                0.554562240465053,
                -0.6633470779458488,
                1.965234707341129,
                1.7137514112752148
            ]
        },
        {
            "positions": [
                -1.2587786795899936,
                -1.1817178755168503,
                0.42113277910800573,
                -0.6372390435533613,
                2.017535557389042,
                1.6083648338304442
            ]
        },
        {
            "positions": [
                -1.3201730325740293,
                -1.1689221608404945,
                0.28770331775095936,
                -0.6111310091608739,
                2.0698364074369557,
                1.5029782563856735
            ]
        },
        {
            "positions": [
                -1.3815673855580652,
                -1.1561264461641385,
                0.1542738563939121,
                -0.5850229747683865,
                2.122137257484869,
                1.3975916789409026
            ]
        },
        {
            "positions": [
                -1.442961738542101,
                -1.1433307314877827,
                0.020844395036865304,
                -0.5589149403758991,
                2.174438107532782,
                1.2922051014961318
            ]
        },
        {
            "positions": [
                -1.5043560915261367,
                -1.130535016811427,
                -0.1125850663201815,
                -0.5328069059834116,
                2.2267389575806957,
                1.1868185240513611
            ]
        },
        {
            "positions": [
                -1.5657504445101726,
                -1.117739302135071,
                -0.24601452767722876,
                -0.5066988715909242,
                2.2790398076286094,
                1.0814319466065903
            ]
        },
        {
            "positions": [
                -1.6271447974942084,
                -1.1049435874587152,
                -0.37944398903427556,
                -0.48059083719843676,
                2.331340657676522,
                0.9760453691618194
            ]
        },
        {
            "positions": [
                -1.6885391504782443,
                -1.0921478727823593,
                -0.5128734503913224,
                -0.4544828028059493,
                2.3836415077244357,
                0.8706587917170485
            ]
        },
        {
            "positions": [
                -1.7499335034622798,
                -1.0793521581060035,
                -0.6463029117483692,
                -0.428374768413462,
                2.435942357772349,
                0.7652722142722781
            ]
        },
        {
            "positions": [
                -1.8113278564463158,
                -1.0665564434296477,
                -0.779732373105416,
                -0.40226673402097457,
                2.488243207820262,
                0.6598856368275072
            ]
        },
        {
            "positions": [
                -1.8727222094303515,
                -1.0537607287532917,
                -0.9131618344624628,
                -0.37615869962848714,
                2.5405440578681757,
                0.5544990593827364
            ]
        },
        {
            "positions": [
                -1.9341165624143875,
                -1.040965014076936,
                -1.04659129581951,
                -0.3500506652359997,
                2.5928449079160893,
                0.4491124819379655
            ]
        },
        {
            "positions": [
                -1.9955109153984232,
                -1.02816929940058,
                -1.1800207571765569,
                -0.32394263084351227,
                2.6451457579640025,
                0.3437259044931946
            ]
        },
        {
            "positions": [
                -2.056905268382459,
                -1.0153735847242242,
                -1.3134502185336037,
                -0.29783459645102484,
                2.6974466080119157,
                0.23833932704842375
            ]
        },
        {
            "positions": [
                -2.1182996213664946,
                -1.0025778700478685,
                -1.446879679890651,
                -0.2717265620585374,
                2.7497474580598293,
                0.1329527496036529
            ]
        },
        {
            "positions": [
                -2.1796939743505304,
                -0.9897821553715125,
                -1.5803091412476982,
                -0.24561852766604997,
                2.8020483081077425,
                0.027566172158882463
            ]
        },
        {
            "positions": [
                -2.2410883273345665,
                -0.9769864406951567,
                -1.7137386026047445,
                -0.21951049327356253,
                2.8543491581556557,
                -0.0778204052858884
            ]
        },
        {
            "positions": [
                -2.302482680318602,
                -0.964190726018801,
                -1.847168063961791,
                -0.1934024588810752,
                2.9066500082035693,
                -0.18320698273065883
            ]
        },
        {
            "positions": [
                -2.3638770333026375,
                -0.951395011342445,
                -1.9805975253188381,
                -0.16729442448858778,
                2.9589508582514825,
                -0.2885935601754297
            ]
        },
        {
            "positions": [
                -2.4252713862866737,
                -0.9385992966660892,
                -2.1140269866758854,
                -0.14118639009610034,
                3.0112517082993957,
                -0.39398013762020057
            ]
        },
        {
            "positions": [
                -2.4866657392707094,
                -0.9258035819897333,
                -2.2474564480329318,
                -0.11507835570361291,
                3.0635525583473093,
                -0.49936671506497143
            ]
        },
        {
            "positions": [
                -2.548060092254745,
                -0.9130078673133775,
                -2.3808859093899795,
                -0.08897032131112548,
                3.1158534083952225,
                -0.6047532925097423
            ]
        },
        {
            "positions": [
                -2.4370841960302454,
                -0.9325247932865987,
                -2.287810636267014,
                -0.03614576144947186,
                3.050092567286998,
                -0.5575522188883051
            ]
        },
        {
            "positions": [
                -2.326108299805746,
                -0.95204171925982,
                -2.1947353631440487,
                0.016678798412181756,
                2.984331726178774,
                -0.5103511452668679
            ]
        },
        {
            "positions": [
                -2.2151324035812463,
                -0.9715586452330411,
                -2.1016600900210833,
                0.06950335827383539,
                2.9185708850705496,
                -0.46315007164543076
            ]
        },
        {
            "positions": [
                -2.1041565073567465,
                -0.9910755712062624,
                -2.008584816898118,
                0.12232791813548899,
                2.852810043962325,
                -0.41594899802399354
            ]
        },
        {
            "positions": [
                -1.993180611132247,
                -1.0105924971794837,
                -1.9155095437751524,
                0.17515247799714262,
                2.7870492028541007,
                -0.3687479244025563
            ]
        },
        {
            "positions": [
                -1.8822047149077474,
                -1.0301094231527048,
                -1.822434270652187,
                0.22797703785879625,
                2.7212883617458767,
                -0.32154685078111916
            ]
        },
        {
            "positions": [
                -1.7712288186832477,
                -1.0496263491259261,
                -1.7293589975292214,
                0.2808015977204499,
                2.6555275206376523,
                -0.274345777159682
            ]
        },
        {
            "positions": [
                -1.6602529224587481,
                -1.0691432750991474,
                -1.636283724406256,
                0.33362615758210346,
                2.589766679529428,
                -0.22714470353824479
            ]
        },
        {
            "positions": [
                -1.5492770262342483,
                -1.0886602010723687,
                -1.5432084512832906,
                0.38645071744375714,
                2.5240058384212034,
                -0.17994362991680757
            ]
        },
        {
            "positions": [
                -1.4383011300097488,
                -1.1081771270455898,
                -1.4501331781603253,
                0.4392752773054107,
                2.4582449973129794,
                -0.1327425562953704
            ]
        },
        {
            "positions": [
                -1.327325233785249,
                -1.127694053018811,
                -1.35705790503736,
                0.4920998371670644,
                2.392484156204755,
                -0.08554148267393324
            ]
        },
        {
            "positions": [
                -1.2163493375607495,
                -1.1472109789920324,
                -1.2639826319143945,
                0.544924397028718,
                2.3267233150965305,
                -0.03834040905249603
            ]
        },
        {
            "positions": [
                -1.1053734413362497,
                -1.1667279049652537,
                -1.170907358791429,
                0.5977489568903717,
                2.260962473988306,
                0.00886066456894119
            ]
        },
        {
            "positions": [
                -0.9943975451117502,
                -1.1862448309384748,
                -1.0778320856684636,
                0.6505735167520252,
                2.195201632880082,
                0.056061738190378296
            ]
        },
        {
            "positions": [
                -0.8834216488872504,
                -1.205761756911696,
                -0.9847568125454982,
                0.7033980766136789,
                2.1294407917718576,
                0.10326281181181551
            ]
        },
        {
            "positions": [
                -0.7724457526627511,
                -1.2252786828849174,
                -0.8916815394225328,
                0.7562226364753324,
                2.0636799506636336,
                0.15046388543325273
            ]
        },
        {
            "positions": [
                -0.6614698564382513,
                -1.2447956088581384,
                -0.7986062662995674,
                0.8090471963369861,
                1.997919109555409,
                0.19766495905468995
            ]
        },
        {
            "positions": [
                -0.5504939602137515,
                -1.2643125348313597,
                -0.7055309931766018,
                0.8618717561986398,
                1.9321582684471845,
                0.24486603267612717
            ]
        },
        {
            "positions": [
                -0.4395180639892522,
                -1.283829460804581,
                -0.6124557200536365,
                0.9146963160602932,
                1.8663974273389603,
                0.29206710629756427
            ]
        },
        {
            "positions": [
                -0.3285421677647524,
                -1.3033463867778023,
                -0.5193804469306711,
                0.9675208759219469,
                1.8006365862307359,
                0.3392681799190015
            ]
        },
        {
            "positions": [
                -0.21756627154025265,
                -1.3228633127510234,
                -0.4263051738077057,
                1.0203454357836006,
                1.7348757451225116,
                0.3864692535404386
            ]
        },
        {
            "positions": [
                -0.10659037531575288,
                -1.3423802387242447,
                -0.33322990068474034,
                1.0731699956452543,
                1.6691149040142874,
                0.4336703271618758
            ]
        },
        {
            "positions": [
                0.004385520908746887,
                -1.361897164697466,
                -0.24015462756177453,
                1.125994555506908,
                1.603354062906063,
                0.48087140078331303
            ]
        },
        {
            "positions": [
                0.11536141713324621,
                -1.3814140906706873,
                -0.1470793544388096,
                1.1788191153685614,
                1.5375932217978387,
                0.5280724744047502
            ]
        },
        {
            "positions": [
                0.22633731335774598,
                -1.4009310166439084,
                -0.05400408131584378,
                1.2316436752302151,
                1.4718323806896143,
                0.5752735480261875
            ]
        },
        {
            "positions": [
                0.33731320958224575,
                -1.4204479426171297,
                0.0390711918071216,
                1.2844682350918688,
                1.4060715395813899,
                0.6224746216476247
            ]
        },
        {
            "positions": [
                0.4482891058067451,
                -1.439964868590351,
                0.13214646493008653,
                1.3372927949535223,
                1.3403106984731659,
                0.6696756952690617
            ]
        },
        {
            "positions": [
                0.5592650020312449,
                -1.459481794563572,
                0.22522173805305234,
                1.390117354815176,
                1.2745498573649414,
                0.7168767688904989
            ]
        },
        {
            "positions": [
                0.6702408982557446,
                -1.4789987205367936,
                0.3182970111760177,
                1.4429419146768296,
                1.2087890162567172,
                0.7640778425119361
            ]
        },
        {
            "positions": [
                0.7812167944802444,
                -1.4985156465100147,
                0.4113722842989831,
                1.4957664745384833,
                1.1430281751484928,
                0.8112789161333733
            ]
        },
        {
            "positions": [
                0.8921926907047442,
                -1.518032572483236,
                0.5044475574219489,
                1.548591034400137,
                1.0772673340402683,
                0.8584799897548108
            ]
        },
        {
            "positions": [
                1.003168586929243,
                -1.5375494984564573,
                0.5975228305449138,
                1.6014155942617903,
                1.0115064929320443,
                0.9056810633762478
            ]
        },
        {
            "positions": [
                1.1141444831537428,
                -1.5570664244296784,
                0.6905981036678792,
                1.654240154123444,
                0.9457456518238199,
                0.952882136997685
            ]
        },
        {
            "positions": [
                1.2251203793782426,
                -1.5765833504028997,
                0.7836733767908446,
                1.7070647139850976,
                0.8799848107155954,
                1.0000832106191222
            ]
        },
        {
            "positions": [
                1.3360962756027424,
                -1.596100276376121,
                0.8767486499138104,
                1.7598892738467513,
                0.814223969607371,
                1.0472842842405594
            ]
        },
        {
            "positions": [
                1.4470721718272421,
                -1.615617202349342,
                0.9698239230367758,
                1.812713833708405,
                0.7484631284991465,
                1.0944853578619966
            ]
        },
        {
            "positions": [
                1.558048068051741,
                -1.6351341283225633,
                1.0628991961597407,
                1.8655383935700585,
                0.6827022873909225,
                1.1416864314834336
            ]
        },
        {
            "positions": [
                1.6690239642762408,
                -1.6546510542957846,
                1.1559744692827065,
                1.918362953431712,
                0.6169414462826981,
                1.1888875051048708
            ]
        },
        {
            "positions": [
                1.7799998605007405,
                -1.6741679802690057,
                1.249049742405672,
                1.9711875132933656,
                0.5511806051744736,
                1.236088578726308
            ]
        },
        {
            "positions": [
                1.8909757567252403,
                -1.6936849062422272,
                1.3421250155286373,
                2.0240120731550193,
                0.4854197640662492,
                1.2832896523477453
            ]
        },
        {
            "positions": [
                2.00195165294974,
                -1.7132018322154483,
                1.435200288651603,
                2.076836633016673,
                0.4196589229580252,
                1.3304907259691825
            ]
        },
        {
            "positions": [
                2.11292754917424,
                -1.7327187581886694,
                1.528275561774568,
                2.1296611928783267,
                0.35389808184980076,
                1.3776917995906195
            ]
        },
        {
            "positions": [
                2.2239034453987396,
                -1.752235684161891,
                1.6213508348975338,
                2.1824857527399804,
                0.28813724074157676,
                1.4248928732120567
            ]
        },
        {
            "positions": [
                2.3348793416232394,
                -1.771752610135112,
                1.7144261080204988,
                2.235310312601634,
                0.22237639963335232,
                1.472093946833494
            ]
        },
        {
            "positions": [
                2.445855237847739,
                -1.7912695361083333,
                1.8075013811434646,
                2.2881348724632877,
                0.15661555852512787,
                1.5192950204549311
            ]
        },
        {
            "positions": [
                2.556831134072239,
                -1.8107864620815546,
                1.9005766542664304,
                2.3409594323249414,
                0.09085471741690343,
                1.5664960940763684
            ]
        },
        {
            "positions": [
                2.667807030296738,
                -1.8303033880547757,
                1.9936519273893953,
                2.3937839921865947,
                0.02509387630867943,
                1.6136971676978056
            ]
        },
        {
            "positions": [
                2.7787829265212376,
                -1.849820314027997,
                2.0867272005123603,
                2.4466085520482483,
                -0.04066696479954501,
                1.6608982413192428
            ]
        },
        {
            "positions": [
                2.889758822745737,
                -1.8693372400012183,
                2.179802473635326,
                2.499433111909902,
                -0.10642780590776946,
                1.70809931494068
            ]
        },
        {
            "positions": [
                2.780725911715409,
                -1.8711962611527002,
                2.190350087580399,
                2.351552541292573,
                -0.06519200899835927,
                1.779494584830382
            ]
        },
        {
            "positions": [
                2.6716930006850808,
                -1.8730552823041822,
                2.200897701525472,
                2.2036719706752432,
                -0.023956212088949075,
                1.850889854720084
            ]
        },
        {
            "positions": [
                2.562660089654753,
                -1.8749143034556643,
                2.2114453154705447,
                2.055791400057914,
                0.017279584820461102,
                1.9222851246097858
            ]
        },
        {
            "positions": [
                2.453627178624425,
                -1.8767733246071463,
                2.2219929294156175,
                1.9079108294405849,
                0.05851538172987131,
                1.9936803944994879
            ]
        },
        {
            "positions": [
                2.344594267594097,
                -1.8786323457586283,
                2.232540543360691,
                1.7600302588232557,
                0.09975117863928148,
                2.06507566438919
            ]
        },
        {
            "positions": [
                2.235561356563769,
                -1.8804913669101104,
                2.2430881573057637,
                1.6121496882059263,
                0.14098697554869166,
                2.1364709342788917
            ]
        },
        {
            "positions": [
                2.126528445533441,
                -1.8823503880615924,
                2.2536357712508366,
                1.4642691175885971,
                0.18222277245810187,
                2.2078662041685937
            ]
        },
        {
            "positions": [
                2.017495534503113,
                -1.8842094092130743,
                2.2641833851959094,
                1.3163885469712677,
                0.22345856936751207,
                2.2792614740582957
            ]
        },
        {
            "positions": [
                1.908462623472785,
                -1.8860684303645563,
                2.2747309991409823,
                1.1685079763539383,
                0.2646943662769222,
                2.3506567439479977
            ]
        },
        {
            "positions": [
                1.799429712442457,
                -1.8879274515160382,
                2.285278613086055,
                1.0206274057366092,
                0.3059301631863324,
                2.4220520138376997
            ]
        },
        {
            "positions": [
                1.690396801412129,
                -1.8897864726675204,
                2.295826227031128,
                0.8727468351192798,
                0.34716596009574263,
                2.4934472837274018
            ]
        },
        {
            "positions": [
                1.581363890381801,
                -1.8916454938190024,
                2.306373840976201,
                0.7248662645019506,
                0.3884017570051528,
                2.564842553617104
            ]
        },
        {
            "positions": [
                1.472330979351473,
                -1.8935045149704843,
                2.3169214549212738,
                0.5769856938846212,
                0.42963755391456304,
                2.636237823506806
            ]
        },
        {
            "positions": [
                1.363298068321145,
                -1.8953635361219665,
                2.3274690688663466,
                0.4291051232672922,
                0.4708733508239732,
                2.707633093396508
            ]
        },
        {
            "positions": [
                1.254265157290817,
                -1.8972225572734485,
                2.3380166828114195,
                0.2812245526499626,
                0.5121091477333833,
                2.7790283632862094
            ]
        },
        {
            "positions": [
                1.145232246260489,
                -1.8990815784249304,
                2.348564296756493,
                0.13334398203263342,
                0.5533449446427936,
                2.850423633175912
            ]
        },
        {
            "positions": [
                1.036199335230161,
                -1.9009405995764124,
                2.3591119107015657,
                -0.014536588584695753,
                0.5945807415522038,
                2.9218189030656134
            ]
        },
        {
            "positions": [
                0.927166424199833,
                -1.9027996207278943,
                2.3696595246466385,
                -0.16241715920202537,
                0.6358165384616139,
                2.993214172955316
            ]
        },
        {
            "positions": [
                0.8181335131695051,
                -1.9046586418793765,
                2.3802071385917114,
                -0.3102977298193541,
                0.677052335371024,
                3.0646094428450175
            ]
        },
        {
            "positions": [
                0.7091006021391768,
                -1.9065176630308585,
                2.3907547525367843,
                -0.4581783004366838,
                0.7182881322804343,
                3.1360047127347195
            ]
        }
    ]
}