{
    "goal": {
        "global_pose": {
            "orientation": {
                "w": 0.7047431493862688,
                "x": -0.7094548369677653,
                "y": 0.0024358444001904,
                "z": -0.0022348060817251984
            },
            "position": {
                "x": -0.39052492380142206,
                "y": 0.3671506643295288,
                "z": 0.19426114857196808
            }
        },
        "name": "move_to_magneteinheit_D"
    },
    "id": "KPIECE_move_to_magneteinheit_D_78",
    "joint_names": [
        "shoulder_pan_joint",
        "shoulder_lift_joint",
        "elbow_joint",
        "wrist_1_joint",
        "wrist_2_joint",
        "wrist_3_joint"
    ],
    "metrics": {
        "cart_traj_len": 6.030806865759075,
        "distance_elbow_joint": 3.1242230469751973,
        "distance_shoulder_lift_joint": 1.6354569140252793,
        "distance_shoulder_pan_joint": 8.344031231674595,
        "distance_wrist_1_joint": 5.066176641223042,
        "distance_wrist_2_joint": 5.5623219767823375,
        "distance_wrist_3_joint": 3.148592455734911,
        "smoothness": 0.4090181702487006,
        "time": 0.41393090400000004,
        "traj_len": 5.1846699283961515,
        "weighted_distance": 6.61864682513658
    },
    "planner": "KPIECE",
    "start": {
        "state": {
            "elbow_joint": 0.7495348899011911,
            "shoulder_lift_joint": -0.6476975780737668,
            "shoulder_pan_joint": -2.711696901376276,
            "wrist_1_joint": -0.0750647808097303,
            "wrist_2_joint": 0.43296659715458535,
            "wrist_3_joint": 3.1361499051832418
        }
    },
    "waypoints": [
        {
            "positions": [
                -2.711696901376276,
                -0.6476975780737668,
                0.7495348899011911,
                -0.0750647808097303,
                0.43296659715458535,
                3.1361499051832418
            ]
        },
        {
            "positions": [
                -2.7017555085072136,
                -0.7566186649716532,
                0.6478260439416272,
                0.010726651276293006,
                0.4831417874296363,
                3.107162520129575
            ]
        },
        {
            "positions": [
                -2.6918141156381514,
                -0.8655397518695396,
                0.5461171979820634,
                0.09651808336231629,
                0.5333169777046873,
                3.0781751350759086
            ]
        },
        {
            "positions": [
                -2.565878358286093,
                -0.8707925241022889,
                0.494199451956753,
                0.1699749782857618,
                0.4656824109665245,
                3.012464727780531
            ]
        },
        {
            "positions": [
                -2.439942600934035,
                -0.8760452963350382,
                0.4422817059314427,
                0.24343187320920728,
                0.3980478442283617,
                2.9467543204851534
            ]
        },
        {
            "positions": [
                -2.3140068435819763,
                -0.8812980685677876,
                0.3903639599061324,
                0.31688876813265276,
                0.33041327749019883,
                2.881043913189776
            ]
        },
        {
            "positions": [
                -2.188071086229918,
                -0.8865508408005369,
                0.3384462138808221,
                0.3903456630560983,
                0.262778710752036,
                2.8153335058943982
            ]
        },
        {
            "positions": [
                -2.0621353288778597,
                -0.8918036130332863,
                0.2865284678555117,
                0.46380255797954373,
                0.1951441440138732,
                2.7496230985990207
            ]
        },
        {
            "positions": [
                -1.9361995715258014,
                -0.8970563852660355,
                0.23461072183020137,
                0.5372594529029893,
                0.12750957727571033,
                2.683912691303643
            ]
        },
        {
            "positions": [
                -1.810263814173743,
                -0.9023091574987848,
                0.18269297580489102,
                0.6107163478264347,
                0.05987501053754746,
                2.6182022840082655
            ]
        },
        {
            "positions": [
                -1.6843280568216847,
                -0.9075619297315342,
                0.13077522977958073,
                0.6841732427498802,
                -0.007759556200615303,
                2.552491876712888
            ]
        },
        {
            "positions": [
                -1.5583922994696262,
                -0.9128147019642835,
                0.07885748375427032,
                0.7576301376733258,
                -0.07539412293877823,
                2.4867814694175103
            ]
        },
        {
            "positions": [
                -1.432456542117568,
                -0.9180674741970328,
                0.026939737728960078,
                0.8310870325967712,
                -0.14302868967694093,
                2.4210710621221327
            ]
        },
        {
            "positions": [
                -1.3065207847655096,
                -0.9233202464297822,
                -0.02497800829635033,
                0.9045439275202167,
                -0.21066325641510386,
                2.3553606548267556
            ]
        },
        {
            "positions": [
                -1.1805850274134513,
                -0.9285730186625315,
                -0.07689575432166063,
                0.9780008224436622,
                -0.2782978231532667,
                2.2896502475313776
            ]
        },
        {
            "positions": [
                -1.054649270061393,
                -0.9338257908952808,
                -0.12881350034697092,
                1.0514577173671076,
                -0.3459323898914294,
                2.2239398402360004
            ]
        },
        {
            "positions": [
                -0.9287135127093344,
                -0.9390785631280302,
                -0.18073124637228133,
                1.1249146122905531,
                -0.4135669566295924,
                2.1582294329406224
            ]
        },
        {
            "positions": [
                -0.8027777553572761,
                -0.9443313353607795,
                -0.23264899239759163,
                1.1983715072139987,
                -0.4812015233677551,
                2.0925190256452453
            ]
        },
        {
            "positions": [
                -0.676841998005218,
                -0.9495841075935287,
                -0.2845667384229019,
                1.2718284021374442,
                -0.5488360901059179,
                2.0268086183498677
            ]
        },
        {
            "positions": [
                -0.5509062406531595,
                -0.9548368798262781,
                -0.33648448444821233,
                1.3452852970608895,
                -0.6164706568440808,
                1.9610982110544901
            ]
        },
        {
            "positions": [
                -0.424970483301101,
                -0.9600896520590274,
                -0.38840223047352274,
                1.4187421919843353,
                -0.6841052235822438,
                1.8953878037591123
            ]
        },
        {
            "positions": [
                -0.2990347259490429,
                -0.9653424242917767,
                -0.44031997649883303,
                1.4921990869077806,
                -0.7517397903204064,
                1.829677396463735
            ]
        },
        {
            "positions": [
                -0.17309896859698437,
                -0.9705951965245261,
                -0.4922377225241432,
                1.5656559818312261,
                -0.8193743570585692,
                1.7639669891683574
            ]
        },
        {
            "positions": [
                -0.047163211244926284,
                -0.9758479687572754,
                -0.5441554685494536,
                1.6391128767546714,
                -0.887008923796732,
                1.6982565818729798
            ]
        },
        {
            "positions": [
                0.07877254610713225,
                -0.9811007409900248,
                -0.596073214574764,
                1.7125697716781172,
                -0.9546434905348951,
                1.6325461745776022
            ]
        },
        {
            "positions": [
                0.20470830345919033,
                -0.9863535132227741,
                -0.6479909606000742,
                1.7860266666015623,
                -1.0222780572730576,
                1.5668357672822248
            ]
        },
        {
            "positions": [
                0.33064406081124886,
                -0.9916062854555234,
                -0.6999087066253846,
                1.859483561525008,
                -1.0899126240112207,
                1.501125359986847
            ]
        },
        {
            "positions": [
                0.4565798181633074,
                -0.9968590576882728,
                -0.751826452650695,
                1.9329404564484536,
                -1.1575471907493835,
                1.4354149526914695
            ]
        },
        {
            "positions": [
                0.5825155755153655,
                -1.002111829921022,
                -0.8037441986760052,
                2.006397351371899,
                -1.225181757487546,
                1.369704545396092
            ]
        },
        {
            "positions": [
                0.708451332867424,
                -1.0073646021537714,
                -0.8556619447013156,
                2.0798542462953447,
                -1.2928163242257091,
                1.3039941381007143
            ]
        },
        {
            "positions": [
                0.8343870902194825,
                -1.0126173743865208,
                -0.907579690726626,
                2.15331114121879,
                -1.3604508909638722,
                1.2382837308053367
            ]
        },
        {
            "positions": [
                0.9603228475715406,
                -1.01787014661927,
                -0.9594974367519362,
                2.2267680361422353,
                -1.4280854577020348,
                1.1725733235099594
            ]
        },
        {
            "positions": [
                1.0862586049235992,
                -1.0231229188520194,
                -1.0114151827772466,
                2.300224931065681,
                -1.4957200244401976,
                1.1068629162145818
            ]
        },
        {
            "positions": [
                1.2121943622756568,
                -1.0283756910847686,
                -1.0633329288025568,
                2.3736818259891264,
                -1.5633545911783602,
                1.0411525089192044
            ]
        },
        {
            "positions": [
                1.3381301196277153,
                -1.033628463317518,
                -1.1152506748278672,
                2.447138720912572,
                -1.6309891579165232,
                0.9754421016238268
            ]
        },
        {
            "positions": [
                1.4640658769797739,
                -1.0388812355502672,
                -1.1671684208531778,
                2.5205956158360174,
                -1.6986237246546863,
                0.9097316943284488
            ]
        },
        {
            "positions": [
                1.5900016343318324,
                -1.0441340077830166,
                -1.219086166878488,
                2.5940525107594627,
                -1.7662582913928488,
                0.8440212870330717
            ]
        },
        {
            "positions": [
                1.715937391683891,
                -1.049386780015766,
                -1.2710039129037984,
                2.6675094056829085,
                -1.8338928581310119,
                0.7783108797376941
            ]
        },
        {
            "positions": [
                1.8418731490359495,
                -1.0546395522485152,
                -1.3229216589291088,
                2.7409663006063543,
                -1.901527424869175,
                0.7126004724423161
            ]
        },
        {
            "positions": [
                1.967808906388007,
                -1.0598923244812646,
                -1.374839404954419,
                2.814423195529799,
                -1.9691619916073375,
                0.6468900651469389
            ]
        },
        {
            "positions": [
                2.0937446637400656,
                -1.065145096714014,
                -1.4267571509797294,
                2.887880090453245,
                -2.0367965583455003,
                0.5811796578515613
            ]
        },
        {
            "positions": [
                2.219680421092124,
                -1.0703978689467633,
                -1.4786748970050394,
                2.96133698537669,
                -2.1044311250836634,
                0.5154692505561838
            ]
        },
        {
            "positions": [
                2.3456161784441827,
                -1.0756506411795126,
                -1.5305926430303498,
                3.034793880300136,
                -2.1720656918218255,
                0.4497588432608062
            ]
        },
        {
            "positions": [
                2.471551935796241,
                -1.080903413412262,
                -1.5825103890556602,
                3.1082507752235813,
                -2.2397002585599886,
                0.3840484359654286
            ]
        },
        {
            "positions": [
                2.597487693148299,
                -1.0861561856450113,
                -1.6344281350809706,
                3.1817076701470266,
                -2.3073348252981516,
                0.318338028670051
            ]
        },
        {
            "positions": [
                2.7234234505003574,
                -1.0914089578777606,
                -1.686345881106281,
                3.2551645650704724,
                -2.374969392036314,
                0.25262762137467343
            ]
        },
        {
            "positions": [
                2.6022188305087757,
                -1.1410650218036476,
                -1.7150268092716028,
                3.1828334277645207,
                -2.2685658409325127,
                0.24158303087774258
            ]
        },
        {
            "positions": [
                2.481014210517194,
                -1.1907210857295345,
                -1.7437077374369248,
                3.110502290458569,
                -2.162162289828711,
                0.23053844038081173
            ]
        },
        {
            "positions": [
                2.3598095905256127,
                -1.2403771496554212,
                -1.7723886656022465,
                3.0381711531526174,
                -2.0557587387249097,
                0.21949384988388088
            ]
        },
        {
            "positions": [
                2.238604970534031,
                -1.2900332135813082,
                -1.8010695937675683,
                2.965840015846666,
                -1.9493551876211084,
                0.20844925938695003
            ]
        },
        {
            "positions": [
                2.1174003505424492,
                -1.3396892775071951,
                -1.8297505219328902,
                2.8935088785407137,
                -1.8429516365173066,
                0.19740466889001917
            ]
        },
        {
            "positions": [
                1.9961957305508677,
                -1.3893453414330819,
                -1.858431450098212,
                2.821177741234762,
                -1.7365480854135054,
                0.18636007839308832
            ]
        },
        {
            "positions": [
                1.8749911105592862,
                -1.4390014053589688,
                -1.8871123782635337,
                2.7488466039288104,
                -1.6301445343097039,
                0.17531548789615747
            ]
        },
        {
            "positions": [
                1.7537864905677045,
                -1.4886574692848558,
                -1.9157933064288557,
                2.6765154666228588,
                -1.5237409832059026,
                0.16427089739922662
            ]
        },
        {
            "positions": [
                1.6325818705761228,
                -1.5383135332107427,
                -1.9444742345941775,
                2.604184329316907,
                -1.417337432102101,
                0.15322630690229577
            ]
        },
        {
            "positions": [
                1.5113772505845413,
                -1.5879695971366297,
                -1.9731551627594994,
                2.5318531920109555,
                -1.3109338809982993,
                0.14218171640536492
            ]
        },
        {
            "positions": [
                1.3901726305929598,
                -1.6376256610625164,
                -2.001836090924821,
                2.459522054705004,
                -1.204530329894498,
                0.13113712590843407
            ]
        },
        {
            "positions": [
                1.268968010601378,
                -1.6872817249884033,
                -2.030517019090143,
                2.387190917399052,
                -1.0981267787906965,
                0.12009253541150322
            ]
        },
        {
            "positions": [
                1.1477633906097966,
                -1.73693778891429,
                -2.059197947255465,
                2.3148597800931006,
                -0.9917232276868952,
                0.10904794491457237
            ]
        },
        {
            "positions": [
                1.0265587706182149,
                -1.786593852840177,
                -2.0878788754207864,
                2.242528642787149,
                -0.8853196765830935,
                0.09800335441764152
            ]
        },
        {
            "positions": [
                0.9053541506266334,
                -1.836249916766064,
                -2.1165598035861084,
                2.1701975054811973,
                -0.778916125479292,
                0.08695876392071067
            ]
        },
        {
            "positions": [
                0.7841495306350517,
                -1.885905980691951,
                -2.1452407317514304,
                2.0978663681752456,
                -0.6725125743754907,
                0.07591417342377982
            ]
        },
        {
            "positions": [
                0.6629449106434699,
                -1.9355620446178379,
                -2.173921659916752,
                2.025535230869294,
                -0.566109023271689,
                0.06486958292684897
            ]
        },
        {
            "positions": [
                0.5417402906518882,
                -1.9852181085437248,
                -2.202602588082074,
                1.9532040935633421,
                -0.4597054721678877,
                0.05382499242991812
            ]
        },
        {
            "positions": [
                0.42053567066030695,
                -2.0348741724696113,
                -2.2312835162473954,
                1.8808729562573905,
                -0.3533019210640864,
                0.042780401932987266
            ]
        },
        {
            "positions": [
                0.29933105066872523,
                -2.0845302363954987,
                -2.2599644444127174,
                1.8085418189514386,
                -0.24689836996028447,
                0.031735811436056416
            ]
        },
        {
            "positions": [
                0.1781264306771435,
                -2.1341863003213852,
                -2.2886453725780393,
                1.736210681645487,
                -0.1404948188564834,
                0.020691220939125565
            ]
        },
        {
            "positions": [
                0.056921810685562235,
                -2.183842364247272,
                -2.3173263007433613,
                1.6638795443395356,
                -0.0340912677526819,
                0.009646630442194715
            ]
        },
        {
            "positions": [
                -0.06428280930601948,
                -2.233498428173159,
                -2.3460072289086833,
                1.5915484070335837,
                0.07231228335111961,
                -0.001397960054736136
            ]
        },
        {
            "positions": [
                -0.18548742929760112,
                -2.283154492099046,
                -2.374688157074005,
                1.519217269727632,
                0.17871583445492112,
                -0.012442550551667007
            ]
        }
    ]
}