{
    "goal": {
        "global_pose": {
            "orientation": {
                "w": 0.7031023480610252,
                "x": -0.7110244013736278,
                "y": 0.0077485991402295624,
                "z": 0.005598929693374583
            },
            "position": {
                "x": -0.8841497679147869,
                "y": 0.44412534475326537,
                "z": 0.3711530566215515
            }
        },
        "name": "move_to_auspresseinheit_D"
    },
    "id": "KPIECE_move_to_auspresseinheit_D_99",
    "joint_names": [
        "shoulder_pan_joint",
        "shoulder_lift_joint",
        "elbow_joint",
        "wrist_1_joint",
        "wrist_2_joint",
        "wrist_3_joint"
    ],
    "metrics": {
        "cart_traj_len": 0.3437878886670446,
        "distance_elbow_joint": 0.6452148277204162,
        "distance_shoulder_lift_joint": 0.12510226404720415,
        "distance_shoulder_pan_joint": 0.13450809101586128,
        "distance_wrist_1_joint": 0.5544370493353212,
        "distance_wrist_2_joint": 1.4381101469909,
        "distance_wrist_3_joint": 0.011633822795680704,
        "smoothness": 5.921189511553294e-16,
        "time": 0.071170188,
        "traj_len": 1.7055808986692433,
        "weighted_distance": 2.2191937823955272
    },
    "planner": "KPIECE",
    "start": {
        "state": {
            "elbow_joint": -1.8275484843655228,
            "shoulder_lift_joint": -2.1267897864000416,
            "shoulder_pan_joint": -0.035127520176001514,
            "wrist_1_joint": -2.3477863256791385,
            "wrist_2_joint": -1.605890476484521,
            "wrist_3_joint": -3.0880375317375353
        }
    },
    "waypoints": [
        {
            "positions": [
                -0.035127520176001514,
                -2.1267897864000416,
                -1.8275484843655228,
                -2.3477863256791385,
                -1.605890476484521,
                -3.0880375317375353
            ]
        },
        {
            "positions": [
                -0.05194103155298417,
                -2.142427569405942,
                -1.7468966309004708,
                -2.4170909568460535,
                -1.4261267081106586,
                -3.0865833038880752
            ]
        },
        {
            "positions": [
                -0.06875454292996683,
                -2.1580653524118425,
                -1.6662447774354188,
                -2.486395588012969,
                -1.246362939736796,
                -3.085129076038615
            ]
        },
        {
            "positions": [
                -0.0855680543069495,
                -2.173703135417743,
                -1.5855929239703668,
                -2.555700219179884,
                -1.0665991713629335,
                -3.083674848189155
            ]
        },
        {
            "positions": [
                -0.10238156568393215,
                -2.1893409184236434,
                -1.5049410705053146,
                -2.625004850346799,
                -0.886835402989071,
                -3.0822206203396947
            ]
        },
        {
            "positions": [
                -0.11919507706091481,
                -2.2049787014295443,
                -1.4242892170402626,
                -2.6943094815137143,
                -0.7070716346152086,
                -3.0807663924902347
            ]
        },
        {
            "positions": [
                -0.13600858843789748,
                -2.220616484435445,
                -1.3436373635752106,
                -2.7636141126806293,
                -0.527307866241346,
                -3.0793121646407746
            ]
        },
        {
            "positions": [
                -0.15282209981488015,
                -2.2362542674413453,
                -1.2629855101101586,
                -2.8329187438475447,
                -0.3475440978674835,
                -3.0778579367913146
            ]
        },
        {
            "positions": [
                -0.1696356111918628,
                -2.2518920504472457,
                -1.1823336566451066,
                -2.9022233750144597,
                -0.16778032949362107,
                -3.0764037089418546
            ]
        }
    ]
}