{
    "goal": {
        "global_pose": {
            "orientation": {
                "w": 0.7047431468963623,
                "x": -0.7094548344612122,
                "y": 0.0024358443915843964,
                "z": -0.0022348060738295317
            },
            "position": {
                "x": 0.6094750761985779,
                "y": 0.3671506643295288,
                "z": 0.19426114857196808
            }
        },
        "name": "move_to_magneteinheit_A"
    },
    "id": "KPIECE_move_to_magneteinheit_A_3",
    "joint_names": [
        "shoulder_pan_joint",
        "shoulder_lift_joint",
        "elbow_joint",
        "wrist_1_joint",
        "wrist_2_joint",
        "wrist_3_joint"
    ],
    "metrics": {
        "cart_traj_len": 1.5942162196599021,
        "distance_elbow_joint": 3.540535712539479,
        "distance_shoulder_lift_joint": 1.142738936598914,
        "distance_shoulder_pan_joint": 1.242302863883878,
        "distance_wrist_1_joint": 3.8842532858200154,
        "distance_wrist_2_joint": 1.711131076941052,
        "distance_wrist_3_joint": 5.0746200446940595,
        "smoothness": 5.163828044922994e-16,
        "time": 0.407844547,
        "traj_len": 4.073767533926966,
        "weighted_distance": 5.686845028012156
    },
    "planner": "KPIECE",
    "start": {
        "state": {
            "elbow_joint": -1.5739458827952972,
            "shoulder_lift_joint": 0.006533473998580023,
            "shoulder_pan_joint": -1.1188671628667068,
            "wrist_1_joint": 3.138208179676308,
            "wrist_2_joint": -1.5706037135050406,
            "wrist_3_joint": -2.0226958329764257
        }
    },
    "waypoints": [
        {
            "positions": [
                -1.1188671628667068,
                0.006533473998580023,
                -1.5739458827952972,
                3.138208179676308,
                -1.5706037135050406,
                -2.0226958329764257
            ]
        },
        {
            "positions": [
                -1.0892885232504241,
                -0.020674595920441737,
                -1.489647413449119,
                3.0457259585853556,
                -1.5298624973873964,
                -1.9018715461979958
            ]
        },
        {
            "positions": [
                -1.0597098836341412,
                -0.0478826658394635,
                -1.4053489441029412,
                2.9532437374944025,
                -1.4891212812697523,
                -1.7810472594195659
            ]
        },
        {
            "positions": [
                -1.0301312440178585,
                -0.07509073575848527,
                -1.321050474756763,
                2.86076151640345,
                -1.4483800651521084,
                -1.6602229726411357
            ]
        },
        {
            "positions": [
                -1.0005526044015756,
                -0.10229880567750702,
                -1.236752005410585,
                2.7682792953124973,
                -1.4076388490344642,
                -1.5393986858627058
            ]
        },
        {
            "positions": [
                -0.9709739647852929,
                -0.12950687559652876,
                -1.1524535360644068,
                2.6757970742215447,
                -1.36689763291682,
                -1.4185743990842758
            ]
        },
        {
            "positions": [
                -0.94139532516901,
                -0.15671494551555054,
                -1.0681550667182287,
                2.5833148531305916,
                -1.326156416799176,
                -1.297750112305846
            ]
        },
        {
            "positions": [
                -0.9118166855527272,
                -0.1839230154345723,
                -0.9838565973720508,
                2.490832632039639,
                -1.2854152006815318,
                -1.176925825527416
            ]
        },
        {
            "positions": [
                -0.8822380459364444,
                -0.21113108535359404,
                -0.8995581280258726,
                2.3983504109486864,
                -1.244673984563888,
                -1.0561015387489858
            ]
        },
        {
            "positions": [
                -0.8526594063201616,
                -0.23833915527261582,
                -0.8152596586796946,
                2.3058681898577333,
                -1.2039327684462438,
                -0.9352772519705559
            ]
        },
        {
            "positions": [
                -0.8230807667038788,
                -0.2655472251916376,
                -0.7309611893335165,
                2.2133859687667807,
                -1.1631915523285996,
                -0.814452965192126
            ]
        },
        {
            "positions": [
                -0.7935021270875959,
                -0.2927552951106594,
                -0.6466627199873384,
                2.120903747675828,
                -1.1224503362109555,
                -0.6936286784136958
            ]
        },
        {
            "positions": [
                -0.7639234874713132,
                -0.31996336502968115,
                -0.5623642506411604,
                2.028421526584875,
                -1.0817091200933115,
                -0.5728043916352661
            ]
        },
        {
            "positions": [
                -0.7343448478550303,
                -0.3471714349487029,
                -0.47806578129498223,
                1.9359393054939225,
                -1.0409679039756674,
                -0.45198010485683593
            ]
        },
        {
            "positions": [
                -0.7047662082387476,
                -0.37437950486772464,
                -0.3937673119488043,
                1.8434570844029698,
                -1.0002266878580233,
                -0.331155818078406
            ]
        },
        {
            "positions": [
                -0.6751875686224647,
                -0.40158757478674645,
                -0.30946884260262597,
                1.750974863312017,
                -0.9594854717403791,
                -0.21033153129997584
            ]
        },
        {
            "positions": [
                -0.6456089290061819,
                -0.42879564470576814,
                -0.22517037325644806,
                1.6584926422210642,
                -0.9187442556227351,
                -0.08950724452154613
            ]
        },
        {
            "positions": [
                -0.6160302893898991,
                -0.45600371462478995,
                -0.14087190391026994,
                1.5660104211301114,
                -0.878003039505091,
                0.03131704225688425
            ]
        },
        {
            "positions": [
                -0.5864516497736163,
                -0.4832117845438117,
                -0.05657343456409203,
                1.4735282000391587,
                -0.8372618233874469,
                0.15214132903531397
            ]
        },
        {
            "positions": [
                -0.5568730101573335,
                -0.5104198544628334,
                0.027725034782086322,
                1.381045978948206,
                -0.7965206072698028,
                0.2729656158137441
            ]
        },
        {
            "positions": [
                -0.5272943705410507,
                -0.5376279243818551,
                0.11202350412826423,
                1.2885637578572533,
                -0.7557793911521588,
                0.39378990259217383
            ]
        },
        {
            "positions": [
                -0.49771573092476784,
                -0.5648359943008769,
                0.19632197347444236,
                1.1960815367663005,
                -0.7150381750345146,
                0.514614189370604
            ]
        },
        {
            "positions": [
                -0.468137091308485,
                -0.5920440642198987,
                0.2806204428206205,
                1.1035993156753476,
                -0.6742969589168705,
                0.6354384761490341
            ]
        },
        {
            "positions": [
                -0.4385584516922022,
                -0.6192521341389206,
                0.3649189121667986,
                1.0111170945843946,
                -0.6335557427992263,
                0.7562627629274643
            ]
        },
        {
            "positions": [
                -0.4089798120759195,
                -0.6464602040579422,
                0.4492173815129765,
                0.9186348734934424,
                -0.5928145266815824,
                0.8770870497058936
            ]
        },
        {
            "positions": [
                -0.37940117245963656,
                -0.6736682739769639,
                0.5335158508591544,
                0.8261526524024894,
                -0.5520733105639382,
                0.9979113364843237
            ]
        },
        {
            "positions": [
                -0.34982253284335374,
                -0.7008763438959857,
                0.6178143202053328,
                0.7336704313115368,
                -0.511332094446294,
                1.1187356232627539
            ]
        },
        {
            "positions": [
                -0.3202438932270709,
                -0.7280844138150075,
                0.7021127895515111,
                0.6411882102205837,
                -0.4705908783286499,
                1.239559910041184
            ]
        },
        {
            "positions": [
                -0.2906652536107882,
                -0.7552924837340292,
                0.7864112588976886,
                0.5487059891296315,
                -0.42984966221100596,
                1.3603841968196138
            ]
        },
        {
            "positions": [
                -0.2610866139945054,
                -0.782500553653051,
                0.8707097282438669,
                0.4562237680386785,
                -0.3891084460933618,
                1.481208483598044
            ]
        },
        {
            "positions": [
                -0.23150797437822257,
                -0.8097086235720728,
                0.9550081975900453,
                0.36374154694772587,
                -0.3483672299757177,
                1.602032770376474
            ]
        },
        {
            "positions": [
                -0.20192933476193964,
                -0.8369166934910947,
                1.0393066669362232,
                0.2712593258567728,
                -0.30762601385807353,
                1.7228570571549042
            ]
        },
        {
            "positions": [
                -0.17235069514565704,
                -0.8641247634101162,
                1.123605136282401,
                0.1787771047658202,
                -0.2668847977404296,
                1.8436813439333335
            ]
        },
        {
            "positions": [
                -0.1427720555293741,
                -0.891332833329138,
                1.207903605628579,
                0.0862948836748676,
                -0.22614358162278547,
                1.9645056307117637
            ]
        },
        {
            "positions": [
                -0.1131934159130914,
                -0.9185409032481598,
                1.2922020749747574,
                -0.006187337416085459,
                -0.18540236550514133,
                2.0853299174901943
            ]
        },
        {
            "positions": [
                -0.08361477629680847,
                -0.9457489731671817,
                1.3765005443209357,
                -0.09866955850703807,
                -0.1446611493874972,
                2.2061542042686244
            ]
        },
        {
            "positions": [
                -0.05403613668052576,
                -0.9729570430862033,
                1.4607990136671132,
                -0.19115177959799068,
                -0.10391993326985327,
                2.3269784910470537
            ]
        },
        {
            "positions": [
                -0.024457497064242828,
                -1.0001651130052251,
                1.5450974830132915,
                -0.2836340006889433,
                -0.06317871715220913,
                2.447802777825484
            ]
        },
        {
            "positions": [
                0.005121142552039881,
                -1.027373182924247,
                1.6293959523594699,
                -0.37611622177989634,
                -0.02243750103456499,
                2.568627064603914
            ]
        },
        {
            "positions": [
                0.03469978216832281,
                -1.0545812528432688,
                1.7136944217056478,
                -0.46859844287084895,
                0.018303715083079153,
                2.689451351382344
            ]
        },
        {
            "positions": [
                0.06427842178460552,
                -1.0817893227622903,
                1.7979928910518257,
                -0.5610806639618016,
                0.05904493120072307,
                2.8102756381607734
            ]
        },
        {
            "positions": [
                0.09385706140088823,
                -1.1089973926813121,
                1.8822913603980036,
                -0.6535628850527542,
                0.09978614731836721,
                2.9310999249392036
            ]
        },
        {
            "positions": [
                0.12343570101717119,
                -1.136205462600334,
                1.9665898297441817,
                -0.7460451061437072,
                0.14052736343601133,
                3.0519242117176337
            ]
        }
    ]
}