{
    "goal": {
        "global_pose": {
            "orientation": {
                "w": 0.7047431493862688,
                "x": -0.7094548369677653,
                "y": 0.0024358444001904,
                "z": -0.0022348060817251984
            },
            "position": {
                "x": -0.39052492380142206,
                "y": 0.3671506643295288,
                "z": 0.19426114857196808
            }
        },
        "name": "move_to_magneteinheit_D"
    },
    "id": "KPIECE_move_to_magneteinheit_D_87",
    "joint_names": [
        "shoulder_pan_joint",
        "shoulder_lift_joint",
        "elbow_joint",
        "wrist_1_joint",
        "wrist_2_joint",
        "wrist_3_joint"
    ],
    "metrics": {
        "cart_traj_len": 5.544907890086294,
        "distance_elbow_joint": 4.909345564382677,
        "distance_shoulder_lift_joint": 1.390795955485223,
        "distance_shoulder_pan_joint": 7.122314773321855,
        "distance_wrist_1_joint": 2.8268033179073844,
        "distance_wrist_2_joint": 2.563269097191839,
        "distance_wrist_3_joint": 3.9858312924952064,
        "smoothness": 0.42943796445303184,
        "time": 1.120603905,
        "traj_len": 4.774762821416808,
        "weighted_distance": 6.013326450549132
    },
    "planner": "KPIECE",
    "start": {
        "state": {
            "elbow_joint": 0.7495348899011911,
            "shoulder_lift_joint": -0.6476975780737668,
            "shoulder_pan_joint": -2.711696901376276,
            "wrist_1_joint": -0.0750647808097303,
            "wrist_2_joint": 0.43296659715458535,
            "wrist_3_joint": 3.1361499051832418
        }
    },
    "waypoints": [
        {
            "positions": [
                -2.711696901376276,
                -0.6476975780737668,
                0.7495348899011911,
                -0.0750647808097303,
                0.43296659715458535,
                3.1361499051832418
            ]
        },
        {
            "positions": [
                -2.699236761933866,
                -0.6718324842046022,
                0.8293254162575275,
                -0.1206914193902576,
                0.33243461788288686,
                3.015794532912628
            ]
        },
        {
            "positions": [
                -2.6867766224914558,
                -0.6959673903354374,
                0.909115942613864,
                -0.1663180579707849,
                0.23190263861118843,
                2.8954391606420145
            ]
        },
        {
            "positions": [
                -2.674316483049046,
                -0.7201022964662728,
                0.9889064689702004,
                -0.2119446965513122,
                0.13137065933949,
                2.7750837883714006
            ]
        },
        {
            "positions": [
                -2.6618563436066354,
                -0.744237202597108,
                1.0686969953265368,
                -0.2575713351318395,
                0.030838680067791502,
                2.654728416100787
            ]
        },
        {
            "positions": [
                -2.6493962041642254,
                -0.7683721087279434,
                1.1484875216828734,
                -0.3031979737123668,
                -0.06969329920390704,
                2.5343730438301733
            ]
        },
        {
            "positions": [
                -2.636936064721815,
                -0.7925070148587786,
                1.2282780480392097,
                -0.3488246122928941,
                -0.17022527847560537,
                2.41401767155956
            ]
        },
        {
            "positions": [
                -2.624475925279405,
                -0.816641920989614,
                1.3080685743955462,
                -0.39445125087342137,
                -0.2707572577473039,
                2.293662299288946
            ]
        },
        {
            "positions": [
                -2.615753827669718,
                -0.8335363552811987,
                1.3639219428449816,
                -0.4263898978797905,
                -0.34112964323749284,
                2.209413538699516
            ]
        },
        {
            "positions": [
                -2.6070317300600307,
                -0.8504307895727834,
                1.4197753112944171,
                -0.4583285448861596,
                -0.41150202872768177,
                2.1251647781100864
            ]
        },
        {
            "positions": [
                -2.5591256289074846,
                -0.9022554421485608,
                1.4650605158627956,
                -0.46873774963124143,
                -0.4763710934096287,
                1.98998931839204
            ]
        },
        {
            "positions": [
                -2.511219527754939,
                -0.9540800947243381,
                1.5103457204311739,
                -0.4791469543763232,
                -0.5412401580915756,
                1.854813858673994
            ]
        },
        {
            "positions": [
                -2.463313426602393,
                -1.0059047473001155,
                1.5556309249995524,
                -0.48955615912140504,
                -0.6061092227735225,
                1.7196383989559476
            ]
        },
        {
            "positions": [
                -2.3613807931341975,
                -1.0757631460253019,
                1.5017516737319188,
                -0.4421844009213545,
                -0.5702994595383365,
                1.6371301245915093
            ]
        },
        {
            "positions": [
                -2.259448159666002,
                -1.1456215447504885,
                1.4478724224642852,
                -0.394812642721304,
                -0.5344896963031505,
                1.5546218502270708
            ]
        },
        {
            "positions": [
                -2.1575155261978067,
                -1.215479943475675,
                1.3939931711966516,
                -0.34744088452125355,
                -0.4986799330679643,
                1.4721135758626325
            ]
        },
        {
            "positions": [
                -2.0555828927296114,
                -1.2853383422008615,
                1.340113919929018,
                -0.30006912632120303,
                -0.4628701698327783,
                1.389605301498194
            ]
        },
        {
            "positions": [
                -1.953650259261416,
                -1.355196740926048,
                1.2862346686613844,
                -0.2526973681211525,
                -0.4270604065975922,
                1.3070970271337556
            ]
        },
        {
            "positions": [
                -1.8517176257932206,
                -1.4250551396512345,
                1.2323554173937508,
                -0.205325609921102,
                -0.39125064336240617,
                1.2245887527693173
            ]
        },
        {
            "positions": [
                -1.7497849923250253,
                -1.494913538376421,
                1.1784761661261172,
                -0.15795385172105147,
                -0.3554408801272201,
                1.1420804784048788
            ]
        },
        {
            "positions": [
                -1.574197764272761,
                -1.488145831096427,
                1.0131886692896526,
                -0.15622123153875947,
                -0.38056040758905285,
                1.1543857366925228
            ]
        },
        {
            "positions": [
                -1.3986105362204966,
                -1.481378123816433,
                0.8479011724531882,
                -0.1544886113564675,
                -0.4056799350508856,
                1.166690994980167
            ]
        },
        {
            "positions": [
                -1.2230233081682322,
                -1.4746104165364389,
                0.6826136756167236,
                -0.1527559911741755,
                -0.43079946251271833,
                1.1789962532678109
            ]
        },
        {
            "positions": [
                -1.047436080115968,
                -1.467842709256445,
                0.5173261787802591,
                -0.1510233709918835,
                -0.4559189899745511,
                1.1913015115554548
            ]
        },
        {
            "positions": [
                -0.8718488520637037,
                -1.4610750019764511,
                0.3520386819437946,
                -0.1492907508095915,
                -0.4810385174363838,
                1.2036067698430988
            ]
        },
        {
            "positions": [
                -0.6962616240114394,
                -1.454307294696457,
                0.18675118510733013,
                -0.14755813062729953,
                -0.5061580448982166,
                1.215912028130743
            ]
        },
        {
            "positions": [
                -0.5206743959591751,
                -1.447539587416463,
                0.021463688270865644,
                -0.14582551044500752,
                -0.5312775723600494,
                1.228217286418387
            ]
        },
        {
            "positions": [
                -0.34508716790691074,
                -1.440771880136469,
                -0.14382380856559895,
                -0.14409289026271555,
                -0.5563970998218821,
                1.2405225447060308
            ]
        },
        {
            "positions": [
                -0.16949993985464618,
                -1.434004172856475,
                -0.30911130540206355,
                -0.14236027008042354,
                -0.5815166272837149,
                1.252827802993675
            ]
        },
        {
            "positions": [
                0.006087288197617946,
                -1.427236465576481,
                -0.47439880223852793,
                -0.14062764989813156,
                -0.6066361547455477,
                1.265133061281319
            ]
        },
        {
            "positions": [
                0.1816745162498823,
                -1.420468758296487,
                -0.6396862990749925,
                -0.13889502971583956,
                -0.6317556822073804,
                1.277438319568963
            ]
        },
        {
            "positions": [
                0.3572617443021464,
                -1.4137010510164931,
                -0.8049737959114569,
                -0.13716240953354758,
                -0.6568752096692131,
                1.2897435778566069
            ]
        },
        {
            "positions": [
                0.5328489723544112,
                -1.4069333437364993,
                -0.9702612927479217,
                -0.13542978935125558,
                -0.681994737131046,
                1.302048836144251
            ]
        },
        {
            "positions": [
                0.7084362004066751,
                -1.4001656364565052,
                -1.1355487895843859,
                -0.13369716916896357,
                -0.7071142645928786,
                1.314354094431895
            ]
        },
        {
            "positions": [
                0.8840234284589394,
                -1.3933979291765113,
                -1.3008362864208505,
                -0.1319645489866716,
                -0.7322337920547113,
                1.326659352719539
            ]
        },
        {
            "positions": [
                1.0596106565112038,
                -1.3866302218965172,
                -1.466123783257315,
                -0.1302319288043796,
                -0.7573533195165442,
                1.338964611007183
            ]
        },
        {
            "positions": [
                1.2351978845634681,
                -1.3798625146165233,
                -1.6314112800937797,
                -0.1284993086220876,
                -0.7824728469783768,
                1.351269869294827
            ]
        },
        {
            "positions": [
                1.410785112615733,
                -1.3730948073365292,
                -1.7966987769302443,
                -0.1267666884397956,
                -0.8075923744402097,
                1.363575127582471
            ]
        },
        {
            "positions": [
                1.5863723406679968,
                -1.3663271000565351,
                -1.9619862737667089,
                -0.12503406825750363,
                -0.8327119019020424,
                1.375880385870115
            ]
        },
        {
            "positions": [
                1.7619595687202612,
                -1.3595593927765413,
                -2.127273770603173,
                -0.12330144807521162,
                -0.8578314293638751,
                1.388185644157759
            ]
        },
        {
            "positions": [
                1.9375467967725255,
                -1.3527916854965474,
                -2.292561267439638,
                -0.12156882789291963,
                -0.8829509568257079,
                1.400490902445403
            ]
        },
        {
            "positions": [
                2.11313402482479,
                -1.3460239782165533,
                -2.457848764276102,
                -0.11983620771062764,
                -0.9080704842875407,
                1.412796160733047
            ]
        },
        {
            "positions": [
                1.9922138223447483,
                -1.3667971590072219,
                -2.453124035854594,
                -0.22734104919404508,
                -0.8701286247897981,
                1.503377538806135
            ]
        },
        {
            "positions": [
                1.8712936198647068,
                -1.3875703397978902,
                -2.4483993074330854,
                -0.3348458906774625,
                -0.8321867652920556,
                1.593958916879223
            ]
        },
        {
            "positions": [
                1.7503734173846652,
                -1.4083435205885588,
                -2.443674579011577,
                -0.44235073216087994,
                -0.7942449057943131,
                1.6845402949523112
            ]
        },
        {
            "positions": [
                1.6294532149046237,
                -1.4291167013792272,
                -2.4389498505900686,
                -0.5498555736442974,
                -0.7563030462965705,
                1.7751216730253991
            ]
        },
        {
            "positions": [
                1.5085330124245822,
                -1.4498898821698958,
                -2.4342251221685602,
                -0.6573604151277148,
                -0.718361186798828,
                1.865703051098487
            ]
        },
        {
            "positions": [
                1.3876128099445406,
                -1.4706630629605641,
                -2.429500393747052,
                -0.7648652566111322,
                -0.6804193273010855,
                1.9562844291715753
            ]
        },
        {
            "positions": [
                1.266692607464499,
                -1.4914362437512327,
                -2.4247756653255435,
                -0.8723700980945497,
                -0.6424774678033429,
                2.046865807244663
            ]
        },
        {
            "positions": [
                1.1457724049844575,
                -1.512209424541901,
                -2.420050936904035,
                -0.9798749395779671,
                -0.6045356083056004,
                2.1374471853177512
            ]
        },
        {
            "positions": [
                1.0248522025044158,
                -1.5329826053325697,
                -2.4153262084825267,
                -1.0873797810613846,
                -0.5665937488078578,
                2.228028563390839
            ]
        },
        {
            "positions": [
                0.9039320000243742,
                -1.553755786123238,
                -2.410601480061018,
                -1.194884622544802,
                -0.5286518893101153,
                2.318609941463927
            ]
        },
        {
            "positions": [
                0.7830117975443327,
                -1.5745289669139066,
                -2.4058767516395094,
                -1.3023894640282196,
                -0.4907100298123727,
                2.4091913195370154
            ]
        },
        {
            "positions": [
                0.6620915950642912,
                -1.595302147704575,
                -2.401152023218001,
                -1.4098943055116369,
                -0.4527681703146302,
                2.499772697610103
            ]
        },
        {
            "positions": [
                0.5411713925842494,
                -1.6160753284952436,
                -2.3964272947964926,
                -1.5173991469950545,
                -0.4148263108168876,
                2.5903540756831918
            ]
        },
        {
            "positions": [
                0.4202511901042081,
                -1.636848509285912,
                -2.3917025663749842,
                -1.6249039884784717,
                -0.37688445131914516,
                2.6809354537562795
            ]
        },
        {
            "positions": [
                0.2993309876241663,
                -1.6576216900765806,
                -2.386977837953476,
                -1.7324088299618894,
                -0.3389425918214025,
                2.7715168318293673
            ]
        },
        {
            "positions": [
                0.178410785144125,
                -1.678394870867249,
                -2.3822531095319674,
                -1.8399136714453066,
                -0.30100073232366,
                2.8620982099024554
            ]
        },
        {
            "positions": [
                0.057490582664083245,
                -1.6991680516579175,
                -2.377528381110459,
                -1.9474185129287243,
                -0.26305887282591744,
                2.9526795879755436
            ]
        },
        {
            "positions": [
                -0.0634296198159583,
                -1.719941232448586,
                -2.3728036526889507,
                -2.0549233544121415,
                -0.2251170133281749,
                3.0432609660486314
            ]
        },
        {
            "positions": [
                -0.18434982229599978,
                -1.7407144132392545,
                -2.3680789242674423,
                -2.162428195895559,
                -0.18717515383043234,
                3.1338423441217196
            ]
        }
    ]
}