{
    "goal": {
        "global_pose": {
            "orientation": {
                "w": 0.005598929693374612,
                "x": 0.007748599140229565,
                "y": 0.7110244013736278,
                "z": -0.7031023480610252
            },
            "position": {
                "x": -0.8858502320852131,
                "y": -0.7141253447532654,
                "z": 0.3711530566215515
            }
        },
        "name": "move_to_auspresseinheit_C"
    },
    "id": "KPIECE_move_to_auspresseinheit_C_116",
    "joint_names": [
        "shoulder_pan_joint",
        "shoulder_lift_joint",
        "elbow_joint",
        "wrist_1_joint",
        "wrist_2_joint",
        "wrist_3_joint"
    ],
    "metrics": {
        "cart_traj_len": 0.49428257240739587,
        "distance_elbow_joint": 1.0153210340642342,
        "distance_shoulder_lift_joint": 0.3316974845668501,
        "distance_shoulder_pan_joint": 0.2567202222637337,
        "distance_wrist_1_joint": 0.71302877235811,
        "distance_wrist_2_joint": 1.3044393604012017,
        "distance_wrist_3_joint": 0.0764714560953732,
        "smoothness": 6.459479416000911e-16,
        "time": 2.348963256,
        "traj_len": 1.9229348220232279,
        "weighted_distance": 2.4224139560982474
    },
    "planner": "KPIECE",
    "start": {
        "state": {
            "elbow_joint": 1.7527959577730765,
            "shoulder_lift_joint": -0.9740617694224828,
            "shoulder_pan_joint": -2.967991417825869,
            "wrist_1_joint": -0.7595177689779385,
            "wrist_2_joint": 1.7443932448376545,
            "wrist_3_joint": 3.1991315425061013
        }
    },
    "waypoints": [
        {
            "positions": [
                -2.967991417825869,
                -0.9740617694224828,
                1.7527959577730765,
                -0.7595177689779385,
                1.7443932448376545,
                3.1991315425061013
            ]
        },
        {
            "positions": [
                -2.9423193955994957,
                -0.9408920209657978,
                1.6512638543666531,
                -0.6882148917421276,
                1.6139493087975343,
                3.191484396896564
            ]
        },
        {
            "positions": [
                -2.9166473733731224,
                -0.9077222725091127,
                1.5497317509602295,
                -0.6169120145063165,
                1.4835053727574141,
                3.1838372512870268
            ]
        },
        {
            "positions": [
                -2.890975351146749,
                -0.8745525240524278,
                1.4481996475538064,
                -0.5456091372705055,
                1.353061436717294,
                3.1761901056774895
            ]
        },
        {
            "positions": [
                -2.8653033289203758,
                -0.8413827755957427,
                1.3466675441473828,
                -0.4743062600346945,
                1.2226175006771738,
                3.168542960067952
            ]
        },
        {
            "positions": [
                -2.8396313066940024,
                -0.8082130271390577,
                1.2451354407409594,
                -0.40300338279888354,
                1.0921735646370536,
                3.1608958144584145
            ]
        },
        {
            "positions": [
                -2.8139592844676287,
                -0.7750432786823728,
                1.143603337334536,
                -0.33170050556307257,
                0.9617296285969335,
                3.1532486688488772
            ]
        },
        {
            "positions": [
                -2.7882872622412553,
                -0.7418735302256877,
                1.0420712339281126,
                -0.26039762832726154,
                0.8312856925568134,
                3.14560152323934
            ]
        },
        {
            "positions": [
                -2.762615240014882,
                -0.7087037817690027,
                0.940539130521689,
                -0.18909475109145046,
                0.7008417565166931,
                3.1379543776298027
            ]
        },
        {
            "positions": [
                -2.7369432177885087,
                -0.6755340333123176,
                0.8390070271152656,
                -0.1177918738556395,
                0.570397820476573,
                3.1303072320202654
            ]
        },
        {
            "positions": [
                -2.7112711955621354,
                -0.6423642848556327,
                0.7374749237088423,
                -0.046488996619828554,
                0.4399538844364527,
                3.122660086410728
            ]
        }
    ]
}