{
    "goal": {
        "global_pose": {
            "orientation": {
                "w": -0.00223480608172531,
                "x": 0.0024358444001904467,
                "y": 0.7094548369677653,
                "z": -0.704743149386269
            },
            "position": {
                "x": 0.6205249238014221,
                "y": -0.6371506643295288,
                "z": 0.19426114857196808
            }
        },
        "name": "move_to_magneteinheit_B"
    },
    "id": "KPIECE_move_to_magneteinheit_B_110",
    "joint_names": [
        "shoulder_pan_joint",
        "shoulder_lift_joint",
        "elbow_joint",
        "wrist_1_joint",
        "wrist_2_joint",
        "wrist_3_joint"
    ],
    "metrics": {
        "cart_traj_len": 1.4536340036064241,
        "distance_elbow_joint": 0.731230223895907,
        "distance_shoulder_lift_joint": 1.248539595449961,
        "distance_shoulder_pan_joint": 1.6206092562196686,
        "distance_wrist_1_joint": 2.6089155632227525,
        "distance_wrist_2_joint": 2.94011381944314,
        "distance_wrist_3_joint": 3.1366906012114333,
        "smoothness": 0.0,
        "time": 0.21731119799999998,
        "traj_len": 3.5051532148313953,
        "weighted_distance": 4.9100417151518805
    },
    "planner": "KPIECE",
    "start": {
        "state": {
            "elbow_joint": 2.393587130804639,
            "shoulder_lift_joint": -1.9085141043513325,
            "shoulder_pan_joint": 0.7066247066698809,
            "wrist_1_joint": -0.4678290934590222,
            "wrist_2_joint": 0.7096259084215963,
            "wrist_3_joint": 3.147370379541726
        }
    },
    "waypoints": [
        {
            "positions": [
                0.7066247066698809,
                -1.9085141043513325,
                2.393587130804639,
                -0.4678290934590222,
                0.7096259084215963,
                3.147370379541726
            ]
        },
        {
            "positions": [
                0.6559806674130162,
                -1.8694972419935212,
                2.3707361863078917,
                -0.38630048210831114,
                0.6177473515639982,
                3.049348798253869
            ]
        },
        {
            "positions": [
                0.6053366281561516,
                -1.8304803796357099,
                2.3478852418111447,
                -0.30477187075760015,
                0.5258687947064,
                2.9513272169660114
            ]
        },
        {
            "positions": [
                0.554692588899287,
                -1.7914635172778988,
                2.3250342973143976,
                -0.22324325940688913,
                0.433990237848802,
                2.8533056356781543
            ]
        },
        {
            "positions": [
                0.5040485496424223,
                -1.7524466549200874,
                2.3021833528176505,
                -0.14171464805617812,
                0.3421116809912038,
                2.7552840543902968
            ]
        },
        {
            "positions": [
                0.4534045103855576,
                -1.7134297925622761,
                2.2793324083209034,
                -0.06018603670546713,
                0.25023312413360566,
                2.6572624731024397
            ]
        },
        {
            "positions": [
                0.402760471128693,
                -1.6744129302044648,
                2.2564814638241564,
                0.021342574645243917,
                0.1583545672760076,
                2.559240891814582
            ]
        },
        {
            "positions": [
                0.3521164318718284,
                -1.6353960678466535,
                2.2336305193274093,
                0.10287118599595496,
                0.06647601041840945,
                2.461219310526725
            ]
        },
        {
            "positions": [
                0.3014723926149637,
                -1.5963792054888422,
                2.2107795748306622,
                0.18439979734666595,
                -0.02540254643918871,
                2.363197729238868
            ]
        },
        {
            "positions": [
                0.25082835335809905,
                -1.557362343131031,
                2.187928630333915,
                0.26592840869737694,
                -0.11728110329678687,
                2.2651761479510104
            ]
        },
        {
            "positions": [
                0.20018431410123438,
                -1.5183454807732197,
                2.1650776858371676,
                0.34745702004808793,
                -0.20915966015438503,
                2.167154566663153
            ]
        },
        {
            "positions": [
                0.14954027484436982,
                -1.4793286184154084,
                2.142226741340421,
                0.42898563139879903,
                -0.3010382170119832,
                2.0691329853752958
            ]
        },
        {
            "positions": [
                0.09889623558750515,
                -1.440311756057597,
                2.1193757968436735,
                0.51051424274951,
                -0.3929167738695811,
                1.9711114040874387
            ]
        },
        {
            "positions": [
                0.048252196330640484,
                -1.4012948936997858,
                2.0965248523469264,
                0.5920428541002212,
                -0.4847953307271793,
                1.8730898227995814
            ]
        },
        {
            "positions": [
                -0.002391842926224075,
                -1.3622780313419747,
                2.0736739078501794,
                0.6735714654509322,
                -0.5766738875847774,
                1.775068241511724
            ]
        },
        {
            "positions": [
                -0.053035882183088745,
                -1.3232611689841633,
                2.0508229633534323,
                0.7551000768016431,
                -0.6685524444423756,
                1.6770466602238667
            ]
        },
        {
            "positions": [
                -0.10367992143995342,
                -1.284244306626352,
                2.027972018856685,
                0.8366286881523541,
                -0.7604310012999738,
                1.5790250789360094
            ]
        },
        {
            "positions": [
                -0.15432396069681809,
                -1.2452274442685407,
                2.005121074359938,
                0.9181572995030651,
                -0.8523095581575719,
                1.481003497648152
            ]
        },
        {
            "positions": [
                -0.20496799995368276,
                -1.2062105819107294,
                1.982270129863191,
                0.9996859108537761,
                -0.9441881150151701,
                1.3829819163602948
            ]
        },
        {
            "positions": [
                -0.2556120392105473,
                -1.1671937195529183,
                1.959419185366444,
                1.081214522204487,
                -1.0360666718727682,
                1.2849603350724375
            ]
        },
        {
            "positions": [
                -0.3062560784674121,
                -1.128176857195107,
                1.936568240869697,
                1.162743133555198,
                -1.1279452287303664,
                1.1869387537845801
            ]
        },
        {
            "positions": [
                -0.35690011772427666,
                -1.0891599948372956,
                1.9137172963729498,
                1.2442717449059093,
                -1.2198237855879643,
                1.088917172496723
            ]
        },
        {
            "positions": [
                -0.4075441569811412,
                -1.0501431324794843,
                1.8908663518762028,
                1.3258003562566203,
                -1.3117023424455627,
                0.9908955912088655
            ]
        },
        {
            "positions": [
                -0.458188196238006,
                -1.011126270121673,
                1.8680154073794557,
                1.4073289676073313,
                -1.4035808993031609,
                0.8928740099210084
            ]
        },
        {
            "positions": [
                -0.5088322354948706,
                -0.9721094077638618,
                1.8451644628827086,
                1.4888575789580423,
                -1.4954594561607586,
                0.7948524286331513
            ]
        },
        {
            "positions": [
                -0.5594762747517351,
                -0.9330925454060505,
                1.8223135183859616,
                1.5703861903087535,
                -1.5873380130183568,
                0.6968308473452938
            ]
        },
        {
            "positions": [
                -0.6101203140085999,
                -0.8940756830482393,
                1.7994625738892145,
                1.6519148016594645,
                -1.679216569875955,
                0.5988092660574367
            ]
        },
        {
            "positions": [
                -0.6607643532654645,
                -0.8550588206904279,
                1.7766116293924674,
                1.7334434130101755,
                -1.771095126733553,
                0.5007876847695791
            ]
        },
        {
            "positions": [
                -0.711408392522329,
                -0.8160419583326166,
                1.7537606848957203,
                1.8149720243608864,
                -1.8629736835911512,
                0.40276610348172204
            ]
        },
        {
            "positions": [
                -0.7620524317791938,
                -0.7770250959748053,
                1.7309097403989733,
                1.8965006357115974,
                -1.9548522404487494,
                0.3047445221938645
            ]
        },
        {
            "positions": [
                -0.8126964710360584,
                -0.7380082336169942,
                1.708058795902226,
                1.9780292470623084,
                -2.0467307973063473,
                0.2067229409060074
            ]
        },
        {
            "positions": [
                -0.8633405102929231,
                -0.6989913712591829,
                1.685207851405479,
                2.059557858413019,
                -2.138609354163946,
                0.10870135961814986
            ]
        },
        {
            "positions": [
                -0.9139845495497878,
                -0.6599745089013717,
                1.6623569069087318,
                2.14108646976373,
                -2.2304879110215436,
                0.010679778330292813
            ]
        }
    ]
}