{
    "goal": {
        "global_pose": {
            "orientation": {
                "w": 0.7031023502349854,
                "x": -0.7110244035720825,
                "y": 0.007748599164187908,
                "z": 0.005598929710686207
            },
            "position": {
                "x": 0.11585023208521307,
                "y": 0.44412534475326537,
                "z": 0.3711530566215515
            }
        },
        "name": "move_to_auspresseinheit_A"
    },
    "id": "KPIECE_move_to_auspresseinheit_A_135",
    "joint_names": [
        "shoulder_pan_joint",
        "shoulder_lift_joint",
        "elbow_joint",
        "wrist_1_joint",
        "wrist_2_joint",
        "wrist_3_joint"
    ],
    "metrics": {
        "cart_traj_len": 2.889974698392732,
        "distance_elbow_joint": 1.3995226499972975,
        "distance_shoulder_lift_joint": 1.5295235669902154,
        "distance_shoulder_pan_joint": 6.205182098349637,
        "distance_wrist_1_joint": 2.71666299624252,
        "distance_wrist_2_joint": 1.7077402006341789,
        "distance_wrist_3_joint": 13.04340654369263,
        "smoothness": 0.48779958741264956,
        "time": 0.973353887,
        "traj_len": 5.157716360552067,
        "weighted_distance": 7.55733116517785
    },
    "planner": "KPIECE",
    "start": {
        "state": {
            "elbow_joint": 2.4225746994637096,
            "shoulder_lift_joint": -1.373653595662188,
            "shoulder_pan_joint": -0.3378633848294565,
            "wrist_1_joint": -1.0288595594406726,
            "wrist_2_joint": 1.2330228066703421,
            "wrist_3_joint": 3.189163495502006
        }
    },
    "waypoints": [
        {
            "positions": [
                -0.3378633848294565,
                -1.373653595662188,
                2.4225746994637096,
                -1.0288595594406726,
                1.2330228066703421,
                3.189163495502006
            ]
        },
        {
            "positions": [
                -0.4137037829730872,
                -1.4039721566182672,
                2.401496468778146,
                -0.9804267777802552,
                1.2506169897412447,
                2.9964683370589467
            ]
        },
        {
            "positions": [
                -0.48954418111671794,
                -1.4342907175743465,
                2.380418238092582,
                -0.9319939961198379,
                1.2682111728121475,
                2.803773178615887
            ]
        },
        {
            "positions": [
                -0.5653845792603487,
                -1.4646092785304259,
                2.359340007407018,
                -0.8835612144594205,
                1.28580535588305,
                2.611078020172828
            ]
        },
        {
            "positions": [
                -0.6412249774039793,
                -1.494927839486505,
                2.3382617767214544,
                -0.8351284327990031,
                1.3033995389539526,
                2.4183828617297687
            ]
        },
        {
            "positions": [
                -0.7170653755476101,
                -1.5252464004425843,
                2.3171835460358907,
                -0.7866956511385856,
                1.3209937220248553,
                2.225687703286709
            ]
        },
        {
            "positions": [
                -0.7929057736912408,
                -1.5555649613986637,
                2.2961053153503266,
                -0.7382628694781683,
                1.3385879050957579,
                2.0329925448436494
            ]
        },
        {
            "positions": [
                -0.8687461718348715,
                -1.585883522354743,
                2.275027084664763,
                -0.6898300878177509,
                1.3561820881666604,
                1.8402973864005905
            ]
        },
        {
            "positions": [
                -0.9445865699785023,
                -1.6162020833108222,
                2.253948853979199,
                -0.6413973061573335,
                1.3737762712375632,
                1.647602227957531
            ]
        },
        {
            "positions": [
                -1.020426968122133,
                -1.6465206442669014,
                2.2328706232936355,
                -0.5929645244969162,
                1.3913704543084657,
                1.454907069514472
            ]
        },
        {
            "positions": [
                -1.0962673662657636,
                -1.6768392052229806,
                2.2117923926080714,
                -0.5445317428364987,
                1.4089646373793685,
                1.2622119110714125
            ]
        },
        {
            "positions": [
                -1.1721077644093945,
                -1.70715776617906,
                2.1907141619225077,
                -0.4960989611760813,
                1.426558820450271,
                1.069516752628353
            ]
        },
        {
            "positions": [
                -1.247948162553025,
                -1.7374763271351392,
                2.169635931236944,
                -0.4476661795156639,
                1.4441530035211736,
                0.8768215941852935
            ]
        },
        {
            "positions": [
                -1.3237885606966557,
                -1.7677948880912184,
                2.1485577005513803,
                -0.3992333978552466,
                1.4617471865920764,
                0.6841264357422348
            ]
        },
        {
            "positions": [
                -1.3996289588402866,
                -1.7981134490472976,
                2.127479469865816,
                -0.35080061619482916,
                1.479341369662979,
                0.49143127729917513
            ]
        },
        {
            "positions": [
                -1.4754693569839172,
                -1.828432010003377,
                2.1064012391802525,
                -0.30236783453441185,
                1.4969355527338815,
                0.29873611885611595
            ]
        },
        {
            "positions": [
                -1.551309755127548,
                -1.8587505709594563,
                2.0853230084946888,
                -0.2539350528739944,
                1.5145297358047842,
                0.10604096041305633
            ]
        },
        {
            "positions": [
                -1.6271501532711787,
                -1.8890691319155355,
                2.064244777809125,
                -0.205502271213577,
                1.5321239188756868,
                -0.08665419803000285
            ]
        },
        {
            "positions": [
                -1.7029905514148094,
                -1.9193876928716147,
                2.043166547123561,
                -0.15706948955315958,
                1.5497181019465893,
                -0.279349356473062
            ]
        },
        {
            "positions": [
                -1.7788309495584402,
                -1.949706253827694,
                2.0220883164379972,
                -0.10863670789274216,
                1.567312285017492,
                -0.47204451491612165
            ]
        },
        {
            "positions": [
                -1.8546713477020709,
                -1.9800248147837733,
                2.0010100857524336,
                -0.060203926232324845,
                1.5849064680883946,
                -0.6647396733591808
            ]
        },
        {
            "positions": [
                -1.9305117458457017,
                -2.0103433757398523,
                1.9799318550668696,
                -0.01177114457190731,
                1.6025006511592972,
                -0.8574348318022404
            ]
        },
        {
            "positions": [
                -2.006352143989332,
                -2.040661936695932,
                1.9588536243813057,
                0.03666163708851,
                1.6200948342302,
                -1.0501299902452996
            ]
        },
        {
            "positions": [
                -2.082192542132963,
                -2.070980497652011,
                1.937775393695742,
                0.08509441874892731,
                1.6376890173011025,
                -1.2428251486883588
            ]
        },
        {
            "positions": [
                -2.158032940276594,
                -2.1012990586080904,
                1.9166971630101781,
                0.13352720040934485,
                1.655283200372005,
                -1.4355203071314189
            ]
        },
        {
            "positions": [
                -2.2338733384202243,
                -2.1316176195641696,
                1.8956189323246142,
                0.18195998206976216,
                1.6728773834429078,
                -1.628215465574478
            ]
        },
        {
            "positions": [
                -2.309713736563855,
                -2.161936180520249,
                1.8745407016390505,
                0.23039276373017947,
                1.6904715665138104,
                -1.8209106240175363
            ]
        },
        {
            "positions": [
                -2.3855541347074856,
                -2.192254741476328,
                1.8534624709534868,
                0.2788255453905968,
                1.708065749584713,
                -2.0136057824605955
            ]
        },
        {
            "positions": [
                -2.4613945328511164,
                -2.2225733024324072,
                1.8323842402679231,
                0.3272583270510143,
                1.7256599326556157,
                -2.2063009409036556
            ]
        },
        {
            "positions": [
                -2.537234930994747,
                -2.2528918633884865,
                1.8113060095823592,
                0.37569110871143163,
                1.7432541157265182,
                -2.3989960993467148
            ]
        },
        {
            "positions": [
                -2.6130753291383777,
                -2.283210424344566,
                1.7902277788967953,
                0.42412389037184894,
                1.7608482987974208,
                -2.591691257789774
            ]
        },
        {
            "positions": [
                -2.6889157272820086,
                -2.3135289853006453,
                1.7691495482112316,
                0.4725566720322665,
                1.7784424818683235,
                -2.784386416232833
            ]
        },
        {
            "positions": [
                -2.7647561254256394,
                -2.3438475462567245,
                1.7480713175256677,
                0.5209894536926838,
                1.7960366649392263,
                -2.977081574675893
            ]
        },
        {
            "positions": [
                -2.84059652356927,
                -2.3741661072128037,
                1.7269930868401038,
                0.5694222353531013,
                1.8136308480101286,
                -3.1697767331189524
            ]
        },
        {
            "positions": [
                -2.9164369217129007,
                -2.404484668168883,
                1.70591485615454,
                0.6178550170135186,
                1.8312250310810314,
                -3.362471891562011
            ]
        },
        {
            "positions": [
                -2.812819534242438,
                -2.3902363111836396,
                1.725425222059915,
                0.5872850621624235,
                1.7995239460460746,
                -3.1769927156583364
            ]
        },
        {
            "positions": [
                -2.7092021467719754,
                -2.375987954198396,
                1.7449355879652901,
                0.5567151073113283,
                1.7678228610111177,
                -2.991513539754662
            ]
        },
        {
            "positions": [
                -2.6055847593015127,
                -2.3617395972131527,
                1.7644459538706654,
                0.5261451524602332,
                1.736121775976161,
                -2.8060343638509875
            ]
        },
        {
            "positions": [
                -2.5019673718310504,
                -2.3474912402279093,
                1.7839563197760404,
                0.49557519760913804,
                1.704420690941204,
                -2.6205551879473132
            ]
        },
        {
            "positions": [
                -2.3983499843605878,
                -2.333242883242666,
                1.8034666856814154,
                0.4650052427580429,
                1.6727196059062472,
                -2.4350760120436385
            ]
        },
        {
            "positions": [
                -2.294732596890125,
                -2.318994526257422,
                1.8229770515867907,
                0.43443528790694774,
                1.6410185208712904,
                -2.249596836139964
            ]
        },
        {
            "positions": [
                -2.1911152094196624,
                -2.3047461692721787,
                1.8424874174921657,
                0.40386533305585254,
                1.6093174358363336,
                -2.064117660236289
            ]
        },
        {
            "positions": [
                -2.0874978219492,
                -2.2904978122869353,
                1.8619977833975407,
                0.3732953782047574,
                1.5776163508013767,
                -1.878638484332615
            ]
        },
        {
            "positions": [
                -1.9838804344787375,
                -2.276249455301692,
                1.8815081493029158,
                0.34272542335366224,
                1.54591526576642,
                -1.6931593084289405
            ]
        },
        {
            "positions": [
                -1.8802630470082748,
                -2.2620010983164485,
                1.9010185152082908,
                0.3121554685025671,
                1.514214180731463,
                -1.5076801325252658
            ]
        },
        {
            "positions": [
                -1.7766456595378122,
                -2.247752741331205,
                1.920528881113666,
                0.28158551365147194,
                1.4825130956965062,
                -1.3222009566215913
            ]
        },
        {
            "positions": [
                -1.6730282720673495,
                -2.2335043843459617,
                1.940039247019041,
                0.2510155588003768,
                1.4508120106615492,
                -1.1367217807179166
            ]
        },
        {
            "positions": [
                -1.5694108845968868,
                -2.2192560273607183,
                1.959549612924416,
                0.2204456039492816,
                1.4191109256265924,
                -0.9512426048142419
            ]
        },
        {
            "positions": [
                -1.4657934971264241,
                -2.205007670375475,
                1.9790599788297913,
                0.18987564909818644,
                1.3874098405916355,
                -0.7657634289105673
            ]
        },
        {
            "positions": [
                -1.362176109655962,
                -2.1907593133902314,
                1.9985703447351664,
                0.15930569424709135,
                1.3557087555566787,
                -0.580284253006893
            ]
        },
        {
            "positions": [
                -1.2585587221854992,
                -2.176510956404988,
                2.0180807106405414,
                0.12873573939599614,
                1.3240076705217219,
                -0.39480507710321877
            ]
        },
        {
            "positions": [
                -1.1549413347150366,
                -2.1622625994197446,
                2.0375910765459166,
                0.09816578454490099,
                1.292306585486765,
                -0.20932590119954408
            ]
        },
        {
            "positions": [
                -1.0513239472445741,
                -2.148014242434501,
                2.0571014424512915,
                0.06759582969380584,
                1.2606055004518082,
                -0.02384672529586984
            ]
        },
        {
            "positions": [
                -0.9477065597741114,
                -2.1337658854492574,
                2.0766118083566667,
                0.03702587484271069,
                1.2289044154168514,
                0.16163245060780485
            ]
        },
        {
            "positions": [
                -0.844089172303649,
                -2.119517528464014,
                2.0961221742620415,
                0.006455919991615544,
                1.1972033303818945,
                0.34711162651147953
            ]
        },
        {
            "positions": [
                -0.7404717848331863,
                -2.1052691714787706,
                2.1156325401674168,
                -0.024114034859479605,
                1.1655022453469377,
                0.5325908024151538
            ]
        },
        {
            "positions": [
                -0.6368543973627236,
                -2.091020814493527,
                2.135142906072792,
                -0.054683989710574754,
                1.1338011603119809,
                0.7180699783188285
            ]
        },
        {
            "positions": [
                -0.533237009892261,
                -2.0767724575082838,
                2.154653271978167,
                -0.0852539445616699,
                1.1021000752770238,
                0.9035491542225031
            ]
        },
        {
            "positions": [
                -0.4296196224217983,
                -2.0625241005230404,
                2.174163637883542,
                -0.11582389941276505,
                1.070398990242067,
                1.0890283301261778
            ]
        },
        {
            "positions": [
                -0.3260022349513356,
                -2.048275743537797,
                2.1936740037889173,
                -0.1463938542638603,
                1.0386979052071101,
                1.2745075060298525
            ]
        },
        {
            "positions": [
                -0.22238484748087295,
                -2.0340273865525536,
                2.213184369694292,
                -0.17696380911495546,
                1.0069968201721533,
                1.4599866819335272
            ]
        },
        {
            "positions": [
                -0.11876746001041028,
                -2.01977902956731,
                2.2326947355996674,
                -0.2075337639660506,
                0.9752957351371966,
                1.645465857837202
            ]
        },
        {
            "positions": [
                -0.015150072539947601,
                -2.0055306725820667,
                2.2522051015050426,
                -0.23810371881714576,
                0.9435946501022396,
                1.8309450337408766
            ]
        },
        {
            "positions": [
                0.08846731493051463,
                -1.9912823155968231,
                2.2717154674104174,
                -0.2686736736682409,
                0.9118935650672828,
                2.0164242096445504
            ]
        },
        {
            "positions": [
                0.19208470240097686,
                -1.9770339586115797,
                2.2912258333157927,
                -0.29924362851933595,
                0.8801924800323261,
                2.201903385548225
            ]
        },
        {
            "positions": [
                0.29570208987143953,
                -1.9627856016263363,
                2.310736199221168,
                -0.3298135833704311,
                0.8484913949973693,
                2.387382561451899
            ]
        },
        {
            "positions": [
                0.3993194773419022,
                -1.9485372446410927,
                2.3302465651265427,
                -0.36038353822152636,
                0.8167903099624123,
                2.5728617373555736
            ]
        },
        {
            "positions": [
                0.5029368648123649,
                -1.9342888876558493,
                2.349756931031918,
                -0.3909534930726215,
                0.7850892249274555,
                2.7583409132592482
            ]
        },
        {
            "positions": [
                0.6065542522828276,
                -1.9200405306706059,
                2.3692672969372928,
                -0.42152344792371665,
                0.7533881398924986,
                2.943820089162923
            ]
        },
        {
            "positions": [
                0.7101716397532902,
                -1.9057921736853625,
                2.388777662842668,
                -0.4520934027748118,
                0.7216870548575419,
                3.129299265066597
            ]
        }
    ]
}