{
    "goal": {
        "global_pose": {
            "orientation": {
                "w": 0.7031023502349854,
                "x": -0.7110244035720825,
                "y": 0.007748599164187908,
                "z": 0.005598929710686207
            },
            "position": {
                "x": 0.11585023208521307,
                "y": 0.44412534475326537,
                "z": 0.3711530566215515
            }
        },
        "name": "move_to_auspresseinheit_A"
    },
    "id": "KPIECE_move_to_auspresseinheit_A_148",
    "joint_names": [
        "shoulder_pan_joint",
        "shoulder_lift_joint",
        "elbow_joint",
        "wrist_1_joint",
        "wrist_2_joint",
        "wrist_3_joint"
    ],
    "metrics": {
        "cart_traj_len": 4.3903660654746295,
        "distance_elbow_joint": 6.204307215314927,
        "distance_shoulder_lift_joint": 0.534551285367246,
        "distance_shoulder_pan_joint": 1.0437604381963677,
        "distance_wrist_1_joint": 3.5458598643542634,
        "distance_wrist_2_joint": 1.9319588559520584,
        "distance_wrist_3_joint": 5.445450861898627,
        "smoothness": 0.8103010031026061,
        "time": 0.445120689,
        "traj_len": 4.325030464757849,
        "weighted_distance": 5.922382034721084
    },
    "planner": "KPIECE",
    "start": {
        "state": {
            "elbow_joint": 2.4225746994637096,
            "shoulder_lift_joint": -1.373653595662188,
            "shoulder_pan_joint": -0.3378633848294565,
            "wrist_1_joint": -1.0288595594406726,
            "wrist_2_joint": 1.2330228066703421,
            "wrist_3_joint": 3.189163495502006
        }
    },
    "waypoints": [
        {
            "positions": [
                -0.3378633848294565,
                -1.373653595662188,
                2.4225746994637096,
                -1.0288595594406726,
                1.2330228066703421,
                3.189163495502006
            ]
        },
        {
            "positions": [
                -0.3172711191326517,
                -1.3750988157556723,
                2.27411636543545,
                -1.090947248464849,
                1.2586680044484704,
                3.058330906759716
            ]
        },
        {
            "positions": [
                -0.29667885343584693,
                -1.3765440358491567,
                2.1256580314071907,
                -1.1530349374890254,
                1.2843132022265986,
                2.9274983180174265
            ]
        },
        {
            "positions": [
                -0.27608658773904216,
                -1.377989255942641,
                1.9771996973789314,
                -1.2151226265132018,
                1.3099584000047269,
                2.7966657292751367
            ]
        },
        {
            "positions": [
                -0.25549432204223743,
                -1.3794344760361255,
                1.8287413633506722,
                -1.2772103155373784,
                1.3356035977828553,
                2.665833140532847
            ]
        },
        {
            "positions": [
                -0.23490205634543262,
                -1.3808796961296097,
                1.6802830293224127,
                -1.3392980045615548,
                1.3612487955609835,
                2.5350005517905574
            ]
        },
        {
            "positions": [
                -0.21430979064862787,
                -1.3823249162230942,
                1.5318246952941532,
                -1.4013856935857312,
                1.3868939933391118,
                2.4041679630482675
            ]
        },
        {
            "positions": [
                -0.1937175249518231,
                -1.3837701363165784,
                1.383366361265894,
                -1.4634733826099076,
                1.41253919111724,
                2.2733353743059777
            ]
        },
        {
            "positions": [
                -0.17312525925501832,
                -1.3852153564100629,
                1.2349080272376345,
                -1.5255610716340842,
                1.4381843888953683,
                2.1425027855636882
            ]
        },
        {
            "positions": [
                -0.15253299355821354,
                -1.3866605765035471,
                1.0864496932093752,
                -1.5876487606582605,
                1.4638295866734965,
                2.0116701968213984
            ]
        },
        {
            "positions": [
                -0.13194072786140876,
                -1.3881057965970316,
                0.9379913591811158,
                -1.649736449682437,
                1.4894747844516247,
                1.8808376080791087
            ]
        },
        {
            "positions": [
                -0.11134846216460398,
                -1.3895510166905158,
                0.7895330251528563,
                -1.7118241387066133,
                1.5151199822297532,
                1.7500050193368188
            ]
        },
        {
            "positions": [
                -0.09075619646779923,
                -1.3909962367840003,
                0.641074691124597,
                -1.7739118277307897,
                1.5407651800078814,
                1.6191724305945292
            ]
        },
        {
            "positions": [
                -0.07016393077099442,
                -1.3924414568774846,
                0.49261635709633755,
                -1.835999516754966,
                1.5664103777860097,
                1.4883398418522393
            ]
        },
        {
            "positions": [
                -0.0495716650741897,
                -1.393886676970969,
                0.3441580230680783,
                -1.8980872057791425,
                1.592055575564138,
                1.35750725310995
            ]
        },
        {
            "positions": [
                -0.028979399377384862,
                -1.3953318970644533,
                0.19569968903981882,
                -1.960174894803319,
                1.6177007733422661,
                1.22667466436766
            ]
        },
        {
            "positions": [
                -0.008387133680580139,
                -1.3967771171579377,
                0.04724135501155935,
                -2.0222625838274952,
                1.6433459711203944,
                1.0958420756253706
            ]
        },
        {
            "positions": [
                0.01220513201622464,
                -1.398222337251422,
                -0.10121697901670013,
                -2.0843502728516716,
                1.6689911688985228,
                0.9650094868830807
            ]
        },
        {
            "positions": [
                0.03279739771302942,
                -1.3996675573449064,
                -0.24967531304495916,
                -2.146437961875848,
                1.6946363666766509,
                0.8341768981407909
            ]
        },
        {
            "positions": [
                0.0533896634098342,
                -1.4011127774383907,
                -0.39813364707321863,
                -2.208525650900025,
                1.7202815644547793,
                0.703344309398501
            ]
        },
        {
            "positions": [
                0.07398192910663898,
                -1.4025579975318752,
                -0.5465919811014781,
                -2.270613339924201,
                1.7459267622329073,
                0.5725117206562116
            ]
        },
        {
            "positions": [
                0.09457419480344376,
                -1.4040032176253594,
                -0.6950503151297375,
                -2.3327010289483776,
                1.7715719600110358,
                0.44167913191392194
            ]
        },
        {
            "positions": [
                0.11287379308062977,
                -1.4223758630719574,
                -0.5706143820500218,
                -2.2470794603940214,
                1.7202937675637207,
                0.5380386890229888
            ]
        },
        {
            "positions": [
                0.13117339135781578,
                -1.4407485085185554,
                -0.4461784489703061,
                -2.161457891839665,
                1.6690155751164057,
                0.6343982461320555
            ]
        },
        {
            "positions": [
                0.1494729896350018,
                -1.4591211539651532,
                -0.3217425158905904,
                -2.0758363232853085,
                1.6177373826690906,
                0.7307578032411224
            ]
        },
        {
            "positions": [
                0.1677725879121878,
                -1.4774937994117512,
                -0.1973065828108747,
                -1.9902147547309526,
                1.5664591902217755,
                0.8271173603501891
            ]
        },
        {
            "positions": [
                0.18607218618937382,
                -1.4958664448583492,
                -0.07287064973115898,
                -1.9045931861765961,
                1.5151809977744604,
                0.9234769174592561
            ]
        },
        {
            "positions": [
                0.20437178446655985,
                -1.5142390903049472,
                0.0515652833485567,
                -1.81897161762224,
                1.4639028053271455,
                1.0198364745683228
            ]
        },
        {
            "positions": [
                0.22267138274374587,
                -1.5326117357515452,
                0.1760012164282725,
                -1.7333500490678837,
                1.4126246128798303,
                1.1161960316773896
            ]
        },
        {
            "positions": [
                0.24097098102093187,
                -1.5509843811981432,
                0.30043714950798805,
                -1.6477284805135275,
                1.3613464204325154,
                1.2125555887864565
            ]
        },
        {
            "positions": [
                0.2592705792981179,
                -1.5693570266447412,
                0.42487308258770373,
                -1.562106911959171,
                1.3100682279852003,
                1.3089151458955233
            ]
        },
        {
            "positions": [
                0.2775701775753039,
                -1.587729672091339,
                0.5493090156674195,
                -1.4764853434048146,
                1.2587900355378852,
                1.40527470300459
            ]
        },
        {
            "positions": [
                0.2958697758524899,
                -1.606102317537937,
                0.6737449487471351,
                -1.3908637748504584,
                1.2075118430905702,
                1.5016342601136567
            ]
        },
        {
            "positions": [
                0.31416937412967594,
                -1.624474962984535,
                0.7981808818268509,
                -1.3052422062961022,
                1.1562336506432551,
                1.5979938172227237
            ]
        },
        {
            "positions": [
                0.3324689724068619,
                -1.642847608431133,
                0.9226168149065664,
                -1.219620637741746,
                1.1049554581959402,
                1.6943533743317905
            ]
        },
        {
            "positions": [
                0.350768570684048,
                -1.661220253877731,
                1.0470527479862826,
                -1.1339990691873896,
                1.0536772657486249,
                1.7907129314408574
            ]
        },
        {
            "positions": [
                0.36906816896123396,
                -1.6795928993243288,
                1.171488681065998,
                -1.0483775006330334,
                1.00239907330131,
                1.8870724885499242
            ]
        },
        {
            "positions": [
                0.38736776723842,
                -1.6979655447709268,
                1.2959246141457137,
                -0.9627559320786772,
                0.9511208808539949,
                1.983432045658991
            ]
        },
        {
            "positions": [
                0.405667365515606,
                -1.7163381902175248,
                1.4203605472254295,
                -0.8771343635243207,
                0.8998426884066798,
                2.079791602768058
            ]
        },
        {
            "positions": [
                0.42396696379279203,
                -1.7347108356641228,
                1.5447964803051448,
                -0.7915127949699645,
                0.8485644959593648,
                2.176151159877125
            ]
        },
        {
            "positions": [
                0.44226656206997805,
                -1.7530834811107208,
                1.6692324133848606,
                -0.7058912264156083,
                0.7972863035120498,
                2.2725107169861913
            ]
        },
        {
            "positions": [
                0.4605661603471641,
                -1.7714561265573188,
                1.7936683464645764,
                -0.6202696578612519,
                0.7460081110647345,
                2.3688702740952583
            ]
        },
        {
            "positions": [
                0.4788657586243501,
                -1.7898287720039168,
                1.9181042795442922,
                -0.5346480893068957,
                0.6947299186174196,
                2.465229831204325
            ]
        },
        {
            "positions": [
                0.49716535690153607,
                -1.8082014174505145,
                2.0425402126240075,
                -0.44902652075253946,
                0.6434517261701047,
                2.561589388313392
            ]
        },
        {
            "positions": [
                0.515464955178722,
                -1.8265740628971125,
                2.1669761457037233,
                -0.36340495219818303,
                0.5921735337227894,
                2.6579489454224587
            ]
        },
        {
            "positions": [
                0.5337645534559081,
                -1.8449467083437106,
                2.291412078783439,
                -0.27778338364382693,
                0.5408953412754743,
                2.7543085025315257
            ]
        },
        {
            "positions": [
                0.5911420534262423,
                -1.8660327659056184,
                2.3248186810528733,
                -0.3401503001578299,
                0.5951397025674088,
                2.8827542117625047
            ]
        },
        {
            "positions": [
                0.6485195533965765,
                -1.8871188234675262,
                2.358225283322308,
                -0.4025172166718328,
                0.6493840638593433,
                3.0111999209934837
            ]
        },
        {
            "positions": [
                0.7058970533669107,
                -1.908204881029434,
                2.391631885591742,
                -0.46488413318583577,
                0.7036284251512778,
                3.1396456302244626
            ]
        }
    ]
}