{
    "goal": {
        "global_pose": {
            "orientation": {
                "w": 0.7031023502349854,
                "x": -0.7110244035720825,
                "y": 0.007748599164187908,
                "z": 0.005598929710686207
            },
            "position": {
                "x": 0.11585023208521307,
                "y": 0.44412534475326537,
                "z": 0.3711530566215515
            }
        },
        "name": "move_to_auspresseinheit_A"
    },
    "id": "KPIECE_move_to_auspresseinheit_A_3",
    "joint_names": [
        "shoulder_pan_joint",
        "shoulder_lift_joint",
        "elbow_joint",
        "wrist_1_joint",
        "wrist_2_joint",
        "wrist_3_joint"
    ],
    "metrics": {
        "cart_traj_len": 1.6799082930152682,
        "distance_elbow_joint": 2.035595449990575,
        "distance_shoulder_lift_joint": 0.5735862614019054,
        "distance_shoulder_pan_joint": 1.0421299221811728,
        "distance_wrist_1_joint": 0.56309802971345,
        "distance_wrist_2_joint": 0.5308388858271658,
        "distance_wrist_3_joint": 1.3020651370471836,
        "smoothness": 1.0364069784302692,
        "time": 0.12656581,
        "traj_len": 2.4591286436787834,
        "weighted_distance": 3.1217592597438446
    },
    "planner": "KPIECE",
    "start": {
        "state": {
            "elbow_joint": 2.4225746994637096,
            "shoulder_lift_joint": -1.373653595662188,
            "shoulder_pan_joint": -0.3378633848294565,
            "wrist_1_joint": -1.0288595594406726,
            "wrist_2_joint": 1.2330228066703421,
            "wrist_3_joint": 3.189163495502006
        }
    },
    "waypoints": [
        {
            "positions": [
                -0.3378633848294565,
                -1.373653595662188,
                2.4225746994637096,
                -1.0288595594406726,
                1.2330228066703421,
                3.189163495502006
            ]
        },
        {
            "positions": [
                -0.26473247934307786,
                -1.3952864774655855,
                2.2935306394454322,
                -1.006790572102274,
                1.2144348595010512,
                3.104391979992024
            ]
        },
        {
            "positions": [
                -0.1916015738566993,
                -1.416919359268983,
                2.164486579427155,
                -0.9847215847638755,
                1.1958469123317603,
                3.0196204644820424
            ]
        },
        {
            "positions": [
                -0.11847066837032069,
                -1.4385522410723808,
                2.0354425194088774,
                -0.9626525974254769,
                1.1772589651624692,
                2.9348489489720606
            ]
        },
        {
            "positions": [
                -0.04533976288394209,
                -1.4601851228757783,
                1.9063984593906003,
                -0.9405836100870784,
                1.1586710179931783,
                2.8500774334620784
            ]
        },
        {
            "positions": [
                0.02779114260243648,
                -1.4818180046791758,
                1.7773543993723229,
                -0.9185146227486798,
                1.1400830708238874,
                2.7653059179520967
            ]
        },
        {
            "positions": [
                0.10092204808881511,
                -1.5034508864825735,
                1.6483103393540457,
                -0.8964456354102812,
                1.1214951236545962,
                2.680534402442115
            ]
        },
        {
            "positions": [
                0.17405295357519374,
                -1.525083768285971,
                1.5192662793357683,
                -0.8743766480718826,
                1.1029071764853053,
                2.595762886932133
            ]
        },
        {
            "positions": [
                0.24718385906157225,
                -1.5467166500893685,
                1.390222219317491,
                -0.8523076607334841,
                1.0843192293160144,
                2.5109913714221515
            ]
        },
        {
            "positions": [
                0.3032976559286784,
                -1.601037255861589,
                1.5285256459549383,
                -0.7995577631484482,
                1.0519822828394718,
                2.5664502421814435
            ]
        },
        {
            "positions": [
                0.3594114527957846,
                -1.6553578616338096,
                1.6668290725923858,
                -0.7468078655634123,
                1.019645336362929,
                2.6219091129407355
            ]
        },
        {
            "positions": [
                0.41552524966289084,
                -1.7096784674060301,
                1.805132499229833,
                -0.6940579679783763,
                0.9873083898863864,
                2.6773679837000275
            ]
        },
        {
            "positions": [
                0.471639046529997,
                -1.7639990731782507,
                1.9434359258672806,
                -0.6413080703933404,
                0.9549714434098436,
                2.732826854459319
            ]
        },
        {
            "positions": [
                0.5277528433971033,
                -1.8183196789504712,
                2.081739352504728,
                -0.5885581728083045,
                0.9226344969333009,
                2.788285725218611
            ]
        },
        {
            "positions": [
                0.5838666402642094,
                -1.8726402847226917,
                2.220042779142175,
                -0.5358082752232685,
                0.8902975504567582,
                2.843744595977903
            ]
        },
        {
            "positions": [
                0.6399804371313156,
                -1.9269608904949123,
                2.3583462057796227,
                -0.48305837763823256,
                0.8579606039802155,
                2.899203466737195
            ]
        },
        {
            "positions": [
                0.672123487241516,
                -1.9168214072103216,
                2.375905697470735,
                -0.4744099536827276,
                0.7800722624116959,
                3.017043925563338
            ]
        },
        {
            "positions": [
                0.7042665373517164,
                -1.906681923925731,
                2.393465189161847,
                -0.4657615297272226,
                0.7021839208431764,
                3.1348843843894807
            ]
        }
    ]
}