{
    "goal": {
        "global_pose": {
            "orientation": {
                "w": 0.7047431468963623,
                "x": -0.7094548344612122,
                "y": 0.0024358443915843964,
                "z": -0.0022348060738295317
            },
            "position": {
                "x": 0.6094750761985779,
                "y": 0.3671506643295288,
                "z": 0.19426114857196808
            }
        },
        "name": "move_to_magneteinheit_A"
    },
    "id": "KPIECE_move_to_magneteinheit_A_92",
    "joint_names": [
        "shoulder_pan_joint",
        "shoulder_lift_joint",
        "elbow_joint",
        "wrist_1_joint",
        "wrist_2_joint",
        "wrist_3_joint"
    ],
    "metrics": {
        "cart_traj_len": 1.9666822033286868,
        "distance_elbow_joint": 3.57436253737818,
        "distance_shoulder_lift_joint": 0.7866525109001868,
        "distance_shoulder_pan_joint": 1.2411729415184944,
        "distance_wrist_1_joint": 1.191696740020192,
        "distance_wrist_2_joint": 1.442854966172845,
        "distance_wrist_3_joint": 1.9999646819794692,
        "smoothness": 3.289549710083688e-16,
        "time": 0.281446328,
        "traj_len": 3.1994850176191423,
        "weighted_distance": 4.107454862578693
    },
    "planner": "KPIECE",
    "start": {
        "state": {
            "elbow_joint": -1.5739458827952972,
            "shoulder_lift_joint": 0.006533473998580023,
            "shoulder_pan_joint": -1.1188671628667068,
            "wrist_1_joint": 3.138208179676308,
            "wrist_2_joint": -1.5706037135050406,
            "wrist_3_joint": -2.0226958329764257
        }
    },
    "waypoints": [
        {
            "positions": [
                -1.1188671628667068,
                0.006533473998580023,
                -1.5739458827952972,
                3.138208179676308,
                -1.5706037135050406,
                -2.0226958329764257
            ]
        },
        {
            "positions": [
                -1.0711297420390724,
                -0.02372239180527332,
                -1.436470400588444,
                3.0923736896755316,
                -1.515109291729162,
                -1.945774114438754
            ]
        },
        {
            "positions": [
                -1.023392321211438,
                -0.05397825760912666,
                -1.2989949183815912,
                3.046539199674755,
                -1.4596148699532834,
                -1.8688523959010819
            ]
        },
        {
            "positions": [
                -0.9756549003838036,
                -0.08423412341298,
                -1.1615194361747379,
                3.000704709673978,
                -1.4041204481774046,
                -1.79193067736341
            ]
        },
        {
            "positions": [
                -0.9279174795561692,
                -0.11448998921683334,
                -1.024043953967885,
                2.9548702196732015,
                -1.348626026401526,
                -1.7150089588257382
            ]
        },
        {
            "positions": [
                -0.8801800587285349,
                -0.14474585502068668,
                -0.8865684717610318,
                2.909035729672425,
                -1.2931316046256474,
                -1.6380872402880662
            ]
        },
        {
            "positions": [
                -0.8324426379009005,
                -0.17500172082454002,
                -0.7490929895541787,
                2.8632012396716484,
                -1.2376371828497685,
                -1.5611655217503944
            ]
        },
        {
            "positions": [
                -0.784705217073266,
                -0.20525758662839333,
                -0.6116175073473258,
                2.817366749670872,
                -1.18214276107389,
                -1.4842438032127225
            ]
        },
        {
            "positions": [
                -0.7369677962456316,
                -0.2355134524322467,
                -0.47414202514047266,
                2.7715322596700953,
                -1.1266483392980113,
                -1.4073220846750507
            ]
        },
        {
            "positions": [
                -0.6892303754179973,
                -0.26576931823610006,
                -0.33666654293361953,
                2.7256977696693188,
                -1.0711539175221327,
                -1.3304003661373787
            ]
        },
        {
            "positions": [
                -0.6414929545903628,
                -0.2960251840399534,
                -0.1991910607267664,
                2.6798632796685418,
                -1.0156594957462541,
                -1.2534786475997066
            ]
        },
        {
            "positions": [
                -0.5937555337627284,
                -0.32628104984380674,
                -0.061715578519913494,
                2.634028789667765,
                -0.9601650739703754,
                -1.176556929062035
            ]
        },
        {
            "positions": [
                -0.546018112935094,
                -0.3565369156476601,
                0.07575990368693986,
                2.5881942996669887,
                -0.9046706521944967,
                -1.099635210524363
            ]
        },
        {
            "positions": [
                -0.4982806921074596,
                -0.3867927814515134,
                0.21323538589379276,
                2.542359809666212,
                -0.8491762304186181,
                -1.0227134919866911
            ]
        },
        {
            "positions": [
                -0.4505432712798253,
                -0.4170486472553667,
                0.35071086810064567,
                2.4965253196654356,
                -0.7936818086427395,
                -0.9457917734490193
            ]
        },
        {
            "positions": [
                -0.40280585045219086,
                -0.44730451305922003,
                0.4881863503074986,
                2.450690829664659,
                -0.7381873868668609,
                -0.8688700549113475
            ]
        },
        {
            "positions": [
                -0.3550684296245564,
                -0.47756037886307345,
                0.6256618325143519,
                2.4048563396638825,
                -0.6826929650909821,
                -0.7919483363736755
            ]
        },
        {
            "positions": [
                -0.307331008796922,
                -0.5078162446669268,
                0.7631373147212053,
                2.3590218496631055,
                -0.6271985433151035,
                -0.7150266178360036
            ]
        },
        {
            "positions": [
                -0.25959358796928766,
                -0.5380721104707801,
                0.9006127969280582,
                2.313187359662329,
                -0.5717041215392249,
                -0.6381048992983318
            ]
        },
        {
            "positions": [
                -0.21185616714165323,
                -0.5683279762746334,
                1.038088279134911,
                2.2673528696615524,
                -0.5162096997633463,
                -0.56118318076066
            ]
        },
        {
            "positions": [
                -0.1641187463140188,
                -0.5985838420784868,
                1.1755637613417644,
                2.221518379660776,
                -0.4607152779874675,
                -0.4842614622229877
            ]
        },
        {
            "positions": [
                -0.11638132548638436,
                -0.6288397078823401,
                1.3130392435486173,
                2.1756838896599993,
                -0.4052208562115889,
                -0.4073397436853159
            ]
        },
        {
            "positions": [
                -0.06864390465874992,
                -0.6590955736861934,
                1.4505147257554702,
                2.1298493996592223,
                -0.3497264344357103,
                -0.33041802514764407
            ]
        },
        {
            "positions": [
                -0.020906483831115708,
                -0.6893514394900467,
                1.5879902079623236,
                2.084014909658446,
                -0.2942320126598317,
                -0.25349630660997224
            ]
        },
        {
            "positions": [
                0.02683093699651895,
                -0.7196073052939002,
                1.725465690169177,
                2.038180419657669,
                -0.23873759088395285,
                -0.1765745880723002
            ]
        },
        {
            "positions": [
                0.07456835782415316,
                -0.7498631710977535,
                1.8629411723760299,
                1.9923459296568926,
                -0.18324316910807426,
                -0.09965286953462837
            ]
        },
        {
            "positions": [
                0.12230577865178756,
                -0.7801190369016068,
                2.0004166545828825,
                1.946511439656116,
                -0.12774874733219563,
                -0.02273115099695645
            ]
        }
    ]
}