{
    "goal": {
        "global_pose": {
            "orientation": {
                "w": 0.7047431493862688,
                "x": -0.7094548369677653,
                "y": 0.0024358444001904,
                "z": -0.0022348060817251984
            },
            "position": {
                "x": -0.39052492380142206,
                "y": 0.3671506643295288,
                "z": 0.19426114857196808
            }
        },
        "name": "move_to_magneteinheit_D"
    },
    "id": "KPIECE_move_to_magneteinheit_D_94",
    "joint_names": [
        "shoulder_pan_joint",
        "shoulder_lift_joint",
        "elbow_joint",
        "wrist_1_joint",
        "wrist_2_joint",
        "wrist_3_joint"
    ],
    "metrics": {
        "cart_traj_len": 4.724827859332765,
        "distance_elbow_joint": 3.7161495349614095,
        "distance_shoulder_lift_joint": 1.1061417820345356,
        "distance_shoulder_pan_joint": 5.325240311094957,
        "distance_wrist_1_joint": 2.184368958596795,
        "distance_wrist_2_joint": 1.5073261113062988,
        "distance_wrist_3_joint": 6.872560557436767,
        "smoothness": 0.3472918169101025,
        "time": 0.37440518899999997,
        "traj_len": 4.551020463086359,
        "weighted_distance": 6.176455572592374
    },
    "planner": "KPIECE",
    "start": {
        "state": {
            "elbow_joint": 0.7495348899011911,
            "shoulder_lift_joint": -0.6476975780737668,
            "shoulder_pan_joint": -2.711696901376276,
            "wrist_1_joint": -0.0750647808097303,
            "wrist_2_joint": 0.43296659715458535,
            "wrist_3_joint": 3.1361499051832418
        }
    },
    "waypoints": [
        {
            "positions": [
                -2.711696901376276,
                -0.6476975780737668,
                0.7495348899011911,
                -0.0750647808097303,
                0.43296659715458535,
                3.1361499051832418
            ]
        },
        {
            "positions": [
                -2.6919730207427266,
                -0.6795492321971269,
                0.6511464858964996,
                -0.13224011835793165,
                0.47546257378116935,
                3.058997407515839
            ]
        },
        {
            "positions": [
                -2.6722491401091766,
                -0.7114008863204869,
                0.5527580818918081,
                -0.18941545590613298,
                0.5179585504077533,
                2.9818449098484368
            ]
        },
        {
            "positions": [
                -2.652525259475627,
                -0.743252540443847,
                0.45436967788711663,
                -0.24659079345433432,
                0.5604545270343373,
                2.904692412181034
            ]
        },
        {
            "positions": [
                -2.5558700024827603,
                -0.7476171735217284,
                0.3766155187964706,
                -0.2750612023932627,
                0.5340575413156241,
                2.7471090738703285
            ]
        },
        {
            "positions": [
                -2.459214745489894,
                -0.7519818065996099,
                0.29886135970582456,
                -0.30353161133219103,
                0.5076605555969109,
                2.5895257355596235
            ]
        },
        {
            "positions": [
                -2.3625594884970273,
                -0.7563464396774913,
                0.22110720061517852,
                -0.33200202027111936,
                0.48126356987819763,
                2.4319423972489185
            ]
        },
        {
            "positions": [
                -2.2659042315041606,
                -0.7607110727553726,
                0.1433530415245325,
                -0.36047242921004774,
                0.45486658415948444,
                2.274359058938213
            ]
        },
        {
            "positions": [
                -2.169248974511294,
                -0.765075705833254,
                0.06559888243388645,
                -0.3889428381489761,
                0.42846959844077126,
                2.1167757206275075
            ]
        },
        {
            "positions": [
                -2.0725937175184272,
                -0.7694403389111355,
                -0.012155276656759584,
                -0.41741324708790445,
                0.402072612722058,
                1.9591923823168025
            ]
        },
        {
            "positions": [
                -1.975938460525561,
                -0.7738049719890169,
                -0.08990943574740556,
                -0.4458836560268328,
                0.3756756270033448,
                1.8016090440060972
            ]
        },
        {
            "positions": [
                -1.8792832035326943,
                -0.7781696050668983,
                -0.16766359483805165,
                -0.47435406496576116,
                0.3492786412846316,
                1.644025705695392
            ]
        },
        {
            "positions": [
                -1.7826279465398276,
                -0.7825342381447797,
                -0.24541775392869775,
                -0.5028244739046895,
                0.3228816555659184,
                1.4864423673846867
            ]
        },
        {
            "positions": [
                -1.6859726895469611,
                -0.7868988712226611,
                -0.3231719130193437,
                -0.5312948828436179,
                0.2964846698472052,
                1.3288590290739815
            ]
        },
        {
            "positions": [
                -1.5893174325540944,
                -0.7912635043005425,
                -0.4009260721099898,
                -0.5597652917825462,
                0.27008768412849193,
                1.171275690763276
            ]
        },
        {
            "positions": [
                -1.492662175561228,
                -0.795628137378424,
                -0.4786802312006358,
                -0.5882357007214746,
                0.24369069840977875,
                1.013692352452571
            ]
        },
        {
            "positions": [
                -1.3960069185683612,
                -0.7999927704563053,
                -0.5564343902912818,
                -0.616706109660403,
                0.2172937126910655,
                0.8561090141418655
            ]
        },
        {
            "positions": [
                -1.2993516615754948,
                -0.8043574035341867,
                -0.6341885493819277,
                -0.6451765185993312,
                0.19089672697235233,
                0.6985256758311604
            ]
        },
        {
            "positions": [
                -1.2026964045826283,
                -0.8087220366120682,
                -0.7119427084725738,
                -0.6736469275382596,
                0.1644997412536391,
                0.5409423375204554
            ]
        },
        {
            "positions": [
                -1.1060411475897616,
                -0.8130866696899496,
                -0.7896968675632199,
                -0.702117336477188,
                0.1381027555349259,
                0.3833589992097499
            ]
        },
        {
            "positions": [
                -1.009385890596895,
                -0.817451302767831,
                -0.867451026653866,
                -0.7305877454161163,
                0.11170576981621272,
                0.22577566089904488
            ]
        },
        {
            "positions": [
                -0.9127306336040284,
                -0.8218159358457123,
                -0.9452051857445121,
                -0.7590581543550448,
                0.08530878409749948,
                0.0681923225883394
            ]
        },
        {
            "positions": [
                -0.8160753766111619,
                -0.8261805689235938,
                -1.022959344835158,
                -0.787528563293973,
                0.05891179837878624,
                -0.08939101572236563
            ]
        },
        {
            "positions": [
                -0.7194201196182952,
                -0.8305452020014752,
                -1.100713503925804,
                -0.8159989722329014,
                0.032514812660073056,
                -0.2469743540330711
            ]
        },
        {
            "positions": [
                -0.6227648626254285,
                -0.8349098350793566,
                -1.1784676630164501,
                -0.8444693811718298,
                0.006117826941359872,
                -0.4045576923437766
            ]
        },
        {
            "positions": [
                -0.5261096056325618,
                -0.839274468157238,
                -1.2562218221070962,
                -0.8729397901107582,
                -0.020279158777353423,
                -0.5621410306544821
            ]
        },
        {
            "positions": [
                -0.42945434863969556,
                -0.8436391012351194,
                -1.333975981197742,
                -0.9014101990496864,
                -0.046676144496066496,
                -0.7197243689651867
            ]
        },
        {
            "positions": [
                -0.33279909164682886,
                -0.8480037343130008,
                -1.4117301402883882,
                -0.9298806079886148,
                -0.07307313021477979,
                -0.8773077072758921
            ]
        },
        {
            "positions": [
                -0.23614383465396216,
                -0.8523683673908822,
                -1.4894842993790343,
                -0.9583510169275432,
                -0.09947011593349298,
                -1.0348910455865976
            ]
        },
        {
            "positions": [
                -0.13948857766109546,
                -0.8567330004687637,
                -1.5672384584696804,
                -0.9868214258664716,
                -0.12586710165220627,
                -1.192474383897303
            ]
        },
        {
            "positions": [
                -0.04283332066822876,
                -0.861097633546645,
                -1.6449926175603264,
                -1.0152918348053999,
                -0.15226408737091945,
                -1.3500577222080086
            ]
        },
        {
            "positions": [
                0.0538219363246375,
                -0.8654622666245264,
                -1.722746776650972,
                -1.0437622437443284,
                -0.17866107308963264,
                -1.5076410605187132
            ]
        },
        {
            "positions": [
                0.1504771933175042,
                -0.8698268997024079,
                -1.8005009357416182,
                -1.0722326526832566,
                -0.20505805880834582,
                -1.6652243988294186
            ]
        },
        {
            "positions": [
                0.24713245031037046,
                -0.8741915327802893,
                -1.8782550948322643,
                -1.100703061622185,
                -0.23145504452705912,
                -1.8228077371401232
            ]
        },
        {
            "positions": [
                0.34378770730323716,
                -0.8785561658581706,
                -1.9560092539229104,
                -1.1291734705611134,
                -0.2578520302457723,
                -1.9803910754508287
            ]
        },
        {
            "positions": [
                0.44044296429610386,
                -0.8829207989360521,
                -2.0337634130135567,
                -1.1576438795000417,
                -0.2842490159644855,
                -2.137974413761534
            ]
        },
        {
            "positions": [
                0.5370982212889701,
                -0.8872854320139335,
                -2.1115175721042028,
                -1.18611428843897,
                -0.31064600168319867,
                -2.2955577520722388
            ]
        },
        {
            "positions": [
                0.6337534782818368,
                -0.8916500650918149,
                -2.189271731194849,
                -1.2145846973778984,
                -0.33704298740191185,
                -2.4531410903829443
            ]
        },
        {
            "positions": [
                0.7304087352747035,
                -0.8960146981696964,
                -2.267025890285495,
                -1.2430551063168267,
                -0.36343997312062515,
                -2.6107244286936497
            ]
        },
        {
            "positions": [
                0.8270639922675702,
                -0.9003793312475777,
                -2.344780049376141,
                -1.2715255152557552,
                -0.38983695883933833,
                -2.768307767004355
            ]
        },
        {
            "positions": [
                0.9237192492604369,
                -0.9047439643254591,
                -2.422534208466787,
                -1.2999959241946835,
                -0.4162339445580516,
                -2.9258911053150607
            ]
        },
        {
            "positions": [
                1.0203745062533032,
                -0.9091085974033405,
                -2.5002883675574328,
                -1.3284663331336117,
                -0.4426309302767648,
                -3.0834744436257653
            ]
        },
        {
            "positions": [
                1.1170297632461699,
                -0.913473230481222,
                -2.578042526648079,
                -1.3569367420725402,
                -0.469027915995478,
                -3.2410577819364708
            ]
        },
        {
            "positions": [
                1.2136850202390368,
                -0.9178378635591034,
                -2.655796685738725,
                -1.3854071510114685,
                -0.4954249017141912,
                -3.3986411202471767
            ]
        },
        {
            "positions": [
                1.0864251666499782,
                -0.9938379996090305,
                -2.627540507618589,
                -1.4648641135928373,
                -0.46597410601618955,
                -3.36793479915569
            ]
        },
        {
            "positions": [
                0.9591653130609197,
                -1.0698381356589577,
                -2.5992843294984533,
                -1.544321076174206,
                -0.43652331031818786,
                -3.337228478064204
            ]
        },
        {
            "positions": [
                0.8319054594718611,
                -1.1458382717088849,
                -2.5710281513783175,
                -1.623778038755575,
                -0.40707251462018623,
                -3.3065221569727172
            ]
        },
        {
            "positions": [
                0.7046456058828025,
                -1.221838407758812,
                -2.5427719732581817,
                -1.7032350013369437,
                -0.3776217189221846,
                -3.2758158358812306
            ]
        },
        {
            "positions": [
                0.5773857522937439,
                -1.2978385438087394,
                -2.514515795138046,
                -1.7826919639183125,
                -0.34817092322418297,
                -3.245109514789744
            ]
        },
        {
            "positions": [
                0.45012589870468533,
                -1.3738386798586664,
                -2.4862596170179105,
                -1.8621489264996813,
                -0.3187201275261813,
                -3.2144031936982578
            ]
        },
        {
            "positions": [
                0.3228660451156268,
                -1.4498388159085938,
                -2.4580034388977747,
                -1.9416058890810501,
                -0.28926933182817965,
                -3.183696872606771
            ]
        },
        {
            "positions": [
                0.1956061915265681,
                -1.525838951958521,
                -2.429747260777639,
                -2.021062851662419,
                -0.259818536130178,
                -3.1529905515152845
            ]
        },
        {
            "positions": [
                0.06834633793750955,
                -1.601839088008448,
                -2.401491082657503,
                -2.1005198142437878,
                -0.23036774043217634,
                -3.122284230423798
            ]
        },
        {
            "positions": [
                -0.05891351565154901,
                -1.6778392240583753,
                -2.3732349045373673,
                -2.1799767768251566,
                -0.2009169447341747,
                -3.0915779093323117
            ]
        },
        {
            "positions": [
                -0.18617336924060762,
                -1.7538393601083024,
                -2.3449787264172315,
                -2.2594337394065254,
                -0.17146614903617308,
                -3.060871588240825
            ]
        }
    ]
}