{
    "goal": {
        "global_pose": {
            "orientation": {
                "w": 0.7031023480610252,
                "x": -0.7110244013736278,
                "y": 0.0077485991402295624,
                "z": 0.005598929693374583
            },
            "position": {
                "x": -0.8841497679147869,
                "y": 0.44412534475326537,
                "z": 0.3711530566215515
            }
        },
        "name": "move_to_auspresseinheit_D"
    },
    "id": "KPIECE_move_to_auspresseinheit_D_127",
    "joint_names": [
        "shoulder_pan_joint",
        "shoulder_lift_joint",
        "elbow_joint",
        "wrist_1_joint",
        "wrist_2_joint",
        "wrist_3_joint"
    ],
    "metrics": {
        "cart_traj_len": 0.34496353600857016,
        "distance_elbow_joint": 0.6732375632149632,
        "distance_shoulder_lift_joint": 0.14039954337766059,
        "distance_shoulder_pan_joint": 0.13322967915902773,
        "distance_wrist_1_joint": 0.63989561066031,
        "distance_wrist_2_joint": 1.445982982462179,
        "distance_wrist_3_joint": 0.09950693869567884,
        "smoothness": 0.0,
        "time": 0.09039372300000001,
        "traj_len": 1.7698170294044013,
        "weighted_distance": 2.3274760553190803
    },
    "planner": "KPIECE",
    "start": {
        "state": {
            "elbow_joint": -1.8275484843655228,
            "shoulder_lift_joint": -2.1267897864000416,
            "shoulder_pan_joint": -0.035127520176001514,
            "wrist_1_joint": -2.3477863256791385,
            "wrist_2_joint": -1.605890476484521,
            "wrist_3_joint": -3.0880375317375353
        }
    },
    "waypoints": [
        {
            "positions": [
                -0.035127520176001514,
                -2.1267897864000416,
                -1.8275484843655228,
                -2.3477863256791385,
                -1.605890476484521,
                -3.0880375317375353
            ]
        },
        {
            "positions": [
                -0.05178123007087998,
                -2.1443397293222493,
                -1.7433937889636524,
                -2.4277732770116773,
                -1.4251426036767487,
                -3.0755991644005753
            ]
        },
        {
            "positions": [
                -0.06843493996575845,
                -2.161889672244457,
                -1.659239093561782,
                -2.5077602283442157,
                -1.2443947308689762,
                -3.0631607970636154
            ]
        },
        {
            "positions": [
                -0.08508864986063691,
                -2.179439615166664,
                -1.5750843981599116,
                -2.5877471796767546,
                -1.0636468580612037,
                -3.0507224297266555
            ]
        },
        {
            "positions": [
                -0.10174235975551538,
                -2.196989558088872,
                -1.490929702758041,
                -2.6677341310092935,
                -0.8828989852534315,
                -3.038284062389696
            ]
        },
        {
            "positions": [
                -0.11839606965039384,
                -2.2145395010110795,
                -1.406775007356171,
                -2.7477210823418323,
                -0.7021511124456591,
                -3.025845695052736
            ]
        },
        {
            "positions": [
                -0.1350497795452723,
                -2.232089443933287,
                -1.3226203119543003,
                -2.827708033674371,
                -0.5214032396378867,
                -3.0134073277157762
            ]
        },
        {
            "positions": [
                -0.15170348944015077,
                -2.2496393868554945,
                -1.23846561655243,
                -2.9076949850069096,
                -0.34065536683011444,
                -3.0009689603788163
            ]
        },
        {
            "positions": [
                -0.16835719933502924,
                -2.267189329777702,
                -1.1543109211505596,
                -2.9876819363394485,
                -0.15990749402234194,
                -2.9885305930418564
            ]
        }
    ]
}