{
    "goal": {
        "global_pose": {
            "orientation": {
                "w": -0.00223480608172531,
                "x": 0.0024358444001904467,
                "y": 0.7094548369677653,
                "z": -0.704743149386269
            },
            "position": {
                "x": -0.37947507619857795,
                "y": -0.6371506643295288,
                "z": 0.19426114857196808
            }
        },
        "name": "move_to_magneteinheit_C"
    },
    "id": "KPIECE_move_to_magneteinheit_C_44",
    "joint_names": [
        "shoulder_pan_joint",
        "shoulder_lift_joint",
        "elbow_joint",
        "wrist_1_joint",
        "wrist_2_joint",
        "wrist_3_joint"
    ],
    "metrics": {
        "cart_traj_len": 2.9304442784103037,
        "distance_elbow_joint": 1.4391737260281834,
        "distance_shoulder_lift_joint": 0.7632130145833844,
        "distance_shoulder_pan_joint": 3.134025490103767,
        "distance_wrist_1_joint": 1.9131196317658414,
        "distance_wrist_2_joint": 1.4622124917746402,
        "distance_wrist_3_joint": 8.026713535270048,
        "smoothness": 0.4323487882726769,
        "time": 1.438987648,
        "traj_len": 4.0912660497119795,
        "weighted_distance": 6.013918612984917
    },
    "planner": "KPIECE",
    "start": {
        "state": {
            "elbow_joint": 1.9565354006593851,
            "shoulder_lift_joint": -1.4165861576512813,
            "shoulder_pan_joint": -1.6717766223278752,
            "wrist_1_joint": -0.528663328821883,
            "wrist_2_joint": 1.472756589259273,
            "wrist_3_joint": 3.159348288315503
        }
    },
    "waypoints": [
        {
            "positions": [
                -1.6717766223278752,
                -1.4165861576512813,
                1.9565354006593851,
                -0.528663328821883,
                1.472756589259273,
                3.159348288315503
            ]
        },
        {
            "positions": [
                -1.5686065183263693,
                -1.4153305046807776,
                1.9758567333280561,
                -0.6048740958642578,
                1.4482581128987806,
                3.03811147530577
            ]
        },
        {
            "positions": [
                -1.4654364143248637,
                -1.414074851710274,
                1.9951780659967273,
                -0.6810848629066324,
                1.4237596365382879,
                2.9168746622960375
            ]
        },
        {
            "positions": [
                -1.3622663103233579,
                -1.4128191987397702,
                2.0144993986653983,
                -0.7572956299490071,
                1.3992611601777953,
                2.7956378492863045
            ]
        },
        {
            "positions": [
                -1.2685119846858592,
                -1.3959222952961874,
                1.9500864089617649,
                -0.7786338917777459,
                1.3684175071935678,
                2.6616118225169743
            ]
        },
        {
            "positions": [
                -1.1747576590483608,
                -1.3790253918526045,
                1.8856734192581317,
                -0.7999721536064847,
                1.3375738542093403,
                2.5275857957476435
            ]
        },
        {
            "positions": [
                -1.0810033334108622,
                -1.3621284884090215,
                1.8212604295544983,
                -0.8213104154352235,
                1.306730201225113,
                2.3935597689783132
            ]
        },
        {
            "positions": [
                -0.9872490077733637,
                -1.3452315849654386,
                1.7568474398508651,
                -0.8426486772639623,
                1.2758865482408854,
                2.2595337422089825
            ]
        },
        {
            "positions": [
                -0.893494682135865,
                -1.3283346815218557,
                1.6924344501472315,
                -0.8639869390927011,
                1.245042895256658,
                2.1255077154396522
            ]
        },
        {
            "positions": [
                -0.7997403564983665,
                -1.3114377780782729,
                1.6280214604435983,
                -0.8853252009214398,
                1.2141992422724304,
                1.9914816886703217
            ]
        },
        {
            "positions": [
                -0.8228159957673149,
                -1.3101938270447866,
                1.5575063435365168,
                -0.8659848244676202,
                1.176834362860331,
                1.8686265005970777
            ]
        },
        {
            "positions": [
                -0.8458916350362632,
                -1.3089498760113,
                1.4869912266294356,
                -0.8466444480138003,
                1.139469483448232,
                1.7457713125238339
            ]
        },
        {
            "positions": [
                -0.8689672743052116,
                -1.3077059249778138,
                1.4164761097223542,
                -0.8273040715599806,
                1.1021046040361326,
                1.6229161244505899
            ]
        },
        {
            "positions": [
                -0.979365105902543,
                -1.3254417008194734,
                1.4079390676418102,
                -0.7959525565914665,
                1.0698779735066766,
                1.4441444303401594
            ]
        },
        {
            "positions": [
                -1.0897629374998745,
                -1.343177476661133,
                1.399402025561266,
                -0.7646010416229522,
                1.0376513429772207,
                1.265372736229729
            ]
        },
        {
            "positions": [
                -1.2001607690972058,
                -1.3609132525027927,
                1.390864983480722,
                -0.733249526654438,
                1.0054247124477647,
                1.0866010421192986
            ]
        },
        {
            "positions": [
                -1.3105586006945373,
                -1.3786490283444524,
                1.3823279414001781,
                -0.7018980116859237,
                0.9731980819183086,
                0.907829348008868
            ]
        },
        {
            "positions": [
                -1.4209564322918686,
                -1.396384804186112,
                1.3737908993196342,
                -0.6705464967174095,
                0.9409714513888526,
                0.7290576538984376
            ]
        },
        {
            "positions": [
                -1.5313542638892002,
                -1.4141205800277714,
                1.36525385723909,
                -0.6391949817488953,
                0.9087448208593967,
                0.5502859597880072
            ]
        },
        {
            "positions": [
                -1.6417520954865314,
                -1.431856355869431,
                1.356716815158546,
                -0.607843466780381,
                0.8765181903299406,
                0.3715142656775767
            ]
        },
        {
            "positions": [
                -1.752149927083863,
                -1.4495921317110907,
                1.348179773078002,
                -0.5764919518118667,
                0.8442915598004845,
                0.19274257156714625
            ]
        },
        {
            "positions": [
                -1.8625477586811945,
                -1.4673279075527503,
                1.3396427309974581,
                -0.5451404368433526,
                0.8120649292710285,
                0.013970877456715547
            ]
        },
        {
            "positions": [
                -1.9729455902785258,
                -1.48506368339441,
                1.331105688916914,
                -0.5137889218748384,
                0.7798382987415726,
                -0.1648008166537147
            ]
        },
        {
            "positions": [
                -2.083343421875857,
                -1.5027994592360696,
                1.32256864683637,
                -0.4824374069063241,
                0.7476116682121166,
                -0.3435725107641451
            ]
        },
        {
            "positions": [
                -2.174877361950746,
                -1.5166795739304166,
                1.3295255043577159,
                -0.4526506624821902,
                0.7305826278118959,
                -0.4777192152799461
            ]
        },
        {
            "positions": [
                -2.2664113020256353,
                -1.5305596886247637,
                1.3364823618790618,
                -0.42286391805805634,
                0.7135535874116752,
                -0.6118659197957471
            ]
        },
        {
            "positions": [
                -2.3579452421005245,
                -1.5444398033191107,
                1.3434392194004077,
                -0.39307717363392247,
                0.6965245470114545,
                -0.7460126243115481
            ]
        },
        {
            "positions": [
                -2.452227388926008,
                -1.550481550764306,
                1.4509320395447582,
                -0.32305034190230075,
                0.7577115659955054,
                -0.7865948783534437
            ]
        },
        {
            "positions": [
                -2.546509535751492,
                -1.556523298209501,
                1.5584248596891086,
                -0.2530235101706791,
                0.8188985849795563,
                -0.8271771323953391
            ]
        },
        {
            "positions": [
                -2.6407916825769755,
                -1.5625650456546962,
                1.6659176798334592,
                -0.18299667843905737,
                0.8800856039636071,
                -0.8677593864372346
            ]
        },
        {
            "positions": [
                -2.6831224532190117,
                -1.5537105903757433,
                1.757104119988365,
                -0.15097247384398843,
                0.9299107266461714,
                -0.7657938221938105
            ]
        },
        {
            "positions": [
                -2.7254532238610483,
                -1.5448561350967902,
                1.848290560143271,
                -0.11894826924891946,
                0.9797358493287357,
                -0.6638282579503865
            ]
        },
        {
            "positions": [
                -2.7677839945030844,
                -1.5360016798178373,
                1.939477000298177,
                -0.0869240646538505,
                1.0295609720113,
                -0.5618626937069624
            ]
        },
        {
            "positions": [
                -2.7467878811981175,
                -1.509365230146682,
                1.9446463304932724,
                -0.14107096632518584,
                1.0043506845450874,
                -0.29802632457931666
            ]
        },
        {
            "positions": [
                -2.72579176789315,
                -1.4827287804755265,
                1.9498156606883676,
                -0.19521786799652116,
                0.9791403970788748,
                -0.03418995545167092
            ]
        },
        {
            "positions": [
                -2.704795654588183,
                -1.4560923308043712,
                1.954984990883463,
                -0.2493647696678565,
                0.9539301096126622,
                0.22964641367597483
            ]
        },
        {
            "positions": [
                -2.6837995412832156,
                -1.4294558811332156,
                1.9601543210785584,
                -0.3035116713391918,
                0.9287198221464497,
                0.49348278280362057
            ]
        },
        {
            "positions": [
                -2.6628034279782486,
                -1.4028194314620603,
                1.9653236512736538,
                -0.35765857301052717,
                0.9035095346802371,
                0.7573191519312663
            ]
        },
        {
            "positions": [
                -2.6418073146732812,
                -1.376182981790905,
                1.970492981468749,
                -0.4118054746818625,
                0.8782992472140245,
                1.021155521058912
            ]
        },
        {
            "positions": [
                -2.6208112013683142,
                -1.3495465321197495,
                1.9756623116638443,
                -0.46595237635319786,
                0.853088959747812,
                1.2849918901865578
            ]
        },
        {
            "positions": [
                -2.5998150880633473,
                -1.3229100824485942,
                1.9808316418589398,
                -0.5200992780245332,
                0.8278786722815995,
                1.5488282593142035
            ]
        },
        {
            "positions": [
                -2.57881897475838,
                -1.2962736327774387,
                1.9860009720540353,
                -0.5742461796958686,
                0.8026683848153868,
                1.8126646284418493
            ]
        },
        {
            "positions": [
                -2.557822861453413,
                -1.2696371831062834,
                1.9911703022491305,
                -0.6283930813672038,
                0.7774580973491743,
                2.076500997569495
            ]
        },
        {
            "positions": [
                -2.5368267481484454,
                -1.2430007334351278,
                1.9963396324442257,
                -0.6825399830385392,
                0.7522478098829618,
                2.340337366697141
            ]
        },
        {
            "positions": [
                -2.5158306348434785,
                -1.2163642837639725,
                2.0015089626393214,
                -0.7366868847098745,
                0.7270375224167492,
                2.6041737358247863
            ]
        },
        {
            "positions": [
                -2.494834521538511,
                -1.189727834092817,
                2.0066782928344167,
                -0.7908337863812099,
                0.7018272349505367,
                2.8680101049524325
            ]
        },
        {
            "positions": [
                -2.473838408233544,
                -1.1630913844216617,
                2.011847623029512,
                -0.8449806880525452,
                0.6766169474843241,
                3.1318464740800778
            ]
        }
    ]
}