{
    "goal": {
        "global_pose": {
            "orientation": {
                "w": 0.5084816262002911,
                "x": -0.4908360881923452,
                "y": 0.5182115481033761,
                "z": -0.48164630358495003
            },
            "position": {
                "x": 0.5540239810943604,
                "y": -0.46912469901144505,
                "z": 0.16403168439865112
            }
        },
        "name": "move_to_storage_B"
    },
    "id": "KPIECE_move_to_storage_B_75",
    "joint_names": [
        "shoulder_pan_joint",
        "shoulder_lift_joint",
        "elbow_joint",
        "wrist_1_joint",
        "wrist_2_joint",
        "wrist_3_joint"
    ],
    "metrics": {
        "cart_traj_len": 1.6853258720194126,
        "distance_elbow_joint": 0.38044459321179347,
        "distance_shoulder_lift_joint": 1.3394798000989652,
        "distance_shoulder_pan_joint": 1.4108701890390951,
        "distance_wrist_1_joint": 2.9816077609233824,
        "distance_wrist_2_joint": 2.7019549071123596,
        "distance_wrist_3_joint": 3.13737335557825,
        "smoothness": 0.1581895118790914,
        "time": 0.105599779,
        "traj_len": 3.4571275079122903,
        "weighted_distance": 4.889789359998658
    },
    "planner": "KPIECE",
    "start": {
        "state": {
            "elbow_joint": 1.6649325340416963,
            "shoulder_lift_joint": -0.6616387945129425,
            "shoulder_pan_joint": -0.9139837929255878,
            "wrist_1_joint": 2.1467571094334352,
            "wrist_2_joint": -2.234195976750228,
            "wrist_3_joint": 0.005470921511140723
        }
    },
    "waypoints": [
        {
            "positions": [
                -0.9139837929255878,
                -0.6616387945129425,
                1.6649325340416963,
                2.1467571094334352,
                -2.234195976750228,
                0.005470921511140723
            ]
        },
        {
            "positions": [
                -0.8525214026562531,
                -0.7515618170079851,
                1.7014453933119935,
                2.080970796196425,
                -2.168668741700237,
                -0.06630604516890634
            ]
        },
        {
            "positions": [
                -0.7910590123869183,
                -0.8414848395030275,
                1.7379582525822905,
                2.0151844829594143,
                -2.103141506650246,
                -0.13808301184895339
            ]
        },
        {
            "positions": [
                -0.7295966221175836,
                -0.9314078619980701,
                1.7744711118525878,
                1.949398169722404,
                -2.037614271600255,
                -0.20985997852900046
            ]
        },
        {
            "positions": [
                -0.6681342318482487,
                -1.0213308844931126,
                1.810983971122885,
                1.8836118564853939,
                -1.9720870365502643,
                -0.28163694520904753
            ]
        },
        {
            "positions": [
                -0.606671841578914,
                -1.1112539069881553,
                1.8474968303931822,
                1.8178255432483834,
                -1.9065598015002734,
                -0.3534139118890946
            ]
        },
        {
            "positions": [
                -0.5452094513095792,
                -1.2011769294831978,
                1.8840096896634793,
                1.752039230011373,
                -1.8410325664502827,
                -0.4251908785691417
            ]
        },
        {
            "positions": [
                -0.48374706104024445,
                -1.2910999519782402,
                1.9205225489337765,
                1.6862529167743627,
                -1.7755053314002918,
                -0.4969678452491887
            ]
        },
        {
            "positions": [
                -0.4222846707709096,
                -1.3810229744732827,
                1.9570354082040737,
                1.6204666035373523,
                -1.7099780963503006,
                -0.5687448119292358
            ]
        },
        {
            "positions": [
                -0.36082228050157483,
                -1.4709459969683254,
                1.9935482674743707,
                1.5546802903003418,
                -1.64445086130031,
                -0.6405217786092828
            ]
        },
        {
            "positions": [
                -0.2993598902322401,
                -1.5608690194633679,
                2.030061126744668,
                1.4888939770633316,
                -1.578923626250319,
                -0.7122987452893299
            ]
        },
        {
            "positions": [
                -0.3372763800582281,
                -1.539904753980104,
                2.029331793387105,
                1.378239470941747,
                -1.4814625521259166,
                -0.8275179685644622
            ]
        },
        {
            "positions": [
                -0.375192869884216,
                -1.5189404884968403,
                2.0286024600295423,
                1.2675849648201623,
                -1.3840014780015142,
                -0.9427371918395946
            ]
        },
        {
            "positions": [
                -0.413109359710204,
                -1.4979762230135765,
                2.027873126671979,
                1.1569304586985776,
                -1.2865404038771118,
                -1.057956415114727
            ]
        },
        {
            "positions": [
                -0.45102584953619196,
                -1.4770119575303127,
                2.027143793314416,
                1.046275952576993,
                -1.1890793297527094,
                -1.1731756383898593
            ]
        },
        {
            "positions": [
                -0.48894233936217996,
                -1.4560476920470489,
                2.0264144599568534,
                0.9356214464554082,
                -1.091618255628307,
                -1.2883948616649916
            ]
        },
        {
            "positions": [
                -0.526858829188168,
                -1.435083426563785,
                2.0256851265992903,
                0.8249669403338236,
                -0.9941571815039045,
                -1.403614084940124
            ]
        },
        {
            "positions": [
                -0.5647753190141559,
                -1.4141191610805213,
                2.0249557932417273,
                0.7143124342122389,
                -0.8966961073795021,
                -1.5188333082152563
            ]
        },
        {
            "positions": [
                -0.6026918088401438,
                -1.3931548955972575,
                2.0242264598841646,
                0.6036579280906542,
                -0.7992350332550997,
                -1.6340525314903886
            ]
        },
        {
            "positions": [
                -0.6406082986661319,
                -1.3721906301139937,
                2.0234971265266015,
                0.49300342196906954,
                -0.7017739591306973,
                -1.7492717547655212
            ]
        },
        {
            "positions": [
                -0.6785247884921198,
                -1.3512263646307299,
                2.0227677931690384,
                0.38234891584748487,
                -0.6043128850062949,
                -1.8644909780406536
            ]
        },
        {
            "positions": [
                -0.7164412783181079,
                -1.330262099147466,
                2.022038459811476,
                0.2716944097259,
                -0.5068518108818922,
                -1.979710201315786
            ]
        },
        {
            "positions": [
                -0.7543577681440958,
                -1.3092978336642023,
                2.0213091264539127,
                0.16103990360431553,
                -0.40939073675749005,
                -2.0949294245909185
            ]
        },
        {
            "positions": [
                -0.7922742579700839,
                -1.2883335681809385,
                2.0205797930963496,
                0.05038539748273063,
                -0.3119296626330874,
                -2.210148647866051
            ]
        },
        {
            "positions": [
                -0.8301907477960717,
                -1.2673693026976747,
                2.019850459738787,
                -0.06026910863885382,
                -0.21446858850868522,
                -2.325367871141183
            ]
        },
        {
            "positions": [
                -0.8681072376220598,
                -1.2464050372144109,
                2.019121126381224,
                -0.1709236147604387,
                -0.11700751438428258,
                -2.4405870944163155
            ]
        },
        {
            "positions": [
                -0.9060237274480477,
                -1.225440771731147,
                2.018391793023661,
                -0.28157812088202316,
                -0.019546440259880393,
                -2.555806317691448
            ]
        },
        {
            "positions": [
                -0.9439402172740358,
                -1.2044765062478833,
                2.017662459666098,
                -0.39223262700360806,
                0.07791463386452224,
                -2.67102554096658
            ]
        },
        {
            "positions": [
                -0.9818567071000237,
                -1.1835122407646195,
                2.016933126308535,
                -0.5028871331251925,
                0.17537570798892443,
                -2.7862447642417125
            ]
        },
        {
            "positions": [
                -1.0197731969260118,
                -1.1625479752813557,
                2.016203792950972,
                -0.6135416392467774,
                0.27283678211332707,
                -2.901463987516845
            ]
        },
        {
            "positions": [
                -1.0576896867519996,
                -1.1415837097980919,
                2.0154744595934093,
                -0.7241961453683619,
                0.37029785623772926,
                -3.016683210791977
            ]
        },
        {
            "positions": [
                -1.0956061765779876,
                -1.120619444314828,
                2.0147451262358462,
                -0.834850651489947,
                0.46775893036213206,
                -3.1319024340671096
            ]
        }
    ]
}