{
    "goal": {
        "global_pose": {
            "orientation": {
                "w": 0.5084816262002911,
                "x": -0.4908360881923452,
                "y": 0.5182115481033761,
                "z": -0.48164630358495003
            },
            "position": {
                "x": 0.5540239810943604,
                "y": -0.46912469901144505,
                "z": 0.16403168439865112
            }
        },
        "name": "move_to_storage_B"
    },
    "id": "KPIECE_move_to_storage_B_13",
    "joint_names": [
        "shoulder_pan_joint",
        "shoulder_lift_joint",
        "elbow_joint",
        "wrist_1_joint",
        "wrist_2_joint",
        "wrist_3_joint"
    ],
    "metrics": {
        "cart_traj_len": 2.8667966144050445,
        "distance_elbow_joint": 2.455159904663396,
        "distance_shoulder_lift_joint": 0.47680570211157036,
        "distance_shoulder_pan_joint": 2.9376296921516034,
        "distance_wrist_1_joint": 2.9855691718369473,
        "distance_wrist_2_joint": 2.7066518008310565,
        "distance_wrist_3_joint": 3.6877547951861027,
        "smoothness": 0.29327479376360627,
        "time": 0.157800944,
        "traj_len": 3.905069918296044,
        "weighted_distance": 5.321400344817225
    },
    "planner": "KPIECE",
    "start": {
        "state": {
            "elbow_joint": 1.6649325340416963,
            "shoulder_lift_joint": -0.6616387945129425,
            "shoulder_pan_joint": -0.9139837929255878,
            "wrist_1_joint": 2.1467571094334352,
            "wrist_2_joint": -2.234195976750228,
            "wrist_3_joint": 0.005470921511140723
        }
    },
    "waypoints": [
        {
            "positions": [
                -0.9139837929255878,
                -0.6616387945129425,
                1.6649325340416963,
                2.1467571094334352,
                -2.234195976750228,
                0.005470921511140723
            ]
        },
        {
            "positions": [
                -0.8230296049047889,
                -0.693490085478903,
                1.6007877787515012,
                2.0503521132122744,
                -2.181321668598205,
                -0.016091005379732494
            ]
        },
        {
            "positions": [
                -0.73207541688399,
                -0.7253413764448635,
                1.5366430234613062,
                1.9539471169911133,
                -2.1284473604461813,
                -0.03765293227060571
            ]
        },
        {
            "positions": [
                -0.641121228863191,
                -0.757192667410824,
                1.472498268171111,
                1.8575421207699523,
                -2.0755730522941582,
                -0.05921485916147893
            ]
        },
        {
            "positions": [
                -0.5501670408423921,
                -0.7890439583767845,
                1.408353512880916,
                1.7611371245487915,
                -2.022698744142135,
                -0.08077678605235215
            ]
        },
        {
            "positions": [
                -0.4592128528215931,
                -0.820895249342745,
                1.344208757590721,
                1.6647321283276306,
                -1.9698244359901116,
                -0.10233871294322537
            ]
        },
        {
            "positions": [
                -0.3682586648007942,
                -0.8527465403087056,
                1.2800640023005259,
                1.5683271321064696,
                -1.9169501278380885,
                -0.12390063983409857
            ]
        },
        {
            "positions": [
                -0.27575583125397696,
                -0.8835385231420514,
                1.2059174111798703,
                1.458428926468359,
                -1.8617245135228218,
                -0.14027901812657456
            ]
        },
        {
            "positions": [
                -0.18325299770715972,
                -0.9143305059753972,
                1.1317708200592147,
                1.3485307208302482,
                -1.8064988992075548,
                -0.15665739641905058
            ]
        },
        {
            "positions": [
                -0.09075016416034248,
                -0.9451224888087432,
                1.057624228938559,
                1.2386325151921376,
                -1.751273284892288,
                -0.17303577471152654
            ]
        },
        {
            "positions": [
                0.001752669386474781,
                -0.975914471642089,
                0.9834776378179034,
                1.1287343095540268,
                -1.696047670577021,
                -0.18941415300400255
            ]
        },
        {
            "positions": [
                0.0942555029332921,
                -1.006706454475435,
                0.9093310466972477,
                1.0188361039159162,
                -1.6408220562617544,
                -0.20579253129647854
            ]
        },
        {
            "positions": [
                0.18675833648010925,
                -1.0374984373087808,
                0.8351844555765922,
                0.9089378982778055,
                -1.5855964419464876,
                -0.22217090958895452
            ]
        },
        {
            "positions": [
                0.2792611700269266,
                -1.0682904201421266,
                0.7610378644559366,
                0.7990396926396948,
                -1.5303708276312207,
                -0.23854928788143054
            ]
        },
        {
            "positions": [
                0.3717640035737438,
                -1.0990824029754724,
                0.686891273335281,
                0.6891414870015841,
                -1.4751452133159537,
                -0.2549276661739065
            ]
        },
        {
            "positions": [
                0.46426683712056105,
                -1.1298743858088183,
                0.6127446822146253,
                0.5792432813634734,
                -1.419919599000687,
                -0.2713060444663825
            ]
        },
        {
            "positions": [
                0.4018916746363429,
                -1.1295315813761906,
                0.6688635643280783,
                0.522521067612794,
                -1.3442245820774263,
                -0.13486693129803934
            ]
        },
        {
            "positions": [
                0.3395165121521247,
                -1.1291887769435627,
                0.7249824464415312,
                0.4657988538621146,
                -1.268529565154166,
                0.0015721818703038348
            ]
        },
        {
            "positions": [
                0.2771413496679065,
                -1.128845972510935,
                0.7811013285549842,
                0.40907664011143524,
                -1.1928345482309053,
                0.138011295038647
            ]
        },
        {
            "positions": [
                0.21476618718368834,
                -1.128503168078307,
                0.8372202106684371,
                0.35235442636075587,
                -1.1171395313076449,
                0.2744504082069902
            ]
        },
        {
            "positions": [
                0.15239102469947013,
                -1.1281603636456794,
                0.89333909278189,
                0.2956322126100765,
                -1.0414445143843842,
                0.4108895213753334
            ]
        },
        {
            "positions": [
                0.09001586221525198,
                -1.1278175592130515,
                0.949457974895343,
                0.23890999885939712,
                -0.9657494974611236,
                0.5473286345436765
            ]
        },
        {
            "positions": [
                0.02764069973103378,
                -1.1274747547804238,
                1.005576857008796,
                0.18218778510871775,
                -0.8900544805378631,
                0.6837677477120199
            ]
        },
        {
            "positions": [
                -0.03473446275318437,
                -1.127131950347796,
                1.061695739122249,
                0.12546557135803837,
                -0.8143594636146025,
                0.8202068608803629
            ]
        },
        {
            "positions": [
                -0.09710962523740252,
                -1.1267891459151682,
                1.1178146212357019,
                0.06874335760735906,
                -0.738664446691342,
                0.956645974048706
            ]
        },
        {
            "positions": [
                -0.15948478772162078,
                -1.1264463414825405,
                1.173933503349155,
                0.012021143856679628,
                -0.6629694297680814,
                1.0930850872170494
            ]
        },
        {
            "positions": [
                -0.22185995020583893,
                -1.1261035370499126,
                1.2300523854626078,
                -0.04470106989399969,
                -0.5872744128448208,
                1.2295242003853923
            ]
        },
        {
            "positions": [
                -0.2842351126900571,
                -1.125760732617285,
                1.2861712675760608,
                -0.10142328364467912,
                -0.5115793959215603,
                1.3659633135537357
            ]
        },
        {
            "positions": [
                -0.34661027517427523,
                -1.125417928184657,
                1.3422901496895139,
                -0.15814549739535844,
                -0.4358843789982997,
                1.502402426722079
            ]
        },
        {
            "positions": [
                -0.4089854376584935,
                -1.1250751237520293,
                1.3984090318029667,
                -0.21486771114603787,
                -0.36018936207503915,
                1.6388415398904224
            ]
        },
        {
            "positions": [
                -0.47136060014271153,
                -1.1247323193194014,
                1.4545279139164196,
                -0.2715899248967172,
                -0.28449434515177874,
                1.7752806530587648
            ]
        },
        {
            "positions": [
                -0.5337357626269298,
                -1.1243895148867737,
                1.5106467960298726,
                -0.3283121386473966,
                -0.2087993282285181,
                1.9117197662271082
            ]
        },
        {
            "positions": [
                -0.5961109251111479,
                -1.124046710454146,
                1.5667656781433257,
                -0.38503435239807604,
                -0.13310431130525746,
                2.0481588793954515
            ]
        },
        {
            "positions": [
                -0.6584860875953661,
                -1.1237039060215182,
                1.6228845602567783,
                -0.44175656614875525,
                -0.057409294381997045,
                2.1845979925637944
            ]
        },
        {
            "positions": [
                -0.7208612500795842,
                -1.1233611015888905,
                1.6790034423702314,
                -0.4984787798994348,
                0.018285722541263594,
                2.3210371057321377
            ]
        },
        {
            "positions": [
                -0.7832364125638026,
                -1.1230182971562626,
                1.7351223244836844,
                -0.5552009936501141,
                0.09398073946452423,
                2.457476218900481
            ]
        },
        {
            "positions": [
                -0.8456115750480205,
                -1.1226754927236349,
                1.7912412065971375,
                -0.6119232074007934,
                0.16967575638778465,
                2.593915332068824
            ]
        },
        {
            "positions": [
                -0.9079867375322389,
                -1.122332688291007,
                1.84736008871059,
                -0.6686454211514727,
                0.2453707733110453,
                2.7303544452371673
            ]
        },
        {
            "positions": [
                -0.9703619000164571,
                -1.1219898838583793,
                1.9034789708240432,
                -0.7253676349021523,
                0.3210657902343059,
                2.8667935584055106
            ]
        },
        {
            "positions": [
                -1.0327370625006753,
                -1.1216470794257514,
                1.9595978529374962,
                -0.7820898486528316,
                0.39676080715756634,
                3.0032326715738535
            ]
        },
        {
            "positions": [
                -1.0951122249848932,
                -1.1213042749931237,
                2.0157167350509493,
                -0.8388120624035109,
                0.47245582408082704,
                3.139671784742197
            ]
        }
    ]
}