{
    "goal": {
        "global_pose": {
            "orientation": {
                "w": -0.00223480608172531,
                "x": 0.0024358444001904467,
                "y": 0.7094548369677653,
                "z": -0.704743149386269
            },
            "position": {
                "x": -0.37947507619857795,
                "y": -0.6371506643295288,
                "z": 0.19426114857196808
            }
        },
        "name": "move_to_magneteinheit_C"
    },
    "id": "KPIECE_move_to_magneteinheit_C_83",
    "joint_names": [
        "shoulder_pan_joint",
        "shoulder_lift_joint",
        "elbow_joint",
        "wrist_1_joint",
        "wrist_2_joint",
        "wrist_3_joint"
    ],
    "metrics": {
        "cart_traj_len": 1.53349588247875,
        "distance_elbow_joint": 1.3216195560938047,
        "distance_shoulder_lift_joint": 0.556700813835554,
        "distance_shoulder_pan_joint": 1.9583828203107838,
        "distance_wrist_1_joint": 1.2264358257678696,
        "distance_wrist_2_joint": 0.8045072992426296,
        "distance_wrist_3_joint": 1.100403455190782,
        "smoothness": 1.5393287966605367,
        "time": 0.303826641,
        "traj_len": 2.6397063795887266,
        "weighted_distance": 3.3466101962782413
    },
    "planner": "KPIECE",
    "start": {
        "state": {
            "elbow_joint": 1.9565354006593851,
            "shoulder_lift_joint": -1.4165861576512813,
            "shoulder_pan_joint": -1.6717766223278752,
            "wrist_1_joint": -0.528663328821883,
            "wrist_2_joint": 1.472756589259273,
            "wrist_3_joint": 3.159348288315503
        }
    },
    "waypoints": [
        {
            "positions": [
                -1.6717766223278752,
                -1.4165861576512813,
                1.9565354006593851,
                -0.528663328821883,
                1.472756589259273,
                3.159348288315503
            ]
        },
        {
            "positions": [
                -1.5914323877218732,
                -1.4418026917398887,
                1.9602412655040213,
                -0.4913066530850932,
                1.356304275199138,
                3.0647361619374545
            ]
        },
        {
            "positions": [
                -1.5110881531158715,
                -1.4670192258284962,
                1.9639471303486578,
                -0.45394997734830334,
                1.2398519611390033,
                2.9701240355594054
            ]
        },
        {
            "positions": [
                -1.4307439185098696,
                -1.4922357599171039,
                1.9676529951932942,
                -0.4165933016115134,
                1.1233996470788683,
                2.8755119091813564
            ]
        },
        {
            "positions": [
                -1.3503996839038677,
                -1.5174522940057114,
                1.9713588600379304,
                -0.37923662587472357,
                1.0069473330187333,
                2.7808997828033077
            ]
        },
        {
            "positions": [
                -1.2700554492978657,
                -1.5426688280943188,
                1.9750647248825666,
                -0.34187995013793365,
                0.8904950189585983,
                2.686287656425259
            ]
        },
        {
            "positions": [
                -1.189711214691864,
                -1.5678853621829263,
                1.978770589727203,
                -0.3045232744011438,
                0.7740427048984634,
                2.59167553004721
            ]
        },
        {
            "positions": [
                -1.34304751404427,
                -1.552106465743614,
                2.0525193912979693,
                -0.38879163578139475,
                0.7665208567899903,
                2.6254647888641856
            ]
        },
        {
            "positions": [
                -1.496383813396676,
                -1.5363275693043021,
                2.1262681928687353,
                -0.47305999716164565,
                0.7589990086815172,
                2.659254047681161
            ]
        },
        {
            "positions": [
                -1.649720112749082,
                -1.52054867286499,
                2.2000169944395016,
                -0.5573283585418966,
                0.751477160573044,
                2.6930433064981365
            ]
        },
        {
            "positions": [
                -1.8030564121014878,
                -1.504769776425678,
                2.273765796010268,
                -0.6415967199221475,
                0.7439553124645709,
                2.726832565315112
            ]
        },
        {
            "positions": [
                -1.956392711453894,
                -1.4889908799863658,
                2.347514597581034,
                -0.7258650813023985,
                0.7364334643560977,
                2.760621824132087
            ]
        },
        {
            "positions": [
                -2.1097290108062996,
                -1.4732119835470538,
                2.4212633991518002,
                -0.8101334426826493,
                0.7289116162476246,
                2.7944110829490625
            ]
        },
        {
            "positions": [
                -2.263065310158706,
                -1.4574330871077417,
                2.4950122007225666,
                -0.8944018040629004,
                0.7213897681391515,
                2.828200341766038
            ]
        },
        {
            "positions": [
                -2.4164016095111114,
                -1.4416541906684297,
                2.5687610022933325,
                -0.9786701654431512,
                0.7138679200306783,
                2.8619896005830134
            ]
        },
        {
            "positions": [
                -2.5697379088635177,
                -1.4258752942291175,
                2.642509803864099,
                -1.0629385268234022,
                0.7063460719222052,
                2.895778859399989
            ]
        },
        {
            "positions": [
                -2.5456652292377377,
                -1.3600274088915925,
                2.483598515641826,
                -1.0019683970921842,
                0.6968218764458147,
                2.9529357012924162
            ]
        },
        {
            "positions": [
                -2.5215925496119582,
                -1.2941795235540674,
                2.3246872274195534,
                -0.9409982673609661,
                0.6872976809694243,
                3.010092543184844
            ]
        },
        {
            "positions": [
                -2.4975198699861787,
                -1.2283316382165423,
                2.165775939197281,
                -0.8800281376297481,
                0.677773485493034,
                3.0672493850772717
            ]
        },
        {
            "positions": [
                -2.4734471903603987,
                -1.1624837528790173,
                2.006864650975008,
                -0.8190580078985301,
                0.6682492900166435,
                3.124406226969699
            ]
        }
    ]
}