{
    "goal": {
        "global_pose": {
            "orientation": {
                "w": -0.00223480608172531,
                "x": 0.0024358444001904467,
                "y": 0.7094548369677653,
                "z": -0.704743149386269
            },
            "position": {
                "x": -0.37947507619857795,
                "y": -0.6371506643295288,
                "z": 0.19426114857196808
            }
        },
        "name": "move_to_magneteinheit_C"
    },
    "id": "KPIECE_move_to_magneteinheit_C_117",
    "joint_names": [
        "shoulder_pan_joint",
        "shoulder_lift_joint",
        "elbow_joint",
        "wrist_1_joint",
        "wrist_2_joint",
        "wrist_3_joint"
    ],
    "metrics": {
        "cart_traj_len": 2.1119118767928855,
        "distance_elbow_joint": 2.246222850579842,
        "distance_shoulder_lift_joint": 0.404892585208529,
        "distance_shoulder_pan_joint": 1.6674357170656255,
        "distance_wrist_1_joint": 3.216428699526497,
        "distance_wrist_2_joint": 1.4224085888987132,
        "distance_wrist_3_joint": 1.641559666913083,
        "smoothness": 0.7780922893938546,
        "time": 2.426042178,
        "traj_len": 3.255602572211831,
        "weighted_distance": 4.303592072959944
    },
    "planner": "KPIECE",
    "start": {
        "state": {
            "elbow_joint": 1.9565354006593851,
            "shoulder_lift_joint": -1.4165861576512813,
            "shoulder_pan_joint": -1.6717766223278752,
            "wrist_1_joint": -0.528663328821883,
            "wrist_2_joint": 1.472756589259273,
            "wrist_3_joint": 3.159348288315503
        }
    },
    "waypoints": [
        {
            "positions": [
                -1.6717766223278752,
                -1.4165861576512813,
                1.9565354006593851,
                -0.528663328821883,
                1.472756589259273,
                3.159348288315503
            ]
        },
        {
            "positions": [
                -1.6633593137312577,
                -1.4171210919090005,
                1.9773534748970427,
                -0.6026292095297326,
                1.3521606542081437,
                3.0792162059477786
            ]
        },
        {
            "positions": [
                -1.6549420051346402,
                -1.4176560261667197,
                1.9981715491347,
                -0.6765950902375822,
                1.231564719157014,
                2.999084123580054
            ]
        },
        {
            "positions": [
                -1.6465246965380227,
                -1.418190960424439,
                2.0189896233723577,
                -0.7505609709454318,
                1.1109687841058846,
                2.9189520412123295
            ]
        },
        {
            "positions": [
                -1.5861276102198387,
                -1.4185492475929307,
                1.9560392871519692,
                -0.7641779903820229,
                1.0067350883152435,
                2.8239888061536567
            ]
        },
        {
            "positions": [
                -1.5257305239016545,
                -1.4189075347614224,
                1.8930889509315807,
                -0.7777950098186142,
                0.9025013925246024,
                2.7290255710949842
            ]
        },
        {
            "positions": [
                -1.4653334375834706,
                -1.4192658219299141,
                1.8301386147111924,
                -0.7914120292552053,
                0.7982676967339613,
                2.6340623360363113
            ]
        },
        {
            "positions": [
                -1.4049363512652864,
                -1.4196241090984059,
                1.767188278490804,
                -0.8050290486917965,
                0.6940340009433201,
                2.539099100977639
            ]
        },
        {
            "positions": [
                -1.3445392649471024,
                -1.4199823962668976,
                1.7042379422704155,
                -0.8186460681283876,
                0.589800305152679,
                2.444135865918966
            ]
        },
        {
            "positions": [
                -1.437625600571199,
                -1.424249597098948,
                1.6173942669815238,
                -0.6726820334971405,
                0.6078521970776929,
                2.430211541594724
            ]
        },
        {
            "positions": [
                -1.5307119361952957,
                -1.4285167979309983,
                1.530550591692632,
                -0.5267179988658934,
                0.6259040890027068,
                2.416287217270482
            ]
        },
        {
            "positions": [
                -1.6237982718193922,
                -1.4327839987630486,
                1.4437069164037402,
                -0.38075396423464625,
                0.6439559809277206,
                2.40236289294624
            ]
        },
        {
            "positions": [
                -1.7168846074434887,
                -1.437051199595099,
                1.3568632411148487,
                -0.23478992960339917,
                0.6620078728527344,
                2.388438568621998
            ]
        },
        {
            "positions": [
                -1.8099709430675854,
                -1.4413184004271495,
                1.2700195658259568,
                -0.08882589497215199,
                0.6800597647777483,
                2.374514244297756
            ]
        },
        {
            "positions": [
                -1.903057278691682,
                -1.4455856012591999,
                1.183175890537065,
                0.05713813965909509,
                0.6981116567027622,
                2.360589919973514
            ]
        },
        {
            "positions": [
                -1.9961436143157787,
                -1.4498528020912502,
                1.0963322152481734,
                0.20310217429034227,
                0.716163548627776,
                2.346665595649272
            ]
        },
        {
            "positions": [
                -2.089229949939875,
                -1.4541200029233006,
                1.0094885399592817,
                0.34906620892158924,
                0.7342154405527899,
                2.33274127132503
            ]
        },
        {
            "positions": [
                -2.1823162855639717,
                -1.458387203755351,
                0.9226448646703899,
                0.49503024355283637,
                0.7522673324778038,
                2.318816947000788
            ]
        },
        {
            "positions": [
                -2.2687796685934334,
                -1.4671514791978009,
                0.992217978292834,
                0.5315985648594124,
                0.7909738147122818,
                2.4016415542342626
            ]
        },
        {
            "positions": [
                -2.3552430516228946,
                -1.4759157546402506,
                1.0617910919152782,
                0.5681668861659883,
                0.8296802969467598,
                2.4844661614677377
            ]
        },
        {
            "positions": [
                -2.441706434652356,
                -1.4846800300827003,
                1.1313642055377222,
                0.6047352074725643,
                0.8683867791812377,
                2.5672907687012128
            ]
        },
        {
            "positions": [
                -2.5281698176818175,
                -1.4934443055251503,
                1.2009373191601664,
                0.6413035287791402,
                0.9070932614157158,
                2.6501153759346874
            ]
        },
        {
            "positions": [
                -2.544969457899884,
                -1.4725212727739196,
                1.2991101854429783,
                0.5302038512002513,
                0.8963225789160675,
                2.71927318288825
            ]
        },
        {
            "positions": [
                -2.5617690981179497,
                -1.4515982400226888,
                1.3972830517257901,
                0.41910417362136226,
                0.8855518964164193,
                2.788430989841813
            ]
        },
        {
            "positions": [
                -2.578568738336016,
                -1.4306752072714581,
                1.495455918008602,
                0.30800449604247326,
                0.874781213916771,
                2.8575887967953757
            ]
        },
        {
            "positions": [
                -2.577722608868186,
                -1.3976871381785516,
                1.587671386445392,
                0.15637036444313232,
                0.853126190249527,
                2.91403530045282
            ]
        },
        {
            "positions": [
                -2.5768764794003562,
                -1.364699069085645,
                1.6798868548821817,
                0.004736232843791377,
                0.8314711665822829,
                2.970481804110265
            ]
        },
        {
            "positions": [
                -2.5760303499325263,
                -1.3317109999927388,
                1.7721023233189717,
                -0.1468978987555496,
                0.8098161429150389,
                3.0269283077677094
            ]
        },
        {
            "positions": [
                -2.5751842204646964,
                -1.2987229308998323,
                1.8643177917557616,
                -0.2985320303548905,
                0.7881611192477949,
                3.083374811425154
            ]
        },
        {
            "positions": [
                -2.551967192162412,
                -1.25443644181202,
                1.9376915426342303,
                -0.48296071199424956,
                0.7555972850932062,
                3.116566693311574
            ]
        },
        {
            "positions": [
                -2.5121835221012443,
                -1.2099231550012552,
                1.9738801382347608,
                -0.6540767732637869,
                0.72026559898992,
                3.1182059829553648
            ]
        },
        {
            "positions": [
                -2.472399852040077,
                -1.1654098681904903,
                2.010068733835291,
                -0.8251928345333243,
                0.6849339128866339,
                3.119845272599156
            ]
        }
    ]
}