{
    "goal": {
        "global_pose": {
            "orientation": {
                "w": 0.7047431493862688,
                "x": -0.7094548369677653,
                "y": 0.0024358444001904,
                "z": -0.0022348060817251984
            },
            "position": {
                "x": -0.39052492380142206,
                "y": 0.3671506643295288,
                "z": 0.19426114857196808
            }
        },
        "name": "move_to_magneteinheit_D"
    },
    "id": "KPIECE_move_to_magneteinheit_D_145",
    "joint_names": [
        "shoulder_pan_joint",
        "shoulder_lift_joint",
        "elbow_joint",
        "wrist_1_joint",
        "wrist_2_joint",
        "wrist_3_joint"
    ],
    "metrics": {
        "cart_traj_len": 4.437207027278088,
        "distance_elbow_joint": 3.495938817394903,
        "distance_shoulder_lift_joint": 1.2081592366545595,
        "distance_shoulder_pan_joint": 2.95428328944666,
        "distance_wrist_1_joint": 3.480138669725627,
        "distance_wrist_2_joint": 2.2507742692316732,
        "distance_wrist_3_joint": 2.609399097471891,
        "smoothness": 0.41514695031555054,
        "time": 0.35706566900000003,
        "traj_len": 3.9998366691560445,
        "weighted_distance": 5.191185270612715
    },
    "planner": "KPIECE",
    "start": {
        "state": {
            "elbow_joint": 0.7495348899011911,
            "shoulder_lift_joint": -0.6476975780737668,
            "shoulder_pan_joint": -2.711696901376276,
            "wrist_1_joint": -0.0750647808097303,
            "wrist_2_joint": 0.43296659715458535,
            "wrist_3_joint": 3.1361499051832418
        }
    },
    "waypoints": [
        {
            "positions": [
                -2.711696901376276,
                -0.6476975780737668,
                0.7495348899011911,
                -0.0750647808097303,
                0.43296659715458535,
                3.1361499051832418
            ]
        },
        {
            "positions": [
                -2.711325110857147,
                -0.7057546610903285,
                0.7846238734903561,
                0.005523166244394029,
                0.5197186542274035,
                3.037731737047205
            ]
        },
        {
            "positions": [
                -2.710953320338018,
                -0.7638117441068901,
                0.8197128570795211,
                0.08611111329851835,
                0.6064707113002216,
                2.9393135689111682
            ]
        },
        {
            "positions": [
                -2.699014848049357,
                -0.8162726862584121,
                0.8354092624468222,
                0.14992531323179864,
                0.6873892214442024,
                2.8093939221490483
            ]
        },
        {
            "positions": [
                -2.6870763757606957,
                -0.8687336284099341,
                0.8511056678141233,
                0.21373951316507894,
                0.7683077315881833,
                2.679474275386928
            ]
        },
        {
            "positions": [
                -2.675137903472035,
                -0.9211945705614559,
                0.8668020731814245,
                0.27755371309835924,
                0.8492262417321643,
                2.549554628624808
            ]
        },
        {
            "positions": [
                -2.663199431183374,
                -0.9736555127129779,
                0.8824984785487257,
                0.34136791303163955,
                0.9301447518761452,
                2.4196349818626874
            ]
        },
        {
            "positions": [
                -2.651260958894713,
                -1.0261164548644999,
                0.8981948839160268,
                0.40518211296491985,
                1.011063262020126,
                2.2897153351005675
            ]
        },
        {
            "positions": [
                -2.6393224866060523,
                -1.0785773970160217,
                0.913891289283328,
                0.46899631289820015,
                1.091981772164107,
                2.1597956883384475
            ]
        },
        {
            "positions": [
                -2.627384014317391,
                -1.1310383391675436,
                0.9295876946506291,
                0.5328105128314805,
                1.1729002823080878,
                2.029876041576327
            ]
        },
        {
            "positions": [
                -2.61544554202873,
                -1.1834992813190657,
                0.9452841000179302,
                0.5966247127647608,
                1.2538187924520687,
                1.899956394814207
            ]
        },
        {
            "positions": [
                -2.5004765448965998,
                -1.1990830921001037,
                0.8355681624298232,
                0.5067778505545529,
                1.1990764151131152,
                1.8965364086283365
            ]
        },
        {
            "positions": [
                -2.38550754776447,
                -1.2146669028811414,
                0.7258522248417162,
                0.4169309883443451,
                1.1443340377741618,
                1.893116422442466
            ]
        },
        {
            "positions": [
                -2.2705385506323394,
                -1.2302507136621794,
                0.6161362872536091,
                0.32708412613413723,
                1.089591660435208,
                1.8896964362565953
            ]
        },
        {
            "positions": [
                -2.155569553500209,
                -1.2458345244432174,
                0.5064203496655022,
                0.2372372639239294,
                1.0348492830962546,
                1.8862764500707248
            ]
        },
        {
            "positions": [
                -2.040600556368079,
                -1.2614183352242552,
                0.39670441207739526,
                0.14739040171372153,
                0.9801069057573011,
                1.8828564638848542
            ]
        },
        {
            "positions": [
                -1.9256315592359488,
                -1.2770021460052932,
                0.2869884744892881,
                0.05754353950351365,
                0.9253645284183474,
                1.8794364776989836
            ]
        },
        {
            "positions": [
                -1.8106625621038184,
                -1.2925859567863311,
                0.17727253690118117,
                -0.032303322706694226,
                0.8706221510793939,
                1.876016491513113
            ]
        },
        {
            "positions": [
                -1.6956935649716884,
                -1.308169767567369,
                0.06755659931307423,
                -0.122150184916902,
                0.8158797737404404,
                1.8725965053272422
            ]
        },
        {
            "positions": [
                -1.580724567839558,
                -1.323753578348407,
                -0.04215933827503271,
                -0.21199704712710987,
                0.7611373964014869,
                1.8691765191413716
            ]
        },
        {
            "positions": [
                -1.465755570707428,
                -1.3393373891294449,
                -0.15187527586313965,
                -0.30184390933731775,
                0.7063950190625333,
                1.865756532955501
            ]
        },
        {
            "positions": [
                -1.3507865735752977,
                -1.3549211999104827,
                -0.2615912134512468,
                -0.3916907715475255,
                0.6516526417235798,
                1.8623365467696305
            ]
        },
        {
            "positions": [
                -1.2358175764431674,
                -1.3705050106915206,
                -0.37130715103935397,
                -0.4815376337577335,
                0.5969102643846261,
                1.8589165605837599
            ]
        },
        {
            "positions": [
                -1.120848579311037,
                -1.3860888214725586,
                -0.4810230886274609,
                -0.5713844959679413,
                0.5421678870456726,
                1.8554965743978893
            ]
        },
        {
            "positions": [
                -1.0058795821789068,
                -1.4016726322535964,
                -0.5907390262155678,
                -0.6612313581781493,
                0.48742550970671905,
                1.8520765882120187
            ]
        },
        {
            "positions": [
                -0.8909105850467767,
                -1.4172564430346344,
                -0.7004549638036748,
                -0.751078220388357,
                0.43268313236776557,
                1.8486566020261481
            ]
        },
        {
            "positions": [
                -0.8252156801893911,
                -1.4447861684777812,
                -0.7914202327855495,
                -0.8441666067068347,
                0.3923460007576327,
                1.925577596275374
            ]
        },
        {
            "positions": [
                -0.7595207753320055,
                -1.4723158939209282,
                -0.8823855017674244,
                -0.9372549930253123,
                0.35200886914749985,
                2.0024985905246
            ]
        },
        {
            "positions": [
                -0.6938258704746197,
                -1.499845619364075,
                -0.9733507707492992,
                -1.03034337934379,
                0.31167173753736693,
                2.0794195847738264
            ]
        },
        {
            "positions": [
                -0.6281309656172341,
                -1.527375344807222,
                -1.064316039731174,
                -1.1234317656622677,
                0.2713346059272341,
                2.1563405790230523
            ]
        },
        {
            "positions": [
                -0.5624360607598484,
                -1.5549050702503688,
                -1.155281308713049,
                -1.2165201519807454,
                0.2309974743171012,
                2.2332615732722783
            ]
        },
        {
            "positions": [
                -0.49674115590246287,
                -1.5824347956935156,
                -1.2462465776949236,
                -1.309608538299223,
                0.19066034270696833,
                2.310182567521504
            ]
        },
        {
            "positions": [
                -0.4310462510450772,
                -1.6099645211366627,
                -1.3372118466767984,
                -1.4026969246177008,
                0.15032321109683544,
                2.38710356177073
            ]
        },
        {
            "positions": [
                -0.3653513461876916,
                -1.6374942465798095,
                -1.4281771156586731,
                -1.4957853109361783,
                0.10998607948670258,
                2.4640245560199565
            ]
        },
        {
            "positions": [
                -0.2996564413303059,
                -1.6650239720229565,
                -1.519142384640548,
                -1.5888736972546562,
                0.06964894787656967,
                2.5409455502691825
            ]
        },
        {
            "positions": [
                -0.23396153647292028,
                -1.6925536974661033,
                -1.6101076536224228,
                -1.6819620835731337,
                0.029311816266436808,
                2.6178665445184084
            ]
        },
        {
            "positions": [
                -0.16826663161553468,
                -1.7200834229092503,
                -1.7010729226042975,
                -1.7750504698916114,
                -0.011025315343696052,
                2.6947875387676343
            ]
        },
        {
            "positions": [
                -0.10257172675814907,
                -1.7476131483523971,
                -1.7920381915861723,
                -1.8681388562100891,
                -0.05136244695382891,
                2.7717085330168603
            ]
        },
        {
            "positions": [
                -0.03687682190076336,
                -1.7751428737955441,
                -1.8830034605680472,
                -1.9612272425285668,
                -0.09169957856396183,
                2.8486295272660866
            ]
        },
        {
            "positions": [
                0.02881808295662223,
                -1.802672599238691,
                -1.973968729549922,
                -2.0543156288470446,
                -0.13203671017409468,
                2.9255505215153126
            ]
        },
        {
            "positions": [
                -0.0212409641105869,
                -1.7949655255458126,
                -2.070617214196951,
                -2.1068523295058483,
                -0.14507786867346467,
                3.0037274825180207
            ]
        },
        {
            "positions": [
                -0.07130001117779602,
                -1.787258451852934,
                -2.16726569884398,
                -2.1593890301646526,
                -0.15811902717283463,
                3.0819044435207292
            ]
        },
        {
            "positions": [
                -0.1039199692945186,
                -1.7763817806970508,
                -2.220610610075169,
                -2.179211658192421,
                -0.16522021801203635,
                3.1150368220364313
            ]
        },
        {
            "positions": [
                -0.18495022215713972,
                -1.7494883837490556,
                -2.3549055072602347,
                -2.2118244633863773,
                -0.17610328148212134,
                3.1705623963409453
            ]
        }
    ]
}