{
    "goal": {
        "global_pose": {
            "orientation": {
                "w": 0.7047431493862688,
                "x": -0.7094548369677653,
                "y": 0.0024358444001904,
                "z": -0.0022348060817251984
            },
            "position": {
                "x": -0.39052492380142206,
                "y": 0.3671506643295288,
                "z": 0.19426114857196808
            }
        },
        "name": "move_to_magneteinheit_D"
    },
    "id": "KPIECE_move_to_magneteinheit_D_23",
    "joint_names": [
        "shoulder_pan_joint",
        "shoulder_lift_joint",
        "elbow_joint",
        "wrist_1_joint",
        "wrist_2_joint",
        "wrist_3_joint"
    ],
    "metrics": {
        "cart_traj_len": 4.377317972656335,
        "distance_elbow_joint": 4.652264532119672,
        "distance_shoulder_lift_joint": 1.2068862681739938,
        "distance_shoulder_pan_joint": 2.9930583055819513,
        "distance_wrist_1_joint": 4.758844417515073,
        "distance_wrist_2_joint": 1.233831856339009,
        "distance_wrist_3_joint": 6.2699777832741415,
        "smoothness": 0.6368461029031987,
        "time": 0.456522793,
        "traj_len": 4.595091202903796,
        "weighted_distance": 6.296625683920414
    },
    "planner": "KPIECE",
    "start": {
        "state": {
            "elbow_joint": 0.7495348899011911,
            "shoulder_lift_joint": -0.6476975780737668,
            "shoulder_pan_joint": -2.711696901376276,
            "wrist_1_joint": -0.0750647808097303,
            "wrist_2_joint": 0.43296659715458535,
            "wrist_3_joint": 3.1361499051832418
        }
    },
    "waypoints": [
        {
            "positions": [
                -2.711696901376276,
                -0.6476975780737668,
                0.7495348899011911,
                -0.0750647808097303,
                0.43296659715458535,
                3.1361499051832418
            ]
        },
        {
            "positions": [
                -2.7136890536300267,
                -0.6809258188528922,
                0.8017172394490913,
                0.00408251043838298,
                0.3751895424888337,
                2.9910475052747163
            ]
        },
        {
            "positions": [
                -2.715681205883777,
                -0.7141540596320175,
                0.8538995889969916,
                0.08322980168649625,
                0.31741248782308196,
                2.845945105366191
            ]
        },
        {
            "positions": [
                -2.7176733581375276,
                -0.7473823004111427,
                0.9060819385448918,
                0.1623770929346095,
                0.2596354331573303,
                2.700842705457666
            ]
        },
        {
            "positions": [
                -2.719665510391278,
                -0.7806105411902681,
                0.9582642880927921,
                0.24152438418272282,
                0.2018583784915786,
                2.5557403055491403
            ]
        },
        {
            "positions": [
                -2.7216576626450286,
                -0.8138387819693934,
                1.0104466376406924,
                0.3206716754308361,
                0.1440813238258269,
                2.4106379056406153
            ]
        },
        {
            "positions": [
                -2.7236498148987796,
                -0.8470670227485187,
                1.0626289871885926,
                0.3998189666789493,
                0.08630426916007522,
                2.26553550573209
            ]
        },
        {
            "positions": [
                -2.72564196715253,
                -0.8802952635276441,
                1.114811336736493,
                0.47896625792706266,
                0.02852721449432355,
                2.1204331058235644
            ]
        },
        {
            "positions": [
                -2.7276341194062805,
                -0.9135235043067693,
                1.166993686284393,
                0.5581135491751759,
                -0.029249840171428176,
                1.975330705915039
            ]
        },
        {
            "positions": [
                -2.729626271660031,
                -0.9467517450858947,
                1.2191760358322934,
                0.6372608404232891,
                -0.0870268948371799,
                1.8302283060065136
            ]
        },
        {
            "positions": [
                -2.7316184239137815,
                -0.97997998586502,
                1.2713583853801937,
                0.7164081316714024,
                -0.14480394950293157,
                1.6851259060979884
            ]
        },
        {
            "positions": [
                -2.733610576167532,
                -1.0132082266441453,
                1.3235407349280939,
                0.7955554229195156,
                -0.20258100416868324,
                1.540023506189463
            ]
        },
        {
            "positions": [
                -2.689279737093535,
                -1.0472601582990917,
                1.3411232314251418,
                0.8853604697473677,
                -0.24511738922118204,
                1.3766211984599188
            ]
        },
        {
            "positions": [
                -2.644948898019538,
                -1.081312089954038,
                1.3587057279221897,
                0.9751655165752198,
                -0.2876537742736809,
                1.2132188907303747
            ]
        },
        {
            "positions": [
                -2.6006180589455417,
                -1.1153640216089844,
                1.3762882244192378,
                1.064970563403072,
                -0.3301901593261797,
                1.0498165830008304
            ]
        },
        {
            "positions": [
                -2.5562872198715447,
                -1.1494159532639308,
                1.3938707209162857,
                1.154775610230924,
                -0.37272654437867847,
                0.8864142752712862
            ]
        },
        {
            "positions": [
                -2.485245514983185,
                -1.1637002335614137,
                1.292715439719631,
                1.0612666404318638,
                -0.37452357784581397,
                0.7815966956405902
            ]
        },
        {
            "positions": [
                -2.414203810094825,
                -1.177984513858897,
                1.1915601585229765,
                0.9677576706328035,
                -0.37632061131294947,
                0.6767791160098942
            ]
        },
        {
            "positions": [
                -2.3431621052064653,
                -1.1922687941563799,
                1.0904048773263217,
                0.8742487008337434,
                -0.378117644780085,
                0.5719615363791982
            ]
        },
        {
            "positions": [
                -2.272120400318105,
                -1.206553074453863,
                0.989249596129667,
                0.7807397310346832,
                -0.3799146782472205,
                0.4671439567485022
            ]
        },
        {
            "positions": [
                -2.201078695429745,
                -1.220837354751346,
                0.8880943149330123,
                0.687230761235623,
                -0.38171171171435603,
                0.36232637711780613
            ]
        },
        {
            "positions": [
                -2.1300369905413854,
                -1.2351216350488292,
                0.7869390337363577,
                0.5937217914365629,
                -0.38350874518149153,
                0.2575087974871102
            ]
        },
        {
            "positions": [
                -2.0589952856530256,
                -1.2494059153463122,
                0.6857837525397029,
                0.5002128216375026,
                -0.3853057786486271,
                0.15269121785641404
            ]
        },
        {
            "positions": [
                -1.9879535807646658,
                -1.2636901956437954,
                0.5846284713430483,
                0.4067038518384425,
                -0.3871028121157626,
                0.04787363822571811
            ]
        },
        {
            "positions": [
                -1.9169118758763057,
                -1.2779744759412783,
                0.48347319014639356,
                0.3131948820393823,
                -0.3888998455828981,
                -0.05694394140497794
            ]
        },
        {
            "positions": [
                -1.8458701709879457,
                -1.2922587562387613,
                0.3823179089497388,
                0.21968591224032208,
                -0.3906968790500336,
                -0.16176152103567398
            ]
        },
        {
            "positions": [
                -1.7748284660995859,
                -1.3065430365362445,
                0.2811626277530841,
                0.12617694244126176,
                -0.39249391251716914,
                -0.26657910066637003
            ]
        },
        {
            "positions": [
                -1.703786761211226,
                -1.3208273168337274,
                0.18000734655642958,
                0.03266797264220189,
                -0.39429094598430464,
                -0.37139668029706585
            ]
        },
        {
            "positions": [
                -1.6327450563228663,
                -1.3351115971312106,
                0.07885206535977485,
                -0.06084099715685842,
                -0.39608797945144014,
                -0.4762142599277619
            ]
        },
        {
            "positions": [
                -1.5617033514345064,
                -1.3493958774286936,
                -0.022303215836879886,
                -0.15434996695591874,
                -0.39788501291857564,
                -0.5810318395584582
            ]
        },
        {
            "positions": [
                -1.4906616465461464,
                -1.3636801577261768,
                -0.12345849703353462,
                -0.24785893675497883,
                -0.39968204638571114,
                -0.6858494191891542
            ]
        },
        {
            "positions": [
                -1.4196199416577866,
                -1.3779644380236598,
                -0.22461377823018913,
                -0.3413679065540389,
                -0.4014790798528467,
                -0.79066699881985
            ]
        },
        {
            "positions": [
                -1.3485782367694266,
                -1.392248718321143,
                -0.32576905942684387,
                -0.434876876353099,
                -0.4032761133199822,
                -0.8954845784505461
            ]
        },
        {
            "positions": [
                -1.2775365318810668,
                -1.406532998618626,
                -0.4269243406234986,
                -0.5283858461521593,
                -0.4050731467871177,
                -1.0003021580812421
            ]
        },
        {
            "positions": [
                -1.206494826992707,
                -1.4208172789161089,
                -0.5280796218201533,
                -0.6218948159512196,
                -0.4068701802542532,
                -1.1051197377119382
            ]
        },
        {
            "positions": [
                -1.135453122104347,
                -1.435101559213592,
                -0.6292349030168081,
                -0.7154037857502797,
                -0.4086672137213887,
                -1.2099373173426342
            ]
        },
        {
            "positions": [
                -1.064411417215987,
                -1.4493858395110752,
                -0.7303901842134628,
                -0.8089127555493401,
                -0.41046424718852426,
                -1.3147548969733303
            ]
        },
        {
            "positions": [
                -0.993369712327627,
                -1.4636701198085582,
                -0.8315454654101175,
                -0.9024217253484004,
                -0.41226128065565976,
                -1.4195724766040263
            ]
        },
        {
            "positions": [
                -0.9223280074392675,
                -1.4779544001060412,
                -0.9327007466067718,
                -0.99593069514746,
                -0.41405831412279526,
                -1.524390056234722
            ]
        },
        {
            "positions": [
                -0.8512863025509074,
                -1.4922386804035241,
                -1.0338560278034266,
                -1.0894396649465201,
                -0.41585534758993076,
                -1.629207635865418
            ]
        },
        {
            "positions": [
                -0.7802445976625476,
                -1.5065229607010073,
                -1.1350113090000813,
                -1.1829486347455807,
                -0.41765238105706626,
                -1.734025215496114
            ]
        },
        {
            "positions": [
                -0.7092028927741876,
                -1.5208072409984905,
                -1.236166590196736,
                -1.2764576045446407,
                -0.4194494145242018,
                -1.83884279512681
            ]
        },
        {
            "positions": [
                -0.6381611878858278,
                -1.5350915212959735,
                -1.3373218713933908,
                -1.3699665743437008,
                -0.4212464479913373,
                -1.943660374757506
            ]
        },
        {
            "positions": [
                -0.567119482997468,
                -1.5493758015934564,
                -1.4384771525900455,
                -1.4634755441427614,
                -0.4230434814584728,
                -2.0484779543882023
            ]
        },
        {
            "positions": [
                -0.4960777781091079,
                -1.5636600818909396,
                -1.5396324337867002,
                -1.5569845139418215,
                -0.42484051492560837,
                -2.1532955340188984
            ]
        },
        {
            "positions": [
                -0.4250360732207481,
                -1.5779443621884228,
                -1.640787714983355,
                -1.6504934837408816,
                -0.42663754839274387,
                -2.2581131136495944
            ]
        },
        {
            "positions": [
                -0.3539943683323883,
                -1.5922286424859058,
                -1.7419429961800097,
                -1.7440024535399417,
                -0.42843458185987937,
                -2.3629306932802905
            ]
        },
        {
            "positions": [
                -0.2829526634440285,
                -1.6065129227833888,
                -1.843098277376664,
                -1.8375114233390017,
                -0.43023161532701487,
                -2.4677482729109865
            ]
        },
        {
            "positions": [
                -0.21191095855566866,
                -1.6207972030808717,
                -1.9442535585733187,
                -1.9310203931380618,
                -0.43202864879415037,
                -2.5725658525416826
            ]
        },
        {
            "positions": [
                -0.1408692536673084,
                -1.635081483378355,
                -2.0454088397699737,
                -2.024529362937122,
                -0.4338256822612859,
                -2.6773834321723786
            ]
        },
        {
            "positions": [
                -0.06982754877894859,
                -1.649365763675838,
                -2.1465641209666284,
                -2.1180383327361825,
                -0.43562271572842143,
                -2.7822010118030747
            ]
        },
        {
            "positions": [
                0.0012141561094112657,
                -1.663650043973321,
                -2.2477194021632827,
                -2.2115473025352426,
                -0.43741974919555693,
                -2.8870185914337707
            ]
        },
        {
            "positions": [
                -0.0693665214031935,
                -1.6456813084167639,
                -2.327065278678005,
                -2.2399200646345716,
                -0.33531957664225137,
                -2.8802149134471384
            ]
        },
        {
            "positions": [
                -0.13994719891579827,
                -1.6277125728602067,
                -2.4064111551927265,
                -2.2682928267339006,
                -0.2332194040889458,
                -2.873411235460506
            ]
        },
        {
            "positions": [
                -0.21052787642840304,
                -1.6097438373036494,
                -2.4857570317074487,
                -2.2966655888332297,
                -0.1311192315356402,
                -2.866607557473874
            ]
        },
        {
            "positions": [
                -0.1982389434404342,
                -1.6782576351060334,
                -2.4216065574670274,
                -2.257884175128097,
                -0.15969172770011453,
                -2.979806683822491
            ]
        },
        {
            "positions": [
                -0.18595001045246537,
                -1.7467714329084174,
                -2.357456083226606,
                -2.2191027614229646,
                -0.18826422386458888,
                -3.0930058101711078
            ]
        }
    ]
}