{
    "goal": {
        "global_pose": {
            "orientation": {
                "w": 0.005598929693374612,
                "x": 0.007748599140229565,
                "y": 0.7110244013736278,
                "z": -0.7031023480610252
            },
            "position": {
                "x": -0.8858502320852131,
                "y": -0.7141253447532654,
                "z": 0.3711530566215515
            }
        },
        "name": "move_to_auspresseinheit_C"
    },
    "id": "KPIECE_move_to_auspresseinheit_C_134",
    "joint_names": [
        "shoulder_pan_joint",
        "shoulder_lift_joint",
        "elbow_joint",
        "wrist_1_joint",
        "wrist_2_joint",
        "wrist_3_joint"
    ],
    "metrics": {
        "cart_traj_len": 0.49352609608018083,
        "distance_elbow_joint": 1.0057448090084922,
        "distance_shoulder_lift_joint": 0.32691561979591666,
        "distance_shoulder_pan_joint": 0.2567017898814181,
        "distance_wrist_1_joint": 0.6970286358621663,
        "distance_wrist_2_joint": 1.3036813098962694,
        "distance_wrist_3_joint": 0.081792093094196,
        "smoothness": 6.45947944157498e-16,
        "time": 1.594150564,
        "traj_len": 1.9162109115487416,
        "weighted_distance": 2.415814229092396
    },
    "planner": "KPIECE",
    "start": {
        "state": {
            "elbow_joint": 1.7527959577730765,
            "shoulder_lift_joint": -0.9740617694224828,
            "shoulder_pan_joint": -2.967991417825869,
            "wrist_1_joint": -0.7595177689779385,
            "wrist_2_joint": 1.7443932448376545,
            "wrist_3_joint": 3.1991315425061013
        }
    },
    "waypoints": [
        {
            "positions": [
                -2.967991417825869,
                -0.9740617694224828,
                1.7527959577730765,
                -0.7595177689779385,
                1.7443932448376545,
                3.1991315425061013
            ]
        },
        {
            "positions": [
                -2.942321238837727,
                -0.9413702074428911,
                1.6522214768722272,
                -0.689814905391722,
                1.6140251138480275,
                3.1909523331966816
            ]
        },
        {
            "positions": [
                -2.9166510598495856,
                -0.9086786454632995,
                1.5516469959713781,
                -0.6201120418055053,
                1.4836569828584005,
                3.1827731238872623
            ]
        },
        {
            "positions": [
                -2.8909808808614437,
                -0.8759870834837078,
                1.4510725150705288,
                -0.5504091782192886,
                1.3532888518687736,
                3.1745939145778426
            ]
        },
        {
            "positions": [
                -2.8653107018733017,
                -0.8432955215041161,
                1.3504980341696795,
                -0.480706314633072,
                1.2229207208791468,
                3.166414705268423
            ]
        },
        {
            "positions": [
                -2.8396405228851602,
                -0.8106039595245245,
                1.2499235532688304,
                -0.4110034510468554,
                1.0925525898895199,
                3.158235495959003
            ]
        },
        {
            "positions": [
                -2.8139703438970183,
                -0.7779123975449328,
                1.1493490723679813,
                -0.34130058746063874,
                0.9621844588998928,
                3.150056286649584
            ]
        },
        {
            "positions": [
                -2.7883001649088763,
                -0.7452208355653411,
                1.048774591467132,
                -0.27159772387442216,
                0.8318163279102659,
                3.141877077340164
            ]
        },
        {
            "positions": [
                -2.7626299859207344,
                -0.7125292735857495,
                0.9482001105662827,
                -0.20189486028820547,
                0.701448196920639,
                3.1336978680307443
            ]
        },
        {
            "positions": [
                -2.736959806932593,
                -0.6798377116061578,
                0.8476256296654335,
                -0.13219199670198878,
                0.571080065931012,
                3.125518658721325
            ]
        },
        {
            "positions": [
                -2.711289627944451,
                -0.6471461496265661,
                0.7470511487645843,
                -0.062489133115772214,
                0.44071193494138505,
                3.1173394494119053
            ]
        }
    ]
}