{
    "goal": {
        "global_pose": {
            "orientation": {
                "w": 0.5084816217422485,
                "x": -0.49083608388900757,
                "y": 0.5182115435600281,
                "z": -0.4816462993621826
            },
            "position": {
                "x": 0.5540239810943604,
                "y": 0.030875300988554955,
                "z": 0.16403168439865112
            }
        },
        "name": "move_to_storage_A"
    },
    "id": "KPIECE_move_to_storage_A_84",
    "joint_names": [
        "shoulder_pan_joint",
        "shoulder_lift_joint",
        "elbow_joint",
        "wrist_1_joint",
        "wrist_2_joint",
        "wrist_3_joint"
    ],
    "metrics": {
        "cart_traj_len": 0.35246942690142163,
        "distance_elbow_joint": 0.4468856435480595,
        "distance_shoulder_lift_joint": 0.23381738239633587,
        "distance_shoulder_pan_joint": 0.4583288175439561,
        "distance_wrist_1_joint": 0.23475454260828954,
        "distance_wrist_2_joint": 1.1078091165570894,
        "distance_wrist_3_joint": 0.08644518545219171,
        "smoothness": 1.665334528953551e-15,
        "time": 0.060423984,
        "traj_len": 1.6025107450828284,
        "weighted_distance": 2.020765874161498
    },
    "planner": "KPIECE",
    "start": {
        "state": {
            "elbow_joint": 1.971548880431181,
            "shoulder_lift_joint": -1.1394869514688781,
            "shoulder_pan_joint": 0.12281150262730567,
            "wrist_1_joint": -0.7804693444481463,
            "wrist_2_joint": 0.12958644648617612,
            "wrist_3_joint": 3.0906942077768043
        }
    },
    "waypoints": [
        {
            "positions": [
                0.12281150262730567,
                -1.1394869514688781,
                1.971548880431181,
                -0.7804693444481463,
                0.12958644648617612,
                3.0906942077768043
            ]
        },
        {
            "positions": [
                0.057335957263883366,
                -1.1728894346683547,
                2.035389686652332,
                -0.8140057076779019,
                0.2878448917086175,
                3.10304351998426
            ]
        },
        {
            "positions": [
                -0.008139588099538936,
                -1.2062919178678313,
                2.0992304928734837,
                -0.8475420709076575,
                0.4461033369310588,
                3.1153928321917164
            ]
        },
        {
            "positions": [
                -0.07361513346296122,
                -1.2396944010673079,
                2.163071299094635,
                -0.8810784341374133,
                0.6043617821535001,
                3.127742144399172
            ]
        },
        {
            "positions": [
                -0.13909067882638354,
                -1.2730968842667842,
                2.2269121053157863,
                -0.9146147973671689,
                0.7626202273759415,
                3.140091456606628
            ]
        },
        {
            "positions": [
                -0.20456622418980586,
                -1.3064993674662608,
                2.290752911536938,
                -0.9481511605969246,
                0.9208786725983829,
                3.152440768814084
            ]
        },
        {
            "positions": [
                -0.2700417695532281,
                -1.3399018506657374,
                2.354593717758089,
                -0.9816875238266802,
                1.079137117820824,
                3.16479008102154
            ]
        },
        {
            "positions": [
                -0.33551731491665043,
                -1.373304333865214,
                2.4184345239792404,
                -1.0152238870564358,
                1.2373955630432654,
                3.177139393228996
            ]
        }
    ]
}