{
    "goal": {
        "global_pose": {
            "orientation": {
                "w": -0.4816463035849501,
                "x": 0.5182115481033762,
                "y": 0.4908360881923453,
                "z": -0.5084816262002911
            },
            "position": {
                "x": -0.8240239810943604,
                "y": -0.300875300988555,
                "z": 0.16403168439865112
            }
        },
        "name": "move_to_storage_C"
    },
    "id": "KPIECE_move_to_storage_C_14",
    "joint_names": [
        "shoulder_pan_joint",
        "shoulder_lift_joint",
        "elbow_joint",
        "wrist_1_joint",
        "wrist_2_joint",
        "wrist_3_joint"
    ],
    "metrics": {
        "cart_traj_len": 0.576171785159456,
        "distance_elbow_joint": 0.2607031756259579,
        "distance_shoulder_lift_joint": 0.1895475238944967,
        "distance_shoulder_pan_joint": 0.4947439203171329,
        "distance_wrist_1_joint": 0.08916083556029475,
        "distance_wrist_2_joint": 1.061550846641478,
        "distance_wrist_3_joint": 0.06645714528747693,
        "smoothness": 5.075305295617109e-16,
        "time": 0.024660006999999998,
        "traj_len": 1.4704296811907862,
        "weighted_distance": 1.856283766050752
    },
    "planner": "KPIECE",
    "start": {
        "state": {
            "elbow_joint": 2.0108683149792914,
            "shoulder_lift_joint": -1.1634956873317392,
            "shoulder_pan_joint": -2.4736205022346,
            "wrist_1_joint": -0.8367026793690192,
            "wrist_2_joint": 0.6746043897045053,
            "wrist_3_joint": 3.133522094754363
        }
    },
    "waypoints": [
        {
            "positions": [
                -2.4736205022346,
                -1.1634956873317392,
                2.0108683149792914,
                -0.8367026793690192,
                0.6746043897045053,
                3.133522094754363
            ]
        },
        {
            "positions": [
                -2.5560778222874556,
                -1.1319044333493231,
                1.9674177857082984,
                -0.8218425401089701,
                0.8515295308114184,
                3.144598285635609
            ]
        },
        {
            "positions": [
                -2.638535142340311,
                -1.100313179366907,
                1.9239672564373054,
                -0.8069824008489209,
                1.0284546719183312,
                3.1556744765168556
            ]
        },
        {
            "positions": [
                -2.7209924623931663,
                -1.0687219253844908,
                1.8805167271663126,
                -0.7921222615888719,
                1.2053798130252442,
                3.1667506673981016
            ]
        },
        {
            "positions": [
                -2.803449782446022,
                -1.0371306714020747,
                1.8370661978953196,
                -0.7772621223288227,
                1.3823049541321573,
                3.1778268582793476
            ]
        },
        {
            "positions": [
                -2.8859071024988774,
                -1.0055394174196586,
                1.7936156686243265,
                -0.7624019830687736,
                1.5592300952390703,
                3.188903049160594
            ]
        },
        {
            "positions": [
                -2.968364422551733,
                -0.9739481634372426,
                1.7501651393533335,
                -0.7475418438087245,
                1.7361552363459833,
                3.19997924004184
            ]
        }
    ]
}