{
    "goal": {
        "global_pose": {
            "orientation": {
                "w": 0.005598929693374612,
                "x": 0.007748599140229565,
                "y": 0.7110244013736278,
                "z": -0.7031023480610252
            },
            "position": {
                "x": 0.1141497679147869,
                "y": -0.7141253447532654,
                "z": 0.3711530566215515
            }
        },
        "name": "move_to_auspresseinheit_B"
    },
    "id": "KPIECE_move_to_auspresseinheit_B_103",
    "joint_names": [
        "shoulder_pan_joint",
        "shoulder_lift_joint",
        "elbow_joint",
        "wrist_1_joint",
        "wrist_2_joint",
        "wrist_3_joint"
    ],
    "metrics": {
        "cart_traj_len": 0.5653282459083055,
        "distance_elbow_joint": 0.0644707610687647,
        "distance_shoulder_lift_joint": 0.2948913480611455,
        "distance_shoulder_pan_joint": 0.5787694261099317,
        "distance_wrist_1_joint": 0.3326954045890085,
        "distance_wrist_2_joint": 0.9869081217161606,
        "distance_wrist_3_joint": 0.0036304178492438943,
        "smoothness": 0.0,
        "time": 0.09789937900000001,
        "traj_len": 1.5037837209500091,
        "weighted_distance": 1.894262347563798
    },
    "planner": "KPIECE",
    "start": {
        "state": {
            "elbow_joint": 2.0193061681459312,
            "shoulder_lift_joint": -1.1220205130644991,
            "shoulder_pan_joint": -1.0952072088045026,
            "wrist_1_joint": -0.8559671810662515,
            "wrist_2_joint": 0.4759638712940361,
            "wrist_3_joint": 3.159081874192446
        }
    },
    "waypoints": [
        {
            "positions": [
                -1.0952072088045026,
                -1.1220205130644991,
                2.0193061681459312,
                -0.8559671810662515,
                0.4759638712940361,
                3.159081874192446
            ]
        },
        {
            "positions": [
                -1.1916687798228245,
                -1.17116907107469,
                2.008561041301137,
                -0.8005179469680834,
                0.6404485582467295,
                3.1584768045509053
            ]
        },
        {
            "positions": [
                -1.2881303508411466,
                -1.220317629084881,
                1.997815914456343,
                -0.7450687128699153,
                0.8049332451994229,
                3.1578717349093646
            ]
        },
        {
            "positions": [
                -1.3845919218594684,
                -1.2694661870950719,
                1.987070787611549,
                -0.6896194787717472,
                0.9694179321521164,
                3.157266665267824
            ]
        },
        {
            "positions": [
                -1.4810534928777903,
                -1.3186147451052628,
                1.9763256607667548,
                -0.6341702446735792,
                1.1339026191048098,
                3.1566615956262836
            ]
        },
        {
            "positions": [
                -1.5775150638961124,
                -1.3677633031154537,
                1.9655805339219605,
                -0.578721010575411,
                1.2983873060575033,
                3.156056525984743
            ]
        },
        {
            "positions": [
                -1.6739766349144343,
                -1.4169118611256446,
                1.9548354070771665,
                -0.523271776477243,
                1.4628719930101968,
                3.155451456343202
            ]
        }
    ]
}