{
    "goal": {
        "global_pose": {
            "orientation": {
                "w": 0.7031023502349854,
                "x": -0.7110244035720825,
                "y": 0.007748599164187908,
                "z": 0.005598929710686207
            },
            "position": {
                "x": 0.11585023208521307,
                "y": 0.44412534475326537,
                "z": 0.3711530566215515
            }
        },
        "name": "move_to_auspresseinheit_A"
    },
    "id": "KPIECE_move_to_auspresseinheit_A_107",
    "joint_names": [
        "shoulder_pan_joint",
        "shoulder_lift_joint",
        "elbow_joint",
        "wrist_1_joint",
        "wrist_2_joint",
        "wrist_3_joint"
    ],
    "metrics": {
        "cart_traj_len": 2.1542024764634573,
        "distance_elbow_joint": 2.0875610417402353,
        "distance_shoulder_lift_joint": 0.6023679370099191,
        "distance_shoulder_pan_joint": 2.177049441624864,
        "distance_wrist_1_joint": 1.4463632664120285,
        "distance_wrist_2_joint": 0.9505138808004793,
        "distance_wrist_3_joint": 3.7757934796597548,
        "smoothness": 0.6493939868265096,
        "time": 0.16724730399999999,
        "traj_len": 3.3225967325643477,
        "weighted_distance": 4.581278550118874
    },
    "planner": "KPIECE",
    "start": {
        "state": {
            "elbow_joint": 2.4225746994637096,
            "shoulder_lift_joint": -1.373653595662188,
            "shoulder_pan_joint": -0.3378633848294565,
            "wrist_1_joint": -1.0288595594406726,
            "wrist_2_joint": 1.2330228066703421,
            "wrist_3_joint": 3.189163495502006
        }
    },
    "waypoints": [
        {
            "positions": [
                -0.3378633848294565,
                -1.373653595662188,
                2.4225746994637096,
                -1.0288595594406726,
                1.2330228066703421,
                3.189163495502006
            ]
        },
        {
            "positions": [
                -0.2523366903271758,
                -1.4155414202364862,
                2.3518782450469273,
                -1.0294946395783098,
                1.2231870640107558,
                3.048141422514282
            ]
        },
        {
            "positions": [
                -0.16680999582489514,
                -1.4574292448107846,
                2.2811817906301446,
                -1.030129719715947,
                1.2133513213511695,
                2.907119349526558
            ]
        },
        {
            "positions": [
                -0.08128330132261447,
                -1.4993170693850828,
                2.2104853362133623,
                -1.0307647998535843,
                1.2035155786915832,
                2.7660972765388343
            ]
        },
        {
            "positions": [
                0.0042433931796662105,
                -1.5412048939593812,
                2.13978888179658,
                -1.0313998799912214,
                1.193679836031997,
                2.625075203551111
            ]
        },
        {
            "positions": [
                0.08977008768194689,
                -1.5830927185336794,
                2.0690924273797977,
                -1.0320349601288585,
                1.1838440933724104,
                2.484053130563387
            ]
        },
        {
            "positions": [
                0.17529678218422756,
                -1.6249805431079776,
                1.9983959729630152,
                -1.032670040266496,
                1.174008350712824,
                2.343031057575663
            ]
        },
        {
            "positions": [
                0.26082347668650824,
                -1.6668683676822758,
                1.9276995185462327,
                -1.033305120404133,
                1.1641726080532377,
                2.2020089845879394
            ]
        },
        {
            "positions": [
                0.34635017118878886,
                -1.7087561922565742,
                1.8570030641294504,
                -1.0339402005417702,
                1.1543368653936514,
                2.0609869116002155
            ]
        },
        {
            "positions": [
                0.4491847076851635,
                -1.7227885972284946,
                1.8021004560856948,
                -0.9388675195529039,
                1.1127702674062048,
                1.9736264587296197
            ]
        },
        {
            "positions": [
                0.5520192441815381,
                -1.7368210022004151,
                1.7471978480419392,
                -0.8437948385640377,
                1.0712036694187579,
                1.8862660058590237
            ]
        },
        {
            "positions": [
                0.6548537806779127,
                -1.7508534071723356,
                1.6922952399981834,
                -0.7487221575751715,
                1.0296370714313112,
                1.798905552988428
            ]
        },
        {
            "positions": [
                0.7576883171742874,
                -1.764885812144256,
                1.6373926319544279,
                -0.6536494765863052,
                0.9880704734438646,
                1.711545100117832
            ]
        },
        {
            "positions": [
                0.8605228536706621,
                -1.7789182171161766,
                1.5824900239106723,
                -0.558576795597439,
                0.9465038754564178,
                1.624184647247236
            ]
        },
        {
            "positions": [
                0.9633573901670366,
                -1.792950622088097,
                1.5275874158669167,
                -0.46350411460857277,
                0.9049372774689711,
                1.5368241943766403
            ]
        },
        {
            "positions": [
                1.0661919266634112,
                -1.8069830270600176,
                1.472684807823161,
                -0.3684314336197064,
                0.8633706794815244,
                1.4494637415060443
            ]
        },
        {
            "positions": [
                1.1690264631597858,
                -1.821015432031938,
                1.4177821997794053,
                -0.2733587526308402,
                0.8218040814940777,
                1.3621032886354483
            ]
        },
        {
            "positions": [
                1.2718609996561605,
                -1.8350478370038585,
                1.3628795917356498,
                -0.178286071641974,
                0.7802374835066309,
                1.2747428357648525
            ]
        },
        {
            "positions": [
                1.2249505151614908,
                -1.8466157622913086,
                1.457631566591159,
                -0.1589833816448064,
                0.7470774115587685,
                1.464156772242206
            ]
        },
        {
            "positions": [
                1.1780400306668213,
                -1.8581836875787587,
                1.552383541446668,
                -0.13968069164763885,
                0.7139173396109061,
                1.6535707087195597
            ]
        },
        {
            "positions": [
                1.1311295461721516,
                -1.8697516128662086,
                1.647135516302177,
                -0.12037800165047127,
                0.6807572676630437,
                1.8429846451969132
            ]
        },
        {
            "positions": [
                1.0842190616774818,
                -1.8813195381536587,
                1.7418874911576863,
                -0.1010753116533037,
                0.6475971957151812,
                2.0323985816742667
            ]
        },
        {
            "positions": [
                1.0373085771828123,
                -1.8928874634411088,
                1.8366394660131955,
                -0.08177262165613614,
                0.6144371237673187,
                2.22181251815162
            ]
        },
        {
            "positions": [
                0.9903980926881426,
                -1.9044553887285587,
                1.9313914408687045,
                -0.06246993165896855,
                0.5812770518194563,
                2.4112264546289737
            ]
        },
        {
            "positions": [
                0.943487608193473,
                -1.9160233140160088,
                2.0261434157242135,
                -0.043167241661801,
                0.5481169798715939,
                2.6006403911063276
            ]
        },
        {
            "positions": [
                0.8965771236988034,
                -1.9275912393034589,
                2.1208953905797228,
                -0.023864551664633426,
                0.5149569079237315,
                2.790054327583681
            ]
        },
        {
            "positions": [
                0.8571544134428227,
                -1.9345448592651222,
                2.1934855477577138,
                -0.038961059387204566,
                0.5048612366244267,
                2.919675053512146
            ]
        },
        {
            "positions": [
                0.8177317031868421,
                -1.9414984792267855,
                2.266075704935705,
                -0.05405756710977571,
                0.4947655653251219,
                3.049295779440611
            ]
        },
        {
            "positions": [
                0.7799997829635325,
                -1.9299907947450117,
                2.3076323118730784,
                -0.18772888743932636,
                0.5655177784768749,
                3.0782357381895586
            ]
        },
        {
            "positions": [
                0.7422678627402228,
                -1.9184831102632378,
                2.349188918810452,
                -0.321400207768877,
                0.6362699916286279,
                3.1071756969385063
            ]
        },
        {
            "positions": [
                0.7045359425169132,
                -1.906975425781464,
                2.390745525747825,
                -0.4550715280984277,
                0.7070222047803809,
                3.136115655687454
            ]
        }
    ]
}