{
    "goal": {
        "global_pose": {
            "orientation": {
                "w": -0.4816463035849501,
                "x": 0.5182115481033762,
                "y": 0.4908360881923453,
                "z": -0.5084816262002911
            },
            "position": {
                "x": -0.8240239810943604,
                "y": -0.300875300988555,
                "z": 0.16403168439865112
            }
        },
        "name": "move_to_storage_C"
    },
    "id": "KPIECE_move_to_storage_C_83",
    "joint_names": [
        "shoulder_pan_joint",
        "shoulder_lift_joint",
        "elbow_joint",
        "wrist_1_joint",
        "wrist_2_joint",
        "wrist_3_joint"
    ],
    "metrics": {
        "cart_traj_len": 0.5775775544067798,
        "distance_elbow_joint": 0.2582959518169503,
        "distance_shoulder_lift_joint": 0.18999183722894086,
        "distance_shoulder_pan_joint": 0.4944719327436031,
        "distance_wrist_1_joint": 0.07179966027755469,
        "distance_wrist_2_joint": 1.073186370076284,
        "distance_wrist_3_joint": 0.05878692905100946,
        "smoothness": 0.0,
        "time": 0.013863608999999999,
        "traj_len": 1.4651050068832412,
        "weighted_distance": 1.8463728143715181
    },
    "planner": "KPIECE",
    "start": {
        "state": {
            "elbow_joint": 2.0108683149792914,
            "shoulder_lift_joint": -1.1634956873317392,
            "shoulder_pan_joint": -2.4736205022346,
            "wrist_1_joint": -0.8367026793690192,
            "wrist_2_joint": 0.6746043897045053,
            "wrist_3_joint": 3.133522094754363
        }
    },
    "waypoints": [
        {
            "positions": [
                -2.4736205022346,
                -1.1634956873317392,
                2.0108683149792914,
                -0.8367026793690192,
                0.6746043897045053,
                3.133522094754363
            ]
        },
        {
            "positions": [
                -2.5560324910252006,
                -1.1318303811269157,
                1.9678189896764664,
                -0.8247360693227601,
                0.8534687847172193,
                3.1433199162628647
            ]
        },
        {
            "positions": [
                -2.638444479815801,
                -1.1001650749220924,
                1.9247696643736414,
                -0.812769459276501,
                1.0323331797299333,
                3.153117737771366
            ]
        },
        {
            "positions": [
                -2.7208564686064016,
                -1.0684997687172688,
                1.8817203390708164,
                -0.8008028492302419,
                1.2111975747426473,
                3.1629155592798677
            ]
        },
        {
            "positions": [
                -2.803268457397002,
                -1.0368344625124453,
                1.8386710137679911,
                -0.7888362391839827,
                1.3900619697553613,
                3.1727133807883696
            ]
        },
        {
            "positions": [
                -2.8856804461876027,
                -1.005169156307622,
                1.7956216884651661,
                -0.7768696291377236,
                1.5689263647680753,
                3.182511202296871
            ]
        },
        {
            "positions": [
                -2.968092434978203,
                -0.9735038501027984,
                1.752572363162341,
                -0.7649030190914645,
                1.7477907597807893,
                3.1923090238053726
            ]
        }
    ]
}