{
    "goal": {
        "global_pose": {
            "orientation": {
                "w": 0.5084816217422485,
                "x": -0.49083608388900757,
                "y": 0.5182115435600281,
                "z": -0.4816462993621826
            },
            "position": {
                "x": 0.5540239810943604,
                "y": 0.030875300988554955,
                "z": 0.16403168439865112
            }
        },
        "name": "move_to_storage_A"
    },
    "id": "KPIECE_move_to_storage_A_131",
    "joint_names": [
        "shoulder_pan_joint",
        "shoulder_lift_joint",
        "elbow_joint",
        "wrist_1_joint",
        "wrist_2_joint",
        "wrist_3_joint"
    ],
    "metrics": {
        "cart_traj_len": 0.35365759632988636,
        "distance_elbow_joint": 0.44881566904929726,
        "distance_shoulder_lift_joint": 0.2340932311296149,
        "distance_shoulder_pan_joint": 0.4589310964429393,
        "distance_wrist_1_joint": 0.2423395188029014,
        "distance_wrist_2_joint": 1.1144651350395605,
        "distance_wrist_3_joint": 0.09097056829003192,
        "smoothness": 4.440892098500626e-16,
        "time": 0.059851288,
        "traj_len": 1.6092281437864382,
        "weighted_distance": 2.0318368559451008
    },
    "planner": "KPIECE",
    "start": {
        "state": {
            "elbow_joint": 1.971548880431181,
            "shoulder_lift_joint": -1.1394869514688781,
            "shoulder_pan_joint": 0.12281150262730567,
            "wrist_1_joint": -0.7804693444481463,
            "wrist_2_joint": 0.12958644648617612,
            "wrist_3_joint": 3.0906942077768043
        }
    },
    "waypoints": [
        {
            "positions": [
                0.12281150262730567,
                -1.1394869514688781,
                1.971548880431181,
                -0.7804693444481463,
                0.12958644648617612,
                3.0906942077768043
            ]
        },
        {
            "positions": [
                0.057249917421171484,
                -1.1729288416302517,
                2.0356654045810805,
                -0.8150892757057037,
                0.28879575149182757,
                3.103690003246809
            ]
        },
        {
            "positions": [
                -0.0083116677849627,
                -1.2063707317916252,
                2.0997819287309802,
                -0.849709206963261,
                0.44800505649747907,
                3.1166857987168135
            ]
        },
        {
            "positions": [
                -0.07387325299109687,
                -1.2398126219529988,
                2.1638984528808796,
                -0.8843291382208183,
                0.6072143615031306,
                3.129681594186818
            ]
        },
        {
            "positions": [
                -0.13943483819723107,
                -1.2732545121143723,
                2.2280149770307793,
                -0.9189490694783756,
                0.766423666508782,
                3.1426773896568223
            ]
        },
        {
            "positions": [
                -0.20499642340336527,
                -1.306696402275746,
                2.292131501180679,
                -0.953569000735933,
                0.9256329715144336,
                3.155673185126827
            ]
        },
        {
            "positions": [
                -0.2705580086094994,
                -1.3401382924371195,
                2.3562480253305784,
                -0.9881889319934903,
                1.0848422765200851,
                3.1686689805968316
            ]
        },
        {
            "positions": [
                -0.3361195938156336,
                -1.373580182598493,
                2.420364549480478,
                -1.0228088632510477,
                1.2440515815257367,
                3.181664776066836
            ]
        }
    ]
}