{
    "goal": {
        "global_pose": {
            "orientation": {
                "w": -0.4816463035849501,
                "x": 0.5182115481033762,
                "y": 0.4908360881923453,
                "z": -0.5084816262002911
            },
            "position": {
                "x": -0.8240239810943604,
                "y": 0.19912469901144506,
                "z": 0.16403168439865112
            }
        },
        "name": "move_to_storage_D"
    },
    "id": "KPIECE_move_to_storage_D_93",
    "joint_names": [
        "shoulder_pan_joint",
        "shoulder_lift_joint",
        "elbow_joint",
        "wrist_1_joint",
        "wrist_2_joint",
        "wrist_3_joint"
    ],
    "metrics": {
        "cart_traj_len": 0.6457283010396456,
        "distance_elbow_joint": 0.6949360595066112,
        "distance_shoulder_lift_joint": 0.3338940931682326,
        "distance_shoulder_pan_joint": 0.15159659307598233,
        "distance_wrist_1_joint": 3.826411958349317,
        "distance_wrist_2_joint": 1.7752551914356396,
        "distance_wrist_3_joint": 3.1568194444666275,
        "smoothness": 0.09367472059660814,
        "time": 0.11352009,
        "traj_len": 3.1526042155656664,
        "weighted_distance": 4.674849663756111
    },
    "planner": "KPIECE",
    "start": {
        "state": {
            "elbow_joint": -2.384821990628643,
            "shoulder_lift_joint": -2.278805467437664,
            "shoulder_pan_joint": -0.18546946439364564,
            "wrist_1_joint": 1.4845938187801415,
            "wrist_2_joint": 0.178987772454074,
            "wrist_3_joint": 0.03710569632802521
        }
    },
    "waypoints": [
        {
            "positions": [
                -0.18546946439364564,
                -2.278805467437664,
                -2.384821990628643,
                1.4845938187801415,
                0.178987772454074,
                0.03710569632802521
            ]
        },
        {
            "positions": [
                -0.11467140982515038,
                -2.1570728902224,
                -2.4196950890991067,
                1.4374437754746063,
                0.09550907206039844,
                0.06133388119209036
            ]
        },
        {
            "positions": [
                -0.04387335525665512,
                -2.035340313007136,
                -2.45456818756957,
                1.390293732169071,
                0.012030371666722883,
                0.0855620660561555
            ]
        },
        {
            "positions": [
                -0.04345666842586378,
                -2.0391081854545403,
                -2.4285186099626666,
                1.234789070846644,
                -0.054982036276955804,
                0.21507719417025956
            ]
        },
        {
            "positions": [
                -0.04303998159507244,
                -2.0428760579019447,
                -2.4024690323557634,
                1.0792844095242171,
                -0.12199444422063449,
                0.3445923222843636
            ]
        },
        {
            "positions": [
                -0.0426232947642811,
                -2.046643930349349,
                -2.3764194547488597,
                0.9237797482017902,
                -0.1890068521643132,
                0.4741074503984677
            ]
        },
        {
            "positions": [
                -0.042206607933489765,
                -2.0504118027967535,
                -2.350369877141956,
                0.7682750868793633,
                -0.25601926010799186,
                0.6036225785125716
            ]
        },
        {
            "positions": [
                -0.04178992110269843,
                -2.054179675244158,
                -2.3243202995350525,
                0.6127704255569363,
                -0.3230316680516706,
                0.7331377066266758
            ]
        },
        {
            "positions": [
                -0.04137323427190709,
                -2.057947547691562,
                -2.2982707219281493,
                0.4572657642345094,
                -0.3900440759953493,
                0.8626528347407798
            ]
        },
        {
            "positions": [
                -0.04095654744111575,
                -2.0617154201389662,
                -2.2722211443212457,
                0.30176110291208236,
                -0.45705648393902804,
                0.992167962854884
            ]
        },
        {
            "positions": [
                -0.04053986061032441,
                -2.0654832925863706,
                -2.246171566714342,
                0.14625644158965567,
                -0.5240688918827066,
                1.1216830909689879
            ]
        },
        {
            "positions": [
                -0.040123173779533075,
                -2.069251165033775,
                -2.2201219891074384,
                -0.009248219732771457,
                -0.5910812998263855,
                1.2511982190830921
            ]
        },
        {
            "positions": [
                -0.03970648694874174,
                -2.0730190374811794,
                -2.1940724115005352,
                -0.16475288105519836,
                -0.6580937077700642,
                1.3807133471971962
            ]
        },
        {
            "positions": [
                -0.0392898001179504,
                -2.076786909928584,
                -2.1680228338936316,
                -0.32025754237762527,
                -0.7251061157137428,
                1.5102284753113002
            ]
        },
        {
            "positions": [
                -0.03887311328715906,
                -2.0805547823759882,
                -2.141973256286728,
                -0.4757622037000522,
                -0.7921185236574215,
                1.6397436034254043
            ]
        },
        {
            "positions": [
                -0.03845642645636772,
                -2.0843226548233926,
                -2.115923678679825,
                -0.6312668650224791,
                -0.8591309316011002,
                1.7692587315395083
            ]
        },
        {
            "positions": [
                -0.038039739625576385,
                -2.088090527270797,
                -2.089874101072921,
                -0.7867715263449062,
                -0.9261433395447789,
                1.8987738596536126
            ]
        },
        {
            "positions": [
                -0.03762305279478505,
                -2.0918583997182014,
                -2.0638245234660175,
                -0.9422761876673329,
                -0.9931557474884576,
                2.0282889877677164
            ]
        },
        {
            "positions": [
                -0.03720636596399371,
                -2.095626272165606,
                -2.037774945859114,
                -1.0977808489897596,
                -1.060168155432136,
                2.15780411588182
            ]
        },
        {
            "positions": [
                -0.03678967913320237,
                -2.09939414461301,
                -2.0117253682522103,
                -1.2532855103121872,
                -1.127180563375815,
                2.2873192439959245
            ]
        },
        {
            "positions": [
                -0.036372992302411034,
                -2.1031620170604146,
                -1.985675790645307,
                -1.4087901716346138,
                -1.1941929713194936,
                2.4168343721100287
            ]
        },
        {
            "positions": [
                -0.035956305471619696,
                -2.1069298895078186,
                -1.9596262130384035,
                -1.5642948329570405,
                -1.2612053792631723,
                2.5463495002241325
            ]
        },
        {
            "positions": [
                -0.03553961864082836,
                -2.110697761955223,
                -1.9335766354314998,
                -1.7197994942794677,
                -1.328217787206851,
                2.675864628338237
            ]
        },
        {
            "positions": [
                -0.03512293181003702,
                -2.1144656344026274,
                -1.9075270578245966,
                -1.8753041556018943,
                -1.3952301951505297,
                2.8053797564523406
            ]
        },
        {
            "positions": [
                -0.03470624497924568,
                -2.1182335068500318,
                -1.881477480217693,
                -2.0308088169243215,
                -1.4622426030942084,
                2.934894884566445
            ]
        },
        {
            "positions": [
                -0.034289558148454344,
                -2.122001379297436,
                -1.8554279026107894,
                -2.1863134782467486,
                -1.529255011037887,
                3.064410012680549
            ]
        },
        {
            "positions": [
                -0.033872871317663006,
                -2.1257692517448405,
                -1.829378325003886,
                -2.3418181395691753,
                -1.5962674189815658,
                3.193925140794653
            ]
        }
    ]
}