{
    "goal": {
        "global_pose": {
            "orientation": {
                "w": -0.4816463035849501,
                "x": 0.5182115481033762,
                "y": 0.4908360881923453,
                "z": -0.5084816262002911
            },
            "position": {
                "x": -0.8240239810943604,
                "y": -0.300875300988555,
                "z": 0.16403168439865112
            }
        },
        "name": "move_to_storage_C"
    },
    "id": "KPIECE_move_to_storage_C_25",
    "joint_names": [
        "shoulder_pan_joint",
        "shoulder_lift_joint",
        "elbow_joint",
        "wrist_1_joint",
        "wrist_2_joint",
        "wrist_3_joint"
    ],
    "metrics": {
        "cart_traj_len": 0.5770256766993922,
        "distance_elbow_joint": 0.2598787624664365,
        "distance_shoulder_lift_joint": 0.19063216376065784,
        "distance_shoulder_pan_joint": 0.49366060829996616,
        "distance_wrist_1_joint": 0.07765465406947791,
        "distance_wrist_2_joint": 1.0730500636137752,
        "distance_wrist_3_joint": 0.07111101247575569,
        "smoothness": 0.0,
        "time": 0.013068074,
        "traj_len": 1.471729344915725,
        "weighted_distance": 1.8598155842235633
    },
    "planner": "KPIECE",
    "start": {
        "state": {
            "elbow_joint": 2.0108683149792914,
            "shoulder_lift_joint": -1.1634956873317392,
            "shoulder_pan_joint": -2.4736205022346,
            "wrist_1_joint": -0.8367026793690192,
            "wrist_2_joint": 0.6746043897045053,
            "wrist_3_joint": 3.133522094754363
        }
    },
    "waypoints": [
        {
            "positions": [
                -2.4736205022346,
                -1.1634956873317392,
                2.0108683149792914,
                -0.8367026793690192,
                0.6746043897045053,
                3.133522094754363
            ]
        },
        {
            "positions": [
                -2.5558972702845946,
                -1.1317236600382963,
                1.967555187901552,
                -0.8237602370241062,
                0.8534460669734678,
                3.145373930166989
            ]
        },
        {
            "positions": [
                -2.6381740383345886,
                -1.0999516327448533,
                1.9242420608238127,
                -0.8108177946791932,
                1.0322877442424303,
                3.157225765579615
            ]
        },
        {
            "positions": [
                -2.720450806384583,
                -1.0681796054514103,
                1.8809289337460733,
                -0.7978753523342803,
                1.211129421511393,
                3.169077600992241
            ]
        },
        {
            "positions": [
                -2.8027275744345777,
                -1.0364075781579674,
                1.8376158066683337,
                -0.7849329099893673,
                1.3899710987803555,
                3.180929436404867
            ]
        },
        {
            "positions": [
                -2.8850043424845717,
                -1.0046355508645244,
                1.7943026795905943,
                -0.7719904676444542,
                1.568812776049318,
                3.192781271817493
            ]
        },
        {
            "positions": [
                -2.9672811105345662,
                -0.9728635235710814,
                1.750989552512855,
                -0.7590480252995413,
                1.7476544533182805,
                3.204633107230119
            ]
        }
    ]
}