{
    "goal": {
        "global_pose": {
            "orientation": {
                "w": -0.00223480608172531,
                "x": 0.0024358444001904467,
                "y": 0.7094548369677653,
                "z": -0.704743149386269
            },
            "position": {
                "x": -0.37947507619857795,
                "y": -0.6371506643295288,
                "z": 0.19426114857196808
            }
        },
        "name": "move_to_magneteinheit_C"
    },
    "id": "KPIECE_move_to_magneteinheit_C_135",
    "joint_names": [
        "shoulder_pan_joint",
        "shoulder_lift_joint",
        "elbow_joint",
        "wrist_1_joint",
        "wrist_2_joint",
        "wrist_3_joint"
    ],
    "metrics": {
        "cart_traj_len": 0.9301705576446748,
        "distance_elbow_joint": 0.22002674930498922,
        "distance_shoulder_lift_joint": 0.485539472597065,
        "distance_shoulder_pan_joint": 1.1506364999203627,
        "distance_wrist_1_joint": 0.6327968195054402,
        "distance_wrist_2_joint": 1.284930014574293,
        "distance_wrist_3_joint": 0.4261448668853731,
        "smoothness": 2.0658545828995485,
        "time": 0.158481787,
        "traj_len": 2.049408310412428,
        "weighted_distance": 2.640092989013456
    },
    "planner": "KPIECE",
    "start": {
        "state": {
            "elbow_joint": 1.9565354006593851,
            "shoulder_lift_joint": -1.4165861576512813,
            "shoulder_pan_joint": -1.6717766223278752,
            "wrist_1_joint": -0.528663328821883,
            "wrist_2_joint": 1.472756589259273,
            "wrist_3_joint": 3.159348288315503
        }
    },
    "waypoints": [
        {
            "positions": [
                -1.6717766223278752,
                -1.4165861576512813,
                1.9565354006593851,
                -0.528663328821883,
                1.472756589259273,
                3.159348288315503
            ]
        },
        {
            "positions": [
                -1.5844837404160597,
                -1.4747371078435083,
                1.962442508519295,
                -0.5745232884775431,
                1.359846443392328,
                3.0877505678805983
            ]
        },
        {
            "positions": [
                -1.4971908585042444,
                -1.5328880580357354,
                1.9683496163792045,
                -0.620383248133203,
                1.246936297525383,
                3.016152847445694
            ]
        },
        {
            "positions": [
                -1.5429697105466356,
                -1.4832005558384695,
                1.9473251909756537,
                -0.578092299141914,
                1.043310835526912,
                2.9943850459420136
            ]
        },
        {
            "positions": [
                -1.588748562589027,
                -1.433513053641204,
                1.926300765572103,
                -0.5358013501506249,
                0.8396853735284409,
                2.972617244438333
            ]
        },
        {
            "positions": [
                -1.6345274146314184,
                -1.3838255514439382,
                1.9052763401685524,
                -0.49351040115933587,
                0.6360599115299698,
                2.9508494429346532
            ]
        },
        {
            "positions": [
                -1.6803062666738096,
                -1.3341380492466723,
                1.8842519147650016,
                -0.4512194521680468,
                0.4324344495314987,
                2.929081641430973
            ]
        },
        {
            "positions": [
                -1.838893332259243,
                -1.3000405365619627,
                1.909074881159195,
                -0.5256020730138397,
                0.48135602450080245,
                2.9682572854311413
            ]
        },
        {
            "positions": [
                -1.9974803978446762,
                -1.265943023877253,
                1.9338978475533886,
                -0.5999846938596325,
                0.5302775994701062,
                3.00743292943131
            ]
        },
        {
            "positions": [
                -2.1560674634301096,
                -1.2318455111925437,
                1.9587208139475818,
                -0.6743673147054252,
                0.57919917443941,
                3.0466085734314787
            ]
        },
        {
            "positions": [
                -2.314654529015543,
                -1.197747998507834,
                1.9835437803417753,
                -0.7487499355512182,
                0.6281207494087138,
                3.085784217431647
            ]
        },
        {
            "positions": [
                -2.4732415946009763,
                -1.1636504858231245,
                2.0083667467359687,
                -0.8231325563970109,
                0.6770423243780176,
                3.1249598614318157
            ]
        }
    ]
}