{
    "goal": {
        "global_pose": {
            "orientation": {
                "w": -0.4816463035849501,
                "x": 0.5182115481033762,
                "y": 0.4908360881923453,
                "z": -0.5084816262002911
            },
            "position": {
                "x": -0.8240239810943604,
                "y": 0.19912469901144506,
                "z": 0.16403168439865112
            }
        },
        "name": "move_to_storage_D"
    },
    "id": "KPIECE_move_to_storage_D_58",
    "joint_names": [
        "shoulder_pan_joint",
        "shoulder_lift_joint",
        "elbow_joint",
        "wrist_1_joint",
        "wrist_2_joint",
        "wrist_3_joint"
    ],
    "metrics": {
        "cart_traj_len": 1.065718993303648,
        "distance_elbow_joint": 0.5549435740542878,
        "distance_shoulder_lift_joint": 1.0968297957579733,
        "distance_shoulder_pan_joint": 0.24032215003151625,
        "distance_wrist_1_joint": 3.8238474200398995,
        "distance_wrist_2_joint": 1.788481985447016,
        "distance_wrist_3_joint": 3.8215444558965896,
        "smoothness": 0.21114634913975788,
        "time": 0.124551875,
        "traj_len": 3.3654077585379283,
        "weighted_distance": 4.957962050934575
    },
    "planner": "KPIECE",
    "start": {
        "state": {
            "elbow_joint": -2.384821990628643,
            "shoulder_lift_joint": -2.278805467437664,
            "shoulder_pan_joint": -0.18546946439364564,
            "wrist_1_joint": 1.4845938187801415,
            "wrist_2_joint": 0.178987772454074,
            "wrist_3_joint": 0.03710569632802521
        }
    },
    "waypoints": [
        {
            "positions": [
                -0.18546946439364564,
                -2.278805467437664,
                -2.384821990628643,
                1.4845938187801415,
                0.178987772454074,
                0.03710569632802521
            ]
        },
        {
            "positions": [
                -0.15761780036823636,
                -2.1895867702949703,
                -2.3462464608762015,
                1.4113507662826923,
                0.10350842271839462,
                0.0875296803330591
            ]
        },
        {
            "positions": [
                -0.1297661363428271,
                -2.1003680731522762,
                -2.30767093112376,
                1.3381077137852433,
                0.02802907298271526,
                0.137953664338093
            ]
        },
        {
            "positions": [
                -0.10191447231741782,
                -2.011149376009582,
                -2.2690954013713185,
                1.264864661287794,
                -0.04745027675296409,
                0.1883776483431269
            ]
        },
        {
            "positions": [
                -0.07406280829200855,
                -1.9219306788668886,
                -2.230519871618877,
                1.1916216087903448,
                -0.12292962648864347,
                0.2388016323481608
            ]
        },
        {
            "positions": [
                -0.04621114426659925,
                -1.8327119817241948,
                -2.1919443418664355,
                1.1183785562928958,
                -0.19840897622432285,
                0.28922561635319466
            ]
        },
        {
            "positions": [
                -0.018359480241189996,
                -1.743493284581501,
                -2.1533688121139942,
                1.0451355037954466,
                -0.2738883259600022,
                0.33964960035822855
            ]
        },
        {
            "positions": [
                0.009492183784219295,
                -1.6542745874388072,
                -2.1147932823615525,
                0.9718924512979975,
                -0.34936767569568156,
                0.3900735843632625
            ]
        },
        {
            "positions": [
                0.007519988051451842,
                -1.6748093229065948,
                -2.10240567950124,
                0.8279295794476603,
                -0.40415578601295377,
                0.23926590749972546
            ]
        },
        {
            "positions": [
                0.005547792318684389,
                -1.6953440583743826,
                -2.0900180766409266,
                0.683966707597323,
                -0.4589438963302259,
                0.0884582306361884
            ]
        },
        {
            "positions": [
                0.003575596585916936,
                -1.7158787938421702,
                -2.077630473780614,
                0.5400038357469858,
                -0.5137320066474982,
                -0.06234944622734867
            ]
        },
        {
            "positions": [
                0.001603400853149483,
                -1.7364135293099578,
                -2.065242870920301,
                0.39604096389664867,
                -0.5685201169647703,
                -0.2131571230908857
            ]
        },
        {
            "positions": [
                -0.00036879487961796915,
                -1.7569482647777455,
                -2.052855268059988,
                0.2520780920463115,
                -0.6233082272820425,
                -0.3639647999544227
            ]
        },
        {
            "positions": [
                -0.002340990612385423,
                -1.7774830002455333,
                -2.040467665199675,
                0.1081152201959743,
                -0.6780963375993148,
                -0.5147724768179598
            ]
        },
        {
            "positions": [
                -0.004313186345152877,
                -1.798017735713321,
                -2.0280800623393622,
                -0.03584765165436299,
                -0.732884447916587,
                -0.6655801536814969
            ]
        },
        {
            "positions": [
                -0.006285382077920329,
                -1.8185524711811085,
                -2.015692459479049,
                -0.17981052350470017,
                -0.7876725582338591,
                -0.8163878305450338
            ]
        },
        {
            "positions": [
                -0.008257577810687783,
                -1.8390872066488964,
                -2.0033048566187364,
                -0.32377339535503735,
                -0.8424606685511313,
                -0.967195507408571
            ]
        },
        {
            "positions": [
                -0.010229773543455233,
                -1.859621942116684,
                -1.9909172537584232,
                -0.46773626720537453,
                -0.8972487788684036,
                -1.1180031842721079
            ]
        },
        {
            "positions": [
                -0.012201969276222687,
                -1.8801566775844716,
                -1.9785296508981105,
                -0.6116991390557119,
                -0.9520368891856756,
                -1.268810861135645
            ]
        },
        {
            "positions": [
                -0.014174165008990141,
                -1.9006914130522594,
                -1.9661420480377974,
                -0.7556620109060489,
                -1.006824999502948,
                -1.4196185379991821
            ]
        },
        {
            "positions": [
                -0.01614636074175759,
                -1.921226148520047,
                -1.9537544451774846,
                -0.8996248827563861,
                -1.0616131098202202,
                -1.570426214862719
            ]
        },
        {
            "positions": [
                -0.01811855647452505,
                -1.9417608839878346,
                -1.9413668423171715,
                -1.0435877546067234,
                -1.1164012201374924,
                -1.7212338917262564
            ]
        },
        {
            "positions": [
                -0.0200907522072925,
                -1.9622956194556225,
                -1.9289792394568588,
                -1.1875506264570608,
                -1.1711893304547645,
                -1.872041568589793
            ]
        },
        {
            "positions": [
                -0.022062947940059953,
                -1.98283035492341,
                -1.9165916365965459,
                -1.3315134983073977,
                -1.2259774407720367,
                -2.0228492454533304
            ]
        },
        {
            "positions": [
                -0.0240351436728274,
                -2.0033650903911977,
                -1.904204033736233,
                -1.4754763701577347,
                -1.2807655510893088,
                -2.1736569223168676
            ]
        },
        {
            "positions": [
                -0.02600733940559486,
                -2.0238998258589853,
                -1.89181643087592,
                -1.619439242008072,
                -1.335553661406581,
                -2.3244645991804047
            ]
        },
        {
            "positions": [
                -0.027979535138362314,
                -2.044434561326773,
                -1.879428828015607,
                -1.7634021138584095,
                -1.3903417717238533,
                -2.475272276043942
            ]
        },
        {
            "positions": [
                -0.02995173087112976,
                -2.064969296794561,
                -1.8670412251552941,
                -1.9073649857087465,
                -1.4451298820411256,
                -2.6260799529074785
            ]
        },
        {
            "positions": [
                -0.031923926603897215,
                -2.0855040322623486,
                -1.8546536222949812,
                -2.0513278575590834,
                -1.4999179923583976,
                -2.7768876297710157
            ]
        },
        {
            "positions": [
                -0.03389612233666467,
                -2.106038767730136,
                -1.8422660194346683,
                -2.1952907294094213,
                -1.5547061026756699,
                -2.927695306634553
            ]
        },
        {
            "positions": [
                -0.03586831806943212,
                -2.126573503197924,
                -1.8298784165743553,
                -2.3392536012597582,
                -1.6094942129929422,
                -3.07850298349809
            ]
        }
    ]
}