{
    "goal": {
        "global_pose": {
            "orientation": {
                "w": -0.00223480608172531,
                "x": 0.0024358444001904467,
                "y": 0.7094548369677653,
                "z": -0.704743149386269
            },
            "position": {
                "x": -0.37947507619857795,
                "y": -0.6371506643295288,
                "z": 0.19426114857196808
            }
        },
        "name": "move_to_magneteinheit_C"
    },
    "id": "KPIECE_move_to_magneteinheit_C_111",
    "joint_names": [
        "shoulder_pan_joint",
        "shoulder_lift_joint",
        "elbow_joint",
        "wrist_1_joint",
        "wrist_2_joint",
        "wrist_3_joint"
    ],
    "metrics": {
        "cart_traj_len": 1.8321950465676604,
        "distance_elbow_joint": 1.3679726506745926,
        "distance_shoulder_lift_joint": 0.8389206268840355,
        "distance_shoulder_pan_joint": 1.8325963075371294,
        "distance_wrist_1_joint": 0.6287903937824363,
        "distance_wrist_2_joint": 2.0787308132422755,
        "distance_wrist_3_joint": 6.25708227577805,
        "smoothness": 0.5746601135807986,
        "time": 0.360774348,
        "traj_len": 3.6061188371847264,
        "weighted_distance": 5.312793881422404
    },
    "planner": "KPIECE",
    "start": {
        "state": {
            "elbow_joint": 1.9565354006593851,
            "shoulder_lift_joint": -1.4165861576512813,
            "shoulder_pan_joint": -1.6717766223278752,
            "wrist_1_joint": -0.528663328821883,
            "wrist_2_joint": 1.472756589259273,
            "wrist_3_joint": 3.159348288315503
        }
    },
    "waypoints": [
        {
            "positions": [
                -1.6717766223278752,
                -1.4165861576512813,
                1.9565354006593851,
                -0.528663328821883,
                1.472756589259273,
                3.159348288315503
            ]
        },
        {
            "positions": [
                -1.580608500093763,
                -1.4062704541305981,
                1.915229372412474,
                -0.5077429633455854,
                1.356347171082697,
                3.05568975677134
            ]
        },
        {
            "positions": [
                -1.489440377859651,
                -1.3959547506099153,
                1.873923344165563,
                -0.4868225978692879,
                1.239937752906121,
                2.9520312252271768
            ]
        },
        {
            "positions": [
                -1.398272255625539,
                -1.3856390470892321,
                1.8326173159186518,
                -0.46590223239299033,
                1.123528334729545,
                2.848372693683014
            ]
        },
        {
            "positions": [
                -1.3071041333914268,
                -1.3753233435685492,
                1.7913112876717407,
                -0.4449818669166927,
                1.0071189165529688,
                2.744714162138851
            ]
        },
        {
            "positions": [
                -1.2159360111573148,
                -1.3650076400478661,
                1.7500052594248297,
                -0.42406150144039517,
                0.8907094983763929,
                2.6410556305946877
            ]
        },
        {
            "positions": [
                -1.2596598315329521,
                -1.3840899012070014,
                1.719708080663064,
                -0.4303945913154203,
                0.8291731915637801,
                2.4108234844187506
            ]
        },
        {
            "positions": [
                -1.3033836519085895,
                -1.4031721623661366,
                1.6894109019012984,
                -0.43672768119044547,
                0.7676368847511674,
                2.1805913382428135
            ]
        },
        {
            "positions": [
                -1.347107472284227,
                -1.4222544235252716,
                1.6591137231395328,
                -0.4430607710654706,
                0.7061005779385546,
                1.9503591920668764
            ]
        },
        {
            "positions": [
                -1.3908312926598643,
                -1.441336684684407,
                1.628816544377767,
                -0.4493938609404957,
                0.6445642711259418,
                1.7201270458909392
            ]
        },
        {
            "positions": [
                -1.4345551130355014,
                -1.4604189458435421,
                1.5985193656160013,
                -0.45572695081552084,
                0.5830279643133292,
                1.489894899715002
            ]
        },
        {
            "positions": [
                -1.4782789334111388,
                -1.4795012070026774,
                1.5682221868542356,
                -0.462060040690546,
                0.5214916575007164,
                1.259662753539065
            ]
        },
        {
            "positions": [
                -1.5220027537867762,
                -1.4985834681618126,
                1.53792500809247,
                -0.46839313056557114,
                0.45995535068810356,
                1.0294306073631279
            ]
        },
        {
            "positions": [
                -1.5657265741624136,
                -1.517665729320948,
                1.5076278293307044,
                -0.47472622044059626,
                0.39841904387549076,
                0.7991984611871907
            ]
        },
        {
            "positions": [
                -1.609450394538051,
                -1.536747990480083,
                1.4773306505689385,
                -0.48105931031562144,
                0.33688273706287797,
                0.5689663150112536
            ]
        },
        {
            "positions": [
                -1.6531742149136883,
                -1.5558302516392182,
                1.447033471807173,
                -0.48739240019064656,
                0.2753464302502653,
                0.3387341688353165
            ]
        },
        {
            "positions": [
                -1.6968980352893257,
                -1.5749125127983534,
                1.4167362930454073,
                -0.4937254900656717,
                0.21381012343765254,
                0.10850202265937944
            ]
        },
        {
            "positions": [
                -1.8119642233890592,
                -1.5954226508928253,
                1.5029035023741495,
                -0.48219820329496543,
                0.3010686695945755,
                0.08399604238478844
            ]
        },
        {
            "positions": [
                -1.9270304114887926,
                -1.6159327889872972,
                1.5890707117028917,
                -0.4706709165242592,
                0.38832721575149853,
                0.05949006211019745
            ]
        },
        {
            "positions": [
                -2.0420965995885263,
                -1.636442927081769,
                1.675237921031634,
                -0.45914362975355294,
                0.4755857619084215,
                0.03498408183560646
            ]
        },
        {
            "positions": [
                -2.1571627876882595,
                -1.656953065176241,
                1.7614051303603762,
                -0.4476163429828467,
                0.5628443080653445,
                0.010478101561015456
            ]
        },
        {
            "positions": [
                -2.2510854889707805,
                -1.649790795503812,
                1.8524644282553382,
                -0.44378744874566456,
                0.6353556119735133,
                0.12880087712891927
            ]
        },
        {
            "positions": [
                -2.345008190253302,
                -1.642628525831383,
                1.9435237261503,
                -0.43995855450848237,
                0.7078669158816822,
                0.24712365269682307
            ]
        },
        {
            "positions": [
                -2.438930891535823,
                -1.6354662561589541,
                2.034583024045262,
                -0.4361296602713002,
                0.780378219789851,
                0.3654464282647269
            ]
        },
        {
            "positions": [
                -2.532853592818344,
                -1.6283039864865252,
                2.125642321940224,
                -0.43230076603411804,
                0.8528895236980198,
                0.4837692038326307
            ]
        },
        {
            "positions": [
                -2.527341247929369,
                -1.581148913685802,
                2.1142859410105554,
                -0.472571784080074,
                0.8355146576111012,
                0.7530254300247055
            ]
        },
        {
            "positions": [
                -2.5218289030403938,
                -1.5339938408850786,
                2.102929560080887,
                -0.51284280212603,
                0.8181397915241825,
                1.02228165621678
            ]
        },
        {
            "positions": [
                -2.516316558151419,
                -1.4868387680843553,
                2.0915731791512187,
                -0.553113820171986,
                0.8007649254372639,
                1.2915378824088548
            ]
        },
        {
            "positions": [
                -2.510804213262444,
                -1.4396836952836318,
                2.08021679822155,
                -0.5933848382179419,
                0.7833900593503452,
                1.5607941086009294
            ]
        },
        {
            "positions": [
                -2.505291868373469,
                -1.3925286224829085,
                2.0688604172918814,
                -0.6336558562638979,
                0.7660151932634265,
                1.8300503347930042
            ]
        },
        {
            "positions": [
                -2.4997795234844937,
                -1.3453735496821853,
                2.057504036362213,
                -0.6739268743098539,
                0.7486403271765079,
                2.0993065609850787
            ]
        },
        {
            "positions": [
                -2.493088512141571,
                -1.2994192575176378,
                2.044721729215266,
                -0.7117953106769495,
                0.7295263895168141,
                2.354152468384954
            ]
        },
        {
            "positions": [
                -2.486397500798649,
                -1.2534649653530905,
                2.0319394220683193,
                -0.749663747044045,
                0.7104124518571204,
                2.6089983757848287
            ]
        },
        {
            "positions": [
                -2.479706489455727,
                -1.207510673188543,
                2.0191571149213727,
                -0.7875321834111407,
                0.6912985141974268,
                2.8638442831847035
            ]
        },
        {
            "positions": [
                -2.473015478112804,
                -1.1615563810239955,
                2.0063748077744257,
                -0.8254006197782363,
                0.6721845765377331,
                3.1186901905845787
            ]
        }
    ]
}