{
    "goal": {
        "global_pose": {
            "orientation": {
                "w": 0.7047431468963623,
                "x": -0.7094548344612122,
                "y": 0.0024358443915843964,
                "z": -0.0022348060738295317
            },
            "position": {
                "x": 0.6094750761985779,
                "y": 0.3671506643295288,
                "z": 0.19426114857196808
            }
        },
        "name": "move_to_magneteinheit_A"
    },
    "id": "KPIECE_move_to_magneteinheit_A_6",
    "joint_names": [
        "shoulder_pan_joint",
        "shoulder_lift_joint",
        "elbow_joint",
        "wrist_1_joint",
        "wrist_2_joint",
        "wrist_3_joint"
    ],
    "metrics": {
        "cart_traj_len": 1.972439538082161,
        "distance_elbow_joint": 3.5813257459216556,
        "distance_shoulder_lift_joint": 0.7885213518667287,
        "distance_shoulder_pan_joint": 1.2417479342452007,
        "distance_wrist_1_joint": 1.1626708502299585,
        "distance_wrist_2_joint": 1.4416382754088846,
        "distance_wrist_3_joint": 1.9635914253206725,
        "smoothness": 2.631639764355545e-16,
        "time": 0.23009745,
        "traj_len": 3.1905321786487444,
        "weighted_distance": 4.087907479294668
    },
    "planner": "KPIECE",
    "start": {
        "state": {
            "elbow_joint": -1.5739458827952972,
            "shoulder_lift_joint": 0.006533473998580023,
            "shoulder_pan_joint": -1.1188671628667068,
            "wrist_1_joint": 3.138208179676308,
            "wrist_2_joint": -1.5706037135050406,
            "wrist_3_joint": -2.0226958329764257
        }
    },
    "waypoints": [
        {
            "positions": [
                -1.1188671628667068,
                0.006533473998580023,
                -1.5739458827952972,
                3.138208179676308,
                -1.5706037135050406,
                -2.0226958329764257
            ]
        },
        {
            "positions": [
                -1.071107626934199,
                -0.023794270303986467,
                -1.4362025848752336,
                3.093490070052079,
                -1.5151560875277759,
                -1.9471730858487075
            ]
        },
        {
            "positions": [
                -1.0233480910016914,
                -0.05412201460655296,
                -1.2984592869551699,
                3.0487719604278496,
                -1.459708461550511,
                -1.8716503387209893
            ]
        },
        {
            "positions": [
                -0.9755885550691836,
                -0.08444975890911945,
                -1.1607159890351062,
                3.0040538508036208,
                -1.4042608355732462,
                -1.7961275915932713
            ]
        },
        {
            "positions": [
                -0.9278290191366759,
                -0.11477750321168594,
                -1.0229726911150425,
                2.9593357411793915,
                -1.3488132095959813,
                -1.720604844465553
            ]
        },
        {
            "positions": [
                -0.8800694832041682,
                -0.1451052475142524,
                -0.8852293931949788,
                2.914617631555162,
                -1.2933655836187166,
                -1.6450820973378348
            ]
        },
        {
            "positions": [
                -0.8323099472716605,
                -0.1754329918168189,
                -0.7474860952749152,
                2.8698995219309333,
                -1.2379179576414518,
                -1.5695593502101166
            ]
        },
        {
            "positions": [
                -0.7845504113391528,
                -0.20576073611938536,
                -0.6097427973548515,
                2.825181412306704,
                -1.1824703316641871,
                -1.4940366030823986
            ]
        },
        {
            "positions": [
                -0.736790875406645,
                -0.23608848042195188,
                -0.4719994994347878,
                2.7804633026824748,
                -1.1270227056869222,
                -1.4185138559546804
            ]
        },
        {
            "positions": [
                -0.6890313394741374,
                -0.26641622472451837,
                -0.3342562015147241,
                2.7357451930582455,
                -1.0715750797096575,
                -1.3429911088269622
            ]
        },
        {
            "positions": [
                -0.6412718035416296,
                -0.2967439690270849,
                -0.19651290359466045,
                2.691027083434016,
                -1.0161274537323925,
                -1.267468361699244
            ]
        },
        {
            "positions": [
                -0.5935122676091219,
                -0.32707171332965135,
                -0.05876960567459677,
                2.6463089738097874,
                -0.9606798277551278,
                -1.1919456145715257
            ]
        },
        {
            "positions": [
                -0.5457527316766142,
                -0.35739945763221787,
                0.07897369224546691,
                2.601590864185558,
                -0.905232201777863,
                -1.1164228674438075
            ]
        },
        {
            "positions": [
                -0.4979931957441065,
                -0.3877272019347843,
                0.2167169901655306,
                2.556872754561329,
                -0.8497845758005983,
                -1.0409001203160895
            ]
        },
        {
            "positions": [
                -0.4502336598115988,
                -0.4180549462373508,
                0.35446028808559427,
                2.5121546449371,
                -0.7943369498233336,
                -0.9653773731883712
            ]
        },
        {
            "positions": [
                -0.4024741238790911,
                -0.44838269053991725,
                0.49220358600565794,
                2.4674365353128707,
                -0.7388893238460688,
                -0.8898546260606532
            ]
        },
        {
            "positions": [
                -0.3547145879465833,
                -0.4787104348424838,
                0.6299468839257216,
                2.4227184256886414,
                -0.6834416978688038,
                -0.8143318789329348
            ]
        },
        {
            "positions": [
                -0.3069550520140756,
                -0.5090381791450502,
                0.7676901818457853,
                2.378000316064412,
                -0.6279940718915391,
                -0.7388091318052168
            ]
        },
        {
            "positions": [
                -0.2591955160815679,
                -0.5393659234476167,
                0.905433479765849,
                2.333282206440183,
                -0.5725464459142744,
                -0.6632863846774986
            ]
        },
        {
            "positions": [
                -0.2114359801490603,
                -0.5696936677501832,
                1.0431767776859127,
                2.288564096815954,
                -0.5170988199370097,
                -0.5877636375497806
            ]
        },
        {
            "positions": [
                -0.16367644421655236,
                -0.6000214120527497,
                1.1809200756059763,
                2.2438459871917247,
                -0.46165119395974474,
                -0.5122408904220621
            ]
        },
        {
            "positions": [
                -0.11591690828404477,
                -0.6303491563553162,
                1.31866337352604,
                2.1991278775674954,
                -0.40620356798248003,
                -0.4367181432943441
            ]
        },
        {
            "positions": [
                -0.06815737235153696,
                -0.6606769006578826,
                1.4564066714461037,
                2.1544097679432666,
                -0.3507559420052151,
                -0.3611953961666259
            ]
        },
        {
            "positions": [
                -0.02039783641902937,
                -0.6910046449604491,
                1.5941499693661674,
                2.1096916583190373,
                -0.2953083160279504,
                -0.2856726490389079
            ]
        },
        {
            "positions": [
                0.027361699513478444,
                -0.7213323892630157,
                1.731893267286231,
                2.064973548694808,
                -0.23986069005068544,
                -0.21014990191118943
            ]
        },
        {
            "positions": [
                0.07512123544598626,
                -0.7516601335655821,
                1.8696365652062947,
                2.0202554390705787,
                -0.18441306407342073,
                -0.13462715478347143
            ]
        },
        {
            "positions": [
                0.12288077137849378,
                -0.7819878778681486,
                2.007379863126358,
                1.9755373294463496,
                -0.12896543809615596,
                -0.0591044076557531
            ]
        }
    ]
}