{
    "goal": {
        "global_pose": {
            "orientation": {
                "w": 0.7047431493862688,
                "x": -0.7094548369677653,
                "y": 0.0024358444001904,
                "z": -0.0022348060817251984
            },
            "position": {
                "x": -0.39052492380142206,
                "y": 0.3671506643295288,
                "z": 0.19426114857196808
            }
        },
        "name": "move_to_magneteinheit_D"
    },
    "id": "KPIECE_move_to_magneteinheit_D_92",
    "joint_names": [
        "shoulder_pan_joint",
        "shoulder_lift_joint",
        "elbow_joint",
        "wrist_1_joint",
        "wrist_2_joint",
        "wrist_3_joint"
    ],
    "metrics": {
        "cart_traj_len": 4.645254932422753,
        "distance_elbow_joint": 3.1022234049362205,
        "distance_shoulder_lift_joint": 1.1613270606513522,
        "distance_shoulder_pan_joint": 3.30870075700078,
        "distance_wrist_1_joint": 3.172628444387007,
        "distance_wrist_2_joint": 1.513905733757787,
        "distance_wrist_3_joint": 6.229440725100948,
        "smoothness": 0.4068647671820513,
        "time": 0.45507846999999996,
        "traj_len": 4.299793730614772,
        "weighted_distance": 5.96939207576289
    },
    "planner": "KPIECE",
    "start": {
        "state": {
            "elbow_joint": 0.7495348899011911,
            "shoulder_lift_joint": -0.6476975780737668,
            "shoulder_pan_joint": -2.711696901376276,
            "wrist_1_joint": -0.0750647808097303,
            "wrist_2_joint": 0.43296659715458535,
            "wrist_3_joint": 3.1361499051832418
        }
    },
    "waypoints": [
        {
            "positions": [
                -2.711696901376276,
                -0.6476975780737668,
                0.7495348899011911,
                -0.0750647808097303,
                0.43296659715458535,
                3.1361499051832418
            ]
        },
        {
            "positions": [
                -2.7269512901419883,
                -0.6342960235856379,
                0.7389181234091383,
                -0.20486846727852664,
                0.45221476379532877,
                3.0097571243596644
            ]
        },
        {
            "positions": [
                -2.7422056789077,
                -0.6208944690975088,
                0.7283013569170855,
                -0.33467215374732295,
                0.47146293043607224,
                2.8833643435360874
            ]
        },
        {
            "positions": [
                -2.7389408597061053,
                -0.6203174209741834,
                0.6939425337066247,
                -0.47484684965162716,
                0.49823675044534305,
                2.719387783059684
            ]
        },
        {
            "positions": [
                -2.7356760405045106,
                -0.619740372850858,
                0.6595837104961639,
                -0.6150215455559314,
                0.5250105704546139,
                2.55541122258328
            ]
        },
        {
            "positions": [
                -2.7324112213029155,
                -0.6191633247275325,
                0.6252248872857032,
                -0.7551962414602356,
                0.5517843904638847,
                2.391434662106877
            ]
        },
        {
            "positions": [
                -2.7291464021013208,
                -0.6185862766042072,
                0.5908660640752424,
                -0.8953709373645398,
                0.5785582104731555,
                2.2274581016304733
            ]
        },
        {
            "positions": [
                -2.725881582899726,
                -0.6180092284808818,
                0.5565072408647816,
                -1.035545633268844,
                0.6053320304824263,
                2.06348154115407
            ]
        },
        {
            "positions": [
                -2.7087965590597625,
                -0.6274957542914772,
                0.509673471488581,
                -1.1594208852843595,
                0.6333003030881205,
                1.8987987269201405
            ]
        },
        {
            "positions": [
                -2.6917115352197993,
                -0.6369822801020726,
                0.46283970211238035,
                -1.283296137299875,
                0.6612685756938146,
                1.7341159126862111
            ]
        },
        {
            "positions": [
                -2.674626511379836,
                -0.646468805912668,
                0.41600593273617975,
                -1.4071713893153905,
                0.6892368482995088,
                1.5694330984522815
            ]
        },
        {
            "positions": [
                -2.6575414875398726,
                -0.6559553317232634,
                0.3691721633599791,
                -1.531046641330906,
                0.7172051209052029,
                1.4047502842183521
            ]
        },
        {
            "positions": [
                -2.5502757099435063,
                -0.6833509978995493,
                0.30878029564167486,
                -1.5058648806413721,
                0.6765202657383922,
                1.2897053266410266
            ]
        },
        {
            "positions": [
                -2.44300993234714,
                -0.7107466640758352,
                0.24838842792337062,
                -1.4806831199518382,
                0.6358354105715813,
                1.1746603690637012
            ]
        },
        {
            "positions": [
                -2.3357441547507736,
                -0.7381423302521212,
                0.1879965602050664,
                -1.4555013592623043,
                0.5951505554047706,
                1.0596154114863756
            ]
        },
        {
            "positions": [
                -2.228478377154407,
                -0.7655379964284071,
                0.12760469248676218,
                -1.4303195985727704,
                0.5544657002379598,
                0.94457045390905
            ]
        },
        {
            "positions": [
                -2.1212125995580404,
                -0.792933662604693,
                0.06721282476845791,
                -1.4051378378832364,
                0.513780845071149,
                0.8295254963317245
            ]
        },
        {
            "positions": [
                -2.0139468219616745,
                -0.820329328780979,
                0.006820957050153675,
                -1.3799560771937025,
                0.4730959899043382,
                0.7144805387543989
            ]
        },
        {
            "positions": [
                -1.906681044365308,
                -0.8477249949572649,
                -0.053570910668150507,
                -1.3547743165041686,
                0.43241113473752746,
                0.5994355811770735
            ]
        },
        {
            "positions": [
                -1.7994152667689414,
                -0.8751206611335508,
                -0.11396277838645474,
                -1.3295925558146346,
                0.39172627957071665,
                0.48439062359974794
            ]
        },
        {
            "positions": [
                -1.692149489172575,
                -0.9025163273098368,
                -0.17435464610475898,
                -1.3044107951251007,
                0.3510414244039059,
                0.36934566602242236
            ]
        },
        {
            "positions": [
                -1.5848837115762087,
                -0.9299119934861226,
                -0.23474651382306327,
                -1.2792290344355666,
                0.3103565692370951,
                0.2543007084450968
            ]
        },
        {
            "positions": [
                -1.4776179339798423,
                -0.9573076596624086,
                -0.29513838154136746,
                -1.2540472737460326,
                0.2696717140702843,
                0.1392557508677712
            ]
        },
        {
            "positions": [
                -1.370352156383476,
                -0.9847033258386946,
                -0.35553024925967175,
                -1.2288655130564987,
                0.22898685890347348,
                0.02421079329044562
            ]
        },
        {
            "positions": [
                -1.2630863787871096,
                -1.0120989920149803,
                -0.41592211697797593,
                -1.2036837523669648,
                0.18830200373666284,
                -0.09083416428687952
            ]
        },
        {
            "positions": [
                -1.1558206011907433,
                -1.0394946581912663,
                -0.4763139846962801,
                -1.1785019916774309,
                0.14761714856985197,
                -0.2058791218642051
            ]
        },
        {
            "positions": [
                -1.048554823594377,
                -1.0668903243675523,
                -0.5367058524145845,
                -1.153320230987897,
                0.10693229340304122,
                -0.3209240794415307
            ]
        },
        {
            "positions": [
                -0.9412890459980103,
                -1.0942859905438382,
                -0.5970977201328886,
                -1.128138470298363,
                0.06624743823623036,
                -0.43596903701885625
            ]
        },
        {
            "positions": [
                -0.834023268401644,
                -1.1216816567201242,
                -0.6574895878511928,
                -1.102956709608829,
                0.025562583069419553,
                -0.5510139945961817
            ]
        },
        {
            "positions": [
                -0.7779638957358812,
                -1.1392363018910627,
                -0.7459932002824939,
                -1.1690702003783098,
                0.004943894242908701,
                -0.6799120704211024
            ]
        },
        {
            "positions": [
                -0.7219045230701184,
                -1.1567909470620013,
                -0.834496812713795,
                -1.2351836911477903,
                -0.01567479458360215,
                -0.8088101462460229
            ]
        },
        {
            "positions": [
                -0.6658451504043558,
                -1.1743455922329396,
                -0.9230004251450962,
                -1.301297181917271,
                -0.036293483410113,
                -0.9377082220709436
            ]
        },
        {
            "positions": [
                -0.609785777738593,
                -1.191900237403878,
                -1.0115040375763973,
                -1.3674106726867516,
                -0.056912172236623856,
                -1.0666062978958641
            ]
        },
        {
            "positions": [
                -0.5537264050728302,
                -1.2094548825748166,
                -1.1000076500076985,
                -1.4335241634562321,
                -0.07753086106313471,
                -1.1955043737207849
            ]
        },
        {
            "positions": [
                -0.4976670324070675,
                -1.2270095277457551,
                -1.1885112624389995,
                -1.4996376542257126,
                -0.09814954988964555,
                -1.3244024495457054
            ]
        },
        {
            "positions": [
                -0.4416076597413047,
                -1.2445641729166934,
                -1.2770148748703005,
                -1.5657511449951933,
                -0.11876823871615641,
                -1.4533005253706262
            ]
        },
        {
            "positions": [
                -0.385548287075542,
                -1.262118818087632,
                -1.3655184873016017,
                -1.631864635764674,
                -0.13938692754266727,
                -1.5821986011955467
            ]
        },
        {
            "positions": [
                -0.32948891440977923,
                -1.2796734632585705,
                -1.454022099732903,
                -1.6979781265341547,
                -0.16000561636917812,
                -1.7110966770204672
            ]
        },
        {
            "positions": [
                -0.27342954174401646,
                -1.297228108429509,
                -1.542525712164204,
                -1.7640916173036352,
                -0.18062430519568898,
                -1.8399947528453882
            ]
        },
        {
            "positions": [
                -0.21737016907825368,
                -1.3147827536004475,
                -1.6310293245955052,
                -1.8302051080731159,
                -0.20124299402219983,
                -1.9688928286703087
            ]
        },
        {
            "positions": [
                -0.16131079641249102,
                -1.3323373987713858,
                -1.7195329370268062,
                -1.8963185988425963,
                -0.22186168284871066,
                -2.097790904495229
            ]
        },
        {
            "positions": [
                -0.10525142374672825,
                -1.3498920439423243,
                -1.8080365494581072,
                -1.962432089612077,
                -0.24248037167522152,
                -2.2266889803201497
            ]
        },
        {
            "positions": [
                -0.04919205108096547,
                -1.3674466891132628,
                -1.8965401618894084,
                -2.0285455803815577,
                -0.2630990605017324,
                -2.3555870561450702
            ]
        },
        {
            "positions": [
                0.0068673215847973035,
                -1.3850013342842014,
                -1.9850437743207097,
                -2.0946590711510384,
                -0.28371774932824323,
                -2.484485131969991
            ]
        },
        {
            "positions": [
                0.06292669425055997,
                -1.4025559794551397,
                -2.0735473867520104,
                -2.1607725619205187,
                -0.3043364381547541,
                -2.6133832077949113
            ]
        },
        {
            "positions": [
                0.11898606691632274,
                -1.4201106246260782,
                -2.162050999183312,
                -2.2268860526899994,
                -0.32495512698126494,
                -2.7422812836198323
            ]
        },
        {
            "positions": [
                0.17504543958208563,
                -1.4376652697970167,
                -2.250554611614613,
                -2.29299954345948,
                -0.3455738158077758,
                -2.8711793594447528
            ]
        },
        {
            "positions": [
                0.08880982931463063,
                -1.5138714633433177,
                -2.2729635184835324,
                -2.271521937354151,
                -0.30579034697164736,
                -2.925388377311341
            ]
        },
        {
            "positions": [
                0.002574219047175641,
                -1.5900776568896187,
                -2.2953724253524523,
                -2.250044331248822,
                -0.2660068781355189,
                -2.97959739517793
            ]
        },
        {
            "positions": [
                -0.08366139122027938,
                -1.6662838504359194,
                -2.317781332221372,
                -2.2285667251434935,
                -0.22622340929939044,
                -3.033806413044519
            ]
        },
        {
            "positions": [
                -0.16989700148773437,
                -1.7424900439822204,
                -2.3401902390902913,
                -2.2070891190381645,
                -0.18643994046326198,
                -3.088015430911107
            ]
        },
        {
            "positions": [
                -0.18589542139748721,
                -1.749647939539349,
                -2.352688515035029,
                -2.219692512909951,
                -0.17868554251358337,
                -3.093290819917703
            ]
        }
    ]
}