{
    "goal": {
        "global_pose": {
            "orientation": {
                "w": 0.005598929693374612,
                "x": 0.007748599140229565,
                "y": 0.7110244013736278,
                "z": -0.7031023480610252
            },
            "position": {
                "x": 0.1141497679147869,
                "y": -0.7141253447532654,
                "z": 0.3711530566215515
            }
        },
        "name": "move_to_auspresseinheit_B"
    },
    "id": "KPIECE_move_to_auspresseinheit_B_44",
    "joint_names": [
        "shoulder_pan_joint",
        "shoulder_lift_joint",
        "elbow_joint",
        "wrist_1_joint",
        "wrist_2_joint",
        "wrist_3_joint"
    ],
    "metrics": {
        "cart_traj_len": 0.5650253389954946,
        "distance_elbow_joint": 0.0610421840821902,
        "distance_shoulder_lift_joint": 0.2943760715438408,
        "distance_shoulder_pan_joint": 0.5764234791301566,
        "distance_wrist_1_joint": 0.32046959331811053,
        "distance_wrist_2_joint": 1.001224550264485,
        "distance_wrist_3_joint": 0.004187506294466736,
        "smoothness": 5.075305295617109e-16,
        "time": 0.18427319199999997,
        "traj_len": 1.5025722560440313,
        "weighted_distance": 1.8941469163728506
    },
    "planner": "KPIECE",
    "start": {
        "state": {
            "elbow_joint": 2.0193061681459312,
            "shoulder_lift_joint": -1.1220205130644991,
            "shoulder_pan_joint": -1.0952072088045026,
            "wrist_1_joint": -0.8559671810662515,
            "wrist_2_joint": 0.4759638712940361,
            "wrist_3_joint": 3.159081874192446
        }
    },
    "waypoints": [
        {
            "positions": [
                -1.0952072088045026,
                -1.1220205130644991,
                2.0193061681459312,
                -0.8559671810662515,
                0.4759638712940361,
                3.159081874192446
            ]
        },
        {
            "positions": [
                -1.1912777886595287,
                -1.1710831916551392,
                2.0091324707988996,
                -0.8025555821798998,
                0.6428346296714502,
                3.1597797919081905
            ]
        },
        {
            "positions": [
                -1.2873483685145548,
                -1.2201458702457795,
                1.998958773451868,
                -0.7491439832935479,
                0.8097053880488645,
                3.160477709623935
            ]
        },
        {
            "positions": [
                -1.383418948369581,
                -1.2692085488364195,
                1.9887850761048362,
                -0.6957323844071962,
                0.9765761464262785,
                3.1611756273396794
            ]
        },
        {
            "positions": [
                -1.479489528224607,
                -1.3182712274270596,
                1.9786113787578044,
                -0.6423207855208445,
                1.1434469048036928,
                3.161873545055424
            ]
        },
        {
            "positions": [
                -1.575560108079633,
                -1.3673339060176999,
                1.9684376814107727,
                -0.5889091866344927,
                1.3103176631811069,
                3.1625714627711683
            ]
        },
        {
            "positions": [
                -1.6716306879346592,
                -1.41639658460834,
                1.958263984063741,
                -0.5354975877481409,
                1.4771884215585211,
                3.1632693804869128
            ]
        }
    ]
}