{
    "goal": {
        "global_pose": {
            "orientation": {
                "w": -0.4816463035849501,
                "x": 0.5182115481033762,
                "y": 0.4908360881923453,
                "z": -0.5084816262002911
            },
            "position": {
                "x": -0.8240239810943604,
                "y": -0.300875300988555,
                "z": 0.16403168439865112
            }
        },
        "name": "move_to_storage_C"
    },
    "id": "KPIECE_move_to_storage_C_44",
    "joint_names": [
        "shoulder_pan_joint",
        "shoulder_lift_joint",
        "elbow_joint",
        "wrist_1_joint",
        "wrist_2_joint",
        "wrist_3_joint"
    ],
    "metrics": {
        "cart_traj_len": 0.5763804672255438,
        "distance_elbow_joint": 0.25843942208099047,
        "distance_shoulder_lift_joint": 0.1888025138888818,
        "distance_shoulder_pan_joint": 0.4955441757678196,
        "distance_wrist_1_joint": 0.0876167340272973,
        "distance_wrist_2_joint": 1.0644116928552914,
        "distance_wrist_3_joint": 0.06805298752671884,
        "smoothness": 0.0,
        "time": 0.014137138,
        "traj_len": 1.4706690743151565,
        "weighted_distance": 1.8576872524951624
    },
    "planner": "KPIECE",
    "start": {
        "state": {
            "elbow_joint": 2.0108683149792914,
            "shoulder_lift_joint": -1.1634956873317392,
            "shoulder_pan_joint": -2.4736205022346,
            "wrist_1_joint": -0.8367026793690192,
            "wrist_2_joint": 0.6746043897045053,
            "wrist_3_joint": 3.133522094754363
        }
    },
    "waypoints": [
        {
            "positions": [
                -2.4736205022346,
                -1.1634956873317392,
                2.0108683149792914,
                -0.8367026793690192,
                0.6746043897045053,
                3.133522094754363
            ]
        },
        {
            "positions": [
                -2.5562111981959035,
                -1.1320286016835923,
                1.9677950779657931,
                -0.8220998903644696,
                0.8520063385137205,
                3.1448642593421496
            ]
        },
        {
            "positions": [
                -2.6388018941572065,
                -1.1005615160354454,
                1.9247218409522946,
                -0.8074971013599201,
                1.0294082873229358,
                3.156206423929936
            ]
        },
        {
            "positions": [
                -2.72139259011851,
                -1.0690944303872985,
                1.881648603938796,
                -0.7928943123553706,
                1.206810236132151,
                3.1675485885177226
            ]
        },
        {
            "positions": [
                -2.8039832860798133,
                -1.0376273447391513,
                1.8385753669252978,
                -0.778291523350821,
                1.3842121849413662,
                3.178890753105509
            ]
        },
        {
            "positions": [
                -2.8865739820411163,
                -1.0061602590910044,
                1.7955021299117995,
                -0.7636887343462715,
                1.5616141337505813,
                3.1902329176932955
            ]
        },
        {
            "positions": [
                -2.9691646780024197,
                -0.9746931734428574,
                1.752428892898301,
                -0.7490859453417219,
                1.7390160825597967,
                3.201575082281082
            ]
        }
    ]
}