{
    "goal": {
        "global_pose": {
            "orientation": {
                "w": 0.005598929693374612,
                "x": 0.007748599140229565,
                "y": 0.7110244013736278,
                "z": -0.7031023480610252
            },
            "position": {
                "x": -0.8858502320852131,
                "y": -0.7141253447532654,
                "z": 0.3711530566215515
            }
        },
        "name": "move_to_auspresseinheit_C"
    },
    "id": "KPIECE_move_to_auspresseinheit_C_42",
    "joint_names": [
        "shoulder_pan_joint",
        "shoulder_lift_joint",
        "elbow_joint",
        "wrist_1_joint",
        "wrist_2_joint",
        "wrist_3_joint"
    ],
    "metrics": {
        "cart_traj_len": 0.49365937471026167,
        "distance_elbow_joint": 1.0091451996064742,
        "distance_shoulder_lift_joint": 0.3290476870833907,
        "distance_shoulder_pan_joint": 0.2566670997591345,
        "distance_wrist_1_joint": 0.7018866118953031,
        "distance_wrist_2_joint": 1.3086716378634382,
        "distance_wrist_3_joint": 0.07181321939185192,
        "smoothness": 4.844609574787718e-16,
        "time": 1.747078117,
        "traj_len": 1.9176108717880154,
        "weighted_distance": 2.414832529212334
    },
    "planner": "KPIECE",
    "start": {
        "state": {
            "elbow_joint": 1.7527959577730765,
            "shoulder_lift_joint": -0.9740617694224828,
            "shoulder_pan_joint": -2.967991417825869,
            "wrist_1_joint": -0.7595177689779385,
            "wrist_2_joint": 1.7443932448376545,
            "wrist_3_joint": 3.1991315425061013
        }
    },
    "waypoints": [
        {
            "positions": [
                -2.967991417825869,
                -0.9740617694224828,
                1.7527959577730765,
                -0.7595177689779385,
                1.7443932448376545,
                3.1991315425061013
            ]
        },
        {
            "positions": [
                -2.9423247078499557,
                -0.9411570007141438,
                1.6518814378124291,
                -0.6893291077884083,
                1.6135260810513106,
                3.191950220566916
            ]
        },
        {
            "positions": [
                -2.9166579978740423,
                -0.9082522320058046,
                1.5509669178517815,
                -0.6191404465988779,
                1.482658917264967,
                3.184768898627731
            ]
        },
        {
            "positions": [
                -2.8909912878981285,
                -0.8753474632974656,
                1.4500523978911342,
                -0.5489517854093476,
                1.351791753478623,
                3.1775875766885457
            ]
        },
        {
            "positions": [
                -2.865324577922215,
                -0.8424426945891265,
                1.3491378779304868,
                -0.4787631242198173,
                1.2209245896922791,
                3.1704062547493606
            ]
        },
        {
            "positions": [
                -2.839657867946302,
                -0.8095379258807874,
                1.2482233579698394,
                -0.408574463030287,
                1.0900574259059352,
                3.1632249328101754
            ]
        },
        {
            "positions": [
                -2.8139911579703885,
                -0.7766331571724484,
                1.147308838009192,
                -0.3383858018407567,
                0.9591902621195916,
                3.15604361087099
            ]
        },
        {
            "positions": [
                -2.788324447994475,
                -0.7437283884641093,
                1.0463943180485447,
                -0.2681971406512264,
                0.8283230983332478,
                3.148862288931805
            ]
        },
        {
            "positions": [
                -2.7626577380185613,
                -0.7108236197557702,
                0.9454797980878971,
                -0.19800847946169609,
                0.6974559345469038,
                3.14168096699262
            ]
        },
        {
            "positions": [
                -2.736991028042648,
                -0.6779188510474312,
                0.8445652781272497,
                -0.1278198182721657,
                0.5665887707605601,
                3.1344996450534346
            ]
        },
        {
            "positions": [
                -2.7113243180667346,
                -0.6450140823390921,
                0.7436507581666024,
                -0.05763115708263549,
                0.43572160697421625,
                3.1273183231142494
            ]
        }
    ]
}