{
    "goal": {
        "global_pose": {
            "orientation": {
                "w": 0.7031023502349854,
                "x": -0.7110244035720825,
                "y": 0.007748599164187908,
                "z": 0.005598929710686207
            },
            "position": {
                "x": 0.11585023208521307,
                "y": 0.44412534475326537,
                "z": 0.3711530566215515
            }
        },
        "name": "move_to_auspresseinheit_A"
    },
    "id": "KPIECE_move_to_auspresseinheit_A_146",
    "joint_names": [
        "shoulder_pan_joint",
        "shoulder_lift_joint",
        "elbow_joint",
        "wrist_1_joint",
        "wrist_2_joint",
        "wrist_3_joint"
    ],
    "metrics": {
        "cart_traj_len": 0.6899920089203171,
        "distance_elbow_joint": 0.31031272628455175,
        "distance_shoulder_lift_joint": 0.5319205025909512,
        "distance_shoulder_pan_joint": 1.042895256979289,
        "distance_wrist_1_joint": 1.5068575081278641,
        "distance_wrist_2_joint": 0.5248437482010244,
        "distance_wrist_3_joint": 0.5127857623665202,
        "smoothness": 1.0990756324622215,
        "time": 0.708068878,
        "traj_len": 2.104665176352334,
        "weighted_distance": 2.736217879777144
    },
    "planner": "KPIECE",
    "start": {
        "state": {
            "elbow_joint": 2.4225746994637096,
            "shoulder_lift_joint": -1.373653595662188,
            "shoulder_pan_joint": -0.3378633848294565,
            "wrist_1_joint": -1.0288595594406726,
            "wrist_2_joint": 1.2330228066703421,
            "wrist_3_joint": 3.189163495502006
        }
    },
    "waypoints": [
        {
            "positions": [
                -0.3378633848294565,
                -1.373653595662188,
                2.4225746994637096,
                -1.0288595594406726,
                1.2330228066703421,
                3.189163495502006
            ]
        },
        {
            "positions": [
                -0.27775874978741677,
                -1.419578634791372,
                2.4011434940717447,
                -0.8987887994744337,
                1.1772465716526306,
                3.1539495806639106
            ]
        },
        {
            "positions": [
                -0.21765411474537708,
                -1.4655036739205558,
                2.3797122886797792,
                -0.7687180395081947,
                1.121470336634919,
                3.118735665825816
            ]
        },
        {
            "positions": [
                -0.15754947970333738,
                -1.5114287130497397,
                2.358281083287814,
                -0.6386472795419558,
                1.0656941016172072,
                3.083521750987721
            ]
        },
        {
            "positions": [
                -0.09744484466129766,
                -1.5573537521789236,
                2.336849877895849,
                -0.5085765195757168,
                1.0099178665994957,
                3.048307836149626
            ]
        },
        {
            "positions": [
                -0.037340209619257936,
                -1.6032787913081077,
                2.315418672503884,
                -0.37850575960947785,
                0.9541416315817841,
                3.0130939213115306
            ]
        },
        {
            "positions": [
                0.02276442542278173,
                -1.6492038304372916,
                2.2939874671119185,
                -0.2484349996432389,
                0.8983653965640724,
                2.977880006473436
            ]
        },
        {
            "positions": [
                0.08286906046482145,
                -1.6951288695664755,
                2.272556261719953,
                -0.11836423967699994,
                0.8425891615463608,
                2.942666091635341
            ]
        },
        {
            "positions": [
                0.1429736955068612,
                -1.7410539086956593,
                2.251125056327988,
                0.011706520289239027,
                0.7868129265286492,
                2.907452176797246
            ]
        },
        {
            "positions": [
                0.2553853308354555,
                -1.7739579466071553,
                2.278897672957754,
                -0.08155176539035144,
                0.771086152916783,
                2.953667065529598
            ]
        },
        {
            "positions": [
                0.3677969661640498,
                -1.8068619845186513,
                2.30667028958752,
                -0.17481005106994194,
                0.7553593793049166,
                2.99988195426195
            ]
        },
        {
            "positions": [
                0.480208601492644,
                -1.8397660224301473,
                2.3344429062172862,
                -0.2680683367495324,
                0.7396326056930503,
                3.046096842994302
            ]
        },
        {
            "positions": [
                0.5926202368212383,
                -1.8726700603416433,
                2.3622155228470523,
                -0.3613266224291229,
                0.723905832081184,
                3.092311731726654
            ]
        },
        {
            "positions": [
                0.7050318721498327,
                -1.9055740982531393,
                2.3899881394768183,
                -0.4545849081087133,
                0.7081790584693177,
                3.138526620459006
            ]
        }
    ]
}