{
    "goal": {
        "global_pose": {
            "orientation": {
                "w": -0.4816463035849501,
                "x": 0.5182115481033762,
                "y": 0.4908360881923453,
                "z": -0.5084816262002911
            },
            "position": {
                "x": -0.8240239810943604,
                "y": -0.300875300988555,
                "z": 0.16403168439865112
            }
        },
        "name": "move_to_storage_C"
    },
    "id": "KPIECE_move_to_storage_C_23",
    "joint_names": [
        "shoulder_pan_joint",
        "shoulder_lift_joint",
        "elbow_joint",
        "wrist_1_joint",
        "wrist_2_joint",
        "wrist_3_joint"
    ],
    "metrics": {
        "cart_traj_len": 0.5758978775308351,
        "distance_elbow_joint": 0.2605201328995639,
        "distance_shoulder_lift_joint": 0.1895163643048845,
        "distance_shoulder_pan_joint": 0.4924920458819071,
        "distance_wrist_1_joint": 0.0859975474112421,
        "distance_wrist_2_joint": 1.0762540240299796,
        "distance_wrist_3_joint": 0.07096760190043527,
        "smoothness": 0.0,
        "time": 0.010980212999999999,
        "traj_len": 1.4750415982025769,
        "weighted_distance": 1.8654582524597287
    },
    "planner": "KPIECE",
    "start": {
        "state": {
            "elbow_joint": 2.0108683149792914,
            "shoulder_lift_joint": -1.1634956873317392,
            "shoulder_pan_joint": -2.4736205022346,
            "wrist_1_joint": -0.8367026793690192,
            "wrist_2_joint": 0.6746043897045053,
            "wrist_3_joint": 3.133522094754363
        }
    },
    "waypoints": [
        {
            "positions": [
                -2.4736205022346,
                -1.1634956873317392,
                2.0108683149792914,
                -0.8367026793690192,
                0.6746043897045053,
                3.133522094754363
            ]
        },
        {
            "positions": [
                -2.5557025098815846,
                -1.1319096266142585,
                1.9674482928293642,
                -0.8223697548004789,
                0.8539800603761686,
                3.145350028404436
            ]
        },
        {
            "positions": [
                -2.6377845175285692,
                -1.1003235658967778,
                1.9240282706794367,
                -0.8080368302319385,
                1.0333557310478318,
                3.1571779620545084
            ]
        },
        {
            "positions": [
                -2.7198665251755534,
                -1.068737505179297,
                1.8806082485295095,
                -0.7937039056633981,
                1.2127314017194952,
                3.169005895704581
            ]
        },
        {
            "positions": [
                -2.801948532822538,
                -1.0371514444618162,
                1.8371882263795822,
                -0.7793709810948578,
                1.3921070723911584,
                3.180833829354653
            ]
        },
        {
            "positions": [
                -2.8840305404695226,
                -1.0055653837443355,
                1.7937682042296548,
                -0.7650380565263175,
                1.5714827430628215,
                3.192661763004726
            ]
        },
        {
            "positions": [
                -2.966112548116507,
                -0.9739793230268547,
                1.7503481820797275,
                -0.7507051319577771,
                1.750858413734485,
                3.2044896966547984
            ]
        }
    ]
}