{
    "goal": {
        "global_pose": {
            "orientation": {
                "w": 0.7047431493862688,
                "x": -0.7094548369677653,
                "y": 0.0024358444001904,
                "z": -0.0022348060817251984
            },
            "position": {
                "x": -0.39052492380142206,
                "y": 0.3671506643295288,
                "z": 0.19426114857196808
            }
        },
        "name": "move_to_magneteinheit_D"
    },
    "id": "KPIECE_move_to_magneteinheit_D_113",
    "joint_names": [
        "shoulder_pan_joint",
        "shoulder_lift_joint",
        "elbow_joint",
        "wrist_1_joint",
        "wrist_2_joint",
        "wrist_3_joint"
    ],
    "metrics": {
        "cart_traj_len": 6.749484736687329,
        "distance_elbow_joint": 3.512060440583376,
        "distance_shoulder_lift_joint": 2.8686079979742813,
        "distance_shoulder_pan_joint": 8.638421547002043,
        "distance_wrist_1_joint": 5.616773579849205,
        "distance_wrist_2_joint": 5.790057339981582,
        "distance_wrist_3_joint": 4.762188868034807,
        "smoothness": 0.47377576153278145,
        "time": 0.322820889,
        "traj_len": 5.584631570070248,
        "weighted_distance": 7.219371054969101
    },
    "planner": "KPIECE",
    "start": {
        "state": {
            "elbow_joint": 0.7495348899011911,
            "shoulder_lift_joint": -0.6476975780737668,
            "shoulder_pan_joint": -2.711696901376276,
            "wrist_1_joint": -0.0750647808097303,
            "wrist_2_joint": 0.43296659715458535,
            "wrist_3_joint": 3.1361499051832418
        }
    },
    "waypoints": [
        {
            "positions": [
                -2.711696901376276,
                -0.6476975780737668,
                0.7495348899011911,
                -0.0750647808097303,
                0.43296659715458535,
                3.1361499051832418
            ]
        },
        {
            "positions": [
                -2.7161824003636665,
                -0.6374006892030428,
                0.6860524818591712,
                0.07501260363453706,
                0.5452635680103439,
                3.1240039581689465
            ]
        },
        {
            "positions": [
                -2.720667899351057,
                -0.6271038003323188,
                0.6225700738171515,
                0.22508998807880443,
                0.6575605388661026,
                3.1118580111546517
            ]
        },
        {
            "positions": [
                -2.7251533983384473,
                -0.6168069114615948,
                0.5590876657751316,
                0.3751673725230718,
                0.7698575097218612,
                3.0997120641403564
            ]
        },
        {
            "positions": [
                -2.726664917150993,
                -0.6166806800870676,
                0.52451482115829,
                0.4807016466907451,
                0.8417669729536659,
                3.0752991986848377
            ]
        },
        {
            "positions": [
                -2.7281764359635385,
                -0.6165544487125403,
                0.48994197654144833,
                0.5862359208584185,
                0.9136764361854706,
                3.0508863332293195
            ]
        },
        {
            "positions": [
                -2.622507157369877,
                -0.6601722834938344,
                0.3958465079811738,
                0.5870234818494334,
                0.8977295539373642,
                2.929683562063166
            ]
        },
        {
            "positions": [
                -2.5168378787762147,
                -0.7037901182751284,
                0.3017510394208993,
                0.5878110428404484,
                0.8817826716892578,
                2.8084807908970126
            ]
        },
        {
            "positions": [
                -2.411168600182553,
                -0.7474079530564225,
                0.20765557086062486,
                0.5885986038314633,
                0.8658357894411515,
                2.687278019730859
            ]
        },
        {
            "positions": [
                -2.305499321588891,
                -0.7910257878377165,
                0.1135601023003503,
                0.5893861648224783,
                0.8498889071930451,
                2.5660752485647054
            ]
        },
        {
            "positions": [
                -2.199830042995229,
                -0.8346436226190106,
                0.019464633740075843,
                0.5901737258134933,
                0.8339420249449387,
                2.444872477398552
            ]
        },
        {
            "positions": [
                -2.0941607644015674,
                -0.8782614574003047,
                -0.07463083482019861,
                0.5909612868045082,
                0.8179951426968324,
                2.3236697062323985
            ]
        },
        {
            "positions": [
                -1.9884914858079052,
                -0.9218792921815987,
                -0.16872630338047312,
                0.5917488477955232,
                0.802048260448726,
                2.202466935066245
            ]
        },
        {
            "positions": [
                -1.8828222072142435,
                -0.9654971269628928,
                -0.26282177194074774,
                0.5925364087865381,
                0.7861013782006196,
                2.0812641639000913
            ]
        },
        {
            "positions": [
                -1.7771529286205814,
                -1.0091149617441868,
                -0.35691724050102214,
                0.5933239697775531,
                0.7701544959525133,
                1.9600613927339379
            ]
        },
        {
            "positions": [
                -1.6714836500269197,
                -1.052732796525481,
                -0.45101270906129665,
                0.594111530768568,
                0.7542076137044069,
                1.8388586215677845
            ]
        },
        {
            "positions": [
                -1.5658143714332577,
                -1.096350631306775,
                -0.5451081776215712,
                0.5948990917595829,
                0.7382607314563006,
                1.7176558504016308
            ]
        },
        {
            "positions": [
                -1.460145092839596,
                -1.1399684660880691,
                -0.6392036461818456,
                0.5956866527505978,
                0.7223138492081942,
                1.5964530792354774
            ]
        },
        {
            "positions": [
                -1.3544758142459339,
                -1.1835863008693632,
                -0.7332991147421202,
                0.5964742137416128,
                0.7063669669600878,
                1.475250308069324
            ]
        },
        {
            "positions": [
                -1.2488065356522722,
                -1.2272041356506571,
                -0.8273945833023946,
                0.5972617747326278,
                0.6904200847119815,
                1.3540475369031706
            ]
        },
        {
            "positions": [
                -1.1431372570586102,
                -1.2708219704319512,
                -0.9214900518626692,
                0.5980493357236427,
                0.6744732024638751,
                1.232844765737017
            ]
        },
        {
            "positions": [
                -1.0374679784649483,
                -1.3144398052132453,
                -1.0155855204229438,
                0.5988368967146577,
                0.6585263202157687,
                1.1116419945708633
            ]
        },
        {
            "positions": [
                -0.9317986998712866,
                -1.3580576399945392,
                -1.109680988983218,
                0.5996244577056726,
                0.6425794379676624,
                0.9904392234047101
            ]
        },
        {
            "positions": [
                -0.8261294212776245,
                -1.4016754747758333,
                -1.2037764575434926,
                0.6004120186966876,
                0.626632555719556,
                0.8692364522385563
            ]
        },
        {
            "positions": [
                -0.720460142683963,
                -1.4452933095571274,
                -1.297871926103767,
                0.6011995796877025,
                0.6106856734714496,
                0.7480336810724029
            ]
        },
        {
            "positions": [
                -0.6147908640903008,
                -1.4889111443384215,
                -1.3919673946640416,
                0.6019871406787175,
                0.5947387912233433,
                0.6268309099062497
            ]
        },
        {
            "positions": [
                -0.4863082548824322,
                -1.4670800263384411,
                -1.4358574663489676,
                0.5263915847969131,
                0.6794029222224145,
                0.6580590889805654
            ]
        },
        {
            "positions": [
                -0.35782564567456354,
                -1.4452489083384608,
                -1.4797475380338936,
                0.4507960289151086,
                0.7640670532214857,
                0.6892872680548812
            ]
        },
        {
            "positions": [
                -0.22934303646669496,
                -1.4234177903384806,
                -1.5236376097188196,
                0.3752004730333042,
                0.8487311842205569,
                0.7205154471291969
            ]
        },
        {
            "positions": [
                -0.10086042725882627,
                -1.4015866723385002,
                -1.5675276814037455,
                0.2996049171514998,
                0.933395315219628,
                0.7517436262035126
            ]
        },
        {
            "positions": [
                0.027622181949042313,
                -1.3797555543385198,
                -1.6114177530886717,
                0.2240093612696954,
                1.0180594462186994,
                0.7829718052778283
            ]
        },
        {
            "positions": [
                0.1561047911569109,
                -1.3579244363385394,
                -1.6553078247735975,
                0.14841380538789095,
                1.1027235772177706,
                0.814199984352144
            ]
        },
        {
            "positions": [
                0.2845874003647796,
                -1.336093318338559,
                -1.6991978964585237,
                0.07281824950608651,
                1.1873877082168418,
                0.8454281634264598
            ]
        },
        {
            "positions": [
                0.4130700095726483,
                -1.3142622003385789,
                -1.7430879681434497,
                -0.002777306375717936,
                1.2720518392159128,
                0.8766563425007755
            ]
        },
        {
            "positions": [
                0.5415526187805169,
                -1.2924310823385985,
                -1.7869780398283757,
                -0.07837286225752227,
                1.356715970214984,
                0.9078845215750913
            ]
        },
        {
            "positions": [
                0.6700352279883854,
                -1.270599964338618,
                -1.8308681115133016,
                -0.1539684181393267,
                1.4413801012140552,
                0.9391127006494069
            ]
        },
        {
            "positions": [
                0.798517837196254,
                -1.2487688463386377,
                -1.8747581831982276,
                -0.22956397402113116,
                1.5260442322131265,
                0.9703408797237227
            ]
        },
        {
            "positions": [
                0.9270004464041226,
                -1.2269377283386573,
                -1.9186482548831536,
                -0.3051595299029356,
                1.6107083632121977,
                1.0015690587980384
            ]
        },
        {
            "positions": [
                1.0554830556119912,
                -1.2051066103386772,
                -1.9625383265680796,
                -0.38075508578474004,
                1.695372494211269,
                1.0327972378723542
            ]
        },
        {
            "positions": [
                1.18396566481986,
                -1.1832754923386968,
                -2.006428398253006,
                -0.4563506416665445,
                1.7800366252103401,
                1.0640254169466699
            ]
        },
        {
            "positions": [
                1.3124482740277288,
                -1.1614443743387164,
                -2.050318469937932,
                -0.5319461975483489,
                1.8647007562094113,
                1.0952535960209857
            ]
        },
        {
            "positions": [
                1.4409308832355974,
                -1.139613256338736,
                -2.0942085416228577,
                -0.6075417534301534,
                1.9493648872084823,
                1.1264817750953013
            ]
        },
        {
            "positions": [
                1.569413492443466,
                -1.1177821383387556,
                -2.1380986133077835,
                -0.6831373093119578,
                2.034029018207554,
                1.1577099541696172
            ]
        },
        {
            "positions": [
                1.6978961016513345,
                -1.0959510203387755,
                -2.1819886849927097,
                -0.758732865193762,
                2.1186931492066248,
                1.1889381332439328
            ]
        },
        {
            "positions": [
                1.8263787108592031,
                -1.0741199023387948,
                -2.225878756677636,
                -0.8343284210755667,
                2.2033572802056964,
                1.2201663123182485
            ]
        },
        {
            "positions": [
                1.9548613200670717,
                -1.0522887843388147,
                -2.2697688283625617,
                -0.9099239769573709,
                2.288021411204767,
                1.2513944913925643
            ]
        },
        {
            "positions": [
                2.0833439292749403,
                -1.0304576663388343,
                -2.313658900047488,
                -0.9855195328391756,
                2.372685542203839,
                1.2826226704668802
            ]
        },
        {
            "positions": [
                2.211826538482809,
                -1.008626548338854,
                -2.3575489717324136,
                -1.06111508872098,
                2.4573496732029096,
                1.3138508495411956
            ]
        },
        {
            "positions": [
                2.340309147690678,
                -0.9867954303388735,
                -2.40143904341734,
                -1.1367106446027844,
                2.542013804201981,
                1.3450790286155114
            ]
        },
        {
            "positions": [
                2.468791756898546,
                -0.9649643123388932,
                -2.4453291151022656,
                -1.2123062004845888,
                2.626677935201052,
                1.3763072076898273
            ]
        },
        {
            "positions": [
                2.597274366106415,
                -0.9431331943389129,
                -2.489219186787192,
                -1.2879017563663933,
                2.7113420662001233,
                1.407535386764143
            ]
        },
        {
            "positions": [
                2.725756975314283,
                -0.9213020763389326,
                -2.533109258472118,
                -1.3634973122481977,
                2.7960061971991945,
                1.4387635658384585
            ]
        },
        {
            "positions": [
                2.854239584522152,
                -0.8994709583389522,
                -2.5769993301570437,
                -1.4390928681300021,
                2.8806703281982657,
                1.4699917449127744
            ]
        },
        {
            "positions": [
                2.7529220514578494,
                -0.945326557905209,
                -2.5708151228062057,
                -1.3424714798116009,
                2.790521050897811,
                1.4230014436543983
            ]
        },
        {
            "positions": [
                2.6516045183935466,
                -0.9911821574714659,
                -2.5646309154553673,
                -1.2458500914931996,
                2.700371773597356,
                1.376011142396022
            ]
        },
        {
            "positions": [
                2.550286985329244,
                -1.0370377570377227,
                -2.5584467081045292,
                -1.1492287031747985,
                2.610222496296901,
                1.3290208411376458
            ]
        },
        {
            "positions": [
                2.448969452264941,
                -1.0828933566039796,
                -2.552262500753691,
                -1.0526073148563972,
                2.520073218996446,
                1.2820305398792697
            ]
        },
        {
            "positions": [
                2.347651919200638,
                -1.1287489561702364,
                -2.546078293402853,
                -0.9559859265379961,
                2.429923941695991,
                1.2350402386208934
            ]
        },
        {
            "positions": [
                2.246334386136335,
                -1.1746045557364932,
                -2.5398940860520147,
                -0.8593645382195948,
                2.339774664395536,
                1.1880499373625173
            ]
        },
        {
            "positions": [
                2.145016853072032,
                -1.2204601553027503,
                -2.5337098787011767,
                -0.7627431499011936,
                2.2496253870950813,
                1.1410596361041412
            ]
        },
        {
            "positions": [
                2.0436993200077294,
                -1.266315754869007,
                -2.5275256713503387,
                -0.6661217615827923,
                2.1594761097946265,
                1.0940693348457649
            ]
        },
        {
            "positions": [
                1.9423817869434266,
                -1.312171354435264,
                -2.5213414639995007,
                -0.5695003732643912,
                2.0693268324941716,
                1.0470790335873887
            ]
        },
        {
            "positions": [
                1.8410642538791238,
                -1.3580269540015206,
                -2.515157256648662,
                -0.47287898494599,
                1.9791775551937167,
                1.0000887323290126
            ]
        },
        {
            "positions": [
                1.739746720814821,
                -1.4038825535677777,
                -2.508973049297824,
                -0.37625759662758873,
                1.8890282778932619,
                0.9530984310706364
            ]
        },
        {
            "positions": [
                1.638429187750518,
                -1.4497381531340345,
                -2.502788841946986,
                -0.27963620830918745,
                1.7988790005928068,
                0.9061081298122602
            ]
        },
        {
            "positions": [
                1.5371116546862151,
                -1.4955937527002914,
                -2.496604634596148,
                -0.18301481999078617,
                1.7087297232923517,
                0.859117828553884
            ]
        },
        {
            "positions": [
                1.4357941216219123,
                -1.5414493522665482,
                -2.4904204272453097,
                -0.08639343167238511,
                1.6185804459918969,
                0.8121275272955079
            ]
        },
        {
            "positions": [
                1.3344765885576095,
                -1.587304951832805,
                -2.4842362198944716,
                0.010227956646016167,
                1.528431168691442,
                0.7651372260371316
            ]
        },
        {
            "positions": [
                1.2331590554933067,
                -1.633160551399062,
                -2.4780520125436336,
                0.10684934496441745,
                1.4382818913909872,
                0.7181469247787554
            ]
        },
        {
            "positions": [
                1.131841522429004,
                -1.6790161509653188,
                -2.471867805192795,
                0.2034707332828185,
                1.3481326140905323,
                0.6711566235203793
            ]
        },
        {
            "positions": [
                1.0305239893647011,
                -1.7248717505315756,
                -2.465683597841957,
                0.3000921216012198,
                1.2579833367900772,
                0.6241663222620031
            ]
        },
        {
            "positions": [
                0.9292064563003983,
                -1.7707273500978324,
                -2.459499390491119,
                0.39671350991962107,
                1.1678340594896224,
                0.577176021003627
            ]
        },
        {
            "positions": [
                0.8278889232360953,
                -1.8165829496640893,
                -2.453315183140281,
                0.4933348982380221,
                1.0776847821891675,
                0.5301857197452507
            ]
        },
        {
            "positions": [
                0.7265713901717925,
                -1.8624385492303461,
                -2.4471309757894426,
                0.5899562865564234,
                0.9875355048887127,
                0.48319541848687464
            ]
        },
        {
            "positions": [
                0.6252538571074897,
                -1.908294148796603,
                -2.4409467684386046,
                0.6865776748748247,
                0.8973862275882578,
                0.4362051172284984
            ]
        },
        {
            "positions": [
                0.5239363240431865,
                -1.95414974836286,
                -2.4347625610877666,
                0.783199063193226,
                0.8072369502878027,
                0.3892148159701221
            ]
        },
        {
            "positions": [
                0.42261879097888366,
                -2.000005347929117,
                -2.4285783537369285,
                0.8798204515116272,
                0.7170876729873479,
                0.342224514711746
            ]
        },
        {
            "positions": [
                0.32130125791458086,
                -2.045860947495374,
                -2.42239414638609,
                0.9764418398300285,
                0.6269383956868926,
                0.29523421345336964
            ]
        },
        {
            "positions": [
                0.21998372485027806,
                -2.0917165470616306,
                -2.416209939035252,
                1.0730632281484298,
                0.5367891183864377,
                0.24824391219499353
            ]
        },
        {
            "positions": [
                0.11866619178597526,
                -2.137572146627887,
                -2.410025731684414,
                1.169684616466831,
                0.44663984108598287,
                0.20125361093661742
            ]
        },
        {
            "positions": [
                0.01734865872167246,
                -2.1834277461941443,
                -2.4038415243335756,
                1.266306004785232,
                0.356490563785528,
                0.1542633096782413
            ]
        },
        {
            "positions": [
                -0.08396887434263034,
                -2.2292833457604013,
                -2.3976573169827375,
                1.3629273931036332,
                0.26634128648507316,
                0.10727300841986498
            ]
        },
        {
            "positions": [
                -0.18528640740693322,
                -2.275138945326658,
                -2.3914731096318995,
                1.4595487814220347,
                0.17619200918461825,
                0.060282707161488806
            ]
        }
    ]
}