{
    "goal": {
        "global_pose": {
            "orientation": {
                "w": 0.7047431493862688,
                "x": -0.7094548369677653,
                "y": 0.0024358444001904,
                "z": -0.0022348060817251984
            },
            "position": {
                "x": -0.39052492380142206,
                "y": 0.3671506643295288,
                "z": 0.19426114857196808
            }
        },
        "name": "move_to_magneteinheit_D"
    },
    "id": "KPIECE_move_to_magneteinheit_D_15",
    "joint_names": [
        "shoulder_pan_joint",
        "shoulder_lift_joint",
        "elbow_joint",
        "wrist_1_joint",
        "wrist_2_joint",
        "wrist_3_joint"
    ],
    "metrics": {
        "cart_traj_len": 4.348654207334338,
        "distance_elbow_joint": 3.402464955394405,
        "distance_shoulder_lift_joint": 1.3253312609695251,
        "distance_shoulder_pan_joint": 3.6385830565926875,
        "distance_wrist_1_joint": 3.1050723807374685,
        "distance_wrist_2_joint": 1.4613432403900477,
        "distance_wrist_3_joint": 1.5153719021720522,
        "smoothness": 0.6369668346240582,
        "time": 0.28353488699999996,
        "traj_len": 3.8010744265610197,
        "weighted_distance": 4.695245065140669
    },
    "planner": "KPIECE",
    "start": {
        "state": {
            "elbow_joint": 0.7495348899011911,
            "shoulder_lift_joint": -0.6476975780737668,
            "shoulder_pan_joint": -2.711696901376276,
            "wrist_1_joint": -0.0750647808097303,
            "wrist_2_joint": 0.43296659715458535,
            "wrist_3_joint": 3.1361499051832418
        }
    },
    "waypoints": [
        {
            "positions": [
                -2.711696901376276,
                -0.6476975780737668,
                0.7495348899011911,
                -0.0750647808097303,
                0.43296659715458535,
                3.1361499051832418
            ]
        },
        {
            "positions": [
                -2.686334855189897,
                -0.7162287849035578,
                0.6333521465058631,
                -0.20571492305680772,
                0.4558921030502617,
                3.123425920087192
            ]
        },
        {
            "positions": [
                -2.5506840102719774,
                -0.764940170665646,
                0.5390639440627474,
                -0.23581431148450888,
                0.4773938720799807,
                3.0616531543560415
            ]
        },
        {
            "positions": [
                -2.415033165354058,
                -0.8136515564277343,
                0.44477574161963174,
                -0.26591369991221003,
                0.4988956411096997,
                2.9998803886248906
            ]
        },
        {
            "positions": [
                -2.2793823204361385,
                -0.8623629421898226,
                0.35048753917651604,
                -0.29601308833991113,
                0.5203974101394188,
                2.93810762289374
            ]
        },
        {
            "positions": [
                -2.1437314755182193,
                -0.9110743279519108,
                0.25619933673340034,
                -0.3261124767676123,
                0.5418991791691378,
                2.8763348571625893
            ]
        },
        {
            "positions": [
                -2.0080806306002996,
                -0.9597857137139991,
                0.16191113429028464,
                -0.35621186519531345,
                0.5634009481988568,
                2.814562091431439
            ]
        },
        {
            "positions": [
                -1.8724297856823804,
                -1.0084970994760873,
                0.06762293184716894,
                -0.3863112536230146,
                0.5849027172285758,
                2.752789325700288
            ]
        },
        {
            "positions": [
                -1.7367789407644607,
                -1.0572084852381756,
                -0.02666527059594681,
                -0.41641064205071576,
                0.6064044862582948,
                2.6910165599691376
            ]
        },
        {
            "positions": [
                -1.6011280958465415,
                -1.1059198710002638,
                -0.12095347303906245,
                -0.44651003047841686,
                0.6279062552880138,
                2.629243794237987
            ]
        },
        {
            "positions": [
                -1.4654772509286218,
                -1.154631256762352,
                -0.2152416754821782,
                -0.4766094189061181,
                0.6494080243177328,
                2.5674710285068363
            ]
        },
        {
            "positions": [
                -1.3298264060107023,
                -1.2033426425244405,
                -0.30952987792529385,
                -0.5067088073338193,
                0.6709097933474518,
                2.505698262775686
            ]
        },
        {
            "positions": [
                -1.1941755610927829,
                -1.2520540282865285,
                -0.4038180803684095,
                -0.5368081957615203,
                0.6924115623771708,
                2.4439254970445354
            ]
        },
        {
            "positions": [
                -1.0585247161748634,
                -1.300765414048617,
                -0.49810628281152525,
                -0.5669075841892215,
                0.7139133314068898,
                2.3821527313133846
            ]
        },
        {
            "positions": [
                -0.9832927291632526,
                -1.2947675120120932,
                -0.603863391325645,
                -0.6778967903116092,
                0.6595776010004502,
                2.4059942080292807
            ]
        },
        {
            "positions": [
                -0.9080607421516419,
                -1.2887696099755692,
                -0.7096204998397649,
                -0.7888859964339968,
                0.6052418705940105,
                2.429835684745177
            ]
        },
        {
            "positions": [
                -0.8328287551400311,
                -1.2827717079390455,
                -0.8153776083538848,
                -0.8998752025563845,
                0.5509061401875708,
                2.4536771614610733
            ]
        },
        {
            "positions": [
                -0.7575967681284204,
                -1.2767738059025218,
                -0.9211347168680046,
                -1.0108644086787721,
                0.49657040978113104,
                2.4775186381769694
            ]
        },
        {
            "positions": [
                -0.6823647811168095,
                -1.2707759038659978,
                -1.0268918253821244,
                -1.12185361480116,
                0.44223467937469135,
                2.5013601148928655
            ]
        },
        {
            "positions": [
                -0.6071327941051987,
                -1.264778001829474,
                -1.1326489338962444,
                -1.2328428209235476,
                0.3878989489682516,
                2.525201591608762
            ]
        },
        {
            "positions": [
                -0.531900807093588,
                -1.2587800997929504,
                -1.238406042410364,
                -1.3438320270459352,
                0.3335632185618119,
                2.549043068324658
            ]
        },
        {
            "positions": [
                -0.4566688200819772,
                -1.2527821977564266,
                -1.344163150924484,
                -1.4548212331683228,
                0.27922748815537224,
                2.572884545040554
            ]
        },
        {
            "positions": [
                -0.38143683307036647,
                -1.2467842957199027,
                -1.4499202594386038,
                -1.5658104392907104,
                0.22489175774893255,
                2.5967260217564503
            ]
        },
        {
            "positions": [
                -0.30620484605875564,
                -1.240786393683379,
                -1.5556773679527236,
                -1.6767996454130982,
                0.17055602734249287,
                2.620567498472347
            ]
        },
        {
            "positions": [
                -0.23097285904714482,
                -1.2347884916468552,
                -1.6614344764668436,
                -1.787788851535486,
                0.11622029693605307,
                2.644408975188243
            ]
        },
        {
            "positions": [
                -0.1557408720355341,
                -1.2287905896103313,
                -1.7671915849809634,
                -1.8987780576578734,
                0.06188456652961338,
                2.668250451904139
            ]
        },
        {
            "positions": [
                -0.08050888502392328,
                -1.2227926875738075,
                -1.8729486934950834,
                -2.0097672637802613,
                0.007548836123173697,
                2.6920919286200355
            ]
        },
        {
            "positions": [
                -0.00527689801231257,
                -1.2167947855372838,
                -1.978705802009203,
                -2.120756469902649,
                -0.04678689428326599,
                2.7159334053359316
            ]
        },
        {
            "positions": [
                0.06995508899929836,
                -1.2107968835007599,
                -2.0844629105233228,
                -2.231745676025037,
                -0.10112262468970568,
                2.7397748820518277
            ]
        },
        {
            "positions": [
                0.14518707601090908,
                -1.2047989814642361,
                -2.190220019037443,
                -2.3427348821474245,
                -0.15545835509614536,
                2.763616358767724
            ]
        },
        {
            "positions": [
                0.2204190630225198,
                -1.1988010794277124,
                -2.295977127551563,
                -2.453724088269812,
                -0.20979408550258516,
                2.78745783548362
            ]
        },
        {
            "positions": [
                0.2956510500341305,
                -1.1928031773911885,
                -2.4017342360656824,
                -2.5647132943921997,
                -0.26412981590902473,
                2.8112993121995165
            ]
        },
        {
            "positions": [
                0.37088303704574144,
                -1.1868052753546647,
                -2.5074913445798024,
                -2.6757025005145874,
                -0.31846554631546464,
                2.8351407889154125
            ]
        },
        {
            "positions": [
                0.27821585068396276,
                -1.2798558230714518,
                -2.4832515577609007,
                -2.591630057009152,
                -0.2937959415795667,
                2.8865385673654402
            ]
        },
        {
            "positions": [
                0.1855486643221841,
                -1.372906370788239,
                -2.4590117709419985,
                -2.507557613503717,
                -0.26912633684366866,
                2.9379363458154684
            ]
        },
        {
            "positions": [
                0.09288147796040541,
                -1.465956918505026,
                -2.434771984123097,
                -2.4234851699982816,
                -0.2444567321077707,
                2.989334124265496
            ]
        },
        {
            "positions": [
                0.00021429159862673686,
                -1.5590074662218134,
                -2.410532197304195,
                -2.339412726492846,
                -0.2197871273718727,
                3.0407319027155237
            ]
        },
        {
            "positions": [
                -0.09245289476315194,
                -1.6520580139386005,
                -2.386292410485293,
                -2.255340282987411,
                -0.1951175226359747,
                3.092129681165552
            ]
        },
        {
            "positions": [
                -0.1851200811249306,
                -1.7451085616553876,
                -2.3620526236663912,
                -2.1712678394819758,
                -0.1704479179000767,
                3.1435274596155796
            ]
        }
    ]
}