{
    "goal": {
        "global_pose": {
            "orientation": {
                "w": -0.4816463035849501,
                "x": 0.5182115481033762,
                "y": 0.4908360881923453,
                "z": -0.5084816262002911
            },
            "position": {
                "x": -0.8240239810943604,
                "y": -0.300875300988555,
                "z": 0.16403168439865112
            }
        },
        "name": "move_to_storage_C"
    },
    "id": "KPIECE_move_to_storage_C_137",
    "joint_names": [
        "shoulder_pan_joint",
        "shoulder_lift_joint",
        "elbow_joint",
        "wrist_1_joint",
        "wrist_2_joint",
        "wrist_3_joint"
    ],
    "metrics": {
        "cart_traj_len": 0.5767729733546485,
        "distance_elbow_joint": 0.2599279967394623,
        "distance_shoulder_lift_joint": 0.18951014869506377,
        "distance_shoulder_pan_joint": 0.4937541268686907,
        "distance_wrist_1_joint": 0.08846817454299782,
        "distance_wrist_2_joint": 1.0793522673874527,
        "distance_wrist_3_joint": 0.07570536257975569,
        "smoothness": 5.075305295617109e-16,
        "time": 0.011738326,
        "traj_len": 1.4787555838655093,
        "weighted_distance": 1.87241802060955
    },
    "planner": "KPIECE",
    "start": {
        "state": {
            "elbow_joint": 2.0108683149792914,
            "shoulder_lift_joint": -1.1634956873317392,
            "shoulder_pan_joint": -2.4736205022346,
            "wrist_1_joint": -0.8367026793690192,
            "wrist_2_joint": 0.6746043897045053,
            "wrist_3_joint": 3.133522094754363
        }
    },
    "waypoints": [
        {
            "positions": [
                -2.4736205022346,
                -1.1634956873317392,
                2.0108683149792914,
                -0.8367026793690192,
                0.6746043897045053,
                3.133522094754363
            ]
        },
        {
            "positions": [
                -2.555912856712715,
                -1.1319106625492286,
                1.967546982189381,
                -0.8219579836118529,
                0.8544964342690807,
                3.1461396551843226
            ]
        },
        {
            "positions": [
                -2.6382052111908303,
                -1.1003256377667179,
                1.9242256493994707,
                -0.8072132878546866,
                1.0343884788336561,
                3.1587572156142816
            ]
        },
        {
            "positions": [
                -2.7204975656689454,
                -1.0687406129842074,
                1.8809043166095603,
                -0.7924685920975203,
                1.2142805233982317,
                3.171374776044241
            ]
        },
        {
            "positions": [
                -2.8027899201470605,
                -1.0371555882016967,
                1.8375829838196498,
                -0.777723896340354,
                1.3941725679628072,
                3.1839923364742004
            ]
        },
        {
            "positions": [
                -2.8850822746251756,
                -1.005570563419186,
                1.7942616510297396,
                -0.7629792005831877,
                1.5740646125273825,
                3.1966098969041594
            ]
        },
        {
            "positions": [
                -2.9673746291032908,
                -0.9739855386366755,
                1.750940318239829,
                -0.7482345048260214,
                1.753956657091958,
                3.209227457334119
            ]
        }
    ]
}