{
    "goal": {
        "global_pose": {
            "orientation": {
                "w": 0.7031023480610252,
                "x": -0.7110244013736278,
                "y": 0.0077485991402295624,
                "z": 0.005598929693374583
            },
            "position": {
                "x": -0.8841497679147869,
                "y": 0.44412534475326537,
                "z": 0.3711530566215515
            }
        },
        "name": "move_to_auspresseinheit_D"
    },
    "id": "KPIECE_move_to_auspresseinheit_D_23",
    "joint_names": [
        "shoulder_pan_joint",
        "shoulder_lift_joint",
        "elbow_joint",
        "wrist_1_joint",
        "wrist_2_joint",
        "wrist_3_joint"
    ],
    "metrics": {
        "cart_traj_len": 0.3429523190436909,
        "distance_elbow_joint": 0.6312005984050828,
        "distance_shoulder_lift_joint": 0.11651923579316525,
        "distance_shoulder_pan_joint": 0.13355631644476176,
        "distance_wrist_1_joint": 0.5121266376277398,
        "distance_wrist_2_joint": 1.4309186085353816,
        "distance_wrist_3_joint": 0.024456574730806757,
        "smoothness": 7.894919286223335e-16,
        "time": 0.10261379699999999,
        "traj_len": 1.6878323292131057,
        "weighted_distance": 2.2001673498081167
    },
    "planner": "KPIECE",
    "start": {
        "state": {
            "elbow_joint": -1.8275484843655228,
            "shoulder_lift_joint": -2.1267897864000416,
            "shoulder_pan_joint": -0.035127520176001514,
            "wrist_1_joint": -2.3477863256791385,
            "wrist_2_joint": -1.605890476484521,
            "wrist_3_joint": -3.0880375317375353
        }
    },
    "waypoints": [
        {
            "positions": [
                -0.035127520176001514,
                -2.1267897864000416,
                -1.8275484843655228,
                -2.3477863256791385,
                -1.605890476484521,
                -3.0880375317375353
            ]
        },
        {
            "positions": [
                -0.05182205973159673,
                -2.1413546908741874,
                -1.7486484095648873,
                -2.411802155382606,
                -1.4270256504175982,
                -3.091094603578886
            ]
        },
        {
            "positions": [
                -0.06851659928719195,
                -2.1559195953483328,
                -1.669748334764252,
                -2.4758179850860733,
                -1.2481608243506757,
                -3.094151675420237
            ]
        },
        {
            "positions": [
                -0.08521113884278718,
                -2.1704844998224786,
                -1.5908482599636167,
                -2.539833814789541,
                -1.0692959982837529,
                -3.097208747261588
            ]
        },
        {
            "positions": [
                -0.1019056783983824,
                -2.185049404296624,
                -1.5119481851629812,
                -2.6038496444930086,
                -0.8904311722168302,
                -3.1002658191029386
            ]
        },
        {
            "positions": [
                -0.11860021795397761,
                -2.19961430877077,
                -1.433048110362346,
                -2.667865474196476,
                -0.7115663461499075,
                -3.1033228909442894
            ]
        },
        {
            "positions": [
                -0.13529475750957284,
                -2.2141792132449156,
                -1.3541480355617106,
                -2.7318813038999434,
                -0.5327015200829848,
                -3.10637996278564
            ]
        },
        {
            "positions": [
                -0.15198929706516806,
                -2.228744117719061,
                -1.2752479607610754,
                -2.7958971336034106,
                -0.3538366940160622,
                -3.1094370346269913
            ]
        },
        {
            "positions": [
                -0.16868383662076328,
                -2.243309022193207,
                -1.19634788596044,
                -2.8599129633068783,
                -0.1749718679491395,
                -3.112494106468342
            ]
        }
    ]
}