{
    "goal": {
        "global_pose": {
            "orientation": {
                "w": -0.00223480608172531,
                "x": 0.0024358444001904467,
                "y": 0.7094548369677653,
                "z": -0.704743149386269
            },
            "position": {
                "x": 0.6205249238014221,
                "y": -0.6371506643295288,
                "z": 0.19426114857196808
            }
        },
        "name": "move_to_magneteinheit_B"
    },
    "id": "KPIECE_move_to_magneteinheit_B_90",
    "joint_names": [
        "shoulder_pan_joint",
        "shoulder_lift_joint",
        "elbow_joint",
        "wrist_1_joint",
        "wrist_2_joint",
        "wrist_3_joint"
    ],
    "metrics": {
        "cart_traj_len": 1.4534759428159467,
        "distance_elbow_joint": 0.7253149147220956,
        "distance_shoulder_lift_joint": 1.2436367895769753,
        "distance_shoulder_pan_joint": 1.620046842232302,
        "distance_wrist_1_joint": 2.6254544403108837,
        "distance_wrist_2_joint": 2.944490676151307,
        "distance_wrist_3_joint": 3.144480780511195,
        "smoothness": 1.8840148369936264e-16,
        "time": 0.102468135,
        "traj_len": 3.5076237602549045,
        "weighted_distance": 4.915519415177743
    },
    "planner": "KPIECE",
    "start": {
        "state": {
            "elbow_joint": 2.393587130804639,
            "shoulder_lift_joint": -1.9085141043513325,
            "shoulder_pan_joint": 0.7066247066698809,
            "wrist_1_joint": -0.4678290934590222,
            "wrist_2_joint": 0.7096259084215963,
            "wrist_3_joint": 3.147370379541726
        }
    },
    "waypoints": [
        {
            "positions": [
                0.7066247066698809,
                -1.9085141043513325,
                2.393587130804639,
                -0.4678290934590222,
                0.7096259084215963,
                3.147370379541726
            ]
        },
        {
            "positions": [
                0.6559982428501214,
                -1.869650454677052,
                2.3709210397195735,
                -0.38578364219930705,
                0.617610574791868,
                3.0491053551507514
            ]
        },
        {
            "positions": [
                0.605371779030362,
                -1.8307868050027716,
                2.3482549486345077,
                -0.303738190939592,
                0.5255952411621396,
                2.9508403307597764
            ]
        },
        {
            "positions": [
                0.5547453152106026,
                -1.7919231553284911,
                2.3255888575494423,
                -0.22169273967987685,
                0.4335799075324114,
                2.8525753063688013
            ]
        },
        {
            "positions": [
                0.5041188513908431,
                -1.7530595056542106,
                2.302922766464377,
                -0.13964728842016172,
                0.341564573902683,
                2.7543102819778267
            ]
        },
        {
            "positions": [
                0.4534923875710837,
                -1.7141958559799302,
                2.280256675379311,
                -0.05760183716044659,
                0.24954924027295466,
                2.656045257586852
            ]
        },
        {
            "positions": [
                0.40286592375132424,
                -1.6753322063056497,
                2.257590584294246,
                0.024443614099268485,
                0.15753390664322642,
                2.557780233195877
            ]
        },
        {
            "positions": [
                0.3522394599315648,
                -1.6364685566313693,
                2.2349244932091805,
                0.10648906535898367,
                0.06551857301349806,
                2.459515208804902
            ]
        },
        {
            "positions": [
                0.30161299611180536,
                -1.5976049069570886,
                2.2122584021241147,
                0.18853451661869874,
                -0.026496760616230297,
                2.3612501844139273
            ]
        },
        {
            "positions": [
                0.2509865322920459,
                -1.5587412572828083,
                2.1895923110390494,
                0.2705799678784138,
                -0.11851209424595865,
                2.2629851600229527
            ]
        },
        {
            "positions": [
                0.2003600684722865,
                -1.5198776076085276,
                2.166926219953984,
                0.352625419138129,
                -0.210527427875687,
                2.1647201356319776
            ]
        },
        {
            "positions": [
                0.14973360465252705,
                -1.4810139579342472,
                2.1442601288689183,
                0.4346708703978441,
                -0.30254276150541526,
                2.0664551112410026
            ]
        },
        {
            "positions": [
                0.09910714083276762,
                -1.4421503082599667,
                2.121594037783853,
                0.5167163216575592,
                -0.3945580951351435,
                1.968190086850028
            ]
        },
        {
            "positions": [
                0.04848067701300818,
                -1.4032866585856862,
                2.0989279466987876,
                0.5987617729172743,
                -0.486573428764872,
                1.869925062459053
            ]
        },
        {
            "positions": [
                -0.0021457868067512598,
                -1.3644230089114058,
                2.076261855613722,
                0.6808072241769896,
                -0.5785887623946002,
                1.7716600380680783
            ]
        },
        {
            "positions": [
                -0.0527722506265107,
                -1.3255593592371253,
                2.0535957645286564,
                0.7628526754367047,
                -0.6706040960243287,
                1.6733950136771034
            ]
        },
        {
            "positions": [
                -0.10339871444627013,
                -1.2866957095628448,
                2.030929673443591,
                0.8448981266964197,
                -0.7626194296540569,
                1.5751299892861286
            ]
        },
        {
            "positions": [
                -0.15402517826602957,
                -1.2478320598885644,
                2.0082635823585253,
                0.9269435779561348,
                -0.8546347632837852,
                1.4768649648951537
            ]
        },
        {
            "positions": [
                -0.204651642085789,
                -1.208968410214284,
                1.98559749127346,
                1.0089890292158499,
                -0.9466500969135137,
                1.3785999405041789
            ]
        },
        {
            "positions": [
                -0.25527810590554845,
                -1.1701047605400035,
                1.9629314001883946,
                1.0910344804755652,
                -1.038665430543242,
                1.280334916113204
            ]
        },
        {
            "positions": [
                -0.3059045697253079,
                -1.131241110865723,
                1.940265309103329,
                1.1730799317352802,
                -1.1306807641729704,
                1.1820698917222292
            ]
        },
        {
            "positions": [
                -0.3565310335450672,
                -1.0923774611914423,
                1.9175992180182635,
                1.2551253829949953,
                -1.2226960978026986,
                1.0838048673312541
            ]
        },
        {
            "positions": [
                -0.40715749736482676,
                -1.053513811517162,
                1.8949331269331982,
                1.3371708342547104,
                -1.3147114314324269,
                0.9855398429402795
            ]
        },
        {
            "positions": [
                -0.4577839611845863,
                -1.0146501618428814,
                1.8722670358481326,
                1.4192162855144255,
                -1.406726765062155,
                0.8872748185493049
            ]
        },
        {
            "positions": [
                -0.5084104250043456,
                -0.975786512168601,
                1.849600944763067,
                1.5012617367741405,
                -1.4987420986918834,
                0.7890097941583298
            ]
        },
        {
            "positions": [
                -0.559036888824105,
                -0.9369228624943206,
                1.8269348536780017,
                1.5833071880338558,
                -1.590757432321612,
                0.6907447697673548
            ]
        },
        {
            "positions": [
                -0.6096633526438645,
                -0.89805921282004,
                1.8042687625929361,
                1.6653526392935707,
                -1.6827727659513403,
                0.5924797453763802
            ]
        },
        {
            "positions": [
                -0.6602898164636241,
                -0.8591955631457595,
                1.7816026715078706,
                1.747398090553286,
                -1.7747880995810685,
                0.49421472098540553
            ]
        },
        {
            "positions": [
                -0.7109162802833834,
                -0.820331913471479,
                1.7589365804228052,
                1.8294435418130013,
                -1.8668034332107968,
                0.39594969659443047
            ]
        },
        {
            "positions": [
                -0.7615427441031427,
                -0.7814682637971986,
                1.7362704893377396,
                1.9114889930727161,
                -1.958818766840525,
                0.2976846722034554
            ]
        },
        {
            "positions": [
                -0.8121692079229023,
                -0.7426046141229181,
                1.713604398252674,
                1.9935344443324314,
                -2.0508341004702535,
                0.19941964781248078
            ]
        },
        {
            "positions": [
                -0.8627956717426618,
                -0.7037409644486377,
                1.6909383071676087,
                2.075579895592146,
                -2.1428494340999817,
                0.10115462342150616
            ]
        },
        {
            "positions": [
                -0.913422135562421,
                -0.6648773147743571,
                1.6682722160825432,
                2.1576253468518614,
                -2.2348647677297104,
                0.002889599030531105
            ]
        }
    ]
}