{
    "goal": {
        "global_pose": {
            "orientation": {
                "w": 0.005598929693374612,
                "x": 0.007748599140229565,
                "y": 0.7110244013736278,
                "z": -0.7031023480610252
            },
            "position": {
                "x": -0.8858502320852131,
                "y": -0.7141253447532654,
                "z": 0.3711530566215515
            }
        },
        "name": "move_to_auspresseinheit_C"
    },
    "id": "KPIECE_move_to_auspresseinheit_C_115",
    "joint_names": [
        "shoulder_pan_joint",
        "shoulder_lift_joint",
        "elbow_joint",
        "wrist_1_joint",
        "wrist_2_joint",
        "wrist_3_joint"
    ],
    "metrics": {
        "cart_traj_len": 0.49370483817255734,
        "distance_elbow_joint": 0.9962248442904942,
        "distance_shoulder_lift_joint": 0.32226934828288223,
        "distance_shoulder_pan_joint": 0.2572713501913424,
        "distance_wrist_1_joint": 0.6733439418746494,
        "distance_wrist_2_joint": 1.3015830194315903,
        "distance_wrist_3_joint": 0.054552280248233664,
        "smoothness": 1.291895885757589e-15,
        "time": 1.567302974,
        "traj_len": 1.8987482150930892,
        "weighted_distance": 2.3852203894235644
    },
    "planner": "KPIECE",
    "start": {
        "state": {
            "elbow_joint": 1.7527959577730765,
            "shoulder_lift_joint": -0.9740617694224828,
            "shoulder_pan_joint": -2.967991417825869,
            "wrist_1_joint": -0.7595177689779385,
            "wrist_2_joint": 1.7443932448376545,
            "wrist_3_joint": 3.1991315425061013
        }
    },
    "waypoints": [
        {
            "positions": [
                -2.967991417825869,
                -0.9740617694224828,
                1.7527959577730765,
                -0.7595177689779385,
                1.7443932448376545,
                3.1991315425061013
            ]
        },
        {
            "positions": [
                -2.9422642828067347,
                -0.9418348345941946,
                1.653173473344027,
                -0.6921833747904736,
                1.6142349428944955,
                3.193676314481278
            ]
        },
        {
            "positions": [
                -2.9165371477876008,
                -0.9096078997659064,
                1.5535509889149777,
                -0.6248489806030086,
                1.4840766409513364,
                3.1882210864564544
            ]
        },
        {
            "positions": [
                -2.8908100127684664,
                -0.8773809649376181,
                1.4539285044859283,
                -0.5575145864155437,
                1.3539183390081773,
                3.1827658584316314
            ]
        },
        {
            "positions": [
                -2.865082877749332,
                -0.8451540301093299,
                1.3543060200568788,
                -0.4901801922280788,
                1.2237600370650183,
                3.177310630406808
            ]
        },
        {
            "positions": [
                -2.8393557427301976,
                -0.8129270952810417,
                1.2546835356278294,
                -0.42284579804061384,
                1.0936017351218594,
                3.1718554023819845
            ]
        },
        {
            "positions": [
                -2.8136286077110637,
                -0.7807001604527535,
                1.15506105119878,
                -0.3555114038531489,
                0.9634434331787003,
                3.166400174357161
            ]
        },
        {
            "positions": [
                -2.7879014726919293,
                -0.7484732256244653,
                1.0554385667697306,
                -0.288177009665684,
                0.8332851312355414,
                3.1609449463323376
            ]
        },
        {
            "positions": [
                -2.762174337672795,
                -0.7162462907961771,
                0.9558160823406812,
                -0.22084261547821904,
                0.7031268292923822,
                3.1554897183075146
            ]
        },
        {
            "positions": [
                -2.736447202653661,
                -0.6840193559678888,
                0.8561935979116317,
                -0.15350822129075403,
                0.5729685273492231,
                3.150034490282691
            ]
        },
        {
            "positions": [
                -2.7107200676345267,
                -0.6517924211396006,
                0.7565711134825823,
                -0.0861738271032891,
                0.44281022540606413,
                3.1445792622578677
            ]
        }
    ]
}