{
    "goal": {
        "global_pose": {
            "orientation": {
                "w": 0.005598929693374612,
                "x": 0.007748599140229565,
                "y": 0.7110244013736278,
                "z": -0.7031023480610252
            },
            "position": {
                "x": -0.8858502320852131,
                "y": -0.7141253447532654,
                "z": 0.3711530566215515
            }
        },
        "name": "move_to_auspresseinheit_C"
    },
    "id": "KPIECE_move_to_auspresseinheit_C_139",
    "joint_names": [
        "shoulder_pan_joint",
        "shoulder_lift_joint",
        "elbow_joint",
        "wrist_1_joint",
        "wrist_2_joint",
        "wrist_3_joint"
    ],
    "metrics": {
        "cart_traj_len": 0.4926503773083506,
        "distance_elbow_joint": 0.9916457000425766,
        "distance_shoulder_lift_joint": 0.3205030067252017,
        "distance_shoulder_pan_joint": 0.25688569036409303,
        "distance_wrist_1_joint": 0.6683820067069952,
        "distance_wrist_2_joint": 1.3012940674008655,
        "distance_wrist_3_joint": 0.06290682910599177,
        "smoothness": 3.2297397335745243e-16,
        "time": 1.012095488,
        "traj_len": 1.8977927443073768,
        "weighted_distance": 2.3868613350309165
    },
    "planner": "KPIECE",
    "start": {
        "state": {
            "elbow_joint": 1.7527959577730765,
            "shoulder_lift_joint": -0.9740617694224828,
            "shoulder_pan_joint": -2.967991417825869,
            "wrist_1_joint": -0.7595177689779385,
            "wrist_2_joint": 1.7443932448376545,
            "wrist_3_joint": 3.1991315425061013
        }
    },
    "waypoints": [
        {
            "positions": [
                -2.967991417825869,
                -0.9740617694224828,
                1.7527959577730765,
                -0.7595177689779385,
                1.7443932448376545,
                3.1991315425061013
            ]
        },
        {
            "positions": [
                -2.94230284878946,
                -0.9420114687499627,
                1.653631387768819,
                -0.692679568307239,
                1.614263838097568,
                3.1928408595955022
            ]
        },
        {
            "positions": [
                -2.9166142797530505,
                -0.9099611680774424,
                1.554466817764561,
                -0.6258413676365395,
                1.4841344313574814,
                3.186550176684903
            ]
        },
        {
            "positions": [
                -2.8909257107166413,
                -0.8779108674049223,
                1.4553022477603035,
                -0.55900316696584,
                1.3540050246173947,
                3.1802594937743036
            ]
        },
        {
            "positions": [
                -2.865237141680232,
                -0.8458605667324021,
                1.3561376777560459,
                -0.49216496629514045,
                1.2238756178773083,
                3.1739688108637045
            ]
        },
        {
            "positions": [
                -2.8395485726438228,
                -0.8138102660598819,
                1.2569731077517883,
                -0.42532676562444094,
                1.0937462111372218,
                3.1676781279531054
            ]
        },
        {
            "positions": [
                -2.813860003607413,
                -0.7817599653873618,
                1.1578085377475307,
                -0.35848856495374143,
                0.9636168043971352,
                3.1613874450425064
            ]
        },
        {
            "positions": [
                -2.788171434571004,
                -0.7497096647148416,
                1.058643967743273,
                -0.2916503642830419,
                0.8334873976570487,
                3.1550967621319073
            ]
        },
        {
            "positions": [
                -2.7624828655345945,
                -0.7176593640423214,
                0.9594793977390152,
                -0.22481216361234235,
                0.703357990916962,
                3.1488060792213077
            ]
        },
        {
            "positions": [
                -2.7367942964981853,
                -0.6856090633698013,
                0.8603148277347575,
                -0.1579739629416428,
                0.5732285841768754,
                3.1425153963107086
            ]
        },
        {
            "positions": [
                -2.711105727461776,
                -0.6535587626972811,
                0.7611502577304999,
                -0.09113576227094335,
                0.44309917743678895,
                3.1362247134001096
            ]
        }
    ]
}