{
    "goal": {
        "global_pose": {
            "orientation": {
                "w": -0.4816463035849501,
                "x": 0.5182115481033762,
                "y": 0.4908360881923453,
                "z": -0.5084816262002911
            },
            "position": {
                "x": -0.8240239810943604,
                "y": -0.300875300988555,
                "z": 0.16403168439865112
            }
        },
        "name": "move_to_storage_C"
    },
    "id": "KPIECE_move_to_storage_C_21",
    "joint_names": [
        "shoulder_pan_joint",
        "shoulder_lift_joint",
        "elbow_joint",
        "wrist_1_joint",
        "wrist_2_joint",
        "wrist_3_joint"
    ],
    "metrics": {
        "cart_traj_len": 0.5772561875884382,
        "distance_elbow_joint": 0.26147483286233597,
        "distance_shoulder_lift_joint": 0.19002394242800202,
        "distance_shoulder_pan_joint": 0.4946329401912033,
        "distance_wrist_1_joint": 0.08984186831458696,
        "distance_wrist_2_joint": 1.0720456248328176,
        "distance_wrist_3_joint": 0.06097443384323009,
        "smoothness": 7.612957943425664e-16,
        "time": 0.130216377,
        "traj_len": 1.4727503666515163,
        "weighted_distance": 1.8581792172193836
    },
    "planner": "KPIECE",
    "start": {
        "state": {
            "elbow_joint": 2.0108683149792914,
            "shoulder_lift_joint": -1.1634956873317392,
            "shoulder_pan_joint": -2.4736205022346,
            "wrist_1_joint": -0.8367026793690192,
            "wrist_2_joint": 0.6746043897045053,
            "wrist_3_joint": 3.133522094754363
        }
    },
    "waypoints": [
        {
            "positions": [
                -2.4736205022346,
                -1.1634956873317392,
                2.0108683149792914,
                -0.8367026793690192,
                0.6746043897045053,
                3.133522094754363
            ]
        },
        {
            "positions": [
                -2.5560593255998008,
                -1.1318250302604056,
                1.9672891761689022,
                -0.8217290346499214,
                0.8532786605099749,
                3.1436845003949014
            ]
        },
        {
            "positions": [
                -2.638498148965001,
                -1.100154373189072,
                1.9237100373585128,
                -0.8067553899308235,
                1.0319529313154445,
                3.1538469060354397
            ]
        },
        {
            "positions": [
                -2.7209369723302017,
                -1.0684837161177383,
                1.8801308985481233,
                -0.7917817452117257,
                1.2106272021209141,
                3.1640093116759784
            ]
        },
        {
            "positions": [
                -2.8033757956954024,
                -1.0368130590464046,
                1.836551759737734,
                -0.7768081004926279,
                1.3893014729263837,
                3.1741717173165167
            ]
        },
        {
            "positions": [
                -2.8858146190606027,
                -1.0051424019750708,
                1.7929726209273449,
                -0.76183445577353,
                1.5679757437318533,
                3.184334122957055
            ]
        },
        {
            "positions": [
                -2.9682534424258034,
                -0.9734717449037372,
                1.7493934821169554,
                -0.7468608110544322,
                1.746650014537323,
                3.1944965285975933
            ]
        }
    ]
}