{
    "goal": {
        "global_pose": {
            "orientation": {
                "w": 0.7031023502349854,
                "x": -0.7110244035720825,
                "y": 0.007748599164187908,
                "z": 0.005598929710686207
            },
            "position": {
                "x": 0.11585023208521307,
                "y": 0.44412534475326537,
                "z": 0.3711530566215515
            }
        },
        "name": "move_to_auspresseinheit_A"
    },
    "id": "KPIECE_move_to_auspresseinheit_A_87",
    "joint_names": [
        "shoulder_pan_joint",
        "shoulder_lift_joint",
        "elbow_joint",
        "wrist_1_joint",
        "wrist_2_joint",
        "wrist_3_joint"
    ],
    "metrics": {
        "cart_traj_len": 0.6800241014777862,
        "distance_elbow_joint": 0.03348620159079552,
        "distance_shoulder_lift_joint": 0.5332067116213814,
        "distance_shoulder_pan_joint": 1.0467535125465242,
        "distance_wrist_1_joint": 0.5768411059212202,
        "distance_wrist_2_joint": 0.5162894006716646,
        "distance_wrist_3_joint": 0.10793999434936419,
        "smoothness": 0.13399179533485675,
        "time": 0.528334334,
        "traj_len": 1.677652206716562,
        "weighted_distance": 2.0306470451539735
    },
    "planner": "KPIECE",
    "start": {
        "state": {
            "elbow_joint": 2.4225746994637096,
            "shoulder_lift_joint": -1.373653595662188,
            "shoulder_pan_joint": -0.3378633848294565,
            "wrist_1_joint": -1.0288595594406726,
            "wrist_2_joint": 1.2330228066703421,
            "wrist_3_joint": 3.189163495502006
        }
    },
    "waypoints": [
        {
            "positions": [
                -0.3378633848294565,
                -1.373653595662188,
                2.4225746994637096,
                -1.0288595594406726,
                1.2330228066703421,
                3.189163495502006
            ]
        },
        {
            "positions": [
                -0.21195023797592882,
                -1.455355400080168,
                2.419552177790287,
                -0.9446735523160039,
                1.1622488799903832,
                3.1750957452961055
            ]
        },
        {
            "positions": [
                -0.08603709112240115,
                -1.537057204498148,
                2.416529656116864,
                -0.8604875451913352,
                1.091474953310424,
                3.161027995090205
            ]
        },
        {
            "positions": [
                0.03987605573112657,
                -1.6187590089161281,
                2.4135071344434413,
                -0.7763015380666665,
                1.020701026630465,
                3.146960244884305
            ]
        },
        {
            "positions": [
                0.16578920258465418,
                -1.7004608133341081,
                2.410484612770018,
                -0.6921155309419977,
                0.9499270999505061,
                3.1328924946784045
            ]
        },
        {
            "positions": [
                0.291702349438182,
                -1.7821626177520884,
                2.4074620910965954,
                -0.607929523817329,
                0.8791531732705469,
                3.118824744472504
            ]
        },
        {
            "positions": [
                0.4176154962917096,
                -1.8638644221700684,
                2.4044395694231726,
                -0.5237435166926603,
                0.8083792465905879,
                3.104756994266604
            ]
        },
        {
            "positions": [
                0.5632528120043886,
                -1.885362364726819,
                2.3967640336480436,
                -0.4878809851060564,
                0.7625563262946327,
                3.1165237408235846
            ]
        },
        {
            "positions": [
                0.7088901277170676,
                -1.9068603072835695,
                2.389088497872914,
                -0.45201845351945247,
                0.7167334059986775,
                3.128290487380566
            ]
        }
    ]
}