{
    "goal": {
        "global_pose": {
            "orientation": {
                "w": 0.7047431493862688,
                "x": -0.7094548369677653,
                "y": 0.0024358444001904,
                "z": -0.0022348060817251984
            },
            "position": {
                "x": -0.39052492380142206,
                "y": 0.3671506643295288,
                "z": 0.19426114857196808
            }
        },
        "name": "move_to_magneteinheit_D"
    },
    "id": "KPIECE_move_to_magneteinheit_D_96",
    "joint_names": [
        "shoulder_pan_joint",
        "shoulder_lift_joint",
        "elbow_joint",
        "wrist_1_joint",
        "wrist_2_joint",
        "wrist_3_joint"
    ],
    "metrics": {
        "cart_traj_len": 4.708858218813949,
        "distance_elbow_joint": 3.288162565396231,
        "distance_shoulder_lift_joint": 1.6283259525981528,
        "distance_shoulder_pan_joint": 3.557869201013063,
        "distance_wrist_1_joint": 1.5337511146141682,
        "distance_wrist_2_joint": 0.6122001882895596,
        "distance_wrist_3_joint": 3.4427327968070784,
        "smoothness": 0.6840200134642034,
        "time": 0.620794403,
        "traj_len": 3.7500722417999173,
        "weighted_distance": 4.8056694346611195
    },
    "planner": "KPIECE",
    "start": {
        "state": {
            "elbow_joint": 0.7495348899011911,
            "shoulder_lift_joint": -0.6476975780737668,
            "shoulder_pan_joint": -2.711696901376276,
            "wrist_1_joint": -0.0750647808097303,
            "wrist_2_joint": 0.43296659715458535,
            "wrist_3_joint": 3.1361499051832418
        }
    },
    "waypoints": [
        {
            "positions": [
                -2.711696901376276,
                -0.6476975780737668,
                0.7495348899011911,
                -0.0750647808097303,
                0.43296659715458535,
                3.1361499051832418
            ]
        },
        {
            "positions": [
                -2.794309489580119,
                -0.7587891145454091,
                0.7493095910065172,
                -0.044028616109053696,
                0.421510325637496,
                3.026708069099448
            ]
        },
        {
            "positions": [
                -2.876922077783961,
                -0.8698806510170514,
                0.7490842921118432,
                -0.012992451408377098,
                0.4100540541204067,
                2.917266233015655
            ]
        },
        {
            "positions": [
                -2.7446938978517053,
                -0.9160156700621497,
                0.6654496311537222,
                0.027612380180363508,
                0.4148200924648946,
                2.835626441727566
            ]
        },
        {
            "positions": [
                -2.6124657179194495,
                -0.9621506891072481,
                0.5818149701956014,
                0.06821721176910411,
                0.4195861308093825,
                2.753986650439477
            ]
        },
        {
            "positions": [
                -2.480237537987194,
                -1.0082857081523464,
                0.49818030923748036,
                0.10882204335784472,
                0.42435216915387036,
                2.6723468591513884
            ]
        },
        {
            "positions": [
                -2.3480093580549384,
                -1.0544207271974448,
                0.4145456482793594,
                0.14942687494658533,
                0.4291182074983583,
                2.590707067863299
            ]
        },
        {
            "positions": [
                -2.2157811781226826,
                -1.1005557462425433,
                0.33091098732123847,
                0.19003170653532592,
                0.4338842458428462,
                2.5090672765752102
            ]
        },
        {
            "positions": [
                -2.083552998190427,
                -1.1466907652876415,
                0.24727632636311747,
                0.23063653812406654,
                0.4386502841873341,
                2.4274274852871214
            ]
        },
        {
            "positions": [
                -1.9513248182581713,
                -1.19282578433274,
                0.16364166540499647,
                0.2712413697128071,
                0.443416322531822,
                2.3457876939990325
            ]
        },
        {
            "positions": [
                -1.8190966383259157,
                -1.238960803377838,
                0.08000700444687558,
                0.3118462013015477,
                0.4481823608763099,
                2.2641479027109437
            ]
        },
        {
            "positions": [
                -1.68686845839366,
                -1.2850958224229365,
                -0.003627656511245414,
                0.35245103289028834,
                0.45294839922079777,
                2.1825081114228544
            ]
        },
        {
            "positions": [
                -1.5546402784614044,
                -1.331230841468035,
                -0.0872623174693663,
                0.39305586447902896,
                0.4577144375652857,
                2.1008683201347655
            ]
        },
        {
            "positions": [
                -1.4224120985291486,
                -1.3773658605131334,
                -0.1708969784274873,
                0.4336606960677696,
                0.4624804759097736,
                2.0192285288466767
            ]
        },
        {
            "positions": [
                -1.2901839185968929,
                -1.4235008795582318,
                -0.2545316393856083,
                0.4742655276565102,
                0.4672465142542615,
                1.9375887375585878
            ]
        },
        {
            "positions": [
                -1.1579557386646373,
                -1.46963589860333,
                -0.3381663003437292,
                0.5148703592452507,
                0.4720125525987494,
                1.855948946270499
            ]
        },
        {
            "positions": [
                -1.0257275587323815,
                -1.5157709176484284,
                -0.4218009613018503,
                0.5554751908339913,
                0.4767785909432373,
                1.77430915498241
            ]
        },
        {
            "positions": [
                -0.8934993788001258,
                -1.5619059366935266,
                -0.5054356222599712,
                0.596080022422732,
                0.48154462928772523,
                1.692669363694321
            ]
        },
        {
            "positions": [
                -0.7612711988678704,
                -1.608040955738625,
                -0.5890702832180921,
                0.6366848540114726,
                0.4863106676322131,
                1.6110295724062322
            ]
        },
        {
            "positions": [
                -0.6290430189356147,
                -1.6541759747837235,
                -0.672704944176213,
                0.6772896856002131,
                0.491076705976701,
                1.5293897811181432
            ]
        },
        {
            "positions": [
                -0.4968148390033589,
                -1.700310993828822,
                -0.7563396051343341,
                0.7178945171889538,
                0.4958427443211889,
                1.447749989830054
            ]
        },
        {
            "positions": [
                -0.3645866590711031,
                -1.74644601287392,
                -0.839974266092455,
                0.7584993487776944,
                0.5006087826656768,
                1.3661101985419652
            ]
        },
        {
            "positions": [
                -0.23235847913884777,
                -1.7925810319190185,
                -0.9236089270505758,
                0.7991041803664349,
                0.5053748210101647,
                1.2844704072538764
            ]
        },
        {
            "positions": [
                -0.100130299206592,
                -1.8387160509641167,
                -1.0072435880086967,
                0.8397090119551756,
                0.5101408593546526,
                1.2028306159657876
            ]
        },
        {
            "positions": [
                0.032097880725663774,
                -1.8848510700092151,
                -1.0908782489668178,
                0.8803138435439162,
                0.5149068976991406,
                1.1211908246776985
            ]
        },
        {
            "positions": [
                0.16432606065791958,
                -1.9309860890543136,
                -1.1745129099249387,
                0.9209186751326568,
                0.5196729360436284,
                1.0395510333896096
            ]
        },
        {
            "positions": [
                0.14592871646347433,
                -1.9574504580633405,
                -1.3034765747642485,
                0.9640537017329501,
                0.47840807657809437,
                0.9237188613062479
            ]
        },
        {
            "positions": [
                0.12753137226902908,
                -1.9839148270723672,
                -1.4324402396035585,
                1.0071887283332435,
                0.43714321711256027,
                0.8078866892228862
            ]
        },
        {
            "positions": [
                0.10913402807458383,
                -2.010379196081394,
                -1.5614039044428683,
                1.0503237549335367,
                0.39587835764702617,
                0.6920545171395245
            ]
        },
        {
            "positions": [
                0.0907366838801386,
                -2.036843565090421,
                -1.690367569282178,
                1.09345878153383,
                0.3546134981814921,
                0.5762223450561628
            ]
        },
        {
            "positions": [
                0.07233933968569335,
                -2.0633079340994476,
                -1.819331234121488,
                1.1365938081341231,
                0.3133486387159581,
                0.46039017297280116
            ]
        },
        {
            "positions": [
                0.053941995491248104,
                -2.0897723031084747,
                -1.9482948989607975,
                1.1797288347344166,
                0.272083779250424,
                0.34455800088943944
            ]
        },
        {
            "positions": [
                0.03554465129680287,
                -2.1162366721175014,
                -2.0772585638001075,
                1.2228638613347098,
                0.23081891978488994,
                0.22872582880607784
            ]
        },
        {
            "positions": [
                0.017147307102357623,
                -2.142701041126528,
                -2.2062222286394175,
                1.265998887935003,
                0.18955406031935584,
                0.11289365672271601
            ]
        },
        {
            "positions": [
                -0.0012500370920876247,
                -2.1691654101355553,
                -2.3351858934787275,
                1.3091339145352965,
                0.14828920085382175,
                -0.0029385153606455994
            ]
        },
        {
            "positions": [
                -0.019647381286532872,
                -2.195629779144582,
                -2.464149558318037,
                1.3522689411355897,
                0.10702434138828769,
                -0.11877068744400741
            ]
        },
        {
            "positions": [
                -0.10335860339605588,
                -2.2358266549082506,
                -2.4269104997295354,
                1.405477637470014,
                0.14053442572669692,
                -0.02486458535409322
            ]
        },
        {
            "positions": [
                -0.18706982550557888,
                -2.2760235306719196,
                -2.389671441141034,
                1.458686333804438,
                0.17404451006510616,
                0.06904151673582097
            ]
        }
    ]
}