{
    "goal": {
        "global_pose": {
            "orientation": {
                "w": -0.4816463035849501,
                "x": 0.5182115481033762,
                "y": 0.4908360881923453,
                "z": -0.5084816262002911
            },
            "position": {
                "x": -0.8240239810943604,
                "y": 0.19912469901144506,
                "z": 0.16403168439865112
            }
        },
        "name": "move_to_storage_D"
    },
    "id": "KPIECE_move_to_storage_D_119",
    "joint_names": [
        "shoulder_pan_joint",
        "shoulder_lift_joint",
        "elbow_joint",
        "wrist_1_joint",
        "wrist_2_joint",
        "wrist_3_joint"
    ],
    "metrics": {
        "cart_traj_len": 0.714795490785387,
        "distance_elbow_joint": 1.2402830208889504,
        "distance_shoulder_lift_joint": 0.4528053928794904,
        "distance_shoulder_pan_joint": 0.4915111808749808,
        "distance_wrist_1_joint": 4.034589233536951,
        "distance_wrist_2_joint": 2.2866452933372727,
        "distance_wrist_3_joint": 3.1510678213546504,
        "smoothness": 0.35306695326805576,
        "time": 0.064361076,
        "traj_len": 3.414220546899731,
        "weighted_distance": 4.927501609584295
    },
    "planner": "KPIECE",
    "start": {
        "state": {
            "elbow_joint": -2.384821990628643,
            "shoulder_lift_joint": -2.278805467437664,
            "shoulder_pan_joint": -0.18546946439364564,
            "wrist_1_joint": 1.4845938187801415,
            "wrist_2_joint": 0.178987772454074,
            "wrist_3_joint": 0.03710569632802521
        }
    },
    "waypoints": [
        {
            "positions": [
                -0.18546946439364564,
                -2.278805467437664,
                -2.384821990628643,
                1.4845938187801415,
                0.178987772454074,
                0.03710569632802521
            ]
        },
        {
            "positions": [
                -0.12119687300274896,
                -2.218323559142905,
                -2.453273165829174,
                1.5055799361382614,
                0.230014824517696,
                0.10661166342759457
            ]
        },
        {
            "positions": [
                -0.056924281611852284,
                -2.157841650848147,
                -2.521724341029705,
                1.5265660534963812,
                0.281041876581318,
                0.17611763052716392
            ]
        },
        {
            "positions": [
                0.007348309779044354,
                -2.097359742553388,
                -2.590175516230236,
                1.5475521708545008,
                0.33206892864494003,
                0.24562359762673328
            ]
        },
        {
            "positions": [
                0.07162090116994108,
                -2.03687783425863,
                -2.658626691430767,
                1.5685382882126206,
                0.38309598070856204,
                0.3151295647263026
            ]
        },
        {
            "positions": [
                0.13589349256083771,
                -1.976395925963871,
                -2.727077866631298,
                1.5895244055707405,
                0.43412303277218406,
                0.384635531825872
            ]
        },
        {
            "positions": [
                0.12934933010235702,
                -1.982180381787167,
                -2.692538361058748,
                1.4383836883881884,
                0.35598803150221625,
                0.49246391589728755
            ]
        },
        {
            "positions": [
                0.12280516764387633,
                -1.987964837610463,
                -2.657998855486198,
                1.2872429712056364,
                0.27785303023224844,
                0.600292299968703
            ]
        },
        {
            "positions": [
                0.11626100518539564,
                -1.9937492934337593,
                -2.6234593499136483,
                1.1361022540230845,
                0.19971802896228064,
                0.7081206840401186
            ]
        },
        {
            "positions": [
                0.10971684272691495,
                -1.9995337492570553,
                -2.5889198443410986,
                0.9849615368405324,
                0.12158302769231283,
                0.815949068111534
            ]
        },
        {
            "positions": [
                0.10317268026843426,
                -2.0053182050803513,
                -2.5543803387685484,
                0.8338208196579804,
                0.04344802642234502,
                0.9237774521829496
            ]
        },
        {
            "positions": [
                0.09662851780995357,
                -2.0111026609036475,
                -2.5198408331959987,
                0.6826801024754283,
                -0.03468697484762279,
                1.0316058362543652
            ]
        },
        {
            "positions": [
                0.09008435535147288,
                -2.0168871167269433,
                -2.485301327623449,
                0.5315393852928765,
                -0.11282197611759054,
                1.1394342203257806
            ]
        },
        {
            "positions": [
                0.0835401928929922,
                -2.0226715725502395,
                -2.4507618220508993,
                0.3803986681103244,
                -0.1909569773875584,
                1.2472626043971962
            ]
        },
        {
            "positions": [
                0.0769960304345115,
                -2.028456028373536,
                -2.416222316478349,
                0.22925795092777235,
                -0.26909197865752615,
                1.3550909884686115
            ]
        },
        {
            "positions": [
                0.07045186797603081,
                -2.0342404841968316,
                -2.3816828109057995,
                0.07811723374522028,
                -0.347226979927494,
                1.4629193725400271
            ]
        },
        {
            "positions": [
                0.06390770551755012,
                -2.040024940020128,
                -2.3471433053332498,
                -0.07302348343733156,
                -0.42536198119746177,
                1.5707477566114427
            ]
        },
        {
            "positions": [
                0.05736354305906943,
                -2.0458093958434236,
                -2.3126037997606996,
                -0.22416420061988385,
                -0.5034969824674296,
                1.6785761406828583
            ]
        },
        {
            "positions": [
                0.05081938060058874,
                -2.05159385166672,
                -2.27806429418815,
                -0.3753049178024357,
                -0.5816319837373973,
                1.7864045247542737
            ]
        },
        {
            "positions": [
                0.04427521814210805,
                -2.057378307490016,
                -2.2435247886156002,
                -0.5264456349849875,
                -0.6597669850073651,
                1.894232908825689
            ]
        },
        {
            "positions": [
                0.037731055683627376,
                -2.063162763313312,
                -2.2089852830430505,
                -0.6775863521675394,
                -0.7379019862773328,
                2.0020612928971047
            ]
        },
        {
            "positions": [
                0.031186893225146672,
                -2.068947219136608,
                -2.1744457774705004,
                -0.8287270693500917,
                -0.8160369875473008,
                2.1098896769685203
            ]
        },
        {
            "positions": [
                0.024642730766665982,
                -2.074731674959904,
                -2.1399062718979507,
                -0.979867786532644,
                -0.8941719888172686,
                2.217718061039936
            ]
        },
        {
            "positions": [
                0.018098568308185292,
                -2.0805161307832,
                -2.1053667663254005,
                -1.1310085037151958,
                -0.9723069900872363,
                2.325546445111351
            ]
        },
        {
            "positions": [
                0.011554405849704616,
                -2.0863005866064963,
                -2.070827260752851,
                -1.2821492208977476,
                -1.050441991357204,
                2.4333748291827666
            ]
        },
        {
            "positions": [
                0.005010243391223912,
                -2.092085042429792,
                -2.036287755180301,
                -1.4332899380803,
                -1.128576992627172,
                2.541203213254182
            ]
        },
        {
            "positions": [
                -0.0015339190672567782,
                -2.0978694982530883,
                -2.0017482496077514,
                -1.5844306552628518,
                -1.2067119938971398,
                2.649031597325598
            ]
        },
        {
            "positions": [
                -0.008078081525737468,
                -2.1036539540763846,
                -1.9672087440352013,
                -1.7355713724454036,
                -1.2848469951671075,
                2.7568599813970134
            ]
        },
        {
            "positions": [
                -0.014622243984218158,
                -2.1094384098996803,
                -1.9326692384626516,
                -1.886712089627956,
                -1.3629819964370753,
                2.8646883654684285
            ]
        },
        {
            "positions": [
                -0.02116640644269885,
                -2.1152228657229766,
                -1.8981297328901017,
                -2.037852806810508,
                -1.4411169977070433,
                2.9725167495398446
            ]
        },
        {
            "positions": [
                -0.02771056890117954,
                -2.1210073215462724,
                -1.8635902273175518,
                -2.18899352399306,
                -1.519251998977011,
                3.0803451336112597
            ]
        },
        {
            "positions": [
                -0.03425473135966023,
                -2.1267917773695686,
                -1.829050721745002,
                -2.340134241175612,
                -1.5973870002469788,
                3.1881735176826753
            ]
        }
    ]
}