{
    "goal": {
        "global_pose": {
            "orientation": {
                "w": 0.7031023480610252,
                "x": -0.7110244013736278,
                "y": 0.0077485991402295624,
                "z": 0.005598929693374583
            },
            "position": {
                "x": -0.8841497679147869,
                "y": 0.44412534475326537,
                "z": 0.3711530566215515
            }
        },
        "name": "move_to_auspresseinheit_D"
    },
    "id": "KPIECE_move_to_auspresseinheit_D_60",
    "joint_names": [
        "shoulder_pan_joint",
        "shoulder_lift_joint",
        "elbow_joint",
        "wrist_1_joint",
        "wrist_2_joint",
        "wrist_3_joint"
    ],
    "metrics": {
        "cart_traj_len": 0.34375655451131437,
        "distance_elbow_joint": 0.6559691255234488,
        "distance_shoulder_lift_joint": 0.1317023902228458,
        "distance_shoulder_pan_joint": 0.13389270147062976,
        "distance_wrist_1_joint": 0.5854800583298125,
        "distance_wrist_2_joint": 1.4442915984148537,
        "distance_wrist_3_joint": 0.046436175288420145,
        "smoothness": 3.9474596431116675e-16,
        "time": 0.053566881999999996,
        "traj_len": 1.7314075341322765,
        "weighted_distance": 2.262833634311528
    },
    "planner": "KPIECE",
    "start": {
        "state": {
            "elbow_joint": -1.8275484843655228,
            "shoulder_lift_joint": -2.1267897864000416,
            "shoulder_pan_joint": -0.035127520176001514,
            "wrist_1_joint": -2.3477863256791385,
            "wrist_2_joint": -1.605890476484521,
            "wrist_3_joint": -3.0880375317375353
        }
    },
    "waypoints": [
        {
            "positions": [
                -0.035127520176001514,
                -2.1267897864000416,
                -1.8275484843655228,
                -2.3477863256791385,
                -1.605890476484521,
                -3.0880375317375353
            ]
        },
        {
            "positions": [
                -0.051864107859830234,
                -2.143252585177897,
                -1.7455523436750917,
                -2.420971332970365,
                -1.4253540266826643,
                -3.0822330098264827
            ]
        },
        {
            "positions": [
                -0.06860069554365895,
                -2.159715383955753,
                -1.6635562029846604,
                -2.4941563402615916,
                -1.2448175768808076,
                -3.07642848791543
            ]
        },
        {
            "positions": [
                -0.08533728322748768,
                -2.176178182733609,
                -1.5815600622942294,
                -2.5673413475528184,
                -1.0642811270789507,
                -3.0706239660043777
            ]
        },
        {
            "positions": [
                -0.1020738709113164,
                -2.1926409815114645,
                -1.4995639216037984,
                -2.6405263548440447,
                -0.8837446772770942,
                -3.064819444093325
            ]
        },
        {
            "positions": [
                -0.11881045859514511,
                -2.20910378028932,
                -1.4175677809133673,
                -2.713711362135271,
                -0.7032082274752375,
                -3.0590149221822727
            ]
        },
        {
            "positions": [
                -0.13554704627897385,
                -2.225566579067176,
                -1.3355716402229363,
                -2.786896369426498,
                -0.5226717776733807,
                -3.05321040027122
            ]
        },
        {
            "positions": [
                -0.15228363396280256,
                -2.2420293778450318,
                -1.253575499532505,
                -2.8600813767177247,
                -0.342135327871524,
                -3.0474058783601676
            ]
        },
        {
            "positions": [
                -0.16902022164663127,
                -2.2584921766228874,
                -1.171579358842074,
                -2.933266384008951,
                -0.1615988780696673,
                -3.041601356449115
            ]
        }
    ]
}