{
    "goal": {
        "global_pose": {
            "orientation": {
                "w": 0.7031023480610252,
                "x": -0.7110244013736278,
                "y": 0.0077485991402295624,
                "z": 0.005598929693374583
            },
            "position": {
                "x": -0.8841497679147869,
                "y": 0.44412534475326537,
                "z": 0.3711530566215515
            }
        },
        "name": "move_to_auspresseinheit_D"
    },
    "id": "KPIECE_move_to_auspresseinheit_D_95",
    "joint_names": [
        "shoulder_pan_joint",
        "shoulder_lift_joint",
        "elbow_joint",
        "wrist_1_joint",
        "wrist_2_joint",
        "wrist_3_joint"
    ],
    "metrics": {
        "cart_traj_len": 0.34282968940136715,
        "distance_elbow_joint": 0.6344006923422594,
        "distance_shoulder_lift_joint": 0.11972974581169238,
        "distance_shoulder_pan_joint": 0.13423811045314282,
        "distance_wrist_1_joint": 0.5177950018695241,
        "distance_wrist_2_joint": 1.4416433746012136,
        "distance_wrist_3_joint": 0.007233230088798059,
        "smoothness": 3.9474596431116675e-16,
        "time": 0.101285666,
        "traj_len": 1.6896864073450524,
        "weighted_distance": 2.197486061802205
    },
    "planner": "KPIECE",
    "start": {
        "state": {
            "elbow_joint": -1.8275484843655228,
            "shoulder_lift_joint": -2.1267897864000416,
            "shoulder_pan_joint": -0.035127520176001514,
            "wrist_1_joint": -2.3477863256791385,
            "wrist_2_joint": -1.605890476484521,
            "wrist_3_joint": -3.0880375317375353
        }
    },
    "waypoints": [
        {
            "positions": [
                -0.035127520176001514,
                -2.1267897864000416,
                -1.8275484843655228,
                -2.3477863256791385,
                -1.605890476484521,
                -3.0880375317375353
            ]
        },
        {
            "positions": [
                -0.05190728398264437,
                -2.141756004626503,
                -1.7482483978227403,
                -2.412510700912829,
                -1.4256850546593693,
                -3.088941685498635
            ]
        },
        {
            "positions": [
                -0.06868704778928722,
                -2.1567222228529648,
                -1.668948311279958,
                -2.4772350761465196,
                -1.2454796328342175,
                -3.089845839259735
            ]
        },
        {
            "positions": [
                -0.08546681159593007,
                -2.1716884410794264,
                -1.5896482247371755,
                -2.54195945138021,
                -1.0652742110090658,
                -3.0907499930208346
            ]
        },
        {
            "positions": [
                -0.10224657540257293,
                -2.186654659305888,
                -1.510348138194393,
                -2.6066838266139003,
                -0.8850687891839142,
                -3.0916541467819343
            ]
        },
        {
            "positions": [
                -0.11902633920921578,
                -2.201620877532349,
                -1.4310480516516106,
                -2.671408201847591,
                -0.7048633673587625,
                -3.092558300543034
            ]
        },
        {
            "positions": [
                -0.13580610301585863,
                -2.2165870957588107,
                -1.3517479651088282,
                -2.7361325770812814,
                -0.5246579455336107,
                -3.0934624543041336
            ]
        },
        {
            "positions": [
                -0.15258586682250147,
                -2.2315533139852723,
                -1.2724478785660458,
                -2.8008569523149722,
                -0.344452523708459,
                -3.0943666080652337
            ]
        },
        {
            "positions": [
                -0.16936563062914434,
                -2.246519532211734,
                -1.1931477920232634,
                -2.8655813275486626,
                -0.16424710188330746,
                -3.0952707618263333
            ]
        }
    ]
}