{
    "goal": {
        "global_pose": {
            "orientation": {
                "w": 0.7031023502349854,
                "x": -0.7110244035720825,
                "y": 0.007748599164187908,
                "z": 0.005598929710686207
            },
            "position": {
                "x": 0.11585023208521307,
                "y": 0.44412534475326537,
                "z": 0.3711530566215515
            }
        },
        "name": "move_to_auspresseinheit_A"
    },
    "id": "KPIECE_move_to_auspresseinheit_A_142",
    "joint_names": [
        "shoulder_pan_joint",
        "shoulder_lift_joint",
        "elbow_joint",
        "wrist_1_joint",
        "wrist_2_joint",
        "wrist_3_joint"
    ],
    "metrics": {
        "cart_traj_len": 0.6873923355024957,
        "distance_elbow_joint": 0.03194592007942498,
        "distance_shoulder_lift_joint": 0.5336325016890242,
        "distance_shoulder_pan_joint": 1.0417115365448129,
        "distance_wrist_1_joint": 0.5779123924390148,
        "distance_wrist_2_joint": 0.5280298077977562,
        "distance_wrist_3_joint": 0.061168267491387596,
        "smoothness": 4.934324553889585e-16,
        "time": 0.39681553799999997,
        "traj_len": 1.6656531529827632,
        "weighted_distance": 2.0006696781980193
    },
    "planner": "KPIECE",
    "start": {
        "state": {
            "elbow_joint": 2.4225746994637096,
            "shoulder_lift_joint": -1.373653595662188,
            "shoulder_pan_joint": -0.3378633848294565,
            "wrist_1_joint": -1.0288595594406726,
            "wrist_2_joint": 1.2330228066703421,
            "wrist_3_joint": 3.189163495502006
        }
    },
    "waypoints": [
        {
            "positions": [
                -0.3378633848294565,
                -1.373653595662188,
                2.4225746994637096,
                -1.0288595594406726,
                1.2330228066703421,
                3.189163495502006
            ]
        },
        {
            "positions": [
                -0.20764944276135489,
                -1.440357658373316,
                2.4185814594537813,
                -0.9566205103857958,
                1.1670190806956227,
                3.1815174620655826
            ]
        },
        {
            "positions": [
                -0.07743550069325328,
                -1.5070617210844441,
                2.4145882194438535,
                -0.8843814613309189,
                1.1010153547209032,
                3.173871428629159
            ]
        },
        {
            "positions": [
                0.05277844137484833,
                -1.573765783795572,
                2.410594979433925,
                -0.8121424122760421,
                1.0350116287461835,
                3.1662253951927353
            ]
        },
        {
            "positions": [
                0.18299238344294994,
                -1.6404698465067002,
                2.406601739423997,
                -0.7399033632211652,
                0.969007902771464,
                3.158579361756312
            ]
        },
        {
            "positions": [
                0.3132063255110516,
                -1.7071739092178282,
                2.402608499414069,
                -0.6676643141662884,
                0.9030041767967445,
                3.150933328319889
            ]
        },
        {
            "positions": [
                0.44342026757915315,
                -1.7738779719289561,
                2.3986152594041408,
                -0.5954252651114116,
                0.837000450822025,
                3.143287294883465
            ]
        },
        {
            "positions": [
                0.5736342096472546,
                -1.840582034640084,
                2.394622019394213,
                -0.5231862160565347,
                0.7709967248473055,
                3.1356412614470415
            ]
        },
        {
            "positions": [
                0.7038481517153563,
                -1.9072860973512122,
                2.3906287793842846,
                -0.4509471670016579,
                0.7049929988725859,
                3.1279952280106182
            ]
        }
    ]
}