{
    "goal": {
        "global_pose": {
            "orientation": {
                "w": -0.4816463035849501,
                "x": 0.5182115481033762,
                "y": 0.4908360881923453,
                "z": -0.5084816262002911
            },
            "position": {
                "x": -0.8240239810943604,
                "y": 0.19912469901144506,
                "z": 0.16403168439865112
            }
        },
        "name": "move_to_storage_D"
    },
    "id": "KPIECE_move_to_storage_D_53",
    "joint_names": [
        "shoulder_pan_joint",
        "shoulder_lift_joint",
        "elbow_joint",
        "wrist_1_joint",
        "wrist_2_joint",
        "wrist_3_joint"
    ],
    "metrics": {
        "cart_traj_len": 0.8768195567642985,
        "distance_elbow_joint": 0.5563026908777065,
        "distance_shoulder_lift_joint": 0.25338423605564087,
        "distance_shoulder_pan_joint": 0.8779808882628728,
        "distance_wrist_1_joint": 4.982520934689314,
        "distance_wrist_2_joint": 1.7735905095842839,
        "distance_wrist_3_joint": 3.1503183878948895,
        "smoothness": 0.32057097243860494,
        "time": 0.113787222,
        "traj_len": 3.405010667731411,
        "weighted_distance": 4.964961819332359
    },
    "planner": "KPIECE",
    "start": {
        "state": {
            "elbow_joint": -2.384821990628643,
            "shoulder_lift_joint": -2.278805467437664,
            "shoulder_pan_joint": -0.18546946439364564,
            "wrist_1_joint": 1.4845938187801415,
            "wrist_2_joint": 0.178987772454074,
            "wrist_3_joint": 0.03710569632802521
        }
    },
    "waypoints": [
        {
            "positions": [
                -0.18546946439364564,
                -2.278805467437664,
                -2.384821990628643,
                1.4845938187801415,
                0.178987772454074,
                0.03710569632802521
            ]
        },
        {
            "positions": [
                -0.09960045676470801,
                -2.244979407081215,
                -2.3431216218443724,
                1.5808630594330455,
                0.09040716262339002,
                0.07332254361773594
            ]
        },
        {
            "positions": [
                -0.013731449135770374,
                -2.2111533467247657,
                -2.301421253060102,
                1.6771323000859495,
                0.0018265527927060488,
                0.10953939090744666
            ]
        },
        {
            "positions": [
                0.07213755849316728,
                -2.1773272863683166,
                -2.259720884275832,
                1.7734015407388535,
                -0.08675405703797795,
                0.14575623819715738
            ]
        },
        {
            "positions": [
                0.1580065661221049,
                -2.1435012260118675,
                -2.218020515491561,
                1.8696707813917572,
                -0.1753346668686619,
                0.1819730854868681
            ]
        },
        {
            "positions": [
                0.24387557375104257,
                -2.1096751656554185,
                -2.1763201467072903,
                1.9659400220446612,
                -0.26391527669934595,
                0.21818993277657886
            ]
        },
        {
            "positions": [
                0.3297445813799802,
                -2.0758491052989694,
                -2.13461977792302,
                2.062209262697565,
                -0.35249588653002994,
                0.2544067800662896
            ]
        },
        {
            "positions": [
                0.3146292962762615,
                -2.0779502667121754,
                -2.1218655913325164,
                1.8786715339154032,
                -0.4042503386383708,
                0.37661583440614893
            ]
        },
        {
            "positions": [
                0.2995140111725429,
                -2.0800514281253815,
                -2.109111404742013,
                1.695133805133241,
                -0.45600479074671163,
                0.4988248887460083
            ]
        },
        {
            "positions": [
                0.2843987260688242,
                -2.0821525895385875,
                -2.0963572181515095,
                1.5115960763510787,
                -0.5077592428550525,
                0.6210339430858677
            ]
        },
        {
            "positions": [
                0.2692834409651056,
                -2.0842537509517935,
                -2.0836030315610063,
                1.3280583475689167,
                -0.5595136949633933,
                0.7432429974257271
            ]
        },
        {
            "positions": [
                0.2541681558613869,
                -2.086354912365,
                -2.0708488449705027,
                1.1445206187867547,
                -0.6112681470717342,
                0.8654520517655865
            ]
        },
        {
            "positions": [
                0.23905287075766823,
                -2.088456073778206,
                -2.058094658379999,
                0.9609828900045925,
                -0.663022599180075,
                0.9876611061054458
            ]
        },
        {
            "positions": [
                0.22393758565394958,
                -2.090557235191412,
                -2.045340471789496,
                0.7774451612224302,
                -0.7147770512884158,
                1.1098701604453052
            ]
        },
        {
            "positions": [
                0.20882230055023093,
                -2.092658396604618,
                -2.032586285198992,
                0.5939074324402682,
                -0.7665315033967567,
                1.2320792147851645
            ]
        },
        {
            "positions": [
                0.19370701544651228,
                -2.094759558017824,
                -2.019832098608489,
                0.4103697036581062,
                -0.8182859555050975,
                1.354288269125024
            ]
        },
        {
            "positions": [
                0.1785917303427936,
                -2.0968607194310303,
                -2.0070779120179854,
                0.22683197487594398,
                -0.8700404076134384,
                1.4764973234648835
            ]
        },
        {
            "positions": [
                0.16347644523907495,
                -2.0989618808442363,
                -1.994323725427482,
                0.04329424609378174,
                -0.9217948597217792,
                1.5987063778047426
            ]
        },
        {
            "positions": [
                0.1483611601353563,
                -2.101063042257443,
                -1.9815695388369785,
                -0.14024348268838027,
                -0.9735493118301201,
                1.720915432144602
            ]
        },
        {
            "positions": [
                0.13324587503163765,
                -2.103164203670649,
                -1.9688153522464749,
                -0.3237812114705423,
                -1.025303763938461,
                1.8431244864844611
            ]
        },
        {
            "positions": [
                0.11813058992791897,
                -2.105265365083855,
                -1.9560611656559714,
                -0.5073189402527047,
                -1.0770582160468019,
                1.9653335408243207
            ]
        },
        {
            "positions": [
                0.10301530482420032,
                -2.107366526497061,
                -1.943306979065468,
                -0.6908566690348668,
                -1.1288126681551427,
                2.08754259516418
            ]
        },
        {
            "positions": [
                0.08790001972048167,
                -2.109467687910267,
                -1.9305527924749646,
                -0.8743943978170288,
                -1.1805671202634835,
                2.2097516495040392
            ]
        },
        {
            "positions": [
                0.07278473461676299,
                -2.111568849323473,
                -1.917798605884461,
                -1.0579321265991912,
                -1.2323215723718244,
                2.331960703843899
            ]
        },
        {
            "positions": [
                0.05766944951304437,
                -2.113670010736679,
                -1.9050444192939575,
                -1.2414698553813528,
                -1.2840760244801652,
                2.4541697581837583
            ]
        },
        {
            "positions": [
                0.04255416440932569,
                -2.115771172149885,
                -1.892290232703454,
                -1.4250075841635148,
                -1.335830476588506,
                2.5763788125236173
            ]
        },
        {
            "positions": [
                0.02743887930560701,
                -2.117872333563091,
                -1.8795360461129507,
                -1.6085453129456773,
                -1.387584928696847,
                2.6985878668634773
            ]
        },
        {
            "positions": [
                0.012323594201888388,
                -2.1199734949762976,
                -1.866781859522447,
                -1.7920830417278393,
                -1.4393393808051878,
                2.8207969212033364
            ]
        },
        {
            "positions": [
                -0.0027916909018302904,
                -2.1220746563895037,
                -1.8540276729319438,
                -1.9756207705100017,
                -1.4910938329135286,
                2.9430059755431954
            ]
        },
        {
            "positions": [
                -0.01790697600554897,
                -2.1241758178027097,
                -1.8412734863414402,
                -2.1591584992921637,
                -1.5428482850218694,
                3.0652150298830554
            ]
        },
        {
            "positions": [
                -0.03302226110926758,
                -2.1262769792159157,
                -1.8285192997509367,
                -2.3426962280743258,
                -1.59460273713021,
                3.1874240842229145
            ]
        }
    ]
}