{
    "goal": {
        "global_pose": {
            "orientation": {
                "w": -0.00223480608172531,
                "x": 0.0024358444001904467,
                "y": 0.7094548369677653,
                "z": -0.704743149386269
            },
            "position": {
                "x": 0.6205249238014221,
                "y": -0.6371506643295288,
                "z": 0.19426114857196808
            }
        },
        "name": "move_to_magneteinheit_B"
    },
    "id": "KPIECE_move_to_magneteinheit_B_17",
    "joint_names": [
        "shoulder_pan_joint",
        "shoulder_lift_joint",
        "elbow_joint",
        "wrist_1_joint",
        "wrist_2_joint",
        "wrist_3_joint"
    ],
    "metrics": {
        "cart_traj_len": 5.817789572314537,
        "distance_elbow_joint": 5.786149520461118,
        "distance_shoulder_lift_joint": 1.4755293951844173,
        "distance_shoulder_pan_joint": 7.918887513173129,
        "distance_wrist_1_joint": 6.006767698354993,
        "distance_wrist_2_joint": 6.48711041895822,
        "distance_wrist_3_joint": 12.548880360898861,
        "smoothness": 0.4528187200054663,
        "time": 0.842663777,
        "traj_len": 6.342186129957932,
        "weighted_distance": 8.821279031191656
    },
    "planner": "KPIECE",
    "start": {
        "state": {
            "elbow_joint": 2.393587130804639,
            "shoulder_lift_joint": -1.9085141043513325,
            "shoulder_pan_joint": 0.7066247066698809,
            "wrist_1_joint": -0.4678290934590222,
            "wrist_2_joint": 0.7096259084215963,
            "wrist_3_joint": 3.147370379541726
        }
    },
    "waypoints": [
        {
            "positions": [
                0.7066247066698809,
                -1.9085141043513325,
                2.393587130804639,
                -0.4678290934590222,
                0.7096259084215963,
                3.147370379541726
            ]
        },
        {
            "positions": [
                0.6341835605472805,
                -1.9010420919539186,
                2.375021486632976,
                -0.36225392075549534,
                0.7518720083860866,
                3.123582178191377
            ]
        },
        {
            "positions": [
                0.5617424144246801,
                -1.893570079556505,
                2.3564558424613136,
                -0.25667874805196844,
                0.794118108350577,
                3.099793976841028
            ]
        },
        {
            "positions": [
                0.4982077692996619,
                -1.8388762965552026,
                2.340048754646003,
                -0.18640302126737954,
                0.7071713293710231,
                2.995743377356396
            ]
        },
        {
            "positions": [
                0.43467312417464365,
                -1.7841825135539,
                2.3236416668306927,
                -0.11612729448279063,
                0.6202245503914693,
                2.891692777871764
            ]
        },
        {
            "positions": [
                0.37113847904962544,
                -1.7294887305525974,
                2.3072345790153825,
                -0.04585156769820173,
                0.5332777714119155,
                2.7876421783871317
            ]
        },
        {
            "positions": [
                0.3076038339246072,
                -1.674794947551295,
                2.290827491200072,
                0.024424159086387176,
                0.4463309924323617,
                2.6835915789024996
            ]
        },
        {
            "positions": [
                0.244069188799589,
                -1.6201011645499928,
                2.2744204033847613,
                0.09469988587097611,
                0.35938421345280785,
                2.5795409794178674
            ]
        },
        {
            "positions": [
                0.18053454367457078,
                -1.5654073815486902,
                2.258013315569451,
                0.16497561265556498,
                0.2724374344732541,
                2.4754903799332353
            ]
        },
        {
            "positions": [
                0.11699989854955256,
                -1.5107135985473876,
                2.241606227754141,
                0.23525133944015386,
                0.18549065549370025,
                2.371439780448603
            ]
        },
        {
            "positions": [
                0.053465253424534315,
                -1.4560198155460853,
                2.2251991399388302,
                0.3055270662247428,
                0.09854387651414642,
                2.267389180963971
            ]
        },
        {
            "positions": [
                -0.001508084804163888,
                -1.4574436915757658,
                2.1631715909369795,
                0.38542968334784516,
                0.04713782458283889,
                2.121123827859144
            ]
        },
        {
            "positions": [
                -0.05648142303286209,
                -1.4588675676054461,
                2.101144041935129,
                0.46533230047094754,
                -0.004268227348468642,
                1.9748584747543179
            ]
        },
        {
            "positions": [
                -0.11145476126156029,
                -1.4602914436351266,
                2.039116492933278,
                0.54523491759405,
                -0.05567427927977617,
                1.828593121649491
            ]
        },
        {
            "positions": [
                -0.1664280994902585,
                -1.461715319664807,
                1.9770889439314274,
                0.6251375347171524,
                -0.1070803312110837,
                1.6823277685446647
            ]
        },
        {
            "positions": [
                -0.22140143771895668,
                -1.4631391956944875,
                1.9150613949295767,
                0.7050401518402547,
                -0.15848638314239122,
                1.536062415439838
            ]
        },
        {
            "positions": [
                -0.2763747759476549,
                -1.464563071724168,
                1.853033845927726,
                0.7849427689633571,
                -0.20989243507369876,
                1.3897970623350113
            ]
        },
        {
            "positions": [
                -0.3313481141763531,
                -1.4659869477538483,
                1.7910062969258753,
                0.8648453860864594,
                -0.2612984870050063,
                1.2435317092301847
            ]
        },
        {
            "positions": [
                -0.38632145240505134,
                -1.4674108237835288,
                1.7289787479240246,
                0.9447480032095619,
                -0.31270453893631384,
                1.0972663561253582
            ]
        },
        {
            "positions": [
                -0.44129479063374955,
                -1.4688346998132091,
                1.666951198922174,
                1.0246506203326642,
                -0.3641105908676214,
                0.9510010030205314
            ]
        },
        {
            "positions": [
                -0.49626812886244764,
                -1.4702585758428897,
                1.6049236499203232,
                1.1045532374557667,
                -0.41551664279892886,
                0.8047356499157048
            ]
        },
        {
            "positions": [
                -0.5512414670911459,
                -1.4716824518725702,
                1.5428961009184725,
                1.184455854578869,
                -0.4669226947302364,
                0.6584702968108782
            ]
        },
        {
            "positions": [
                -0.6062148053198441,
                -1.4731063279022505,
                1.4808685519166218,
                1.2643584717019714,
                -0.5183287466615439,
                0.5122049437060516
            ]
        },
        {
            "positions": [
                -0.6611881435485423,
                -1.474530203931931,
                1.418841002914771,
                1.344261088825074,
                -0.5697347985928515,
                0.36593959060122505
            ]
        },
        {
            "positions": [
                -0.7161614817772405,
                -1.4759540799616113,
                1.3568134539129204,
                1.424163705948176,
                -0.621140850524159,
                0.21967423749639847
            ]
        },
        {
            "positions": [
                -0.7711348200059387,
                -1.4773779559912918,
                1.2947859049110697,
                1.5040663230712785,
                -0.6725469024554666,
                0.07340888439157167
            ]
        },
        {
            "positions": [
                -0.8261081582346369,
                -1.4788018320209724,
                1.232758355909219,
                1.583968940194381,
                -0.7239529543867741,
                -0.07285646871325469
            ]
        },
        {
            "positions": [
                -0.8810814964633351,
                -1.4802257080506527,
                1.1707308069073685,
                1.6638715573174832,
                -0.7753590063180816,
                -0.21912182181808149
            ]
        },
        {
            "positions": [
                -0.9360548346920333,
                -1.4816495840803332,
                1.1087032579055178,
                1.7437741744405857,
                -0.8267650582493892,
                -0.3653871749229083
            ]
        },
        {
            "positions": [
                -0.9910281729207313,
                -1.4830734601100135,
                1.0466757089036671,
                1.8236767915636878,
                -0.8781711101806965,
                -0.5116525280277342
            ]
        },
        {
            "positions": [
                -1.0460015111494296,
                -1.484497336139694,
                0.9846481599018164,
                1.9035794086867903,
                -0.9295771621120041,
                -0.6579178811325614
            ]
        },
        {
            "positions": [
                -1.1009748493781277,
                -1.4859212121693743,
                0.9226206108999657,
                1.9834820258098929,
                -0.9809832140433117,
                -0.8041832342373878
            ]
        },
        {
            "positions": [
                -1.155948187606826,
                -1.4873450881990549,
                0.860593061898115,
                2.0633846429329954,
                -1.0323892659746192,
                -0.9504485873422146
            ]
        },
        {
            "positions": [
                -1.2109215258355241,
                -1.4887689642287354,
                0.7985655128962643,
                2.1432872600560975,
                -1.0837953179059268,
                -1.096713940447041
            ]
        },
        {
            "positions": [
                -1.2658948640642225,
                -1.4901928402584157,
                0.7365379638944136,
                2.2231898771792,
                -1.1352013698372343,
                -1.2429792935518678
            ]
        },
        {
            "positions": [
                -1.3208682022929206,
                -1.4916167162880962,
                0.6745104148925631,
                2.303092494302302,
                -1.1866074217685416,
                -1.3892446466566941
            ]
        },
        {
            "positions": [
                -1.3758415405216189,
                -1.4930405923177765,
                0.6124828658907122,
                2.3829951114254047,
                -1.2380134736998494,
                -1.535509999761521
            ]
        },
        {
            "positions": [
                -1.430814878750317,
                -1.494464468347457,
                0.5504553168888617,
                2.4628977285485067,
                -1.2894195256311567,
                -1.6817753528663473
            ]
        },
        {
            "positions": [
                -1.4857882169790153,
                -1.4958883443771376,
                0.4884277678870108,
                2.5428003456716093,
                -1.3408255775624645,
                -1.828040705971174
            ]
        },
        {
            "positions": [
                -1.5407615552077134,
                -1.4973122204068179,
                0.42640021888516033,
                2.622702962794712,
                -1.3922316294937718,
                -1.9743060590760009
            ]
        },
        {
            "positions": [
                -1.5957348934364117,
                -1.4987360964364984,
                0.3643726698833094,
                2.7026055799178144,
                -1.4436376814250795,
                -2.1205714121808277
            ]
        },
        {
            "positions": [
                -1.6507082316651098,
                -1.5001599724661787,
                0.30234512088145893,
                2.7825081970409165,
                -1.4950437333563869,
                -2.2668367652856536
            ]
        },
        {
            "positions": [
                -1.7056815698938081,
                -1.5015838484958592,
                0.240317571879608,
                2.862410814164019,
                -1.5464497852876946,
                -2.4131021183904804
            ]
        },
        {
            "positions": [
                -1.7606549081225062,
                -1.5030077245255398,
                0.17829002287775753,
                2.942313431287121,
                -1.597855837219002,
                -2.559367471495307
            ]
        },
        {
            "positions": [
                -1.8156282463512046,
                -1.50443160055522,
                0.11626247387590682,
                3.0222160484102236,
                -1.6492618891503097,
                -2.705632824600134
            ]
        },
        {
            "positions": [
                -1.8706015845799027,
                -1.5058554765849006,
                0.05423492487405612,
                3.102118665533326,
                -1.700667941081617,
                -2.85189817770496
            ]
        },
        {
            "positions": [
                -1.925574922808601,
                -1.507279352614581,
                -0.0077926241277945785,
                3.1820212826564287,
                -1.7520739930129248,
                -2.9981635308097876
            ]
        },
        {
            "positions": [
                -1.9805482610372993,
                -1.5087032286442614,
                -0.06982017312964528,
                3.261923899779531,
                -1.803480044944232,
                -3.144428883914614
            ]
        },
        {
            "positions": [
                -1.8601397970775737,
                -1.5190811993201925,
                -0.12982889442505702,
                3.2485333840436668,
                -1.7293511113853288,
                -3.0296578106062984
            ]
        },
        {
            "positions": [
                -1.7397313331178483,
                -1.5294591699961235,
                -0.18983761572046876,
                3.2351428683078023,
                -1.6552221778264256,
                -2.9148867372979828
            ]
        },
        {
            "positions": [
                -1.6193228691581227,
                -1.5398371406720546,
                -0.24984633701588047,
                3.2217523525719383,
                -1.5810932442675225,
                -2.8001156639896676
            ]
        },
        {
            "positions": [
                -1.4989144051983971,
                -1.5502151113479856,
                -0.30985505831129223,
                3.208361836836074,
                -1.5069643107086192,
                -2.685344590681352
            ]
        },
        {
            "positions": [
                -1.3785059412386715,
                -1.5605930820239164,
                -0.36986377960670397,
                3.1949713211002098,
                -1.432835377149716,
                -2.5705735173730364
            ]
        },
        {
            "positions": [
                -1.258097477278946,
                -1.5709710526998475,
                -0.42987250090211565,
                3.1815808053643457,
                -1.3587064435908127,
                -2.4558024440647213
            ]
        },
        {
            "positions": [
                -1.1376890133192203,
                -1.5813490233757785,
                -0.48988122219752744,
                3.1681902896284813,
                -1.2845775100319097,
                -2.341031370756405
            ]
        },
        {
            "positions": [
                -1.017280549359495,
                -1.5917269940517096,
                -0.5498899434929392,
                3.1547997738926172,
                -1.2104485764730062,
                -2.22626029744809
            ]
        },
        {
            "positions": [
                -0.8968720853997694,
                -1.6021049647276406,
                -0.6098986647883509,
                3.141409258156753,
                -1.1363196429141031,
                -2.1114892241397745
            ]
        },
        {
            "positions": [
                -0.776463621440044,
                -1.6124829354035717,
                -0.6699073860837627,
                3.1280187424208887,
                -1.0621907093552,
                -1.996718150831459
            ]
        },
        {
            "positions": [
                -0.6560551574803182,
                -1.6228609060795027,
                -0.7299161073791745,
                3.1146282266850247,
                -0.9880617757962966,
                -1.8819470775231433
            ]
        },
        {
            "positions": [
                -0.5356466935205928,
                -1.6332388767554338,
                -0.789924828674586,
                3.1012377109491602,
                -0.9139328422373936,
                -1.7671760042148281
            ]
        },
        {
            "positions": [
                -0.4152382295608672,
                -1.6436168474313648,
                -0.8499335499699978,
                3.087847195213296,
                -0.8398039086784903,
                -1.6524049309065125
            ]
        },
        {
            "positions": [
                -0.2948297656011416,
                -1.6539948181072959,
                -0.9099422712654096,
                3.074456679477432,
                -0.765674975119587,
                -1.537633857598197
            ]
        },
        {
            "positions": [
                -0.17442130164141623,
                -1.664372788783227,
                -0.9699509925608213,
                3.0610661637415677,
                -0.6915460415606838,
                -1.4228627842898816
            ]
        },
        {
            "positions": [
                -0.05401283768169063,
                -1.6747507594591577,
                -1.029959713856233,
                3.0476756480057037,
                -0.6174171080017805,
                -1.308091710981566
            ]
        },
        {
            "positions": [
                0.06639562627803497,
                -1.6851287301350888,
                -1.0899684351516448,
                3.034285132269839,
                -0.5432881744428775,
                -1.1933206376732506
            ]
        },
        {
            "positions": [
                0.18680409023776057,
                -1.6955067008110198,
                -1.1499771564470564,
                3.020894616533975,
                -0.4691592408839742,
                -1.078549564364935
            ]
        },
        {
            "positions": [
                0.30721255419748617,
                -1.7058846714869509,
                -1.2099858777424684,
                3.007504100798111,
                -0.39503030732507094,
                -0.9637784910566194
            ]
        },
        {
            "positions": [
                0.4276210181572113,
                -1.716262642162882,
                -1.26999459903788,
                2.9941135850622467,
                -0.3209013737661679,
                -0.8490074177483042
            ]
        },
        {
            "positions": [
                0.5480294821169374,
                -1.726640612838813,
                -1.3300033203332917,
                2.9807230693263826,
                -0.2467724402072644,
                -0.7342363444399882
            ]
        },
        {
            "positions": [
                0.668437946076663,
                -1.737018583514744,
                -1.3900120416287036,
                2.967332553590518,
                -0.17264350664836114,
                -0.6194652711316726
            ]
        },
        {
            "positions": [
                0.7888464100363886,
                -1.747396554190675,
                -1.4500207629241153,
                2.953942037854654,
                -0.09851457308945788,
                -0.504694197823357
            ]
        },
        {
            "positions": [
                0.9092548739961137,
                -1.7577745248666061,
                -1.5100294842195268,
                2.94055152211879,
                -0.02438563953055506,
                -0.3899231245150423
            ]
        },
        {
            "positions": [
                1.0296633379558393,
                -1.768152495542537,
                -1.5700382055149387,
                2.9271610063829256,
                0.049743294028348206,
                -0.2751520512067267
            ]
        },
        {
            "positions": [
                1.150071801915565,
                -1.7785304662184682,
                -1.6300469268103503,
                2.9137704906470616,
                0.12387222758725147,
                -0.1603809778984111
            ]
        },
        {
            "positions": [
                1.2704802658752905,
                -1.788908436894399,
                -1.6900556481057623,
                2.900379974911197,
                0.19800116114615496,
                -0.04560990459009551
            ]
        },
        {
            "positions": [
                1.390888729835016,
                -1.79928640757033,
                -1.750064369401174,
                2.886989459175333,
                0.272130094705058,
                0.06916116871822009
            ]
        },
        {
            "positions": [
                1.5112971937947413,
                -1.8096643782462611,
                -1.8100730906965856,
                2.873598943439469,
                0.34625902826396104,
                0.18393224202653524
            ]
        },
        {
            "positions": [
                1.6317056577544669,
                -1.8200423489221922,
                -1.8700818119919973,
                2.8602084277036046,
                0.42038796182286453,
                0.29870331533485084
            ]
        },
        {
            "positions": [
                1.7521141217141925,
                -1.8304203195981232,
                -1.9300905332874092,
                2.8468179119677406,
                0.4945168953817676,
                0.41347438864316644
            ]
        },
        {
            "positions": [
                1.872522585673918,
                -1.8407982902740543,
                -1.9900992545828209,
                2.833427396231876,
                0.5686458289406711,
                0.528245461951482
            ]
        },
        {
            "positions": [
                1.992931049633644,
                -1.8511762609499853,
                -2.050107975878233,
                2.820036880496012,
                0.6427747624995741,
                0.6430165352597976
            ]
        },
        {
            "positions": [
                2.1133395135933695,
                -1.8615542316259162,
                -2.1101166971736443,
                2.806646364760148,
                0.7169036960584771,
                0.7577876085681128
            ]
        },
        {
            "positions": [
                2.2337479775530946,
                -1.8719322023018474,
                -2.170125418469056,
                2.7932558490242836,
                0.7910326296173806,
                0.8725586818764288
            ]
        },
        {
            "positions": [
                2.3541564415128207,
                -1.8823101729777783,
                -2.2301341397644676,
                2.7798653332884196,
                0.8651615631762837,
                0.987329755184744
            ]
        },
        {
            "positions": [
                2.474564905472546,
                -1.8926881436537095,
                -2.2901428610598797,
                2.766474817552555,
                0.9392904967351872,
                1.10210082849306
            ]
        },
        {
            "positions": [
                2.594973369432272,
                -1.9030661143296403,
                -2.3501515823552914,
                2.753084301816691,
                1.0134194302940902,
                1.2168719018013752
            ]
        },
        {
            "positions": [
                2.715381833391997,
                -1.9134440850055714,
                -2.410160303650703,
                2.739693786080827,
                1.0875483638529932,
                1.3316429751096903
            ]
        },
        {
            "positions": [
                2.835790297351722,
                -1.9238220556815024,
                -2.470169024946115,
                2.726303270344963,
                1.1616772974118963,
                1.4464140484180055
            ]
        },
        {
            "positions": [
                2.956198761311448,
                -1.9342000263574335,
                -2.5301777462415265,
                2.7129127546090985,
                1.2358062309707996,
                1.561185121726321
            ]
        },
        {
            "positions": [
                2.9365342597703012,
                -1.970523686061955,
                -2.4726854366805298,
                2.5977125172793647,
                1.1847573116495058,
                1.4577539822728818
            ]
        },
        {
            "positions": [
                2.9168697582291543,
                -2.0068473457664764,
                -2.415193127119533,
                2.482512279949631,
                1.1337083923282123,
                1.3543228428194427
            ]
        },
        {
            "positions": [
                2.8972052566880073,
                -2.043171005470998,
                -2.3577008175585363,
                2.367312042619897,
                1.0826594730069186,
                1.2508917033660034
            ]
        },
        {
            "positions": [
                2.8775407551468604,
                -2.0794946651755195,
                -2.3002085079975396,
                2.252111805290163,
                1.0316105536856248,
                1.1474605639125641
            ]
        },
        {
            "positions": [
                2.8578762536057134,
                -2.1158183248800406,
                -2.242716198436543,
                2.1369115679604294,
                0.9805616343643312,
                1.044029424459125
            ]
        },
        {
            "positions": [
                2.8382117520645664,
                -2.152141984584562,
                -2.185223888875546,
                2.0217113306306955,
                0.9295127150430375,
                0.9405982850056858
            ]
        },
        {
            "positions": [
                2.8185472505234195,
                -2.1884656442890837,
                -2.1277315793145495,
                1.9065110933009617,
                0.8784637957217438,
                0.8371671455522466
            ]
        },
        {
            "positions": [
                2.7988827489822725,
                -2.2247893039936053,
                -2.0702392697535528,
                1.7913108559712279,
                0.8274148764004501,
                0.7337360060988073
            ]
        },
        {
            "positions": [
                2.7792182474411256,
                -2.2611129636981264,
                -2.012746960192556,
                1.6761106186414942,
                0.7763659570791565,
                0.6303048666453681
            ]
        },
        {
            "positions": [
                2.7595537458999786,
                -2.297436623402648,
                -1.9552546506315596,
                1.5609103813117604,
                0.7253170377578628,
                0.526873727191929
            ]
        },
        {
            "positions": [
                2.7398892443588316,
                -2.3337602831071695,
                -1.8977623410705629,
                1.4457101439820266,
                0.6742681184365691,
                0.42344258773848975
            ]
        },
        {
            "positions": [
                2.7202247428176847,
                -2.370083942811691,
                -1.840270031509566,
                1.3305099066522925,
                0.6232191991152753,
                0.32001144828505046
            ]
        },
        {
            "positions": [
                2.7005602412765377,
                -2.4064076025162127,
                -1.7827777219485694,
                1.215309669322559,
                0.5721702797939817,
                0.21658030883161117
            ]
        },
        {
            "positions": [
                2.6808957397353907,
                -2.442731262220734,
                -1.7252854123875727,
                1.100109431992825,
                0.521121360472688,
                0.1131491693781721
            ]
        },
        {
            "positions": [
                2.661231238194244,
                -2.4790549219252553,
                -1.667793102826576,
                0.9849091946630912,
                0.4700724411513943,
                0.009718029924732828
            ]
        }
    ]
}