{
    "goal": {
        "global_pose": {
            "orientation": {
                "w": 0.7031023502349854,
                "x": -0.7110244035720825,
                "y": 0.007748599164187908,
                "z": 0.005598929710686207
            },
            "position": {
                "x": 0.11585023208521307,
                "y": 0.44412534475326537,
                "z": 0.3711530566215515
            }
        },
        "name": "move_to_auspresseinheit_A"
    },
    "id": "KPIECE_move_to_auspresseinheit_A_76",
    "joint_names": [
        "shoulder_pan_joint",
        "shoulder_lift_joint",
        "elbow_joint",
        "wrist_1_joint",
        "wrist_2_joint",
        "wrist_3_joint"
    ],
    "metrics": {
        "cart_traj_len": 1.6361893628517319,
        "distance_elbow_joint": 1.850483872429105,
        "distance_shoulder_lift_joint": 0.5662890147380453,
        "distance_shoulder_pan_joint": 1.042621727857028,
        "distance_wrist_1_joint": 0.7637025611979319,
        "distance_wrist_2_joint": 1.4676837096023845,
        "distance_wrist_3_joint": 2.493125611990826,
        "smoothness": 1.0326739311642348,
        "time": 0.15659548099999998,
        "traj_len": 2.860752785162556,
        "weighted_distance": 3.924480092011844
    },
    "planner": "KPIECE",
    "start": {
        "state": {
            "elbow_joint": 2.4225746994637096,
            "shoulder_lift_joint": -1.373653595662188,
            "shoulder_pan_joint": -0.3378633848294565,
            "wrist_1_joint": -1.0288595594406726,
            "wrist_2_joint": 1.2330228066703421,
            "wrist_3_joint": 3.189163495502006
        }
    },
    "waypoints": [
        {
            "positions": [
                -0.3378633848294565,
                -1.373653595662188,
                2.4225746994637096,
                -1.0288595594406726,
                1.2330228066703421,
                3.189163495502006
            ]
        },
        {
            "positions": [
                -0.28856548997836146,
                -1.4146269354232737,
                2.3502242664710646,
                -0.9803090026281732,
                1.1576258781072235,
                3.091181297806165
            ]
        },
        {
            "positions": [
                -0.23926759512726647,
                -1.4556002751843595,
                2.2778738334784197,
                -0.9317584458156738,
                1.082228949544105,
                2.993199100110324
            ]
        },
        {
            "positions": [
                -0.18996970027617144,
                -1.4965736149454452,
                2.2055234004857747,
                -0.8832078890031744,
                1.0068320209809865,
                2.895216902414483
            ]
        },
        {
            "positions": [
                -0.14067180542507643,
                -1.537546954706531,
                2.1331729674931292,
                -0.834657332190675,
                0.9314350924178679,
                2.797234704718642
            ]
        },
        {
            "positions": [
                -0.09137391057398142,
                -1.5785202944676167,
                2.0608225345004842,
                -0.7861067753781755,
                0.8560381638547494,
                2.6992525070228015
            ]
        },
        {
            "positions": [
                -0.042076015722886384,
                -1.6194936342287025,
                1.9884721015078393,
                -0.7375562185656761,
                0.7806412352916308,
                2.6012703093269605
            ]
        },
        {
            "positions": [
                0.0072218791282085415,
                -1.6604669739897882,
                1.9161216685151943,
                -0.6890056617531768,
                0.7052443067285123,
                2.50328811163112
            ]
        },
        {
            "positions": [
                0.056519773979303634,
                -1.701440313750874,
                1.8437712355225493,
                -0.6404551049406773,
                0.6298473781653937,
                2.405305913935279
            ]
        },
        {
            "positions": [
                0.10581766883039861,
                -1.7424136535119596,
                1.7714208025299043,
                -0.5919045481281779,
                0.5544504496022752,
                2.3073237162394378
            ]
        },
        {
            "positions": [
                0.15511556368149365,
                -1.7833869932730455,
                1.6990703695372593,
                -0.5433539913156784,
                0.47905352103915655,
                2.209341518543597
            ]
        },
        {
            "positions": [
                0.20441345853258858,
                -1.8243603330341311,
                1.6267199365446143,
                -0.4948034345031791,
                0.40365659247603813,
                2.1113593208477566
            ]
        },
        {
            "positions": [
                0.2537113533836837,
                -1.865333672795217,
                1.5543695035519691,
                -0.4462528776906797,
                0.3282596639129195,
                2.0133771231519155
            ]
        },
        {
            "positions": [
                0.3030092482347787,
                -1.9063070125563026,
                1.4820190705593241,
                -0.3977023208781802,
                0.25286273534980097,
                1.9153949254560745
            ]
        },
        {
            "positions": [
                0.332571242133134,
                -1.9093074981275064,
                1.607307943241586,
                -0.39140461351256417,
                0.3317342974994256,
                2.0467973095838574
            ]
        },
        {
            "positions": [
                0.3621332360314893,
                -1.9123079836987105,
                1.7325968159238476,
                -0.38510690614694815,
                0.41060585964905033,
                2.178199693711641
            ]
        },
        {
            "positions": [
                0.3916952299298446,
                -1.9153084692699143,
                1.8578856886061095,
                -0.3788091987813321,
                0.48947742179867504,
                2.3096020778394237
            ]
        },
        {
            "positions": [
                0.42125722382819986,
                -1.918308954841118,
                1.9831745612883713,
                -0.37251149141571605,
                0.5683489839482997,
                2.4410044619672067
            ]
        },
        {
            "positions": [
                0.4508192177265552,
                -1.921309440412322,
                2.108463433970633,
                -0.3662137840501,
                0.6472205460979245,
                2.57240684609499
            ]
        },
        {
            "positions": [
                0.4803812116249105,
                -1.924309925983526,
                2.233752306652895,
                -0.359916076684484,
                0.7260921082475491,
                2.703809230222773
            ]
        },
        {
            "positions": [
                0.5493857278532682,
                -1.9195011309624086,
                2.282880447434288,
                -0.3892996223647878,
                0.7219518229413966,
                2.83681663288262
            ]
        },
        {
            "positions": [
                0.618390244081626,
                -1.9146923359412915,
                2.332008588215681,
                -0.4186831680450917,
                0.7178115376352442,
                2.9698240355424668
            ]
        },
        {
            "positions": [
                0.6873947603099837,
                -1.9098835409201742,
                2.381136728997074,
                -0.4480667137253955,
                0.7136712523290917,
                3.1028314382023137
            ]
        },
        {
            "positions": [
                0.7047583430275716,
                -1.9086772415668185,
                2.3919473140840437,
                -0.454675155126227,
                0.7117978428634539,
                3.134751967400969
            ]
        }
    ]
}