{
    "goal": {
        "global_pose": {
            "orientation": {
                "w": 0.5084816262002911,
                "x": -0.4908360881923452,
                "y": 0.5182115481033761,
                "z": -0.48164630358495003
            },
            "position": {
                "x": 0.5540239810943604,
                "y": -0.46912469901144505,
                "z": 0.16403168439865112
            }
        },
        "name": "move_to_storage_B"
    },
    "id": "KPIECE_move_to_storage_B_28",
    "joint_names": [
        "shoulder_pan_joint",
        "shoulder_lift_joint",
        "elbow_joint",
        "wrist_1_joint",
        "wrist_2_joint",
        "wrist_3_joint"
    ],
    "metrics": {
        "cart_traj_len": 1.2775309742807852,
        "distance_elbow_joint": 0.5582497981483872,
        "distance_shoulder_lift_joint": 0.9455769200752466,
        "distance_shoulder_pan_joint": 0.6443238253942247,
        "distance_wrist_1_joint": 3.6208852503437807,
        "distance_wrist_2_joint": 3.9754093616634445,
        "distance_wrist_3_joint": 3.2444255630281114,
        "smoothness": 0.7210518998282709,
        "time": 0.21120522,
        "traj_len": 3.604007591370084,
        "weighted_distance": 5.203269785117493
    },
    "planner": "KPIECE",
    "start": {
        "state": {
            "elbow_joint": 1.6649325340416963,
            "shoulder_lift_joint": -0.6616387945129425,
            "shoulder_pan_joint": -0.9139837929255878,
            "wrist_1_joint": 2.1467571094334352,
            "wrist_2_joint": -2.234195976750228,
            "wrist_3_joint": 0.005470921511140723
        }
    },
    "waypoints": [
        {
            "positions": [
                -0.9139837929255878,
                -0.6616387945129425,
                1.6649325340416963,
                2.1467571094334352,
                -2.234195976750228,
                0.005470921511140723
            ]
        },
        {
            "positions": [
                -0.8194064540637122,
                -0.6632350861760024,
                1.6127982814296342,
                2.202419198384991,
                -2.1623978049509436,
                -0.021969336206241547
            ]
        },
        {
            "positions": [
                -0.7248291152018365,
                -0.6648313778390622,
                1.5606640288175722,
                2.2580812873365463,
                -2.090599633151659,
                -0.04940959392362382
            ]
        },
        {
            "positions": [
                -0.7413660324026808,
                -0.692804208162107,
                1.5726252819672533,
                2.125979408542719,
                -1.9626806638194294,
                0.02938086693478338
            ]
        },
        {
            "positions": [
                -0.7579029496035253,
                -0.7207770384851517,
                1.5845865351169344,
                1.9938775297488918,
                -1.8347616944871996,
                0.10817132779319058
            ]
        },
        {
            "positions": [
                -0.7744398668043697,
                -0.7487498688081964,
                1.5965477882666157,
                1.8617756509550645,
                -1.7068427251549698,
                0.18696178865159777
            ]
        },
        {
            "positions": [
                -0.7909767840052142,
                -0.7767226991312411,
                1.6085090414162968,
                1.7296737721612372,
                -1.57892375582274,
                0.265752249510005
            ]
        },
        {
            "positions": [
                -0.8075137012060586,
                -0.8046955294542859,
                1.620470294565978,
                1.59757189336741,
                -1.4510047864905102,
                0.3445427103684122
            ]
        },
        {
            "positions": [
                -0.8240506184069031,
                -0.8326683597773307,
                1.632431547715659,
                1.4654700145735826,
                -1.3230858171582807,
                0.42333317122681935
            ]
        },
        {
            "positions": [
                -0.8405875356077475,
                -0.8606411901003754,
                1.6443928008653401,
                1.3333681357797553,
                -1.1951668478260506,
                0.5021236320852267
            ]
        },
        {
            "positions": [
                -0.857124452808592,
                -0.8886140204234201,
                1.6563540540150214,
                1.201266256985928,
                -1.067247878493821,
                0.5809140929436338
            ]
        },
        {
            "positions": [
                -0.8736613700094363,
                -0.9165868507464648,
                1.6683153071647026,
                1.069164378192101,
                -0.9393289091615915,
                0.659704553802041
            ]
        },
        {
            "positions": [
                -0.8901982872102807,
                -0.9445596810695096,
                1.6802765603143837,
                0.9370624993982735,
                -0.8114099398293615,
                0.7384950146604483
            ]
        },
        {
            "positions": [
                -0.9067352044111252,
                -0.9725325113925544,
                1.6922378134640648,
                0.8049606206044462,
                -0.6834909704971319,
                0.8172854755188554
            ]
        },
        {
            "positions": [
                -0.9232721216119696,
                -1.0005053417155991,
                1.7041990666137459,
                0.6728587418106191,
                -0.5555720011649021,
                0.8960759363772626
            ]
        },
        {
            "positions": [
                -0.9398090388128141,
                -1.0284781720386438,
                1.7161603197634272,
                0.5407568630167916,
                -0.42765303183267234,
                0.9748663972356697
            ]
        },
        {
            "positions": [
                -0.9563459560136585,
                -1.0564510023616887,
                1.7281215729131083,
                0.4086549842229643,
                -0.2997340625004423,
                1.053656858094077
            ]
        },
        {
            "positions": [
                -0.972882873214503,
                -1.0844238326847333,
                1.7400828260627894,
                0.27655310542913725,
                -0.17181509316821297,
                1.1324473189524842
            ]
        },
        {
            "positions": [
                -0.9894197904153473,
                -1.112396663007778,
                1.7520440792124705,
                0.14445122663530974,
                -0.04389612383598296,
                1.2112377798108913
            ]
        },
        {
            "positions": [
                -1.0059567076161917,
                -1.1403694933308228,
                1.7640053323621516,
                0.012349347841482228,
                0.08402284549624683,
                1.2900282406692987
            ]
        },
        {
            "positions": [
                -1.0224936248170362,
                -1.1683423236538675,
                1.775966585511833,
                -0.1197525309523444,
                0.21194181482847618,
                1.3688187015277058
            ]
        },
        {
            "positions": [
                -1.0390305420178807,
                -1.1963151539769123,
                1.787927838661514,
                -0.2518544097461719,
                0.3398607841607064,
                1.447609162386113
            ]
        },
        {
            "positions": [
                -1.0555674592187252,
                -1.224287984299957,
                1.7998890918111952,
                -0.3839562885399994,
                0.4677797534929362,
                1.5263996232445203
            ]
        },
        {
            "positions": [
                -1.0721043764195695,
                -1.2522608146230017,
                1.8118503449608763,
                -0.5160581673338265,
                0.5956987228251656,
                1.6051900841029272
            ]
        },
        {
            "positions": [
                -1.088641293620414,
                -1.2802336449460465,
                1.8238115981105576,
                -0.648160046127654,
                0.7236176921573954,
                1.6839805449613345
            ]
        },
        {
            "positions": [
                -1.1051782108212584,
                -1.3082064752690914,
                1.8357728512602387,
                -0.780261924921481,
                0.8515366614896251,
                1.7627710058197419
            ]
        },
        {
            "positions": [
                -1.1217151280221027,
                -1.336179305592136,
                1.8477341044099198,
                -0.9123638037153081,
                0.9794556308218549,
                1.8415614666781488
            ]
        },
        {
            "positions": [
                -1.1382520452229472,
                -1.3641521359151807,
                1.859695357559601,
                -1.0444656825091356,
                1.1073746001540847,
                1.9203519275365561
            ]
        },
        {
            "positions": [
                -1.1322882998444668,
                -1.3294287675333223,
                1.8818310667284914,
                -1.0148922392812803,
                1.0168262023313515,
                2.0946067169841514
            ]
        },
        {
            "positions": [
                -1.1263245544659866,
                -1.294705399151464,
                1.9039667758973822,
                -0.985318796053425,
                0.9262778045086182,
                2.2688615064317466
            ]
        },
        {
            "positions": [
                -1.1203608090875061,
                -1.2599820307696057,
                1.9261024850662727,
                -0.9557453528255697,
                0.8357294066858849,
                2.4431162958793418
            ]
        },
        {
            "positions": [
                -1.1143970637090257,
                -1.2252586623877473,
                1.9482381942351634,
                -0.9261719095977143,
                0.7451810088631516,
                2.617371085326937
            ]
        },
        {
            "positions": [
                -1.1084333183305453,
                -1.1905352940058889,
                1.970373903404054,
                -0.8965984663698591,
                0.6546326110404184,
                2.7916258747745326
            ]
        },
        {
            "positions": [
                -1.102469572952065,
                -1.1558119256240307,
                1.9925096125729445,
                -0.8670250231420038,
                0.5640842132176851,
                2.9658806642221274
            ]
        },
        {
            "positions": [
                -1.0965058275735846,
                -1.1210885572421723,
                2.014645321741835,
                -0.8374515799141484,
                0.47353581539495176,
                3.140135453669723
            ]
        }
    ]
}