{
    "goal": {
        "global_pose": {
            "orientation": {
                "w": 0.005598929693374612,
                "x": 0.007748599140229565,
                "y": 0.7110244013736278,
                "z": -0.7031023480610252
            },
            "position": {
                "x": -0.8858502320852131,
                "y": -0.7141253447532654,
                "z": 0.3711530566215515
            }
        },
        "name": "move_to_auspresseinheit_C"
    },
    "id": "KPIECE_move_to_auspresseinheit_C_25",
    "joint_names": [
        "shoulder_pan_joint",
        "shoulder_lift_joint",
        "elbow_joint",
        "wrist_1_joint",
        "wrist_2_joint",
        "wrist_3_joint"
    ],
    "metrics": {
        "cart_traj_len": 0.4948594260132642,
        "distance_elbow_joint": 1.016735708196304,
        "distance_shoulder_lift_joint": 0.3325647826103759,
        "distance_shoulder_pan_joint": 0.25692309277958447,
        "distance_wrist_1_joint": 0.7105400534018254,
        "distance_wrist_2_joint": 1.3138845394873355,
        "distance_wrist_3_joint": 0.08247475976577068,
        "smoothness": 4.844609574787718e-16,
        "time": 0.20112807900000002,
        "traj_len": 1.9269465317546297,
        "weighted_distance": 2.42950551525653
    },
    "planner": "KPIECE",
    "start": {
        "state": {
            "elbow_joint": 1.7527959577730765,
            "shoulder_lift_joint": -0.9740617694224828,
            "shoulder_pan_joint": -2.967991417825869,
            "wrist_1_joint": -0.7595177689779385,
            "wrist_2_joint": 1.7443932448376545,
            "wrist_3_joint": 3.1991315425061013
        }
    },
    "waypoints": [
        {
            "positions": [
                -2.967991417825869,
                -0.9740617694224828,
                1.7527959577730765,
                -0.7595177689779385,
                1.7443932448376545,
                3.1991315425061013
            ]
        },
        {
            "positions": [
                -2.9422991085479104,
                -0.9408052911614452,
                1.6511223869534462,
                -0.688463763637756,
                1.613004790888921,
                3.190884066529524
            ]
        },
        {
            "positions": [
                -2.9166067992699523,
                -0.9075488129004076,
                1.5494488161338156,
                -0.6174097582975735,
                1.4816163369401874,
                3.182636590552947
            ]
        },
        {
            "positions": [
                -2.8909144899919936,
                -0.8742923346393701,
                1.4477752453141854,
                -0.5463557529573909,
                1.3502278829914538,
                3.1743891145763703
            ]
        },
        {
            "positions": [
                -2.8652221807140354,
                -0.8410358563783324,
                1.3461016744945549,
                -0.4753017476172084,
                1.2188394290427202,
                3.166141638599793
            ]
        },
        {
            "positions": [
                -2.839529871436077,
                -0.8077793781172948,
                1.2444281036749245,
                -0.40424774227702587,
                1.0874509750939867,
                3.157894162623216
            ]
        },
        {
            "positions": [
                -2.813837562158118,
                -0.7745228998562572,
                1.1427545328552942,
                -0.33319373693684334,
                0.9560625211452531,
                3.149646686646639
            ]
        },
        {
            "positions": [
                -2.78814525288016,
                -0.7412664215952196,
                1.0410809620356638,
                -0.2621397315966608,
                0.8246740671965197,
                3.1413992106700617
            ]
        },
        {
            "positions": [
                -2.7624529436022014,
                -0.708009943334182,
                0.9394073912160332,
                -0.19108572625647824,
                0.693285613247786,
                3.133151734693485
            ]
        },
        {
            "positions": [
                -2.736760634324243,
                -0.6747534650731444,
                0.8377338203964029,
                -0.12003172091629566,
                0.5618971592990525,
                3.124904258716908
            ]
        },
        {
            "positions": [
                -2.7110683250462846,
                -0.6414969868121069,
                0.7360602495767725,
                -0.04897771557611316,
                0.43050870535031893,
                3.1166567827403306
            ]
        }
    ]
}