{
    "goal": {
        "global_pose": {
            "orientation": {
                "w": 0.7031023502349854,
                "x": -0.7110244035720825,
                "y": 0.007748599164187908,
                "z": 0.005598929710686207
            },
            "position": {
                "x": 0.11585023208521307,
                "y": 0.44412534475326537,
                "z": 0.3711530566215515
            }
        },
        "name": "move_to_auspresseinheit_A"
    },
    "id": "KPIECE_move_to_auspresseinheit_A_45",
    "joint_names": [
        "shoulder_pan_joint",
        "shoulder_lift_joint",
        "elbow_joint",
        "wrist_1_joint",
        "wrist_2_joint",
        "wrist_3_joint"
    ],
    "metrics": {
        "cart_traj_len": 0.6882466558376912,
        "distance_elbow_joint": 0.03350098375174815,
        "distance_shoulder_lift_joint": 0.5326653091275175,
        "distance_shoulder_pan_joint": 1.0425403754531875,
        "distance_wrist_1_joint": 0.5786378716039606,
        "distance_wrist_2_joint": 0.5315876340472601,
        "distance_wrist_3_joint": 0.06207031891830894,
        "smoothness": 0.0,
        "time": 0.910420082,
        "traj_len": 1.667633800599515,
        "weighted_distance": 2.003838475623677
    },
    "planner": "KPIECE",
    "start": {
        "state": {
            "elbow_joint": 2.4225746994637096,
            "shoulder_lift_joint": -1.373653595662188,
            "shoulder_pan_joint": -0.3378633848294565,
            "wrist_1_joint": -1.0288595594406726,
            "wrist_2_joint": 1.2330228066703421,
            "wrist_3_joint": 3.189163495502006
        }
    },
    "waypoints": [
        {
            "positions": [
                -0.3378633848294565,
                -1.373653595662188,
                2.4225746994637096,
                -1.0288595594406726,
                1.2330228066703421,
                3.189163495502006
            ]
        },
        {
            "positions": [
                -0.20754583789780806,
                -1.4402367593031278,
                2.4183870764947413,
                -0.9565298254901775,
                1.1665743524144347,
                3.1814047056372172
            ]
        },
        {
            "positions": [
                -0.07722829096615963,
                -1.5068199229440675,
                2.4141994535257725,
                -0.8842000915396825,
                1.1001258981585271,
                3.1736459157724286
            ]
        },
        {
            "positions": [
                0.0530892559654888,
                -1.573403086585007,
                2.410011830556804,
                -0.8118703575891875,
                1.0336774439026195,
                3.16588712590764
            ]
        },
        {
            "positions": [
                0.18340680289713723,
                -1.6399862502259468,
                2.4058242075878358,
                -0.7395406236386923,
                0.9672289896467121,
                3.1581283360428514
            ]
        },
        {
            "positions": [
                0.31372434982878566,
                -1.7065694138668865,
                2.401636584618867,
                -0.6672108896881972,
                0.9007805353908046,
                3.1503695461780628
            ]
        },
        {
            "positions": [
                0.4440418967604341,
                -1.773152577507826,
                2.3974489616498986,
                -0.5948811557377022,
                0.8343320811348971,
                3.142610756313274
            ]
        },
        {
            "positions": [
                0.5743594436920825,
                -1.8397357411487658,
                2.39326133868093,
                -0.5225514217872071,
                0.7678836268789896,
                3.1348519664484855
            ]
        },
        {
            "positions": [
                0.7046769906237309,
                -1.9063189047897056,
                2.3890737157119615,
                -0.45022168783671196,
                0.7014351726230821,
                3.127093176583697
            ]
        }
    ]
}