{
    "goal": {
        "global_pose": {
            "orientation": {
                "w": 0.5084816217422485,
                "x": -0.49083608388900757,
                "y": 0.5182115435600281,
                "z": -0.4816462993621826
            },
            "position": {
                "x": 0.5540239810943604,
                "y": 0.030875300988554955,
                "z": 0.16403168439865112
            }
        },
        "name": "move_to_storage_A"
    },
    "id": "KPIECE_move_to_storage_A_148",
    "joint_names": [
        "shoulder_pan_joint",
        "shoulder_lift_joint",
        "elbow_joint",
        "wrist_1_joint",
        "wrist_2_joint",
        "wrist_3_joint"
    ],
    "metrics": {
        "cart_traj_len": 0.35260252654198154,
        "distance_elbow_joint": 0.44926933210556874,
        "distance_shoulder_lift_joint": 0.23436453439282534,
        "distance_shoulder_pan_joint": 0.45877433402414647,
        "distance_wrist_1_joint": 0.23674963670449212,
        "distance_wrist_2_joint": 1.108096712946208,
        "distance_wrist_3_joint": 0.095579059525988,
        "smoothness": 2.2204460668324854e-16,
        "time": 0.011490873,
        "traj_len": 1.6071196625327029,
        "weighted_distance": 2.0294920739933686
    },
    "planner": "KPIECE",
    "start": {
        "state": {
            "elbow_joint": 1.971548880431181,
            "shoulder_lift_joint": -1.1394869514688781,
            "shoulder_pan_joint": 0.12281150262730567,
            "wrist_1_joint": -0.7804693444481463,
            "wrist_2_joint": 0.12958644648617612,
            "wrist_3_joint": 3.0906942077768043
        }
    },
    "waypoints": [
        {
            "positions": [
                0.12281150262730567,
                -1.1394869514688781,
                1.971548880431181,
                -0.7804693444481463,
                0.12958644648617612,
                3.0906942077768043
            ]
        },
        {
            "positions": [
                0.05727231205242761,
                -1.1729675992392818,
                2.0357302135891193,
                -0.8142907211202166,
                0.28788597690706297,
                3.1043483591376595
            ]
        },
        {
            "positions": [
                -0.00826687852245045,
                -1.2064482470096853,
                2.099911546747058,
                -0.8481120977922869,
                0.4461855073279498,
                3.118002510498515
            ]
        },
        {
            "positions": [
                -0.07380606909732851,
                -1.239928894780089,
                2.164092879904996,
                -0.8819334744643572,
                0.6044850377488367,
                3.1316566618593704
            ]
        },
        {
            "positions": [
                -0.13934525967220657,
                -1.2734095425504925,
                2.2282742130629343,
                -0.9157548511364275,
                0.7627845681697235,
                3.145310813220226
            ]
        },
        {
            "positions": [
                -0.20488445024708468,
                -1.3068901903208963,
                2.292455546220873,
                -0.9495762278084978,
                0.9210840985906105,
                3.1589649645810813
            ]
        },
        {
            "positions": [
                -0.2704236408219627,
                -1.3403708380912998,
                2.3566368793788115,
                -0.9833976044805681,
                1.079383629011497,
                3.172619115941937
            ]
        },
        {
            "positions": [
                -0.3359628313968408,
                -1.3738514858617035,
                2.4208182125367497,
                -1.0172189811526384,
                1.2376831594323843,
                3.1862732673027923
            ]
        }
    ]
}