{
    "goal": {
        "global_pose": {
            "orientation": {
                "w": 0.5084816217422485,
                "x": -0.49083608388900757,
                "y": 0.5182115435600281,
                "z": -0.4816462993621826
            },
            "position": {
                "x": 0.5540239810943604,
                "y": 0.030875300988554955,
                "z": 0.16403168439865112
            }
        },
        "name": "move_to_storage_A"
    },
    "id": "LBKPIECE_move_to_storage_A_146",
    "joint_names": [
        "shoulder_pan_joint",
        "shoulder_lift_joint",
        "elbow_joint",
        "wrist_1_joint",
        "wrist_2_joint",
        "wrist_3_joint"
    ],
    "metrics": {
        "cart_traj_len": 0.3526698829355698,
        "distance_elbow_joint": 0.44858467974506966,
        "distance_shoulder_lift_joint": 0.233779941864928,
        "distance_shoulder_pan_joint": 0.4577361189643555,
        "distance_wrist_1_joint": 0.24242762838677145,
        "distance_wrist_2_joint": 1.1119779192852883,
        "distance_wrist_3_joint": 0.09522380490031024,
        "smoothness": 8.881784197001252e-16,
        "time": 0.931738416,
        "traj_len": 1.6092638357791813,
        "weighted_distance": 2.0333674657128267
    },
    "planner": "LBKPIECE",
    "start": {
        "state": {
            "elbow_joint": 1.971548880431181,
            "shoulder_lift_joint": -1.1394869514688781,
            "shoulder_pan_joint": 0.12281150262730567,
            "wrist_1_joint": -0.7804693444481463,
            "wrist_2_joint": 0.12958644648617612,
            "wrist_3_joint": 3.0906942077768043
        }
    },
    "waypoints": [
        {
            "positions": [
                0.12281150262730567,
                -1.1394869514688781,
                1.971548880431181,
                -0.7804693444481463,
                0.12958644648617612,
                3.0906942077768043
            ]
        },
        {
            "positions": [
                0.057420628489540604,
                -1.1728840860210108,
                2.035632406109048,
                -0.8151018627891137,
                0.288440434955503,
                3.1042976084768488
            ]
        },
        {
            "positions": [
                -0.007970245648224461,
                -1.2062812205731432,
                2.099715931786915,
                -0.849734381130081,
                0.4472944234248299,
                3.117901009176893
            ]
        },
        {
            "positions": [
                -0.07336111978598953,
                -1.239678355125276,
                2.163799457464782,
                -0.8843668994710483,
                0.6061484118941568,
                3.1315044098769373
            ]
        },
        {
            "positions": [
                -0.1387519939237546,
                -1.2730754896774084,
                2.227882983142649,
                -0.9189994178120157,
                0.7650024003634837,
                3.1451078105769814
            ]
        },
        {
            "positions": [
                -0.2041428680615197,
                -1.306472624229541,
                2.2919665088205163,
                -0.953631936152983,
                0.9238563888328106,
                3.158711211277026
            ]
        },
        {
            "positions": [
                -0.2695337421992847,
                -1.3398697587816735,
                2.3560500344983835,
                -0.9882644544939504,
                1.0827103773021376,
                3.17231461197707
            ]
        },
        {
            "positions": [
                -0.33492461633704984,
                -1.3732668933338061,
                2.4201335601762506,
                -1.0228969728349178,
                1.2415643657714646,
                3.1859180126771145
            ]
        }
    ]
}