{
    "goal": {
        "global_pose": {
            "orientation": {
                "w": 0.005598929693374612,
                "x": 0.007748599140229565,
                "y": 0.7110244013736278,
                "z": -0.7031023480610252
            },
            "position": {
                "x": 0.1141497679147869,
                "y": -0.7141253447532654,
                "z": 0.3711530566215515
            }
        },
        "name": "move_to_auspresseinheit_B"
    },
    "id": "LBKPIECE_move_to_auspresseinheit_B_141",
    "joint_names": [
        "shoulder_pan_joint",
        "shoulder_lift_joint",
        "elbow_joint",
        "wrist_1_joint",
        "wrist_2_joint",
        "wrist_3_joint"
    ],
    "metrics": {
        "cart_traj_len": 0.5641791621418086,
        "distance_elbow_joint": 0.06668005944812294,
        "distance_shoulder_lift_joint": 0.2933594514556639,
        "distance_shoulder_pan_joint": 0.5734203177803678,
        "distance_wrist_1_joint": 0.33883869746319883,
        "distance_wrist_2_joint": 1.007329784503461,
        "distance_wrist_3_joint": 0.00591427196159211,
        "smoothness": 0.0,
        "time": 0.600321603,
        "traj_len": 1.5118011055070726,
        "weighted_distance": 1.9088058069123353
    },
    "planner": "LBKPIECE",
    "start": {
        "state": {
            "elbow_joint": 2.0193061681459312,
            "shoulder_lift_joint": -1.1220205130644991,
            "shoulder_pan_joint": -1.0952072088045026,
            "wrist_1_joint": -0.8559671810662515,
            "wrist_2_joint": 0.4759638712940361,
            "wrist_3_joint": 3.159081874192446
        }
    },
    "waypoints": [
        {
            "positions": [
                -1.0952072088045026,
                -1.1220205130644991,
                2.0193061681459312,
                -0.8559671810662515,
                0.4759638712940361,
                3.159081874192446
            ]
        },
        {
            "positions": [
                -1.1907772617678973,
                -1.1709137549737765,
                2.0081928249045773,
                -0.7994940648223849,
                0.6438521687112796,
                3.1580961621988473
            ]
        },
        {
            "positions": [
                -1.2863473147312918,
                -1.2198069968830538,
                1.9970794816632236,
                -0.7430209485785185,
                0.811740466128523,
                3.1571104502052485
            ]
        },
        {
            "positions": [
                -1.3819173676946865,
                -1.2687002387923312,
                1.9859661384218699,
                -0.6865478323346521,
                0.9796287635457666,
                3.15612473821165
            ]
        },
        {
            "positions": [
                -1.4774874206580813,
                -1.3175934807016083,
                1.974852795180516,
                -0.6300747160907856,
                1.14751706096301,
                3.1551390262180514
            ]
        },
        {
            "positions": [
                -1.5730574736214757,
                -1.3664867226108857,
                1.963739451939162,
                -0.573601599846919,
                1.3154053583802536,
                3.1541533142244527
            ]
        },
        {
            "positions": [
                -1.6686275265848705,
                -1.415379964520163,
                1.9526261086978083,
                -0.5171284836030526,
                1.4832936557974972,
                3.153167602230854
            ]
        }
    ]
}