{
    "goal": {
        "global_pose": {
            "orientation": {
                "w": -0.4816463035849501,
                "x": 0.5182115481033762,
                "y": 0.4908360881923453,
                "z": -0.5084816262002911
            },
            "position": {
                "x": -0.8240239810943604,
                "y": 0.19912469901144506,
                "z": 0.16403168439865112
            }
        },
        "name": "move_to_storage_D"
    },
    "id": "LBKPIECE_move_to_storage_D_93",
    "joint_names": [
        "shoulder_pan_joint",
        "shoulder_lift_joint",
        "elbow_joint",
        "wrist_1_joint",
        "wrist_2_joint",
        "wrist_3_joint"
    ],
    "metrics": {
        "cart_traj_len": 0.9139815719279932,
        "distance_elbow_joint": 0.9073433482396811,
        "distance_shoulder_lift_joint": 0.17218776100713207,
        "distance_shoulder_pan_joint": 0.35297434955996426,
        "distance_wrist_1_joint": 3.8905467925800523,
        "distance_wrist_2_joint": 1.78854102758708,
        "distance_wrist_3_joint": 3.3351677950709395,
        "smoothness": 0.4471455183643631,
        "time": 0.33600442100000005,
        "traj_len": 3.232144964887072,
        "weighted_distance": 4.774535001898495
    },
    "planner": "LBKPIECE",
    "start": {
        "state": {
            "elbow_joint": -2.384821990628643,
            "shoulder_lift_joint": -2.278805467437664,
            "shoulder_pan_joint": -0.18546946439364564,
            "wrist_1_joint": 1.4845938187801415,
            "wrist_2_joint": 0.178987772454074,
            "wrist_3_joint": 0.03710569632802521
        }
    },
    "waypoints": [
        {
            "positions": [
                -0.18546946439364564,
                -2.278805467437664,
                -2.384821990628643,
                1.4845938187801415,
                0.178987772454074,
                0.03710569632802521
            ]
        },
        {
            "positions": [
                -0.12900302629775912,
                -2.277196633325203,
                -2.413285096523116,
                1.5019251935226763,
                0.12158524942914076,
                -0.0063015446911891745
            ]
        },
        {
            "positions": [
                -0.07253658820187259,
                -2.2755877992127416,
                -2.441748202417589,
                1.519256568265211,
                0.06418272640420752,
                -0.04970878571040356
            ]
        },
        {
            "positions": [
                -0.0492864594269161,
                -2.2490520002126626,
                -2.3199400325797503,
                1.398962672719841,
                0.06518178331633012,
                0.027367393713274263
            ]
        },
        {
            "positions": [
                -0.026036330651959608,
                -2.222516201212584,
                -2.198131862741912,
                1.278668777174471,
                0.06618084022845272,
                0.10444357313695209
            ]
        },
        {
            "positions": [
                -0.002786201877003111,
                -2.1959804022125056,
                -2.076323692904074,
                1.1583748816291008,
                0.06717989714057532,
                0.1815197525606299
            ]
        },
        {
            "positions": [
                0.02046392689795337,
                -2.1694446032124266,
                -1.9545155230662354,
                1.0380809860837308,
                0.06817895405269792,
                0.25859593198430775
            ]
        },
        {
            "positions": [
                0.04371405567290988,
                -2.1429088042123476,
                -1.832707353228397,
                0.9177870905383607,
                0.06917801096482051,
                0.3356721114079856
            ]
        },
        {
            "positions": [
                0.06696418444786637,
                -2.116373005212269,
                -1.7108991833905587,
                0.7974931949929907,
                0.07017706787694311,
                0.4127482908316634
            ]
        },
        {
            "positions": [
                0.061937149411943754,
                -2.116860770151356,
                -1.716877589261744,
                0.6407871615018526,
                -0.013210014126280784,
                0.5520431026561856
            ]
        },
        {
            "positions": [
                0.05691011437602114,
                -2.117348535090443,
                -1.7228559951329292,
                0.48408112801071446,
                -0.09659709612950468,
                0.6913379144807078
            ]
        },
        {
            "positions": [
                0.05188307934009853,
                -2.1178363000295297,
                -1.7288344010041143,
                0.32737509451957636,
                -0.17998417813272855,
                0.83063272630523
            ]
        },
        {
            "positions": [
                0.04685604430417592,
                -2.1183240649686166,
                -1.7348128068752997,
                0.17066906102843826,
                -0.26337126013595247,
                0.9699275381297522
            ]
        },
        {
            "positions": [
                0.04182900926825331,
                -2.1188118299077034,
                -1.740791212746485,
                0.013963027537300166,
                -0.34675834213917633,
                1.1092223499542744
            ]
        },
        {
            "positions": [
                0.0368019742323307,
                -2.1192995948467903,
                -1.7467696186176702,
                -0.14274300595383793,
                -0.4301454241424002,
                1.2485171617787967
            ]
        },
        {
            "positions": [
                0.031774939196408086,
                -2.119787359785877,
                -1.7527480244888554,
                -0.29944903944497603,
                -0.5135325061456241,
                1.3878119736033185
            ]
        },
        {
            "positions": [
                0.026747904160485468,
                -2.120275124724964,
                -1.7587264303600407,
                -0.4561550729361141,
                -0.596919588148848,
                1.5271067854278408
            ]
        },
        {
            "positions": [
                0.021720869124562857,
                -2.120762889664051,
                -1.764704836231226,
                -0.6128611064272522,
                -0.6803066701520719,
                1.6664015972523631
            ]
        },
        {
            "positions": [
                0.016693834088640246,
                -2.1212506546031378,
                -1.7706832421024112,
                -0.7695671399183903,
                -0.7636937521552958,
                1.8056964090768854
            ]
        },
        {
            "positions": [
                0.011666799052717627,
                -2.1217384195422246,
                -1.7766616479735964,
                -0.9262731734095286,
                -0.8470808341585198,
                1.9449912209014077
            ]
        },
        {
            "positions": [
                0.006639764016795023,
                -2.1222261844813115,
                -1.7826400538447817,
                -1.0829792069006665,
                -0.9304679161617435,
                2.0842860327259296
            ]
        },
        {
            "positions": [
                0.001612728980872405,
                -2.1227139494203984,
                -1.7886184597159671,
                -1.2396852403918046,
                -1.0138549981649674,
                2.223580844550452
            ]
        },
        {
            "positions": [
                -0.0034143060550501925,
                -2.1232017143594852,
                -1.7945968655871523,
                -1.3963912738829427,
                -1.0972420801681912,
                2.3628756563749738
            ]
        },
        {
            "positions": [
                -0.008441341090972818,
                -2.123689479298572,
                -1.8005752714583374,
                -1.5530973073740808,
                -1.1806291621714153,
                2.502170468199496
            ]
        },
        {
            "positions": [
                -0.013468376126895429,
                -2.124177244237659,
                -1.8065536773295228,
                -1.709803340865219,
                -1.2640162441746392,
                2.6414652800240184
            ]
        },
        {
            "positions": [
                -0.01849541116281804,
                -2.124665009176746,
                -1.8125320832007081,
                -1.866509374356357,
                -1.347403326177863,
                2.7807600918485407
            ]
        },
        {
            "positions": [
                -0.02352244619874065,
                -2.1251527741158327,
                -1.8185104890718933,
                -2.023215407847495,
                -1.430790408181087,
                2.920054903673063
            ]
        },
        {
            "positions": [
                -0.028549481234663263,
                -2.1256405390549196,
                -1.8244888949430784,
                -2.1799214413386334,
                -1.5141774901843108,
                3.059349715497585
            ]
        },
        {
            "positions": [
                -0.033576516270585874,
                -2.1261283039940064,
                -1.8304673008142638,
                -2.3366274748297715,
                -1.5975645721875347,
                3.198644527322107
            ]
        }
    ]
}