{
    "goal": {
        "global_pose": {
            "orientation": {
                "w": 0.5084816262002911,
                "x": -0.4908360881923452,
                "y": 0.5182115481033761,
                "z": -0.48164630358495003
            },
            "position": {
                "x": 0.5540239810943604,
                "y": -0.46912469901144505,
                "z": 0.16403168439865112
            }
        },
        "name": "move_to_storage_B"
    },
    "id": "LBKPIECE_move_to_storage_B_100",
    "joint_names": [
        "shoulder_pan_joint",
        "shoulder_lift_joint",
        "elbow_joint",
        "wrist_1_joint",
        "wrist_2_joint",
        "wrist_3_joint"
    ],
    "metrics": {
        "cart_traj_len": 0.832600535182037,
        "distance_elbow_joint": 0.436854627511017,
        "distance_shoulder_lift_joint": 0.4566894784637725,
        "distance_shoulder_pan_joint": 0.6509877556126877,
        "distance_wrist_1_joint": 2.9779692529022226,
        "distance_wrist_2_joint": 2.701151945836191,
        "distance_wrist_3_joint": 3.138485220885494,
        "smoothness": 0.10936340382163613,
        "time": 0.43691117,
        "traj_len": 3.2190275365724017,
        "weighted_distance": 4.724217387220955
    },
    "planner": "LBKPIECE",
    "start": {
        "state": {
            "elbow_joint": 1.6649325340416963,
            "shoulder_lift_joint": -0.6616387945129425,
            "shoulder_pan_joint": -0.9139837929255878,
            "wrist_1_joint": 2.1467571094334352,
            "wrist_2_joint": -2.234195976750228,
            "wrist_3_joint": 0.005470921511140723
        }
    },
    "waypoints": [
        {
            "positions": [
                -0.9139837929255878,
                -0.6616387945129425,
                1.6649325340416963,
                2.1467571094334352,
                -2.234195976750228,
                0.005470921511140723
            ]
        },
        {
            "positions": [
                -0.835744193860901,
                -0.7015317650856089,
                1.6498945981601525,
                2.1116940747680744,
                -2.173530492448929,
                -0.04999331940432702
            ]
        },
        {
            "positions": [
                -0.7575045947962142,
                -0.7414247356582754,
                1.634856662278609,
                2.076631040102714,
                -2.11286500814763,
                -0.10545756031979477
            ]
        },
        {
            "positions": [
                -0.6792649957315273,
                -0.7813177062309418,
                1.6198187263970651,
                2.041568005437353,
                -2.052199523846331,
                -0.1609218012352625
            ]
        },
        {
            "positions": [
                -0.6959157540682724,
                -0.7947981289007727,
                1.6354883591917206,
                1.9266567994811075,
                -1.9514333041290393,
                -0.27980550116082614
            ]
        },
        {
            "positions": [
                -0.7125665124050174,
                -0.8082785515706036,
                1.651157991986376,
                1.8117455935248619,
                -1.8506670844117474,
                -0.3986892010863897
            ]
        },
        {
            "positions": [
                -0.7292172707417626,
                -0.8217589742404345,
                1.6668276247810314,
                1.6968343875686163,
                -1.7499008646944558,
                -0.5175729010119534
            ]
        },
        {
            "positions": [
                -0.7458680290785077,
                -0.8352393969102655,
                1.682497257575687,
                1.5819231816123707,
                -1.649134644977164,
                -0.636456600937517
            ]
        },
        {
            "positions": [
                -0.7625187874152528,
                -0.8487198195800965,
                1.6981668903703424,
                1.467011975656125,
                -1.5483684252598722,
                -0.7553403008630806
            ]
        },
        {
            "positions": [
                -0.7791695457519978,
                -0.8622002422499273,
                1.7138365231649977,
                1.3521007696998795,
                -1.4476022055425806,
                -0.8742240007886442
            ]
        },
        {
            "positions": [
                -0.7958203040887429,
                -0.8756806649197583,
                1.7295061559596532,
                1.2371895637436336,
                -1.3468359858252885,
                -0.993107700714208
            ]
        },
        {
            "positions": [
                -0.812471062425488,
                -0.8891610875895892,
                1.7451757887543087,
                1.1222783577873883,
                -1.246069766107997,
                -1.1119914006397715
            ]
        },
        {
            "positions": [
                -0.8291218207622331,
                -0.9026415102594201,
                1.760845421548964,
                1.0073671518311424,
                -1.145303546390705,
                -1.230875100565335
            ]
        },
        {
            "positions": [
                -0.8457725790989782,
                -0.916121932929251,
                1.7765150543436194,
                0.8924559458748968,
                -1.0445373266734133,
                -1.3497588004908987
            ]
        },
        {
            "positions": [
                -0.8624233374357233,
                -0.929602355599082,
                1.792184687138275,
                0.7775447399186513,
                -0.9437711069561214,
                -1.4686425004164623
            ]
        },
        {
            "positions": [
                -0.8790740957724683,
                -0.9430827782689128,
                1.8078543199329304,
                0.6626335339624057,
                -0.8430048872388298,
                -1.5875262003420259
            ]
        },
        {
            "positions": [
                -0.8957248541092135,
                -0.9565632009387439,
                1.8235239527275857,
                0.54772232800616,
                -0.7422386675215378,
                -1.7064099002675894
            ]
        },
        {
            "positions": [
                -0.9123756124459586,
                -0.9700436236085748,
                1.8391935855222412,
                0.43281112204991423,
                -0.641472447804246,
                -1.8252936001931532
            ]
        },
        {
            "positions": [
                -0.9290263707827037,
                -0.9835240462784057,
                1.8548632183168967,
                0.31789991609366886,
                -0.5407062280869543,
                -1.9441773001187166
            ]
        },
        {
            "positions": [
                -0.9456771291194488,
                -0.9970044689482367,
                1.8705328511115522,
                0.20298871013742326,
                -0.4399400083696625,
                -2.0630610000442804
            ]
        },
        {
            "positions": [
                -0.9623278874561938,
                -1.0104848916180675,
                1.8862024839062075,
                0.08807750418117744,
                -0.3391737886523707,
                -2.1819446999698444
            ]
        },
        {
            "positions": [
                -0.9789786457929389,
                -1.0239653142878984,
                1.901872116700863,
                -0.026833701775068164,
                -0.23840756893507908,
                -2.3008283998954075
            ]
        },
        {
            "positions": [
                -0.995629404129684,
                -1.0374457369577295,
                1.9175417494955185,
                -0.14174490773131376,
                -0.13764134921778726,
                -2.4197120998209716
            ]
        },
        {
            "positions": [
                -1.012280162466429,
                -1.0509261596275603,
                1.9332113822901738,
                -0.25665611368755936,
                -0.03687512950049543,
                -2.538595799746535
            ]
        },
        {
            "positions": [
                -1.028930920803174,
                -1.0644065822973912,
                1.9488810150848292,
                -0.37156731964380496,
                0.06389109021679618,
                -2.6574794996720983
            ]
        },
        {
            "positions": [
                -1.0455816791399193,
                -1.0778870049672222,
                1.9645506478794847,
                -0.48647852560005056,
                0.16465730993408823,
                -2.7763631995976623
            ]
        },
        {
            "positions": [
                -1.0622324374766643,
                -1.091367427637053,
                1.9802202806741402,
                -0.6013897315562962,
                0.26542352965137983,
                -2.895246899523226
            ]
        },
        {
            "positions": [
                -1.0788831958134093,
                -1.104847850306884,
                1.9958899134687955,
                -0.7163009375125418,
                0.36618974936867144,
                -3.0141305994487895
            ]
        },
        {
            "positions": [
                -1.0955339541501545,
                -1.118328272976715,
                2.011559546263451,
                -0.8312121434687874,
                0.4669559690859636,
                -3.133014299374353
            ]
        }
    ]
}