{
    "goal": {
        "global_pose": {
            "orientation": {
                "w": -0.4816463035849501,
                "x": 0.5182115481033762,
                "y": 0.4908360881923453,
                "z": -0.5084816262002911
            },
            "position": {
                "x": -0.8240239810943604,
                "y": -0.300875300988555,
                "z": 0.16403168439865112
            }
        },
        "name": "move_to_storage_C"
    },
    "id": "LBKPIECE_move_to_storage_C_95",
    "joint_names": [
        "shoulder_pan_joint",
        "shoulder_lift_joint",
        "elbow_joint",
        "wrist_1_joint",
        "wrist_2_joint",
        "wrist_3_joint"
    ],
    "metrics": {
        "cart_traj_len": 0.5764761196943688,
        "distance_elbow_joint": 0.25978156307842726,
        "distance_shoulder_lift_joint": 0.19003801708987123,
        "distance_shoulder_pan_joint": 0.49500090758669657,
        "distance_wrist_1_joint": 0.08590076202638952,
        "distance_wrist_2_joint": 1.0630709714689355,
        "distance_wrist_3_joint": 0.06051926991133527,
        "smoothness": 0.0,
        "time": 0.28470455,
        "traj_len": 1.467757299815489,
        "weighted_distance": 1.8504923032749019
    },
    "planner": "LBKPIECE",
    "start": {
        "state": {
            "elbow_joint": 2.0108683149792914,
            "shoulder_lift_joint": -1.1634956873317392,
            "shoulder_pan_joint": -2.4736205022346,
            "wrist_1_joint": -0.8367026793690192,
            "wrist_2_joint": 0.6746043897045053,
            "wrist_3_joint": 3.133522094754363
        }
    },
    "waypoints": [
        {
            "positions": [
                -2.4736205022346,
                -1.1634956873317392,
                2.0108683149792914,
                -0.8367026793690192,
                0.6746043897045053,
                3.133522094754363
            ]
        },
        {
            "positions": [
                -2.5561206534990495,
                -1.1318226844834274,
                1.9675713877995535,
                -0.8223858856979542,
                0.8517828849493279,
                3.1436086397395857
            ]
        },
        {
            "positions": [
                -2.638620804763499,
                -1.1001496816351155,
                1.9242744606198157,
                -0.8080690920268894,
                1.0289613801941504,
                3.1536951847248083
            ]
        },
        {
            "positions": [
                -2.7211209560279483,
                -1.0684766787868036,
                1.8809775334400778,
                -0.7937522983558245,
                1.2061398754389732,
                3.163781729710031
            ]
        },
        {
            "positions": [
                -2.8036211072923978,
                -1.0368036759384918,
                1.83768060626034,
                -0.7794355046847595,
                1.3833183706837957,
                3.1738682746952533
            ]
        },
        {
            "positions": [
                -2.886121258556847,
                -1.00513067309018,
                1.794383679080602,
                -0.7651187110136946,
                1.5604968659286182,
                3.183954819680476
            ]
        },
        {
            "positions": [
                -2.9686214098212966,
                -0.973457670241868,
                1.7510867519008642,
                -0.7508019173426297,
                1.7376753611734408,
                3.1940413646656984
            ]
        }
    ]
}