{
    "goal": {
        "global_pose": {
            "orientation": {
                "w": 0.7047431468963623,
                "x": -0.7094548344612122,
                "y": 0.0024358443915843964,
                "z": -0.0022348060738295317
            },
            "position": {
                "x": 0.6094750761985779,
                "y": 0.3671506643295288,
                "z": 0.19426114857196808
            }
        },
        "name": "move_to_magneteinheit_A"
    },
    "id": "LBKPIECE_move_to_magneteinheit_A_5",
    "joint_names": [
        "shoulder_pan_joint",
        "shoulder_lift_joint",
        "elbow_joint",
        "wrist_1_joint",
        "wrist_2_joint",
        "wrist_3_joint"
    ],
    "metrics": {
        "cart_traj_len": 1.5942425790356607,
        "distance_elbow_joint": 3.527156165418396,
        "distance_shoulder_lift_joint": 1.1348256013321951,
        "distance_shoulder_pan_joint": 1.2425230952685526,
        "distance_wrist_1_joint": 3.8355168781961506,
        "distance_wrist_2_joint": 1.7009426212055916,
        "distance_wrist_3_joint": 5.028937470210034,
        "smoothness": 5.783487386107978e-16,
        "time": 0.7608170089999999,
        "traj_len": 4.058312682831489,
        "weighted_distance": 5.662529140892143
    },
    "planner": "LBKPIECE",
    "start": {
        "state": {
            "elbow_joint": -1.5739458827952972,
            "shoulder_lift_joint": 0.006533473998580023,
            "shoulder_pan_joint": -1.1188671628667068,
            "wrist_1_joint": 3.138208179676308,
            "wrist_2_joint": -1.5706037135050406,
            "wrist_3_joint": -2.0226958329764257
        }
    },
    "waypoints": [
        {
            "positions": [
                -1.1188671628667068,
                0.006533473998580023,
                -1.5739458827952972,
                3.138208179676308,
                -1.5706037135050406,
                -2.0226958329764257
            ]
        },
        {
            "positions": [
                -1.089283279646027,
                -0.020486183175996056,
                -1.4899659740948592,
                3.0468863492430667,
                -1.5301050796668123,
                -1.9029592265428534
            ]
        },
        {
            "positions": [
                -1.0596993964253472,
                -0.047505840350572134,
                -1.4059860653944212,
                2.9555645188098247,
                -1.4896064458285838,
                -1.7832226201092813
            ]
        },
        {
            "positions": [
                -1.0301155132046673,
                -0.07452549752514821,
                -1.3220061566939831,
                2.8642426883765832,
                -1.4491078119903555,
                -1.663486013675709
            ]
        },
        {
            "positions": [
                -1.0005316299839875,
                -0.10154515469972429,
                -1.2380262479935453,
                2.7729208579433413,
                -1.408609178152127,
                -1.543749407242137
            ]
        },
        {
            "positions": [
                -0.9709477467633078,
                -0.12856481187430036,
                -1.1540463392931073,
                2.6815990275101,
                -1.3681105443138988,
                -1.4240128008085646
            ]
        },
        {
            "positions": [
                -0.9413638635426279,
                -0.15558446904887643,
                -1.0700664305926693,
                2.5902771970768583,
                -1.3276119104756703,
                -1.3042761943749923
            ]
        },
        {
            "positions": [
                -0.9117799803219481,
                -0.1826041262234525,
                -0.9860865218922312,
                2.4989553666436164,
                -1.287113276637442,
                -1.1845395879414202
            ]
        },
        {
            "positions": [
                -0.8821960971012682,
                -0.2096237833980286,
                -0.9021066131917933,
                2.407633536210375,
                -1.2466146427992135,
                -1.0648029815078481
            ]
        },
        {
            "positions": [
                -0.8526122138805885,
                -0.23664344057260467,
                -0.8181267044913553,
                2.316311705777133,
                -1.2061160089609853,
                -0.9450663750742758
            ]
        },
        {
            "positions": [
                -0.8230283306599087,
                -0.2636630977471808,
                -0.7341467957909172,
                2.2249898753438915,
                -1.165617375122757,
                -0.8253297686407035
            ]
        },
        {
            "positions": [
                -0.7934444474392288,
                -0.2906827549217569,
                -0.6501668870904792,
                2.1336680449106495,
                -1.1251187412845285,
                -0.7055931622071312
            ]
        },
        {
            "positions": [
                -0.763860564218549,
                -0.31770241209633293,
                -0.5661869783900413,
                2.042346214477408,
                -1.0846201074463002,
                -0.5858565557735591
            ]
        },
        {
            "positions": [
                -0.7342766809978691,
                -0.34472206927090904,
                -0.48220706968960325,
                1.9510243840441663,
                -1.0441214736080717,
                -0.4661199493399868
            ]
        },
        {
            "positions": [
                -0.7046927977771893,
                -0.3717417264454851,
                -0.3982271609891652,
                1.8597025536109246,
                -1.0036228397698435,
                -0.3463833429064147
            ]
        },
        {
            "positions": [
                -0.6751089145565095,
                -0.3987613836200612,
                -0.3142472522887272,
                1.768380723177683,
                -0.963124205931615,
                -0.2266467364728424
            ]
        },
        {
            "positions": [
                -0.6455250313358296,
                -0.42578104079463724,
                -0.23026734358828937,
                1.6770588927444414,
                -0.9226255720933867,
                -0.1069101300392703
            ]
        },
        {
            "positions": [
                -0.6159411481151498,
                -0.45280069796921335,
                -0.14628743488785112,
                1.5857370623111995,
                -0.8821269382551583,
                0.012826476394302233
            ]
        },
        {
            "positions": [
                -0.58635726489447,
                -0.4798203551437894,
                -0.06230752618741331,
                1.494415231877958,
                -0.8416283044169299,
                0.1325630828278741
            ]
        },
        {
            "positions": [
                -0.5567733816737902,
                -0.5068400123183655,
                0.021672382513024724,
                1.4030934014447163,
                -0.8011296705787015,
                0.2522996892614464
            ]
        },
        {
            "positions": [
                -0.5271894984531104,
                -0.5338596694929415,
                0.10565229121346276,
                1.3117715710114746,
                -0.7606310367404732,
                0.3720362956950187
            ]
        },
        {
            "positions": [
                -0.4976056152324305,
                -0.5608793266675176,
                0.1896321999139008,
                1.2204497405782329,
                -0.7201324029022448,
                0.49177290212859104
            ]
        },
        {
            "positions": [
                -0.4680217320117507,
                -0.5878989838420937,
                0.2736121086143388,
                1.129127910144991,
                -0.6796337690640164,
                0.6115095085621634
            ]
        },
        {
            "positions": [
                -0.43843784879107084,
                -0.6149186410166698,
                0.3575920173147771,
                1.0378060797117494,
                -0.6391351352257879,
                0.7312461149957357
            ]
        },
        {
            "positions": [
                -0.4088539655703911,
                -0.6419382981912458,
                0.44157192601521467,
                0.9464842492785079,
                -0.5986365013875597,
                0.8509827214293075
            ]
        },
        {
            "positions": [
                -0.37927008234971127,
                -0.6689579553658219,
                0.5255518347156529,
                0.855162418845266,
                -0.5581378675493314,
                0.9707193278628798
            ]
        },
        {
            "positions": [
                -0.3496861991290313,
                -0.695977612540398,
                0.6095317434160907,
                0.7638405884120245,
                -0.5176392337111029,
                1.0904559342964522
            ]
        },
        {
            "positions": [
                -0.3201023159083515,
                -0.7229972697149741,
                0.693511652116529,
                0.6725187579787826,
                -0.4771405998728744,
                1.2101925407300245
            ]
        },
        {
            "positions": [
                -0.29051843268767175,
                -0.7500169268895501,
                0.7774915608169668,
                0.5811969275455411,
                -0.43664196603464633,
                1.3299291471635963
            ]
        },
        {
            "positions": [
                -0.2609345494669919,
                -0.7770365840641262,
                0.8614714695174046,
                0.4898750971122996,
                -0.39614333219641784,
                1.4496657535971686
            ]
        },
        {
            "positions": [
                -0.23135066624631206,
                -0.8040562412387023,
                0.9454513782178429,
                0.39855326667905766,
                -0.35564469835818935,
                1.569402360030741
            ]
        },
        {
            "positions": [
                -0.20176678302563222,
                -0.8310758984132784,
                1.0294312869182811,
                0.3072314362458157,
                -0.3151460645199611,
                1.6891389664643137
            ]
        },
        {
            "positions": [
                -0.1721828998049525,
                -0.8580955555878544,
                1.1134111956187185,
                0.21590960581257468,
                -0.2746474306817328,
                1.8088755728978851
            ]
        },
        {
            "positions": [
                -0.14259901658427265,
                -0.8851152127624305,
                1.1973911043191567,
                0.12458777537933274,
                -0.23414879684350431,
                1.928612179331458
            ]
        },
        {
            "positions": [
                -0.1130151333635927,
                -0.9121348699370067,
                1.281371013019595,
                0.03326594494609081,
                -0.19365016300527604,
                2.04834878576503
            ]
        },
        {
            "positions": [
                -0.08343125014291286,
                -0.9391545271115828,
                1.3653509217200328,
                -0.05805588548715068,
                -0.15315152916704755,
                2.1680853921986025
            ]
        },
        {
            "positions": [
                -0.05384736692223324,
                -0.9661741842861588,
                1.4493308304204706,
                -0.14937771592039217,
                -0.11265289532881928,
                2.287821998632174
            ]
        },
        {
            "positions": [
                -0.0242634837015534,
                -0.9931938414607349,
                1.5333107391209089,
                -0.2406995463536341,
                -0.07215426149059079,
                2.4075586050657463
            ]
        },
        {
            "positions": [
                0.00532039951912644,
                -1.020213498635311,
                1.6172906478213467,
                -0.3320213767868756,
                -0.03165562765236252,
                2.5272952114993186
            ]
        },
        {
            "positions": [
                0.03490428273980628,
                -1.047233155809887,
                1.701270556521785,
                -0.42334320722011753,
                0.008843006185865976,
                2.647031817932891
            ]
        },
        {
            "positions": [
                0.06448816596048612,
                -1.074252812984463,
                1.7852504652222227,
                -0.514665037653359,
                0.04934164002409425,
                2.766768424366463
            ]
        },
        {
            "positions": [
                0.09407204918116596,
                -1.101272470159039,
                1.8692303739226606,
                -0.6059868680866005,
                0.08984027386232252,
                2.8865050308000355
            ]
        },
        {
            "positions": [
                0.12365593240184584,
                -1.1282921273336153,
                1.9532102826230986,
                -0.6973086985198423,
                0.13033890770055104,
                3.006241637233608
            ]
        }
    ]
}