{
    "goal": {
        "global_pose": {
            "orientation": {
                "w": 0.5084816262002911,
                "x": -0.4908360881923452,
                "y": 0.5182115481033761,
                "z": -0.48164630358495003
            },
            "position": {
                "x": 0.5540239810943604,
                "y": -0.46912469901144505,
                "z": 0.16403168439865112
            }
        },
        "name": "move_to_storage_B"
    },
    "id": "LBKPIECE_move_to_storage_B_10",
    "joint_names": [
        "shoulder_pan_joint",
        "shoulder_lift_joint",
        "elbow_joint",
        "wrist_1_joint",
        "wrist_2_joint",
        "wrist_3_joint"
    ],
    "metrics": {
        "cart_traj_len": 5.167146102183633,
        "distance_elbow_joint": 6.382215210858039,
        "distance_shoulder_lift_joint": 3.2658560683847915,
        "distance_shoulder_pan_joint": 4.617141026303002,
        "distance_wrist_1_joint": 6.6918346808950915,
        "distance_wrist_2_joint": 10.27714396611476,
        "distance_wrist_3_joint": 3.128405240767477,
        "smoothness": 0.5819658412539488,
        "time": 0.434568947,
        "traj_len": 5.861961804150823,
        "weighted_distance": 7.588701161718517
    },
    "planner": "LBKPIECE",
    "start": {
        "state": {
            "elbow_joint": 1.6649325340416963,
            "shoulder_lift_joint": -0.6616387945129425,
            "shoulder_pan_joint": -0.9139837929255878,
            "wrist_1_joint": 2.1467571094334352,
            "wrist_2_joint": -2.234195976750228,
            "wrist_3_joint": 0.005470921511140723
        }
    },
    "waypoints": [
        {
            "positions": [
                -0.9139837929255878,
                -0.6616387945129425,
                1.6649325340416963,
                2.1467571094334352,
                -2.234195976750228,
                0.005470921511140723
            ]
        },
        {
            "positions": [
                -0.8233069169008629,
                -0.8049004207718784,
                1.6591775910546427,
                2.1999238437797217,
                -2.3059735775061956,
                0.01321716685658711
            ]
        },
        {
            "positions": [
                -0.7326300408761379,
                -0.9481620470308142,
                1.653422648067589,
                2.2530905781260087,
                -2.3777511782621628,
                0.020963412202033495
            ]
        },
        {
            "positions": [
                -0.641953164851413,
                -1.09142367328975,
                1.6476677050805355,
                2.306257312472295,
                -2.4495287790181304,
                0.028709657547479884
            ]
        },
        {
            "positions": [
                -0.551276288826688,
                -1.2346852995486859,
                1.6419127620934817,
                2.3594240468185816,
                -2.5213063797740976,
                0.036455902892926266
            ]
        },
        {
            "positions": [
                -0.46059941280196304,
                -1.3779469258076218,
                1.636157819106428,
                2.412590781164868,
                -2.593083980530065,
                0.04420214823837266
            ]
        },
        {
            "positions": [
                -0.3699225367772381,
                -1.5212085520665577,
                1.6304028761193745,
                2.4657575155111546,
                -2.664861581286033,
                0.051948393583819044
            ]
        },
        {
            "positions": [
                -0.2792456607525131,
                -1.6644701783254936,
                1.624647933132321,
                2.5189242498574416,
                -2.736639182042,
                0.05969463892926544
            ]
        },
        {
            "positions": [
                -0.18856878472778815,
                -1.8077318045844293,
                1.6188929901452673,
                2.572090984203728,
                -2.808416782797967,
                0.06744088427471182
            ]
        },
        {
            "positions": [
                -0.09789190870306319,
                -1.9509934308433654,
                1.6131380471582135,
                2.6252577185500146,
                -2.8801943835539348,
                0.0751871296201582
            ]
        },
        {
            "positions": [
                -0.007215032678338229,
                -2.094255057102301,
                1.60738310417116,
                2.6784244528963015,
                -2.9519719843099024,
                0.08293337496560459
            ]
        },
        {
            "positions": [
                0.08346184334638673,
                -2.237516683361237,
                1.6016281611841063,
                2.731591187242588,
                -3.0237495850658695,
                0.09067962031105097
            ]
        },
        {
            "positions": [
                0.1741387193711117,
                -2.380778309620173,
                1.5958732181970527,
                2.7847579215888745,
                -3.095527185821837,
                0.09842586565649736
            ]
        },
        {
            "positions": [
                0.1259149653669399,
                -2.3428584400138854,
                1.5162163562119682,
                2.6847186100793934,
                -2.978604417089211,
                0.10467673049723172
            ]
        },
        {
            "positions": [
                0.07769121136276812,
                -2.3049385704075975,
                1.4365594942268833,
                2.584679298569912,
                -2.861681648356585,
                0.1109275953379661
            ]
        },
        {
            "positions": [
                0.029467457358596322,
                -2.26701870080131,
                1.3569026322417987,
                2.4846399870604308,
                -2.7447588796239586,
                0.11717846017870047
            ]
        },
        {
            "positions": [
                -0.01875629664557546,
                -2.229098831195022,
                1.277245770256714,
                2.3846006755509492,
                -2.6278361108913324,
                0.12342932501943485
            ]
        },
        {
            "positions": [
                -0.06698005064974724,
                -2.1911789615887347,
                1.1975889082716293,
                2.284561364041468,
                -2.510913342158706,
                0.12968018986016921
            ]
        },
        {
            "positions": [
                -0.11520380465391905,
                -2.153259091982447,
                1.1179320462865445,
                2.184522052531987,
                -2.3939905734260805,
                0.13593105470090358
            ]
        },
        {
            "positions": [
                -0.16342755865809083,
                -2.115339222376159,
                1.03827518430146,
                2.0844827410225055,
                -2.277067804693454,
                0.14218191954163795
            ]
        },
        {
            "positions": [
                -0.21165131266226261,
                -2.0774193527698714,
                0.9586183223163752,
                1.9844434295130244,
                -2.160145035960828,
                0.14843278438237234
            ]
        },
        {
            "positions": [
                -0.2598750666664344,
                -2.039499483163584,
                0.8789614603312905,
                1.884404118003543,
                -2.0432222672282014,
                0.1546836492231067
            ]
        },
        {
            "positions": [
                -0.3080988206706062,
                -2.001579613557296,
                0.7993045983462058,
                1.7843648064940618,
                -1.9262994984955755,
                0.16093451406384107
            ]
        },
        {
            "positions": [
                -0.356322574674778,
                -1.9636597439510084,
                0.7196477363611211,
                1.6843254949845805,
                -1.8093767297629493,
                0.16718537890457544
            ]
        },
        {
            "positions": [
                -0.4045463286789498,
                -1.9257398743447207,
                0.6399908743760364,
                1.5842861834750992,
                -1.6924539610303233,
                0.1734362437453098
            ]
        },
        {
            "positions": [
                -0.4527700826831216,
                -1.887820004738433,
                0.5603340123909517,
                1.4842468719656179,
                -1.5755311922976971,
                0.1796871085860442
            ]
        },
        {
            "positions": [
                -0.5009938366872934,
                -1.8499001351321454,
                0.4806771504058671,
                1.3842075604561366,
                -1.458608423565071,
                0.18593797342677856
            ]
        },
        {
            "positions": [
                -0.5492175906914651,
                -1.811980265525858,
                0.4010202884207823,
                1.2841682489466553,
                -1.3416856548324447,
                0.19218883826751293
            ]
        },
        {
            "positions": [
                -0.5974413446956369,
                -1.77406039591957,
                0.3213634264356977,
                1.1841289374371742,
                -1.2247628860998185,
                0.1984397031082473
            ]
        },
        {
            "positions": [
                -0.6456650986998087,
                -1.7361405263132825,
                0.2417065644506129,
                1.0840896259276929,
                -1.1078401173671923,
                0.20469056794898166
            ]
        },
        {
            "positions": [
                -0.6938888527039805,
                -1.6982206567069946,
                0.1620497024655283,
                0.9840503144182116,
                -0.9909173486345662,
                0.21094143278971605
            ]
        },
        {
            "positions": [
                -0.7421126067081522,
                -1.6603007871007072,
                0.08239284048044371,
                0.8840110029087305,
                -0.8739945799019404,
                0.2171922976304504
            ]
        },
        {
            "positions": [
                -0.790336360712324,
                -1.6223809174944193,
                0.002735978495358893,
                0.7839716913992492,
                -0.7570718111693138,
                0.2234431624711848
            ]
        },
        {
            "positions": [
                -0.8385601147164958,
                -1.5844610478881318,
                -0.0769208834897257,
                0.6839323798897681,
                -0.640149042436688,
                0.22969402731191915
            ]
        },
        {
            "positions": [
                -0.8867838687206677,
                -1.546541178281844,
                -0.15657774547481051,
                0.5838930683802865,
                -0.5232262737040614,
                0.23594489215265352
            ]
        },
        {
            "positions": [
                -0.9350076227248394,
                -1.5086213086755564,
                -0.2362346074598951,
                0.48385375687080545,
                -0.40630350497143564,
                0.24219575699338788
            ]
        },
        {
            "positions": [
                -0.9832313767290113,
                -1.4707014390692685,
                -0.3158914694449799,
                0.3838144453613239,
                -0.28938073623880944,
                0.24844662183412228
            ]
        },
        {
            "positions": [
                -1.031455130733183,
                -1.432781569462981,
                -0.3955483314300645,
                0.28377513385184283,
                -0.17245796750618325,
                0.25469748667485664
            ]
        },
        {
            "positions": [
                -1.0796788847373548,
                -1.3948616998566932,
                -0.47520519341514933,
                0.1837358223423613,
                -0.05553519877355706,
                0.26094835151559104
            ]
        },
        {
            "positions": [
                -1.1279026387415265,
                -1.3569418302504057,
                -0.5548620554002339,
                0.08369651083288021,
                0.06138756995906913,
                0.2671992163563254
            ]
        },
        {
            "positions": [
                -1.1761263927456984,
                -1.3190219606441178,
                -0.6345189173853185,
                -0.01634280067660132,
                0.17831033869169532,
                0.27345008119705977
            ]
        },
        {
            "positions": [
                -1.22435014674987,
                -1.2811020910378303,
                -0.7141757793704031,
                -0.11638211218608241,
                0.2952331074243215,
                0.2797009460377941
            ]
        },
        {
            "positions": [
                -1.272573900754042,
                -1.2431822214315427,
                -0.7938326413554881,
                -0.21642142369556394,
                0.4121558761569477,
                0.2859518108785285
            ]
        },
        {
            "positions": [
                -1.3207976547582136,
                -1.205262351825255,
                -0.8734895033405727,
                -0.3164607352050446,
                0.5290786448895735,
                0.29220267571926284
            ]
        },
        {
            "positions": [
                -1.3690214087623855,
                -1.1673424822189673,
                -0.9531463653256573,
                -0.4165000467145261,
                0.6460014136222001,
                0.29845354055999723
            ]
        },
        {
            "positions": [
                -1.4172451627665572,
                -1.1294226126126796,
                -1.032803227310742,
                -0.5165393582240072,
                0.7629241823548258,
                0.3047044054007316
            ]
        },
        {
            "positions": [
                -1.465468916770729,
                -1.091502743006392,
                -1.112460089295827,
                -0.6165786697334887,
                0.8798469510874525,
                0.31095527024146596
            ]
        },
        {
            "positions": [
                -1.5136926707749008,
                -1.0535828734001043,
                -1.1921169512809116,
                -0.7166179812429698,
                0.9967697198200782,
                0.31720613508220036
            ]
        },
        {
            "positions": [
                -1.5619164247790727,
                -1.0156630037938166,
                -1.2717738132659961,
                -0.8166572927524514,
                1.1136924885527049,
                0.32345699992293475
            ]
        },
        {
            "positions": [
                -1.6101401787832443,
                -0.9777431341875289,
                -1.3514306752510807,
                -0.9166966042619324,
                1.2306152572853306,
                0.3297078647636691
            ]
        },
        {
            "positions": [
                -1.5395120810550655,
                -0.9843990109752729,
                -1.3257194929596483,
                -0.9875331988602639,
                1.0481579385708153,
                0.3640857823803014
            ]
        },
        {
            "positions": [
                -1.4688839833268867,
                -0.991054887763017,
                -1.300008310668216,
                -1.0583697934585954,
                0.8657006198563,
                0.39846369999693376
            ]
        },
        {
            "positions": [
                -1.398255885598708,
                -0.9977107645507609,
                -1.2742971283767837,
                -1.129206388056927,
                0.6832433011417847,
                0.4328416176135661
            ]
        },
        {
            "positions": [
                -1.3276277878705294,
                -1.004366641338505,
                -1.2485859460853512,
                -1.2000429826552583,
                0.5007859824272693,
                0.46721953523019844
            ]
        },
        {
            "positions": [
                -1.2569996901423506,
                -1.0110225181262489,
                -1.2228747637939188,
                -1.27087957725359,
                0.31832866371275403,
                0.5015974528468308
            ]
        },
        {
            "positions": [
                -1.1863715924141718,
                -1.017678394913993,
                -1.1971635815024866,
                -1.3417161718519215,
                0.13587134499823872,
                0.5359753704634631
            ]
        },
        {
            "positions": [
                -1.115743494685993,
                -1.024334271701737,
                -1.1714523992110542,
                -1.4125527664502529,
                -0.046585973716276596,
                0.5703532880800954
            ]
        },
        {
            "positions": [
                -1.0451153969578142,
                -1.030990148489481,
                -1.145741216919622,
                -1.4833893610485844,
                -0.2290432924307919,
                0.6047312056967278
            ]
        },
        {
            "positions": [
                -0.9744872992296355,
                -1.037646025277225,
                -1.1200300346281895,
                -1.554225955646916,
                -0.4115006111453072,
                0.6391091233133601
            ]
        },
        {
            "positions": [
                -0.9038592015014568,
                -1.044301902064969,
                -1.094318852336757,
                -1.6250625502452474,
                -0.5939579298598225,
                0.6734870409299925
            ]
        },
        {
            "positions": [
                -0.833231103773278,
                -1.0509577788527131,
                -1.0686076700453246,
                -1.695899144843579,
                -0.7764152485743376,
                0.7078649585466248
            ]
        },
        {
            "positions": [
                -0.7626030060450992,
                -1.057613655640457,
                -1.0428964877538924,
                -1.7667357394419105,
                -0.9588725672888532,
                0.7422428761632571
            ]
        },
        {
            "positions": [
                -0.6919749083169205,
                -1.064269532428201,
                -1.01718530546246,
                -1.837572334040242,
                -1.1413298860033687,
                0.7766207937798895
            ]
        },
        {
            "positions": [
                -0.6213468105887417,
                -1.070925409215945,
                -0.9914741231710277,
                -1.9084089286385735,
                -1.3237872047178838,
                0.8109987113965218
            ]
        },
        {
            "positions": [
                -0.5507187128605631,
                -1.077581286003689,
                -0.9657629408795954,
                -1.9792455232369048,
                -1.506244523432399,
                0.8453766290131541
            ]
        },
        {
            "positions": [
                -0.48009061513238427,
                -1.0842371627914331,
                -0.9400517585881629,
                -2.0500821178352364,
                -1.6887018421469142,
                0.8797545466297865
            ]
        },
        {
            "positions": [
                -0.5057027006407632,
                -1.0857866356764754,
                -0.8169487133838986,
                -1.9992907082804219,
                -1.5982704582092593,
                0.9736762806151544
            ]
        },
        {
            "positions": [
                -0.531314786149142,
                -1.0873361085615176,
                -0.6938456681796343,
                -1.9484992987256073,
                -1.5078390742716046,
                1.0675980146005224
            ]
        },
        {
            "positions": [
                -0.5569268716575209,
                -1.08888558144656,
                -0.5707426229753699,
                -1.897707889170793,
                -1.4174076903339496,
                1.1615197485858904
            ]
        },
        {
            "positions": [
                -0.5825389571658998,
                -1.0904350543316021,
                -0.44763957777110563,
                -1.8469164796159785,
                -1.3269763063962947,
                1.2554414825712583
            ]
        },
        {
            "positions": [
                -0.6081510426742787,
                -1.0919845272166444,
                -0.32453653256684123,
                -1.796125070061164,
                -1.2365449224586398,
                1.3493632165566263
            ]
        },
        {
            "positions": [
                -0.6337631281826575,
                -1.0935340001016867,
                -0.20143348736257694,
                -1.7453336605063494,
                -1.1461135385209849,
                1.4432849505419942
            ]
        },
        {
            "positions": [
                -0.6593752136910364,
                -1.095083472986729,
                -0.07833044215831253,
                -1.6945422509515349,
                -1.0556821545833301,
                1.5372066845273622
            ]
        },
        {
            "positions": [
                -0.6849872991994151,
                -1.0966329458717712,
                0.04477260304595165,
                -1.6437508413967206,
                -0.9652507706456752,
                1.6311284185127302
            ]
        },
        {
            "positions": [
                -0.710599384707794,
                -1.0981824187568134,
                0.16787564825021617,
                -1.5929594318419058,
                -0.8748193867080203,
                1.7250501524980981
            ]
        },
        {
            "positions": [
                -0.736211470216173,
                -1.0997318916418557,
                0.29097869345448046,
                -1.5421680222870915,
                -0.7843880027703655,
                1.818971886483466
            ]
        },
        {
            "positions": [
                -0.7618235557245517,
                -1.101281364526898,
                0.41408173865874476,
                -1.491376612732277,
                -0.6939566188327106,
                1.912893620468834
            ]
        },
        {
            "positions": [
                -0.7874356412329306,
                -1.1028308374119402,
                0.537184783863009,
                -1.4405852031774624,
                -0.6035252348950557,
                2.006815354454202
            ]
        },
        {
            "positions": [
                -0.8130477267413094,
                -1.1043803102969827,
                0.6602878290672733,
                -1.389793793622648,
                -0.513093850957401,
                2.10073708843957
            ]
        },
        {
            "positions": [
                -0.8386598122496884,
                -1.105929783182025,
                0.7833908742715379,
                -1.3390023840678333,
                -0.42266246701974586,
                2.194658822424938
            ]
        },
        {
            "positions": [
                -0.8642718977580672,
                -1.1074792560670672,
                0.9064939194758019,
                -1.288210974513019,
                -0.33223108308209115,
                2.288580556410306
            ]
        },
        {
            "positions": [
                -0.889883983266446,
                -1.1090287289521095,
                1.0295969646800662,
                -1.2374195649582045,
                -0.24179969914443622,
                2.382502290395674
            ]
        },
        {
            "positions": [
                -0.915496068774825,
                -1.1105782018371517,
                1.152700009884331,
                -1.18662815540339,
                -0.1513683152067813,
                2.476424024381042
            ]
        },
        {
            "positions": [
                -0.9411081542832038,
                -1.112127674722194,
                1.2758030550885953,
                -1.1358367458485754,
                -0.06093693126912636,
                2.5703457583664098
            ]
        },
        {
            "positions": [
                -0.9667202397915826,
                -1.1136771476072362,
                1.3989061002928591,
                -1.0850453362937609,
                0.029494452668528348,
                2.6642674923517777
            ]
        },
        {
            "positions": [
                -0.9923323252999616,
                -1.1152266204922785,
                1.5220091454971238,
                -1.0342539267389463,
                0.11992583660618328,
                2.7581892263371457
            ]
        },
        {
            "positions": [
                -1.0179444108083404,
                -1.1167760933773208,
                1.6451121907013881,
                -0.9834625171841318,
                0.2103572205438382,
                2.8521109603225137
            ]
        },
        {
            "positions": [
                -1.0435564963167192,
                -1.118325566262363,
                1.7682152359056524,
                -0.9326711076293175,
                0.3007886044814929,
                2.9460326943078816
            ]
        },
        {
            "positions": [
                -1.0691685818250982,
                -1.1198750391474053,
                1.8913182811099167,
                -0.881879698074503,
                0.39121998841914807,
                3.0399544282932496
            ]
        },
        {
            "positions": [
                -1.094780667333477,
                -1.1214245120324475,
                2.014421326314181,
                -0.8310882885196883,
                0.48165137235680294,
                3.1338761622786175
            ]
        }
    ]
}