{
    "goal": {
        "global_pose": {
            "orientation": {
                "w": 0.005598929693374612,
                "x": 0.007748599140229565,
                "y": 0.7110244013736278,
                "z": -0.7031023480610252
            },
            "position": {
                "x": 0.1141497679147869,
                "y": -0.7141253447532654,
                "z": 0.3711530566215515
            }
        },
        "name": "move_to_auspresseinheit_B"
    },
    "id": "LBKPIECE_move_to_auspresseinheit_B_47",
    "joint_names": [
        "shoulder_pan_joint",
        "shoulder_lift_joint",
        "elbow_joint",
        "wrist_1_joint",
        "wrist_2_joint",
        "wrist_3_joint"
    ],
    "metrics": {
        "cart_traj_len": 0.5652870138337651,
        "distance_elbow_joint": 0.06565914636349435,
        "distance_shoulder_lift_joint": 0.2942265174124936,
        "distance_shoulder_pan_joint": 0.5766362899157049,
        "distance_wrist_1_joint": 0.3384453663245204,
        "distance_wrist_2_joint": 1.000486075774276,
        "distance_wrist_3_joint": 0.0024930971362087107,
        "smoothness": 3.806478935924272e-16,
        "time": 0.20060115,
        "traj_len": 1.5092867497353502,
        "weighted_distance": 1.9031195782971475
    },
    "planner": "LBKPIECE",
    "start": {
        "state": {
            "elbow_joint": 2.0193061681459312,
            "shoulder_lift_joint": -1.1220205130644991,
            "shoulder_pan_joint": -1.0952072088045026,
            "wrist_1_joint": -0.8559671810662515,
            "wrist_2_joint": 0.4759638712940361,
            "wrist_3_joint": 3.159081874192446
        }
    },
    "waypoints": [
        {
            "positions": [
                -1.0952072088045026,
                -1.1220205130644991,
                2.0193061681459312,
                -0.8559671810662515,
                0.4759638712940361,
                3.159081874192446
            ]
        },
        {
            "positions": [
                -1.1913132571237868,
                -1.1710582659665814,
                2.0083629770853486,
                -0.7995596200121647,
                0.6427115505897487,
                3.159497390381814
            ]
        },
        {
            "positions": [
                -1.287419305443071,
                -1.2200960188686636,
                1.9974197860247664,
                -0.743152058958078,
                0.8094592298854615,
                3.1599129065711824
            ]
        },
        {
            "positions": [
                -1.383525353762355,
                -1.269133771770746,
                1.986476594964184,
                -0.6867444979039913,
                0.976206909181174,
                3.1603284227605504
            ]
        },
        {
            "positions": [
                -1.4796314020816392,
                -1.3181715246728283,
                1.9755334039036017,
                -0.6303369368499045,
                1.1429545884768868,
                3.1607439389499183
            ]
        },
        {
            "positions": [
                -1.5757374504009234,
                -1.3672092775749105,
                1.9645902128430193,
                -0.5739293757958178,
                1.3097022677725993,
                3.1611594551392868
            ]
        },
        {
            "positions": [
                -1.6718434987202075,
                -1.4162470304769927,
                1.9536470217824369,
                -0.5175218147417311,
                1.4764499470683121,
                3.1615749713286547
            ]
        }
    ]
}