{
    "goal": {
        "global_pose": {
            "orientation": {
                "w": -0.00223480608172531,
                "x": 0.0024358444001904467,
                "y": 0.7094548369677653,
                "z": -0.704743149386269
            },
            "position": {
                "x": -0.37947507619857795,
                "y": -0.6371506643295288,
                "z": 0.19426114857196808
            }
        },
        "name": "move_to_magneteinheit_C"
    },
    "id": "LBKPIECE_move_to_magneteinheit_C_82",
    "joint_names": [
        "shoulder_pan_joint",
        "shoulder_lift_joint",
        "elbow_joint",
        "wrist_1_joint",
        "wrist_2_joint",
        "wrist_3_joint"
    ],
    "metrics": {
        "cart_traj_len": 1.7990064301636137,
        "distance_elbow_joint": 0.8207880705257515,
        "distance_shoulder_lift_joint": 0.5285822724012705,
        "distance_shoulder_pan_joint": 1.8324015031540009,
        "distance_wrist_1_joint": 7.65479028219138,
        "distance_wrist_2_joint": 2.2320965199500042,
        "distance_wrist_3_joint": 12.073844372428535,
        "smoothness": 0.5071628054359624,
        "time": 0.329962666,
        "traj_len": 5.014230052625323,
        "weighted_distance": 7.692663944801525
    },
    "planner": "LBKPIECE",
    "start": {
        "state": {
            "elbow_joint": 1.9565354006593851,
            "shoulder_lift_joint": -1.4165861576512813,
            "shoulder_pan_joint": -1.6717766223278752,
            "wrist_1_joint": -0.528663328821883,
            "wrist_2_joint": 1.472756589259273,
            "wrist_3_joint": 3.159348288315503
        }
    },
    "waypoints": [
        {
            "positions": [
                -1.6717766223278752,
                -1.4165861576512813,
                1.9565354006593851,
                -0.528663328821883,
                1.472756589259273,
                3.159348288315503
            ]
        },
        {
            "positions": [
                -1.6826139806010554,
                -1.4857020864760542,
                1.9486862713607964,
                -0.4337570225625496,
                1.4593477813436442,
                2.963581651600725
            ]
        },
        {
            "positions": [
                -1.6934513388742358,
                -1.5548180153008273,
                1.9408371420622077,
                -0.33885071630321617,
                1.4459389734280155,
                2.767815014885947
            ]
        },
        {
            "positions": [
                -1.733947581939347,
                -1.5528247741567431,
                1.9293217049010472,
                -0.22977218104773178,
                1.399384202409553,
                2.5907898537281526
            ]
        },
        {
            "positions": [
                -1.7744438250044583,
                -1.550831533012659,
                1.9178062677398866,
                -0.1206936457922474,
                1.3528294313910907,
                2.4137646925703584
            ]
        },
        {
            "positions": [
                -1.8149400680695698,
                -1.5488382918685748,
                1.906290830578726,
                -0.011615110536763007,
                1.3062746603726283,
                2.2367395314125638
            ]
        },
        {
            "positions": [
                -1.855436311134681,
                -1.5468450507244906,
                1.8947753934175655,
                0.09746342471872138,
                1.2597198893541661,
                2.0597143702547696
            ]
        },
        {
            "positions": [
                -1.8959325541997922,
                -1.5448518095804065,
                1.883259956256405,
                0.20654195997420577,
                1.2131651183357037,
                1.8826892090969753
            ]
        },
        {
            "positions": [
                -1.9364287972649037,
                -1.5428585684363223,
                1.8717445190952446,
                0.31562049522969016,
                1.1666103473172413,
                1.7056640479391811
            ]
        },
        {
            "positions": [
                -1.976925040330015,
                -1.5408653272922381,
                1.860229081934084,
                0.42469903048517454,
                1.120055576298779,
                1.5286388867813867
            ]
        },
        {
            "positions": [
                -2.017421283395126,
                -1.538872086148154,
                1.8487136447729235,
                0.5337775657406589,
                1.0735008052803168,
                1.3516137256235925
            ]
        },
        {
            "positions": [
                -2.0579175264602374,
                -1.53687884500407,
                1.837198207611763,
                0.6428561009961433,
                1.0269460342618544,
                1.1745885644657983
            ]
        },
        {
            "positions": [
                -2.0984137695253486,
                -1.5348856038599858,
                1.8256827704506025,
                0.7519346362516277,
                0.980391263243392,
                0.9975634033080039
            ]
        },
        {
            "positions": [
                -2.13891001259046,
                -1.5328923627159017,
                1.814167333289442,
                0.8610131715071121,
                0.9338364922249296,
                0.8205382421502097
            ]
        },
        {
            "positions": [
                -2.1794062556555716,
                -1.5308991215718175,
                1.8026518961282814,
                0.9700917067625965,
                0.8872817212064672,
                0.6435130809924154
            ]
        },
        {
            "positions": [
                -2.219902498720683,
                -1.5289058804277333,
                1.7911364589671208,
                1.0791702420180809,
                0.8407269501880049,
                0.46648791983462123
            ]
        },
        {
            "positions": [
                -2.260398741785794,
                -1.5269126392836492,
                1.7796210218059603,
                1.1882487772735653,
                0.7941721791695425,
                0.2894627586768266
            ]
        },
        {
            "positions": [
                -2.3008949848509053,
                -1.524919398139565,
                1.7681055846447997,
                1.2973273125290496,
                0.7476174081510802,
                0.11243759751903237
            ]
        },
        {
            "positions": [
                -2.3413912279160165,
                -1.5229261569954808,
                1.7565901474836392,
                1.406405847784534,
                0.7010626371326178,
                -0.06458756363876184
            ]
        },
        {
            "positions": [
                -2.3818874709811277,
                -1.5209329158513967,
                1.7450747103224789,
                1.5154843830400184,
                0.6545078661141555,
                -0.24161272479655604
            ]
        },
        {
            "positions": [
                -2.422383714046239,
                -1.5189396747073125,
                1.7335592731613183,
                1.6245629182955028,
                0.6079530950956932,
                -0.41863788595435025
            ]
        },
        {
            "positions": [
                -2.46287995711135,
                -1.5169464335632283,
                1.7220438360001578,
                1.733641453550987,
                0.5613983240772308,
                -0.5956630471121449
            ]
        },
        {
            "positions": [
                -2.5033762001764615,
                -1.5149531924191442,
                1.7105283988389972,
                1.8427199888064716,
                0.5148435530587685,
                -0.7726882082699391
            ]
        },
        {
            "positions": [
                -2.5438724432415727,
                -1.51295995127506,
                1.6990129616778367,
                1.9517985240619562,
                0.4682887820403061,
                -0.9497133694277333
            ]
        },
        {
            "positions": [
                -2.5843686863066844,
                -1.5109667101309758,
                1.6874975245166761,
                2.0608770593174404,
                0.4217340110218437,
                -1.1267385305855275
            ]
        },
        {
            "positions": [
                -2.6248649293717956,
                -1.5089734689868917,
                1.6759820873555156,
                2.1699555945729245,
                0.3751792400033813,
                -1.3037636917433217
            ]
        },
        {
            "positions": [
                -2.665361172436907,
                -1.5069802278428077,
                1.664466650194355,
                2.279034129828409,
                0.3286244689849189,
                -1.480788852901116
            ]
        },
        {
            "positions": [
                -2.705857415502018,
                -1.5049869866987236,
                1.6529512130331945,
                2.3881126650838937,
                0.28206969796645676,
                -1.6578140140589102
            ]
        },
        {
            "positions": [
                -2.7463536585671293,
                -1.5029937455546394,
                1.6414357758720342,
                2.497191200339378,
                0.23551492694799436,
                -1.8348391752167044
            ]
        },
        {
            "positions": [
                -2.786849901632241,
                -1.5010005044105552,
                1.6299203387108734,
                2.606269735594862,
                0.18896015592953197,
                -2.0118643363744995
            ]
        },
        {
            "positions": [
                -2.8273461446973522,
                -1.499007263266471,
                1.618404901549713,
                2.7153482708503467,
                0.14240538491106958,
                -2.1888894975322937
            ]
        },
        {
            "positions": [
                -2.8678423877624635,
                -1.4970140221223869,
                1.6068894643885525,
                2.8244268061058313,
                0.09585061389260718,
                -2.365914658690088
            ]
        },
        {
            "positions": [
                -2.9083386308275747,
                -1.4950207809783027,
                1.595374027227392,
                2.9335053413613155,
                0.04929584287414501,
                -2.542939819847882
            ]
        },
        {
            "positions": [
                -2.948834873892686,
                -1.4930275398342185,
                1.5838585900662314,
                3.0425838766167996,
                0.0027410718556826197,
                -2.7199649810056763
            ]
        },
        {
            "positions": [
                -2.989331116957797,
                -1.4910342986901344,
                1.5723431529050709,
                3.1516624118722842,
                -0.04381369916277977,
                -2.8969901421634705
            ]
        },
        {
            "positions": [
                -2.9727231489408914,
                -1.4804998890726817,
                1.5864268891235043,
                3.0234538782755997,
                -0.020732207823168418,
                -2.702877047261872
            ]
        },
        {
            "positions": [
                -2.9561151809239856,
                -1.469965479455229,
                1.6005106253419379,
                2.8952453446789153,
                0.0023492835164429376,
                -2.5087639523602734
            ]
        },
        {
            "positions": [
                -2.93950721290708,
                -1.4594310698377764,
                1.6145943615603713,
                2.7670368110822308,
                0.025430774856054286,
                -2.314650857458675
            ]
        },
        {
            "positions": [
                -2.922899244890174,
                -1.448896660220324,
                1.6286780977788047,
                2.6388282774855463,
                0.04851226619566565,
                -2.1205377625570763
            ]
        },
        {
            "positions": [
                -2.9062912768732683,
                -1.4383622506028713,
                1.642761833997238,
                2.5106197438888618,
                0.071593757535277,
                -1.926424667655478
            ]
        },
        {
            "positions": [
                -2.8896833088563625,
                -1.4278278409854186,
                1.6568455702156717,
                2.3824112102921773,
                0.09467524887488835,
                -1.7323115727538794
            ]
        },
        {
            "positions": [
                -2.8730753408394567,
                -1.417293431367966,
                1.670929306434105,
                2.254202676695493,
                0.11775674021449972,
                -1.5381984778522808
            ]
        },
        {
            "positions": [
                -2.856467372822551,
                -1.4067590217505133,
                1.6850130426525385,
                2.1259941430988087,
                0.14083823155411107,
                -1.3440853829506823
            ]
        },
        {
            "positions": [
                -2.839859404805645,
                -1.3962246121330606,
                1.699096778870972,
                1.9977856095021238,
                0.16391972289372245,
                -1.1499722880490835
            ]
        },
        {
            "positions": [
                -2.8232514367887394,
                -1.3856902025156081,
                1.7131805150894055,
                1.8695770759054395,
                0.18700121423333377,
                -0.9558591931474851
            ]
        },
        {
            "positions": [
                -2.8066434687718336,
                -1.3751557928981555,
                1.727264251307839,
                1.7413685423087548,
                0.21008270557294517,
                -0.7617460982458866
            ]
        },
        {
            "positions": [
                -2.790035500754928,
                -1.3646213832807028,
                1.7413479875262725,
                1.6131600087120705,
                0.23316419691255647,
                -0.5676330033442882
            ]
        },
        {
            "positions": [
                -2.773427532738022,
                -1.3540869736632501,
                1.755431723744706,
                1.484951475115386,
                0.25624568825216787,
                -0.37351990844268945
            ]
        },
        {
            "positions": [
                -2.7568195647211162,
                -1.3435525640457975,
                1.7695154599631393,
                1.3567429415187016,
                0.2793271795917792,
                -0.17940681354109111
            ]
        },
        {
            "positions": [
                -2.7402115967042104,
                -1.3330181544283448,
                1.7835991961815727,
                1.228534407922017,
                0.30240867093139057,
                0.014706281360507667
            ]
        },
        {
            "positions": [
                -2.7236036286873047,
                -1.3224837448108924,
                1.7976829324000063,
                1.1003258743253328,
                0.3254901622710019,
                0.208819376262106
            ]
        },
        {
            "positions": [
                -2.7069956606703993,
                -1.3119493351934397,
                1.8117666686184397,
                0.9721173407286483,
                0.34857165361061326,
                0.40293247116370434
            ]
        },
        {
            "positions": [
                -2.690387692653493,
                -1.301414925575987,
                1.825850404836873,
                0.8439088071319634,
                0.37165314495022467,
                0.5970455660653036
            ]
        },
        {
            "positions": [
                -2.6737797246365878,
                -1.2908805159585344,
                1.8399341410553065,
                0.7157002735352793,
                0.394734636289836,
                0.7911586609669019
            ]
        },
        {
            "positions": [
                -2.657171756619682,
                -1.2803461063410817,
                1.8540178772737401,
                0.5874917399385948,
                0.4178161276294473,
                0.9852717558685002
            ]
        },
        {
            "positions": [
                -2.640563788602776,
                -1.2698116967236293,
                1.8681016134921735,
                0.45928320634191033,
                0.44089761896905866,
                1.1793848507700981
            ]
        },
        {
            "positions": [
                -2.6239558205858704,
                -1.2592772871061766,
                1.882185349710607,
                0.3310746727452254,
                0.4639791103086701,
                1.3734979456716974
            ]
        },
        {
            "positions": [
                -2.6073478525689646,
                -1.248742877488724,
                1.8962690859290405,
                0.20286613914854135,
                0.48706060164828147,
                1.5676110405732957
            ]
        },
        {
            "positions": [
                -2.590739884552059,
                -1.2382084678712713,
                1.910352822147474,
                0.07465760555185685,
                0.5101420929878927,
                1.761724135474894
            ]
        },
        {
            "positions": [
                -2.574131916535153,
                -1.2276740582538186,
                1.9244365583659073,
                -0.05355092804482764,
                0.533223584327504,
                1.9558372303764924
            ]
        },
        {
            "positions": [
                -2.5575239485182473,
                -1.217139648636366,
                1.938520294584341,
                -0.18175946164151213,
                0.5563050756671155,
                2.1499503252780916
            ]
        },
        {
            "positions": [
                -2.5409159805013415,
                -1.2066052390189133,
                1.9526040308027743,
                -0.3099679952381966,
                0.5793865670067269,
                2.34406342017969
            ]
        },
        {
            "positions": [
                -2.5243080124844357,
                -1.1960708294014606,
                1.9666877670212077,
                -0.4381765288348811,
                0.6024680583463382,
                2.5381765150812883
            ]
        },
        {
            "positions": [
                -2.50770004446753,
                -1.1855364197840081,
                1.9807715032396411,
                -0.5663850624315656,
                0.6255495496859496,
                2.7322896099828866
            ]
        },
        {
            "positions": [
                -2.491092076450624,
                -1.1750020101665555,
                1.9948552394580747,
                -0.6945935960282501,
                0.6486310410255609,
                2.926402704884486
            ]
        },
        {
            "positions": [
                -2.4744841084337184,
                -1.1644676005491028,
                2.008938975676508,
                -0.8228021296249346,
                0.6717125323651723,
                3.1205157997860846
            ]
        }
    ]
}