{
    "goal": {
        "global_pose": {
            "orientation": {
                "w": 0.7047431493862688,
                "x": -0.7094548369677653,
                "y": 0.0024358444001904,
                "z": -0.0022348060817251984
            },
            "position": {
                "x": -0.39052492380142206,
                "y": 0.3671506643295288,
                "z": 0.19426114857196808
            }
        },
        "name": "move_to_magneteinheit_D"
    },
    "id": "LBKPIECE_move_to_magneteinheit_D_26",
    "joint_names": [
        "shoulder_pan_joint",
        "shoulder_lift_joint",
        "elbow_joint",
        "wrist_1_joint",
        "wrist_2_joint",
        "wrist_3_joint"
    ],
    "metrics": {
        "cart_traj_len": 4.914460928849352,
        "distance_elbow_joint": 5.292671757333107,
        "distance_shoulder_lift_joint": 1.6801773928995196,
        "distance_shoulder_pan_joint": 3.0831105757700388,
        "distance_wrist_1_joint": 4.055869464438725,
        "distance_wrist_2_joint": 3.406506926727983,
        "distance_wrist_3_joint": 3.6559251219301805,
        "smoothness": 0.5297452950471252,
        "time": 0.469209789,
        "traj_len": 4.601549873586023,
        "weighted_distance": 5.995705786154506
    },
    "planner": "LBKPIECE",
    "start": {
        "state": {
            "elbow_joint": 0.7495348899011911,
            "shoulder_lift_joint": -0.6476975780737668,
            "shoulder_pan_joint": -2.711696901376276,
            "wrist_1_joint": -0.0750647808097303,
            "wrist_2_joint": 0.43296659715458535,
            "wrist_3_joint": 3.1361499051832418
        }
    },
    "waypoints": [
        {
            "positions": [
                -2.711696901376276,
                -0.6476975780737668,
                0.7495348899011911,
                -0.0750647808097303,
                0.43296659715458535,
                3.1361499051832418
            ]
        },
        {
            "positions": [
                -2.7020090721105503,
                -0.6823568821832341,
                0.7986988990702553,
                -0.01994117070969799,
                0.5081942971108535,
                3.029055516856957
            ]
        },
        {
            "positions": [
                -2.692321242844825,
                -0.7170161862927014,
                0.8478629082393193,
                0.035182439390334316,
                0.5834219970671217,
                2.9219611285306724
            ]
        },
        {
            "positions": [
                -2.682633413579099,
                -0.7516754904021687,
                0.8970269174083834,
                0.09030604949036662,
                0.6586496970233899,
                2.814866740204388
            ]
        },
        {
            "positions": [
                -2.672945584313373,
                -0.786334794511636,
                0.9461909265774475,
                0.1454296595903989,
                0.733877396979658,
                2.707772351878103
            ]
        },
        {
            "positions": [
                -2.6426186894009,
                -0.8277109433940337,
                0.9989127776935645,
                0.2032180194948977,
                0.7993517664568572,
                2.580825025591162
            ]
        },
        {
            "positions": [
                -2.612291794488427,
                -0.8690870922764314,
                1.0516346288096814,
                0.26100637939939647,
                0.8648261359340563,
                2.453877699304221
            ]
        },
        {
            "positions": [
                -2.5819648995759543,
                -0.9104632411588292,
                1.104356479925798,
                0.31879473930389524,
                0.9303005054112554,
                2.32693037301728
            ]
        },
        {
            "positions": [
                -2.5516380046634812,
                -0.951839390041227,
                1.157078331041915,
                0.37658309920839406,
                0.9957748748884546,
                2.199983046730339
            ]
        },
        {
            "positions": [
                -2.521311109751008,
                -0.9932155389236247,
                1.209800182158032,
                0.43437145911289277,
                1.0612492443656536,
                2.0730357204433982
            ]
        },
        {
            "positions": [
                -2.490984214838535,
                -1.0345916878060224,
                1.262522033274149,
                0.4921598190173916,
                1.126723613842853,
                1.9460883941564573
            ]
        },
        {
            "positions": [
                -2.460657319926062,
                -1.0759678366884202,
                1.3152438843902658,
                0.5499481789218904,
                1.192197983320052,
                1.8191410678695163
            ]
        },
        {
            "positions": [
                -2.430330425013589,
                -1.1173439855708178,
                1.3679657355063828,
                0.6077365388263891,
                1.2576723527972513,
                1.6921937415825754
            ]
        },
        {
            "positions": [
                -2.4000035301011162,
                -1.1587201344532156,
                1.4206875866224995,
                0.6655248987308879,
                1.3231467222744504,
                1.5652464152956345
            ]
        },
        {
            "positions": [
                -2.369676635188643,
                -1.2000962833356132,
                1.4734094377386164,
                0.7233132586353866,
                1.3886210917516495,
                1.4382990890086935
            ]
        },
        {
            "positions": [
                -2.33934974027617,
                -1.241472432218011,
                1.5261312888547334,
                0.7811016185398855,
                1.4540954612288486,
                1.3113517627217526
            ]
        },
        {
            "positions": [
                -2.3161288647079665,
                -1.2716843907361903,
                1.581244043737028,
                0.8057571037023347,
                1.2993685995735258,
                1.3542788743205925
            ]
        },
        {
            "positions": [
                -2.292907989139763,
                -1.3018963492543698,
                1.636356798619323,
                0.8304125888647839,
                1.144641737918203,
                1.3972059859194323
            ]
        },
        {
            "positions": [
                -2.2696871135715595,
                -1.332108307772549,
                1.6914695535016178,
                0.855068074027233,
                0.9899148762628801,
                1.4401330975182725
            ]
        },
        {
            "positions": [
                -2.246466238003356,
                -1.3623202662907286,
                1.7465823083839127,
                0.8797235591896821,
                0.8351880146075572,
                1.4830602091171123
            ]
        },
        {
            "positions": [
                -2.2232453624351525,
                -1.3925322248089078,
                1.8016950632662074,
                0.9043790443521313,
                0.6804611529522344,
                1.5259873207159522
            ]
        },
        {
            "positions": [
                -2.153053284113865,
                -1.4119882372477648,
                1.6743067538457348,
                0.8207177258056285,
                0.6429687412989363,
                1.5728049427768536
            ]
        },
        {
            "positions": [
                -2.082861205792578,
                -1.4314442496866218,
                1.5469184444252622,
                0.7370564072591257,
                0.6054763296456382,
                1.619622564837755
            ]
        },
        {
            "positions": [
                -2.0126691274712902,
                -1.450900262125479,
                1.4195301350047895,
                0.6533950887126229,
                0.56798391799234,
                1.6664401868986565
            ]
        },
        {
            "positions": [
                -1.942477049150003,
                -1.470356274564336,
                1.292141825584317,
                0.56973377016612,
                0.530491506339042,
                1.7132578089595578
            ]
        },
        {
            "positions": [
                -1.8722849708287157,
                -1.489812287003193,
                1.1647535161638443,
                0.4860724516196172,
                0.4929990946857439,
                1.7600754310204592
            ]
        },
        {
            "positions": [
                -1.8020928925074284,
                -1.5092682994420499,
                1.0373652067433716,
                0.4024111330731144,
                0.4555066830324458,
                1.8068930530813605
            ]
        },
        {
            "positions": [
                -1.7319008141861412,
                -1.5287243118809068,
                0.9099768973228989,
                0.31874981452661155,
                0.41801427137914765,
                1.8537106751422618
            ]
        },
        {
            "positions": [
                -1.6617087358648537,
                -1.548180324319764,
                0.7825885879024261,
                0.23508849598010872,
                0.3805218597258495,
                1.9005282972031634
            ]
        },
        {
            "positions": [
                -1.5915166575435664,
                -1.567636336758621,
                0.6552002784819537,
                0.151427177433606,
                0.3430294480725515,
                1.9473459192640648
            ]
        },
        {
            "positions": [
                -1.521324579222279,
                -1.587092349197478,
                0.5278119690614809,
                0.06776585888710307,
                0.30553703641925334,
                1.994163541324966
            ]
        },
        {
            "positions": [
                -1.4511325009009917,
                -1.606548361636335,
                0.40042365964100846,
                -0.015895459659399647,
                0.26804462476595525,
                2.0409811633858674
            ]
        },
        {
            "positions": [
                -1.3809404225797044,
                -1.6260043740751922,
                0.2730353502205356,
                -0.09955677820590259,
                0.2305522131126571,
                2.087798785446769
            ]
        },
        {
            "positions": [
                -1.3107483442584171,
                -1.6454603865140491,
                0.1456470408000632,
                -0.1832180967524053,
                0.19305980145935903,
                2.13461640750767
            ]
        },
        {
            "positions": [
                -1.2405562659371296,
                -1.664916398952906,
                0.01825873137959033,
                -0.26687941529890824,
                0.15556738980606089,
                2.1814340295685715
            ]
        },
        {
            "positions": [
                -1.1703641876158424,
                -1.684372411391763,
                -0.1091295780408823,
                -0.35054073384541096,
                0.1180749781527628,
                2.228251651629473
            ]
        },
        {
            "positions": [
                -1.100172109294555,
                -1.70382842383062,
                -0.23651788746135516,
                -0.4342020523919139,
                0.0805825664994646,
                2.2750692736903746
            ]
        },
        {
            "positions": [
                -1.0299800309732676,
                -1.723284436269477,
                -0.36390619688182735,
                -0.5178633709384166,
                0.04309015484616663,
                2.321886895751276
            ]
        },
        {
            "positions": [
                -0.9597879526519804,
                -1.7427404487083342,
                -0.4912945063023,
                -0.6015246894849193,
                0.005597743192868543,
                2.3687045178121773
            ]
        },
        {
            "positions": [
                -0.8895958743306929,
                -1.7621964611471912,
                -0.6186828157227731,
                -0.6851860080314225,
                -0.031894668460429765,
                2.4155221398730786
            ]
        },
        {
            "positions": [
                -0.8194037960094056,
                -1.7816524735860482,
                -0.7460711251432457,
                -0.7688473265779252,
                -0.06938708011372774,
                2.46233976193398
            ]
        },
        {
            "positions": [
                -0.7492117176881181,
                -1.8011084860249054,
                -0.8734594345637183,
                -0.8525086451244279,
                -0.10687949176702582,
                2.5091573839948813
            ]
        },
        {
            "positions": [
                -0.6790196393668309,
                -1.8205644984637623,
                -1.0008477439841905,
                -0.9361699636709306,
                -0.1443719034203239,
                2.5559750060557827
            ]
        },
        {
            "positions": [
                -0.6088275610455434,
                -1.8400205109026193,
                -1.1282360534046636,
                -1.0198312822174338,
                -0.1818643150736221,
                2.602792628116684
            ]
        },
        {
            "positions": [
                -0.5386354827242561,
                -1.8594765233414763,
                -1.2556243628251362,
                -1.1034926007639365,
                -0.2193567267269202,
                2.6496102501775853
            ]
        },
        {
            "positions": [
                -0.46844340440296883,
                -1.8789325357803333,
                -1.3830126722456089,
                -1.1871539193104392,
                -0.2568491383802183,
                2.6964278722384867
            ]
        },
        {
            "positions": [
                -0.39825132608168157,
                -1.8983885482191902,
                -1.510400981666081,
                -1.270815237856942,
                -0.29434155003351636,
                2.743245494299388
            ]
        },
        {
            "positions": [
                -0.3280592477603941,
                -1.9178445606580474,
                -1.6377892910865541,
                -1.354476556403445,
                -0.33183396168681467,
                2.7900631163602894
            ]
        },
        {
            "positions": [
                -0.2578671694391068,
                -1.9373005730969044,
                -1.7651776005070268,
                -1.4381378749499478,
                -0.36932637334011265,
                2.8368807384211907
            ]
        },
        {
            "positions": [
                -0.18767509111781955,
                -1.9567565855357614,
                -1.8925659099274994,
                -1.5217991934964505,
                -0.40681878499341084,
                2.883698360482092
            ]
        },
        {
            "positions": [
                -0.11748301279653228,
                -1.9762125979746186,
                -2.019954219347972,
                -1.6054605120429533,
                -0.4443111966467088,
                2.9305159825429934
            ]
        },
        {
            "positions": [
                -0.04729093447524457,
                -1.9956686104134755,
                -2.1473425287684447,
                -1.6891218305894564,
                -0.481803608300007,
                2.977333604603895
            ]
        },
        {
            "positions": [
                0.022901143846042693,
                -2.0151246228523325,
                -2.2747308381889177,
                -1.7727831491359591,
                -0.5192960199533052,
                3.0241512266647965
            ]
        },
        {
            "positions": [
                0.09309322216732996,
                -2.0345806352911895,
                -2.40211914760939,
                -1.8564444676824619,
                -0.5567884316066031,
                3.070968848725698
            ]
        },
        {
            "positions": [
                0.02351310911072184,
                -1.9612570513706653,
                -2.392944804336267,
                -1.9353449994930298,
                -0.4631648891520355,
                3.0888463220918845
            ]
        },
        {
            "positions": [
                -0.04606700394588628,
                -1.8879334674501411,
                -2.383770461063144,
                -2.0142455313035974,
                -0.36954134669746797,
                3.106723795458071
            ]
        },
        {
            "positions": [
                -0.11564711700249442,
                -1.8146098835296167,
                -2.3745961177900208,
                -2.0931460631141654,
                -0.27591780424290036,
                3.1246012688242577
            ]
        },
        {
            "positions": [
                -0.18522723005910252,
                -1.7412862996090925,
                -2.3654217745168977,
                -2.1720465949247334,
                -0.1822942617883328,
                3.1424787421904443
            ]
        }
    ]
}