{
    "goal": {
        "global_pose": {
            "orientation": {
                "w": -0.4816463035849501,
                "x": 0.5182115481033762,
                "y": 0.4908360881923453,
                "z": -0.5084816262002911
            },
            "position": {
                "x": -0.8240239810943604,
                "y": 0.19912469901144506,
                "z": 0.16403168439865112
            }
        },
        "name": "move_to_storage_D"
    },
    "id": "LBKPIECE_move_to_storage_D_127",
    "joint_names": [
        "shoulder_pan_joint",
        "shoulder_lift_joint",
        "elbow_joint",
        "wrist_1_joint",
        "wrist_2_joint",
        "wrist_3_joint"
    ],
    "metrics": {
        "cart_traj_len": 3.6774373538912615,
        "distance_elbow_joint": 4.208748456410818,
        "distance_shoulder_lift_joint": 1.266055191345704,
        "distance_shoulder_pan_joint": 2.8118367898995507,
        "distance_wrist_1_joint": 2.2666880029030088,
        "distance_wrist_2_joint": 0.8696822344685192,
        "distance_wrist_3_joint": 3.138492720088142,
        "smoothness": 2.5710428076344587e-16,
        "time": 0.48300557899999996,
        "traj_len": 3.815953798870703,
        "weighted_distance": 4.896412878083664
    },
    "planner": "LBKPIECE",
    "start": {
        "state": {
            "elbow_joint": -2.384821990628643,
            "shoulder_lift_joint": -2.278805467437664,
            "shoulder_pan_joint": -0.18546946439364564,
            "wrist_1_joint": 1.4845938187801415,
            "wrist_2_joint": 0.178987772454074,
            "wrist_3_joint": 0.03710569632802521
        }
    },
    "waypoints": [
        {
            "positions": [
                -0.18546946439364564,
                -2.278805467437664,
                -2.384821990628643,
                1.4845938187801415,
                0.178987772454074,
                0.03710569632802521
            ]
        },
        {
            "positions": [
                -0.09633898372859204,
                -2.246211345933916,
                -2.2502523300048494,
                1.4154685241704195,
                0.18043560535984118,
                0.10432239773770932
            ]
        },
        {
            "positions": [
                -0.0072085030635384295,
                -2.2136172244301684,
                -2.115682669381056,
                1.3463432295606974,
                0.1818834382656084,
                0.17153909914739343
            ]
        },
        {
            "positions": [
                0.08192197760151515,
                -2.1810231029264204,
                -1.9811130087572622,
                1.2772179349509754,
                0.1833312711713756,
                0.2387558005570775
            ]
        },
        {
            "positions": [
                0.17105245826656879,
                -2.148428981422673,
                -1.8465433481334683,
                1.208092640341253,
                0.1847791040771428,
                0.3059725019667616
            ]
        },
        {
            "positions": [
                0.26018293893162237,
                -2.115834859918925,
                -1.7119736875096745,
                1.138967345731531,
                0.18622693698291,
                0.3731892033764457
            ]
        },
        {
            "positions": [
                0.34931341959667594,
                -2.0832407384151774,
                -1.5774040268858809,
                1.069842051121809,
                0.1876747698886772,
                0.44040590478612984
            ]
        },
        {
            "positions": [
                0.43844390026172964,
                -2.0506466169114295,
                -1.442834366262087,
                1.000716756512087,
                0.18912260279444443,
                0.5076226061958139
            ]
        },
        {
            "positions": [
                0.5275743809267832,
                -2.018052495407682,
                -1.3082647056382934,
                0.9315914619023649,
                0.19057043570021162,
                0.5748393076054981
            ]
        },
        {
            "positions": [
                0.6167048615918369,
                -1.985458373903934,
                -1.1736950450144996,
                0.8624661672926427,
                0.19201826860597881,
                0.6420560090151821
            ]
        },
        {
            "positions": [
                0.7058353422568904,
                -1.9528642524001862,
                -1.039125384390706,
                0.7933408726829206,
                0.19346610151174604,
                0.7092727104248662
            ]
        },
        {
            "positions": [
                0.7949658229219441,
                -1.9202701308964385,
                -0.9045557237669122,
                0.7242155780731986,
                0.19491393441751323,
                0.7764894118345503
            ]
        },
        {
            "positions": [
                0.8840963035869975,
                -1.8876760093926908,
                -0.7699860631431186,
                0.6550902834634765,
                0.19636176732328042,
                0.8437061132442344
            ]
        },
        {
            "positions": [
                0.9732267842520514,
                -1.855081887888943,
                -0.6354164025193247,
                0.5859649888537544,
                0.19780960022904764,
                0.9109228146539186
            ]
        },
        {
            "positions": [
                1.062357264917105,
                -1.8224877663851953,
                -0.5008467418955309,
                0.5168396942440323,
                0.19925743313481484,
                0.9781395160636026
            ]
        },
        {
            "positions": [
                1.1514877455821584,
                -1.7898936448814475,
                -0.3662770812717375,
                0.44771439963431026,
                0.20070526604058203,
                1.0453562174732867
            ]
        },
        {
            "positions": [
                1.240618226247212,
                -1.7572995233776996,
                -0.2317074206479437,
                0.3785891050245882,
                0.20215309894634925,
                1.112572918882971
            ]
        },
        {
            "positions": [
                1.3297487069122658,
                -1.724705401873952,
                -0.09713776002414987,
                0.30946381041486615,
                0.20360093185211645,
                1.179789620292655
            ]
        },
        {
            "positions": [
                1.4188791875773195,
                -1.692111280370204,
                0.037431900599643964,
                0.24033851580514387,
                0.20504876475788367,
                1.247006321702339
            ]
        },
        {
            "positions": [
                1.508009668242373,
                -1.6595171588664563,
                0.1720015612234378,
                0.17121322119542182,
                0.20649659766365086,
                1.314223023112023
            ]
        },
        {
            "positions": [
                1.5971401489074264,
                -1.6269230373627086,
                0.3065712218472312,
                0.10208792658569976,
                0.20794443056941805,
                1.3814397245217072
            ]
        },
        {
            "positions": [
                1.6862706295724803,
                -1.5943289158589609,
                0.441140882471025,
                0.03296263197597771,
                0.20939226347518528,
                1.4486564259313914
            ]
        },
        {
            "positions": [
                1.7754011102375338,
                -1.5617347943552131,
                0.5757105430948188,
                -0.03616266263374432,
                0.21084009638095247,
                1.5158731273410755
            ]
        },
        {
            "positions": [
                1.8321321912554251,
                -1.5251358264709962,
                0.6589249379406427,
                -0.08589143073301925,
                0.2666954237503952,
                1.6265214799460816
            ]
        },
        {
            "positions": [
                1.8888632722733165,
                -1.4885368585867793,
                0.7421393327864664,
                -0.1356201988322942,
                0.3225507511198379,
                1.7371698325510876
            ]
        },
        {
            "positions": [
                1.9455943532912081,
                -1.4519378907025624,
                0.8253537276322902,
                -0.18534896693156913,
                0.37840607848928065,
                1.8478181851560938
            ]
        },
        {
            "positions": [
                2.0023254343090993,
                -1.4153389228183455,
                0.9085681224781139,
                -0.23507773503084406,
                0.4342614058587233,
                1.9584665377611
            ]
        },
        {
            "positions": [
                2.059056515326991,
                -1.3787399549341286,
                0.9917825173239377,
                -0.284806503130119,
                0.490116733228166,
                2.069114890366106
            ]
        },
        {
            "positions": [
                2.1157875963448824,
                -1.3421409870499117,
                1.0749969121697616,
                -0.33453527122939397,
                0.5459720605976088,
                2.179763242971112
            ]
        },
        {
            "positions": [
                2.1725186773627736,
                -1.3055420191656948,
                1.1582113070155855,
                -0.3842640393286688,
                0.6018273879670515,
                2.290411595576118
            ]
        },
        {
            "positions": [
                2.229249758380665,
                -1.2689430512814779,
                1.241425701861409,
                -0.43399280742794377,
                0.6576827153364941,
                2.4010599481811243
            ]
        },
        {
            "positions": [
                2.2859808393985563,
                -1.2323440833972612,
                1.324640096707233,
                -0.48372157552721873,
                0.7135380427059369,
                2.5117083007861303
            ]
        },
        {
            "positions": [
                2.342711920416448,
                -1.1957451155130443,
                1.4078544915530566,
                -0.5334503436264937,
                0.7693933700753796,
                2.622356653391136
            ]
        },
        {
            "positions": [
                2.3994430014343395,
                -1.1591461476288274,
                1.4910688863988804,
                -0.5831791117257685,
                0.8252486974448222,
                2.7330050059961426
            ]
        },
        {
            "positions": [
                2.4561740824522307,
                -1.1225471797446105,
                1.5742832812447043,
                -0.6329078798250436,
                0.8811040248142651,
                2.8436533586011485
            ]
        },
        {
            "positions": [
                2.5129051634701223,
                -1.0859482118603936,
                1.657497676090528,
                -0.6826366479243186,
                0.9369593521837077,
                2.9543017112061545
            ]
        },
        {
            "positions": [
                2.569636244488014,
                -1.0493492439761767,
                1.740712070936352,
                -0.7323654160235934,
                0.9928146795531505,
                3.0649500638111604
            ]
        },
        {
            "positions": [
                2.626367325505905,
                -1.0127502760919598,
                1.8239264657821757,
                -0.7820941841228684,
                1.0486700069225932,
                3.175598416416167
            ]
        }
    ]
}