{
    "goal": {
        "global_pose": {
            "orientation": {
                "w": 0.7031023480610252,
                "x": -0.7110244013736278,
                "y": 0.0077485991402295624,
                "z": 0.005598929693374583
            },
            "position": {
                "x": -0.8841497679147869,
                "y": 0.44412534475326537,
                "z": 0.3711530566215515
            }
        },
        "name": "move_to_auspresseinheit_D"
    },
    "id": "LBKPIECE_move_to_auspresseinheit_D_114",
    "joint_names": [
        "shoulder_pan_joint",
        "shoulder_lift_joint",
        "elbow_joint",
        "wrist_1_joint",
        "wrist_2_joint",
        "wrist_3_joint"
    ],
    "metrics": {
        "cart_traj_len": 0.3433810225145683,
        "distance_elbow_joint": 0.6481461684058507,
        "distance_shoulder_lift_joint": 0.12658865901069216,
        "distance_shoulder_pan_joint": 0.13296896278637113,
        "distance_wrist_1_joint": 0.5553913157216952,
        "distance_wrist_2_joint": 1.4472986888050798,
        "distance_wrist_3_joint": 0.02552725574368475,
        "smoothness": 1.9737298371844314e-16,
        "time": 0.759105947,
        "traj_len": 1.7134529612666272,
        "weighted_distance": 2.2337559326138385
    },
    "planner": "LBKPIECE",
    "start": {
        "state": {
            "elbow_joint": -1.8275484843655228,
            "shoulder_lift_joint": -2.1267897864000416,
            "shoulder_pan_joint": -0.035127520176001514,
            "wrist_1_joint": -2.3477863256791385,
            "wrist_2_joint": -1.605890476484521,
            "wrist_3_joint": -3.0880375317375353
        }
    },
    "waypoints": [
        {
            "positions": [
                -0.035127520176001514,
                -2.1267897864000416,
                -1.8275484843655228,
                -2.3477863256791385,
                -1.605890476484521,
                -3.0880375317375353
            ]
        },
        {
            "positions": [
                -0.05174864052429791,
                -2.142613368776378,
                -1.7465302133147915,
                -2.4172102401443505,
                -1.424978140383886,
                -3.0848466247695745
            ]
        },
        {
            "positions": [
                -0.0683697608725943,
                -2.158436951152715,
                -1.66551194226406,
                -2.486634154609562,
                -1.244065804283251,
                -3.081655717801614
            ]
        },
        {
            "positions": [
                -0.08499088122089068,
                -2.174260533529051,
                -1.5844936712133286,
                -2.556058069074774,
                -1.063153468182616,
                -3.0784648108336534
            ]
        },
        {
            "positions": [
                -0.10161200156918708,
                -2.1900841159053877,
                -1.5034754001625974,
                -2.625481983539986,
                -0.8822411320819811,
                -3.0752739038656927
            ]
        },
        {
            "positions": [
                -0.11823312191748347,
                -2.2059076982817243,
                -1.4224571291118662,
                -2.694905898005198,
                -0.7013287959813461,
                -3.0720829968977323
            ]
        },
        {
            "positions": [
                -0.13485424226577986,
                -2.2217312806580605,
                -1.3414388580611347,
                -2.76432981247041,
                -0.5204164598807111,
                -3.0688920899297716
            ]
        },
        {
            "positions": [
                -0.15147536261407624,
                -2.237554863034397,
                -1.2604205870104033,
                -2.8337537269356217,
                -0.3395041237800762,
                -3.0657011829618113
            ]
        },
        {
            "positions": [
                -0.16809648296237265,
                -2.2533784454107337,
                -1.179402315959672,
                -2.9031776414008337,
                -0.1585917876794411,
                -3.0625102759938505
            ]
        }
    ]
}