{
    "goal": {
        "global_pose": {
            "orientation": {
                "w": -0.00223480608172531,
                "x": 0.0024358444001904467,
                "y": 0.7094548369677653,
                "z": -0.704743149386269
            },
            "position": {
                "x": -0.37947507619857795,
                "y": -0.6371506643295288,
                "z": 0.19426114857196808
            }
        },
        "name": "move_to_magneteinheit_C"
    },
    "id": "LBKPIECE_move_to_magneteinheit_C_136",
    "joint_names": [
        "shoulder_pan_joint",
        "shoulder_lift_joint",
        "elbow_joint",
        "wrist_1_joint",
        "wrist_2_joint",
        "wrist_3_joint"
    ],
    "metrics": {
        "cart_traj_len": 3.9458632218088057,
        "distance_elbow_joint": 2.434415922447176,
        "distance_shoulder_lift_joint": 3.259476019507491,
        "distance_shoulder_pan_joint": 5.819464549804159,
        "distance_wrist_1_joint": 7.044494876225213,
        "distance_wrist_2_joint": 3.5677590217756934,
        "distance_wrist_3_joint": 12.339996955944963,
        "smoothness": 0.308595366080948,
        "time": 0.842389463,
        "traj_len": 5.87074163506662,
        "weighted_distance": 8.352116806869715
    },
    "planner": "LBKPIECE",
    "start": {
        "state": {
            "elbow_joint": 1.9565354006593851,
            "shoulder_lift_joint": -1.4165861576512813,
            "shoulder_pan_joint": -1.6717766223278752,
            "wrist_1_joint": -0.528663328821883,
            "wrist_2_joint": 1.472756589259273,
            "wrist_3_joint": 3.159348288315503
        }
    },
    "waypoints": [
        {
            "positions": [
                -1.6717766223278752,
                -1.4165861576512813,
                1.9565354006593851,
                -0.528663328821883,
                1.472756589259273,
                3.159348288315503
            ]
        },
        {
            "positions": [
                -1.6099921984639036,
                -1.4249251673338528,
                1.918085232412289,
                -0.46817091545340067,
                1.40221253071649,
                3.010994737087579
            ]
        },
        {
            "positions": [
                -1.5482077745999319,
                -1.4332641770164245,
                1.879635064165193,
                -0.40767850208491824,
                1.331668472173707,
                2.8626411858596548
            ]
        },
        {
            "positions": [
                -1.4864233507359603,
                -1.441603186698996,
                1.841184895918097,
                -0.34718608871643586,
                1.261124413630924,
                2.714287634631731
            ]
        },
        {
            "positions": [
                -1.4246389268719888,
                -1.4499421963815675,
                1.802734727671001,
                -0.2866936753479534,
                1.1905803550881413,
                2.565934083403807
            ]
        },
        {
            "positions": [
                -1.362854503008017,
                -1.458281206064139,
                1.764284559423905,
                -0.22620126197947105,
                1.1200362965453583,
                2.4175805321758825
            ]
        },
        {
            "positions": [
                -1.3010700791440455,
                -1.4666202157467108,
                1.725834391176809,
                -0.16570884861098867,
                1.0494922380025753,
                2.2692269809479586
            ]
        },
        {
            "positions": [
                -1.2392856552800737,
                -1.4749592254292823,
                1.687384222929713,
                -0.10521643524250623,
                0.9789481794597923,
                2.1208734297200342
            ]
        },
        {
            "positions": [
                -1.1775012314161022,
                -1.4832982351118538,
                1.648934054682617,
                -0.044724021874023856,
                0.9084041209170093,
                1.9725198784921103
            ]
        },
        {
            "positions": [
                -1.1157168075521304,
                -1.4916372447944253,
                1.6104838864355209,
                0.015768391494458633,
                0.8378600623742263,
                1.8241663272641861
            ]
        },
        {
            "positions": [
                -1.053932383688159,
                -1.499976254476997,
                1.572033718188425,
                0.07626080486294096,
                0.7673160038314434,
                1.675812776036262
            ]
        },
        {
            "positions": [
                -0.9921479598241872,
                -1.5083152641595685,
                1.5335835499413288,
                0.1367532182314234,
                0.6967719452886603,
                1.5274592248083378
            ]
        },
        {
            "positions": [
                -0.9303635359602157,
                -1.51665427384214,
                1.4951333816942327,
                0.1972456315999057,
                0.6262278867458774,
                1.379105673580414
            ]
        },
        {
            "positions": [
                -0.868579112096244,
                -1.5249932835247115,
                1.4566832134471368,
                0.25773804496838815,
                0.5556838282030944,
                1.2307521223524898
            ]
        },
        {
            "positions": [
                -0.8067946882322724,
                -1.5333322932072833,
                1.418233045200041,
                0.3182304583368706,
                0.48513976966031147,
                1.0823985711245658
            ]
        },
        {
            "positions": [
                -0.7450102643683008,
                -1.5416713028898548,
                1.3797828769529445,
                0.378722871705353,
                0.41459571111752846,
                0.9340450198966415
            ]
        },
        {
            "positions": [
                -0.6832258405043292,
                -1.5500103125724263,
                1.3413327087058486,
                0.43921528507383534,
                0.34405165257474546,
                0.7856914686687175
            ]
        },
        {
            "positions": [
                -0.6214414166403577,
                -1.5583493222549978,
                1.3028825404587527,
                0.49970769844231777,
                0.2735075940319627,
                0.6373379174407936
            ]
        },
        {
            "positions": [
                -0.5596569927763859,
                -1.5666883319375695,
                1.2644323722116566,
                0.5602001118108003,
                0.20296353548917945,
                0.4889843662128692
            ]
        },
        {
            "positions": [
                -0.4978725689124144,
                -1.575027341620141,
                1.2259822039645605,
                0.6206925251792826,
                0.13241947694639644,
                0.3406308149849453
            ]
        },
        {
            "positions": [
                -0.4360881450484426,
                -1.5833663513027125,
                1.1875320357174646,
                0.681184938547765,
                0.06187541840361366,
                0.19227726375702092
            ]
        },
        {
            "positions": [
                -0.3743037211844711,
                -1.591705360985284,
                1.1490818674703687,
                0.7416773519162473,
                -0.008668640139169348,
                0.04392371252909699
            ]
        },
        {
            "positions": [
                -0.3125192973204993,
                -1.6000443706678558,
                1.1106316992232723,
                0.8021697652847298,
                -0.07921269868195258,
                -0.10442983869882738
            ]
        },
        {
            "positions": [
                -0.2507348734565278,
                -1.6083833803504273,
                1.0721815309761764,
                0.8626621786532122,
                -0.14975675722473536,
                -0.2527833899267513
            ]
        },
        {
            "positions": [
                -0.18895044959255625,
                -1.6167223900329988,
                1.0337313627290805,
                0.9231545920216945,
                -0.22030081576751837,
                -0.40113694115467524
            ]
        },
        {
            "positions": [
                -0.1271660257285847,
                -1.6250613997155703,
                0.9952811944819845,
                0.9836470053901768,
                -0.29084487431030115,
                -0.5494904923825992
            ]
        },
        {
            "positions": [
                -0.06538160186461295,
                -1.633400409398142,
                0.9568310262348884,
                1.0441394187586592,
                -0.3613889328530844,
                -0.6978440436105235
            ]
        },
        {
            "positions": [
                -0.00359717800064141,
                -1.6417394190807135,
                0.9183808579877923,
                1.1046318321271418,
                -0.4319329913958674,
                -0.8461975948384475
            ]
        },
        {
            "positions": [
                0.05818724586333035,
                -1.650078428763285,
                0.8799306897406964,
                1.1651242454956243,
                -0.5024770499386502,
                -0.9945511460663714
            ]
        },
        {
            "positions": [
                0.11997166972730189,
                -1.6584174384458565,
                0.8414805214936003,
                1.2256166588641064,
                -0.5730211084814332,
                -1.1429046972942953
            ]
        },
        {
            "positions": [
                0.18175609359127365,
                -1.6667564481284283,
                0.8030303532465042,
                1.286109072232589,
                -0.6435651670242162,
                -1.2912582485222202
            ]
        },
        {
            "positions": [
                0.2435405174552452,
                -1.6750954578109998,
                0.7645801849994083,
                1.3466014856010715,
                -0.714109225566999,
                -1.4396117997501436
            ]
        },
        {
            "positions": [
                0.0995532774482043,
                -1.729187261977188,
                0.8124548300551607,
                1.4117870602660025,
                -0.7049314743885153,
                -1.508504851864067
            ]
        },
        {
            "positions": [
                -0.04443396255883658,
                -1.7832790661433764,
                0.8603294751109132,
                1.4769726349309336,
                -0.6957537232100317,
                -1.5773979039779904
            ]
        },
        {
            "positions": [
                -0.18842120256587752,
                -1.8373708703095646,
                0.9082041201666655,
                1.5421582095958646,
                -0.6865759720315482,
                -1.6462909560919137
            ]
        },
        {
            "positions": [
                -0.33240844257291835,
                -1.891462674475753,
                0.956078765222418,
                1.6073437842607956,
                -0.6773982208530646,
                -1.7151840082058372
            ]
        },
        {
            "positions": [
                -0.47639568257995923,
                -1.9455544786419412,
                1.0039534102781704,
                1.6725293589257269,
                -0.6682204696745809,
                -1.7840770603197604
            ]
        },
        {
            "positions": [
                -0.6203829225870002,
                -1.9996462828081296,
                1.0518280553339228,
                1.7377149335906579,
                -0.6590427184960973,
                -1.8529701124336837
            ]
        },
        {
            "positions": [
                -0.7643701625940411,
                -2.053738086974318,
                1.0997027003896753,
                1.802900508255589,
                -0.6498649673176137,
                -1.9218631645476072
            ]
        },
        {
            "positions": [
                -0.9083574026010819,
                -2.107829891140506,
                1.1475773454454277,
                1.86808608292052,
                -0.64068721613913,
                -1.9907562166615305
            ]
        },
        {
            "positions": [
                -1.0523446426081229,
                -2.1619216953066944,
                1.19545199050118,
                1.933271657585451,
                -0.6315094649606465,
                -2.0596492687754537
            ]
        },
        {
            "positions": [
                -1.1963318826151637,
                -2.216013499472883,
                1.2433266355569326,
                1.998457232250382,
                -0.6223317137821629,
                -2.1285423208893772
            ]
        },
        {
            "positions": [
                -1.3403191226222047,
                -2.2701053036390713,
                1.2912012806126851,
                2.063642806915313,
                -0.6131539626036793,
                -2.1974353730033007
            ]
        },
        {
            "positions": [
                -1.4843063626292456,
                -2.3241971078052592,
                1.3390759256684373,
                2.1288283815802442,
                -0.6039762114251956,
                -2.2663284251172238
            ]
        },
        {
            "positions": [
                -1.6282936026362864,
                -2.3782889119714477,
                1.3869505707241898,
                2.194013956245175,
                -0.594798460246712,
                -2.3352214772311473
            ]
        },
        {
            "positions": [
                -1.7722808426433274,
                -2.432380716137636,
                1.4348252157799424,
                2.2591995309101063,
                -0.5856207090682284,
                -2.4041145293450707
            ]
        },
        {
            "positions": [
                -1.9162680826503684,
                -2.486472520303824,
                1.4826998608356947,
                2.324385105575037,
                -0.5764429578897448,
                -2.473007581458994
            ]
        },
        {
            "positions": [
                -2.060255322657409,
                -2.5405643244700125,
                1.530574505891447,
                2.3895706802399683,
                -0.5672652067112612,
                -2.5419006335729173
            ]
        },
        {
            "positions": [
                -2.20424256266445,
                -2.594656128636201,
                1.5784491509471996,
                2.4547562549048996,
                -0.5580874555327776,
                -2.610793685686841
            ]
        },
        {
            "positions": [
                -2.348229802671491,
                -2.6487479328023893,
                1.626323796002952,
                2.519941829569831,
                -0.548909704354294,
                -2.679686737800764
            ]
        },
        {
            "positions": [
                -2.492217042678532,
                -2.7028397369685773,
                1.6741984410587043,
                2.5851274042347616,
                -0.5397319531758104,
                -2.7485797899146873
            ]
        },
        {
            "positions": [
                -2.6362042826855725,
                -2.7569315411347657,
                1.7220730861144569,
                2.6503129788996924,
                -0.5305542019973268,
                -2.817472842028611
            ]
        },
        {
            "positions": [
                -2.7801915226926135,
                -2.8110233453009537,
                1.7699477311702092,
                2.7154985535646237,
                -0.5213764508188432,
                -2.886365894142534
            ]
        },
        {
            "positions": [
                -2.9241787626996545,
                -2.865115149467142,
                1.8178223762259618,
                2.780684128229555,
                -0.5121986996403596,
                -2.955258946256458
            ]
        },
        {
            "positions": [
                -3.0681660027066955,
                -2.9192069536333305,
                1.865697021281714,
                2.8458697028944857,
                -0.503020948461876,
                -3.024151998370381
            ]
        },
        {
            "positions": [
                -3.051239120139293,
                -2.869011090104032,
                1.869735417581854,
                2.7410136501942333,
                -0.4695979504663247,
                -2.8482520935344073
            ]
        },
        {
            "positions": [
                -3.03431223757189,
                -2.818815226574734,
                1.8737738138819937,
                2.636157597493981,
                -0.4361749524707734,
                -2.6723521886984334
            ]
        },
        {
            "positions": [
                -3.0173853550044876,
                -2.768619363045435,
                1.8778122101821337,
                2.5313015447937284,
                -0.40275195447522216,
                -2.4964522838624594
            ]
        },
        {
            "positions": [
                -3.0004584724370846,
                -2.718423499516137,
                1.8818506064822735,
                2.426445492093476,
                -0.36932895647967096,
                -2.320552379026486
            ]
        },
        {
            "positions": [
                -2.983531589869682,
                -2.6682276359868387,
                1.8858890027824133,
                2.3215894393932235,
                -0.3359059584841197,
                -2.1446524741905124
            ]
        },
        {
            "positions": [
                -2.9666047073022797,
                -2.6180317724575404,
                1.8899273990825531,
                2.216733386692971,
                -0.30248296048856843,
                -1.9687525693545385
            ]
        },
        {
            "positions": [
                -2.9496778247348767,
                -2.5678359089282417,
                1.893965795382693,
                2.1118773339927186,
                -0.26905996249301717,
                -1.7928526645185645
            ]
        },
        {
            "positions": [
                -2.9327509421674742,
                -2.5176400453989434,
                1.8980041916828327,
                2.007021281292466,
                -0.23563696449746596,
                -1.616952759682591
            ]
        },
        {
            "positions": [
                -2.9158240596000713,
                -2.467444181869645,
                1.9020425879829728,
                1.9021652285922137,
                -0.2022139665019147,
                -1.4410528548466173
            ]
        },
        {
            "positions": [
                -2.898897177032669,
                -2.417248318340347,
                1.9060809842831126,
                1.7973091758919613,
                -0.16879096850636344,
                -1.2651529500106435
            ]
        },
        {
            "positions": [
                -2.8819702944652663,
                -2.3670524548110485,
                1.9101193805832524,
                1.6924531231917086,
                -0.13536797051081217,
                -1.0892530451746698
            ]
        },
        {
            "positions": [
                -2.8650434118978634,
                -2.3168565912817503,
                1.9141577768833922,
                1.5875970704914562,
                -0.10194497251526091,
                -0.9133531403386961
            ]
        },
        {
            "positions": [
                -2.848116529330461,
                -2.2666607277524515,
                1.918196173183532,
                1.4827410177912037,
                -0.06852197451970965,
                -0.7374532355027221
            ]
        },
        {
            "positions": [
                -2.831189646763058,
                -2.2164648642231533,
                1.9222345694836718,
                1.3778849650909513,
                -0.03509897652415839,
                -0.5615533306667482
            ]
        },
        {
            "positions": [
                -2.8142627641956555,
                -2.166269000693855,
                1.9262729657838118,
                1.273028912390699,
                -0.001675978528607236,
                -0.3856534258307751
            ]
        },
        {
            "positions": [
                -2.797335881628253,
                -2.1160731371645567,
                1.9303113620839516,
                1.1681728596904464,
                0.031747019466944026,
                -0.20975352099480116
            ]
        },
        {
            "positions": [
                -2.78040899906085,
                -2.065877273635258,
                1.9343497583840914,
                1.063316806990194,
                0.06517001746249529,
                -0.033853616158827204
            ]
        },
        {
            "positions": [
                -2.7634821164934475,
                -2.0156814101059597,
                1.9383881546842312,
                0.9584607542899417,
                0.09859301545804655,
                0.1420462886771463
            ]
        },
        {
            "positions": [
                -2.7465552339260446,
                -1.9654855465766614,
                1.942426550984371,
                0.8536047015896893,
                0.1320160134535978,
                0.3179461935131198
            ]
        },
        {
            "positions": [
                -2.729628351358642,
                -1.9152896830473631,
                1.9464649472845108,
                0.7487486488894368,
                0.16543901144914908,
                0.49384609834909377
            ]
        },
        {
            "positions": [
                -2.7127014687912396,
                -1.8650938195180649,
                1.9505033435846508,
                0.6438925961891844,
                0.19886200944470034,
                0.6697460031850673
            ]
        },
        {
            "positions": [
                -2.6957745862238367,
                -1.8148979559887664,
                1.9545417398847906,
                0.5390365434889315,
                0.2322850074402516,
                0.8456459080210412
            ]
        },
        {
            "positions": [
                -2.678847703656434,
                -1.764702092459468,
                1.9585801361849304,
                0.43418049078867904,
                0.26570800543580286,
                1.0215458128570152
            ]
        },
        {
            "positions": [
                -2.6619208210890313,
                -1.7145062289301696,
                1.9626185324850702,
                0.3293244380884266,
                0.2991310034313541,
                1.1974457176929887
            ]
        },
        {
            "positions": [
                -2.644993938521629,
                -1.6643103654008713,
                1.96665692878521,
                0.22446838538817415,
                0.3325540014269054,
                1.373345622528963
            ]
        },
        {
            "positions": [
                -2.6280670559542263,
                -1.6141145018715728,
                1.9706953250853498,
                0.11961233268792171,
                0.36597699942245665,
                1.5492455273649366
            ]
        },
        {
            "positions": [
                -2.6111401733868234,
                -1.5639186383422745,
                1.9747337213854899,
                0.014756279987669263,
                0.3993999974180079,
                1.72514543220091
            ]
        },
        {
            "positions": [
                -2.594213290819421,
                -1.513722774812976,
                1.9787721176856297,
                -0.09009977271258318,
                0.4328229954135592,
                1.9010453370368845
            ]
        },
        {
            "positions": [
                -2.577286408252018,
                -1.4635269112836777,
                1.9828105139857695,
                -0.19495582541283563,
                0.46624599340911044,
                2.076945241872858
            ]
        },
        {
            "positions": [
                -2.5603595256846154,
                -1.4133310477543795,
                1.9868489102859093,
                -0.2998118781130876,
                0.4996689914046615,
                2.2528451467088306
            ]
        },
        {
            "positions": [
                -2.543432643117213,
                -1.3631351842250812,
                1.990887306586049,
                -0.4046679308133405,
                0.5330919894002129,
                2.428745051544805
            ]
        },
        {
            "positions": [
                -2.52650576054981,
                -1.3129393206957827,
                1.994925702886189,
                -0.509523983513593,
                0.566514987395764,
                2.6046449563807785
            ]
        },
        {
            "positions": [
                -2.5095788779824075,
                -1.2627434571664844,
                1.998964099186329,
                -0.6143800362138454,
                0.5999379853913154,
                2.780544861216752
            ]
        },
        {
            "positions": [
                -2.492651995415005,
                -1.212547593637186,
                2.0030024954864687,
                -0.7192360889140978,
                0.6333609833868665,
                2.9564447660527264
            ]
        },
        {
            "positions": [
                -2.475725112847602,
                -1.1623517301078876,
                2.0070408917866085,
                -0.8240921416143501,
                0.6667839813824179,
                3.1323446708886995
            ]
        }
    ]
}