{
    "goal": {
        "global_pose": {
            "orientation": {
                "w": 0.5084816217422485,
                "x": -0.49083608388900757,
                "y": 0.5182115435600281,
                "z": -0.4816462993621826
            },
            "position": {
                "x": 0.5540239810943604,
                "y": 0.030875300988554955,
                "z": 0.16403168439865112
            }
        },
        "name": "move_to_storage_A"
    },
    "id": "LBKPIECE_move_to_storage_A_106",
    "joint_names": [
        "shoulder_pan_joint",
        "shoulder_lift_joint",
        "elbow_joint",
        "wrist_1_joint",
        "wrist_2_joint",
        "wrist_3_joint"
    ],
    "metrics": {
        "cart_traj_len": 0.3529322149989894,
        "distance_elbow_joint": 0.4476827604850844,
        "distance_shoulder_lift_joint": 0.23466459874700796,
        "distance_shoulder_pan_joint": 0.46194181395206657,
        "distance_wrist_1_joint": 0.2353993057147803,
        "distance_wrist_2_joint": 1.0963099508994376,
        "distance_wrist_3_joint": 0.10286481033551187,
        "smoothness": 0.0,
        "time": 0.46678005,
        "traj_len": 1.6058839435444545,
        "weighted_distance": 2.0288672005380564
    },
    "planner": "LBKPIECE",
    "start": {
        "state": {
            "elbow_joint": 1.971548880431181,
            "shoulder_lift_joint": -1.1394869514688781,
            "shoulder_pan_joint": 0.12281150262730567,
            "wrist_1_joint": -0.7804693444481463,
            "wrist_2_joint": 0.12958644648617612,
            "wrist_3_joint": 3.0906942077768043
        }
    },
    "waypoints": [
        {
            "positions": [
                0.12281150262730567,
                -1.1394869514688781,
                1.971548880431181,
                -0.7804693444481463,
                0.12958644648617612,
                3.0906942077768043
            ]
        },
        {
            "positions": [
                0.056819814919867595,
                -1.1730104655755935,
                2.0355035605004788,
                -0.8140978166931149,
                0.28620215375752434,
                3.105389180681877
            ]
        },
        {
            "positions": [
                -0.009171872787570479,
                -1.206533979682309,
                2.0994582405697764,
                -0.8477262889380835,
                0.44281786102887255,
                3.1200841535869506
            ]
        },
        {
            "positions": [
                -0.07516356049500855,
                -1.2400574937890243,
                2.1634129206390744,
                -0.8813547611830521,
                0.5994335683002208,
                3.1347791264920235
            ]
        },
        {
            "positions": [
                -0.14115524820244663,
                -1.2735810078957397,
                2.227367600708372,
                -0.9149832334280208,
                0.756049275571569,
                3.149474099397097
            ]
        },
        {
            "positions": [
                -0.20714693590988476,
                -1.3071045220024553,
                2.2913222807776696,
                -0.9486117056729894,
                0.9126649828429173,
                3.16416907230217
            ]
        },
        {
            "positions": [
                -0.2731386236173228,
                -1.3406280361091707,
                2.3552769608469677,
                -0.9822401779179579,
                1.0692806901142653,
                3.178864045207243
            ]
        },
        {
            "positions": [
                -0.3391303113247609,
                -1.374151550215886,
                2.4192316409162653,
                -1.0158686501629266,
                1.2258963973856138,
                3.193559018112316
            ]
        }
    ]
}