{
    "goal": {
        "global_pose": {
            "orientation": {
                "w": 0.5084816262002911,
                "x": -0.4908360881923452,
                "y": 0.5182115481033761,
                "z": -0.48164630358495003
            },
            "position": {
                "x": 0.5540239810943604,
                "y": -0.46912469901144505,
                "z": 0.16403168439865112
            }
        },
        "name": "move_to_storage_B"
    },
    "id": "LBKPIECE_move_to_storage_B_148",
    "joint_names": [
        "shoulder_pan_joint",
        "shoulder_lift_joint",
        "elbow_joint",
        "wrist_1_joint",
        "wrist_2_joint",
        "wrist_3_joint"
    ],
    "metrics": {
        "cart_traj_len": 0.6789956706831092,
        "distance_elbow_joint": 0.46958337144326445,
        "distance_shoulder_lift_joint": 0.4599983470177951,
        "distance_shoulder_pan_joint": 0.32852394244076133,
        "distance_wrist_1_joint": 2.982828963038168,
        "distance_wrist_2_joint": 2.7137827149432194,
        "distance_wrist_3_joint": 3.1511982047544764,
        "smoothness": 0.08481221881265154,
        "time": 0.185182674,
        "traj_len": 3.1789802678905836,
        "weighted_distance": 4.701587352280932
    },
    "planner": "LBKPIECE",
    "start": {
        "state": {
            "elbow_joint": 1.6649325340416963,
            "shoulder_lift_joint": -0.6616387945129425,
            "shoulder_pan_joint": -0.9139837929255878,
            "wrist_1_joint": 2.1467571094334352,
            "wrist_2_joint": -2.234195976750228,
            "wrist_3_joint": 0.005470921511140723
        }
    },
    "waypoints": [
        {
            "positions": [
                -0.9139837929255878,
                -0.6616387945129425,
                1.6649325340416963,
                2.1467571094334352,
                -2.234195976750228,
                0.005470921511140723
            ]
        },
        {
            "positions": [
                -0.8408211946344872,
                -0.7134402408742704,
                1.6058617620586415,
                2.1120614527104875,
                -2.119757197547501,
                -0.025920348562277987
            ]
        },
        {
            "positions": [
                -0.8510356484004736,
                -0.7297681169005291,
                1.62228226603705,
                1.9941361204578787,
                -2.015783440117881,
                -0.1507126259495203
            ]
        },
        {
            "positions": [
                -0.8612501021664601,
                -0.7460959929267877,
                1.6387027700154584,
                1.8762107882052699,
                -1.9118096826882616,
                -0.27550490333676264
            ]
        },
        {
            "positions": [
                -0.8714645559324465,
                -0.7624238689530465,
                1.6551232739938666,
                1.758285455952661,
                -1.8078359252586418,
                -0.40029718072400494
            ]
        },
        {
            "positions": [
                -0.8816790096984329,
                -0.7787517449793051,
                1.671543777972275,
                1.6403601237000522,
                -1.7038621678290222,
                -0.5250894581112473
            ]
        },
        {
            "positions": [
                -0.8918934634644193,
                -0.7950796210055638,
                1.6879642819506835,
                1.5224347914474434,
                -1.5998884103994024,
                -0.6498817354984896
            ]
        },
        {
            "positions": [
                -0.9021079172304058,
                -0.8114074970318225,
                1.704384785929092,
                1.4045094591948346,
                -1.4959146529697827,
                -0.7746740128857319
            ]
        },
        {
            "positions": [
                -0.9123223709963922,
                -0.8277353730580812,
                1.7208052899075001,
                1.2865841269422258,
                -1.3919408955401629,
                -0.8994662902729743
            ]
        },
        {
            "positions": [
                -0.9225368247623786,
                -0.8440632490843398,
                1.7372257938859086,
                1.168658794689617,
                -1.2879671381105433,
                -1.0242585676602165
            ]
        },
        {
            "positions": [
                -0.9327512785283651,
                -0.8603911251105986,
                1.753646297864317,
                1.0507334624370084,
                -1.1839933806809237,
                -1.149050845047459
            ]
        },
        {
            "positions": [
                -0.9429657322943515,
                -0.8767190011368573,
                1.7700668018427255,
                0.9328081301843993,
                -1.080019623251304,
                -1.2738431224347013
            ]
        },
        {
            "positions": [
                -0.9531801860603379,
                -0.8930468771631159,
                1.7864873058211337,
                0.8148827979317905,
                -0.9760458658216842,
                -1.3986353998219436
            ]
        },
        {
            "positions": [
                -0.9633946398263243,
                -0.9093747531893747,
                1.8029078097995421,
                0.6969574656791819,
                -0.8720721083920646,
                -1.523427677209186
            ]
        },
        {
            "positions": [
                -0.9736090935923108,
                -0.9257026292156333,
                1.8193283137779506,
                0.5790321334265729,
                -0.7680983509624448,
                -1.6482199545964282
            ]
        },
        {
            "positions": [
                -0.9838235473582972,
                -0.942030505241892,
                1.835748817756359,
                0.4611068011739641,
                -0.664124593532825,
                -1.7730122319836708
            ]
        },
        {
            "positions": [
                -0.9940380011242836,
                -0.9583583812681506,
                1.8521693217347672,
                0.3431814689213555,
                -0.5601508361032055,
                -1.8978045093709128
            ]
        },
        {
            "positions": [
                -1.00425245489027,
                -0.9746862572944094,
                1.8685898257131757,
                0.22525613666874644,
                -0.4561770786735857,
                -2.022596786758155
            ]
        },
        {
            "positions": [
                -1.0144669086562565,
                -0.9910141333206681,
                1.885010329691584,
                0.10733080441613785,
                -0.3522033212439659,
                -2.1473890641453974
            ]
        },
        {
            "positions": [
                -1.024681362422243,
                -1.0073420093469267,
                1.9014308336699925,
                -0.010594527836470746,
                -0.24822956381434658,
                -2.2721813415326397
            ]
        },
        {
            "positions": [
                -1.0348958161882293,
                -1.0236698853731854,
                1.917851337648401,
                -0.12851986008907978,
                -0.14425580638472657,
                -2.396973618919882
            ]
        },
        {
            "positions": [
                -1.0451102699542159,
                -1.0399977613994442,
                1.9342718416268092,
                -0.24644519234168882,
                -0.04028204895510701,
                -2.5217658963071243
            ]
        },
        {
            "positions": [
                -1.0553247237202021,
                -1.0563256374257028,
                1.9506923456052176,
                -0.3643705245942974,
                0.06369170847451278,
                -2.6465581736943666
            ]
        },
        {
            "positions": [
                -1.0655391774861886,
                -1.0726535134519615,
                1.967112849583626,
                -0.48229585684690646,
                0.16766546590413256,
                -2.771350451081609
            ]
        },
        {
            "positions": [
                -1.0757536312521752,
                -1.0889813894782203,
                1.9835333535620343,
                -0.600221189099515,
                0.27163922333375234,
                -2.8961427284688512
            ]
        },
        {
            "positions": [
                -1.0859680850181614,
                -1.105309265504479,
                1.9999538575404427,
                -0.7181465213521236,
                0.3756129807633717,
                -3.0209350058560935
            ]
        },
        {
            "positions": [
                -1.096182538784148,
                -1.1216371415307376,
                2.016374361518851,
                -0.8360718536047326,
                0.47958673819299125,
                -3.145727283243336
            ]
        }
    ]
}