{
    "goal": {
        "global_pose": {
            "orientation": {
                "w": 0.005598929693374612,
                "x": 0.007748599140229565,
                "y": 0.7110244013736278,
                "z": -0.7031023480610252
            },
            "position": {
                "x": 0.1141497679147869,
                "y": -0.7141253447532654,
                "z": 0.3711530566215515
            }
        },
        "name": "move_to_auspresseinheit_B"
    },
    "id": "LBKPIECE_move_to_auspresseinheit_B_97",
    "joint_names": [
        "shoulder_pan_joint",
        "shoulder_lift_joint",
        "elbow_joint",
        "wrist_1_joint",
        "wrist_2_joint",
        "wrist_3_joint"
    ],
    "metrics": {
        "cart_traj_len": 0.5651987147613817,
        "distance_elbow_joint": 0.06521674848501702,
        "distance_shoulder_lift_joint": 0.2952808348287328,
        "distance_shoulder_pan_joint": 0.5781460173151205,
        "distance_wrist_1_joint": 0.33948429962666504,
        "distance_wrist_2_joint": 0.9921006785272382,
        "distance_wrist_3_joint": 0.0017879653272272478,
        "smoothness": 0.0,
        "time": 0.792873163,
        "traj_len": 1.5073209824420282,
        "weighted_distance": 1.8992570792071195
    },
    "planner": "LBKPIECE",
    "start": {
        "state": {
            "elbow_joint": 2.0193061681459312,
            "shoulder_lift_joint": -1.1220205130644991,
            "shoulder_pan_joint": -1.0952072088045026,
            "wrist_1_joint": -0.8559671810662515,
            "wrist_2_joint": 0.4759638712940361,
            "wrist_3_joint": 3.159081874192446
        }
    },
    "waypoints": [
        {
            "positions": [
                -1.0952072088045026,
                -1.1220205130644991,
                2.0193061681459312,
                -0.8559671810662515,
                0.4759638712940361,
                3.159081874192446
            ]
        },
        {
            "positions": [
                -1.1915648783570227,
                -1.1712339855359546,
                2.0084367100650953,
                -0.7993864644618073,
                0.6413139843819091,
                3.1587838799712413
            ]
        },
        {
            "positions": [
                -1.2879225479095429,
                -1.22044745800741,
                1.9975672519842589,
                -0.7428057478573631,
                0.8066640974697821,
                3.158485885750037
            ]
        },
        {
            "positions": [
                -1.384280217462063,
                -1.2696609304788655,
                1.9866977939034227,
                -0.686225031252919,
                0.9720142105576552,
                3.1581878915288324
            ]
        },
        {
            "positions": [
                -1.4806378870145829,
                -1.318874402950321,
                1.9758283358225865,
                -0.6296443146484748,
                1.1373643236455282,
                3.1578898973076277
            ]
        },
        {
            "positions": [
                -1.576995556567103,
                -1.3680878754217765,
                1.9649588777417504,
                -0.5730635980440306,
                1.3027144367334014,
                3.1575919030864235
            ]
        },
        {
            "positions": [
                -1.6733532261196231,
                -1.417301347893232,
                1.9540894196609142,
                -0.5164828814395864,
                1.4680645498212743,
                3.1572939088652188
            ]
        }
    ]
}