{
    "goal": {
        "global_pose": {
            "orientation": {
                "w": 0.7031023502349854,
                "x": -0.7110244035720825,
                "y": 0.007748599164187908,
                "z": 0.005598929710686207
            },
            "position": {
                "x": 0.11585023208521307,
                "y": 0.44412534475326537,
                "z": 0.3711530566215515
            }
        },
        "name": "move_to_auspresseinheit_A"
    },
    "id": "LBKPIECE_move_to_auspresseinheit_A_17",
    "joint_names": [
        "shoulder_pan_joint",
        "shoulder_lift_joint",
        "elbow_joint",
        "wrist_1_joint",
        "wrist_2_joint",
        "wrist_3_joint"
    ],
    "metrics": {
        "cart_traj_len": 1.5858588279397035,
        "distance_elbow_joint": 1.7272667175129435,
        "distance_shoulder_lift_joint": 0.8179313746579235,
        "distance_shoulder_pan_joint": 1.0440595614266197,
        "distance_wrist_1_joint": 1.453072565520483,
        "distance_wrist_2_joint": 1.1837334139075715,
        "distance_wrist_3_joint": 2.9281683260240445,
        "smoothness": 0.9464036510709755,
        "time": 0.235714074,
        "traj_len": 3.02559613283888,
        "weighted_distance": 4.200877835705976
    },
    "planner": "LBKPIECE",
    "start": {
        "state": {
            "elbow_joint": 2.4225746994637096,
            "shoulder_lift_joint": -1.373653595662188,
            "shoulder_pan_joint": -0.3378633848294565,
            "wrist_1_joint": -1.0288595594406726,
            "wrist_2_joint": 1.2330228066703421,
            "wrist_3_joint": 3.189163495502006
        }
    },
    "waypoints": [
        {
            "positions": [
                -0.3378633848294565,
                -1.373653595662188,
                2.4225746994637096,
                -1.0288595594406726,
                1.2330228066703421,
                3.189163495502006
            ]
        },
        {
            "positions": [
                -0.30794935465812057,
                -1.4062474030839425,
                2.334562831386348,
                -1.0072708745000718,
                1.186899191279763,
                3.039844091090732
            ]
        },
        {
            "positions": [
                -0.27803532448678464,
                -1.438841210505697,
                2.2465509633089864,
                -0.9856821895594711,
                1.140775575889184,
                2.890524686679458
            ]
        },
        {
            "positions": [
                -0.24812129431544877,
                -1.4714350179274513,
                2.1585390952316246,
                -0.9640935046188703,
                1.0946519604986047,
                2.7412052822681834
            ]
        },
        {
            "positions": [
                -0.21820726414411284,
                -1.5040288253492058,
                2.0705272271542627,
                -0.9425048196782695,
                1.0485283451080256,
                2.5918858778569094
            ]
        },
        {
            "positions": [
                -0.18829323397277692,
                -1.5366226327709602,
                1.9825153590769014,
                -0.9209161347376688,
                1.0024047297174465,
                2.4425664734456354
            ]
        },
        {
            "positions": [
                -0.15837920380144102,
                -1.5692164401927147,
                1.8945034909995395,
                -0.899327449797068,
                0.9562811143268675,
                2.2932470690343614
            ]
        },
        {
            "positions": [
                -0.1284651736301051,
                -1.601810247614469,
                1.806491622922178,
                -0.8777387648564672,
                0.9101574989362884,
                2.143927664623087
            ]
        },
        {
            "positions": [
                -0.09855114345876917,
                -1.6344040550362235,
                1.7184797548448163,
                -0.8561500799158664,
                0.8640338835457091,
                1.9946082602118131
            ]
        },
        {
            "positions": [
                -0.06863711328743327,
                -1.666997862457978,
                1.6304678867674545,
                -0.8345613949752656,
                0.81791026815513,
                1.845288855800539
            ]
        },
        {
            "positions": [
                -0.03872308311609732,
                -1.6995916698797324,
                1.5424560186900929,
                -0.8129727100346649,
                0.7717866527645509,
                1.695969451389265
            ]
        },
        {
            "positions": [
                0.014905813651147251,
                -1.743228288844427,
                1.6303751080690563,
                -0.7132731683160288,
                0.7222712981316426,
                1.7441453358442796
            ]
        },
        {
            "positions": [
                0.06853471041839182,
                -1.7868649078091217,
                1.7182941974480195,
                -0.6135736265973927,
                0.6727559434987341,
                1.7923212202992942
            ]
        },
        {
            "positions": [
                0.12216360718563637,
                -1.8305015267738165,
                1.806213286826983,
                -0.5138740848787566,
                0.6232405888658257,
                1.840497104754309
            ]
        },
        {
            "positions": [
                0.17579250395288096,
                -1.8741381457385111,
                1.8941323762059463,
                -0.41417454316012053,
                0.5737252342329173,
                1.8886729892093237
            ]
        },
        {
            "positions": [
                0.22942140072012554,
                -1.9177747647032057,
                1.9820514655849095,
                -0.31447500144148444,
                0.524209879600009,
                1.9368488736643383
            ]
        },
        {
            "positions": [
                0.2830502974873701,
                -1.9614113836679006,
                2.0699705549638727,
                -0.2147754597228484,
                0.4746945249671005,
                1.9850247581193532
            ]
        },
        {
            "positions": [
                0.3366791942546147,
                -2.005048002632595,
                2.1578896443428364,
                -0.11507591800421224,
                0.4251791703341921,
                2.033200642574368
            ]
        },
        {
            "positions": [
                0.39030809102185926,
                -2.04868462159729,
                2.2458087337217996,
                -0.01537637628557622,
                0.3756638157012837,
                2.0813765270293825
            ]
        },
        {
            "positions": [
                0.43543496038975976,
                -2.028270286065458,
                2.266350922537174,
                -0.07817485948063152,
                0.4222887332639284,
                2.2313146993538377
            ]
        },
        {
            "positions": [
                0.4805618297576603,
                -2.0078559505336266,
                2.286893111352548,
                -0.1409733426756868,
                0.4689136508265731,
                2.3812528716782926
            ]
        },
        {
            "positions": [
                0.5256886991255608,
                -1.9874416150017948,
                2.3074353001679224,
                -0.2037718258707421,
                0.5155385683892179,
                2.531191044002748
            ]
        },
        {
            "positions": [
                0.5708155684934614,
                -1.967027279469963,
                2.3279774889832967,
                -0.2665703090657974,
                0.5621634859518625,
                2.681129216327203
            ]
        },
        {
            "positions": [
                0.6159424378613618,
                -1.9466129439381314,
                2.348519677798671,
                -0.3293687922608527,
                0.6087884035145072,
                2.8310673886516584
            ]
        },
        {
            "positions": [
                0.6610693072292624,
                -1.9261986084062996,
                2.3690618666140453,
                -0.39216727545590796,
                0.655413321077152,
                2.9810055609761132
            ]
        },
        {
            "positions": [
                0.7061961765971629,
                -1.905784272874468,
                2.3896040554294196,
                -0.4549657586509633,
                0.7020382386397966,
                3.1309437333005685
            ]
        }
    ]
}