{
    "goal": {
        "global_pose": {
            "orientation": {
                "w": -0.00223480608172531,
                "x": 0.0024358444001904467,
                "y": 0.7094548369677653,
                "z": -0.704743149386269
            },
            "position": {
                "x": -0.37947507619857795,
                "y": -0.6371506643295288,
                "z": 0.19426114857196808
            }
        },
        "name": "move_to_magneteinheit_C"
    },
    "id": "LBKPIECE_move_to_magneteinheit_C_1",
    "joint_names": [
        "shoulder_pan_joint",
        "shoulder_lift_joint",
        "elbow_joint",
        "wrist_1_joint",
        "wrist_2_joint",
        "wrist_3_joint"
    ],
    "metrics": {
        "cart_traj_len": 4.8205345838312965,
        "distance_elbow_joint": 0.4059786926693205,
        "distance_shoulder_lift_joint": 3.151133999145343,
        "distance_shoulder_pan_joint": 6.986378652275258,
        "distance_wrist_1_joint": 3.3271032161350464,
        "distance_wrist_2_joint": 0.7960969773677975,
        "distance_wrist_3_joint": 1.6410655734124604,
        "smoothness": 0.8024644050886707,
        "time": 0.812191664,
        "traj_len": 4.0382864077483696,
        "weighted_distance": 4.869608654844145
    },
    "planner": "LBKPIECE",
    "start": {
        "state": {
            "elbow_joint": 1.9565354006593851,
            "shoulder_lift_joint": -1.4165861576512813,
            "shoulder_pan_joint": -1.6717766223278752,
            "wrist_1_joint": -0.528663328821883,
            "wrist_2_joint": 1.472756589259273,
            "wrist_3_joint": 3.159348288315503
        }
    },
    "waypoints": [
        {
            "positions": [
                -1.6717766223278752,
                -1.4165861576512813,
                1.9565354006593851,
                -0.528663328821883,
                1.472756589259273,
                3.159348288315503
            ]
        },
        {
            "positions": [
                -1.5171441247189854,
                -1.4890222525259273,
                1.9476649862945552,
                -0.45274365743873357,
                1.4413312165427663,
                3.1174971104480806
            ]
        },
        {
            "positions": [
                -1.3625116271100954,
                -1.5614583474005734,
                1.9387945719297255,
                -0.3768239860555841,
                1.4099058438262595,
                3.075645932580658
            ]
        },
        {
            "positions": [
                -1.207879129501206,
                -1.6338944422752195,
                1.9299241575648955,
                -0.3009043146724347,
                1.3784804711097527,
                3.0337947547132353
            ]
        },
        {
            "positions": [
                -1.053246631892316,
                -1.7063305371498656,
                1.9210537432000658,
                -0.2249846432892852,
                1.3470550983932459,
                2.991943576845813
            ]
        },
        {
            "positions": [
                -0.8986141342834262,
                -1.7787666320245117,
                1.912183328835236,
                -0.14906497190613577,
                1.315629725676739,
                2.9500923989783905
            ]
        },
        {
            "positions": [
                -0.7439816366745364,
                -1.8512027268991578,
                1.9033129144704062,
                -0.07314530052298635,
                1.2842043529602323,
                2.908241221110968
            ]
        },
        {
            "positions": [
                -0.5893491390656467,
                -1.9236388217738036,
                1.8944425001055762,
                0.002774370860163078,
                1.2527789802437255,
                2.8663900432435456
            ]
        },
        {
            "positions": [
                -0.4347166414567567,
                -1.9960749166484497,
                1.8855720857407465,
                0.07869404224331267,
                1.2213536075272187,
                2.8245388653761228
            ]
        },
        {
            "positions": [
                -0.28008414384786695,
                -2.068511011523096,
                1.8767016713759166,
                0.15461371362646203,
                1.1899282348107119,
                2.7826876875087003
            ]
        },
        {
            "positions": [
                -0.1254516462389772,
                -2.140947106397742,
                1.8678312570110869,
                0.2305333850096115,
                1.1585028620942053,
                2.740836509641278
            ]
        },
        {
            "positions": [
                0.029180851369912775,
                -2.213383201272388,
                1.858960842646257,
                0.306453056392761,
                1.1270774893776982,
                2.6989853317738555
            ]
        },
        {
            "positions": [
                0.1838133489788023,
                -2.285819296147034,
                1.850090428281427,
                0.38237272777591036,
                1.0956521166611917,
                2.657134153906433
            ]
        },
        {
            "positions": [
                0.3384458465876923,
                -2.35825539102168,
                1.8412200139165973,
                0.45829239915905995,
                1.0642267439446846,
                2.61528297603901
            ]
        },
        {
            "positions": [
                0.4930783441965818,
                -2.430691485896326,
                1.8323495995517673,
                0.5342120705422092,
                1.032801371228178,
                2.5734317981715877
            ]
        },
        {
            "positions": [
                0.6477108418054718,
                -2.5031275807709723,
                1.8234791851869376,
                0.6101317419253588,
                1.0013759985116713,
                2.5315806203041653
            ]
        },
        {
            "positions": [
                0.8023433394143618,
                -2.5755636756456184,
                1.8146087708221077,
                0.6860514133085084,
                0.9699506257951643,
                2.489729442436743
            ]
        },
        {
            "positions": [
                0.9569758370232513,
                -2.6479997705202645,
                1.805738356457278,
                0.7619710846916578,
                0.9385252530786576,
                2.4478782645693205
            ]
        },
        {
            "positions": [
                1.1116083346321413,
                -2.7204358653949106,
                1.796867942092448,
                0.8378907560748071,
                0.9070998803621508,
                2.4060270867018976
            ]
        },
        {
            "positions": [
                1.2662408322410308,
                -2.7928719602695566,
                1.7879975277276183,
                0.9138104274579565,
                0.875674507645644,
                2.364175908834475
            ]
        },
        {
            "positions": [
                1.420873329849921,
                -2.8653080551442027,
                1.7791271133627884,
                0.9897300988411062,
                0.8442491349291372,
                2.3223247309670527
            ]
        },
        {
            "positions": [
                1.2438856616636726,
                -2.7879256868872746,
                1.7895166772433668,
                0.9075160175469217,
                0.8366314293365162,
                2.3588720953335987
            ]
        },
        {
            "positions": [
                1.066897993477424,
                -2.710543318630346,
                1.799906241123945,
                0.8253019362527373,
                0.8290137237438953,
                2.3954194597001446
            ]
        },
        {
            "positions": [
                0.8899103252911758,
                -2.633160950373418,
                1.8102958050045235,
                0.7430878549585528,
                0.8213960181512743,
                2.4319668240666905
            ]
        },
        {
            "positions": [
                0.7129226571049273,
                -2.55577858211649,
                1.820685368885102,
                0.6608737736643684,
                0.8137783125586533,
                2.4685141884332364
            ]
        },
        {
            "positions": [
                0.535934988918679,
                -2.478396213859561,
                1.8310749327656801,
                0.5786596923701839,
                0.8061606069660323,
                2.5050615527997824
            ]
        },
        {
            "positions": [
                0.3589473207324305,
                -2.401013845602633,
                1.8414644966462586,
                0.49644561107599944,
                0.7985429013734113,
                2.5416089171663283
            ]
        },
        {
            "positions": [
                0.18195965254618218,
                -2.323631477345705,
                1.8518540605268368,
                0.414231529781815,
                0.7909251957807903,
                2.5781562815328742
            ]
        },
        {
            "positions": [
                0.004971984359933623,
                -2.2462491090887764,
                1.8622436244074152,
                0.3320174484876305,
                0.7833074901881694,
                2.61470364589942
            ]
        },
        {
            "positions": [
                -0.17201568382631494,
                -2.1688667408318483,
                1.8726331882879936,
                0.24980336719344598,
                0.7756897845955484,
                2.651251010265966
            ]
        },
        {
            "positions": [
                -0.34900335201256305,
                -2.09148437257492,
                1.8830227521685718,
                0.1675892858992616,
                0.7680720790029274,
                2.6877983746325116
            ]
        },
        {
            "positions": [
                -0.5259910201988116,
                -2.0141020043179916,
                1.8934123160491503,
                0.08537520460507708,
                0.7604543734103064,
                2.724345738999058
            ]
        },
        {
            "positions": [
                -0.70297868838506,
                -1.9367196360610635,
                1.9038018799297287,
                0.0031611233108926884,
                0.7528366678176854,
                2.7608931033656035
            ]
        },
        {
            "positions": [
                -0.8799663565713085,
                -1.859337267804135,
                1.914191443810307,
                -0.07905295798329193,
                0.7452189622250645,
                2.79744046773215
            ]
        },
        {
            "positions": [
                -1.0569540247575566,
                -1.781954899547207,
                1.9245810076908854,
                -0.1612670392774762,
                0.7376012566324435,
                2.8339878320986953
            ]
        },
        {
            "positions": [
                -1.2339416929438052,
                -1.7045725312902786,
                1.9349705715714638,
                -0.24348112057166071,
                0.7299835510398225,
                2.8705351964652412
            ]
        },
        {
            "positions": [
                -1.4109293611300537,
                -1.6271901630333503,
                1.945360135452042,
                -0.3256952018658452,
                0.7223658454472015,
                2.907082560831787
            ]
        },
        {
            "positions": [
                -1.5879170293163019,
                -1.5498077947764222,
                1.9557496993326204,
                -0.4079092831600297,
                0.7147481398545805,
                2.943629925198333
            ]
        },
        {
            "positions": [
                -1.7649046975025509,
                -1.4724254265194936,
                1.9661392632131989,
                -0.4901233644542142,
                0.7071304342619595,
                2.980177289564879
            ]
        },
        {
            "positions": [
                -1.941892365688799,
                -1.3950430582625655,
                1.976528827093777,
                -0.5723374457483987,
                0.6995127286693386,
                3.016724653931425
            ]
        },
        {
            "positions": [
                -2.118880033875047,
                -1.3176606900056373,
                1.9869183909743555,
                -0.654551527042583,
                0.6918950230767176,
                3.053272018297971
            ]
        },
        {
            "positions": [
                -2.295867702061296,
                -1.2402783217487088,
                1.9973079548549337,
                -0.7367656083367677,
                0.6842773174840966,
                3.089819382664517
            ]
        },
        {
            "positions": [
                -2.472855370247544,
                -1.1628959534917807,
                2.007697518735512,
                -0.8189796896309521,
                0.6766596118914756,
                3.1263667470310628
            ]
        }
    ]
}