{
    "goal": {
        "global_pose": {
            "orientation": {
                "w": 0.7031023480610252,
                "x": -0.7110244013736278,
                "y": 0.0077485991402295624,
                "z": 0.005598929693374583
            },
            "position": {
                "x": -0.8841497679147869,
                "y": 0.44412534475326537,
                "z": 0.3711530566215515
            }
        },
        "name": "move_to_auspresseinheit_D"
    },
    "id": "LBKPIECE_move_to_auspresseinheit_D_19",
    "joint_names": [
        "shoulder_pan_joint",
        "shoulder_lift_joint",
        "elbow_joint",
        "wrist_1_joint",
        "wrist_2_joint",
        "wrist_3_joint"
    ],
    "metrics": {
        "cart_traj_len": 0.344955958754173,
        "distance_elbow_joint": 0.6726083464991219,
        "distance_shoulder_lift_joint": 0.14035752931742929,
        "distance_shoulder_pan_joint": 0.1332392531198405,
        "distance_wrist_1_joint": 0.6300016611077917,
        "distance_wrist_2_joint": 1.448134970328226,
        "distance_wrist_3_joint": 0.0864923376949096,
        "smoothness": 0.0,
        "time": 0.5023865630000001,
        "traj_len": 1.7637556798114977,
        "weighted_distance": 2.3155896451861144
    },
    "planner": "LBKPIECE",
    "start": {
        "state": {
            "elbow_joint": -1.8275484843655228,
            "shoulder_lift_joint": -2.1267897864000416,
            "shoulder_pan_joint": -0.035127520176001514,
            "wrist_1_joint": -2.3477863256791385,
            "wrist_2_joint": -1.605890476484521,
            "wrist_3_joint": -3.0880375317375353
        }
    },
    "waypoints": [
        {
            "positions": [
                -0.035127520176001514,
                -2.1267897864000416,
                -1.8275484843655228,
                -2.3477863256791385,
                -1.605890476484521,
                -3.0880375317375353
            ]
        },
        {
            "positions": [
                -0.05178242681598158,
                -2.1443344775647204,
                -1.7434724410531326,
                -2.4265365333176123,
                -1.4248736051934927,
                -3.0772259895256715
            ]
        },
        {
            "positions": [
                -0.06843733345596165,
                -2.161879168729399,
                -1.6593963977407422,
                -2.5052867409560866,
                -1.2438567339024644,
                -3.0664144473138077
            ]
        },
        {
            "positions": [
                -0.0850922400959417,
                -2.1794238598940776,
                -1.575320354428352,
                -2.5840369485945605,
                -1.0628398626114364,
                -3.055602905101944
            ]
        },
        {
            "positions": [
                -0.10174714673592176,
                -2.196968551058756,
                -1.491244311115962,
                -2.6627871562330343,
                -0.881822991320408,
                -3.0447913628900807
            ]
        },
        {
            "positions": [
                -0.11840205337590183,
                -2.214513242223435,
                -1.4071682678035715,
                -2.741537363871508,
                -0.7008061200293797,
                -3.033979820678217
            ]
        },
        {
            "positions": [
                -0.13505696001588188,
                -2.2320579333881136,
                -1.3230922244911814,
                -2.820287571509982,
                -0.5197892487383515,
                -3.023168278466353
            ]
        },
        {
            "positions": [
                -0.15171186665586195,
                -2.249602624552792,
                -1.239016181178791,
                -2.8990377791484563,
                -0.33877237744732325,
                -3.0123567362544894
            ]
        },
        {
            "positions": [
                -0.16836677329584201,
                -2.267147315717471,
                -1.1549401378664008,
                -2.97778798678693,
                -0.15775550615629502,
                -3.0015451940426257
            ]
        }
    ]
}