{
    "goal": {
        "global_pose": {
            "orientation": {
                "w": 0.005598929693374612,
                "x": 0.007748599140229565,
                "y": 0.7110244013736278,
                "z": -0.7031023480610252
            },
            "position": {
                "x": 0.1141497679147869,
                "y": -0.7141253447532654,
                "z": 0.3711530566215515
            }
        },
        "name": "move_to_auspresseinheit_B"
    },
    "id": "LBKPIECE_move_to_auspresseinheit_B_10",
    "joint_names": [
        "shoulder_pan_joint",
        "shoulder_lift_joint",
        "elbow_joint",
        "wrist_1_joint",
        "wrist_2_joint",
        "wrist_3_joint"
    ],
    "metrics": {
        "cart_traj_len": 0.5644890377235879,
        "distance_elbow_joint": 0.06503557349742106,
        "distance_shoulder_lift_joint": 0.2945708688032149,
        "distance_shoulder_pan_joint": 0.5784105787796012,
        "distance_wrist_1_joint": 0.3388415113012959,
        "distance_wrist_2_joint": 0.9857765549530377,
        "distance_wrist_3_joint": 0.004146560052491033,
        "smoothness": 0.0,
        "time": 0.48169399700000004,
        "traj_len": 1.5055834906729888,
        "weighted_distance": 1.8972856489591592
    },
    "planner": "LBKPIECE",
    "start": {
        "state": {
            "elbow_joint": 2.0193061681459312,
            "shoulder_lift_joint": -1.1220205130644991,
            "shoulder_pan_joint": -1.0952072088045026,
            "wrist_1_joint": -0.8559671810662515,
            "wrist_2_joint": 0.4759638712940361,
            "wrist_3_joint": 3.159081874192446
        }
    },
    "waypoints": [
        {
            "positions": [
                -1.0952072088045026,
                -1.1220205130644991,
                2.0193061681459312,
                -0.8559671810662515,
                0.4759638712940361,
                3.159081874192446
            ]
        },
        {
            "positions": [
                -1.191608971934436,
                -1.171115657865035,
                2.008466905896361,
                -0.7994935958493689,
                0.6402599637862091,
                3.158390780850364
            ]
        },
        {
            "positions": [
                -1.2880107350643697,
                -1.2202108026655707,
                1.9976276436467908,
                -0.7430200106324861,
                0.804556056278382,
                3.1576996875082823
            ]
        },
        {
            "positions": [
                -1.3844124981943033,
                -1.2693059474661066,
                1.9867883813972207,
                -0.6865464254156035,
                0.968852148770555,
                3.1570085941662005
            ]
        },
        {
            "positions": [
                -1.4808142613242368,
                -1.3184010922666425,
                1.9759491191476506,
                -0.6300728401987209,
                1.1331482412627278,
                3.1563175008241187
            ]
        },
        {
            "positions": [
                -1.5772160244541702,
                -1.3674962370671782,
                1.9651098568980803,
                -0.5735992549818382,
                1.2974443337549009,
                3.155626407482037
            ]
        },
        {
            "positions": [
                -1.6736177875841038,
                -1.416591381867714,
                1.9542705946485102,
                -0.5171256697649556,
                1.461740426247074,
                3.154935314139955
            ]
        }
    ]
}