{
    "goal": {
        "global_pose": {
            "orientation": {
                "w": -0.4816463035849501,
                "x": 0.5182115481033762,
                "y": 0.4908360881923453,
                "z": -0.5084816262002911
            },
            "position": {
                "x": -0.8240239810943604,
                "y": -0.300875300988555,
                "z": 0.16403168439865112
            }
        },
        "name": "move_to_storage_C"
    },
    "id": "LBKPIECE_move_to_storage_C_112",
    "joint_names": [
        "shoulder_pan_joint",
        "shoulder_lift_joint",
        "elbow_joint",
        "wrist_1_joint",
        "wrist_2_joint",
        "wrist_3_joint"
    ],
    "metrics": {
        "cart_traj_len": 0.5765775010291819,
        "distance_elbow_joint": 0.25761438540940507,
        "distance_shoulder_lift_joint": 0.18777806613174375,
        "distance_shoulder_pan_joint": 0.4963442819319872,
        "distance_wrist_1_joint": 0.08396936367801788,
        "distance_wrist_2_joint": 1.0599198170538855,
        "distance_wrist_3_joint": 0.059148546503176025,
        "smoothness": 2.5376526478085547e-16,
        "time": 0.5741475939999999,
        "traj_len": 1.4645048517189063,
        "weighted_distance": 1.8457954205291742
    },
    "planner": "LBKPIECE",
    "start": {
        "state": {
            "elbow_joint": 2.0108683149792914,
            "shoulder_lift_joint": -1.1634956873317392,
            "shoulder_pan_joint": -2.4736205022346,
            "wrist_1_joint": -0.8367026793690192,
            "wrist_2_joint": 0.6746043897045053,
            "wrist_3_joint": 3.133522094754363
        }
    },
    "waypoints": [
        {
            "positions": [
                -2.4736205022346,
                -1.1634956873317392,
                2.0108683149792914,
                -0.8367026793690192,
                0.6746043897045053,
                3.133522094754363
            ]
        },
        {
            "positions": [
                -2.5563445492232644,
                -1.1321993429764485,
                1.967932584077724,
                -0.8227077854226829,
                0.8512576925468196,
                3.1433801858382258
            ]
        },
        {
            "positions": [
                -2.639068596211929,
                -1.100902998621158,
                1.9249968531761563,
                -0.8087128914763466,
                1.0279109953891337,
                3.1532382769220884
            ]
        },
        {
            "positions": [
                -2.721792643200594,
                -1.0696066542658673,
                1.8820611222745889,
                -0.7947179975300103,
                1.204564298231448,
                3.1630963680059514
            ]
        },
        {
            "positions": [
                -2.804516690189258,
                -1.0383103099105768,
                1.8391253913730214,
                -0.7807231035836739,
                1.3812176010737622,
                3.172954459089814
            ]
        },
        {
            "positions": [
                -2.8872407371779225,
                -1.007013965555286,
                1.7961896604714538,
                -0.7667282096373377,
                1.5578709039160765,
                3.1828125501736766
            ]
        },
        {
            "positions": [
                -2.9699647841665873,
                -0.9757176211999955,
                1.7532539295698863,
                -0.7527333156910013,
                1.7345242067583908,
                3.192670641257539
            ]
        }
    ]
}