{
    "goal": {
        "global_pose": {
            "orientation": {
                "w": 0.5084816262002911,
                "x": -0.4908360881923452,
                "y": 0.5182115481033761,
                "z": -0.48164630358495003
            },
            "position": {
                "x": 0.5540239810943604,
                "y": -0.46912469901144505,
                "z": 0.16403168439865112
            }
        },
        "name": "move_to_storage_B"
    },
    "id": "LBKPIECE_move_to_storage_B_113",
    "joint_names": [
        "shoulder_pan_joint",
        "shoulder_lift_joint",
        "elbow_joint",
        "wrist_1_joint",
        "wrist_2_joint",
        "wrist_3_joint"
    ],
    "metrics": {
        "cart_traj_len": 0.8067820176789405,
        "distance_elbow_joint": 0.8364214958499689,
        "distance_shoulder_lift_joint": 0.49556505200488044,
        "distance_shoulder_pan_joint": 0.6247658956370958,
        "distance_wrist_1_joint": 3.007966644795962,
        "distance_wrist_2_joint": 2.702937018894006,
        "distance_wrist_3_joint": 3.1258015347074286,
        "smoothness": 0.13979367330233722,
        "time": 0.651263923,
        "traj_len": 3.2853398061523773,
        "weighted_distance": 4.770321202497182
    },
    "planner": "LBKPIECE",
    "start": {
        "state": {
            "elbow_joint": 1.6649325340416963,
            "shoulder_lift_joint": -0.6616387945129425,
            "shoulder_pan_joint": -0.9139837929255878,
            "wrist_1_joint": 2.1467571094334352,
            "wrist_2_joint": -2.234195976750228,
            "wrist_3_joint": 0.005470921511140723
        }
    },
    "waypoints": [
        {
            "positions": [
                -0.9139837929255878,
                -0.6616387945129425,
                1.6649325340416963,
                2.1467571094334352,
                -2.234195976750228,
                0.005470921511140723
            ]
        },
        {
            "positions": [
                -0.8031515725975682,
                -0.6524186213699406,
                1.5441926010603382,
                2.105232918502934,
                -2.1798476409705723,
                -0.0397541867688123
            ]
        },
        {
            "positions": [
                -0.6923193522695485,
                -0.6431984482269387,
                1.4234526680789803,
                2.0637087275724335,
                -2.1254993051909166,
                -0.08497929504876534
            ]
        },
        {
            "positions": [
                -0.7078232543842046,
                -0.6615493984468955,
                1.4463350384592593,
                1.9512118713057043,
                -2.0257208302934284,
                -0.20172357651597778
            ]
        },
        {
            "positions": [
                -0.7233271564988606,
                -0.6799003486668523,
                1.4692174088395382,
                1.838715015038975,
                -1.92594235539594,
                -0.3184678579831902
            ]
        },
        {
            "positions": [
                -0.7388310586135166,
                -0.6982512988868091,
                1.4920997792198172,
                1.7262181587722458,
                -1.8261638804984517,
                -0.4352121394504026
            ]
        },
        {
            "positions": [
                -0.7543349607281726,
                -0.716602249106766,
                1.5149821496000961,
                1.6137213025055166,
                -1.7263854056009635,
                -0.5519564209176151
            ]
        },
        {
            "positions": [
                -0.7698388628428287,
                -0.7349531993267227,
                1.537864519980375,
                1.5012244462387874,
                -1.6266069307034754,
                -0.6687007023848275
            ]
        },
        {
            "positions": [
                -0.7853427649574847,
                -0.7533041495466795,
                1.560746890360654,
                1.3887275899720581,
                -1.526828455805987,
                -0.7854449838520399
            ]
        },
        {
            "positions": [
                -0.8008466670721407,
                -0.7716550997666363,
                1.583629260740933,
                1.276230733705329,
                -1.4270499809084989,
                -0.9021892653192523
            ]
        },
        {
            "positions": [
                -0.8163505691867967,
                -0.7900060499865931,
                1.606511631121212,
                1.1637338774385995,
                -1.3272715060110105,
                -1.0189335467864646
            ]
        },
        {
            "positions": [
                -0.8318544713014527,
                -0.8083570002065499,
                1.629394001501491,
                1.0512370211718702,
                -1.2274930311135224,
                -1.135677828253677
            ]
        },
        {
            "positions": [
                -0.8473583734161088,
                -0.8267079504265067,
                1.65227637188177,
                0.938740164905141,
                -1.127714556216034,
                -1.2524221097208896
            ]
        },
        {
            "positions": [
                -0.8628622755307648,
                -0.8450589006464635,
                1.6751587422620489,
                0.8262433086384118,
                -1.0279360813185459,
                -1.369166391188102
            ]
        },
        {
            "positions": [
                -0.8783661776454208,
                -0.8634098508664203,
                1.6980411126423278,
                0.7137464523716825,
                -0.9281576064210575,
                -1.4859106726553144
            ]
        },
        {
            "positions": [
                -0.8938700797600768,
                -0.8817608010863771,
                1.7209234830226068,
                0.6012495961049533,
                -0.8283791315235693,
                -1.6026549541225268
            ]
        },
        {
            "positions": [
                -0.9093739818747328,
                -0.9001117513063339,
                1.7438058534028857,
                0.4887527398382241,
                -0.7286006566260812,
                -1.7193992355897392
            ]
        },
        {
            "positions": [
                -0.9248778839893889,
                -0.9184627015262906,
                1.7666882237831647,
                0.3762558835714951,
                -0.628822181728593,
                -1.8361435170569516
            ]
        },
        {
            "positions": [
                -0.9403817861040449,
                -0.9368136517462475,
                1.7895705941634437,
                0.2637590273047654,
                -0.5290437068311045,
                -1.9528877985241642
            ]
        },
        {
            "positions": [
                -0.9558856882187009,
                -0.9551646019662042,
                1.8124529645437226,
                0.1512621710380364,
                -0.4292652319336163,
                -2.0696320799913765
            ]
        },
        {
            "positions": [
                -0.9713895903333569,
                -0.973515552186161,
                1.8353353349240016,
                0.03876531477130696,
                -0.3294867570361282,
                -2.1863763614585885
            ]
        },
        {
            "positions": [
                -0.9868934924480129,
                -0.9918665024061177,
                1.8582177053042805,
                -0.07373154149542183,
                -0.22970828213864003,
                -2.3031206429258013
            ]
        },
        {
            "positions": [
                -1.002397394562669,
                -1.0102174526260748,
                1.8811000756845595,
                -0.1862283977621515,
                -0.12992980724115144,
                -2.419864924393014
            ]
        },
        {
            "positions": [
                -1.017901296677325,
                -1.0285684028460313,
                1.9039824460648385,
                -0.2987252540288807,
                -0.030151332343663295,
                -2.536609205860226
            ]
        },
        {
            "positions": [
                -1.033405198791981,
                -1.0469193530659882,
                1.9268648164451174,
                -0.41122211029560995,
                0.06962714255382485,
                -2.653353487327439
            ]
        },
        {
            "positions": [
                -1.048909100906637,
                -1.065270303285945,
                1.9497471868253964,
                -0.5237189665623392,
                0.169405617451313,
                -2.770097768794651
            ]
        },
        {
            "positions": [
                -1.064413003021293,
                -1.0836212535059018,
                1.9726295572056753,
                -0.6362158228290684,
                0.2691840923488016,
                -2.8868420502618637
            ]
        },
        {
            "positions": [
                -1.0799169051359492,
                -1.1019722037258586,
                1.9955119275859543,
                -0.7487126790957976,
                0.36896256724628973,
                -3.0035863317290756
            ]
        },
        {
            "positions": [
                -1.095420807250605,
                -1.1203231539458154,
                2.0183942979662333,
                -0.8612095353625269,
                0.4687410421437777,
                -3.120330613196288
            ]
        }
    ]
}