{
    "goal": {
        "global_pose": {
            "orientation": {
                "w": -0.00223480608172531,
                "x": 0.0024358444001904467,
                "y": 0.7094548369677653,
                "z": -0.704743149386269
            },
            "position": {
                "x": 0.6205249238014221,
                "y": -0.6371506643295288,
                "z": 0.19426114857196808
            }
        },
        "name": "move_to_magneteinheit_B"
    },
    "id": "LBKPIECE_move_to_magneteinheit_B_83",
    "joint_names": [
        "shoulder_pan_joint",
        "shoulder_lift_joint",
        "elbow_joint",
        "wrist_1_joint",
        "wrist_2_joint",
        "wrist_3_joint"
    ],
    "metrics": {
        "cart_traj_len": 1.4532131725244353,
        "distance_elbow_joint": 0.7283279513921772,
        "distance_shoulder_lift_joint": 1.2474077356998992,
        "distance_shoulder_pan_joint": 1.6216319180845271,
        "distance_wrist_1_joint": 2.610513832720439,
        "distance_wrist_2_joint": 2.9346347191173012,
        "distance_wrist_3_joint": 3.1382019625228486,
        "smoothness": 3.608224850774041e-16,
        "time": 0.657562019,
        "traj_len": 3.5043855552061043,
        "weighted_distance": 4.909406338491511
    },
    "planner": "LBKPIECE",
    "start": {
        "state": {
            "elbow_joint": 2.393587130804639,
            "shoulder_lift_joint": -1.9085141043513325,
            "shoulder_pan_joint": 0.7066247066698809,
            "wrist_1_joint": -0.4678290934590222,
            "wrist_2_joint": 0.7096259084215963,
            "wrist_3_joint": 3.147370379541726
        }
    },
    "waypoints": [
        {
            "positions": [
                0.7066247066698809,
                -1.9085141043513325,
                2.393587130804639,
                -0.4678290934590222,
                0.7096259084215963,
                3.147370379541726
            ]
        },
        {
            "positions": [
                0.6543139996348961,
                -1.8682751451352066,
                2.37009268075973,
                -0.38361896982287896,
                0.6149602723210382,
                3.0461380581700213
            ]
        },
        {
            "positions": [
                0.6020032925999114,
                -1.828036185919081,
                2.3465982307148208,
                -0.2994088461867358,
                0.5202946362204801,
                2.9449057367983165
            ]
        },
        {
            "positions": [
                0.5496925855649266,
                -1.7877972267029552,
                2.323103780669912,
                -0.21519872255059258,
                0.42562900011992205,
                2.8436734154266117
            ]
        },
        {
            "positions": [
                0.49738187852994187,
                -1.7475582674868293,
                2.299609330625003,
                -0.13098859891444936,
                0.330963364019364,
                2.742441094054907
            ]
        },
        {
            "positions": [
                0.4450711714949571,
                -1.7073193082707037,
                2.276114880580094,
                -0.0467784752783062,
                0.23629772791880588,
                2.641208772683202
            ]
        },
        {
            "positions": [
                0.3927604644599724,
                -1.6670803490545778,
                2.252620430535185,
                0.03743164835783702,
                0.14163209181824776,
                2.5399764513114973
            ]
        },
        {
            "positions": [
                0.3404497574249877,
                -1.626841389838452,
                2.2291259804902763,
                0.12164177199398024,
                0.04696645571768976,
                2.4387441299397925
            ]
        },
        {
            "positions": [
                0.2881390503900029,
                -1.5866024306223263,
                2.205631530445367,
                0.20585189563012346,
                -0.047699180382868356,
                2.3375118085680877
            ]
        },
        {
            "positions": [
                0.23582834335501812,
                -1.5463634714062005,
                2.1821370804004583,
                0.2900620192662667,
                -0.14236481648342647,
                2.236279487196383
            ]
        },
        {
            "positions": [
                0.18351763632003337,
                -1.5061245121900746,
                2.1586426303555495,
                0.3742721429024098,
                -0.23703045258398459,
                2.135047165824678
            ]
        },
        {
            "positions": [
                0.13120692928504862,
                -1.465885552973949,
                2.1351481803106402,
                0.4584822665385531,
                -0.3316960886845426,
                2.0338148444529733
            ]
        },
        {
            "positions": [
                0.07889622225006399,
                -1.425646593757823,
                2.1116537302657314,
                0.5426923901746963,
                -0.4263617247851008,
                1.9325825230812685
            ]
        },
        {
            "positions": [
                0.026585515215079125,
                -1.3854076345416972,
                2.0881592802208226,
                0.6269025138108395,
                -0.5210273608856588,
                1.8313502017095638
            ]
        },
        {
            "positions": [
                -0.025725191819905513,
                -1.3451686753255716,
                2.0646648301759134,
                0.7111126374469827,
                -0.6156929969862168,
                1.730117880337859
            ]
        },
        {
            "positions": [
                -0.07803589885489037,
                -1.3049297161094457,
                2.0411703801310046,
                0.7953227610831259,
                -0.710358633086775,
                1.6288855589661542
            ]
        },
        {
            "positions": [
                -0.130346605889875,
                -1.2646907568933201,
                2.017675930086096,
                0.8795328847192692,
                -0.805024269187333,
                1.5276532375944494
            ]
        },
        {
            "positions": [
                -0.18265731292485976,
                -1.2244517976771943,
                1.9941814800411868,
                0.9637430083554122,
                -0.8996899052878911,
                1.4264209162227448
            ]
        },
        {
            "positions": [
                -0.23496801995984462,
                -1.1842128384610684,
                1.9706870299962778,
                1.0479531319915556,
                -0.9943555413884493,
                1.3251885948510396
            ]
        },
        {
            "positions": [
                -0.28727872699482937,
                -1.1439738792449425,
                1.947192579951369,
                1.1321632556276988,
                -1.0890211774890073,
                1.223956273479335
            ]
        },
        {
            "positions": [
                -0.3395894340298141,
                -1.103734920028817,
                1.92369812990646,
                1.2163733792638418,
                -1.1836868135895655,
                1.1227239521076302
            ]
        },
        {
            "positions": [
                -0.39190014106479876,
                -1.0634959608126913,
                1.900203679861551,
                1.300583502899985,
                -1.2783524496901235,
                1.0214916307359254
            ]
        },
        {
            "positions": [
                -0.4442108480997836,
                -1.0232570015965652,
                1.8767092298166421,
                1.3847936265361285,
                -1.3730180857906815,
                0.9202593093642206
            ]
        },
        {
            "positions": [
                -0.49652155513476826,
                -0.9830180423804395,
                1.853214779771733,
                1.4690037501722717,
                -1.4676837218912395,
                0.8190269879925158
            ]
        },
        {
            "positions": [
                -0.5488322621697529,
                -0.9427790831643138,
                1.829720329726824,
                1.5532138738084147,
                -1.562349357991798,
                0.717794666620811
            ]
        },
        {
            "positions": [
                -0.6011429692047378,
                -0.9025401239481881,
                1.8062258796819153,
                1.637423997444558,
                -1.657014994092356,
                0.6165623452491062
            ]
        },
        {
            "positions": [
                -0.6534536762397226,
                -0.8623011647320622,
                1.7827314296370063,
                1.7216341210807011,
                -1.751680630192914,
                0.5153300238774015
            ]
        },
        {
            "positions": [
                -0.7057643832747073,
                -0.8220622055159366,
                1.7592369795920972,
                1.8058442447168443,
                -1.846346266293472,
                0.41409770250569666
            ]
        },
        {
            "positions": [
                -0.7580750903096919,
                -0.7818232462998107,
                1.7357425295471884,
                1.8900543683529876,
                -1.94101190239403,
                0.31286538113399187
            ]
        },
        {
            "positions": [
                -0.8103857973446768,
                -0.7415842870836851,
                1.7122480795022796,
                1.9742644919891308,
                -2.035677538494588,
                0.21163305976228708
            ]
        },
        {
            "positions": [
                -0.8626965043796616,
                -0.701345327867559,
                1.6887536294573704,
                2.058474615625274,
                -2.130343174595146,
                0.11040073839058229
            ]
        },
        {
            "positions": [
                -0.9150072114146462,
                -0.6611063686514334,
                1.6652591794124616,
                2.142684739261417,
                -2.2250088106957047,
                0.009168417018877368
            ]
        }
    ]
}