{
    "goal": {
        "global_pose": {
            "orientation": {
                "w": 0.5084816217422485,
                "x": -0.49083608388900757,
                "y": 0.5182115435600281,
                "z": -0.4816462993621826
            },
            "position": {
                "x": 0.5540239810943604,
                "y": 0.030875300988554955,
                "z": 0.16403168439865112
            }
        },
        "name": "move_to_storage_A"
    },
    "id": "LBKPIECE_move_to_storage_A_81",
    "joint_names": [
        "shoulder_pan_joint",
        "shoulder_lift_joint",
        "elbow_joint",
        "wrist_1_joint",
        "wrist_2_joint",
        "wrist_3_joint"
    ],
    "metrics": {
        "cart_traj_len": 0.35288994219040165,
        "distance_elbow_joint": 0.45035451543790894,
        "distance_shoulder_lift_joint": 0.23533540138821296,
        "distance_shoulder_pan_joint": 0.46154933498775064,
        "distance_wrist_1_joint": 0.23967824275983718,
        "distance_wrist_2_joint": 1.0988897081858853,
        "distance_wrist_3_joint": 0.08923089156896236,
        "smoothness": 1.1102230263833737e-15,
        "time": 0.254883839,
        "traj_len": 1.6046925232980171,
        "weighted_distance": 2.0228860146859993
    },
    "planner": "LBKPIECE",
    "start": {
        "state": {
            "elbow_joint": 1.971548880431181,
            "shoulder_lift_joint": -1.1394869514688781,
            "shoulder_pan_joint": 0.12281150262730567,
            "wrist_1_joint": -0.7804693444481463,
            "wrist_2_joint": 0.12958644648617612,
            "wrist_3_joint": 3.0906942077768043
        }
    },
    "waypoints": [
        {
            "positions": [
                0.12281150262730567,
                -1.1394869514688781,
                1.971548880431181,
                -0.7804693444481463,
                0.12958644648617612,
                3.0906942077768043
            ]
        },
        {
            "positions": [
                0.0568758833433413,
                -1.1731062945243371,
                2.0358852397794536,
                -0.8147090934138373,
                0.28657069051273115,
                3.1034414780009416
            ]
        },
        {
            "positions": [
                -0.009059735940623065,
                -1.2067256375797961,
                2.1002215991277264,
                -0.8489488423795284,
                0.4435549345392862,
                3.1161887482250794
            ]
        },
        {
            "positions": [
                -0.07499535522458745,
                -1.2403449806352551,
                2.164557958475999,
                -0.8831885913452193,
                0.6005391785658412,
                3.1289360184492168
            ]
        },
        {
            "positions": [
                -0.1409309745085518,
                -1.273964323690714,
                2.2288943178242717,
                -0.9174283403109104,
                0.7575234225923962,
                3.141683288673354
            ]
        },
        {
            "positions": [
                -0.2068665937925162,
                -1.307583666746173,
                2.2932306771725446,
                -0.9516680892766014,
                0.9145076666189513,
                3.1544305588974915
            ]
        },
        {
            "positions": [
                -0.27280221307648056,
                -1.341203009801632,
                2.357567036520817,
                -0.9859078382422924,
                1.0714919106455063,
                3.1671778291216293
            ]
        },
        {
            "positions": [
                -0.33873783236044497,
                -1.374822352857091,
                2.42190339586909,
                -1.0201475872079835,
                1.2284761546720613,
                3.1799250993457666
            ]
        }
    ]
}