{
    "goal": {
        "global_pose": {
            "orientation": {
                "w": -0.4816463035849501,
                "x": 0.5182115481033762,
                "y": 0.4908360881923453,
                "z": -0.5084816262002911
            },
            "position": {
                "x": -0.8240239810943604,
                "y": -0.300875300988555,
                "z": 0.16403168439865112
            }
        },
        "name": "move_to_storage_C"
    },
    "id": "LBKPIECE_move_to_storage_C_142",
    "joint_names": [
        "shoulder_pan_joint",
        "shoulder_lift_joint",
        "elbow_joint",
        "wrist_1_joint",
        "wrist_2_joint",
        "wrist_3_joint"
    ],
    "metrics": {
        "cart_traj_len": 0.5767776736401278,
        "distance_elbow_joint": 0.26101757118053537,
        "distance_shoulder_lift_joint": 0.18846574439678587,
        "distance_shoulder_pan_joint": 0.4945542299971972,
        "distance_wrist_1_joint": 0.09024696769851903,
        "distance_wrist_2_joint": 1.0701803421230427,
        "distance_wrist_3_joint": 0.05899071895545349,
        "smoothness": 0.0,
        "time": 0.544469374,
        "traj_len": 1.4708689861274298,
        "weighted_distance": 1.8552262185738972
    },
    "planner": "LBKPIECE",
    "start": {
        "state": {
            "elbow_joint": 2.0108683149792914,
            "shoulder_lift_joint": -1.1634956873317392,
            "shoulder_pan_joint": -2.4736205022346,
            "wrist_1_joint": -0.8367026793690192,
            "wrist_2_joint": 0.6746043897045053,
            "wrist_3_joint": 3.133522094754363
        }
    },
    "waypoints": [
        {
            "positions": [
                -2.4736205022346,
                -1.1634956873317392,
                2.0108683149792914,
                -0.8367026793690192,
                0.6746043897045053,
                3.133522094754363
            ]
        },
        {
            "positions": [
                -2.556046207234133,
                -1.132084729932275,
                1.9673653864492022,
                -0.8216615180859327,
                0.8529677800583457,
                3.143353881246939
            ]
        },
        {
            "positions": [
                -2.638471912233666,
                -1.1006737725328106,
                1.923862457919113,
                -0.8066203568028462,
                1.0313311704121861,
                3.1531856677395145
            ]
        },
        {
            "positions": [
                -2.7208976172331987,
                -1.0692628151333463,
                1.8803595293890236,
                -0.7915791955197597,
                1.2096945607660268,
                3.16301745423209
            ]
        },
        {
            "positions": [
                -2.8033233222327314,
                -1.037851857733882,
                1.8368566008589344,
                -0.7765380342366732,
                1.3880579511198672,
                3.1728492407246653
            ]
        },
        {
            "positions": [
                -2.8857490272322646,
                -1.0064409003344177,
                1.7933536723288452,
                -0.7614968729535867,
                1.5664213414737076,
                3.182681027217241
            ]
        },
        {
            "positions": [
                -2.9681747322317973,
                -0.9750299429349534,
                1.749850743798756,
                -0.7464557116705002,
                1.744784731827548,
                3.1925128137098167
            ]
        }
    ]
}