{
    "goal": {
        "global_pose": {
            "orientation": {
                "w": 0.7031023502349854,
                "x": -0.7110244035720825,
                "y": 0.007748599164187908,
                "z": 0.005598929710686207
            },
            "position": {
                "x": 0.11585023208521307,
                "y": 0.44412534475326537,
                "z": 0.3711530566215515
            }
        },
        "name": "move_to_auspresseinheit_A"
    },
    "id": "LBKPIECE_move_to_auspresseinheit_A_129",
    "joint_names": [
        "shoulder_pan_joint",
        "shoulder_lift_joint",
        "elbow_joint",
        "wrist_1_joint",
        "wrist_2_joint",
        "wrist_3_joint"
    ],
    "metrics": {
        "cart_traj_len": 2.376947962025096,
        "distance_elbow_joint": 3.77513969998357,
        "distance_shoulder_lift_joint": 0.6403999932716093,
        "distance_shoulder_pan_joint": 1.043497305552871,
        "distance_wrist_1_joint": 1.0172721907261402,
        "distance_wrist_2_joint": 1.4453597931086941,
        "distance_wrist_3_joint": 3.132412557563791,
        "smoothness": 0.8509833935820247,
        "time": 0.251051187,
        "traj_len": 3.324767892681634,
        "weighted_distance": 4.44764416732826
    },
    "planner": "LBKPIECE",
    "start": {
        "state": {
            "elbow_joint": 2.4225746994637096,
            "shoulder_lift_joint": -1.373653595662188,
            "shoulder_pan_joint": -0.3378633848294565,
            "wrist_1_joint": -1.0288595594406726,
            "wrist_2_joint": 1.2330228066703421,
            "wrist_3_joint": 3.189163495502006
        }
    },
    "waypoints": [
        {
            "positions": [
                -0.3378633848294565,
                -1.373653595662188,
                2.4225746994637096,
                -1.0288595594406726,
                1.2330228066703421,
                3.189163495502006
            ]
        },
        {
            "positions": [
                -0.33403268973119316,
                -1.377110721354239,
                2.276109129827282,
                -0.9884324645794017,
                1.1568821555939053,
                3.0666266331333816
            ]
        },
        {
            "positions": [
                -0.3302019946329299,
                -1.3805678470462903,
                2.1296435601908548,
                -0.9480053697181308,
                1.0807415045174684,
                2.9440897707647573
            ]
        },
        {
            "positions": [
                -0.32637129953466654,
                -1.3840249727383414,
                1.9831779905544271,
                -0.9075782748568597,
                1.0046008534410316,
                2.821552908396133
            ]
        },
        {
            "positions": [
                -0.3225406044364032,
                -1.3874820984303926,
                1.8367124209179997,
                -0.8671511799955888,
                0.9284602023645948,
                2.6990160460275088
            ]
        },
        {
            "positions": [
                -0.3187099093381399,
                -1.3909392241224436,
                1.690246851281572,
                -0.8267240851343178,
                0.8523195512881581,
                2.5764791836588845
            ]
        },
        {
            "positions": [
                -0.3148792142398766,
                -1.3943963498144947,
                1.5437812816451446,
                -0.7862969902730469,
                0.7761789002117212,
                2.4539423212902602
            ]
        },
        {
            "positions": [
                -0.31104851914161324,
                -1.397853475506546,
                1.3973157120087174,
                -0.745869895411776,
                0.7000382491352843,
                2.3314054589216364
            ]
        },
        {
            "positions": [
                -0.3072178240433499,
                -1.401310601198597,
                1.2508501423722898,
                -0.7054428005505049,
                0.6238975980588475,
                2.208868596553012
            ]
        },
        {
            "positions": [
                -0.3033871289450866,
                -1.404767726890648,
                1.1043845727358623,
                -0.6650157056892341,
                0.5477569469824107,
                2.086331734184388
            ]
        },
        {
            "positions": [
                -0.2995564338468233,
                -1.4082248525826992,
                0.9579190030994347,
                -0.624588610827963,
                0.47161629590597387,
                1.9637948718157634
            ]
        },
        {
            "positions": [
                -0.29572573874855995,
                -1.4116819782747503,
                0.8114534334630075,
                -0.5841615159666922,
                0.395475644829537,
                1.8412580094471394
            ]
        },
        {
            "positions": [
                -0.29189504365029667,
                -1.4151391039668015,
                0.6649878638265798,
                -0.5437344211054211,
                0.31933499375310015,
                1.7187211470785149
            ]
        },
        {
            "positions": [
                -0.28806434855203333,
                -1.4185962296588526,
                0.5185222941901524,
                -0.5033073262441502,
                0.2431943426766634,
                1.5961842847098908
            ]
        },
        {
            "positions": [
                -0.223639170232423,
                -1.4671515356176423,
                0.6682596940064517,
                -0.47880190832138947,
                0.24397826245423926,
                1.6960423525133814
            ]
        },
        {
            "positions": [
                -0.15921399191281266,
                -1.5157068415764319,
                0.817997093822751,
                -0.45429649039862874,
                0.24476218223181515,
                1.7959004203168718
            ]
        },
        {
            "positions": [
                -0.09478881359320235,
                -1.5642621475352216,
                0.9677344936390502,
                -0.429791072475868,
                0.245546102009391,
                1.8957584881203624
            ]
        },
        {
            "positions": [
                -0.030363635273591982,
                -1.6128174534940114,
                1.1174718934553496,
                -0.4052856545531073,
                0.24633002178696686,
                1.9956165559238528
            ]
        },
        {
            "positions": [
                0.03406154304601833,
                -1.6613727594528012,
                1.2672092932716488,
                -0.38078023663034655,
                0.24711394156454275,
                2.0954746237273434
            ]
        },
        {
            "positions": [
                0.09848672136562864,
                -1.7099280654115907,
                1.4169466930879482,
                -0.3562748187075858,
                0.2478978613421186,
                2.195332691530834
            ]
        },
        {
            "positions": [
                0.162911899685239,
                -1.7584833713703805,
                1.5666840929042474,
                -0.3317694007848251,
                0.2486817811196945,
                2.2951907593343246
            ]
        },
        {
            "positions": [
                0.22733707800484937,
                -1.8070386773291702,
                1.7164214927205468,
                -0.3072639828620643,
                0.24946570089727035,
                2.395048827137815
            ]
        },
        {
            "positions": [
                0.29176225632445973,
                -1.85559398328796,
                1.866158892536846,
                -0.28275856493930357,
                0.25024962067484624,
                2.4949068949413054
            ]
        },
        {
            "positions": [
                0.35618743464407,
                -1.9041492892467495,
                2.015896292353145,
                -0.25825314701654284,
                0.2510335404524221,
                2.594764962744796
            ]
        },
        {
            "positions": [
                0.42061261296368035,
                -1.9527045952055393,
                2.1656336921694446,
                -0.2337477290937821,
                0.25181746022999796,
                2.6946230305482866
            ]
        },
        {
            "positions": [
                0.4629459030421892,
                -1.9557877654711693,
                2.235003352088812,
                -0.2702672222704267,
                0.3092973581645459,
                2.7801595510718506
            ]
        },
        {
            "positions": [
                0.505279193120698,
                -1.9588709357367993,
                2.3043730120081793,
                -0.3067867154470713,
                0.36677725609909384,
                2.8656960715954143
            ]
        },
        {
            "positions": [
                0.5720641023216034,
                -1.9404767180044666,
                2.332785204305508,
                -0.3564938401223914,
                0.4774267279966223,
                2.9556699248907985
            ]
        },
        {
            "positions": [
                0.638849011522509,
                -1.9220825002721338,
                2.3611973966028366,
                -0.4062009647977115,
                0.5880761998941507,
                3.0456437781861827
            ]
        },
        {
            "positions": [
                0.7056339207234144,
                -1.9036882825398012,
                2.389609588900165,
                -0.4559080894730316,
                0.6987256717916792,
                3.135617631481567
            ]
        }
    ]
}