{
    "goal": {
        "global_pose": {
            "orientation": {
                "w": 0.5084816262002911,
                "x": -0.4908360881923452,
                "y": 0.5182115481033761,
                "z": -0.48164630358495003
            },
            "position": {
                "x": 0.5540239810943604,
                "y": -0.46912469901144505,
                "z": 0.16403168439865112
            }
        },
        "name": "move_to_storage_B"
    },
    "id": "LBKPIECE_move_to_storage_B_4",
    "joint_names": [
        "shoulder_pan_joint",
        "shoulder_lift_joint",
        "elbow_joint",
        "wrist_1_joint",
        "wrist_2_joint",
        "wrist_3_joint"
    ],
    "metrics": {
        "cart_traj_len": 2.368130099463805,
        "distance_elbow_joint": 1.7479095772029078,
        "distance_shoulder_lift_joint": 0.4575187076970637,
        "distance_shoulder_pan_joint": 2.162480766543297,
        "distance_wrist_1_joint": 2.9817265409497415,
        "distance_wrist_2_joint": 2.704081942547983,
        "distance_wrist_3_joint": 3.139871739579357,
        "smoothness": 0.22777036167995143,
        "time": 0.696909686,
        "traj_len": 3.632298070715061,
        "weighted_distance": 5.015888878073036
    },
    "planner": "LBKPIECE",
    "start": {
        "state": {
            "elbow_joint": 1.6649325340416963,
            "shoulder_lift_joint": -0.6616387945129425,
            "shoulder_pan_joint": -0.9139837929255878,
            "wrist_1_joint": 2.1467571094334352,
            "wrist_2_joint": -2.234195976750228,
            "wrist_3_joint": 0.005470921511140723
        }
    },
    "waypoints": [
        {
            "positions": [
                -0.9139837929255878,
                -0.6616387945129425,
                1.6649325340416963,
                2.1467571094334352,
                -2.234195976750228,
                0.005470921511140723
            ]
        },
        {
            "positions": [
                -0.9043956976737958,
                -0.6675372986011695,
                1.6708911660208412,
                2.143034100974542,
                -2.21212938746116,
                -0.01704703745221079
            ]
        },
        {
            "positions": [
                -0.8598342565937642,
                -0.6860395170975011,
                1.6390847399256745,
                2.016090652211678,
                -2.1115969895283806,
                -0.07298538256972512
            ]
        },
        {
            "positions": [
                -0.8152728155137327,
                -0.7045417355938327,
                1.6072783138305076,
                1.8891472034488137,
                -2.0110645915956016,
                -0.12892372768723945
            ]
        },
        {
            "positions": [
                -0.7707113744337011,
                -0.7230439540901644,
                1.5754718877353409,
                1.7622037546859497,
                -1.9105321936628221,
                -0.18486207280475375
            ]
        },
        {
            "positions": [
                -0.7261499333536694,
                -0.741546172586496,
                1.5436654616401742,
                1.6352603059230852,
                -1.8099997957300427,
                -0.24080041792226808
            ]
        },
        {
            "positions": [
                -0.6815884922736379,
                -0.7600483910828276,
                1.5118590355450074,
                1.5083168571602212,
                -1.7094673977972634,
                -0.2967387630397824
            ]
        },
        {
            "positions": [
                -0.6370270511936063,
                -0.7785506095791592,
                1.4800526094498405,
                1.381373408397357,
                -1.6089349998644842,
                -0.35267710815729675
            ]
        },
        {
            "positions": [
                -0.5924656101135747,
                -0.7970528280754909,
                1.4482461833546738,
                1.2544299596344928,
                -1.5084026019317047,
                -0.4086154532748111
            ]
        },
        {
            "positions": [
                -0.5479041690335431,
                -0.8155550465718225,
                1.416439757259507,
                1.1274865108716285,
                -1.4078702039989253,
                -0.4645537983923254
            ]
        },
        {
            "positions": [
                -0.5033427279535114,
                -0.8340572650681541,
                1.3846333311643404,
                1.0005430621087643,
                -1.3073378060661458,
                -0.5204921435098397
            ]
        },
        {
            "positions": [
                -0.45878128687347997,
                -0.8525594835644857,
                1.3528269050691735,
                0.8735996133459001,
                -1.2068054081333668,
                -0.576430488627354
            ]
        },
        {
            "positions": [
                -0.41421984579344834,
                -0.8710617020608173,
                1.3210204789740068,
                0.7466561645830359,
                -1.1062730102005873,
                -0.6323688337448684
            ]
        },
        {
            "positions": [
                -0.3696584047134168,
                -0.8895639205571491,
                1.28921405287884,
                0.6197127158201718,
                -1.005740612267808,
                -0.6883071788623827
            ]
        },
        {
            "positions": [
                -0.32509696363338514,
                -0.9080661390534807,
                1.2574076267836731,
                0.4927692670573074,
                -0.9052082143350286,
                -0.7442455239798971
            ]
        },
        {
            "positions": [
                -0.28053552255335357,
                -0.9265683575498123,
                1.2256012006885064,
                0.36582581829444316,
                -0.8046758164022494,
                -0.8001838690974113
            ]
        },
        {
            "positions": [
                -0.235974081473322,
                -0.9450705760461439,
                1.1937947745933397,
                0.23888236953157915,
                -0.7041434184694702,
                -0.8561222142149256
            ]
        },
        {
            "positions": [
                -0.19141264039329042,
                -0.9635727945424755,
                1.161988348498173,
                0.11193892076871492,
                -0.6036110205366907,
                -0.91206055933244
            ]
        },
        {
            "positions": [
                -0.14685119931325885,
                -0.9820750130388072,
                1.1301819224030063,
                -0.01500452799414953,
                -0.5030786226039112,
                -0.9679989044499544
            ]
        },
        {
            "positions": [
                -0.10228975823322717,
                -1.0005772315351389,
                1.0983754963078394,
                -0.14194797675701354,
                -0.40254622467113177,
                -1.0239372495674686
            ]
        },
        {
            "positions": [
                -0.057728317153195596,
                -1.0190794500314704,
                1.0665690702126727,
                -0.268891425519878,
                -0.30201382673835253,
                -1.079875594684983
            ]
        },
        {
            "positions": [
                -0.013166876073164135,
                -1.037581668527802,
                1.0347626441175057,
                -0.395834874282742,
                -0.20148142880557351,
                -1.1358139398024971
            ]
        },
        {
            "positions": [
                0.03139456500686755,
                -1.0560838870241338,
                1.002956218022339,
                -0.5227783230456065,
                -0.10094903087279405,
                -1.1917522849200115
            ]
        },
        {
            "positions": [
                0.07595600608689909,
                -1.0745861055204653,
                0.9711497919271723,
                -0.6497217718084703,
                -0.0004166329400144553,
                -1.247690630037526
            ]
        },
        {
            "positions": [
                -0.014239452953932405,
                -1.0780146744965837,
                1.0513197589371797,
                -0.6639715917859962,
                0.035760490039813866,
                -1.3928221829629637
            ]
        },
        {
            "positions": [
                -0.1044349119947639,
                -1.0814432434727024,
                1.1314897259471868,
                -0.678221411763522,
                0.07193761301964219,
                -1.5379537358884015
            ]
        },
        {
            "positions": [
                -0.1946303710355954,
                -1.0848718124488208,
                1.2116596929571941,
                -0.692471231741048,
                0.10811473599947051,
                -1.6830852888138392
            ]
        },
        {
            "positions": [
                -0.2848258300764269,
                -1.0883003814249395,
                1.2918296599672012,
                -0.7067210517185738,
                0.14429185897929883,
                -1.8282168417392768
            ]
        },
        {
            "positions": [
                -0.3750212891172584,
                -1.0917289504010579,
                1.3719996269772086,
                -0.7209708716960996,
                0.18046898195912714,
                -1.9733483946647148
            ]
        },
        {
            "positions": [
                -0.4652167481580899,
                -1.0951575193771765,
                1.4521695939872157,
                -0.7352206916736255,
                0.21664610493895547,
                -2.1184799475901523
            ]
        },
        {
            "positions": [
                -0.5554122071989213,
                -1.098586088353295,
                1.5323395609972228,
                -0.7494705116511513,
                0.25282322791878376,
                -2.26361150051559
            ]
        },
        {
            "positions": [
                -0.6456076662397529,
                -1.1020146573294136,
                1.6125095280072301,
                -0.7637203316286771,
                0.2890003508986121,
                -2.408743053441028
            ]
        },
        {
            "positions": [
                -0.7358031252805843,
                -1.105443226305532,
                1.6926794950172375,
                -0.777970151606203,
                0.3251774738784404,
                -2.5538746063664655
            ]
        },
        {
            "positions": [
                -0.8259985843214158,
                -1.1088717952816507,
                1.7728494620272448,
                -0.7922199715837288,
                0.36135459685826876,
                -2.6990061592919035
            ]
        },
        {
            "positions": [
                -0.9161940433622473,
                -1.1123003642577691,
                1.853019429037252,
                -0.8064697915612548,
                0.3975317198380971,
                -2.844137712217341
            ]
        },
        {
            "positions": [
                -1.006389502403079,
                -1.1157289332338878,
                1.933189396047259,
                -0.8207196115387806,
                0.43370884281792543,
                -2.989269265142779
            ]
        },
        {
            "positions": [
                -1.0965849614439103,
                -1.1191575022100062,
                2.0133593630572664,
                -0.8349694315163064,
                0.4698859657977537,
                -3.1344008180682166
            ]
        }
    ]
}