{
    "goal": {
        "global_pose": {
            "orientation": {
                "w": 0.7031023480610252,
                "x": -0.7110244013736278,
                "y": 0.0077485991402295624,
                "z": 0.005598929693374583
            },
            "position": {
                "x": -0.8841497679147869,
                "y": 0.44412534475326537,
                "z": 0.3711530566215515
            }
        },
        "name": "move_to_auspresseinheit_D"
    },
    "id": "LBKPIECE_move_to_auspresseinheit_D_150",
    "joint_names": [
        "shoulder_pan_joint",
        "shoulder_lift_joint",
        "elbow_joint",
        "wrist_1_joint",
        "wrist_2_joint",
        "wrist_3_joint"
    ],
    "metrics": {
        "cart_traj_len": 0.34541506432097796,
        "distance_elbow_joint": 0.67285040092752,
        "distance_shoulder_lift_joint": 0.14044172627897478,
        "distance_shoulder_pan_joint": 0.1343756250838345,
        "distance_wrist_1_joint": 0.6368208394808335,
        "distance_wrist_2_joint": 1.4363539150217879,
        "distance_wrist_3_joint": 0.09224321885514852,
        "smoothness": 4.934324565125532e-16,
        "time": 0.48106030499999997,
        "traj_len": 1.7643938691936387,
        "weighted_distance": 2.317487199071662
    },
    "planner": "LBKPIECE",
    "start": {
        "state": {
            "elbow_joint": -1.8275484843655228,
            "shoulder_lift_joint": -2.1267897864000416,
            "shoulder_pan_joint": -0.035127520176001514,
            "wrist_1_joint": -2.3477863256791385,
            "wrist_2_joint": -1.605890476484521,
            "wrist_3_joint": -3.0880375317375353
        }
    },
    "waypoints": [
        {
            "positions": [
                -0.035127520176001514,
                -2.1267897864000416,
                -1.8275484843655228,
                -2.3477863256791385,
                -1.605890476484521,
                -3.0880375317375353
            ]
        },
        {
            "positions": [
                -0.051924473311480826,
                -2.1443450021849135,
                -1.7434421842495826,
                -2.4273889306142427,
                -1.4263462371067974,
                -3.0765071293806416
            ]
        },
        {
            "positions": [
                -0.06872142644696014,
                -2.1619002179697855,
                -1.6593358841336427,
                -2.506991535549347,
                -1.246801997729074,
                -3.064976727023748
            ]
        },
        {
            "positions": [
                -0.08551837958243945,
                -2.179455433754657,
                -1.5752295840177029,
                -2.586594140484451,
                -1.0672577583513505,
                -3.0534463246668544
            ]
        },
        {
            "positions": [
                -0.10231533271791876,
                -2.197010649539529,
                -1.4911232839017627,
                -2.666196745419555,
                -0.887713518973627,
                -3.041915922309961
            ]
        },
        {
            "positions": [
                -0.11911228585339807,
                -2.214565865324401,
                -1.4070169837858226,
                -2.7457993503546594,
                -0.7081692795959036,
                -3.0303855199530676
            ]
        },
        {
            "positions": [
                -0.13590923898887738,
                -2.2321210811092724,
                -1.3229106836698827,
                -2.8254019552897636,
                -0.52862504021818,
                -3.018855117596174
            ]
        },
        {
            "positions": [
                -0.1527061921243567,
                -2.2496762968941444,
                -1.2388043835539428,
                -2.9050045602248677,
                -0.3490808008404567,
                -3.0073247152392804
            ]
        },
        {
            "positions": [
                -0.169503145259836,
                -2.2672315126790163,
                -1.1546980834380027,
                -2.984607165159972,
                -0.16953656146273316,
                -2.9957943128823867
            ]
        }
    ]
}