{
    "goal": {
        "global_pose": {
            "orientation": {
                "w": 0.005598929693374612,
                "x": 0.007748599140229565,
                "y": 0.7110244013736278,
                "z": -0.7031023480610252
            },
            "position": {
                "x": 0.1141497679147869,
                "y": -0.7141253447532654,
                "z": 0.3711530566215515
            }
        },
        "name": "move_to_auspresseinheit_B"
    },
    "id": "LBKPIECE_move_to_auspresseinheit_B_80",
    "joint_names": [
        "shoulder_pan_joint",
        "shoulder_lift_joint",
        "elbow_joint",
        "wrist_1_joint",
        "wrist_2_joint",
        "wrist_3_joint"
    ],
    "metrics": {
        "cart_traj_len": 0.5650597439496997,
        "distance_elbow_joint": 0.06619124324558956,
        "distance_shoulder_lift_joint": 0.2929606750815641,
        "distance_shoulder_pan_joint": 0.5785053300058842,
        "distance_wrist_1_joint": 0.3380099849354302,
        "distance_wrist_2_joint": 0.9871199857411335,
        "distance_wrist_3_joint": 0.008041053918623309,
        "smoothness": 0.0,
        "time": 0.409328985,
        "traj_len": 1.50692676428824,
        "weighted_distance": 1.9005368587433487
    },
    "planner": "LBKPIECE",
    "start": {
        "state": {
            "elbow_joint": 2.0193061681459312,
            "shoulder_lift_joint": -1.1220205130644991,
            "shoulder_pan_joint": -1.0952072088045026,
            "wrist_1_joint": -0.8559671810662515,
            "wrist_2_joint": 0.4759638712940361,
            "wrist_3_joint": 3.159081874192446
        }
    },
    "waypoints": [
        {
            "positions": [
                -1.0952072088045026,
                -1.1220205130644991,
                2.0193061681459312,
                -0.8559671810662515,
                0.4759638712940361,
                3.159081874192446
            ]
        },
        {
            "positions": [
                -1.1916247638054833,
                -1.1708472922447597,
                2.0082742942716663,
                -0.799632183577013,
                0.6404838689175584,
                3.157741698539342
            ]
        },
        {
            "positions": [
                -1.288042318806464,
                -1.2196740714250205,
                1.9972424203974013,
                -0.7432971860877747,
                0.8050038665410806,
                3.156401522886238
            ]
        },
        {
            "positions": [
                -1.3844598738074447,
                -1.2685008506052813,
                1.9862105465231363,
                -0.6869621885985364,
                0.9695238641646029,
                3.1550613472331346
            ]
        },
        {
            "positions": [
                -1.4808774288084254,
                -1.3173276297855419,
                1.9751786726488716,
                -0.630627191109298,
                1.134043861788125,
                3.1537211715800306
            ]
        },
        {
            "positions": [
                -1.5772949838094061,
                -1.3661544089658024,
                1.9641467987746066,
                -0.5742921936200596,
                1.2985638594116473,
                3.1523809959269267
            ]
        },
        {
            "positions": [
                -1.6737125388103868,
                -1.4149811881460632,
                1.9531149249003417,
                -0.5179571961308213,
                1.4630838570351696,
                3.1510408202738227
            ]
        }
    ]
}