{
    "goal": {
        "global_pose": {
            "orientation": {
                "w": -0.00223480608172531,
                "x": 0.0024358444001904467,
                "y": 0.7094548369677653,
                "z": -0.704743149386269
            },
            "position": {
                "x": 0.6205249238014221,
                "y": -0.6371506643295288,
                "z": 0.19426114857196808
            }
        },
        "name": "move_to_magneteinheit_B"
    },
    "id": "LBKPIECE_move_to_magneteinheit_B_34",
    "joint_names": [
        "shoulder_pan_joint",
        "shoulder_lift_joint",
        "elbow_joint",
        "wrist_1_joint",
        "wrist_2_joint",
        "wrist_3_joint"
    ],
    "metrics": {
        "cart_traj_len": 3.9883131471824895,
        "distance_elbow_joint": 6.211371475834328,
        "distance_shoulder_lift_joint": 1.962884812775407,
        "distance_shoulder_pan_joint": 4.037002605202492,
        "distance_wrist_1_joint": 8.109548916478422,
        "distance_wrist_2_joint": 1.5511018671169368,
        "distance_wrist_3_joint": 2.939367471245482,
        "smoothness": 0.5701341898758576,
        "time": 0.498189785,
        "traj_len": 4.981091963480804,
        "weighted_distance": 6.352217162120592
    },
    "planner": "LBKPIECE",
    "start": {
        "state": {
            "elbow_joint": 2.393587130804639,
            "shoulder_lift_joint": -1.9085141043513325,
            "shoulder_pan_joint": 0.7066247066698809,
            "wrist_1_joint": -0.4678290934590222,
            "wrist_2_joint": 0.7096259084215963,
            "wrist_3_joint": 3.147370379541726
        }
    },
    "waypoints": [
        {
            "positions": [
                0.7066247066698809,
                -1.9085141043513325,
                2.393587130804639,
                -0.4678290934590222,
                0.7096259084215963,
                3.147370379541726
            ]
        },
        {
            "positions": [
                0.6097148003365924,
                -1.9914561511294155,
                2.425708543364757,
                -0.5067661493353933,
                0.7402394930721854,
                3.0650600526352636
            ]
        },
        {
            "positions": [
                0.512804894003304,
                -2.0743981979074984,
                2.457829955924875,
                -0.5457032052117645,
                0.7708530777227744,
                2.982749725728801
            ]
        },
        {
            "positions": [
                0.41589498767001554,
                -2.157340244685581,
                2.489951368484993,
                -0.5846402610881357,
                0.8014666623733635,
                2.9004393988223387
            ]
        },
        {
            "positions": [
                0.3189850813367271,
                -2.2402822914636644,
                2.522072781045112,
                -0.6235773169645069,
                0.8320802470239527,
                2.8181290719158762
            ]
        },
        {
            "positions": [
                0.22207517500343865,
                -2.3232243382417472,
                2.55419419360523,
                -0.662514372840878,
                0.8626938316745417,
                2.735818745009414
            ]
        },
        {
            "positions": [
                0.12516526867015018,
                -2.40616638501983,
                2.586315606165348,
                -0.7014514287172492,
                0.8933074163251308,
                2.6535084181029513
            ]
        },
        {
            "positions": [
                0.2061386139181463,
                -2.3833819357880426,
                2.447661009593066,
                -0.6184682285493013,
                0.8579682656475998,
                2.6269092487617236
            ]
        },
        {
            "positions": [
                0.2871119591661424,
                -2.3605974865562547,
                2.309006413020784,
                -0.5354850283813534,
                0.8226291149700687,
                2.6003100794204954
            ]
        },
        {
            "positions": [
                0.36808530441413856,
                -2.337813037324467,
                2.1703518164485014,
                -0.4525018282134055,
                0.7872899642925377,
                2.5737109100792677
            ]
        },
        {
            "positions": [
                0.4490586496621347,
                -2.3150285880926798,
                2.0316972198762193,
                -0.3695186280454576,
                0.7519508136150066,
                2.54711174073804
            ]
        },
        {
            "positions": [
                0.5300319949101308,
                -2.2922441388608923,
                1.8930426233039372,
                -0.2865354278775097,
                0.7166116629374757,
                2.5205125713968117
            ]
        },
        {
            "positions": [
                0.6110053401581269,
                -2.2694596896291044,
                1.754388026731655,
                -0.20355222770956183,
                0.6812725122599446,
                2.493913402055584
            ]
        },
        {
            "positions": [
                0.6919786854061231,
                -2.246675240397317,
                1.6157334301593727,
                -0.12056902754161392,
                0.6459333615824135,
                2.4673142327143562
            ]
        },
        {
            "positions": [
                0.7729520306541192,
                -2.2238907911655295,
                1.4770788335870906,
                -0.037585827373666,
                0.6105942109048825,
                2.4407150633731285
            ]
        },
        {
            "positions": [
                0.8539253759021153,
                -2.201106341933742,
                1.3384242370148085,
                0.04539737279428191,
                0.5752550602273515,
                2.4141158940319003
            ]
        },
        {
            "positions": [
                0.9348987211501114,
                -2.178321892701954,
                1.1997696404425262,
                0.12838057296222982,
                0.5399159095498205,
                2.3875167246906726
            ]
        },
        {
            "positions": [
                1.0158720663981076,
                -2.1555374434701666,
                1.0611150438702441,
                0.21136377313017762,
                0.5045767588722895,
                2.360917555349445
            ]
        },
        {
            "positions": [
                1.0968454116461037,
                -2.132752994238379,
                0.9224604472979618,
                0.29434697329812554,
                0.46923760819475846,
                2.3343183860082166
            ]
        },
        {
            "positions": [
                1.1778187568940996,
                -2.1099685450065913,
                0.7838058507256798,
                0.37733017346607356,
                0.4338984575172274,
                2.307719216666989
            ]
        },
        {
            "positions": [
                1.2587921021420958,
                -2.087184095774804,
                0.6451512541533975,
                0.46031337363402136,
                0.39855930683969637,
                2.281120047325761
            ]
        },
        {
            "positions": [
                1.339765447390092,
                -2.0643996465430163,
                0.5064966575811152,
                0.5432965738019692,
                0.3632201561621654,
                2.2545208779845334
            ]
        },
        {
            "positions": [
                1.420738792638088,
                -2.041615197311229,
                0.3678420610088331,
                0.6262797739699172,
                0.3278810054846343,
                2.227921708643305
            ]
        },
        {
            "positions": [
                1.5017121378860843,
                -2.018830748079441,
                0.22918746443655102,
                0.709262974137865,
                0.29254185480710326,
                2.2013225393020774
            ]
        },
        {
            "positions": [
                1.5826854831340802,
                -1.9960462988476535,
                0.09053286786426895,
                0.792246174305813,
                0.25720270412957225,
                2.1747233699608497
            ]
        },
        {
            "positions": [
                1.6636588283820763,
                -1.973261849615866,
                -0.04812172870801312,
                0.8752293744737606,
                0.22186355345204134,
                2.1481242006196215
            ]
        },
        {
            "positions": [
                1.7446321736300725,
                -1.9504774003840784,
                -0.18677632528029564,
                0.9582125746417088,
                0.1865244027745102,
                2.1215250312783938
            ]
        },
        {
            "positions": [
                1.8256055188780684,
                -1.927692951152291,
                -0.32543092185257727,
                1.0411957748096565,
                0.1511852520969793,
                2.094925861937166
            ]
        },
        {
            "positions": [
                1.9065788641260648,
                -1.9049085019205032,
                -0.4640855184248598,
                1.1241789749776046,
                0.11584610141944818,
                2.068326692595938
            ]
        },
        {
            "positions": [
                1.9875522093740607,
                -1.8821240526887157,
                -0.6027401149971419,
                1.2071621751455521,
                0.08050695074191716,
                2.04172752325471
            ]
        },
        {
            "positions": [
                2.0685255546220573,
                -1.859339603456928,
                -0.7413947115694244,
                1.2901453753135002,
                0.04516780006438614,
                2.0151283539134823
            ]
        },
        {
            "positions": [
                2.149498899870053,
                -1.8365551542251404,
                -0.880049308141706,
                1.3731285754814477,
                0.009828649386855126,
                1.9885291845722544
            ]
        },
        {
            "positions": [
                2.230472245118049,
                -1.813770704993353,
                -1.0187039047139885,
                1.4561117756493962,
                -0.025510501290676002,
                1.9619300152310264
            ]
        },
        {
            "positions": [
                2.3114455903660454,
                -1.7909862557615654,
                -1.1573585012862706,
                1.5390949758173438,
                -0.06084965196820691,
                1.9353308458897986
            ]
        },
        {
            "positions": [
                2.3924189356140415,
                -1.7682018065297775,
                -1.2960130978585531,
                1.6220781759852918,
                -0.09618880264573804,
                1.9087316765485707
            ]
        },
        {
            "positions": [
                2.4733922808620377,
                -1.74541735729799,
                -1.4346676944308348,
                1.7050613761532394,
                -0.13152795332326905,
                1.882132507207343
            ]
        },
        {
            "positions": [
                2.554365626110034,
                -1.7226329080662026,
                -1.5733222910031177,
                1.7880445763211874,
                -0.16686710400079996,
                1.855533337866115
            ]
        },
        {
            "positions": [
                2.6353389713580295,
                -1.6998484588344152,
                -1.711976887575399,
                1.8710277764891354,
                -0.2022062546783311,
                1.8289341685248872
            ]
        },
        {
            "positions": [
                2.716312316606026,
                -1.6770640096026272,
                -1.8506314841476819,
                1.9540109766570835,
                -0.23754540535586222,
                1.8023349991836592
            ]
        },
        {
            "positions": [
                2.797285661854022,
                -1.6542795603708398,
                -1.989286080719964,
                2.036994176825031,
                -0.2728845560333931,
                1.7757358298424313
            ]
        },
        {
            "positions": [
                2.8782590071020184,
                -1.6314951111390523,
                -2.127940677292246,
                2.119977376992979,
                -0.30822370671092425,
                1.7491366605012035
            ]
        },
        {
            "positions": [
                2.959232352350014,
                -1.6087106619072646,
                -2.266595273864528,
                2.202960577160927,
                -0.34356285738845516,
                1.7225374911599756
            ]
        },
        {
            "positions": [
                3.0402056975980103,
                -1.585926212675477,
                -2.40524987043681,
                2.285943777328875,
                -0.3789020080659863,
                1.6959383218187476
            ]
        },
        {
            "positions": [
                3.1211790428460064,
                -1.5631417634436895,
                -2.5439044670090922,
                2.3689269774968227,
                -0.4142411587435171,
                1.6693391524775198
            ]
        },
        {
            "positions": [
                3.099296690797106,
                -1.5927707115642022,
                -2.5015986133281793,
                2.1400913501155787,
                -0.4170921960837434,
                1.7389265926766282
            ]
        },
        {
            "positions": [
                3.077414338748206,
                -1.622399659684715,
                -2.4592927596472665,
                1.9112557227343347,
                -0.41994323342396983,
                1.8085140328757365
            ]
        },
        {
            "positions": [
                3.0555319866993056,
                -1.652028607805228,
                -2.4169869059663536,
                1.6824200953530908,
                -0.4227942707641962,
                1.8781014730748449
            ]
        },
        {
            "positions": [
                3.0336496346504056,
                -1.6816575559257407,
                -2.3746810522854407,
                1.4535844679718468,
                -0.4256453081044226,
                1.9476889132739532
            ]
        },
        {
            "positions": [
                3.011767282601505,
                -1.7112865040462535,
                -2.332375198604528,
                1.2247488405906026,
                -0.42849634544464893,
                2.017276353473062
            ]
        },
        {
            "positions": [
                2.9898849305526047,
                -1.7409154521667662,
                -2.290069344923615,
                0.9959132132093587,
                -0.43134738278487533,
                2.08686379367217
            ]
        },
        {
            "positions": [
                2.9680025785037047,
                -1.7705444002872792,
                -2.247763491242702,
                0.7670775858281147,
                -0.4341984201251017,
                2.1564512338712785
            ]
        },
        {
            "positions": [
                2.9461202264548043,
                -1.800173348407792,
                -2.205457637561789,
                0.5382419584468707,
                -0.4370494574653281,
                2.226038674070387
            ]
        },
        {
            "positions": [
                2.924237874405904,
                -1.8298022965283047,
                -2.1631517838808763,
                0.30940633106562654,
                -0.43990049480555443,
                2.295626114269495
            ]
        },
        {
            "positions": [
                2.902355522357004,
                -1.8594312446488175,
                -2.1208459301999634,
                0.08057070368438257,
                -0.44275153214578084,
                2.3652135544686037
            ]
        },
        {
            "positions": [
                2.8804731703081035,
                -1.8890601927693305,
                -2.0785400765190505,
                -0.1482649236968614,
                -0.4456025694860072,
                2.434800994667712
            ]
        },
        {
            "positions": [
                2.8585908182592035,
                -1.9186891408898432,
                -2.0362342228381376,
                -0.37710055107810536,
                -0.4484536068262336,
                2.5043884348668204
            ]
        },
        {
            "positions": [
                2.836708466210303,
                -1.948318089010356,
                -1.9939283691572247,
                -0.6059361784593493,
                -0.45130464416645993,
                2.573975875065929
            ]
        },
        {
            "positions": [
                2.8148261141614026,
                -1.9779470371308687,
                -1.9516225154763118,
                -0.8347718058405933,
                -0.45415568150668634,
                2.643563315265037
            ]
        },
        {
            "positions": [
                2.7929437621125026,
                -2.0075759852513815,
                -1.909316661795399,
                -1.0636074332218377,
                -0.4570067188469127,
                2.713150755464145
            ]
        },
        {
            "positions": [
                2.771061410063602,
                -2.0372049333718945,
                -1.867010808114486,
                -1.2924430606030812,
                -0.4598577561871391,
                2.7827381956632538
            ]
        },
        {
            "positions": [
                2.749179058014702,
                -2.066833881492407,
                -1.8247049544335732,
                -1.5212786879843256,
                -0.46270879352736544,
                2.8523256358623623
            ]
        },
        {
            "positions": [
                2.7272967059658018,
                -2.09646282961292,
                -1.7823991007526603,
                -1.7501143153655696,
                -0.4655598308675918,
                2.9219130760614704
            ]
        },
        {
            "positions": [
                2.7054143539169013,
                -2.126091777733433,
                -1.7400932470717474,
                -1.9789499427468136,
                -0.4684108682078182,
                2.991500516260579
            ]
        },
        {
            "positions": [
                2.6835320018680013,
                -2.1557207258539455,
                -1.6977873933908345,
                -2.2077855701280575,
                -0.4712619055480446,
                3.061087956459687
            ]
        },
        {
            "positions": [
                2.661649649819101,
                -2.1853496739744585,
                -1.6554815397099216,
                -2.4366211975093015,
                -0.47411294288827094,
                3.1306753966587957
            ]
        }
    ]
}