{
    "goal": {
        "global_pose": {
            "orientation": {
                "w": 0.005598929693374612,
                "x": 0.007748599140229565,
                "y": 0.7110244013736278,
                "z": -0.7031023480610252
            },
            "position": {
                "x": -0.8858502320852131,
                "y": -0.7141253447532654,
                "z": 0.3711530566215515
            }
        },
        "name": "move_to_auspresseinheit_C"
    },
    "id": "LBKPIECE_move_to_auspresseinheit_C_8",
    "joint_names": [
        "shoulder_pan_joint",
        "shoulder_lift_joint",
        "elbow_joint",
        "wrist_1_joint",
        "wrist_2_joint",
        "wrist_3_joint"
    ],
    "metrics": {
        "cart_traj_len": 0.49397034077294116,
        "distance_elbow_joint": 1.0098421660235948,
        "distance_shoulder_lift_joint": 0.3297796496597819,
        "distance_shoulder_pan_joint": 0.25727149096652235,
        "distance_wrist_1_joint": 0.7029197526227595,
        "distance_wrist_2_joint": 1.30214550053993,
        "distance_wrist_3_joint": 0.08104980060777578,
        "smoothness": 4.844609574787718e-16,
        "time": 0.560459572,
        "traj_len": 1.9191165572784694,
        "weighted_distance": 2.4187131319771273
    },
    "planner": "LBKPIECE",
    "start": {
        "state": {
            "elbow_joint": 1.7527959577730765,
            "shoulder_lift_joint": -0.9740617694224828,
            "shoulder_pan_joint": -2.967991417825869,
            "wrist_1_joint": -0.7595177689779385,
            "wrist_2_joint": 1.7443932448376545,
            "wrist_3_joint": 3.1991315425061013
        }
    },
    "waypoints": [
        {
            "positions": [
                -2.967991417825869,
                -0.9740617694224828,
                1.7527959577730765,
                -0.7595177689779385,
                1.7443932448376545,
                3.1991315425061013
            ]
        },
        {
            "positions": [
                -2.942264268729217,
                -0.9410838044565046,
                1.651811741170717,
                -0.6892257937156626,
                1.6141786947836614,
                3.1910265624453236
            ]
        },
        {
            "positions": [
                -2.9165371196325647,
                -0.9081058394905264,
                1.5508275245683576,
                -0.6189338184533867,
                1.4839641447296685,
                3.1829215823845463
            ]
        },
        {
            "positions": [
                -2.8908099705359125,
                -0.8751278745245482,
                1.449843307965998,
                -0.5486418431911108,
                1.3537495946756755,
                3.1748166023237685
            ]
        },
        {
            "positions": [
                -2.8650828214392603,
                -0.84214990955857,
                1.3488590913636385,
                -0.47834986792883477,
                1.2235350446216824,
                3.166711622262991
            ]
        },
        {
            "positions": [
                -2.8393556723426077,
                -0.8091719445925918,
                1.2478748747612791,
                -0.40805789266655884,
                1.0933204945676893,
                3.1586066422022134
            ]
        },
        {
            "positions": [
                -2.8136285232459555,
                -0.7761939796266136,
                1.1468906581589198,
                -0.3377659174042829,
                0.9631059445136965,
                3.1505016621414357
            ]
        },
        {
            "positions": [
                -2.7879013741493033,
                -0.7432160146606355,
                1.0459064415565602,
                -0.267473942142007,
                0.8328913944597035,
                3.1423966820806584
            ]
        },
        {
            "positions": [
                -2.762174225052651,
                -0.7102380496946572,
                0.9449222249542006,
                -0.197181966879731,
                0.7026768444057103,
                3.1342917020198806
            ]
        },
        {
            "positions": [
                -2.736447075955999,
                -0.677260084728679,
                0.8439380083518412,
                -0.12688999161745507,
                0.5724622943517175,
                3.1261867219591033
            ]
        },
        {
            "positions": [
                -2.7107199268593467,
                -0.6442821197627009,
                0.7429537917494816,
                -0.05659801635517909,
                0.44224774429772434,
                3.1180817418983255
            ]
        }
    ]
}