{
    "goal": {
        "global_pose": {
            "orientation": {
                "w": 0.5084816217422485,
                "x": -0.49083608388900757,
                "y": 0.5182115435600281,
                "z": -0.4816462993621826
            },
            "position": {
                "x": 0.5540239810943604,
                "y": 0.030875300988554955,
                "z": 0.16403168439865112
            }
        },
        "name": "move_to_storage_A"
    },
    "id": "LBKPIECE_move_to_storage_A_118",
    "joint_names": [
        "shoulder_pan_joint",
        "shoulder_lift_joint",
        "elbow_joint",
        "wrist_1_joint",
        "wrist_2_joint",
        "wrist_3_joint"
    ],
    "metrics": {
        "cart_traj_len": 0.3531560384738095,
        "distance_elbow_joint": 0.4488288653481398,
        "distance_shoulder_lift_joint": 0.23694862441720277,
        "distance_shoulder_pan_joint": 0.4616567466667379,
        "distance_wrist_1_joint": 0.23507904483873165,
        "distance_wrist_2_joint": 1.1006365226542316,
        "distance_wrist_3_joint": 0.08653982177751907,
        "smoothness": 6.661338165333112e-16,
        "time": 0.164415369,
        "traj_len": 1.6030251481815758,
        "weighted_distance": 2.019525894052999
    },
    "planner": "LBKPIECE",
    "start": {
        "state": {
            "elbow_joint": 1.971548880431181,
            "shoulder_lift_joint": -1.1394869514688781,
            "shoulder_pan_joint": 0.12281150262730567,
            "wrist_1_joint": -0.7804693444481463,
            "wrist_2_joint": 0.12958644648617612,
            "wrist_3_joint": 3.0906942077768043
        }
    },
    "waypoints": [
        {
            "positions": [
                0.12281150262730567,
                -1.1394869514688781,
                1.971548880431181,
                -0.7804693444481463,
                0.12958644648617612,
                3.0906942077768043
            ]
        },
        {
            "positions": [
                0.056860538817771686,
                -1.17333675495705,
                2.0356672897666295,
                -0.8140520651393937,
                0.2868202354367806,
                3.103057039459307
            ]
        },
        {
            "positions": [
                -0.009090424991762297,
                -1.2071865584452217,
                2.0997856991020782,
                -0.847634785830641,
                0.4440540243873851,
                3.1154198711418095
            ]
        },
        {
            "positions": [
                -0.07504138880129627,
                -1.2410363619333935,
                2.1639041084375266,
                -0.8812175065218885,
                0.6012878133379896,
                3.1277827028243124
            ]
        },
        {
            "positions": [
                -0.14099235261083026,
                -1.2748861654215653,
                2.228022517772975,
                -0.9148002272131358,
                0.7585216022885941,
                3.140145534506815
            ]
        },
        {
            "positions": [
                -0.2069433164203643,
                -1.3087359689097373,
                2.2921409271084237,
                -0.9483829479043833,
                0.9157553912391987,
                3.152508366189318
            ]
        },
        {
            "positions": [
                -0.2728942802298982,
                -1.342585772397909,
                2.3562593364438724,
                -0.9819656685956306,
                1.0729891801898033,
                3.1648711978718205
            ]
        },
        {
            "positions": [
                -0.3388452440394322,
                -1.376435575886081,
                2.4203777457793207,
                -1.015548389286878,
                1.2302229691404076,
                3.1772340295543233
            ]
        }
    ]
}