{
    "goal": {
        "global_pose": {
            "orientation": {
                "w": 0.7047431468963623,
                "x": -0.7094548344612122,
                "y": 0.0024358443915843964,
                "z": -0.0022348060738295317
            },
            "position": {
                "x": 0.6094750761985779,
                "y": 0.3671506643295288,
                "z": 0.19426114857196808
            }
        },
        "name": "move_to_magneteinheit_A"
    },
    "id": "LBKPIECE_move_to_magneteinheit_A_98",
    "joint_names": [
        "shoulder_pan_joint",
        "shoulder_lift_joint",
        "elbow_joint",
        "wrist_1_joint",
        "wrist_2_joint",
        "wrist_3_joint"
    ],
    "metrics": {
        "cart_traj_len": 1.5932858894806061,
        "distance_elbow_joint": 3.5315526865834115,
        "distance_shoulder_lift_joint": 1.1382977220777597,
        "distance_shoulder_pan_joint": 1.2415882523635053,
        "distance_wrist_1_joint": 3.848831679676471,
        "distance_wrist_2_joint": 1.7045408384541134,
        "distance_wrist_3_joint": 5.047185847616946,
        "smoothness": 3.3048499482846327e-16,
        "time": 0.441653822,
        "traj_len": 4.063495665898046,
        "weighted_distance": 5.670955937065345
    },
    "planner": "LBKPIECE",
    "start": {
        "state": {
            "elbow_joint": -1.5739458827952972,
            "shoulder_lift_joint": 0.006533473998580023,
            "shoulder_pan_joint": -1.1188671628667068,
            "wrist_1_joint": 3.138208179676308,
            "wrist_2_joint": -1.5706037135050406,
            "wrist_3_joint": -2.0226958329764257
        }
    },
    "waypoints": [
        {
            "positions": [
                -1.1188671628667068,
                0.006533473998580023,
                -1.5739458827952972,
                3.138208179676308,
                -1.5706037135050406,
                -2.0226958329764257
            ]
        },
        {
            "positions": [
                -1.0893055378104328,
                -0.020568852717557113,
                -1.4898612950195018,
                3.0465693301602017,
                -1.5300194078275617,
                -1.9025247413664985
            ]
        },
        {
            "positions": [
                -1.059743912754159,
                -0.04767117943369425,
                -1.4057767072437062,
                2.9549304806440952,
                -1.489435102150083,
                -1.7823536497565713
            ]
        },
        {
            "positions": [
                -1.030182287697885,
                -0.07477350614983139,
                -1.3216921194679108,
                2.863291631127989,
                -1.4488507964726038,
                -1.6621825581466438
            ]
        },
        {
            "positions": [
                -1.0006206626416112,
                -0.10187583286596852,
                -1.2376075316921151,
                2.7716527816118823,
                -1.408266490795125,
                -1.5420114665367166
            ]
        },
        {
            "positions": [
                -0.9710590375853372,
                -0.12897815958210562,
                -1.1535229439163197,
                2.680013932095776,
                -1.3676821851176462,
                -1.4218403749267892
            ]
        },
        {
            "positions": [
                -0.9414974125290633,
                -0.15608048629824278,
                -1.069438356140524,
                2.5883750825796694,
                -1.3270978794401673,
                -1.301669283316862
            ]
        },
        {
            "positions": [
                -0.9119357874727894,
                -0.1831828130143799,
                -0.9853537683647287,
                2.496736233063563,
                -1.2865135737626883,
                -1.1814981917069347
            ]
        },
        {
            "positions": [
                -0.8823741624165153,
                -0.21028513973051705,
                -0.9012691805889331,
                2.4050973835474565,
                -1.2459292680852094,
                -1.0613271000970075
            ]
        },
        {
            "positions": [
                -0.8528125373602414,
                -0.23738746644665418,
                -0.8171845928131377,
                2.31345853403135,
                -1.2053449624077306,
                -0.9411560084870803
            ]
        },
        {
            "positions": [
                -0.8232509123039675,
                -0.2644897931627913,
                -0.7331000050373422,
                2.2218196845152436,
                -1.1647606567302518,
                -0.8209849168771528
            ]
        },
        {
            "positions": [
                -0.7936892872476935,
                -0.2915921198789285,
                -0.6490154172615465,
                2.130180834999137,
                -1.1241763510527727,
                -0.7008138252672256
            ]
        },
        {
            "positions": [
                -0.7641276621914197,
                -0.31869444659506563,
                -0.5649308294857511,
                2.0385419854830307,
                -1.0835920453752939,
                -0.5806427336572983
            ]
        },
        {
            "positions": [
                -0.7345660371351457,
                -0.3457967733112028,
                -0.4808462417099555,
                1.9469031359669242,
                -1.043007739697815,
                -0.4604716420473709
            ]
        },
        {
            "positions": [
                -0.7050044120788718,
                -0.3728991000273399,
                -0.3967616539341601,
                1.8552642864508178,
                -1.0024234340203362,
                -0.34030055043744367
            ]
        },
        {
            "positions": [
                -0.6754427870225979,
                -0.40000142674347705,
                -0.31267706615836444,
                1.7636254369347113,
                -0.9618391283428572,
                -0.22012945882751644
            ]
        },
        {
            "positions": [
                -0.6458811619663238,
                -0.42710375345961415,
                -0.22859247838256902,
                1.6719865874186048,
                -0.9212548226653784,
                -0.09995836721758922
            ]
        },
        {
            "positions": [
                -0.6163195369100499,
                -0.4542060801757513,
                -0.1445078906067736,
                1.5803477379024984,
                -0.8806705169878994,
                0.02021272439233801
            ]
        },
        {
            "positions": [
                -0.586757911853776,
                -0.4813084068918884,
                -0.06042330283097819,
                1.488708888386392,
                -0.8400862113104206,
                0.14038381600226524
            ]
        },
        {
            "positions": [
                -0.557196286797502,
                -0.5084107336080255,
                0.02366128494481745,
                1.3970700388702855,
                -0.7995019056329417,
                0.2605549076121929
            ]
        },
        {
            "positions": [
                -0.5276346617412282,
                -0.5355130603241626,
                0.10774587272061287,
                1.305431189354179,
                -0.7589175999554628,
                0.38072599922212014
            ]
        },
        {
            "positions": [
                -0.4980730366849542,
                -0.5626153870402998,
                0.1918304604964085,
                1.2137923398380726,
                -0.7183332942779839,
                0.5008970908320474
            ]
        },
        {
            "positions": [
                -0.46851141162868015,
                -0.589717713756437,
                0.27591504827220414,
                1.122153490321966,
                -0.6777489886005049,
                0.6210681824419746
            ]
        },
        {
            "positions": [
                -0.43894978657240624,
                -0.6168200404725741,
                0.3599996360479998,
                1.0305146408058596,
                -0.637164682923026,
                0.7412392740519023
            ]
        },
        {
            "positions": [
                -0.40938816151613244,
                -0.6439223671887112,
                0.444084223823795,
                0.9388757912897532,
                -0.5965803772455472,
                0.861410365661829
            ]
        },
        {
            "positions": [
                -0.3798265364598584,
                -0.6710246939048483,
                0.5281688115995904,
                0.8472369417736467,
                -0.5559960715680683,
                0.9815814572717567
            ]
        },
        {
            "positions": [
                -0.3502649114035845,
                -0.6981270206209855,
                0.6122533993753863,
                0.7555980922575403,
                -0.5154117658905895,
                1.101752548881684
            ]
        },
        {
            "positions": [
                -0.3207032863473105,
                -0.7252293473371226,
                0.6963379871511817,
                0.6639592427414338,
                -0.4748274602131104,
                1.2219236404916112
            ]
        },
        {
            "positions": [
                -0.2911416612910367,
                -0.7523316740532597,
                0.7804225749269771,
                0.5723203932253274,
                -0.4342431545356318,
                1.3420947321015384
            ]
        },
        {
            "positions": [
                -0.26158003623476267,
                -0.7794340007693968,
                0.8645071627027725,
                0.4806815437092209,
                -0.3936588488581527,
                1.4622658237114656
            ]
        },
        {
            "positions": [
                -0.23201841117848876,
                -0.806536327485534,
                0.9485917504785684,
                0.38904269419311444,
                -0.3530745431806739,
                1.5824369153213929
            ]
        },
        {
            "positions": [
                -0.20245678612221474,
                -0.8336386542016712,
                1.0326763382543638,
                0.297403844677008,
                -0.3124902375031948,
                1.7026080069313205
            ]
        },
        {
            "positions": [
                -0.17289516106594094,
                -0.8607409809178083,
                1.1167609260301592,
                0.20576499516090152,
                -0.2719059318257162,
                1.8227790985412473
            ]
        },
        {
            "positions": [
                -0.14333353600966692,
                -0.8878433076339454,
                1.2008455138059546,
                0.11412614564479506,
                -0.23132162614823715,
                1.942950190151175
            ]
        },
        {
            "positions": [
                -0.11377191095339301,
                -0.9149456343500826,
                1.28493010158175,
                0.022487296128688605,
                -0.1907373204707583,
                2.0631212817611018
            ]
        },
        {
            "positions": [
                -0.08421028589711899,
                -0.9420479610662197,
                1.3690146893575459,
                -0.06915155338741785,
                -0.15015301479327925,
                2.1832923733710294
            ]
        },
        {
            "positions": [
                -0.05464866084084519,
                -0.9691502877823568,
                1.4530992771333409,
                -0.1607904029035243,
                -0.10956870911580063,
                2.303463464980956
            ]
        },
        {
            "positions": [
                -0.025087035784571166,
                -0.996252614498494,
                1.5371838649091367,
                -0.25242925241963077,
                -0.06898440343832157,
                2.423634556590884
            ]
        },
        {
            "positions": [
                0.004474589271702856,
                -1.023354941214631,
                1.6212684526849321,
                -0.3440681019357372,
                -0.028400097760842735,
                2.5438056482008116
            ]
        },
        {
            "positions": [
                0.034036214327976655,
                -1.0504572679307682,
                1.705353040460728,
                -0.4357069514518437,
                0.012184207916636325,
                2.6639767398107383
            ]
        },
        {
            "positions": [
                0.06359783938425045,
                -1.0775595946469052,
                1.789437628236523,
                -0.5273458009679501,
                0.05276851359411494,
                2.784147831420666
            ]
        },
        {
            "positions": [
                0.09315946444052448,
                -1.1046619213630424,
                1.8735222160123188,
                -0.6189846504840566,
                0.093352819271594,
                2.904318923030593
            ]
        },
        {
            "positions": [
                0.12272108949679846,
                -1.1317642480791796,
                1.9576068037881142,
                -0.7106235000001628,
                0.13393712494907278,
                3.0244900146405205
            ]
        }
    ]
}