{
    "goal": {
        "global_pose": {
            "orientation": {
                "w": 0.7047431468963623,
                "x": -0.7094548344612122,
                "y": 0.0024358443915843964,
                "z": -0.0022348060738295317
            },
            "position": {
                "x": 0.6094750761985779,
                "y": 0.3671506643295288,
                "z": 0.19426114857196808
            }
        },
        "name": "move_to_magneteinheit_A"
    },
    "id": "LBKPIECE_move_to_magneteinheit_A_139",
    "joint_names": [
        "shoulder_pan_joint",
        "shoulder_lift_joint",
        "elbow_joint",
        "wrist_1_joint",
        "wrist_2_joint",
        "wrist_3_joint"
    ],
    "metrics": {
        "cart_traj_len": 1.9774591971796964,
        "distance_elbow_joint": 3.592173202587203,
        "distance_shoulder_lift_joint": 0.7948777178062693,
        "distance_shoulder_pan_joint": 1.2409509710333793,
        "distance_wrist_1_joint": 1.1266480241477477,
        "distance_wrist_2_joint": 1.4470645363985983,
        "distance_wrist_3_joint": 1.9275095828839393,
        "smoothness": 4.605369601539975e-16,
        "time": 0.342296831,
        "traj_len": 3.1826441891699324,
        "weighted_distance": 4.069146809980117
    },
    "planner": "LBKPIECE",
    "start": {
        "state": {
            "elbow_joint": -1.5739458827952972,
            "shoulder_lift_joint": 0.006533473998580023,
            "shoulder_pan_joint": -1.1188671628667068,
            "wrist_1_joint": 3.138208179676308,
            "wrist_2_joint": -1.5706037135050406,
            "wrist_3_joint": -2.0226958329764257
        }
    },
    "waypoints": [
        {
            "positions": [
                -1.1188671628667068,
                0.006533473998580023,
                -1.5739458827952972,
                3.138208179676308,
                -1.5706037135050406,
                -2.0226958329764257
            ]
        },
        {
            "positions": [
                -1.071138279365423,
                -0.024038745917045724,
                -1.4357853750034817,
                3.0948755633629332,
                -1.5149473851820177,
                -1.9485608490193511
            ]
        },
        {
            "positions": [
                -1.0234093958641393,
                -0.05461096583267147,
                -1.2976248672116664,
                3.0515429470495583,
                -1.4592910568589945,
                -1.8744258650622765
            ]
        },
        {
            "positions": [
                -0.9756805123628554,
                -0.08518318574829722,
                -1.1594643594198506,
                3.0082103307361834,
                -1.4036347285359716,
                -1.800290881105202
            ]
        },
        {
            "positions": [
                -0.9279516288615716,
                -0.11575540566392296,
                -1.0213038516280353,
                2.9648777144228085,
                -1.3479784002129485,
                -1.7261558971481274
            ]
        },
        {
            "positions": [
                -0.8802227453602878,
                -0.1463276255795487,
                -0.8831433438362197,
                2.9215450981094335,
                -1.2923220718899255,
                -1.6520209131910528
            ]
        },
        {
            "positions": [
                -0.8324938618590039,
                -0.17689984549517446,
                -0.7449828360444042,
                2.8782124817960586,
                -1.2366657435669026,
                -1.5778859292339782
            ]
        },
        {
            "positions": [
                -0.7847649783577202,
                -0.20747206541080015,
                -0.6068223282525889,
                2.8348798654826837,
                -1.1810094152438795,
                -1.5037509452769036
            ]
        },
        {
            "positions": [
                -0.7370360948564363,
                -0.23804428532642594,
                -0.4686618204607733,
                2.7915472491693087,
                -1.1253530869208563,
                -1.4296159613198292
            ]
        },
        {
            "positions": [
                -0.6893072113551525,
                -0.26861650524205166,
                -0.33050131266895777,
                2.748214632855934,
                -1.0696967585978334,
                -1.3554809773627545
            ]
        },
        {
            "positions": [
                -0.6415783278538687,
                -0.29918872515767747,
                -0.19234080487714222,
                2.704882016542559,
                -1.0140404302748105,
                -1.28134599340568
            ]
        },
        {
            "positions": [
                -0.5938494443525849,
                -0.32976094507330317,
                -0.0541802970853269,
                2.661549400229184,
                -0.9583841019517875,
                -1.2072110094486053
            ]
        },
        {
            "positions": [
                -0.546120560851301,
                -0.360333164988929,
                0.08398021070648887,
                2.618216783915809,
                -0.9027277736287644,
                -1.1330760254915306
            ]
        },
        {
            "positions": [
                -0.4983916773500172,
                -0.3909053849045547,
                0.2221407184983042,
                2.574884167602434,
                -0.8470714453057414,
                -1.0589410415344562
            ]
        },
        {
            "positions": [
                -0.4506627938487334,
                -0.4214776048201804,
                0.3603012262901195,
                2.531551551289059,
                -0.7914151169827184,
                -0.9848060575773816
            ]
        },
        {
            "positions": [
                -0.40293391034744963,
                -0.4520498247358061,
                0.49846173408193484,
                2.4882189349756847,
                -0.7357587886596955,
                -0.910671073620307
            ]
        },
        {
            "positions": [
                -0.35520502684616573,
                -0.48262204465143194,
                0.6366222418737506,
                2.4448863186623093,
                -0.6801024603366723,
                -0.8365360896632323
            ]
        },
        {
            "positions": [
                -0.30747614334488194,
                -0.5131942645670576,
                0.7747827496655664,
                2.401553702348935,
                -0.6244461320136494,
                -0.7624011057061577
            ]
        },
        {
            "positions": [
                -0.25974725984359814,
                -0.5437664844826833,
                0.9129432574573817,
                2.35822108603556,
                -0.5687898036906263,
                -0.6882661217490833
            ]
        },
        {
            "positions": [
                -0.21201837634231435,
                -0.574338704398309,
                1.051103765249197,
                2.314888469722185,
                -0.5131334753676033,
                -0.6141311377920087
            ]
        },
        {
            "positions": [
                -0.16428949284103045,
                -0.6049109243139349,
                1.1892642730410128,
                2.27155585340881,
                -0.4574771470445802,
                -0.5399961538349338
            ]
        },
        {
            "positions": [
                -0.11656060933974666,
                -0.6354831442295606,
                1.327424780832828,
                2.228223237095435,
                -0.4018208187215573,
                -0.4658611698778594
            ]
        },
        {
            "positions": [
                -0.06883172583846298,
                -0.6660553641451863,
                1.4655852886246434,
                2.18489062078206,
                -0.34616449039853436,
                -0.3917261859207848
            ]
        },
        {
            "positions": [
                -0.021102842337179073,
                -0.696627584060812,
                1.6037457964164592,
                2.1415580044686853,
                -0.2905081620755112,
                -0.3175912019637104
            ]
        },
        {
            "positions": [
                0.02662604116410483,
                -0.7271998039764379,
                1.741906304208275,
                2.0982253881553103,
                -0.2348518337524883,
                -0.24345621800663553
            ]
        },
        {
            "positions": [
                0.07435492466538873,
                -0.7577720238920636,
                1.8800668120000903,
                2.0548927718419354,
                -0.17919550542946516,
                -0.16932123404956112
            ]
        },
        {
            "positions": [
                0.12208380816667233,
                -0.7883442438076893,
                2.018227319791906,
                2.0115601555285605,
                -0.12353917710644216,
                -0.09518625009248656
            ]
        }
    ]
}