{
    "goal": {
        "global_pose": {
            "orientation": {
                "w": 0.5084816217422485,
                "x": -0.49083608388900757,
                "y": 0.5182115435600281,
                "z": -0.4816462993621826
            },
            "position": {
                "x": 0.5540239810943604,
                "y": 0.030875300988554955,
                "z": 0.16403168439865112
            }
        },
        "name": "move_to_storage_A"
    },
    "id": "LBKPIECE_move_to_storage_A_19",
    "joint_names": [
        "shoulder_pan_joint",
        "shoulder_lift_joint",
        "elbow_joint",
        "wrist_1_joint",
        "wrist_2_joint",
        "wrist_3_joint"
    ],
    "metrics": {
        "cart_traj_len": 0.3529143606550547,
        "distance_elbow_joint": 0.45296238597218097,
        "distance_shoulder_lift_joint": 0.23421236566467174,
        "distance_shoulder_pan_joint": 0.461561167511906,
        "distance_wrist_1_joint": 0.2510243937607106,
        "distance_wrist_2_joint": 1.0988626974270832,
        "distance_wrist_3_joint": 0.10012143791226391,
        "smoothness": 4.440892133664971e-16,
        "time": 0.474846726,
        "traj_len": 1.6120621725754924,
        "weighted_distance": 2.036878596102659
    },
    "planner": "LBKPIECE",
    "start": {
        "state": {
            "elbow_joint": 1.971548880431181,
            "shoulder_lift_joint": -1.1394869514688781,
            "shoulder_pan_joint": 0.12281150262730567,
            "wrist_1_joint": -0.7804693444481463,
            "wrist_2_joint": 0.12958644648617612,
            "wrist_3_joint": 3.0906942077768043
        }
    },
    "waypoints": [
        {
            "positions": [
                0.12281150262730567,
                -1.1394869514688781,
                1.971548880431181,
                -0.7804693444481463,
                0.12958644648617612,
                3.0906942077768043
            ]
        },
        {
            "positions": [
                0.056874192982747665,
                -1.1729458608495456,
                2.036257792712921,
                -0.8163299721282479,
                0.2865668318329023,
                3.104997270335699
            ]
        },
        {
            "positions": [
                -0.009063116661810339,
                -1.206404770230213,
                2.1009667049946614,
                -0.8521905998083493,
                0.4435472171796285,
                3.119300332894594
            ]
        },
        {
            "positions": [
                -0.07500042630636833,
                -1.2398636796108804,
                2.1656756172764013,
                -0.8880512274884509,
                0.6005276025263546,
                3.133603395453489
            ]
        },
        {
            "positions": [
                -0.14093773595092635,
                -1.2733225889915476,
                2.2303845295581413,
                -0.9239118551685523,
                0.7575079878730808,
                3.1479064580123834
            ]
        },
        {
            "positions": [
                -0.20687504559548436,
                -1.306781498372215,
                2.2950934418398816,
                -0.9597724828486539,
                0.914488373219807,
                3.1622095205712784
            ]
        },
        {
            "positions": [
                -0.2728123552400423,
                -1.3402404077528824,
                2.359802354121622,
                -0.9956331105287554,
                1.071468758566533,
                3.1765125831301733
            ]
        },
        {
            "positions": [
                -0.33874966488460034,
                -1.3736993171335499,
                2.424511266403362,
                -1.031493738208857,
                1.2284491439132594,
                3.190815645689068
            ]
        }
    ]
}