{
    "goal": {
        "global_pose": {
            "orientation": {
                "w": 0.7047431493862688,
                "x": -0.7094548369677653,
                "y": 0.0024358444001904,
                "z": -0.0022348060817251984
            },
            "position": {
                "x": -0.39052492380142206,
                "y": 0.3671506643295288,
                "z": 0.19426114857196808
            }
        },
        "name": "move_to_magneteinheit_D"
    },
    "id": "LBKPIECE_move_to_magneteinheit_D_140",
    "joint_names": [
        "shoulder_pan_joint",
        "shoulder_lift_joint",
        "elbow_joint",
        "wrist_1_joint",
        "wrist_2_joint",
        "wrist_3_joint"
    ],
    "metrics": {
        "cart_traj_len": 4.751118500109096,
        "distance_elbow_joint": 4.333244320114234,
        "distance_shoulder_lift_joint": 1.8875040802252856,
        "distance_shoulder_pan_joint": 3.66666037566288,
        "distance_wrist_1_joint": 3.146569164644034,
        "distance_wrist_2_joint": 0.6275503766648712,
        "distance_wrist_3_joint": 3.6564335288259002,
        "smoothness": 0.8949084903891246,
        "time": 0.687165026,
        "traj_len": 4.161485533572983,
        "weighted_distance": 5.32962929715547
    },
    "planner": "LBKPIECE",
    "start": {
        "state": {
            "elbow_joint": 0.7495348899011911,
            "shoulder_lift_joint": -0.6476975780737668,
            "shoulder_pan_joint": -2.711696901376276,
            "wrist_1_joint": -0.0750647808097303,
            "wrist_2_joint": 0.43296659715458535,
            "wrist_3_joint": 3.1361499051832418
        }
    },
    "waypoints": [
        {
            "positions": [
                -2.711696901376276,
                -0.6476975780737668,
                0.7495348899011911,
                -0.0750647808097303,
                0.43296659715458535,
                3.1361499051832418
            ]
        },
        {
            "positions": [
                -2.7624361417620404,
                -0.6847975651439377,
                0.8163430620882565,
                -0.11491914569096012,
                0.46986510346692784,
                3.06453016741324
            ]
        },
        {
            "positions": [
                -2.8131753821478043,
                -0.7218975522141087,
                0.8831512342753218,
                -0.15477351057218997,
                0.5067636097792704,
                2.9929104296432385
            ]
        },
        {
            "positions": [
                -2.8639146225335685,
                -0.7589975392842796,
                0.9499594064623872,
                -0.19462787545341978,
                0.5436621160916129,
                2.9212906918732364
            ]
        },
        {
            "positions": [
                -2.914653862919333,
                -0.7960975263544505,
                1.0167675786494526,
                -0.2344822403346496,
                0.5805606224039553,
                2.849670954103235
            ]
        },
        {
            "positions": [
                -2.8742767990393485,
                -0.8402033960882093,
                1.045779138188814,
                -0.3369803823278106,
                0.5253992266061382,
                2.774924514740187
            ]
        },
        {
            "positions": [
                -2.8338997351593638,
                -0.884309265821968,
                1.0747906977281754,
                -0.4394785243209715,
                0.4702378308083211,
                2.700178075377139
            ]
        },
        {
            "positions": [
                -2.7935226712793795,
                -0.9284151355557267,
                1.1038022572675368,
                -0.5419766663141325,
                0.41507643501050395,
                2.625431636014091
            ]
        },
        {
            "positions": [
                -2.753145607399395,
                -0.9725210052894855,
                1.1328138168068982,
                -0.6444748083072934,
                0.35991503921268686,
                2.5506851966510435
            ]
        },
        {
            "positions": [
                -2.7127685435194104,
                -1.0166268750232441,
                1.1618253763462596,
                -0.7469729503004544,
                0.3047536434148697,
                2.4759387572879956
            ]
        },
        {
            "positions": [
                -2.672391479639426,
                -1.060732744757003,
                1.190836935885621,
                -0.8494710922936154,
                0.24959224761705262,
                2.4011923179249477
            ]
        },
        {
            "positions": [
                -2.5833049914445274,
                -1.0972398241591441,
                1.0876988872503415,
                -0.781140270227375,
                0.25062009029098914,
                2.3137959026750026
            ]
        },
        {
            "positions": [
                -2.494218503249629,
                -1.133746903561285,
                0.9845608386150619,
                -0.7128094481611345,
                0.25164793296492566,
                2.2263994874250574
            ]
        },
        {
            "positions": [
                -2.4051320150547304,
                -1.170253982963426,
                0.8814227899797824,
                -0.644478626094894,
                0.2526757756388621,
                2.1390030721751128
            ]
        },
        {
            "positions": [
                -2.316045526859832,
                -1.2067610623655671,
                0.778284741344503,
                -0.5761478040286536,
                0.25370361831279864,
                2.0516066569251676
            ]
        },
        {
            "positions": [
                -2.2269590386649334,
                -1.2432681417677083,
                0.6751466927092235,
                -0.5078169819624131,
                0.25473146098673516,
                1.9642102416752225
            ]
        },
        {
            "positions": [
                -2.1378725504700347,
                -1.2797752211698492,
                0.5720086440739439,
                -0.4394861598961726,
                0.2557593036606717,
                1.8768138264252774
            ]
        },
        {
            "positions": [
                -2.048786062275136,
                -1.3162823005719901,
                0.4688705954386644,
                -0.37115533782993215,
                0.2567871463346082,
                1.7894174111753325
            ]
        },
        {
            "positions": [
                -1.9596995740802376,
                -1.3527893799741313,
                0.36573254680338496,
                -0.30282451576369174,
                0.2578149890085447,
                1.7020209959253876
            ]
        },
        {
            "positions": [
                -1.870613085885339,
                -1.3892964593762724,
                0.2625944981681053,
                -0.2344936936974512,
                0.2588428316824812,
                1.6146245806754425
            ]
        },
        {
            "positions": [
                -1.7815265976904404,
                -1.4258035387784134,
                0.1594564495328259,
                -0.1661628716312108,
                0.2598706743564177,
                1.5272281654254973
            ]
        },
        {
            "positions": [
                -1.692440109495542,
                -1.4623106181805543,
                0.05631840089754636,
                -0.09783204956497027,
                0.2608985170303542,
                1.4398317501755524
            ]
        },
        {
            "positions": [
                -1.6033536213006434,
                -1.4988176975826955,
                -0.04681964773773317,
                -0.029501227498729854,
                0.26192635970429073,
                1.3524353349256073
            ]
        },
        {
            "positions": [
                -1.5142671331057447,
                -1.5353247769848366,
                -0.1499576963730127,
                0.03882959456751067,
                0.26295420237822725,
                1.2650389196756622
            ]
        },
        {
            "positions": [
                -1.4251806449108462,
                -1.5718318563869775,
                -0.25309574500829224,
                0.10716041663375109,
                0.2639820450521637,
                1.1776425044257173
            ]
        },
        {
            "positions": [
                -1.3360941567159477,
                -1.6083389357891185,
                -0.35623379364357177,
                0.1754912386999915,
                0.26500988772610024,
                1.0902460891757724
            ]
        },
        {
            "positions": [
                -1.2470076685210492,
                -1.6448460151912596,
                -0.4593718422788511,
                0.24382206076623192,
                0.26603773040003675,
                1.0028496739258272
            ]
        },
        {
            "positions": [
                -1.1579211803261507,
                -1.6813530945934008,
                -0.5625098909141306,
                0.31215288283247233,
                0.2670655730739733,
                0.9154532586758823
            ]
        },
        {
            "positions": [
                -1.0688346921312517,
                -1.7178601739955417,
                -0.6656479395494104,
                0.38048370489871297,
                0.2680934157479098,
                0.828056843425937
            ]
        },
        {
            "positions": [
                -0.9797482039363532,
                -1.7543672533976826,
                -0.7687859881846899,
                0.4488145269649534,
                0.2691212584218463,
                0.7406604281759921
            ]
        },
        {
            "positions": [
                -0.8906617157414547,
                -1.7908743327998238,
                -0.8719240368199692,
                0.5171453490311938,
                0.2701491010957828,
                0.653264012926047
            ]
        },
        {
            "positions": [
                -0.8015752275465562,
                -1.827381412201965,
                -0.975062085455249,
                0.5854761710974342,
                0.2711769437697193,
                0.5658675976761021
            ]
        },
        {
            "positions": [
                -0.7124887393516577,
                -1.8638884916041059,
                -1.0782001340905283,
                0.6538069931636749,
                0.2722047864436558,
                0.47847118242615716
            ]
        },
        {
            "positions": [
                -0.623402251156759,
                -1.9003955710062468,
                -1.1813381827258076,
                0.7221378152299153,
                0.27323262911759233,
                0.39107476717621203
            ]
        },
        {
            "positions": [
                -0.5343157629618607,
                -1.936902650408388,
                -1.2844762313610874,
                0.7904686372961557,
                0.27426047179152885,
                0.3036783519262669
            ]
        },
        {
            "positions": [
                -0.44522927476696195,
                -1.973409729810529,
                -1.387614279996367,
                0.8587994593623963,
                0.27528831446546537,
                0.21628193667632178
            ]
        },
        {
            "positions": [
                -0.3561427865720632,
                -2.00991680921267,
                -1.4907523286316464,
                0.9271302814286367,
                0.27631615713940183,
                0.12888552142637666
            ]
        },
        {
            "positions": [
                -0.26705629837716494,
                -2.046423888614811,
                -1.5938903772669262,
                0.9954611034948772,
                0.27734399981333835,
                0.04148910617643198
            ]
        },
        {
            "positions": [
                -0.17796981018226618,
                -2.082930968016952,
                -1.6970284259022055,
                1.0637919255611175,
                0.27837184248727487,
                -0.045907309073513154
            ]
        },
        {
            "positions": [
                -0.10612064163320446,
                -2.057507476235758,
                -1.865424610070195,
                1.1116886432038222,
                0.2568901686895808,
                0.004925030523302704
            ]
        },
        {
            "positions": [
                -0.034271473084142745,
                -2.032083984454564,
                -2.0338207942381845,
                1.1595853608465267,
                0.2354084948918868,
                0.05575737012011856
            ]
        },
        {
            "positions": [
                0.03757769546491896,
                -2.0066604926733707,
                -2.2022169784061743,
                1.2074820784892315,
                0.21392682109419275,
                0.1065897097169344
            ]
        },
        {
            "positions": [
                0.10942686401398069,
                -1.9812370008921767,
                -2.3706131625741635,
                1.2553787961319363,
                0.19244514729649873,
                0.15742204931375028
            ]
        },
        {
            "positions": [
                0.18127603256304242,
                -1.9558135091109827,
                -2.5390093467421533,
                1.3032755137746408,
                0.1709634734988047,
                0.20825438891056613
            ]
        },
        {
            "positions": [
                0.08933265290368037,
                -2.0371018169550155,
                -2.498485348866646,
                1.3581295755476142,
                0.1741634766912812,
                0.15320073476429943
            ]
        },
        {
            "positions": [
                -0.0026107267556816915,
                -2.118390124799048,
                -2.4579613509911384,
                1.4129836373205875,
                0.17736347988375772,
                0.09814708061803275
            ]
        },
        {
            "positions": [
                -0.09455410641504375,
                -2.199678432643081,
                -2.417437353115631,
                1.4678376990935607,
                0.18056348307623427,
                0.04309342647176606
            ]
        },
        {
            "positions": [
                -0.18649748607440578,
                -2.2809667404871137,
                -2.3769133552401236,
                1.522691760866534,
                0.18376348626871078,
                -0.011960227674500648
            ]
        }
    ]
}