{
    "goal": {
        "global_pose": {
            "orientation": {
                "w": 0.005598929693374612,
                "x": 0.007748599140229565,
                "y": 0.7110244013736278,
                "z": -0.7031023480610252
            },
            "position": {
                "x": 0.1141497679147869,
                "y": -0.7141253447532654,
                "z": 0.3711530566215515
            }
        },
        "name": "move_to_auspresseinheit_B"
    },
    "id": "LBKPIECE_move_to_auspresseinheit_B_52",
    "joint_names": [
        "shoulder_pan_joint",
        "shoulder_lift_joint",
        "elbow_joint",
        "wrist_1_joint",
        "wrist_2_joint",
        "wrist_3_joint"
    ],
    "metrics": {
        "cart_traj_len": 0.5648292889306058,
        "distance_elbow_joint": 0.06622990987066535,
        "distance_shoulder_lift_joint": 0.29412927063257976,
        "distance_shoulder_pan_joint": 0.5779030376996981,
        "distance_wrist_1_joint": 0.3395977563511796,
        "distance_wrist_2_joint": 0.9881700632596566,
        "distance_wrist_3_joint": 0.00496426086752999,
        "smoothness": 2.5376526478085547e-16,
        "time": 0.52620581,
        "traj_len": 1.5069818508135093,
        "weighted_distance": 1.8996554003363888
    },
    "planner": "LBKPIECE",
    "start": {
        "state": {
            "elbow_joint": 2.0193061681459312,
            "shoulder_lift_joint": -1.1220205130644991,
            "shoulder_pan_joint": -1.0952072088045026,
            "wrist_1_joint": -0.8559671810662515,
            "wrist_2_joint": 0.4759638712940361,
            "wrist_3_joint": 3.159081874192446
        }
    },
    "waypoints": [
        {
            "positions": [
                -1.0952072088045026,
                -1.1220205130644991,
                2.0193061681459312,
                -0.8559671810662515,
                0.4759638712940361,
                3.159081874192446
            ]
        },
        {
            "positions": [
                -1.1915243817544523,
                -1.171042058169929,
                2.0082678498341537,
                -0.7993675550077215,
                0.6406588818373122,
                3.158254497381191
            ]
        },
        {
            "positions": [
                -1.287841554704402,
                -1.2200636032753591,
                1.997229531522376,
                -0.7427679289491916,
                0.8053538923805883,
                3.157427120569936
            ]
        },
        {
            "positions": [
                -1.3841587276543517,
                -1.269085148380789,
                1.9861912132105985,
                -0.6861683028906617,
                0.9700489029238644,
                3.1565997437586812
            ]
        },
        {
            "positions": [
                -1.4804759006043013,
                -1.318106693486219,
                1.975152894898821,
                -0.6295686768321318,
                1.1347439134671404,
                3.155772366947426
            ]
        },
        {
            "positions": [
                -1.576793073554251,
                -1.367128238591649,
                1.9641145765870434,
                -0.5729690507736018,
                1.2994389240104167,
                3.154944990136171
            ]
        },
        {
            "positions": [
                -1.6731102465042007,
                -1.416149783697079,
                1.9530762582752659,
                -0.5163694247150719,
                1.4641339345536928,
                3.154117613324916
            ]
        }
    ]
}