{
    "goal": {
        "global_pose": {
            "orientation": {
                "w": 0.7047431493862688,
                "x": -0.7094548369677653,
                "y": 0.0024358444001904,
                "z": -0.0022348060817251984
            },
            "position": {
                "x": -0.39052492380142206,
                "y": 0.3671506643295288,
                "z": 0.19426114857196808
            }
        },
        "name": "move_to_magneteinheit_D"
    },
    "id": "LBKPIECE_move_to_magneteinheit_D_115",
    "joint_names": [
        "shoulder_pan_joint",
        "shoulder_lift_joint",
        "elbow_joint",
        "wrist_1_joint",
        "wrist_2_joint",
        "wrist_3_joint"
    ],
    "metrics": {
        "cart_traj_len": 6.205390511635162,
        "distance_elbow_joint": 10.484203262340358,
        "distance_shoulder_lift_joint": 2.1304322987595663,
        "distance_shoulder_pan_joint": 3.8277205164702544,
        "distance_wrist_1_joint": 2.164567003557292,
        "distance_wrist_2_joint": 0.7930017475440833,
        "distance_wrist_3_joint": 4.43042366560776,
        "smoothness": 0.6733153209792679,
        "time": 1.006485954,
        "traj_len": 4.881633793544877,
        "weighted_distance": 5.970658638424763
    },
    "planner": "LBKPIECE",
    "start": {
        "state": {
            "elbow_joint": 0.7495348899011911,
            "shoulder_lift_joint": -0.6476975780737668,
            "shoulder_pan_joint": -2.711696901376276,
            "wrist_1_joint": -0.0750647808097303,
            "wrist_2_joint": 0.43296659715458535,
            "wrist_3_joint": 3.1361499051832418
        }
    },
    "waypoints": [
        {
            "positions": [
                -2.711696901376276,
                -0.6476975780737668,
                0.7495348899011911,
                -0.0750647808097303,
                0.43296659715458535,
                3.1361499051832418
            ]
        },
        {
            "positions": [
                -2.719004519209567,
                -0.6303541977764797,
                0.708282075677227,
                -0.053789041123160644,
                0.40200791334561303,
                3.050580889830467
            ]
        },
        {
            "positions": [
                -2.726312137042858,
                -0.6130108174791926,
                0.6670292614532629,
                -0.03251330143659099,
                0.37104922953664066,
                2.965011874477693
            ]
        },
        {
            "positions": [
                -2.7378358724101868,
                -0.581472947390982,
                0.5877353838120217,
                0.006701958664471555,
                0.3138429145083632,
                2.8014202161875463
            ]
        },
        {
            "positions": [
                -2.7493596077775155,
                -0.5499350773027715,
                0.5084415061707805,
                0.0459172187655341,
                0.25663659948008577,
                2.6378285578973997
            ]
        },
        {
            "positions": [
                -2.760883343144844,
                -0.5183972072145608,
                0.42914762852953936,
                0.08513247886659661,
                0.19943028445180833,
                2.4742368996072535
            ]
        },
        {
            "positions": [
                -2.7724070785121726,
                -0.48685933712635027,
                0.3498537508882981,
                0.12434773896765919,
                0.14222396942353088,
                2.310645241317107
            ]
        },
        {
            "positions": [
                -2.7839308138795014,
                -0.4553214670381397,
                0.27055987324705694,
                0.1635629990687217,
                0.08501765439525341,
                2.14705358302696
            ]
        },
        {
            "positions": [
                -2.7805742647132514,
                -0.4362955388522709,
                0.19773335556673488,
                0.19029680190720685,
                0.045191804741050765,
                2.001692046184651
            ]
        },
        {
            "positions": [
                -2.777217715547001,
                -0.4172696106664021,
                0.12490683788641282,
                0.217030604745692,
                0.005365955086848118,
                1.8563305093423421
            ]
        },
        {
            "positions": [
                -2.773861166380751,
                -0.3982436824805333,
                0.05208032020609074,
                0.24376440758417714,
                -0.034459894567354536,
                1.710968972500033
            ]
        },
        {
            "positions": [
                -2.7052878099145796,
                -0.4209496655439317,
                -0.01842935675684483,
                0.27047801596003573,
                -0.04747919908203643,
                1.617442331805917
            ]
        },
        {
            "positions": [
                -2.636714453448408,
                -0.44365564860733003,
                -0.0889390337197804,
                0.29719162433589436,
                -0.06049850359671834,
                1.523915691111801
            ]
        },
        {
            "positions": [
                -2.5681410969822367,
                -0.4663616316707284,
                -0.159448710682716,
                0.323905232711753,
                -0.07351780811140024,
                1.430389050417685
            ]
        },
        {
            "positions": [
                -2.437059244695681,
                -0.5262915159647467,
                -0.24479850316943555,
                0.35942371799969397,
                -0.07039560016587523,
                1.357073940124269
            ]
        },
        {
            "positions": [
                -2.3059773924091256,
                -0.5862214002587649,
                -0.3301482956561551,
                0.39494220328763496,
                -0.06727339222035024,
                1.283758829830853
            ]
        },
        {
            "positions": [
                -2.17489554012257,
                -0.646151284552783,
                -0.41549808814287464,
                0.430460688575576,
                -0.06415118427482523,
                1.210443719537437
            ]
        },
        {
            "positions": [
                -2.043813687836015,
                -0.7060811688468013,
                -0.5008478806295942,
                0.465979173863517,
                -0.061028976329300225,
                1.137128609244021
            ]
        },
        {
            "positions": [
                -1.9127318355494594,
                -0.7660110531408195,
                -0.5861976731163139,
                0.501497659151458,
                -0.057906768383775224,
                1.063813498950605
            ]
        },
        {
            "positions": [
                -1.7816499832629038,
                -0.8259409374348377,
                -0.6715474656030334,
                0.537016144439399,
                -0.054784560438250224,
                0.9904983886571889
            ]
        },
        {
            "positions": [
                -1.6505681309763482,
                -0.885870821728856,
                -0.7568972580897531,
                0.57253462972734,
                -0.051662352492725216,
                0.9171832783637728
            ]
        },
        {
            "positions": [
                -1.519486278689793,
                -0.9458007060228741,
                -0.8422470505764725,
                0.608053115015281,
                -0.048540144547200216,
                0.8438681680703568
            ]
        },
        {
            "positions": [
                -1.3884044264032374,
                -1.0057305903168925,
                -0.927596843063192,
                0.6435716003032221,
                -0.045417936601675216,
                0.7705530577769407
            ]
        },
        {
            "positions": [
                -1.2573225741166818,
                -1.0656604746109106,
                -1.0129466355499117,
                0.6790900855911631,
                -0.04229572865615021,
                0.6972379474835246
            ]
        },
        {
            "positions": [
                -1.1262407218301262,
                -1.1255903589049288,
                -1.0982964280366312,
                0.7146085708791041,
                -0.0391735207106252,
                0.6239228371901085
            ]
        },
        {
            "positions": [
                -0.9951588695435709,
                -1.185520243198947,
                -1.1836462205233507,
                0.7501270561670451,
                -0.03605131276510021,
                0.5506077268966927
            ]
        },
        {
            "positions": [
                -0.8640770172570154,
                -1.2454501274929652,
                -1.2689960130100704,
                0.7856455414549861,
                -0.0329291048195752,
                0.4772926166032766
            ]
        },
        {
            "positions": [
                -0.73299516497046,
                -1.3053800117869834,
                -1.35434580549679,
                0.8211640267429272,
                -0.029806896874050193,
                0.4039775063098605
            ]
        },
        {
            "positions": [
                -0.6019133126839045,
                -1.3653098960810017,
                -1.4396955979835095,
                0.8566825120308682,
                -0.026684688928525192,
                0.33066239601644454
            ]
        },
        {
            "positions": [
                -0.47083146039734913,
                -1.4252397803750199,
                -1.525045390470229,
                0.8922009973188091,
                -0.023562480983000192,
                0.25734728572302856
            ]
        },
        {
            "positions": [
                -0.3397496081107936,
                -1.485169664669038,
                -1.6103951829569485,
                0.9277194826067502,
                -0.02044027303747519,
                0.18403217542961237
            ]
        },
        {
            "positions": [
                -0.20866775582423822,
                -1.5450995489630563,
                -1.6957449754436682,
                0.9632379678946912,
                -0.017318065091950184,
                0.11071706513619639
            ]
        },
        {
            "positions": [
                -0.17326320057635927,
                -1.5850469383571497,
                -1.479542674993892,
                1.0119056162445261,
                -0.004913136540342488,
                0.1496642139613565
            ]
        },
        {
            "positions": [
                -0.13785864532848036,
                -1.6249943277512433,
                -1.2633403745441156,
                1.060573264594361,
                0.007491792011265208,
                0.18861136278651663
            ]
        },
        {
            "positions": [
                -0.10245409008060141,
                -1.6649417171453367,
                -1.0471380740943395,
                1.109240912944196,
                0.019896720562872908,
                0.22755851161167678
            ]
        },
        {
            "positions": [
                -0.06704953483272247,
                -1.7048891065394303,
                -0.8309357736445633,
                1.1579085612940312,
                0.0323016491144806,
                0.2665056604368369
            ]
        },
        {
            "positions": [
                -0.03164497958484355,
                -1.7448364959335236,
                -0.6147334731947871,
                1.2065762096438661,
                0.04470657766608831,
                0.305452809261997
            ]
        },
        {
            "positions": [
                0.0037595756630353916,
                -1.784783885327617,
                -0.3985311727450107,
                1.255243857993701,
                0.057111506217696,
                0.3443999580871572
            ]
        },
        {
            "positions": [
                0.03916413091091431,
                -1.8247312747217106,
                -0.18232887229523476,
                1.303911506343536,
                0.06951643476930369,
                0.38334710691231727
            ]
        },
        {
            "positions": [
                0.07456868615879328,
                -1.864678664115804,
                0.03387342815454164,
                1.352579154693371,
                0.08192136332091138,
                0.4222942557374774
            ]
        },
        {
            "positions": [
                0.10997324140667217,
                -1.9046260535098976,
                0.2500757286043178,
                1.401246803043206,
                0.09432629187251909,
                0.46124140456263757
            ]
        },
        {
            "positions": [
                0.1453777966545511,
                -1.944573442903991,
                0.466278029054094,
                1.4499144513930409,
                0.1067312204241268,
                0.5001885533877977
            ]
        },
        {
            "positions": [
                0.18078235190243006,
                -1.9845208322980845,
                0.6824803295038706,
                1.498582099742876,
                0.11913614897573449,
                0.5391357022129579
            ]
        },
        {
            "positions": [
                0.216186907150309,
                -2.024468221692178,
                0.8986826299536468,
                1.5472497480927108,
                0.13154107752734218,
                0.578082851038118
            ]
        },
        {
            "positions": [
                0.25159146239818786,
                -2.0644156110862713,
                1.1148849304034225,
                1.595917396442546,
                0.14394600607894986,
                0.617029999863278
            ]
        },
        {
            "positions": [
                0.28699601764606686,
                -2.104363000480365,
                1.3310872308531987,
                1.6445850447923807,
                0.15635093463055755,
                0.6559771486884381
            ]
        },
        {
            "positions": [
                0.32240057289394575,
                -2.144310389874458,
                1.5472895313029753,
                1.6932526931422158,
                0.16875586318216526,
                0.6949242975135983
            ]
        },
        {
            "positions": [
                0.35780512814182475,
                -2.1842577792685516,
                1.7634918317527515,
                1.7419203414920508,
                0.18116079173377295,
                0.7338714463387584
            ]
        },
        {
            "positions": [
                0.39320968338970363,
                -2.224205168662645,
                1.9796941322025274,
                1.7905879898418857,
                0.19356572028538066,
                0.7728185951639186
            ]
        },
        {
            "positions": [
                0.35706305172108954,
                -2.227643725974159,
                1.7069763641181959,
                1.771905850285281,
                0.19235110691779833,
                0.7263880141931064
            ]
        },
        {
            "positions": [
                0.3209164200524755,
                -2.231082283285673,
                1.4342585960338643,
                1.753223710728676,
                0.191136493550216,
                0.6799574332222942
            ]
        },
        {
            "positions": [
                0.28476978838386147,
                -2.234520840597187,
                1.1615408279495327,
                1.7345415711720713,
                0.1899218801826337,
                0.633526852251482
            ]
        },
        {
            "positions": [
                0.24862315671524737,
                -2.2379593979087007,
                0.8888230598652012,
                1.7158594316154665,
                0.18870726681505137,
                0.5870962712806698
            ]
        },
        {
            "positions": [
                0.2124765250466333,
                -2.241397955220214,
                0.6161052917808696,
                1.6971772920588615,
                0.18749265344746904,
                0.5406656903098576
            ]
        },
        {
            "positions": [
                0.17632989337801924,
                -2.244836512531728,
                0.343387523696538,
                1.6784951525022567,
                0.18627804007988674,
                0.4942351093390453
            ]
        },
        {
            "positions": [
                0.1401832617094052,
                -2.248275069843242,
                0.07066975561220645,
                1.6598130129456519,
                0.1850634267123044,
                0.4478045283682331
            ]
        },
        {
            "positions": [
                0.10403663004079111,
                -2.2517136271547558,
                -0.20204801247212512,
                1.641130873389047,
                0.18384881334472208,
                0.4013739473974209
            ]
        },
        {
            "positions": [
                0.06788999837217702,
                -2.2551521844662696,
                -0.47476578055645646,
                1.6224487338324423,
                0.18263419997713976,
                0.3549433664266087
            ]
        },
        {
            "positions": [
                0.03174336670356298,
                -2.2585907417777835,
                -0.7474835486407883,
                1.6037665942758375,
                0.18141958660955743,
                0.30851278545579647
            ]
        },
        {
            "positions": [
                -0.004403264965051057,
                -2.2620292990892974,
                -1.02020131672512,
                1.5850844547192326,
                0.18020497324197512,
                0.2620822044849842
            ]
        },
        {
            "positions": [
                -0.04054989663366515,
                -2.265467856400811,
                -1.2929190848094514,
                1.5664023151626276,
                0.1789903598743928,
                0.215651623514172
            ]
        },
        {
            "positions": [
                -0.07669652830227924,
                -2.2689064137123247,
                -1.5656368528937827,
                1.5477201756060228,
                0.17777574650681047,
                0.1692210425433598
            ]
        },
        {
            "positions": [
                -0.11284315997089323,
                -2.2723449710238386,
                -1.8383546209781145,
                1.529038036049418,
                0.17656113313922817,
                0.12279046157254758
            ]
        },
        {
            "positions": [
                -0.14898979163950732,
                -2.2757835283353525,
                -2.1110723890624463,
                1.5103558964928132,
                0.17534651977164584,
                0.07635988060173537
            ]
        },
        {
            "positions": [
                -0.18513642330812138,
                -2.2792220856468663,
                -2.3837901571467777,
                1.4916737569362084,
                0.1741319064040635,
                0.029929299630923195
            ]
        }
    ]
}