{
    "goal": {
        "global_pose": {
            "orientation": {
                "w": 0.5084816217422485,
                "x": -0.49083608388900757,
                "y": 0.5182115435600281,
                "z": -0.4816462993621826
            },
            "position": {
                "x": 0.5540239810943604,
                "y": 0.030875300988554955,
                "z": 0.16403168439865112
            }
        },
        "name": "move_to_storage_A"
    },
    "id": "LBKPIECE_move_to_storage_A_22",
    "joint_names": [
        "shoulder_pan_joint",
        "shoulder_lift_joint",
        "elbow_joint",
        "wrist_1_joint",
        "wrist_2_joint",
        "wrist_3_joint"
    ],
    "metrics": {
        "cart_traj_len": 0.352144649288997,
        "distance_elbow_joint": 0.44877522846148454,
        "distance_shoulder_lift_joint": 0.23420729638902515,
        "distance_shoulder_pan_joint": 0.4612731243256174,
        "distance_wrist_1_joint": 0.2368566625202786,
        "distance_wrist_2_joint": 1.0935372235759462,
        "distance_wrist_3_joint": 0.09678927254522884,
        "smoothness": 1.1102230244806396e-15,
        "time": 0.30513503200000003,
        "traj_len": 1.6035706432264156,
        "weighted_distance": 2.0237122421441898
    },
    "planner": "LBKPIECE",
    "start": {
        "state": {
            "elbow_joint": 1.971548880431181,
            "shoulder_lift_joint": -1.1394869514688781,
            "shoulder_pan_joint": 0.12281150262730567,
            "wrist_1_joint": -0.7804693444481463,
            "wrist_2_joint": 0.12958644648617612,
            "wrist_3_joint": 3.0906942077768043
        }
    },
    "waypoints": [
        {
            "positions": [
                0.12281150262730567,
                -1.1394869514688781,
                1.971548880431181,
                -0.7804693444481463,
                0.12958644648617612,
                3.0906942077768043
            ]
        },
        {
            "positions": [
                0.056915342009360326,
                -1.1729451366673103,
                2.03565962735425,
                -0.8143060105224719,
                0.28580604985416846,
                3.104521246711837
            ]
        },
        {
            "positions": [
                -0.008980818608585017,
                -1.2064033218657424,
                2.0997703742773193,
                -0.8481426765967973,
                0.44202565322216075,
                3.11834828564687
            ]
        },
        {
            "positions": [
                -0.07487697922653036,
                -1.2398615070641745,
                2.163881121200389,
                -0.8819793426711229,
                0.598245256590153,
                3.1321753245819024
            ]
        },
        {
            "positions": [
                -0.1407731398444757,
                -1.2733196922626067,
                2.227991868123458,
                -0.9158160087454483,
                0.7544648599581454,
                3.146002363516935
            ]
        },
        {
            "positions": [
                -0.20666930046242105,
                -1.306777877461039,
                2.292102615046527,
                -0.9496526748197739,
                0.9106844633261377,
                3.1598294024519675
            ]
        },
        {
            "positions": [
                -0.2725654610803664,
                -1.3402360626594712,
                2.3562133619695964,
                -0.9834893408940993,
                1.0669040666941298,
                3.1736564413870005
            ]
        },
        {
            "positions": [
                -0.33846162169831173,
                -1.3736942478579033,
                2.4203241088926655,
                -1.017326006968425,
                1.2231236700621224,
                3.187483480322033
            ]
        }
    ]
}