{
    "goal": {
        "global_pose": {
            "orientation": {
                "w": 0.7047431468963623,
                "x": -0.7094548344612122,
                "y": 0.0024358443915843964,
                "z": -0.0022348060738295317
            },
            "position": {
                "x": 0.6094750761985779,
                "y": 0.3671506643295288,
                "z": 0.19426114857196808
            }
        },
        "name": "move_to_magneteinheit_A"
    },
    "id": "LBKPIECE_move_to_magneteinheit_A_132",
    "joint_names": [
        "shoulder_pan_joint",
        "shoulder_lift_joint",
        "elbow_joint",
        "wrist_1_joint",
        "wrist_2_joint",
        "wrist_3_joint"
    ],
    "metrics": {
        "cart_traj_len": 1.9755271466722257,
        "distance_elbow_joint": 3.5867039331238857,
        "distance_shoulder_lift_joint": 0.7908829183409731,
        "distance_shoulder_pan_joint": 1.2414785087226146,
        "distance_wrist_1_joint": 1.1457556561679727,
        "distance_wrist_2_joint": 1.4464302806533296,
        "distance_wrist_3_joint": 1.9345833659230394,
        "smoothness": 3.9474596558118316e-16,
        "time": 0.32601377099999995,
        "traj_len": 3.185252684314357,
        "weighted_distance": 4.075191692620016
    },
    "planner": "LBKPIECE",
    "start": {
        "state": {
            "elbow_joint": -1.5739458827952972,
            "shoulder_lift_joint": 0.006533473998580023,
            "shoulder_pan_joint": -1.1188671628667068,
            "wrist_1_joint": 3.138208179676308,
            "wrist_2_joint": -1.5706037135050406,
            "wrist_3_joint": -2.0226958329764257
        }
    },
    "waypoints": [
        {
            "positions": [
                -1.1188671628667068,
                0.006533473998580023,
                -1.5739458827952972,
                3.138208179676308,
                -1.5706037135050406,
                -2.0226958329764257
            ]
        },
        {
            "positions": [
                -1.0711179894542986,
                -0.023885099783765105,
                -1.4359957315213017,
                3.0941406544390784,
                -1.5149717796337587,
                -1.9482887804409241
            ]
        },
        {
            "positions": [
                -1.0233688160418903,
                -0.05430367356611023,
                -1.2980455802473059,
                3.0500731292018486,
                -1.4593398457624767,
                -1.8738817279054227
            ]
        },
        {
            "positions": [
                -0.9756196426294821,
                -0.08472224734845536,
                -1.1600954289733103,
                3.006005603964619,
                -1.4037079118911948,
                -1.7994746753699211
            ]
        },
        {
            "positions": [
                -0.9278704692170738,
                -0.11514082113080049,
                -1.0221452776993147,
                2.9619380787273895,
                -1.348075978019913,
                -1.7250676228344197
            ]
        },
        {
            "positions": [
                -0.8801212958046656,
                -0.1455593949131456,
                -0.8841951264253192,
                2.9178705534901597,
                -1.2924440441486311,
                -1.650660570298918
            ]
        },
        {
            "positions": [
                -0.8323721223922573,
                -0.17597796869549073,
                -0.7462449751513236,
                2.87380302825293,
                -1.236812110277349,
                -1.5762535177634167
            ]
        },
        {
            "positions": [
                -0.7846229489798491,
                -0.20639654247783581,
                -0.608294823877328,
                2.8297355030157,
                -1.1811801764060672,
                -1.5018464652279153
            ]
        },
        {
            "positions": [
                -0.7368737755674408,
                -0.23681511626018098,
                -0.47034467260333224,
                2.7856679777784703,
                -1.1255482425347854,
                -1.4274394126924137
            ]
        },
        {
            "positions": [
                -0.6891246021550326,
                -0.2672336900425261,
                -0.3323945213293369,
                2.7416004525412405,
                -1.0699163086635033,
                -1.353032360156912
            ]
        },
        {
            "positions": [
                -0.6413754287426243,
                -0.29765226382487125,
                -0.1944443700553411,
                2.697532927304011,
                -1.0142843747922214,
                -1.2786253076214105
            ]
        },
        {
            "positions": [
                -0.5936262553302161,
                -0.32807083760721634,
                -0.05649421878134553,
                2.6534654020667814,
                -0.9586524409209396,
                -1.204218255085909
            ]
        },
        {
            "positions": [
                -0.5458770819178078,
                -0.35848941138956153,
                0.08145593249265004,
                2.6093978768295516,
                -0.9030205070496576,
                -1.1298112025504077
            ]
        },
        {
            "positions": [
                -0.49812790850539956,
                -0.3889079851719066,
                0.2194060837666456,
                2.565330351592322,
                -0.8473885731783758,
                -1.055404150014906
            ]
        },
        {
            "positions": [
                -0.4503787350929913,
                -0.4193265589542517,
                0.3573562350406412,
                2.521262826355092,
                -0.791756639307094,
                -0.9809970974794047
            ]
        },
        {
            "positions": [
                -0.40262956168058317,
                -0.44974513273659683,
                0.49530638631463675,
                2.4771953011178622,
                -0.7361247054358121,
                -0.906590044943903
            ]
        },
        {
            "positions": [
                -0.3548803882681748,
                -0.480163706518942,
                0.6332565375886328,
                2.4331277758806324,
                -0.68049277156453,
                -0.8321829924084014
            ]
        },
        {
            "positions": [
                -0.30713121485576655,
                -0.510582280301287,
                0.7712066888626279,
                2.3890602506434027,
                -0.6248608376932482,
                -0.7577759398729
            ]
        },
        {
            "positions": [
                -0.2593820414433583,
                -0.5410008540836322,
                0.9091568401366235,
                2.3449927254061733,
                -0.5692289038219662,
                -0.6833688873373984
            ]
        },
        {
            "positions": [
                -0.21163286803095005,
                -0.5714194278659773,
                1.047106991410619,
                2.3009252001689435,
                -0.5135969699506844,
                -0.608961834801897
            ]
        },
        {
            "positions": [
                -0.1638836946185418,
                -0.6018380016483225,
                1.185057142684615,
                2.2568576749317137,
                -0.4579650360794023,
                -0.5345547822663954
            ]
        },
        {
            "positions": [
                -0.11613452120613355,
                -0.6322565754306676,
                1.3230072939586106,
                2.212790149694484,
                -0.40233310220812046,
                -0.460147729730894
            ]
        },
        {
            "positions": [
                -0.06838534779372529,
                -0.6626751492130126,
                1.4609574452326062,
                2.1687226244572546,
                -0.3467011683368386,
                -0.3857406771953924
            ]
        },
        {
            "positions": [
                -0.02063617438131704,
                -0.6930937229953578,
                1.5989075965066013,
                2.124655099220025,
                -0.29106923446555677,
                -0.311333624659891
            ]
        },
        {
            "positions": [
                0.02711299903109121,
                -0.723512296777703,
                1.7368577477805973,
                2.080587573982795,
                -0.2354373005942747,
                -0.2369265721243894
            ]
        },
        {
            "positions": [
                0.07486217244349946,
                -0.753930870560048,
                1.8748078990545929,
                2.0365200487455652,
                -0.17980536672299285,
                -0.16251951958888777
            ]
        },
        {
            "positions": [
                0.12261134585590767,
                -0.7843494443423932,
                2.0127580503285882,
                1.9924525235083355,
                -0.12417343285171101,
                -0.08811246705338627
            ]
        }
    ]
}