{
    "goal": {
        "global_pose": {
            "orientation": {
                "w": 0.5084816262002911,
                "x": -0.4908360881923452,
                "y": 0.5182115481033761,
                "z": -0.48164630358495003
            },
            "position": {
                "x": 0.5540239810943604,
                "y": -0.46912469901144505,
                "z": 0.16403168439865112
            }
        },
        "name": "move_to_storage_B"
    },
    "id": "LBKPIECE_move_to_storage_B_78",
    "joint_names": [
        "shoulder_pan_joint",
        "shoulder_lift_joint",
        "elbow_joint",
        "wrist_1_joint",
        "wrist_2_joint",
        "wrist_3_joint"
    ],
    "metrics": {
        "cart_traj_len": 0.690762880998965,
        "distance_elbow_joint": 0.3480905108735943,
        "distance_shoulder_lift_joint": 0.45822923565822826,
        "distance_shoulder_pan_joint": 0.35322469894856146,
        "distance_wrist_1_joint": 2.9788779647139987,
        "distance_wrist_2_joint": 2.700806224861435,
        "distance_wrist_3_joint": 3.1444318009283934,
        "smoothness": 0.03998034709359999,
        "time": 0.705939621,
        "traj_len": 3.1596930920556527,
        "weighted_distance": 4.685318369910035
    },
    "planner": "LBKPIECE",
    "start": {
        "state": {
            "elbow_joint": 1.6649325340416963,
            "shoulder_lift_joint": -0.6616387945129425,
            "shoulder_pan_joint": -0.9139837929255878,
            "wrist_1_joint": 2.1467571094334352,
            "wrist_2_joint": -2.234195976750228,
            "wrist_3_joint": 0.005470921511140723
        }
    },
    "waypoints": [
        {
            "positions": [
                -0.9139837929255878,
                -0.6616387945129425,
                1.6649325340416963,
                2.1467571094334352,
                -2.234195976750228,
                0.005470921511140723
            ]
        },
        {
            "positions": [
                -0.8290490984252683,
                -0.758309035191978,
                1.6704717531176707,
                2.1172197303013665,
                -2.1834462247492032,
                0.0007078969361645204
            ]
        },
        {
            "positions": [
                -0.8397806986031979,
                -0.7727713949911457,
                1.6841738047895756,
                1.9992461068780893,
                -2.077443965834787,
                -0.12487885411797217
            ]
        },
        {
            "positions": [
                -0.8505122987811277,
                -0.7872337547903134,
                1.6978758564614802,
                1.881272483454812,
                -1.9714417069203705,
                -0.25046560517210886
            ]
        },
        {
            "positions": [
                -0.8612438989590573,
                -0.8016961145894811,
                1.711577908133385,
                1.763298860031535,
                -1.865439448005954,
                -0.3760523562262455
            ]
        },
        {
            "positions": [
                -0.871975499136987,
                -0.8161584743886489,
                1.72527995980529,
                1.6453252366082576,
                -1.7594371890915377,
                -0.5016391072803823
            ]
        },
        {
            "positions": [
                -0.8827070993149166,
                -0.8306208341878165,
                1.7389820114771948,
                1.5273516131849805,
                -1.6534349301771212,
                -0.6272258583345189
            ]
        },
        {
            "positions": [
                -0.8934386994928464,
                -0.8450831939869843,
                1.7526840631490994,
                1.4093779897617034,
                -1.5474326712627047,
                -0.7528126093886556
            ]
        },
        {
            "positions": [
                -0.904170299670776,
                -0.859545553786152,
                1.7663861148210043,
                1.291404366338426,
                -1.4414304123482884,
                -0.8783993604427924
            ]
        },
        {
            "positions": [
                -0.9149018998487057,
                -0.8740079135853197,
                1.7800881664929091,
                1.1734307429151487,
                -1.3354281534338721,
                -1.003986111496929
            ]
        },
        {
            "positions": [
                -0.9256335000266354,
                -0.8884702733844874,
                1.7937902181648138,
                1.0554571194918718,
                -1.2294258945194556,
                -1.1295728625510657
            ]
        },
        {
            "positions": [
                -0.9363651002045651,
                -0.9029326331836551,
                1.8074922698367186,
                0.9374834960685945,
                -1.123423635605039,
                -1.2551596136052023
            ]
        },
        {
            "positions": [
                -0.9470967003824947,
                -0.9173949929828228,
                1.8211943215086235,
                0.8195098726453174,
                -1.0174213766906228,
                -1.380746364659339
            ]
        },
        {
            "positions": [
                -0.9578283005604245,
                -0.9318573527819906,
                1.8348963731805283,
                0.70153624922204,
                -0.9114191177762063,
                -1.5063331157134756
            ]
        },
        {
            "positions": [
                -0.9685599007383541,
                -0.9463197125811582,
                1.848598424852433,
                0.583562625798763,
                -0.80541685886179,
                -1.6319198667676125
            ]
        },
        {
            "positions": [
                -0.9792915009162838,
                -0.960782072380326,
                1.8623004765243378,
                0.4655890023754856,
                -0.6994145999473735,
                -1.7575066178217493
            ]
        },
        {
            "positions": [
                -0.9900231010942134,
                -0.9752444321794936,
                1.8760025281962427,
                0.3476153789522085,
                -0.5934123410329573,
                -1.8830933688758857
            ]
        },
        {
            "positions": [
                -1.0007547012721432,
                -0.9897067919786614,
                1.8897045798681473,
                0.22964175552893118,
                -0.48741008211854076,
                -2.0086801199300224
            ]
        },
        {
            "positions": [
                -1.0114863014500728,
                -1.004169151777829,
                1.9034066315400522,
                0.11166813210565385,
                -0.38140782320412425,
                -2.1342668709841592
            ]
        },
        {
            "positions": [
                -1.0222179016280024,
                -1.0186315115769968,
                1.917108683211957,
                -0.006305491317622813,
                -0.27540556428970797,
                -2.2598536220382957
            ]
        },
        {
            "positions": [
                -1.0329495018059323,
                -1.0330938713761646,
                1.930810734883862,
                -0.12427911474090036,
                -0.1694033053752917,
                -2.385440373092432
            ]
        },
        {
            "positions": [
                -1.0436811019838619,
                -1.0475562311753321,
                1.9445127865557668,
                -0.24225273816417747,
                -0.06340104646087497,
                -2.511027124146569
            ]
        },
        {
            "positions": [
                -1.0544127021617915,
                -1.0620185909745,
                1.9582148382276714,
                -0.3602263615874546,
                0.042601212453541315,
                -2.6366138752007053
            ]
        },
        {
            "positions": [
                -1.0651443023397211,
                -1.0764809507736677,
                1.9719168898995763,
                -0.4781999850107317,
                0.1486034713679576,
                -2.762200626254842
            ]
        },
        {
            "positions": [
                -1.075875902517651,
                -1.0909433105728352,
                1.9856189415714809,
                -0.5961736084340092,
                0.2546057302823743,
                -2.887787377308979
            ]
        },
        {
            "positions": [
                -1.0866075026955806,
                -1.105405670372003,
                1.9993209932433857,
                -0.7141472318572863,
                0.3606079891967906,
                -3.0133741283631155
            ]
        },
        {
            "positions": [
                -1.0973391028735102,
                -1.1198680301711708,
                2.0130230449152906,
                -0.8321208552805635,
                0.4666102481112069,
                -3.1389608794172523
            ]
        }
    ]
}