{
    "goal": {
        "global_pose": {
            "orientation": {
                "w": -0.4816463035849501,
                "x": 0.5182115481033762,
                "y": 0.4908360881923453,
                "z": -0.5084816262002911
            },
            "position": {
                "x": -0.8240239810943604,
                "y": 0.19912469901144506,
                "z": 0.16403168439865112
            }
        },
        "name": "move_to_storage_D"
    },
    "id": "LBKPIECE_move_to_storage_D_45",
    "joint_names": [
        "shoulder_pan_joint",
        "shoulder_lift_joint",
        "elbow_joint",
        "wrist_1_joint",
        "wrist_2_joint",
        "wrist_3_joint"
    ],
    "metrics": {
        "cart_traj_len": 0.639759913160854,
        "distance_elbow_joint": 0.5549843673209831,
        "distance_shoulder_lift_joint": 0.15459230020518344,
        "distance_shoulder_pan_joint": 0.5532049312091617,
        "distance_wrist_1_joint": 3.8630834315783287,
        "distance_wrist_2_joint": 1.7746786658238236,
        "distance_wrist_3_joint": 3.1184023698627668,
        "smoothness": 0.18261919768912002,
        "time": 0.37916404699999995,
        "traj_len": 3.1652718786859757,
        "weighted_distance": 4.679050427504276
    },
    "planner": "LBKPIECE",
    "start": {
        "state": {
            "elbow_joint": -2.384821990628643,
            "shoulder_lift_joint": -2.278805467437664,
            "shoulder_pan_joint": -0.18546946439364564,
            "wrist_1_joint": 1.4845938187801415,
            "wrist_2_joint": 0.178987772454074,
            "wrist_3_joint": 0.03710569632802521
        }
    },
    "waypoints": [
        {
            "positions": [
                -0.18546946439364564,
                -2.278805467437664,
                -2.384821990628643,
                1.4845938187801415,
                0.178987772454074,
                0.03710569632802521
            ]
        },
        {
            "positions": [
                -0.1376692624326157,
                -2.279486294574946,
                -2.3802932165601964,
                1.50466552986958,
                0.16056837411371655,
                0.029174384777395142
            ]
        },
        {
            "positions": [
                0.01467840053408001,
                -2.220668807220774,
                -2.3079250652566303,
                1.4836503748968346,
                0.11193943683787524,
                -0.0028602454209280224
            ]
        },
        {
            "positions": [
                0.16702606350077576,
                -2.161851319866602,
                -2.235556913953064,
                1.4626352199240893,
                0.06331049956203394,
                -0.03489487561925119
            ]
        },
        {
            "positions": [
                0.15866317169599492,
                -2.1603397991016204,
                -2.2186519435095056,
                1.304260994484781,
                -0.005814558476790382,
                -0.16182828386572995
            ]
        },
        {
            "positions": [
                0.15030027989121408,
                -2.158828278336639,
                -2.2017469730659474,
                1.1458867690454726,
                -0.0749396165156147,
                -0.2887616921122087
            ]
        },
        {
            "positions": [
                0.14193738808643325,
                -2.1573167575716576,
                -2.1848420026223887,
                0.9875125436061643,
                -0.14406467455443903,
                -0.4156951003586875
            ]
        },
        {
            "positions": [
                0.1335744962816524,
                -2.155805236806676,
                -2.16793703217883,
                0.829138318166856,
                -0.21318973259326335,
                -0.5426285086051662
            ]
        },
        {
            "positions": [
                0.12521160447687157,
                -2.1542937160416944,
                -2.151032061735272,
                0.6707640927275477,
                -0.2823147906320877,
                -0.6695619168516451
            ]
        },
        {
            "positions": [
                0.11684871267209074,
                -2.1527821952767128,
                -2.134127091291713,
                0.5123898672882393,
                -0.351439848670912,
                -0.7964953250981238
            ]
        },
        {
            "positions": [
                0.10848582086730989,
                -2.151270674511731,
                -2.1172221208481545,
                0.35401564184893086,
                -0.42056490670973634,
                -0.9234287333446026
            ]
        },
        {
            "positions": [
                0.10012292906252906,
                -2.1497591537467495,
                -2.1003171504045963,
                0.19564141640962274,
                -0.48968996474856064,
                -1.050362141591081
            ]
        },
        {
            "positions": [
                0.09176003725774821,
                -2.148247632981768,
                -2.0834121799610377,
                0.03726719097031439,
                -0.5588150227873849,
                -1.1772955498375601
            ]
        },
        {
            "positions": [
                0.08339714545296738,
                -2.1467361122167867,
                -2.066507209517479,
                -0.12110703446899396,
                -0.6279400808262093,
                -1.304228958084039
            ]
        },
        {
            "positions": [
                0.07503425364818654,
                -2.145224591451805,
                -2.049602239073921,
                -0.2794812599083023,
                -0.6970651388650335,
                -1.4311623663305175
            ]
        },
        {
            "positions": [
                0.0666713618434057,
                -2.1437130706868235,
                -2.032697268630362,
                -0.43785548534761065,
                -0.7661901969038579,
                -1.5580957745769963
            ]
        },
        {
            "positions": [
                0.05830847003862487,
                -2.142201549921842,
                -2.0157922981868035,
                -0.5962297107869188,
                -0.8353152549426822,
                -1.685029182823475
            ]
        },
        {
            "positions": [
                0.04994557823384402,
                -2.1406900291568602,
                -1.998887327743245,
                -0.7546039362262276,
                -0.9044403129815066,
                -1.811962591069954
            ]
        },
        {
            "positions": [
                0.04158268642906318,
                -2.139178508391879,
                -1.9819823572996866,
                -0.9129781616655355,
                -0.9735653710203309,
                -1.9388959993164325
            ]
        },
        {
            "positions": [
                0.03321979462428237,
                -2.1376669876268974,
                -1.9650773868561282,
                -1.0713523871048438,
                -1.0426904290591552,
                -2.0658294075629113
            ]
        },
        {
            "positions": [
                0.02485690281950151,
                -2.136155466861916,
                -1.9481724164125696,
                -1.2297266125441526,
                -1.1118154870979795,
                -2.1927628158093904
            ]
        },
        {
            "positions": [
                0.016494011014720672,
                -2.134643946096934,
                -1.9312674459690111,
                -1.3881008379834605,
                -1.1809405451368038,
                -2.3196962240558694
            ]
        },
        {
            "positions": [
                0.008131119209939836,
                -2.1331324253319526,
                -1.9143624755254527,
                -1.5464750634227689,
                -1.250065603175628,
                -2.446629632302348
            ]
        },
        {
            "positions": [
                -0.000231772594841001,
                -2.131620904566971,
                -1.897457505081894,
                -1.7048492888620772,
                -1.3191906612144526,
                -2.573563040548827
            ]
        },
        {
            "positions": [
                -0.008594664399621837,
                -2.1301093838019893,
                -1.8805525346383356,
                -1.8632235143013856,
                -1.388315719253277,
                -2.7004964487953056
            ]
        },
        {
            "positions": [
                -0.016957556204402674,
                -2.128597863037008,
                -1.8636475641947772,
                -2.021597739740694,
                -1.457440777292101,
                -2.827429857041784
            ]
        },
        {
            "positions": [
                -0.02532044800918351,
                -2.1270863422720265,
                -1.8467425937512185,
                -2.1799719651800022,
                -1.5265658353309255,
                -2.954363265288263
            ]
        },
        {
            "positions": [
                -0.03368333981396434,
                -2.125574821507045,
                -1.82983762330766,
                -2.3383461906193106,
                -1.5956908933697498,
                -3.081296673534742
            ]
        }
    ]
}