{
    "goal": {
        "global_pose": {
            "orientation": {
                "w": 0.7031023502349854,
                "x": -0.7110244035720825,
                "y": 0.007748599164187908,
                "z": 0.005598929710686207
            },
            "position": {
                "x": 0.11585023208521307,
                "y": 0.44412534475326537,
                "z": 0.3711530566215515
            }
        },
        "name": "move_to_auspresseinheit_A"
    },
    "id": "LBKPIECE_move_to_auspresseinheit_A_101",
    "joint_names": [
        "shoulder_pan_joint",
        "shoulder_lift_joint",
        "elbow_joint",
        "wrist_1_joint",
        "wrist_2_joint",
        "wrist_3_joint"
    ],
    "metrics": {
        "cart_traj_len": 3.5788386537520083,
        "distance_elbow_joint": 4.523789772717374,
        "distance_shoulder_lift_joint": 0.5305534712470812,
        "distance_shoulder_pan_joint": 4.4151339929994124,
        "distance_wrist_1_joint": 1.9289826520472382,
        "distance_wrist_2_joint": 3.4613008181706877,
        "distance_wrist_3_joint": 0.3268982968332921,
        "smoothness": 0.8655290294800512,
        "time": 0.404250447,
        "traj_len": 3.8970064157010422,
        "weighted_distance": 4.6076826136247275
    },
    "planner": "LBKPIECE",
    "start": {
        "state": {
            "elbow_joint": 2.4225746994637096,
            "shoulder_lift_joint": -1.373653595662188,
            "shoulder_pan_joint": -0.3378633848294565,
            "wrist_1_joint": -1.0288595594406726,
            "wrist_2_joint": 1.2330228066703421,
            "wrist_3_joint": 3.189163495502006
        }
    },
    "waypoints": [
        {
            "positions": [
                -0.3378633848294565,
                -1.373653595662188,
                2.4225746994637096,
                -1.0288595594406726,
                1.2330228066703421,
                3.189163495502006
            ]
        },
        {
            "positions": [
                -0.431579982821457,
                -1.3932686074732592,
                2.29600863150541,
                -1.063414122382877,
                1.1219949628149641,
                3.1788172267230888
            ]
        },
        {
            "positions": [
                -0.5252965808134575,
                -1.4128836192843302,
                2.1694425635471095,
                -1.0979686853250812,
                1.0109671189595861,
                3.1684709579441717
            ]
        },
        {
            "positions": [
                -0.619013178805458,
                -1.4324986310954013,
                2.0428764955888097,
                -1.1325232482672856,
                0.8999392751042083,
                3.1581246891652546
            ]
        },
        {
            "positions": [
                -0.7127297767974585,
                -1.4521136429064725,
                1.9163104276305098,
                -1.1670778112094897,
                0.7889114312488303,
                3.1477784203863375
            ]
        },
        {
            "positions": [
                -0.806446374789459,
                -1.4717286547175437,
                1.7897443596722098,
                -1.201632374151694,
                0.6778835873934523,
                3.13743215160742
            ]
        },
        {
            "positions": [
                -0.9001629727814595,
                -1.4913436665286146,
                1.66317829171391,
                -1.2361869370938983,
                0.5668557435380744,
                3.127085882828503
            ]
        },
        {
            "positions": [
                -0.99387957077346,
                -1.5109586783396858,
                1.53661222375561,
                -1.2707415000361026,
                0.45582789968269644,
                3.1167396140495858
            ]
        },
        {
            "positions": [
                -1.0875961687654605,
                -1.530573690150757,
                1.41004615579731,
                -1.3052960629783068,
                0.34480005582731854,
                3.1063933452706687
            ]
        },
        {
            "positions": [
                -1.181312766757461,
                -1.5501887019618281,
                1.28348008783901,
                -1.3398506259205112,
                0.23377221197194054,
                3.0960470764917516
            ]
        },
        {
            "positions": [
                -1.2750293647494615,
                -1.569803713772899,
                1.15691401988071,
                -1.3744051888627156,
                0.12274436811656253,
                3.0857008077128345
            ]
        },
        {
            "positions": [
                -1.3687459627414622,
                -1.5894187255839702,
                1.03034795192241,
                -1.4089597518049197,
                0.011716524261184524,
                3.0753545389339174
            ]
        },
        {
            "positions": [
                -1.4624625607334625,
                -1.6090337373950414,
                0.9037818839641103,
                -1.4435143147471239,
                -0.09931131959419326,
                3.0650082701550003
            ]
        },
        {
            "positions": [
                -1.5561791587254632,
                -1.6286487492061124,
                0.7772158160058102,
                -1.4780688776893283,
                -0.21033916344957126,
                3.0546620013760832
            ]
        },
        {
            "positions": [
                -1.6498957567174637,
                -1.6482637610171835,
                0.6506497480475102,
                -1.5126234406315326,
                -0.32136700730494927,
                3.0443157325971657
            ]
        },
        {
            "positions": [
                -1.7436123547094642,
                -1.6678787728282547,
                0.5240836800892101,
                -1.547178003573737,
                -0.4323948511603273,
                3.0339694638182486
            ]
        },
        {
            "positions": [
                -1.8373289527014647,
                -1.6874937846393259,
                0.3975176121309105,
                -1.5817325665159412,
                -0.5434226950157051,
                3.0236231950393315
            ]
        },
        {
            "positions": [
                -1.9310455506934652,
                -1.7071087964503968,
                0.27095154417261025,
                -1.6162871294581453,
                -0.6544505388710831,
                3.0132769262604144
            ]
        },
        {
            "positions": [
                -2.0247621486854657,
                -1.726723808261468,
                0.14438547621431042,
                -1.6508416924003497,
                -0.7654783827264611,
                3.0029306574814973
            ]
        },
        {
            "positions": [
                -1.8927515672702737,
                -1.7353705588441084,
                0.2532051282106625,
                -1.5883201976588082,
                -0.6935210397827358,
                3.003326150091892
            ]
        },
        {
            "positions": [
                -1.7607409858550818,
                -1.7440173094267488,
                0.36202478020701456,
                -1.5257987029172666,
                -0.6215636968390106,
                3.0037216427022866
            ]
        },
        {
            "positions": [
                -1.6287304044398898,
                -1.7526640600093892,
                0.4708444322033666,
                -1.4632772081757248,
                -0.5496063538952854,
                3.0041171353126814
            ]
        },
        {
            "positions": [
                -1.4967198230246979,
                -1.7613108105920297,
                0.5796640841997187,
                -1.4007557134341833,
                -0.47764901095156015,
                3.0045126279230763
            ]
        },
        {
            "positions": [
                -1.3647092416095057,
                -1.76995756117467,
                0.6884837361960707,
                -1.3382342186926417,
                -0.40569166800783496,
                3.004908120533471
            ]
        },
        {
            "positions": [
                -1.232698660194314,
                -1.7786043117573105,
                0.7973033881924227,
                -1.2757127239511,
                -0.33373432506410977,
                3.005303613143866
            ]
        },
        {
            "positions": [
                -1.1006880787791218,
                -1.787251062339951,
                0.9061230401887748,
                -1.2131912292095586,
                -0.2617769821203846,
                3.0056991057542604
            ]
        },
        {
            "positions": [
                -0.9686774973639298,
                -1.7958978129225913,
                1.014942692185127,
                -1.1506697344680168,
                -0.18981963917665923,
                3.006094598364655
            ]
        },
        {
            "positions": [
                -0.8366669159487379,
                -1.8045445635052317,
                1.123762344181479,
                -1.088148239726475,
                -0.1178622962329341,
                3.00649009097505
            ]
        },
        {
            "positions": [
                -0.7046563345335459,
                -1.8131913140878724,
                1.232581996177831,
                -1.0256267449849337,
                -0.04590495328920885,
                3.0068855835854444
            ]
        },
        {
            "positions": [
                -0.5726457531183538,
                -1.8218380646705128,
                1.3414016481741833,
                -0.9631052502433919,
                0.026052389654516395,
                3.0072810761958393
            ]
        },
        {
            "positions": [
                -0.440635171703162,
                -1.8304848152531532,
                1.450221300170535,
                -0.9005837555018503,
                0.09800973259824153,
                3.007676568806234
            ]
        },
        {
            "positions": [
                -0.30862459028796985,
                -1.8391315658357936,
                1.5590409521668873,
                -0.8380622607603087,
                0.16996707554196688,
                3.008072061416629
            ]
        },
        {
            "positions": [
                -0.17661400887277812,
                -1.847778316418434,
                1.6678606041632391,
                -0.7755407660187672,
                0.2419244184856919,
                3.008467554027024
            ]
        },
        {
            "positions": [
                -0.044603427457586164,
                -1.8564250670010745,
                1.7766802561595914,
                -0.7130192712772254,
                0.31388176142941715,
                3.008863046637418
            ]
        },
        {
            "positions": [
                0.08740715395760601,
                -1.8650718175837149,
                1.8854999081559436,
                -0.6504977765356839,
                0.3858391043731426,
                3.009258539247813
            ]
        },
        {
            "positions": [
                0.21941773537279774,
                -1.8737185681663553,
                1.9943195601522954,
                -0.5879762817941423,
                0.45779644731686764,
                3.009654031858208
            ]
        },
        {
            "positions": [
                0.3514283167879899,
                -1.8823653187489957,
                2.1031392121486476,
                -0.5254547870526005,
                0.5297537902605929,
                3.0100495244686023
            ]
        },
        {
            "positions": [
                0.48343889820318164,
                -1.8910120693316361,
                2.2119588641449996,
                -0.4629332923110592,
                0.6017111332043181,
                3.010445017078997
            ]
        },
        {
            "positions": [
                0.6154494796183739,
                -1.8996588199142765,
                2.3207785161413517,
                -0.4004117975695174,
                0.6736684761480434,
                3.010840509689392
            ]
        },
        {
            "positions": [
                0.7034730804579384,
                -1.9042070669092692,
                2.389986025682285,
                -0.4569824218262463,
                0.6973212460474231,
                3.143596116294281
            ]
        }
    ]
}