{
    "goal": {
        "global_pose": {
            "orientation": {
                "w": 0.7047431468963623,
                "x": -0.7094548344612122,
                "y": 0.0024358443915843964,
                "z": -0.0022348060738295317
            },
            "position": {
                "x": 0.6094750761985779,
                "y": 0.3671506643295288,
                "z": 0.19426114857196808
            }
        },
        "name": "move_to_magneteinheit_A"
    },
    "id": "LBKPIECE_move_to_magneteinheit_A_29",
    "joint_names": [
        "shoulder_pan_joint",
        "shoulder_lift_joint",
        "elbow_joint",
        "wrist_1_joint",
        "wrist_2_joint",
        "wrist_3_joint"
    ],
    "metrics": {
        "cart_traj_len": 1.9687905265934331,
        "distance_elbow_joint": 3.5740575418894327,
        "distance_shoulder_lift_joint": 0.785766400653098,
        "distance_shoulder_pan_joint": 1.2422968685847209,
        "distance_wrist_1_joint": 1.182581765097837,
        "distance_wrist_2_joint": 1.4476637009348805,
        "distance_wrist_3_joint": 1.9801566343466555,
        "smoothness": 2.9605947464981317e-16,
        "time": 0.148739384,
        "traj_len": 3.195703820992587,
        "weighted_distance": 4.099156211494343
    },
    "planner": "LBKPIECE",
    "start": {
        "state": {
            "elbow_joint": -1.5739458827952972,
            "shoulder_lift_joint": 0.006533473998580023,
            "shoulder_pan_joint": -1.1188671628667068,
            "wrist_1_joint": 3.138208179676308,
            "wrist_2_joint": -1.5706037135050406,
            "wrist_3_joint": -2.0226958329764257
        }
    },
    "waypoints": [
        {
            "positions": [
                -1.1188671628667068,
                0.006533473998580023,
                -1.5739458827952972,
                3.138208179676308,
                -1.5706037135050406,
                -2.0226958329764257
            ]
        },
        {
            "positions": [
                -1.0710865140749868,
                -0.023688310641923747,
                -1.4364821311841651,
                3.0927242656340836,
                -1.5149243403921606,
                -1.9465359624246312
            ]
        },
        {
            "positions": [
                -1.0233058652832667,
                -0.05391009528242752,
                -1.2990183795730332,
                3.047240351591859,
                -1.4592449672792804,
                -1.870376091872837
            ]
        },
        {
            "positions": [
                -0.9755252164915467,
                -0.0841318799229313,
                -1.1615546279619011,
                3.0017564375496346,
                -1.4035655941664005,
                -1.7942162213210424
            ]
        },
        {
            "positions": [
                -0.9277445676998267,
                -0.11435366456343506,
                -1.024090876350769,
                2.95627252350741,
                -1.3478862210535205,
                -1.718056350769248
            ]
        },
        {
            "positions": [
                -0.8799639189081067,
                -0.1445754492039388,
                -0.8866271247396371,
                2.9107886094651856,
                -1.2922068479406406,
                -1.6418964802174536
            ]
        },
        {
            "positions": [
                -0.8321832701163866,
                -0.1747972338444426,
                -0.749163373128505,
                2.865304695422961,
                -1.2365274748277604,
                -1.565736609665659
            ]
        },
        {
            "positions": [
                -0.7844026213246666,
                -0.20501901848494633,
                -0.6116996215173731,
                2.8198207813807366,
                -1.1808481017148804,
                -1.4895767391138648
            ]
        },
        {
            "positions": [
                -0.7366219725329466,
                -0.23524080312545012,
                -0.474235869906241,
                2.774336867338512,
                -1.1251687286020005,
                -1.41341686856207
            ]
        },
        {
            "positions": [
                -0.6888413237412265,
                -0.2654625877659539,
                -0.3367721182951091,
                2.7288529532962875,
                -1.0694893554891203,
                -1.3372569980102758
            ]
        },
        {
            "positions": [
                -0.6410606749495065,
                -0.2956843724064577,
                -0.199308366683977,
                2.683369039254063,
                -1.0138099823762403,
                -1.2610971274584815
            ]
        },
        {
            "positions": [
                -0.5932800261577865,
                -0.32590615704696146,
                -0.06184461507284489,
                2.637885125211839,
                -0.9581306092633604,
                -1.184937256906687
            ]
        },
        {
            "positions": [
                -0.5454993773660664,
                -0.35612794168746525,
                0.07561913653828722,
                2.592401211169614,
                -0.9024512361504803,
                -1.1087773863548924
            ]
        },
        {
            "positions": [
                -0.4977187285743464,
                -0.386349726327969,
                0.21308288814941911,
                2.54691729712739,
                -0.8467718630376003,
                -1.0326175158030981
            ]
        },
        {
            "positions": [
                -0.44993807978262645,
                -0.4165715109684727,
                0.350546639760551,
                2.501433383085165,
                -0.7910924899247204,
                -0.9564576452513036
            ]
        },
        {
            "positions": [
                -0.4021574309909064,
                -0.4467932956089765,
                0.4880103913716829,
                2.455949469042941,
                -0.7354131168118404,
                -0.8802977746995093
            ]
        },
        {
            "positions": [
                -0.3543767821991862,
                -0.4770150802494803,
                0.6254741429828152,
                2.410465555000716,
                -0.6797337436989602,
                -0.8041379041477146
            ]
        },
        {
            "positions": [
                -0.3065961334074663,
                -0.507236864889984,
                0.7629378945939471,
                2.364981640958492,
                -0.6240543705860803,
                -0.7279780335959203
            ]
        },
        {
            "positions": [
                -0.2588154846157462,
                -0.5374586495304877,
                0.900401646205079,
                2.3194977269162673,
                -0.5683749974732002,
                -0.6518181630441258
            ]
        },
        {
            "positions": [
                -0.21103483582402627,
                -0.5676804341709916,
                1.0378653978162113,
                2.274013812874043,
                -0.5126956243603202,
                -0.5756582924923315
            ]
        },
        {
            "positions": [
                -0.1632541870323061,
                -0.5979022188114953,
                1.1753291494273432,
                2.2285298988318183,
                -0.45701625124744005,
                -0.49949842194053695
            ]
        },
        {
            "positions": [
                -0.11547353824058604,
                -0.6281240034519991,
                1.3127929010384756,
                2.1830459847895938,
                -0.4013368781345601,
                -0.42333855138874243
            ]
        },
        {
            "positions": [
                -0.0676928894488662,
                -0.6583457880925029,
                1.4502566526496075,
                2.1375620707473693,
                -0.34565750502168013,
                -0.34717868083694814
            ]
        },
        {
            "positions": [
                -0.01991224065714614,
                -0.6885675727330066,
                1.5877204042607393,
                2.0920781567051447,
                -0.2899781319088002,
                -0.2710188102851536
            ]
        },
        {
            "positions": [
                0.02786840813457414,
                -0.7187893573735105,
                1.7251841558718717,
                2.0465942426629202,
                -0.23429875879592,
                -0.1948589397333591
            ]
        },
        {
            "positions": [
                0.07564905692629398,
                -0.7490111420140142,
                1.8626479074830036,
                2.0011103286206957,
                -0.17861938568304003,
                -0.11869906918156459
            ]
        },
        {
            "positions": [
                0.123429705718014,
                -0.7792329266545179,
                2.0001116590941352,
                1.9556264145784712,
                -0.12294001257015999,
                -0.0425391986297702
            ]
        }
    ]
}