{
    "goal": {
        "global_pose": {
            "orientation": {
                "w": 0.5084816262002911,
                "x": -0.4908360881923452,
                "y": 0.5182115481033761,
                "z": -0.48164630358495003
            },
            "position": {
                "x": 0.5540239810943604,
                "y": -0.46912469901144505,
                "z": 0.16403168439865112
            }
        },
        "name": "move_to_storage_B"
    },
    "id": "LBKPIECE_move_to_storage_B_115",
    "joint_names": [
        "shoulder_pan_joint",
        "shoulder_lift_joint",
        "elbow_joint",
        "wrist_1_joint",
        "wrist_2_joint",
        "wrist_3_joint"
    ],
    "metrics": {
        "cart_traj_len": 1.8430519170760407,
        "distance_elbow_joint": 1.7262163673401139,
        "distance_shoulder_lift_joint": 0.46020615076551863,
        "distance_shoulder_pan_joint": 1.633719282960284,
        "distance_wrist_1_joint": 2.9875095247404997,
        "distance_wrist_2_joint": 2.7076457949593635,
        "distance_wrist_3_joint": 3.3368764650309823,
        "smoothness": 0.23809123131221696,
        "time": 0.496052208,
        "traj_len": 3.5849928292531863,
        "weighted_distance": 5.022059521307827
    },
    "planner": "LBKPIECE",
    "start": {
        "state": {
            "elbow_joint": 1.6649325340416963,
            "shoulder_lift_joint": -0.6616387945129425,
            "shoulder_pan_joint": -0.9139837929255878,
            "wrist_1_joint": 2.1467571094334352,
            "wrist_2_joint": -2.234195976750228,
            "wrist_3_joint": 0.005470921511140723
        }
    },
    "waypoints": [
        {
            "positions": [
                -0.9139837929255878,
                -0.6616387945129425,
                1.6649325340416963,
                2.1467571094334352,
                -2.234195976750228,
                0.005470921511140723
            ]
        },
        {
            "positions": [
                -0.8413410712657052,
                -0.6962450965409508,
                1.5962002307297978,
                2.0431657203665043,
                -2.1315912498395693,
                -0.004534074014459085
            ]
        },
        {
            "positions": [
                -0.7686983496058227,
                -0.730851398568959,
                1.5274679274178993,
                1.9395743312995735,
                -2.028986522928911,
                -0.014539069540058892
            ]
        },
        {
            "positions": [
                -0.6960556279459401,
                -0.7654577005969673,
                1.4587356241060008,
                1.8359829422326426,
                -1.9263817960182523,
                -0.024544065065658694
            ]
        },
        {
            "positions": [
                -0.6234129062860576,
                -0.8000640026249755,
                1.3900033207941023,
                1.7323915531657117,
                -1.8237770691075939,
                -0.03454906059125851
            ]
        },
        {
            "positions": [
                -0.550770184626175,
                -0.8346703046529838,
                1.3212710174822038,
                1.6288001640987808,
                -1.7211723421969354,
                -0.04455405611685831
            ]
        },
        {
            "positions": [
                -0.47812746296629244,
                -0.869276606680992,
                1.2525387141703053,
                1.52520877503185,
                -1.6185676152862767,
                -0.05455905164245811
            ]
        },
        {
            "positions": [
                -0.4054847413064099,
                -0.9038829087090002,
                1.183806410858407,
                1.421617385964919,
                -1.5159628883756182,
                -0.06456404716805793
            ]
        },
        {
            "positions": [
                -0.33284201964652727,
                -0.9384892107370085,
                1.1150741075465085,
                1.3180259968979882,
                -1.4133581614649597,
                -0.07456904269365774
            ]
        },
        {
            "positions": [
                -0.26019929798664465,
                -0.9730955127650167,
                1.04634180423461,
                1.2144346078310573,
                -1.310753434554301,
                -0.08457403821925755
            ]
        },
        {
            "positions": [
                -0.18755657632676218,
                -1.007701814793025,
                0.9776095009227114,
                1.1108432187641264,
                -1.2081487076436426,
                -0.09457903374485735
            ]
        },
        {
            "positions": [
                -0.22700405747291252,
                -1.0126645595967396,
                1.02277877632363,
                1.0259912346740747,
                -1.135035728258739,
                0.04615255363666371
            ]
        },
        {
            "positions": [
                -0.2664515386190629,
                -1.0176273044004542,
                1.0679480517245488,
                0.9411392505840228,
                -1.0619227488738359,
                0.18688414101818476
            ]
        },
        {
            "positions": [
                -0.3058990197652132,
                -1.0225900492041688,
                1.1131173271254673,
                0.856287266493971,
                -0.9888097694889324,
                0.3276157283997059
            ]
        },
        {
            "positions": [
                -0.34534650091136354,
                -1.0275527940078835,
                1.158286602526386,
                0.7714352824039192,
                -0.915696790104029,
                0.4683473157812269
            ]
        },
        {
            "positions": [
                -0.3847939820575139,
                -1.032515538811598,
                1.2034558779273046,
                0.6865832983138674,
                -0.8425838107191257,
                0.609078903162748
            ]
        },
        {
            "positions": [
                -0.4242414632036643,
                -1.0374782836153127,
                1.248625153328223,
                0.6017313142238156,
                -0.7694708313342222,
                0.7498104905442691
            ]
        },
        {
            "positions": [
                -0.46368894434981467,
                -1.0424410284190273,
                1.2937944287291419,
                0.5168793301337637,
                -0.6963578519493189,
                0.8905420779257902
            ]
        },
        {
            "positions": [
                -0.5031364254959649,
                -1.047403773222742,
                1.3389637041300606,
                0.43202734604371207,
                -0.6232448725644155,
                1.0312736653073111
            ]
        },
        {
            "positions": [
                -0.5425839066421153,
                -1.0523665180264565,
                1.3841329795309791,
                0.34717536195366017,
                -0.550131893179512,
                1.1720052526888325
            ]
        },
        {
            "positions": [
                -0.5820313877882657,
                -1.0573292628301711,
                1.4293022549318979,
                0.2623233778636085,
                -0.4770189137946087,
                1.3127368400703534
            ]
        },
        {
            "positions": [
                -0.6214788689344161,
                -1.0622920076338858,
                1.4744715303328164,
                0.17747139377355658,
                -0.40390593440970524,
                1.4534684274518745
            ]
        },
        {
            "positions": [
                -0.6609263500805664,
                -1.0672547524376004,
                1.5196408057337352,
                0.0926194096835049,
                -0.330792955024802,
                1.5942000148333955
            ]
        },
        {
            "positions": [
                -0.7003738312267167,
                -1.072217497241315,
                1.5648100811346537,
                0.0077674255934532255,
                -0.25767997563989864,
                1.7349316022149164
            ]
        },
        {
            "positions": [
                -0.7398213123728671,
                -1.0771802420450296,
                1.6099793565355724,
                -0.0770845584965989,
                -0.18456699625499517,
                1.8756631895964377
            ]
        },
        {
            "positions": [
                -0.7792687935190175,
                -1.0821429868487442,
                1.6551486319364912,
                -0.16193654258665058,
                -0.11145401687009171,
                2.0163947769779584
            ]
        },
        {
            "positions": [
                -0.8187162746651677,
                -1.0871057316524588,
                1.7003179073374097,
                -0.24678852667670226,
                -0.03834103748518847,
                2.1571263643594794
            ]
        },
        {
            "positions": [
                -0.8581637558113181,
                -1.0920684764561734,
                1.7454871827383283,
                -0.33164051076675394,
                0.034771941899715,
                2.2978579517410007
            ]
        },
        {
            "positions": [
                -0.8976112369574685,
                -1.097031221259888,
                1.790656458139247,
                -0.41649249485680606,
                0.10788492128461846,
                2.438589539122522
            ]
        },
        {
            "positions": [
                -0.9370587181036188,
                -1.1019939660636027,
                1.8358257335401658,
                -0.5013444789468577,
                0.1809979006695217,
                2.579321126504043
            ]
        },
        {
            "positions": [
                -0.9765061992497691,
                -1.1069567108673173,
                1.8809950089410843,
                -0.5861964630369094,
                0.25411088005442517,
                2.720052713885564
            ]
        },
        {
            "positions": [
                -1.0159536803959195,
                -1.111919455671032,
                1.9261642843420028,
                -0.6710484471269611,
                0.3272238594393284,
                2.860784301267085
            ]
        },
        {
            "positions": [
                -1.05540116154207,
                -1.1168822004747465,
                1.9713335597429216,
                -0.7559004312170132,
                0.4003368388242321,
                3.001515888648606
            ]
        },
        {
            "positions": [
                -1.0948486426882202,
                -1.1218449452784611,
                2.0165028351438403,
                -0.840752415307065,
                0.4734498182091353,
                3.142247476030127
            ]
        }
    ]
}