{
    "goal": {
        "global_pose": {
            "orientation": {
                "w": -0.00223480608172531,
                "x": 0.0024358444001904467,
                "y": 0.7094548369677653,
                "z": -0.704743149386269
            },
            "position": {
                "x": -0.37947507619857795,
                "y": -0.6371506643295288,
                "z": 0.19426114857196808
            }
        },
        "name": "move_to_magneteinheit_C"
    },
    "id": "LBKPIECE_move_to_magneteinheit_C_45",
    "joint_names": [
        "shoulder_pan_joint",
        "shoulder_lift_joint",
        "elbow_joint",
        "wrist_1_joint",
        "wrist_2_joint",
        "wrist_3_joint"
    ],
    "metrics": {
        "cart_traj_len": 3.0054795535922123,
        "distance_elbow_joint": 2.7282997321419975,
        "distance_shoulder_lift_joint": 0.5410493181933638,
        "distance_shoulder_pan_joint": 3.677164554376506,
        "distance_wrist_1_joint": 7.627588949000145,
        "distance_wrist_2_joint": 3.7573742903650413,
        "distance_wrist_3_joint": 2.369836871253293,
        "smoothness": 0.649753570703287,
        "time": 0.42811741600000003,
        "traj_len": 4.5498696371797696,
        "weighted_distance": 6.0684389011674265
    },
    "planner": "LBKPIECE",
    "start": {
        "state": {
            "elbow_joint": 1.9565354006593851,
            "shoulder_lift_joint": -1.4165861576512813,
            "shoulder_pan_joint": -1.6717766223278752,
            "wrist_1_joint": -0.528663328821883,
            "wrist_2_joint": 1.472756589259273,
            "wrist_3_joint": 3.159348288315503
        }
    },
    "waypoints": [
        {
            "positions": [
                -1.6717766223278752,
                -1.4165861576512813,
                1.9565354006593851,
                -0.528663328821883,
                1.472756589259273,
                3.159348288315503
            ]
        },
        {
            "positions": [
                -1.6147026987992168,
                -1.4199554474053235,
                1.9902482329927595,
                -0.3618769091088069,
                1.4003727349185895,
                3.1045938426732276
            ]
        },
        {
            "positions": [
                -1.5576287752705587,
                -1.4233247371593658,
                2.0239610653261337,
                -0.19509048939573065,
                1.3279888805779059,
                3.049839397030952
            ]
        },
        {
            "positions": [
                -1.5005548517419003,
                -1.4266940269134083,
                2.0576738976595084,
                -0.02830406968265453,
                1.2556050262372223,
                2.995084951388677
            ]
        },
        {
            "positions": [
                -1.443480928213242,
                -1.4300633166674506,
                2.0913867299928826,
                0.13848235003042175,
                1.1832211718965384,
                2.9403305057464015
            ]
        },
        {
            "positions": [
                -1.3864070046845838,
                -1.4334326064214928,
                2.1250995623262567,
                0.3052687697434979,
                1.1108373175558548,
                2.885576060104126
            ]
        },
        {
            "positions": [
                -1.3293330811559254,
                -1.436801896175535,
                2.1588123946596314,
                0.472055189456574,
                1.0384534632151712,
                2.8308216144618505
            ]
        },
        {
            "positions": [
                -1.272259157627267,
                -1.4401711859295774,
                2.1925252269930056,
                0.6388416091696504,
                0.9660696088744876,
                2.776067168819575
            ]
        },
        {
            "positions": [
                -1.215185234098609,
                -1.4435404756836197,
                2.22623805932638,
                0.8056280288827266,
                0.8936857545338039,
                2.7213127231772996
            ]
        },
        {
            "positions": [
                -1.1581113105699505,
                -1.4469097654376621,
                2.2599508916597544,
                0.9724144485958027,
                0.8213019001931202,
                2.6665582775350245
            ]
        },
        {
            "positions": [
                -1.1010373870412922,
                -1.4502790551917044,
                2.2936637239931286,
                1.1392008683088788,
                0.7489180458524366,
                2.611803831892749
            ]
        },
        {
            "positions": [
                -1.0439634635126338,
                -1.4536483449457467,
                2.327376556326503,
                1.3059872880219552,
                0.676534191511753,
                2.5570493862504735
            ]
        },
        {
            "positions": [
                -0.9868895399839757,
                -1.457017634699789,
                2.3610893886598774,
                1.4727737077350311,
                0.6041503371710694,
                2.502294940608198
            ]
        },
        {
            "positions": [
                -0.9298156164553173,
                -1.4603869244538312,
                2.394802220993252,
                1.6395601274481075,
                0.5317664828303856,
                2.4475404949659225
            ]
        },
        {
            "positions": [
                -0.872741692926659,
                -1.4637562142078737,
                2.428515053326626,
                1.806346547161184,
                0.459382628489702,
                2.3927860493236475
            ]
        },
        {
            "positions": [
                -0.8156677693980008,
                -1.467125503961916,
                2.4622278856600004,
                1.9731329668742599,
                0.3869987741490184,
                2.338031603681372
            ]
        },
        {
            "positions": [
                -0.7585938458693424,
                -1.4704947937159583,
                2.495940717993375,
                2.1399193865873363,
                0.3146149198083348,
                2.2832771580390965
            ]
        },
        {
            "positions": [
                -0.7015199223406842,
                -1.4738640834700005,
                2.529653550326749,
                2.306705806300412,
                0.24223106546765116,
                2.228522712396821
            ]
        },
        {
            "positions": [
                -0.6444459988120257,
                -1.4772333732240428,
                2.5633663826601234,
                2.4734922260134886,
                0.16984721112696732,
                2.1737682667545455
            ]
        },
        {
            "positions": [
                -0.5873720752833675,
                -1.480602662978085,
                2.597079214993498,
                2.6402786457265646,
                0.0974633567862837,
                2.1190138211122704
            ]
        },
        {
            "positions": [
                -0.5302981517547094,
                -1.4839719527321276,
                2.630792047326872,
                2.807065065439641,
                0.025079502445600088,
                2.0642593754699945
            ]
        },
        {
            "positions": [
                -0.4732242282260508,
                -1.4873412424861698,
                2.664504879660247,
                2.9738514851527174,
                -0.04730435189508353,
                2.0095049298277194
            ]
        },
        {
            "positions": [
                -0.41615030469739267,
                -1.490710532240212,
                2.698217711993621,
                3.1406379048657933,
                -0.11968820623576715,
                1.954750484185444
            ]
        },
        {
            "positions": [
                -0.5116993624051693,
                -1.4735242909632056,
                2.6399981278481675,
                2.977582614118411,
                -0.1494568355219617,
                1.9774708389889004
            ]
        },
        {
            "positions": [
                -0.607248420112946,
                -1.456338049686199,
                2.581778543702714,
                2.8145273233710295,
                -0.17922546480815627,
                2.000191193792357
            ]
        },
        {
            "positions": [
                -0.7027974778207227,
                -1.4391518084091923,
                2.5235589595572603,
                2.651472032623648,
                -0.2089940940943508,
                2.0229115485958133
            ]
        },
        {
            "positions": [
                -0.7983465355284993,
                -1.4219655671321858,
                2.4653393754118067,
                2.4884167418762657,
                -0.23876272338054536,
                2.0456319033992703
            ]
        },
        {
            "positions": [
                -0.893895593236276,
                -1.4047793258551793,
                2.407119791266353,
                2.3253614511288836,
                -0.2685313526667399,
                2.0683522582027267
            ]
        },
        {
            "positions": [
                -0.9894446509440527,
                -1.3875930845781728,
                2.3489002071208995,
                2.162306160381502,
                -0.29829998195293445,
                2.091072613006183
            ]
        },
        {
            "positions": [
                -1.0849937086518295,
                -1.370406843301166,
                2.290680622975446,
                1.9992508696341198,
                -0.328068611239129,
                2.1137929678096397
            ]
        },
        {
            "positions": [
                -1.180542766359606,
                -1.3532206020241595,
                2.2324610388299924,
                1.8361955788867381,
                -0.35783724052532356,
                2.136513322613096
            ]
        },
        {
            "positions": [
                -1.2760918240673829,
                -1.336034360747153,
                2.1742414546845388,
                1.673140288139356,
                -0.3876058698115181,
                2.1592336774165526
            ]
        },
        {
            "positions": [
                -1.3716408817751593,
                -1.3188481194701465,
                2.116021870539085,
                1.5100849973919743,
                -0.4173744990977127,
                2.181954032220009
            ]
        },
        {
            "positions": [
                -1.4671899394829362,
                -1.30166187819314,
                2.0578022863936316,
                1.3470297066445922,
                -0.44714312838390724,
                2.2046743870234655
            ]
        },
        {
            "positions": [
                -1.5627389971907126,
                -1.2844756369161332,
                1.999582702248178,
                1.1839744158972105,
                -0.47691175767010174,
                2.227394741826922
            ]
        },
        {
            "positions": [
                -1.6582880548984893,
                -1.2672893956391267,
                1.9413631181027244,
                1.0209191251498289,
                -0.5066803869562964,
                2.250115096630379
            ]
        },
        {
            "positions": [
                -1.7538371126062662,
                -1.2501031543621202,
                1.8831435339572709,
                0.8578638344024463,
                -0.5364490162424909,
                2.2728354514338354
            ]
        },
        {
            "positions": [
                -1.8493861703140428,
                -1.2329169130851136,
                1.8249239498118173,
                0.6948085436550646,
                -0.5662176455286854,
                2.295555806237292
            ]
        },
        {
            "positions": [
                -1.9449352280218195,
                -1.2157306718081071,
                1.7667043656663637,
                0.5317532529076829,
                -0.59598627481488,
                2.3182761610407483
            ]
        },
        {
            "positions": [
                -2.0404842857295957,
                -1.1985444305311006,
                1.70848478152091,
                0.36869796216030126,
                -0.6257549041010745,
                2.3409965158442048
            ]
        },
        {
            "positions": [
                -2.136033343437373,
                -1.1813581892540939,
                1.6502651973754565,
                0.2056426714129187,
                -0.6555235333872691,
                2.3637168706476612
            ]
        },
        {
            "positions": [
                -2.2315824011451495,
                -1.1641719479770873,
                1.592045613230003,
                0.04258738066553702,
                -0.6852921626734636,
                2.386437225451118
            ]
        },
        {
            "positions": [
                -2.327131458852926,
                -1.1469857067000808,
                1.5338260290845493,
                -0.12046791008184465,
                -0.7150607919596582,
                2.4091575802545746
            ]
        },
        {
            "positions": [
                -2.422680516560703,
                -1.129799465423074,
                1.4756064449390958,
                -0.2835232008292268,
                -0.7448294212458527,
                2.431877935058031
            ]
        },
        {
            "positions": [
                -2.5182295742684797,
                -1.1126132241460676,
                1.4173868607936422,
                -0.4465784915766089,
                -0.7745980505320473,
                2.4545982898614875
            ]
        },
        {
            "positions": [
                -2.613778631976256,
                -1.095426982869061,
                1.3591672766481886,
                -0.6096337823239903,
                -0.8043666798182418,
                2.477318644664944
            ]
        },
        {
            "positions": [
                -2.624370625782749,
                -1.094908833875007,
                1.425971726468799,
                -0.6326645088700383,
                -0.6687172136879934,
                2.546090620851417
            ]
        },
        {
            "positions": [
                -2.634962619589242,
                -1.094390684880953,
                1.4927761762894094,
                -0.6556952354160863,
                -0.533067747557745,
                2.61486259703789
            ]
        },
        {
            "positions": [
                -2.645554613395735,
                -1.0938725358868993,
                1.55958062611002,
                -0.6787259619621342,
                -0.3974182814274967,
                2.6836345732243623
            ]
        },
        {
            "positions": [
                -2.6561466072022277,
                -1.0933543868928453,
                1.6263850759306304,
                -0.7017566885081822,
                -0.26176881529724827,
                2.752406549410835
            ]
        },
        {
            "positions": [
                -2.6258896181620295,
                -1.1049491866023562,
                1.6897766069606117,
                -0.721072208831265,
                -0.10549328916949288,
                2.8136703830604755
            ]
        },
        {
            "positions": [
                -2.5956326291218317,
                -1.1165439863118674,
                1.753168137990593,
                -0.7403877291543477,
                0.050782236958262505,
                2.874934216710116
            ]
        },
        {
            "positions": [
                -2.5653756400816334,
                -1.1281387860213783,
                1.8165596690205743,
                -0.7597032494774305,
                0.20705776308601792,
                2.9361980503597565
            ]
        },
        {
            "positions": [
                -2.535118651041435,
                -1.1397335857308892,
                1.8799512000505558,
                -0.7790187698005133,
                0.3633332892137733,
                2.9974618840093967
            ]
        },
        {
            "positions": [
                -2.5048616620012374,
                -1.1513283854404004,
                1.9433427310805371,
                -0.798334290123596,
                0.5196088153415287,
                3.0587257176590374
            ]
        },
        {
            "positions": [
                -2.474604672961039,
                -1.1629231851499113,
                2.0067342621105184,
                -0.8176498104466788,
                0.6758843414692841,
                3.1199895513086777
            ]
        }
    ]
}