{
    "goal": {
        "global_pose": {
            "orientation": {
                "w": 0.5084816217422485,
                "x": -0.49083608388900757,
                "y": 0.5182115435600281,
                "z": -0.4816462993621826
            },
            "position": {
                "x": 0.5540239810943604,
                "y": 0.030875300988554955,
                "z": 0.16403168439865112
            }
        },
        "name": "move_to_storage_A"
    },
    "id": "LBKPIECE_move_to_storage_A_44",
    "joint_names": [
        "shoulder_pan_joint",
        "shoulder_lift_joint",
        "elbow_joint",
        "wrist_1_joint",
        "wrist_2_joint",
        "wrist_3_joint"
    ],
    "metrics": {
        "cart_traj_len": 0.35329518279047883,
        "distance_elbow_joint": 0.45049044174963737,
        "distance_shoulder_lift_joint": 0.23644454160333628,
        "distance_shoulder_pan_joint": 0.462723729360727,
        "distance_wrist_1_joint": 0.23643095275560655,
        "distance_wrist_2_joint": 1.0976416651198848,
        "distance_wrist_3_joint": 0.08632427261632358,
        "smoothness": 1.1102230298998083e-15,
        "time": 0.298765532,
        "traj_len": 1.6031392962576632,
        "weighted_distance": 2.0191029608005766
    },
    "planner": "LBKPIECE",
    "start": {
        "state": {
            "elbow_joint": 1.971548880431181,
            "shoulder_lift_joint": -1.1394869514688781,
            "shoulder_pan_joint": 0.12281150262730567,
            "wrist_1_joint": -0.7804693444481463,
            "wrist_2_joint": 0.12958644648617612,
            "wrist_3_joint": 3.0906942077768043
        }
    },
    "waypoints": [
        {
            "positions": [
                0.12281150262730567,
                -1.1394869514688781,
                1.971548880431181,
                -0.7804693444481463,
                0.12958644648617612,
                3.0906942077768043
            ]
        },
        {
            "positions": [
                0.056708112718630396,
                -1.1732647431264975,
                2.0359046578239863,
                -0.8142451948418044,
                0.2863923986461596,
                3.1030262467219933
            ]
        },
        {
            "positions": [
                -0.009395277190044876,
                -1.2070425347841172,
                2.1002604352167915,
                -0.8480210452354624,
                0.44319835080614317,
                3.1153582856671824
            ]
        },
        {
            "positions": [
                -0.07549866709872016,
                -1.2408203264417366,
                2.164616212609597,
                -0.8817968956291206,
                0.6000043029661267,
                3.1276903246123715
            ]
        },
        {
            "positions": [
                -0.14160205700739542,
                -1.274598118099356,
                2.2289719900024023,
                -0.9155727460227786,
                0.7568102551261102,
                3.1400223635575606
            ]
        },
        {
            "positions": [
                -0.20770544691607074,
                -1.3083759097569754,
                2.2933277673952075,
                -0.9493485964164368,
                0.9136162072860938,
                3.1523544025027497
            ]
        },
        {
            "positions": [
                -0.273808836824746,
                -1.342153701414595,
                2.357683544788013,
                -0.9831244468100948,
                1.0704221594460774,
                3.1646864414479388
            ]
        },
        {
            "positions": [
                -0.3399122267334213,
                -1.3759314930722144,
                2.4220393221808183,
                -1.0169002972037529,
                1.227228111606061,
                3.177018480393128
            ]
        }
    ]
}