{
    "goal": {
        "global_pose": {
            "orientation": {
                "w": 0.7031023480610252,
                "x": -0.7110244013736278,
                "y": 0.0077485991402295624,
                "z": 0.005598929693374583
            },
            "position": {
                "x": -0.8841497679147869,
                "y": 0.44412534475326537,
                "z": 0.3711530566215515
            }
        },
        "name": "move_to_auspresseinheit_D"
    },
    "id": "LBKPIECE_move_to_auspresseinheit_D_117",
    "joint_names": [
        "shoulder_pan_joint",
        "shoulder_lift_joint",
        "elbow_joint",
        "wrist_1_joint",
        "wrist_2_joint",
        "wrist_3_joint"
    ],
    "metrics": {
        "cart_traj_len": 0.3434716461546337,
        "distance_elbow_joint": 0.6429691884530484,
        "distance_shoulder_lift_joint": 0.12408758439383316,
        "distance_shoulder_pan_joint": 0.1336651478713211,
        "distance_wrist_1_joint": 0.5337083972249133,
        "distance_wrist_2_joint": 1.4447958829600214,
        "distance_wrist_3_joint": 0.005301026843023582,
        "smoothness": 0.0,
        "time": 0.463545325,
        "traj_len": 1.6983895983390151,
        "weighted_distance": 2.2076307575355854
    },
    "planner": "LBKPIECE",
    "start": {
        "state": {
            "elbow_joint": -1.8275484843655228,
            "shoulder_lift_joint": -2.1267897864000416,
            "shoulder_pan_joint": -0.035127520176001514,
            "wrist_1_joint": -2.3477863256791385,
            "wrist_2_joint": -1.605890476484521,
            "wrist_3_joint": -3.0880375317375353
        }
    },
    "waypoints": [
        {
            "positions": [
                -0.035127520176001514,
                -2.1267897864000416,
                -1.8275484843655228,
                -2.3477863256791385,
                -1.605890476484521,
                -3.0880375317375353
            ]
        },
        {
            "positions": [
                -0.05183566365991665,
                -2.142300734449271,
                -1.7471773358088918,
                -2.4144998753322526,
                -1.4252909911145184,
                -3.087374903382157
            ]
        },
        {
            "positions": [
                -0.06854380714383179,
                -2.1578116824985,
                -1.6668061872522606,
                -2.481213424985367,
                -1.2446915057445156,
                -3.0867122750267795
            ]
        },
        {
            "positions": [
                -0.08525195062774693,
                -2.173322630547729,
                -1.5864350386956296,
                -2.547926974638481,
                -1.064092020374513,
                -3.0860496466714014
            ]
        },
        {
            "positions": [
                -0.10196009411166207,
                -2.188833578596958,
                -1.5060638901389987,
                -2.614640524291595,
                -0.8834925350045103,
                -3.0853870183160232
            ]
        },
        {
            "positions": [
                -0.11866823759557721,
                -2.2043445266461874,
                -1.4256927415823675,
                -2.6813540739447093,
                -0.7028930496345076,
                -3.0847243899606456
            ]
        },
        {
            "positions": [
                -0.13537638107949235,
                -2.219855474695416,
                -1.3453215930257365,
                -2.7480676235978234,
                -0.522293564264505,
                -3.0840617616052675
            ]
        },
        {
            "positions": [
                -0.15208452456340749,
                -2.2353664227446455,
                -1.2649504444691053,
                -2.8147811732509376,
                -0.3416940788945022,
                -3.08339913324989
            ]
        },
        {
            "positions": [
                -0.16879266804732262,
                -2.2508773707938747,
                -1.1845792959124744,
                -2.8814947229040517,
                -0.16109459352449962,
                -3.0827365048945117
            ]
        }
    ]
}