{
    "goal": {
        "global_pose": {
            "orientation": {
                "w": 0.7031023502349854,
                "x": -0.7110244035720825,
                "y": 0.007748599164187908,
                "z": 0.005598929710686207
            },
            "position": {
                "x": 0.11585023208521307,
                "y": 0.44412534475326537,
                "z": 0.3711530566215515
            }
        },
        "name": "move_to_auspresseinheit_A"
    },
    "id": "LBKPIECE_move_to_auspresseinheit_A_59",
    "joint_names": [
        "shoulder_pan_joint",
        "shoulder_lift_joint",
        "elbow_joint",
        "wrist_1_joint",
        "wrist_2_joint",
        "wrist_3_joint"
    ],
    "metrics": {
        "cart_traj_len": 0.7509258099187721,
        "distance_elbow_joint": 0.5467584111017012,
        "distance_shoulder_lift_joint": 0.5318651090826365,
        "distance_shoulder_pan_joint": 1.0474593273514388,
        "distance_wrist_1_joint": 1.9970907391882853,
        "distance_wrist_2_joint": 0.5140916634682493,
        "distance_wrist_3_joint": 1.509241020501599,
        "smoothness": 1.162301758662296,
        "time": 0.34258142799999997,
        "traj_len": 2.4792148496437156,
        "weighted_distance": 3.417041222220423
    },
    "planner": "LBKPIECE",
    "start": {
        "state": {
            "elbow_joint": 2.4225746994637096,
            "shoulder_lift_joint": -1.373653595662188,
            "shoulder_pan_joint": -0.3378633848294565,
            "wrist_1_joint": -1.0288595594406726,
            "wrist_2_joint": 1.2330228066703421,
            "wrist_3_joint": 3.189163495502006
        }
    },
    "waypoints": [
        {
            "positions": [
                -0.3378633848294565,
                -1.373653595662188,
                2.4225746994637096,
                -1.0288595594406726,
                1.2330228066703421,
                3.189163495502006
            ]
        },
        {
            "positions": [
                -0.2774125824979682,
                -1.4179882828838624,
                2.393656633265368,
                -0.9002374184836357,
                1.1977088414605321,
                3.1106212472433308
            ]
        },
        {
            "positions": [
                -0.21696178016647985,
                -1.4623229701055367,
                2.364738567067027,
                -0.7716152775265988,
                1.1623948762507224,
                3.0320789989846557
            ]
        },
        {
            "positions": [
                -0.15651097783499154,
                -1.5066576573272112,
                2.3358205008686856,
                -0.642993136569562,
                1.1270809110409123,
                2.9535367507259807
            ]
        },
        {
            "positions": [
                -0.09606017550350321,
                -1.5509923445488856,
                2.3069024346703446,
                -0.514370995612525,
                1.0917669458311023,
                2.8749945024673056
            ]
        },
        {
            "positions": [
                -0.0356093731720149,
                -1.59532703177056,
                2.277984368472003,
                -0.38574885465548814,
                1.0564529806212926,
                2.7964522542086305
            ]
        },
        {
            "positions": [
                0.024841429159473405,
                -1.6396617189922342,
                2.2490663022736617,
                -0.2571267136984513,
                1.0211390154114826,
                2.717910005949956
            ]
        },
        {
            "positions": [
                0.08529223149096171,
                -1.6839964062139086,
                2.2201482360753206,
                -0.12850457274141436,
                0.9858250502016727,
                2.639367757691281
            ]
        },
        {
            "positions": [
                0.14574303382245007,
                -1.728331093435583,
                2.191230169876979,
                0.0001175682156226987,
                0.9505110849918628,
                2.560825509432606
            ]
        },
        {
            "positions": [
                0.20619383615393844,
                -1.7726657806572574,
                2.162312103678638,
                0.12873970917265942,
                0.9151971197820528,
                2.4822832611739307
            ]
        },
        {
            "positions": [
                0.26664463848542663,
                -1.8170004678789318,
                2.1333940374802967,
                0.2573618501296965,
                0.8798831545722429,
                2.4037410129152557
            ]
        },
        {
            "positions": [
                0.3299233962049346,
                -1.829645930288345,
                2.170190858782909,
                0.15580908875570845,
                0.8568900100907929,
                2.5071436611888056
            ]
        },
        {
            "positions": [
                0.3932021539244426,
                -1.8422913926977582,
                2.206987680085522,
                0.054256327381720426,
                0.8338968656093428,
                2.610546309462355
            ]
        },
        {
            "positions": [
                0.4564809116439505,
                -1.8549368551071714,
                2.2437845013881343,
                -0.04729643399226763,
                0.8109037211278929,
                2.713948957735905
            ]
        },
        {
            "positions": [
                0.5197596693634585,
                -1.8675823175165849,
                2.280581322690747,
                -0.14884919536625563,
                0.7879105766464428,
                2.817351606009455
            ]
        },
        {
            "positions": [
                0.5830384270829665,
                -1.880227779925998,
                2.3173781439933596,
                -0.2504019567402437,
                0.7649174321649929,
                2.920754254283005
            ]
        },
        {
            "positions": [
                0.6463171848024744,
                -1.8928732423354113,
                2.3541749652959725,
                -0.35195471811423173,
                0.7419242876835428,
                3.0241569025565544
            ]
        },
        {
            "positions": [
                0.7095959425219823,
                -1.9055187047448245,
                2.390971786598585,
                -0.4535074794882198,
                0.7189311432020928,
                3.1275595508301044
            ]
        }
    ]
}