{
    "goal": {
        "global_pose": {
            "orientation": {
                "w": 0.5084816262002911,
                "x": -0.4908360881923452,
                "y": 0.5182115481033761,
                "z": -0.48164630358495003
            },
            "position": {
                "x": 0.5540239810943604,
                "y": -0.46912469901144505,
                "z": 0.16403168439865112
            }
        },
        "name": "move_to_storage_B"
    },
    "id": "LBKPIECE_move_to_storage_B_42",
    "joint_names": [
        "shoulder_pan_joint",
        "shoulder_lift_joint",
        "elbow_joint",
        "wrist_1_joint",
        "wrist_2_joint",
        "wrist_3_joint"
    ],
    "metrics": {
        "cart_traj_len": 0.6439812112431906,
        "distance_elbow_joint": 0.3543068208647029,
        "distance_shoulder_lift_joint": 0.4586903158829878,
        "distance_shoulder_pan_joint": 0.19458157631076856,
        "distance_wrist_1_joint": 3.008769751476199,
        "distance_wrist_2_joint": 2.7018295582111955,
        "distance_wrist_3_joint": 3.133089646736253,
        "smoothness": 0.013461949468950133,
        "time": 0.37401696900000003,
        "traj_len": 3.1386729153389186,
        "weighted_distance": 4.672049472409513
    },
    "planner": "LBKPIECE",
    "start": {
        "state": {
            "elbow_joint": 1.6649325340416963,
            "shoulder_lift_joint": -0.6616387945129425,
            "shoulder_pan_joint": -0.9139837929255878,
            "wrist_1_joint": 2.1467571094334352,
            "wrist_2_joint": -2.234195976750228,
            "wrist_3_joint": 0.005470921511140723
        }
    },
    "waypoints": [
        {
            "positions": [
                -0.9139837929255878,
                -0.6616387945129425,
                1.6649325340416963,
                2.1467571094334352,
                -2.234195976750228,
                0.005470921511140723
            ]
        },
        {
            "positions": [
                -0.9109011362578445,
                -0.7106775555586318,
                1.6996327049102242,
                2.098826822300646,
                -2.1772761707395714,
                -0.01085608684309644
            ]
        },
        {
            "positions": [
                -0.9078184795901012,
                -0.7597163166043209,
                1.734332875778752,
                2.0508965351678574,
                -2.1203563647289148,
                -0.027183095197333605
            ]
        },
        {
            "positions": [
                -0.9156691572140713,
                -0.7747418496789713,
                1.7462039790757373,
                1.9295253194507482,
                -2.0125234503043363,
                -0.15636791311515771
            ]
        },
        {
            "positions": [
                -0.9235198348380413,
                -0.7897673827536217,
                1.7580750823727225,
                1.808154103733639,
                -1.904690535879758,
                -0.2855527310329818
            ]
        },
        {
            "positions": [
                -0.9313705124620114,
                -0.8047929158282721,
                1.7699461856697078,
                1.6867828880165296,
                -1.7968576214551795,
                -0.41473754895080595
            ]
        },
        {
            "positions": [
                -0.9392211900859815,
                -0.8198184489029225,
                1.7818172889666932,
                1.5654116722994207,
                -1.689024707030601,
                -0.54392236686863
            ]
        },
        {
            "positions": [
                -0.9470718677099516,
                -0.8348439819775729,
                1.7936883922636784,
                1.4440404565823113,
                -1.5811917926060226,
                -0.6731071847864543
            ]
        },
        {
            "positions": [
                -0.9549225453339216,
                -0.8498695150522233,
                1.8055594955606638,
                1.322669240865202,
                -1.4733588781814442,
                -0.8022920027042784
            ]
        },
        {
            "positions": [
                -0.9627732229578918,
                -0.8648950481268737,
                1.8174305988576491,
                1.201298025148093,
                -1.3655259637568657,
                -0.9314768206221026
            ]
        },
        {
            "positions": [
                -0.9706239005818619,
                -0.879920581201524,
                1.8293017021546343,
                1.0799268094309837,
                -1.2576930493322873,
                -1.0606616385399263
            ]
        },
        {
            "positions": [
                -0.978474578205832,
                -0.8949461142761744,
                1.8411728054516197,
                0.9585555937138746,
                -1.1498601349077089,
                -1.1898464564577507
            ]
        },
        {
            "positions": [
                -0.986325255829802,
                -0.9099716473508248,
                1.853043908748605,
                0.8371843779967651,
                -1.0420272204831305,
                -1.3190312743755748
            ]
        },
        {
            "positions": [
                -0.9941759334537721,
                -0.9249971804254752,
                1.8649150120455902,
                0.715813162279656,
                -0.934194306058552,
                -1.4482160922933989
            ]
        },
        {
            "positions": [
                -1.002026611077742,
                -0.9400227135001256,
                1.8767861153425756,
                0.5944419465625468,
                -0.8263613916339736,
                -1.577400910211223
            ]
        },
        {
            "positions": [
                -1.0098772887017122,
                -0.955048246574776,
                1.888657218639561,
                0.4730707308454376,
                -0.7185284772093952,
                -1.706585728129047
            ]
        },
        {
            "positions": [
                -1.0177279663256824,
                -0.9700737796494264,
                1.900528321936546,
                0.3516995151283282,
                -0.6106955627848167,
                -1.8357705460468714
            ]
        },
        {
            "positions": [
                -1.0255786439496524,
                -0.9850993127240768,
                1.9123994252335315,
                0.23032829941121902,
                -0.5028626483602383,
                -1.9649553639646953
            ]
        },
        {
            "positions": [
                -1.0334293215736226,
                -1.000124845798727,
                1.9242705285305168,
                0.10895708369411006,
                -0.3950297339356599,
                -2.094140181882519
            ]
        },
        {
            "positions": [
                -1.0412799991975925,
                -1.0151503788733776,
                1.936141631827502,
                -0.012414132022999347,
                -0.28719681951108145,
                -2.2233249998003437
            ]
        },
        {
            "positions": [
                -1.0491306768215627,
                -1.030175911948028,
                1.9480127351244874,
                -0.1337853477401083,
                -0.17936390508650302,
                -2.352509817718168
            ]
        },
        {
            "positions": [
                -1.0569813544455327,
                -1.0452014450226783,
                1.9598838384214727,
                -0.2551565634572177,
                -0.07153099066192459,
                -2.481694635635992
            ]
        },
        {
            "positions": [
                -1.0648320320695028,
                -1.0602269780973288,
                1.9717549417184579,
                -0.3765277791743271,
                0.03630192376265384,
                -2.610879453553816
            ]
        },
        {
            "positions": [
                -1.0726827096934728,
                -1.075252511171979,
                1.9836260450154433,
                -0.4978989948914361,
                0.14413483818723227,
                -2.74006427147164
            ]
        },
        {
            "positions": [
                -1.080533387317443,
                -1.0902780442466296,
                1.9954971483124284,
                -0.6192702106085455,
                0.2519677526118107,
                -2.869249089389464
            ]
        },
        {
            "positions": [
                -1.0883840649414132,
                -1.1053035773212798,
                2.007368251609414,
                -0.7406414263256549,
                0.35980066703638913,
                -2.9984339073072883
            ]
        },
        {
            "positions": [
                -1.0962347425653831,
                -1.1203291103959303,
                2.019239354906399,
                -0.8620126420427638,
                0.46763358146096745,
                -3.1276187252251124
            ]
        }
    ]
}