{
    "goal": {
        "global_pose": {
            "orientation": {
                "w": 0.5084816217422485,
                "x": -0.49083608388900757,
                "y": 0.5182115435600281,
                "z": -0.4816462993621826
            },
            "position": {
                "x": 0.5540239810943604,
                "y": 0.030875300988554955,
                "z": 0.16403168439865112
            }
        },
        "name": "move_to_storage_A"
    },
    "id": "LBKPIECE_move_to_storage_A_15",
    "joint_names": [
        "shoulder_pan_joint",
        "shoulder_lift_joint",
        "elbow_joint",
        "wrist_1_joint",
        "wrist_2_joint",
        "wrist_3_joint"
    ],
    "metrics": {
        "cart_traj_len": 0.3535799992157651,
        "distance_elbow_joint": 0.4483697848556465,
        "distance_shoulder_lift_joint": 0.23558288572913333,
        "distance_shoulder_pan_joint": 0.4645252672611844,
        "distance_wrist_1_joint": 0.23673454501909186,
        "distance_wrist_2_joint": 1.0905440403098905,
        "distance_wrist_3_joint": 0.089613487472183,
        "smoothness": 4.440892098500626e-16,
        "time": 0.693907426,
        "traj_len": 1.6016772492131894,
        "weighted_distance": 2.017888889637008
    },
    "planner": "LBKPIECE",
    "start": {
        "state": {
            "elbow_joint": 1.971548880431181,
            "shoulder_lift_joint": -1.1394869514688781,
            "shoulder_pan_joint": 0.12281150262730567,
            "wrist_1_joint": -0.7804693444481463,
            "wrist_2_joint": 0.12958644648617612,
            "wrist_3_joint": 3.0906942077768043
        }
    },
    "waypoints": [
        {
            "positions": [
                0.12281150262730567,
                -1.1394869514688781,
                1.971548880431181,
                -0.7804693444481463,
                0.12958644648617612,
                3.0906942077768043
            ]
        },
        {
            "positions": [
                0.05645075016142219,
                -1.173141649430183,
                2.0356017068391306,
                -0.8142885651651595,
                0.2853784522447319,
                3.1034961345585446
            ]
        },
        {
            "positions": [
                -0.00991000230446129,
                -1.2067963473914876,
                2.09965453324708,
                -0.8481077858821725,
                0.4411704580032877,
                3.1162980613402853
            ]
        },
        {
            "positions": [
                -0.07627075477034478,
                -1.2404510453527924,
                2.1637073596550294,
                -0.8819270065991857,
                0.5969624637618435,
                3.1290999881220256
            ]
        },
        {
            "positions": [
                -0.14263150723622825,
                -1.2741057433140972,
                2.2277601860629788,
                -0.9157462273161988,
                0.7527544695203993,
                3.141901914903766
            ]
        },
        {
            "positions": [
                -0.20899225970211177,
                -1.307760441275402,
                2.2918130124709286,
                -0.9495654480332119,
                0.908546475278955,
                3.154703841685506
            ]
        },
        {
            "positions": [
                -0.27535301216799524,
                -1.3414151392367066,
                2.355865838878878,
                -0.983384668750225,
                1.064338481037511,
                3.167505768467247
            ]
        },
        {
            "positions": [
                -0.34171376463387876,
                -1.3750698371980115,
                2.4199186652868274,
                -1.0172038894672382,
                1.2201304867960665,
                3.1803076952489873
            ]
        }
    ]
}