{
    "goal": {
        "global_pose": {
            "orientation": {
                "w": -0.4816463035849501,
                "x": 0.5182115481033762,
                "y": 0.4908360881923453,
                "z": -0.5084816262002911
            },
            "position": {
                "x": -0.8240239810943604,
                "y": -0.300875300988555,
                "z": 0.16403168439865112
            }
        },
        "name": "move_to_storage_C"
    },
    "id": "LBKPIECE_move_to_storage_C_16",
    "joint_names": [
        "shoulder_pan_joint",
        "shoulder_lift_joint",
        "elbow_joint",
        "wrist_1_joint",
        "wrist_2_joint",
        "wrist_3_joint"
    ],
    "metrics": {
        "cart_traj_len": 0.5765550847628637,
        "distance_elbow_joint": 0.2597769890949737,
        "distance_shoulder_lift_joint": 0.18883358134223682,
        "distance_shoulder_pan_joint": 0.4944724110994083,
        "distance_wrist_1_joint": 0.08632680261563797,
        "distance_wrist_2_joint": 1.0695130821193735,
        "distance_wrist_3_joint": 0.06827787269329688,
        "smoothness": 0.0,
        "time": 0.5958346950000001,
        "traj_len": 1.4721415485492306,
        "weighted_distance": 1.8599990239477364
    },
    "planner": "LBKPIECE",
    "start": {
        "state": {
            "elbow_joint": 2.0108683149792914,
            "shoulder_lift_joint": -1.1634956873317392,
            "shoulder_pan_joint": -2.4736205022346,
            "wrist_1_joint": -0.8367026793690192,
            "wrist_2_joint": 0.6746043897045053,
            "wrist_3_joint": 3.133522094754363
        }
    },
    "waypoints": [
        {
            "positions": [
                -2.4736205022346,
                -1.1634956873317392,
                2.0108683149792914,
                -0.8367026793690192,
                0.6746043897045053,
                3.133522094754363
            ]
        },
        {
            "positions": [
                -2.556032570751168,
                -1.1320234237746998,
                1.967572150130129,
                -0.8223148789330795,
                0.8528565700577342,
                3.144901740203246
            ]
        },
        {
            "positions": [
                -2.6384446392677363,
                -1.1005511602176603,
                1.9242759852809668,
                -0.8079270784971399,
                1.031108750410963,
                3.156281385652129
            ]
        },
        {
            "positions": [
                -2.7208567077843044,
                -1.0690788966606208,
                1.8809798204318047,
                -0.7935392780612003,
                1.2093609307641922,
                3.1676610311010114
            ]
        },
        {
            "positions": [
                -2.803268776300872,
                -1.0376066331035814,
                1.8376836555826424,
                -0.7791514776252606,
                1.387613111117421,
                3.1790406765498944
            ]
        },
        {
            "positions": [
                -2.8856808448174402,
                -1.006134369546542,
                1.79438749073348,
                -0.7647636771893209,
                1.56586529147065,
                3.1904203219987775
            ]
        },
        {
            "positions": [
                -2.9680929133340084,
                -0.9746621059895024,
                1.7510913258843177,
                -0.7503758767533812,
                1.7441174718238788,
                3.20179996744766
            ]
        }
    ]
}