{
    "goal": {
        "global_pose": {
            "orientation": {
                "w": 0.7031023480610252,
                "x": -0.7110244013736278,
                "y": 0.0077485991402295624,
                "z": 0.005598929693374583
            },
            "position": {
                "x": -0.8841497679147869,
                "y": 0.44412534475326537,
                "z": 0.3711530566215515
            }
        },
        "name": "move_to_auspresseinheit_D"
    },
    "id": "LBKPIECE_move_to_auspresseinheit_D_83",
    "joint_names": [
        "shoulder_pan_joint",
        "shoulder_lift_joint",
        "elbow_joint",
        "wrist_1_joint",
        "wrist_2_joint",
        "wrist_3_joint"
    ],
    "metrics": {
        "cart_traj_len": 0.3431337158716175,
        "distance_elbow_joint": 0.6407046663724267,
        "distance_shoulder_lift_joint": 0.1235350068466996,
        "distance_shoulder_pan_joint": 0.13402904526694762,
        "distance_wrist_1_joint": 0.5279517329947807,
        "distance_wrist_2_joint": 1.4453701459241843,
        "distance_wrist_3_joint": 0.003740333062768997,
        "smoothness": 0.0,
        "time": 0.76945332,
        "traj_len": 1.6956800790443367,
        "weighted_distance": 2.2036636484528014
    },
    "planner": "LBKPIECE",
    "start": {
        "state": {
            "elbow_joint": -1.8275484843655228,
            "shoulder_lift_joint": -2.1267897864000416,
            "shoulder_pan_joint": -0.035127520176001514,
            "wrist_1_joint": -2.3477863256791385,
            "wrist_2_joint": -1.605890476484521,
            "wrist_3_joint": -3.0880375317375353
        }
    },
    "waypoints": [
        {
            "positions": [
                -0.035127520176001514,
                -2.1267897864000416,
                -1.8275484843655228,
                -2.3477863256791385,
                -1.605890476484521,
                -3.0880375317375353
            ]
        },
        {
            "positions": [
                -0.05188115083436996,
                -2.1422316622558792,
                -1.7474604010689694,
                -2.413780292303486,
                -1.4252192082439978,
                -3.087569990104689
            ]
        },
        {
            "positions": [
                -0.06863478149273841,
                -2.1576735381117165,
                -1.667372317772416,
                -2.4797742589278338,
                -1.244547940003475,
                -3.087102448471843
            ]
        },
        {
            "positions": [
                -0.08538841215110687,
                -2.1731154139675537,
                -1.5872842344758626,
                -2.545768225552181,
                -1.063876671762952,
                -3.086634906838997
            ]
        },
        {
            "positions": [
                -0.10214204280947532,
                -2.1885572898233914,
                -1.5071961511793095,
                -2.6117621921765286,
                -0.8832054035224288,
                -3.0861673652061508
            ]
        },
        {
            "positions": [
                -0.11889567346784377,
                -2.203999165679229,
                -1.427108067882756,
                -2.6777561588008765,
                -0.7025341352819058,
                -3.0856998235733046
            ]
        },
        {
            "positions": [
                -0.13564930412621223,
                -2.2194410415350663,
                -1.3470199845862028,
                -2.743750125425224,
                -0.5218628670413827,
                -3.0852322819404585
            ]
        },
        {
            "positions": [
                -0.15240293478458067,
                -2.2348829173909035,
                -1.2669319012896494,
                -2.8097440920495718,
                -0.3411915988008596,
                -3.0847647403076124
            ]
        },
        {
            "positions": [
                -0.16915656544294913,
                -2.250324793246741,
                -1.186843817993096,
                -2.875738058673919,
                -0.16052033056033677,
                -3.0842971986747663
            ]
        }
    ]
}