{
    "goal": {
        "global_pose": {
            "orientation": {
                "w": -0.00223480608172531,
                "x": 0.0024358444001904467,
                "y": 0.7094548369677653,
                "z": -0.704743149386269
            },
            "position": {
                "x": 0.6205249238014221,
                "y": -0.6371506643295288,
                "z": 0.19426114857196808
            }
        },
        "name": "move_to_magneteinheit_B"
    },
    "id": "LBKPIECE_move_to_magneteinheit_B_81",
    "joint_names": [
        "shoulder_pan_joint",
        "shoulder_lift_joint",
        "elbow_joint",
        "wrist_1_joint",
        "wrist_2_joint",
        "wrist_3_joint"
    ],
    "metrics": {
        "cart_traj_len": 1.4527406776593323,
        "distance_elbow_joint": 0.7259476372129294,
        "distance_shoulder_lift_joint": 1.2461548292956532,
        "distance_shoulder_pan_joint": 1.622428719672811,
        "distance_wrist_1_joint": 2.611753906776406,
        "distance_wrist_2_joint": 2.9336586818836623,
        "distance_wrist_3_joint": 3.1397082283821707,
        "smoothness": 1.387778783941556e-16,
        "time": 0.38781933,
        "traj_len": 3.5042334401725626,
        "weighted_distance": 4.909631457517768
    },
    "planner": "LBKPIECE",
    "start": {
        "state": {
            "elbow_joint": 2.393587130804639,
            "shoulder_lift_joint": -1.9085141043513325,
            "shoulder_pan_joint": 0.7066247066698809,
            "wrist_1_joint": -0.4678290934590222,
            "wrist_2_joint": 0.7096259084215963,
            "wrist_3_joint": 3.147370379541726
        }
    },
    "waypoints": [
        {
            "positions": [
                0.7066247066698809,
                -1.9085141043513325,
                2.393587130804639,
                -0.4678290934590222,
                0.7096259084215963,
                3.147370379541726
            ]
        },
        {
            "positions": [
                0.6542882963578547,
                -1.8683155614708276,
                2.3701694650880927,
                -0.3835789674339768,
                0.6149917573930911,
                3.046089468948753
            ]
        },
        {
            "positions": [
                0.6019518860458285,
                -1.8281170185903226,
                2.3467517993715465,
                -0.29932884140893146,
                0.520357606364586,
                2.9448085583557795
            ]
        },
        {
            "positions": [
                0.5496154757338023,
                -1.7879184757098177,
                2.3233341336550004,
                -0.21507871538388607,
                0.4257234553360807,
                2.8435276477628064
            ]
        },
        {
            "positions": [
                0.49727906542177625,
                -1.7477199328293127,
                2.2999164679384543,
                -0.13082858935884067,
                0.3310893043075755,
                2.742246737169833
            ]
        },
        {
            "positions": [
                0.44494265510975006,
                -1.7075213899488078,
                2.276498802221908,
                -0.04657846333379534,
                0.23645515327907024,
                2.64096582657686
            ]
        },
        {
            "positions": [
                0.3926062447977239,
                -1.6673228470683028,
                2.253081136505362,
                0.03767166269125005,
                0.14182100225056504,
                2.5396849159838863
            ]
        },
        {
            "positions": [
                0.3402698344856977,
                -1.6271243041877979,
                2.229663470788816,
                0.12192178871629539,
                0.04718685122205979,
                2.4384040053909133
            ]
        },
        {
            "positions": [
                0.28793342417367157,
                -1.586925761307293,
                2.2062458050722698,
                0.20617191474134083,
                -0.04744729980644535,
                2.3371230947979402
            ]
        },
        {
            "positions": [
                0.23559701386164533,
                -1.546727218426788,
                2.1828281393557236,
                0.2904220407663863,
                -0.14208145083495072,
                2.2358421842049667
            ]
        },
        {
            "positions": [
                0.18326060354961926,
                -1.506528675546283,
                2.159410473639178,
                0.3746721667914315,
                -0.23671560186345586,
                2.1345612736119937
            ]
        },
        {
            "positions": [
                0.13092419323759308,
                -1.466330132665778,
                2.135992807922632,
                0.45892229281647695,
                -0.3313497528919611,
                2.0332803630190206
            ]
        },
        {
            "positions": [
                0.0785877829255669,
                -1.4261315897852733,
                2.1125751422060857,
                0.5431724188415223,
                -0.42598390392046626,
                1.931999452426047
            ]
        },
        {
            "positions": [
                0.026251372613540713,
                -1.3859330469047682,
                2.0891574764895395,
                0.6274225448665678,
                -0.5206180549489716,
                1.8307185418330738
            ]
        },
        {
            "positions": [
                -0.02608503769848547,
                -1.3457345040242634,
                2.0657398107729934,
                0.711672670891613,
                -0.6152522059774768,
                1.7294376312401005
            ]
        },
        {
            "positions": [
                -0.07842144801051165,
                -1.3055359611437583,
                2.0423221450564473,
                0.7959227969166585,
                -0.7098863570059821,
                1.6281567206471272
            ]
        },
        {
            "positions": [
                -0.13075785832253772,
                -1.2653374182632535,
                2.018904479339901,
                0.8801729229417039,
                -0.804520508034487,
                1.5268758100541542
            ]
        },
        {
            "positions": [
                -0.1830942686345639,
                -1.2251388753827486,
                1.995486813623355,
                0.9644230489667491,
                -0.8991546590629922,
                1.425594899461181
            ]
        },
        {
            "positions": [
                -0.2354306789465902,
                -1.1849403325022436,
                1.9720691479068089,
                1.0486731749917948,
                -0.9937888100914978,
                1.3243139888682074
            ]
        },
        {
            "positions": [
                -0.28776708925861627,
                -1.1447417896217384,
                1.9486514821902627,
                1.13292330101684,
                -1.088422961120003,
                1.2230330782752343
            ]
        },
        {
            "positions": [
                -0.34010349957064234,
                -1.1045432467412337,
                1.9252338164737166,
                1.2171734270418852,
                -1.183057112148508,
                1.1217521676822613
            ]
        },
        {
            "positions": [
                -0.3924399098826684,
                -1.0643447038607288,
                1.9018161507571705,
                1.3014235530669307,
                -1.2776912631770132,
                1.0204712570892882
            ]
        },
        {
            "positions": [
                -0.4447763201946947,
                -1.0241461609802238,
                1.8783984850406243,
                1.3856736790919761,
                -1.3723254142055186,
                0.9191903464963147
            ]
        },
        {
            "positions": [
                -0.497112730506721,
                -0.9839476180997188,
                1.8549808193240782,
                1.4699238051170216,
                -1.466959565234024,
                0.8179094359033412
            ]
        },
        {
            "positions": [
                -0.5494491408187471,
                -0.9437490752192139,
                1.831563153607532,
                1.5541739311420668,
                -1.5615937162625289,
                0.7166285253103681
            ]
        },
        {
            "positions": [
                -0.6017855511307731,
                -0.903550532338709,
                1.808145487890986,
                1.6384240571671123,
                -1.6562278672910342,
                0.6153476147173951
            ]
        },
        {
            "positions": [
                -0.6541219614427994,
                -0.863351989458204,
                1.7847278221744398,
                1.7226741831921577,
                -1.7508620183195396,
                0.5140667041244216
            ]
        },
        {
            "positions": [
                -0.7064583717548255,
                -0.8231534465776991,
                1.7613101564578937,
                1.8069243092172032,
                -1.8454961693480445,
                0.4127857935314485
            ]
        },
        {
            "positions": [
                -0.7587947820668518,
                -0.7829549036971941,
                1.7378924907413478,
                1.8911744352422482,
                -1.9401303203765499,
                0.311504882938475
            ]
        },
        {
            "positions": [
                -0.8111311923788779,
                -0.7427563608166892,
                1.7144748250248016,
                1.9754245612672936,
                -2.0347644714050546,
                0.21022397234550194
            ]
        },
        {
            "positions": [
                -0.8634676026909042,
                -0.7025578179361842,
                1.6910571593082555,
                2.059674687292339,
                -2.129398622433561,
                0.10894306175252844
            ]
        },
        {
            "positions": [
                -0.9158040130029302,
                -0.6623592750556792,
                1.6676394935917094,
                2.1439248133173843,
                -2.2240327734620657,
                0.007662151159555584
            ]
        }
    ]
}