{
    "goal": {
        "global_pose": {
            "orientation": {
                "w": 0.5084816217422485,
                "x": -0.49083608388900757,
                "y": 0.5182115435600281,
                "z": -0.4816462993621826
            },
            "position": {
                "x": 0.5540239810943604,
                "y": 0.030875300988554955,
                "z": 0.16403168439865112
            }
        },
        "name": "move_to_storage_A"
    },
    "id": "LBKPIECE_move_to_storage_A_125",
    "joint_names": [
        "shoulder_pan_joint",
        "shoulder_lift_joint",
        "elbow_joint",
        "wrist_1_joint",
        "wrist_2_joint",
        "wrist_3_joint"
    ],
    "metrics": {
        "cart_traj_len": 0.35334924687306063,
        "distance_elbow_joint": 0.45119047932558876,
        "distance_shoulder_lift_joint": 0.23658832447619194,
        "distance_shoulder_pan_joint": 0.46344155546100574,
        "distance_wrist_1_joint": 0.2422080670950435,
        "distance_wrist_2_joint": 1.0947842339634088,
        "distance_wrist_3_joint": 0.08800564929838917,
        "smoothness": 8.881784232165597e-16,
        "time": 0.405570064,
        "traj_len": 1.6050602199355724,
        "weighted_distance": 2.022182461914567
    },
    "planner": "LBKPIECE",
    "start": {
        "state": {
            "elbow_joint": 1.971548880431181,
            "shoulder_lift_joint": -1.1394869514688781,
            "shoulder_pan_joint": 0.12281150262730567,
            "wrist_1_joint": -0.7804693444481463,
            "wrist_2_joint": 0.12958644648617612,
            "wrist_3_joint": 3.0906942077768043
        }
    },
    "waypoints": [
        {
            "positions": [
                0.12281150262730567,
                -1.1394869514688781,
                1.971548880431181,
                -0.7804693444481463,
                0.12958644648617612,
                3.0906942077768043
            ]
        },
        {
            "positions": [
                0.056605566132876275,
                -1.1732852835369056,
                2.0360046631919793,
                -0.8150704968902954,
                0.2859841941952345,
                3.1032664433908597
            ]
        },
        {
            "positions": [
                -0.009600370361553118,
                -1.207083615604933,
                2.100460445952778,
                -0.8496716493324444,
                0.4423819419042929,
                3.1158386790049155
            ]
        },
        {
            "positions": [
                -0.0758063068559825,
                -1.2408819476729605,
                2.164916228713576,
                -0.8842728017745936,
                0.5987796896133513,
                3.128410914618971
            ]
        },
        {
            "positions": [
                -0.1420122433504119,
                -1.2746802797409877,
                2.2293720114743745,
                -0.9188739542167426,
                0.7551774373224097,
                3.1409831502330268
            ]
        },
        {
            "positions": [
                -0.2082181798448413,
                -1.3084786118090153,
                2.293827794235173,
                -0.9534751066588917,
                0.9115751850314682,
                3.153555385847082
            ]
        },
        {
            "positions": [
                -0.27442411633927066,
                -1.3422769438770425,
                2.358283576995971,
                -0.9880762591010407,
                1.0679729327405265,
                3.166127621461138
            ]
        },
        {
            "positions": [
                -0.34063005283370007,
                -1.37607527594507,
                2.4227393597567697,
                -1.0226774115431898,
                1.2243706804495849,
                3.1786998570751934
            ]
        }
    ]
}