{
    "goal": {
        "global_pose": {
            "orientation": {
                "w": -0.4816463035849501,
                "x": 0.5182115481033762,
                "y": 0.4908360881923453,
                "z": -0.5084816262002911
            },
            "position": {
                "x": -0.8240239810943604,
                "y": -0.300875300988555,
                "z": 0.16403168439865112
            }
        },
        "name": "move_to_storage_C"
    },
    "id": "LBKPIECE_move_to_storage_C_60",
    "joint_names": [
        "shoulder_pan_joint",
        "shoulder_lift_joint",
        "elbow_joint",
        "wrist_1_joint",
        "wrist_2_joint",
        "wrist_3_joint"
    ],
    "metrics": {
        "cart_traj_len": 0.5756427357599883,
        "distance_elbow_joint": 0.25590024698589753,
        "distance_shoulder_lift_joint": 0.1886060536762213,
        "distance_shoulder_pan_joint": 0.4943720898050814,
        "distance_wrist_1_joint": 0.07280844836763378,
        "distance_wrist_2_joint": 1.0631765176625303,
        "distance_wrist_3_joint": 0.05622561445117302,
        "smoothness": 0.0,
        "time": 0.960885059,
        "traj_len": 1.459824979560405,
        "weighted_distance": 1.8383484886933292
    },
    "planner": "LBKPIECE",
    "start": {
        "state": {
            "elbow_joint": 2.0108683149792914,
            "shoulder_lift_joint": -1.1634956873317392,
            "shoulder_pan_joint": -2.4736205022346,
            "wrist_1_joint": -0.8367026793690192,
            "wrist_2_joint": 0.6746043897045053,
            "wrist_3_joint": 3.133522094754363
        }
    },
    "waypoints": [
        {
            "positions": [
                -2.4736205022346,
                -1.1634956873317392,
                2.0108683149792914,
                -0.8367026793690192,
                0.6746043897045053,
                3.133522094754363
            ]
        },
        {
            "positions": [
                -2.556015850535447,
                -1.132061345052369,
                1.9682182738149752,
                -0.8245679379744135,
                0.8518004759815937,
                3.1428930304962255
            ]
        },
        {
            "positions": [
                -2.6384111988362937,
                -1.1006270027729987,
                1.925568232650659,
                -0.812433196579808,
                1.028996562258682,
                3.1522639662380874
            ]
        },
        {
            "positions": [
                -2.7208065471371405,
                -1.0691926604936286,
                1.8829181914863427,
                -0.8002984551852024,
                1.2061926485357706,
                3.1616349019799497
            ]
        },
        {
            "positions": [
                -2.803201895437988,
                -1.0377583182142585,
                1.8402681503220264,
                -0.7881637137905967,
                1.3833887348128588,
                3.171005837721812
            ]
        },
        {
            "positions": [
                -2.8855972437388346,
                -1.006323975934888,
                1.7976181091577101,
                -0.776028972395991,
                1.5605848210899471,
                3.180376773463674
            ]
        },
        {
            "positions": [
                -2.9679925920396815,
                -0.974889633655518,
                1.7549680679933939,
                -0.7638942310013854,
                1.7377809073670356,
                3.189747709205536
            ]
        }
    ]
}