{
    "goal": {
        "global_pose": {
            "orientation": {
                "w": 0.7047431468963623,
                "x": -0.7094548344612122,
                "y": 0.0024358443915843964,
                "z": -0.0022348060738295317
            },
            "position": {
                "x": 0.6094750761985779,
                "y": 0.3671506643295288,
                "z": 0.19426114857196808
            }
        },
        "name": "move_to_magneteinheit_A"
    },
    "id": "LBKPIECE_move_to_magneteinheit_A_106",
    "joint_names": [
        "shoulder_pan_joint",
        "shoulder_lift_joint",
        "elbow_joint",
        "wrist_1_joint",
        "wrist_2_joint",
        "wrist_3_joint"
    ],
    "metrics": {
        "cart_traj_len": 1.5931263938451337,
        "distance_elbow_joint": 3.5423515680487094,
        "distance_shoulder_lift_joint": 1.1441582675501343,
        "distance_shoulder_pan_joint": 1.242525221750346,
        "distance_wrist_1_joint": 3.904832226642339,
        "distance_wrist_2_joint": 1.6966175755454895,
        "distance_wrist_3_joint": 1.1839659636608655,
        "smoothness": 2.8735184173255764e-16,
        "time": 0.267317085,
        "traj_len": 3.5657328592027033,
        "weighted_distance": 4.54794816952738
    },
    "planner": "LBKPIECE",
    "start": {
        "state": {
            "elbow_joint": -1.5739458827952972,
            "shoulder_lift_joint": 0.006533473998580023,
            "shoulder_pan_joint": -1.1188671628667068,
            "wrist_1_joint": 3.138208179676308,
            "wrist_2_joint": -1.5706037135050406,
            "wrist_3_joint": -2.0226958329764257
        }
    },
    "waypoints": [
        {
            "positions": [
                -1.1188671628667068,
                0.006533473998580023,
                -1.5739458827952972,
                3.138208179676308,
                -1.5706037135050406,
                -2.0226958329764257
            ]
        },
        {
            "positions": [
                -1.0812148834197266,
                -0.028137988654454348,
                -1.4666018958847302,
                3.019879930384116,
                -1.5191910597006317,
                -2.0585735894509973
            ]
        },
        {
            "positions": [
                -1.0435626039727466,
                -0.06280945130748872,
                -1.3592579089741634,
                2.9015516810919237,
                -1.467778405896223,
                -2.094451345925569
            ]
        },
        {
            "positions": [
                -1.0059103245257663,
                -0.0974809139605231,
                -1.2519139220635964,
                2.783223431799732,
                -1.4163657520918143,
                -2.130329102400141
            ]
        },
        {
            "positions": [
                -0.9682580450787861,
                -0.13215237661355744,
                -1.1445699351530294,
                2.6648951825075398,
                -1.3649530982874054,
                -2.1662068588747125
            ]
        },
        {
            "positions": [
                -0.930605765631806,
                -0.16682383926659183,
                -1.0372259482424626,
                2.5465669332153476,
                -1.3135404444829968,
                -2.202084615349284
            ]
        },
        {
            "positions": [
                -0.8929534861848257,
                -0.2014953019196262,
                -0.9298819613318955,
                2.428238683923156,
                -1.262127790678588,
                -2.2379623718238557
            ]
        },
        {
            "positions": [
                -0.8553012067378456,
                -0.2361667645726606,
                -0.8225379744213286,
                2.3099104346309636,
                -1.210715136874179,
                -2.2738401282984277
            ]
        },
        {
            "positions": [
                -0.8176489272908654,
                -0.27083822722569495,
                -0.7151939875107616,
                2.1915821853387714,
                -1.1593024830697702,
                -2.3097178847729993
            ]
        },
        {
            "positions": [
                -0.7799966478438852,
                -0.30550968987872934,
                -0.6078500006001948,
                2.073253936046579,
                -1.1078898292653616,
                -2.345595641247571
            ]
        },
        {
            "positions": [
                -0.7423443683969051,
                -0.34018115253176373,
                -0.5005060136896278,
                1.9549256867543872,
                -1.056477175460953,
                -2.3814733977221425
            ]
        },
        {
            "positions": [
                -0.7046920889499249,
                -0.37485261518479807,
                -0.39316202677906076,
                1.8365974374621952,
                -1.0050645216565441,
                -2.417351154196714
            ]
        },
        {
            "positions": [
                -0.6670398095029446,
                -0.40952407783783246,
                -0.28581803986849375,
                1.718269188170003,
                -0.9536518678521353,
                -2.453228910671286
            ]
        },
        {
            "positions": [
                -0.6293875300559646,
                -0.4441955404908668,
                -0.17847405295792695,
                1.599940938877811,
                -0.9022392140477266,
                -2.4891066671458577
            ]
        },
        {
            "positions": [
                -0.5917352506089844,
                -0.47886700314390124,
                -0.07113006604735994,
                1.4816126895856188,
                -0.8508265602433177,
                -2.5249844236204293
            ]
        },
        {
            "positions": [
                -0.5540829711620041,
                -0.5135384657969355,
                0.03621392086320707,
                1.3632844402934268,
                -0.799413906438909,
                -2.560862180095001
            ]
        },
        {
            "positions": [
                -0.516430691715024,
                -0.5482099284499699,
                0.14355790777377408,
                1.2449561910012346,
                -0.7480012526345001,
                -2.5967399365695725
            ]
        },
        {
            "positions": [
                -0.47877841226804374,
                -0.5828813911030043,
                0.2509018946843409,
                1.1266279417090428,
                -0.6965885988300915,
                -2.6326176930441445
            ]
        },
        {
            "positions": [
                -0.4411261328210636,
                -0.6175528537560386,
                0.35824588159490767,
                1.0082996924168506,
                -0.6451759450256828,
                -2.668495449518716
            ]
        },
        {
            "positions": [
                -0.40347385337408337,
                -0.6522243164090731,
                0.4655898685054749,
                0.8899714431246584,
                -0.5937632912212738,
                -2.7043732059932877
            ]
        },
        {
            "positions": [
                -0.36582157392710324,
                -0.6868957790621074,
                0.5729338554160417,
                0.7716431938324662,
                -0.5423506374168652,
                -2.7402509624678593
            ]
        },
        {
            "positions": [
                -0.3281692944801231,
                -0.7215672417151417,
                0.6802778423266089,
                0.6533149445402744,
                -0.49093798361245633,
                -2.776128718942431
            ]
        },
        {
            "positions": [
                -0.29051701503314287,
                -0.7562387043681761,
                0.7876218292371757,
                0.5349866952480822,
                -0.4395253298080477,
                -2.812006475417003
            ]
        },
        {
            "positions": [
                -0.2528647355861626,
                -0.7909101670212105,
                0.894965816147743,
                0.41665844595588997,
                -0.38811267600363863,
                -2.8478842318915745
            ]
        },
        {
            "positions": [
                -0.2152124561391825,
                -0.8255816296742449,
                1.0023098030583097,
                0.29833019666369776,
                -0.33670002219923,
                -2.883761988366146
            ]
        },
        {
            "positions": [
                -0.17756017669220236,
                -0.8602530923272792,
                1.1096537899688765,
                0.180001947371506,
                -0.28528736839482116,
                -2.9196397448407176
            ]
        },
        {
            "positions": [
                -0.13990789724522223,
                -0.8949245549803135,
                1.2169977768794433,
                0.06167369807931378,
                -0.23387471459041254,
                -2.9555175013152892
            ]
        },
        {
            "positions": [
                -0.10225561779824188,
                -0.9295960176333481,
                1.3243417637900106,
                -0.056654551212878435,
                -0.1824620607860037,
                -2.9913952577898613
            ]
        },
        {
            "positions": [
                -0.06460333835126186,
                -0.9642674802863824,
                1.4316857507005774,
                -0.17498280050507065,
                -0.13104940698159484,
                -3.027273014264433
            ]
        },
        {
            "positions": [
                -0.026951058904281622,
                -0.9989389429394167,
                1.5390297376111446,
                -0.2933110497972624,
                -0.07963675317718621,
                -3.0631507707390044
            ]
        },
        {
            "positions": [
                0.01070122054269862,
                -1.033610405592451,
                1.6463737245217114,
                -0.4116392990894546,
                -0.028224099372777367,
                -3.0990285272135765
            ]
        },
        {
            "positions": [
                0.04835349998967886,
                -1.0682818682454855,
                1.7537177114322786,
                -0.5299675483816468,
                0.02318855443163148,
                -3.1349062836881476
            ]
        },
        {
            "positions": [
                0.08600577943665888,
                -1.1029533308985198,
                1.8610616983428454,
                -0.648295797673839,
                0.07460120823604033,
                -3.1707840401627196
            ]
        },
        {
            "positions": [
                0.12365805888363915,
                -1.1376247935515542,
                1.9684056852534122,
                -0.7666240469660308,
                0.12601386204044887,
                -3.2066617966372912
            ]
        }
    ]
}