{
    "goal": {
        "global_pose": {
            "orientation": {
                "w": -0.00223480608172531,
                "x": 0.0024358444001904467,
                "y": 0.7094548369677653,
                "z": -0.704743149386269
            },
            "position": {
                "x": -0.37947507619857795,
                "y": -0.6371506643295288,
                "z": 0.19426114857196808
            }
        },
        "name": "move_to_magneteinheit_C"
    },
    "id": "LBKPIECE_move_to_magneteinheit_C_133",
    "joint_names": [
        "shoulder_pan_joint",
        "shoulder_lift_joint",
        "elbow_joint",
        "wrist_1_joint",
        "wrist_2_joint",
        "wrist_3_joint"
    ],
    "metrics": {
        "cart_traj_len": 0.783554015502016,
        "distance_elbow_joint": 0.06663842445898527,
        "distance_shoulder_lift_joint": 0.44640766328491877,
        "distance_shoulder_pan_joint": 0.8024252249067263,
        "distance_wrist_1_joint": 1.1483154118559629,
        "distance_wrist_2_joint": 0.971458456086152,
        "distance_wrist_3_joint": 1.168715372596984,
        "smoothness": 0.9557687102180756,
        "time": 0.099488113,
        "traj_len": 2.145684169021557,
        "weighted_distance": 3.0101769327276777
    },
    "planner": "LBKPIECE",
    "start": {
        "state": {
            "elbow_joint": 1.9565354006593851,
            "shoulder_lift_joint": -1.4165861576512813,
            "shoulder_pan_joint": -1.6717766223278752,
            "wrist_1_joint": -0.528663328821883,
            "wrist_2_joint": 1.472756589259273,
            "wrist_3_joint": 3.159348288315503
        }
    },
    "waypoints": [
        {
            "positions": [
                -1.6717766223278752,
                -1.4165861576512813,
                1.9565354006593851,
                -0.528663328821883,
                1.472756589259273,
                3.159348288315503
            ]
        },
        {
            "positions": [
                -1.6776428578899378,
                -1.4409276549257914,
                1.9551691526570838,
                -0.44075388834010387,
                1.387752444359905,
                3.057248019461267
            ]
        },
        {
            "positions": [
                -1.6835090934520007,
                -1.4652691522003018,
                1.9538029046547822,
                -0.35284444785832464,
                1.3027482994605366,
                2.955147750607031
            ]
        },
        {
            "positions": [
                -1.6893753290140634,
                -1.489610649474812,
                1.952436656652481,
                -0.2649350073765454,
                1.2177441545611685,
                2.853047481752795
            ]
        },
        {
            "positions": [
                -1.695241564576126,
                -1.5139521467493222,
                1.9510704086501796,
                -0.17702556689476623,
                1.1327400096618003,
                2.750947212898559
            ]
        },
        {
            "positions": [
                -1.9380070500751823,
                -1.5128855299981836,
                1.9568056794594082,
                -0.15471870996200063,
                1.1622518055275,
                2.689887404914687
            ]
        },
        {
            "positions": [
                -2.1807725355742384,
                -1.5118189132470452,
                1.9625409502686366,
                -0.13241185302923503,
                1.1917636013931996,
                2.6288275969308152
            ]
        },
        {
            "positions": [
                -2.4235380210732944,
                -1.5107522964959066,
                1.9682762210778653,
                -0.11010499609646943,
                1.2212753972588992,
                2.5677677889469432
            ]
        },
        {
            "positions": [
                -2.431981992100179,
                -1.4531119925069962,
                1.9756041577482142,
                -0.23173117595156098,
                1.1307909824436357,
                2.663956934485014
            ]
        },
        {
            "positions": [
                -2.4404259631270633,
                -1.3954716885180858,
                1.9829320944185633,
                -0.3533573558066525,
                1.0403065676283725,
                2.760146080023085
            ]
        },
        {
            "positions": [
                -2.448869934153948,
                -1.3378313845291756,
                1.9902600310889123,
                -0.4749835356617441,
                0.949822152813109,
                2.856335225561155
            ]
        },
        {
            "positions": [
                -2.4573139051808326,
                -1.2801910805402652,
                1.9975879677592612,
                -0.5966097155168356,
                0.8593377379978457,
                2.952524371099226
            ]
        },
        {
            "positions": [
                -2.465757876207717,
                -1.2225507765513548,
                2.0049159044296103,
                -0.7182358953719272,
                0.7688533231825823,
                3.0487135166372967
            ]
        },
        {
            "positions": [
                -2.4742018472346015,
                -1.1649104725624444,
                2.0122438410999592,
                -0.8398620752270187,
                0.6783689083673189,
                3.1449026621753675
            ]
        }
    ]
}