{
    "goal": {
        "global_pose": {
            "orientation": {
                "w": -0.4816463035849501,
                "x": 0.5182115481033762,
                "y": 0.4908360881923453,
                "z": -0.5084816262002911
            },
            "position": {
                "x": -0.8240239810943604,
                "y": -0.300875300988555,
                "z": 0.16403168439865112
            }
        },
        "name": "move_to_storage_C"
    },
    "id": "LBKPIECE_move_to_storage_C_124",
    "joint_names": [
        "shoulder_pan_joint",
        "shoulder_lift_joint",
        "elbow_joint",
        "wrist_1_joint",
        "wrist_2_joint",
        "wrist_3_joint"
    ],
    "metrics": {
        "cart_traj_len": 0.5770190971917473,
        "distance_elbow_joint": 0.25615661115079935,
        "distance_shoulder_lift_joint": 0.19012085467126993,
        "distance_shoulder_pan_joint": 0.49598419957639184,
        "distance_wrist_1_joint": 0.07018563241108988,
        "distance_wrist_2_joint": 1.060351686941804,
        "distance_wrist_3_joint": 0.058261784035768205,
        "smoothness": 0.0,
        "time": 0.779103269,
        "traj_len": 1.4598153200960466,
        "weighted_distance": 1.8379667179281438
    },
    "planner": "LBKPIECE",
    "start": {
        "state": {
            "elbow_joint": 2.0108683149792914,
            "shoulder_lift_joint": -1.1634956873317392,
            "shoulder_pan_joint": -2.4736205022346,
            "wrist_1_joint": -0.8367026793690192,
            "wrist_2_joint": 0.6746043897045053,
            "wrist_3_joint": 3.133522094754363
        }
    },
    "waypoints": [
        {
            "positions": [
                -2.4736205022346,
                -1.1634956873317392,
                2.0108683149792914,
                -0.8367026793690192,
                0.6746043897045053,
                3.133522094754363
            ]
        },
        {
            "positions": [
                -2.556284535497332,
                -1.131808878219861,
                1.9681755464541582,
                -0.8250050739671709,
                0.8513296708614726,
                3.143232392093658
            ]
        },
        {
            "positions": [
                -2.638948568760064,
                -1.1001220691079827,
                1.925482777929025,
                -0.8133074685653225,
                1.0280549520184399,
                3.1529426894329524
            ]
        },
        {
            "positions": [
                -2.721612602022796,
                -1.0684352599961042,
                1.8827900094038919,
                -0.8016098631634743,
                1.2047802331754074,
                3.1626529867722475
            ]
        },
        {
            "positions": [
                -2.804276635285528,
                -1.036748450884226,
                1.8400972408787586,
                -0.789912257761626,
                1.3815055143323747,
                3.172363284111542
            ]
        },
        {
            "positions": [
                -2.88694066854826,
                -1.0050616417723477,
                1.7974044723536253,
                -0.7782146523597776,
                1.558230795489342,
                3.1820735814508367
            ]
        },
        {
            "positions": [
                -2.969604701810992,
                -0.9733748326604693,
                1.754711703828492,
                -0.7665170469579293,
                1.7349560766463092,
                3.1917838787901314
            ]
        }
    ]
}