{
    "goal": {
        "global_pose": {
            "orientation": {
                "w": -0.00223480608172531,
                "x": 0.0024358444001904467,
                "y": 0.7094548369677653,
                "z": -0.704743149386269
            },
            "position": {
                "x": -0.37947507619857795,
                "y": -0.6371506643295288,
                "z": 0.19426114857196808
            }
        },
        "name": "move_to_magneteinheit_C"
    },
    "id": "LBKPIECE_move_to_magneteinheit_C_90",
    "joint_names": [
        "shoulder_pan_joint",
        "shoulder_lift_joint",
        "elbow_joint",
        "wrist_1_joint",
        "wrist_2_joint",
        "wrist_3_joint"
    ],
    "metrics": {
        "cart_traj_len": 1.0357243594365535,
        "distance_elbow_joint": 0.758810680305307,
        "distance_shoulder_lift_joint": 0.41485790368680764,
        "distance_shoulder_pan_joint": 1.146903008164318,
        "distance_wrist_1_joint": 2.3586889134404694,
        "distance_wrist_2_joint": 2.0597143210533284,
        "distance_wrist_3_joint": 7.324247433185267,
        "smoothness": 0.5675038490215283,
        "time": 0.838378961,
        "traj_len": 3.750096300074905,
        "weighted_distance": 5.755877027934129
    },
    "planner": "LBKPIECE",
    "start": {
        "state": {
            "elbow_joint": 1.9565354006593851,
            "shoulder_lift_joint": -1.4165861576512813,
            "shoulder_pan_joint": -1.6717766223278752,
            "wrist_1_joint": -0.528663328821883,
            "wrist_2_joint": 1.472756589259273,
            "wrist_3_joint": 3.159348288315503
        }
    },
    "waypoints": [
        {
            "positions": [
                -1.6717766223278752,
                -1.4165861576512813,
                1.9565354006593851,
                -0.528663328821883,
                1.472756589259273,
                3.159348288315503
            ]
        },
        {
            "positions": [
                -1.6217258386941626,
                -1.4197070948144908,
                1.9333188406946,
                -0.47981179263661206,
                1.4439214169333963,
                3.0799548347603167
            ]
        },
        {
            "positions": [
                -1.57167505506045,
                -1.4228280319777,
                1.9101022807298147,
                -0.43096025645134106,
                1.4150862446075192,
                3.00056138120513
            ]
        },
        {
            "positions": [
                -1.5644277458343963,
                -1.4304151976213029,
                1.9093749501248272,
                -0.4996161145456144,
                1.3847975468332236,
                2.730291705218399
            ]
        },
        {
            "positions": [
                -1.5571804366083428,
                -1.4380023632649057,
                1.9086476195198396,
                -0.5682719726398877,
                1.354508849058928,
                2.460022029231668
            ]
        },
        {
            "positions": [
                -1.5499331273822894,
                -1.4455895289085086,
                1.907920288914852,
                -0.6369278307341609,
                1.3242201512846328,
                2.1897523532449372
            ]
        },
        {
            "positions": [
                -1.5426858181562357,
                -1.4531766945521114,
                1.9071929583098646,
                -0.7055836888284344,
                1.2939314535103372,
                1.9194826772582063
            ]
        },
        {
            "positions": [
                -1.535438508930182,
                -1.4607638601957142,
                1.906465627704877,
                -0.7742395469227076,
                1.2636427557360417,
                1.6492130012714754
            ]
        },
        {
            "positions": [
                -1.5281911997041286,
                -1.4683510258393169,
                1.9057382970998895,
                -0.8428954050169808,
                1.2333540579617461,
                1.3789433252847445
            ]
        },
        {
            "positions": [
                -1.5209438904780752,
                -1.4759381914829197,
                1.905010966494902,
                -0.9115512631112541,
                1.2030653601874506,
                1.1086736492980138
            ]
        },
        {
            "positions": [
                -1.5136965812520216,
                -1.4835253571265226,
                1.9042836358899144,
                -0.9802071212055276,
                1.1727766624131553,
                0.8384039733112827
            ]
        },
        {
            "positions": [
                -1.506449272025968,
                -1.4911125227701254,
                1.903556305284927,
                -1.0488629792998008,
                1.1424879646388597,
                0.5681342973245518
            ]
        },
        {
            "positions": [
                -1.4992019627999145,
                -1.4986996884137282,
                1.9028289746799394,
                -1.117518837394074,
                1.1121992668645642,
                0.29786462133782077
            ]
        },
        {
            "positions": [
                -1.5472574063009255,
                -1.4826971947427947,
                1.9430826790854139,
                -1.2153486514155025,
                1.1656753600565983,
                0.1672077407547538
            ]
        },
        {
            "positions": [
                -1.5953128498019364,
                -1.4666947010718612,
                1.9833363834908884,
                -1.313178465436931,
                1.2191514532486325,
                0.03655086017168685
            ]
        },
        {
            "positions": [
                -1.6433682933029474,
                -1.4506922074009276,
                2.023590087896363,
                -1.4110082794583594,
                1.272627546440667,
                -0.09410602041138005
            ]
        },
        {
            "positions": [
                -1.6914237368039584,
                -1.434689713729994,
                2.0638437923018373,
                -1.508838093479788,
                1.326103639632701,
                -0.22476290099444707
            ]
        },
        {
            "positions": [
                -1.7394791803049694,
                -1.4186872200590606,
                2.104097496707312,
                -1.6066679075012165,
                1.3795797328247352,
                -0.35541978157751397
            ]
        },
        {
            "positions": [
                -1.8264758514212838,
                -1.3956748697617858,
                2.1501355012324086,
                -1.6615718358737928,
                1.4598415054939484,
                -0.4060605488126729
            ]
        },
        {
            "positions": [
                -1.913472522537598,
                -1.3726625194645108,
                2.1961735057575056,
                -1.7164757642463688,
                1.5401032781631616,
                -0.45670131604783176
            ]
        },
        {
            "positions": [
                -2.0004691936539123,
                -1.349650169167236,
                2.242211510282602,
                -1.7713796926189451,
                1.6203650508323748,
                -0.5073420832829907
            ]
        },
        {
            "positions": [
                -2.1031556909084386,
                -1.3249650229161674,
                2.2771329569085696,
                -1.7691956813316074,
                1.6837934878958647,
                -0.4511398840374273
            ]
        },
        {
            "positions": [
                -2.205842188162965,
                -1.3002798766650987,
                2.312054403534537,
                -1.7670116700442697,
                1.7472219249593546,
                -0.39493768479186386
            ]
        },
        {
            "positions": [
                -2.226083505743267,
                -1.2914087266075664,
                2.296942049986586,
                -1.714815906207647,
                1.68991733335179,
                -0.1909898518415406
            ]
        },
        {
            "positions": [
                -2.246324823323569,
                -1.282537576550034,
                2.281829696438635,
                -1.662620142371024,
                1.6326127417442258,
                0.012957981108782657
            ]
        },
        {
            "positions": [
                -2.266566140903871,
                -1.2736664264925017,
                2.266717342890684,
                -1.6104243785344012,
                1.5753081501366615,
                0.21690581405910592
            ]
        },
        {
            "positions": [
                -2.286807458484173,
                -1.2647952764349695,
                2.251604989342733,
                -1.5582286146977782,
                1.518003558529097,
                0.4208536470094292
            ]
        },
        {
            "positions": [
                -2.307048776064475,
                -1.255924126377437,
                2.236492635794782,
                -1.5060328508611556,
                1.4606989669215324,
                0.6248014799597524
            ]
        },
        {
            "positions": [
                -2.327290093644777,
                -1.2470529763199047,
                2.221380282246831,
                -1.4538370870245325,
                1.4033943753139682,
                0.8287493129100757
            ]
        },
        {
            "positions": [
                -2.347531411225079,
                -1.2381818262623723,
                2.20626792869888,
                -1.4016413231879097,
                1.3460897837064039,
                1.032697145860399
            ]
        },
        {
            "positions": [
                -2.367772728805381,
                -1.22931067620484,
                2.191155575150929,
                -1.3494455593512868,
                1.2887851920988393,
                1.2366449788107223
            ]
        },
        {
            "positions": [
                -2.382816950921584,
                -1.2214764097639486,
                2.1729789527406504,
                -1.2943111022843508,
                1.224077816883688,
                1.4494175596763834
            ]
        },
        {
            "positions": [
                -2.3978611730377875,
                -1.2136421433230569,
                2.154802330330372,
                -1.2391766452174147,
                1.1593704416685369,
                1.6621901405420445
            ]
        },
        {
            "positions": [
                -2.4086710499518564,
                -1.2068297393468155,
                2.1349985085779295,
                -1.1836961655744442,
                1.091330033486678,
                1.8747651173651498
            ]
        },
        {
            "positions": [
                -2.419480926865926,
                -1.2000173353705743,
                2.115194686825487,
                -1.1282156859314738,
                1.0232896253048194,
                2.087340094188255
            ]
        },
        {
            "positions": [
                -2.430290803779995,
                -1.193204931394333,
                2.0953908650730444,
                -1.0727352062885034,
                0.9552492171229606,
                2.2999150710113607
            ]
        },
        {
            "positions": [
                -2.4411006806940643,
                -1.1863925274180915,
                2.0755870433206014,
                -1.017254726645533,
                0.8872088089411019,
                2.5124900478344663
            ]
        },
        {
            "positions": [
                -2.4519105576081333,
                -1.1795801234418501,
                2.055783221568159,
                -0.9617742470025625,
                0.819168400759243,
                2.725065024657572
            ]
        },
        {
            "positions": [
                -2.4627204345222027,
                -1.172767719465609,
                2.0359793998157163,
                -0.9062937673595922,
                0.7511279925773844,
                2.937640001480677
            ]
        },
        {
            "positions": [
                -2.4735303114362717,
                -1.1659553154893676,
                2.0161755780632737,
                -0.8508132877166218,
                0.6830875843955255,
                3.1502149783037825
            ]
        }
    ]
}