{
    "goal": {
        "global_pose": {
            "orientation": {
                "w": -0.00223480608172531,
                "x": 0.0024358444001904467,
                "y": 0.7094548369677653,
                "z": -0.704743149386269
            },
            "position": {
                "x": -0.37947507619857795,
                "y": -0.6371506643295288,
                "z": 0.19426114857196808
            }
        },
        "name": "move_to_magneteinheit_C"
    },
    "id": "LBKPIECE_move_to_magneteinheit_C_147",
    "joint_names": [
        "shoulder_pan_joint",
        "shoulder_lift_joint",
        "elbow_joint",
        "wrist_1_joint",
        "wrist_2_joint",
        "wrist_3_joint"
    ],
    "metrics": {
        "cart_traj_len": 1.391942488132514,
        "distance_elbow_joint": 0.7603495824792919,
        "distance_shoulder_lift_joint": 0.6437268189223526,
        "distance_shoulder_pan_joint": 1.339482566484145,
        "distance_wrist_1_joint": 1.7351139052664721,
        "distance_wrist_2_joint": 0.9409884610373571,
        "distance_wrist_3_joint": 4.768896866494337,
        "smoothness": 0.6667128925796337,
        "time": 0.41420224299999997,
        "traj_len": 3.1919520987452117,
        "weighted_distance": 4.733123102136312
    },
    "planner": "LBKPIECE",
    "start": {
        "state": {
            "elbow_joint": 1.9565354006593851,
            "shoulder_lift_joint": -1.4165861576512813,
            "shoulder_pan_joint": -1.6717766223278752,
            "wrist_1_joint": -0.528663328821883,
            "wrist_2_joint": 1.472756589259273,
            "wrist_3_joint": 3.159348288315503
        }
    },
    "waypoints": [
        {
            "positions": [
                -1.6717766223278752,
                -1.4165861576512813,
                1.9565354006593851,
                -0.528663328821883,
                1.472756589259273,
                3.159348288315503
            ]
        },
        {
            "positions": [
                -1.6003930683847991,
                -1.4302329847454405,
                1.960186320259573,
                -0.5433401788204416,
                1.4687692062410187,
                2.9173762592767254
            ]
        },
        {
            "positions": [
                -1.5290095144417233,
                -1.4438798118396,
                1.9638372398597612,
                -0.5580170288190001,
                1.4647818232227645,
                2.675404230237948
            ]
        },
        {
            "positions": [
                -1.4576259604986472,
                -1.4575266389337591,
                1.9674881594599491,
                -0.5726938788175586,
                1.46079444020451,
                2.4334322011991705
            ]
        },
        {
            "positions": [
                -1.454764679088397,
                -1.4677380866634908,
                1.9272181663925998,
                -0.518251861960149,
                1.4043234364755555,
                2.2061520667944627
            ]
        },
        {
            "positions": [
                -1.4519033976781468,
                -1.4779495343932223,
                1.8869481733252507,
                -0.4638098451027396,
                1.3478524327466008,
                1.9788719323897546
            ]
        },
        {
            "positions": [
                -1.4490421162678966,
                -1.488160982122954,
                1.8466781802579013,
                -0.40936782824533,
                1.2913814290176462,
                1.7515917979850466
            ]
        },
        {
            "positions": [
                -1.4461808348576461,
                -1.4983724298526857,
                1.806408187190552,
                -0.3549258113879205,
                1.2349104252886918,
                1.5243116635803386
            ]
        },
        {
            "positions": [
                -1.443319553447396,
                -1.5085838775824174,
                1.7661381941232026,
                -0.30048379453051094,
                1.1784394215597371,
                1.2970315291756307
            ]
        },
        {
            "positions": [
                -1.4404582720371457,
                -1.518795325312149,
                1.7258682010558535,
                -0.24604177767310148,
                1.1219684178307825,
                1.0697513947709227
            ]
        },
        {
            "positions": [
                -1.4375969906268955,
                -1.5290067730418806,
                1.6855982079885041,
                -0.1915997608156919,
                1.0654974141018279,
                0.8424712603662148
            ]
        },
        {
            "positions": [
                -1.645551530226783,
                -1.5497419112192452,
                1.7155253855551562,
                -0.10706168688011079,
                1.0424250181624106,
                0.8206168567521832
            ]
        },
        {
            "positions": [
                -1.85350606982667,
                -1.5704770493966098,
                1.7454525631218083,
                -0.022523612944529675,
                1.0193526222229932,
                0.7987624531381515
            ]
        },
        {
            "positions": [
                -2.0614606094265575,
                -1.5912121875739744,
                1.7753797406884604,
                0.06201446099105146,
                0.9962802262835759,
                0.7769080495241198
            ]
        },
        {
            "positions": [
                -2.269415149026445,
                -1.611947325751339,
                1.8053069182551125,
                0.14655253492663256,
                0.9732078303441587,
                0.7550536459100883
            ]
        },
        {
            "positions": [
                -2.360382087906928,
                -1.5981385515541322,
                1.841529703110958,
                0.11700328660425457,
                0.9673791425343552,
                0.9088887387455398
            ]
        },
        {
            "positions": [
                -2.396561470699517,
                -1.5832778674574606,
                1.8599180168698664,
                0.08335042549655464,
                0.959615466612223,
                1.0181294989964327
            ]
        },
        {
            "positions": [
                -2.432740853492106,
                -1.568417183360789,
                1.8783063306287748,
                0.049697564388854684,
                0.9518517906900908,
                1.1273702592473258
            ]
        },
        {
            "positions": [
                -2.444639522476382,
                -1.537974195678649,
                1.8951351087650976,
                -0.021012391465945038,
                0.9343881404729912,
                1.2942124348720139
            ]
        },
        {
            "positions": [
                -2.456538191460659,
                -1.507531207996509,
                1.9119638869014202,
                -0.09172234732074476,
                0.9169244902558917,
                1.4610546104967022
            ]
        },
        {
            "positions": [
                -2.4684368604449354,
                -1.4770882203143691,
                1.9287926650377427,
                -0.16243230317554447,
                0.8994608400387921,
                1.6278967861213904
            ]
        },
        {
            "positions": [
                -2.4803355294292118,
                -1.4466452326322292,
                1.9456214431740655,
                -0.2331422590303442,
                0.8819971898216925,
                1.7947389617460785
            ]
        },
        {
            "positions": [
                -2.4941530296625847,
                -1.3612621674575998,
                1.9095170029442874,
                -0.3561065443905227,
                0.9187131291366023,
                1.8372565772742386
            ]
        },
        {
            "positions": [
                -2.5079705298959576,
                -1.27587910228297,
                1.8734125627145093,
                -0.47907082975070125,
                0.9554290684515121,
                1.8797741928023988
            ]
        },
        {
            "positions": [
                -2.5021489639769405,
                -1.2571628643906492,
                1.8959583554748702,
                -0.5367730925589133,
                0.9092962046231859,
                2.0864211390018346
            ]
        },
        {
            "positions": [
                -2.496327398057923,
                -1.238446626498328,
                1.918504148235231,
                -0.5944753553671254,
                0.8631633407948598,
                2.29306808520127
            ]
        },
        {
            "positions": [
                -2.490505832138906,
                -1.2197303886060071,
                1.941049940995592,
                -0.6521776181753374,
                0.8170304769665336,
                2.4997150314007057
            ]
        },
        {
            "positions": [
                -2.484684266219889,
                -1.2010141507136862,
                1.9635957337559529,
                -0.7098798809835494,
                0.7708976131382075,
                2.7063619776001415
            ]
        },
        {
            "positions": [
                -2.4788627003008714,
                -1.182297912821365,
                1.9861415265163136,
                -0.7675821437917615,
                0.7247647493098813,
                2.913008923799577
            ]
        },
        {
            "positions": [
                -2.4730411343818544,
                -1.1635816749290442,
                2.0086873192766745,
                -0.8252844065999735,
                0.6786318854815552,
                3.1196558699990127
            ]
        }
    ]
}