{
    "goal": {
        "global_pose": {
            "orientation": {
                "w": 0.7031023480610252,
                "x": -0.7110244013736278,
                "y": 0.0077485991402295624,
                "z": 0.005598929693374583
            },
            "position": {
                "x": -0.8841497679147869,
                "y": 0.44412534475326537,
                "z": 0.3711530566215515
            }
        },
        "name": "move_to_auspresseinheit_D"
    },
    "id": "LBKPIECE_move_to_auspresseinheit_D_13",
    "joint_names": [
        "shoulder_pan_joint",
        "shoulder_lift_joint",
        "elbow_joint",
        "wrist_1_joint",
        "wrist_2_joint",
        "wrist_3_joint"
    ],
    "metrics": {
        "cart_traj_len": 0.34440709432117905,
        "distance_elbow_joint": 0.6511278901078923,
        "distance_shoulder_lift_joint": 0.1278647506096906,
        "distance_shoulder_pan_joint": 0.13472810464379437,
        "distance_wrist_1_joint": 0.5759844718814762,
        "distance_wrist_2_joint": 1.4316155563685682,
        "distance_wrist_3_joint": 0.037653385241608106,
        "smoothness": 1.9737298371844314e-16,
        "time": 0.201959125,
        "traj_len": 1.7201668985459027,
        "weighted_distance": 2.245413315535982
    },
    "planner": "LBKPIECE",
    "start": {
        "state": {
            "elbow_joint": -1.8275484843655228,
            "shoulder_lift_joint": -2.1267897864000416,
            "shoulder_pan_joint": -0.035127520176001514,
            "wrist_1_joint": -2.3477863256791385,
            "wrist_2_joint": -1.605890476484521,
            "wrist_3_joint": -3.0880375317375353
        }
    },
    "waypoints": [
        {
            "positions": [
                -0.035127520176001514,
                -2.1267897864000416,
                -1.8275484843655228,
                -2.3477863256791385,
                -1.605890476484521,
                -3.0880375317375353
            ]
        },
        {
            "positions": [
                -0.05196853325647581,
                -2.1427728802262527,
                -1.7461574981020362,
                -2.419784384664323,
                -1.42693853193845,
                -3.0833308585823342
            ]
        },
        {
            "positions": [
                -0.0688095463369501,
                -2.158755974052464,
                -1.6647665118385497,
                -2.4917824436495075,
                -1.247986587392379,
                -3.0786241854271332
            ]
        },
        {
            "positions": [
                -0.0856505594174244,
                -2.1747390678786758,
                -1.5833755255750632,
                -2.563780502634692,
                -1.069034642846308,
                -3.073917512271932
            ]
        },
        {
            "positions": [
                -0.1024915724978987,
                -2.190722161704887,
                -1.5019845393115765,
                -2.6357785616198766,
                -0.8900826983002369,
                -3.069210839116731
            ]
        },
        {
            "positions": [
                -0.119332585578373,
                -2.206705255531098,
                -1.4205935530480902,
                -2.707776620605061,
                -0.7111307537541659,
                -3.06450416596153
            ]
        },
        {
            "positions": [
                -0.1361735986588473,
                -2.2226883493573095,
                -1.3392025667846035,
                -2.7797746795902456,
                -0.5321788092080948,
                -3.059797492806329
            ]
        },
        {
            "positions": [
                -0.15301461173932157,
                -2.238671443183521,
                -1.257811580521117,
                -2.85177273857543,
                -0.3532268646620238,
                -3.055090819651128
            ]
        },
        {
            "positions": [
                -0.16985562481979588,
                -2.254654537009732,
                -1.1764205942576305,
                -2.9237707975606146,
                -0.17427492011595286,
                -3.050384146495927
            ]
        }
    ]
}