{
    "goal": {
        "global_pose": {
            "orientation": {
                "w": 0.7047431493862688,
                "x": -0.7094548369677653,
                "y": 0.0024358444001904,
                "z": -0.0022348060817251984
            },
            "position": {
                "x": -0.39052492380142206,
                "y": 0.3671506643295288,
                "z": 0.19426114857196808
            }
        },
        "name": "move_to_magneteinheit_D"
    },
    "id": "LBKPIECE_move_to_magneteinheit_D_111",
    "joint_names": [
        "shoulder_pan_joint",
        "shoulder_lift_joint",
        "elbow_joint",
        "wrist_1_joint",
        "wrist_2_joint",
        "wrist_3_joint"
    ],
    "metrics": {
        "cart_traj_len": 3.767791600791891,
        "distance_elbow_joint": 4.303257367813074,
        "distance_shoulder_lift_joint": 1.7146789560193818,
        "distance_shoulder_pan_joint": 2.929868206258548,
        "distance_wrist_1_joint": 1.7367394883355212,
        "distance_wrist_2_joint": 2.153140025530693,
        "distance_wrist_3_joint": 4.126055745871859,
        "smoothness": 0.3351712159066617,
        "time": 0.514271332,
        "traj_len": 4.11870608199093,
        "weighted_distance": 5.394972733521368
    },
    "planner": "LBKPIECE",
    "start": {
        "state": {
            "elbow_joint": 0.7495348899011911,
            "shoulder_lift_joint": -0.6476975780737668,
            "shoulder_pan_joint": -2.711696901376276,
            "wrist_1_joint": -0.0750647808097303,
            "wrist_2_joint": 0.43296659715458535,
            "wrist_3_joint": 3.1361499051832418
        }
    },
    "waypoints": [
        {
            "positions": [
                -2.711696901376276,
                -0.6476975780737668,
                0.7495348899011911,
                -0.0750647808097303,
                0.43296659715458535,
                3.1361499051832418
            ]
        },
        {
            "positions": [
                -2.7210711039074225,
                -0.6743286508073842,
                0.7865446675072434,
                -0.055176546077372046,
                0.4634010257814213,
                3.010958430075041
            ]
        },
        {
            "positions": [
                -2.7180896972391597,
                -0.7158843757432898,
                0.8328691559998938,
                -0.0237227724795826,
                0.5057108985317549,
                2.8122725258800907
            ]
        },
        {
            "positions": [
                -2.715108290570897,
                -0.7574401006791953,
                0.8791936444925442,
                0.007731001118206848,
                0.5480207712820886,
                2.6135866216851404
            ]
        },
        {
            "positions": [
                -2.7121268839026342,
                -0.7989958256151007,
                0.9255181329851947,
                0.039184774715996296,
                0.5903306440324222,
                2.41490071749019
            ]
        },
        {
            "positions": [
                -2.7091454772343715,
                -0.8405515505510063,
                0.9718426214778451,
                0.07063854831378573,
                0.6326405167827558,
                2.21621481329524
            ]
        },
        {
            "positions": [
                -2.686073924334513,
                -0.9096129122638225,
                0.9996511449845695,
                0.07841488125767218,
                0.6742772618698132,
                2.0153261150096013
            ]
        },
        {
            "positions": [
                -2.6630023714346542,
                -0.9786742739766385,
                1.027459668491294,
                0.08619121420155865,
                0.7159140069568705,
                1.8144374167239627
            ]
        },
        {
            "positions": [
                -2.6399308185347956,
                -1.0477356356894547,
                1.0552681919980185,
                0.09396754714544511,
                0.7575507520439279,
                1.6135487184383244
            ]
        },
        {
            "positions": [
                -2.616859265634937,
                -1.116796997402271,
                1.083076715504743,
                0.10174388008933156,
                0.7991874971309852,
                1.4126600201526858
            ]
        },
        {
            "positions": [
                -2.5937877127350784,
                -1.185858359115087,
                1.1108852390114674,
                0.10952021303321802,
                0.8408242422180425,
                1.2117713218670472
            ]
        },
        {
            "positions": [
                -2.5707161598352197,
                -1.2549197208279033,
                1.138693762518192,
                0.11729654597710448,
                0.8824609873050999,
                1.0108826235814088
            ]
        },
        {
            "positions": [
                -2.5476446069353607,
                -1.3239810825407194,
                1.1665022860249166,
                0.12507287892099095,
                0.9240977323921573,
                0.8099939252957702
            ]
        },
        {
            "positions": [
                -2.524573054035502,
                -1.3930424442535356,
                1.194310809531641,
                0.13284921186487741,
                0.9657344774792147,
                0.6091052270101316
            ]
        },
        {
            "positions": [
                -2.5015015011356434,
                -1.4621038059663518,
                1.2221193330383655,
                0.14062554480876385,
                1.007371222566272,
                0.4082165287244932
            ]
        },
        {
            "positions": [
                -2.4784299482357848,
                -1.531165167679168,
                1.24992785654509,
                0.14840187775265032,
                1.0490079676533295,
                0.2073278304388544
            ]
        },
        {
            "positions": [
                -2.455358395335926,
                -1.600226529391984,
                1.2777363800518144,
                0.15617821069653676,
                1.0906447127403867,
                0.0064391321532162316
            ]
        },
        {
            "positions": [
                -2.4322868424360675,
                -1.6692878911048004,
                1.305544903558539,
                0.16395454364042322,
                1.132281457827444,
                -0.19444956613242237
            ]
        },
        {
            "positions": [
                -2.409215289536209,
                -1.7383492528176163,
                1.3333534270652634,
                0.1717308765843097,
                1.1739182029145014,
                -0.39533826441806114
            ]
        },
        {
            "positions": [
                -2.2993362161175965,
                -1.7364314208319862,
                1.194276107952028,
                0.23443830359670964,
                1.1189404842876818,
                -0.3714919725006958
            ]
        },
        {
            "positions": [
                -2.189457142698984,
                -1.7345135888463563,
                1.055198788838793,
                0.2971457306091096,
                1.0639627656608623,
                -0.3476456805833305
            ]
        },
        {
            "positions": [
                -2.079578069280372,
                -1.7325957568607264,
                0.9161214697255577,
                0.3598531576215095,
                1.0089850470340427,
                -0.32379938866596514
            ]
        },
        {
            "positions": [
                -1.9696989958617594,
                -1.7306779248750963,
                0.7770441506123226,
                0.4225605846339095,
                0.954007328407223,
                -0.2999530967485998
            ]
        },
        {
            "positions": [
                -1.859819922443147,
                -1.7287600928894662,
                0.6379668314990874,
                0.48526801164630945,
                0.8990296097804035,
                -0.2761068048312345
            ]
        },
        {
            "positions": [
                -1.7499408490245347,
                -1.7268422609038363,
                0.4988895123858522,
                0.5479754386587093,
                0.8440518911535839,
                -0.2522605129138692
            ]
        },
        {
            "positions": [
                -1.6400617756059224,
                -1.7249244289182064,
                0.35981219327261693,
                0.6106828656711094,
                0.7890741725267643,
                -0.22841422099650388
            ]
        },
        {
            "positions": [
                -1.5301827021873098,
                -1.7230065969325763,
                0.22073487415938176,
                0.6733902926835094,
                0.7340964538999446,
                -0.20456792907913854
            ]
        },
        {
            "positions": [
                -1.4203036287686974,
                -1.7210887649469462,
                0.08165755504614647,
                0.7360977196959093,
                0.6791187352731249,
                -0.1807216371617732
            ]
        },
        {
            "positions": [
                -1.310424555350085,
                -1.7191709329613163,
                -0.0574197640670886,
                0.7988051467083093,
                0.6241410166463055,
                -0.1568753452444079
            ]
        },
        {
            "positions": [
                -1.2005454819314727,
                -1.7172531009756864,
                -0.19649708318032388,
                0.8615125737207092,
                0.5691632980194858,
                -0.13302905332704257
            ]
        },
        {
            "positions": [
                -1.0906664085128603,
                -1.7153352689900563,
                -0.33557440229355895,
                0.924220000733109,
                0.5141855793926663,
                -0.10918276140967725
            ]
        },
        {
            "positions": [
                -0.9807873350942478,
                -1.7134174370044262,
                -0.47465172140679446,
                0.9869274277455091,
                0.45920786076584663,
                -0.08533646949231188
            ]
        },
        {
            "positions": [
                -0.8709082616756356,
                -1.7114996050187963,
                -0.6137290405200295,
                1.049634854757909,
                0.4042301421390271,
                -0.061490177574946625
            ]
        },
        {
            "positions": [
                -0.7610291882570233,
                -1.7095817730331664,
                -0.7528063596332646,
                1.1123422817703088,
                0.34925242351220753,
                -0.03764388565758131
            ]
        },
        {
            "positions": [
                -0.6511501148384107,
                -1.7076639410475363,
                -0.8918836787464999,
                1.175049708782709,
                0.29427470488538787,
                -0.013797593740215941
            ]
        },
        {
            "positions": [
                -0.5412710414197985,
                -1.7057461090619062,
                -1.0309609978597352,
                1.237757135795109,
                0.2392969862585682,
                0.010048698177149373
            ]
        },
        {
            "positions": [
                -0.43139196800118595,
                -1.7038282770762763,
                -1.1700383169729704,
                1.3004645628075089,
                0.18431926763174855,
                0.03389499009451474
            ]
        },
        {
            "positions": [
                -0.3215128945825736,
                -1.7019104450906464,
                -1.3091156360862057,
                1.3631719898199088,
                0.129341549004929,
                0.05774128201188006
            ]
        },
        {
            "positions": [
                -0.21163382116396123,
                -1.6999926131050163,
                -1.4481929551994406,
                1.4258794168323088,
                0.07436383037810956,
                0.08158757392924532
            ]
        },
        {
            "positions": [
                -0.10175474774534887,
                -1.6980747811193861,
                -1.5872702743126759,
                1.4885868438447087,
                0.019386111751289903,
                0.10543386584661069
            ]
        },
        {
            "positions": [
                0.008124325673263539,
                -1.6961569491337563,
                -1.726347593425911,
                1.5512942708571087,
                -0.035591606875529744,
                0.129280157763976
            ]
        },
        {
            "positions": [
                -0.016435197004542663,
                -1.8042519236081347,
                -1.8735004718531307,
                1.5549640427092482,
                -0.00702082377665857,
                0.11247138331054937
            ]
        },
        {
            "positions": [
                -0.04099471968234887,
                -1.9123468980825133,
                -2.0206533502803508,
                1.5586338145613876,
                0.021549959322212604,
                0.09566260885712274
            ]
        },
        {
            "positions": [
                -0.06555424236015507,
                -2.020441872556892,
                -2.1678062287075703,
                1.5623035864135268,
                0.050120742421083775,
                0.0788538344036961
            ]
        },
        {
            "positions": [
                -0.09011376503796127,
                -2.1285368470312704,
                -2.3149591071347904,
                1.5659733582656663,
                0.07869152551995495,
                0.062045059950269474
            ]
        },
        {
            "positions": [
                -0.1366440067557066,
                -2.2032643868783497,
                -2.3505222553592633,
                1.518122683635604,
                0.12288926431258572,
                0.060688031812862565
            ]
        },
        {
            "positions": [
                -0.1831742484734519,
                -2.2779919267254285,
                -2.3860854035837367,
                1.4702720090055417,
                0.16708700310521649,
                0.05933100367545566
            ]
        }
    ]
}