{
    "goal": {
        "global_pose": {
            "orientation": {
                "w": -0.00223480608172531,
                "x": 0.0024358444001904467,
                "y": 0.7094548369677653,
                "z": -0.704743149386269
            },
            "position": {
                "x": 0.6205249238014221,
                "y": -0.6371506643295288,
                "z": 0.19426114857196808
            }
        },
        "name": "move_to_magneteinheit_B"
    },
    "id": "LBKPIECE_move_to_magneteinheit_B_139",
    "joint_names": [
        "shoulder_pan_joint",
        "shoulder_lift_joint",
        "elbow_joint",
        "wrist_1_joint",
        "wrist_2_joint",
        "wrist_3_joint"
    ],
    "metrics": {
        "cart_traj_len": 1.4527308652989612,
        "distance_elbow_joint": 0.7258547745956665,
        "distance_shoulder_lift_joint": 1.245625488727293,
        "distance_shoulder_pan_joint": 1.6215084411095666,
        "distance_wrist_1_joint": 2.6149353940270035,
        "distance_wrist_2_joint": 2.939621872764311,
        "distance_wrist_3_joint": 3.133017662137859,
        "smoothness": 3.0531133340659197e-16,
        "time": 0.27446436500000004,
        "traj_len": 3.5043635133019095,
        "weighted_distance": 4.909292843621037
    },
    "planner": "LBKPIECE",
    "start": {
        "state": {
            "elbow_joint": 2.393587130804639,
            "shoulder_lift_joint": -1.9085141043513325,
            "shoulder_pan_joint": 0.7066247066698809,
            "wrist_1_joint": -0.4678290934590222,
            "wrist_2_joint": 0.7096259084215963,
            "wrist_3_joint": 3.147370379541726
        }
    },
    "waypoints": [
        {
            "positions": [
                0.7066247066698809,
                -1.9085141043513325,
                2.393587130804639,
                -0.4678290934590222,
                0.7096259084215963,
                3.147370379541726
            ]
        },
        {
            "positions": [
                0.6543179827631207,
                -1.8683326369730326,
                2.3701724606563914,
                -0.3834763388129898,
                0.6147993963969411,
                3.046305293666311
            ]
        },
        {
            "positions": [
                0.6020112588563604,
                -1.828151169594733,
                2.346757790508144,
                -0.2991235841669574,
                0.519972884372286,
                2.9452402077908966
            ]
        },
        {
            "positions": [
                0.5497045349496003,
                -1.7879697022164331,
                2.323343120359897,
                -0.21477082952092502,
                0.4251463723476308,
                2.8441751219154816
            ]
        },
        {
            "positions": [
                0.49739781104284,
                -1.7477882348381335,
                2.2999284502116497,
                -0.13041807487489265,
                0.33031986032297567,
                2.7431100360400666
            ]
        },
        {
            "positions": [
                0.4450910871360798,
                -1.7076067674598336,
                2.2765137800634023,
                -0.046065320228860285,
                0.23549334829832047,
                2.642044950164652
            ]
        },
        {
            "positions": [
                0.3927843632293196,
                -1.6674253000815338,
                2.253099109915155,
                0.03828743441717214,
                0.14066683627366527,
                2.540979864289237
            ]
        },
        {
            "positions": [
                0.34047763932255937,
                -1.6272438327032341,
                2.2296844397669076,
                0.12264018906320445,
                0.04584032424901019,
                2.439914778413822
            ]
        },
        {
            "positions": [
                0.28817091541579914,
                -1.5870623653249343,
                2.20626976961866,
                0.20699294370923688,
                -0.04898618777564501,
                2.3388496925384077
            ]
        },
        {
            "positions": [
                0.23586419150903892,
                -1.5468808979466344,
                2.1828550994704132,
                0.2913456983552693,
                -0.14381269980030031,
                2.2377846066629927
            ]
        },
        {
            "positions": [
                0.18355746760227876,
                -1.5066994305683348,
                2.159440429322166,
                0.3756984530013016,
                -0.2386392118249554,
                2.1367195207875778
            ]
        },
        {
            "positions": [
                0.13125074369551848,
                -1.466517963190035,
                2.1360257591739185,
                0.46005120764733415,
                -0.3334657238496106,
                2.0356544349121632
            ]
        },
        {
            "positions": [
                0.07894401978875831,
                -1.4263364958117353,
                2.112611089025671,
                0.5444039622933665,
                -0.4282922358742658,
                1.9345893490367485
            ]
        },
        {
            "positions": [
                0.026637295881998035,
                -1.3861550284334354,
                2.0891964188774237,
                0.6287567169393988,
                -0.523118747898921,
                1.8335242631613335
            ]
        },
        {
            "positions": [
                -0.02566942802476213,
                -1.3459735610551355,
                2.0657817487291767,
                0.7131094715854311,
                -0.617945259923576,
                1.7324591772859188
            ]
        },
        {
            "positions": [
                -0.0779761519315223,
                -1.305792093676836,
                2.0423670785809294,
                0.7974622262314637,
                -0.7127717719482314,
                1.6313940914105038
            ]
        },
        {
            "positions": [
                -0.13028287583828257,
                -1.2656106262985363,
                2.018952408432682,
                0.881814980877496,
                -0.8075982839728864,
                1.5303290055350893
            ]
        },
        {
            "positions": [
                -0.18258959974504274,
                -1.2254291589202364,
                1.9955377382844346,
                0.9661677355235283,
                -0.9024247959975416,
                1.4292639196596746
            ]
        },
        {
            "positions": [
                -0.23489632365180302,
                -1.1852476915419365,
                1.9721230681361872,
                1.0505204901695608,
                -0.997251308022197,
                1.3281988337842594
            ]
        },
        {
            "positions": [
                -0.2872030475585632,
                -1.145066224163637,
                1.94870839798794,
                1.1348732448155932,
                -1.092077820046852,
                1.2271337479088447
            ]
        },
        {
            "positions": [
                -0.33950977146532335,
                -1.104884756785337,
                1.9252937278396927,
                1.2192259994616255,
                -1.1869043320715071,
                1.12606866203343
            ]
        },
        {
            "positions": [
                -0.39181649537208363,
                -1.0647032894070372,
                1.9018790576914455,
                1.3035787541076578,
                -1.2817308440961621,
                1.0250035761580154
            ]
        },
        {
            "positions": [
                -0.4441232192788439,
                -1.0245218220287375,
                1.878464387543198,
                1.3879315087536905,
                -1.3765573561208175,
                0.9239384902826004
            ]
        },
        {
            "positions": [
                -0.49642994318560396,
                -0.9843403546504377,
                1.8550497173949507,
                1.4722842633997228,
                -1.4713838681454725,
                0.8228734044071855
            ]
        },
        {
            "positions": [
                -0.5487366670923642,
                -0.9441588872721379,
                1.8316350472467033,
                1.5566370180457552,
                -1.566210380170128,
                0.721808318531771
            ]
        },
        {
            "positions": [
                -0.6010433909991243,
                -0.9039774198938382,
                1.8082203770984562,
                1.6409897726917875,
                -1.661036892194783,
                0.620743232656356
            ]
        },
        {
            "positions": [
                -0.6533501149058848,
                -0.8637959525155383,
                1.7848057069502088,
                1.7253425273378198,
                -1.7558634042194383,
                0.519678146780941
            ]
        },
        {
            "positions": [
                -0.7056568388126448,
                -0.8236144851372385,
                1.7613910368019616,
                1.809695281983852,
                -1.8506899162440933,
                0.4186130609055265
            ]
        },
        {
            "positions": [
                -0.7579635627194051,
                -0.7834330177589388,
                1.7379763666537142,
                1.8940480366298844,
                -1.9455164282687483,
                0.31754797503011156
            ]
        },
        {
            "positions": [
                -0.8102702866261652,
                -0.7432515503806392,
                1.7145616965054669,
                1.9784007912759167,
                -2.040342940293404,
                0.21648288915469704
            ]
        },
        {
            "positions": [
                -0.8625770105329255,
                -0.7030700830023391,
                1.6911470263572195,
                2.0627535459219493,
                -2.135169452318059,
                0.11541780327928164
            ]
        },
        {
            "positions": [
                -0.9148837344396856,
                -0.6628886156240394,
                1.6677323562089723,
                2.1471063005679816,
                -2.2299959643427143,
                0.014352717403867187
            ]
        }
    ]
}