{
    "goal": {
        "global_pose": {
            "orientation": {
                "w": 0.005598929693374612,
                "x": 0.007748599140229565,
                "y": 0.7110244013736278,
                "z": -0.7031023480610252
            },
            "position": {
                "x": -0.8858502320852131,
                "y": -0.7141253447532654,
                "z": 0.3711530566215515
            }
        },
        "name": "move_to_auspresseinheit_C"
    },
    "id": "LBKPIECE_move_to_auspresseinheit_C_60",
    "joint_names": [
        "shoulder_pan_joint",
        "shoulder_lift_joint",
        "elbow_joint",
        "wrist_1_joint",
        "wrist_2_joint",
        "wrist_3_joint"
    ],
    "metrics": {
        "cart_traj_len": 0.4935614999645282,
        "distance_elbow_joint": 1.0071988914553671,
        "distance_shoulder_lift_joint": 0.3274664872947861,
        "distance_shoulder_pan_joint": 0.25627705808362355,
        "distance_wrist_1_joint": 0.6969449914710916,
        "distance_wrist_2_joint": 1.3015189690335456,
        "distance_wrist_3_joint": 0.08154536852795768,
        "smoothness": 0.0,
        "time": 0.6370931449999999,
        "traj_len": 1.9159727988325859,
        "weighted_distance": 2.4150582732983743
    },
    "planner": "LBKPIECE",
    "start": {
        "state": {
            "elbow_joint": 1.7527959577730765,
            "shoulder_lift_joint": -0.9740617694224828,
            "shoulder_pan_joint": -2.967991417825869,
            "wrist_1_joint": -0.7595177689779385,
            "wrist_2_joint": 1.7443932448376545,
            "wrist_3_joint": 3.1991315425061013
        }
    },
    "waypoints": [
        {
            "positions": [
                -2.967991417825869,
                -0.9740617694224828,
                1.7527959577730765,
                -0.7595177689779385,
                1.7443932448376545,
                3.1991315425061013
            ]
        },
        {
            "positions": [
                -2.9423637120175066,
                -0.9413151206930042,
                1.6520760686275398,
                -0.6898232698308294,
                1.6142413479342999,
                3.1909770056533056
            ]
        },
        {
            "positions": [
                -2.9167360062091445,
                -0.9085684719635255,
                1.551356179482003,
                -0.6201287706837202,
                1.4840894510309453,
                3.18282246880051
            ]
        },
        {
            "positions": [
                -2.891108300400782,
                -0.875821823234047,
                1.4506362903364665,
                -0.5504342715366111,
                1.3539375541275909,
                3.174667931947714
            ]
        },
        {
            "positions": [
                -2.8654805945924195,
                -0.8430751745045684,
                1.3499164011909297,
                -0.4807397723895019,
                1.2237856572242363,
                3.1665133950949182
            ]
        },
        {
            "positions": [
                -2.8398528887840575,
                -0.8103285257750897,
                1.249196512045393,
                -0.41104527324239276,
                1.0936337603208817,
                3.1583588582421225
            ]
        },
        {
            "positions": [
                -2.814225182975695,
                -0.7775818770456111,
                1.1484766228998562,
                -0.34135077409528364,
                0.9634818634175272,
                3.1502043213893267
            ]
        },
        {
            "positions": [
                -2.7885974771673325,
                -0.7448352283161326,
                1.0477567337543197,
                -0.27165627494817446,
                0.8333299665141726,
                3.142049784536531
            ]
        },
        {
            "positions": [
                -2.76296977135897,
                -0.7120885795866538,
                0.9470368446087828,
                -0.20196177580106522,
                0.7031780696108179,
                3.133895247683735
            ]
        },
        {
            "positions": [
                -2.737342065550608,
                -0.6793419308571753,
                0.846316955463246,
                -0.1322672766539561,
                0.5730261727074635,
                3.1257407108309394
            ]
        },
        {
            "positions": [
                -2.7117143597422455,
                -0.6465952821276967,
                0.7455970663177095,
                -0.06257277750684699,
                0.4428742758041088,
                3.1175861739781436
            ]
        }
    ]
}