{
    "goal": {
        "global_pose": {
            "orientation": {
                "w": 0.5084816217422485,
                "x": -0.49083608388900757,
                "y": 0.5182115435600281,
                "z": -0.4816462993621826
            },
            "position": {
                "x": 0.5540239810943604,
                "y": 0.030875300988554955,
                "z": 0.16403168439865112
            }
        },
        "name": "move_to_storage_A"
    },
    "id": "LBKPIECE_move_to_storage_A_27",
    "joint_names": [
        "shoulder_pan_joint",
        "shoulder_lift_joint",
        "elbow_joint",
        "wrist_1_joint",
        "wrist_2_joint",
        "wrist_3_joint"
    ],
    "metrics": {
        "cart_traj_len": 0.35255859923848976,
        "distance_elbow_joint": 0.44791633345541215,
        "distance_shoulder_lift_joint": 0.23339106837394108,
        "distance_shoulder_pan_joint": 0.4569437883431737,
        "distance_wrist_1_joint": 0.23543820403872018,
        "distance_wrist_2_joint": 1.114762462874106,
        "distance_wrist_3_joint": 0.10318441691713565,
        "smoothness": 2.2204460668324854e-16,
        "time": 0.643588398,
        "traj_len": 1.609855979273453,
        "weighted_distance": 2.03671445586994
    },
    "planner": "LBKPIECE",
    "start": {
        "state": {
            "elbow_joint": 1.971548880431181,
            "shoulder_lift_joint": -1.1394869514688781,
            "shoulder_pan_joint": 0.12281150262730567,
            "wrist_1_joint": -0.7804693444481463,
            "wrist_2_joint": 0.12958644648617612,
            "wrist_3_joint": 3.0906942077768043
        }
    },
    "waypoints": [
        {
            "positions": [
                0.12281150262730567,
                -1.1394869514688781,
                1.971548880431181,
                -0.7804693444481463,
                0.12958644648617612,
                3.0906942077768043
            ]
        },
        {
            "positions": [
                0.05753381857828087,
                -1.1728285326651555,
                2.0355369280676685,
                -0.814103373596535,
                0.28883822689676264,
                3.1054348387649666
            ]
        },
        {
            "positions": [
                -0.0077438654707439325,
                -1.2061701138614327,
                2.099524975704156,
                -0.8477374027449235,
                0.4480900073073492,
                3.1201754697531285
            ]
        },
        {
            "positions": [
                -0.07302154951976875,
                -1.23951169505771,
                2.163513023340643,
                -0.8813714318933121,
                0.6073417877179358,
                3.134916100741291
            ]
        },
        {
            "positions": [
                -0.13829923356879353,
                -1.2728532762539873,
                2.2275010709771306,
                -0.9150054610417007,
                0.7665935681285223,
                3.1496567317294533
            ]
        },
        {
            "positions": [
                -0.20357691761781838,
                -1.3061948574502646,
                2.2914891186136184,
                -0.9486394901900893,
                0.9258453485391089,
                3.1643973627176156
            ]
        },
        {
            "positions": [
                -0.26885460166684316,
                -1.3395364386465418,
                2.3554771662501057,
                -0.9822735193384778,
                1.0850971289496956,
                3.1791379937057775
            ]
        },
        {
            "positions": [
                -0.334132285715868,
                -1.3728780198428192,
                2.419465213886593,
                -1.0159075484868665,
                1.2443489093602822,
                3.19387862469394
            ]
        }
    ]
}