{
    "goal": {
        "global_pose": {
            "orientation": {
                "w": 0.005598929693374612,
                "x": 0.007748599140229565,
                "y": 0.7110244013736278,
                "z": -0.7031023480610252
            },
            "position": {
                "x": 0.1141497679147869,
                "y": -0.7141253447532654,
                "z": 0.3711530566215515
            }
        },
        "name": "move_to_auspresseinheit_B"
    },
    "id": "LBKPIECE_move_to_auspresseinheit_B_4",
    "joint_names": [
        "shoulder_pan_joint",
        "shoulder_lift_joint",
        "elbow_joint",
        "wrist_1_joint",
        "wrist_2_joint",
        "wrist_3_joint"
    ],
    "metrics": {
        "cart_traj_len": 0.5642443744167664,
        "distance_elbow_joint": 0.06636576027867269,
        "distance_shoulder_lift_joint": 0.2932282131841397,
        "distance_shoulder_pan_joint": 0.5741924698141816,
        "distance_wrist_1_joint": 0.3396527195307154,
        "distance_wrist_2_joint": 1.0056238780628528,
        "distance_wrist_3_joint": 0.009635303004801088,
        "smoothness": 5.075305295617109e-16,
        "time": 0.409145599,
        "traj_len": 1.5128444546202902,
        "weighted_distance": 1.9113465273148493
    },
    "planner": "LBKPIECE",
    "start": {
        "state": {
            "elbow_joint": 2.0193061681459312,
            "shoulder_lift_joint": -1.1220205130644991,
            "shoulder_pan_joint": -1.0952072088045026,
            "wrist_1_joint": -0.8559671810662515,
            "wrist_2_joint": 0.4759638712940361,
            "wrist_3_joint": 3.159081874192446
        }
    },
    "waypoints": [
        {
            "positions": [
                -1.0952072088045026,
                -1.1220205130644991,
                2.0193061681459312,
                -0.8559671810662515,
                0.4759638712940361,
                3.159081874192446
            ]
        },
        {
            "positions": [
                -1.190905953773533,
                -1.1708918819285223,
                2.0082452080994857,
                -0.7993583944777989,
                0.6435678509711782,
                3.1574759903583125
            ]
        },
        {
            "positions": [
                -1.2866046987425632,
                -1.2197632507925458,
                1.9971842480530404,
                -0.7427496078893463,
                0.8111718306483204,
                3.155870106524179
            ]
        },
        {
            "positions": [
                -1.3823034437115935,
                -1.268634619656569,
                1.9861232880065949,
                -0.6861408213008937,
                0.9787758103254625,
                3.1542642226900455
            ]
        },
        {
            "positions": [
                -1.4780021886806236,
                -1.3175059885205922,
                1.9750623279601494,
                -0.6295320347124412,
                1.1463797900026047,
                3.152658338855912
            ]
        },
        {
            "positions": [
                -1.573700933649654,
                -1.3663773573846156,
                1.964001367913704,
                -0.5729232481239885,
                1.3139837696797467,
                3.1510524550217784
            ]
        },
        {
            "positions": [
                -1.6693996786186842,
                -1.4152487262486388,
                1.9529404078672585,
                -0.5163144615355361,
                1.481587749356889,
                3.149446571187645
            ]
        }
    ]
}