{
    "goal": {
        "global_pose": {
            "orientation": {
                "w": 0.5084816217422485,
                "x": -0.49083608388900757,
                "y": 0.5182115435600281,
                "z": -0.4816462993621826
            },
            "position": {
                "x": 0.5540239810943604,
                "y": 0.030875300988554955,
                "z": 0.16403168439865112
            }
        },
        "name": "move_to_storage_A"
    },
    "id": "LBKPIECE_move_to_storage_A_86",
    "joint_names": [
        "shoulder_pan_joint",
        "shoulder_lift_joint",
        "elbow_joint",
        "wrist_1_joint",
        "wrist_2_joint",
        "wrist_3_joint"
    ],
    "metrics": {
        "cart_traj_len": 0.35376029453786145,
        "distance_elbow_joint": 0.4536518768600948,
        "distance_shoulder_lift_joint": 0.23381553483763495,
        "distance_shoulder_pan_joint": 0.46355460796450904,
        "distance_wrist_1_joint": 0.2618412606682117,
        "distance_wrist_2_joint": 1.0957627362360531,
        "distance_wrist_3_joint": 0.09706593884301906,
        "smoothness": 0.0,
        "time": 0.208671439,
        "traj_len": 1.6142155851711761,
        "weighted_distance": 2.03897715288814
    },
    "planner": "LBKPIECE",
    "start": {
        "state": {
            "elbow_joint": 1.971548880431181,
            "shoulder_lift_joint": -1.1394869514688781,
            "shoulder_pan_joint": 0.12281150262730567,
            "wrist_1_joint": -0.7804693444481463,
            "wrist_2_joint": 0.12958644648617612,
            "wrist_3_joint": 3.0906942077768043
        }
    },
    "waypoints": [
        {
            "positions": [
                0.12281150262730567,
                -1.1394869514688781,
                1.971548880431181,
                -0.7804693444481463,
                0.12958644648617612,
                3.0906942077768043
            ]
        },
        {
            "positions": [
                0.05658941577523295,
                -1.1728891707313973,
                2.0363562914111943,
                -0.8178752388293195,
                0.28612398023418373,
                3.104560770468664
            ]
        },
        {
            "positions": [
                -0.009632671076839766,
                -1.2062913899939167,
                2.101163702391208,
                -0.8552811332104925,
                0.4426615139821913,
                3.118427333160524
            ]
        },
        {
            "positions": [
                -0.07585475792891247,
                -1.239693609256436,
                2.1659711133712216,
                -0.8926870275916656,
                0.5991990477301989,
                3.132293895852384
            ]
        },
        {
            "positions": [
                -0.1420768447809852,
                -1.2730958285189553,
                2.2307785243512352,
                -0.9300929219728387,
                0.7557365814782064,
                3.1461604585442435
            ]
        },
        {
            "positions": [
                -0.20829893163305796,
                -1.3064980477814745,
                2.295585935331249,
                -0.9674988163540118,
                0.912274115226214,
                3.1600270212361035
            ]
        },
        {
            "positions": [
                -0.2745210184851306,
                -1.3399002670439937,
                2.360393346311262,
                -1.004904710735185,
                1.0688116489742217,
                3.1738935839279634
            ]
        },
        {
            "positions": [
                -0.34074310533720337,
                -1.373302486306513,
                2.4252007572912757,
                -1.042310605116358,
                1.2253491827222291,
                3.1877601466198233
            ]
        }
    ]
}