{
    "goal": {
        "global_pose": {
            "orientation": {
                "w": 0.5084816262002911,
                "x": -0.4908360881923452,
                "y": 0.5182115481033761,
                "z": -0.48164630358495003
            },
            "position": {
                "x": 0.5540239810943604,
                "y": -0.46912469901144505,
                "z": 0.16403168439865112
            }
        },
        "name": "move_to_storage_B"
    },
    "id": "LBKPIECE_move_to_storage_B_135",
    "joint_names": [
        "shoulder_pan_joint",
        "shoulder_lift_joint",
        "elbow_joint",
        "wrist_1_joint",
        "wrist_2_joint",
        "wrist_3_joint"
    ],
    "metrics": {
        "cart_traj_len": 1.1264752551004409,
        "distance_elbow_joint": 0.7437982406148638,
        "distance_shoulder_lift_joint": 0.4594862499506549,
        "distance_shoulder_pan_joint": 0.6865094019011215,
        "distance_wrist_1_joint": 2.987340939242018,
        "distance_wrist_2_joint": 2.71863293555389,
        "distance_wrist_3_joint": 3.140550284560119,
        "smoothness": 0.10944807968769596,
        "time": 0.595387804,
        "traj_len": 3.276632120306255,
        "weighted_distance": 4.766905966739727
    },
    "planner": "LBKPIECE",
    "start": {
        "state": {
            "elbow_joint": 1.6649325340416963,
            "shoulder_lift_joint": -0.6616387945129425,
            "shoulder_pan_joint": -0.9139837929255878,
            "wrist_1_joint": 2.1467571094334352,
            "wrist_2_joint": -2.234195976750228,
            "wrist_3_joint": 0.005470921511140723
        }
    },
    "waypoints": [
        {
            "positions": [
                -0.9139837929255878,
                -0.6616387945129425,
                1.6649325340416963,
                2.1467571094334352,
                -2.234195976750228,
                0.005470921511140723
            ]
        },
        {
            "positions": [
                -0.8843507616188389,
                -0.7224856556628206,
                1.6968486996610104,
                2.1096605215518087,
                -2.19124716749703,
                0.01600853124785097
            ]
        },
        {
            "positions": [
                -0.8822913774175214,
                -0.764843231764816,
                1.6999120215547663,
                2.0552284071870366,
                -2.089934581778833,
                0.01908768315795533
            ]
        },
        {
            "positions": [
                -0.8802319932162039,
                -0.8072008078668111,
                1.702975343448522,
                2.000796292822264,
                -1.988621996060636,
                0.022166835068059693
            ]
        },
        {
            "positions": [
                -0.8865024148385541,
                -0.8262297780863611,
                1.6637752341366778,
                1.8965422929547209,
                -1.884055183407102,
                0.09311152283423427
            ]
        },
        {
            "positions": [
                -0.8927728364609041,
                -0.8452587483059112,
                1.6245751248248337,
                1.7922882930871775,
                -1.7794883707535682,
                0.16405621060040884
            ]
        },
        {
            "positions": [
                -0.8990432580832542,
                -0.8642877185254612,
                1.5853750155129895,
                1.6880342932196344,
                -1.6749215581000343,
                0.23500089836658342
            ]
        },
        {
            "positions": [
                -0.9053136797056043,
                -0.8833166887450112,
                1.5461749062011454,
                1.583780293352091,
                -1.5703547454465006,
                0.305945586132758
            ]
        },
        {
            "positions": [
                -0.9115841013279544,
                -0.9023456589645612,
                1.5069747968893012,
                1.479526293484548,
                -1.4657879327929666,
                0.3768902738989326
            ]
        },
        {
            "positions": [
                -1.0120310510545936,
                -0.9422777290330485,
                1.5249312228976173,
                1.440910852497093,
                -1.4066168661523353,
                0.4324488472177952
            ]
        },
        {
            "positions": [
                -1.1124780007812327,
                -0.9822097991015357,
                1.5428876489059333,
                1.4022954115096384,
                -1.3474457995117042,
                0.4880074205366578
            ]
        },
        {
            "positions": [
                -1.2129249505078719,
                -1.022141869170023,
                1.5608440749142491,
                1.3636799705221836,
                -1.288274732871073,
                0.5435659938555204
            ]
        },
        {
            "positions": [
                -1.313371900234511,
                -1.0620739392385103,
                1.5788005009225652,
                1.3250645295347288,
                -1.2291036662304418,
                0.599124567174383
            ]
        },
        {
            "positions": [
                -1.3018130741727516,
                -1.065181892145094,
                1.601849405165489,
                1.2110830369377124,
                -1.1389173175444363,
                0.7331717586952713
            ]
        },
        {
            "positions": [
                -1.290254248110992,
                -1.0682898450516773,
                1.6248983094084128,
                1.097101544340696,
                -1.0487309688584308,
                0.8672189502161596
            ]
        },
        {
            "positions": [
                -1.2786954220492326,
                -1.071397797958261,
                1.6479472136513367,
                0.9831200517436796,
                -0.9585446201724255,
                1.0012661417370476
            ]
        },
        {
            "positions": [
                -1.267136595987473,
                -1.0745057508648446,
                1.6709961178942607,
                0.8691385591466632,
                -0.86835827148642,
                1.135313333257936
            ]
        },
        {
            "positions": [
                -1.2555777699257136,
                -1.077613703771428,
                1.6940450221371846,
                0.7551570665496466,
                -0.7781719228004145,
                1.2693605247788242
            ]
        },
        {
            "positions": [
                -1.244018943863954,
                -1.0807216566780116,
                1.7170939263801084,
                0.6411755739526303,
                -0.6879855741144091,
                1.4034077162997125
            ]
        },
        {
            "positions": [
                -1.2324601178021946,
                -1.083829609584595,
                1.7401428306230322,
                0.5271940813556139,
                -0.5977992254284036,
                1.5374549078206008
            ]
        },
        {
            "positions": [
                -1.220901291740435,
                -1.0869375624911786,
                1.763191734865956,
                0.41321258875859745,
                -0.5076128767423982,
                1.671502099341489
            ]
        },
        {
            "positions": [
                -1.2093424656786755,
                -1.0900455153977622,
                1.7862406391088799,
                0.29923109616158095,
                -0.4174265280563927,
                1.8055492908623774
            ]
        },
        {
            "positions": [
                -1.197783639616916,
                -1.0931534683043456,
                1.8092895433518037,
                0.18524960356456455,
                -0.3272401793703873,
                1.9395964823832657
            ]
        },
        {
            "positions": [
                -1.1862248135551565,
                -1.0962614212109292,
                1.8323384475947277,
                0.07126811096754815,
                -0.23705383068438168,
                2.073643673904154
            ]
        },
        {
            "positions": [
                -1.174665987493397,
                -1.0993693741175128,
                1.8553873518376516,
                -0.04271338162946825,
                -0.1468674819983764,
                2.2076908654250422
            ]
        },
        {
            "positions": [
                -1.1631071614316375,
                -1.1024773270240962,
                1.8784362560805754,
                -0.15669487422648487,
                -0.0566811333123709,
                2.3417380569459305
            ]
        },
        {
            "positions": [
                -1.1515483353698779,
                -1.1055852799306798,
                1.9014851603234992,
                -0.27067636682350105,
                0.0335052153736346,
                2.475785248466819
            ]
        },
        {
            "positions": [
                -1.1399895093081185,
                -1.1086932328372632,
                1.9245340645664233,
                -0.38465785942051767,
                0.1236915640596401,
                2.6098324399877066
            ]
        },
        {
            "positions": [
                -1.1284306832463589,
                -1.1118011857438468,
                1.9475829688093471,
                -0.49863935201753384,
                0.21387791274564538,
                2.7438796315085954
            ]
        },
        {
            "positions": [
                -1.1168718571845995,
                -1.1149091386504304,
                1.970631873052271,
                -0.6126208446145505,
                0.3040642614316509,
                2.877926823029483
            ]
        },
        {
            "positions": [
                -1.10531303112284,
                -1.1180170915570138,
                1.9936807772951948,
                -0.7266023372115669,
                0.3942506101176564,
                3.011974014550372
            ]
        },
        {
            "positions": [
                -1.0937542050610805,
                -1.1211250444635974,
                2.0167296815381186,
                -0.8405838298085831,
                0.4844369588036618,
                3.14602120607126
            ]
        }
    ]
}