{
    "goal": {
        "global_pose": {
            "orientation": {
                "w": -0.4816463035849501,
                "x": 0.5182115481033762,
                "y": 0.4908360881923453,
                "z": -0.5084816262002911
            },
            "position": {
                "x": -0.8240239810943604,
                "y": -0.300875300988555,
                "z": 0.16403168439865112
            }
        },
        "name": "move_to_storage_C"
    },
    "id": "LBKPIECE_move_to_storage_C_131",
    "joint_names": [
        "shoulder_pan_joint",
        "shoulder_lift_joint",
        "elbow_joint",
        "wrist_1_joint",
        "wrist_2_joint",
        "wrist_3_joint"
    ],
    "metrics": {
        "cart_traj_len": 0.5765165347081409,
        "distance_elbow_joint": 0.2559450056918957,
        "distance_shoulder_lift_joint": 0.18978652137712337,
        "distance_shoulder_pan_joint": 0.49492341351999736,
        "distance_wrist_1_joint": 0.06828249197055802,
        "distance_wrist_2_joint": 1.063369833975481,
        "distance_wrist_3_joint": 0.0552673328290294,
        "smoothness": 2.5376526478085547e-16,
        "time": 0.680134044,
        "traj_len": 1.458620786689976,
        "weighted_distance": 1.8356910390826071
    },
    "planner": "LBKPIECE",
    "start": {
        "state": {
            "elbow_joint": 2.0108683149792914,
            "shoulder_lift_joint": -1.1634956873317392,
            "shoulder_pan_joint": -2.4736205022346,
            "wrist_1_joint": -0.8367026793690192,
            "wrist_2_joint": 0.6746043897045053,
            "wrist_3_joint": 3.133522094754363
        }
    },
    "waypoints": [
        {
            "positions": [
                -2.4736205022346,
                -1.1634956873317392,
                2.0108683149792914,
                -0.8367026793690192,
                0.6746043897045053,
                3.133522094754363
            ]
        },
        {
            "positions": [
                -2.556107737821266,
                -1.131864600435552,
                1.968210814030642,
                -0.8253222640405928,
                0.8518326953670854,
                3.1427333168925347
            ]
        },
        {
            "positions": [
                -2.6385949734079324,
                -1.1002335135393648,
                1.9255533130819928,
                -0.8139418487121666,
                1.0290610010296657,
                3.151944539030706
            ]
        },
        {
            "positions": [
                -2.7210822089945985,
                -1.0686024266431775,
                1.8828958121333437,
                -0.8025614333837402,
                1.2062893066922458,
                3.161155761168878
            ]
        },
        {
            "positions": [
                -2.803569444581265,
                -1.0369713397469904,
                1.8402383111846943,
                -0.7911810180553138,
                1.3835176123548258,
                3.1703669833070496
            ]
        },
        {
            "positions": [
                -2.8860566801679313,
                -1.005340252850803,
                1.7975808102360449,
                -0.7798006027268876,
                1.5607459180174061,
                3.179578205445221
            ]
        },
        {
            "positions": [
                -2.9685439157545974,
                -0.9737091659546159,
                1.7549233092873957,
                -0.7684201873984612,
                1.7379742236799862,
                3.1887894275833926
            ]
        }
    ]
}