{
    "goal": {
        "global_pose": {
            "orientation": {
                "w": 0.5084816262002911,
                "x": -0.4908360881923452,
                "y": 0.5182115481033761,
                "z": -0.48164630358495003
            },
            "position": {
                "x": 0.5540239810943604,
                "y": -0.46912469901144505,
                "z": 0.16403168439865112
            }
        },
        "name": "move_to_storage_B"
    },
    "id": "LBKPIECE_move_to_storage_B_120",
    "joint_names": [
        "shoulder_pan_joint",
        "shoulder_lift_joint",
        "elbow_joint",
        "wrist_1_joint",
        "wrist_2_joint",
        "wrist_3_joint"
    ],
    "metrics": {
        "cart_traj_len": 1.8854932625014296,
        "distance_elbow_joint": 0.9010049295591067,
        "distance_shoulder_lift_joint": 0.537952603700397,
        "distance_shoulder_pan_joint": 1.7954268268306819,
        "distance_wrist_1_joint": 2.9812629286421575,
        "distance_wrist_2_joint": 2.711406430942433,
        "distance_wrist_3_joint": 3.8782882780913486,
        "smoothness": 0.2795353424336932,
        "time": 0.437939638,
        "traj_len": 3.578455253005985,
        "weighted_distance": 5.123923097933206
    },
    "planner": "LBKPIECE",
    "start": {
        "state": {
            "elbow_joint": 1.6649325340416963,
            "shoulder_lift_joint": -0.6616387945129425,
            "shoulder_pan_joint": -0.9139837929255878,
            "wrist_1_joint": 2.1467571094334352,
            "wrist_2_joint": -2.234195976750228,
            "wrist_3_joint": 0.005470921511140723
        }
    },
    "waypoints": [
        {
            "positions": [
                -0.9139837929255878,
                -0.6616387945129425,
                1.6649325340416963,
                2.1467571094334352,
                -2.234195976750228,
                0.005470921511140723
            ]
        },
        {
            "positions": [
                -0.82429112553091,
                -0.7170836438665326,
                1.6344048949870265,
                2.092807863047959,
                -2.1479888521302644,
                -0.03581352087273713
            ]
        },
        {
            "positions": [
                -0.7345984581362323,
                -0.7725284932201226,
                1.6038772559323566,
                2.0388586166624827,
                -2.0617817275103003,
                -0.07709796325661498
            ]
        },
        {
            "positions": [
                -0.6449057907415544,
                -0.8279733425737126,
                1.5733496168776866,
                1.9849093702770062,
                -1.9755746028903367,
                -0.11838240564049284
            ]
        },
        {
            "positions": [
                -0.5552131233468767,
                -0.8834181919273028,
                1.5428219778230168,
                1.9309601238915297,
                -1.8893674782703727,
                -0.15966684802437067
            ]
        },
        {
            "positions": [
                -0.46552045595219876,
                -0.9388630412808927,
                1.512294338768347,
                1.8770108775060534,
                -1.803160353650409,
                -0.20095129040824852
            ]
        },
        {
            "positions": [
                -0.37582778855752097,
                -0.9943078906344828,
                1.4817666997136771,
                1.8230616311205772,
                -1.7169532290304452,
                -0.24223573279212637
            ]
        },
        {
            "positions": [
                -0.2861351211628431,
                -1.0497527399880728,
                1.451239060659007,
                1.7691123847351007,
                -1.6307461044104814,
                -0.28352017517600425
            ]
        },
        {
            "positions": [
                -0.19644245376816538,
                -1.105197589341663,
                1.4207114216043373,
                1.7151631383496242,
                -1.5445389797905176,
                -0.3248046175598821
            ]
        },
        {
            "positions": [
                -0.10674978637348753,
                -1.160642438695253,
                1.3901837825496675,
                1.661213891964148,
                -1.4583318551705537,
                -0.36608905994375995
            ]
        },
        {
            "positions": [
                -0.1462774991846308,
                -1.1590844803145295,
                1.4152340296723507,
                1.561385103517233,
                -1.3809101627960434,
                -0.22581992807830203
            ]
        },
        {
            "positions": [
                -0.18580521199577407,
                -1.157526521933806,
                1.4402842767950337,
                1.4615563150703184,
                -1.303488470421533,
                -0.08555079621284412
            ]
        },
        {
            "positions": [
                -0.22533292480691736,
                -1.1559685635530825,
                1.465334523917717,
                1.3617275266234035,
                -1.2260667780470227,
                0.0547183356526138
            ]
        },
        {
            "positions": [
                -0.2648606376180606,
                -1.154410605172359,
                1.4903847710404,
                1.2618987381764888,
                -1.1486450856725123,
                0.19498746751807172
            ]
        },
        {
            "positions": [
                -0.30438835042920387,
                -1.1528526467916356,
                1.5154350181630831,
                1.162069949729574,
                -1.071223393298002,
                0.3352565993835297
            ]
        },
        {
            "positions": [
                -0.3439160632403472,
                -1.151294688410912,
                1.5404852652857661,
                1.062241161282659,
                -0.9938017009234916,
                0.47552573124898756
            ]
        },
        {
            "positions": [
                -0.38344377605149044,
                -1.1497367300301888,
                1.5655355124084493,
                0.9624123728357442,
                -0.9163800085489812,
                0.6157948631144456
            ]
        },
        {
            "positions": [
                -0.4229714888626337,
                -1.1481787716494654,
                1.5905857595311323,
                0.8625835843888294,
                -0.8389583161744708,
                0.7560639949799034
            ]
        },
        {
            "positions": [
                -0.46249920167377695,
                -1.1466208132687419,
                1.6156360066538156,
                0.7627547959419146,
                -0.7615366237999606,
                0.8963331268453613
            ]
        },
        {
            "positions": [
                -0.5020269144849203,
                -1.1450628548880184,
                1.6406862537764986,
                0.6629260074949999,
                -0.6841149314254501,
                1.0366022587108192
            ]
        },
        {
            "positions": [
                -0.5415546272960635,
                -1.143504896507295,
                1.6657365008991818,
                0.563097219048085,
                -0.6066932390509397,
                1.1768713905762773
            ]
        },
        {
            "positions": [
                -0.5810823401072067,
                -1.1419469381265714,
                1.6907867480218648,
                0.4632684306011703,
                -0.5292715466764294,
                1.317140522441735
            ]
        },
        {
            "positions": [
                -0.62061005291835,
                -1.140388979745848,
                1.715836995144548,
                0.3634396421542554,
                -0.45184985430191893,
                1.457409654307193
            ]
        },
        {
            "positions": [
                -0.6601377657294933,
                -1.1388310213651245,
                1.740887242267231,
                0.2636108537073405,
                -0.3744281619274086,
                1.5976787861726511
            ]
        },
        {
            "positions": [
                -0.6996654785406365,
                -1.137273062984401,
                1.7659374893899142,
                0.16378206526042582,
                -0.29700646955289844,
                1.7379479180381088
            ]
        },
        {
            "positions": [
                -0.7391931913517799,
                -1.1357151046036775,
                1.7909877365125972,
                0.06395327681351093,
                -0.21958477717838787,
                1.8782170499035669
            ]
        },
        {
            "positions": [
                -0.7787209041629232,
                -1.134157146222954,
                1.8160379836352805,
                -0.03587551163340397,
                -0.14216308480387752,
                2.018486181769025
            ]
        },
        {
            "positions": [
                -0.8182486169740664,
                -1.1325991878422306,
                1.8410882307579635,
                -0.13570430008031864,
                -0.06474139242936738,
                2.1587553136344826
            ]
        },
        {
            "positions": [
                -0.8577763297852097,
                -1.1310412294615073,
                1.8661384778806467,
                -0.23553308852723331,
                0.012680299945143192,
                2.2990244454999407
            ]
        },
        {
            "positions": [
                -0.897304042596353,
                -1.1294832710807838,
                1.89118872500333,
                -0.3353618769741482,
                0.09010199231965355,
                2.4392935773653988
            ]
        },
        {
            "positions": [
                -0.9368317554074962,
                -1.1279253127000604,
                1.916238972126013,
                -0.4351906654210631,
                0.1675236846941639,
                2.5795627092308564
            ]
        },
        {
            "positions": [
                -0.9763594682186395,
                -1.1263673543193369,
                1.941289219248696,
                -0.535019453867978,
                0.24494537706867425,
                2.7198318410963145
            ]
        },
        {
            "positions": [
                -1.015887181029783,
                -1.1248093959386134,
                1.9663394663713791,
                -0.6348482423148929,
                0.3223670694431846,
                2.8601009729617726
            ]
        },
        {
            "positions": [
                -1.055414893840926,
                -1.12325143755789,
                1.9913897134940624,
                -0.7346770307618073,
                0.39978876181769496,
                3.00037010482723
            ]
        },
        {
            "positions": [
                -1.0949426066520693,
                -1.1216934791771664,
                2.0164399606167454,
                -0.8345058192087222,
                0.4772104541922053,
                3.1406392366926883
            ]
        }
    ]
}