{
    "goal": {
        "global_pose": {
            "orientation": {
                "w": 0.005598929693374612,
                "x": 0.007748599140229565,
                "y": 0.7110244013736278,
                "z": -0.7031023480610252
            },
            "position": {
                "x": -0.8858502320852131,
                "y": -0.7141253447532654,
                "z": 0.3711530566215515
            }
        },
        "name": "move_to_auspresseinheit_C"
    },
    "id": "LBKPIECE_move_to_auspresseinheit_C_73",
    "joint_names": [
        "shoulder_pan_joint",
        "shoulder_lift_joint",
        "elbow_joint",
        "wrist_1_joint",
        "wrist_2_joint",
        "wrist_3_joint"
    ],
    "metrics": {
        "cart_traj_len": 0.4924275160431081,
        "distance_elbow_joint": 0.990833895720634,
        "distance_shoulder_lift_joint": 0.3205271207709466,
        "distance_shoulder_pan_joint": 0.2557588800652906,
        "distance_wrist_1_joint": 0.6555787765323551,
        "distance_wrist_2_joint": 1.3206939396284387,
        "distance_wrist_3_joint": 0.04457019198647716,
        "smoothness": 1.1304089016362698e-15,
        "time": 0.108974371,
        "traj_len": 1.8941918605843873,
        "weighted_distance": 2.3776828856762817
    },
    "planner": "LBKPIECE",
    "start": {
        "state": {
            "elbow_joint": 1.7527959577730765,
            "shoulder_lift_joint": -0.9740617694224828,
            "shoulder_pan_joint": -2.967991417825869,
            "wrist_1_joint": -0.7595177689779385,
            "wrist_2_joint": 1.7443932448376545,
            "wrist_3_joint": 3.1991315425061013
        }
    },
    "waypoints": [
        {
            "positions": [
                -2.967991417825869,
                -0.9740617694224828,
                1.7527959577730765,
                -0.7595177689779385,
                1.7443932448376545,
                3.1991315425061013
            ]
        },
        {
            "positions": [
                -2.94241552981934,
                -0.9420090573453881,
                1.6537125682010132,
                -0.693959891324703,
                1.6123238508748106,
                3.1946745233074534
            ]
        },
        {
            "positions": [
                -2.916839641812811,
                -0.9099563452682935,
                1.5546291786289497,
                -0.6284020136714675,
                1.4802544569119667,
                3.190217504108806
            ]
        },
        {
            "positions": [
                -2.8912637538062818,
                -0.8779036331911988,
                1.4555457890568864,
                -0.562844136018232,
                1.3481850629491228,
                3.1857604849101584
            ]
        },
        {
            "positions": [
                -2.8656878657997527,
                -0.8458509211141041,
                1.3564623994848228,
                -0.4972862583649965,
                1.216115668986279,
                3.1813034657115105
            ]
        },
        {
            "positions": [
                -2.8401119777932236,
                -0.8137982090370095,
                1.2573790099127595,
                -0.431728380711761,
                1.084046275023435,
                3.1768464465128625
            ]
        },
        {
            "positions": [
                -2.814536089786695,
                -0.7817454969599149,
                1.158295620340696,
                -0.3661705030585255,
                0.9519768810605912,
                3.172389427314215
            ]
        },
        {
            "positions": [
                -2.788960201780166,
                -0.7496927848828202,
                1.0592122307686327,
                -0.30061262540529005,
                0.8199074870977474,
                3.1679324081155675
            ]
        },
        {
            "positions": [
                -2.7633843137736367,
                -0.7176400728057255,
                0.9601288411965693,
                -0.23505474775205448,
                0.6878380931349035,
                3.1634753889169196
            ]
        },
        {
            "positions": [
                -2.7378084257671076,
                -0.6855873607286309,
                0.861045451624506,
                -0.16949687009881897,
                0.5557686991720596,
                3.1590183697182717
            ]
        },
        {
            "positions": [
                -2.7122325377605785,
                -0.6535346486515362,
                0.7619620620524425,
                -0.10393899244558341,
                0.42369930520921567,
                3.154561350519624
            ]
        }
    ]
}