{
    "goal": {
        "global_pose": {
            "orientation": {
                "w": 0.005598929693374612,
                "x": 0.007748599140229565,
                "y": 0.7110244013736278,
                "z": -0.7031023480610252
            },
            "position": {
                "x": 0.1141497679147869,
                "y": -0.7141253447532654,
                "z": 0.3711530566215515
            }
        },
        "name": "move_to_auspresseinheit_B"
    },
    "id": "LBKPIECE_move_to_auspresseinheit_B_90",
    "joint_names": [
        "shoulder_pan_joint",
        "shoulder_lift_joint",
        "elbow_joint",
        "wrist_1_joint",
        "wrist_2_joint",
        "wrist_3_joint"
    ],
    "metrics": {
        "cart_traj_len": 0.5650988102175396,
        "distance_elbow_joint": 0.06218817974260826,
        "distance_shoulder_lift_joint": 0.2936178370057334,
        "distance_shoulder_pan_joint": 0.5774409437902477,
        "distance_wrist_1_joint": 0.3205749355273194,
        "distance_wrist_2_joint": 0.9925891046477138,
        "distance_wrist_3_joint": 0.001247358041720048,
        "smoothness": 7.612957943425664e-16,
        "time": 0.48185325700000003,
        "traj_len": 1.4992192497281185,
        "weighted_distance": 1.887675055462093
    },
    "planner": "LBKPIECE",
    "start": {
        "state": {
            "elbow_joint": 2.0193061681459312,
            "shoulder_lift_joint": -1.1220205130644991,
            "shoulder_pan_joint": -1.0952072088045026,
            "wrist_1_joint": -0.8559671810662515,
            "wrist_2_joint": 0.4759638712940361,
            "wrist_3_joint": 3.159081874192446
        }
    },
    "waypoints": [
        {
            "positions": [
                -1.0952072088045026,
                -1.1220205130644991,
                2.0193061681459312,
                -0.8559671810662515,
                0.4759638712940361,
                3.159081874192446
            ]
        },
        {
            "positions": [
                -1.1914473661028773,
                -1.1709568192321214,
                2.008941471522163,
                -0.8025380251450316,
                0.6413953887353218,
                3.1588739811854927
            ]
        },
        {
            "positions": [
                -1.287687523401252,
                -1.2198931253997436,
                1.9985767748983951,
                -0.7491088692238117,
                0.8068269061766074,
                3.1586660881785393
            ]
        },
        {
            "positions": [
                -1.3839276806996264,
                -1.2688294315673658,
                1.988212078274627,
                -0.6956797133025918,
                0.972258423617893,
                3.158458195171586
            ]
        },
        {
            "positions": [
                -1.480167837998001,
                -1.317765737734988,
                1.977847381650859,
                -0.6422505573813719,
                1.1376899410591785,
                3.1582503021646327
            ]
        },
        {
            "positions": [
                -1.5764079952963757,
                -1.3667020439026103,
                1.967482685027091,
                -0.5888214014601519,
                1.3031214585004642,
                3.1580424091576793
            ]
        },
        {
            "positions": [
                -1.6726481525947503,
                -1.4156383500702325,
                1.957117988403323,
                -0.535392245538932,
                1.46855297594175,
                3.157834516150726
            ]
        }
    ]
}