{
    "goal": {
        "global_pose": {
            "orientation": {
                "w": -0.00223480608172531,
                "x": 0.0024358444001904467,
                "y": 0.7094548369677653,
                "z": -0.704743149386269
            },
            "position": {
                "x": 0.6205249238014221,
                "y": -0.6371506643295288,
                "z": 0.19426114857196808
            }
        },
        "name": "move_to_magneteinheit_B"
    },
    "id": "LBKPIECE_move_to_magneteinheit_B_75",
    "joint_names": [
        "shoulder_pan_joint",
        "shoulder_lift_joint",
        "elbow_joint",
        "wrist_1_joint",
        "wrist_2_joint",
        "wrist_3_joint"
    ],
    "metrics": {
        "cart_traj_len": 1.4534357531450979,
        "distance_elbow_joint": 0.729085131757025,
        "distance_shoulder_lift_joint": 1.248517900437379,
        "distance_shoulder_pan_joint": 1.6209869972940028,
        "distance_wrist_1_joint": 2.610286360332895,
        "distance_wrist_2_joint": 2.936453064456947,
        "distance_wrist_3_joint": 3.1372374357814787,
        "smoothness": 2.4223047925893806e-16,
        "time": 0.286204611,
        "traj_len": 3.5046493248340447,
        "weighted_distance": 4.909560182583826
    },
    "planner": "LBKPIECE",
    "start": {
        "state": {
            "elbow_joint": 2.393587130804639,
            "shoulder_lift_joint": -1.9085141043513325,
            "shoulder_pan_joint": 0.7066247066698809,
            "wrist_1_joint": -0.4678290934590222,
            "wrist_2_joint": 0.7096259084215963,
            "wrist_3_joint": 3.147370379541726
        }
    },
    "waypoints": [
        {
            "positions": [
                0.7066247066698809,
                -1.9085141043513325,
                2.393587130804639,
                -0.4678290934590222,
                0.7096259084215963,
                3.147370379541726
            ]
        },
        {
            "positions": [
                0.6559688630044432,
                -1.8694979199626645,
                2.3708032204372316,
                -0.38625764469861923,
                0.6178617501573167,
                3.049331709673555
            ]
        },
        {
            "positions": [
                0.6053130193390057,
                -1.8304817355739964,
                2.348019310069825,
                -0.3046861959382162,
                0.5260975918930372,
                2.9512930398053836
            ]
        },
        {
            "positions": [
                0.5546571756735681,
                -1.7914655511853281,
                2.3252353997024175,
                -0.22311474717781324,
                0.4343334336287576,
                2.8532543699372126
            ]
        },
        {
            "positions": [
                0.5040013320081305,
                -1.75244936679666,
                2.3024514893350108,
                -0.14154329841741026,
                0.342569275364478,
                2.755215700069041
            ]
        },
        {
            "positions": [
                0.45334548834269295,
                -1.713433182407992,
                2.2796675789676035,
                -0.05997184965700725,
                0.2508051171001984,
                2.65717703020087
            ]
        },
        {
            "positions": [
                0.4026896446772553,
                -1.674416998019324,
                2.2568836686001967,
                0.021599599103395706,
                0.15904095883591884,
                2.5591383603326987
            ]
        },
        {
            "positions": [
                0.35203380101181775,
                -1.635400813630656,
                2.2340997582327895,
                0.10317104786379866,
                0.06727680057163932,
                2.4610996904645277
            ]
        },
        {
            "positions": [
                0.3013779573463802,
                -1.5963846292419879,
                2.2113158478653827,
                0.18474249662420167,
                -0.02448735769264032,
                2.3630610205963563
            ]
        },
        {
            "positions": [
                0.2507221136809426,
                -1.5573684448533196,
                2.1885319374979755,
                0.2663139453846047,
                -0.11625151595691996,
                2.2650223507281853
            ]
        },
        {
            "positions": [
                0.20006627001550503,
                -1.5183522604646515,
                2.1657480271305687,
                0.3478853941450077,
                -0.2080156742211995,
                2.166983680860014
            ]
        },
        {
            "positions": [
                0.1494104263500674,
                -1.4793360760759835,
                2.1429641167631615,
                0.4294568429054106,
                -0.299779832485479,
                2.068945010991843
            ]
        },
        {
            "positions": [
                0.09875458268462978,
                -1.4403198916873154,
                2.120180206395754,
                0.5110282916658135,
                -0.39154399074975865,
                1.9709063411236716
            ]
        },
        {
            "positions": [
                0.04809873901919226,
                -1.4013037072986472,
                2.0973962960283474,
                0.5925997404262167,
                -0.4833081490140383,
                1.8728676712555004
            ]
        },
        {
            "positions": [
                -0.0025571046462453673,
                -1.3622875229099791,
                2.07461238566094,
                0.6741711891866196,
                -0.5750723072783177,
                1.7748290013873291
            ]
        },
        {
            "positions": [
                -0.053212948311682884,
                -1.323271338521311,
                2.0518284752935334,
                0.7557426379470227,
                -0.6668364655425973,
                1.676790331519158
            ]
        },
        {
            "positions": [
                -0.10386879197712051,
                -1.284255154132643,
                2.029044564926126,
                0.8373140867074256,
                -0.758600623806877,
                1.5787516616509867
            ]
        },
        {
            "positions": [
                -0.15452463564255814,
                -1.245238969743975,
                2.0062606545587194,
                0.9188855354678285,
                -0.8503647820711566,
                1.4807129917828155
            ]
        },
        {
            "positions": [
                -0.20518047930799566,
                -1.206222785355307,
                1.9834767441913121,
                1.0004569842282316,
                -0.9421289403354363,
                1.3826743219146442
            ]
        },
        {
            "positions": [
                -0.2558363229734333,
                -1.1672066009666389,
                1.9606928338239051,
                1.0820284329886345,
                -1.0338930985997157,
                1.284635652046473
            ]
        },
        {
            "positions": [
                -0.3064921666388708,
                -1.1281904165779706,
                1.9379089234564981,
                1.1635998817490376,
                -1.1256572568639953,
                1.1865969821783018
            ]
        },
        {
            "positions": [
                -0.3571480103043084,
                -1.0891742321893025,
                1.915125013089091,
                1.2451713305094405,
                -1.217421415128275,
                1.0885583123101306
            ]
        },
        {
            "positions": [
                -0.40780385396974606,
                -1.0501580478006345,
                1.892341102721684,
                1.3267427792698434,
                -1.3091855733925544,
                0.9905196424419596
            ]
        },
        {
            "positions": [
                -0.4584596976351837,
                -1.0111418634119662,
                1.869557192354277,
                1.4083142280302465,
                -1.4009497316568342,
                0.8924809725737881
            ]
        },
        {
            "positions": [
                -0.5091155413006213,
                -0.9721256790232983,
                1.84677328198687,
                1.4898856767906494,
                -1.4927138899211136,
                0.7944423027056171
            ]
        },
        {
            "positions": [
                -0.5597713849660587,
                -0.9331094946346302,
                1.8239893716194628,
                1.5714571255510525,
                -1.584478048185393,
                0.6964036328374457
            ]
        },
        {
            "positions": [
                -0.6104272286314963,
                -0.8940933102459621,
                1.801205461252056,
                1.6530285743114554,
                -1.676242206449673,
                0.5983649629692747
            ]
        },
        {
            "positions": [
                -0.661083072296934,
                -0.855077125857294,
                1.7784215508846488,
                1.7346000230718583,
                -1.7680063647139523,
                0.5003262931011032
            ]
        },
        {
            "positions": [
                -0.7117389159623716,
                -0.816060941468626,
                1.755637640517242,
                1.8161714718322612,
                -1.8597705229782318,
                0.4022876232329322
            ]
        },
        {
            "positions": [
                -0.7623947596278092,
                -0.7770447570799579,
                1.7328537301498348,
                1.8977429205926641,
                -1.9515346812425116,
                0.30424895336476077
            ]
        },
        {
            "positions": [
                -0.8130506032932466,
                -0.7380285726912896,
                1.7100698197824278,
                1.9793143693530675,
                -2.0432988395067913,
                0.20621028349658976
            ]
        },
        {
            "positions": [
                -0.8637064469586843,
                -0.6990123883026216,
                1.6872859094150208,
                2.06088581811347,
                -2.1350629977710707,
                0.10817161362841832
            ]
        },
        {
            "positions": [
                -0.9143622906241219,
                -0.6599962039139536,
                1.6645019990476138,
                2.142457266873873,
                -2.2268271560353505,
                0.010132943760247204
            ]
        }
    ]
}