{
    "goal": {
        "global_pose": {
            "orientation": {
                "w": 0.5084816217422485,
                "x": -0.49083608388900757,
                "y": 0.5182115435600281,
                "z": -0.4816462993621826
            },
            "position": {
                "x": 0.5540239810943604,
                "y": 0.030875300988554955,
                "z": 0.16403168439865112
            }
        },
        "name": "move_to_storage_A"
    },
    "id": "LBKPIECE_move_to_storage_A_25",
    "joint_names": [
        "shoulder_pan_joint",
        "shoulder_lift_joint",
        "elbow_joint",
        "wrist_1_joint",
        "wrist_2_joint",
        "wrist_3_joint"
    ],
    "metrics": {
        "cart_traj_len": 0.352784554942921,
        "distance_elbow_joint": 0.44930971239773254,
        "distance_shoulder_lift_joint": 0.23684194774939482,
        "distance_shoulder_pan_joint": 0.46006381261787177,
        "distance_wrist_1_joint": 0.23343198682555744,
        "distance_wrist_2_joint": 1.105094747738086,
        "distance_wrist_3_joint": 0.08988353803443738,
        "smoothness": 2.2204460668324854e-16,
        "time": 0.407266069,
        "traj_len": 1.6045640359185045,
        "weighted_distance": 2.0230965266134975
    },
    "planner": "LBKPIECE",
    "start": {
        "state": {
            "elbow_joint": 1.971548880431181,
            "shoulder_lift_joint": -1.1394869514688781,
            "shoulder_pan_joint": 0.12281150262730567,
            "wrist_1_joint": -0.7804693444481463,
            "wrist_2_joint": 0.12958644648617612,
            "wrist_3_joint": 3.0906942077768043
        }
    },
    "waypoints": [
        {
            "positions": [
                0.12281150262730567,
                -1.1394869514688781,
                1.971548880431181,
                -0.7804693444481463,
                0.12958644648617612,
                3.0906942077768043
            ]
        },
        {
            "positions": [
                0.05708810082475256,
                -1.1733215154330774,
                2.0357359822022856,
                -0.8138167711375116,
                0.2874571247344741,
                3.1035347132102955
            ]
        },
        {
            "positions": [
                -0.008635300977800547,
                -1.2071560793972766,
                2.0999230839733904,
                -0.847164197826877,
                0.4453278029827721,
                3.1163752186437863
            ]
        },
        {
            "positions": [
                -0.07435870278035364,
                -1.240990643361476,
                2.164110185744495,
                -0.8805116245162423,
                0.60319848123107,
                3.1292157240772775
            ]
        },
        {
            "positions": [
                -0.14008210458290676,
                -1.2748252073256752,
                2.2282972875155993,
                -0.9138590512056077,
                0.761069159479368,
                3.1420562295107684
            ]
        },
        {
            "positions": [
                -0.2058055063854599,
                -1.3086597712898744,
                2.292484389286704,
                -0.947206477894973,
                0.9189398377276661,
                3.1548967349442596
            ]
        },
        {
            "positions": [
                -0.27152890818801295,
                -1.3424943352540737,
                2.356671491057809,
                -0.9805539045843383,
                1.076810515975964,
                3.1677372403777504
            ]
        },
        {
            "positions": [
                -0.3372523099905661,
                -1.376328899218273,
                2.4208585928289135,
                -1.0139013312737037,
                1.2346811942242621,
                3.1805777458112416
            ]
        }
    ]
}