{
    "goal": {
        "global_pose": {
            "orientation": {
                "w": 0.5084816262002911,
                "x": -0.4908360881923452,
                "y": 0.5182115481033761,
                "z": -0.48164630358495003
            },
            "position": {
                "x": 0.5540239810943604,
                "y": -0.46912469901144505,
                "z": 0.16403168439865112
            }
        },
        "name": "move_to_storage_B"
    },
    "id": "LBKPIECE_move_to_storage_B_8",
    "joint_names": [
        "shoulder_pan_joint",
        "shoulder_lift_joint",
        "elbow_joint",
        "wrist_1_joint",
        "wrist_2_joint",
        "wrist_3_joint"
    ],
    "metrics": {
        "cart_traj_len": 0.9058881416673881,
        "distance_elbow_joint": 0.4188581080971583,
        "distance_shoulder_lift_joint": 0.45850553305622044,
        "distance_shoulder_pan_joint": 0.5470121600560565,
        "distance_wrist_1_joint": 3.2543724235412474,
        "distance_wrist_2_joint": 2.705865613852499,
        "distance_wrist_3_joint": 3.1457301104140925,
        "smoothness": 0.308557871061615,
        "time": 0.437626279,
        "traj_len": 3.245049144314655,
        "weighted_distance": 4.773053761193059
    },
    "planner": "LBKPIECE",
    "start": {
        "state": {
            "elbow_joint": 1.6649325340416963,
            "shoulder_lift_joint": -0.6616387945129425,
            "shoulder_pan_joint": -0.9139837929255878,
            "wrist_1_joint": 2.1467571094334352,
            "wrist_2_joint": -2.234195976750228,
            "wrist_3_joint": 0.005470921511140723
        }
    },
    "waypoints": [
        {
            "positions": [
                -0.9139837929255878,
                -0.6616387945129425,
                1.6649325340416963,
                2.1467571094334352,
                -2.234195976750228,
                0.005470921511140723
            ]
        },
        {
            "positions": [
                -0.8862805680882743,
                -0.6965559513734485,
                1.6707267261010017,
                2.1590610662666148,
                -2.202402066258868,
                0.015037810286529209
            ]
        },
        {
            "positions": [
                -0.8086753582012096,
                -0.8068080694435542,
                1.6529855544759469,
                2.2219604833933984,
                -2.157979521759653,
                0.09477137175062941
            ]
        },
        {
            "positions": [
                -0.731070148314145,
                -0.91706018751366,
                1.635244382850892,
                2.2848599005201824,
                -2.113556977260438,
                0.17450493321472962
            ]
        },
        {
            "positions": [
                -0.7456340889319295,
                -0.9251835531158802,
                1.6503476457624018,
                2.160209115222002,
                -2.0101479126859294,
                0.2935727771631498
            ]
        },
        {
            "positions": [
                -0.760198029549714,
                -0.9333069187181002,
                1.6654509086739115,
                2.0355583299238225,
                -1.9067388481114211,
                0.4126406211115699
            ]
        },
        {
            "positions": [
                -0.7747619701674986,
                -0.9414302843203204,
                1.6805541715854213,
                1.9109075446256423,
                -1.8033297835369129,
                0.53170846505999
            ]
        },
        {
            "positions": [
                -0.7893259107852831,
                -0.9495536499225405,
                1.6956574344969308,
                1.7862567593274623,
                -1.6999207189624044,
                0.6507763090084102
            ]
        },
        {
            "positions": [
                -0.8038898514030677,
                -0.9576770155247606,
                1.7107606974084406,
                1.6616059740292823,
                -1.5965116543878959,
                0.7698441529568303
            ]
        },
        {
            "positions": [
                -0.8184537920208522,
                -0.9658003811269807,
                1.7258639603199504,
                1.5369551887311024,
                -1.4931025898133878,
                0.8889119969052504
            ]
        },
        {
            "positions": [
                -0.8330177326386368,
                -0.9739237467292008,
                1.7409672232314601,
                1.4123044034329222,
                -1.3896935252388793,
                1.0079798408536706
            ]
        },
        {
            "positions": [
                -0.8475816732564213,
                -0.982047112331421,
                1.75607048614297,
                1.2876536181347422,
                -1.2862844606643709,
                1.1270476848020907
            ]
        },
        {
            "positions": [
                -0.8621456138742059,
                -0.9901704779336411,
                1.7711737490544794,
                1.1630028328365623,
                -1.1828753960898626,
                1.2461155287505108
            ]
        },
        {
            "positions": [
                -0.8767095544919904,
                -0.9982938435358613,
                1.7862770119659892,
                1.0383520475383823,
                -1.079466331515354,
                1.365183372698931
            ]
        },
        {
            "positions": [
                -0.8912734951097749,
                -1.0064172091380814,
                1.801380274877499,
                0.9137012622402023,
                -0.9760572669408458,
                1.4842512166473512
            ]
        },
        {
            "positions": [
                -0.9058374357275595,
                -1.0145405747403013,
                1.8164835377890087,
                0.7890504769420223,
                -0.8726482023663376,
                1.6033190605957712
            ]
        },
        {
            "positions": [
                -0.920401376345344,
                -1.0226639403425215,
                1.8315868007005185,
                0.6643996916438422,
                -0.7692391377918291,
                1.7223869045441915
            ]
        },
        {
            "positions": [
                -0.9349653169631286,
                -1.0307873059447417,
                1.8466900636120283,
                0.539748906345662,
                -0.6658300732173206,
                1.8414547484926118
            ]
        },
        {
            "positions": [
                -0.9495292575809131,
                -1.0389106715469618,
                1.861793326523538,
                0.4150981210474822,
                -0.5624210086428125,
                1.9605225924410317
            ]
        },
        {
            "positions": [
                -0.9640931981986977,
                -1.047034037149182,
                1.8768965894350478,
                0.29044733574930226,
                -0.45901194406830403,
                2.0795904363894517
            ]
        },
        {
            "positions": [
                -0.9786571388164822,
                -1.055157402751402,
                1.8919998523465573,
                0.16579655045112185,
                -0.35560287949379554,
                2.198658280337872
            ]
        },
        {
            "positions": [
                -0.9932210794342667,
                -1.063280768353622,
                1.907103115258067,
                0.041145765152942104,
                -0.2521938149192873,
                2.317726124286292
            ]
        },
        {
            "positions": [
                -1.0077850200520513,
                -1.0714041339558422,
                1.9222063781695768,
                -0.08350502014523764,
                -0.148784750344779,
                2.436793968234712
            ]
        },
        {
            "positions": [
                -1.0223489606698357,
                -1.0795274995580624,
                1.9373096410810866,
                -0.20815580544341783,
                -0.04537568577027029,
                2.5558618121831325
            ]
        },
        {
            "positions": [
                -1.0369129012876204,
                -1.0876508651602825,
                1.9524129039925961,
                -0.3328065907415976,
                0.058033378804237756,
                2.6749296561315523
            ]
        },
        {
            "positions": [
                -1.051476841905405,
                -1.0957742307625025,
                1.967516166904106,
                -0.45745737603977776,
                0.16144244337874625,
                2.7939975000799726
            ]
        },
        {
            "positions": [
                -1.0660407825231895,
                -1.1038975963647226,
                1.9826194298156157,
                -0.582108161337958,
                0.26485150795325474,
                2.913065344028393
            ]
        },
        {
            "positions": [
                -1.0806047231409739,
                -1.1120209619669428,
                1.9977226927271254,
                -0.7067589466361377,
                0.3682605725277628,
                3.0321331879768127
            ]
        },
        {
            "positions": [
                -1.0951686637587585,
                -1.120144327569163,
                2.012825955638635,
                -0.8314097319343178,
                0.4716696371022713,
                3.151201031925233
            ]
        }
    ]
}