{
    "goal": {
        "global_pose": {
            "orientation": {
                "w": 0.7031023502349854,
                "x": -0.7110244035720825,
                "y": 0.007748599164187908,
                "z": 0.005598929710686207
            },
            "position": {
                "x": 0.11585023208521307,
                "y": 0.44412534475326537,
                "z": 0.3711530566215515
            }
        },
        "name": "move_to_auspresseinheit_A"
    },
    "id": "LBKPIECE_move_to_auspresseinheit_A_46",
    "joint_names": [
        "shoulder_pan_joint",
        "shoulder_lift_joint",
        "elbow_joint",
        "wrist_1_joint",
        "wrist_2_joint",
        "wrist_3_joint"
    ],
    "metrics": {
        "cart_traj_len": 0.6933100703900192,
        "distance_elbow_joint": 0.3455978844504819,
        "distance_shoulder_lift_joint": 0.5301464135001195,
        "distance_shoulder_pan_joint": 1.0445943227744006,
        "distance_wrist_1_joint": 1.5680867510408636,
        "distance_wrist_2_joint": 1.040273661994528,
        "distance_wrist_3_joint": 1.0821222913607884,
        "smoothness": 1.2671119449231039,
        "time": 0.8572594480000001,
        "traj_len": 2.3687172319889056,
        "weighted_distance": 3.222332434879764
    },
    "planner": "LBKPIECE",
    "start": {
        "state": {
            "elbow_joint": 2.4225746994637096,
            "shoulder_lift_joint": -1.373653595662188,
            "shoulder_pan_joint": -0.3378633848294565,
            "wrist_1_joint": -1.0288595594406726,
            "wrist_2_joint": 1.2330228066703421,
            "wrist_3_joint": 3.189163495502006
        }
    },
    "waypoints": [
        {
            "positions": [
                -0.3378633848294565,
                -1.373653595662188,
                2.4225746994637096,
                -1.0288595594406726,
                1.2330228066703421,
                3.189163495502006
            ]
        },
        {
            "positions": [
                -0.2726699715106524,
                -1.40726275455286,
                2.401478970095195,
                -0.9097209584356165,
                1.1460029612007414,
                3.1258643008399765
            ]
        },
        {
            "positions": [
                -0.20747655819184835,
                -1.4408719134435322,
                2.3803832407266805,
                -0.7905823574305605,
                1.0589831157311407,
                3.0625651061779466
            ]
        },
        {
            "positions": [
                -0.14228314487304428,
                -1.4744810723342041,
                2.3592875113581657,
                -0.6714437564255045,
                0.97196327026154,
                2.9992659115159173
            ]
        },
        {
            "positions": [
                -0.0770897315542402,
                -1.5080902312248763,
                2.338191781989651,
                -0.5523051554204483,
                0.8849434247919392,
                2.935966716853888
            ]
        },
        {
            "positions": [
                -0.011896318235436076,
                -1.5416993901155482,
                2.3170960526211366,
                -0.4331665544153922,
                0.7979235793223385,
                2.872667522191858
            ]
        },
        {
            "positions": [
                0.05329709508336794,
                -1.5753085490062204,
                2.296000323252622,
                -0.3140279534103362,
                0.7109037338527378,
                2.8093683275298287
            ]
        },
        {
            "positions": [
                0.11849050840217207,
                -1.6089177078968924,
                2.274904593884107,
                -0.19488935240528005,
                0.623883888383137,
                2.7460691328677993
            ]
        },
        {
            "positions": [
                0.18368392172097608,
                -1.6425268667875645,
                2.2538088645155927,
                -0.07575075140022403,
                0.5368640429135363,
                2.6827699382057695
            ]
        },
        {
            "positions": [
                0.24887733503978016,
                -1.6761360256782365,
                2.232713135147078,
                0.043387849604832045,
                0.44984419744393556,
                2.61947074354374
            ]
        },
        {
            "positions": [
                0.32518626885730745,
                -1.7140800229255817,
                2.2586691885027195,
                -0.039252040727727776,
                0.49269337290528914,
                2.704875666777494
            ]
        },
        {
            "positions": [
                0.40149520267483474,
                -1.752024020172927,
                2.2846252418583615,
                -0.12189193106028759,
                0.5355425483666427,
                2.7902805900112475
            ]
        },
        {
            "positions": [
                0.4778041364923621,
                -1.789968017420272,
                2.310581295214003,
                -0.20453182139284742,
                0.5783917238279963,
                2.8756855132450014
            ]
        },
        {
            "positions": [
                0.5541130703098893,
                -1.827912014667617,
                2.3365373485696446,
                -0.28717171172540723,
                0.6212408992893499,
                2.9610904364787554
            ]
        },
        {
            "positions": [
                0.6304220041274167,
                -1.8658560119149623,
                2.3624934019252866,
                -0.3698116020579671,
                0.6640900747507036,
                3.046495359712509
            ]
        },
        {
            "positions": [
                0.706730937944944,
                -1.9038000091623075,
                2.388449455280928,
                -0.4524514923905269,
                0.7069392502120572,
                3.1319002829462628
            ]
        }
    ]
}