{
    "goal": {
        "global_pose": {
            "orientation": {
                "w": -0.4816463035849501,
                "x": 0.5182115481033762,
                "y": 0.4908360881923453,
                "z": -0.5084816262002911
            },
            "position": {
                "x": -0.8240239810943604,
                "y": -0.300875300988555,
                "z": 0.16403168439865112
            }
        },
        "name": "move_to_storage_C"
    },
    "id": "LBKPIECE_move_to_storage_C_44",
    "joint_names": [
        "shoulder_pan_joint",
        "shoulder_lift_joint",
        "elbow_joint",
        "wrist_1_joint",
        "wrist_2_joint",
        "wrist_3_joint"
    ],
    "metrics": {
        "cart_traj_len": 0.5760098378079263,
        "distance_elbow_joint": 0.2600488417092719,
        "distance_shoulder_lift_joint": 0.1895104163813669,
        "distance_shoulder_pan_joint": 0.49416660520130273,
        "distance_wrist_1_joint": 0.08543274227531339,
        "distance_wrist_2_joint": 1.0640180400294643,
        "distance_wrist_3_joint": 0.06441643920910023,
        "smoothness": 0.0,
        "time": 0.40734012099999994,
        "traj_len": 1.4688747682514731,
        "weighted_distance": 1.853611810905616
    },
    "planner": "LBKPIECE",
    "start": {
        "state": {
            "elbow_joint": 2.0108683149792914,
            "shoulder_lift_joint": -1.1634956873317392,
            "shoulder_pan_joint": -2.4736205022346,
            "wrist_1_joint": -0.8367026793690192,
            "wrist_2_joint": 0.6746043897045053,
            "wrist_3_joint": 3.133522094754363
        }
    },
    "waypoints": [
        {
            "positions": [
                -2.4736205022346,
                -1.1634956873317392,
                2.0108683149792914,
                -0.8367026793690192,
                0.6746043897045053,
                3.133522094754363
            ]
        },
        {
            "positions": [
                -2.555981603101484,
                -1.1319106179348448,
                1.9675268413610794,
                -0.8224638889898003,
                0.851940729709416,
                3.14425816795588
            ]
        },
        {
            "positions": [
                -2.638342703968368,
                -1.1003255485379504,
                1.9241853677428675,
                -0.8082250986105814,
                1.0292770697143268,
                3.1549942411573966
            ]
        },
        {
            "positions": [
                -2.720703804835251,
                -1.0687404791410557,
                1.8808438941246555,
                -0.7939863082313625,
                1.2066134097192376,
                3.165730314358913
            ]
        },
        {
            "positions": [
                -2.803064905702135,
                -1.0371554097441613,
                1.8375024205064434,
                -0.7797475178521436,
                1.3839497497241482,
                3.17646638756043
            ]
        },
        {
            "positions": [
                -2.885426006569019,
                -1.0055703403472669,
                1.7941609468882316,
                -0.7655087274729248,
                1.5612860897290588,
                3.187202460761947
            ]
        },
        {
            "positions": [
                -2.967787107435903,
                -0.9739852709503724,
                1.7508194732700195,
                -0.7512699370937058,
                1.7386224297339696,
                3.1979385339634634
            ]
        }
    ]
}