{
    "goal": {
        "global_pose": {
            "orientation": {
                "w": 0.5084816262002911,
                "x": -0.4908360881923452,
                "y": 0.5182115481033761,
                "z": -0.48164630358495003
            },
            "position": {
                "x": 0.5540239810943604,
                "y": -0.46912469901144505,
                "z": 0.16403168439865112
            }
        },
        "name": "move_to_storage_B"
    },
    "id": "LBKPIECE_move_to_storage_B_21",
    "joint_names": [
        "shoulder_pan_joint",
        "shoulder_lift_joint",
        "elbow_joint",
        "wrist_1_joint",
        "wrist_2_joint",
        "wrist_3_joint"
    ],
    "metrics": {
        "cart_traj_len": 2.147053049896457,
        "distance_elbow_joint": 1.8552266060111162,
        "distance_shoulder_lift_joint": 0.5125210541428777,
        "distance_shoulder_pan_joint": 1.7636125652517123,
        "distance_wrist_1_joint": 2.98180282381064,
        "distance_wrist_2_joint": 2.710170417147002,
        "distance_wrist_3_joint": 3.655558734797523,
        "smoothness": 0.9350092156778521,
        "time": 0.47454884399999997,
        "traj_len": 3.6713610829174614,
        "weighted_distance": 5.146064798631432
    },
    "planner": "LBKPIECE",
    "start": {
        "state": {
            "elbow_joint": 1.6649325340416963,
            "shoulder_lift_joint": -0.6616387945129425,
            "shoulder_pan_joint": -0.9139837929255878,
            "wrist_1_joint": 2.1467571094334352,
            "wrist_2_joint": -2.234195976750228,
            "wrist_3_joint": 0.005470921511140723
        }
    },
    "waypoints": [
        {
            "positions": [
                -0.9139837929255878,
                -0.6616387945129425,
                1.6649325340416963,
                2.1467571094334352,
                -2.234195976750228,
                0.005470921511140723
            ]
        },
        {
            "positions": [
                -0.7959752083488423,
                -0.6623002856826642,
                1.642837557881224,
                2.1021651758040285,
                -2.216414886837707,
                0.11550327601204105
            ]
        },
        {
            "positions": [
                -0.6779666237720967,
                -0.662961776852386,
                1.6207425817207517,
                2.057573242174622,
                -2.198633796925186,
                0.2255356305129414
            ]
        },
        {
            "positions": [
                -0.559958039195351,
                -0.6636232680221077,
                1.5986476055602794,
                2.012981308545215,
                -2.180852707012665,
                0.3355679850138417
            ]
        },
        {
            "positions": [
                -0.6281311001493167,
                -0.6907116666060822,
                1.5588672032936168,
                2.0098292291559905,
                -2.1168915879156516,
                0.24808794423630998
            ]
        },
        {
            "positions": [
                -0.6963041611032825,
                -0.7178000651900566,
                1.519086801026954,
                2.0066771497667664,
                -2.052930468818638,
                0.1606079034587782
            ]
        },
        {
            "positions": [
                -0.7644772220572482,
                -0.7448884637740311,
                1.4793063987602915,
                2.003525070377542,
                -1.9889693497216245,
                0.07312786268124641
            ]
        },
        {
            "positions": [
                -0.7353280437399593,
                -0.771677501046222,
                1.4414808699684738,
                1.9059985253341967,
                -1.8865836210398126,
                0.1517339924111831
            ]
        },
        {
            "positions": [
                -0.7061788654226703,
                -0.798466538318413,
                1.403655341176656,
                1.8084719802908513,
                -1.7841978923580006,
                0.2303401221411198
            ]
        },
        {
            "positions": [
                -0.6770296871053814,
                -0.8252555755906039,
                1.3658298123848382,
                1.7109454352475062,
                -1.681812163676189,
                0.3089462518710565
            ]
        },
        {
            "positions": [
                -0.6478805087880924,
                -0.8520446128627948,
                1.3280042835930204,
                1.613418890204161,
                -1.579426434994377,
                0.38755238160099315
            ]
        },
        {
            "positions": [
                -0.6187313304708035,
                -0.8788336501349857,
                1.2901787548012027,
                1.515892345160816,
                -1.477040706312565,
                0.4661585113309298
            ]
        },
        {
            "positions": [
                -0.5895821521535145,
                -0.9056226874071767,
                1.2523532260093848,
                1.4183658001174706,
                -1.3746549776307533,
                0.5447646410608665
            ]
        },
        {
            "positions": [
                -0.5604329738362256,
                -0.9324117246793676,
                1.2145276972175671,
                1.3208392550741253,
                -1.2722692489489413,
                0.6233707707908032
            ]
        },
        {
            "positions": [
                -0.5312837955189367,
                -0.9592007619515586,
                1.1767021684257493,
                1.2233127100307803,
                -1.1698835202671294,
                0.7019769005207399
            ]
        },
        {
            "positions": [
                -0.5021346172016476,
                -0.9859897992237495,
                1.1388766396339316,
                1.125786164987435,
                -1.0674977915853177,
                0.7805830302506765
            ]
        },
        {
            "positions": [
                -0.47298543888435873,
                -1.0127788364959405,
                1.1010511108421137,
                1.0282596199440899,
                -0.9651120629035057,
                0.8591891599806132
            ]
        },
        {
            "positions": [
                -0.4438362605670698,
                -1.0395678737681313,
                1.063225582050296,
                0.9307330749007448,
                -0.8627263342216938,
                0.9377952897105499
            ]
        },
        {
            "positions": [
                -0.4146870822497808,
                -1.0663569110403224,
                1.0254000532584782,
                0.8332065298573994,
                -0.7603406055398818,
                1.0164014194404867
            ]
        },
        {
            "positions": [
                -0.3855379039324919,
                -1.0931459483125132,
                0.9875745244666605,
                0.735679984814054,
                -0.6579548768580699,
                1.0950075491704234
            ]
        },
        {
            "positions": [
                -0.3563887256152029,
                -1.1199349855847043,
                0.9497489956748427,
                0.6381534397707089,
                -0.5555691481762581,
                1.17361367890036
            ]
        },
        {
            "positions": [
                -0.327239547297914,
                -1.1467240228568951,
                0.911923466883025,
                0.5406268947273638,
                -0.4531834194944461,
                1.2522198086302967
            ]
        },
        {
            "positions": [
                -0.37522891941667924,
                -1.1450092837444623,
                0.9808120630613028,
                0.45464735665832834,
                -0.39511105325124474,
                1.3699654088186202
            ]
        },
        {
            "positions": [
                -0.42321829153544455,
                -1.1432945446320295,
                1.0497006592395806,
                0.3686678185892929,
                -0.3370386870080434,
                1.4877110090069436
            ]
        },
        {
            "positions": [
                -0.4712076636542098,
                -1.1415798055195967,
                1.1185892554178585,
                0.28268828052025746,
                -0.278966320764842,
                1.6054566091952673
            ]
        },
        {
            "positions": [
                -0.519197035772975,
                -1.139865066407164,
                1.1874778515961362,
                0.196708742451222,
                -0.22089395452164065,
                1.7232022093835906
            ]
        },
        {
            "positions": [
                -0.5671864078917404,
                -1.138150327294731,
                1.2563664477744139,
                0.11072920438218653,
                -0.1628215882784393,
                1.8409478095719143
            ]
        },
        {
            "positions": [
                -0.6151757800105055,
                -1.1364355881822983,
                1.3252550439526918,
                0.02474966631315112,
                -0.1047492220352379,
                1.9586934097602378
            ]
        },
        {
            "positions": [
                -0.6631651521292709,
                -1.1347208490698655,
                1.3941436401309697,
                -0.061229871755884346,
                -0.046676855792036565,
                2.0764390099485612
            ]
        },
        {
            "positions": [
                -0.7111545242480362,
                -1.1330061099574325,
                1.4630322363092474,
                -0.1472094098249198,
                0.011395510451164825,
                2.194184610136885
            ]
        },
        {
            "positions": [
                -0.7591438963668014,
                -1.1312913708449996,
                1.531920832487525,
                -0.23318894789395528,
                0.06946787669436622,
                2.311930210325208
            ]
        },
        {
            "positions": [
                -0.8071332684855665,
                -1.1295766317325668,
                1.600809428665803,
                -0.31916848596299074,
                0.12754024293756755,
                2.4296758105135314
            ]
        },
        {
            "positions": [
                -0.855122640604332,
                -1.127861892620134,
                1.669698024844081,
                -0.4051480240320262,
                0.18561260918076888,
                2.547421410701855
            ]
        },
        {
            "positions": [
                -0.9031120127230972,
                -1.1261471535077012,
                1.7385866210223586,
                -0.49112756210106157,
                0.24368497542397033,
                2.665167010890179
            ]
        },
        {
            "positions": [
                -0.9511013848418624,
                -1.1244324143952684,
                1.8074752172006363,
                -0.5771071001700971,
                0.30175734166717166,
                2.782912611078502
            ]
        },
        {
            "positions": [
                -0.9990907569606278,
                -1.1227176752828356,
                1.8763638133789142,
                -0.6630866382391325,
                0.359829707910373,
                2.9006582112668258
            ]
        },
        {
            "positions": [
                -1.047080129079393,
                -1.1210029361704028,
                1.9452524095571921,
                -0.7490661763081681,
                0.41790207415357444,
                3.0184038114551495
            ]
        },
        {
            "positions": [
                -1.0950695011981582,
                -1.11928819705797,
                2.01414100573547,
                -0.8350457143772034,
                0.4759744403967758,
                3.1361494116434727
            ]
        }
    ]
}