{
    "goal": {
        "global_pose": {
            "orientation": {
                "w": -0.4816463035849501,
                "x": 0.5182115481033762,
                "y": 0.4908360881923453,
                "z": -0.5084816262002911
            },
            "position": {
                "x": -0.8240239810943604,
                "y": -0.300875300988555,
                "z": 0.16403168439865112
            }
        },
        "name": "move_to_storage_C"
    },
    "id": "LBKPIECE_move_to_storage_C_79",
    "joint_names": [
        "shoulder_pan_joint",
        "shoulder_lift_joint",
        "elbow_joint",
        "wrist_1_joint",
        "wrist_2_joint",
        "wrist_3_joint"
    ],
    "metrics": {
        "cart_traj_len": 0.5769768491877453,
        "distance_elbow_joint": 0.25458788175690916,
        "distance_shoulder_lift_joint": 0.18865098974303063,
        "distance_shoulder_pan_joint": 0.4956081531227934,
        "distance_wrist_1_joint": 0.06445656475282813,
        "distance_wrist_2_joint": 1.0647670180040125,
        "distance_wrist_3_joint": 0.06497845531954605,
        "smoothness": 2.5376526478085547e-16,
        "time": 0.612024209,
        "traj_len": 1.460496170039182,
        "weighted_distance": 1.8418006287584583
    },
    "planner": "LBKPIECE",
    "start": {
        "state": {
            "elbow_joint": 2.0108683149792914,
            "shoulder_lift_joint": -1.1634956873317392,
            "shoulder_pan_joint": -2.4736205022346,
            "wrist_1_joint": -0.8367026793690192,
            "wrist_2_joint": 0.6746043897045053,
            "wrist_3_joint": 3.133522094754363
        }
    },
    "waypoints": [
        {
            "positions": [
                -2.4736205022346,
                -1.1634956873317392,
                2.0108683149792914,
                -0.8367026793690192,
                0.6746043897045053,
                3.133522094754363
            ]
        },
        {
            "positions": [
                -2.556221861088399,
                -1.1320538557079007,
                1.9684370013531398,
                -0.8259599185768812,
                0.8520655593718407,
                3.144351837307621
            ]
        },
        {
            "positions": [
                -2.6388232199421977,
                -1.1006120240840624,
                1.9260056877269884,
                -0.8152171577847431,
                1.029526729039176,
                3.1551815798608787
            ]
        },
        {
            "positions": [
                -2.7214245787959968,
                -1.069170192460224,
                1.8835743741008368,
                -0.8044743969926051,
                1.2069878987065117,
                3.1660113224141364
            ]
        },
        {
            "positions": [
                -2.804025937649796,
                -1.0377283608363854,
                1.8411430604746852,
                -0.7937316362004672,
                1.384449068373847,
                3.1768410649673937
            ]
        },
        {
            "positions": [
                -2.8866272965035944,
                -1.0062865292125471,
                1.7987117468485339,
                -0.7829888754083291,
                1.5619102380411825,
                3.1876708075206515
            ]
        },
        {
            "positions": [
                -2.9692286553573934,
                -0.9748446975887086,
                1.7562804332223823,
                -0.7722461146161911,
                1.7393714077085178,
                3.198500550073909
            ]
        }
    ]
}