{
    "goal": {
        "global_pose": {
            "orientation": {
                "w": 0.7031023480610252,
                "x": -0.7110244013736278,
                "y": 0.0077485991402295624,
                "z": 0.005598929693374583
            },
            "position": {
                "x": -0.8841497679147869,
                "y": 0.44412534475326537,
                "z": 0.3711530566215515
            }
        },
        "name": "move_to_auspresseinheit_D"
    },
    "id": "LBKPIECE_move_to_auspresseinheit_D_141",
    "joint_names": [
        "shoulder_pan_joint",
        "shoulder_lift_joint",
        "elbow_joint",
        "wrist_1_joint",
        "wrist_2_joint",
        "wrist_3_joint"
    ],
    "metrics": {
        "cart_traj_len": 0.34406691768297193,
        "distance_elbow_joint": 0.6668871750654835,
        "distance_shoulder_lift_joint": 0.13791318382935014,
        "distance_shoulder_pan_joint": 0.13333435108623345,
        "distance_wrist_1_joint": 0.6181146441715741,
        "distance_wrist_2_joint": 1.4470320796243654,
        "distance_wrist_3_joint": 0.08187271838841204,
        "smoothness": 3.947459674368863e-16,
        "time": 0.38819872699999997,
        "traj_len": 1.7564606890464185,
        "weighted_distance": 2.3052215322476455
    },
    "planner": "LBKPIECE",
    "start": {
        "state": {
            "elbow_joint": -1.8275484843655228,
            "shoulder_lift_joint": -2.1267897864000416,
            "shoulder_pan_joint": -0.035127520176001514,
            "wrist_1_joint": -2.3477863256791385,
            "wrist_2_joint": -1.605890476484521,
            "wrist_3_joint": -3.0880375317375353
        }
    },
    "waypoints": [
        {
            "positions": [
                -0.035127520176001514,
                -2.1267897864000416,
                -1.8275484843655228,
                -2.3477863256791385,
                -1.605890476484521,
                -3.0880375317375353
            ]
        },
        {
            "positions": [
                -0.0517943140617807,
                -2.1440289343787104,
                -1.7441875874823374,
                -2.425050656200585,
                -1.4250114665314753,
                -3.077803441938984
            ]
        },
        {
            "positions": [
                -0.06846110794755988,
                -2.1612680823573793,
                -1.6608266905991518,
                -2.5023149867220322,
                -1.2441324565784297,
                -3.067569352140432
            ]
        },
        {
            "positions": [
                -0.08512790183333906,
                -2.1785072303360478,
                -1.5774657937159664,
                -2.579579317243479,
                -1.063253446625384,
                -3.057335262341881
            ]
        },
        {
            "positions": [
                -0.10179469571911824,
                -2.1957463783147166,
                -1.494104896832781,
                -2.6568436477649255,
                -0.8823744366723383,
                -3.0471011725433295
            ]
        },
        {
            "positions": [
                -0.11846148960489743,
                -2.2129855262933855,
                -1.4107439999495957,
                -2.734107978286372,
                -0.7014954267192925,
                -3.0368670827447777
            ]
        },
        {
            "positions": [
                -0.1351282834906766,
                -2.230224674272054,
                -1.3273831030664103,
                -2.811372308807819,
                -0.520616416766247,
                -3.0266329929462263
            ]
        },
        {
            "positions": [
                -0.15179507737645578,
                -2.247463822250723,
                -1.2440222061832247,
                -2.888636639329266,
                -0.3397374068132013,
                -3.0163989031476746
            ]
        },
        {
            "positions": [
                -0.16846187126223497,
                -2.2647029702293917,
                -1.1606613093000393,
                -2.9659009698507126,
                -0.1588583968601556,
                -3.006164813349123
            ]
        }
    ]
}