{
    "goal": {
        "global_pose": {
            "orientation": {
                "w": -0.00223480608172531,
                "x": 0.0024358444001904467,
                "y": 0.7094548369677653,
                "z": -0.704743149386269
            },
            "position": {
                "x": 0.6205249238014221,
                "y": -0.6371506643295288,
                "z": 0.19426114857196808
            }
        },
        "name": "move_to_magneteinheit_B"
    },
    "id": "LBKPIECE_move_to_magneteinheit_B_84",
    "joint_names": [
        "shoulder_pan_joint",
        "shoulder_lift_joint",
        "elbow_joint",
        "wrist_1_joint",
        "wrist_2_joint",
        "wrist_3_joint"
    ],
    "metrics": {
        "cart_traj_len": 1.4522889204000988,
        "distance_elbow_joint": 0.7299231884307931,
        "distance_shoulder_lift_joint": 1.2481072814188567,
        "distance_shoulder_pan_joint": 1.621951600773277,
        "distance_wrist_1_joint": 2.602022938640009,
        "distance_wrist_2_joint": 2.9341583946290797,
        "distance_wrist_3_joint": 3.147724487350211,
        "smoothness": 1.8840148375740441e-16,
        "time": 0.748197573,
        "traj_len": 3.5048377838699216,
        "weighted_distance": 4.910755359332384
    },
    "planner": "LBKPIECE",
    "start": {
        "state": {
            "elbow_joint": 2.393587130804639,
            "shoulder_lift_joint": -1.9085141043513325,
            "shoulder_pan_joint": 0.7066247066698809,
            "wrist_1_joint": -0.4678290934590222,
            "wrist_2_joint": 0.7096259084215963,
            "wrist_3_joint": 3.147370379541726
        }
    },
    "waypoints": [
        {
            "positions": [
                0.7066247066698809,
                -1.9085141043513325,
                2.393587130804639,
                -0.4678290934590222,
                0.7096259084215963,
                3.147370379541726
            ]
        },
        {
            "positions": [
                0.655938719145716,
                -1.8695107518069933,
                2.3707770311661767,
                -0.38651587662652187,
                0.6179334585894376,
                3.0490039893120318
            ]
        },
        {
            "positions": [
                0.605252731621551,
                -1.830507399262654,
                2.347966931527714,
                -0.3052026597940216,
                0.5262410087572789,
                2.950637599082338
            ]
        },
        {
            "positions": [
                0.5545667440973862,
                -1.7915040467183148,
                2.325156831889252,
                -0.22388944296152133,
                0.4345485589251201,
                2.8522712088526436
            ]
        },
        {
            "positions": [
                0.5038807565732213,
                -1.7525006941739754,
                2.30234673225079,
                -0.14257622612902104,
                0.3428561090929614,
                2.75390481862295
            ]
        },
        {
            "positions": [
                0.4531947690490563,
                -1.7134973416296362,
                2.279536632612327,
                -0.06126300929652079,
                0.25116365926080264,
                2.6555384283932555
            ]
        },
        {
            "positions": [
                0.40250878152489145,
                -1.6744939890852968,
                2.256726532973865,
                0.020050207535979525,
                0.1594712094286439,
                2.5571720381635616
            ]
        },
        {
            "positions": [
                0.3518227940007265,
                -1.6354906365409576,
                2.233916433335403,
                0.10136342436847984,
                0.06777875959648516,
                2.4588056479338674
            ]
        },
        {
            "positions": [
                0.3011368064765616,
                -1.5964872839966184,
                2.2111063336969403,
                0.1826766412009801,
                -0.02391369023567358,
                2.360439257704173
            ]
        },
        {
            "positions": [
                0.2504508189523967,
                -1.557483931452279,
                2.188296234058478,
                0.26398985803348035,
                -0.11560614006783232,
                2.262072867474479
            ]
        },
        {
            "positions": [
                0.19976483142823176,
                -1.5184805789079396,
                2.165486134420016,
                0.3453030748659806,
                -0.20729858989999106,
                2.1637064772447854
            ]
        },
        {
            "positions": [
                0.1490788439040669,
                -1.4794772263636005,
                2.1426760347815534,
                0.426616291698481,
                -0.2989910397321498,
                2.065340087015091
            ]
        },
        {
            "positions": [
                0.09839285637990203,
                -1.4404738738192613,
                2.1198659351430913,
                0.5079295085309812,
                -0.39068348956430854,
                1.9669736967853968
            ]
        },
        {
            "positions": [
                0.04770686885573705,
                -1.401470521274922,
                2.097055835504629,
                0.5892427253634815,
                -0.4823759393964673,
                1.8686073065557027
            ]
        },
        {
            "positions": [
                -0.002979118668427816,
                -1.3624671687305827,
                2.074245735866167,
                0.6705559421959819,
                -0.574068389228626,
                1.7702409163260087
            ]
        },
        {
            "positions": [
                -0.05366510619259279,
                -1.3234638161862433,
                2.0514356362277044,
                0.7518691590284821,
                -0.6657608390607848,
                1.6718745260963146
            ]
        },
        {
            "positions": [
                -0.10435109371675766,
                -1.2844604636419041,
                2.0286255365892423,
                0.8331823758609824,
                -0.7574532888929435,
                1.5735081358666205
            ]
        },
        {
            "positions": [
                -0.15503708124092253,
                -1.245457111097565,
                2.00581543695078,
                0.9144955926934828,
                -0.8491457387251022,
                1.4751417456369265
            ]
        },
        {
            "positions": [
                -0.2057230687650875,
                -1.2064537585532256,
                1.9830053373123178,
                0.9958088095259829,
                -0.940838188557261,
                1.3767753554072324
            ]
        },
        {
            "positions": [
                -0.25640905628925237,
                -1.1674504060088862,
                1.9601952376738554,
                1.0771220263584833,
                -1.0325306383894197,
                1.2784089651775383
            ]
        },
        {
            "positions": [
                -0.30709504381341735,
                -1.128447053464547,
                1.9373851380353933,
                1.1584352431909835,
                -1.1242230882215785,
                1.1800425749478443
            ]
        },
        {
            "positions": [
                -0.3577810313375821,
                -1.0894437009202078,
                1.9145750383969309,
                1.2397484600234838,
                -1.2159155380537372,
                1.08167618471815
            ]
        },
        {
            "positions": [
                -0.4084670188617471,
                -1.0504403483758686,
                1.8917649387584685,
                1.3210616768559842,
                -1.307607987885896,
                0.9833097944884561
            ]
        },
        {
            "positions": [
                -0.45915300638591205,
                -1.0114369958315292,
                1.8689548391200064,
                1.4023748936884843,
                -1.3993004377180547,
                0.8849434042587618
            ]
        },
        {
            "positions": [
                -0.5098389939100768,
                -0.97243364328719,
                1.846144739481544,
                1.4836881105209847,
                -1.4909928875502134,
                0.7865770140290675
            ]
        },
        {
            "positions": [
                -0.5605249814342418,
                -0.9334302907428507,
                1.8233346398430816,
                1.565001327353485,
                -1.5826853373823722,
                0.6882106237993737
            ]
        },
        {
            "positions": [
                -0.6112109689584068,
                -0.8944269381985115,
                1.8005245402046195,
                1.6463145441859852,
                -1.674377787214531,
                0.5898442335696794
            ]
        },
        {
            "positions": [
                -0.6618969564825717,
                -0.8554235856541721,
                1.7777144405661571,
                1.7276277610184854,
                -1.7660702370466896,
                0.49147784333998557
            ]
        },
        {
            "positions": [
                -0.7125829440067365,
                -0.8164202331098329,
                1.7549043409276948,
                1.808940977850986,
                -1.8577626868788484,
                0.3931114531102913
            ]
        },
        {
            "positions": [
                -0.7632689315309015,
                -0.7774168805654935,
                1.7320942412892326,
                1.890254194683486,
                -1.9494551367110071,
                0.29474506288059743
            ]
        },
        {
            "positions": [
                -0.8139549190550665,
                -0.7384135280211543,
                1.7092841416507703,
                1.9715674115159862,
                -2.0411475865431656,
                0.19637867265090314
            ]
        },
        {
            "positions": [
                -0.8646409065792312,
                -0.6994101754768149,
                1.6864740420123079,
                2.0528806283484866,
                -2.132840036375325,
                0.0980122824212093
            ]
        },
        {
            "positions": [
                -0.9153268941033961,
                -0.6604068229324757,
                1.6636639423738457,
                2.1341938451809868,
                -2.224532486207483,
                -0.0003541078084849067
            ]
        }
    ]
}