{
    "goal": {
        "global_pose": {
            "orientation": {
                "w": 0.7031023502349854,
                "x": -0.7110244035720825,
                "y": 0.007748599164187908,
                "z": 0.005598929710686207
            },
            "position": {
                "x": 0.11585023208521307,
                "y": 0.44412534475326537,
                "z": 0.3711530566215515
            }
        },
        "name": "move_to_auspresseinheit_A"
    },
    "id": "LBKPIECE_move_to_auspresseinheit_A_97",
    "joint_names": [
        "shoulder_pan_joint",
        "shoulder_lift_joint",
        "elbow_joint",
        "wrist_1_joint",
        "wrist_2_joint",
        "wrist_3_joint"
    ],
    "metrics": {
        "cart_traj_len": 3.293608687754293,
        "distance_elbow_joint": 2.7513910997937328,
        "distance_shoulder_lift_joint": 1.273297277424433,
        "distance_shoulder_pan_joint": 5.691168725811286,
        "distance_wrist_1_joint": 0.573913961051304,
        "distance_wrist_2_joint": 0.8224259128555659,
        "distance_wrist_3_joint": 1.895865984956869,
        "smoothness": 0.8438862412319434,
        "time": 0.543110102,
        "traj_len": 3.6066692337797197,
        "weighted_distance": 4.265692769728477
    },
    "planner": "LBKPIECE",
    "start": {
        "state": {
            "elbow_joint": 2.4225746994637096,
            "shoulder_lift_joint": -1.373653595662188,
            "shoulder_pan_joint": -0.3378633848294565,
            "wrist_1_joint": -1.0288595594406726,
            "wrist_2_joint": 1.2330228066703421,
            "wrist_3_joint": 3.189163495502006
        }
    },
    "waypoints": [
        {
            "positions": [
                -0.3378633848294565,
                -1.373653595662188,
                2.4225746994637096,
                -1.0288595594406726,
                1.2330228066703421,
                3.189163495502006
            ]
        },
        {
            "positions": [
                -0.4745318509357004,
                -1.426825383510832,
                2.340762591360313,
                -1.0235041153292814,
                1.1936428695805044,
                3.1317937497351536
            ]
        },
        {
            "positions": [
                -0.6112003170419442,
                -1.479997171359476,
                2.2589504832569163,
                -1.0181486712178902,
                1.1542629324906666,
                3.074424003968301
            ]
        },
        {
            "positions": [
                -0.7478687831481883,
                -1.53316895920812,
                2.1771383751535196,
                -1.012793227106499,
                1.114882995400829,
                3.0170542582014486
            ]
        },
        {
            "positions": [
                -0.8845372492544321,
                -1.5863407470567639,
                2.095326267050123,
                -1.0074377829951078,
                1.0755030583109912,
                2.959684512434596
            ]
        },
        {
            "positions": [
                -1.021205715360676,
                -1.639512534905408,
                2.0135141589467263,
                -1.0020823388837166,
                1.0361231212211535,
                2.9023147666677436
            ]
        },
        {
            "positions": [
                -1.15787418146692,
                -1.692684322754052,
                1.9317020508433296,
                -0.9967268947723252,
                0.9967431841313157,
                2.844945020900891
            ]
        },
        {
            "positions": [
                -1.2945426475731638,
                -1.745856110602696,
                1.8498899427399331,
                -0.991371450660934,
                0.9573632470414779,
                2.7875752751340386
            ]
        },
        {
            "positions": [
                -1.4312111136794077,
                -1.79902789845134,
                1.7680778346365364,
                -0.9860160065495428,
                0.9179833099516402,
                2.730205529367186
            ]
        },
        {
            "positions": [
                -1.5678795797856517,
                -1.8521996862999839,
                1.6862657265331398,
                -0.9806605624381516,
                0.8786033728618025,
                2.6728357836003336
            ]
        },
        {
            "positions": [
                -1.7045480458918956,
                -1.905371474148628,
                1.604453618429743,
                -0.9753051183267604,
                0.8392234357719648,
                2.615466037833481
            ]
        },
        {
            "positions": [
                -1.8412165119981396,
                -1.958543261997272,
                1.5226415103263464,
                -0.9699496742153692,
                0.799843498682127,
                2.5580962920666286
            ]
        },
        {
            "positions": [
                -1.9778849781043835,
                -2.011715049845916,
                1.4408294022229498,
                -0.9645942301039778,
                0.7604635615922892,
                2.500726546299776
            ]
        },
        {
            "positions": [
                -2.114553444210627,
                -2.06488683769456,
                1.3590172941195533,
                -0.9592387859925866,
                0.7210836245024516,
                2.4433568005329236
            ]
        },
        {
            "positions": [
                -2.251221910316871,
                -2.118058625543204,
                1.2772051860161566,
                -0.9538833418811954,
                0.6817036874126138,
                2.385987054766071
            ]
        },
        {
            "positions": [
                -2.387890376423115,
                -2.171230413391848,
                1.19539307791276,
                -0.9485278977698042,
                0.642323750322776,
                2.3286173089992186
            ]
        },
        {
            "positions": [
                -2.5245588425293586,
                -2.224402201240492,
                1.1135809698093633,
                -0.943172453658413,
                0.6029438132329383,
                2.2712475632323663
            ]
        },
        {
            "positions": [
                -2.6612273086356026,
                -2.2775739890891358,
                1.0317688617059666,
                -0.9378170095470217,
                0.5635638761431006,
                2.2138778174655136
            ]
        },
        {
            "positions": [
                -2.463121143811771,
                -2.255845937089284,
                1.1118032888845542,
                -0.9094128088906892,
                0.5725619339271196,
                2.268029600225536
            ]
        },
        {
            "positions": [
                -2.265014978987939,
                -2.2341178850894314,
                1.1918377160631417,
                -0.8810086082343567,
                0.5815599917111387,
                2.322181382985558
            ]
        },
        {
            "positions": [
                -2.0669088141641074,
                -2.2123898330895795,
                1.2718721432417295,
                -0.8526044075780241,
                0.5905580494951578,
                2.37633316574558
            ]
        },
        {
            "positions": [
                -1.8688026493402758,
                -2.1906617810897275,
                1.351906570420317,
                -0.8242002069216916,
                0.5995561072791769,
                2.4304849485056024
            ]
        },
        {
            "positions": [
                -1.670696484516444,
                -2.1689337290898756,
                1.4319409975989046,
                -0.7957960062653591,
                0.6085541650631959,
                2.4846367312656246
            ]
        },
        {
            "positions": [
                -1.4725903196926122,
                -2.147205677090023,
                1.5119754247774924,
                -0.7673918056090265,
                0.617552222847215,
                2.5387885140256468
            ]
        },
        {
            "positions": [
                -1.2744841548687806,
                -2.1254776250901712,
                1.59200985195608,
                -0.738987604952694,
                0.6265502806312341,
                2.5929402967856685
            ]
        },
        {
            "positions": [
                -1.0763779900449488,
                -2.1037495730903193,
                1.6720442791346675,
                -0.7105834042963615,
                0.6355483384152532,
                2.6470920795456907
            ]
        },
        {
            "positions": [
                -0.8782718252211172,
                -2.082021521090467,
                1.752078706313255,
                -0.6821792036400289,
                0.6445463961992722,
                2.701243862305713
            ]
        },
        {
            "positions": [
                -0.6801656603972854,
                -2.060293469090615,
                1.8321131334918426,
                -0.6537750029836964,
                0.6535444539832913,
                2.755395645065735
            ]
        },
        {
            "positions": [
                -0.48205949557345384,
                -2.038565417090763,
                1.9121475606704303,
                -0.6253708023273639,
                0.6625425117673104,
                2.8095474278257573
            ]
        },
        {
            "positions": [
                -0.2839533307496218,
                -2.0168373650909106,
                1.992181987849018,
                -0.5969666016710313,
                0.6715405695513295,
                2.8636992105857795
            ]
        },
        {
            "positions": [
                -0.08584716592579067,
                -1.9951093130910587,
                2.0722164150276052,
                -0.5685624010146988,
                0.6805386273353485,
                2.9178509933458017
            ]
        },
        {
            "positions": [
                0.11225899889804136,
                -1.9733812610912067,
                2.1522508422061932,
                -0.5401582003583663,
                0.6895366851193676,
                2.972002776105824
            ]
        },
        {
            "positions": [
                0.31036516372187295,
                -1.9516532090913545,
                2.2322852693847803,
                -0.5117539997020337,
                0.6985347429033867,
                3.026154558865846
            ]
        },
        {
            "positions": [
                0.508471328545705,
                -1.9299251570915024,
                2.3123196965633683,
                -0.48334979904570124,
                0.7075328006874058,
                3.0803063416258682
            ]
        },
        {
            "positions": [
                0.7065774933695366,
                -1.9081971050916504,
                2.392354123741956,
                -0.4549455983893687,
                0.7165308584714248,
                3.1344581243858904
            ]
        }
    ]
}