{
    "goal": {
        "global_pose": {
            "orientation": {
                "w": -0.4816463035849501,
                "x": 0.5182115481033762,
                "y": 0.4908360881923453,
                "z": -0.5084816262002911
            },
            "position": {
                "x": -0.8240239810943604,
                "y": 0.19912469901144506,
                "z": 0.16403168439865112
            }
        },
        "name": "move_to_storage_D"
    },
    "id": "LBKPIECE_move_to_storage_D_102",
    "joint_names": [
        "shoulder_pan_joint",
        "shoulder_lift_joint",
        "elbow_joint",
        "wrist_1_joint",
        "wrist_2_joint",
        "wrist_3_joint"
    ],
    "metrics": {
        "cart_traj_len": 3.9101658991804054,
        "distance_elbow_joint": 4.758200537066237,
        "distance_shoulder_lift_joint": 1.264417681604555,
        "distance_shoulder_pan_joint": 2.812196675637854,
        "distance_wrist_1_joint": 2.2639603849064507,
        "distance_wrist_2_joint": 0.8687614640602582,
        "distance_wrist_3_joint": 3.148460374954097,
        "smoothness": 0.1979076501944233,
        "time": 0.410606311,
        "traj_len": 3.887929669918099,
        "weighted_distance": 4.954355630867082
    },
    "planner": "LBKPIECE",
    "start": {
        "state": {
            "elbow_joint": -2.384821990628643,
            "shoulder_lift_joint": -2.278805467437664,
            "shoulder_pan_joint": -0.18546946439364564,
            "wrist_1_joint": 1.4845938187801415,
            "wrist_2_joint": 0.178987772454074,
            "wrist_3_joint": 0.03710569632802521
        }
    },
    "waypoints": [
        {
            "positions": [
                -0.18546946439364564,
                -2.278805467437664,
                -2.384821990628643,
                1.4845938187801415,
                0.178987772454074,
                0.03710569632802521
            ]
        },
        {
            "positions": [
                -0.16580920989171374,
                -2.233272218310425,
                -2.476492031083269,
                1.413408234262708,
                0.19402802066826616,
                0.17650316608560773
            ]
        },
        {
            "positions": [
                -0.14614895538978184,
                -2.187738969183186,
                -2.5681620715378948,
                1.342222649745274,
                0.2090682688824583,
                0.3159006358431903
            ]
        },
        {
            "positions": [
                -0.12648870088784991,
                -2.1422057200559474,
                -2.659832111992521,
                1.2710370652278404,
                0.22410851709665047,
                0.4552981056007728
            ]
        },
        {
            "positions": [
                -0.04513851380391866,
                -2.1132151750153962,
                -2.5239299536396307,
                1.2101562847487677,
                0.2434407551831081,
                0.5188820627340153
            ]
        },
        {
            "positions": [
                0.036211673280012596,
                -2.084224629974845,
                -2.38802779528674,
                1.1492755042696947,
                0.2627729932695657,
                0.5824660198672579
            ]
        },
        {
            "positions": [
                0.11756186036394387,
                -2.055234084934294,
                -2.25212563693385,
                1.088394723790622,
                0.28210523135602333,
                0.6460499770005004
            ]
        },
        {
            "positions": [
                0.1989120474478751,
                -2.0262435398937426,
                -2.11622347858096,
                1.0275139433115492,
                0.30143746944248095,
                0.709633934133743
            ]
        },
        {
            "positions": [
                0.2802622345318063,
                -1.9972529948531916,
                -1.9803213202280696,
                0.9666331628324764,
                0.3207697075289386,
                0.7732178912669855
            ]
        },
        {
            "positions": [
                0.36161242161573764,
                -1.9682624498126404,
                -1.8444191618751793,
                0.9057523823534035,
                0.3401019456153962,
                0.836801848400228
            ]
        },
        {
            "positions": [
                0.44296260869966886,
                -1.9392719047720892,
                -1.7085170035222892,
                0.8448716018743307,
                0.3594341837018538,
                0.9003858055334706
            ]
        },
        {
            "positions": [
                0.5243127957836001,
                -1.910281359731538,
                -1.5726148451693989,
                0.7839908213952578,
                0.37876642178831144,
                0.9639697626667131
            ]
        },
        {
            "positions": [
                0.6056629828675314,
                -1.881290814690987,
                -1.4367126868165085,
                0.723110040916185,
                0.39809865987476906,
                1.0275537197999556
            ]
        },
        {
            "positions": [
                0.6870131699514626,
                -1.8523002696504358,
                -1.3008105284636184,
                0.6622292604371123,
                0.4174308979612267,
                1.0911376769331982
            ]
        },
        {
            "positions": [
                0.7683633570353938,
                -1.8233097246098846,
                -1.1649083701107281,
                0.6013484799580394,
                0.43676313604768424,
                1.1547216340664406
            ]
        },
        {
            "positions": [
                0.8497135441193252,
                -1.7943191795693334,
                -1.0290062117578378,
                0.5404676994789666,
                0.4560953741341419,
                1.2183055911996834
            ]
        },
        {
            "positions": [
                0.9310637312032564,
                -1.7653286345287822,
                -0.8931040534049475,
                0.4795869189998937,
                0.47542761222059954,
                1.2818895483329258
            ]
        },
        {
            "positions": [
                1.0124139182871876,
                -1.736338089488231,
                -0.7572018950520574,
                0.41870613852082095,
                0.49475985030705716,
                1.3454735054661684
            ]
        },
        {
            "positions": [
                1.093764105371119,
                -1.7073475444476798,
                -0.621299736699167,
                0.3578253580417481,
                0.5140920883935147,
                1.409057462599411
            ]
        },
        {
            "positions": [
                1.1751142924550502,
                -1.6783569994071288,
                -0.48539757834627695,
                0.2969445775626752,
                0.5334243264799724,
                1.4726414197326534
            ]
        },
        {
            "positions": [
                1.2564644795389814,
                -1.6493664543665776,
                -0.3494954199933864,
                0.23606379708360237,
                0.5527565645664301,
                1.536225376865896
            ]
        },
        {
            "positions": [
                1.3378146666229127,
                -1.6203759093260264,
                -0.2135932616404963,
                0.17518301660452962,
                0.5720888026528876,
                1.5998093339991384
            ]
        },
        {
            "positions": [
                1.4191648537068438,
                -1.5913853642854754,
                -0.0776911032876062,
                0.11430223612545687,
                0.5914210407393452,
                1.663393291132381
            ]
        },
        {
            "positions": [
                1.500515040790775,
                -1.5623948192449242,
                0.0582110550652839,
                0.05342145564638412,
                0.6107532788258029,
                1.7269772482656236
            ]
        },
        {
            "positions": [
                1.5818652278747063,
                -1.533404274204373,
                0.19411321341817445,
                -0.007459324832688852,
                0.6300855169122606,
                1.790561205398866
            ]
        },
        {
            "positions": [
                1.6632154149586376,
                -1.5044137291638218,
                0.33001537177106455,
                -0.0683401053117616,
                0.6494177549987181,
                1.8541451625321086
            ]
        },
        {
            "positions": [
                1.744565602042569,
                -1.4754231841232706,
                0.4659175301239551,
                -0.12922088579083457,
                0.6687499930851758,
                1.9177291196653514
            ]
        },
        {
            "positions": [
                1.8259157891265003,
                -1.4464326390827194,
                0.6018196884768452,
                -0.19010166626990732,
                0.6880822311716334,
                1.9813130767985938
            ]
        },
        {
            "positions": [
                1.9072659762104316,
                -1.4174420940421681,
                0.7377218468297357,
                -0.2509824467489803,
                0.707414469258091,
                2.0448970339318366
            ]
        },
        {
            "positions": [
                1.9886161632943626,
                -1.388451549001617,
                0.8736240051826258,
                -0.31186322722805304,
                0.7267467073445486,
                2.108480991065079
            ]
        },
        {
            "positions": [
                2.0699663503782944,
                -1.3594610039610657,
                1.009526163535516,
                -0.3727440077071258,
                0.7460789454310063,
                2.1720649481983214
            ]
        },
        {
            "positions": [
                2.1513165374622254,
                -1.3304704589205145,
                1.145428321888406,
                -0.43362478818619854,
                0.7654111835174638,
                2.235648905331564
            ]
        },
        {
            "positions": [
                2.2326667245461564,
                -1.3014799138799635,
                1.2813304802412966,
                -0.4945055686652715,
                0.7847434216039215,
                2.299232862464806
            ]
        },
        {
            "positions": [
                2.3140169116300875,
                -1.2724893688394123,
                1.4172326385941865,
                -0.5553863491443443,
                0.8040756596903791,
                2.362816819598049
            ]
        },
        {
            "positions": [
                2.3661352948991077,
                -1.2294724383383617,
                1.4849202494467957,
                -0.5927163853080051,
                0.8446879224943713,
                2.4999416948787276
            ]
        },
        {
            "positions": [
                2.418253678168128,
                -1.1864555078373111,
                1.552607860299405,
                -0.6300464214716658,
                0.8853001852983634,
                2.6370665701594067
            ]
        },
        {
            "positions": [
                2.470372061437148,
                -1.1434385773362608,
                1.6202954711520139,
                -0.6673764576353265,
                0.9259124481023556,
                2.774191445440086
            ]
        },
        {
            "positions": [
                2.522490444706168,
                -1.1004216468352102,
                1.687983082004623,
                -0.7047064937989873,
                0.9665247109063477,
                2.9113163207207644
            ]
        },
        {
            "positions": [
                2.574608827975188,
                -1.0574047163341596,
                1.7556706928572323,
                -0.7420365299626481,
                1.00713697371034,
                3.048441196001443
            ]
        },
        {
            "positions": [
                2.626727211244208,
                -1.014387785833109,
                1.8233583037098415,
                -0.7793665661263088,
                1.0477492365143322,
                3.185566071282122
            ]
        }
    ]
}