{
    "goal": {
        "global_pose": {
            "orientation": {
                "w": 0.5084816217422485,
                "x": -0.49083608388900757,
                "y": 0.5182115435600281,
                "z": -0.4816462993621826
            },
            "position": {
                "x": 0.5540239810943604,
                "y": 0.030875300988554955,
                "z": 0.16403168439865112
            }
        },
        "name": "move_to_storage_A"
    },
    "id": "LBKPIECE_move_to_storage_A_150",
    "joint_names": [
        "shoulder_pan_joint",
        "shoulder_lift_joint",
        "elbow_joint",
        "wrist_1_joint",
        "wrist_2_joint",
        "wrist_3_joint"
    ],
    "metrics": {
        "cart_traj_len": 0.35338191448212436,
        "distance_elbow_joint": 0.4491243480584408,
        "distance_shoulder_lift_joint": 0.23434648726106588,
        "distance_shoulder_pan_joint": 0.4639439843906062,
        "distance_wrist_1_joint": 0.24130252124005214,
        "distance_wrist_2_joint": 1.0910847316560717,
        "distance_wrist_3_joint": 0.0904793428413222,
        "smoothness": 4.440892098500626e-16,
        "time": 0.16738070100000002,
        "traj_len": 1.603209722852116,
        "weighted_distance": 2.0207986921082286
    },
    "planner": "LBKPIECE",
    "start": {
        "state": {
            "elbow_joint": 1.971548880431181,
            "shoulder_lift_joint": -1.1394869514688781,
            "shoulder_pan_joint": 0.12281150262730567,
            "wrist_1_joint": -0.7804693444481463,
            "wrist_2_joint": 0.12958644648617612,
            "wrist_3_joint": 3.0906942077768043
        }
    },
    "waypoints": [
        {
            "positions": [
                0.12281150262730567,
                -1.1394869514688781,
                1.971548880431181,
                -0.7804693444481463,
                0.12958644648617612,
                3.0906942077768043
            ]
        },
        {
            "positions": [
                0.05653379057150479,
                -1.172965021077602,
                2.035709501582387,
                -0.8149411331967252,
                0.2854556938656149,
                3.1036198281827074
            ]
        },
        {
            "positions": [
                -0.009743921484296092,
                -1.2064430906863255,
                2.0998701227335927,
                -0.849412921945304,
                0.4413249412450537,
                3.1165454485886106
            ]
        },
        {
            "positions": [
                -0.07602163354009697,
                -1.2399211602950493,
                2.1640307438847985,
                -0.883884710693883,
                0.5971941886244925,
                3.1294710689945138
            ]
        },
        {
            "positions": [
                -0.14229934559589785,
                -1.2733992299037729,
                2.2281913650360043,
                -0.9183564994424618,
                0.7530634360039313,
                3.142396689400417
            ]
        },
        {
            "positions": [
                -0.20857705765169876,
                -1.3068772995124966,
                2.29235198618721,
                -0.9528282881910407,
                0.9089326833833702,
                3.15532230980632
            ]
        },
        {
            "positions": [
                -0.2748547697074996,
                -1.3403553691212202,
                2.356512607338416,
                -0.9873000769396195,
                1.064801930762809,
                3.1682479302122233
            ]
        },
        {
            "positions": [
                -0.3411324817633005,
                -1.373833438729944,
                2.4206732284896217,
                -1.0217718656881984,
                1.220671178142248,
                3.1811735506181265
            ]
        }
    ]
}