{
    "goal": {
        "global_pose": {
            "orientation": {
                "w": 0.7031023480610252,
                "x": -0.7110244013736278,
                "y": 0.0077485991402295624,
                "z": 0.005598929693374583
            },
            "position": {
                "x": -0.8841497679147869,
                "y": 0.44412534475326537,
                "z": 0.3711530566215515
            }
        },
        "name": "move_to_auspresseinheit_D"
    },
    "id": "LBKPIECE_move_to_auspresseinheit_D_16",
    "joint_names": [
        "shoulder_pan_joint",
        "shoulder_lift_joint",
        "elbow_joint",
        "wrist_1_joint",
        "wrist_2_joint",
        "wrist_3_joint"
    ],
    "metrics": {
        "cart_traj_len": 0.3449112550441234,
        "distance_elbow_joint": 0.663141919661502,
        "distance_shoulder_lift_joint": 0.13428404844250386,
        "distance_shoulder_pan_joint": 0.1340393284260194,
        "distance_wrist_1_joint": 0.6122711971471442,
        "distance_wrist_2_joint": 1.4377398352127275,
        "distance_wrist_3_joint": 0.06572722524456331,
        "smoothness": 0.0,
        "time": 0.422747114,
        "traj_len": 1.7456241159351749,
        "weighted_distance": 2.2866283119439106
    },
    "planner": "LBKPIECE",
    "start": {
        "state": {
            "elbow_joint": -1.8275484843655228,
            "shoulder_lift_joint": -2.1267897864000416,
            "shoulder_pan_joint": -0.035127520176001514,
            "wrist_1_joint": -2.3477863256791385,
            "wrist_2_joint": -1.605890476484521,
            "wrist_3_joint": -3.0880375317375353
        }
    },
    "waypoints": [
        {
            "positions": [
                -0.035127520176001514,
                -2.1267897864000416,
                -1.8275484843655228,
                -2.3477863256791385,
                -1.605890476484521,
                -3.0880375317375353
            ]
        },
        {
            "positions": [
                -0.05188243622925394,
                -2.1435752924553544,
                -1.744655744407835,
                -2.4243202253225316,
                -1.42617299708293,
                -3.079821628581965
            ]
        },
        {
            "positions": [
                -0.06863735228250636,
                -2.1603607985106676,
                -1.6617630044501472,
                -2.5008541249659246,
                -1.2464555176813392,
                -3.0716057254263944
            ]
        },
        {
            "positions": [
                -0.08539226833575879,
                -2.1771463045659805,
                -1.5788702644924595,
                -2.5773880246093177,
                -1.0667380382797482,
                -3.063389822270824
            ]
        },
        {
            "positions": [
                -0.10214718438901121,
                -2.1939318106212937,
                -1.4959775245347717,
                -2.6539219242527103,
                -0.8870205588781572,
                -3.0551739191152536
            ]
        },
        {
            "positions": [
                -0.11890210044226364,
                -2.2107173166766065,
                -1.413084784577084,
                -2.7304558238961034,
                -0.7073030794765662,
                -3.0469580159596834
            ]
        },
        {
            "positions": [
                -0.13565701649551606,
                -2.2275028227319194,
                -1.3301920446193962,
                -2.8069897235394965,
                -0.5275856000749755,
                -3.0387421128041128
            ]
        },
        {
            "positions": [
                -0.1524119325487685,
                -2.2442883287872326,
                -1.2472993046617085,
                -2.8835236231828896,
                -0.34786812067338446,
                -3.030526209648542
            ]
        },
        {
            "positions": [
                -0.16916684860202091,
                -2.2610738348425454,
                -1.1644065647040207,
                -2.9600575228262826,
                -0.16815064127179347,
                -3.022310306492972
            ]
        }
    ]
}