{
    "goal": {
        "global_pose": {
            "orientation": {
                "w": 0.005598929693374612,
                "x": 0.007748599140229565,
                "y": 0.7110244013736278,
                "z": -0.7031023480610252
            },
            "position": {
                "x": 0.1141497679147869,
                "y": -0.7141253447532654,
                "z": 0.3711530566215515
            }
        },
        "name": "move_to_auspresseinheit_B"
    },
    "id": "LBKPIECE_move_to_auspresseinheit_B_50",
    "joint_names": [
        "shoulder_pan_joint",
        "shoulder_lift_joint",
        "elbow_joint",
        "wrist_1_joint",
        "wrist_2_joint",
        "wrist_3_joint"
    ],
    "metrics": {
        "cart_traj_len": 0.5652052763934229,
        "distance_elbow_joint": 0.063739779902656,
        "distance_shoulder_lift_joint": 0.29447129369524294,
        "distance_shoulder_pan_joint": 0.5779696851420051,
        "distance_wrist_1_joint": 0.32684277050905,
        "distance_wrist_2_joint": 0.9886650870459148,
        "distance_wrist_3_joint": 0.004433318338868286,
        "smoothness": 0.0,
        "time": 0.39880502700000003,
        "traj_len": 1.5020392586859164,
        "weighted_distance": 1.8922199736992626
    },
    "planner": "LBKPIECE",
    "start": {
        "state": {
            "elbow_joint": 2.0193061681459312,
            "shoulder_lift_joint": -1.1220205130644991,
            "shoulder_pan_joint": -1.0952072088045026,
            "wrist_1_joint": -0.8559671810662515,
            "wrist_2_joint": 0.4759638712940361,
            "wrist_3_joint": 3.159081874192446
        }
    },
    "waypoints": [
        {
            "positions": [
                -1.0952072088045026,
                -1.1220205130644991,
                2.0193061681459312,
                -0.8559671810662515,
                0.4759638712940361,
                3.159081874192446
            ]
        },
        {
            "positions": [
                -1.1915354896615034,
                -1.1710990620137063,
                2.0086828714954885,
                -0.8014933859814098,
                0.6407413858016886,
                3.1583429878026346
            ]
        },
        {
            "positions": [
                -1.2878637705185043,
                -1.2201776109629134,
                1.9980595748450458,
                -0.7470195908965681,
                0.805518900309341,
                3.157604101412823
            ]
        },
        {
            "positions": [
                -1.3841920513755053,
                -1.2692561599121206,
                1.9874362781946031,
                -0.6925457958117265,
                0.9702964148169935,
                3.1568652150230117
            ]
        },
        {
            "positions": [
                -1.480520332232506,
                -1.3183347088613278,
                1.9768129815441606,
                -0.6380720007268849,
                1.135073929324646,
                3.1561263286332006
            ]
        },
        {
            "positions": [
                -1.5768486130895067,
                -1.367413257810535,
                1.966189684893718,
                -0.5835982056420431,
                1.2998514438322986,
                3.155387442243389
            ]
        },
        {
            "positions": [
                -1.6731768939465077,
                -1.416491806759742,
                1.9555663882432752,
                -0.5291244105572015,
                1.464628958339951,
                3.1546485558535777
            ]
        }
    ]
}