{
    "goal": {
        "global_pose": {
            "orientation": {
                "w": 0.7047431468963623,
                "x": -0.7094548344612122,
                "y": 0.0024358443915843964,
                "z": -0.0022348060738295317
            },
            "position": {
                "x": 0.6094750761985779,
                "y": 0.3671506643295288,
                "z": 0.19426114857196808
            }
        },
        "name": "move_to_magneteinheit_A"
    },
    "id": "LBKPIECE_move_to_magneteinheit_A_69",
    "joint_names": [
        "shoulder_pan_joint",
        "shoulder_lift_joint",
        "elbow_joint",
        "wrist_1_joint",
        "wrist_2_joint",
        "wrist_3_joint"
    ],
    "metrics": {
        "cart_traj_len": 1.5922266335578732,
        "distance_elbow_joint": 3.529925638807213,
        "distance_shoulder_lift_joint": 1.138250620228506,
        "distance_shoulder_pan_joint": 1.2411617343668915,
        "distance_wrist_1_joint": 3.8459392577448552,
        "distance_wrist_2_joint": 1.7003249041555621,
        "distance_wrist_3_joint": 5.051016001645486,
        "smoothness": 4.3376155549388135e-16,
        "time": 0.23697021899999998,
        "traj_len": 4.062833759452695,
        "weighted_distance": 5.670530338702008
    },
    "planner": "LBKPIECE",
    "start": {
        "state": {
            "elbow_joint": -1.5739458827952972,
            "shoulder_lift_joint": 0.006533473998580023,
            "shoulder_pan_joint": -1.1188671628667068,
            "wrist_1_joint": 3.138208179676308,
            "wrist_2_joint": -1.5706037135050406,
            "wrist_3_joint": -2.0226958329764257
        }
    },
    "waypoints": [
        {
            "positions": [
                -1.1188671628667068,
                0.006533473998580023,
                -1.5739458827952972,
                3.138208179676308,
                -1.5706037135050406,
                -2.0226958329764257
            ]
        },
        {
            "positions": [
                -1.0893156930008285,
                -0.020567731244955836,
                -1.4899000342522684,
                3.0466381973490497,
                -1.5301197872156225,
                -1.9024335472229619
            ]
        },
        {
            "positions": [
                -1.05976422313495,
                -0.047668936488491694,
                -1.4058541857092395,
                2.9550682150217913,
                -1.4896358609262044,
                -1.7821712614694978
            ]
        },
        {
            "positions": [
                -1.0302127532690717,
                -0.07477014173202755,
                -1.3218083371662106,
                2.863498232694533,
                -1.449151934636786,
                -1.661908975716034
            ]
        },
        {
            "positions": [
                -1.0006612834031934,
                -0.10187134697556341,
                -1.2377624886231817,
                2.7719282503672744,
                -1.408668008347368,
                -1.5416466899625698
            ]
        },
        {
            "positions": [
                -0.9711098135373151,
                -0.12897255221909926,
                -1.1537166400801528,
                2.680358268040016,
                -1.3681840820579498,
                -1.421384404209106
            ]
        },
        {
            "positions": [
                -0.9415583436714366,
                -0.1560737574626351,
                -1.069670791537124,
                2.5887882857127575,
                -1.3277001557685317,
                -1.301122118455642
            ]
        },
        {
            "positions": [
                -0.9120068738055582,
                -0.18317496270617098,
                -0.9856249429940951,
                2.497218303385499,
                -1.2872162294791136,
                -1.1808598327021782
            ]
        },
        {
            "positions": [
                -0.8824554039396799,
                -0.21027616794970683,
                -0.9015790944510662,
                2.4056483210582407,
                -1.2467323031896953,
                -1.060597546948714
            ]
        },
        {
            "positions": [
                -0.8529039340738016,
                -0.23737737319324267,
                -0.8175332459080373,
                2.3140783387309822,
                -1.2062483769002772,
                -0.9403352611952502
            ]
        },
        {
            "positions": [
                -0.8233524642079232,
                -0.2644785784367786,
                -0.7334873973650085,
                2.222508356403724,
                -1.165764450610859,
                -0.8200729754417861
            ]
        },
        {
            "positions": [
                -0.7938009943420448,
                -0.29157978368031445,
                -0.6494415488219796,
                2.1309383740764654,
                -1.125280524321441,
                -0.6998106896883223
            ]
        },
        {
            "positions": [
                -0.7642495244761665,
                -0.3186809889238503,
                -0.5653957002789507,
                2.039368391749207,
                -1.0847965980320229,
                -0.5795484039348584
            ]
        },
        {
            "positions": [
                -0.734698054610288,
                -0.3457821941673862,
                -0.4813498517359218,
                1.9477984094219483,
                -1.0443126717426048,
                -0.4592861181813943
            ]
        },
        {
            "positions": [
                -0.7051465847444097,
                -0.372883399410922,
                -0.39730400319289294,
                1.8562284270946898,
                -1.0038287454531867,
                -0.33902383242793044
            ]
        },
        {
            "positions": [
                -0.6755951148785313,
                -0.3999846046544579,
                -0.31325815464986406,
                1.7646584447674312,
                -0.9633448191637684,
                -0.21876154667446635
            ]
        },
        {
            "positions": [
                -0.646043645012653,
                -0.4270858098979937,
                -0.22921230610683518,
                1.673088462440173,
                -0.9228608928743502,
                -0.09849926092100247
            ]
        },
        {
            "positions": [
                -0.6164921751467746,
                -0.4541870151415296,
                -0.1451664575638063,
                1.5815184801129143,
                -0.882376966584932,
                0.021763024832461397
            ]
        },
        {
            "positions": [
                -0.5869407052808963,
                -0.4812882203850654,
                -0.06112060902077743,
                1.489948497785656,
                -0.841893040295514,
                0.14202531058592527
            ]
        },
        {
            "positions": [
                -0.5573892354150178,
                -0.5083894256286012,
                0.02292523952225145,
                1.3983785154583974,
                -0.8014091140060958,
                0.2622875963393896
            ]
        },
        {
            "positions": [
                -0.5278377655491395,
                -0.5354906308721371,
                0.10697108806528033,
                1.3068085331311392,
                -0.7609251877166777,
                0.38254988209285345
            ]
        },
        {
            "positions": [
                -0.4982862956832611,
                -0.562591836115673,
                0.1910169366083092,
                1.2152385508038805,
                -0.7204412614272595,
                0.5028121678463173
            ]
        },
        {
            "positions": [
                -0.4687348258173827,
                -0.5896930413592089,
                0.2750627851513381,
                1.123668568476622,
                -0.6799573351378413,
                0.6230744535997812
            ]
        },
        {
            "positions": [
                -0.43918335595150426,
                -0.6167942466027447,
                0.3591086336943672,
                1.0320985861493632,
                -0.6394734088484231,
                0.7433367393532455
            ]
        },
        {
            "positions": [
                -0.40963188608562606,
                -0.6438954518462805,
                0.44315448223739584,
                0.9405286038221052,
                -0.5989894825590051,
                0.8635990251067089
            ]
        },
        {
            "positions": [
                -0.38008041621974764,
                -0.6709966570898164,
                0.5272003307804247,
                0.8489586214948468,
                -0.5585055562695869,
                0.9838613108601733
            ]
        },
        {
            "positions": [
                -0.3505289463538692,
                -0.6980978623333524,
                0.6112461793234536,
                0.7573886391675884,
                -0.5180216299801688,
                1.1041235966136371
            ]
        },
        {
            "positions": [
                -0.3209774764879908,
                -0.7251990675768882,
                0.6952920278664825,
                0.6658186568403295,
                -0.47753770369075044,
                1.2243858823671014
            ]
        },
        {
            "positions": [
                -0.2914260066221126,
                -0.752300272820424,
                0.7793378764095114,
                0.5742486745130715,
                -0.43705377740133255,
                1.3446481681205649
            ]
        },
        {
            "positions": [
                -0.2618745367562342,
                -0.7794014780639599,
                0.8633837249525402,
                0.48267869218581305,
                -0.39656985111191445,
                1.4649104538740287
            ]
        },
        {
            "positions": [
                -0.23232306689035576,
                -0.8065026833074957,
                0.9474295734955691,
                0.39110870985855417,
                -0.3560859248224961,
                1.585172739627493
            ]
        },
        {
            "positions": [
                -0.20277159702447733,
                -0.8336038885510316,
                1.031475422038598,
                0.29953872753129573,
                -0.315601998533078,
                1.705435025380957
            ]
        },
        {
            "positions": [
                -0.17322012715859914,
                -0.8607050937945674,
                1.1155212705816269,
                0.20796874520403774,
                -0.2751180722436599,
                1.8256973111344208
            ]
        },
        {
            "positions": [
                -0.14366865729272071,
                -0.8878062990381033,
                1.1995671191246557,
                0.1163987628767793,
                -0.2346341459542418,
                1.9459595968878847
            ]
        },
        {
            "positions": [
                -0.11411718742684229,
                -0.9149075042816391,
                1.2836129676676846,
                0.024828780549520424,
                -0.1941502196648235,
                2.0662218826413485
            ]
        },
        {
            "positions": [
                -0.08456571756096398,
                -0.942008709525175,
                1.3676588162107135,
                -0.06674120177773801,
                -0.15366629337540538,
                2.1864841683948133
            ]
        },
        {
            "positions": [
                -0.05501424769508567,
                -0.9691099147687108,
                1.4517046647537424,
                -0.158311184104996,
                -0.1131823670859875,
                2.3067464541482763
            ]
        },
        {
            "positions": [
                -0.02546277782920714,
                -0.9962111200122468,
                1.5357505132967713,
                -0.2498811664322549,
                -0.07269844079656917,
                2.42700873990174
            ]
        },
        {
            "positions": [
                0.004088692036671171,
                -1.0233123252557825,
                1.6197963618398001,
                -0.3414511487595133,
                -0.03221451450715107,
                2.547271025655205
            ]
        },
        {
            "positions": [
                0.03364016190254948,
                -1.0504135304993185,
                1.703842210382829,
                -0.43302113108677176,
                0.008269411782267255,
                2.667533311408669
            ]
        },
        {
            "positions": [
                0.06319163176842779,
                -1.0775147357428543,
                1.787888058925858,
                -0.5245911134140298,
                0.04875333807168514,
                2.7877955971621327
            ]
        },
        {
            "positions": [
                0.09274310163430632,
                -1.10461594098639,
                1.8719339074688868,
                -0.6161610957412886,
                0.08923726436110346,
                2.9080578829155965
            ]
        },
        {
            "positions": [
                0.12229457150018454,
                -1.131717146229926,
                1.9559797560119156,
                -0.7077310780685471,
                0.12972119065052146,
                3.02832016866906
            ]
        }
    ]
}