{
    "goal": {
        "global_pose": {
            "orientation": {
                "w": 0.7031023480610252,
                "x": -0.7110244013736278,
                "y": 0.0077485991402295624,
                "z": 0.005598929693374583
            },
            "position": {
                "x": -0.8841497679147869,
                "y": 0.44412534475326537,
                "z": 0.3711530566215515
            }
        },
        "name": "move_to_auspresseinheit_D"
    },
    "id": "LBKPIECE_move_to_auspresseinheit_D_46",
    "joint_names": [
        "shoulder_pan_joint",
        "shoulder_lift_joint",
        "elbow_joint",
        "wrist_1_joint",
        "wrist_2_joint",
        "wrist_3_joint"
    ],
    "metrics": {
        "cart_traj_len": 0.34322057501069947,
        "distance_elbow_joint": 0.6390062960086591,
        "distance_shoulder_lift_joint": 0.12148481165886293,
        "distance_shoulder_pan_joint": 0.1331110990498648,
        "distance_wrist_1_joint": 0.520100436496663,
        "distance_wrist_2_joint": 1.448361113485388,
        "distance_wrist_3_joint": 0.009247200822498414,
        "smoothness": 0.0,
        "time": 0.282568612,
        "traj_len": 1.6944943073147034,
        "weighted_distance": 2.2041476604685504
    },
    "planner": "LBKPIECE",
    "start": {
        "state": {
            "elbow_joint": -1.8275484843655228,
            "shoulder_lift_joint": -2.1267897864000416,
            "shoulder_pan_joint": -0.035127520176001514,
            "wrist_1_joint": -2.3477863256791385,
            "wrist_2_joint": -1.605890476484521,
            "wrist_3_joint": -3.0880375317375353
        }
    },
    "waypoints": [
        {
            "positions": [
                -0.035127520176001514,
                -2.1267897864000416,
                -1.8275484843655228,
                -2.3477863256791385,
                -1.605890476484521,
                -3.0880375317375353
            ]
        },
        {
            "positions": [
                -0.05176640755723461,
                -2.1419753878573995,
                -1.7476726973644403,
                -2.4127988802412212,
                -1.4248453372988474,
                -3.0891934318403473
            ]
        },
        {
            "positions": [
                -0.06840529493846771,
                -2.1571609893147574,
                -1.667796910363358,
                -2.4778114348033045,
                -1.243800198113174,
                -3.09034933194316
            ]
        },
        {
            "positions": [
                -0.08504418231970082,
                -2.1723465907721153,
                -1.5879211233622756,
                -2.5428239893653872,
                -1.0627550589275006,
                -3.0915052320459724
            ]
        },
        {
            "positions": [
                -0.10168306970093391,
                -2.1875321922294733,
                -1.5080453363611932,
                -2.60783654392747,
                -0.881709919741827,
                -3.0926611321487845
            ]
        },
        {
            "positions": [
                -0.118321957082167,
                -2.2027177936868307,
                -1.4281695493601108,
                -2.6728490984895528,
                -0.7006647805561534,
                -3.0938170322515965
            ]
        },
        {
            "positions": [
                -0.13496084446340012,
                -2.2179033951441887,
                -1.3482937623590283,
                -2.7378616530516355,
                -0.5196196413704801,
                -3.094972932354409
            ]
        },
        {
            "positions": [
                -0.1515997318446332,
                -2.2330889966015466,
                -1.268417975357946,
                -2.8028742076137187,
                -0.33857450218480656,
                -3.0961288324572216
            ]
        },
        {
            "positions": [
                -0.1682386192258663,
                -2.2482745980589045,
                -1.1885421883568636,
                -2.8678867621758015,
                -0.15752936299913303,
                -3.0972847325600337
            ]
        }
    ]
}