{
    "goal": {
        "global_pose": {
            "orientation": {
                "w": 0.5084816262002911,
                "x": -0.4908360881923452,
                "y": 0.5182115481033761,
                "z": -0.48164630358495003
            },
            "position": {
                "x": 0.5540239810943604,
                "y": -0.46912469901144505,
                "z": 0.16403168439865112
            }
        },
        "name": "move_to_storage_B"
    },
    "id": "LBKPIECE_move_to_storage_B_25",
    "joint_names": [
        "shoulder_pan_joint",
        "shoulder_lift_joint",
        "elbow_joint",
        "wrist_1_joint",
        "wrist_2_joint",
        "wrist_3_joint"
    ],
    "metrics": {
        "cart_traj_len": 1.169310454423598,
        "distance_elbow_joint": 1.5839285910002403,
        "distance_shoulder_lift_joint": 0.5318604868979155,
        "distance_shoulder_pan_joint": 0.668951194006725,
        "distance_wrist_1_joint": 3.1963840364438854,
        "distance_wrist_2_joint": 2.705727534128141,
        "distance_wrist_3_joint": 3.759931438232689,
        "smoothness": 0.7660654376269631,
        "time": 0.56076782,
        "traj_len": 3.5279998980597482,
        "weighted_distance": 5.086133868445364
    },
    "planner": "LBKPIECE",
    "start": {
        "state": {
            "elbow_joint": 1.6649325340416963,
            "shoulder_lift_joint": -0.6616387945129425,
            "shoulder_pan_joint": -0.9139837929255878,
            "wrist_1_joint": 2.1467571094334352,
            "wrist_2_joint": -2.234195976750228,
            "wrist_3_joint": 0.005470921511140723
        }
    },
    "waypoints": [
        {
            "positions": [
                -0.9139837929255878,
                -0.6616387945129425,
                1.6649325340416963,
                2.1467571094334352,
                -2.234195976750228,
                0.005470921511140723
            ]
        },
        {
            "positions": [
                -0.8328159742454138,
                -0.7083281670002811,
                1.7071985304140853,
                2.182828481881623,
                -2.200811353296994,
                0.05547184694965232
            ]
        },
        {
            "positions": [
                -0.7516481555652397,
                -0.7550175394876198,
                1.7494645267864743,
                2.21889985432981,
                -2.1674267298437604,
                0.10547277238816391
            ]
        },
        {
            "positions": [
                -0.6704803368850656,
                -0.8017069119749585,
                1.7917305231588634,
                2.2549712267779976,
                -2.1340421063905266,
                0.15547369782667553
            ]
        },
        {
            "positions": [
                -0.6799491645262807,
                -0.7924553534489078,
                1.637244955454502,
                2.2109984912091933,
                -2.0415025904133444,
                0.07639429436018252
            ]
        },
        {
            "positions": [
                -0.6894179921674959,
                -0.7832037949228573,
                1.482759387750141,
                2.167025755640389,
                -1.9489630744361621,
                -0.0026851091063104793
            ]
        },
        {
            "positions": [
                -0.698886819808711,
                -0.7739522363968068,
                1.3282738200457798,
                2.123053020071585,
                -1.8564235584589797,
                -0.08176451257280348
            ]
        },
        {
            "positions": [
                -0.7083556474499262,
                -0.7647006778707561,
                1.1737882523414185,
                2.0790802845027807,
                -1.7638840424817974,
                -0.1608439160392965
            ]
        },
        {
            "positions": [
                -0.7232622792730548,
                -0.7783462984604368,
                1.2060647266131734,
                1.9670695546249304,
                -1.67790651941027,
                -0.0341665680373279
            ]
        },
        {
            "positions": [
                -0.7381689110961833,
                -0.7919919190501175,
                1.2383412008849284,
                1.8550588247470803,
                -1.5919289963387429,
                0.09251077996464069
            ]
        },
        {
            "positions": [
                -0.7530755429193118,
                -0.8056375396397981,
                1.2706176751566833,
                1.74304809486923,
                -1.5059514732672155,
                0.21918812796660925
            ]
        },
        {
            "positions": [
                -0.7679821747424403,
                -0.8192831602294788,
                1.3028941494284383,
                1.6310373649913799,
                -1.419973950195688,
                0.34586547596857786
            ]
        },
        {
            "positions": [
                -0.7828888065655689,
                -0.8329287808191594,
                1.3351706237001932,
                1.5190266351135295,
                -1.3339964271241609,
                0.47254282397054637
            ]
        },
        {
            "positions": [
                -0.7977954383886975,
                -0.8465744014088401,
                1.3674470979719482,
                1.4070159052356792,
                -1.2480189040526335,
                0.599220171972515
            ]
        },
        {
            "positions": [
                -0.8127020702118259,
                -0.8602200219985208,
                1.399723572243703,
                1.2950051753578293,
                -1.1620413809811063,
                0.7258975199744835
            ]
        },
        {
            "positions": [
                -0.8276087020349545,
                -0.8738656425882014,
                1.432000046515458,
                1.182994445479979,
                -1.076063857909579,
                0.8525748679764522
            ]
        },
        {
            "positions": [
                -0.8425153338580831,
                -0.8875112631778821,
                1.4642765207872128,
                1.0709837156021287,
                -0.9900863348380516,
                0.9792522159784207
            ]
        },
        {
            "positions": [
                -0.8574219656812117,
                -0.9011568837675628,
                1.4965529950589678,
                0.9589729857242784,
                -0.9041088117665242,
                1.1059295639803892
            ]
        },
        {
            "positions": [
                -0.8723285975043402,
                -0.9148025043572434,
                1.5288294693307227,
                0.8469622558464283,
                -0.8181312886949971,
                1.2326069119823577
            ]
        },
        {
            "positions": [
                -0.8872352293274687,
                -0.9284481249469241,
                1.5611059436024777,
                0.7349515259685779,
                -0.7321537656234696,
                1.3592842599843264
            ]
        },
        {
            "positions": [
                -0.9021418611505972,
                -0.9420937455366047,
                1.5933824178742326,
                0.6229407960907278,
                -0.6461762425519424,
                1.485961607986295
            ]
        },
        {
            "positions": [
                -0.9170484929737258,
                -0.9557393661262854,
                1.6256588921459876,
                0.5109300662128777,
                -0.5601987194804152,
                1.6126389559882635
            ]
        },
        {
            "positions": [
                -0.9319551247968543,
                -0.9693849867159661,
                1.6579353664177425,
                0.39891933633502763,
                -0.4742211964088878,
                1.739316303990232
            ]
        },
        {
            "positions": [
                -0.9468617566199828,
                -0.9830306073056467,
                1.6902118406894975,
                0.2869086064571771,
                -0.38824367333736043,
                1.865993651992201
            ]
        },
        {
            "positions": [
                -0.9617683884431114,
                -0.9966762278953274,
                1.7224883149612524,
                0.17489787657932698,
                -0.30226615026583303,
                1.9926709999941694
            ]
        },
        {
            "positions": [
                -0.97667502026624,
                -1.010321848485008,
                1.7547647892330072,
                0.06288714670147666,
                -0.21628862719430586,
                2.119348347996138
            ]
        },
        {
            "positions": [
                -0.9915816520893685,
                -1.0239674690746887,
                1.7870412635047623,
                -0.04912358317637322,
                -0.1303111041227787,
                2.2460256959981066
            ]
        },
        {
            "positions": [
                -1.0064882839124971,
                -1.0376130896643694,
                1.819317737776517,
                -0.161134313054224,
                -0.04433358105125107,
                2.372703044000075
            ]
        },
        {
            "positions": [
                -1.0213949157356255,
                -1.05125871025405,
                1.8515942120482722,
                -0.27314504293207387,
                0.041643942020276103,
                2.4993803920020436
            ]
        },
        {
            "positions": [
                -1.0363015475587543,
                -1.0649043308437307,
                1.883870686320027,
                -0.3851557728099242,
                0.12762146509180328,
                2.626057740004012
            ]
        },
        {
            "positions": [
                -1.0512081793818826,
                -1.0785499514334114,
                1.916147160591782,
                -0.49716650268777407,
                0.21359898816333067,
                2.7527350880059807
            ]
        },
        {
            "positions": [
                -1.0661148112050112,
                -1.092195572023092,
                1.9484236348635369,
                -0.6091772325656248,
                0.2995765112348583,
                2.879412436007949
            ]
        },
        {
            "positions": [
                -1.0810214430281397,
                -1.1058411926127727,
                1.9807001091352918,
                -0.7211879624434747,
                0.38555403430638546,
                3.0060897840099177
            ]
        },
        {
            "positions": [
                -1.0959280748512683,
                -1.1194868132024534,
                2.0129765834070468,
                -0.8331986923213253,
                0.4715315573779125,
                3.132767132011886
            ]
        }
    ]
}