{
    "goal": {
        "global_pose": {
            "orientation": {
                "w": 0.7031023502349854,
                "x": -0.7110244035720825,
                "y": 0.007748599164187908,
                "z": 0.005598929710686207
            },
            "position": {
                "x": 0.11585023208521307,
                "y": 0.44412534475326537,
                "z": 0.3711530566215515
            }
        },
        "name": "move_to_auspresseinheit_A"
    },
    "id": "LBKPIECE_move_to_auspresseinheit_A_121",
    "joint_names": [
        "shoulder_pan_joint",
        "shoulder_lift_joint",
        "elbow_joint",
        "wrist_1_joint",
        "wrist_2_joint",
        "wrist_3_joint"
    ],
    "metrics": {
        "cart_traj_len": 1.5690867274787703,
        "distance_elbow_joint": 1.6083885315622224,
        "distance_shoulder_lift_joint": 0.6616082714515892,
        "distance_shoulder_pan_joint": 1.0459005678737756,
        "distance_wrist_1_joint": 0.7232509697532372,
        "distance_wrist_2_joint": 0.5167158238714384,
        "distance_wrist_3_joint": 3.5507606070487268,
        "smoothness": 0.9774000144516026,
        "time": 0.41618214899999995,
        "traj_len": 2.847213510006053,
        "weighted_distance": 4.0556272978767565
    },
    "planner": "LBKPIECE",
    "start": {
        "state": {
            "elbow_joint": 2.4225746994637096,
            "shoulder_lift_joint": -1.373653595662188,
            "shoulder_pan_joint": -0.3378633848294565,
            "wrist_1_joint": -1.0288595594406726,
            "wrist_2_joint": 1.2330228066703421,
            "wrist_3_joint": 3.189163495502006
        }
    },
    "waypoints": [
        {
            "positions": [
                -0.3378633848294565,
                -1.373653595662188,
                2.4225746994637096,
                -1.0288595594406726,
                1.2330228066703421,
                3.189163495502006
            ]
        },
        {
            "positions": [
                -0.31160288604852493,
                -1.4234042871232484,
                2.354183223230555,
                -0.9747397491531614,
                1.2019575551496904,
                3.038825237081346
            ]
        },
        {
            "positions": [
                -0.28534238726759337,
                -1.4731549785843088,
                2.2857917469974005,
                -0.9206199388656502,
                1.1708923036290384,
                2.888486978660686
            ]
        },
        {
            "positions": [
                -0.2590818884866618,
                -1.5229056700453691,
                2.2174002707642457,
                -0.866500128578139,
                1.1398270521083866,
                2.7381487202400265
            ]
        },
        {
            "positions": [
                -0.23282138970573024,
                -1.5726563615064295,
                2.149008794531091,
                -0.8123803182906277,
                1.1087618005877347,
                2.587810461819367
            ]
        },
        {
            "positions": [
                -0.20656089092479865,
                -1.6224070529674899,
                2.080617318297936,
                -0.7582605080031165,
                1.077696549067083,
                2.437472203398707
            ]
        },
        {
            "positions": [
                -0.1803003921438671,
                -1.6721577444285503,
                2.0122258420647814,
                -0.7041406977156053,
                1.0466312975464311,
                2.2871339449780472
            ]
        },
        {
            "positions": [
                -0.1540398933629355,
                -1.7219084358896106,
                1.9438343658316268,
                -0.650020887428094,
                1.0155660460257792,
                2.136795686557387
            ]
        },
        {
            "positions": [
                -0.12777939458200396,
                -1.771659127350671,
                1.8754428895984723,
                -0.5959010771405828,
                0.9845007945051274,
                1.9864574281367278
            ]
        },
        {
            "positions": [
                -0.10151889580107237,
                -1.8214098188117314,
                1.8070514133653175,
                -0.5417812668530716,
                0.9534355429844754,
                1.836119169716068
            ]
        },
        {
            "positions": [
                -0.07525839702014081,
                -1.8711605102727917,
                1.738659937132163,
                -0.48766145656556037,
                0.9223702914638237,
                1.685780911295408
            ]
        },
        {
            "positions": [
                -0.04899789823920925,
                -1.920911201733852,
                1.6702684608990084,
                -0.43354164627804914,
                0.8913050399431718,
                1.5354426528747485
            ]
        },
        {
            "positions": [
                -0.022737399458277685,
                -1.9706618931949125,
                1.6018769846658536,
                -0.3794218359905379,
                0.8602397884225199,
                1.3851043944540886
            ]
        },
        {
            "positions": [
                0.049525013747698673,
                -1.965076581723231,
                1.6836902458759537,
                -0.3843680724210565,
                0.8457035204529646,
                1.5622236173040542
            ]
        },
        {
            "positions": [
                0.12178742695367503,
                -1.9594912702515495,
                1.7655035070860539,
                -0.38931430885157503,
                0.8311672524834093,
                1.7393428401540199
            ]
        },
        {
            "positions": [
                0.19404984015965138,
                -1.953905958779868,
                1.8473167682961538,
                -0.39426054528209353,
                0.8166309845138541,
                1.9164620630039855
            ]
        },
        {
            "positions": [
                0.26631225336562775,
                -1.9483206473081864,
                1.929130029506254,
                -0.3992067817126121,
                0.8020947165442988,
                2.093581285853951
            ]
        },
        {
            "positions": [
                0.3385746665716041,
                -1.942735335836505,
                2.0109432907163542,
                -0.40415301814313065,
                0.7875584485747434,
                2.270700508703917
            ]
        },
        {
            "positions": [
                0.41083707977758044,
                -1.9371500243648234,
                2.092756551926454,
                -0.4090992545736492,
                0.7730221806051881,
                2.4478197315538823
            ]
        },
        {
            "positions": [
                0.4830994929835568,
                -1.931564712893142,
                2.174569813136554,
                -0.41404549100416776,
                0.7584859126356329,
                2.624938954403848
            ]
        },
        {
            "positions": [
                0.5553619061895332,
                -1.9259794014214604,
                2.256383074346654,
                -0.41899172743468627,
                0.7439496446660776,
                2.802058177253814
            ]
        },
        {
            "positions": [
                0.6276243193955096,
                -1.920394089949779,
                2.3381963355567543,
                -0.4239379638652048,
                0.7294133766965223,
                2.9791774001037794
            ]
        },
        {
            "positions": [
                0.708037183044319,
                -1.9060619192760477,
                2.38956780143022,
                -0.4532350822936403,
                0.7163069827989037,
                3.131805900454898
            ]
        }
    ]
}