{
    "goal": {
        "global_pose": {
            "orientation": {
                "w": 0.7031023502349854,
                "x": -0.7110244035720825,
                "y": 0.007748599164187908,
                "z": 0.005598929710686207
            },
            "position": {
                "x": 0.11585023208521307,
                "y": 0.44412534475326537,
                "z": 0.3711530566215515
            }
        },
        "name": "move_to_auspresseinheit_A"
    },
    "id": "LBKPIECE_move_to_auspresseinheit_A_143",
    "joint_names": [
        "shoulder_pan_joint",
        "shoulder_lift_joint",
        "elbow_joint",
        "wrist_1_joint",
        "wrist_2_joint",
        "wrist_3_joint"
    ],
    "metrics": {
        "cart_traj_len": 0.8120050982853475,
        "distance_elbow_joint": 0.2646009849194537,
        "distance_shoulder_lift_joint": 0.8324600916065701,
        "distance_shoulder_pan_joint": 1.0459479770695803,
        "distance_wrist_1_joint": 0.9091125957608444,
        "distance_wrist_2_joint": 1.0446957389170968,
        "distance_wrist_3_joint": 0.2192813746929918,
        "smoothness": 1.810502175245245,
        "time": 0.289308367,
        "traj_len": 2.0775222653359307,
        "weighted_distance": 2.590071398056521
    },
    "planner": "LBKPIECE",
    "start": {
        "state": {
            "elbow_joint": 2.4225746994637096,
            "shoulder_lift_joint": -1.373653595662188,
            "shoulder_pan_joint": -0.3378633848294565,
            "wrist_1_joint": -1.0288595594406726,
            "wrist_2_joint": 1.2330228066703421,
            "wrist_3_joint": 3.189163495502006
        }
    },
    "waypoints": [
        {
            "positions": [
                -0.3378633848294565,
                -1.373653595662188,
                2.4225746994637096,
                -1.0288595594406726,
                1.2330228066703421,
                3.189163495502006
            ]
        },
        {
            "positions": [
                -0.24330304539006858,
                -1.4495004329323598,
                2.4060272578841513,
                -0.9462390467137025,
                1.145851132028796,
                3.1739859096681386
            ]
        },
        {
            "positions": [
                -0.14874270595068068,
                -1.5253472702025312,
                2.3894798163045925,
                -0.8636185339867324,
                1.0586794573872498,
                3.1588083238342715
            ]
        },
        {
            "positions": [
                -0.05418236651129277,
                -1.601194107472703,
                2.372932374725034,
                -0.7809980212597623,
                0.9715077827457037,
                3.1436307380004043
            ]
        },
        {
            "positions": [
                0.04037797292809514,
                -1.6770409447428745,
                2.3563849331454754,
                -0.6983775085327921,
                0.8843361081041575,
                3.128453152166537
            ]
        },
        {
            "positions": [
                0.13493831236748305,
                -1.7528877820130462,
                2.339837491565917,
                -0.6157569958058218,
                0.7971644334626113,
                3.1132755663326703
            ]
        },
        {
            "positions": [
                0.22949865180687096,
                -1.8287346192832177,
                2.3232900499863582,
                -0.5331364830788518,
                0.7099927588210653,
                3.098097980498803
            ]
        },
        {
            "positions": [
                0.32405899124625887,
                -1.9045814565533894,
                2.3067426084068,
                -0.4505159703518815,
                0.622821084179519,
                3.082920394664936
            ]
        },
        {
            "positions": [
                0.4186193306856468,
                -1.980428293823561,
                2.290195166827241,
                -0.3678954576249115,
                0.5356494095379729,
                3.0677428088310688
            ]
        },
        {
            "positions": [
                0.5131796701250346,
                -2.0562751310937326,
                2.2736477252476828,
                -0.2852749448979413,
                0.4484777348964267,
                3.0525652229972016
            ]
        },
        {
            "positions": [
                0.5781479774967311,
                -2.0063289457020574,
                2.3122057288154916,
                -0.34045093863731224,
                0.5351946239441538,
                3.0801262570599306
            ]
        },
        {
            "positions": [
                0.6431162848684274,
                -1.9563827603103823,
                2.350763732383301,
                -0.3956269323766832,
                0.6219115129918811,
                3.10768729112266
            ]
        },
        {
            "positions": [
                0.7080845922401239,
                -1.906436574918707,
                2.3893217359511096,
                -0.45080292611605416,
                0.7086284020396082,
                3.135248325185389
            ]
        }
    ]
}