{
    "goal": {
        "global_pose": {
            "orientation": {
                "w": 0.5084816217422485,
                "x": -0.49083608388900757,
                "y": 0.5182115435600281,
                "z": -0.4816462993621826
            },
            "position": {
                "x": 0.5540239810943604,
                "y": 0.030875300988554955,
                "z": 0.16403168439865112
            }
        },
        "name": "move_to_storage_A"
    },
    "id": "LBKPIECE_move_to_storage_A_130",
    "joint_names": [
        "shoulder_pan_joint",
        "shoulder_lift_joint",
        "elbow_joint",
        "wrist_1_joint",
        "wrist_2_joint",
        "wrist_3_joint"
    ],
    "metrics": {
        "cart_traj_len": 0.35336957215690823,
        "distance_elbow_joint": 0.44708453807169923,
        "distance_shoulder_lift_joint": 0.23558223258074862,
        "distance_shoulder_pan_joint": 0.45966822369036536,
        "distance_wrist_1_joint": 0.2326409334244015,
        "distance_wrist_2_joint": 1.1096974069033934,
        "distance_wrist_3_joint": 0.08805419354940014,
        "smoothness": 4.440892098500626e-16,
        "time": 0.489539053,
        "traj_len": 1.6039724212778748,
        "weighted_distance": 2.022665136805053
    },
    "planner": "LBKPIECE",
    "start": {
        "state": {
            "elbow_joint": 1.971548880431181,
            "shoulder_lift_joint": -1.1394869514688781,
            "shoulder_pan_joint": 0.12281150262730567,
            "wrist_1_joint": -0.7804693444481463,
            "wrist_2_joint": 0.12958644648617612,
            "wrist_3_joint": 3.0906942077768043
        }
    },
    "waypoints": [
        {
            "positions": [
                0.12281150262730567,
                -1.1394869514688781,
                1.971548880431181,
                -0.7804693444481463,
                0.12958644648617612,
                3.0906942077768043
            ]
        },
        {
            "positions": [
                0.05714461352868205,
                -1.1731415561232708,
                2.0354181001557095,
                -0.813703763508775,
                0.28811464747237514,
                3.1032733782838613
            ]
        },
        {
            "positions": [
                -0.008522275569941562,
                -1.2067961607776634,
                2.0992873198802378,
                -0.8469381825694039,
                0.4466428484585742,
                3.1158525487909188
            ]
        },
        {
            "positions": [
                -0.07418916466856518,
                -1.240450765432056,
                2.1631565396047665,
                -0.8801726016300326,
                0.6051710494447733,
                3.128431719297976
            ]
        },
        {
            "positions": [
                -0.1398560537671888,
                -1.2741053700864486,
                2.227025759329295,
                -0.9134070206906615,
                0.7636992504309723,
                3.141010889805033
            ]
        },
        {
            "positions": [
                -0.20552294286581246,
                -1.3077599747408415,
                2.290894979053823,
                -0.9466414397512902,
                0.9222274514171714,
                3.15359006031209
            ]
        },
        {
            "positions": [
                -0.271189831964436,
                -1.3414145793952341,
                2.354764198778352,
                -0.979875858811919,
                1.0807556524033703,
                3.1661692308191474
            ]
        },
        {
            "positions": [
                -0.3368567210630597,
                -1.3750691840496267,
                2.41863341850288,
                -1.0131102778725478,
                1.2392838533895694,
                3.1787484013262044
            ]
        }
    ]
}