{
    "goal": {
        "global_pose": {
            "orientation": {
                "w": -0.4816463035849501,
                "x": 0.5182115481033762,
                "y": 0.4908360881923453,
                "z": -0.5084816262002911
            },
            "position": {
                "x": -0.8240239810943604,
                "y": 0.19912469901144506,
                "z": 0.16403168439865112
            }
        },
        "name": "move_to_storage_D"
    },
    "id": "LBKPIECE_move_to_storage_D_101",
    "joint_names": [
        "shoulder_pan_joint",
        "shoulder_lift_joint",
        "elbow_joint",
        "wrist_1_joint",
        "wrist_2_joint",
        "wrist_3_joint"
    ],
    "metrics": {
        "cart_traj_len": 3.6208017531966337,
        "distance_elbow_joint": 4.514373971714457,
        "distance_shoulder_lift_joint": 1.4846792253578167,
        "distance_shoulder_pan_joint": 3.677965033451426,
        "distance_wrist_1_joint": 7.411388402963901,
        "distance_wrist_2_joint": 2.207289447110326,
        "distance_wrist_3_joint": 3.2145229081792235,
        "smoothness": 0.5075087692010952,
        "time": 0.921912144,
        "traj_len": 4.744493543970435,
        "weighted_distance": 6.2095042197594
    },
    "planner": "LBKPIECE",
    "start": {
        "state": {
            "elbow_joint": -2.384821990628643,
            "shoulder_lift_joint": -2.278805467437664,
            "shoulder_pan_joint": -0.18546946439364564,
            "wrist_1_joint": 1.4845938187801415,
            "wrist_2_joint": 0.178987772454074,
            "wrist_3_joint": 0.03710569632802521
        }
    },
    "waypoints": [
        {
            "positions": [
                -0.18546946439364564,
                -2.278805467437664,
                -2.384821990628643,
                1.4845938187801415,
                0.178987772454074,
                0.03710569632802521
            ]
        },
        {
            "positions": [
                -0.14808488010012788,
                -2.2623009362613518,
                -2.386796484495685,
                1.4766971339306265,
                0.1762776322482562,
                0.005467305670681578
            ]
        },
        {
            "positions": [
                -0.05868448415208183,
                -2.2241011187351303,
                -2.2660739399184893,
                1.562085682027393,
                0.1864860410283339,
                0.04990577049464464
            ]
        },
        {
            "positions": [
                0.030715911795964224,
                -2.1859013012089092,
                -2.1453513953412937,
                1.6474742301241592,
                0.1966944498084116,
                0.0943442353186077
            ]
        },
        {
            "positions": [
                0.12011630774401028,
                -2.1477014836826878,
                -2.024628850764098,
                1.7328627782209254,
                0.2069028585884893,
                0.13878270014257077
            ]
        },
        {
            "positions": [
                0.20951670369205633,
                -2.1095016661564667,
                -1.9039063061869026,
                1.8182513263176918,
                0.217111267368567,
                0.18322116496653382
            ]
        },
        {
            "positions": [
                0.29891709964010243,
                -2.0713018486302452,
                -1.783183761609707,
                1.9036398744144583,
                0.2273196761486447,
                0.2276596297904969
            ]
        },
        {
            "positions": [
                0.38831749558814843,
                -2.0331020311040238,
                -1.6624612170325115,
                1.9890284225112245,
                0.2375280849287224,
                0.27209809461446
            ]
        },
        {
            "positions": [
                0.4777178915361945,
                -1.9949022135778027,
                -1.541738672455316,
                2.0744169706079907,
                0.24773649370880008,
                0.316536559438423
            ]
        },
        {
            "positions": [
                0.5671182874842405,
                -1.9567023960515812,
                -1.4210161278781204,
                2.159805518704757,
                0.2579449024888778,
                0.3609750242623861
            ]
        },
        {
            "positions": [
                0.6565186834322866,
                -1.91850257852536,
                -1.3002935833009248,
                2.2451940668015236,
                0.2681533112689555,
                0.40541348908634917
            ]
        },
        {
            "positions": [
                0.7459190793803328,
                -1.8803027609991387,
                -1.1795710387237293,
                2.3305826148982898,
                0.2783617200490332,
                0.44985195391031224
            ]
        },
        {
            "positions": [
                0.8353194753283788,
                -1.8421029434729175,
                -1.0588484941465337,
                2.4159711629950564,
                0.2885701288291109,
                0.4942904187342753
            ]
        },
        {
            "positions": [
                0.9247198712764247,
                -1.8039031259466962,
                -0.9381259495693381,
                2.5013597110918226,
                0.2987785376091886,
                0.5387288835582383
            ]
        },
        {
            "positions": [
                1.0141202672244711,
                -1.7657033084204747,
                -0.8174034049921426,
                2.586748259188589,
                0.30898694638926627,
                0.5831673483822014
            ]
        },
        {
            "positions": [
                1.103520663172517,
                -1.7275034908942537,
                -0.696680860414947,
                2.672136807285355,
                0.31919535516934394,
                0.6276058132061644
            ]
        },
        {
            "positions": [
                1.1929210591205632,
                -1.6893036733680322,
                -0.5759583158377515,
                2.7575253553821213,
                0.32940376394942167,
                0.6720442780301276
            ]
        },
        {
            "positions": [
                1.282321455068609,
                -1.651103855841811,
                -0.4552357712605559,
                2.8429139034788875,
                0.3396121727294994,
                0.7164827428540905
            ]
        },
        {
            "positions": [
                1.3717218510166553,
                -1.6129040383155897,
                -0.33451322668336037,
                2.928302451575654,
                0.34982058150957707,
                0.7609212076780536
            ]
        },
        {
            "positions": [
                1.4611222469647012,
                -1.5747042207893682,
                -0.2137906821061648,
                3.0136909996724204,
                0.36002899028965474,
                0.8053596725020167
            ]
        },
        {
            "positions": [
                1.5505226429127474,
                -1.5365044032631472,
                -0.09306813752896925,
                3.099079547769187,
                0.37023739906973246,
                0.8497981373259798
            ]
        },
        {
            "positions": [
                1.6399230388607933,
                -1.4983045857369257,
                0.027654407048226304,
                3.1844680958659533,
                0.3804458078498102,
                0.8942366021499428
            ]
        },
        {
            "positions": [
                1.7293234348088395,
                -1.4601047682107045,
                0.14837695162542186,
                3.2698566439627195,
                0.39065421662988786,
                0.9386750669739059
            ]
        },
        {
            "positions": [
                1.6803464310797023,
                -1.4786041717143394,
                0.09345400602191337,
                3.1140140826271003,
                0.3353708076709191,
                1.0011660879799797
            ]
        },
        {
            "positions": [
                1.631369427350565,
                -1.4971035752179742,
                0.03853106041840486,
                2.958171521291481,
                0.28008739871195026,
                1.0636571089860534
            ]
        },
        {
            "positions": [
                1.5823924236214277,
                -1.5156029787216092,
                -0.01639188518510365,
                2.802328959955862,
                0.2248039897529815,
                1.1261481299921272
            ]
        },
        {
            "positions": [
                1.5334154198922905,
                -1.5341023822252442,
                -0.07131483078861214,
                2.646486398620243,
                0.1695205807940127,
                1.188639150998201
            ]
        },
        {
            "positions": [
                1.4844384161631532,
                -1.552601785728879,
                -0.1262377763921207,
                2.490643837284624,
                0.1142371718350439,
                1.2511301720042747
            ]
        },
        {
            "positions": [
                1.435461412434016,
                -1.571101189232514,
                -0.18116072199562916,
                2.3348012759490047,
                0.05895376287607512,
                1.3136211930103485
            ]
        },
        {
            "positions": [
                1.3864844087048787,
                -1.589600592736149,
                -0.23608366759913768,
                2.1789587146133855,
                0.003670353917106295,
                1.3761122140164224
            ]
        },
        {
            "positions": [
                1.3375074049757416,
                -1.6080999962397837,
                -0.29100661320264615,
                2.0231161532777664,
                -0.05161305504186248,
                1.438603235022496
            ]
        },
        {
            "positions": [
                1.2885304012466043,
                -1.6265993997434187,
                -0.34592955880615467,
                1.8672735919421473,
                -0.1068964640008313,
                1.5010942560285698
            ]
        },
        {
            "positions": [
                1.239553397517467,
                -1.6450988032470537,
                -0.40085250440966325,
                1.7114310306065281,
                -0.16217987295980008,
                1.5635852770346437
            ]
        },
        {
            "positions": [
                1.1905763937883296,
                -1.6635982067506887,
                -0.45577545001317177,
                1.5555884692709088,
                -0.21746328191876896,
                1.6260762980407173
            ]
        },
        {
            "positions": [
                1.1415993900591925,
                -1.6820976102543235,
                -0.5106983956166802,
                1.3997459079352899,
                -0.2727466908777376,
                1.6885673190467911
            ]
        },
        {
            "positions": [
                1.0926223863300553,
                -1.7005970137579585,
                -0.5656213412201887,
                1.2439033465996707,
                -0.3280300998367065,
                1.751058340052865
            ]
        },
        {
            "positions": [
                1.043645382600918,
                -1.7190964172615935,
                -0.6205442868236972,
                1.0880607852640516,
                -0.3833135087956753,
                1.8135493610589388
            ]
        },
        {
            "positions": [
                0.9946683788717807,
                -1.7375958207652284,
                -0.6754672324272057,
                0.9322182239284325,
                -0.43859691775464416,
                1.8760403820650124
            ]
        },
        {
            "positions": [
                0.9456913751426436,
                -1.7560952242688632,
                -0.7303901780307142,
                0.7763756625928133,
                -0.4938803267136128,
                1.938531403071086
            ]
        },
        {
            "positions": [
                0.8967143714135063,
                -1.7745946277724982,
                -0.7853131236342227,
                0.6205331012571942,
                -0.5491637356725817,
                2.00102242407716
            ]
        },
        {
            "positions": [
                0.847737367684369,
                -1.7930940312761332,
                -0.8402360692377312,
                0.46469053992157505,
                -0.6044471446315505,
                2.0635134450832338
            ]
        },
        {
            "positions": [
                0.7987603639552318,
                -1.811593434779768,
                -0.8951590148412398,
                0.3088479785859559,
                -0.6597305535905194,
                2.1260044660893076
            ]
        },
        {
            "positions": [
                0.7497833602260945,
                -1.830092838283403,
                -0.9500819604447484,
                0.15300541725033678,
                -0.715013962549488,
                2.1884954870953814
            ]
        },
        {
            "positions": [
                0.7008063564969571,
                -1.848592241787038,
                -1.0050049060482569,
                -0.0028371440852823504,
                -0.7702973715084569,
                2.2509865081014553
            ]
        },
        {
            "positions": [
                0.6518293527678198,
                -1.8670916452906727,
                -1.0599278516517654,
                -0.15867970542090193,
                -0.8255807804674258,
                2.313477529107529
            ]
        },
        {
            "positions": [
                0.6028523490386828,
                -1.8855910487943077,
                -1.1148507972552737,
                -0.3145222667565202,
                -0.8808641894263944,
                2.3759685501136025
            ]
        },
        {
            "positions": [
                0.5538753453095455,
                -1.9040904522979427,
                -1.1697737428587822,
                -0.47036482809213975,
                -0.9361475983853631,
                2.4384595711196764
            ]
        },
        {
            "positions": [
                0.5048983415804082,
                -1.9225898558015775,
                -1.2246966884622907,
                -0.6262073894277589,
                -0.991431007344332,
                2.5009505921257498
            ]
        },
        {
            "positions": [
                0.455921337851271,
                -1.9410892593052125,
                -1.2796196340657993,
                -0.782049950763378,
                -1.0467144163033009,
                2.5634416131318236
            ]
        },
        {
            "positions": [
                0.4069443341221337,
                -1.9595886628088475,
                -1.3345425796693078,
                -0.9378925120989967,
                -1.1019978252622695,
                2.6259326341378975
            ]
        },
        {
            "positions": [
                0.35796733039299644,
                -1.9780880663124822,
                -1.3894655252728163,
                -1.0937350734346163,
                -1.1572812342212384,
                2.6884236551439713
            ]
        },
        {
            "positions": [
                0.30899032666385917,
                -1.9965874698161172,
                -1.4443884708763248,
                -1.2495776347702359,
                -1.2125646431802073,
                2.750914676150045
            ]
        },
        {
            "positions": [
                0.2600133229347219,
                -2.0150868733197522,
                -1.4993114164798333,
                -1.4054201961058546,
                -1.2678480521391762,
                2.813405697156119
            ]
        },
        {
            "positions": [
                0.21103631920558463,
                -2.033586276823387,
                -1.5542343620833419,
                -1.5612627574414741,
                -1.3231314610981448,
                2.875896718162193
            ]
        },
        {
            "positions": [
                0.16205931547644759,
                -2.052085680327022,
                -1.6091573076868502,
                -1.7171053187770928,
                -1.3784148700571135,
                2.9383877391682667
            ]
        },
        {
            "positions": [
                0.11308231174731032,
                -2.070585083830657,
                -1.6640802532903587,
                -1.8729478801127115,
                -1.4336982790160824,
                3.00087876017434
            ]
        },
        {
            "positions": [
                0.06410530801817305,
                -2.0890844873342918,
                -1.7190031988938672,
                -2.028790441448331,
                -1.4889816879750513,
                3.063369781180414
            ]
        },
        {
            "positions": [
                0.015128304289035777,
                -2.107583890837927,
                -1.7739261444973757,
                -2.18463300278395,
                -1.54426509693402,
                3.1258608021864878
            ]
        },
        {
            "positions": [
                -0.0338486994401015,
                -2.1260832943415617,
                -1.8288490901008843,
                -2.34047556411957,
                -1.5995485058929888,
                3.1883518231925616
            ]
        }
    ]
}