{
    "goal": {
        "global_pose": {
            "orientation": {
                "w": 0.7031023502349854,
                "x": -0.7110244035720825,
                "y": 0.007748599164187908,
                "z": 0.005598929710686207
            },
            "position": {
                "x": 0.11585023208521307,
                "y": 0.44412534475326537,
                "z": 0.3711530566215515
            }
        },
        "name": "move_to_auspresseinheit_A"
    },
    "id": "LBKPIECE_move_to_auspresseinheit_A_71",
    "joint_names": [
        "shoulder_pan_joint",
        "shoulder_lift_joint",
        "elbow_joint",
        "wrist_1_joint",
        "wrist_2_joint",
        "wrist_3_joint"
    ],
    "metrics": {
        "cart_traj_len": 1.5698332564162134,
        "distance_elbow_joint": 2.2769576368782136,
        "distance_shoulder_lift_joint": 0.5315989558139858,
        "distance_shoulder_pan_joint": 1.0451150263329811,
        "distance_wrist_1_joint": 0.7206462563741436,
        "distance_wrist_2_joint": 1.3993468424060023,
        "distance_wrist_3_joint": 2.358093113183462,
        "smoothness": 1.0600049323067884,
        "time": 0.377455152,
        "traj_len": 2.8864784480381607,
        "weighted_distance": 3.894603594223147
    },
    "planner": "LBKPIECE",
    "start": {
        "state": {
            "elbow_joint": 2.4225746994637096,
            "shoulder_lift_joint": -1.373653595662188,
            "shoulder_pan_joint": -0.3378633848294565,
            "wrist_1_joint": -1.0288595594406726,
            "wrist_2_joint": 1.2330228066703421,
            "wrist_3_joint": 3.189163495502006
        }
    },
    "waypoints": [
        {
            "positions": [
                -0.3378633848294565,
                -1.373653595662188,
                2.4225746994637096,
                -1.0288595594406726,
                1.2330228066703421,
                3.189163495502006
            ]
        },
        {
            "positions": [
                -0.2896050083891217,
                -1.3824691765267738,
                2.3263172042704667,
                -0.9817912273909781,
                1.1532999652470006,
                3.0891437403281694
            ]
        },
        {
            "positions": [
                -0.24134663194878686,
                -1.3912847573913596,
                2.2300597090772234,
                -0.9347228953412836,
                1.073577123823659,
                2.989123985154333
            ]
        },
        {
            "positions": [
                -0.19308825550845202,
                -1.4001003382559454,
                2.1338022138839805,
                -0.8876545632915891,
                0.9938542824003176,
                2.8891042299804965
            ]
        },
        {
            "positions": [
                -0.1448298790681172,
                -1.4089159191205312,
                2.0375447186907376,
                -0.8405862312418946,
                0.9141314409769762,
                2.78908447480666
            ]
        },
        {
            "positions": [
                -0.09657150262778236,
                -1.417731499985117,
                1.9412872234974945,
                -0.7935178991922001,
                0.8344085995536346,
                2.6890647196328237
            ]
        },
        {
            "positions": [
                -0.04831312618744754,
                -1.4265470808497027,
                1.8450297283042514,
                -0.7464495671425055,
                0.7546857581302931,
                2.5890449644589872
            ]
        },
        {
            "positions": [
                -5.474974711267011e-05,
                -1.4353626617142885,
                1.7487722331110085,
                -0.6993812350928109,
                0.6749629167069516,
                2.489025209285151
            ]
        },
        {
            "positions": [
                0.04820362669322209,
                -1.4441782425788743,
                1.6525147379177656,
                -0.6523129030431165,
                0.5952400752836102,
                2.3890054541113144
            ]
        },
        {
            "positions": [
                0.09646200313355696,
                -1.45299382344346,
                1.5562572427245225,
                -0.6052445709934219,
                0.5155172338602687,
                2.288985698937478
            ]
        },
        {
            "positions": [
                0.14472037957389178,
                -1.4618094043080458,
                1.4599997475312794,
                -0.5581762389437274,
                0.4357943924369271,
                2.1889659437636415
            ]
        },
        {
            "positions": [
                0.1929787560142266,
                -1.4706249851726316,
                1.3637422523380365,
                -0.5111079068940328,
                0.3560715510135857,
                2.088946188589805
            ]
        },
        {
            "positions": [
                0.2412371324545614,
                -1.4794405660372174,
                1.2674847571447934,
                -0.46403957484433833,
                0.27634870959024416,
                1.9889264334159686
            ]
        },
        {
            "positions": [
                0.275069101580319,
                -1.5252250839461188,
                1.3790438953713728,
                -0.45478336345738396,
                0.32504484719902366,
                2.095447670540034
            ]
        },
        {
            "positions": [
                0.3089010707060766,
                -1.5710096018550201,
                1.490603033597952,
                -0.44552715207042964,
                0.37374098480780316,
                2.2019689076640994
            ]
        },
        {
            "positions": [
                0.3427330398318342,
                -1.6167941197639213,
                1.6021621718245316,
                -0.4362709406834753,
                0.4224371224165827,
                2.3084901447881645
            ]
        },
        {
            "positions": [
                0.3765650089575918,
                -1.6625786376728227,
                1.713721310051111,
                -0.4270147292965209,
                0.4711332600253622,
                2.4150113819122296
            ]
        },
        {
            "positions": [
                0.4103969780833494,
                -1.708363155581724,
                1.8252804482776905,
                -0.4177585179095666,
                0.5198293976341417,
                2.521532619036295
            ]
        },
        {
            "positions": [
                0.444228947209107,
                -1.7541476734906252,
                1.93683958650427,
                -0.4085023065226122,
                0.5685255352429213,
                2.6280538561603604
            ]
        },
        {
            "positions": [
                0.4780609163348646,
                -1.7999321913995265,
                2.0483987247308493,
                -0.39924609513565784,
                0.6172216728517008,
                2.7345750932844255
            ]
        },
        {
            "positions": [
                0.5118928854606222,
                -1.845716709308428,
                2.1599578629574285,
                -0.3899898837487035,
                0.6659178104604803,
                2.841096330408491
            ]
        },
        {
            "positions": [
                0.5457248545863798,
                -1.8915012272173293,
                2.2715170011840082,
                -0.38073367236174915,
                0.7146139480692598,
                2.947617567532556
            ]
        },
        {
            "positions": [
                0.6264882480449522,
                -1.8983768893467516,
                2.3304347264440493,
                -0.4169938570093593,
                0.7124101946458157,
                3.047200026022975
            ]
        },
        {
            "positions": [
                0.7072516415035246,
                -1.9052525514761738,
                2.3893524517040907,
                -0.4532540416569694,
                0.7102064412223715,
                3.1467824845133934
            ]
        }
    ]
}