{
    "goal": {
        "global_pose": {
            "orientation": {
                "w": 0.7031023502349854,
                "x": -0.7110244035720825,
                "y": 0.007748599164187908,
                "z": 0.005598929710686207
            },
            "position": {
                "x": 0.11585023208521307,
                "y": 0.44412534475326537,
                "z": 0.3711530566215515
            }
        },
        "name": "move_to_auspresseinheit_A"
    },
    "id": "LBKPIECE_move_to_auspresseinheit_A_104",
    "joint_names": [
        "shoulder_pan_joint",
        "shoulder_lift_joint",
        "elbow_joint",
        "wrist_1_joint",
        "wrist_2_joint",
        "wrist_3_joint"
    ],
    "metrics": {
        "cart_traj_len": 0.944772795765233,
        "distance_elbow_joint": 1.2110842043487846,
        "distance_shoulder_lift_joint": 0.5808622233861926,
        "distance_shoulder_pan_joint": 1.0419576417112275,
        "distance_wrist_1_joint": 4.664764453962412,
        "distance_wrist_2_joint": 1.172553090280648,
        "distance_wrist_3_joint": 4.39781047912413,
        "smoothness": 1.0760712675674138,
        "time": 0.48762071500000004,
        "traj_len": 3.6151116293709933,
        "weighted_distance": 5.2632661528089875
    },
    "planner": "LBKPIECE",
    "start": {
        "state": {
            "elbow_joint": 2.4225746994637096,
            "shoulder_lift_joint": -1.373653595662188,
            "shoulder_pan_joint": -0.3378633848294565,
            "wrist_1_joint": -1.0288595594406726,
            "wrist_2_joint": 1.2330228066703421,
            "wrist_3_joint": 3.189163495502006
        }
    },
    "waypoints": [
        {
            "positions": [
                -0.3378633848294565,
                -1.373653595662188,
                2.4225746994637096,
                -1.0288595594406726,
                1.2330228066703421,
                3.189163495502006
            ]
        },
        {
            "positions": [
                -0.30262138741982697,
                -1.3885340925845215,
                2.3861426900847866,
                -0.8767935672619123,
                1.2519061570903742,
                3.058449320701109
            ]
        },
        {
            "positions": [
                -0.26737939001019745,
                -1.4034145895068548,
                2.349710680705864,
                -0.7247275750831519,
                1.2707895075104063,
                2.927735145900213
            ]
        },
        {
            "positions": [
                -0.23213739260056793,
                -1.4182950864291883,
                2.313278671326941,
                -0.5726615829043914,
                1.2896728579304386,
                2.7970209710993164
            ]
        },
        {
            "positions": [
                -0.19689539519093843,
                -1.4331755833515216,
                2.276846661948018,
                -0.420595590725631,
                1.3085562083504707,
                2.6663067962984197
            ]
        },
        {
            "positions": [
                -0.1616533977813089,
                -1.4480560802738551,
                2.240414652569095,
                -0.26852959854687064,
                1.3274395587705028,
                2.535592621497523
            ]
        },
        {
            "positions": [
                -0.1264114003716794,
                -1.4629365771961884,
                2.2039826431901726,
                -0.11646360636811015,
                1.3463229091905349,
                2.4048784466966264
            ]
        },
        {
            "positions": [
                -0.0911694029620499,
                -1.477817074118522,
                2.1675506338112496,
                0.03560238581065023,
                1.365206259610567,
                2.2741642718957302
            ]
        },
        {
            "positions": [
                -0.05592740555242037,
                -1.4926975710408552,
                2.1311186244323266,
                0.1876683779894106,
                1.384089610030599,
                2.1434500970948336
            ]
        },
        {
            "positions": [
                -0.02068540814279085,
                -1.5075780679631887,
                2.094686615053404,
                0.339734370168171,
                1.4029729604506314,
                2.012735922293937
            ]
        },
        {
            "positions": [
                0.014556589266838671,
                -1.522458564885522,
                2.058254605674481,
                0.49180036234693136,
                1.4218563108706634,
                1.8820217474930405
            ]
        },
        {
            "positions": [
                0.04979858667646819,
                -1.5373390618078555,
                2.021822596295558,
                0.643866354525692,
                1.4407396612906955,
                1.7513075726921439
            ]
        },
        {
            "positions": [
                0.08504058408609771,
                -1.5522195587301888,
                1.9853905869166353,
                0.7959323467044523,
                1.4596230117107276,
                1.6205933978912472
            ]
        },
        {
            "positions": [
                0.12028258149572718,
                -1.5671000556525223,
                1.9489585775377125,
                0.9479983388832125,
                1.4785063621307597,
                1.489879223090351
            ]
        },
        {
            "positions": [
                0.1555245789053567,
                -1.5819805525748556,
                1.9125265681587895,
                1.100064331061973,
                1.4973897125507918,
                1.3591650482894544
            ]
        },
        {
            "positions": [
                0.19076657631498622,
                -1.596861049497189,
                1.8760945587798667,
                1.2521303232407335,
                1.516273062970824,
                1.2284508734885577
            ]
        },
        {
            "positions": [
                0.22600857372461575,
                -1.6117415464195224,
                1.839662549400944,
                1.4041963154194939,
                1.5351564133908562,
                1.0977366986876613
            ]
        },
        {
            "positions": [
                0.2612505711342452,
                -1.626622043341856,
                1.803230540022021,
                1.5562623075982542,
                1.5540397638108883,
                0.9670225238867647
            ]
        },
        {
            "positions": [
                0.2870313775058539,
                -1.6457278243795201,
                1.8401256559529124,
                1.4278895048534939,
                1.5019377205386302,
                1.1005147112215552
            ]
        },
        {
            "positions": [
                0.31281218387746257,
                -1.6648336054171844,
                1.8770207718838041,
                1.2995167021087335,
                1.4498356772663719,
                1.2340068985563457
            ]
        },
        {
            "positions": [
                0.3385929902490713,
                -1.6839393864548486,
                1.9139158878146958,
                1.1711438993639733,
                1.3977336339941138,
                1.3674990858911364
            ]
        },
        {
            "positions": [
                0.36437379662068,
                -1.703045167492513,
                1.9508110037455872,
                1.042771096619213,
                1.3456315907218557,
                1.5009912732259267
            ]
        },
        {
            "positions": [
                0.39015460299228866,
                -1.7221509485301771,
                1.9877061196764787,
                0.9143982938744526,
                1.2935295474495976,
                1.6344834605607175
            ]
        },
        {
            "positions": [
                0.4159354093638974,
                -1.7412567295678414,
                2.0246012356073706,
                0.7860254911296923,
                1.2414275041773393,
                1.767975647895508
            ]
        },
        {
            "positions": [
                0.44171621573550607,
                -1.7603625106055056,
                2.061496351538262,
                0.6576526883849321,
                1.1893254609050812,
                1.9014678352302985
            ]
        },
        {
            "positions": [
                0.46749702210711475,
                -1.7794682916431697,
                2.0983914674691535,
                0.5292798856401717,
                1.137223417632823,
                2.0349600225650892
            ]
        },
        {
            "positions": [
                0.4932778284787234,
                -1.7985740726808341,
                2.135286583400045,
                0.4009070828954113,
                1.0851213743605648,
                2.1684522098998795
            ]
        },
        {
            "positions": [
                0.5190586348503321,
                -1.8176798537184982,
                2.1721816993309364,
                0.27253428015065095,
                1.0330193310883067,
                2.30194439723467
            ]
        },
        {
            "positions": [
                0.5448394412219408,
                -1.8367856347561624,
                2.2090768152618283,
                0.1441614774058908,
                0.9809172878160485,
                2.4354365845694605
            ]
        },
        {
            "positions": [
                0.5706202475935496,
                -1.8558914157938267,
                2.2459719311927198,
                0.01578867466113043,
                0.9288152445437903,
                2.5689287719042513
            ]
        },
        {
            "positions": [
                0.5964010539651582,
                -1.874997196831491,
                2.282867047123611,
                -0.11258412808362994,
                0.8767132012715322,
                2.702420959239042
            ]
        },
        {
            "positions": [
                0.6221818603367669,
                -1.8941029778691552,
                2.319762163054503,
                -0.2409569308283901,
                0.824611157999274,
                2.8359131465738323
            ]
        },
        {
            "positions": [
                0.6479626667083755,
                -1.9132087589068194,
                2.3566572789853946,
                -0.36932973357315046,
                0.7725091147270159,
                2.9694053339086226
            ]
        },
        {
            "positions": [
                0.6737434730799843,
                -1.9323145399444837,
                2.393552394916286,
                -0.49770253631791095,
                0.7204070714547577,
                3.1028975212434133
            ]
        },
        {
            "positions": [
                0.7040942568817705,
                -1.9101132608405866,
                2.394970584929117,
                -0.47202479331058905,
                0.702503630670786,
                3.142692031395654
            ]
        }
    ]
}