{
    "goal": {
        "global_pose": {
            "orientation": {
                "w": 0.005598929693374612,
                "x": 0.007748599140229565,
                "y": 0.7110244013736278,
                "z": -0.7031023480610252
            },
            "position": {
                "x": -0.8858502320852131,
                "y": -0.7141253447532654,
                "z": 0.3711530566215515
            }
        },
        "name": "move_to_auspresseinheit_C"
    },
    "id": "LBKPIECE_move_to_auspresseinheit_C_98",
    "joint_names": [
        "shoulder_pan_joint",
        "shoulder_lift_joint",
        "elbow_joint",
        "wrist_1_joint",
        "wrist_2_joint",
        "wrist_3_joint"
    ],
    "metrics": {
        "cart_traj_len": 0.4922614949296504,
        "distance_elbow_joint": 0.9860297122853596,
        "distance_shoulder_lift_joint": 0.31876672673737105,
        "distance_shoulder_pan_joint": 0.25693236896252225,
        "distance_wrist_1_joint": 0.6523956443685409,
        "distance_wrist_2_joint": 1.3011018456582275,
        "distance_wrist_3_joint": 0.050601310546267264,
        "smoothness": 4.844609574787718e-16,
        "time": 0.353555187,
        "traj_len": 1.888339908109313,
        "weighted_distance": 2.3707652181685117
    },
    "planner": "LBKPIECE",
    "start": {
        "state": {
            "elbow_joint": 1.7527959577730765,
            "shoulder_lift_joint": -0.9740617694224828,
            "shoulder_pan_joint": -2.967991417825869,
            "wrist_1_joint": -0.7595177689779385,
            "wrist_2_joint": 1.7443932448376545,
            "wrist_3_joint": 3.1991315425061013
        }
    },
    "waypoints": [
        {
            "positions": [
                -2.967991417825869,
                -0.9740617694224828,
                1.7527959577730765,
                -0.7595177689779385,
                1.7443932448376545,
                3.1991315425061013
            ]
        },
        {
            "positions": [
                -2.9422981809296167,
                -0.9421850967487457,
                1.6541929865445406,
                -0.6942782045410845,
                1.6142830602718317,
                3.1940714114514748
            ]
        },
        {
            "positions": [
                -2.916604944033365,
                -0.9103084240750086,
                1.5555900153160045,
                -0.6290386401042304,
                1.4841728757060089,
                3.189011280396848
            ]
        },
        {
            "positions": [
                -2.8909117071371124,
                -0.8784317514012715,
                1.4569870440874686,
                -0.5637990756673763,
                1.3540626911401863,
                3.1839511493422212
            ]
        },
        {
            "positions": [
                -2.86521847024086,
                -0.8465550787275343,
                1.3583840728589327,
                -0.49855951123052217,
                1.2239525065743635,
                3.1788910182875942
            ]
        },
        {
            "positions": [
                -2.8395252333446077,
                -0.8146784060537973,
                1.2597811016303968,
                -0.4333199467936681,
                1.0938423220085407,
                3.1738308872329677
            ]
        },
        {
            "positions": [
                -2.813831996448356,
                -0.7828017333800602,
                1.161178130401861,
                -0.368080382356814,
                0.963732137442718,
                3.168770756178341
            ]
        },
        {
            "positions": [
                -2.7881387595521034,
                -0.750925060706323,
                1.0625751591733248,
                -0.3028408179199599,
                0.8336219528768952,
                3.163710625123714
            ]
        },
        {
            "positions": [
                -2.762445522655851,
                -0.719048388032586,
                0.9639721879447888,
                -0.2376012534831058,
                0.7035117683110723,
                3.1586504940690876
            ]
        },
        {
            "positions": [
                -2.736752285759599,
                -0.6871717153588488,
                0.8653692167162528,
                -0.1723616890462517,
                0.5734015837452497,
                3.1535903630144606
            ]
        },
        {
            "positions": [
                -2.711059048863347,
                -0.6552950426851117,
                0.7667662454877169,
                -0.10712212460939767,
                0.44329139917942706,
                3.148530231959834
            ]
        }
    ]
}