{
    "goal": {
        "global_pose": {
            "orientation": {
                "w": 0.7031023480610252,
                "x": -0.7110244013736278,
                "y": 0.0077485991402295624,
                "z": 0.005598929693374583
            },
            "position": {
                "x": -0.8841497679147869,
                "y": 0.44412534475326537,
                "z": 0.3711530566215515
            }
        },
        "name": "move_to_auspresseinheit_D"
    },
    "id": "LBKPIECE_move_to_auspresseinheit_D_42",
    "joint_names": [
        "shoulder_pan_joint",
        "shoulder_lift_joint",
        "elbow_joint",
        "wrist_1_joint",
        "wrist_2_joint",
        "wrist_3_joint"
    ],
    "metrics": {
        "cart_traj_len": 0.3428014112599836,
        "distance_elbow_joint": 0.6462343675590199,
        "distance_shoulder_lift_joint": 0.1263026355372716,
        "distance_shoulder_pan_joint": 0.13327080925219187,
        "distance_wrist_1_joint": 0.5558824100162201,
        "distance_wrist_2_joint": 1.4401785285148672,
        "distance_wrist_3_joint": 0.01885372319316314,
        "smoothness": 0.0,
        "time": 0.47307245600000003,
        "traj_len": 1.7090121339746929,
        "weighted_distance": 2.2258685628289347
    },
    "planner": "LBKPIECE",
    "start": {
        "state": {
            "elbow_joint": -1.8275484843655228,
            "shoulder_lift_joint": -2.1267897864000416,
            "shoulder_pan_joint": -0.035127520176001514,
            "wrist_1_joint": -2.3477863256791385,
            "wrist_2_joint": -1.605890476484521,
            "wrist_3_joint": -3.0880375317375353
        }
    },
    "waypoints": [
        {
            "positions": [
                -0.035127520176001514,
                -2.1267897864000416,
                -1.8275484843655228,
                -2.3477863256791385,
                -1.605890476484521,
                -3.0880375317375353
            ]
        },
        {
            "positions": [
                -0.0517863713325255,
                -2.1425776158422005,
                -1.7467691884206453,
                -2.417271626931166,
                -1.4258681604201626,
                -3.0856808163383898
            ]
        },
        {
            "positions": [
                -0.06844522248904948,
                -2.1583654452843595,
                -1.6659898924757677,
                -2.4867569281831936,
                -1.2458458443558043,
                -3.0833241009392447
            ]
        },
        {
            "positions": [
                -0.08510407364557346,
                -2.1741532747265184,
                -1.5852105965308902,
                -2.556242229435221,
                -1.0658235282914457,
                -3.080967385540099
            ]
        },
        {
            "positions": [
                -0.10176292480209745,
                -2.1899411041686774,
                -1.5044313005860128,
                -2.6257275306872483,
                -0.8858012122270874,
                -3.0786106701409537
            ]
        },
        {
            "positions": [
                -0.11842177595862144,
                -2.2057289336108363,
                -1.4236520046411354,
                -2.695212831939276,
                -0.705778896162729,
                -3.076253954741808
            ]
        },
        {
            "positions": [
                -0.1350806271151454,
                -2.2215167630529953,
                -1.342872708696258,
                -2.7646981331913034,
                -0.5257565800983706,
                -3.0738972393426627
            ]
        },
        {
            "positions": [
                -0.1517394782716694,
                -2.2373045924951542,
                -1.2620934127513803,
                -2.834183434443331,
                -0.3457342640340122,
                -3.0715405239435176
            ]
        },
        {
            "positions": [
                -0.16839832942819338,
                -2.253092421937313,
                -1.181314116806503,
                -2.9036687356953585,
                -0.16571194796965386,
                -3.069183808544372
            ]
        }
    ]
}