{
    "goal": {
        "global_pose": {
            "orientation": {
                "w": 0.005598929693374612,
                "x": 0.007748599140229565,
                "y": 0.7110244013736278,
                "z": -0.7031023480610252
            },
            "position": {
                "x": -0.8858502320852131,
                "y": -0.7141253447532654,
                "z": 0.3711530566215515
            }
        },
        "name": "move_to_auspresseinheit_C"
    },
    "id": "LBKPIECE_move_to_auspresseinheit_C_104",
    "joint_names": [
        "shoulder_pan_joint",
        "shoulder_lift_joint",
        "elbow_joint",
        "wrist_1_joint",
        "wrist_2_joint",
        "wrist_3_joint"
    ],
    "metrics": {
        "cart_traj_len": 0.4919861871647988,
        "distance_elbow_joint": 0.9898309857242467,
        "distance_shoulder_lift_joint": 0.3206319349361376,
        "distance_shoulder_pan_joint": 0.25625271475885647,
        "distance_wrist_1_joint": 0.6601436158395634,
        "distance_wrist_2_joint": 1.307978689198352,
        "distance_wrist_3_joint": 0.05590913519107055,
        "smoothness": 1.1304088990788627e-15,
        "time": 0.411630685,
        "traj_len": 1.8949266676175696,
        "weighted_distance": 2.381320568732459
    },
    "planner": "LBKPIECE",
    "start": {
        "state": {
            "elbow_joint": 1.7527959577730765,
            "shoulder_lift_joint": -0.9740617694224828,
            "shoulder_pan_joint": -2.967991417825869,
            "wrist_1_joint": -0.7595177689779385,
            "wrist_2_joint": 1.7443932448376545,
            "wrist_3_joint": 3.1991315425061013
        }
    },
    "waypoints": [
        {
            "positions": [
                -2.967991417825869,
                -0.9740617694224828,
                1.7527959577730765,
                -0.7595177689779385,
                1.7443932448376545,
                3.1991315425061013
            ]
        },
        {
            "positions": [
                -2.9423661463499835,
                -0.941998575928869,
                1.6538128592006518,
                -0.6935034073939822,
                1.6135953759178192,
                3.193540628986994
            ]
        },
        {
            "positions": [
                -2.916740874874098,
                -0.9099353824352553,
                1.554829760628227,
                -0.6274890458100258,
                1.482797506997984,
                3.1879497154678873
            ]
        },
        {
            "positions": [
                -2.891115603398212,
                -0.8778721889416415,
                1.4558466620558026,
                -0.5614746842260695,
                1.351999638078149,
                3.18235880194878
            ]
        },
        {
            "positions": [
                -2.8654903319223264,
                -0.8458089954480277,
                1.3568635634833779,
                -0.4954603226421132,
                1.2212017691583137,
                3.1767678884296733
            ]
        },
        {
            "positions": [
                -2.839865060446441,
                -0.8137458019544139,
                1.2578804649109532,
                -0.42944596105815686,
                1.0904039002384784,
                3.171176974910566
            ]
        },
        {
            "positions": [
                -2.8142397889705553,
                -0.7816826084608002,
                1.1588973663385285,
                -0.3634315994742005,
                0.9596060313186433,
                3.165586061391459
            ]
        },
        {
            "positions": [
                -2.7886145174946697,
                -0.7496194149671864,
                1.059914267766104,
                -0.2974172378902442,
                0.8288081623988081,
                3.159995147872352
            ]
        },
        {
            "positions": [
                -2.7629892460187837,
                -0.7175562214735727,
                0.9609311691936792,
                -0.23140287630628786,
                0.6980102934789727,
                3.154404234353245
            ]
        },
        {
            "positions": [
                -2.737363974542898,
                -0.6854930279799589,
                0.8619480706212544,
                -0.16538851472233151,
                0.5672124245591377,
                3.148813320834138
            ]
        },
        {
            "positions": [
                -2.7117387030670126,
                -0.6534298344863452,
                0.7629649720488298,
                -0.09937415313837514,
                0.43641455563930237,
                3.1432224073150308
            ]
        }
    ]
}