{
    "goal": {
        "global_pose": {
            "orientation": {
                "w": 0.5084816262002911,
                "x": -0.4908360881923452,
                "y": 0.5182115481033761,
                "z": -0.48164630358495003
            },
            "position": {
                "x": 0.5540239810943604,
                "y": -0.46912469901144505,
                "z": 0.16403168439865112
            }
        },
        "name": "move_to_storage_B"
    },
    "id": "LBKPIECE_move_to_storage_B_33",
    "joint_names": [
        "shoulder_pan_joint",
        "shoulder_lift_joint",
        "elbow_joint",
        "wrist_1_joint",
        "wrist_2_joint",
        "wrist_3_joint"
    ],
    "metrics": {
        "cart_traj_len": 0.7930615907643085,
        "distance_elbow_joint": 0.7318606004052113,
        "distance_shoulder_lift_joint": 0.46262795660536815,
        "distance_shoulder_pan_joint": 0.1809607412340848,
        "distance_wrist_1_joint": 3.010700239107627,
        "distance_wrist_2_joint": 2.7165285700918513,
        "distance_wrist_3_joint": 4.129035075142957,
        "smoothness": 0.26073817119915227,
        "time": 0.424724127,
        "traj_len": 3.3513748197698066,
        "weighted_distance": 5.0216543232357695
    },
    "planner": "LBKPIECE",
    "start": {
        "state": {
            "elbow_joint": 1.6649325340416963,
            "shoulder_lift_joint": -0.6616387945129425,
            "shoulder_pan_joint": -0.9139837929255878,
            "wrist_1_joint": 2.1467571094334352,
            "wrist_2_joint": -2.234195976750228,
            "wrist_3_joint": 0.005470921511140723
        }
    },
    "waypoints": [
        {
            "positions": [
                -0.9139837929255878,
                -0.6616387945129425,
                1.6649325340416963,
                2.1467571094334352,
                -2.234195976750228,
                0.005470921511140723
            ]
        },
        {
            "positions": [
                -0.9145833847248469,
                -0.7035964397443206,
                1.7557014395977375,
                2.0811415943387437,
                -2.1667460496620032,
                -0.0746099534948724
            ]
        },
        {
            "positions": [
                -0.915182976524106,
                -0.7455540849756987,
                1.8464703451537787,
                2.015526079244052,
                -2.099296122573778,
                -0.1546908285008855
            ]
        },
        {
            "positions": [
                -0.9157825683233651,
                -0.7875117302070769,
                1.93723925070982,
                1.9499105641493606,
                -2.0318461954855533,
                -0.23477170350689863
            ]
        },
        {
            "positions": [
                -0.9163821601226242,
                -0.829469375438455,
                2.028008156265861,
                1.8842950490546693,
                -1.9643962683973286,
                -0.31485257851291176
            ]
        },
        {
            "positions": [
                -0.9169817519218832,
                -0.8714270206698331,
                2.1187770618219024,
                1.8186795339599777,
                -1.8969463413091034,
                -0.3949334535189249
            ]
        },
        {
            "positions": [
                -0.9175813437211423,
                -0.9133846659012113,
                2.2095459673779434,
                1.7530640188652862,
                -1.8294964142208787,
                -0.475014328524938
            ]
        },
        {
            "positions": [
                -0.924971476656081,
                -0.9221714194519237,
                2.2017440020834034,
                1.644022054342808,
                -1.7331702055724412,
                -0.3229914191454848
            ]
        },
        {
            "positions": [
                -0.9323616095910199,
                -0.9309581730026362,
                2.193942036788863,
                1.5349800898203296,
                -1.6368439969240036,
                -0.1709685097660315
            ]
        },
        {
            "positions": [
                -0.9397517425259586,
                -0.9397449265533486,
                2.186140071494323,
                1.4259381252978514,
                -1.540517788275566,
                -0.01894560038657822
            ]
        },
        {
            "positions": [
                -0.9471418754608973,
                -0.9485316801040612,
                2.178338106199783,
                1.3168961607753733,
                -1.4441915796271285,
                0.133077308992875
            ]
        },
        {
            "positions": [
                -0.9545320083958362,
                -0.9573184336547736,
                2.1705361409052424,
                1.207854196252895,
                -1.3478653709786907,
                0.2851002183723283
            ]
        },
        {
            "positions": [
                -0.9619221413307749,
                -0.9661051872054861,
                2.1627341756107024,
                1.0988122317304168,
                -1.2515391623302532,
                0.4371231277517816
            ]
        },
        {
            "positions": [
                -0.9693122742657136,
                -0.9748919407561986,
                2.1549322103161623,
                0.9897702672079384,
                -1.1552129536818154,
                0.5891460371312349
            ]
        },
        {
            "positions": [
                -0.9767024072006524,
                -0.983678694306911,
                2.147130245021622,
                0.8807283026854602,
                -1.058886745033378,
                0.7411689465106881
            ]
        },
        {
            "positions": [
                -0.9840925401355912,
                -0.9924654478576236,
                2.139328279727082,
                0.7716863381629819,
                -0.9625605363849404,
                0.8931918558901415
            ]
        },
        {
            "positions": [
                -0.99148267307053,
                -1.001252201408336,
                2.131526314432542,
                0.6626443736405037,
                -0.8662343277365028,
                1.0452147652695947
            ]
        },
        {
            "positions": [
                -0.9988728060054687,
                -1.0100389549590485,
                2.1237243491380013,
                0.5536024091180254,
                -0.7699081190880652,
                1.1972376746490478
            ]
        },
        {
            "positions": [
                -1.0062629389404074,
                -1.018825708509761,
                2.1159223838434613,
                0.4445604445955471,
                -0.6735819104396277,
                1.3492605840285012
            ]
        },
        {
            "positions": [
                -1.0136530718753463,
                -1.0276124620604734,
                2.1081204185489213,
                0.33551848007306906,
                -0.5772557017911901,
                1.5012834934079544
            ]
        },
        {
            "positions": [
                -1.021043204810285,
                -1.0363992156111859,
                2.100318453254381,
                0.22647651555059056,
                -0.48092949314275235,
                1.6533064027874078
            ]
        },
        {
            "positions": [
                -1.0284333377452237,
                -1.0451859691618983,
                2.092516487959841,
                0.11743455102811229,
                -0.384603284494315,
                1.805329312166861
            ]
        },
        {
            "positions": [
                -1.0358234706801626,
                -1.0539727227126108,
                2.0847145226653008,
                0.008392586505634236,
                -0.2882770758458775,
                1.9573522215463142
            ]
        },
        {
            "positions": [
                -1.0432136036151012,
                -1.0627594762633232,
                2.0769125573707603,
                -0.10064937801684426,
                -0.1919508671974397,
                2.1093751309257676
            ]
        },
        {
            "positions": [
                -1.05060373655004,
                -1.071546229814036,
                2.0691105920762203,
                -0.2096913425393223,
                -0.09562465854900215,
                2.2613980403052207
            ]
        },
        {
            "positions": [
                -1.0579938694849789,
                -1.0803329833647481,
                2.0613086267816803,
                -0.3187333070618006,
                0.0007015500994353996,
                2.413420949684674
            ]
        },
        {
            "positions": [
                -1.0653840024199175,
                -1.0891197369154608,
                2.05350666148714,
                -0.42777527158427886,
                0.09702775874787317,
                2.565443859064127
            ]
        },
        {
            "positions": [
                -1.0727741353548563,
                -1.0979064904661733,
                2.0457046961925998,
                -0.5368172361067571,
                0.19335396739631072,
                2.7174667684435803
            ]
        },
        {
            "positions": [
                -1.0801642682897952,
                -1.1066932440168857,
                2.0379027308980597,
                -0.6458592006292354,
                0.28968017604474827,
                2.8694896778230334
            ]
        },
        {
            "positions": [
                -1.0875544012247338,
                -1.1154799975675982,
                2.0301007656035193,
                -0.7549011651517137,
                0.3860063846931858,
                3.021512587202487
            ]
        },
        {
            "positions": [
                -1.0949445341596726,
                -1.1242667511183106,
                2.0222988003089792,
                -0.8639431296741921,
                0.48233259334162343,
                3.1735354965819402
            ]
        }
    ]
}