{
    "goal": {
        "global_pose": {
            "orientation": {
                "w": 0.7047431493862688,
                "x": -0.7094548369677653,
                "y": 0.0024358444001904,
                "z": -0.0022348060817251984
            },
            "position": {
                "x": -0.39052492380142206,
                "y": 0.3671506643295288,
                "z": 0.19426114857196808
            }
        },
        "name": "move_to_magneteinheit_D"
    },
    "id": "LBKPIECE_move_to_magneteinheit_D_139",
    "joint_names": [
        "shoulder_pan_joint",
        "shoulder_lift_joint",
        "elbow_joint",
        "wrist_1_joint",
        "wrist_2_joint",
        "wrist_3_joint"
    ],
    "metrics": {
        "cart_traj_len": 6.446480612211634,
        "distance_elbow_joint": 3.1356133459274473,
        "distance_shoulder_lift_joint": 2.974934147876681,
        "distance_shoulder_pan_joint": 8.784171477225879,
        "distance_wrist_1_joint": 4.346505276427495,
        "distance_wrist_2_joint": 2.2899105267800346,
        "distance_wrist_3_joint": 8.213618906802576,
        "smoothness": 0.8880036043235231,
        "time": 0.734131234,
        "traj_len": 5.453875106842848,
        "weighted_distance": 7.266939334950634
    },
    "planner": "LBKPIECE",
    "start": {
        "state": {
            "elbow_joint": 0.7495348899011911,
            "shoulder_lift_joint": -0.6476975780737668,
            "shoulder_pan_joint": -2.711696901376276,
            "wrist_1_joint": -0.0750647808097303,
            "wrist_2_joint": 0.43296659715458535,
            "wrist_3_joint": 3.1361499051832418
        }
    },
    "waypoints": [
        {
            "positions": [
                -2.711696901376276,
                -0.6476975780737668,
                0.7495348899011911,
                -0.0750647808097303,
                0.43296659715458535,
                3.1361499051832418
            ]
        },
        {
            "positions": [
                -2.7937571991791503,
                -0.6310475065778708,
                0.6680519684835391,
                -0.11819141369955777,
                0.3626327498760018,
                3.193864728803833
            ]
        },
        {
            "positions": [
                -2.8758174969820245,
                -0.6143974350819748,
                0.5865690470658872,
                -0.16131804658938523,
                0.2922989025974183,
                3.2515795524244235
            ]
        },
        {
            "positions": [
                -2.957877794784898,
                -0.5977473635860786,
                0.5050861256482353,
                -0.2044446794792127,
                0.22196505531883481,
                3.3092943760450146
            ]
        },
        {
            "positions": [
                -3.0399380925877724,
                -0.5810972920901826,
                0.4236032042305833,
                -0.24757131236904018,
                0.15163120804025126,
                3.3670091996656053
            ]
        },
        {
            "positions": [
                -3.1219983903906465,
                -0.5644472205942865,
                0.3421202828129314,
                -0.2906979452588676,
                0.0812973607616678,
                3.4247240232861964
            ]
        },
        {
            "positions": [
                -3.0259211423809425,
                -0.6095520968204968,
                0.3009596832543335,
                -0.2293344388353804,
                0.10826777541538246,
                3.313173620041418
            ]
        },
        {
            "positions": [
                -2.9298438943712384,
                -0.6546569730467072,
                0.2597990836957355,
                -0.16797093241189323,
                0.13523819006909713,
                3.2016232167966394
            ]
        },
        {
            "positions": [
                -2.833766646361534,
                -0.6997618492729176,
                0.2186384841371376,
                -0.10660742598840603,
                0.1622086047228118,
                3.090072813551861
            ]
        },
        {
            "positions": [
                -2.73768939835183,
                -0.7448667254991279,
                0.17747788457853966,
                -0.045243919564918855,
                0.18917901937652645,
                2.9785224103070824
            ]
        },
        {
            "positions": [
                -2.6416121503421257,
                -0.7899716017253382,
                0.13631728501994173,
                0.016119586858568347,
                0.21614943403024112,
                2.866972007062304
            ]
        },
        {
            "positions": [
                -2.5455349023324216,
                -0.8350764779515486,
                0.09515668546134379,
                0.07748309328205555,
                0.24311984868395578,
                2.755421603817526
            ]
        },
        {
            "positions": [
                -2.4494576543227176,
                -0.8801813541777589,
                0.053996085902745905,
                0.13884659970554264,
                0.2700902633376704,
                2.6438712005727476
            ]
        },
        {
            "positions": [
                -2.353380406313013,
                -0.9252862304039693,
                0.01283548634414794,
                0.2002101061290299,
                0.29706067799138514,
                2.532320797327969
            ]
        },
        {
            "positions": [
                -2.257303158303309,
                -0.9703911066301796,
                -0.02832511321444997,
                0.261573612552517,
                0.32403109264509977,
                2.42077039408319
            ]
        },
        {
            "positions": [
                -2.161225910293605,
                -1.01549598285639,
                -0.06948571277304794,
                0.3229371189760043,
                0.3510015072988144,
                2.309219990838412
            ]
        },
        {
            "positions": [
                -2.065148662283901,
                -1.0606008590826002,
                -0.11064631233164585,
                0.3843006253994914,
                0.37797192195252904,
                2.1976695875936336
            ]
        },
        {
            "positions": [
                -1.9690714142741965,
                -1.1057057353088107,
                -0.1518069118902438,
                0.4456641318229787,
                0.4049423366062438,
                2.086119184348855
            ]
        },
        {
            "positions": [
                -1.8729941662644924,
                -1.150810611535021,
                -0.19296751144884172,
                0.5070276382464658,
                0.4319127512599584,
                1.9745687811040766
            ]
        },
        {
            "positions": [
                -1.7769169182547884,
                -1.1959154877612312,
                -0.23412811100743958,
                0.5683911446699529,
                0.45888316591367306,
                1.8630183778592984
            ]
        },
        {
            "positions": [
                -1.6808396702450843,
                -1.2410203639874415,
                -0.27528871056603754,
                0.6297546510934401,
                0.4858535805673877,
                1.7514679746145199
            ]
        },
        {
            "positions": [
                -1.5847624222353798,
                -1.286125240213652,
                -0.3164493101246355,
                0.6911181575169274,
                0.5128239952211024,
                1.6399175713697411
            ]
        },
        {
            "positions": [
                -1.4886851742256757,
                -1.3312301164398623,
                -0.3576099096832335,
                0.7524816639404146,
                0.5397944098748171,
                1.5283671681249629
            ]
        },
        {
            "positions": [
                -1.3926079262159716,
                -1.3763349926660726,
                -0.39877050924183133,
                0.8138451703639016,
                0.5667648245285317,
                1.4168167648801844
            ]
        },
        {
            "positions": [
                -1.2965306782062676,
                -1.421439868892283,
                -0.4399311088004293,
                0.8752086767873888,
                0.5937352391822464,
                1.305266361635406
            ]
        },
        {
            "positions": [
                -1.2004534301965633,
                -1.4665447451184934,
                -0.48109170835902726,
                0.9365721832108762,
                0.6207056538359611,
                1.1937159583906274
            ]
        },
        {
            "positions": [
                -1.1043761821868592,
                -1.5116496213447037,
                -0.5222523079176252,
                0.9979356896343634,
                0.6476760684896757,
                1.0821655551458491
            ]
        },
        {
            "positions": [
                -1.008298934177155,
                -1.556754497570914,
                -0.5634129074762231,
                1.0592991960578504,
                0.6746464831433904,
                0.9706151519010708
            ]
        },
        {
            "positions": [
                -0.912221686167451,
                -1.6018593737971243,
                -0.604573507034821,
                1.1206627024813376,
                0.701616897797105,
                0.8590647486562921
            ]
        },
        {
            "positions": [
                -0.8161444381577465,
                -1.6469642500233348,
                -0.645734106593419,
                1.182026208904825,
                0.7285873124508198,
                0.7475143454115134
            ]
        },
        {
            "positions": [
                -0.7200671901480424,
                -1.692069126249545,
                -0.6868947061520169,
                1.243389715328312,
                0.7555577271045344,
                0.6359639421667351
            ]
        },
        {
            "positions": [
                -0.6239899421383384,
                -1.7371740024757554,
                -0.7280553057106149,
                1.3047532217517992,
                0.782528141758249,
                0.5244135389219569
            ]
        },
        {
            "positions": [
                -0.4924037100874219,
                -1.7125992405879487,
                -0.7809108567855156,
                1.2553375458681528,
                0.7439430960449862,
                0.6193806294090438
            ]
        },
        {
            "positions": [
                -0.3608174780365055,
                -1.688024478700142,
                -0.8337664078604162,
                1.2059218699845062,
                0.7053580503317233,
                0.7143477198961308
            ]
        },
        {
            "positions": [
                -0.22923124598558903,
                -1.6634497168123352,
                -0.8866219589353169,
                1.1565061941008599,
                0.6667730046184605,
                0.8093148103832177
            ]
        },
        {
            "positions": [
                -0.09764501393467262,
                -1.6388749549245287,
                -0.9394775100102175,
                1.1070905182172135,
                0.6281879589051975,
                0.9042819008703046
            ]
        },
        {
            "positions": [
                0.03394121811624384,
                -1.614300193036722,
                -0.9923330610851182,
                1.057674842333567,
                0.5896029131919347,
                0.9992489913573916
            ]
        },
        {
            "positions": [
                0.1655274501671603,
                -1.5897254311489153,
                -1.045188612160019,
                1.0082591664499205,
                0.5510178674786719,
                1.0942160818444786
            ]
        },
        {
            "positions": [
                0.29711368221807677,
                -1.5651506692611086,
                -1.0980441632349196,
                0.9588434905662739,
                0.5124328217654089,
                1.1891831723315653
            ]
        },
        {
            "positions": [
                0.4286999142689931,
                -1.5405759073733019,
                -1.15089971430982,
                0.9094278146826276,
                0.4738477760521461,
                1.2841502628186523
            ]
        },
        {
            "positions": [
                0.5602861463199096,
                -1.5160011454854951,
                -1.2037552653847208,
                0.8600121387989811,
                0.4352627303388832,
                1.3791173533057393
            ]
        },
        {
            "positions": [
                0.691872378370826,
                -1.4914263835976884,
                -1.2566108164596215,
                0.8105964629153346,
                0.3966776846256203,
                1.4740844437928264
            ]
        },
        {
            "positions": [
                0.8234586104217425,
                -1.466851621709882,
                -1.309466367534522,
                0.7611807870316882,
                0.3580926389123575,
                1.5690515342799132
            ]
        },
        {
            "positions": [
                0.955044842472659,
                -1.442276859822075,
                -1.3623219186094229,
                0.7117651111480418,
                0.3195075931990946,
                1.6640186247670001
            ]
        },
        {
            "positions": [
                1.0866310745235752,
                -1.4177020979342685,
                -1.4151774696843233,
                0.6623494352643954,
                0.2809225474858318,
                1.758985715254087
            ]
        },
        {
            "positions": [
                1.218217306574492,
                -1.3931273360464618,
                -1.4680330207592243,
                0.6129337593807488,
                0.24233750177256885,
                1.853952805741174
            ]
        },
        {
            "positions": [
                1.3498035386254084,
                -1.368552574158655,
                -1.5208885718341247,
                0.5635180834971024,
                0.20375245605930603,
                1.948919896228261
            ]
        },
        {
            "positions": [
                1.4813897706763246,
                -1.3439778122708483,
                -1.5737441229090252,
                0.5141024076134559,
                0.1651674103460432,
                2.0438869867153477
            ]
        },
        {
            "positions": [
                1.6129760027272413,
                -1.3194030503830416,
                -1.6265996739839261,
                0.46468673172980945,
                0.12658236463278028,
                2.138854077202435
            ]
        },
        {
            "positions": [
                1.7445622347781575,
                -1.294828288495235,
                -1.6794552250588266,
                0.415271055846163,
                0.08799731891951734,
                2.2338211676895217
            ]
        },
        {
            "positions": [
                1.8761484668290738,
                -1.2702535266074282,
                -1.7323107761337273,
                0.3658553799625166,
                0.04941227320625452,
                2.3287882581766084
            ]
        },
        {
            "positions": [
                2.0077346988799905,
                -1.2456787647196217,
                -1.785166327208628,
                0.3164397040788701,
                0.010827227492991587,
                2.423755348663696
            ]
        },
        {
            "positions": [
                2.139320930930907,
                -1.2211040028318147,
                -1.8380218782835287,
                0.26702402819522364,
                -0.027757818220271235,
                2.5187224391507828
            ]
        },
        {
            "positions": [
                2.2709071629818234,
                -1.1965292409440083,
                -1.8908774293584292,
                0.21760835231157727,
                -0.06634286393353406,
                2.6136895296378695
            ]
        },
        {
            "positions": [
                2.40249339503274,
                -1.1719544790562015,
                -1.9437329804333299,
                0.16819267642793068,
                -0.10492790964679699,
                2.7086566201249567
            ]
        },
        {
            "positions": [
                2.5340796270836563,
                -1.1473797171683948,
                -1.9965885315082306,
                0.1187770005442843,
                -0.1435129553600598,
                2.8036237106120434
            ]
        },
        {
            "positions": [
                2.4105436284137833,
                -1.198705295496048,
                -2.014292618986323,
                0.18011539707883764,
                -0.12937798207495863,
                2.678827159128166
            ]
        },
        {
            "positions": [
                2.28700762974391,
                -1.2500308738237014,
                -2.031996706464415,
                0.24145379361339098,
                -0.11524300878985741,
                2.5540306076442887
            ]
        },
        {
            "positions": [
                2.163471631074037,
                -1.3013564521513545,
                -2.049700793942507,
                0.3027921901479443,
                -0.10110803550475622,
                2.4292340561604115
            ]
        },
        {
            "positions": [
                2.0399356324041635,
                -1.3526820304790077,
                -2.067404881420599,
                0.36413058668249765,
                -0.086973062219655,
                2.304437504676534
            ]
        },
        {
            "positions": [
                1.9163996337342906,
                -1.4040076088066609,
                -2.085108968898691,
                0.42546898321705096,
                -0.07283808893455382,
                2.1796409531926564
            ]
        },
        {
            "positions": [
                1.7928636350644174,
                -1.4553331871343143,
                -2.102813056376783,
                0.48680737975160426,
                -0.05870311564945262,
                2.0548444017087792
            ]
        },
        {
            "positions": [
                1.6693276363945442,
                -1.5066587654619674,
                -2.120517143854875,
                0.5481457762861576,
                -0.044568142364351415,
                1.9300478502249019
            ]
        },
        {
            "positions": [
                1.5457916377246708,
                -1.5579843437896206,
                -2.138221231332967,
                0.609484172820711,
                -0.030433169079250214,
                1.8052512987410245
            ]
        },
        {
            "positions": [
                1.4222556390547978,
                -1.6093099221172738,
                -2.155925318811059,
                0.6708225693552643,
                -0.016298195794149012,
                1.6804547472571472
            ]
        },
        {
            "positions": [
                1.2987196403849246,
                -1.660635500444927,
                -2.1736294062891512,
                0.7321609658898176,
                -0.002163222509047824,
                1.5556581957732698
            ]
        },
        {
            "positions": [
                1.1751836417150514,
                -1.7119610787725803,
                -2.1913334937672433,
                0.7934993624243709,
                0.011971750776053391,
                1.4308616442893924
            ]
        },
        {
            "positions": [
                1.0516476430451784,
                -1.7632866571002335,
                -2.2090375812453353,
                0.8548377589589242,
                0.02610672406115458,
                1.306065092805515
            ]
        },
        {
            "positions": [
                0.928111644375305,
                -1.8146122354278869,
                -2.2267416687234274,
                0.9161761554934776,
                0.040241697346255795,
                1.1812685413216377
            ]
        },
        {
            "positions": [
                0.8045756457054318,
                -1.86593781375554,
                -2.2444457562015194,
                0.9775145520280308,
                0.05437667063135698,
                1.0564719898377604
            ]
        },
        {
            "positions": [
                0.6810396470355589,
                -1.9172633920831932,
                -2.2621498436796115,
                1.0388529485625841,
                0.06851164391645817,
                0.9316754383538832
            ]
        },
        {
            "positions": [
                0.5575036483656854,
                -1.9685889704108464,
                -2.2798539311577035,
                1.1001913450971377,
                0.08264661720155939,
                0.8068788868700056
            ]
        },
        {
            "positions": [
                0.43396764969581225,
                -2.0199145487384995,
                -2.2975580186357956,
                1.1615297416316908,
                0.0967815904866606,
                0.6820823353861285
            ]
        },
        {
            "positions": [
                0.3104316510259393,
                -2.0712401270661527,
                -2.3152621061138876,
                1.2228681381662443,
                0.11091656377176179,
                0.5572857839022509
            ]
        },
        {
            "positions": [
                0.18689565235606587,
                -2.1225657053938063,
                -2.3329661935919797,
                1.2842065347007976,
                0.125051537056863,
                0.43248923241837334
            ]
        },
        {
            "positions": [
                0.0633596536861929,
                -2.173891283721459,
                -2.3506702810700717,
                1.345544931235351,
                0.13918651034196416,
                0.3076926809344962
            ]
        },
        {
            "positions": [
                -0.06017634498368052,
                -2.2252168620491126,
                -2.3683743685481637,
                1.4068833277699042,
                0.15332148362706538,
                0.18289612945061862
            ]
        },
        {
            "positions": [
                -0.18371234365355327,
                -2.276542440376766,
                -2.386078456026256,
                1.4682217243044575,
                0.16745645691216657,
                0.058099577966741554
            ]
        }
    ]
}