{
    "goal": {
        "global_pose": {
            "orientation": {
                "w": -0.4816463035849501,
                "x": 0.5182115481033762,
                "y": 0.4908360881923453,
                "z": -0.5084816262002911
            },
            "position": {
                "x": -0.8240239810943604,
                "y": -0.300875300988555,
                "z": 0.16403168439865112
            }
        },
        "name": "move_to_storage_C"
    },
    "id": "LBKPIECE_move_to_storage_C_118",
    "joint_names": [
        "shoulder_pan_joint",
        "shoulder_lift_joint",
        "elbow_joint",
        "wrist_1_joint",
        "wrist_2_joint",
        "wrist_3_joint"
    ],
    "metrics": {
        "cart_traj_len": 0.5763058756614172,
        "distance_elbow_joint": 0.2605771838872739,
        "distance_shoulder_lift_joint": 0.1894030929926218,
        "distance_shoulder_pan_joint": 0.4932503720514072,
        "distance_wrist_1_joint": 0.08916015485751594,
        "distance_wrist_2_joint": 1.0767627331387528,
        "distance_wrist_3_joint": 0.06167133543152614,
        "smoothness": 2.5376526478085547e-16,
        "time": 0.406996652,
        "traj_len": 1.4733719395858933,
        "weighted_distance": 1.860131831677104
    },
    "planner": "LBKPIECE",
    "start": {
        "state": {
            "elbow_joint": 2.0108683149792914,
            "shoulder_lift_joint": -1.1634956873317392,
            "shoulder_pan_joint": -2.4736205022346,
            "wrist_1_joint": -0.8367026793690192,
            "wrist_2_joint": 0.6746043897045053,
            "wrist_3_joint": 3.133522094754363
        }
    },
    "waypoints": [
        {
            "positions": [
                -2.4736205022346,
                -1.1634956873317392,
                2.0108683149792914,
                -0.8367026793690192,
                0.6746043897045053,
                3.133522094754363
            ]
        },
        {
            "positions": [
                -2.555828897576501,
                -1.1319285051663024,
                1.9674387843314125,
                -0.8218426535594332,
                0.8540648452276307,
                3.1438006506596174
            ]
        },
        {
            "positions": [
                -2.6380372929184026,
                -1.1003613230008653,
                1.9240092536835334,
                -0.8069826277498472,
                1.0335253007507563,
                3.1540792065648717
            ]
        },
        {
            "positions": [
                -2.7202456882603037,
                -1.0687941408354282,
                1.8805797230356545,
                -0.7921226019402612,
                1.2129857562738817,
                3.164357762470126
            ]
        },
        {
            "positions": [
                -2.8024540836022047,
                -1.0372269586699914,
                1.8371501923877755,
                -0.7772625761306753,
                1.3924462117970071,
                3.1746363183753807
            ]
        },
        {
            "positions": [
                -2.884662478944106,
                -1.0056597765045545,
                1.7937206617398964,
                -0.7624025503210893,
                1.5719066673201327,
                3.184914874280635
            ]
        },
        {
            "positions": [
                -2.9668708742860073,
                -0.9740925943391174,
                1.7502911310920175,
                -0.7475425245115033,
                1.7513671228432581,
                3.1951934301858893
            ]
        }
    ]
}