{
    "goal": {
        "global_pose": {
            "orientation": {
                "w": -0.00223480608172531,
                "x": 0.0024358444001904467,
                "y": 0.7094548369677653,
                "z": -0.704743149386269
            },
            "position": {
                "x": 0.6205249238014221,
                "y": -0.6371506643295288,
                "z": 0.19426114857196808
            }
        },
        "name": "move_to_magneteinheit_B"
    },
    "id": "LBKPIECE_move_to_magneteinheit_B_106",
    "joint_names": [
        "shoulder_pan_joint",
        "shoulder_lift_joint",
        "elbow_joint",
        "wrist_1_joint",
        "wrist_2_joint",
        "wrist_3_joint"
    ],
    "metrics": {
        "cart_traj_len": 1.4526382692631163,
        "distance_elbow_joint": 0.7309826352785851,
        "distance_shoulder_lift_joint": 1.2477222925200016,
        "distance_shoulder_pan_joint": 1.619922247976331,
        "distance_wrist_1_joint": 2.6077287357047085,
        "distance_wrist_2_joint": 2.946312750867948,
        "distance_wrist_3_joint": 3.1532458678546775,
        "smoothness": 5.382899525591488e-16,
        "time": 0.28468790099999997,
        "traj_len": 3.5079786958022203,
        "weighted_distance": 4.915938135542825
    },
    "planner": "LBKPIECE",
    "start": {
        "state": {
            "elbow_joint": 2.393587130804639,
            "shoulder_lift_joint": -1.9085141043513325,
            "shoulder_pan_joint": 0.7066247066698809,
            "wrist_1_joint": -0.4678290934590222,
            "wrist_2_joint": 0.7096259084215963,
            "wrist_3_joint": 3.147370379541726
        }
    },
    "waypoints": [
        {
            "positions": [
                0.7066247066698809,
                -1.9085141043513325,
                2.393587130804639,
                -0.4678290934590222,
                0.7096259084215963,
                3.147370379541726
            ]
        },
        {
            "positions": [
                0.6560021364206206,
                -1.8695227827100824,
                2.370743923452183,
                -0.38633757046825,
                0.617553634956973,
                3.0488314461712673
            ]
        },
        {
            "positions": [
                0.6053795661713601,
                -1.8305314610688324,
                2.347900716099727,
                -0.3048460474774779,
                0.5254813614923496,
                2.9502925128008086
            ]
        },
        {
            "positions": [
                0.5547569959220998,
                -1.7915401394275823,
                2.3250575087472716,
                -0.22335452448670573,
                0.4334090880277262,
                2.85175357943035
            ]
        },
        {
            "positions": [
                0.5041344256728395,
                -1.7525488177863324,
                2.3022143013948155,
                -0.14186300149593356,
                0.34133681456310283,
                2.753214646059891
            ]
        },
        {
            "positions": [
                0.45351185542357914,
                -1.7135574961450823,
                2.27937109404236,
                -0.06037147850516139,
                0.24926454109847945,
                2.654675712689433
            ]
        },
        {
            "positions": [
                0.40288928517431877,
                -1.6745661745038323,
                2.256527886689904,
                0.021120044485610723,
                0.15719226763385608,
                2.556136779318974
            ]
        },
        {
            "positions": [
                0.35226671492505846,
                -1.6355748528625822,
                2.2336846793374483,
                0.10261156747638295,
                0.06511999416923264,
                2.4575978459485155
            ]
        },
        {
            "positions": [
                0.3016441446757981,
                -1.5965835312213321,
                2.2108414719849927,
                0.18410309046715506,
                -0.02695227929539068,
                2.3590589125780568
            ]
        },
        {
            "positions": [
                0.2510215744265377,
                -1.557592209580082,
                2.1879982646325367,
                0.2655946134579272,
                -0.119024552760014,
                2.260519979207598
            ]
        },
        {
            "positions": [
                0.2003990041772774,
                -1.518600887938832,
                2.165155057280081,
                0.3470861364486994,
                -0.21109682622463743,
                2.1619810458371393
            ]
        },
        {
            "positions": [
                0.1497764339280171,
                -1.4796095662975821,
                2.142311849927625,
                0.4285776594394715,
                -0.30316909968926087,
                2.0634421124666806
            ]
        },
        {
            "positions": [
                0.09915386367875667,
                -1.4406182446563318,
                2.1194686425751694,
                0.5100691824302437,
                -0.3952413731538842,
                1.964903179096222
            ]
        },
        {
            "positions": [
                0.04853129342949636,
                -1.401626923015082,
                2.0966254352227134,
                0.5915607054210159,
                -0.4873136466185075,
                1.8663642457257632
            ]
        },
        {
            "positions": [
                -0.002091276819763954,
                -1.3626356013738319,
                2.073782227870258,
                0.6730522284117881,
                -0.5793859200831311,
                1.7678253123553047
            ]
        },
        {
            "positions": [
                -0.05271384706902438,
                -1.3236442797325818,
                2.050939020517802,
                0.7545437514025601,
                -0.6714581935477544,
                1.669286378984846
            ]
        },
        {
            "positions": [
                -0.10333641731828469,
                -1.2846529580913317,
                2.028095813165346,
                0.8360352743933324,
                -0.7635304670123777,
                1.5707474456143873
            ]
        },
        {
            "positions": [
                -0.153958987567545,
                -1.2456616364500817,
                2.0052526058128906,
                0.9175267973841046,
                -0.855602740477001,
                1.4722085122439286
            ]
        },
        {
            "positions": [
                -0.20458155781680543,
                -1.2066703148088316,
                1.9824093984604347,
                0.9990183203748766,
                -0.9476750139416243,
                1.3736695788734699
            ]
        },
        {
            "positions": [
                -0.25520412806606574,
                -1.1676789931675815,
                1.959566191107979,
                1.0805098433656488,
                -1.0397472874062479,
                1.2751306455030114
            ]
        },
        {
            "positions": [
                -0.30582669831532605,
                -1.1286876715263316,
                1.936722983755523,
                1.162001366356421,
                -1.1318195608708712,
                1.1765917121325526
            ]
        },
        {
            "positions": [
                -0.3564492685645865,
                -1.0896963498850814,
                1.9138797764030673,
                1.243492889347193,
                -1.2238918343354945,
                1.078052778762094
            ]
        },
        {
            "positions": [
                -0.4070718388138467,
                -1.0507050282438315,
                1.8910365690506117,
                1.3249844123379653,
                -1.315964107800118,
                0.9795138453916352
            ]
        },
        {
            "positions": [
                -0.4576944090631071,
                -1.0117137066025814,
                1.8681933616981556,
                1.4064759353287375,
                -1.4080363812647414,
                0.8809749120211765
            ]
        },
        {
            "positions": [
                -0.5083169793123675,
                -0.9727223849613313,
                1.8453501543457,
                1.4879674583195095,
                -1.5001086547293647,
                0.7824359786507178
            ]
        },
        {
            "positions": [
                -0.5589395495616277,
                -0.9337310633200813,
                1.8225069469932442,
                1.5694589813102817,
                -1.592180928193988,
                0.6838970452802591
            ]
        },
        {
            "positions": [
                -0.6095621198108881,
                -0.8947397416788312,
                1.7996637396407884,
                1.650950504301054,
                -1.6842532016586114,
                0.5853581119098004
            ]
        },
        {
            "positions": [
                -0.6601846900601486,
                -0.8557484200375811,
                1.7768205322883326,
                1.7324420272918262,
                -1.7763254751232347,
                0.4868191785393421
            ]
        },
        {
            "positions": [
                -0.7108072603094088,
                -0.8167570983963313,
                1.7539773249358768,
                1.8139335502825984,
                -1.8683977485878585,
                0.3882802451688834
            ]
        },
        {
            "positions": [
                -0.7614298305586692,
                -0.7777657767550812,
                1.7311341175834212,
                1.8954250732733702,
                -1.9604700220524818,
                0.28974131179842466
            ]
        },
        {
            "positions": [
                -0.8120524008079296,
                -0.7387744551138311,
                1.7082909102309651,
                1.9769165962641424,
                -2.052542295517105,
                0.19120237842796595
            ]
        },
        {
            "positions": [
                -0.8626749710571898,
                -0.699783133472581,
                1.6854477028785095,
                2.0584081192549144,
                -2.144614568981728,
                0.09266344505750723
            ]
        },
        {
            "positions": [
                -0.9132975413064502,
                -0.660791811831331,
                1.6626044955260537,
                2.1398996422456866,
                -2.2366868424463515,
                -0.005875488312951673
            ]
        }
    ]
}