{
    "goal": {
        "global_pose": {
            "orientation": {
                "w": 0.7047431493862688,
                "x": -0.7094548369677653,
                "y": 0.0024358444001904,
                "z": -0.0022348060817251984
            },
            "position": {
                "x": -0.39052492380142206,
                "y": 0.3671506643295288,
                "z": 0.19426114857196808
            }
        },
        "name": "move_to_magneteinheit_D"
    },
    "id": "LBKPIECE_move_to_magneteinheit_D_91",
    "joint_names": [
        "shoulder_pan_joint",
        "shoulder_lift_joint",
        "elbow_joint",
        "wrist_1_joint",
        "wrist_2_joint",
        "wrist_3_joint"
    ],
    "metrics": {
        "cart_traj_len": 5.362332537804723,
        "distance_elbow_joint": 3.1382320957491743,
        "distance_shoulder_lift_joint": 1.6288626659803171,
        "distance_shoulder_pan_joint": 5.830819148360312,
        "distance_wrist_1_joint": 4.969364110006364,
        "distance_wrist_2_joint": 2.3547676184559627,
        "distance_wrist_3_joint": 6.82495028529509,
        "smoothness": 0.749730093732014,
        "time": 0.409508155,
        "traj_len": 4.974635255357642,
        "weighted_distance": 6.761732634680238
    },
    "planner": "LBKPIECE",
    "start": {
        "state": {
            "elbow_joint": 0.7495348899011911,
            "shoulder_lift_joint": -0.6476975780737668,
            "shoulder_pan_joint": -2.711696901376276,
            "wrist_1_joint": -0.0750647808097303,
            "wrist_2_joint": 0.43296659715458535,
            "wrist_3_joint": 3.1361499051832418
        }
    },
    "waypoints": [
        {
            "positions": [
                -2.711696901376276,
                -0.6476975780737668,
                0.7495348899011911,
                -0.0750647808097303,
                0.43296659715458535,
                3.1361499051832418
            ]
        },
        {
            "positions": [
                -2.721493698321666,
                -0.6700649635048643,
                0.7454726016638711,
                -0.039526881590755514,
                0.45421818253071483,
                2.900844562869145
            ]
        },
        {
            "positions": [
                -2.7312904952670563,
                -0.6924323489359617,
                0.7414103134265512,
                -0.003988982371780733,
                0.47546976790684425,
                2.665539220555048
            ]
        },
        {
            "positions": [
                -2.7410872922124465,
                -0.7147997343670591,
                0.7373480251892313,
                0.03154891684719405,
                0.49672135328297373,
                2.430233878240951
            ]
        },
        {
            "positions": [
                -2.7508840891578363,
                -0.7371671197981566,
                0.7332857369519112,
                0.06708681606616881,
                0.5179729386591032,
                2.194928535926854
            ]
        },
        {
            "positions": [
                -2.7487077069719987,
                -0.7588848829636673,
                0.7205598268364065,
                0.09805543986534705,
                0.5228576174493317,
                2.0054783012820856
            ]
        },
        {
            "positions": [
                -2.639924582401029,
                -0.7902633247169888,
                0.6200079609858324,
                0.13958802179707308,
                0.5014773825558198,
                1.9147491282011104
            ]
        },
        {
            "positions": [
                -2.531141457830059,
                -0.8216417664703103,
                0.5194560951352585,
                0.18112060372879912,
                0.4800971476623078,
                1.8240199551201355
            ]
        },
        {
            "positions": [
                -2.4223583332590897,
                -0.8530202082236319,
                0.41890422928468435,
                0.22265318566052517,
                0.4587169127687959,
                1.7332907820391603
            ]
        },
        {
            "positions": [
                -2.31357520868812,
                -0.8843986499769534,
                0.31835236343411033,
                0.2641857675922512,
                0.43733667787528396,
                1.6425616089581854
            ]
        },
        {
            "positions": [
                -2.20479208411715,
                -0.9157770917302749,
                0.21780049758353626,
                0.30571834952397725,
                0.41595644298177203,
                1.55183243587721
            ]
        },
        {
            "positions": [
                -2.0960089595461806,
                -0.9471555334835964,
                0.11724863173296218,
                0.3472509314557033,
                0.3945762080882601,
                1.461103262796235
            ]
        },
        {
            "positions": [
                -1.9872258349752108,
                -0.978533975236918,
                0.01669676588238811,
                0.38878351338742934,
                0.3731959731947482,
                1.3703740897152599
            ]
        },
        {
            "positions": [
                -1.878442710404241,
                -1.0099124169902394,
                -0.08385509996818585,
                0.4303160953191554,
                0.35181573830123625,
                1.279644916634285
            ]
        },
        {
            "positions": [
                -1.769659585833271,
                -1.041290858743561,
                -0.18440696581876004,
                0.4718486772508814,
                0.3304355034077243,
                1.1889157435533098
            ]
        },
        {
            "positions": [
                -1.6608764612623015,
                -1.0726693004968824,
                -0.284958831669334,
                0.5133812591826075,
                0.3090552685142124,
                1.0981865704723346
            ]
        },
        {
            "positions": [
                -1.5520933366913319,
                -1.104047742250204,
                -0.38551069751990796,
                0.5549138411143335,
                0.28767503362070046,
                1.0074573973913596
            ]
        },
        {
            "positions": [
                -1.443310212120362,
                -1.1354261840035256,
                -0.48606256337048215,
                0.5964464230460595,
                0.26629479872718853,
                0.9167282243103845
            ]
        },
        {
            "positions": [
                -1.3345270875493924,
                -1.166804625756847,
                -0.5866144292210561,
                0.6379790049777856,
                0.2449145638336766,
                0.8259990512294095
            ]
        },
        {
            "positions": [
                -1.2257439629784226,
                -1.1981830675101686,
                -0.6871662950716303,
                0.6795115869095116,
                0.22353432894016467,
                0.7352698781484341
            ]
        },
        {
            "positions": [
                -1.116960838407453,
                -1.22956150926349,
                -0.7877181609222043,
                0.7210441688412377,
                0.20215409404665274,
                0.6445407050674592
            ]
        },
        {
            "positions": [
                -1.0081777138364831,
                -1.2609399510168116,
                -0.8882700267727782,
                0.7625767507729637,
                0.18077385915314081,
                0.5538115319864843
            ]
        },
        {
            "positions": [
                -0.8993945892655133,
                -1.2923183927701332,
                -0.9888218926233524,
                0.8041093327046898,
                0.15939362425962889,
                0.46308235890550886
            ]
        },
        {
            "positions": [
                -0.7906114646945437,
                -1.3236968345234548,
                -1.0893737584739265,
                0.8456419146364158,
                0.13801338936611696,
                0.3723531858245339
            ]
        },
        {
            "positions": [
                -0.6818283401235741,
                -1.3550752762767762,
                -1.1899256243245007,
                0.8871744965681418,
                0.11663315447260503,
                0.28162401274355897
            ]
        },
        {
            "positions": [
                -0.5730452155526042,
                -1.3864537180300975,
                -1.2904774901750744,
                0.9287070784998679,
                0.0952529195790931,
                0.19089483966258358
            ]
        },
        {
            "positions": [
                -0.4642620909816344,
                -1.4178321597834191,
                -1.3910293560256486,
                0.9702396604315939,
                0.07387268468558117,
                0.10016566658160864
            ]
        },
        {
            "positions": [
                -0.355478966410665,
                -1.4492106015367408,
                -1.4915812218762223,
                1.01177224236332,
                0.05249244979206924,
                0.009436493500633691
            ]
        },
        {
            "positions": [
                -0.24669584183969517,
                -1.4805890432900624,
                -1.5921330877267965,
                1.053304824295046,
                0.03111221489855731,
                -0.0812926795803417
            ]
        },
        {
            "positions": [
                -0.1379127172687254,
                -1.5119674850433837,
                -1.6926849535773707,
                1.094837406226772,
                0.009731980005045437,
                -0.17202185266131684
            ]
        },
        {
            "positions": [
                -0.05554003842794533,
                -1.541484605743445,
                -1.7058284026165935,
                1.2035696925154233,
                0.05902020760097025,
                -0.07339505202615026
            ]
        },
        {
            "positions": [
                0.02683264041283473,
                -1.5710017264435063,
                -1.7189718516558163,
                1.3123019788040748,
                0.10830843519689506,
                0.025231748609016308
            ]
        },
        {
            "positions": [
                0.10920531925361479,
                -1.6005188471435676,
                -1.7321153006950392,
                1.4210342650927261,
                0.1575966627928199,
                0.12385854924418285
            ]
        },
        {
            "positions": [
                0.19157799809439485,
                -1.630035967843629,
                -1.745258749734262,
                1.5297665513813774,
                0.2068848903887447,
                0.22248534987934945
            ]
        },
        {
            "positions": [
                0.2739506769351749,
                -1.6595530885436902,
                -1.7584021987734848,
                1.638498837670029,
                0.2561731179846695,
                0.321112150514516
            ]
        },
        {
            "positions": [
                0.356323355775955,
                -1.6890702092437515,
                -1.7715456478127076,
                1.7472311239586804,
                0.30546134558059435,
                0.4197389511496825
            ]
        },
        {
            "positions": [
                0.43869603461673506,
                -1.7185873299438128,
                -1.7846890968519304,
                1.8559634102473317,
                0.3547495731765192,
                0.5183657517848491
            ]
        },
        {
            "positions": [
                0.5210687134575152,
                -1.748104450643874,
                -1.7978325458911533,
                1.964695696535983,
                0.40403780077244394,
                0.6169925524200157
            ]
        },
        {
            "positions": [
                0.6034413922982951,
                -1.7776215713439356,
                -1.8109759949303759,
                2.0734279828246343,
                0.45332602836836877,
                0.7156193530551822
            ]
        },
        {
            "positions": [
                0.6858140711390752,
                -1.807138692043997,
                -1.824119443969599,
                2.182160269113286,
                0.5026142559642937,
                0.8142461536903488
            ]
        },
        {
            "positions": [
                0.7681867499798554,
                -1.8366558127440582,
                -1.8372628930088215,
                2.2908925554019373,
                0.5519024835602184,
                0.9128729543255154
            ]
        },
        {
            "positions": [
                0.8505594288206353,
                -1.8661729334441195,
                -1.8504063420480443,
                2.3996248416905885,
                0.6011907111561432,
                1.011499754960682
            ]
        },
        {
            "positions": [
                0.9329321076614154,
                -1.8956900541441808,
                -1.8635497910872671,
                2.50835712797924,
                0.6504789387520682,
                1.1101265555958486
            ]
        },
        {
            "positions": [
                1.0153047865021956,
                -1.925207174844242,
                -1.87669324012649,
                2.617089414267891,
                0.699767166347993,
                1.208753356231015
            ]
        },
        {
            "positions": [
                1.0976774653429757,
                -1.9547242955443034,
                -1.8898366891657128,
                2.7258217005565424,
                0.7490553939439177,
                1.3073801568661818
            ]
        },
        {
            "positions": [
                1.1800501441837556,
                -1.9842414162443647,
                -1.9029801382049356,
                2.8345539868451937,
                0.7983436215398425,
                1.4060069575013483
            ]
        },
        {
            "positions": [
                1.2624228230245358,
                -2.013758536944426,
                -1.9161235872441584,
                2.9432862731338454,
                0.8476318491357673,
                1.5046337581365148
            ]
        },
        {
            "positions": [
                1.3447955018653157,
                -2.0432756576444873,
                -1.9292670362833813,
                3.0520185594224967,
                0.896920076731692,
                1.6032605587716813
            ]
        },
        {
            "positions": [
                1.4271681807060959,
                -2.0727927783445486,
                -1.942410485322604,
                3.160750845711148,
                0.946208304327617,
                1.701887359406848
            ]
        },
        {
            "positions": [
                1.3281213576476572,
                -2.0814586100510644,
                -1.968908583574631,
                3.053434225940291,
                0.8965517096062074,
                1.5992433715169239
            ]
        },
        {
            "positions": [
                1.2290745345892184,
                -2.0901244417575806,
                -1.9954066818266578,
                2.946117606169434,
                0.8468951148847979,
                1.4965993836269995
            ]
        },
        {
            "positions": [
                1.13002771153078,
                -2.0987902734640964,
                -2.021904780078685,
                2.838800986398577,
                0.7972385201633884,
                1.3939553957370752
            ]
        },
        {
            "positions": [
                1.0309808884723413,
                -2.1074561051706127,
                -2.0484028783307116,
                2.73148436662772,
                0.7475819254419788,
                1.291311407847151
            ]
        },
        {
            "positions": [
                0.9319340654139026,
                -2.1161219368771285,
                -2.0749009765827386,
                2.6241677468568634,
                0.6979253307205692,
                1.188667419957227
            ]
        },
        {
            "positions": [
                0.832887242355464,
                -2.1247877685836443,
                -2.1013990748347657,
                2.516851127086006,
                0.6482687359991597,
                1.0860234320673026
            ]
        },
        {
            "positions": [
                0.7338404192970254,
                -2.1334536002901605,
                -2.1278971730867924,
                2.4095345073151493,
                0.5986121412777501,
                0.9833794441773783
            ]
        },
        {
            "positions": [
                0.6347935962385867,
                -2.1421194319966763,
                -2.1543952713388195,
                2.3022178875442925,
                0.5489555465563405,
                0.8807354562874541
            ]
        },
        {
            "positions": [
                0.535746773180148,
                -2.150785263703192,
                -2.1808933695908466,
                2.194901267773435,
                0.4992989518349309,
                0.7780914683975299
            ]
        },
        {
            "positions": [
                0.43669995012170937,
                -2.1594510954097084,
                -2.207391467842873,
                2.0875846480025784,
                0.44964235711352135,
                0.6754474805076056
            ]
        },
        {
            "positions": [
                0.3376531270632708,
                -2.168116927116224,
                -2.2338895660949003,
                1.9802680282317215,
                0.3999857623921118,
                0.5728034926176813
            ]
        },
        {
            "positions": [
                0.23860630400483207,
                -2.17678275882274,
                -2.2603876643469274,
                1.8729514084608645,
                0.3503291676707022,
                0.47015950472775714
            ]
        },
        {
            "positions": [
                0.13955948094639337,
                -2.185448590529256,
                -2.286885762598954,
                1.7656347886900077,
                0.3006725729492926,
                0.367515516837833
            ]
        },
        {
            "positions": [
                0.040512657887954884,
                -2.194114422235772,
                -2.313383860850981,
                1.6583181689191506,
                0.25101597822788313,
                0.26487152894790866
            ]
        },
        {
            "positions": [
                -0.05853416517048382,
                -2.2027802539422883,
                -2.339881959103008,
                1.5510015491482938,
                0.20135938350647353,
                0.16222754105798431
            ]
        },
        {
            "positions": [
                -0.15758098822892247,
                -2.211446085648804,
                -2.366380057355035,
                1.4436849293774368,
                0.151702788785064,
                0.05958355316806024
            ]
        },
        {
            "positions": [
                -0.1864115100087224,
                -2.276560244054084,
                -2.3886972058479796,
                1.460167496529212,
                0.1724719096368696,
                0.060149062311642285
            ]
        }
    ]
}