{
    "goal": {
        "global_pose": {
            "orientation": {
                "w": 0.5084816217422485,
                "x": -0.49083608388900757,
                "y": 0.5182115435600281,
                "z": -0.4816462993621826
            },
            "position": {
                "x": 0.5540239810943604,
                "y": 0.030875300988554955,
                "z": 0.16403168439865112
            }
        },
        "name": "move_to_storage_A"
    },
    "id": "LBKPIECE_move_to_storage_A_16",
    "joint_names": [
        "shoulder_pan_joint",
        "shoulder_lift_joint",
        "elbow_joint",
        "wrist_1_joint",
        "wrist_2_joint",
        "wrist_3_joint"
    ],
    "metrics": {
        "cart_traj_len": 0.3526248222208743,
        "distance_elbow_joint": 0.4523840259051768,
        "distance_shoulder_lift_joint": 0.23574583151898998,
        "distance_shoulder_pan_joint": 0.46023665688803156,
        "distance_wrist_1_joint": 0.25043694710733866,
        "distance_wrist_2_joint": 1.102685363736819,
        "distance_wrist_3_joint": 0.0899256957654555,
        "smoothness": 4.440892098500626e-16,
        "time": 0.508537953,
        "traj_len": 1.6097871042227327,
        "weighted_distance": 2.0308589865613222
    },
    "planner": "LBKPIECE",
    "start": {
        "state": {
            "elbow_joint": 1.971548880431181,
            "shoulder_lift_joint": -1.1394869514688781,
            "shoulder_pan_joint": 0.12281150262730567,
            "wrist_1_joint": -0.7804693444481463,
            "wrist_2_joint": 0.12958644648617612,
            "wrist_3_joint": 3.0906942077768043
        }
    },
    "waypoints": [
        {
            "positions": [
                0.12281150262730567,
                -1.1394869514688781,
                1.971548880431181,
                -0.7804693444481463,
                0.12958644648617612,
                3.0906942077768043
            ]
        },
        {
            "positions": [
                0.0570634087861583,
                -1.1731649274001623,
                2.036175169846206,
                -0.8162460511777662,
                0.2871129270200074,
                3.103540735743298
            ]
        },
        {
            "positions": [
                -0.008684685054989066,
                -1.2068429033314467,
                2.1008014592612314,
                -0.8520227579073859,
                0.4446394075538387,
                3.1163872637097914
            ]
        },
        {
            "positions": [
                -0.07443277889613642,
                -1.240520879262731,
                2.1654277486762568,
                -0.8877994646370058,
                0.6021658880876699,
                3.129233791676285
            ]
        },
        {
            "positions": [
                -0.1401808727372838,
                -1.2741988551940153,
                2.230054038091282,
                -0.9235761713666255,
                0.7596923686215012,
                3.142080319642779
            ]
        },
        {
            "positions": [
                -0.20592896657843118,
                -1.3078768311252995,
                2.294680327506307,
                -0.9593528780962454,
                0.9172188491553326,
                3.1549268476092727
            ]
        },
        {
            "positions": [
                -0.2716770604195785,
                -1.3415548070565837,
                2.3593066169213324,
                -0.9951295848258651,
                1.0747453296891638,
                3.167773375575766
            ]
        },
        {
            "positions": [
                -0.3374251542607259,
                -1.375232782987868,
                2.4239329063363577,
                -1.030906291555485,
                1.232271810222995,
                3.1806199035422598
            ]
        }
    ]
}