{
    "goal": {
        "global_pose": {
            "orientation": {
                "w": 0.005598929693374612,
                "x": 0.007748599140229565,
                "y": 0.7110244013736278,
                "z": -0.7031023480610252
            },
            "position": {
                "x": -0.8858502320852131,
                "y": -0.7141253447532654,
                "z": 0.3711530566215515
            }
        },
        "name": "move_to_auspresseinheit_C"
    },
    "id": "LBKPIECE_move_to_auspresseinheit_C_147",
    "joint_names": [
        "shoulder_pan_joint",
        "shoulder_lift_joint",
        "elbow_joint",
        "wrist_1_joint",
        "wrist_2_joint",
        "wrist_3_joint"
    ],
    "metrics": {
        "cart_traj_len": 0.49214515600281183,
        "distance_elbow_joint": 0.9897542026627983,
        "distance_shoulder_lift_joint": 0.32051120199479,
        "distance_shoulder_pan_joint": 0.25650836209851846,
        "distance_wrist_1_joint": 0.6609423355488616,
        "distance_wrist_2_joint": 1.3093411231610381,
        "distance_wrist_3_joint": 0.052242156927575056,
        "smoothness": 0.0,
        "time": 0.355445865,
        "traj_len": 1.8945446372132755,
        "weighted_distance": 2.3799300735438913
    },
    "planner": "LBKPIECE",
    "start": {
        "state": {
            "elbow_joint": 1.7527959577730765,
            "shoulder_lift_joint": -0.9740617694224828,
            "shoulder_pan_joint": -2.967991417825869,
            "wrist_1_joint": -0.7595177689779385,
            "wrist_2_joint": 1.7443932448376545,
            "wrist_3_joint": 3.1991315425061013
        }
    },
    "waypoints": [
        {
            "positions": [
                -2.967991417825869,
                -0.9740617694224828,
                1.7527959577730765,
                -0.7595177689779385,
                1.7443932448376545,
                3.1991315425061013
            ]
        },
        {
            "positions": [
                -2.9423405816160173,
                -0.9420106492230038,
                1.6538205375067967,
                -0.6934235354230524,
                1.6134591325215506,
                3.1939073268133438
            ]
        },
        {
            "positions": [
                -2.9166897454061655,
                -0.9099595290235248,
                1.5548451172405169,
                -0.6273293018681663,
                1.4825250202054467,
                3.1886831111205862
            ]
        },
        {
            "positions": [
                -2.8910389091963133,
                -0.8779084088240457,
                1.455869696974237,
                -0.5612350683132801,
                1.351590907889343,
                3.1834588954278287
            ]
        },
        {
            "positions": [
                -2.8653880729864616,
                -0.8458572886245668,
                1.356894276707957,
                -0.4951408347583939,
                1.2206567955732393,
                3.178234679735071
            ]
        },
        {
            "positions": [
                -2.83973723677661,
                -0.8138061684250878,
                1.2579188564416772,
                -0.42904660120350774,
                1.0897226832571354,
                3.1730104640423136
            ]
        },
        {
            "positions": [
                -2.814086400566758,
                -0.7817550482256088,
                1.1589434361753974,
                -0.3629523676486216,
                0.9587885709410316,
                3.1677862483495565
            ]
        },
        {
            "positions": [
                -2.7884355643569063,
                -0.7497039280261298,
                1.0599680159091176,
                -0.29685813409373546,
                0.8278544586249278,
                3.162562032656799
            ]
        },
        {
            "positions": [
                -2.762784728147054,
                -0.7176528078266509,
                0.9609925956428378,
                -0.2307639005388492,
                0.6969203463088238,
                3.1573378169640414
            ]
        },
        {
            "positions": [
                -2.7371338919372024,
                -0.6856016876271718,
                0.862017175376558,
                -0.16466966698396313,
                0.5659862339927202,
                3.152113601271284
            ]
        },
        {
            "positions": [
                -2.7114830557273506,
                -0.6535505674276928,
                0.7630417551102782,
                -0.09857543342907692,
                0.4350521216766164,
                3.1468893855785263
            ]
        }
    ]
}