{
    "goal": {
        "global_pose": {
            "orientation": {
                "w": 0.7031023502349854,
                "x": -0.7110244035720825,
                "y": 0.007748599164187908,
                "z": 0.005598929710686207
            },
            "position": {
                "x": 0.11585023208521307,
                "y": 0.44412534475326537,
                "z": 0.3711530566215515
            }
        },
        "name": "move_to_auspresseinheit_A"
    },
    "id": "LBKPIECE_move_to_auspresseinheit_A_95",
    "joint_names": [
        "shoulder_pan_joint",
        "shoulder_lift_joint",
        "elbow_joint",
        "wrist_1_joint",
        "wrist_2_joint",
        "wrist_3_joint"
    ],
    "metrics": {
        "cart_traj_len": 2.0015216406283574,
        "distance_elbow_joint": 2.301832107223708,
        "distance_shoulder_lift_joint": 0.9393572848757676,
        "distance_shoulder_pan_joint": 1.090155705319005,
        "distance_wrist_1_joint": 0.9692648848039747,
        "distance_wrist_2_joint": 0.675099226026933,
        "distance_wrist_3_joint": 1.2338479080392686,
        "smoothness": 1.1369016669978824,
        "time": 0.273449012,
        "traj_len": 2.685061845896414,
        "weighted_distance": 3.364761067772584
    },
    "planner": "LBKPIECE",
    "start": {
        "state": {
            "elbow_joint": 2.4225746994637096,
            "shoulder_lift_joint": -1.373653595662188,
            "shoulder_pan_joint": -0.3378633848294565,
            "wrist_1_joint": -1.0288595594406726,
            "wrist_2_joint": 1.2330228066703421,
            "wrist_3_joint": 3.189163495502006
        }
    },
    "waypoints": [
        {
            "positions": [
                -0.3378633848294565,
                -1.373653595662188,
                2.4225746994637096,
                -1.0288595594406726,
                1.2330228066703421,
                3.189163495502006
            ]
        },
        {
            "positions": [
                -0.2705332120435418,
                -1.423159034347393,
                2.3253413271751153,
                -0.9646492241867155,
                1.1853098772304878,
                3.1354162559344467
            ]
        },
        {
            "positions": [
                -0.20320303925762712,
                -1.4726644730325977,
                2.2281079548865215,
                -0.9004388889327584,
                1.1375969477906334,
                3.0816690163668876
            ]
        },
        {
            "positions": [
                -0.13587286647171243,
                -1.5221699117178025,
                2.130874582597927,
                -0.8362285536788012,
                1.089884018350779,
                3.0279217767993285
            ]
        },
        {
            "positions": [
                -0.06854269368579774,
                -1.5716753504030074,
                2.0336412103093333,
                -0.7720182184248441,
                1.0421710889109246,
                2.9741745372317694
            ]
        },
        {
            "positions": [
                -0.0012125208998830517,
                -1.6211807890882124,
                1.936407838020739,
                -0.7078078831708869,
                0.9944581594710703,
                2.9204272976642103
            ]
        },
        {
            "positions": [
                0.06611765188603164,
                -1.6706862277734171,
                1.839174465732145,
                -0.6435975479169298,
                0.9467452300312159,
                2.8666800580966516
            ]
        },
        {
            "positions": [
                0.13344782467194638,
                -1.7201916664586219,
                1.7419410934435509,
                -0.5793872126629727,
                0.8990323005913615,
                2.8129328185290925
            ]
        },
        {
            "positions": [
                0.200777997457861,
                -1.7696971051438268,
                1.6447077211549568,
                -0.5151768774090155,
                0.8513193711515072,
                2.7591855789615334
            ]
        },
        {
            "positions": [
                0.2681081702437757,
                -1.8192025438290318,
                1.5474743488663627,
                -0.4509665421550584,
                0.8036064417116529,
                2.7054383393939743
            ]
        },
        {
            "positions": [
                0.3354383430296904,
                -1.8687079825142365,
                1.4502409765777684,
                -0.38675620690110124,
                0.7558935122717985,
                2.651691099826415
            ]
        },
        {
            "positions": [
                0.4027685158156051,
                -1.9182134211994413,
                1.3530076042891743,
                -0.3225458716471441,
                0.7081805828319441,
                2.597943860258856
            ]
        },
        {
            "positions": [
                0.4700986886015198,
                -1.9677188598846462,
                1.2557742320005802,
                -0.258335536393187,
                0.6604676533920897,
                2.544196620691297
            ]
        },
        {
            "positions": [
                0.5222087472908684,
                -1.9961500378507895,
                1.412450702788494,
                -0.2910867509196957,
                0.6765534528068494,
                2.64946473896674
            ]
        },
        {
            "positions": [
                0.5743188059802169,
                -2.0245812158169327,
                1.5691271735764079,
                -0.32383796544620447,
                0.6926392522216092,
                2.7547328572421828
            ]
        },
        {
            "positions": [
                0.6264288646695655,
                -2.053012393783076,
                1.7258036443643219,
                -0.3565891799727131,
                0.7087250516363688,
                2.860000975517625
            ]
        },
        {
            "positions": [
                0.6785389233589141,
                -2.0814435717492192,
                1.8824801151522357,
                -0.38934039449922186,
                0.7248108510511285,
                2.965269093793068
            ]
        },
        {
            "positions": [
                0.7306489820482626,
                -2.1098747497153627,
                2.0391565859401495,
                -0.42209160902573056,
                0.7408966504658883,
                3.070537212068511
            ]
        },
        {
            "positions": [
                0.7198273128276196,
                -2.008306684304066,
                2.214981228850654,
                -0.4395840035877032,
                0.7298391126284474,
                3.1018074329941836
            ]
        },
        {
            "positions": [
                0.7090056436069765,
                -1.9067386188927697,
                2.3908058717611587,
                -0.45707639814967593,
                0.7187815747910064,
                3.1330776539198566
            ]
        }
    ]
}