{
    "goal": {
        "global_pose": {
            "orientation": {
                "w": 0.7047431468963623,
                "x": -0.7094548344612122,
                "y": 0.0024358443915843964,
                "z": -0.0022348060738295317
            },
            "position": {
                "x": 0.6094750761985779,
                "y": 0.3671506643295288,
                "z": 0.19426114857196808
            }
        },
        "name": "move_to_magneteinheit_A"
    },
    "id": "LBKPIECE_move_to_magneteinheit_A_141",
    "joint_names": [
        "shoulder_pan_joint",
        "shoulder_lift_joint",
        "elbow_joint",
        "wrist_1_joint",
        "wrist_2_joint",
        "wrist_3_joint"
    ],
    "metrics": {
        "cart_traj_len": 1.9807639846726504,
        "distance_elbow_joint": 3.598515424189264,
        "distance_shoulder_lift_joint": 0.7974629202904125,
        "distance_shoulder_pan_joint": 1.2409119090522995,
        "distance_wrist_1_joint": 1.108716907043756,
        "distance_wrist_2_joint": 1.4345724047941988,
        "distance_wrist_3_joint": 1.8984063338483073,
        "smoothness": 5.263279528711088e-16,
        "time": 0.258545765,
        "traj_len": 3.174678865526124,
        "weighted_distance": 4.051998010704448
    },
    "planner": "LBKPIECE",
    "start": {
        "state": {
            "elbow_joint": -1.5739458827952972,
            "shoulder_lift_joint": 0.006533473998580023,
            "shoulder_pan_joint": -1.1188671628667068,
            "wrist_1_joint": 3.138208179676308,
            "wrist_2_joint": -1.5706037135050406,
            "wrist_3_joint": -2.0226958329764257
        }
    },
    "waypoints": [
        {
            "positions": [
                -1.1188671628667068,
                0.006533473998580023,
                -1.5739458827952972,
                3.138208179676308,
                -1.5706037135050406,
                -2.0226958329764257
            ]
        },
        {
            "positions": [
                -1.0711397817493107,
                -0.024138176781820467,
                -1.4355414434034024,
                3.0955652217130867,
                -1.5154278517821869,
                -1.9496802047514907
            ]
        },
        {
            "positions": [
                -1.0234124006319145,
                -0.054809827562220956,
                -1.2971370040115078,
                3.052922263749865,
                -1.460251990059333,
                -1.876664576526556
            ]
        },
        {
            "positions": [
                -0.9756850195145184,
                -0.08548147834262144,
                -1.158732564619613,
                3.010279305786644,
                -1.4050761283364792,
                -1.8036489483016211
            ]
        },
        {
            "positions": [
                -0.9279576383971223,
                -0.11615312912302193,
                -1.020328125227718,
                2.9676363478234227,
                -1.3499002666136253,
                -1.7306333200766861
            ]
        },
        {
            "positions": [
                -0.8802302572797261,
                -0.1468247799034224,
                -0.8819236858358234,
                2.924993389860201,
                -1.2947244048907716,
                -1.6576176918517511
            ]
        },
        {
            "positions": [
                -0.83250287616233,
                -0.1774964306838229,
                -0.7435192464439285,
                2.8823504318969797,
                -1.2395485431679178,
                -1.5846020636268163
            ]
        },
        {
            "positions": [
                -0.7847754950449339,
                -0.20816808146422336,
                -0.6051148070520339,
                2.8397074739337587,
                -1.1843726814450641,
                -1.5115864354018815
            ]
        },
        {
            "positions": [
                -0.7370481139275378,
                -0.23883973224462388,
                -0.46671036766013896,
                2.797064515970537,
                -1.1291968197222102,
                -1.4385708071769465
            ]
        },
        {
            "positions": [
                -0.6893207328101416,
                -0.26951138302502436,
                -0.32830592826824434,
                2.7544215580073157,
                -1.0740209579993563,
                -1.3655551789520117
            ]
        },
        {
            "positions": [
                -0.6415933516927455,
                -0.3001830338054249,
                -0.1899014888763495,
                2.711778600044094,
                -1.0188450962765025,
                -1.2925395507270767
            ]
        },
        {
            "positions": [
                -0.5938659705753494,
                -0.33085468458582534,
                -0.05149704948445466,
                2.6691356420808727,
                -0.9636692345536488,
                -1.219523922502142
            ]
        },
        {
            "positions": [
                -0.5461385894579531,
                -0.36152633536622586,
                0.08690738990744018,
                2.6264926841176517,
                -0.9084933728307949,
                -1.146508294277207
            ]
        },
        {
            "positions": [
                -0.4984112083405571,
                -0.3921979861466263,
                0.2253118292993348,
                2.58384972615443,
                -0.8533175111079412,
                -1.0734926660522721
            ]
        },
        {
            "positions": [
                -0.450683827223161,
                -0.4228696369270268,
                0.3637162686912294,
                2.5412067681912087,
                -0.7981416493850875,
                -1.0004770378273373
            ]
        },
        {
            "positions": [
                -0.40295644610576486,
                -0.45354128770742724,
                0.502120708083124,
                2.4985638102279877,
                -0.7429657876622336,
                -0.9274614096024025
            ]
        },
        {
            "positions": [
                -0.3552290649883686,
                -0.4842129384878278,
                0.6405251474750193,
                2.455920852264766,
                -0.6877899259393797,
                -0.8544457813774673
            ]
        },
        {
            "positions": [
                -0.30750168387097254,
                -0.5148845892682282,
                0.7789295868669137,
                2.4132778943015447,
                -0.632614064216526,
                -0.7814301531525325
            ]
        },
        {
            "positions": [
                -0.2597743027535764,
                -0.5455562400486287,
                0.9173340262588086,
                2.3706349363383232,
                -0.5774382024936722,
                -0.7084145249275977
            ]
        },
        {
            "positions": [
                -0.21204692163618033,
                -0.5762278908290291,
                1.0557384656507034,
                2.3279919783751017,
                -0.5222623407708185,
                -0.6353988967026629
            ]
        },
        {
            "positions": [
                -0.16431954051878406,
                -0.6068995416094297,
                1.1941429050425982,
                2.2853490204118803,
                -0.4670864790479645,
                -0.5623832684777277
            ]
        },
        {
            "positions": [
                -0.1165921594013879,
                -0.6375711923898302,
                1.332547344434493,
                2.242706062448659,
                -0.4119106173251108,
                -0.4893676402527929
            ]
        },
        {
            "positions": [
                -0.06886477828399196,
                -0.6682428431702306,
                1.470951783826388,
                2.2000631044854377,
                -0.3567347556022571,
                -0.4163520120278581
            ]
        },
        {
            "positions": [
                -0.021137397166595795,
                -0.6989144939506311,
                1.6093562232182823,
                2.1574201465222167,
                -0.30155889387940316,
                -0.3433363838029233
            ]
        },
        {
            "positions": [
                0.02658998395080059,
                -0.7295861447310317,
                1.7477606626101776,
                2.114777188558995,
                -0.24638303215654922,
                -0.27032075557798807
            ]
        },
        {
            "positions": [
                0.07431736506819653,
                -0.7602577955114321,
                1.886165102002072,
                2.0721342305957737,
                -0.1912071704336955,
                -0.19730512735305328
            ]
        },
        {
            "positions": [
                0.12204474618559265,
                -0.7909294462918326,
                2.0245695413939666,
                2.0294912726325522,
                -0.13603130871084185,
                -0.1242894991281185
            ]
        }
    ]
}