{
    "goal": {
        "global_pose": {
            "orientation": {
                "w": 0.005598929693374612,
                "x": 0.007748599140229565,
                "y": 0.7110244013736278,
                "z": -0.7031023480610252
            },
            "position": {
                "x": -0.8858502320852131,
                "y": -0.7141253447532654,
                "z": 0.3711530566215515
            }
        },
        "name": "move_to_auspresseinheit_C"
    },
    "id": "LBKPIECE_move_to_auspresseinheit_C_20",
    "joint_names": [
        "shoulder_pan_joint",
        "shoulder_lift_joint",
        "elbow_joint",
        "wrist_1_joint",
        "wrist_2_joint",
        "wrist_3_joint"
    ],
    "metrics": {
        "cart_traj_len": 0.494420275547119,
        "distance_elbow_joint": 1.011663754218484,
        "distance_shoulder_lift_joint": 0.3296474295998352,
        "distance_shoulder_pan_joint": 0.2566307142345656,
        "distance_wrist_1_joint": 0.7015699494783237,
        "distance_wrist_2_joint": 1.3079867386847353,
        "distance_wrist_3_joint": 0.08232832034703108,
        "smoothness": 4.844609574787718e-16,
        "time": 0.624541864,
        "traj_len": 1.9208922162794493,
        "weighted_distance": 2.421578046526706
    },
    "planner": "LBKPIECE",
    "start": {
        "state": {
            "elbow_joint": 1.7527959577730765,
            "shoulder_lift_joint": -0.9740617694224828,
            "shoulder_pan_joint": -2.967991417825869,
            "wrist_1_joint": -0.7595177689779385,
            "wrist_2_joint": 1.7443932448376545,
            "wrist_3_joint": 3.1991315425061013
        }
    },
    "waypoints": [
        {
            "positions": [
                -2.967991417825869,
                -0.9740617694224828,
                1.7527959577730765,
                -0.7595177689779385,
                1.7443932448376545,
                3.1991315425061013
            ]
        },
        {
            "positions": [
                -2.9423283464024124,
                -0.9410970264624993,
                1.6516295823512281,
                -0.6893607740301062,
                1.613594570969181,
                3.1908987104713984
            ]
        },
        {
            "positions": [
                -2.916665274978956,
                -0.9081322835025157,
                1.5504632069293796,
                -0.6192037790822738,
                1.4827958971007074,
                3.182665878436695
            ]
        },
        {
            "positions": [
                -2.8910022035554994,
                -0.8751675405425322,
                1.4492968315075312,
                -0.5490467841344414,
                1.351997223232234,
                3.174433046401992
            ]
        },
        {
            "positions": [
                -2.8653391321320427,
                -0.8422027975825487,
                1.3481304560856828,
                -0.478889789186609,
                1.2211985493637605,
                3.1662002143672887
            ]
        },
        {
            "positions": [
                -2.8396760607085865,
                -0.8092380546225653,
                1.2469640806638345,
                -0.4087327942387767,
                1.0903998754952868,
                3.157967382332586
            ]
        },
        {
            "positions": [
                -2.8140129892851298,
                -0.7762733116625817,
                1.145797705241986,
                -0.33857579929094433,
                0.9596012016268133,
                3.149734550297883
            ]
        },
        {
            "positions": [
                -2.788349917861673,
                -0.7433085687025982,
                1.0446313298201377,
                -0.26841880434311194,
                0.8288025277583398,
                3.1415017182631795
            ]
        },
        {
            "positions": [
                -2.7626868464382164,
                -0.7103438257426147,
                0.9434649543982891,
                -0.1982618093952795,
                0.6980038538898663,
                3.1332688862284765
            ]
        },
        {
            "positions": [
                -2.73702377501476,
                -0.6773790827826311,
                0.8422985789764408,
                -0.12810481444744715,
                0.5672051800213926,
                3.125036054193773
            ]
        },
        {
            "positions": [
                -2.7113607035913034,
                -0.6444143398226476,
                0.7411322035545925,
                -0.057947819499614785,
                0.43640650615291915,
                3.1168032221590702
            ]
        }
    ]
}