{
    "goal": {
        "global_pose": {
            "orientation": {
                "w": 0.7031023480610252,
                "x": -0.7110244013736278,
                "y": 0.0077485991402295624,
                "z": 0.005598929693374583
            },
            "position": {
                "x": -0.8841497679147869,
                "y": 0.44412534475326537,
                "z": 0.3711530566215515
            }
        },
        "name": "move_to_auspresseinheit_D"
    },
    "id": "LBKPIECE_move_to_auspresseinheit_D_127",
    "joint_names": [
        "shoulder_pan_joint",
        "shoulder_lift_joint",
        "elbow_joint",
        "wrist_1_joint",
        "wrist_2_joint",
        "wrist_3_joint"
    ],
    "metrics": {
        "cart_traj_len": 0.34294550477141383,
        "distance_elbow_joint": 0.6441286356222218,
        "distance_shoulder_lift_joint": 0.1246738177823139,
        "distance_shoulder_pan_joint": 0.1329075572028349,
        "distance_wrist_1_joint": 0.5428088276783614,
        "distance_wrist_2_joint": 1.4443878482770873,
        "distance_wrist_3_joint": 0.014327443925002292,
        "smoothness": 0.0,
        "time": 0.504494535,
        "traj_len": 1.7038879454024616,
        "weighted_distance": 2.2179011912827122
    },
    "planner": "LBKPIECE",
    "start": {
        "state": {
            "elbow_joint": -1.8275484843655228,
            "shoulder_lift_joint": -2.1267897864000416,
            "shoulder_pan_joint": -0.035127520176001514,
            "wrist_1_joint": -2.3477863256791385,
            "wrist_2_joint": -1.605890476484521,
            "wrist_3_joint": -3.0880375317375353
        }
    },
    "waypoints": [
        {
            "positions": [
                -0.035127520176001514,
                -2.1267897864000416,
                -1.8275484843655228,
                -2.3477863256791385,
                -1.605890476484521,
                -3.0880375317375353
            ]
        },
        {
            "positions": [
                -0.05174096482635587,
                -2.1423740136228306,
                -1.747032404912745,
                -2.4156374291389335,
                -1.4253419954498852,
                -3.08624660124691
            ]
        },
        {
            "positions": [
                -0.06835440947671023,
                -2.15795824084562,
                -1.6665163254599673,
                -2.483488532598729,
                -1.244793514415249,
                -3.0844556707562845
            ]
        },
        {
            "positions": [
                -0.0849678541270646,
                -2.1735424680684092,
                -1.5860002460071896,
                -2.551339636058524,
                -1.0642450333806133,
                -3.0826647402656593
            ]
        },
        {
            "positions": [
                -0.10158129877741896,
                -2.1891266952911987,
                -1.5054841665544119,
                -2.619190739518319,
                -0.8836965523459773,
                -3.080873809775034
            ]
        },
        {
            "positions": [
                -0.11819474342777332,
                -2.204710922513988,
                -1.4249680871016341,
                -2.687041842978114,
                -0.7031480713113414,
                -3.079082879284409
            ]
        },
        {
            "positions": [
                -0.1348081880781277,
                -2.220295149736777,
                -1.3444520076488564,
                -2.7548929464379093,
                -0.5225995902767056,
                -3.0772919487937838
            ]
        },
        {
            "positions": [
                -0.15142163272848205,
                -2.2358793769595664,
                -1.2639359281960787,
                -2.8227440498977048,
                -0.3420511092420695,
                -3.075501018303158
            ]
        },
        {
            "positions": [
                -0.1680350773788364,
                -2.2514636041823555,
                -1.183419848743301,
                -2.8905951533575,
                -0.1615026282074336,
                -3.073710087812533
            ]
        }
    ]
}