{
    "goal": {
        "global_pose": {
            "orientation": {
                "w": 0.005598929693374612,
                "x": 0.007748599140229565,
                "y": 0.7110244013736278,
                "z": -0.7031023480610252
            },
            "position": {
                "x": -0.8858502320852131,
                "y": -0.7141253447532654,
                "z": 0.3711530566215515
            }
        },
        "name": "move_to_auspresseinheit_C"
    },
    "id": "LBKPIECE_move_to_auspresseinheit_C_111",
    "joint_names": [
        "shoulder_pan_joint",
        "shoulder_lift_joint",
        "elbow_joint",
        "wrist_1_joint",
        "wrist_2_joint",
        "wrist_3_joint"
    ],
    "metrics": {
        "cart_traj_len": 0.49346483460863827,
        "distance_elbow_joint": 1.0174498134752814,
        "distance_shoulder_lift_joint": 0.3339120571127111,
        "distance_shoulder_pan_joint": 0.25552091898913387,
        "distance_wrist_1_joint": 0.7117200403575431,
        "distance_wrist_2_joint": 1.3180267039758573,
        "distance_wrist_3_joint": 0.0816863186191763,
        "smoothness": 9.689219149575433e-16,
        "time": 0.30865079,
        "traj_len": 1.9282935078793642,
        "weighted_distance": 2.431344326520095
    },
    "planner": "LBKPIECE",
    "start": {
        "state": {
            "elbow_joint": 1.7527959577730765,
            "shoulder_lift_joint": -0.9740617694224828,
            "shoulder_pan_joint": -2.967991417825869,
            "wrist_1_joint": -0.7595177689779385,
            "wrist_2_joint": 1.7443932448376545,
            "wrist_3_joint": 3.1991315425061013
        }
    },
    "waypoints": [
        {
            "positions": [
                -2.967991417825869,
                -0.9740617694224828,
                1.7527959577730765,
                -0.7595177689779385,
                1.7443932448376545,
                3.1991315425061013
            ]
        },
        {
            "positions": [
                -2.942439325926956,
                -0.9406705637112117,
                1.6510509764255483,
                -0.6883457649421842,
                1.6125905744400688,
                3.190962910644184
            ]
        },
        {
            "positions": [
                -2.9168872340280423,
                -0.9072793579999405,
                1.5493059950780201,
                -0.61717376090643,
                1.480787904042483,
                3.182794278782266
            ]
        },
        {
            "positions": [
                -2.8913351421291287,
                -0.8738881522886695,
                1.4475610137304922,
                -0.5460017568706756,
                1.3489852336448973,
                3.174625646920348
            ]
        },
        {
            "positions": [
                -2.8657830502302155,
                -0.8404969465773984,
                1.345816032382964,
                -0.4748297528349213,
                1.2171825632473117,
                3.166457015058431
            ]
        },
        {
            "positions": [
                -2.8402309583313023,
                -0.8071057408661273,
                1.2440710510354358,
                -0.403657748799167,
                1.0853798928497258,
                3.1582883831965134
            ]
        },
        {
            "positions": [
                -2.8146788664323887,
                -0.7737145351548561,
                1.1423260696879076,
                -0.3324857447634127,
                0.95357722245214,
                3.1501197513345955
            ]
        },
        {
            "positions": [
                -2.789126774533475,
                -0.740323329443585,
                1.0405810883403794,
                -0.2613137407276584,
                0.8217745520545544,
                3.141951119472678
            ]
        },
        {
            "positions": [
                -2.763574682634562,
                -0.7069321237323138,
                0.9388361069928514,
                -0.19014173669190404,
                0.6899718816569687,
                3.1337824876107603
            ]
        },
        {
            "positions": [
                -2.738022590735649,
                -0.6735409180210428,
                0.8370911256453232,
                -0.11896973265614974,
                0.5581692112593828,
                3.125613855748843
            ]
        },
        {
            "positions": [
                -2.712470498836735,
                -0.6401497123097717,
                0.735346144297795,
                -0.04779772862039548,
                0.42636654086179704,
                3.117445223886925
            ]
        }
    ]
}