{
    "goal": {
        "global_pose": {
            "orientation": {
                "w": 0.5084816262002911,
                "x": -0.4908360881923452,
                "y": 0.5182115481033761,
                "z": -0.48164630358495003
            },
            "position": {
                "x": 0.5540239810943604,
                "y": -0.46912469901144505,
                "z": 0.16403168439865112
            }
        },
        "name": "move_to_storage_B"
    },
    "id": "LBKPIECE_move_to_storage_B_43",
    "joint_names": [
        "shoulder_pan_joint",
        "shoulder_lift_joint",
        "elbow_joint",
        "wrist_1_joint",
        "wrist_2_joint",
        "wrist_3_joint"
    ],
    "metrics": {
        "cart_traj_len": 0.6932049541317234,
        "distance_elbow_joint": 0.48716600053776316,
        "distance_shoulder_lift_joint": 0.5105835274834347,
        "distance_shoulder_pan_joint": 0.3716983479638991,
        "distance_wrist_1_joint": 3.0875301529552512,
        "distance_wrist_2_joint": 2.718341186240029,
        "distance_wrist_3_joint": 3.14686316411141,
        "smoothness": 0.2863539150084125,
        "time": 0.580095108,
        "traj_len": 3.212815335386051,
        "weighted_distance": 4.735164204830692
    },
    "planner": "LBKPIECE",
    "start": {
        "state": {
            "elbow_joint": 1.6649325340416963,
            "shoulder_lift_joint": -0.6616387945129425,
            "shoulder_pan_joint": -0.9139837929255878,
            "wrist_1_joint": 2.1467571094334352,
            "wrist_2_joint": -2.234195976750228,
            "wrist_3_joint": 0.005470921511140723
        }
    },
    "waypoints": [
        {
            "positions": [
                -0.9139837929255878,
                -0.6616387945129425,
                1.6649325340416963,
                2.1467571094334352,
                -2.234195976750228,
                0.005470921511140723
            ]
        },
        {
            "positions": [
                -0.8183009844055326,
                -0.6358869218010968,
                1.5975221887016735,
                2.194624584064395,
                -2.079677980580933,
                0.0018463836626700417
            ]
        },
        {
            "positions": [
                -0.8289169666918342,
                -0.6545342931384657,
                1.6136666369785098,
                2.0777144810519226,
                -1.9810693963474433,
                -0.11904740965513531
            ]
        },
        {
            "positions": [
                -0.8395329489781359,
                -0.6731816644758345,
                1.6298110852553458,
                1.9608043780394497,
                -1.8824608121139537,
                -0.23994120297294066
            ]
        },
        {
            "positions": [
                -0.8501489312644376,
                -0.6918290358132033,
                1.645955533532182,
                1.843894275026977,
                -1.7838522278804638,
                -0.360834996290746
            ]
        },
        {
            "positions": [
                -0.8607649135507394,
                -0.7104764071505721,
                1.662099981809018,
                1.7269841720145043,
                -1.6852436436469742,
                -0.48172878960855137
            ]
        },
        {
            "positions": [
                -0.871380895837041,
                -0.729123778487941,
                1.6782444300858543,
                1.6100740690020314,
                -1.5866350594134844,
                -0.6026225829263567
            ]
        },
        {
            "positions": [
                -0.8819968781233427,
                -0.7477711498253097,
                1.6943888783626906,
                1.4931639659895586,
                -1.4880264751799945,
                -0.723516376244162
            ]
        },
        {
            "positions": [
                -0.8926128604096444,
                -0.7664185211626785,
                1.7105333266395266,
                1.376253862977086,
                -1.389417890946505,
                -0.8444101695619673
            ]
        },
        {
            "positions": [
                -0.903228842695946,
                -0.7850658925000473,
                1.7266777749163629,
                1.2593437599646133,
                -1.290809306713015,
                -0.9653039628797727
            ]
        },
        {
            "positions": [
                -0.9138448249822477,
                -0.8037132638374161,
                1.742822223193199,
                1.1424336569521405,
                -1.1922007224795252,
                -1.086197756197578
            ]
        },
        {
            "positions": [
                -0.9244608072685494,
                -0.822360635174785,
                1.7589666714700352,
                1.0255235539396677,
                -1.0935921382460356,
                -1.2070915495153836
            ]
        },
        {
            "positions": [
                -0.9350767895548511,
                -0.8410080065121538,
                1.7751111197468714,
                0.908613450927195,
                -0.9949835540125458,
                -1.3279853428331887
            ]
        },
        {
            "positions": [
                -0.9456927718411527,
                -0.8596553778495226,
                1.7912555680237074,
                0.7917033479147222,
                -0.896374969779056,
                -1.448879136150994
            ]
        },
        {
            "positions": [
                -0.9563087541274544,
                -0.8783027491868913,
                1.8074000163005437,
                0.6747932449022496,
                -0.7977663855455663,
                -1.5697729294687994
            ]
        },
        {
            "positions": [
                -0.9669247364137561,
                -0.8969501205242603,
                1.82354446457738,
                0.557883141889777,
                -0.6991578013120767,
                -1.6906667227866048
            ]
        },
        {
            "positions": [
                -0.9775407187000578,
                -0.915597491861629,
                1.839688912854216,
                0.4409730388773043,
                -0.6005492170785869,
                -1.81156051610441
            ]
        },
        {
            "positions": [
                -0.9881567009863595,
                -0.9342448631989979,
                1.8558333611310522,
                0.32406293586483126,
                -0.501940632845097,
                -1.9324543094222155
            ]
        },
        {
            "positions": [
                -0.9987726832726612,
                -0.9528922345363666,
                1.8719778094078885,
                0.20715283285235864,
                -0.4033320486116072,
                -2.0533481027400207
            ]
        },
        {
            "positions": [
                -1.009388665558963,
                -0.9715396058737354,
                1.8881222576847245,
                0.0902427298398858,
                -0.3047234643781176,
                -2.174241896057826
            ]
        },
        {
            "positions": [
                -1.0200046478452647,
                -0.9901869772111043,
                1.9042667059615606,
                -0.026667373172586828,
                -0.20611488014462798,
                -2.2951356893756314
            ]
        },
        {
            "positions": [
                -1.0306206301315664,
                -1.008834348548473,
                1.9204111542383968,
                -0.1435774761850599,
                -0.10750629591113792,
                -2.416029482693437
            ]
        },
        {
            "positions": [
                -1.041236612417868,
                -1.027481719885842,
                1.936555602515233,
                -0.2604875791975325,
                -0.008897711677648079,
                -2.536923276011242
            ]
        },
        {
            "positions": [
                -1.0518525947041697,
                -1.0461290912232106,
                1.9527000507920693,
                -0.37739768221000514,
                0.08971087255584154,
                -2.6578170693290475
            ]
        },
        {
            "positions": [
                -1.0624685769904714,
                -1.0647764625605793,
                1.9688444990689054,
                -0.49430778522247776,
                0.18831945678933115,
                -2.778710862646853
            ]
        },
        {
            "positions": [
                -1.073084559276773,
                -1.0834238338979483,
                1.9849889473457416,
                -0.6112178882349508,
                0.2869280410228212,
                -2.899604655964658
            ]
        },
        {
            "positions": [
                -1.0837005415630747,
                -1.1020712052353172,
                2.0011333956225776,
                -0.7281279912474234,
                0.3855366252563108,
                -3.0204984492824636
            ]
        },
        {
            "positions": [
                -1.0943165238493764,
                -1.120718576572686,
                2.017277843899414,
                -0.8450380942598961,
                0.48414520948980044,
                -3.141392242600269
            ]
        }
    ]
}