{
    "goal": {
        "global_pose": {
            "orientation": {
                "w": -0.4816463035849501,
                "x": 0.5182115481033762,
                "y": 0.4908360881923453,
                "z": -0.5084816262002911
            },
            "position": {
                "x": -0.8240239810943604,
                "y": 0.19912469901144506,
                "z": 0.16403168439865112
            }
        },
        "name": "move_to_storage_D"
    },
    "id": "LBKPIECE_move_to_storage_D_148",
    "joint_names": [
        "shoulder_pan_joint",
        "shoulder_lift_joint",
        "elbow_joint",
        "wrist_1_joint",
        "wrist_2_joint",
        "wrist_3_joint"
    ],
    "metrics": {
        "cart_traj_len": 3.855900992907442,
        "distance_elbow_joint": 4.210495800605216,
        "distance_shoulder_lift_joint": 1.2643028200688573,
        "distance_shoulder_pan_joint": 2.9737201469218806,
        "distance_wrist_1_joint": 2.551542088320714,
        "distance_wrist_2_joint": 0.9481329786157658,
        "distance_wrist_3_joint": 3.1385864122729084,
        "smoothness": 0.12137437831303455,
        "time": 0.710192101,
        "traj_len": 3.8841704708734586,
        "weighted_distance": 4.986344165647577
    },
    "planner": "LBKPIECE",
    "start": {
        "state": {
            "elbow_joint": -2.384821990628643,
            "shoulder_lift_joint": -2.278805467437664,
            "shoulder_pan_joint": -0.18546946439364564,
            "wrist_1_joint": 1.4845938187801415,
            "wrist_2_joint": 0.178987772454074,
            "wrist_3_joint": 0.03710569632802521
        }
    },
    "waypoints": [
        {
            "positions": [
                -0.18546946439364564,
                -2.278805467437664,
                -2.384821990628643,
                1.4845938187801415,
                0.178987772454074,
                0.03710569632802521
            ]
        },
        {
            "positions": [
                -0.14957514011344045,
                -2.257036183284416,
                -2.370851620902884,
                1.4513335047610434,
                0.1423308151538071,
                0.07384122197449489
            ]
        },
        {
            "positions": [
                -0.06552065482683675,
                -2.2207737125482705,
                -2.250556203149061,
                1.3814073639870619,
                0.14953603202269228,
                0.14578028983349178
            ]
        },
        {
            "positions": [
                0.018533830459766948,
                -2.184511241812125,
                -2.1302607853952384,
                1.3114812232130806,
                0.15674124889157745,
                0.21771935769248868
            ]
        },
        {
            "positions": [
                0.10258831574637065,
                -2.1482487710759797,
                -2.0099653676414153,
                1.241555082439099,
                0.16394646576046265,
                0.2896584255514856
            ]
        },
        {
            "positions": [
                0.18664280103297434,
                -2.1119863003398347,
                -1.8896699498875926,
                1.1716289416651176,
                0.17115168262934782,
                0.3615974934104825
            ]
        },
        {
            "positions": [
                0.270697286319578,
                -2.0757238296036893,
                -1.76937453213377,
                1.1017028008911363,
                0.178356899498233,
                0.43353656126947937
            ]
        },
        {
            "positions": [
                0.35475177160618176,
                -2.039461358867544,
                -1.6490791143799473,
                1.0317766601171547,
                0.18556211636711817,
                0.5054756291284763
            ]
        },
        {
            "positions": [
                0.4388062568927854,
                -2.0031988881313985,
                -1.5287836966261246,
                0.9618505193431733,
                0.19276733323600334,
                0.5774146969874732
            ]
        },
        {
            "positions": [
                0.5228607421793892,
                -1.966936417395253,
                -1.4084882788723017,
                0.8919243785691919,
                0.1999725501048885,
                0.64935376484647
            ]
        },
        {
            "positions": [
                0.6069152274659928,
                -1.9306739466591079,
                -1.288192861118479,
                0.8219982377952104,
                0.2071777669737737,
                0.7212928327054668
            ]
        },
        {
            "positions": [
                0.6909697127525966,
                -1.8944114759229624,
                -1.167897443364656,
                0.752072097021229,
                0.2143829838426589,
                0.7932319005644639
            ]
        },
        {
            "positions": [
                0.7750241980392003,
                -1.8581490051868172,
                -1.0476020256108334,
                0.6821459562472475,
                0.22158820071154406,
                0.8651709684234608
            ]
        },
        {
            "positions": [
                0.859078683325804,
                -1.8218865344506718,
                -0.9273066078570105,
                0.6122198154732661,
                0.22879341758042926,
                0.9371100362824576
            ]
        },
        {
            "positions": [
                0.9431331686124076,
                -1.7856240637145264,
                -0.807011190103188,
                0.5422936746992848,
                0.2359986344493144,
                1.0090491041414544
            ]
        },
        {
            "positions": [
                1.0271876538990112,
                -1.749361592978381,
                -0.6867157723493651,
                0.4723675339253033,
                0.2432038513181996,
                1.0809881720004513
            ]
        },
        {
            "positions": [
                1.1112421391856149,
                -1.7130991222422358,
                -0.5664203545955424,
                0.40244139315132177,
                0.25040906818708475,
                1.1529272398594481
            ]
        },
        {
            "positions": [
                1.1952966244722187,
                -1.6768366515060904,
                -0.4461249368417195,
                0.3325152523773405,
                0.25761428505596995,
                1.2248663077184452
            ]
        },
        {
            "positions": [
                1.2793511097588224,
                -1.6405741807699452,
                -0.3258295190878968,
                0.26258911160335896,
                0.26481950192485515,
                1.296805375577442
            ]
        },
        {
            "positions": [
                1.363405595045426,
                -1.6043117100337998,
                -0.20553410133407413,
                0.19266297082937744,
                0.27202471879374035,
                1.3687444434364389
            ]
        },
        {
            "positions": [
                1.4474600803320299,
                -1.5680492392976544,
                -0.08523868358025144,
                0.12273683005539615,
                0.2792299356626255,
                1.440683511295436
            ]
        },
        {
            "positions": [
                1.5315145656186335,
                -1.531786768561509,
                0.03505673417357169,
                0.052810689281414636,
                0.28643515253151064,
                1.5126225791544328
            ]
        },
        {
            "positions": [
                1.6155690509052372,
                -1.4955242978253636,
                0.15535215192739438,
                -0.01711545149256688,
                0.29364036940039584,
                1.5845616470134296
            ]
        },
        {
            "positions": [
                1.699623536191841,
                -1.4592618270892184,
                0.27564756968121706,
                -0.0870415922665484,
                0.30084558626928104,
                1.6565007148724267
            ]
        },
        {
            "positions": [
                1.7836780214784447,
                -1.422999356353073,
                0.39594298743503975,
                -0.1569677330405297,
                0.30805080313816624,
                1.7284397827314235
            ]
        },
        {
            "positions": [
                1.8677325067650483,
                -1.3867368856169278,
                0.5162384051888629,
                -0.2268938738145112,
                0.3152560200070514,
                1.8003788505904204
            ]
        },
        {
            "positions": [
                1.9517869920516522,
                -1.3504744148807823,
                0.6365338229426856,
                -0.2968200145884927,
                0.3224612368759366,
                1.8723179184494172
            ]
        },
        {
            "positions": [
                2.0358414773382556,
                -1.314211944144637,
                0.7568292406965078,
                -0.3667461553624738,
                0.32966645374482173,
                1.944256986308414
            ]
        },
        {
            "positions": [
                2.119895962624859,
                -1.2779494734084917,
                0.8771246584503305,
                -0.4366722961364553,
                0.33687167061370693,
                2.016196054167411
            ]
        },
        {
            "positions": [
                2.203950447911463,
                -1.2416870026723463,
                0.9974200762041536,
                -0.5065984369104368,
                0.3440768874825921,
                2.088135122026408
            ]
        },
        {
            "positions": [
                2.2880049331980667,
                -1.2054245319362011,
                1.1177154939579763,
                -0.5765245776844183,
                0.3512821043514773,
                2.160074189885405
            ]
        },
        {
            "positions": [
                2.37205941848467,
                -1.1691620612000557,
                1.238010911711799,
                -0.6464507184583999,
                0.3584873212203624,
                2.2320132577444016
            ]
        },
        {
            "positions": [
                2.456113903771274,
                -1.1328995904639103,
                1.3583063294656217,
                -0.7163768592323809,
                0.3656925380892476,
                2.3039523256033987
            ]
        },
        {
            "positions": [
                2.540168389057878,
                -1.096637119727765,
                1.4786017472194448,
                -0.7863030000063624,
                0.3728977549581328,
                2.3758913934623958
            ]
        },
        {
            "positions": [
                2.6242228743444813,
                -1.0603746489916197,
                1.5988971649732675,
                -0.856229140780344,
                0.380102971827018,
                2.4478304613213924
            ]
        },
        {
            "positions": [
                2.708277359631085,
                -1.0241121782554743,
                1.7191925827270904,
                -0.9261552815543255,
                0.38730818869590317,
                2.5197695291803894
            ]
        },
        {
            "positions": [
                2.6922826950516554,
                -1.0221902720781408,
                1.7404888281769866,
                -0.8979966839570761,
                0.5206079182505837,
                2.6509540450644984
            ]
        },
        {
            "positions": [
                2.676288030472225,
                -1.0202683659008072,
                1.761785073626883,
                -0.8698380863598266,
                0.6539076478052643,
                2.782138560948607
            ]
        },
        {
            "positions": [
                2.6602933658927954,
                -1.0183464597234737,
                1.7830813190767791,
                -0.8416794887625773,
                0.787207377359945,
                2.913323076832716
            ]
        },
        {
            "positions": [
                2.644298701313365,
                -1.01642455354614,
                1.8043775645266755,
                -0.8135208911653278,
                0.9205071069146256,
                3.0445075927168244
            ]
        },
        {
            "positions": [
                2.6283040367339354,
                -1.0145026473688066,
                1.8256738099765717,
                -0.7853622935680784,
                1.053806836469306,
                3.1756921086009333
            ]
        }
    ]
}