{
    "goal": {
        "global_pose": {
            "orientation": {
                "w": 0.7047431468963623,
                "x": -0.7094548344612122,
                "y": 0.0024358443915843964,
                "z": -0.0022348060738295317
            },
            "position": {
                "x": 0.6094750761985779,
                "y": 0.3671506643295288,
                "z": 0.19426114857196808
            }
        },
        "name": "move_to_magneteinheit_A"
    },
    "id": "LBKPIECE_move_to_magneteinheit_A_129",
    "joint_names": [
        "shoulder_pan_joint",
        "shoulder_lift_joint",
        "elbow_joint",
        "wrist_1_joint",
        "wrist_2_joint",
        "wrist_3_joint"
    ],
    "metrics": {
        "cart_traj_len": 1.5928087402835565,
        "distance_elbow_joint": 3.52586671798832,
        "distance_shoulder_lift_joint": 1.1346063645193938,
        "distance_shoulder_pan_joint": 1.2410749765400568,
        "distance_wrist_1_joint": 3.8343518639211447,
        "distance_wrist_2_joint": 1.6952545230780418,
        "distance_wrist_3_joint": 5.0467586809687885,
        "smoothness": 2.0655312249604512e-16,
        "time": 0.43249105499999996,
        "traj_len": 4.0592995857679375,
        "weighted_distance": 5.665777693834493
    },
    "planner": "LBKPIECE",
    "start": {
        "state": {
            "elbow_joint": -1.5739458827952972,
            "shoulder_lift_joint": 0.006533473998580023,
            "shoulder_pan_joint": -1.1188671628667068,
            "wrist_1_joint": 3.138208179676308,
            "wrist_2_joint": -1.5706037135050406,
            "wrist_3_joint": -2.0226958329764257
        }
    },
    "waypoints": [
        {
            "positions": [
                -1.1188671628667068,
                0.006533473998580023,
                -1.5739458827952972,
                3.138208179676308,
                -1.5706037135050406,
                -2.0226958329764257
            ]
        },
        {
            "positions": [
                -1.0893177586633722,
                -0.020480963251881732,
                -1.4899966752241467,
                3.0469140876781857,
                -1.530240510574611,
                -1.9025349120009785
            ]
        },
        {
            "positions": [
                -1.0597683544600374,
                -0.047495400502343486,
                -1.4060474676529964,
                2.9556199956800633,
                -1.4898773076441814,
                -1.7823739910255312
            ]
        },
        {
            "positions": [
                -1.0302189502567027,
                -0.07450983775280524,
                -1.3220982600818458,
                2.864325903681941,
                -1.4495141047137519,
                -1.6622130700500837
            ]
        },
        {
            "positions": [
                -1.000669546053368,
                -0.101524275003267,
                -1.2381490525106953,
                2.7730318116838184,
                -1.4091509017833224,
                -1.5420521490746364
            ]
        },
        {
            "positions": [
                -0.9711201418500335,
                -0.12853871225372873,
                -1.1541998449395448,
                2.681737719685696,
                -1.3687876988528926,
                -1.4218912280991889
            ]
        },
        {
            "positions": [
                -0.9415707376466987,
                -0.1555531495041905,
                -1.0702506373683944,
                2.590443627687573,
                -1.3284244959224631,
                -1.3017303071237416
            ]
        },
        {
            "positions": [
                -0.912021333443364,
                -0.18256758675465226,
                -0.9863014297972439,
                2.4991495356894506,
                -1.2880612929920336,
                -1.1815693861482943
            ]
        },
        {
            "positions": [
                -0.8824719292400294,
                -0.209582024005114,
                -0.9023522222260935,
                2.407855443691328,
                -1.2476980900616041,
                -1.061408465172847
            ]
        },
        {
            "positions": [
                -0.8529225250366947,
                -0.23659646125557576,
                -0.818403014654943,
                2.3165613516932058,
                -1.2073348871311744,
                -0.9412475441973998
            ]
        },
        {
            "positions": [
                -0.82337312083336,
                -0.2636108985060375,
                -0.7344538070837925,
                2.2252672596950833,
                -1.166971684200745,
                -0.8210866232219522
            ]
        },
        {
            "positions": [
                -0.7938237166300253,
                -0.29062533575649935,
                -0.650504599512642,
                2.1339731676969604,
                -1.1266084812703152,
                -0.700925702246505
            ]
        },
        {
            "positions": [
                -0.7642743124266906,
                -0.31763977300696106,
                -0.5665553919414916,
                2.042679075698838,
                -1.0862452783398857,
                -0.5807647812710577
            ]
        },
        {
            "positions": [
                -0.7347249082233559,
                -0.3446542102574228,
                -0.4826061843703411,
                1.9513849837007158,
                -1.0458820754094562,
                -0.4606038602956102
            ]
        },
        {
            "positions": [
                -0.7051755040200213,
                -0.3716686475078846,
                -0.39865697679919054,
                1.8600908917025933,
                -1.0055188724790267,
                -0.3404429393201629
            ]
        },
        {
            "positions": [
                -0.6756260998166865,
                -0.39868308475834635,
                -0.31470776922804,
                1.7687967997044707,
                -0.9651556695485971,
                -0.2202820183447156
            ]
        },
        {
            "positions": [
                -0.6460766956133519,
                -0.42569752200880806,
                -0.23075856165688968,
                1.6775027077063485,
                -0.9247924666181675,
                -0.10012109736926833
            ]
        },
        {
            "positions": [
                -0.6165272914100172,
                -0.4527119592592699,
                -0.14680935408573914,
                1.5862086157082258,
                -0.8844292636877379,
                0.020039823606178953
            ]
        },
        {
            "positions": [
                -0.5869778872066825,
                -0.4797263965097316,
                -0.06286014651458882,
                1.4949145237101034,
                -0.8440660607573084,
                0.14020074458162624
            ]
        },
        {
            "positions": [
                -0.5574284830033478,
                -0.5067408337601933,
                0.021089061056561942,
                1.4036204317119807,
                -0.8037028578268788,
                0.26036166555707396
            ]
        },
        {
            "positions": [
                -0.5278790788000132,
                -0.533755271010655,
                0.10503826862771226,
                1.3123263397138585,
                -0.7633396548964493,
                0.38052258653252125
            ]
        },
        {
            "positions": [
                -0.49832967459667843,
                -0.5607697082611168,
                0.1889874761988628,
                1.2210322477157358,
                -0.7229764519660197,
                0.5006835075079685
            ]
        },
        {
            "positions": [
                -0.4687802703933437,
                -0.5877841455115786,
                0.27293668377001334,
                1.1297381557176132,
                -0.6826132490355901,
                0.6208444284834158
            ]
        },
        {
            "positions": [
                -0.43923086619000895,
                -0.6147985827620404,
                0.3568858913411639,
                1.0384440637194907,
                -0.6422500461051605,
                0.7410053494588635
            ]
        },
        {
            "positions": [
                -0.40968146198667443,
                -0.6418130200125021,
                0.440835098912314,
                0.9471499717213683,
                -0.6018868431747311,
                0.8611662704343104
            ]
        },
        {
            "positions": [
                -0.3801320577833397,
                -0.6688274572629639,
                0.5247843064834645,
                0.8558558797232458,
                -0.5615236402443013,
                0.9813271914097581
            ]
        },
        {
            "positions": [
                -0.35058265358000495,
                -0.6958418945134256,
                0.6087335140546151,
                0.7645617877251234,
                -0.5211604373138718,
                1.1014881123852054
            ]
        },
        {
            "positions": [
                -0.3210332493766702,
                -0.7228563317638874,
                0.692682721625766,
                0.6732676957270005,
                -0.48079723438344213,
                1.2216490333606527
            ]
        },
        {
            "positions": [
                -0.2914838451733357,
                -0.7498707690143491,
                0.7766319291969161,
                0.5819736037288785,
                -0.44043403145301285,
                1.3418099543361
            ]
        },
        {
            "positions": [
                -0.26193444097000096,
                -0.7768852062648108,
                0.8605811367680667,
                0.4906795117307561,
                -0.40007082852258313,
                1.4619708753115472
            ]
        },
        {
            "positions": [
                -0.23238503676666622,
                -0.8038996435152727,
                0.9445303443392172,
                0.3993854197326332,
                -0.35970762559215363,
                1.5821317962869945
            ]
        },
        {
            "positions": [
                -0.20283563256333148,
                -0.8309140807657345,
                1.0284795519103678,
                0.30809132773451076,
                -0.3193444226617239,
                1.7022927172624422
            ]
        },
        {
            "positions": [
                -0.17328622835999696,
                -0.8579285180161961,
                1.1124287594815179,
                0.21679723573638876,
                -0.2789812197312944,
                1.822453638237889
            ]
        },
        {
            "positions": [
                -0.14373682415666222,
                -0.8849429552666579,
                1.1963779670526684,
                0.12550314373826588,
                -0.23861801680086492,
                1.9426145592133368
            ]
        },
        {
            "positions": [
                -0.11418741995332748,
                -0.9119573925171197,
                1.280327174623819,
                0.03420905174014344,
                -0.1982548138704352,
                2.0627754801887836
            ]
        },
        {
            "positions": [
                -0.08463801574999286,
                -0.9389718297675814,
                1.3642763821949695,
                -0.057085040257979,
                -0.1578916109400057,
                2.182936401164232
            ]
        },
        {
            "positions": [
                -0.05508861154665823,
                -0.9659862670180431,
                1.4482255897661196,
                -0.14837913225610144,
                -0.1175284080095762,
                2.303097322139678
            ]
        },
        {
            "positions": [
                -0.025539207343323378,
                -0.993000704268505,
                1.5321747973372706,
                -0.23967322425422388,
                -0.0771652050791467,
                2.4232582431151264
            ]
        },
        {
            "positions": [
                0.00401019686001125,
                -1.0200151415189667,
                1.6161240049084211,
                -0.33096731625234677,
                -0.036802002148716983,
                2.5434191640905737
            ]
        },
        {
            "positions": [
                0.03355960106334588,
                -1.0470295787694286,
                1.7000732124795717,
                -0.4222614082504692,
                0.0035612007817125146,
                2.663580085066021
            ]
        },
        {
            "positions": [
                0.0631090052666805,
                -1.07404401601989,
                1.7840224200507218,
                -0.5135555002485912,
                0.04392440371214201,
                2.7837410060414682
            ]
        },
        {
            "positions": [
                0.09265840947001536,
                -1.101058453270352,
                1.8679716276218723,
                -0.6048495922467141,
                0.08428760664257151,
                2.9039019270169155
            ]
        },
        {
            "positions": [
                0.12220781367334994,
                -1.1280728905208137,
                1.951920835193023,
                -0.6961436842448365,
                0.12465080957300119,
                3.024062847992363
            ]
        }
    ]
}