{
    "goal": {
        "global_pose": {
            "orientation": {
                "w": 0.7031023502349854,
                "x": -0.7110244035720825,
                "y": 0.007748599164187908,
                "z": 0.005598929710686207
            },
            "position": {
                "x": 0.11585023208521307,
                "y": 0.44412534475326537,
                "z": 0.3711530566215515
            }
        },
        "name": "move_to_auspresseinheit_A"
    },
    "id": "LBKPIECE_move_to_auspresseinheit_A_64",
    "joint_names": [
        "shoulder_pan_joint",
        "shoulder_lift_joint",
        "elbow_joint",
        "wrist_1_joint",
        "wrist_2_joint",
        "wrist_3_joint"
    ],
    "metrics": {
        "cart_traj_len": 0.7739609444841198,
        "distance_elbow_joint": 0.3933152787268921,
        "distance_shoulder_lift_joint": 0.530815562788781,
        "distance_shoulder_pan_joint": 1.043327333386547,
        "distance_wrist_1_joint": 0.8780483879737043,
        "distance_wrist_2_joint": 0.9807967091032782,
        "distance_wrist_3_joint": 0.8484195754968149,
        "smoothness": 1.231532226958055,
        "time": 0.186498831,
        "traj_len": 2.162110738948405,
        "weighted_distance": 2.868868608972295
    },
    "planner": "LBKPIECE",
    "start": {
        "state": {
            "elbow_joint": 2.4225746994637096,
            "shoulder_lift_joint": -1.373653595662188,
            "shoulder_pan_joint": -0.3378633848294565,
            "wrist_1_joint": -1.0288595594406726,
            "wrist_2_joint": 1.2330228066703421,
            "wrist_3_joint": 3.189163495502006
        }
    },
    "waypoints": [
        {
            "positions": [
                -0.3378633848294565,
                -1.373653595662188,
                2.4225746994637096,
                -1.0288595594406726,
                1.2330228066703421,
                3.189163495502006
            ]
        },
        {
            "positions": [
                -0.27585556597614697,
                -1.4389193218456022,
                2.3960488282175345,
                -0.9385301072194799,
                1.1384012974316684,
                3.132730881836278
            ]
        },
        {
            "positions": [
                -0.21384774712283747,
                -1.5041850480290164,
                2.369522956971359,
                -0.8482006549982872,
                1.0437797881929949,
                3.0762982681705497
            ]
        },
        {
            "positions": [
                -0.15183992826952797,
                -1.5694507742124306,
                2.342997085725184,
                -0.7578712027770944,
                0.9491582789543211,
                3.0198656545048217
            ]
        },
        {
            "positions": [
                -0.08983210941621844,
                -1.6347165003958448,
                2.3164712144790087,
                -0.6675417505559018,
                0.8545367697156475,
                2.9634330408390936
            ]
        },
        {
            "positions": [
                -0.027824290562908915,
                -1.699982226579259,
                2.2899453432328336,
                -0.577212298334709,
                0.7599152604769739,
                2.9070004271733656
            ]
        },
        {
            "positions": [
                0.034183528290400556,
                -1.7652479527626732,
                2.2634194719866585,
                -0.4868828461135163,
                0.6652937512383001,
                2.8505678135076375
            ]
        },
        {
            "positions": [
                0.09619134714371008,
                -1.8305136789460874,
                2.236893600740483,
                -0.3965533938923236,
                0.5706722419996265,
                2.7941351998419095
            ]
        },
        {
            "positions": [
                0.1581991659970196,
                -1.8957794051295016,
                2.210367729494308,
                -0.3062239416711309,
                0.4760507327609529,
                2.7377025861761815
            ]
        },
        {
            "positions": [
                0.29501536163703734,
                -1.8979518434598686,
                2.2556448066836805,
                -0.34507713422217146,
                0.5320068915594252,
                2.836942252718929
            ]
        },
        {
            "positions": [
                0.4318315572770551,
                -1.9001242817902353,
                2.3009218838730527,
                -0.3839303267732121,
                0.5879630503578974,
                2.936181919261677
            ]
        },
        {
            "positions": [
                0.5686477529170728,
                -1.902296720120602,
                2.3461989610624254,
                -0.42278351932425273,
                0.6439192091563696,
                3.0354215858044244
            ]
        },
        {
            "positions": [
                0.7054639485570905,
                -1.904469158450969,
                2.391476038251798,
                -0.4616367118752933,
                0.6998753679548418,
                3.134661252347172
            ]
        }
    ]
}