{
    "goal": {
        "global_pose": {
            "orientation": {
                "w": -0.4816463035849501,
                "x": 0.5182115481033762,
                "y": 0.4908360881923453,
                "z": -0.5084816262002911
            },
            "position": {
                "x": -0.8240239810943604,
                "y": -0.300875300988555,
                "z": 0.16403168439865112
            }
        },
        "name": "move_to_storage_C"
    },
    "id": "LBKPIECE_move_to_storage_C_29",
    "joint_names": [
        "shoulder_pan_joint",
        "shoulder_lift_joint",
        "elbow_joint",
        "wrist_1_joint",
        "wrist_2_joint",
        "wrist_3_joint"
    ],
    "metrics": {
        "cart_traj_len": 0.5756660419065971,
        "distance_elbow_joint": 0.25643276521132163,
        "distance_shoulder_lift_joint": 0.18883596990099794,
        "distance_shoulder_pan_joint": 0.4946563387045164,
        "distance_wrist_1_joint": 0.07735229889659523,
        "distance_wrist_2_joint": 1.0628192734081472,
        "distance_wrist_3_joint": 0.06519511319392679,
        "smoothness": 5.075305295617109e-16,
        "time": 0.448254121,
        "traj_len": 1.4646814531888854,
        "weighted_distance": 1.8482027913646546
    },
    "planner": "LBKPIECE",
    "start": {
        "state": {
            "elbow_joint": 2.0108683149792914,
            "shoulder_lift_joint": -1.1634956873317392,
            "shoulder_pan_joint": -2.4736205022346,
            "wrist_1_joint": -0.8367026793690192,
            "wrist_2_joint": 0.6746043897045053,
            "wrist_3_joint": 3.133522094754363
        }
    },
    "waypoints": [
        {
            "positions": [
                -2.4736205022346,
                -1.1634956873317392,
                2.0108683149792914,
                -0.8367026793690192,
                0.6746043897045053,
                3.133522094754363
            ]
        },
        {
            "positions": [
                -2.5560632253520197,
                -1.1320230256815729,
                1.9681295207774046,
                -0.82381062955292,
                0.8517409352725298,
                3.144387946953351
            ]
        },
        {
            "positions": [
                -2.638505948469439,
                -1.1005503640314065,
                1.9253907265755175,
                -0.8109185797368208,
                1.0288774808405543,
                3.1552537991523386
            ]
        },
        {
            "positions": [
                -2.720948671586858,
                -1.0690777023812403,
                1.8826519323736306,
                -0.7980265299207217,
                1.206014026408579,
                3.166119651351327
            ]
        },
        {
            "positions": [
                -2.8033913947042777,
                -1.037605040731074,
                1.8399131381717437,
                -0.7851344801046224,
                1.3831505719766035,
                3.1769855035503145
            ]
        },
        {
            "positions": [
                -2.8858341178216973,
                -1.0061323790809076,
                1.7971743439698566,
                -0.7722424302885231,
                1.560287117544628,
                3.1878513557493022
            ]
        },
        {
            "positions": [
                -2.9682768409391165,
                -0.9746597174307413,
                1.7544355497679698,
                -0.759350380472424,
                1.7374236631126525,
                3.19871720794829
            ]
        }
    ]
}