{
    "goal": {
        "global_pose": {
            "orientation": {
                "w": -0.00223480608172531,
                "x": 0.0024358444001904467,
                "y": 0.7094548369677653,
                "z": -0.704743149386269
            },
            "position": {
                "x": -0.37947507619857795,
                "y": -0.6371506643295288,
                "z": 0.19426114857196808
            }
        },
        "name": "move_to_magneteinheit_C"
    },
    "id": "LBKPIECE_move_to_magneteinheit_C_93",
    "joint_names": [
        "shoulder_pan_joint",
        "shoulder_lift_joint",
        "elbow_joint",
        "wrist_1_joint",
        "wrist_2_joint",
        "wrist_3_joint"
    ],
    "metrics": {
        "cart_traj_len": 2.170746350189706,
        "distance_elbow_joint": 1.4028911123119403,
        "distance_shoulder_lift_joint": 0.6107898531107909,
        "distance_shoulder_pan_joint": 2.231950615494577,
        "distance_wrist_1_joint": 0.6316846442246917,
        "distance_wrist_2_joint": 1.4821058206518134,
        "distance_wrist_3_joint": 2.0720428812749305,
        "smoothness": 1.426908205152122,
        "time": 0.280506924,
        "traj_len": 2.9036984910745716,
        "weighted_distance": 3.832667629014433
    },
    "planner": "LBKPIECE",
    "start": {
        "state": {
            "elbow_joint": 1.9565354006593851,
            "shoulder_lift_joint": -1.4165861576512813,
            "shoulder_pan_joint": -1.6717766223278752,
            "wrist_1_joint": -0.528663328821883,
            "wrist_2_joint": 1.472756589259273,
            "wrist_3_joint": 3.159348288315503
        }
    },
    "waypoints": [
        {
            "positions": [
                -1.6717766223278752,
                -1.4165861576512813,
                1.9565354006593851,
                -0.528663328821883,
                1.472756589259273,
                3.159348288315503
            ]
        },
        {
            "positions": [
                -1.6231184207907345,
                -1.461372827006563,
                1.9728975557688746,
                -0.48557339166461533,
                1.557878438855726,
                3.05158468433694
            ]
        },
        {
            "positions": [
                -1.5744602192535937,
                -1.5061594963618448,
                1.9892597108783643,
                -0.44248345450734766,
                1.6430002884521788,
                2.9438210803583775
            ]
        },
        {
            "positions": [
                -1.525802017716453,
                -1.5509461657171264,
                2.0056218659878535,
                -0.39939351735008,
                1.7281221380486316,
                2.8360574763798145
            ]
        },
        {
            "positions": [
                -1.4771438161793125,
                -1.595732835072408,
                2.021984021097343,
                -0.3563035801928123,
                1.8132439876450845,
                2.7282938724012515
            ]
        },
        {
            "positions": [
                -1.6288737713632568,
                -1.595510239343364,
                1.9543371675528889,
                -0.3746433490154869,
                1.7290926141331295,
                2.6657182774514236
            ]
        },
        {
            "positions": [
                -1.780603726547201,
                -1.5952876436143197,
                1.8866903140084346,
                -0.39298311783816153,
                1.6449412406211745,
                2.6031426825015953
            ]
        },
        {
            "positions": [
                -1.9323336817311452,
                -1.5950650478852757,
                1.8190434604639802,
                -0.4113228866608362,
                1.5607898671092195,
                2.5405670875517674
            ]
        },
        {
            "positions": [
                -2.0840636369150896,
                -1.5948424521562314,
                1.751396606919526,
                -0.42966265548351085,
                1.4766384935972645,
                2.477991492601939
            ]
        },
        {
            "positions": [
                -2.235793592099034,
                -1.5946198564271874,
                1.6837497533750716,
                -0.4480024243061855,
                1.3924871200853095,
                2.415415897652111
            ]
        },
        {
            "positions": [
                -2.387523547282978,
                -1.5943972606981434,
                1.6161028998306173,
                -0.4663421931288601,
                1.3083357465733545,
                2.3528403027022833
            ]
        },
        {
            "positions": [
                -2.539253502466922,
                -1.594174664969099,
                1.548456046286163,
                -0.4846819619515348,
                1.2241843730613995,
                2.290264707752455
            ]
        },
        {
            "positions": [
                -2.6909834576508667,
                -1.593952069240055,
                1.4808091927417086,
                -0.5030217307742094,
                1.1400329995494445,
                2.227689112802627
            ]
        },
        {
            "positions": [
                -2.8427134128348106,
                -1.5937294735110108,
                1.4131623391972543,
                -0.521361499596884,
                1.0558816260374895,
                2.1651135178527987
            ]
        },
        {
            "positions": [
                -2.994443368018755,
                -1.5935068777819668,
                1.3455154856528,
                -0.5397012684195587,
                0.9717302525255345,
                2.102537922902971
            ]
        },
        {
            "positions": [
                -2.933280749881554,
                -1.5420107771940306,
                1.4243954807950308,
                -0.567794828912835,
                0.9396527413963773,
                2.208568797042389
            ]
        },
        {
            "positions": [
                -2.872118131744353,
                -1.4905146766060946,
                1.5032754759372615,
                -0.5958883894061111,
                0.9075752302672202,
                2.3145996711818073
            ]
        },
        {
            "positions": [
                -2.8109555136071522,
                -1.4390185760181584,
                1.5821554710794923,
                -0.6239819498993874,
                0.8754977191380632,
                2.4206305453212256
            ]
        },
        {
            "positions": [
                -2.7497928954699513,
                -1.3875224754302224,
                1.661035466221723,
                -0.6520755103926636,
                0.843420208008906,
                2.526661419460644
            ]
        },
        {
            "positions": [
                -2.6886302773327504,
                -1.3360263748422863,
                1.7399154613639538,
                -0.6801690708859399,
                0.8113426968797489,
                2.632692293600062
            ]
        },
        {
            "positions": [
                -2.6274676591955495,
                -1.28453027425435,
                1.8187954565061846,
                -0.7082626313792162,
                0.7792651857505919,
                2.7387231677394803
            ]
        },
        {
            "positions": [
                -2.5663050410583486,
                -1.233034173666414,
                1.8976754516484153,
                -0.7363561918724923,
                0.7471876746214348,
                2.8447540418788986
            ]
        },
        {
            "positions": [
                -2.5051424229211476,
                -1.181538073078478,
                1.976555446790646,
                -0.7644497523657686,
                0.7151101634922776,
                2.950784916018317
            ]
        },
        {
            "positions": [
                -2.474425110512183,
                -1.164089659382744,
                2.006489442082239,
                -0.8156284757884332,
                0.6716255653790822,
                3.117770438765369
            ]
        }
    ]
}