{
    "goal": {
        "global_pose": {
            "orientation": {
                "w": 0.005598929693374612,
                "x": 0.007748599140229565,
                "y": 0.7110244013736278,
                "z": -0.7031023480610252
            },
            "position": {
                "x": 0.1141497679147869,
                "y": -0.7141253447532654,
                "z": 0.3711530566215515
            }
        },
        "name": "move_to_auspresseinheit_B"
    },
    "id": "LBKPIECE_move_to_auspresseinheit_B_26",
    "joint_names": [
        "shoulder_pan_joint",
        "shoulder_lift_joint",
        "elbow_joint",
        "wrist_1_joint",
        "wrist_2_joint",
        "wrist_3_joint"
    ],
    "metrics": {
        "cart_traj_len": 0.5641511699354098,
        "distance_elbow_joint": 0.05845701330874875,
        "distance_shoulder_lift_joint": 0.295198170767383,
        "distance_shoulder_pan_joint": 0.5775876149709489,
        "distance_wrist_1_joint": 0.3151094632740855,
        "distance_wrist_2_joint": 0.9912375203108048,
        "distance_wrist_3_joint": 9.129863401602378e-05,
        "smoothness": 7.612957903237841e-16,
        "time": 0.43893999300000003,
        "traj_len": 1.495888057732258,
        "weighted_distance": 1.8826074105131185
    },
    "planner": "LBKPIECE",
    "start": {
        "state": {
            "elbow_joint": 2.0193061681459312,
            "shoulder_lift_joint": -1.1220205130644991,
            "shoulder_pan_joint": -1.0952072088045026,
            "wrist_1_joint": -0.8559671810662515,
            "wrist_2_joint": 0.4759638712940361,
            "wrist_3_joint": 3.159081874192446
        }
    },
    "waypoints": [
        {
            "positions": [
                -1.0952072088045026,
                -1.1220205130644991,
                2.0193061681459312,
                -0.8559671810662515,
                0.4759638712940361,
                3.159081874192446
            ]
        },
        {
            "positions": [
                -1.1914718112996607,
                -1.1712202081923964,
                2.0095633325944733,
                -0.8034489371872372,
                0.6411701246791702,
                3.1590970906314486
            ]
        },
        {
            "positions": [
                -1.2877364137948188,
                -1.2204199033202934,
                1.999820497043015,
                -0.7509306933082229,
                0.8063763780643043,
                3.159112307070451
            ]
        },
        {
            "positions": [
                -1.384001016289977,
                -1.2696195984481906,
                1.990077661491557,
                -0.6984124494292088,
                0.9715826314494385,
                3.1591275235094542
            ]
        },
        {
            "positions": [
                -1.4802656187851353,
                -1.3188192935760878,
                1.9803348259400988,
                -0.6458942055501945,
                1.1367888848345726,
                3.159142739948457
            ]
        },
        {
            "positions": [
                -1.5765302212802934,
                -1.3680189887039849,
                1.9705919903886406,
                -0.5933759616711802,
                1.3019951382197068,
                3.1591579563874594
            ]
        },
        {
            "positions": [
                -1.6727948237754515,
                -1.417218683831882,
                1.9608491548371825,
                -0.540857717792166,
                1.467201391604841,
                3.159173172826462
            ]
        }
    ]
}