{
    "goal": {
        "global_pose": {
            "orientation": {
                "w": 0.5084816217422485,
                "x": -0.49083608388900757,
                "y": 0.5182115435600281,
                "z": -0.4816462993621826
            },
            "position": {
                "x": 0.5540239810943604,
                "y": 0.030875300988554955,
                "z": 0.16403168439865112
            }
        },
        "name": "move_to_storage_A"
    },
    "id": "LBKPIECE_move_to_storage_A_110",
    "joint_names": [
        "shoulder_pan_joint",
        "shoulder_lift_joint",
        "elbow_joint",
        "wrist_1_joint",
        "wrist_2_joint",
        "wrist_3_joint"
    ],
    "metrics": {
        "cart_traj_len": 0.35291118622112666,
        "distance_elbow_joint": 0.44686819631184416,
        "distance_shoulder_lift_joint": 0.2340413252069482,
        "distance_shoulder_pan_joint": 0.45801709694314197,
        "distance_wrist_1_joint": 0.2339292679085785,
        "distance_wrist_2_joint": 1.1126190914507008,
        "distance_wrist_3_joint": 0.09349433408870933,
        "smoothness": 6.661338200497456e-16,
        "time": 0.36218860199999997,
        "traj_len": 1.6059169691830033,
        "weighted_distance": 2.0279315421006254
    },
    "planner": "LBKPIECE",
    "start": {
        "state": {
            "elbow_joint": 1.971548880431181,
            "shoulder_lift_joint": -1.1394869514688781,
            "shoulder_pan_joint": 0.12281150262730567,
            "wrist_1_joint": -0.7804693444481463,
            "wrist_2_joint": 0.12958644648617612,
            "wrist_3_joint": 3.0906942077768043
        }
    },
    "waypoints": [
        {
            "positions": [
                0.12281150262730567,
                -1.1394869514688781,
                1.971548880431181,
                -0.7804693444481463,
                0.12958644648617612,
                3.0906942077768043
            ]
        },
        {
            "positions": [
                0.05738048877828539,
                -1.1729214264984422,
                2.0353871941900157,
                -0.813887811292229,
                0.2885320309791334,
                3.1040505412180486
            ]
        },
        {
            "positions": [
                -0.008050525070734893,
                -1.206355901528006,
                2.0992255079488507,
                -0.8473062781363115,
                0.44747761547209064,
                3.1174068746592924
            ]
        },
        {
            "positions": [
                -0.07348153891975517,
                -1.2397903765575702,
                2.1630638217076856,
                -0.8807247449803942,
                0.6064231999650479,
                3.1307632081005368
            ]
        },
        {
            "positions": [
                -0.13891255276877545,
                -1.2732248515871343,
                2.2269021354665206,
                -0.9141432118244769,
                0.7653687844580052,
                3.144119541541781
            ]
        },
        {
            "positions": [
                -0.20434356661779574,
                -1.3066593266166984,
                2.290740449225355,
                -0.9475616786685594,
                0.9243143689509624,
                3.1574758749830254
            ]
        },
        {
            "positions": [
                -0.269774580466816,
                -1.3400938016462622,
                2.35457876298419,
                -0.9809801455126421,
                1.0832599534439198,
                3.1708322084242693
            ]
        },
        {
            "positions": [
                -0.3352055943158363,
                -1.3735282766758263,
                2.418417076743025,
                -1.0143986123567248,
                1.242205537936877,
                3.1841885418655136
            ]
        }
    ]
}