{
    "goal": {
        "global_pose": {
            "orientation": {
                "w": 0.5084816262002911,
                "x": -0.4908360881923452,
                "y": 0.5182115481033761,
                "z": -0.48164630358495003
            },
            "position": {
                "x": 0.5540239810943604,
                "y": -0.46912469901144505,
                "z": 0.16403168439865112
            }
        },
        "name": "move_to_storage_B"
    },
    "id": "LBKPIECE_move_to_storage_B_81",
    "joint_names": [
        "shoulder_pan_joint",
        "shoulder_lift_joint",
        "elbow_joint",
        "wrist_1_joint",
        "wrist_2_joint",
        "wrist_3_joint"
    ],
    "metrics": {
        "cart_traj_len": 2.4844865328750494,
        "distance_elbow_joint": 1.9701812492097248,
        "distance_shoulder_lift_joint": 0.4582106891438251,
        "distance_shoulder_pan_joint": 2.252867622484334,
        "distance_wrist_1_joint": 2.983318670425823,
        "distance_wrist_2_joint": 2.712585302325743,
        "distance_wrist_3_joint": 3.21496171988519,
        "smoothness": 0.21819855321873266,
        "time": 0.265564162,
        "traj_len": 3.686749958089732,
        "weighted_distance": 5.071287081796552
    },
    "planner": "LBKPIECE",
    "start": {
        "state": {
            "elbow_joint": 1.6649325340416963,
            "shoulder_lift_joint": -0.6616387945129425,
            "shoulder_pan_joint": -0.9139837929255878,
            "wrist_1_joint": 2.1467571094334352,
            "wrist_2_joint": -2.234195976750228,
            "wrist_3_joint": 0.005470921511140723
        }
    },
    "waypoints": [
        {
            "positions": [
                -0.9139837929255878,
                -0.6616387945129425,
                1.6649325340416963,
                2.1467571094334352,
                -2.234195976750228,
                0.005470921511140723
            ]
        },
        {
            "positions": [
                -0.8289341383561228,
                -0.6933481163550566,
                1.5642445900833937,
                2.1037072560502406,
                -2.1562248586367705,
                -0.012926972011055828
            ]
        },
        {
            "positions": [
                -0.7438844837866578,
                -0.7250574381971707,
                1.4635566461250908,
                2.0606574026670454,
                -2.0782537405233135,
                -0.03132486553325238
            ]
        },
        {
            "positions": [
                -0.7005889404029384,
                -0.7377541136396562,
                1.4331022814638559,
                1.9426514702106168,
                -1.9652069611530716,
                0.03615489591432616
            ]
        },
        {
            "positions": [
                -0.6572933970192189,
                -0.7504507890821416,
                1.4026479168026211,
                1.8246455377541881,
                -1.8521601817828297,
                0.1036346573619047
            ]
        },
        {
            "positions": [
                -0.6139978536354994,
                -0.763147464524627,
                1.3721935521413862,
                1.7066396052977597,
                -1.739113402412588,
                0.17111441880948325
            ]
        },
        {
            "positions": [
                -0.57070231025178,
                -0.7758441399671125,
                1.3417391874801514,
                1.588633672841331,
                -1.6260666230423462,
                0.2385941802570618
            ]
        },
        {
            "positions": [
                -0.5274067668680604,
                -0.788540815409598,
                1.3112848228189165,
                1.4706277403849026,
                -1.5130198436721045,
                0.30607394170464036
            ]
        },
        {
            "positions": [
                -0.48411122348434105,
                -0.8012374908520834,
                1.2808304581576817,
                1.352621807928474,
                -1.3999730643018626,
                0.3735537031522189
            ]
        },
        {
            "positions": [
                -0.44081568010062155,
                -0.8139341662945688,
                1.2503760934964467,
                1.2346158754720453,
                -1.2869262849316208,
                0.4410334645997974
            ]
        },
        {
            "positions": [
                -0.39752013671690206,
                -0.8266308417370543,
                1.219921728835212,
                1.1166099430156167,
                -1.1738795055613789,
                0.5085132260473759
            ]
        },
        {
            "positions": [
                -0.35422459333318257,
                -0.8393275171795397,
                1.189467364173977,
                0.9986040105591882,
                -1.0608327261911372,
                0.5759929874949545
            ]
        },
        {
            "positions": [
                -0.31092904994946313,
                -0.8520241926220251,
                1.159012999512742,
                0.8805980781027596,
                -0.9477859468208953,
                0.643472748942533
            ]
        },
        {
            "positions": [
                -0.26763350656574364,
                -0.8647208680645107,
                1.1285586348515073,
                0.7625921456463309,
                -0.8347391674506535,
                0.7109525103901116
            ]
        },
        {
            "positions": [
                -0.22433796318202426,
                -0.8774175435069961,
                1.0981042701902726,
                0.6445862131899025,
                -0.7216923880804118,
                0.7784322718376901
            ]
        },
        {
            "positions": [
                -0.1810424197983047,
                -0.8901142189494815,
                1.0676499055290376,
                0.5265802807334738,
                -0.6086456087101699,
                0.8459120332852686
            ]
        },
        {
            "positions": [
                -0.13774687641458527,
                -0.9028108943919669,
                1.0371955408678026,
                0.4085743482770454,
                -0.49559882933992827,
                0.9133917947328472
            ]
        },
        {
            "positions": [
                -0.09445133303086584,
                -0.9155075698344524,
                1.006741176206568,
                0.29056841582061654,
                -0.38255204996968617,
                0.9808715561804257
            ]
        },
        {
            "positions": [
                -0.05115578964714629,
                -0.9282042452769379,
                0.9762868115453329,
                0.1725624833641879,
                -0.2695052705994443,
                1.0483513176280044
            ]
        },
        {
            "positions": [
                -0.007860246263426851,
                -0.9409009207194232,
                0.9458324468840981,
                0.05455655090775968,
                -0.15645849122920263,
                1.115831079075583
            ]
        },
        {
            "positions": [
                0.0354352971202927,
                -0.9535975961619088,
                0.9153780822228632,
                -0.06344938154866897,
                -0.04341171185896098,
                1.1833108405231616
            ]
        },
        {
            "positions": [
                0.07873084050401202,
                -0.9662942716043942,
                0.8849237175616284,
                -0.18145531400509762,
                0.0696350675112809,
                1.25079060197074
            ]
        },
        {
            "positions": [
                0.12202638388773157,
                -0.9789909470468796,
                0.8544693529003935,
                -0.2994612464615264,
                0.1826818468815229,
                1.3182703634183186
            ]
        },
        {
            "positions": [
                0.03510799491123055,
                -0.989052271090443,
                0.9373063577624237,
                -0.33782555464230224,
                0.20380380964537956,
                1.4488825565532633
            ]
        },
        {
            "positions": [
                -0.051810394065270465,
                -0.9991135951340064,
                1.0201433626244538,
                -0.3761898628230781,
                0.22492577240923622,
                1.579494749688208
            ]
        },
        {
            "positions": [
                -0.1387287830417715,
                -1.0091749191775699,
                1.102980367486484,
                -0.414554171003854,
                0.24604773517309286,
                1.7101069428231526
            ]
        },
        {
            "positions": [
                -0.2256471720182725,
                -1.0192362432211333,
                1.1858173723485141,
                -0.45291847918462985,
                0.26716969793694956,
                1.8407191359580972
            ]
        },
        {
            "positions": [
                -0.31256556099477356,
                -1.0292975672646967,
                1.2686543772105443,
                -0.49128278736540576,
                0.2882916607008062,
                1.971331329093042
            ]
        },
        {
            "positions": [
                -0.39948394997127457,
                -1.03935889130826,
                1.3514913820725742,
                -0.5296470955461816,
                0.30941362346466283,
                2.1019435222279865
            ]
        },
        {
            "positions": [
                -0.4864023389477756,
                -1.0494202153518235,
                1.4343283869346046,
                -0.5680114037269575,
                0.33053558622851953,
                2.232555715362931
            ]
        },
        {
            "positions": [
                -0.5733207279242766,
                -1.0594815393953871,
                1.5171653917966346,
                -0.6063757119077333,
                0.3516575489923762,
                2.363167908497876
            ]
        },
        {
            "positions": [
                -0.6602391169007777,
                -1.0695428634389506,
                1.600002396658665,
                -0.6447400200885092,
                0.37277951175623286,
                2.493780101632821
            ]
        },
        {
            "positions": [
                -0.7471575058772787,
                -1.079604187482514,
                1.6828394015206949,
                -0.683104328269285,
                0.3939014745200895,
                2.6243922947677656
            ]
        },
        {
            "positions": [
                -0.8340758948537798,
                -1.0896655115260774,
                1.765676406382725,
                -0.7214686364500609,
                0.4150234372839462,
                2.75500448790271
            ]
        },
        {
            "positions": [
                -0.9209942838302807,
                -1.0997268355696408,
                1.8485134112447552,
                -0.7598329446308367,
                0.43614540004780283,
                2.8856166810376545
            ]
        },
        {
            "positions": [
                -1.0079126728067818,
                -1.1097881596132042,
                1.9313504161067854,
                -0.7981972528116127,
                0.45726736281165953,
                3.0162288741725996
            ]
        },
        {
            "positions": [
                -1.0948310617832828,
                -1.1198494836567676,
                2.0141874209688155,
                -0.8365615609923885,
                0.47838932557551617,
                3.146841067307544
            ]
        }
    ]
}