{
    "goal": {
        "global_pose": {
            "orientation": {
                "w": -0.4816463035849501,
                "x": 0.5182115481033762,
                "y": 0.4908360881923453,
                "z": -0.5084816262002911
            },
            "position": {
                "x": -0.8240239810943604,
                "y": -0.300875300988555,
                "z": 0.16403168439865112
            }
        },
        "name": "move_to_storage_C"
    },
    "id": "LBKPIECE_move_to_storage_C_132",
    "joint_names": [
        "shoulder_pan_joint",
        "shoulder_lift_joint",
        "elbow_joint",
        "wrist_1_joint",
        "wrist_2_joint",
        "wrist_3_joint"
    ],
    "metrics": {
        "cart_traj_len": 0.5769482380980959,
        "distance_elbow_joint": 0.26017152466180393,
        "distance_shoulder_lift_joint": 0.18958245449206035,
        "distance_shoulder_pan_joint": 0.49535862947613296,
        "distance_wrist_1_joint": 0.08239475055987544,
        "distance_wrist_2_joint": 1.060756042366258,
        "distance_wrist_3_joint": 0.05929329019916585,
        "smoothness": 0.0,
        "time": 0.6576721170000001,
        "traj_len": 1.465454431824919,
        "weighted_distance": 1.84642737877225
    },
    "planner": "LBKPIECE",
    "start": {
        "state": {
            "elbow_joint": 2.0108683149792914,
            "shoulder_lift_joint": -1.1634956873317392,
            "shoulder_pan_joint": -2.4736205022346,
            "wrist_1_joint": -0.8367026793690192,
            "wrist_2_joint": 0.6746043897045053,
            "wrist_3_joint": 3.133522094754363
        }
    },
    "waypoints": [
        {
            "positions": [
                -2.4736205022346,
                -1.1634956873317392,
                2.0108683149792914,
                -0.8367026793690192,
                0.6746043897045053,
                3.133522094754363
            ]
        },
        {
            "positions": [
                -2.5561802738139554,
                -1.1318986115830625,
                1.967506394202324,
                -0.8229702209423733,
                0.851397063432215,
                3.1434043097875577
            ]
        },
        {
            "positions": [
                -2.638740045393311,
                -1.1003015358343857,
                1.9241444734253568,
                -0.8092377625157274,
                1.0281897371599247,
                3.153286524820752
            ]
        },
        {
            "positions": [
                -2.7212998169726665,
                -1.068704460085709,
                1.8807825526483894,
                -0.7955053040890815,
                1.2049824108876344,
                3.163168739853946
            ]
        },
        {
            "positions": [
                -2.803859588552022,
                -1.0371073843370324,
                1.8374206318714221,
                -0.7817728456624355,
                1.381775084615344,
                3.1730509548871404
            ]
        },
        {
            "positions": [
                -2.8864193601313777,
                -1.0055103085883557,
                1.7940587110944548,
                -0.7680403872357897,
                1.5585677583430537,
                3.182933169920335
            ]
        },
        {
            "positions": [
                -2.968979131710733,
                -0.9739132328396789,
                1.7506967903174875,
                -0.7543079288091438,
                1.7353604320707634,
                3.192815384953529
            ]
        }
    ]
}