{
    "goal": {
        "global_pose": {
            "orientation": {
                "w": -0.00223480608172531,
                "x": 0.0024358444001904467,
                "y": 0.7094548369677653,
                "z": -0.704743149386269
            },
            "position": {
                "x": -0.37947507619857795,
                "y": -0.6371506643295288,
                "z": 0.19426114857196808
            }
        },
        "name": "move_to_magneteinheit_C"
    },
    "id": "LBKPIECE_move_to_magneteinheit_C_112",
    "joint_names": [
        "shoulder_pan_joint",
        "shoulder_lift_joint",
        "elbow_joint",
        "wrist_1_joint",
        "wrist_2_joint",
        "wrist_3_joint"
    ],
    "metrics": {
        "cart_traj_len": 2.64947929376841,
        "distance_elbow_joint": 2.463864113582215,
        "distance_shoulder_lift_joint": 4.067416034094263,
        "distance_shoulder_pan_joint": 3.481146017702809,
        "distance_wrist_1_joint": 2.2813944491297473,
        "distance_wrist_2_joint": 1.2114574842409562,
        "distance_wrist_3_joint": 4.149474864845139,
        "smoothness": 1.4962840671686228,
        "time": 0.565057457,
        "traj_len": 4.201755938128145,
        "weighted_distance": 5.426467969743866
    },
    "planner": "LBKPIECE",
    "start": {
        "state": {
            "elbow_joint": 1.9565354006593851,
            "shoulder_lift_joint": -1.4165861576512813,
            "shoulder_pan_joint": -1.6717766223278752,
            "wrist_1_joint": -0.528663328821883,
            "wrist_2_joint": 1.472756589259273,
            "wrist_3_joint": 3.159348288315503
        }
    },
    "waypoints": [
        {
            "positions": [
                -1.6717766223278752,
                -1.4165861576512813,
                1.9565354006593851,
                -0.528663328821883,
                1.472756589259273,
                3.159348288315503
            ]
        },
        {
            "positions": [
                -1.6571516340200594,
                -1.427747823590341,
                1.9608825925904516,
                -0.3890334296024306,
                1.386207863235627,
                3.0906852171339025
            ]
        },
        {
            "positions": [
                -1.6425266457122436,
                -1.4389094895294003,
                1.9652297845215183,
                -0.24940353038297808,
                1.299659137211981,
                3.022022145952302
            ]
        },
        {
            "positions": [
                -1.6279016574044278,
                -1.45007115546846,
                1.9695769764525848,
                -0.10977363116352556,
                1.2131104111883348,
                2.9533590747707015
            ]
        },
        {
            "positions": [
                -1.7311998333431995,
                -1.5760246354988323,
                2.0043746021214783,
                -0.16253927027507675,
                1.2050945767357046,
                2.884692046911471
            ]
        },
        {
            "positions": [
                -1.8344980092819712,
                -1.7019781155292044,
                2.039172227790372,
                -0.2153049093866279,
                1.1970787422830742,
                2.8160250190522405
            ]
        },
        {
            "positions": [
                -1.9377961852207428,
                -1.8279315955595767,
                2.0739698534592654,
                -0.2680705484981791,
                1.189062907830444,
                2.7473579911930104
            ]
        },
        {
            "positions": [
                -2.0410943611595145,
                -1.953885075589949,
                2.1087674791281588,
                -0.32083618760973026,
                1.1810470733778136,
                2.67869096333378
            ]
        },
        {
            "positions": [
                -2.144392537098286,
                -2.0798385556203214,
                2.1435651047970525,
                -0.37360182672128145,
                1.1730312389251834,
                2.6100239354745494
            ]
        },
        {
            "positions": [
                -2.2476907130370574,
                -2.2057920356506937,
                2.1783627304659463,
                -0.4263674658328326,
                1.165015404472553,
                2.541356907615319
            ]
        },
        {
            "positions": [
                -2.350988888975829,
                -2.3317455156810656,
                2.2131603561348396,
                -0.47913310494438377,
                1.1569995700199227,
                2.472689879756089
            ]
        },
        {
            "positions": [
                -2.4542870649146007,
                -2.4576989957114384,
                2.247957981803733,
                -0.531898744055935,
                1.1489837355672923,
                2.4040228518968583
            ]
        },
        {
            "positions": [
                -2.5575852408533724,
                -2.5836524757418102,
                2.2827556074726267,
                -0.584664383167486,
                1.140967901114662,
                2.3353558240376278
            ]
        },
        {
            "positions": [
                -2.660883416792144,
                -2.709605955772183,
                2.3175532331415205,
                -0.6374300222790373,
                1.1329520666620316,
                2.2666887961783972
            ]
        },
        {
            "positions": [
                -2.7641815927309157,
                -2.835559435802555,
                2.352350858810414,
                -0.6901956613905884,
                1.1249362322094014,
                2.198021768319167
            ]
        },
        {
            "positions": [
                -2.8674797686696873,
                -2.9615129158329276,
                2.387148484479307,
                -0.7429613005021396,
                1.116920397756771,
                2.1293547404599367
            ]
        },
        {
            "positions": [
                -2.970777944608459,
                -3.0874663958632995,
                2.421946110148201,
                -0.7957269396136908,
                1.1089045633041408,
                2.060687712600706
            ]
        },
        {
            "positions": [
                -2.8915753497021,
                -2.971225576707606,
                2.34525468909947,
                -0.7823964746446367,
                1.075977967100919,
                1.990028992799697
            ]
        },
        {
            "positions": [
                -2.8123727547957413,
                -2.8549847575519123,
                2.2685632680507393,
                -0.7690660096755826,
                1.0430513708976974,
                1.919370272998688
            ]
        },
        {
            "positions": [
                -2.7331701598893825,
                -2.738743938396219,
                2.191871847002008,
                -0.7557355447065284,
                1.010124774694476,
                1.8487115531976788
            ]
        },
        {
            "positions": [
                -2.6539675649830237,
                -2.6225031192405255,
                2.115180425953277,
                -0.7424050797374743,
                0.9771981784912542,
                1.7780528333966696
            ]
        },
        {
            "positions": [
                -2.574764970076665,
                -2.506262300084832,
                2.0384890049045463,
                -0.7290746147684202,
                0.9442715822880325,
                1.7073941135956605
            ]
        },
        {
            "positions": [
                -2.495562375170306,
                -2.3900214809291382,
                1.9617975838558153,
                -0.7157441497993661,
                0.911344986084811,
                1.6367353937946514
            ]
        },
        {
            "positions": [
                -2.416359780263947,
                -2.273780661773445,
                1.8851061628070842,
                -0.702413684830312,
                0.8784183898815893,
                1.5660766739936425
            ]
        },
        {
            "positions": [
                -2.3371571853575883,
                -2.1575398426177514,
                1.8084147417583534,
                -0.6890832198612578,
                0.8454917936783677,
                1.4954179541926331
            ]
        },
        {
            "positions": [
                -2.2579545904512295,
                -2.0412990234620576,
                1.7317233207096225,
                -0.6757527548922037,
                0.812565197475146,
                1.4247592343916242
            ]
        },
        {
            "positions": [
                -2.1787519955448706,
                -1.9250582043063642,
                1.6550318996608915,
                -0.6624222899231496,
                0.7796386012719243,
                1.3541005145906149
            ]
        },
        {
            "positions": [
                -2.099549400638512,
                -1.8088173851506708,
                1.5783404786121604,
                -0.6490918249540955,
                0.7467120050687027,
                1.283441794789606
            ]
        },
        {
            "positions": [
                -2.020346805732153,
                -1.6925765659949772,
                1.5016490575634296,
                -0.6357613599850414,
                0.7137854088654811,
                1.2127830749885968
            ]
        },
        {
            "positions": [
                -1.9411442108257941,
                -1.5763357468392836,
                1.4249576365146988,
                -0.6224308950159871,
                0.6808588126622594,
                1.1421243551875877
            ]
        },
        {
            "positions": [
                -1.8619416159194353,
                -1.4600949276835902,
                1.3482662154659677,
                -0.609100430046933,
                0.6479322164590378,
                1.0714656353865786
            ]
        },
        {
            "positions": [
                -1.9635551619975098,
                -1.4930158215063434,
                1.4703624109030835,
                -0.7115155894430834,
                0.667000159908796,
                1.088576622789436
            ]
        },
        {
            "positions": [
                -2.0651687080755843,
                -1.5259367153290968,
                1.5924586063401993,
                -0.8139307488392336,
                0.6860681033585542,
                1.1056876101922934
            ]
        },
        {
            "positions": [
                -2.1667822541536585,
                -1.55885760915185,
                1.7145548017773153,
                -0.916345908235384,
                0.7051360468083123,
                1.122798597595151
            ]
        },
        {
            "positions": [
                -2.2683958002317333,
                -1.5917785029746032,
                1.8366509972144311,
                -1.0187610676315342,
                0.7242039902580706,
                1.1399095849980085
            ]
        },
        {
            "positions": [
                -2.370009346309808,
                -1.6246993967973566,
                1.958747192651547,
                -1.1211762270276844,
                0.7432719337078288,
                1.157020572400866
            ]
        },
        {
            "positions": [
                -2.4716228923878822,
                -1.6576202906201098,
                2.0808433880886628,
                -1.2235913864238348,
                0.762339877157587,
                1.1741315598037234
            ]
        },
        {
            "positions": [
                -2.5093763217513967,
                -1.5987538444863985,
                2.076702167600542,
                -1.214115911882605,
                0.7387389393168323,
                1.3971897923310497
            ]
        },
        {
            "positions": [
                -2.5471297511149116,
                -1.539887398352687,
                2.0725609471124216,
                -1.2046404373413753,
                0.7151380014760776,
                1.6202480248583757
            ]
        },
        {
            "positions": [
                -2.584883180478426,
                -1.4810209522189755,
                2.0684197266243007,
                -1.1951649628001455,
                0.6915370636353229,
                1.8433062573857018
            ]
        },
        {
            "positions": [
                -2.622636609841941,
                -1.422154506085264,
                2.0642785061361804,
                -1.1856894882589157,
                0.6679361257945682,
                2.066364489913028
            ]
        },
        {
            "positions": [
                -2.6603900392054554,
                -1.3632880599515527,
                2.0601372856480595,
                -1.176214013717686,
                0.6443351879538135,
                2.2894227224403543
            ]
        },
        {
            "positions": [
                -2.5906462746673578,
                -1.3826242545353626,
                2.0914819800261757,
                -1.1013953852011564,
                0.6926601020395168,
                2.327263825959613
            ]
        },
        {
            "positions": [
                -2.5209025101292606,
                -1.4019604491191726,
                2.1228266744042914,
                -1.0265767566846267,
                0.74098501612522,
                2.365104929478872
            ]
        },
        {
            "positions": [
                -2.5089968889982375,
                -1.3423018628867132,
                2.0956264630063823,
                -0.981971919850038,
                0.7265922827834721,
                2.557093158934852
            ]
        },
        {
            "positions": [
                -2.497091267867215,
                -1.282643276654254,
                2.0684262516084733,
                -0.9373670830154492,
                0.7121995494417243,
                2.7490813883908323
            ]
        },
        {
            "positions": [
                -2.485185646736192,
                -1.2229846904217945,
                2.0412260402105646,
                -0.8927622461808604,
                0.6978068160999764,
                2.9410696178468125
            ]
        },
        {
            "positions": [
                -2.473280025605169,
                -1.163326104189335,
                2.0140258288126556,
                -0.8481574093462717,
                0.6834140827582285,
                3.1330578473027924
            ]
        }
    ]
}