{
    "goal": {
        "global_pose": {
            "orientation": {
                "w": 0.005598929693374612,
                "x": 0.007748599140229565,
                "y": 0.7110244013736278,
                "z": -0.7031023480610252
            },
            "position": {
                "x": -0.8858502320852131,
                "y": -0.7141253447532654,
                "z": 0.3711530566215515
            }
        },
        "name": "move_to_auspresseinheit_C"
    },
    "id": "LBKPIECE_move_to_auspresseinheit_C_47",
    "joint_names": [
        "shoulder_pan_joint",
        "shoulder_lift_joint",
        "elbow_joint",
        "wrist_1_joint",
        "wrist_2_joint",
        "wrist_3_joint"
    ],
    "metrics": {
        "cart_traj_len": 0.4943325694718527,
        "distance_elbow_joint": 1.0178310824722476,
        "distance_shoulder_lift_joint": 0.33352702873537377,
        "distance_shoulder_pan_joint": 0.2565838213379279,
        "distance_wrist_1_joint": 0.7150085780088393,
        "distance_wrist_2_joint": 1.3139470680820822,
        "distance_wrist_3_joint": 0.08458275465840481,
        "smoothness": 6.45947944157498e-16,
        "time": 0.401549373,
        "traj_len": 1.92911387255778,
        "weighted_distance": 2.433023117173901
    },
    "planner": "LBKPIECE",
    "start": {
        "state": {
            "elbow_joint": 1.7527959577730765,
            "shoulder_lift_joint": -0.9740617694224828,
            "shoulder_pan_joint": -2.967991417825869,
            "wrist_1_joint": -0.7595177689779385,
            "wrist_2_joint": 1.7443932448376545,
            "wrist_3_joint": 3.1991315425061013
        }
    },
    "waypoints": [
        {
            "positions": [
                -2.967991417825869,
                -0.9740617694224828,
                1.7527959577730765,
                -0.7595177689779385,
                1.7443932448376545,
                3.1991315425061013
            ]
        },
        {
            "positions": [
                -2.9423330356920765,
                -0.9407090665489454,
                1.6510128495258518,
                -0.6880169111770547,
                1.6129985380294463,
                3.190673267040261
            ]
        },
        {
            "positions": [
                -2.9166746535582835,
                -0.9073563636754081,
                1.549229741278627,
                -0.6165160533761707,
                1.481603831221238,
                3.1822149915744204
            ]
        },
        {
            "positions": [
                -2.8910162714244905,
                -0.8740036608018706,
                1.4474466330314022,
                -0.5450151955752868,
                1.3502091244130299,
                3.17375671610858
            ]
        },
        {
            "positions": [
                -2.865357889290698,
                -0.8406509579283332,
                1.3456635247841775,
                -0.4735143377744028,
                1.2188144176048215,
                3.1652984406427396
            ]
        },
        {
            "positions": [
                -2.8396995071569053,
                -0.8072982550547959,
                1.2438804165369528,
                -0.4020134799735189,
                1.0874197107966133,
                3.1568401651768987
            ]
        },
        {
            "positions": [
                -2.8140411250231123,
                -0.7739455521812586,
                1.142097308289728,
                -0.33051262217263494,
                0.9560250039884052,
                3.1483818897110583
            ]
        },
        {
            "positions": [
                -2.7883827428893193,
                -0.7405928493077212,
                1.0403142000425032,
                -0.259011764371751,
                0.824630297180197,
                3.139923614245218
            ]
        },
        {
            "positions": [
                -2.7627243607555267,
                -0.7072401464341838,
                0.9385310917952784,
                -0.1875109065708671,
                0.6932355903719887,
                3.1314653387793774
            ]
        },
        {
            "positions": [
                -2.737065978621734,
                -0.6738874435606463,
                0.8367479835480536,
                -0.11601004876998311,
                0.5618408835637805,
                3.123007063313537
            ]
        },
        {
            "positions": [
                -2.711407596487941,
                -0.640534740687109,
                0.7349648753008289,
                -0.04450919096909923,
                0.4304461767555723,
                3.1145487878476965
            ]
        }
    ]
}