{
    "goal": {
        "global_pose": {
            "orientation": {
                "w": 0.7031023480610252,
                "x": -0.7110244013736278,
                "y": 0.0077485991402295624,
                "z": 0.005598929693374583
            },
            "position": {
                "x": -0.8841497679147869,
                "y": 0.44412534475326537,
                "z": 0.3711530566215515
            }
        },
        "name": "move_to_auspresseinheit_D"
    },
    "id": "LBKPIECE_move_to_auspresseinheit_D_85",
    "joint_names": [
        "shoulder_pan_joint",
        "shoulder_lift_joint",
        "elbow_joint",
        "wrist_1_joint",
        "wrist_2_joint",
        "wrist_3_joint"
    ],
    "metrics": {
        "cart_traj_len": 0.34300532540814405,
        "distance_elbow_joint": 0.6494161020805069,
        "distance_shoulder_lift_joint": 0.12839637937734638,
        "distance_shoulder_pan_joint": 0.13354645754288402,
        "distance_wrist_1_joint": 0.5640779774291551,
        "distance_wrist_2_joint": 1.4418171623426992,
        "distance_wrist_3_joint": 0.027364372196047704,
        "smoothness": 7.894919286223335e-16,
        "time": 0.435825036,
        "traj_len": 1.7159890591051679,
        "weighted_distance": 2.2372398921735215
    },
    "planner": "LBKPIECE",
    "start": {
        "state": {
            "elbow_joint": -1.8275484843655228,
            "shoulder_lift_joint": -2.1267897864000416,
            "shoulder_pan_joint": -0.035127520176001514,
            "wrist_1_joint": -2.3477863256791385,
            "wrist_2_joint": -1.605890476484521,
            "wrist_3_joint": -3.0880375317375353
        }
    },
    "waypoints": [
        {
            "positions": [
                -0.035127520176001514,
                -2.1267897864000416,
                -1.8275484843655228,
                -2.3477863256791385,
                -1.605890476484521,
                -3.0880375317375353
            ]
        },
        {
            "positions": [
                -0.05182082736886202,
                -2.14283933382221,
                -1.7463714716054595,
                -2.4182960728577827,
                -1.4256633311916835,
                -3.0846169852130294
            ]
        },
        {
            "positions": [
                -0.06851413456172252,
                -2.158888881244378,
                -1.665194458845396,
                -2.4888058200364274,
                -1.2454361858988463,
                -3.081196438688523
            ]
        },
        {
            "positions": [
                -0.08520744175458303,
                -2.1749384286665463,
                -1.5840174460853327,
                -2.5593155672150716,
                -1.0652090406060089,
                -3.0777758921640173
            ]
        },
        {
            "positions": [
                -0.10190074894744353,
                -2.1909879760887145,
                -1.5028404333252694,
                -2.629825314393716,
                -0.8849818953131714,
                -3.0743553456395114
            ]
        },
        {
            "positions": [
                -0.11859405614030402,
                -2.2070375235108832,
                -1.421663420565206,
                -2.7003350615723605,
                -0.7047547500203339,
                -3.0709347991150056
            ]
        },
        {
            "positions": [
                -0.13528736333316455,
                -2.2230870709330515,
                -1.3404864078051426,
                -2.7708448087510047,
                -0.5245276047274967,
                -3.0675142525904997
            ]
        },
        {
            "positions": [
                -0.15198067052602504,
                -2.2391366183552197,
                -1.2593093950450793,
                -2.8413545559296494,
                -0.34430045943465926,
                -3.0640937060659934
            ]
        },
        {
            "positions": [
                -0.16867397771888554,
                -2.255186165777388,
                -1.1781323822850158,
                -2.9118643031082936,
                -0.16407331414182186,
                -3.0606731595414876
            ]
        }
    ]
}