{
    "goal": {
        "global_pose": {
            "orientation": {
                "w": -0.4816463035849501,
                "x": 0.5182115481033762,
                "y": 0.4908360881923453,
                "z": -0.5084816262002911
            },
            "position": {
                "x": -0.8240239810943604,
                "y": -0.300875300988555,
                "z": 0.16403168439865112
            }
        },
        "name": "move_to_storage_C"
    },
    "id": "LBKPIECE_move_to_storage_C_146",
    "joint_names": [
        "shoulder_pan_joint",
        "shoulder_lift_joint",
        "elbow_joint",
        "wrist_1_joint",
        "wrist_2_joint",
        "wrist_3_joint"
    ],
    "metrics": {
        "cart_traj_len": 0.5760067508259035,
        "distance_elbow_joint": 0.2576746595383417,
        "distance_shoulder_lift_joint": 0.18826485134003168,
        "distance_shoulder_pan_joint": 0.4950248285068892,
        "distance_wrist_1_joint": 0.08137784958451166,
        "distance_wrist_2_joint": 1.0624331646212597,
        "distance_wrist_3_joint": 0.058445647230387365,
        "smoothness": 2.5376526478085547e-16,
        "time": 0.749876886,
        "traj_len": 1.4639743853023595,
        "weighted_distance": 1.8449724413898347
    },
    "planner": "LBKPIECE",
    "start": {
        "state": {
            "elbow_joint": 2.0108683149792914,
            "shoulder_lift_joint": -1.1634956873317392,
            "shoulder_pan_joint": -2.4736205022346,
            "wrist_1_joint": -0.8367026793690192,
            "wrist_2_joint": 0.6746043897045053,
            "wrist_3_joint": 3.133522094754363
        }
    },
    "waypoints": [
        {
            "positions": [
                -2.4736205022346,
                -1.1634956873317392,
                2.0108683149792914,
                -0.8367026793690192,
                0.6746043897045053,
                3.133522094754363
            ]
        },
        {
            "positions": [
                -2.556124640319082,
                -1.1321182121084006,
                1.9679225383895678,
                -0.8231397044382672,
                0.8516765838080486,
                3.1432630359594276
            ]
        },
        {
            "positions": [
                -2.638628778403563,
                -1.100740736885062,
                1.9249767617998441,
                -0.8095767295075154,
                1.0287487779115918,
                3.1530039771644924
            ]
        },
        {
            "positions": [
                -2.7211329164880445,
                -1.0693632616617235,
                1.8820309852101205,
                -0.7960137545767634,
                1.2058209720151352,
                3.162744918369557
            ]
        },
        {
            "positions": [
                -2.803637054572526,
                -1.0379857864383848,
                1.839085208620397,
                -0.7824507796460114,
                1.3828931661186785,
                3.1724858595746213
            ]
        },
        {
            "positions": [
                -2.886141192657008,
                -1.0066083112150461,
                1.7961394320306734,
                -0.7688878047152595,
                1.5599653602222219,
                3.182226800779686
            ]
        },
        {
            "positions": [
                -2.9686453307414893,
                -0.9752308359917076,
                1.7531936554409497,
                -0.7553248297845075,
                1.737037554325765,
                3.1919677419847505
            ]
        }
    ]
}