{
    "goal": {
        "global_pose": {
            "orientation": {
                "w": 0.005598929693374612,
                "x": 0.007748599140229565,
                "y": 0.7110244013736278,
                "z": -0.7031023480610252
            },
            "position": {
                "x": 0.1141497679147869,
                "y": -0.7141253447532654,
                "z": 0.3711530566215515
            }
        },
        "name": "move_to_auspresseinheit_B"
    },
    "id": "LBKPIECE_move_to_auspresseinheit_B_16",
    "joint_names": [
        "shoulder_pan_joint",
        "shoulder_lift_joint",
        "elbow_joint",
        "wrist_1_joint",
        "wrist_2_joint",
        "wrist_3_joint"
    ],
    "metrics": {
        "cart_traj_len": 0.5639706604046474,
        "distance_elbow_joint": 0.06328803880343092,
        "distance_shoulder_lift_joint": 0.2951096894385554,
        "distance_shoulder_pan_joint": 0.5774607187045457,
        "distance_wrist_1_joint": 0.33185286686553894,
        "distance_wrist_2_joint": 0.9866147083339227,
        "distance_wrist_3_joint": 0.0033720571763251606,
        "smoothness": 2.5376526478085547e-16,
        "time": 0.347099088,
        "traj_len": 1.5025638353568607,
        "weighted_distance": 1.8928575669802603
    },
    "planner": "LBKPIECE",
    "start": {
        "state": {
            "elbow_joint": 2.0193061681459312,
            "shoulder_lift_joint": -1.1220205130644991,
            "shoulder_pan_joint": -1.0952072088045026,
            "wrist_1_joint": -0.8559671810662515,
            "wrist_2_joint": 0.4759638712940361,
            "wrist_3_joint": 3.159081874192446
        }
    },
    "waypoints": [
        {
            "positions": [
                -1.0952072088045026,
                -1.1220205130644991,
                2.0193061681459312,
                -0.8559671810662515,
                0.4759638712940361,
                3.159081874192446
            ]
        },
        {
            "positions": [
                -1.191450661921927,
                -1.1712054613042584,
                2.008758161678693,
                -0.800658369921995,
                0.6403996560163565,
                3.1585198646630586
            ]
        },
        {
            "positions": [
                -1.2876941150393513,
                -1.2203904095440177,
                1.9982101552114542,
                -0.7453495587777385,
                0.8048354407386771,
                3.157957855133671
            ]
        },
        {
            "positions": [
                -1.3839375681567754,
                -1.269575357783777,
                1.9876621487442159,
                -0.690040747633482,
                0.9692712254609974,
                3.1573958456042837
            ]
        },
        {
            "positions": [
                -1.4801810212741997,
                -1.318760306023536,
                1.9771141422769773,
                -0.6347319364892255,
                1.133707010183318,
                3.1568338360748958
            ]
        },
        {
            "positions": [
                -1.576424474391624,
                -1.3679452542632953,
                1.9665661358097388,
                -0.579423125344969,
                1.2981427949056383,
                3.1562718265455083
            ]
        },
        {
            "positions": [
                -1.6726679275090484,
                -1.4171302025030545,
                1.9560181293425003,
                -0.5241143142007125,
                1.462578579627959,
                3.155709817016121
            ]
        }
    ]
}