{
    "goal": {
        "global_pose": {
            "orientation": {
                "w": 0.5084816217422485,
                "x": -0.49083608388900757,
                "y": 0.5182115435600281,
                "z": -0.4816462993621826
            },
            "position": {
                "x": 0.5540239810943604,
                "y": 0.030875300988554955,
                "z": 0.16403168439865112
            }
        },
        "name": "move_to_storage_A"
    },
    "id": "LBKPIECE_move_to_storage_A_113",
    "joint_names": [
        "shoulder_pan_joint",
        "shoulder_lift_joint",
        "elbow_joint",
        "wrist_1_joint",
        "wrist_2_joint",
        "wrist_3_joint"
    ],
    "metrics": {
        "cart_traj_len": 0.35288898219366976,
        "distance_elbow_joint": 0.4495833337176933,
        "distance_shoulder_lift_joint": 0.23404918246899187,
        "distance_shoulder_pan_joint": 0.45894417931593867,
        "distance_wrist_1_joint": 0.23921862583003883,
        "distance_wrist_2_joint": 1.1093285751382234,
        "distance_wrist_3_joint": 0.08942349144784156,
        "smoothness": 1.5543122362334363e-15,
        "time": 0.6915083009999999,
        "traj_len": 1.6064082258002563,
        "weighted_distance": 2.026805755809538
    },
    "planner": "LBKPIECE",
    "start": {
        "state": {
            "elbow_joint": 1.971548880431181,
            "shoulder_lift_joint": -1.1394869514688781,
            "shoulder_pan_joint": 0.12281150262730567,
            "wrist_1_joint": -0.7804693444481463,
            "wrist_2_joint": 0.12958644648617612,
            "wrist_3_joint": 3.0906942077768043
        }
    },
    "waypoints": [
        {
            "positions": [
                0.12281150262730567,
                -1.1394869514688781,
                1.971548880431181,
                -0.7804693444481463,
                0.12958644648617612,
                3.0906942077768043
            ]
        },
        {
            "positions": [
                0.05724804843931443,
                -1.1729225489644484,
                2.03577507096228,
                -0.8146434338524375,
                0.288061957220208,
                3.1034689922693532
            ]
        },
        {
            "positions": [
                -0.008315405748676813,
                -1.2063581464600186,
                2.100001261493379,
                -0.8488175232567288,
                0.44653746795423993,
                3.116243776761902
            ]
        },
        {
            "positions": [
                -0.07387885993666804,
                -1.2397937439555888,
                2.164227452024478,
                -0.8829916126610201,
                0.6050129786882719,
                3.1290185612544508
            ]
        },
        {
            "positions": [
                -0.1394423141246593,
                -1.273229341451159,
                2.228453642555577,
                -0.9171657020653113,
                0.7634884894223037,
                3.1417933457469993
            ]
        },
        {
            "positions": [
                -0.20500576831265055,
                -1.3066649389467295,
                2.2926798330866762,
                -0.9513397914696027,
                0.9219640001563357,
                3.1545681302395483
            ]
        },
        {
            "positions": [
                -0.27056922250064175,
                -1.3401005364422998,
                2.3569060236177752,
                -0.9855138808738939,
                1.0804395108903675,
                3.167342914732097
            ]
        },
        {
            "positions": [
                -0.336132676688633,
                -1.37353613393787,
                2.4211322141488743,
                -1.0196879702781851,
                1.2389150216243996,
                3.180117699224646
            ]
        }
    ]
}