{
    "goal": {
        "global_pose": {
            "orientation": {
                "w": -0.4816463035849501,
                "x": 0.5182115481033762,
                "y": 0.4908360881923453,
                "z": -0.5084816262002911
            },
            "position": {
                "x": -0.8240239810943604,
                "y": -0.300875300988555,
                "z": 0.16403168439865112
            }
        },
        "name": "move_to_storage_C"
    },
    "id": "LBKPIECE_move_to_storage_C_81",
    "joint_names": [
        "shoulder_pan_joint",
        "shoulder_lift_joint",
        "elbow_joint",
        "wrist_1_joint",
        "wrist_2_joint",
        "wrist_3_joint"
    ],
    "metrics": {
        "cart_traj_len": 0.5770364439002902,
        "distance_elbow_joint": 0.26077322141625703,
        "distance_shoulder_lift_joint": 0.19038076838728324,
        "distance_shoulder_pan_joint": 0.4938118841484447,
        "distance_wrist_1_joint": 0.08529414434000582,
        "distance_wrist_2_joint": 1.075323808694178,
        "distance_wrist_3_joint": 0.0646406549900389,
        "smoothness": 2.5376526478085547e-16,
        "time": 0.17087608,
        "traj_len": 1.4731681784427086,
        "weighted_distance": 1.8601407863359347
    },
    "planner": "LBKPIECE",
    "start": {
        "state": {
            "elbow_joint": 2.0108683149792914,
            "shoulder_lift_joint": -1.1634956873317392,
            "shoulder_pan_joint": -2.4736205022346,
            "wrist_1_joint": -0.8367026793690192,
            "wrist_2_joint": 0.6746043897045053,
            "wrist_3_joint": 3.133522094754363
        }
    },
    "waypoints": [
        {
            "positions": [
                -2.4736205022346,
                -1.1634956873317392,
                2.0108683149792914,
                -0.8367026793690192,
                0.6746043897045053,
                3.133522094754363
            ]
        },
        {
            "positions": [
                -2.5559224829260074,
                -1.131765559267192,
                1.9674061114099153,
                -0.8224869886456849,
                0.8538250244868684,
                3.144295537252703
            ]
        },
        {
            "positions": [
                -2.638224463617415,
                -1.1000354312026448,
                1.9239439078405391,
                -0.8082712979223506,
                1.0330456592692312,
                3.155068979751043
            ]
        },
        {
            "positions": [
                -2.720526444308822,
                -1.0683053031380976,
                1.8804817042711628,
                -0.7940556071990164,
                1.2122662940515943,
                3.1658424222493826
            ]
        },
        {
            "positions": [
                -2.80282842500023,
                -1.0365751750735503,
                1.8370195007017867,
                -0.779839916475682,
                1.3914869288339573,
                3.1766158647477223
            ]
        },
        {
            "positions": [
                -2.8851304056916374,
                -1.0048450470090031,
                1.7935572971324105,
                -0.7656242257523477,
                1.5707075636163204,
                3.1873893072460624
            ]
        },
        {
            "positions": [
                -2.9674323863830447,
                -0.973114918944456,
                1.7500950935630344,
                -0.7514085350290134,
                1.7499281983986834,
                3.198162749744402
            ]
        }
    ]
}