{
    "goal": {
        "global_pose": {
            "orientation": {
                "w": 0.005598929693374612,
                "x": 0.007748599140229565,
                "y": 0.7110244013736278,
                "z": -0.7031023480610252
            },
            "position": {
                "x": 0.1141497679147869,
                "y": -0.7141253447532654,
                "z": 0.3711530566215515
            }
        },
        "name": "move_to_auspresseinheit_B"
    },
    "id": "LBKPIECE_move_to_auspresseinheit_B_77",
    "joint_names": [
        "shoulder_pan_joint",
        "shoulder_lift_joint",
        "elbow_joint",
        "wrist_1_joint",
        "wrist_2_joint",
        "wrist_3_joint"
    ],
    "metrics": {
        "cart_traj_len": 0.5641878107526744,
        "distance_elbow_joint": 0.058859878132703436,
        "distance_shoulder_lift_joint": 0.2960694610425152,
        "distance_shoulder_pan_joint": 0.5769058574418544,
        "distance_wrist_1_joint": 0.31604067239207956,
        "distance_wrist_2_joint": 0.9933937724460025,
        "distance_wrist_3_joint": 0.006332619343120793,
        "smoothness": 5.075305255429287e-16,
        "time": 0.583013108,
        "traj_len": 1.4992005405542903,
        "weighted_distance": 1.889365487226492
    },
    "planner": "LBKPIECE",
    "start": {
        "state": {
            "elbow_joint": 2.0193061681459312,
            "shoulder_lift_joint": -1.1220205130644991,
            "shoulder_pan_joint": -1.0952072088045026,
            "wrist_1_joint": -0.8559671810662515,
            "wrist_2_joint": 0.4759638712940361,
            "wrist_3_joint": 3.159081874192446
        }
    },
    "waypoints": [
        {
            "positions": [
                -1.0952072088045026,
                -1.1220205130644991,
                2.0193061681459312,
                -0.8559671810662515,
                0.4759638712940361,
                3.159081874192446
            ]
        },
        {
            "positions": [
                -1.1913581850448116,
                -1.1713654232382518,
                2.009496188457147,
                -0.8032937356675716,
                0.6415295000350365,
                3.158026437635259
            ]
        },
        {
            "positions": [
                -1.2875091612851208,
                -1.2207103334120042,
                1.9996862087683633,
                -0.7506202902688917,
                0.8070951287760368,
                3.1569710010780723
            ]
        },
        {
            "positions": [
                -1.3836601375254298,
                -1.2700552435857566,
                1.9898762290795795,
                -0.6979468448702117,
                0.9726607575170374,
                3.1559155645208854
            ]
        },
        {
            "positions": [
                -1.4798111137657388,
                -1.3194001537595093,
                1.9800662493907957,
                -0.6452733994715318,
                1.1382263862580377,
                3.154860127963699
            ]
        },
        {
            "positions": [
                -1.575962090006048,
                -1.368745063933262,
                1.9702562697020116,
                -0.5925999540728518,
                1.3037920149990383,
                3.153804691406512
            ]
        },
        {
            "positions": [
                -1.672113066246357,
                -1.4180899741070143,
                1.9604462900132278,
                -0.5399265086741719,
                1.4693576437400386,
                3.1527492548493252
            ]
        }
    ]
}