{
    "goal": {
        "global_pose": {
            "orientation": {
                "w": 0.7047431493862688,
                "x": -0.7094548369677653,
                "y": 0.0024358444001904,
                "z": -0.0022348060817251984
            },
            "position": {
                "x": -0.39052492380142206,
                "y": 0.3671506643295288,
                "z": 0.19426114857196808
            }
        },
        "name": "move_to_magneteinheit_D"
    },
    "id": "LBKPIECE_move_to_magneteinheit_D_43",
    "joint_names": [
        "shoulder_pan_joint",
        "shoulder_lift_joint",
        "elbow_joint",
        "wrist_1_joint",
        "wrist_2_joint",
        "wrist_3_joint"
    ],
    "metrics": {
        "cart_traj_len": 8.343954305739,
        "distance_elbow_joint": 3.1050268325768142,
        "distance_shoulder_lift_joint": 4.674130833930154,
        "distance_shoulder_pan_joint": 3.6592583071592366,
        "distance_wrist_1_joint": 6.69096365444322,
        "distance_wrist_2_joint": 4.209692615713885,
        "distance_wrist_3_joint": 6.769692380063127,
        "smoothness": 0.593945802404542,
        "time": 0.21243069,
        "traj_len": 5.395253898000206,
        "weighted_distance": 7.317704944459692
    },
    "planner": "LBKPIECE",
    "start": {
        "state": {
            "elbow_joint": 0.7495348899011911,
            "shoulder_lift_joint": -0.6476975780737668,
            "shoulder_pan_joint": -2.711696901376276,
            "wrist_1_joint": -0.0750647808097303,
            "wrist_2_joint": 0.43296659715458535,
            "wrist_3_joint": 3.1361499051832418
        }
    },
    "waypoints": [
        {
            "positions": [
                -2.711696901376276,
                -0.6476975780737668,
                0.7495348899011911,
                -0.0750647808097303,
                0.43296659715458535,
                3.1361499051832418
            ]
        },
        {
            "positions": [
                -2.7221032277017354,
                -0.6243840781651423,
                0.7101333983612665,
                -0.07689709291763322,
                0.30615219693392426,
                3.0014708341443357
            ]
        },
        {
            "positions": [
                -2.732509554027195,
                -0.6010705782565177,
                0.670731906821342,
                -0.07872940502553614,
                0.17933779671326316,
                2.8667917631054296
            ]
        },
        {
            "positions": [
                -2.7429158803526543,
                -0.5777570783478931,
                0.6313304152814174,
                -0.08056171713343907,
                0.052523396492602126,
                2.732112692066523
            ]
        },
        {
            "positions": [
                -2.753322206678114,
                -0.5544435784392685,
                0.5919289237414929,
                -0.082394029241342,
                -0.07429100372805902,
                2.597433621027617
            ]
        },
        {
            "positions": [
                -2.7637285330035732,
                -0.531130078530644,
                0.5525274322015683,
                -0.08422634134924492,
                -0.20110540394872012,
                2.462754549988711
            ]
        },
        {
            "positions": [
                -2.779701200197323,
                -0.6154919612655494,
                0.5299582113412024,
                -0.18596816372589275,
                -0.12591548142320458,
                2.3801050622550743
            ]
        },
        {
            "positions": [
                -2.795673867391073,
                -0.6998538440004548,
                0.5073889904808364,
                -0.2877099861025406,
                -0.05072555889768904,
                2.2974555745214382
            ]
        },
        {
            "positions": [
                -2.8116465345848227,
                -0.7842157267353602,
                0.4848197696204704,
                -0.3894518084791885,
                0.02446436362782653,
                2.2148060867878017
            ]
        },
        {
            "positions": [
                -2.8276192017785724,
                -0.8685776094702657,
                0.46225054876010446,
                -0.4911936308558362,
                0.09965428615334204,
                2.132156599054165
            ]
        },
        {
            "positions": [
                -2.843591868972322,
                -0.9529394922051712,
                0.43968132789973846,
                -0.5929354532324841,
                0.17484420867885764,
                2.049507111320529
            ]
        },
        {
            "positions": [
                -2.859564536166072,
                -1.0373013749400766,
                0.4171121070393725,
                -0.694677275609132,
                0.2500341312043732,
                1.9668576235868924
            ]
        },
        {
            "positions": [
                -2.875537203359822,
                -1.121663257674982,
                0.39454288617900657,
                -0.7964190979857798,
                0.3252240537298887,
                1.8842081358532559
            ]
        },
        {
            "positions": [
                -2.8915098705535716,
                -1.2060251404098874,
                0.3719736653186406,
                -0.8981609203624276,
                0.4004139762554042,
                1.8015586481196197
            ]
        },
        {
            "positions": [
                -2.9074825377473217,
                -1.2903870231447927,
                0.3494044444582746,
                -0.9999027427390755,
                0.4756038987809198,
                1.7189091603859832
            ]
        },
        {
            "positions": [
                -2.9234552049410714,
                -1.3747489058796982,
                0.3268352235979086,
                -1.1016445651157234,
                0.5507938213064354,
                1.6362596726523466
            ]
        },
        {
            "positions": [
                -2.939427872134821,
                -1.4591107886146037,
                0.3042660027375427,
                -1.2033863874923711,
                0.6259837438319509,
                1.5536101849187105
            ]
        },
        {
            "positions": [
                -2.955400539328571,
                -1.5434726713495093,
                0.2816967818771767,
                -1.3051282098690191,
                0.7011736663574665,
                1.470960697185074
            ]
        },
        {
            "positions": [
                -2.971373206522321,
                -1.6278345540844144,
                0.2591275610168108,
                -1.4068700322456669,
                0.776363588882982,
                1.3883112094514376
            ]
        },
        {
            "positions": [
                -2.9873458737160705,
                -1.7121964368193203,
                0.23655834015644478,
                -1.5086118546223148,
                0.8515535114084976,
                1.305661721717801
            ]
        },
        {
            "positions": [
                -3.00331854090982,
                -1.7965583195542254,
                0.21398911929607883,
                -1.6103536769989626,
                0.926743433934013,
                1.2230122339841647
            ]
        },
        {
            "positions": [
                -3.0192912081035703,
                -1.880920202289131,
                0.1914198984357129,
                -1.7120954993756103,
                1.0019333564595285,
                1.1403627462505284
            ]
        },
        {
            "positions": [
                -3.03526387529732,
                -1.9652820850240365,
                0.16885067757534689,
                -1.8138373217522583,
                1.0771232789850442,
                1.0577132585168918
            ]
        },
        {
            "positions": [
                -3.0512365424910697,
                -2.0496439677589415,
                0.14628145671498094,
                -1.9155791441289063,
                1.1523132015105597,
                0.9750637707832555
            ]
        },
        {
            "positions": [
                -3.06720920968482,
                -2.134005850493847,
                0.123712235854615,
                -2.017320966505554,
                1.2275031240360752,
                0.8924142830496191
            ]
        },
        {
            "positions": [
                -3.0831818768785695,
                -2.2183677332287526,
                0.10114301499424899,
                -2.119062788882202,
                1.302693046561591,
                0.8097647953159826
            ]
        },
        {
            "positions": [
                -3.099154544072319,
                -2.302729615963658,
                0.07857379413388305,
                -2.2208046112588495,
                1.3778829690871064,
                0.7271153075823462
            ]
        },
        {
            "positions": [
                -3.115127211266069,
                -2.387091498698563,
                0.0560045732735171,
                -2.3225464336354973,
                1.4530728916126219,
                0.6444658198487099
            ]
        },
        {
            "positions": [
                -3.131099878459819,
                -2.471453381433469,
                0.0334353524131511,
                -2.4242882560121455,
                1.5282628141381376,
                0.5618163321150733
            ]
        },
        {
            "positions": [
                -3.1470725456535686,
                -2.5558152641683742,
                0.010866131552785152,
                -2.5260300783887932,
                1.603452736663653,
                0.479166844381437
            ]
        },
        {
            "positions": [
                -3.083572517395036,
                -2.463061227879728,
                0.005942031313405397,
                -2.399429493704016,
                1.5280885940123585,
                0.49376733805535117
            ]
        },
        {
            "positions": [
                -3.020072489136503,
                -2.370307191591082,
                0.0010179310740256412,
                -2.2728289090192386,
                1.452724451361064,
                0.5083678317292654
            ]
        },
        {
            "positions": [
                -2.9565724608779704,
                -2.277553155302436,
                -0.003906169165354115,
                -2.146228324334461,
                1.3773603087097692,
                0.5229683254031796
            ]
        },
        {
            "positions": [
                -2.8930724326194377,
                -2.18479911901379,
                -0.00883026940473387,
                -2.0196277396496836,
                1.301996166058475,
                0.5375688190770939
            ]
        },
        {
            "positions": [
                -2.829572404360905,
                -2.0920450827251433,
                -0.01375436964411363,
                -1.8930271549649063,
                1.2266320234071801,
                0.5521693127510081
            ]
        },
        {
            "positions": [
                -2.766072376102372,
                -1.9992910464364975,
                -0.018678469883493382,
                -1.766426570280129,
                1.1512678807558856,
                0.5667698064249223
            ]
        },
        {
            "positions": [
                -2.7025723478438395,
                -1.9065370101478512,
                -0.02360257012287314,
                -1.6398259855953514,
                1.075903738104591,
                0.5813703000988365
            ]
        },
        {
            "positions": [
                -2.6390723195853063,
                -1.813782973859205,
                -0.02852667036225289,
                -1.5132254009105741,
                1.0005395954532965,
                0.5959707937727508
            ]
        },
        {
            "positions": [
                -2.5755722913267736,
                -1.721028937570559,
                -0.03345077060163265,
                -1.3866248162257966,
                0.9251754528020019,
                0.6105712874466649
            ]
        },
        {
            "positions": [
                -2.512072263068241,
                -1.6282749012819129,
                -0.03837487084101241,
                -1.260024231541019,
                0.8498113101507072,
                0.6251717811205791
            ]
        },
        {
            "positions": [
                -2.448572234809708,
                -1.5355208649932666,
                -0.04329897108039217,
                -1.1334236468562418,
                0.7744471674994127,
                0.6397722747944934
            ]
        },
        {
            "positions": [
                -2.3850722065511754,
                -1.4427668287046207,
                -0.04822307131977192,
                -1.0068230621714644,
                0.6990830248481181,
                0.6543727684684075
            ]
        },
        {
            "positions": [
                -2.3215721782926426,
                -1.3500127924159744,
                -0.053147171559151676,
                -0.8802224774866869,
                0.6237188821968236,
                0.6689732621423218
            ]
        },
        {
            "positions": [
                -2.25807215003411,
                -1.2572587561273283,
                -0.05807127179853143,
                -0.7536218928019096,
                0.548354739545529,
                0.683573755816236
            ]
        },
        {
            "positions": [
                -2.194572121775577,
                -1.164504719838682,
                -0.0629953720379112,
                -0.6270213081171321,
                0.4729905968942343,
                0.6981742494901503
            ]
        },
        {
            "positions": [
                -2.1310720935170444,
                -1.071750683550036,
                -0.06791947227729093,
                -0.500420723432355,
                0.39762645424293996,
                0.7127747431640645
            ]
        },
        {
            "positions": [
                -2.0675720652585117,
                -0.9789966472613898,
                -0.0728435725166707,
                -0.37382013874757725,
                0.3222623115916452,
                0.7273752368379787
            ]
        },
        {
            "positions": [
                -2.004072036999979,
                -0.8862426109727438,
                -0.07776767275605045,
                -0.24721955406280016,
                0.2468981689403506,
                0.7419757305118929
            ]
        },
        {
            "positions": [
                -1.9111711577091264,
                -0.9019508261442585,
                -0.17111872042104403,
                -0.3133197243521774,
                0.24028592514135316,
                0.6283902249657071
            ]
        },
        {
            "positions": [
                -1.818270278418274,
                -0.9176590413157731,
                -0.2644697680860376,
                -0.3794198946415547,
                0.2336736813423557,
                0.5148047194195211
            ]
        },
        {
            "positions": [
                -1.7253693991274215,
                -0.9333672564872878,
                -0.35782081575103125,
                -0.445520064930932,
                0.22706143754335825,
                0.40121921387333526
            ]
        },
        {
            "positions": [
                -1.632468519836569,
                -0.9490754716588023,
                -0.45117186341602483,
                -0.5116202352203092,
                0.2204491937443608,
                0.28763370832714935
            ]
        },
        {
            "positions": [
                -1.5395676405457164,
                -0.964783686830317,
                -0.5445229110810184,
                -0.5777204055096865,
                0.21383694994536337,
                0.17404820278096345
            ]
        },
        {
            "positions": [
                -1.446666761254864,
                -0.9804919020018317,
                -0.637873958746012,
                -0.6438205757990638,
                0.2072247061463659,
                0.060462697234777596
            ]
        },
        {
            "positions": [
                -1.3537658819640115,
                -0.9962001171733463,
                -0.7312250064110056,
                -0.7099207460884411,
                0.20061246234736846,
                -0.053122808311408254
            ]
        },
        {
            "positions": [
                -1.260865002673159,
                -1.011908332344861,
                -0.8245760540759992,
                -0.7760209163778183,
                0.19400021854837102,
                -0.16670831385759421
            ]
        },
        {
            "positions": [
                -1.1679641233823066,
                -1.0276165475163757,
                -0.9179271017409928,
                -0.8421210866671957,
                0.18738797474937358,
                -0.28029381940377995
            ]
        },
        {
            "positions": [
                -1.075063244091454,
                -1.0433247626878903,
                -1.0112781494059864,
                -0.908221256956573,
                0.18077573095037613,
                -0.393879324949966
            ]
        },
        {
            "positions": [
                -0.9821623648006015,
                -1.059032977859405,
                -1.10462919707098,
                -0.9743214272459503,
                0.17416348715137864,
                -0.5074648304961519
            ]
        },
        {
            "positions": [
                -0.8892614855097491,
                -1.0747411930309196,
                -1.1979802447359735,
                -1.0404215975353275,
                0.1675512433523812,
                -0.6210503360423377
            ]
        },
        {
            "positions": [
                -0.7963606062188966,
                -1.0904494082024343,
                -1.2913312924009674,
                -1.106521767824705,
                0.16093899955338375,
                -0.7346358415885238
            ]
        },
        {
            "positions": [
                -0.703459726928044,
                -1.106157623373949,
                -1.384682340065961,
                -1.172621938114082,
                0.1543267557543863,
                -0.8482213471347094
            ]
        },
        {
            "positions": [
                -0.6105588476371915,
                -1.1218658385454634,
                -1.4780333877309544,
                -1.2387221084034594,
                0.14771451195538887,
                -0.9618068526808955
            ]
        },
        {
            "positions": [
                -0.5176579683463391,
                -1.137574053716978,
                -1.5713844353959479,
                -1.3048222786928365,
                0.14110226815639143,
                -1.0753923582270812
            ]
        },
        {
            "positions": [
                -0.4247570890554866,
                -1.1532822688884927,
                -1.6647354830609418,
                -1.370922448982214,
                0.13449002435739396,
                -1.188977863773267
            ]
        },
        {
            "positions": [
                -0.33185620976463426,
                -1.1689904840600074,
                -1.7580865307259352,
                -1.4370226192715911,
                0.12787778055839652,
                -1.302563369319453
            ]
        },
        {
            "positions": [
                -0.23895533047378148,
                -1.184698699231522,
                -1.8514375783909287,
                -1.5031227895609685,
                0.12126553675939908,
                -1.4161488748656392
            ]
        },
        {
            "positions": [
                -0.14605445118292915,
                -1.2004069144030367,
                -1.9447886260559222,
                -1.5692229598503458,
                0.11465329296040164,
                -1.529734380411825
            ]
        },
        {
            "positions": [
                -0.05315357189207652,
                -1.2161151295745514,
                -2.038139673720916,
                -1.635323130139723,
                0.10804104916140415,
                -1.643319885958011
            ]
        },
        {
            "positions": [
                -0.054065914604887196,
                -1.27388203655765,
                -2.0867651334552573,
                -1.7176740078266706,
                0.07584424599301323,
                -1.800150383030604
            ]
        },
        {
            "positions": [
                -0.05497825731769787,
                -1.3316489435407484,
                -2.1353905931895985,
                -1.8000248855136178,
                0.04364744282462231,
                -1.9569808801031972
            ]
        },
        {
            "positions": [
                -0.05589060003050854,
                -1.389415850523847,
                -2.1840160529239396,
                -1.8823757632005653,
                0.011450639656231387,
                -2.1138113771757903
            ]
        },
        {
            "positions": [
                -0.056802942743319214,
                -1.4471827575069456,
                -2.2326415126582813,
                -1.9647266408875126,
                -0.020746163512159535,
                -2.2706418742483834
            ]
        },
        {
            "positions": [
                -0.05771528545612989,
                -1.5049496644900442,
                -2.2812669723926224,
                -2.04707751857446,
                -0.05294296668055047,
                -2.4274723713209765
            ]
        },
        {
            "positions": [
                -0.058627628168940564,
                -1.5627165714731426,
                -2.3298924321269636,
                -2.1294283962614076,
                -0.08513976984894138,
                -2.5843028683935696
            ]
        },
        {
            "positions": [
                -0.10012417245013669,
                -1.6249937498242353,
                -2.3384256023098504,
                -2.155754726374593,
                -0.11262975901081115,
                -2.7588434798020365
            ]
        },
        {
            "positions": [
                -0.1416207167313328,
                -1.6872709281753278,
                -2.346958772492737,
                -2.1820810564877786,
                -0.1401197481726809,
                -2.933384091210504
            ]
        },
        {
            "positions": [
                -0.18311726101252893,
                -1.7495481065264205,
                -2.355491942675624,
                -2.208407386600964,
                -0.1676097373345507,
                -3.1079247026189707
            ]
        }
    ]
}