{
    "goal": {
        "global_pose": {
            "orientation": {
                "w": 0.7047431493862688,
                "x": -0.7094548369677653,
                "y": 0.0024358444001904,
                "z": -0.0022348060817251984
            },
            "position": {
                "x": -0.39052492380142206,
                "y": 0.3671506643295288,
                "z": 0.19426114857196808
            }
        },
        "name": "move_to_magneteinheit_D"
    },
    "id": "LBKPIECE_move_to_magneteinheit_D_80",
    "joint_names": [
        "shoulder_pan_joint",
        "shoulder_lift_joint",
        "elbow_joint",
        "wrist_1_joint",
        "wrist_2_joint",
        "wrist_3_joint"
    ],
    "metrics": {
        "cart_traj_len": 5.109235932030321,
        "distance_elbow_joint": 4.160783856899588,
        "distance_shoulder_lift_joint": 1.633700693033228,
        "distance_shoulder_pan_joint": 8.764441580060742,
        "distance_wrist_1_joint": 4.963106612725895,
        "distance_wrist_2_joint": 1.6864444164223666,
        "distance_wrist_3_joint": 6.799303608653453,
        "smoothness": 0.4085799684442372,
        "time": 0.502812063,
        "traj_len": 5.292237784509997,
        "weighted_distance": 6.946649481170795
    },
    "planner": "LBKPIECE",
    "start": {
        "state": {
            "elbow_joint": 0.7495348899011911,
            "shoulder_lift_joint": -0.6476975780737668,
            "shoulder_pan_joint": -2.711696901376276,
            "wrist_1_joint": -0.0750647808097303,
            "wrist_2_joint": 0.43296659715458535,
            "wrist_3_joint": 3.1361499051832418
        }
    },
    "waypoints": [
        {
            "positions": [
                -2.711696901376276,
                -0.6476975780737668,
                0.7495348899011911,
                -0.0750647808097303,
                0.43296659715458535,
                3.1361499051832418
            ]
        },
        {
            "positions": [
                -2.7087541111210687,
                -0.7072736073665651,
                0.7950938133636454,
                0.047514096571371026,
                0.5038149991261651,
                3.1217392488958695
            ]
        },
        {
            "positions": [
                -2.7058113208658607,
                -0.7668496366593635,
                0.8406527368260996,
                0.17009297395247236,
                0.5746634010977448,
                3.1073285926084973
            ]
        },
        {
            "positions": [
                -2.686509986072396,
                -0.8257836959922948,
                0.876433254091327,
                0.28376212274617363,
                0.6422576709980397,
                3.070152352292387
            ]
        },
        {
            "positions": [
                -2.6672086512789317,
                -0.8847177553252263,
                0.9122137713565542,
                0.3974312715398749,
                0.7098519408983344,
                3.0329761119762764
            ]
        },
        {
            "positions": [
                -2.647907316485467,
                -0.9436518146581578,
                0.9479942886217816,
                0.5111004203335763,
                0.7774462107986292,
                2.995799871660166
            ]
        },
        {
            "positions": [
                -2.628605981692003,
                -1.0025858739910891,
                0.9837748058870088,
                0.6247695691272774,
                0.845040480698924,
                2.958623631344056
            ]
        },
        {
            "positions": [
                -2.6093046468985386,
                -1.0615199333240206,
                1.0195553231522363,
                0.7384387179209788,
                0.9126347505992187,
                2.9214473910279453
            ]
        },
        {
            "positions": [
                -2.590003312105074,
                -1.1204539926569521,
                1.0553358404174635,
                0.8521078667146801,
                0.9802290204995135,
                2.884271150711835
            ]
        },
        {
            "positions": [
                -2.5467326786446707,
                -1.1663602929326145,
                1.0268821470178333,
                0.9493296481692791,
                1.0218971253964262,
                2.80179074078469
            ]
        },
        {
            "positions": [
                -2.5034620451842673,
                -1.2122665932082768,
                0.9984284536182032,
                1.0465514296238783,
                1.0635652302933387,
                2.7193103308575455
            ]
        },
        {
            "positions": [
                -2.460191411723864,
                -1.258172893483939,
                0.9699747602185731,
                1.1437732110784773,
                1.1052333351902512,
                2.636829920930401
            ]
        },
        {
            "positions": [
                -2.4169207782634605,
                -1.3040791937596012,
                0.9415210668189429,
                1.2409949925330763,
                1.1469014400871638,
                2.554349511003256
            ]
        },
        {
            "positions": [
                -2.2864398871023623,
                -1.3061437700568967,
                0.8554108366479084,
                1.2886576770663314,
                1.1287716090168685,
                2.4474669492972407
            ]
        },
        {
            "positions": [
                -2.155958995941264,
                -1.308208346354192,
                0.7693006064768739,
                1.3363203615995867,
                1.1106417779465734,
                2.340584387591226
            ]
        },
        {
            "positions": [
                -2.025478104780166,
                -1.3102729226514875,
                0.6831903763058393,
                1.3839830461328417,
                1.092511946876278,
                2.233701825885211
            ]
        },
        {
            "positions": [
                -1.8949972136190674,
                -1.3123374989487828,
                0.5970801461348049,
                1.4316457306660968,
                1.074382115805983,
                2.1268192641791956
            ]
        },
        {
            "positions": [
                -1.7645163224579692,
                -1.3144020752460783,
                0.5109699159637704,
                1.4793084151993519,
                1.0562522847356877,
                2.019936702473181
            ]
        },
        {
            "positions": [
                -1.634035431296871,
                -1.3164666515433736,
                0.4248596857927359,
                1.5269710997326071,
                1.0381224536653926,
                1.9130541407671657
            ]
        },
        {
            "positions": [
                -1.5035545401357728,
                -1.3185312278406691,
                0.33874945562170133,
                1.5746337842658622,
                1.0199926225950973,
                1.8061715790611508
            ]
        },
        {
            "positions": [
                -1.3730736489746744,
                -1.3205958041379644,
                0.25263922545066686,
                1.6222964687991173,
                1.0018627915248022,
                1.6992890173551358
            ]
        },
        {
            "positions": [
                -1.2425927578135763,
                -1.32266038043526,
                0.16652899527963239,
                1.6699591533323725,
                0.9837329604545069,
                1.5924064556491206
            ]
        },
        {
            "positions": [
                -1.112111866652478,
                -1.3247249567325552,
                0.0804187651085978,
                1.7176218378656276,
                0.9656031293842117,
                1.4855238939431057
            ]
        },
        {
            "positions": [
                -0.9816309754913797,
                -1.3267895330298507,
                -0.005691465062436674,
                1.7652845223988827,
                0.9474732983139165,
                1.3786413322370907
            ]
        },
        {
            "positions": [
                -0.8511500843302817,
                -1.328854109327146,
                -0.09180169523347104,
                1.8129472069321377,
                0.9293434672436213,
                1.2717587705310758
            ]
        },
        {
            "positions": [
                -0.7206691931691833,
                -1.3309186856244415,
                -0.17791192540450562,
                1.8606098914653928,
                0.9112136361733261,
                1.1648762088250606
            ]
        },
        {
            "positions": [
                -0.5901883020080849,
                -1.332983261921737,
                -0.2640221555755402,
                1.908272575998648,
                0.8930838051030308,
                1.0579936471190456
            ]
        },
        {
            "positions": [
                -0.45970741084698696,
                -1.3350478382190323,
                -0.35013238574657457,
                1.9559352605319031,
                0.8749539740327356,
                0.9511110854130307
            ]
        },
        {
            "positions": [
                -0.32922651968588834,
                -1.3371124145163278,
                -0.43624261591760916,
                2.003597945065158,
                0.8568241429624404,
                0.8442285237070155
            ]
        },
        {
            "positions": [
                -0.1987456285247906,
                -1.339176990813623,
                -0.5223528460886435,
                2.0512606295984135,
                0.8386943118921452,
                0.7373459620010008
            ]
        },
        {
            "positions": [
                -0.06826473736369199,
                -1.3412415671109186,
                -0.6084630762596781,
                2.0989233141316683,
                0.82056448082185,
                0.6304634002949856
            ]
        },
        {
            "positions": [
                0.06221615379740619,
                -1.3433061434082139,
                -0.6945733064307127,
                2.1465859986649236,
                0.8024346497515547,
                0.5235808385889706
            ]
        },
        {
            "positions": [
                0.19269704495850437,
                -1.3453707197055094,
                -0.7806835366017473,
                2.194248683198179,
                0.7843048186812596,
                0.41669827688295547
            ]
        },
        {
            "positions": [
                0.32317793611960255,
                -1.3474352960028046,
                -0.8667937667727816,
                2.2419113677314337,
                0.7661749876109643,
                0.30981571517694073
            ]
        },
        {
            "positions": [
                0.45365882728070117,
                -1.3494998723001002,
                -0.9529039969438162,
                2.289574052264689,
                0.748045156540669,
                0.20293315347092555
            ]
        },
        {
            "positions": [
                0.5841397184417993,
                -1.3515644485973954,
                -1.0390142271148508,
                2.3372367367979443,
                0.7299153254703739,
                0.09605059176491038
            ]
        },
        {
            "positions": [
                0.7146206096028971,
                -1.353629024894691,
                -1.125124457285885,
                2.384899421331199,
                0.7117854944000788,
                -0.010831969941104358
            ]
        },
        {
            "positions": [
                0.8451015007639953,
                -1.3556936011919862,
                -1.2112346874569198,
                2.4325621058644544,
                0.6936556633297835,
                -0.11771453164711954
            ]
        },
        {
            "positions": [
                0.9755823919250939,
                -1.3577581774892817,
                -1.2973449176279541,
                2.4802247903977097,
                0.6755258322594883,
                -0.2245970933531347
            ]
        },
        {
            "positions": [
                1.106063283086192,
                -1.359822753786577,
                -1.383455147798989,
                2.5278874749309646,
                0.6573960011891931,
                -0.33147965505914945
            ]
        },
        {
            "positions": [
                1.2365441742472907,
                -1.3618873300838725,
                -1.4695653779700233,
                2.57555015946422,
                0.6392661701188977,
                -0.4383622167651646
            ]
        },
        {
            "positions": [
                1.3670250654083884,
                -1.363951906381168,
                -1.5556756081410577,
                2.6232128439974747,
                0.6211363390486027,
                -0.5452447784711794
            ]
        },
        {
            "positions": [
                1.4975059565694866,
                -1.3660164826784633,
                -1.641785838312092,
                2.67087552853073,
                0.6030065079783073,
                -0.6521273401771945
            ]
        },
        {
            "positions": [
                1.6279868477305848,
                -1.3680810589757588,
                -1.7278960684831268,
                2.718538213063985,
                0.5848766769080121,
                -0.7590099018832097
            ]
        },
        {
            "positions": [
                1.7584677388916838,
                -1.370145635273054,
                -1.8140062986541612,
                2.7662008975972405,
                0.566746845837717,
                -0.8658924635892249
            ]
        },
        {
            "positions": [
                1.888948630052782,
                -1.3722102115703496,
                -1.900116528825196,
                2.8138635821304954,
                0.5486170147674218,
                -0.9727750252952396
            ]
        },
        {
            "positions": [
                2.0194295212138793,
                -1.374274787867645,
                -1.98622675899623,
                2.86152626666375,
                0.5304871836971266,
                -1.0796575870012544
            ]
        },
        {
            "positions": [
                2.1499104123749775,
                -1.3763393641649404,
                -2.0723369891672645,
                2.9091889511970055,
                0.5123573526268314,
                -1.1865401487072695
            ]
        },
        {
            "positions": [
                2.2803913035360766,
                -1.3784039404622357,
                -2.1584472193382993,
                2.9568516357302608,
                0.49422752155653615,
                -1.2934227104132847
            ]
        },
        {
            "positions": [
                2.4108721946971747,
                -1.3804685167595312,
                -2.244557449509334,
                3.0045143202635156,
                0.47609769048624084,
                -1.4003052721193
            ]
        },
        {
            "positions": [
                2.541353085858273,
                -1.3825330930568265,
                -2.330667679680368,
                3.0521770047967713,
                0.45796785941594564,
                -1.5071878338253146
            ]
        },
        {
            "positions": [
                2.671833977019371,
                -1.384597669354122,
                -2.416777909851403,
                3.099839689330026,
                0.43983802834565056,
                -1.6140703955313294
            ]
        },
        {
            "positions": [
                2.8023148681804693,
                -1.3866622456514173,
                -2.5028881400224376,
                3.147502373863281,
                0.42170819727535525,
                -1.720952957237345
            ]
        },
        {
            "positions": [
                2.932795759341567,
                -1.3887268219487128,
                -2.588998370193472,
                3.1951650583965363,
                0.40357836620506005,
                -1.82783551894336
            ]
        },
        {
            "positions": [
                2.7842267631823816,
                -1.4312349861943452,
                -2.578967479918597,
                3.1145518787051256,
                0.39266472336659886,
                -1.7404394149182718
            ]
        },
        {
            "positions": [
                2.6356577670231958,
                -1.4737431504399778,
                -2.5689365896437213,
                3.0339386990137145,
                0.38175108052813767,
                -1.653043310893184
            ]
        },
        {
            "positions": [
                2.4870887708640104,
                -1.5162513146856103,
                -2.558905699368846,
                2.953325519322304,
                0.3708374376896765,
                -1.5656472068680958
            ]
        },
        {
            "positions": [
                2.3385197747048245,
                -1.5587594789312427,
                -2.548874809093971,
                2.8727123396308927,
                0.3599237948512153,
                -1.4782511028430076
            ]
        },
        {
            "positions": [
                2.189950778545639,
                -1.601267643176875,
                -2.538843918819096,
                2.792099159939482,
                0.3490101520127541,
                -1.3908549988179195
            ]
        },
        {
            "positions": [
                2.0413817823864533,
                -1.6437758074225077,
                -2.5288130285442203,
                2.711485980248071,
                0.3380965091742929,
                -1.3034588947928314
            ]
        },
        {
            "positions": [
                1.892812786227268,
                -1.6862839716681401,
                -2.518782138269345,
                2.63087280055666,
                0.3271828663358317,
                -1.2160627907677435
            ]
        },
        {
            "positions": [
                1.7442437900680823,
                -1.7287921359137726,
                -2.50875124799447,
                2.5502596208652495,
                0.3162692234973705,
                -1.1286666867426554
            ]
        },
        {
            "positions": [
                1.5956747939088967,
                -1.771300300159405,
                -2.4987203577195944,
                2.4696464411738384,
                0.30535558065890933,
                -1.0412705827175675
            ]
        },
        {
            "positions": [
                1.447105797749711,
                -1.8138084644050376,
                -2.4886894674447193,
                2.3890332614824277,
                0.29444193782044814,
                -0.9538744786924792
            ]
        },
        {
            "positions": [
                1.2985368015905252,
                -1.85631662865067,
                -2.478658577169844,
                2.3084200817910165,
                0.2835282949819869,
                -0.8664783746673911
            ]
        },
        {
            "positions": [
                1.1499678054313398,
                -1.8988247928963027,
                -2.468627686894969,
                2.227806902099606,
                0.27261465214352576,
                -0.7790822706423031
            ]
        },
        {
            "positions": [
                1.001398809272154,
                -1.941332957141935,
                -2.4585967966200934,
                2.147193722408195,
                0.26170100930506457,
                -0.6916861666172149
            ]
        },
        {
            "positions": [
                0.8528298131129688,
                -1.9838411213875675,
                -2.4485659063452183,
                2.066580542716784,
                0.2507873664666034,
                -0.604290062592127
            ]
        },
        {
            "positions": [
                0.704260816953783,
                -2.0263492856332,
                -2.438535016070343,
                1.9859673630253731,
                0.23987372362814213,
                -0.5168939585670387
            ]
        },
        {
            "positions": [
                0.5556918207945976,
                -2.0688574498788324,
                -2.4285041257954676,
                1.9053541833339624,
                0.22896008078968097,
                -0.4294978545419508
            ]
        },
        {
            "positions": [
                0.4071228246354117,
                -2.111365614124465,
                -2.4184732355205925,
                1.8247410036425513,
                0.21804643795121975,
                -0.34210175051686265
            ]
        },
        {
            "positions": [
                0.2585538284762263,
                -2.153873778370097,
                -2.4084423452457173,
                1.7441278239511406,
                0.2071327951127586,
                -0.25470564649177474
            ]
        },
        {
            "positions": [
                0.10998483231704048,
                -2.19638194261573,
                -2.398411454970842,
                1.6635146442597297,
                0.19621915227429737,
                -0.1673095424666864
            ]
        },
        {
            "positions": [
                -0.038584163842144914,
                -2.2388901068613625,
                -2.3883805646959666,
                1.5829014645683188,
                0.1853055094358362,
                -0.07991343844159848
            ]
        },
        {
            "positions": [
                -0.18715316000133062,
                -2.281398271106995,
                -2.3783496744210915,
                1.502288284876908,
                0.174391866597375,
                0.007482665583489551
            ]
        }
    ]
}