{
    "goal": {
        "global_pose": {
            "orientation": {
                "w": 0.5084816262002911,
                "x": -0.4908360881923452,
                "y": 0.5182115481033761,
                "z": -0.48164630358495003
            },
            "position": {
                "x": 0.5540239810943604,
                "y": -0.46912469901144505,
                "z": 0.16403168439865112
            }
        },
        "name": "move_to_storage_B"
    },
    "id": "LBKPIECE_move_to_storage_B_145",
    "joint_names": [
        "shoulder_pan_joint",
        "shoulder_lift_joint",
        "elbow_joint",
        "wrist_1_joint",
        "wrist_2_joint",
        "wrist_3_joint"
    ],
    "metrics": {
        "cart_traj_len": 0.7938892424066298,
        "distance_elbow_joint": 0.6752455041404601,
        "distance_shoulder_lift_joint": 0.45958085712521757,
        "distance_shoulder_pan_joint": 0.5866173094687714,
        "distance_wrist_1_joint": 3.005118247825312,
        "distance_wrist_2_joint": 2.7032248985747733,
        "distance_wrist_3_joint": 3.3616866818344553,
        "smoothness": 0.3198258897883112,
        "time": 0.267941512,
        "traj_len": 3.285037823065206,
        "weighted_distance": 4.819044512041571
    },
    "planner": "LBKPIECE",
    "start": {
        "state": {
            "elbow_joint": 1.6649325340416963,
            "shoulder_lift_joint": -0.6616387945129425,
            "shoulder_pan_joint": -0.9139837929255878,
            "wrist_1_joint": 2.1467571094334352,
            "wrist_2_joint": -2.234195976750228,
            "wrist_3_joint": 0.005470921511140723
        }
    },
    "waypoints": [
        {
            "positions": [
                -0.9139837929255878,
                -0.6616387945129425,
                1.6649325340416963,
                2.1467571094334352,
                -2.234195976750228,
                0.005470921511140723
            ]
        },
        {
            "positions": [
                -0.8125682204084154,
                -0.6740259839916272,
                1.5846828841478535,
                2.1347122307632413,
                -2.1992144138878826,
                0.06445147495283234
            ]
        },
        {
            "positions": [
                -0.7111526478912429,
                -0.6864131734703118,
                1.504433234254011,
                2.1226673520930475,
                -2.164232851025537,
                0.12343202839452394
            ]
        },
        {
            "positions": [
                -0.7259136542156439,
                -0.7031364995536906,
                1.5242311651906562,
                2.0080124101513195,
                -2.0629535520697644,
                -0.0013266475651326631
            ]
        },
        {
            "positions": [
                -0.7406746605400449,
                -0.7198598256370694,
                1.5440290961273013,
                1.8933574682095917,
                -1.9616742531139921,
                -0.12608532352478927
            ]
        },
        {
            "positions": [
                -0.755435666864446,
                -0.7365831517204482,
                1.5638270270639465,
                1.778702526267864,
                -1.8603949541582196,
                -0.25084399948444586
            ]
        },
        {
            "positions": [
                -0.770196673188847,
                -0.753306477803827,
                1.5836249580005917,
                1.664047584326136,
                -1.7591156552024474,
                -0.3756026754441025
            ]
        },
        {
            "positions": [
                -0.784957679513248,
                -0.7700298038872058,
                1.6034228889372368,
                1.5493926423844082,
                -1.657836356246675,
                -0.5003613514037591
            ]
        },
        {
            "positions": [
                -0.799718685837649,
                -0.7867531299705846,
                1.623220819873882,
                1.4347377004426805,
                -1.5565570572909024,
                -0.6251200273634157
            ]
        },
        {
            "positions": [
                -0.81447969216205,
                -0.8034764560539632,
                1.6430187508105272,
                1.3200827585009525,
                -1.4552777583351302,
                -0.7498787033230723
            ]
        },
        {
            "positions": [
                -0.8292406984864511,
                -0.8201997821373421,
                1.6628166817471726,
                1.2054278165592245,
                -1.3539984593793577,
                -0.8746373792827289
            ]
        },
        {
            "positions": [
                -0.844001704810852,
                -0.8369231082207208,
                1.6826146126838177,
                1.090772874617497,
                -1.2527191604235854,
                -0.9993960552423854
            ]
        },
        {
            "positions": [
                -0.858762711135253,
                -0.8536464343040996,
                1.702412543620463,
                0.976117932675769,
                -1.151439861467813,
                -1.1241547312020423
            ]
        },
        {
            "positions": [
                -0.8735237174596541,
                -0.8703697603874784,
                1.722210474557108,
                0.8614629907340412,
                -1.0501605625120405,
                -1.2489134071616985
            ]
        },
        {
            "positions": [
                -0.8882847237840551,
                -0.8870930864708572,
                1.7420084054937532,
                0.7468080487923132,
                -0.948881263556268,
                -1.3736720831213551
            ]
        },
        {
            "positions": [
                -0.9030457301084561,
                -0.903816412554236,
                1.7618063364303984,
                0.6321531068505855,
                -0.8476019646004957,
                -1.4984307590810118
            ]
        },
        {
            "positions": [
                -0.9178067364328572,
                -0.9205397386376147,
                1.7816042673670436,
                0.5174981649088577,
                -0.7463226656447235,
                -1.6231894350406684
            ]
        },
        {
            "positions": [
                -0.9325677427572582,
                -0.9372630647209934,
                1.8014021983036888,
                0.40284322296712993,
                -0.645043366688951,
                -1.747948111000325
            ]
        },
        {
            "positions": [
                -0.9473287490816592,
                -0.9539863908043723,
                1.821200129240334,
                0.2881882810254017,
                -0.5437640677331785,
                -1.8727067869599816
            ]
        },
        {
            "positions": [
                -0.9620897554060601,
                -0.970709716887751,
                1.840998060176979,
                0.17353333908367397,
                -0.44248476877740606,
                -1.9974654629196382
            ]
        },
        {
            "positions": [
                -0.9768507617304611,
                -0.9874330429711298,
                1.8607959911136243,
                0.058878397141946426,
                -0.3412054698216338,
                -2.122224138879295
            ]
        },
        {
            "positions": [
                -0.9916117680548622,
                -1.0041563690545086,
                1.8805939220502694,
                -0.05577654479978156,
                -0.23992617086586154,
                -2.2469828148389515
            ]
        },
        {
            "positions": [
                -1.0063727743792632,
                -1.0208796951378873,
                1.9003918529869148,
                -0.17043148674150954,
                -0.13864687191008906,
                -2.3717414907986085
            ]
        },
        {
            "positions": [
                -1.0211337807036642,
                -1.0376030212212661,
                1.92018978392356,
                -0.2850864286832375,
                -0.037367572954316586,
                -2.4965001667582647
            ]
        },
        {
            "positions": [
                -1.0358947870280653,
                -1.054326347304645,
                1.9399877148602052,
                -0.39974137062496506,
                0.06391172600145589,
                -2.6212588427179213
            ]
        },
        {
            "positions": [
                -1.0506557933524663,
                -1.0710496733880237,
                1.9597856457968503,
                -0.514396312566693,
                0.16519102495722793,
                -2.746017518677578
            ]
        },
        {
            "positions": [
                -1.0654167996768673,
                -1.0877729994714025,
                1.9795835767334955,
                -0.629051254508421,
                0.26647032391300085,
                -2.8707761946372345
            ]
        },
        {
            "positions": [
                -1.0801778060012683,
                -1.1044963255547813,
                1.9993815076701407,
                -0.7437061964501486,
                0.3677496228687729,
                -2.995534870596891
            ]
        },
        {
            "positions": [
                -1.0949388123256694,
                -1.12121965163816,
                2.019179438606786,
                -0.8583611383918763,
                0.4690289218245452,
                -3.120293546556548
            ]
        }
    ]
}