{
    "goal": {
        "global_pose": {
            "orientation": {
                "w": 0.7047431493862688,
                "x": -0.7094548369677653,
                "y": 0.0024358444001904,
                "z": -0.0022348060817251984
            },
            "position": {
                "x": -0.39052492380142206,
                "y": 0.3671506643295288,
                "z": 0.19426114857196808
            }
        },
        "name": "move_to_magneteinheit_D"
    },
    "id": "LBKPIECE_move_to_magneteinheit_D_89",
    "joint_names": [
        "shoulder_pan_joint",
        "shoulder_lift_joint",
        "elbow_joint",
        "wrist_1_joint",
        "wrist_2_joint",
        "wrist_3_joint"
    ],
    "metrics": {
        "cart_traj_len": 4.940224074345927,
        "distance_elbow_joint": 3.7770015207349714,
        "distance_shoulder_lift_joint": 2.307018309100518,
        "distance_shoulder_pan_joint": 3.3723625166648565,
        "distance_wrist_1_joint": 4.329720425426874,
        "distance_wrist_2_joint": 1.6593773155514973,
        "distance_wrist_3_joint": 3.7912285446077787,
        "smoothness": 0.5223082962925489,
        "time": 0.34121668299999997,
        "traj_len": 4.385967240197594,
        "weighted_distance": 5.727849811428407
    },
    "planner": "LBKPIECE",
    "start": {
        "state": {
            "elbow_joint": 0.7495348899011911,
            "shoulder_lift_joint": -0.6476975780737668,
            "shoulder_pan_joint": -2.711696901376276,
            "wrist_1_joint": -0.0750647808097303,
            "wrist_2_joint": 0.43296659715458535,
            "wrist_3_joint": 3.1361499051832418
        }
    },
    "waypoints": [
        {
            "positions": [
                -2.711696901376276,
                -0.6476975780737668,
                0.7495348899011911,
                -0.0750647808097303,
                0.43296659715458535,
                3.1361499051832418
            ]
        },
        {
            "positions": [
                -2.7305316451055366,
                -0.6196530345430242,
                0.6923244121890422,
                -0.09133054361202142,
                0.45689741993346883,
                2.893520957175168
            ]
        },
        {
            "positions": [
                -2.7493663888347966,
                -0.5916084910122815,
                0.6351139344768932,
                -0.10759630641431253,
                0.4808282427123523,
                2.6508920091670944
            ]
        },
        {
            "positions": [
                -2.768201132564057,
                -0.5635639474815389,
                0.5779034567647443,
                -0.12386206921660366,
                0.5047590654912358,
                2.408263061159021
            ]
        },
        {
            "positions": [
                -2.7870358762933174,
                -0.5355194039507962,
                0.5206929790525954,
                -0.14012783201889478,
                0.5286898882701193,
                2.165634113150947
            ]
        },
        {
            "positions": [
                -2.8058706200225774,
                -0.5074748604200536,
                0.46348250134044644,
                -0.15639359482118592,
                0.5526207110490028,
                1.9230051651428732
            ]
        },
        {
            "positions": [
                -2.824705363751838,
                -0.479430316889311,
                0.4062720236282975,
                -0.172659357623477,
                0.5765515338278863,
                1.6803762171347996
            ]
        },
        {
            "positions": [
                -2.843540107481098,
                -0.45138577335856833,
                0.3490615459161486,
                -0.18892512042576814,
                0.6004823566067697,
                1.4377472691267257
            ]
        },
        {
            "positions": [
                -2.862374851210358,
                -0.42334122982782574,
                0.29185106820399964,
                -0.20519088322805923,
                0.6244131793856532,
                1.1951183211186522
            ]
        },
        {
            "positions": [
                -2.8812095949396186,
                -0.39529668629708303,
                0.2346405904918507,
                -0.22145664603035037,
                0.6483440021645367,
                0.9524893731105784
            ]
        },
        {
            "positions": [
                -2.900044338668879,
                -0.3672521427663404,
                0.17743011277970178,
                -0.2377224088326415,
                0.6722748249434202,
                0.7098604251025047
            ]
        },
        {
            "positions": [
                -2.918879082398139,
                -0.3392075992355978,
                0.12021963506755284,
                -0.2539881716349326,
                0.6962056477223036,
                0.467231477094431
            ]
        },
        {
            "positions": [
                -2.9377138261273994,
                -0.31116305570485514,
                0.06300915735540397,
                -0.27025393443722373,
                0.7201364705011871,
                0.22460252908635717
            ]
        },
        {
            "positions": [
                -2.8369015458284728,
                -0.41155325164046974,
                0.09542671707927025,
                -0.38868760577757167,
                0.7509272047042947,
                0.23671441814950678
            ]
        },
        {
            "positions": [
                -2.7360892655295466,
                -0.5119434475760843,
                0.12784427680313654,
                -0.5071212771179197,
                0.7817179389074023,
                0.2488263072126564
            ]
        },
        {
            "positions": [
                -2.63527698523062,
                -0.6123336435116989,
                0.16026183652700282,
                -0.6255549484582674,
                0.8125086731105098,
                0.260938196275806
            ]
        },
        {
            "positions": [
                -2.5344647049316933,
                -0.7127238394473135,
                0.19267939625086908,
                -0.7439886197986154,
                0.8432994073136174,
                0.27305008533895564
            ]
        },
        {
            "positions": [
                -2.433652424632767,
                -0.8131140353829281,
                0.22509695597473536,
                -0.8624222911389634,
                0.874090141516725,
                0.2851619744021052
            ]
        },
        {
            "positions": [
                -2.3328401443338405,
                -0.9135042313185427,
                0.2575145156986016,
                -0.9808559624793112,
                0.9048808757198326,
                0.29727386346525486
            ]
        },
        {
            "positions": [
                -2.2320278640349143,
                -1.0138944272541575,
                0.2899320754224679,
                -1.0992896338196592,
                0.9356716099229401,
                0.30938575252840445
            ]
        },
        {
            "positions": [
                -2.1312155837359876,
                -1.1142846231897718,
                0.3223496351463342,
                -1.2177233051600072,
                0.9664623441260477,
                0.3214976415915541
            ]
        },
        {
            "positions": [
                -2.030403303437061,
                -1.2146748191253867,
                0.3547671948702005,
                -1.336156976500355,
                0.9972530783291553,
                0.33360953065470367
            ]
        },
        {
            "positions": [
                -1.9295910231381346,
                -1.315065015061001,
                0.38718475459406676,
                -1.454590647840703,
                1.0280438125322628,
                0.3457214197178533
            ]
        },
        {
            "positions": [
                -1.8403686322220931,
                -1.3399145614637233,
                0.28959447653293713,
                -1.3407348421400034,
                0.9839183259592962,
                0.35560642713958807
            ]
        },
        {
            "positions": [
                -1.751146241306052,
                -1.3647641078664454,
                0.19200419847180755,
                -1.2268790364393038,
                0.9397928393863294,
                0.3654914345613229
            ]
        },
        {
            "positions": [
                -1.6619238503900104,
                -1.3896136542691677,
                0.09441392041067798,
                -1.113023230738604,
                0.8956673528133627,
                0.37537644198305764
            ]
        },
        {
            "positions": [
                -1.572701459473969,
                -1.4144632006718898,
                -0.0031763576504516555,
                -0.9991674250379046,
                0.8515418662403961,
                0.3852614494047924
            ]
        },
        {
            "positions": [
                -1.4834790685579275,
                -1.439312747074612,
                -0.10076663571158123,
                -0.8853116193372049,
                0.8074163796674294,
                0.3951464568265272
            ]
        },
        {
            "positions": [
                -1.394256677641886,
                -1.4641622934773342,
                -0.1983569137727108,
                -0.7714558136365054,
                0.7632908930944626,
                0.405031464248262
            ]
        },
        {
            "positions": [
                -1.3050342867258449,
                -1.4890118398800565,
                -0.29594719183384044,
                -0.6576000079358058,
                0.719165406521496,
                0.41491647166999673
            ]
        },
        {
            "positions": [
                -1.2158118958098034,
                -1.5138613862827786,
                -0.39353746989497007,
                -0.5437442022351062,
                0.6750399199485293,
                0.4248014790917315
            ]
        },
        {
            "positions": [
                -1.126589504893762,
                -1.5387109326855009,
                -0.4911277479560996,
                -0.4298883965344067,
                0.6309144333755625,
                0.4346864865134663
            ]
        },
        {
            "positions": [
                -1.0373671139777207,
                -1.5635604790882232,
                -0.5887180260172292,
                -0.31603259083370694,
                0.5867889468025959,
                0.44457149393520107
            ]
        },
        {
            "positions": [
                -0.9481447230616792,
                -1.5884100254909452,
                -0.6863083040783589,
                -0.2021767851330074,
                0.5426634602296291,
                0.4544565013569359
            ]
        },
        {
            "positions": [
                -0.8589223321456378,
                -1.6132595718936675,
                -0.7838985821394884,
                -0.08832097943230788,
                0.4985379736566624,
                0.46434150877867064
            ]
        },
        {
            "positions": [
                -0.7696999412295964,
                -1.6381091182963896,
                -0.8814888602006181,
                0.025534826268391875,
                0.45441248708369564,
                0.47422651620040546
            ]
        },
        {
            "positions": [
                -0.6804775503135552,
                -1.662958664699112,
                -0.9790791382617476,
                0.1393906319690914,
                0.4102870005107291,
                0.48411152362214016
            ]
        },
        {
            "positions": [
                -0.5912551593975135,
                -1.6878082111018342,
                -1.0766694163228774,
                0.25324643766979094,
                0.3661615139377623,
                0.493996531043875
            ]
        },
        {
            "positions": [
                -0.5020327684814723,
                -1.7126577575045563,
                -1.174259694384007,
                0.36710224337049047,
                0.32203602736479564,
                0.5038815384656097
            ]
        },
        {
            "positions": [
                -0.4128103775654308,
                -1.7375073039072786,
                -1.2718499724451366,
                0.4809580490711902,
                0.27791054079182886,
                0.5137665458873445
            ]
        },
        {
            "positions": [
                -0.3235879866493896,
                -1.7623568503100007,
                -1.369440250506266,
                0.5948138547718895,
                0.2337850542188622,
                0.5236515533090793
            ]
        },
        {
            "positions": [
                -0.23436559573334792,
                -1.787206396712723,
                -1.4670305285673957,
                0.7086696604725895,
                0.18965956764589553,
                0.5335365607308141
            ]
        },
        {
            "positions": [
                -0.1451432048173067,
                -1.812055943115445,
                -1.5646208066285252,
                0.822525466173289,
                0.14553408107292887,
                0.5434215681525488
            ]
        },
        {
            "positions": [
                -0.05592081390126517,
                -1.8369054895181673,
                -1.662211084689655,
                0.9363812718739886,
                0.10140859449996203,
                0.5533065755742836
            ]
        },
        {
            "positions": [
                -0.044684959882699264,
                -1.8963729164764227,
                -1.7780873313142025,
                1.0263961271525546,
                0.09570490522495934,
                0.46320690235678275
            ]
        },
        {
            "positions": [
                -0.033449105864133355,
                -1.955840343434678,
                -1.8939635779387498,
                1.1164109824311206,
                0.09000121594995662,
                0.3731072291392819
            ]
        },
        {
            "positions": [
                -0.022213251845567446,
                -2.0153077703929334,
                -2.009839824563297,
                1.2064258377096868,
                0.08429752667495392,
                0.283007555921781
            ]
        },
        {
            "positions": [
                -0.010977397827001537,
                -2.0747751973511885,
                -2.1257160711878447,
                1.2964406929882526,
                0.07859383739995122,
                0.19290788270428016
            ]
        },
        {
            "positions": [
                0.00025845619156437266,
                -2.134242624309444,
                -2.241592317812392,
                1.3864555482668188,
                0.07289014812494851,
                0.10280820948677921
            ]
        },
        {
            "positions": [
                0.011494310210130285,
                -2.1937100512676992,
                -2.3574685644369398,
                1.4764704035453848,
                0.06718645884994581,
                0.012708536269278396
            ]
        },
        {
            "positions": [
                -0.08707441757797155,
                -2.2376784468520805,
                -2.368292000396698,
                1.4860371570502915,
                0.11890783209569745,
                0.017898077628257906
            ]
        },
        {
            "positions": [
                -0.18564314536607338,
                -2.2816468424364613,
                -2.379115436356456,
                1.4956039105551981,
                0.1706292053414491,
                0.023087618987237414
            ]
        }
    ]
}