{
    "goal": {
        "global_pose": {
            "orientation": {
                "w": 0.005598929693374612,
                "x": 0.007748599140229565,
                "y": 0.7110244013736278,
                "z": -0.7031023480610252
            },
            "position": {
                "x": 0.1141497679147869,
                "y": -0.7141253447532654,
                "z": 0.3711530566215515
            }
        },
        "name": "move_to_auspresseinheit_B"
    },
    "id": "LBKPIECE_move_to_auspresseinheit_B_6",
    "joint_names": [
        "shoulder_pan_joint",
        "shoulder_lift_joint",
        "elbow_joint",
        "wrist_1_joint",
        "wrist_2_joint",
        "wrist_3_joint"
    ],
    "metrics": {
        "cart_traj_len": 0.5641135832274281,
        "distance_elbow_joint": 0.06455619444186533,
        "distance_shoulder_lift_joint": 0.2941299828883184,
        "distance_shoulder_pan_joint": 0.5770053496190792,
        "distance_wrist_1_joint": 0.33564197664325546,
        "distance_wrist_2_joint": 0.9903738446082675,
        "distance_wrist_3_joint": 0.00839544586753771,
        "smoothness": 2.5376526478085547e-16,
        "time": 0.40157142300000004,
        "traj_len": 1.5066860303554699,
        "weighted_distance": 1.9007655055411024
    },
    "planner": "LBKPIECE",
    "start": {
        "state": {
            "elbow_joint": 2.0193061681459312,
            "shoulder_lift_joint": -1.1220205130644991,
            "shoulder_pan_joint": -1.0952072088045026,
            "wrist_1_joint": -0.8559671810662515,
            "wrist_2_joint": 0.4759638712940361,
            "wrist_3_joint": 3.159081874192446
        }
    },
    "waypoints": [
        {
            "positions": [
                -1.0952072088045026,
                -1.1220205130644991,
                2.0193061681459312,
                -0.8559671810662515,
                0.4759638712940361,
                3.159081874192446
            ]
        },
        {
            "positions": [
                -1.191374767074349,
                -1.1710421768792187,
                2.00854680240562,
                -0.8000268516257089,
                0.6410261787287473,
                3.157682633214523
            ]
        },
        {
            "positions": [
                -1.2875423253441958,
                -1.2200638406939386,
                1.9977874366653094,
                -0.7440865221851664,
                0.8060884861634585,
                3.1562833922366003
            ]
        },
        {
            "positions": [
                -1.3837098836140422,
                -1.2690855045086584,
                1.9870280709249986,
                -0.6881461927446237,
                0.9711507935981698,
                3.154884151258677
            ]
        },
        {
            "positions": [
                -1.4798774418838887,
                -1.318107168323378,
                1.9762687051846877,
                -0.6322058633040812,
                1.136213101032881,
                3.153484910280754
            ]
        },
        {
            "positions": [
                -1.5760450001537354,
                -1.3671288321380977,
                1.9655093394443768,
                -0.5762655338635385,
                1.3012754084675924,
                3.1520856693028314
            ]
        },
        {
            "positions": [
                -1.6722125584235819,
                -1.4161504959528175,
                1.954749973704066,
                -0.520325204422996,
                1.4663377159023037,
                3.1506864283249083
            ]
        }
    ]
}