{
    "goal": {
        "global_pose": {
            "orientation": {
                "w": 0.7047431468963623,
                "x": -0.7094548344612122,
                "y": 0.0024358443915843964,
                "z": -0.0022348060738295317
            },
            "position": {
                "x": 0.6094750761985779,
                "y": 0.3671506643295288,
                "z": 0.19426114857196808
            }
        },
        "name": "move_to_magneteinheit_A"
    },
    "id": "LBKPIECE_move_to_magneteinheit_A_62",
    "joint_names": [
        "shoulder_pan_joint",
        "shoulder_lift_joint",
        "elbow_joint",
        "wrist_1_joint",
        "wrist_2_joint",
        "wrist_3_joint"
    ],
    "metrics": {
        "cart_traj_len": 1.9654156561921887,
        "distance_elbow_joint": 3.5709095050632165,
        "distance_shoulder_lift_joint": 0.7866902516060855,
        "distance_shoulder_pan_joint": 1.2420389249679964,
        "distance_wrist_1_joint": 1.1914085796628986,
        "distance_wrist_2_joint": 1.4500809754051822,
        "distance_wrist_3_joint": 1.9980496732361377,
        "smoothness": 6.579099457281438e-17,
        "time": 0.44164381900000005,
        "traj_len": 3.1998715458501636,
        "weighted_distance": 4.108134225105342
    },
    "planner": "LBKPIECE",
    "start": {
        "state": {
            "elbow_joint": -1.5739458827952972,
            "shoulder_lift_joint": 0.006533473998580023,
            "shoulder_pan_joint": -1.1188671628667068,
            "wrist_1_joint": 3.138208179676308,
            "wrist_2_joint": -1.5706037135050406,
            "wrist_3_joint": -2.0226958329764257
        }
    },
    "waypoints": [
        {
            "positions": [
                -1.1188671628667068,
                0.006533473998580023,
                -1.5739458827952972,
                3.138208179676308,
                -1.5706037135050406,
                -2.0226958329764257
            ]
        },
        {
            "positions": [
                -1.0710964349833223,
                -0.023723843370884807,
                -1.436603209523635,
                3.092384772766197,
                -1.514831368297149,
                -1.9458477686211897
            ]
        },
        {
            "positions": [
                -1.023325707099938,
                -0.053981160740349636,
                -1.299260536251973,
                3.046561365856085,
                -1.4590590230892573,
                -1.8689997042659536
            ]
        },
        {
            "positions": [
                -0.9755549792165534,
                -0.08423847810981447,
                -1.1619178629803106,
                3.0007379589459737,
                -1.4032866778813657,
                -1.7921516399107176
            ]
        },
        {
            "positions": [
                -0.9277842513331689,
                -0.1144957954792793,
                -1.0245751897086484,
                2.9549145520358624,
                -1.347514332673474,
                -1.7153035755554815
            ]
        },
        {
            "positions": [
                -0.8800135234497845,
                -0.14475311284874412,
                -0.8872325164369863,
                2.9090911451257506,
                -1.2917419874655824,
                -1.6384555112002455
            ]
        },
        {
            "positions": [
                -0.8322427955664,
                -0.17501043021820895,
                -0.7498898431653241,
                2.8632677382156393,
                -1.235969642257691,
                -1.5616074468450094
            ]
        },
        {
            "positions": [
                -0.7844720676830155,
                -0.20526774758767374,
                -0.6125471698936621,
                2.817444331305528,
                -1.1801972970497991,
                -1.4847593824897733
            ]
        },
        {
            "positions": [
                -0.7367013397996309,
                -0.2355250649571386,
                -0.4752044966219997,
                2.771620924395416,
                -1.1244249518419076,
                -1.4079113181345373
            ]
        },
        {
            "positions": [
                -0.6889306119162466,
                -0.26578238232660345,
                -0.33786182335033765,
                2.725797517485305,
                -1.068652606634016,
                -1.331063253779301
            ]
        },
        {
            "positions": [
                -0.6411598840328621,
                -0.2960396996960683,
                -0.20051915007867538,
                2.679974110575193,
                -1.0128802614261243,
                -1.2542151894240652
            ]
        },
        {
            "positions": [
                -0.5933891561494776,
                -0.3262970170655331,
                -0.06317647680701333,
                2.6341507036650817,
                -0.9571079162182328,
                -1.177367125068829
            ]
        },
        {
            "positions": [
                -0.5456184282660931,
                -0.35655433443499795,
                0.07416619646464895,
                2.5883272967549704,
                -0.901335571010341,
                -1.100519060713593
            ]
        },
        {
            "positions": [
                -0.49784770038270865,
                -0.38681165180446275,
                0.211508869736311,
                2.542503889844859,
                -0.8455632258024495,
                -1.0236709963583568
            ]
        },
        {
            "positions": [
                -0.4500769724993242,
                -0.41706896917392755,
                0.34885154300797305,
                2.4966804829347473,
                -0.7897908805945579,
                -0.946822932003121
            ]
        },
        {
            "positions": [
                -0.4023062446159398,
                -0.44732628654339235,
                0.4861942162796351,
                2.450857076024636,
                -0.7340185353866663,
                -0.8699748676478849
            ]
        },
        {
            "positions": [
                -0.3545355167325551,
                -0.47758360391285726,
                0.6235368895512978,
                2.405033669114524,
                -0.6782461901787745,
                -0.7931268032926486
            ]
        },
        {
            "positions": [
                -0.3067647888491707,
                -0.507840921282322,
                0.7608795628229597,
                2.359210262204413,
                -0.622473844970883,
                -0.7162787389374126
            ]
        },
        {
            "positions": [
                -0.25899406096578625,
                -0.5380982386517869,
                0.8982222360946219,
                2.3133868552943015,
                -0.5667014997629913,
                -0.6394306745821765
            ]
        },
        {
            "positions": [
                -0.21122333308240182,
                -0.5683555560212517,
                1.0355649093662838,
                2.26756344838419,
                -0.5109291545550998,
                -0.5625826102269407
            ]
        },
        {
            "positions": [
                -0.16345260519901728,
                -0.5986128733907166,
                1.1729075826379465,
                2.2217400414740784,
                -0.45515680934720804,
                -0.4857345458717044
            ]
        },
        {
            "positions": [
                -0.11568187731563273,
                -0.6288701907601814,
                1.3102502559096083,
                2.175916634563967,
                -0.3993844641393165,
                -0.40888648151646834
            ]
        },
        {
            "positions": [
                -0.06791114943224841,
                -0.6591275081296462,
                1.4475929291812706,
                2.1300932276538553,
                -0.34361211893142496,
                -0.3320384171612323
            ]
        },
        {
            "positions": [
                -0.020140421548863863,
                -0.689384825499111,
                1.5849356024529324,
                2.084269820743744,
                -0.2878397737235332,
                -0.2551903528059962
            ]
        },
        {
            "positions": [
                0.027630306334520682,
                -0.7196421428685759,
                1.7222782757245951,
                2.0384464138336327,
                -0.23206742851564144,
                -0.17834228845076017
            ]
        },
        {
            "positions": [
                0.075401034217905,
                -0.7498994602380407,
                1.859620948996257,
                1.9926230069235211,
                -0.1762950833077499,
                -0.10149422409552411
            ]
        },
        {
            "positions": [
                0.1231717621012895,
                -0.7801567776075055,
                1.9969636222679192,
                1.9467996000134096,
                -0.12052273809985835,
                -0.024646159740287953
            ]
        }
    ]
}