{
    "goal": {
        "global_pose": {
            "orientation": {
                "w": 0.005598929693374612,
                "x": 0.007748599140229565,
                "y": 0.7110244013736278,
                "z": -0.7031023480610252
            },
            "position": {
                "x": -0.8858502320852131,
                "y": -0.7141253447532654,
                "z": 0.3711530566215515
            }
        },
        "name": "move_to_auspresseinheit_C"
    },
    "id": "LBKPIECE_move_to_auspresseinheit_C_110",
    "joint_names": [
        "shoulder_pan_joint",
        "shoulder_lift_joint",
        "elbow_joint",
        "wrist_1_joint",
        "wrist_2_joint",
        "wrist_3_joint"
    ],
    "metrics": {
        "cart_traj_len": 0.4931995191406127,
        "distance_elbow_joint": 1.0073646104477465,
        "distance_shoulder_lift_joint": 0.3282255334099248,
        "distance_shoulder_pan_joint": 0.25625232780812235,
        "distance_wrist_1_joint": 0.6990333571681002,
        "distance_wrist_2_joint": 1.3134388894703495,
        "distance_wrist_3_joint": 0.0678638821722406,
        "smoothness": 4.844609574787718e-16,
        "time": 0.37938907099999997,
        "traj_len": 1.9162929318025683,
        "weighted_distance": 2.412546084836394
    },
    "planner": "LBKPIECE",
    "start": {
        "state": {
            "elbow_joint": 1.7527959577730765,
            "shoulder_lift_joint": -0.9740617694224828,
            "shoulder_pan_joint": -2.967991417825869,
            "wrist_1_joint": -0.7595177689779385,
            "wrist_2_joint": 1.7443932448376545,
            "wrist_3_joint": 3.1991315425061013
        }
    },
    "waypoints": [
        {
            "positions": [
                -2.967991417825869,
                -0.9740617694224828,
                1.7527959577730765,
                -0.7595177689779385,
                1.7443932448376545,
                3.1991315425061013
            ]
        },
        {
            "positions": [
                -2.942366185045057,
                -0.9412392160814903,
                1.6520594967283018,
                -0.6896144332611285,
                1.6130493558906196,
                3.192345154288877
            ]
        },
        {
            "positions": [
                -2.9167409522642447,
                -0.9084166627404978,
                1.5513230356835273,
                -0.6197110975443185,
                1.4817054669435845,
                3.185558766071653
            ]
        },
        {
            "positions": [
                -2.8911157194834325,
                -0.8755941093995053,
                1.4505865746387525,
                -0.5498077618275085,
                1.3503615779965497,
                3.178772377854429
            ]
        },
        {
            "positions": [
                -2.8654904867026203,
                -0.8427715560585128,
                1.3498501135939778,
                -0.47990442611069845,
                1.2190176890495148,
                3.171985989637205
            ]
        },
        {
            "positions": [
                -2.8398652539218077,
                -0.8099490027175205,
                1.2491136525492033,
                -0.41000109039388843,
                1.0876738001024797,
                3.165199601419981
            ]
        },
        {
            "positions": [
                -2.8142400211409955,
                -0.777126449376528,
                1.1483771915044287,
                -0.3400977546770784,
                0.9563299111554447,
                3.158413213202757
            ]
        },
        {
            "positions": [
                -2.7886147883601833,
                -0.7443038960355355,
                1.047640730459654,
                -0.2701944189602684,
                0.8249860222084099,
                3.151626824985533
            ]
        },
        {
            "positions": [
                -2.762989555579371,
                -0.711481342694543,
                0.9469042694148793,
                -0.20029108324345835,
                0.6936421332613749,
                3.144840436768309
            ]
        },
        {
            "positions": [
                -2.737364322798559,
                -0.6786587893535505,
                0.8461678083701046,
                -0.13038774752664828,
                0.5622982443143398,
                3.138054048551085
            ]
        },
        {
            "positions": [
                -2.7117390900177467,
                -0.645836236012558,
                0.7454313473253301,
                -0.06048441180983828,
                0.4309543553673051,
                3.1312676603338607
            ]
        }
    ]
}