{
    "goal": {
        "global_pose": {
            "orientation": {
                "w": 0.7047431493862688,
                "x": -0.7094548369677653,
                "y": 0.0024358444001904,
                "z": -0.0022348060817251984
            },
            "position": {
                "x": -0.39052492380142206,
                "y": 0.3671506643295288,
                "z": 0.19426114857196808
            }
        },
        "name": "move_to_magneteinheit_D"
    },
    "id": "LBKPIECE_move_to_magneteinheit_D_57",
    "joint_names": [
        "shoulder_pan_joint",
        "shoulder_lift_joint",
        "elbow_joint",
        "wrist_1_joint",
        "wrist_2_joint",
        "wrist_3_joint"
    ],
    "metrics": {
        "cart_traj_len": 4.712047263597956,
        "distance_elbow_joint": 3.450766768392413,
        "distance_shoulder_lift_joint": 1.7660639425964908,
        "distance_shoulder_pan_joint": 3.351676122728856,
        "distance_wrist_1_joint": 1.9978104382319273,
        "distance_wrist_2_joint": 0.5160555379959575,
        "distance_wrist_3_joint": 3.3614125340260945,
        "smoothness": 1.1452747236065732,
        "time": 0.685807866,
        "traj_len": 3.80049803893802,
        "weighted_distance": 4.866258972583745
    },
    "planner": "LBKPIECE",
    "start": {
        "state": {
            "elbow_joint": 0.7495348899011911,
            "shoulder_lift_joint": -0.6476975780737668,
            "shoulder_pan_joint": -2.711696901376276,
            "wrist_1_joint": -0.0750647808097303,
            "wrist_2_joint": 0.43296659715458535,
            "wrist_3_joint": 3.1361499051832418
        }
    },
    "waypoints": [
        {
            "positions": [
                -2.711696901376276,
                -0.6476975780737668,
                0.7495348899011911,
                -0.0750647808097303,
                0.43296659715458535,
                3.1361499051832418
            ]
        },
        {
            "positions": [
                -2.7054144306067562,
                -0.6822120411617948,
                0.7164369345034252,
                -0.10395563833231922,
                0.4419469488489639,
                3.038823492704224
            ]
        },
        {
            "positions": [
                -2.5480026970613787,
                -0.7191366642557373,
                0.7047091260462699,
                -0.0333835619091926,
                0.48019683122790424,
                2.966159487385279
            ]
        },
        {
            "positions": [
                -2.3905909635160016,
                -0.7560612873496797,
                0.6929813175891147,
                0.03718851451393401,
                0.5184467136068446,
                2.8934954820663346
            ]
        },
        {
            "positions": [
                -2.437311571243821,
                -0.794766424701086,
                0.6259269136560731,
                -0.030445639123438825,
                0.5064694103447883,
                2.7664194554338435
            ]
        },
        {
            "positions": [
                -2.4840321789716397,
                -0.8334715620524923,
                0.5588725097230316,
                -0.09807979276081166,
                0.4944921070827321,
                2.639343428801353
            ]
        },
        {
            "positions": [
                -2.530752786699459,
                -0.8721766994038986,
                0.4918181057899899,
                -0.16571394639818451,
                0.48251480382067585,
                2.512267402168862
            ]
        },
        {
            "positions": [
                -2.4318046562801725,
                -0.9215632495135501,
                0.40488551935186695,
                -0.13099491340963376,
                0.48623275836613705,
                2.3922594355851357
            ]
        },
        {
            "positions": [
                -2.3328565258608864,
                -0.9709497996232014,
                0.31795293291374405,
                -0.09627588042108298,
                0.4899507129115983,
                2.2722514690014095
            ]
        },
        {
            "positions": [
                -2.2339083954416,
                -1.0203363497328528,
                0.23102034647562109,
                -0.0615568474325322,
                0.4936686674570595,
                2.1522435024176834
            ]
        },
        {
            "positions": [
                -2.134960265022314,
                -1.0697228998425041,
                0.14408776003749812,
                -0.02683781444398145,
                0.49738662200252076,
                2.032235535833957
            ]
        },
        {
            "positions": [
                -2.0360121346030273,
                -1.1191094499521557,
                0.057155173599375164,
                0.00788121854456933,
                0.5011045765479819,
                1.912227569250231
            ]
        },
        {
            "positions": [
                -1.9370640041837408,
                -1.168496000061807,
                -0.02977741283874774,
                0.04260025153312011,
                0.5048225310934432,
                1.792219602666505
            ]
        },
        {
            "positions": [
                -1.8381158737644547,
                -1.2178825501714583,
                -0.1167099992768707,
                0.07731928452167083,
                0.5085404856389044,
                1.6722116360827788
            ]
        },
        {
            "positions": [
                -1.7391677433451682,
                -1.2672691002811098,
                -0.20364258571499366,
                0.11203831751022161,
                0.5122584401843656,
                1.5522036694990526
            ]
        },
        {
            "positions": [
                -1.640219612925882,
                -1.3166556503907612,
                -0.2905751721531165,
                0.1467573504987724,
                0.5159763947298268,
                1.4321957029153267
            ]
        },
        {
            "positions": [
                -1.5412714825065956,
                -1.3660422005004125,
                -0.3775077585912396,
                0.18147638348732317,
                0.519694349275288,
                1.3121877363316004
            ]
        },
        {
            "positions": [
                -1.4423233520873093,
                -1.4154287506100638,
                -0.46444034502936243,
                0.2161954164758739,
                0.5234123038207493,
                1.1921797697478744
            ]
        },
        {
            "positions": [
                -1.3433752216680228,
                -1.4648153007197153,
                -0.5513729314674853,
                0.25091444946442476,
                0.5271302583662105,
                1.0721718031641483
            ]
        },
        {
            "positions": [
                -1.2444270912487365,
                -1.5142018508293666,
                -0.6383055179056083,
                0.2856334824529755,
                0.5308482129116717,
                0.9521638365804221
            ]
        },
        {
            "positions": [
                -1.1517399470114036,
                -1.5586134482065175,
                -0.7429086374886354,
                0.3479755934893968,
                0.5262345247088367,
                0.871763757601759
            ]
        },
        {
            "positions": [
                -1.0590528027740709,
                -1.6030250455836683,
                -0.8475117570716625,
                0.410317704525818,
                0.5216208365060016,
                0.7913636786230959
            ]
        },
        {
            "positions": [
                -0.9663656585367381,
                -1.6474366429608192,
                -0.9521148766546896,
                0.47265981556223924,
                0.5170071483031665,
                0.7109635996444327
            ]
        },
        {
            "positions": [
                -0.8736785142994052,
                -1.69184824033797,
                -1.0567179962377167,
                0.5350019265986605,
                0.5123934601003315,
                0.6305635206657696
            ]
        },
        {
            "positions": [
                -0.7809913700620723,
                -1.7362598377151208,
                -1.1613211158207437,
                0.5973440376350818,
                0.5077797718974963,
                0.5501634416871064
            ]
        },
        {
            "positions": [
                -0.6883042258247396,
                -1.7806714350922717,
                -1.2659242354037707,
                0.6596861486715031,
                0.5031660836946613,
                0.46976336270844327
            ]
        },
        {
            "positions": [
                -0.5956170815874067,
                -1.8250830324694225,
                -1.370527354986798,
                0.7220282597079244,
                0.49855239549182623,
                0.38936328372978013
            ]
        },
        {
            "positions": [
                -0.5029299373500739,
                -1.8694946298465733,
                -1.4751304745698253,
                0.7843703707443457,
                0.49393870728899114,
                0.30896320475111694
            ]
        },
        {
            "positions": [
                -0.41024279311274103,
                -1.9139062272237242,
                -1.5797335941528523,
                0.846712481780767,
                0.48932501908615605,
                0.22856312577245375
            ]
        },
        {
            "positions": [
                -0.3175556488754082,
                -1.958317824600875,
                -1.6843367137358793,
                0.9090545928171881,
                0.484711330883321,
                0.14816304679379066
            ]
        },
        {
            "positions": [
                -0.22486850463807537,
                -2.002729421978026,
                -1.7889398333189064,
                0.9713967038536094,
                0.48009764268048594,
                0.0677629678151275
            ]
        },
        {
            "positions": [
                -0.12073590891355425,
                -1.9798604608628732,
                -1.9425959848406424,
                0.983704388097169,
                0.4737646483106597,
                0.07305695506164485
            ]
        },
        {
            "positions": [
                -0.01660331318903313,
                -1.9569914997477207,
                -2.0962521363623785,
                0.9960120723407285,
                0.46743165394083336,
                0.07835094230816221
            ]
        },
        {
            "positions": [
                0.08752928253548803,
                -1.934122538632568,
                -2.2499082878841143,
                1.008319756584288,
                0.4610986595710071,
                0.08364492955467956
            ]
        },
        {
            "positions": [
                0.026318898963047163,
                -1.9708377382826505,
                -2.324072504227561,
                1.1165441524083017,
                0.4151660184732143,
                0.04757821319704307
            ]
        },
        {
            "positions": [
                -0.0348914846093937,
                -2.007552937932733,
                -2.3982367205710085,
                1.2247685482323156,
                0.3692333773754216,
                0.011511496839406582
            ]
        },
        {
            "positions": [
                -0.09610186818183458,
                -2.0442681375828156,
                -2.4724009369144557,
                1.3329929440563293,
                0.32330073627762884,
                -0.024555219518229907
            ]
        },
        {
            "positions": [
                -0.15731225175427543,
                -2.080983337232898,
                -2.5465651532579026,
                1.441217339880343,
                0.27736809517983607,
                -0.06062193587586641
            ]
        },
        {
            "positions": [
                -0.17095463083448184,
                -2.1787655456061197,
                -2.469231790641243,
                1.4501881802165626,
                0.23095310271248706,
                0.005816448868073865
            ]
        },
        {
            "positions": [
                -0.18459700991468825,
                -2.276547753979342,
                -2.391898428024583,
                1.4591590205527822,
                0.18453811024513805,
                0.07225483361201414
            ]
        }
    ]
}