{
    "goal": {
        "global_pose": {
            "orientation": {
                "w": -0.00223480608172531,
                "x": 0.0024358444001904467,
                "y": 0.7094548369677653,
                "z": -0.704743149386269
            },
            "position": {
                "x": -0.37947507619857795,
                "y": -0.6371506643295288,
                "z": 0.19426114857196808
            }
        },
        "name": "move_to_magneteinheit_C"
    },
    "id": "LBKPIECE_move_to_magneteinheit_C_115",
    "joint_names": [
        "shoulder_pan_joint",
        "shoulder_lift_joint",
        "elbow_joint",
        "wrist_1_joint",
        "wrist_2_joint",
        "wrist_3_joint"
    ],
    "metrics": {
        "cart_traj_len": 4.450457689186631,
        "distance_elbow_joint": 0.44725473989264297,
        "distance_shoulder_lift_joint": 1.935912462787023,
        "distance_shoulder_pan_joint": 7.006513662497246,
        "distance_wrist_1_joint": 4.8657568354495595,
        "distance_wrist_2_joint": 5.9663796912719445,
        "distance_wrist_3_joint": 0.9747134759254723,
        "smoothness": 0.6187602449695884,
        "time": 0.441952108,
        "traj_len": 4.603969034194722,
        "weighted_distance": 5.829073197893156
    },
    "planner": "LBKPIECE",
    "start": {
        "state": {
            "elbow_joint": 1.9565354006593851,
            "shoulder_lift_joint": -1.4165861576512813,
            "shoulder_pan_joint": -1.6717766223278752,
            "wrist_1_joint": -0.528663328821883,
            "wrist_2_joint": 1.472756589259273,
            "wrist_3_joint": 3.159348288315503
        }
    },
    "waypoints": [
        {
            "positions": [
                -1.6717766223278752,
                -1.4165861576512813,
                1.9565354006593851,
                -0.528663328821883,
                1.472756589259273,
                3.159348288315503
            ]
        },
        {
            "positions": [
                -1.5568787212583584,
                -1.4477322943950832,
                1.949194581078693,
                -0.4439773947281827,
                1.3475735276334944,
                3.1404661736607213
            ]
        },
        {
            "positions": [
                -1.4419808201888413,
                -1.4788784311388852,
                1.9418537614980007,
                -0.35929146063448236,
                1.2223904660077156,
                3.121584059005939
            ]
        },
        {
            "positions": [
                -1.3270829191193245,
                -1.5100245678826871,
                1.9345129419173086,
                -0.274605526540782,
                1.0972074043819369,
                3.1027019443511574
            ]
        },
        {
            "positions": [
                -1.2121850180498075,
                -1.5411707046264889,
                1.9271721223366165,
                -0.18991959244708168,
                0.9720243427561581,
                3.0838198296963757
            ]
        },
        {
            "positions": [
                -1.0972871169802907,
                -1.5723168413702908,
                1.9198313027559242,
                -0.10523365835338133,
                0.8468412811303794,
                3.0649377150415935
            ]
        },
        {
            "positions": [
                -0.9823892159107738,
                -1.6034629781140928,
                1.912490483175232,
                -0.02054772425968099,
                0.7216582195046006,
                3.046055600386812
            ]
        },
        {
            "positions": [
                -0.8674913148412569,
                -1.6346091148578947,
                1.9051496635945397,
                0.0641382098340193,
                0.5964751578788219,
                3.02717348573203
            ]
        },
        {
            "positions": [
                -0.7525934137717399,
                -1.6657552516016967,
                1.8978088440138476,
                0.1488241439277197,
                0.47129209625304314,
                3.008291371077248
            ]
        },
        {
            "positions": [
                -0.637695512702223,
                -1.6969013883454984,
                1.8904680244331555,
                0.23351007802142,
                0.3461090346272644,
                2.989409256422466
            ]
        },
        {
            "positions": [
                -0.5227976116327062,
                -1.7280475250893006,
                1.8831272048524632,
                0.3181960121151204,
                0.22092597300148564,
                2.9705271417676844
            ]
        },
        {
            "positions": [
                -0.4078997105631892,
                -1.7591936618331023,
                1.875786385271771,
                0.4028819462088207,
                0.0957429113757069,
                2.951645027112902
            ]
        },
        {
            "positions": [
                -0.2930018094936724,
                -1.7903397985769043,
                1.868445565691079,
                0.4875678803025211,
                -0.02944015025007185,
                2.9327629124581205
            ]
        },
        {
            "positions": [
                -0.17810390842415558,
                -1.8214859353207062,
                1.8611047461103867,
                0.5722538143962214,
                -0.1546232118758506,
                2.9138807978033388
            ]
        },
        {
            "positions": [
                -0.06320600735463855,
                -1.8526320720645082,
                1.8537639265296946,
                0.6569397484899216,
                -0.27980627350162934,
                2.8949986831485566
            ]
        },
        {
            "positions": [
                0.05169189371487848,
                -1.8837782088083102,
                1.8464231069490022,
                0.7416256825836222,
                -0.4049893351274083,
                2.876116568493775
            ]
        },
        {
            "positions": [
                0.16658979478439528,
                -1.9149243455521119,
                1.8390822873683101,
                0.8263116166773224,
                -0.5301723967531868,
                2.857234453838993
            ]
        },
        {
            "positions": [
                0.2814876958539123,
                -1.946070482295914,
                1.831741467787618,
                0.910997550771023,
                -0.6553554583789658,
                2.838352339184211
            ]
        },
        {
            "positions": [
                0.3963855969234291,
                -1.9772166190397158,
                1.8244006482069257,
                0.995683484864723,
                -0.7805385200047443,
                2.819470224529429
            ]
        },
        {
            "positions": [
                0.5112834979929459,
                -2.0083627557835175,
                1.8170598286262336,
                1.0803694189584236,
                -0.9057215816305233,
                2.8005881098746475
            ]
        },
        {
            "positions": [
                0.6261813990624627,
                -2.0395088925273197,
                1.8097190090455415,
                1.1650553530521237,
                -1.0309046432563018,
                2.7817059952198653
            ]
        },
        {
            "positions": [
                0.74107930013198,
                -2.070655029271122,
                1.8023781894648492,
                1.2497412871458242,
                -1.1560877048820808,
                2.7628238805650835
            ]
        },
        {
            "positions": [
                0.8559772012014968,
                -2.1018011660149236,
                1.795037369884157,
                1.3344272212395243,
                -1.2812707665078593,
                2.743941765910302
            ]
        },
        {
            "positions": [
                0.9708751022710136,
                -2.1329473027587253,
                1.787696550303465,
                1.4191131553332248,
                -1.4064538281336383,
                2.7250596512555196
            ]
        },
        {
            "positions": [
                1.0857730033405304,
                -2.1640934395025275,
                1.7803557307227726,
                1.5037990894269253,
                -1.5316368897594168,
                2.706177536600738
            ]
        },
        {
            "positions": [
                1.2006709044100476,
                -2.1952395762463293,
                1.7730149111420805,
                1.5884850235206258,
                -1.6568199513851958,
                2.687295421945956
            ]
        },
        {
            "positions": [
                1.315568805479564,
                -2.2263857129901314,
                1.7656740915613882,
                1.6731709576143259,
                -1.7820030130109743,
                2.668413307291174
            ]
        },
        {
            "positions": [
                1.4304667065490815,
                -2.257531849733933,
                1.7583332719806961,
                1.7578568917080264,
                -1.9071860746367533,
                2.6495311926363923
            ]
        },
        {
            "positions": [
                1.2910284803483567,
                -2.2184258936373484,
                1.76722800809548,
                1.665741298318039,
                -1.8148133236590418,
                2.666134634788048
            ]
        },
        {
            "positions": [
                1.1515902541476322,
                -2.1793199375407637,
                1.7761227442102643,
                1.5736257049280518,
                -1.7224405726813303,
                2.682738076939704
            ]
        },
        {
            "positions": [
                1.0121520279469074,
                -2.140213981444179,
                1.7850174803250483,
                1.4815101115380644,
                -1.6300678217036189,
                2.6993415190913597
            ]
        },
        {
            "positions": [
                0.8727138017461827,
                -2.101108025347594,
                1.7939122164398325,
                1.3893945181480771,
                -1.5376950707259072,
                2.7159449612430153
            ]
        },
        {
            "positions": [
                0.733275575545458,
                -2.06200206925101,
                1.8028069525546164,
                1.2972789247580898,
                -1.4453223197481957,
                2.732548403394671
            ]
        },
        {
            "positions": [
                0.5938373493447333,
                -2.022896113154425,
                1.8117016886694006,
                1.2051633313681025,
                -1.3529495687704842,
                2.7491518455463266
            ]
        },
        {
            "positions": [
                0.45439912314400854,
                -1.9837901570578405,
                1.8205964247841846,
                1.1130477379781152,
                -1.2605768177927728,
                2.7657552876979827
            ]
        },
        {
            "positions": [
                0.314960896943284,
                -1.9446842009612557,
                1.8294911608989686,
                1.0209321445881279,
                -1.1682040668150613,
                2.7823587298496384
            ]
        },
        {
            "positions": [
                0.175522670742559,
                -1.905578244864671,
                1.8383858970137528,
                0.9288165511981404,
                -1.0758313158373496,
                2.798962172001294
            ]
        },
        {
            "positions": [
                0.03608444454183446,
                -1.8664722887680862,
                1.8472806331285367,
                0.8367009578081532,
                -0.9834585648596382,
                2.81556561415295
            ]
        },
        {
            "positions": [
                -0.10335378165889031,
                -1.8273663326715017,
                1.856175369243321,
                0.7445853644181659,
                -0.8910858138819269,
                2.832169056304606
            ]
        },
        {
            "positions": [
                -0.24279200785961486,
                -1.788260376574917,
                1.865070105358105,
                0.6524697710281786,
                -0.7987130629042154,
                2.8487724984562615
            ]
        },
        {
            "positions": [
                -0.38223023406033985,
                -1.7491544204783323,
                1.873964841472889,
                0.5603541776381913,
                -0.7063403119265037,
                2.865375940607917
            ]
        },
        {
            "positions": [
                -0.5216684602610644,
                -1.7100484643817477,
                1.882859577587673,
                0.46823858424820397,
                -0.6139675609487922,
                2.8819793827595728
            ]
        },
        {
            "positions": [
                -0.6611066864617889,
                -1.670942508285163,
                1.891754313702457,
                0.37612299085821665,
                -0.5215948099710808,
                2.898582824911229
            ]
        },
        {
            "positions": [
                -0.8005449126625135,
                -1.6318365521885783,
                1.9006490498172413,
                0.28400739746822934,
                -0.4292220589933693,
                2.9151862670628845
            ]
        },
        {
            "positions": [
                -0.9399831388632385,
                -1.5927305960919935,
                1.9095437859320252,
                0.19189180407824225,
                -0.3368493080156578,
                2.93178970921454
            ]
        },
        {
            "positions": [
                -1.0794213650639635,
                -1.5536246399954088,
                1.9184385220468094,
                0.09977621068825449,
                -0.24447655703794613,
                2.9483931513661963
            ]
        },
        {
            "positions": [
                -1.218859591264688,
                -1.514518683898824,
                1.9273332581615934,
                0.0076606172982673915,
                -0.15210380606023466,
                2.964996593517852
            ]
        },
        {
            "positions": [
                -1.3582978174654126,
                -1.4754127278022395,
                1.9362279942763776,
                -0.08445497609171992,
                -0.05973105508252319,
                2.9816000356695076
            ]
        },
        {
            "positions": [
                -1.497736043666137,
                -1.4363067717056548,
                1.9451227303911616,
                -0.17657056948170724,
                0.03264169589518828,
                2.9982034778211633
            ]
        },
        {
            "positions": [
                -1.637174269866862,
                -1.3972008156090703,
                1.9540174665059455,
                -0.26868616287169456,
                0.12501444687289953,
                3.014806919972819
            ]
        },
        {
            "positions": [
                -1.7766124960675866,
                -1.3580948595124855,
                1.9629122026207297,
                -0.36080175626168165,
                0.21738719785061122,
                3.031410362124475
            ]
        },
        {
            "positions": [
                -1.9160507222683112,
                -1.3189889034159008,
                1.9718069387355137,
                -0.4529173496516692,
                0.3097599488283225,
                3.0480138042761307
            ]
        },
        {
            "positions": [
                -2.055488948469036,
                -1.279882947319316,
                1.980701674850298,
                -0.5450329430416567,
                0.4021326998060346,
                3.0646172464277863
            ]
        },
        {
            "positions": [
                -2.194927174669761,
                -1.2407769912227313,
                1.9895964109650819,
                -0.6371485364316438,
                0.49450545078374586,
                3.0812206885794424
            ]
        },
        {
            "positions": [
                -2.3343654008704857,
                -1.2016710351261468,
                1.998491147079866,
                -0.7292641298216314,
                0.5868782017614576,
                3.097824130731098
            ]
        },
        {
            "positions": [
                -2.4738036270712103,
                -1.162565079029562,
                2.00738588319465,
                -0.8213797232116187,
                0.679250952739169,
                3.1144275728827537
            ]
        }
    ]
}