{
    "goal": {
        "global_pose": {
            "orientation": {
                "w": -0.4816463035849501,
                "x": 0.5182115481033762,
                "y": 0.4908360881923453,
                "z": -0.5084816262002911
            },
            "position": {
                "x": -0.8240239810943604,
                "y": -0.300875300988555,
                "z": 0.16403168439865112
            }
        },
        "name": "move_to_storage_C"
    },
    "id": "LBKPIECE_move_to_storage_C_69",
    "joint_names": [
        "shoulder_pan_joint",
        "shoulder_lift_joint",
        "elbow_joint",
        "wrist_1_joint",
        "wrist_2_joint",
        "wrist_3_joint"
    ],
    "metrics": {
        "cart_traj_len": 0.5772322418714847,
        "distance_elbow_joint": 0.25674458554296353,
        "distance_shoulder_lift_joint": 0.18902075060570145,
        "distance_shoulder_pan_joint": 0.49462304218399034,
        "distance_wrist_1_joint": 0.07281829358737668,
        "distance_wrist_2_joint": 1.0752641052559566,
        "distance_wrist_3_joint": 0.07001552576923453,
        "smoothness": 2.5376526478085547e-16,
        "time": 0.151298035,
        "traj_len": 1.4691787852216023,
        "weighted_distance": 1.8565020208249237
    },
    "planner": "LBKPIECE",
    "start": {
        "state": {
            "elbow_joint": 2.0108683149792914,
            "shoulder_lift_joint": -1.1634956873317392,
            "shoulder_pan_joint": -2.4736205022346,
            "wrist_1_joint": -0.8367026793690192,
            "wrist_2_joint": 0.6746043897045053,
            "wrist_3_joint": 3.133522094754363
        }
    },
    "waypoints": [
        {
            "positions": [
                -2.4736205022346,
                -1.1634956873317392,
                2.0108683149792914,
                -0.8367026793690192,
                0.6746043897045053,
                3.133522094754363
            ]
        },
        {
            "positions": [
                -2.556057675931932,
                -1.1319922288974558,
                1.9680775507221309,
                -0.8245662971044564,
                0.8538150739138314,
                3.1451913490492354
            ]
        },
        {
            "positions": [
                -2.6384948496292635,
                -1.100488770463172,
                1.9252867864649703,
                -0.8124299148398937,
                1.0330257581231574,
                3.156860603344108
            ]
        },
        {
            "positions": [
                -2.7209320233265952,
                -1.0689853120288886,
                1.8824960222078095,
                -0.8002935325753309,
                1.2122364423324836,
                3.1685298576389807
            ]
        },
        {
            "positions": [
                -2.803369197023927,
                -1.0374818535946049,
                1.839705257950649,
                -0.788157150310768,
                1.3914471265418098,
                3.180199111933853
            ]
        },
        {
            "positions": [
                -2.8858063707212587,
                -1.0059783951603214,
                1.7969144936934884,
                -0.7760207680462053,
                1.5706578107511358,
                3.191868366228725
            ]
        },
        {
            "positions": [
                -2.9682435444185904,
                -0.9744749367260378,
                1.7541237294363279,
                -0.7638843857816425,
                1.749868494960462,
                3.2035376205235977
            ]
        }
    ]
}