{
    "goal": {
        "global_pose": {
            "orientation": {
                "w": 0.7047431493862688,
                "x": -0.7094548369677653,
                "y": 0.0024358444001904,
                "z": -0.0022348060817251984
            },
            "position": {
                "x": -0.39052492380142206,
                "y": 0.3671506643295288,
                "z": 0.19426114857196808
            }
        },
        "name": "move_to_magneteinheit_D"
    },
    "id": "LBKPIECE_move_to_magneteinheit_D_36",
    "joint_names": [
        "shoulder_pan_joint",
        "shoulder_lift_joint",
        "elbow_joint",
        "wrist_1_joint",
        "wrist_2_joint",
        "wrist_3_joint"
    ],
    "metrics": {
        "cart_traj_len": 3.970944162823366,
        "distance_elbow_joint": 3.1280635641484578,
        "distance_shoulder_lift_joint": 1.6312874025856818,
        "distance_shoulder_pan_joint": 3.068631996218848,
        "distance_wrist_1_joint": 1.7701778762116587,
        "distance_wrist_2_joint": 0.5269737271288075,
        "distance_wrist_3_joint": 3.1897459007628366,
        "smoothness": 0.4092448720492516,
        "time": 0.393480967,
        "traj_len": 3.6489560790801927,
        "weighted_distance": 4.689512114487223
    },
    "planner": "LBKPIECE",
    "start": {
        "state": {
            "elbow_joint": 0.7495348899011911,
            "shoulder_lift_joint": -0.6476975780737668,
            "shoulder_pan_joint": -2.711696901376276,
            "wrist_1_joint": -0.0750647808097303,
            "wrist_2_joint": 0.43296659715458535,
            "wrist_3_joint": 3.1361499051832418
        }
    },
    "waypoints": [
        {
            "positions": [
                -2.711696901376276,
                -0.6476975780737668,
                0.7495348899011911,
                -0.0750647808097303,
                0.43296659715458535,
                3.1361499051832418
            ]
        },
        {
            "positions": [
                -2.723852371966438,
                -0.6961797055665028,
                0.6781587092740011,
                0.012088939410176261,
                0.46396408413211465,
                3.003364447836926
            ]
        },
        {
            "positions": [
                -2.7360078425566003,
                -0.7446618330592387,
                0.6067825286468111,
                0.0992426596300828,
                0.4949615711096439,
                2.870578990490611
            ]
        },
        {
            "positions": [
                -2.691764972477663,
                -0.7678405906330119,
                0.5351751648201868,
                0.12454483273135125,
                0.48681719402665574,
                2.73247875931836
            ]
        },
        {
            "positions": [
                -2.647522102398725,
                -0.7910193482067851,
                0.4635678009935625,
                0.1498470058326197,
                0.47867281694366753,
                2.59437852814611
            ]
        },
        {
            "positions": [
                -2.6032792323197875,
                -0.8141981057805583,
                0.3919604371669381,
                0.17514917893388815,
                0.4705284398606794,
                2.456278296973859
            ]
        },
        {
            "positions": [
                -2.4958272801916452,
                -0.8480888412759704,
                0.29974491837489015,
                0.21386942824753288,
                0.4581869522352011,
                2.3504382302792304
            ]
        },
        {
            "positions": [
                -2.3883753280635025,
                -0.8819795767713825,
                0.20752939958284217,
                0.2525896775611776,
                0.44584546460972285,
                2.2445981635846013
            ]
        },
        {
            "positions": [
                -2.28092337593536,
                -0.9158703122667946,
                0.11531388079079419,
                0.2913099268748223,
                0.4335039769842446,
                2.1387580968899726
            ]
        },
        {
            "positions": [
                -2.173471423807218,
                -0.9497610477622067,
                0.02309836199874621,
                0.3300301761884671,
                0.4211624893587663,
                2.0329180301953436
            ]
        },
        {
            "positions": [
                -2.066019471679075,
                -0.9836517832576188,
                -0.06911715679330177,
                0.3687504255021118,
                0.40882100173328806,
                1.927077963500715
            ]
        },
        {
            "positions": [
                -1.958567519550933,
                -1.017542518753031,
                -0.16133267558534975,
                0.4074706748157565,
                0.3964795141078098,
                1.821237896806086
            ]
        },
        {
            "positions": [
                -1.8511155674227902,
                -1.051433254248443,
                -0.2535481943773978,
                0.44619092412940126,
                0.3841380264823315,
                1.7153978301114572
            ]
        },
        {
            "positions": [
                -1.7436636152946479,
                -1.0853239897438551,
                -0.3457637131694457,
                0.48491117344304596,
                0.3717965388568532,
                1.6095577634168283
            ]
        },
        {
            "positions": [
                -1.6362116631665053,
                -1.1192147252392672,
                -0.43797923196149374,
                0.5236314227566907,
                0.35945505123137494,
                1.5037176967221995
            ]
        },
        {
            "positions": [
                -1.5287597110383628,
                -1.1531054607346793,
                -0.5301947507535416,
                0.5623516720703354,
                0.3471135636058967,
                1.3978776300275706
            ]
        },
        {
            "positions": [
                -1.4213077589102203,
                -1.1869961962300914,
                -0.6224102695455898,
                0.6010719213839801,
                0.3347720759804184,
                1.2920375633329417
            ]
        },
        {
            "positions": [
                -1.313855806782078,
                -1.2208869317255036,
                -0.7146257883376377,
                0.6397921706976248,
                0.32243058835494015,
                1.186197496638313
            ]
        },
        {
            "positions": [
                -1.2064038546539355,
                -1.2547776672209157,
                -0.8068413071296856,
                0.6785124200112695,
                0.3100891007294619,
                1.0803574299436842
            ]
        },
        {
            "positions": [
                -1.098951902525793,
                -1.288668402716328,
                -0.8990568259217337,
                0.7172326693249144,
                0.29774761310398357,
                0.9745173632490551
            ]
        },
        {
            "positions": [
                -0.9914999503976505,
                -1.3225591382117399,
                -0.9912723447137817,
                0.7559529186385591,
                0.2854061254785053,
                0.8686772965544265
            ]
        },
        {
            "positions": [
                -0.8840479982695082,
                -1.356449873707152,
                -1.0834878635058296,
                0.7946731679522038,
                0.27306463785302704,
                0.7628372298597976
            ]
        },
        {
            "positions": [
                -0.7765960461413657,
                -1.390340609202564,
                -1.1757033822978775,
                0.8333934172658485,
                0.26072315022754883,
                0.656997163165169
            ]
        },
        {
            "positions": [
                -0.6691440940132232,
                -1.4242313446979764,
                -1.2679189010899257,
                0.8721136665794932,
                0.24838166260207054,
                0.5511570964705399
            ]
        },
        {
            "positions": [
                -0.5616921418850809,
                -1.4581220801933885,
                -1.3601344198819736,
                0.9108339158931379,
                0.23604017497659227,
                0.44531702977591126
            ]
        },
        {
            "positions": [
                -0.45424018975693814,
                -1.4920128156888006,
                -1.4523499386740215,
                0.9495541652067826,
                0.223698687351114,
                0.33947696308128217
            ]
        },
        {
            "positions": [
                -0.34678823762879585,
                -1.5259035511842125,
                -1.5445654574660694,
                0.9882744145204273,
                0.2113571997256357,
                0.23363689638665353
            ]
        },
        {
            "positions": [
                -0.2393362855006531,
                -1.5597942866796248,
                -1.6367809762581176,
                1.0269946638340721,
                0.19901571210015745,
                0.12779682969202444
            ]
        },
        {
            "positions": [
                -0.13188433337251085,
                -1.593685022175037,
                -1.7289964950501655,
                1.0657149131477168,
                0.1866742244746792,
                0.021956762997395712
            ]
        },
        {
            "positions": [
                -0.0930799431261356,
                -1.6642554921896868,
                -1.8417159169203856,
                1.1724454033156633,
                0.1692321052691528,
                0.029189182955923633
            ]
        },
        {
            "positions": [
                -0.05427555287976035,
                -1.7348259622043367,
                -1.9544353387906055,
                1.2791758934836095,
                0.15178998606362643,
                0.036421602914451554
            ]
        },
        {
            "positions": [
                -0.015471162633385105,
                -1.8053964322189864,
                -2.0671547606608254,
                1.385906383651556,
                0.13434786685810002,
                0.04365402287297947
            ]
        },
        {
            "positions": [
                0.023333227612990143,
                -1.8759669022336363,
                -2.1798741825310457,
                1.4926368738195022,
                0.11690574765257362,
                0.050886442831507395
            ]
        },
        {
            "positions": [
                0.06213761785936539,
                -1.9465373722482862,
                -2.2925936044012656,
                1.5993673639874486,
                0.09946362844704723,
                0.05811886279003531
            ]
        },
        {
            "positions": [
                -0.02859125242250965,
                -2.022306307278603,
                -2.312433430951805,
                1.5518868355411806,
                0.11793712033460463,
                0.04561988950758286
            ]
        },
        {
            "positions": [
                -0.1193201227043847,
                -2.0980752423089193,
                -2.332273257502344,
                1.5044063070949125,
                0.13641061222216203,
                0.033120916225130415
            ]
        },
        {
            "positions": [
                -0.1840379767631942,
                -2.2789849806594487,
                -2.378528674247267,
                1.5036216325729688,
                0.1689444389581995,
                0.018728204005684375
            ]
        }
    ]
}