{
    "goal": {
        "global_pose": {
            "orientation": {
                "w": 0.7047431468963623,
                "x": -0.7094548344612122,
                "y": 0.0024358443915843964,
                "z": -0.0022348060738295317
            },
            "position": {
                "x": 0.6094750761985779,
                "y": 0.3671506643295288,
                "z": 0.19426114857196808
            }
        },
        "name": "move_to_magneteinheit_A"
    },
    "id": "LBKPIECE_move_to_magneteinheit_A_26",
    "joint_names": [
        "shoulder_pan_joint",
        "shoulder_lift_joint",
        "elbow_joint",
        "wrist_1_joint",
        "wrist_2_joint",
        "wrist_3_joint"
    ],
    "metrics": {
        "cart_traj_len": 1.5934892367193978,
        "distance_elbow_joint": 3.5343732328844517,
        "distance_shoulder_lift_joint": 1.1388051772002346,
        "distance_shoulder_pan_joint": 1.2412659491364104,
        "distance_wrist_1_joint": 3.86659320131893,
        "distance_wrist_2_joint": 1.7057059308191982,
        "distance_wrist_3_joint": 5.067364589338508,
        "smoothness": 1.858978097083799e-16,
        "time": 0.242568741,
        "traj_len": 4.068673995382001,
        "weighted_distance": 5.679888765769352
    },
    "planner": "LBKPIECE",
    "start": {
        "state": {
            "elbow_joint": -1.5739458827952972,
            "shoulder_lift_joint": 0.006533473998580023,
            "shoulder_pan_joint": -1.1188671628667068,
            "wrist_1_joint": 3.138208179676308,
            "wrist_2_joint": -1.5706037135050406,
            "wrist_3_joint": -2.0226958329764257
        }
    },
    "waypoints": [
        {
            "positions": [
                -1.1188671628667068,
                0.006533473998580023,
                -1.5739458827952972,
                3.138208179676308,
                -1.5706037135050406,
                -2.0226958329764257
            ]
        },
        {
            "positions": [
                -1.0893132116967923,
                -0.02058093498237794,
                -1.4897941391551912,
                3.046146436787762,
                -1.5299916675331549,
                -1.9020442951350327
            ]
        },
        {
            "positions": [
                -1.0597592605268777,
                -0.047695343963335905,
                -1.4056423955150852,
                2.9540846938992162,
                -1.4893796215612691,
                -1.7813927572936397
            ]
        },
        {
            "positions": [
                -1.0302053093569632,
                -0.07480975294429387,
                -1.3214906518749792,
                2.8620229510106703,
                -1.4487675755893836,
                -1.6607412194522466
            ]
        },
        {
            "positions": [
                -1.0006513581870486,
                -0.10192416192525183,
                -1.2373389082348734,
                2.7699612081221243,
                -1.408155529617498,
                -1.5400896816108536
            ]
        },
        {
            "positions": [
                -0.9710974070171342,
                -0.1290385709062098,
                -1.1531871645947673,
                2.6778994652335784,
                -1.3675434836456122,
                -1.4194381437694605
            ]
        },
        {
            "positions": [
                -0.9415434558472197,
                -0.15615297988716775,
                -1.0690354209546613,
                2.5858377223450324,
                -1.3269314376737267,
                -1.2987866059280675
            ]
        },
        {
            "positions": [
                -0.9119895046773051,
                -0.1832673888681257,
                -0.9848836773145553,
                2.4937759794564864,
                -1.286319391701841,
                -1.1781350680866745
            ]
        },
        {
            "positions": [
                -0.8824355535073906,
                -0.21038179784908367,
                -0.9007319336744494,
                2.4017142365679405,
                -1.2457073457299552,
                -1.0574835302452814
            ]
        },
        {
            "positions": [
                -0.8528816023374761,
                -0.23749620683004163,
                -0.8165801900343433,
                2.3096524936793945,
                -1.2050952997580695,
                -0.9368319924038884
            ]
        },
        {
            "positions": [
                -0.8233276511675616,
                -0.26461061581099965,
                -0.7324284463942373,
                2.2175907507908486,
                -1.1644832537861838,
                -0.8161804545624953
            ]
        },
        {
            "positions": [
                -0.793773699997647,
                -0.2917250247919576,
                -0.6482767027541313,
                2.1255290079023026,
                -1.123871207814298,
                -0.6955289167211021
            ]
        },
        {
            "positions": [
                -0.7642197488277325,
                -0.31883943377291557,
                -0.5641249591140254,
                2.0334672650137566,
                -1.0832591618424126,
                -0.5748773788797092
            ]
        },
        {
            "positions": [
                -0.7346657976578179,
                -0.34595384275387353,
                -0.47997321547391936,
                1.9414055221252107,
                -1.0426471158705268,
                -0.454225841038316
            ]
        },
        {
            "positions": [
                -0.7051118464879034,
                -0.3730682517348315,
                -0.39582147183381333,
                1.849343779236665,
                -1.0020350698986413,
                -0.33357430319692316
            ]
        },
        {
            "positions": [
                -0.6755578953179888,
                -0.4001826607157895,
                -0.3116697281937073,
                1.757282036348119,
                -0.9614230239267555,
                -0.2129227653555299
            ]
        },
        {
            "positions": [
                -0.6460039441480743,
                -0.4272970696967474,
                -0.2275179845536015,
                1.665220293459573,
                -0.9208109779548699,
                -0.09227122751413708
            ]
        },
        {
            "positions": [
                -0.6164499929781597,
                -0.4544114786777054,
                -0.14336624091349526,
                1.573158550571027,
                -0.8801989319829842,
                0.028380310327256186
            ]
        },
        {
            "positions": [
                -0.5868960418082453,
                -0.48152588765866333,
                -0.059214497273389455,
                1.481096807682481,
                -0.8395868860110985,
                0.149031848168649
            ]
        },
        {
            "positions": [
                -0.5573420906383307,
                -0.5086402966396213,
                0.02493724636671657,
                1.3890350647939351,
                -0.7989748400392128,
                0.26968338601004227
            ]
        },
        {
            "positions": [
                -0.5277881394684162,
                -0.5357547056205793,
                0.1090889900068226,
                1.2969733219053892,
                -0.7583627940673272,
                0.3903349238514351
            ]
        },
        {
            "positions": [
                -0.49823418829850163,
                -0.5628691146015372,
                0.19324073364692862,
                1.2049115790168432,
                -0.7177507480954415,
                0.5109864616928284
            ]
        },
        {
            "positions": [
                -0.4686802371285871,
                -0.5899835235824952,
                0.27739247728703464,
                1.112849836128297,
                -0.6771387021235558,
                0.6316379995342216
            ]
        },
        {
            "positions": [
                -0.43912628595867254,
                -0.6170979325634532,
                0.3615442209271409,
                1.020788093239751,
                -0.63652665615167,
                0.7522895373756149
            ]
        },
        {
            "positions": [
                -0.4095723347887581,
                -0.6442123415444111,
                0.44569596456724647,
                0.9287263503512055,
                -0.5959146101797845,
                0.8729410752170073
            ]
        },
        {
            "positions": [
                -0.38001838361884355,
                -0.671326750525369,
                0.5298477082073527,
                0.8366646074626596,
                -0.5553025642078988,
                0.9935926130584005
            ]
        },
        {
            "positions": [
                -0.3504644324489289,
                -0.698441159506327,
                0.6139994518474585,
                0.7446028645741132,
                -0.5146905182360131,
                1.1142441508997938
            ]
        },
        {
            "positions": [
                -0.32091048127901434,
                -0.7255555684872851,
                0.6981511954875648,
                0.6525411216855672,
                -0.47407847226412736,
                1.234895688741187
            ]
        },
        {
            "positions": [
                -0.2913565301090999,
                -0.7526699774682429,
                0.7823029391276706,
                0.5604793787970217,
                -0.43346642629224186,
                1.3555472265825794
            ]
        },
        {
            "positions": [
                -0.26180257893918535,
                -0.7797843864492009,
                0.8664546827677764,
                0.46841763590847574,
                -0.39285438032035613,
                1.4761987644239727
            ]
        },
        {
            "positions": [
                -0.2322486277692708,
                -0.806898795430159,
                0.9506064264078826,
                0.3763558930199298,
                -0.3522423343484704,
                1.596850302265366
            ]
        },
        {
            "positions": [
                -0.20269467659935625,
                -0.8340132044111169,
                1.0347581700479889,
                0.28429415013138337,
                -0.3116302883765847,
                1.7175018401067592
            ]
        },
        {
            "positions": [
                -0.1731407254294418,
                -0.8611276133920748,
                1.1189099136880942,
                0.19223240724283785,
                -0.2710182424046992,
                1.8381533779481516
            ]
        },
        {
            "positions": [
                -0.14358677425952726,
                -0.8882420223730327,
                1.2030616573282005,
                0.1001706643542919,
                -0.23040619643281346,
                1.9588049157895449
            ]
        },
        {
            "positions": [
                -0.1140328230896126,
                -0.9153564313539908,
                1.2872134009683067,
                0.008108921465745933,
                -0.18979415046092774,
                2.079456453630938
            ]
        },
        {
            "positions": [
                -0.08447887191969805,
                -0.9424708403349488,
                1.3713651446084125,
                -0.08395282142280003,
                -0.149182104489042,
                2.2001079914723314
            ]
        },
        {
            "positions": [
                -0.05492492074978372,
                -0.9695852493159066,
                1.4555168882485183,
                -0.176014564311346,
                -0.10857005851715651,
                2.3207595293137238
            ]
        },
        {
            "positions": [
                -0.025370969579869174,
                -0.9966996582968646,
                1.5396686318886246,
                -0.26807630719989195,
                -0.06795801254527079,
                2.441411067155117
            ]
        },
        {
            "positions": [
                0.004182981590045376,
                -1.0238140672778226,
                1.6238203755287304,
                -0.3601380500884379,
                -0.02734596657338506,
                2.5620626049965103
            ]
        },
        {
            "positions": [
                0.033736932759959926,
                -1.0509284762587807,
                1.7079721191688366,
                -0.45219979297698387,
                0.013266079398500663,
                2.6827141428379035
            ]
        },
        {
            "positions": [
                0.06329088392987448,
                -1.0780428852397386,
                1.7921238628089424,
                -0.5442615358655298,
                0.053878125370386165,
                2.803365680679296
            ]
        },
        {
            "positions": [
                0.09284483509978902,
                -1.1051572942206964,
                1.8762756064490482,
                -0.6363232787540758,
                0.09449017134227189,
                2.924017218520689
            ]
        },
        {
            "positions": [
                0.12239878626970367,
                -1.1322717032016545,
                1.9604273500891545,
                -0.7283850216426219,
                0.13510221731415756,
                3.044668756362083
            ]
        }
    ]
}