{
    "goal": {
        "global_pose": {
            "orientation": {
                "w": 0.5084816262002911,
                "x": -0.4908360881923452,
                "y": 0.5182115481033761,
                "z": -0.48164630358495003
            },
            "position": {
                "x": 0.5540239810943604,
                "y": -0.46912469901144505,
                "z": 0.16403168439865112
            }
        },
        "name": "move_to_storage_B"
    },
    "id": "LBKPIECE_move_to_storage_B_96",
    "joint_names": [
        "shoulder_pan_joint",
        "shoulder_lift_joint",
        "elbow_joint",
        "wrist_1_joint",
        "wrist_2_joint",
        "wrist_3_joint"
    ],
    "metrics": {
        "cart_traj_len": 0.6658615725311628,
        "distance_elbow_joint": 0.48728505844041314,
        "distance_shoulder_lift_joint": 0.46209609944698493,
        "distance_shoulder_pan_joint": 0.298280367133926,
        "distance_wrist_1_joint": 3.027834043412499,
        "distance_wrist_2_joint": 2.7117719988438744,
        "distance_wrist_3_joint": 3.1160221187478796,
        "smoothness": 0.1112516772877815,
        "time": 0.402642827,
        "traj_len": 3.178567237927424,
        "weighted_distance": 4.698397595540176
    },
    "planner": "LBKPIECE",
    "start": {
        "state": {
            "elbow_joint": 1.6649325340416963,
            "shoulder_lift_joint": -0.6616387945129425,
            "shoulder_pan_joint": -0.9139837929255878,
            "wrist_1_joint": 2.1467571094334352,
            "wrist_2_joint": -2.234195976750228,
            "wrist_3_joint": 0.005470921511140723
        }
    },
    "waypoints": [
        {
            "positions": [
                -0.9139837929255878,
                -0.6616387945129425,
                1.6649325340416963,
                2.1467571094334352,
                -2.234195976750228,
                0.005470921511140723
            ]
        },
        {
            "positions": [
                -0.895853719225318,
                -0.6684509903457598,
                1.6592583455658985,
                2.103689220845384,
                -2.1798367398448715,
                0.00934144429266637
            ]
        },
        {
            "positions": [
                -0.8755762865323881,
                -0.6938588500193134,
                1.63020204626912,
                2.0054918548262055,
                -2.0243284443540475,
                0.00575633297580183
            ]
        },
        {
            "positions": [
                -0.8552988538394581,
                -0.7192667096928669,
                1.6011457469723416,
                1.9072944888070276,
                -1.8688201488632235,
                0.002171221658937291
            ]
        },
        {
            "positions": [
                -0.865281996674783,
                -0.7361195507039944,
                1.618791508279469,
                1.7911123461909404,
                -1.7710536417400204,
                -0.12720300222992206
            ]
        },
        {
            "positions": [
                -0.8752651395101079,
                -0.7529723917151219,
                1.6364372695865965,
                1.6749302035748534,
                -1.6732871346168177,
                -0.2565772261187814
            ]
        },
        {
            "positions": [
                -0.8852482823454326,
                -0.7698252327262495,
                1.654083030893724,
                1.5587480609587663,
                -1.5755206274936147,
                -0.3859514500076408
            ]
        },
        {
            "positions": [
                -0.8952314251807575,
                -0.786678073737377,
                1.6717287922008512,
                1.4425659183426793,
                -1.4777541203704119,
                -0.5153256738965002
            ]
        },
        {
            "positions": [
                -0.9052145680160824,
                -0.8035309147485045,
                1.6893745535079787,
                1.3263837757265922,
                -1.3799876132472089,
                -0.6446998977853596
            ]
        },
        {
            "positions": [
                -0.9151977108514072,
                -0.8203837557596321,
                1.7070203148151062,
                1.210201633110505,
                -1.2822211061240059,
                -0.774074121674219
            ]
        },
        {
            "positions": [
                -0.9251808536867321,
                -0.8372365967707596,
                1.7246660761222337,
                1.0940194904944178,
                -1.1844545990008029,
                -0.9034483455630784
            ]
        },
        {
            "positions": [
                -0.935163996522057,
                -0.8540894377818871,
                1.7423118374293611,
                0.9778373478783309,
                -1.0866880918776003,
                -1.0328225694519375
            ]
        },
        {
            "positions": [
                -0.9451471393573818,
                -0.8709422787930146,
                1.7599575987364884,
                0.8616552052622437,
                -0.9889215847543973,
                -1.162196793340797
            ]
        },
        {
            "positions": [
                -0.9551302821927066,
                -0.887795119804142,
                1.7776033600436159,
                0.7454730626461565,
                -0.8911550776311943,
                -1.2915710172296564
            ]
        },
        {
            "positions": [
                -0.9651134250280314,
                -0.9046479608152697,
                1.7952491213507433,
                0.6292909200300696,
                -0.7933885705079915,
                -1.4209452411185157
            ]
        },
        {
            "positions": [
                -0.9750965678633563,
                -0.9215008018263972,
                1.8128948826578708,
                0.5131087774139824,
                -0.6956220633847885,
                -1.550319465007375
            ]
        },
        {
            "positions": [
                -0.9850797106986812,
                -0.9383536428375246,
                1.8305406439649983,
                0.3969266347978955,
                -0.5978555562615857,
                -1.6796936888962344
            ]
        },
        {
            "positions": [
                -0.995062853534006,
                -0.9552064838486523,
                1.8481864052721257,
                0.2807444921818081,
                -0.5000890491383825,
                -1.809067912785094
            ]
        },
        {
            "positions": [
                -1.0050459963693308,
                -0.9720593248597797,
                1.8658321665792532,
                0.16456234956572113,
                -0.4023225420151797,
                -1.938442136673953
            ]
        },
        {
            "positions": [
                -1.0150291392046558,
                -0.9889121658709072,
                1.8834779278863805,
                0.048380206949634186,
                -0.3045560348919769,
                -2.0678163605628126
            ]
        },
        {
            "positions": [
                -1.0250122820399805,
                -1.0057650068820347,
                1.901123689193508,
                -0.0678019356664532,
                -0.2067895277687739,
                -2.1971905844516724
            ]
        },
        {
            "positions": [
                -1.0349954248753055,
                -1.0226178478931622,
                1.9187694505006354,
                -0.18398407828254015,
                -0.10902302064557112,
                -2.3265648083405317
            ]
        },
        {
            "positions": [
                -1.0449785677106302,
                -1.0394706889042897,
                1.9364152118077629,
                -0.3001662208986273,
                -0.011256513522368117,
                -2.4559390322293906
            ]
        },
        {
            "positions": [
                -1.054961710545955,
                -1.0563235299154172,
                1.9540609731148904,
                -0.4163483635147145,
                0.08650999360083489,
                -2.5853132561182504
            ]
        },
        {
            "positions": [
                -1.06494485338128,
                -1.0731763709265447,
                1.9717067344220176,
                -0.5325305061308012,
                0.1842765007240379,
                -2.7146874800071097
            ]
        },
        {
            "positions": [
                -1.0749279962166047,
                -1.0900292119376724,
                1.989352495729145,
                -0.6487126487468884,
                0.28204300784724046,
                -2.844061703895969
            ]
        },
        {
            "positions": [
                -1.0849111390519297,
                -1.1068820529488,
                2.0069982570362725,
                -0.7648947913629756,
                0.37980951497044346,
                -2.9734359277848283
            ]
        },
        {
            "positions": [
                -1.0948942818872545,
                -1.1237348939599274,
                2.0246440183434,
                -0.881076933979063,
                0.4775760220936466,
                -3.1028101516736877
            ]
        }
    ]
}