{
    "goal": {
        "global_pose": {
            "orientation": {
                "w": 0.005598929693374612,
                "x": 0.007748599140229565,
                "y": 0.7110244013736278,
                "z": -0.7031023480610252
            },
            "position": {
                "x": 0.1141497679147869,
                "y": -0.7141253447532654,
                "z": 0.3711530566215515
            }
        },
        "name": "move_to_auspresseinheit_B"
    },
    "id": "LBKPIECE_move_to_auspresseinheit_B_32",
    "joint_names": [
        "shoulder_pan_joint",
        "shoulder_lift_joint",
        "elbow_joint",
        "wrist_1_joint",
        "wrist_2_joint",
        "wrist_3_joint"
    ],
    "metrics": {
        "cart_traj_len": 0.5656329009431882,
        "distance_elbow_joint": 0.06574494232974426,
        "distance_shoulder_lift_joint": 0.2938196708302978,
        "distance_shoulder_pan_joint": 0.5790024285220239,
        "distance_wrist_1_joint": 0.3363959454063925,
        "distance_wrist_2_joint": 0.9880864082255707,
        "distance_wrist_3_joint": 0.0032433083563021547,
        "smoothness": 0.0,
        "time": 0.375000848,
        "traj_len": 1.5054211050966209,
        "weighted_distance": 1.8966448465685133
    },
    "planner": "LBKPIECE",
    "start": {
        "state": {
            "elbow_joint": 2.0193061681459312,
            "shoulder_lift_joint": -1.1220205130644991,
            "shoulder_pan_joint": -1.0952072088045026,
            "wrist_1_joint": -0.8559671810662515,
            "wrist_2_joint": 0.4759638712940361,
            "wrist_3_joint": 3.159081874192446
        }
    },
    "waypoints": [
        {
            "positions": [
                -1.0952072088045026,
                -1.1220205130644991,
                2.0193061681459312,
                -0.8559671810662515,
                0.4759638712940361,
                3.159081874192446
            ]
        },
        {
            "positions": [
                -1.1917076135581732,
                -1.170990458202882,
                2.0083486777576405,
                -0.799901190165186,
                0.6406449393316312,
                3.1585413227997288
            ]
        },
        {
            "positions": [
                -1.2882080183118438,
                -1.219960403341265,
                1.9973911873693497,
                -0.7438351992641207,
                0.8053260073692263,
                3.158000771407012
            ]
        },
        {
            "positions": [
                -1.3847084230655144,
                -1.268930348479648,
                1.986433696981059,
                -0.6877692083630552,
                0.9700070754068215,
                3.157460220014295
            ]
        },
        {
            "positions": [
                -1.4812088278191853,
                -1.317900293618031,
                1.9754762065927685,
                -0.6317032174619899,
                1.1346881434444165,
                3.156919668621578
            ]
        },
        {
            "positions": [
                -1.577709232572856,
                -1.366870238756414,
                1.9645187162044777,
                -0.5756372265609244,
                1.2993692114820117,
                3.1563791172288607
            ]
        },
        {
            "positions": [
                -1.6742096373265265,
                -1.415840183894797,
                1.953561225816187,
                -0.519571235659859,
                1.4640502795196069,
                3.155838565836144
            ]
        }
    ]
}