{
    "goal": {
        "global_pose": {
            "orientation": {
                "w": 0.5084816217422485,
                "x": -0.49083608388900757,
                "y": 0.5182115435600281,
                "z": -0.4816462993621826
            },
            "position": {
                "x": 0.5540239810943604,
                "y": 0.030875300988554955,
                "z": 0.16403168439865112
            }
        },
        "name": "move_to_storage_A"
    },
    "id": "LBKPIECE_move_to_storage_A_102",
    "joint_names": [
        "shoulder_pan_joint",
        "shoulder_lift_joint",
        "elbow_joint",
        "wrist_1_joint",
        "wrist_2_joint",
        "wrist_3_joint"
    ],
    "metrics": {
        "cart_traj_len": 0.35328387230924607,
        "distance_elbow_joint": 0.44838453451779503,
        "distance_shoulder_lift_joint": 0.2352258950134274,
        "distance_shoulder_pan_joint": 0.4615646329385321,
        "distance_wrist_1_joint": 0.23915703591362392,
        "distance_wrist_2_joint": 1.1007680484581481,
        "distance_wrist_3_joint": 0.09066710829765556,
        "smoothness": 0.0,
        "time": 0.748185619,
        "traj_len": 1.604919703642267,
        "weighted_distance": 2.024111300325717
    },
    "planner": "LBKPIECE",
    "start": {
        "state": {
            "elbow_joint": 1.971548880431181,
            "shoulder_lift_joint": -1.1394869514688781,
            "shoulder_pan_joint": 0.12281150262730567,
            "wrist_1_joint": -0.7804693444481463,
            "wrist_2_joint": 0.12958644648617612,
            "wrist_3_joint": 3.0906942077768043
        }
    },
    "waypoints": [
        {
            "positions": [
                0.12281150262730567,
                -1.1394869514688781,
                1.971548880431181,
                -0.7804693444481463,
                0.12958644648617612,
                3.0906942077768043
            ]
        },
        {
            "positions": [
                0.05687369792180108,
                -1.1730906507565106,
                2.035603813933723,
                -0.8146346352929498,
                0.28683902483734014,
                3.1036466518193264
            ]
        },
        {
            "positions": [
                -0.009064106783703507,
                -1.2066943500441432,
                2.099658747436265,
                -0.8487999261377531,
                0.44409160318850416,
                3.1165990958618486
            ]
        },
        {
            "positions": [
                -0.0750019114892081,
                -1.2402980493317757,
                2.1637136809388076,
                -0.8829652169825566,
                0.6013441815396682,
                3.1295515399043707
            ]
        },
        {
            "positions": [
                -0.14093971619471268,
                -1.273901748619408,
                2.2277686144413495,
                -0.9171305078273599,
                0.7585967598908322,
                3.1425039839468933
            ]
        },
        {
            "positions": [
                -0.20687752090021727,
                -1.3075054479070405,
                2.2918235479438915,
                -0.9512957986721634,
                0.9158493382419962,
                3.1554564279894155
            ]
        },
        {
            "positions": [
                -0.27281532560572186,
                -1.341109147194673,
                2.355878481446434,
                -0.9854610895169668,
                1.0731019165931603,
                3.1684088720319377
            ]
        },
        {
            "positions": [
                -0.33875313031122645,
                -1.3747128464823055,
                2.419933414948976,
                -1.0196263803617702,
                1.2303544949443244,
                3.18136131607446
            ]
        }
    ]
}