{
    "goal": {
        "global_pose": {
            "orientation": {
                "w": 0.005598929693374612,
                "x": 0.007748599140229565,
                "y": 0.7110244013736278,
                "z": -0.7031023480610252
            },
            "position": {
                "x": -0.8858502320852131,
                "y": -0.7141253447532654,
                "z": 0.3711530566215515
            }
        },
        "name": "move_to_auspresseinheit_C"
    },
    "id": "LBKPIECE_move_to_auspresseinheit_C_88",
    "joint_names": [
        "shoulder_pan_joint",
        "shoulder_lift_joint",
        "elbow_joint",
        "wrist_1_joint",
        "wrist_2_joint",
        "wrist_3_joint"
    ],
    "metrics": {
        "cart_traj_len": 0.4923731185525235,
        "distance_elbow_joint": 0.9965990329599449,
        "distance_shoulder_lift_joint": 0.3234469837634576,
        "distance_shoulder_pan_joint": 0.2552280866649501,
        "distance_wrist_1_joint": 0.6665561474612325,
        "distance_wrist_2_joint": 1.3224209295157623,
        "distance_wrist_3_joint": 0.055362162529063674,
        "smoothness": 4.844609574787718e-16,
        "time": 0.649297573,
        "traj_len": 1.9025281450991496,
        "weighted_distance": 2.3915088845600248
    },
    "planner": "LBKPIECE",
    "start": {
        "state": {
            "elbow_joint": 1.7527959577730765,
            "shoulder_lift_joint": -0.9740617694224828,
            "shoulder_pan_joint": -2.967991417825869,
            "wrist_1_joint": -0.7595177689779385,
            "wrist_2_joint": 1.7443932448376545,
            "wrist_3_joint": 3.1991315425061013
        }
    },
    "waypoints": [
        {
            "positions": [
                -2.967991417825869,
                -0.9740617694224828,
                1.7527959577730765,
                -0.7595177689779385,
                1.7443932448376545,
                3.1991315425061013
            ]
        },
        {
            "positions": [
                -2.942468609159374,
                -0.941717071046137,
                1.653136054477082,
                -0.6928621542318153,
                1.6121511518860783,
                3.193595326253195
            ]
        },
        {
            "positions": [
                -2.916945800492879,
                -0.9093723726697913,
                1.5534761511810875,
                -0.626206539485692,
                1.4799090589345019,
                3.1880591100002884
            ]
        },
        {
            "positions": [
                -2.891422991826384,
                -0.8770276742934455,
                1.4538162478850931,
                -0.5595509247395688,
                1.347666965982926,
                3.1825228937473824
            ]
        },
        {
            "positions": [
                -2.865900183159889,
                -0.8446829759170997,
                1.3541563445890985,
                -0.49289530999344555,
                1.2154248730313495,
                3.176986677494476
            ]
        },
        {
            "positions": [
                -2.840377374493394,
                -0.8123382775407539,
                1.2544964412931041,
                -0.4262396952473223,
                1.0831827800797733,
                3.1714504612415695
            ]
        },
        {
            "positions": [
                -2.814854565826899,
                -0.7799935791644083,
                1.1548365379971095,
                -0.35958408050119905,
                0.9509406871281971,
                3.165914244988663
            ]
        },
        {
            "positions": [
                -2.789331757160404,
                -0.7476488807880625,
                1.0551766347011151,
                -0.29292846575507586,
                0.8186985941766209,
                3.1603780287357566
            ]
        },
        {
            "positions": [
                -2.763808948493909,
                -0.7153041824117168,
                0.9555167314051205,
                -0.22627285100895256,
                0.6864565012250445,
                3.1548418124828506
            ]
        },
        {
            "positions": [
                -2.738286139827414,
                -0.682959484035371,
                0.8558568281091261,
                -0.1596172362628293,
                0.5542144082734684,
                3.149305596229944
            ]
        },
        {
            "positions": [
                -2.712763331160919,
                -0.6506147856590252,
                0.7561969248131316,
                -0.09296162151670606,
                0.4219723153218921,
                3.1437693799770376
            ]
        }
    ]
}