{
    "goal": {
        "global_pose": {
            "orientation": {
                "w": 0.7031023480610252,
                "x": -0.7110244013736278,
                "y": 0.0077485991402295624,
                "z": 0.005598929693374583
            },
            "position": {
                "x": -0.8841497679147869,
                "y": 0.44412534475326537,
                "z": 0.3711530566215515
            }
        },
        "name": "move_to_auspresseinheit_D"
    },
    "id": "LBKPIECE_move_to_auspresseinheit_D_95",
    "joint_names": [
        "shoulder_pan_joint",
        "shoulder_lift_joint",
        "elbow_joint",
        "wrist_1_joint",
        "wrist_2_joint",
        "wrist_3_joint"
    ],
    "metrics": {
        "cart_traj_len": 0.34526326107886285,
        "distance_elbow_joint": 0.673108247379653,
        "distance_shoulder_lift_joint": 0.14091352629382836,
        "distance_shoulder_pan_joint": 0.1343180014255138,
        "distance_wrist_1_joint": 0.6374266990844806,
        "distance_wrist_2_joint": 1.441138831422134,
        "distance_wrist_3_joint": 0.07877066503479879,
        "smoothness": 2.9605947279411004e-16,
        "time": 0.537202421,
        "traj_len": 1.76229281637315,
        "weighted_distance": 2.311229722726978
    },
    "planner": "LBKPIECE",
    "start": {
        "state": {
            "elbow_joint": -1.8275484843655228,
            "shoulder_lift_joint": -2.1267897864000416,
            "shoulder_pan_joint": -0.035127520176001514,
            "wrist_1_joint": -2.3477863256791385,
            "wrist_2_joint": -1.605890476484521,
            "wrist_3_joint": -3.0880375317375353
        }
    },
    "waypoints": [
        {
            "positions": [
                -0.035127520176001514,
                -2.1267897864000416,
                -1.8275484843655228,
                -2.3477863256791385,
                -1.605890476484521,
                -3.0880375317375353
            ]
        },
        {
            "positions": [
                -0.05191727035419074,
                -2.1444039771867702,
                -1.743409953443066,
                -2.4274646630646988,
                -1.4257481225567543,
                -3.0781911986081854
            ]
        },
        {
            "positions": [
                -0.06870702053237997,
                -2.162018167973499,
                -1.6592714225206096,
                -2.5071430004502586,
                -1.2456057686289874,
                -3.0683448654788354
            ]
        },
        {
            "positions": [
                -0.08549677071056919,
                -2.179632358760227,
                -1.5751328915981528,
                -2.5868213378358185,
                -1.0654634147012207,
                -3.0584985323494855
            ]
        },
        {
            "positions": [
                -0.10228652088875842,
                -2.1972465495469558,
                -1.4909943606756961,
                -2.6664996752213788,
                -0.885321060773454,
                -3.048652199220136
            ]
        },
        {
            "positions": [
                -0.11907627106694765,
                -2.2148607403336844,
                -1.4068558297532396,
                -2.746178012606939,
                -0.7051787068456872,
                -3.038805866090786
            ]
        },
        {
            "positions": [
                -0.13586602124513686,
                -2.2324749311204126,
                -1.322717298830783,
                -2.825856349992499,
                -0.5250363529179205,
                -3.0289595329614363
            ]
        },
        {
            "positions": [
                -0.1526557714233261,
                -2.2500891219071413,
                -1.2385787679083262,
                -2.9055346873780588,
                -0.3448939989901536,
                -3.0191131998320864
            ]
        },
        {
            "positions": [
                -0.16944552160151533,
                -2.26770331269387,
                -1.1544402369858697,
                -2.985213024763619,
                -0.1647516450623869,
                -3.0092668667027365
            ]
        }
    ]
}