{
    "goal": {
        "global_pose": {
            "orientation": {
                "w": -0.4816463035849501,
                "x": 0.5182115481033762,
                "y": 0.4908360881923453,
                "z": -0.5084816262002911
            },
            "position": {
                "x": -0.8240239810943604,
                "y": -0.300875300988555,
                "z": 0.16403168439865112
            }
        },
        "name": "move_to_storage_C"
    },
    "id": "LBKPIECE_move_to_storage_C_26",
    "joint_names": [
        "shoulder_pan_joint",
        "shoulder_lift_joint",
        "elbow_joint",
        "wrist_1_joint",
        "wrist_2_joint",
        "wrist_3_joint"
    ],
    "metrics": {
        "cart_traj_len": 0.576377281320088,
        "distance_elbow_joint": 0.2591172011434677,
        "distance_shoulder_lift_joint": 0.1895424127846025,
        "distance_shoulder_pan_joint": 0.49433944389770534,
        "distance_wrist_1_joint": 0.07985411434259371,
        "distance_wrist_2_joint": 1.0651671734486192,
        "distance_wrist_3_joint": 0.0641692734798589,
        "smoothness": 0.0,
        "time": 0.413664912,
        "traj_len": 1.4670342937698653,
        "weighted_distance": 1.8508239932116122
    },
    "planner": "LBKPIECE",
    "start": {
        "state": {
            "elbow_joint": 2.0108683149792914,
            "shoulder_lift_joint": -1.1634956873317392,
            "shoulder_pan_joint": -2.4736205022346,
            "wrist_1_joint": -0.8367026793690192,
            "wrist_2_joint": 0.6746043897045053,
            "wrist_3_joint": 3.133522094754363
        }
    },
    "waypoints": [
        {
            "positions": [
                -2.4736205022346,
                -1.1634956873317392,
                2.0108683149792914,
                -0.8367026793690192,
                0.6746043897045053,
                3.133522094754363
            ]
        },
        {
            "positions": [
                -2.5560104095508844,
                -1.1319052852009721,
                1.9676821147887136,
                -0.8233936603119203,
                0.8521322519459418,
                3.144216973667673
            ]
        },
        {
            "positions": [
                -2.6384003168671684,
                -1.100314883070205,
                1.9244959145981355,
                -0.8100846412548213,
                1.0296601141873785,
                3.154911852580983
            ]
        },
        {
            "positions": [
                -2.7207902241834527,
                -1.068724480939438,
                1.8813097144075575,
                -0.7967756221977224,
                1.207187976428815,
                3.1656067314942926
            ]
        },
        {
            "positions": [
                -2.803180131499737,
                -1.037134078808671,
                1.8381235142169796,
                -0.7834666031406234,
                1.3847158386702514,
                3.1763016104076023
            ]
        },
        {
            "positions": [
                -2.885570038816021,
                -1.0055436766779038,
                1.7949373140264018,
                -0.7701575840835244,
                1.562243700911688,
                3.1869964893209124
            ]
        },
        {
            "positions": [
                -2.9679599461323054,
                -0.9739532745471368,
                1.7517511138358237,
                -0.7568485650264255,
                1.7397715631531245,
                3.197691368234222
            ]
        }
    ]
}