{
    "goal": {
        "global_pose": {
            "orientation": {
                "w": 0.005598929693374612,
                "x": 0.007748599140229565,
                "y": 0.7110244013736278,
                "z": -0.7031023480610252
            },
            "position": {
                "x": -0.8858502320852131,
                "y": -0.7141253447532654,
                "z": 0.3711530566215515
            }
        },
        "name": "move_to_auspresseinheit_C"
    },
    "id": "LBKPIECE_move_to_auspresseinheit_C_85",
    "joint_names": [
        "shoulder_pan_joint",
        "shoulder_lift_joint",
        "elbow_joint",
        "wrist_1_joint",
        "wrist_2_joint",
        "wrist_3_joint"
    ],
    "metrics": {
        "cart_traj_len": 0.4941137330489124,
        "distance_elbow_joint": 1.0164932602980055,
        "distance_shoulder_lift_joint": 0.3329808989593276,
        "distance_shoulder_pan_joint": 0.2564215130615968,
        "distance_wrist_1_joint": 0.7113271711888515,
        "distance_wrist_2_joint": 1.306480586082856,
        "distance_wrist_3_joint": 0.09103913031784927,
        "smoothness": 6.459479416000911e-16,
        "time": 0.6032475239999999,
        "traj_len": 1.9273667424515986,
        "weighted_distance": 2.432000941162625
    },
    "planner": "LBKPIECE",
    "start": {
        "state": {
            "elbow_joint": 1.7527959577730765,
            "shoulder_lift_joint": -0.9740617694224828,
            "shoulder_pan_joint": -2.967991417825869,
            "wrist_1_joint": -0.7595177689779385,
            "wrist_2_joint": 1.7443932448376545,
            "wrist_3_joint": 3.1991315425061013
        }
    },
    "waypoints": [
        {
            "positions": [
                -2.967991417825869,
                -0.9740617694224828,
                1.7527959577730765,
                -0.7595177689779385,
                1.7443932448376545,
                3.1991315425061013
            ]
        },
        {
            "positions": [
                -2.9423492665197095,
                -0.94076367952655,
                1.651146631743276,
                -0.6883850518590534,
                1.6137451862293688,
                3.1900276294743164
            ]
        },
        {
            "positions": [
                -2.9167071152135495,
                -0.9074655896306173,
                1.5494973057134753,
                -0.6172523347401683,
                1.4830971276210831,
                3.1809237164425315
            ]
        },
        {
            "positions": [
                -2.89106496390739,
                -0.8741674997346845,
                1.447847979683675,
                -0.5461196176212831,
                1.3524490690127977,
                3.1718198034107465
            ]
        },
        {
            "positions": [
                -2.8654228126012304,
                -0.8408694098387517,
                1.3461986536538744,
                -0.47498690050239795,
                1.221801010404512,
                3.1627158903789616
            ]
        },
        {
            "positions": [
                -2.8397806612950705,
                -0.8075713199428189,
                1.2445493276240738,
                -0.4038541833835128,
                1.0911529517962264,
                3.1536119773471767
            ]
        },
        {
            "positions": [
                -2.814138509988911,
                -0.7742732300468862,
                1.1429000015942732,
                -0.3327214662646277,
                0.9605048931879409,
                3.1445080643153918
            ]
        },
        {
            "positions": [
                -2.7884963586827514,
                -0.7409751401509534,
                1.0412506755644726,
                -0.26158874914574254,
                0.8298568345796552,
                3.135404151283607
            ]
        },
        {
            "positions": [
                -2.762854207376592,
                -0.7076770502550207,
                0.9396013495346721,
                -0.19045603202685735,
                0.6992087759713694,
                3.126300238251822
            ]
        },
        {
            "positions": [
                -2.737212056070432,
                -0.674378960359088,
                0.8379520235048715,
                -0.11932331490797221,
                0.568560717363084,
                3.117196325220037
            ]
        },
        {
            "positions": [
                -2.7115699047642723,
                -0.6410808704631552,
                0.736302697475071,
                -0.04819059778908706,
                0.43791265875479823,
                3.108092412188252
            ]
        }
    ]
}