{
    "goal": {
        "global_pose": {
            "orientation": {
                "w": 0.005598929693374612,
                "x": 0.007748599140229565,
                "y": 0.7110244013736278,
                "z": -0.7031023480610252
            },
            "position": {
                "x": -0.8858502320852131,
                "y": -0.7141253447532654,
                "z": 0.3711530566215515
            }
        },
        "name": "move_to_auspresseinheit_C"
    },
    "id": "LBKPIECE_move_to_auspresseinheit_C_137",
    "joint_names": [
        "shoulder_pan_joint",
        "shoulder_lift_joint",
        "elbow_joint",
        "wrist_1_joint",
        "wrist_2_joint",
        "wrist_3_joint"
    ],
    "metrics": {
        "cart_traj_len": 0.49473210203344087,
        "distance_elbow_joint": 1.0175231045141029,
        "distance_shoulder_lift_joint": 0.33258401592703446,
        "distance_shoulder_pan_joint": 0.2564929357681014,
        "distance_wrist_1_joint": 0.7125832980596227,
        "distance_wrist_2_joint": 1.3177178572094648,
        "distance_wrist_3_joint": 0.08110965031977102,
        "smoothness": 0.0,
        "time": 0.310591207,
        "traj_len": 1.9282144231900398,
        "weighted_distance": 2.4311584312230097
    },
    "planner": "LBKPIECE",
    "start": {
        "state": {
            "elbow_joint": 1.7527959577730765,
            "shoulder_lift_joint": -0.9740617694224828,
            "shoulder_pan_joint": -2.967991417825869,
            "wrist_1_joint": -0.7595177689779385,
            "wrist_2_joint": 1.7443932448376545,
            "wrist_3_joint": 3.1991315425061013
        }
    },
    "waypoints": [
        {
            "positions": [
                -2.967991417825869,
                -0.9740617694224828,
                1.7527959577730765,
                -0.7595177689779385,
                1.7443932448376545,
                3.1991315425061013
            ]
        },
        {
            "positions": [
                -2.942342124249059,
                -0.9408033678297794,
                1.6510436473216663,
                -0.6882594391719763,
                1.612621459116708,
                3.191020577474124
            ]
        },
        {
            "positions": [
                -2.9166928306722486,
                -0.9075449662370759,
                1.5492913368702559,
                -0.6170011093660139,
                1.4808496733957615,
                3.182909612442147
            ]
        },
        {
            "positions": [
                -2.8910435370954386,
                -0.8742865646443725,
                1.4475390264188457,
                -0.5457427795600518,
                1.349077887674815,
                3.17479864741017
            ]
        },
        {
            "positions": [
                -2.8653942435186286,
                -0.8410281630516689,
                1.3457867159674353,
                -0.47448444975408943,
                1.2173061019538687,
                3.166687682378193
            ]
        },
        {
            "positions": [
                -2.839744949941818,
                -0.8077697614589656,
                1.244034405516025,
                -0.4032261199481272,
                1.085534316232922,
                3.158576717346216
            ]
        },
        {
            "positions": [
                -2.814095656365008,
                -0.7745113598662621,
                1.1422820950646146,
                -0.33196779014216493,
                0.9537625305119756,
                3.1504657523142385
            ]
        },
        {
            "positions": [
                -2.788446362788198,
                -0.7412529582735587,
                1.0405297846132044,
                -0.2607094603362027,
                0.8219907447910292,
                3.1423547872822617
            ]
        },
        {
            "positions": [
                -2.762797069211388,
                -0.7079945566808552,
                0.9387774741617941,
                -0.18945113053024032,
                0.6902189590700827,
                3.1342438222502844
            ]
        },
        {
            "positions": [
                -2.7371477756345777,
                -0.6747361550881518,
                0.8370251637103839,
                -0.11819280072427807,
                0.5584471733491361,
                3.1261328572183076
            ]
        },
        {
            "positions": [
                -2.7114984820577677,
                -0.6414777534954483,
                0.7352728532589736,
                -0.04693447091831584,
                0.42667538762818974,
                3.1180218921863303
            ]
        }
    ]
}