{
    "goal": {
        "global_pose": {
            "orientation": {
                "w": 0.7047431493862688,
                "x": -0.7094548369677653,
                "y": 0.0024358444001904,
                "z": -0.0022348060817251984
            },
            "position": {
                "x": -0.39052492380142206,
                "y": 0.3671506643295288,
                "z": 0.19426114857196808
            }
        },
        "name": "move_to_magneteinheit_D"
    },
    "id": "LBKPIECE_move_to_magneteinheit_D_107",
    "joint_names": [
        "shoulder_pan_joint",
        "shoulder_lift_joint",
        "elbow_joint",
        "wrist_1_joint",
        "wrist_2_joint",
        "wrist_3_joint"
    ],
    "metrics": {
        "cart_traj_len": 7.257039827683433,
        "distance_elbow_joint": 4.032970353155767,
        "distance_shoulder_lift_joint": 3.2200305203407273,
        "distance_shoulder_pan_joint": 5.640422253313421,
        "distance_wrist_1_joint": 5.575250694028048,
        "distance_wrist_2_joint": 8.14232050512932,
        "distance_wrist_3_joint": 14.11150289052433,
        "smoothness": 0.7292155267236159,
        "time": 0.345877809,
        "traj_len": 6.381418119547691,
        "weighted_distance": 9.091923569668726
    },
    "planner": "LBKPIECE",
    "start": {
        "state": {
            "elbow_joint": 0.7495348899011911,
            "shoulder_lift_joint": -0.6476975780737668,
            "shoulder_pan_joint": -2.711696901376276,
            "wrist_1_joint": -0.0750647808097303,
            "wrist_2_joint": 0.43296659715458535,
            "wrist_3_joint": 3.1361499051832418
        }
    },
    "waypoints": [
        {
            "positions": [
                -2.711696901376276,
                -0.6476975780737668,
                0.7495348899011911,
                -0.0750647808097303,
                0.43296659715458535,
                3.1361499051832418
            ]
        },
        {
            "positions": [
                -2.8372997035022367,
                -0.5723988152524467,
                0.734130515375339,
                -0.06127623985561084,
                0.3375305496790628,
                3.089236788554581
            ]
        },
        {
            "positions": [
                -2.9629025056281977,
                -0.49710005243112665,
                0.7187261408494869,
                -0.04748769890149138,
                0.24209450220354023,
                3.04232367192592
            ]
        },
        {
            "positions": [
                -3.088505307754158,
                -0.42180128960980656,
                0.703321766323635,
                -0.033699157947371924,
                0.1466584547280177,
                2.995410555297259
            ]
        },
        {
            "positions": [
                -3.2141081098801187,
                -0.3465025267884865,
                0.6879173917977829,
                -0.019910616993252472,
                0.051222407252495106,
                2.948497438668598
            ]
        },
        {
            "positions": [
                -3.1557175379452045,
                -0.41234496148944677,
                0.6575233161052816,
                0.07078263865157675,
                0.14350016081609474,
                2.9622371882110556
            ]
        },
        {
            "positions": [
                -3.0973269660102902,
                -0.47818739619040707,
                0.6271292404127804,
                0.16147589429640596,
                0.23577791437969436,
                2.975976937753513
            ]
        },
        {
            "positions": [
                -3.0389363940753755,
                -0.5440298308913674,
                0.5967351647202791,
                0.2521691499412352,
                0.328055667943294,
                2.98971668729597
            ]
        },
        {
            "positions": [
                -2.9805458221404613,
                -0.6098722655923277,
                0.5663410890277778,
                0.3428624055860644,
                0.4203334215068936,
                3.0034564368384276
            ]
        },
        {
            "positions": [
                -2.922155250205547,
                -0.675714700293288,
                0.5359470133352765,
                0.4335556612308936,
                0.5126111750704933,
                3.017196186380885
            ]
        },
        {
            "positions": [
                -2.8637646782706323,
                -0.7415571349942484,
                0.5055529376427752,
                0.5242489168757228,
                0.6048889286340928,
                3.0309359359233423
            ]
        },
        {
            "positions": [
                -2.805374106335718,
                -0.8073995696952087,
                0.475158861950274,
                0.614942172520552,
                0.6971666821976925,
                3.0446756854657995
            ]
        },
        {
            "positions": [
                -2.746983534400804,
                -0.873242004396169,
                0.4447647862577727,
                0.7056354281653813,
                0.7894444357612922,
                3.058415435008257
            ]
        },
        {
            "positions": [
                -2.644430812752756,
                -0.898165858163076,
                0.4013521304101279,
                0.6733576427362329,
                0.7687392223821268,
                2.8907661152378736
            ]
        },
        {
            "positions": [
                -2.5418780911047083,
                -0.9230897119299832,
                0.3579394745624831,
                0.6410798573070845,
                0.7480340090029612,
                2.72311679546749
            ]
        },
        {
            "positions": [
                -2.439325369456661,
                -0.9480135656968903,
                0.3145268187148383,
                0.6088020718779361,
                0.7273287956237958,
                2.5554674756971063
            ]
        },
        {
            "positions": [
                -2.3367726478086133,
                -0.9729374194637975,
                0.2711141628671935,
                0.5765242864487877,
                0.7066235822446303,
                2.387818155926723
            ]
        },
        {
            "positions": [
                -2.2342199261605655,
                -0.9978612732307046,
                0.22770150701954864,
                0.5442465010196393,
                0.6859183688654649,
                2.2201688361563394
            ]
        },
        {
            "positions": [
                -2.1316672045125182,
                -1.0227851269976118,
                0.18428885117190386,
                0.511968715590491,
                0.6652131554862994,
                2.0525195163859555
            ]
        },
        {
            "positions": [
                -2.0291144828644705,
                -1.047708980764519,
                0.140876195324259,
                0.47969093016134257,
                0.6445079421071339,
                1.8848701966155723
            ]
        },
        {
            "positions": [
                -1.9265617612164228,
                -1.072632834531426,
                0.09746353947661418,
                0.44741314473219423,
                0.6238027287279685,
                1.7172208768451886
            ]
        },
        {
            "positions": [
                -1.824009039568375,
                -1.0975566882983332,
                0.05405088362896937,
                0.4151353593030458,
                0.603097515348803,
                1.549571557074805
            ]
        },
        {
            "positions": [
                -1.7214563179203275,
                -1.1224805420652404,
                0.01063822778132456,
                0.38285757387389746,
                0.5823923019696375,
                1.3819222373044215
            ]
        },
        {
            "positions": [
                -1.6189035962722798,
                -1.1474043958321474,
                -0.03277442806632025,
                0.350579788444749,
                0.5616870885904721,
                1.2142729175340379
            ]
        },
        {
            "positions": [
                -1.5163508746242322,
                -1.1723282495990546,
                -0.076187083913965,
                0.3183020030156007,
                0.5409818752113067,
                1.0466235977636544
            ]
        },
        {
            "positions": [
                -1.4137981529761845,
                -1.1972521033659618,
                -0.11959973976160987,
                0.2860242175864523,
                0.5202766618321412,
                0.8789742779932705
            ]
        },
        {
            "positions": [
                -1.311245431328137,
                -1.222175957132869,
                -0.16301239560925473,
                0.2537464321573039,
                0.4995714484529757,
                0.7113249582228875
            ]
        },
        {
            "positions": [
                -1.2086927096800895,
                -1.2470998108997762,
                -0.2064250514568995,
                0.22146864672815553,
                0.4788662350738102,
                0.5436756384525037
            ]
        },
        {
            "positions": [
                -1.1061399880320417,
                -1.2720236646666832,
                -0.24983770730454435,
                0.1891908612990072,
                0.4581610216946448,
                0.3760263186821202
            ]
        },
        {
            "positions": [
                -1.0035872663839942,
                -1.2969475184335904,
                -0.2932503631521891,
                0.1569130758698588,
                0.4374558083154793,
                0.20837699891173678
            ]
        },
        {
            "positions": [
                -0.9010345447359465,
                -1.3218713722004976,
                -0.336663018999834,
                0.12463529044071031,
                0.41675059493631383,
                0.04072767914135289
            ]
        },
        {
            "positions": [
                -0.798481823087899,
                -1.3467952259674045,
                -0.38007567484747884,
                0.09235750501156204,
                0.39604538155714836,
                -0.12692164062903055
            ]
        },
        {
            "positions": [
                -0.6959291014398512,
                -1.3717190797343117,
                -0.4234883306951236,
                0.06007971958241365,
                0.37534016817798294,
                -0.294570960399414
            ]
        },
        {
            "positions": [
                -0.5933763797918039,
                -1.396642933501219,
                -0.46690098654276835,
                0.027801934153265262,
                0.35463495479881746,
                -0.46222028016979744
            ]
        },
        {
            "positions": [
                -0.4908236581437557,
                -1.4215667872681261,
                -0.5103136423904132,
                -0.004475851275883236,
                0.333929741419652,
                -0.6298695999401813
            ]
        },
        {
            "positions": [
                -0.38827093649570843,
                -1.446490641035033,
                -0.5537262982380581,
                -0.03675363670503151,
                0.3132245280404865,
                -0.7975189197105648
            ]
        },
        {
            "positions": [
                -0.2857182148476607,
                -1.4714144948019403,
                -0.5971389540857027,
                -0.0690314221341799,
                0.2925193146613211,
                -0.9651682394809482
            ]
        },
        {
            "positions": [
                -0.1831654931996134,
                -1.4963383485688473,
                -0.6405516099333476,
                -0.10130920756332829,
                0.27181410128215566,
                -1.1328175592513317
            ]
        },
        {
            "positions": [
                -0.08061277155156521,
                -1.5212622023357545,
                -0.6839642657809925,
                -0.13358699299247667,
                0.25110888790299013,
                -1.300466879021716
            ]
        },
        {
            "positions": [
                0.021939950096482086,
                -1.5461860561026617,
                -0.7273769216286373,
                -0.16586477842162506,
                0.2304036745238247,
                -1.4681161987920994
            ]
        },
        {
            "positions": [
                0.12449267174452983,
                -1.5711099098695689,
                -0.7707895774762822,
                -0.19814256385077345,
                0.20969846114465918,
                -1.635765518562482
            ]
        },
        {
            "positions": [
                0.22704539339257712,
                -1.596033763636476,
                -0.8142022333239268,
                -0.23042034927992183,
                0.18899324776549375,
                -1.8034148383328654
            ]
        },
        {
            "positions": [
                0.32959811504062486,
                -1.6209576174033833,
                -0.8576148891715717,
                -0.2626981347090702,
                0.16828803438632822,
                -1.9710641581032498
            ]
        },
        {
            "positions": [
                0.4321508366886725,
                -1.6458814711702903,
                -0.9010275450192166,
                -0.2949759201382187,
                0.14758282100716286,
                -2.138713477873633
            ]
        },
        {
            "positions": [
                0.4472224038104074,
                -1.6755577212684956,
                -0.885034418098384,
                -0.38855857578935327,
                0.25196786876045263,
                -2.006742972403502
            ]
        },
        {
            "positions": [
                0.4622939709321423,
                -1.705233971366701,
                -0.8690412911775515,
                -0.48214123144048776,
                0.35635291651374246,
                -1.8747724669333714
            ]
        },
        {
            "positions": [
                0.47736553805387716,
                -1.7349102214649064,
                -0.8530481642567189,
                -0.5757238870916224,
                0.46073796426703223,
                -1.7428019614632404
            ]
        },
        {
            "positions": [
                0.49243710517561207,
                -1.7645864715631119,
                -0.8370550373358865,
                -0.6693065427427568,
                0.565123012020322,
                -1.6108314559931096
            ]
        },
        {
            "positions": [
                0.507508672297347,
                -1.7942627216613172,
                -0.8210619104150539,
                -0.7628891983938914,
                0.6695080597736118,
                -1.4788609505229786
            ]
        },
        {
            "positions": [
                0.5225802394190819,
                -1.8239389717595227,
                -0.8050687834942214,
                -0.8564718540450259,
                0.7738931075269015,
                -1.3468904450528476
            ]
        },
        {
            "positions": [
                0.5376518065408168,
                -1.853615221857728,
                -0.7890756565733889,
                -0.9500545096961605,
                0.8782781552801915,
                -1.2149199395827166
            ]
        },
        {
            "positions": [
                0.5527233736625516,
                -1.8832914719559333,
                -0.7730825296525563,
                -1.043637165347295,
                0.9826632030334812,
                -1.0829494341125858
            ]
        },
        {
            "positions": [
                0.5677949407842866,
                -1.9129677220541388,
                -0.7570894027317238,
                -1.1372198209984294,
                1.087048250786771,
                -0.950978928642455
            ]
        },
        {
            "positions": [
                0.5828665079060215,
                -1.942643972152344,
                -0.7410962758108912,
                -1.230802476649564,
                1.1914332985400606,
                -0.819008423172324
            ]
        },
        {
            "positions": [
                0.5979380750277563,
                -1.9723202222505494,
                -0.7251031488900588,
                -1.3243851323006985,
                1.2958183462933504,
                -0.6870379177021932
            ]
        },
        {
            "positions": [
                0.6130096421494913,
                -2.001996472348755,
                -0.7091100219692262,
                -1.417967787951833,
                1.4002033940466403,
                -0.5550674122320622
            ]
        },
        {
            "positions": [
                0.6280812092712262,
                -2.0316727224469604,
                -0.6931168950483937,
                -1.5115504436029676,
                1.50458844179993,
                -0.42309690676193124
            ]
        },
        {
            "positions": [
                0.6431527763929611,
                -2.0613489725451655,
                -0.6771237681275611,
                -1.6051330992541022,
                1.60897348955322,
                -0.29112640129180023
            ]
        },
        {
            "positions": [
                0.6582243435146959,
                -2.091025222643371,
                -0.6611306412067286,
                -1.6987157549052367,
                1.7133585373065097,
                -0.15915589582166945
            ]
        },
        {
            "positions": [
                0.6732959106364309,
                -2.1207014727415765,
                -0.645137514285896,
                -1.792298410556371,
                1.8177435850597994,
                -0.02718539035153844
            ]
        },
        {
            "positions": [
                0.6883674777581658,
                -2.1503777228397816,
                -0.6291443873650635,
                -1.8858810662075056,
                1.922128632813089,
                0.10478511511859212
            ]
        },
        {
            "positions": [
                0.7034390448799006,
                -2.180053972937987,
                -0.6131512604442311,
                -1.9794637218586402,
                2.0265136805663793,
                0.23675562058872313
            ]
        },
        {
            "positions": [
                0.7185106120016356,
                -2.2097302230361926,
                -0.5971581335233984,
                -2.0730463775097747,
                2.1308987283196688,
                0.36872612605885413
            ]
        },
        {
            "positions": [
                0.7335821791233705,
                -2.239406473134398,
                -0.581165006602566,
                -2.166629033160909,
                2.2352837760729587,
                0.5006966315289851
            ]
        },
        {
            "positions": [
                0.7486537462451053,
                -2.269082723232603,
                -0.5651718796817334,
                -2.260211688812044,
                2.3396688238262486,
                0.6326671369991161
            ]
        },
        {
            "positions": [
                0.7637253133668402,
                -2.2987589733308087,
                -0.5491787527609009,
                -2.3537943444631786,
                2.444053871579538,
                0.7646376424692467
            ]
        },
        {
            "positions": [
                0.7787968804885752,
                -2.328435223429014,
                -0.5331856258400683,
                -2.4473770001143125,
                2.548438919332828,
                0.8966081479393782
            ]
        },
        {
            "positions": [
                0.7938684476103101,
                -2.3581114735272193,
                -0.5171924989192358,
                -2.5409596557654472,
                2.652823967086118,
                1.0285786534095087
            ]
        },
        {
            "positions": [
                0.8089400147320449,
                -2.387787723625425,
                -0.5011993719984034,
                -2.634542311416582,
                2.7572090148394075,
                1.1605491588796393
            ]
        },
        {
            "positions": [
                0.8240115818537799,
                -2.4174639737236303,
                -0.48520624507757076,
                -2.728124967067717,
                2.8615940625926974,
                1.2925196643497707
            ]
        },
        {
            "positions": [
                0.8390831489755147,
                -2.447140223821836,
                -0.4692131181567383,
                -2.8217076227188507,
                2.9659791103459874,
                1.4244901698199013
            ]
        },
        {
            "positions": [
                0.8541547160972497,
                -2.476816473920041,
                -0.4532199912359057,
                -2.9152902783699854,
                3.0703641580992773,
                1.5564606752900327
            ]
        },
        {
            "positions": [
                0.8692262832189845,
                -2.5064927240182464,
                -0.4372268643150732,
                -3.00887293402112,
                3.174749205852567,
                1.6884311807601633
            ]
        },
        {
            "positions": [
                0.8380630419696952,
                -2.4828023250082816,
                -0.4927779701679196,
                -2.979558639315322,
                3.070011849003461,
                1.5389317835033847
            ]
        },
        {
            "positions": [
                0.8068998007204059,
                -2.4591119259983163,
                -0.548329076020766,
                -2.9502443446095237,
                2.9652744921543555,
                1.3894323862466058
            ]
        },
        {
            "positions": [
                0.7757365594711165,
                -2.4354215269883515,
                -0.6038801818736124,
                -2.9209300499037254,
                2.8605371353052496,
                1.239932988989827
            ]
        },
        {
            "positions": [
                0.7445733182218272,
                -2.411731127978386,
                -0.6594312877264588,
                -2.891615755197927,
                2.7557997784561437,
                1.0904335917330483
            ]
        },
        {
            "positions": [
                0.7134100769725378,
                -2.3880407289684213,
                -0.7149823935793052,
                -2.8623014604921284,
                2.6510624216070378,
                0.9409341944762696
            ]
        },
        {
            "positions": [
                0.6822468357232485,
                -2.364350329958456,
                -0.7705334994321514,
                -2.83298716578633,
                2.5463250647579323,
                0.7914347972194908
            ]
        },
        {
            "positions": [
                0.6510835944739591,
                -2.3406599309484912,
                -0.8260846052849978,
                -2.803672871080532,
                2.4415877079088264,
                0.641935399962712
            ]
        },
        {
            "positions": [
                0.6199203532246698,
                -2.3169695319385264,
                -0.8816357111378442,
                -2.7743585763747336,
                2.336850351059721,
                0.49243600270593335
            ]
        },
        {
            "positions": [
                0.5887571119753805,
                -2.293279132928561,
                -0.9371868169906906,
                -2.7450442816689353,
                2.232112994210615,
                0.3429366054491547
            ]
        },
        {
            "positions": [
                0.5575938707260911,
                -2.2695887339185963,
                -0.992737922843537,
                -2.715729986963137,
                2.127375637361509,
                0.19343720819237586
            ]
        },
        {
            "positions": [
                0.5264306294768017,
                -2.245898334908631,
                -1.0482890286963835,
                -2.686415692257339,
                2.0226382805124032,
                0.04393781093559701
            ]
        },
        {
            "positions": [
                0.4952673882275125,
                -2.222207935898666,
                -1.1038401345492297,
                -2.65710139755154,
                1.9179009236632978,
                -0.10556158632118162
            ]
        },
        {
            "positions": [
                0.4641041469782231,
                -2.1985175368887013,
                -1.159391240402076,
                -2.627787102845742,
                1.8131635668141919,
                -0.25506098357796025
            ]
        },
        {
            "positions": [
                0.4329409057289338,
                -2.174827137878736,
                -1.2149423462549225,
                -2.5984728081399435,
                1.7084262099650862,
                -0.40456038083473933
            ]
        },
        {
            "positions": [
                0.4017776644796444,
                -2.151136738868771,
                -1.2704934521077689,
                -2.5691585134341453,
                1.6036888531159803,
                -0.554059778091518
            ]
        },
        {
            "positions": [
                0.3706144232303551,
                -2.127446339858806,
                -1.3260445579606153,
                -2.539844218728347,
                1.4989514962668746,
                -0.7035591753482966
            ]
        },
        {
            "positions": [
                0.3394511819810657,
                -2.103755940848841,
                -1.3815956638134617,
                -2.5105299240225487,
                1.394214139417769,
                -0.8530585726050752
            ]
        },
        {
            "positions": [
                0.30828794073177646,
                -2.080065541838876,
                -1.437146769666308,
                -2.4812156293167504,
                1.289476782568663,
                -1.0025579698618539
            ]
        },
        {
            "positions": [
                0.2771246994824871,
                -2.056375142828911,
                -1.4926978755191544,
                -2.4519013346109517,
                1.1847394257195574,
                -1.152057367118633
            ]
        },
        {
            "positions": [
                0.2459614582331977,
                -2.0326847438189457,
                -1.5482489813720008,
                -2.422587039905154,
                1.0800020688704515,
                -1.3015567643754116
            ]
        },
        {
            "positions": [
                0.21479821698390844,
                -2.008994344808981,
                -1.6038000872248472,
                -2.393272745199355,
                0.975264712021346,
                -1.4510561616321902
            ]
        },
        {
            "positions": [
                0.18363497573461907,
                -1.985303945799016,
                -1.6593511930776936,
                -2.363958450493557,
                0.8705273551722401,
                -1.6005555588889693
            ]
        },
        {
            "positions": [
                0.1524717344853297,
                -1.9616135467890508,
                -1.71490229893054,
                -2.3346441557877586,
                0.7657899983231342,
                -1.750054956145748
            ]
        },
        {
            "positions": [
                0.12130849323604043,
                -1.937923147779086,
                -1.7704534047833862,
                -2.3053298610819604,
                0.6610526414740288,
                -1.8995543534025265
            ]
        },
        {
            "positions": [
                0.09014525198675105,
                -1.9142327487691209,
                -1.8260045106362326,
                -2.276015566376162,
                0.5563152846249229,
                -2.049053750659305
            ]
        },
        {
            "positions": [
                0.058982010737461676,
                -1.8905423497591558,
                -1.881555616489079,
                -2.246701271670364,
                0.45157792777581696,
                -2.198553147916084
            ]
        },
        {
            "positions": [
                0.0278187694881723,
                -1.8668519507491907,
                -1.9371067223419254,
                -2.2173869769645655,
                0.34684057092671106,
                -2.348052545172863
            ]
        },
        {
            "positions": [
                -0.0033444717611169628,
                -1.8431615517392257,
                -1.9926578281947718,
                -2.188072682258767,
                0.2421032140776056,
                -2.497551942429642
            ]
        },
        {
            "positions": [
                -0.03450771301040634,
                -1.8194711527292609,
                -2.048208934047618,
                -2.158758387552969,
                0.1373658572284997,
                -2.64705133968642
            ]
        },
        {
            "positions": [
                -0.06567095425969571,
                -1.7957807537192956,
                -2.1037600399004646,
                -2.1294440928471703,
                0.0326285003793938,
                -2.7965507369431992
            ]
        },
        {
            "positions": [
                -0.09683419550898498,
                -1.7720903547093307,
                -2.159311145753311,
                -2.100129798141372,
                -0.07210885646971166,
                -2.9460501341999774
            ]
        },
        {
            "positions": [
                -0.1279974367582743,
                -1.7483999556993657,
                -2.2148622516061574,
                -2.0708155034355737,
                -0.17684621331881734,
                -3.095549531456756
            ]
        },
        {
            "positions": [
                -0.1854503684914856,
                -1.749152459206173,
                -2.3558341018462916,
                -2.212800195716452,
                -0.17857708126633134,
                -3.101227675394174
            ]
        }
    ]
}