{
    "goal": {
        "global_pose": {
            "orientation": {
                "w": 0.7031023502349854,
                "x": -0.7110244035720825,
                "y": 0.007748599164187908,
                "z": 0.005598929710686207
            },
            "position": {
                "x": 0.11585023208521307,
                "y": 0.44412534475326537,
                "z": 0.3711530566215515
            }
        },
        "name": "move_to_auspresseinheit_A"
    },
    "id": "LBKPIECE_move_to_auspresseinheit_A_42",
    "joint_names": [
        "shoulder_pan_joint",
        "shoulder_lift_joint",
        "elbow_joint",
        "wrist_1_joint",
        "wrist_2_joint",
        "wrist_3_joint"
    ],
    "metrics": {
        "cart_traj_len": 0.6895038972486666,
        "distance_elbow_joint": 0.05737471013477968,
        "distance_shoulder_lift_joint": 0.5346261813470685,
        "distance_shoulder_pan_joint": 1.04842328071369,
        "distance_wrist_1_joint": 0.5663660051812839,
        "distance_wrist_2_joint": 0.5127112874212674,
        "distance_wrist_3_joint": 0.2853064407203063,
        "smoothness": 0.30629711089004774,
        "time": 0.18260958000000002,
        "traj_len": 1.73343817470321,
        "weighted_distance": 2.1574285804080655
    },
    "planner": "LBKPIECE",
    "start": {
        "state": {
            "elbow_joint": 2.4225746994637096,
            "shoulder_lift_joint": -1.373653595662188,
            "shoulder_pan_joint": -0.3378633848294565,
            "wrist_1_joint": -1.0288595594406726,
            "wrist_2_joint": 1.2330228066703421,
            "wrist_3_joint": 3.189163495502006
        }
    },
    "waypoints": [
        {
            "positions": [
                -0.3378633848294565,
                -1.373653595662188,
                2.4225746994637096,
                -1.0288595594406726,
                1.2330228066703421,
                3.189163495502006
            ]
        },
        {
            "positions": [
                -0.1996984092851145,
                -1.4594282336728042,
                2.4248663523849134,
                -0.9812554478429681,
                1.1832900972130742,
                3.1610605831424423
            ]
        },
        {
            "positions": [
                -0.061533433740772525,
                -1.5452028716834203,
                2.4271580053061177,
                -0.9336513362452636,
                1.133557387755806,
                3.1329576707828783
            ]
        },
        {
            "positions": [
                0.07663154180356951,
                -1.6309775096940364,
                2.4294496582273215,
                -0.8860472246475591,
                1.0838246782985381,
                3.104854758423315
            ]
        },
        {
            "positions": [
                0.21479651734791144,
                -1.7167521477046526,
                2.4317413111485253,
                -0.8384431130498546,
                1.0340919688412702,
                3.0767518460637513
            ]
        },
        {
            "positions": [
                0.3529614928922536,
                -1.802526785715269,
                2.4340329640697296,
                -0.7908390014521501,
                0.984359259384002,
                3.0486489337041873
            ]
        },
        {
            "positions": [
                0.4911264684365956,
                -1.888301423725885,
                2.4363246169909334,
                -0.7432348898544456,
                0.9346265499267341,
                3.020546021344624
            ]
        },
        {
            "positions": [
                0.5642709442524749,
                -1.8949608748203421,
                2.4217830194550816,
                -0.6496544446560933,
                0.8631882063675144,
                3.059442343532265
            ]
        },
        {
            "positions": [
                0.6374154200683542,
                -1.9016203259147995,
                2.4072414219192293,
                -0.556073999457741,
                0.7917498628082946,
                3.098338665719907
            ]
        },
        {
            "positions": [
                0.7105598958842335,
                -1.9082797770092566,
                2.3926998243833775,
                -0.46249355425938876,
                0.7203115192490748,
                3.137234987907548
            ]
        }
    ]
}