{
    "goal": {
        "global_pose": {
            "orientation": {
                "w": 0.005598929693374612,
                "x": 0.007748599140229565,
                "y": 0.7110244013736278,
                "z": -0.7031023480610252
            },
            "position": {
                "x": 0.1141497679147869,
                "y": -0.7141253447532654,
                "z": 0.3711530566215515
            }
        },
        "name": "move_to_auspresseinheit_B"
    },
    "id": "LBKPIECE_move_to_auspresseinheit_B_87",
    "joint_names": [
        "shoulder_pan_joint",
        "shoulder_lift_joint",
        "elbow_joint",
        "wrist_1_joint",
        "wrist_2_joint",
        "wrist_3_joint"
    ],
    "metrics": {
        "cart_traj_len": 0.5645016911770303,
        "distance_elbow_joint": 0.06369218198618354,
        "distance_shoulder_lift_joint": 0.29595537042179454,
        "distance_shoulder_pan_joint": 0.5786818391323236,
        "distance_wrist_1_joint": 0.3359086815586628,
        "distance_wrist_2_joint": 0.9848786982584414,
        "distance_wrist_3_joint": 0.003688397138314148,
        "smoothness": 7.612957903237841e-16,
        "time": 0.20570341199999997,
        "traj_len": 1.5042623336691376,
        "weighted_distance": 1.8949853146104991
    },
    "planner": "LBKPIECE",
    "start": {
        "state": {
            "elbow_joint": 2.0193061681459312,
            "shoulder_lift_joint": -1.1220205130644991,
            "shoulder_pan_joint": -1.0952072088045026,
            "wrist_1_joint": -0.8559671810662515,
            "wrist_2_joint": 0.4759638712940361,
            "wrist_3_joint": 3.159081874192446
        }
    },
    "waypoints": [
        {
            "positions": [
                -1.0952072088045026,
                -1.1220205130644991,
                2.0193061681459312,
                -0.8559671810662515,
                0.4759638712940361,
                3.159081874192446
            ]
        },
        {
            "positions": [
                -1.1916541819932231,
                -1.1713464081347982,
                2.0086908044815672,
                -0.7999824008064743,
                0.6401103210037764,
                3.15846714133606
            ]
        },
        {
            "positions": [
                -1.288101155181944,
                -1.2206723032050972,
                1.9980754408172035,
                -0.7439976205466972,
                0.8042567707135166,
                3.1578524084796746
            ]
        },
        {
            "positions": [
                -1.3845481283706644,
                -1.2699981982753963,
                1.9874600771528395,
                -0.6880128402869201,
                0.9684032204232569,
                3.157237675623289
            ]
        },
        {
            "positions": [
                -1.480995101559385,
                -1.3193240933456956,
                1.9768447134884755,
                -0.632028060027143,
                1.1325496701329971,
                3.1566229427669033
            ]
        },
        {
            "positions": [
                -1.5774420747481057,
                -1.3686499884159946,
                1.9662293498241117,
                -0.5760432797673658,
                1.2966961198427374,
                3.1560082099105173
            ]
        },
        {
            "positions": [
                -1.6738890479368262,
                -1.4179758834862937,
                1.9556139861597477,
                -0.5200584995075886,
                1.4608425695524776,
                3.155393477054132
            ]
        }
    ]
}