{
    "goal": {
        "global_pose": {
            "orientation": {
                "w": 0.7047431493862688,
                "x": -0.7094548369677653,
                "y": 0.0024358444001904,
                "z": -0.0022348060817251984
            },
            "position": {
                "x": -0.39052492380142206,
                "y": 0.3671506643295288,
                "z": 0.19426114857196808
            }
        },
        "name": "move_to_magneteinheit_D"
    },
    "id": "LBKPIECE_move_to_magneteinheit_D_45",
    "joint_names": [
        "shoulder_pan_joint",
        "shoulder_lift_joint",
        "elbow_joint",
        "wrist_1_joint",
        "wrist_2_joint",
        "wrist_3_joint"
    ],
    "metrics": {
        "cart_traj_len": 4.273314745812222,
        "distance_elbow_joint": 3.3289343231726596,
        "distance_shoulder_lift_joint": 1.6311029119261435,
        "distance_shoulder_pan_joint": 3.0651413341821847,
        "distance_wrist_1_joint": 2.7093811621848447,
        "distance_wrist_2_joint": 1.4957185401163888,
        "distance_wrist_3_joint": 3.370961363567162,
        "smoothness": 0.532560721761188,
        "time": 0.680784181,
        "traj_len": 3.949840456923467,
        "weighted_distance": 5.1525005642488715
    },
    "planner": "LBKPIECE",
    "start": {
        "state": {
            "elbow_joint": 0.7495348899011911,
            "shoulder_lift_joint": -0.6476975780737668,
            "shoulder_pan_joint": -2.711696901376276,
            "wrist_1_joint": -0.0750647808097303,
            "wrist_2_joint": 0.43296659715458535,
            "wrist_3_joint": 3.1361499051832418
        }
    },
    "waypoints": [
        {
            "positions": [
                -2.711696901376276,
                -0.6476975780737668,
                0.7495348899011911,
                -0.0750647808097303,
                0.43296659715458535,
                3.1361499051832418
            ]
        },
        {
            "positions": [
                -2.742904564707925,
                -0.6857747742030997,
                0.7832555183951424,
                0.005750677841628346,
                0.35409100499163226,
                3.1760326997286366
            ]
        },
        {
            "positions": [
                -2.7741122280395736,
                -0.7238519703324328,
                0.8169761468890937,
                0.08656613649298699,
                0.2752154128286791,
                3.215915494274032
            ]
        },
        {
            "positions": [
                -2.8053198913712225,
                -0.7619291664617657,
                0.850696775383045,
                0.16738159514434564,
                0.19633982066572597,
                3.2557982888194266
            ]
        },
        {
            "positions": [
                -2.725521442783919,
                -0.7661264405187842,
                0.733210309696619,
                0.25276464063043796,
                0.22159739939547857,
                3.200584205382417
            ]
        },
        {
            "positions": [
                -2.6457229941966154,
                -0.7703237145758027,
                0.6157238440101931,
                0.3381476861165303,
                0.24685497812523113,
                3.1453701219454073
            ]
        },
        {
            "positions": [
                -2.565924545609312,
                -0.7745209886328213,
                0.49823737832376713,
                0.4235307316026226,
                0.2721125568549837,
                3.0901560385083977
            ]
        },
        {
            "positions": [
                -2.486126097022008,
                -0.7787182626898399,
                0.3807509126373412,
                0.5089137770887149,
                0.2973701355847363,
                3.034941955071388
            ]
        },
        {
            "positions": [
                -2.4063276484347043,
                -0.7829155367468584,
                0.2632644469509152,
                0.5942968225748073,
                0.3226277143144889,
                2.979727871634378
            ]
        },
        {
            "positions": [
                -2.3265291998474007,
                -0.787112810803877,
                0.14577798126448926,
                0.6796798680608995,
                0.34788529304424143,
                2.9245137881973684
            ]
        },
        {
            "positions": [
                -2.246730751260097,
                -0.7913100848608955,
                0.02829151557806331,
                0.765062913546992,
                0.373142871773994,
                2.869299704760359
            ]
        },
        {
            "positions": [
                -2.1669323026727936,
                -0.795507358917914,
                -0.08919495010836259,
                0.8504459590330842,
                0.3984004505037466,
                2.814085621323349
            ]
        },
        {
            "positions": [
                -2.078276532439955,
                -0.8478959160041932,
                -0.15620926343024666,
                0.8234927266471184,
                0.36963742905565367,
                2.698208508284692
            ]
        },
        {
            "positions": [
                -1.9896207622071167,
                -0.9002844730904724,
                -0.22322357675213075,
                0.7965394942611524,
                0.3408744076075607,
                2.5823313952460345
            ]
        },
        {
            "positions": [
                -1.9009649919742784,
                -0.9526730301767518,
                -0.29023789007401485,
                0.7695862618751865,
                0.3121113861594678,
                2.466454282207377
            ]
        },
        {
            "positions": [
                -1.8123092217414398,
                -1.005061587263031,
                -0.3572522033958989,
                0.7426330294892207,
                0.28334836471137487,
                2.3505771691687203
            ]
        },
        {
            "positions": [
                -1.7236534515086015,
                -1.0574501443493103,
                -0.42426651671778304,
                0.7156797971032549,
                0.2545853432632819,
                2.234700056130063
            ]
        },
        {
            "positions": [
                -1.6349976812757632,
                -1.1098387014355895,
                -0.4912808300396671,
                0.688726564717289,
                0.225822321815189,
                2.1188229430914056
            ]
        },
        {
            "positions": [
                -1.5463419110429246,
                -1.1622272585218687,
                -0.5582951433615513,
                0.6617733323313231,
                0.19705930036709604,
                2.0029458300527483
            ]
        },
        {
            "positions": [
                -1.457686140810086,
                -1.214615815608148,
                -0.6253094566834352,
                0.6348200999453573,
                0.16829627891900312,
                1.887068717014091
            ]
        },
        {
            "positions": [
                -1.3690303705772477,
                -1.2670043726944271,
                -0.6923237700053193,
                0.6078668675593915,
                0.13953325747091017,
                1.7711916039754338
            ]
        },
        {
            "positions": [
                -1.2803746003444094,
                -1.3193929297807063,
                -0.7593380833272034,
                0.5809136351734255,
                0.11077023602281721,
                1.6553144909367765
            ]
        },
        {
            "positions": [
                -1.1917188301115709,
                -1.3717814868669858,
                -0.8263523966490876,
                0.5539604027874596,
                0.08200721457472426,
                1.5394373778981192
            ]
        },
        {
            "positions": [
                -1.1030630598787325,
                -1.4241700439532647,
                -0.8933667099709717,
                0.5270071704014938,
                0.05324419312663137,
                1.423560264859462
            ]
        },
        {
            "positions": [
                -1.014407289645894,
                -1.4765586010395442,
                -0.9603810232928558,
                0.5000539380155279,
                0.02448117167853836,
                1.3076831518208045
            ]
        },
        {
            "positions": [
                -0.9257515194130557,
                -1.5289471581258234,
                -1.02739533661474,
                0.4731007056295621,
                -0.0042818497695545354,
                1.1918060387821474
            ]
        },
        {
            "positions": [
                -0.8370957491802171,
                -1.5813357152121026,
                -1.094409649936624,
                0.44614747324359616,
                -0.03304487121764749,
                1.07592892574349
            ]
        },
        {
            "positions": [
                -0.7484399789473788,
                -1.6337242722983818,
                -1.161423963258508,
                0.41919424085763035,
                -0.06180789266574038,
                0.960051812704833
            ]
        },
        {
            "positions": [
                -0.6597842087145402,
                -1.686112829384661,
                -1.2284382765803923,
                0.39224100847166443,
                -0.09057091411383339,
                0.8441746996661756
            ]
        },
        {
            "positions": [
                -0.5711284384817019,
                -1.7385013864709404,
                -1.2954525899022762,
                0.3652877760856986,
                -0.11933393556192629,
                0.7282975866275185
            ]
        },
        {
            "positions": [
                -0.48247266824886337,
                -1.7908899435572194,
                -1.3624669032241603,
                0.3383345436997327,
                -0.14809695701001924,
                0.6124204735888612
            ]
        },
        {
            "positions": [
                -0.39381689801602504,
                -1.8432785006434989,
                -1.4294812165460444,
                0.3113813113137669,
                -0.1768599784581122,
                0.49654336055020387
            ]
        },
        {
            "positions": [
                -0.30516112778318644,
                -1.895667057729778,
                -1.4964955298679286,
                0.284428078927801,
                -0.20562299990620508,
                0.3806662475115464
            ]
        },
        {
            "positions": [
                -0.24287147694625044,
                -1.9300198594106774,
                -1.5840387074206195,
                0.3358527701020427,
                -0.2183244835715257,
                0.3017941462476873
            ]
        },
        {
            "positions": [
                -0.18058182610931445,
                -1.9643726610915768,
                -1.6715818849733104,
                0.3872774612762844,
                -0.2310259672368463,
                0.22292204498382823
            ]
        },
        {
            "positions": [
                -0.11829217527237844,
                -1.9987254627724762,
                -1.7591250625260013,
                0.43870215245052613,
                -0.2437274509021669,
                0.14404994371996915
            ]
        },
        {
            "positions": [
                -0.10019765205349349,
                -2.026754463967673,
                -1.8558494075365917,
                0.5774264225764123,
                -0.2042921794297936,
                0.12236160268836349
            ]
        },
        {
            "positions": [
                -0.08210312883460853,
                -2.0547834651628705,
                -1.952573752547182,
                0.7161506927022985,
                -0.1648569079574203,
                0.10067326165675783
            ]
        },
        {
            "positions": [
                -0.06400860561572358,
                -2.0828124663580674,
                -2.0492980975577724,
                0.8548749628281846,
                -0.125421636485047,
                0.07898492062515217
            ]
        },
        {
            "positions": [
                -0.045914082396838626,
                -2.1108414675532643,
                -2.1460224425683627,
                0.9935992329540708,
                -0.0859863650126737,
                0.057296579593546504
            ]
        },
        {
            "positions": [
                -0.027819559177953673,
                -2.1388704687484617,
                -2.242746787578953,
                1.132323503079957,
                -0.046551093540300376,
                0.03560823856194084
            ]
        },
        {
            "positions": [
                -0.009725035959068713,
                -2.1668994699436586,
                -2.3394711325895434,
                1.2710477732058432,
                -0.0071158220679270745,
                0.013919897530335169
            ]
        },
        {
            "positions": [
                -0.09768678034661013,
                -2.2228499799717847,
                -2.358273397448652,
                1.3866641971851965,
                0.08202997970675048,
                0.009202603209392365
            ]
        },
        {
            "positions": [
                -0.18564852473415155,
                -2.2788004899999104,
                -2.3770756623077602,
                1.5022806211645499,
                0.17117578148142804,
                0.004485308888449559
            ]
        }
    ]
}