{
    "goal": {
        "global_pose": {
            "orientation": {
                "w": 0.7031023480610252,
                "x": -0.7110244013736278,
                "y": 0.0077485991402295624,
                "z": 0.005598929693374583
            },
            "position": {
                "x": -0.8841497679147869,
                "y": 0.44412534475326537,
                "z": 0.3711530566215515
            }
        },
        "name": "move_to_auspresseinheit_D"
    },
    "id": "LBKPIECE_move_to_auspresseinheit_D_88",
    "joint_names": [
        "shoulder_pan_joint",
        "shoulder_lift_joint",
        "elbow_joint",
        "wrist_1_joint",
        "wrist_2_joint",
        "wrist_3_joint"
    ],
    "metrics": {
        "cart_traj_len": 0.344360921987484,
        "distance_elbow_joint": 0.648631690093703,
        "distance_shoulder_lift_joint": 0.12642680247332239,
        "distance_shoulder_pan_joint": 0.13434814470573364,
        "distance_wrist_1_joint": 0.5605115882967118,
        "distance_wrist_2_joint": 1.4446650977162714,
        "distance_wrist_3_joint": 0.024168745390555912,
        "smoothness": 8.881784141659326e-16,
        "time": 0.536049093,
        "traj_len": 1.7142788771598099,
        "weighted_distance": 2.2343379881903256
    },
    "planner": "LBKPIECE",
    "start": {
        "state": {
            "elbow_joint": -1.8275484843655228,
            "shoulder_lift_joint": -2.1267897864000416,
            "shoulder_pan_joint": -0.035127520176001514,
            "wrist_1_joint": -2.3477863256791385,
            "wrist_2_joint": -1.605890476484521,
            "wrist_3_joint": -3.0880375317375353
        }
    },
    "waypoints": [
        {
            "positions": [
                -0.035127520176001514,
                -2.1267897864000416,
                -1.8275484843655228,
                -2.3477863256791385,
                -1.605890476484521,
                -3.0880375317375353
            ]
        },
        {
            "positions": [
                -0.05192103826421822,
                -2.142593136709207,
                -1.7464695231038099,
                -2.4178502742162276,
                -1.425307339269987,
                -3.0850164385637155
            ]
        },
        {
            "positions": [
                -0.06871455635243492,
                -2.158396487018372,
                -1.665390561842097,
                -2.487914222753316,
                -1.2447242020554532,
                -3.0819953453898963
            ]
        },
        {
            "positions": [
                -0.08550807444065163,
                -2.1741998373275373,
                -1.5843116005803841,
                -2.5579781712904053,
                -1.064141064840919,
                -3.078974252216077
            ]
        },
        {
            "positions": [
                -0.10230159252886833,
                -2.1900031876367025,
                -1.5032326393186712,
                -2.6280421198274944,
                -0.8835579276263853,
                -3.0759531590422573
            ]
        },
        {
            "positions": [
                -0.11909511061708504,
                -2.2058065379458682,
                -1.4221536780569584,
                -2.6981060683645834,
                -0.7029747904118514,
                -3.0729320658684376
            ]
        },
        {
            "positions": [
                -0.13588862870530174,
                -2.2216098882550335,
                -1.3410747167952455,
                -2.7681700169016725,
                -0.5223916531973174,
                -3.0699109726946183
            ]
        },
        {
            "positions": [
                -0.15268214679351844,
                -2.2374132385641987,
                -1.2599957555335326,
                -2.838233965438761,
                -0.3418085159827835,
                -3.066889879520799
            ]
        },
        {
            "positions": [
                -0.16947566488173516,
                -2.253216588873364,
                -1.1789167942718197,
                -2.9082979139758502,
                -0.16122537876824963,
                -3.0638687863469793
            ]
        }
    ]
}