{
    "goal": {
        "global_pose": {
            "orientation": {
                "w": -0.00223480608172531,
                "x": 0.0024358444001904467,
                "y": 0.7094548369677653,
                "z": -0.704743149386269
            },
            "position": {
                "x": -0.37947507619857795,
                "y": -0.6371506643295288,
                "z": 0.19426114857196808
            }
        },
        "name": "move_to_magneteinheit_C"
    },
    "id": "LBKPIECE_move_to_magneteinheit_C_30",
    "joint_names": [
        "shoulder_pan_joint",
        "shoulder_lift_joint",
        "elbow_joint",
        "wrist_1_joint",
        "wrist_2_joint",
        "wrist_3_joint"
    ],
    "metrics": {
        "cart_traj_len": 2.3828772961671,
        "distance_elbow_joint": 3.479665222624801,
        "distance_shoulder_lift_joint": 1.4383632629296434,
        "distance_shoulder_pan_joint": 1.3372202559798414,
        "distance_wrist_1_joint": 0.9409095707939279,
        "distance_wrist_2_joint": 1.3487572214570465,
        "distance_wrist_3_joint": 3.010729622110238,
        "smoothness": 1.7043112412616717,
        "time": 0.743307886,
        "traj_len": 3.3993595214239254,
        "weighted_distance": 4.457215632249235
    },
    "planner": "LBKPIECE",
    "start": {
        "state": {
            "elbow_joint": 1.9565354006593851,
            "shoulder_lift_joint": -1.4165861576512813,
            "shoulder_pan_joint": -1.6717766223278752,
            "wrist_1_joint": -0.528663328821883,
            "wrist_2_joint": 1.472756589259273,
            "wrist_3_joint": 3.159348288315503
        }
    },
    "waypoints": [
        {
            "positions": [
                -1.6717766223278752,
                -1.4165861576512813,
                1.9565354006593851,
                -0.528663328821883,
                1.472756589259273,
                3.159348288315503
            ]
        },
        {
            "positions": [
                -1.6994030651440306,
                -1.5327631072004697,
                1.9553358930361155,
                -0.5325868767158184,
                1.4017010382761432,
                3.1303886042093074
            ]
        },
        {
            "positions": [
                -1.7607235595564241,
                -1.6133838126582527,
                2.0260521735884427,
                -0.5652574865094678,
                1.495254906804296,
                3.139192773193827
            ]
        },
        {
            "positions": [
                -1.8220440539688176,
                -1.6940045181160357,
                2.0967684541407703,
                -0.5979280963031172,
                1.588808775332449,
                3.1479969421783465
            ]
        },
        {
            "positions": [
                -1.8833645483812111,
                -1.7746252235738187,
                2.1674847346930974,
                -0.6305987060967666,
                1.6823626438606016,
                3.156801111162866
            ]
        },
        {
            "positions": [
                -1.9360550115114241,
                -1.7217881923795637,
                2.0604698992456254,
                -0.6628539551215401,
                1.6300254307182693,
                3.063389850224682
            ]
        },
        {
            "positions": [
                -1.9887454746416369,
                -1.6689511611853085,
                1.9534550637981531,
                -0.6951092041463136,
                1.577688217575937,
                2.969978589286498
            ]
        },
        {
            "positions": [
                -2.04143593777185,
                -1.6161141299910535,
                1.8464402283506811,
                -0.7273644531710871,
                1.5253510044336047,
                2.8765673283483135
            ]
        },
        {
            "positions": [
                -2.094126400902063,
                -1.5632770987967985,
                1.7394253929032089,
                -0.7596197021958606,
                1.4730137912912724,
                2.7831560674101294
            ]
        },
        {
            "positions": [
                -2.146816864032276,
                -1.5104400676025436,
                1.6324105574557368,
                -0.791874951220634,
                1.42067657814894,
                2.6897448064719454
            ]
        },
        {
            "positions": [
                -2.1995073271624888,
                -1.4576030364082884,
                1.5253957220082648,
                -0.8241302002454075,
                1.3683393650066076,
                2.5963335455337613
            ]
        },
        {
            "positions": [
                -2.2521977902927013,
                -1.4047660052140334,
                1.4183808865607925,
                -0.856385449270181,
                1.3160021518642753,
                2.502922284595577
            ]
        },
        {
            "positions": [
                -2.3048882534229143,
                -1.3519289740197784,
                1.3113660511133203,
                -0.8886406982949545,
                1.263664938721943,
                2.409511023657393
            ]
        },
        {
            "positions": [
                -2.3575787165531272,
                -1.2990919428255232,
                1.2043512156658482,
                -0.920895947319728,
                1.2113277255796107,
                2.316099762719209
            ]
        },
        {
            "positions": [
                -2.41026917968334,
                -1.2462549116312682,
                1.0973363802183762,
                -0.9531511963445015,
                1.1589905124372784,
                2.2226885017810245
            ]
        },
        {
            "positions": [
                -2.462959642813553,
                -1.1934178804370132,
                0.990321544770904,
                -0.985406445369275,
                1.1066532992949458,
                2.129277240842841
            ]
        },
        {
            "positions": [
                -2.5156501059437657,
                -1.1405808492427583,
                0.8833067093234319,
                -1.0176616943940484,
                1.0543160861526135,
                2.0358659799046563
            ]
        },
        {
            "positions": [
                -2.568340569073979,
                -1.0877438180485033,
                0.7762918738759597,
                -1.049916943418822,
                1.0019788730102812,
                1.9424547189664723
            ]
        },
        {
            "positions": [
                -2.6210310322041916,
                -1.034906786854248,
                0.6692770384284876,
                -1.0821721924435954,
                0.9496416598679489,
                1.8490434580282882
            ]
        },
        {
            "positions": [
                -2.6737214953344046,
                -0.9820697556599931,
                0.5622622029810154,
                -1.114427441468369,
                0.8973044467256166,
                1.7556321970901039
            ]
        },
        {
            "positions": [
                -2.7264119584646176,
                -0.929232724465738,
                0.45524736753354333,
                -1.1466826904931424,
                0.8449672335832843,
                1.6622209361519198
            ]
        },
        {
            "positions": [
                -2.696542838827965,
                -0.9450083217701164,
                0.6067726810453872,
                -1.1109697966391736,
                0.835187392424348,
                1.7973648091801195
            ]
        },
        {
            "positions": [
                -2.666673719191312,
                -0.9607839190744949,
                0.758297994557231,
                -1.0752569027852048,
                0.8254075512654117,
                1.9325086822083195
            ]
        },
        {
            "positions": [
                -2.6368045995546594,
                -0.9765595163788733,
                0.9098233080690749,
                -1.039544008931236,
                0.8156277101064754,
                2.0676525552365193
            ]
        },
        {
            "positions": [
                -2.6069354799180067,
                -0.9923351136832518,
                1.0613486215809187,
                -1.0038311150772674,
                0.805847868947539,
                2.202796428264719
            ]
        },
        {
            "positions": [
                -2.5770663602813544,
                -1.0081107109876302,
                1.2128739350927626,
                -0.9681182212232986,
                0.7960680277886028,
                2.337940301292919
            ]
        },
        {
            "positions": [
                -2.5471972406447017,
                -1.0238863082920087,
                1.3643992486046064,
                -0.9324053273693298,
                0.7862881866296664,
                2.4730841743211185
            ]
        },
        {
            "positions": [
                -2.517328121008049,
                -1.0396619055963872,
                1.5159245621164503,
                -0.896692433515361,
                0.7765083454707301,
                2.6082280473493187
            ]
        },
        {
            "positions": [
                -2.487459001371396,
                -1.0554375029007654,
                1.667449875628294,
                -0.8609795396613923,
                0.7667285043117937,
                2.743371920377518
            ]
        },
        {
            "positions": [
                -2.4575898817347435,
                -1.071213100205144,
                1.818975189140138,
                -0.8252666458074235,
                0.7569486631528575,
                2.878515793405718
            ]
        },
        {
            "positions": [
                -2.464471303291356,
                -1.1176887612849535,
                1.9141510314293382,
                -0.8260037280258983,
                0.7211356210620004,
                3.0007569927985873
            ]
        },
        {
            "positions": [
                -2.4713527248479683,
                -1.1641644223647631,
                2.0093268737185386,
                -0.8267408102443731,
                0.6853225789711431,
                3.122998192191457
            ]
        }
    ]
}