{
    "goal": {
        "global_pose": {
            "orientation": {
                "w": 0.7031023480610252,
                "x": -0.7110244013736278,
                "y": 0.0077485991402295624,
                "z": 0.005598929693374583
            },
            "position": {
                "x": -0.8841497679147869,
                "y": 0.44412534475326537,
                "z": 0.3711530566215515
            }
        },
        "name": "move_to_auspresseinheit_D"
    },
    "id": "LBKPIECE_move_to_auspresseinheit_D_59",
    "joint_names": [
        "shoulder_pan_joint",
        "shoulder_lift_joint",
        "elbow_joint",
        "wrist_1_joint",
        "wrist_2_joint",
        "wrist_3_joint"
    ],
    "metrics": {
        "cart_traj_len": 0.34353663619926555,
        "distance_elbow_joint": 0.6429781845200899,
        "distance_shoulder_lift_joint": 0.12412029150546511,
        "distance_shoulder_pan_joint": 0.13415200856118212,
        "distance_wrist_1_joint": 0.5407041815641684,
        "distance_wrist_2_joint": 1.446012900617365,
        "distance_wrist_3_joint": 0.006941965119884319,
        "smoothness": 1.184237882547641e-15,
        "time": 0.24266121200000002,
        "traj_len": 1.7014433672291756,
        "weighted_distance": 2.2125800650619305
    },
    "planner": "LBKPIECE",
    "start": {
        "state": {
            "elbow_joint": -1.8275484843655228,
            "shoulder_lift_joint": -2.1267897864000416,
            "shoulder_pan_joint": -0.035127520176001514,
            "wrist_1_joint": -2.3477863256791385,
            "wrist_2_joint": -1.605890476484521,
            "wrist_3_joint": -3.0880375317375353
        }
    },
    "waypoints": [
        {
            "positions": [
                -0.035127520176001514,
                -2.1267897864000416,
                -1.8275484843655228,
                -2.3477863256791385,
                -1.605890476484521,
                -3.0880375317375353
            ]
        },
        {
            "positions": [
                -0.05189652124614928,
                -2.142304822838225,
                -1.7471762113005116,
                -2.4153743483746597,
                -1.4251388639073503,
                -3.0871697860975496
            ]
        },
        {
            "positions": [
                -0.06866552231629705,
                -2.1578198592764077,
                -1.6668039382355002,
                -2.4829623710701805,
                -1.2443872513301797,
                -3.0863020404575643
            ]
        },
        {
            "positions": [
                -0.0854345233864448,
                -2.173334895714591,
                -1.586431665170489,
                -2.5505503937657017,
                -1.0636356387530093,
                -3.0854342948175786
            ]
        },
        {
            "positions": [
                -0.10220352445659257,
                -2.188849932152774,
                -1.506059392105478,
                -2.618138416461223,
                -0.8828840261758385,
                -3.084566549177593
            ]
        },
        {
            "positions": [
                -0.11897252552674034,
                -2.204364968590957,
                -1.4256871190404665,
                -2.6857264391567437,
                -0.7021324135986678,
                -3.0836988035376076
            ]
        },
        {
            "positions": [
                -0.1357415265968881,
                -2.2198800050291405,
                -1.3453148459754554,
                -2.753314461852265,
                -0.5213808010214973,
                -3.082831057897622
            ]
        },
        {
            "positions": [
                -0.15251052766703588,
                -2.2353950414673234,
                -1.264942572910444,
                -2.8209024845477857,
                -0.34062918844432666,
                -3.0819633122576366
            ]
        },
        {
            "positions": [
                -0.16927952873718363,
                -2.2509100779055067,
                -1.1845702998454328,
                -2.888490507243307,
                -0.159877575867156,
                -3.081095566617651
            ]
        }
    ]
}