{
    "goal": {
        "global_pose": {
            "orientation": {
                "w": 0.7047431468963623,
                "x": -0.7094548344612122,
                "y": 0.0024358443915843964,
                "z": -0.0022348060738295317
            },
            "position": {
                "x": 0.6094750761985779,
                "y": 0.3671506643295288,
                "z": 0.19426114857196808
            }
        },
        "name": "move_to_magneteinheit_A"
    },
    "id": "LBKPIECE_move_to_magneteinheit_A_137",
    "joint_names": [
        "shoulder_pan_joint",
        "shoulder_lift_joint",
        "elbow_joint",
        "wrist_1_joint",
        "wrist_2_joint",
        "wrist_3_joint"
    ],
    "metrics": {
        "cart_traj_len": 1.9617171597140934,
        "distance_elbow_joint": 3.5668872100055244,
        "distance_shoulder_lift_joint": 0.7835936248113919,
        "distance_shoulder_pan_joint": 1.2410637240299338,
        "distance_wrist_1_joint": 1.2185675460191718,
        "distance_wrist_2_joint": 1.4364735548391603,
        "distance_wrist_3_joint": 2.0334031426486514,
        "smoothness": 2.3026848007699876e-16,
        "time": 0.395795421,
        "traj_len": 3.206242162150862,
        "weighted_distance": 4.123328290169177
    },
    "planner": "LBKPIECE",
    "start": {
        "state": {
            "elbow_joint": -1.5739458827952972,
            "shoulder_lift_joint": 0.006533473998580023,
            "shoulder_pan_joint": -1.1188671628667068,
            "wrist_1_joint": 3.138208179676308,
            "wrist_2_joint": -1.5706037135050406,
            "wrist_3_joint": -2.0226958329764257
        }
    },
    "waypoints": [
        {
            "positions": [
                -1.1188671628667068,
                0.006533473998580023,
                -1.5739458827952972,
                3.138208179676308,
                -1.5706037135050406,
                -2.0226958329764257
            ]
        },
        {
            "positions": [
                -1.0711339427117095,
                -0.02360474234031967,
                -1.4367579131797001,
                3.091340197137109,
                -1.5153547306266113,
                -1.9444880197976315
            ]
        },
        {
            "positions": [
                -1.0234007225567119,
                -0.05374295867921936,
                -1.299569943564103,
                3.0444722145979104,
                -1.460105747748182,
                -1.866280206618837
            ]
        },
        {
            "positions": [
                -0.9756675024017145,
                -0.08388117501811905,
                -1.162381973948506,
                2.9976042320587113,
                -1.4048567648697527,
                -1.7880723934400429
            ]
        },
        {
            "positions": [
                -0.927934282246717,
                -0.11401939135701875,
                -1.0251940043329089,
                2.9507362495195126,
                -1.3496077819913235,
                -1.7098645802612487
            ]
        },
        {
            "positions": [
                -0.8802010620917196,
                -0.14415760769591843,
                -0.8880060347173118,
                2.9038682669803135,
                -1.2943587991128944,
                -1.6316567670824542
            ]
        },
        {
            "positions": [
                -0.8324678419367221,
                -0.1742958240348181,
                -0.7508180651017147,
                2.8570002844411144,
                -1.2391098162344651,
                -1.55344895390366
            ]
        },
        {
            "positions": [
                -0.7847346217817247,
                -0.2044340403737178,
                -0.6136300954861176,
                2.8101323019019158,
                -1.1838608333560359,
                -1.4752411407248658
            ]
        },
        {
            "positions": [
                -0.7370014016267272,
                -0.2345722567126175,
                -0.4764421258705205,
                2.7632643193627167,
                -1.1286118504776066,
                -1.3970333275460716
            ]
        },
        {
            "positions": [
                -0.6892681814717297,
                -0.2647104730515172,
                -0.3392541562549234,
                2.716396336823518,
                -1.0733628675991773,
                -1.3188255143672771
            ]
        },
        {
            "positions": [
                -0.6415349613167323,
                -0.2948486893904169,
                -0.2020661866393263,
                2.669528354284319,
                -1.0181138847207483,
                -1.2406177011884827
            ]
        },
        {
            "positions": [
                -0.5938017411617349,
                -0.3249869057293166,
                -0.0648782170237292,
                2.6226603717451202,
                -0.9628649018423189,
                -1.1624098880096887
            ]
        },
        {
            "positions": [
                -0.5460685210067373,
                -0.3551251220682163,
                0.07230975259186789,
                2.575792389205921,
                -0.9076159189638896,
                -1.0842020748308943
            ]
        },
        {
            "positions": [
                -0.49833530085173994,
                -0.38526333840711596,
                0.209497722207465,
                2.5289244066667225,
                -0.8523669360854604,
                -1.0059942616521
            ]
        },
        {
            "positions": [
                -0.45060208069674257,
                -0.41540155474601564,
                0.3466856918230621,
                2.4820564241275234,
                -0.7971179532070313,
                -0.9277864484733058
            ]
        },
        {
            "positions": [
                -0.4028688605417451,
                -0.4455397710849153,
                0.4838736614386592,
                2.4351884415883243,
                -0.741868970328602,
                -0.8495786352945116
            ]
        },
        {
            "positions": [
                -0.3551356403867475,
                -0.47567798742381506,
                0.6210616310542563,
                2.3883204590491256,
                -0.6866199874501726,
                -0.7713708221157172
            ]
        },
        {
            "positions": [
                -0.30740242023175013,
                -0.5058162037627146,
                0.7582496006698534,
                2.3414524765099265,
                -0.6313710045717434,
                -0.693163008936923
            ]
        },
        {
            "positions": [
                -0.25966920007675265,
                -0.5359544201016143,
                0.8954375702854505,
                2.294584493970728,
                -0.5761220216933143,
                -0.6149551957581287
            ]
        },
        {
            "positions": [
                -0.21193597992175528,
                -0.566092636440514,
                1.0326255399010476,
                2.2477165114315287,
                -0.520873038814885,
                -0.5367473825793345
            ]
        },
        {
            "positions": [
                -0.1642027597667577,
                -0.5962308527794138,
                1.1698135095166446,
                2.2008485288923296,
                -0.4656240559364557,
                -0.45853956940053986
            ]
        },
        {
            "positions": [
                -0.11646953961176032,
                -0.6263690691183135,
                1.3070014791322417,
                2.153980546353131,
                -0.41037507305802645,
                -0.38033175622174564
            ]
        },
        {
            "positions": [
                -0.06873631945676295,
                -0.6565072854572132,
                1.4441894487478388,
                2.1071125638139323,
                -0.3551260901795972,
                -0.3021239430429514
            ]
        },
        {
            "positions": [
                -0.02100309930176536,
                -0.6866455017961128,
                1.581377418363436,
                2.060244581274733,
                -0.2998771073011681,
                -0.2239161298641572
            ]
        },
        {
            "positions": [
                0.02673012085323223,
                -0.7167837181350125,
                1.718565387979033,
                2.013376598735534,
                -0.24462812442273862,
                -0.14570831668536277
            ]
        },
        {
            "positions": [
                0.0744633410082296,
                -0.7469219344739122,
                1.8557533575946301,
                1.9665086161963352,
                -0.18937914154430957,
                -0.06750050350656855
            ]
        },
        {
            "positions": [
                0.12219656116322687,
                -0.7770601508128119,
                1.9929413272102272,
                1.9196406336571363,
                -0.1341301586658804,
                0.010707309672225745
            ]
        }
    ]
}