{
    "goal": {
        "global_pose": {
            "orientation": {
                "w": 0.7031023480610252,
                "x": -0.7110244013736278,
                "y": 0.0077485991402295624,
                "z": 0.005598929693374583
            },
            "position": {
                "x": -0.8841497679147869,
                "y": 0.44412534475326537,
                "z": 0.3711530566215515
            }
        },
        "name": "move_to_auspresseinheit_D"
    },
    "id": "LBKPIECE_move_to_auspresseinheit_D_48",
    "joint_names": [
        "shoulder_pan_joint",
        "shoulder_lift_joint",
        "elbow_joint",
        "wrist_1_joint",
        "wrist_2_joint",
        "wrist_3_joint"
    ],
    "metrics": {
        "cart_traj_len": 0.3424271166115092,
        "distance_elbow_joint": 0.62974643625697,
        "distance_shoulder_lift_joint": 0.11678176432061793,
        "distance_shoulder_pan_joint": 0.13387772806771178,
        "distance_wrist_1_joint": 0.508774411089699,
        "distance_wrist_2_joint": 1.4304236168200528,
        "distance_wrist_3_joint": 0.014102565266722156,
        "smoothness": 1.1842378943679006e-15,
        "time": 0.478009733,
        "traj_len": 1.6833616729098277,
        "weighted_distance": 2.191143464099275
    },
    "planner": "LBKPIECE",
    "start": {
        "state": {
            "elbow_joint": -1.8275484843655228,
            "shoulder_lift_joint": -2.1267897864000416,
            "shoulder_pan_joint": -0.035127520176001514,
            "wrist_1_joint": -2.3477863256791385,
            "wrist_2_joint": -1.605890476484521,
            "wrist_3_joint": -3.0880375317375353
        }
    },
    "waypoints": [
        {
            "positions": [
                -0.035127520176001514,
                -2.1267897864000416,
                -1.8275484843655228,
                -2.3477863256791385,
                -1.605890476484521,
                -3.0880375317375353
            ]
        },
        {
            "positions": [
                -0.05186223618446549,
                -2.1413875069401187,
                -1.7488301798334014,
                -2.411383127065351,
                -1.4270875243820145,
                -3.0898003523958755
            ]
        },
        {
            "positions": [
                -0.06859695219292947,
                -2.155985227480196,
                -1.6701118753012802,
                -2.474979928451563,
                -1.2482845722795077,
                -3.0915631730542157
            ]
        },
        {
            "positions": [
                -0.08533166820139343,
                -2.1705829480202734,
                -1.591393570769159,
                -2.5385767298377755,
                -1.0694816201770012,
                -3.093325993712556
            ]
        },
        {
            "positions": [
                -0.1020663842098574,
                -2.1851806685603505,
                -1.5126752662370377,
                -2.602173531223988,
                -0.8906786680744946,
                -3.0950888143708966
            ]
        },
        {
            "positions": [
                -0.11880110021832138,
                -2.1997783891004277,
                -1.4339569617049164,
                -2.6657703326102005,
                -0.711875715971988,
                -3.0968516350292368
            ]
        },
        {
            "positions": [
                -0.13553581622678534,
                -2.2143761096405052,
                -1.3552386571727952,
                -2.729367133996413,
                -0.5330727638694814,
                -3.098614455687577
            ]
        },
        {
            "positions": [
                -0.15227053223524933,
                -2.2289738301805824,
                -1.276520352640674,
                -2.792963935382625,
                -0.3542698117669747,
                -3.100377276345917
            ]
        },
        {
            "positions": [
                -0.1690052482437133,
                -2.2435715507206595,
                -1.1978020481085527,
                -2.8565607367688375,
                -0.17546685966446815,
                -3.1021400970042574
            ]
        }
    ]
}