{
    "goal": {
        "global_pose": {
            "orientation": {
                "w": 0.7031023502349854,
                "x": -0.7110244035720825,
                "y": 0.007748599164187908,
                "z": 0.005598929710686207
            },
            "position": {
                "x": 0.11585023208521307,
                "y": 0.44412534475326537,
                "z": 0.3711530566215515
            }
        },
        "name": "move_to_auspresseinheit_A"
    },
    "id": "LBKPIECE_move_to_auspresseinheit_A_102",
    "joint_names": [
        "shoulder_pan_joint",
        "shoulder_lift_joint",
        "elbow_joint",
        "wrist_1_joint",
        "wrist_2_joint",
        "wrist_3_joint"
    ],
    "metrics": {
        "cart_traj_len": 1.414748695648199,
        "distance_elbow_joint": 1.9108640807677535,
        "distance_shoulder_lift_joint": 0.5528279618483054,
        "distance_shoulder_pan_joint": 1.0452555967045989,
        "distance_wrist_1_joint": 1.2312666131998475,
        "distance_wrist_2_joint": 1.655494834711784,
        "distance_wrist_3_joint": 4.2966735676886465,
        "smoothness": 0.41459919731576295,
        "time": 0.60954984,
        "traj_len": 3.2699208942910136,
        "weighted_distance": 4.708767486106091
    },
    "planner": "LBKPIECE",
    "start": {
        "state": {
            "elbow_joint": 2.4225746994637096,
            "shoulder_lift_joint": -1.373653595662188,
            "shoulder_pan_joint": -0.3378633848294565,
            "wrist_1_joint": -1.0288595594406726,
            "wrist_2_joint": 1.2330228066703421,
            "wrist_3_joint": 3.189163495502006
        }
    },
    "waypoints": [
        {
            "positions": [
                -0.3378633848294565,
                -1.373653595662188,
                2.4225746994637096,
                -1.0288595594406726,
                1.2330228066703421,
                3.189163495502006
            ]
        },
        {
            "positions": [
                -0.3016092797173559,
                -1.3892683565684125,
                2.353487104741242,
                -0.9813076323731356,
                1.1598630318347694,
                3.0382097318952646
            ]
        },
        {
            "positions": [
                -0.2653551746052553,
                -1.4048831174746372,
                2.284399510018774,
                -0.9337557053055985,
                1.0867032569991966,
                2.8872559682885233
            ]
        },
        {
            "positions": [
                -0.22910106949315473,
                -1.4204978783808617,
                2.2153119152963066,
                -0.8862037782380615,
                1.0135434821636238,
                2.736302204681782
            ]
        },
        {
            "positions": [
                -0.19284696438105414,
                -1.4361126392870862,
                2.1462243205738387,
                -0.8386518511705244,
                0.940383707328051,
                2.5853484410750407
            ]
        },
        {
            "positions": [
                -0.15659285926895355,
                -1.4517274001933107,
                2.077136725851371,
                -0.7910999241029874,
                0.8672239324924782,
                2.4343946774682994
            ]
        },
        {
            "positions": [
                -0.12033875415685297,
                -1.4673421610995354,
                2.008049131128903,
                -0.7435479970354504,
                0.7940641576569054,
                2.2834409138615586
            ]
        },
        {
            "positions": [
                -0.08408464904475238,
                -1.48295692200576,
                1.9389615364064352,
                -0.6959960699679133,
                0.7209043828213326,
                2.132487150254817
            ]
        },
        {
            "positions": [
                -0.04783054393265179,
                -1.4985716829119844,
                1.8698739416839676,
                -0.6484441429003762,
                0.6477446079857598,
                1.9815333866480758
            ]
        },
        {
            "positions": [
                -0.011576438820551205,
                -1.514186443818209,
                1.8007863469614998,
                -0.6008922158328391,
                0.574584833150187,
                1.8305796230413345
            ]
        },
        {
            "positions": [
                0.024677666291549383,
                -1.5298012047244336,
                1.7316987522390321,
                -0.5533402887653021,
                0.5014250583146143,
                1.6796258594345932
            ]
        },
        {
            "positions": [
                0.06093177140364997,
                -1.545415965630658,
                1.6626111575165643,
                -0.505788361697765,
                0.42826528347904147,
                1.5286720958278521
            ]
        },
        {
            "positions": [
                0.09718587651575056,
                -1.5610307265368826,
                1.5935235627940965,
                -0.458236434630228,
                0.3551055086434687,
                1.3777183322211108
            ]
        },
        {
            "positions": [
                0.13343998162785115,
                -1.5766454874431073,
                1.5244359680716286,
                -0.4106845075626909,
                0.2819457338078959,
                1.2267645686143696
            ]
        },
        {
            "positions": [
                0.16969408673995168,
                -1.5922602483493318,
                1.455348373349161,
                -0.36313258049515384,
                0.20878595897232313,
                1.0758108050076283
            ]
        },
        {
            "positions": [
                0.20219912559243491,
                -1.6176578865505735,
                1.4507680503091531,
                -0.29352407135706626,
                0.14600827245766707,
                1.0132300673667054
            ]
        },
        {
            "positions": [
                0.23050679283331701,
                -1.6548783336261061,
                1.5474586454945454,
                -0.2725361187392491,
                0.16963533331538155,
                1.1870363462186886
            ]
        },
        {
            "positions": [
                0.2588144600741991,
                -1.6920987807016385,
                1.6441492406799376,
                -0.25154816612143194,
                0.19326239417309604,
                1.360842625070672
            ]
        },
        {
            "positions": [
                0.28712212731508124,
                -1.7293192277771712,
                1.74083983586533,
                -0.23056021350361475,
                0.21688945503081053,
                1.5346489039226552
            ]
        },
        {
            "positions": [
                0.3154297945559633,
                -1.7665396748527038,
                1.8375304310507223,
                -0.20957226088579758,
                0.24051651588852502,
                1.7084551827746384
            ]
        },
        {
            "positions": [
                0.34373746179684544,
                -1.8037601219282364,
                1.9342210262361146,
                -0.18858430826798042,
                0.2641435767462395,
                1.8822614616266218
            ]
        },
        {
            "positions": [
                0.3720451290377276,
                -1.840980569003769,
                2.030911621421507,
                -0.16759635565016323,
                0.287770637603954,
                2.056067740478605
            ]
        },
        {
            "positions": [
                0.40035279627860965,
                -1.8782010160793015,
                2.127602216606899,
                -0.14660840303234607,
                0.3113976984616685,
                2.2298740193305884
            ]
        },
        {
            "positions": [
                0.4286604635194918,
                -1.915421463154834,
                2.2242928117922913,
                -0.1256204504145289,
                0.33502475931938297,
                2.4036802981825716
            ]
        },
        {
            "positions": [
                0.4844068131906219,
                -1.9132094442837022,
                2.2573993458183033,
                -0.19122595124926967,
                0.41091752204686155,
                2.5497382799300676
            ]
        },
        {
            "positions": [
                0.5401531628617521,
                -1.9109974254125703,
                2.2905058798443148,
                -0.25683145208401037,
                0.4868102847743402,
                2.695796261677564
            ]
        },
        {
            "positions": [
                0.5958995125328822,
                -1.9087854065414385,
                2.3236124138703267,
                -0.3224369529187512,
                0.5627030475018188,
                2.84185424342506
            ]
        },
        {
            "positions": [
                0.6516458622040123,
                -1.9065733876703066,
                2.356718947896338,
                -0.3880424537534919,
                0.6385958102292973,
                2.9879122251725567
            ]
        },
        {
            "positions": [
                0.7073922118751425,
                -1.9043613687991747,
                2.38982548192235,
                -0.45364795458823265,
                0.7144885729567759,
                3.133970206920053
            ]
        }
    ]
}