{
    "goal": {
        "global_pose": {
            "orientation": {
                "w": 0.5084816217422485,
                "x": -0.49083608388900757,
                "y": 0.5182115435600281,
                "z": -0.4816462993621826
            },
            "position": {
                "x": 0.5540239810943604,
                "y": 0.030875300988554955,
                "z": 0.16403168439865112
            }
        },
        "name": "move_to_storage_A"
    },
    "id": "LBKPIECE_move_to_storage_A_119",
    "joint_names": [
        "shoulder_pan_joint",
        "shoulder_lift_joint",
        "elbow_joint",
        "wrist_1_joint",
        "wrist_2_joint",
        "wrist_3_joint"
    ],
    "metrics": {
        "cart_traj_len": 0.35267751494636984,
        "distance_elbow_joint": 0.4484652193311669,
        "distance_shoulder_lift_joint": 0.23277420602240517,
        "distance_shoulder_pan_joint": 0.46159661323350004,
        "distance_wrist_1_joint": 0.2391584947229013,
        "distance_wrist_2_joint": 1.0952663676320635,
        "distance_wrist_3_joint": 0.09599948831701566,
        "smoothness": 6.661338165333112e-16,
        "time": 0.468519897,
        "traj_len": 1.6041385193489535,
        "weighted_distance": 2.024767697353958
    },
    "planner": "LBKPIECE",
    "start": {
        "state": {
            "elbow_joint": 1.971548880431181,
            "shoulder_lift_joint": -1.1394869514688781,
            "shoulder_pan_joint": 0.12281150262730567,
            "wrist_1_joint": -0.7804693444481463,
            "wrist_2_joint": 0.12958644648617612,
            "wrist_3_joint": 3.0906942077768043
        }
    },
    "waypoints": [
        {
            "positions": [
                0.12281150262730567,
                -1.1394869514688781,
                1.971548880431181,
                -0.7804693444481463,
                0.12958644648617612,
                3.0906942077768043
            ]
        },
        {
            "positions": [
                0.056869129308234234,
                -1.1727404094720788,
                2.0356153403356334,
                -0.8146348436942751,
                0.2860530704336137,
                3.1044084203935207
            ]
        },
        {
            "positions": [
                -0.0090732440108372,
                -1.2059938674752797,
                2.0996818002400857,
                -0.8488003429404039,
                0.4425196943810514,
                3.118122633010237
            ]
        },
        {
            "positions": [
                -0.07501561732990863,
                -1.2392473254784804,
                2.1637482601445384,
                -0.8829658421865325,
                0.598986318328489,
                3.1318368456269536
            ]
        },
        {
            "positions": [
                -0.14095799064898007,
                -1.272500783481681,
                2.2278147200489906,
                -0.9171313414326613,
                0.7554529422759266,
                3.1455510582436705
            ]
        },
        {
            "positions": [
                -0.2069003639680515,
                -1.3057542414848817,
                2.291881179953443,
                -0.9512968406787901,
                0.9119195662233643,
                3.159265270860387
            ]
        },
        {
            "positions": [
                -0.27284273728712294,
                -1.3390076994880826,
                2.3559476398578956,
                -0.9854623399249188,
                1.068386190170802,
                3.1729794834771035
            ]
        },
        {
            "positions": [
                -0.3387851106061944,
                -1.3722611574912833,
                2.420014099762348,
                -1.0196278391710476,
                1.2248528141182395,
                3.18669369609382
            ]
        }
    ]
}