{
    "goal": {
        "global_pose": {
            "orientation": {
                "w": 0.7031023480610252,
                "x": -0.7110244013736278,
                "y": 0.0077485991402295624,
                "z": 0.005598929693374583
            },
            "position": {
                "x": -0.8841497679147869,
                "y": 0.44412534475326537,
                "z": 0.3711530566215515
            }
        },
        "name": "move_to_auspresseinheit_D"
    },
    "id": "LBKPIECE_move_to_auspresseinheit_D_115",
    "joint_names": [
        "shoulder_pan_joint",
        "shoulder_lift_joint",
        "elbow_joint",
        "wrist_1_joint",
        "wrist_2_joint",
        "wrist_3_joint"
    ],
    "metrics": {
        "cart_traj_len": 0.3442388230705502,
        "distance_elbow_joint": 0.6719098818930846,
        "distance_shoulder_lift_joint": 0.14034734969327634,
        "distance_shoulder_pan_joint": 0.13266444973950164,
        "distance_wrist_1_joint": 0.6332573939490556,
        "distance_wrist_2_joint": 1.4494640420836342,
        "distance_wrist_3_joint": 0.08881200907347875,
        "smoothness": 4.934324567253731e-16,
        "time": 0.116430365,
        "traj_len": 1.7653484433482336,
        "weighted_distance": 2.3187929145595727
    },
    "planner": "LBKPIECE",
    "start": {
        "state": {
            "elbow_joint": -1.8275484843655228,
            "shoulder_lift_joint": -2.1267897864000416,
            "shoulder_pan_joint": -0.035127520176001514,
            "wrist_1_joint": -2.3477863256791385,
            "wrist_2_joint": -1.605890476484521,
            "wrist_3_joint": -3.0880375317375353
        }
    },
    "waypoints": [
        {
            "positions": [
                -0.035127520176001514,
                -2.1267897864000416,
                -1.8275484843655228,
                -2.3477863256791385,
                -1.605890476484521,
                -3.0880375317375353
            ]
        },
        {
            "positions": [
                -0.05171057639343922,
                -2.144333205111701,
                -1.7435597491288872,
                -2.4269434999227704,
                -1.4247074712240666,
                -3.0769360306033504
            ]
        },
        {
            "positions": [
                -0.06829363261087693,
                -2.1618766238233604,
                -1.6595710138922515,
                -2.5061006741664023,
                -1.2435244659636124,
                -3.0658345294691656
            ]
        },
        {
            "positions": [
                -0.08487668882831463,
                -2.1794200425350203,
                -1.575582278655616,
                -2.585257848410034,
                -1.0623414607031583,
                -3.0547330283349807
            ]
        },
        {
            "positions": [
                -0.10145974504575234,
                -2.1969634612466797,
                -1.4915935434189804,
                -2.6644150226536665,
                -0.8811584554427039,
                -3.043631527200796
            ]
        },
        {
            "positions": [
                -0.11804280126319004,
                -2.214506879958339,
                -1.407604808182345,
                -2.7435721968972984,
                -0.6999754501822496,
                -3.032530026066611
            ]
        },
        {
            "positions": [
                -0.13462585748062775,
                -2.232050298669999,
                -1.3236160729457094,
                -2.8227293711409303,
                -0.5187924449217953,
                -3.021428524932426
            ]
        },
        {
            "positions": [
                -0.15120891369806544,
                -2.2495937173816585,
                -1.2396273377090736,
                -2.901886545384562,
                -0.33760943966134094,
                -3.0103270237982414
            ]
        },
        {
            "positions": [
                -0.16779196991550316,
                -2.267137136093318,
                -1.155638602472438,
                -2.981043719628194,
                -0.15642643440088677,
                -2.9992255226640565
            ]
        }
    ]
}