{
    "goal": {
        "global_pose": {
            "orientation": {
                "w": 0.005598929693374612,
                "x": 0.007748599140229565,
                "y": 0.7110244013736278,
                "z": -0.7031023480610252
            },
            "position": {
                "x": -0.8858502320852131,
                "y": -0.7141253447532654,
                "z": 0.3711530566215515
            }
        },
        "name": "move_to_auspresseinheit_C"
    },
    "id": "LBKPIECE_move_to_auspresseinheit_C_145",
    "joint_names": [
        "shoulder_pan_joint",
        "shoulder_lift_joint",
        "elbow_joint",
        "wrist_1_joint",
        "wrist_2_joint",
        "wrist_3_joint"
    ],
    "metrics": {
        "cart_traj_len": 0.49262665806478345,
        "distance_elbow_joint": 0.9926494297984678,
        "distance_shoulder_lift_joint": 0.3217283003160848,
        "distance_shoulder_pan_joint": 0.25629778443302564,
        "distance_wrist_1_joint": 0.6611164021910239,
        "distance_wrist_2_joint": 1.3055359273897424,
        "distance_wrist_3_joint": 0.056943328132429194,
        "smoothness": 3.2297397080004555e-16,
        "time": 0.630195745,
        "traj_len": 1.8958563163543733,
        "weighted_distance": 2.382186004095062
    },
    "planner": "LBKPIECE",
    "start": {
        "state": {
            "elbow_joint": 1.7527959577730765,
            "shoulder_lift_joint": -0.9740617694224828,
            "shoulder_pan_joint": -2.967991417825869,
            "wrist_1_joint": -0.7595177689779385,
            "wrist_2_joint": 1.7443932448376545,
            "wrist_3_joint": 3.1991315425061013
        }
    },
    "waypoints": [
        {
            "positions": [
                -2.967991417825869,
                -0.9740617694224828,
                1.7527959577730765,
                -0.7595177689779385,
                1.7443932448376545,
                3.1991315425061013
            ]
        },
        {
            "positions": [
                -2.9423616393825665,
                -0.9418889393908743,
                1.6535310147932298,
                -0.6934061287588361,
                1.6138396520986802,
                3.1934372096928585
            ]
        },
        {
            "positions": [
                -2.916731860939264,
                -0.9097161093592658,
                1.554266071813383,
                -0.6272944885397338,
                1.483286059359706,
                3.1877428768796157
            ]
        },
        {
            "positions": [
                -2.8911020824959612,
                -0.8775432793276574,
                1.455001128833536,
                -0.5611828483206314,
                1.3527324666207317,
                3.1820485440663724
            ]
        },
        {
            "positions": [
                -2.8654723040526586,
                -0.8453704492960489,
                1.3557361858536894,
                -0.495071208101529,
                1.2221788738817576,
                3.1763542112531296
            ]
        },
        {
            "positions": [
                -2.839842525609356,
                -0.8131976192644403,
                1.2564712428738427,
                -0.4289595678824266,
                1.0916252811427833,
                3.1706598784398867
            ]
        },
        {
            "positions": [
                -2.814212747166054,
                -0.7810247892328319,
                1.1572062998939958,
                -0.36284792766332424,
                0.961071688403809,
                3.164965545626644
            ]
        },
        {
            "positions": [
                -2.7885829687227512,
                -0.7488519592012235,
                1.057941356914149,
                -0.29673628744422187,
                0.8305180956648348,
                3.159271212813401
            ]
        },
        {
            "positions": [
                -2.7629531902794486,
                -0.716679129169615,
                0.9586764139343023,
                -0.23062464722511944,
                0.6999645029258605,
                3.153576880000158
            ]
        },
        {
            "positions": [
                -2.737323411836146,
                -0.6845062991380064,
                0.8594114709544555,
                -0.164513007006017,
                0.5694109101868863,
                3.147882547186915
            ]
        },
        {
            "positions": [
                -2.7116936333928434,
                -0.652333469106398,
                0.7601465279746087,
                -0.0984013667869147,
                0.43885731744791207,
                3.142188214373672
            ]
        }
    ]
}