{
    "goal": {
        "global_pose": {
            "orientation": {
                "w": 0.5084816217422485,
                "x": -0.49083608388900757,
                "y": 0.5182115435600281,
                "z": -0.4816462993621826
            },
            "position": {
                "x": 0.5540239810943604,
                "y": 0.030875300988554955,
                "z": 0.16403168439865112
            }
        },
        "name": "move_to_storage_A"
    },
    "id": "LBKPIECE_move_to_storage_A_91",
    "joint_names": [
        "shoulder_pan_joint",
        "shoulder_lift_joint",
        "elbow_joint",
        "wrist_1_joint",
        "wrist_2_joint",
        "wrist_3_joint"
    ],
    "metrics": {
        "cart_traj_len": 0.35300052845791763,
        "distance_elbow_joint": 0.45280023011274806,
        "distance_shoulder_lift_joint": 0.233050811965535,
        "distance_shoulder_pan_joint": 0.4626748974159208,
        "distance_wrist_1_joint": 0.25705850261600593,
        "distance_wrist_2_joint": 1.0936136919056265,
        "distance_wrist_3_joint": 0.09189789672748239,
        "smoothness": 4.440892098500626e-16,
        "time": 0.43032337600000004,
        "traj_len": 1.6096881781088284,
        "weighted_distance": 2.031148448223299
    },
    "planner": "LBKPIECE",
    "start": {
        "state": {
            "elbow_joint": 1.971548880431181,
            "shoulder_lift_joint": -1.1394869514688781,
            "shoulder_pan_joint": 0.12281150262730567,
            "wrist_1_joint": -0.7804693444481463,
            "wrist_2_joint": 0.12958644648617612,
            "wrist_3_joint": 3.0906942077768043
        }
    },
    "waypoints": [
        {
            "positions": [
                0.12281150262730567,
                -1.1394869514688781,
                1.971548880431181,
                -0.7804693444481463,
                0.12958644648617612,
                3.0906942077768043
            ]
        },
        {
            "positions": [
                0.056715088710745556,
                -1.1727799246068118,
                2.036234627590145,
                -0.8171919876790043,
                0.2858169739012656,
                3.103822478737873
            ]
        },
        {
            "positions": [
                -0.009381325205814556,
                -1.2060728977447452,
                2.100920374749109,
                -0.8539146309098623,
                0.4420475013163551,
                3.116950749698942
            ]
        },
        {
            "positions": [
                -0.07547773912237468,
                -1.239365870882679,
                2.165606121908073,
                -0.8906372741407202,
                0.5982780287314446,
                3.130079020660011
            ]
        },
        {
            "positions": [
                -0.14157415303893478,
                -1.2726588440206124,
                2.230291869067037,
                -0.9273599173715783,
                0.7545085561465341,
                3.14320729162108
            ]
        },
        {
            "positions": [
                -0.2076705669554949,
                -1.305951817158546,
                2.294977616226001,
                -0.9640825606024362,
                0.9107390835616237,
                3.1563355625821488
            ]
        },
        {
            "positions": [
                -0.27376698087205503,
                -1.3392447902964795,
                2.359663363384965,
                -1.0008052038332942,
                1.066969610976713,
                3.169463833543218
            ]
        },
        {
            "positions": [
                -0.33986339478861516,
                -1.3725377634344131,
                2.424349110543929,
                -1.0375278470641522,
                1.2232001383918025,
                3.1825921045042866
            ]
        }
    ]
}