{
    "goal": {
        "global_pose": {
            "orientation": {
                "w": 0.7047431468963623,
                "x": -0.7094548344612122,
                "y": 0.0024358443915843964,
                "z": -0.0022348060738295317
            },
            "position": {
                "x": 0.6094750761985779,
                "y": 0.3671506643295288,
                "z": 0.19426114857196808
            }
        },
        "name": "move_to_magneteinheit_A"
    },
    "id": "LBKPIECE_move_to_magneteinheit_A_94",
    "joint_names": [
        "shoulder_pan_joint",
        "shoulder_lift_joint",
        "elbow_joint",
        "wrist_1_joint",
        "wrist_2_joint",
        "wrist_3_joint"
    ],
    "metrics": {
        "cart_traj_len": 1.5925637666358992,
        "distance_elbow_joint": 3.527207339534386,
        "distance_shoulder_lift_joint": 1.1364579622211601,
        "distance_shoulder_pan_joint": 1.2418335619383585,
        "distance_wrist_1_joint": 3.8388653456992268,
        "distance_wrist_2_joint": 1.6966189255389759,
        "distance_wrist_3_joint": 5.036476764105745,
        "smoothness": 5.783487396948347e-16,
        "time": 0.945695167,
        "traj_len": 4.059243759499773,
        "weighted_distance": 5.66444151690946
    },
    "planner": "LBKPIECE",
    "start": {
        "state": {
            "elbow_joint": -1.5739458827952972,
            "shoulder_lift_joint": 0.006533473998580023,
            "shoulder_pan_joint": -1.1188671628667068,
            "wrist_1_joint": 3.138208179676308,
            "wrist_2_joint": -1.5706037135050406,
            "wrist_3_joint": -2.0226958329764257
        }
    },
    "waypoints": [
        {
            "positions": [
                -1.1188671628667068,
                0.006533473998580023,
                -1.5739458827952972,
                3.138208179676308,
                -1.5706037135050406,
                -2.0226958329764257
            ]
        },
        {
            "positions": [
                -1.0892996971062698,
                -0.0205250489114476,
                -1.489964755663526,
                3.0468066238263267,
                -1.5302080248017316,
                -1.9027797195453366
            ]
        },
        {
            "positions": [
                -1.0597322313458326,
                -0.04758357182147522,
                -1.405983628531755,
                2.955405067976345,
                -1.4898123360984228,
                -1.7828636061142473
            ]
        },
        {
            "positions": [
                -1.0301647655853956,
                -0.07464209473150284,
                -1.3220025013999839,
                2.8640035121263634,
                -1.4494166473951138,
                -1.6629474926831582
            ]
        },
        {
            "positions": [
                -1.0005972998249584,
                -0.10170061764153046,
                -1.238021374268213,
                2.772601956276382,
                -1.4090209586918048,
                -1.5430313792520691
            ]
        },
        {
            "positions": [
                -0.9710298340645214,
                -0.12875914055155807,
                -1.1540402471364417,
                2.6812004004264,
                -1.3686252699884958,
                -1.42311526582098
            ]
        },
        {
            "positions": [
                -0.9414623683040843,
                -0.15581766346158568,
                -1.0700591200046707,
                2.5897988445764186,
                -1.328229581285187,
                -1.3031991523898907
            ]
        },
        {
            "positions": [
                -0.9118949025436471,
                -0.18287618637161332,
                -0.9860779928728995,
                2.498397288726437,
                -1.287833892581878,
                -1.1832830389588016
            ]
        },
        {
            "positions": [
                -0.88232743678321,
                -0.20993470928164093,
                -0.9020968657411285,
                2.4069957328764557,
                -1.247438203878569,
                -1.0633669255277125
            ]
        },
        {
            "positions": [
                -0.8527599710227729,
                -0.23699323219166854,
                -0.8181157386093574,
                2.315594177026474,
                -1.2070425151752602,
                -0.9434508120966232
            ]
        },
        {
            "positions": [
                -0.8231925052623358,
                -0.2640517551016962,
                -0.7341346114775863,
                2.2241926211764924,
                -1.1666468264719512,
                -0.8235346986655341
            ]
        },
        {
            "positions": [
                -0.7936250395018987,
                -0.29111027801172384,
                -0.6501534843458151,
                2.1327910653265105,
                -1.1262511377686422,
                -0.7036185852344448
            ]
        },
        {
            "positions": [
                -0.7640575737414617,
                -0.3181688009217514,
                -0.566172357214044,
                2.041389509476529,
                -1.0858554490653332,
                -0.5837024718033557
            ]
        },
        {
            "positions": [
                -0.7344901079810244,
                -0.3452273238317791,
                -0.4821912300822728,
                1.9499879536265474,
                -1.0454597603620241,
                -0.46378635837226634
            ]
        },
        {
            "positions": [
                -0.7049226422205874,
                -0.3722858467418067,
                -0.39821010295050185,
                1.858586397776566,
                -1.0050640716587154,
                -0.34387024494117746
            ]
        },
        {
            "positions": [
                -0.6753551764601502,
                -0.39934436965183434,
                -0.31422897581873066,
                1.7671848419265843,
                -0.9646683829554064,
                -0.22395413151008814
            ]
        },
        {
            "positions": [
                -0.6457877106997132,
                -0.4264028925618619,
                -0.2302478486869597,
                1.6757832860766029,
                -0.9242726942520975,
                -0.10403801807899904
            ]
        },
        {
            "positions": [
                -0.6162202449392761,
                -0.45346141547188956,
                -0.1462667215551885,
                1.5843817302266212,
                -0.8838770055487885,
                0.01587809535209006
            ]
        },
        {
            "positions": [
                -0.586652779178839,
                -0.48051993838191714,
                -0.06228559442341752,
                1.4929801743766395,
                -0.8434813168454796,
                0.13579420878317938
            ]
        },
        {
            "positions": [
                -0.5570853134184018,
                -0.5075784612919447,
                0.02169553270835367,
                1.4015786185266579,
                -0.8030856281421705,
                0.2557103222142687
            ]
        },
        {
            "positions": [
                -0.5275178476579647,
                -0.5346369842019724,
                0.10567665984012464,
                1.3101770626766764,
                -0.7626899394388617,
                0.3756264356453576
            ]
        },
        {
            "positions": [
                -0.4979503818975276,
                -0.561695507112,
                0.18965778697189584,
                1.2187755068266948,
                -0.7222942507355526,
                0.4955425490764469
            ]
        },
        {
            "positions": [
                -0.4683829161370905,
                -0.5887540300220276,
                0.27363891410366703,
                1.127373950976713,
                -0.6818985620322436,
                0.6154586625075362
            ]
        },
        {
            "positions": [
                -0.43881545037665337,
                -0.6158125529320553,
                0.3576200412354382,
                1.0359723951267314,
                -0.6415028733289346,
                0.7353747759386255
            ]
        },
        {
            "positions": [
                -0.40924798461621636,
                -0.6428710758420828,
                0.4416011683672092,
                0.94457083927675,
                -0.6011071846256258,
                0.8552908893697144
            ]
        },
        {
            "positions": [
                -0.37968051885577914,
                -0.6699295987521104,
                0.5255822954989802,
                0.8531692834267686,
                -0.560711495922317,
                0.9752070028008037
            ]
        },
        {
            "positions": [
                -0.350113053095342,
                -0.6969881216621382,
                0.6095634226307516,
                0.7617677275767867,
                -0.5203158072190079,
                1.095123116231893
            ]
        },
        {
            "positions": [
                -0.3205455873349049,
                -0.7240466445721658,
                0.6935445497625226,
                0.6703661717268052,
                -0.47992011851569893,
                1.2150392296629824
            ]
        },
        {
            "positions": [
                -0.2909781215744679,
                -0.7511051674821934,
                0.7775256768942935,
                0.5789646158768238,
                -0.43952442981239015,
                1.3349553430940708
            ]
        },
        {
            "positions": [
                -0.2614106558140308,
                -0.778163690392221,
                0.8615068040260645,
                0.4875630600268419,
                -0.39912874110908114,
                1.4548714565251601
            ]
        },
        {
            "positions": [
                -0.23184319005359366,
                -0.8052222133022486,
                0.9454879311578359,
                0.39616150417686047,
                -0.35873305240577213,
                1.5747875699562495
            ]
        },
        {
            "positions": [
                -0.20227572429315643,
                -0.8322807362122763,
                1.0294690582896069,
                0.3047599483268786,
                -0.3183373637024631,
                1.6947036833873388
            ]
        },
        {
            "positions": [
                -0.17270825853271954,
                -0.8593392591223038,
                1.1134501854213779,
                0.21335839247689758,
                -0.27794167499915434,
                1.8146197968184277
            ]
        },
        {
            "positions": [
                -0.1431407927722823,
                -0.8863977820323314,
                1.1974313125531488,
                0.1219568366269157,
                -0.23754598629584533,
                1.934535910249517
            ]
        },
        {
            "positions": [
                -0.1135733270118453,
                -0.9134563049423591,
                1.2814124396849202,
                0.030555280776934257,
                -0.19715029759253633,
                2.054452023680606
            ]
        },
        {
            "positions": [
                -0.08400586125140808,
                -0.9405148278523867,
                1.3653935668166912,
                -0.06084627507304763,
                -0.15675460888922732,
                2.174368137111695
            ]
        },
        {
            "positions": [
                -0.05443839549097107,
                -0.9675733507624142,
                1.4493746939484622,
                -0.15224783092302907,
                -0.11635892018591854,
                2.2942842505427845
            ]
        },
        {
            "positions": [
                -0.02487092973053384,
                -0.994631873672442,
                1.5333558210802332,
                -0.2436493867730105,
                -0.07596323148260953,
                2.414200363973874
            ]
        },
        {
            "positions": [
                0.0046965360299031644,
                -1.0216903965824695,
                1.6173369482120046,
                -0.3350509426229924,
                -0.03556754277930052,
                2.534116477404963
            ]
        },
        {
            "positions": [
                0.03426400179034039,
                -1.0487489194924973,
                1.7013180753437755,
                -0.42645249847297384,
                0.004828145924008487,
                2.6540325908360525
            ]
        },
        {
            "positions": [
                0.0638314675507774,
                -1.0758074424025248,
                1.7852992024755465,
                -0.5178540543229553,
                0.04522383462731727,
                2.773948704267141
            ]
        },
        {
            "positions": [
                0.0933989333112144,
                -1.1028659653125523,
                1.869280329607318,
                -0.6092556101729367,
                0.08561952333062628,
                2.8938648176982302
            ]
        },
        {
            "positions": [
                0.12296639907165166,
                -1.12992448822258,
                1.9532614567390891,
                -0.7006571660229185,
                0.12601521203393523,
                3.0137809311293196
            ]
        }
    ]
}