{
    "goal": {
        "global_pose": {
            "orientation": {
                "w": 0.7047431493862688,
                "x": -0.7094548369677653,
                "y": 0.0024358444001904,
                "z": -0.0022348060817251984
            },
            "position": {
                "x": -0.39052492380142206,
                "y": 0.3671506643295288,
                "z": 0.19426114857196808
            }
        },
        "name": "move_to_magneteinheit_D"
    },
    "id": "LBKPIECE_move_to_magneteinheit_D_18",
    "joint_names": [
        "shoulder_pan_joint",
        "shoulder_lift_joint",
        "elbow_joint",
        "wrist_1_joint",
        "wrist_2_joint",
        "wrist_3_joint"
    ],
    "metrics": {
        "cart_traj_len": 4.634148437269567,
        "distance_elbow_joint": 4.104458836721779,
        "distance_shoulder_lift_joint": 1.9366943680082003,
        "distance_shoulder_pan_joint": 3.0391662420223096,
        "distance_wrist_1_joint": 1.8890122462774956,
        "distance_wrist_2_joint": 0.39545430346548105,
        "distance_wrist_3_joint": 4.121242871863284,
        "smoothness": 0.6997208390152967,
        "time": 0.412534039,
        "traj_len": 3.935229201502569,
        "weighted_distance": 5.100292262393216
    },
    "planner": "LBKPIECE",
    "start": {
        "state": {
            "elbow_joint": 0.7495348899011911,
            "shoulder_lift_joint": -0.6476975780737668,
            "shoulder_pan_joint": -2.711696901376276,
            "wrist_1_joint": -0.0750647808097303,
            "wrist_2_joint": 0.43296659715458535,
            "wrist_3_joint": 3.1361499051832418
        }
    },
    "waypoints": [
        {
            "positions": [
                -2.711696901376276,
                -0.6476975780737668,
                0.7495348899011911,
                -0.0750647808097303,
                0.43296659715458535,
                3.1361499051832418
            ]
        },
        {
            "positions": [
                -2.7171142398759978,
                -0.6750841244727803,
                0.7562345410217348,
                -0.09613371036342755,
                0.44125448899597297,
                3.1340077114681177
            ]
        },
        {
            "positions": [
                -2.7150659275187654,
                -0.7746625892983038,
                0.7662783714346892,
                -0.17794909696566155,
                0.47086532625996147,
                3.1040532099940994
            ]
        },
        {
            "positions": [
                -2.713017615161533,
                -0.8742410541238272,
                0.7763222018476438,
                -0.25976448356789555,
                0.50047616352395,
                3.074098708520081
            ]
        },
        {
            "positions": [
                -2.6121118370318244,
                -0.9156530095464847,
                0.6743632373191665,
                -0.22270385792948033,
                0.4965509917355616,
                2.971009657238381
            ]
        },
        {
            "positions": [
                -2.5112060589021157,
                -0.9570649649691421,
                0.5724042727906891,
                -0.1856432322910651,
                0.49262581994717325,
                2.8679206059566806
            ]
        },
        {
            "positions": [
                -2.410300280772407,
                -0.9984769203917996,
                0.47044530826221176,
                -0.14858260665264988,
                0.48870064815878483,
                2.7648315546749807
            ]
        },
        {
            "positions": [
                -2.3093945026426983,
                -1.0398888758144569,
                0.3684863437337344,
                -0.11152198101423466,
                0.4847754763703965,
                2.6617425033932807
            ]
        },
        {
            "positions": [
                -2.2084887245129896,
                -1.0813008312371144,
                0.26652737920525704,
                -0.07446135537581944,
                0.4808503045820081,
                2.5586534521115802
            ]
        },
        {
            "positions": [
                -2.107582946383281,
                -1.122712786659772,
                0.16456841467677974,
                -0.037400729737404215,
                0.4769251327936197,
                2.4555644008298803
            ]
        },
        {
            "positions": [
                -2.0066771682535722,
                -1.1641247420824292,
                0.06260945014830233,
                -0.0003401040989889914,
                0.47299996100523134,
                2.35247534954818
            ]
        },
        {
            "positions": [
                -1.9057713901238635,
                -1.2055366975050867,
                -0.03934951438017498,
                0.03672052153942623,
                0.469074789216843,
                2.24938629826648
            ]
        },
        {
            "positions": [
                -1.8048656119941549,
                -1.246948652927744,
                -0.1413084789086524,
                0.07378114717784146,
                0.4651496174284546,
                2.14629724698478
            ]
        },
        {
            "positions": [
                -1.7039598338644462,
                -1.2883606083504016,
                -0.2432674434371297,
                0.11084177281625668,
                0.46122444564006626,
                2.0432081957030794
            ]
        },
        {
            "positions": [
                -1.6030540557347375,
                -1.329772563773059,
                -0.345226407965607,
                0.1479023984546719,
                0.45729927385167785,
                1.9401191444213794
            ]
        },
        {
            "positions": [
                -1.5021482776050288,
                -1.3711845191957164,
                -0.4471853724940843,
                0.18496302409308712,
                0.4533741020632895,
                1.8370300931396792
            ]
        },
        {
            "positions": [
                -1.40124249947532,
                -1.4125964746183737,
                -0.5491443370225618,
                0.22202364973150235,
                0.4494489302749011,
                1.7339410418579793
            ]
        },
        {
            "positions": [
                -1.3003367213456114,
                -1.4540084300410312,
                -0.6511033015510391,
                0.25908427536991757,
                0.4455237584865127,
                1.630851990576279
            ]
        },
        {
            "positions": [
                -1.1994309432159027,
                -1.4954203854636887,
                -0.7530622660795167,
                0.29614490100833285,
                0.44159858669812435,
                1.5277629392945788
            ]
        },
        {
            "positions": [
                -1.098525165086194,
                -1.5368323408863462,
                -0.8550212306079937,
                0.333205526646748,
                0.437673414909736,
                1.4246738880128789
            ]
        },
        {
            "positions": [
                -0.9976193869564853,
                -1.5782442963090035,
                -0.9569801951364713,
                0.3702661522851633,
                0.43374824312134763,
                1.3215848367311784
            ]
        },
        {
            "positions": [
                -0.8967136088267766,
                -1.6196562517316608,
                -1.0589391596649484,
                0.40732677792357846,
                0.42982307133295927,
                1.2184957854494785
            ]
        },
        {
            "positions": [
                -0.795807830697068,
                -1.6610682071543184,
                -1.1608981241934258,
                0.44438740356199374,
                0.42589789954457086,
                1.1154067341677782
            ]
        },
        {
            "positions": [
                -0.6949020525673593,
                -1.7024801625769759,
                -1.262857088721903,
                0.4814480292004089,
                0.4219727277561825,
                1.0123176828860783
            ]
        },
        {
            "positions": [
                -0.5939962744376506,
                -1.7438921179996334,
                -1.3648160532503804,
                0.5185086548388242,
                0.4180475559677941,
                0.9092286316043778
            ]
        },
        {
            "positions": [
                -0.4930904963079419,
                -1.7853040734222907,
                -1.4667750177788577,
                0.5555692804772394,
                0.4141223841794057,
                0.8061395803226779
            ]
        },
        {
            "positions": [
                -0.3921847181782332,
                -1.826716028844948,
                -1.5687339823073354,
                0.5926299061156546,
                0.41019721239101736,
                0.7030505290409774
            ]
        },
        {
            "positions": [
                -0.2912789400485245,
                -1.8681279842676055,
                -1.6706929468358123,
                0.6296905317540697,
                0.406272040602629,
                0.5999614777592774
            ]
        },
        {
            "positions": [
                -0.19037316191881581,
                -1.909539939690263,
                -1.77265191136429,
                0.6667511573924851,
                0.40234686881424064,
                0.49687242647757746
            ]
        },
        {
            "positions": [
                -0.08946738378910712,
                -1.9509518951129203,
                -1.8746108758927673,
                0.7038117830309003,
                0.39842169702585223,
                0.39378337519587747
            ]
        },
        {
            "positions": [
                0.011438394340601375,
                -1.9923638505355779,
                -1.9765698404212446,
                0.7408724086693155,
                0.39449652523746387,
                0.2906943239141771
            ]
        },
        {
            "positions": [
                0.019142802121387362,
                -1.9702206126362722,
                -2.1009378956455502,
                0.8149961167803167,
                0.37922411721507715,
                0.18453000818201054
            ]
        },
        {
            "positions": [
                0.02684720990217335,
                -1.9480773747369664,
                -2.2253059508698554,
                0.889119824891318,
                0.3639517091926904,
                0.07836569244984398
            ]
        },
        {
            "positions": [
                0.034551617682959335,
                -1.9259341368376608,
                -2.349674006094161,
                0.9632435330023192,
                0.34867930117030366,
                -0.027798623282322577
            ]
        },
        {
            "positions": [
                0.04225602546374532,
                -1.903790898938355,
                -2.4740420613184666,
                1.0373672411133206,
                0.3334068931479169,
                -0.13396293901448914
            ]
        },
        {
            "positions": [
                0.04996043324453131,
                -1.8816476610390493,
                -2.598410116542772,
                1.1114909492243217,
                0.31813448512553016,
                -0.2401272547466557
            ]
        },
        {
            "positions": [
                0.0576648410253173,
                -1.8595044231397435,
                -2.7227781717670774,
                1.185614657335323,
                0.3028620771031434,
                -0.34629157047882225
            ]
        },
        {
            "positions": [
                0.06536924880610329,
                -1.837361185240438,
                -2.847146226991383,
                1.2597383654463243,
                0.28758966908075667,
                -0.45245588621098887
            ]
        },
        {
            "positions": [
                0.015116165838005874,
                -1.9247662712906877,
                -2.7563056078041233,
                1.2967003043473464,
                0.26457802055017204,
                -0.3459284701171779
            ]
        },
        {
            "positions": [
                -0.03513691713009154,
                -2.0121713573409377,
                -2.6654649886168635,
                1.3336622432483687,
                0.24156637201958742,
                -0.23940105402336695
            ]
        },
        {
            "positions": [
                -0.08539000009818892,
                -2.0995764433911877,
                -2.5746243694296034,
                1.3706241821493907,
                0.2185547234890028,
                -0.13287363792955603
            ]
        },
        {
            "positions": [
                -0.13564308306628636,
                -2.186981529441437,
                -2.4837837502423437,
                1.407586121050413,
                0.19554307495841816,
                -0.026346221835745032
            ]
        },
        {
            "positions": [
                -0.18589616603438378,
                -2.274386615491687,
                -2.392943131055084,
                1.444548059951435,
                0.17253142642783356,
                0.08018119425806589
            ]
        }
    ]
}