{
    "goal": {
        "global_pose": {
            "orientation": {
                "w": 0.005598929693374612,
                "x": 0.007748599140229565,
                "y": 0.7110244013736278,
                "z": -0.7031023480610252
            },
            "position": {
                "x": -0.8858502320852131,
                "y": -0.7141253447532654,
                "z": 0.3711530566215515
            }
        },
        "name": "move_to_auspresseinheit_C"
    },
    "id": "LBKPIECE_move_to_auspresseinheit_C_117",
    "joint_names": [
        "shoulder_pan_joint",
        "shoulder_lift_joint",
        "elbow_joint",
        "wrist_1_joint",
        "wrist_2_joint",
        "wrist_3_joint"
    ],
    "metrics": {
        "cart_traj_len": 0.49397769627188215,
        "distance_elbow_joint": 1.0084378193446422,
        "distance_shoulder_lift_joint": 0.32926765654268164,
        "distance_shoulder_pan_joint": 0.2569962645660433,
        "distance_wrist_1_joint": 0.6950458906775068,
        "distance_wrist_2_joint": 1.3053826936922621,
        "distance_wrist_3_joint": 0.06815381304441415,
        "smoothness": 9.689219149575435e-16,
        "time": 0.471734796,
        "traj_len": 1.9139707776942547,
        "weighted_distance": 2.408323140346027
    },
    "planner": "LBKPIECE",
    "start": {
        "state": {
            "elbow_joint": 1.7527959577730765,
            "shoulder_lift_joint": -0.9740617694224828,
            "shoulder_pan_joint": -2.967991417825869,
            "wrist_1_joint": -0.7595177689779385,
            "wrist_2_joint": 1.7443932448376545,
            "wrist_3_joint": 3.1991315425061013
        }
    },
    "waypoints": [
        {
            "positions": [
                -2.967991417825869,
                -0.9740617694224828,
                1.7527959577730765,
                -0.7595177689779385,
                1.7443932448376545,
                3.1991315425061013
            ]
        },
        {
            "positions": [
                -2.9422917913692648,
                -0.9411350037682147,
                1.6519521758386122,
                -0.6900131799101878,
                1.6138549754684282,
                3.19231616120166
            ]
        },
        {
            "positions": [
                -2.9165921649126605,
                -0.9082082381139465,
                1.5511083939041481,
                -0.6205085908424371,
                1.483316706099202,
                3.1855007798972186
            ]
        },
        {
            "positions": [
                -2.890892538456056,
                -0.8752814724596782,
                1.4502646119696838,
                -0.5510040017746866,
                1.3527784367299758,
                3.178685398592777
            ]
        },
        {
            "positions": [
                -2.865192911999452,
                -0.8423547068054101,
                1.3494208300352195,
                -0.4814994127069358,
                1.2222401673607495,
                3.171870017288336
            ]
        },
        {
            "positions": [
                -2.839493285542847,
                -0.809427941151142,
                1.2485770481007554,
                -0.41199482363918516,
                1.0917018979915234,
                3.1650546359838945
            ]
        },
        {
            "positions": [
                -2.813793659086243,
                -0.7765011754968738,
                1.1477332661662913,
                -0.3424902345714345,
                0.9611636286222972,
                3.1582392546794527
            ]
        },
        {
            "positions": [
                -2.7880940326296386,
                -0.7435744098426057,
                1.046889484231827,
                -0.2729856455036838,
                0.830625359253071,
                3.1514238733750113
            ]
        },
        {
            "positions": [
                -2.7623944061730343,
                -0.7106476441883375,
                0.9460457022973627,
                -0.20348105643593306,
                0.7000870898838447,
                3.14460849207057
            ]
        },
        {
            "positions": [
                -2.73669477971643,
                -0.6777208785340694,
                0.8452019203628985,
                -0.13397646736818247,
                0.5695488205146184,
                3.1377931107661285
            ]
        },
        {
            "positions": [
                -2.7109951532598258,
                -0.6447941128798012,
                0.7443581384284343,
                -0.06447187830043183,
                0.4390105511453922,
                3.130977729461687
            ]
        }
    ]
}