{
    "goal": {
        "global_pose": {
            "orientation": {
                "w": -0.00223480608172531,
                "x": 0.0024358444001904467,
                "y": 0.7094548369677653,
                "z": -0.704743149386269
            },
            "position": {
                "x": 0.6205249238014221,
                "y": -0.6371506643295288,
                "z": 0.19426114857196808
            }
        },
        "name": "move_to_magneteinheit_B"
    },
    "id": "LBKPIECE_move_to_magneteinheit_B_112",
    "joint_names": [
        "shoulder_pan_joint",
        "shoulder_lift_joint",
        "elbow_joint",
        "wrist_1_joint",
        "wrist_2_joint",
        "wrist_3_joint"
    ],
    "metrics": {
        "cart_traj_len": 1.4525563833697435,
        "distance_elbow_joint": 0.7295951424750362,
        "distance_shoulder_lift_joint": 1.2489210736611478,
        "distance_shoulder_pan_joint": 1.6218745799722714,
        "distance_wrist_1_joint": 2.6029638354946005,
        "distance_wrist_2_joint": 2.938250055811387,
        "distance_wrist_3_joint": 3.1383747224658034,
        "smoothness": 5.273559385240909e-16,
        "time": 0.509565084,
        "traj_len": 3.5042801557353043,
        "weighted_distance": 4.9089655474568
    },
    "planner": "LBKPIECE",
    "start": {
        "state": {
            "elbow_joint": 2.393587130804639,
            "shoulder_lift_joint": -1.9085141043513325,
            "shoulder_pan_joint": 0.7066247066698809,
            "wrist_1_joint": -0.4678290934590222,
            "wrist_2_joint": 0.7096259084215963,
            "wrist_3_joint": 3.147370379541726
        }
    },
    "waypoints": [
        {
            "positions": [
                0.7066247066698809,
                -1.9085141043513325,
                2.393587130804639,
                -0.4678290934590222,
                0.7096259084215963,
                3.147370379541726
            ]
        },
        {
            "positions": [
                0.6543061718320656,
                -1.868226327781618,
                2.3700518036280247,
                -0.38386251812048666,
                0.6148436485567129,
                3.0461324852686356
            ]
        },
        {
            "positions": [
                0.6019876369942505,
                -1.8279385512119035,
                2.3465164764514106,
                -0.2998959427819512,
                0.5200613886918295,
                2.944894590995545
            ]
        },
        {
            "positions": [
                0.5496691021564353,
                -1.7876507746421892,
                2.3229811492747965,
                -0.21592936744341568,
                0.425279128826946,
                2.843656696722455
            ]
        },
        {
            "positions": [
                0.49735056731862004,
                -1.7473629980724747,
                2.2994458220981824,
                -0.1319627921048802,
                0.3304968689620626,
                2.7424188024493645
            ]
        },
        {
            "positions": [
                0.44503203248080486,
                -1.7070752215027603,
                2.2759104949215683,
                -0.04799621676634469,
                0.23571460909717917,
                2.641180908176274
            ]
        },
        {
            "positions": [
                0.39271349764298963,
                -1.6667874449330458,
                2.2523751677449546,
                0.03597035857219083,
                0.1409323492322957,
                2.5399430139031836
            ]
        },
        {
            "positions": [
                0.34039496280517445,
                -1.6264996683633313,
                2.2288398405683405,
                0.1199369339107263,
                0.04615008936741227,
                2.438705119630093
            ]
        },
        {
            "positions": [
                0.2880764279673592,
                -1.586211891793617,
                2.2053045133917264,
                0.20390350924926176,
                -0.04863217049747115,
                2.3374672253570026
            ]
        },
        {
            "positions": [
                0.23575789312954398,
                -1.5459241152239025,
                2.1817691862151123,
                0.28787008458779734,
                -0.14341443036235468,
                2.236229331083912
            ]
        },
        {
            "positions": [
                0.18343935829172886,
                -1.505636338654188,
                2.158233859038498,
                0.3718366599263328,
                -0.238196690227238,
                2.1349914368108216
            ]
        },
        {
            "positions": [
                0.13112082345391363,
                -1.4653485620844737,
                2.134698531861884,
                0.4558032352648684,
                -0.33297895009212164,
                2.033753542537731
            ]
        },
        {
            "positions": [
                0.07880228861609839,
                -1.4250607855147592,
                2.11116320468527,
                0.5397698106034039,
                -0.42776120995700495,
                1.932515648264641
            ]
        },
        {
            "positions": [
                0.02648375377828316,
                -1.3847730089450447,
                2.087627877508656,
                0.6237363859419394,
                -0.5225434698218885,
                1.8312777539915506
            ]
        },
        {
            "positions": [
                -0.025834781059531964,
                -1.3444852323753302,
                2.0640925503320418,
                0.7077029612804748,
                -0.6173257296867718,
                1.7300398597184603
            ]
        },
        {
            "positions": [
                -0.0781533158973472,
                -1.3041974558056157,
                2.0405572231554276,
                0.7916695366190105,
                -0.7121079895516553,
                1.6288019654453698
            ]
        },
        {
            "positions": [
                -0.13047185073516243,
                -1.2639096792359013,
                2.0170218959788135,
                0.8756361119575458,
                -0.8068902494165386,
                1.5275640711722793
            ]
        },
        {
            "positions": [
                -0.18279038557297755,
                -1.223621902666187,
                1.9934865688021997,
                0.9596026872960812,
                -0.901672509281422,
                1.426326176899189
            ]
        },
        {
            "positions": [
                -0.2351089204107929,
                -1.1833341260964725,
                1.9699512416255855,
                1.043569262634617,
                -0.9964547691463057,
                1.3250882826260983
            ]
        },
        {
            "positions": [
                -0.287427455248608,
                -1.143046349526758,
                1.9464159144489714,
                1.1275358379731524,
                -1.091237029011189,
                1.223850388353008
            ]
        },
        {
            "positions": [
                -0.33974599008642314,
                -1.1027585729570437,
                1.9228805872723573,
                1.2115024133116878,
                -1.1860192888760723,
                1.1226124940799176
            ]
        },
        {
            "positions": [
                -0.3920645249242384,
                -1.0624707963873292,
                1.8993452600957434,
                1.2954689886502233,
                -1.2808015487409559,
                1.0213745998068275
            ]
        },
        {
            "positions": [
                -0.4443830597620536,
                -1.0221830198176147,
                1.8758099329191293,
                1.379435563988759,
                -1.3755838086058396,
                0.9201367055337366
            ]
        },
        {
            "positions": [
                -0.49670159459986885,
                -0.9818952432479002,
                1.8522746057425152,
                1.4634021393272945,
                -1.470366068470723,
                0.8188988112606466
            ]
        },
        {
            "positions": [
                -0.5490201294376841,
                -0.9416074666781858,
                1.8287392785659011,
                1.54736871466583,
                -1.5651483283356062,
                0.7176609169875561
            ]
        },
        {
            "positions": [
                -0.6013386642754991,
                -0.9013196901084715,
                1.805203951389287,
                1.6313352900043652,
                -1.6599305882004896,
                0.6164230227144656
            ]
        },
        {
            "positions": [
                -0.6536571991133145,
                -0.861031913538757,
                1.781668624212673,
                1.7153018653429009,
                -1.7547128480653733,
                0.5151851284413751
            ]
        },
        {
            "positions": [
                -0.7059757339511298,
                -0.8207441369690425,
                1.7581332970360588,
                1.7992684406814365,
                -1.8494951079302566,
                0.4139472341682846
            ]
        },
        {
            "positions": [
                -0.7582942687889448,
                -0.780456360399328,
                1.7345979698594447,
                1.8832350160199718,
                -1.94427736779514,
                0.31270933989519456
            ]
        },
        {
            "positions": [
                -0.81061280362676,
                -0.7401685838296137,
                1.7110626426828308,
                1.9672015913585075,
                -2.0390596276600235,
                0.21147144562210407
            ]
        },
        {
            "positions": [
                -0.8629313384645753,
                -0.6998808072598992,
                1.6875273155062165,
                2.051168166697043,
                -2.133841887524907,
                0.11023355134901358
            ]
        },
        {
            "positions": [
                -0.9152498733023905,
                -0.6595930306901847,
                1.6639919883296026,
                2.135134742035578,
                -2.2286241473897905,
                0.008995657075922875
            ]
        }
    ]
}