{
    "goal": {
        "global_pose": {
            "orientation": {
                "w": -0.4816463035849501,
                "x": 0.5182115481033762,
                "y": 0.4908360881923453,
                "z": -0.5084816262002911
            },
            "position": {
                "x": -0.8240239810943604,
                "y": -0.300875300988555,
                "z": 0.16403168439865112
            }
        },
        "name": "move_to_storage_C"
    },
    "id": "LBKPIECE_move_to_storage_C_49",
    "joint_names": [
        "shoulder_pan_joint",
        "shoulder_lift_joint",
        "elbow_joint",
        "wrist_1_joint",
        "wrist_2_joint",
        "wrist_3_joint"
    ],
    "metrics": {
        "cart_traj_len": 0.5763718417795547,
        "distance_elbow_joint": 0.2569158244609193,
        "distance_shoulder_lift_joint": 0.18975171645585376,
        "distance_shoulder_pan_joint": 0.4936288052173614,
        "distance_wrist_1_joint": 0.06951876265788759,
        "distance_wrist_2_joint": 1.0705580720254966,
        "distance_wrist_3_joint": 0.055399577963600954,
        "smoothness": 2.5376526478085547e-16,
        "time": 0.290293534,
        "traj_len": 1.4614283283080016,
        "weighted_distance": 1.8402849641812828
    },
    "planner": "LBKPIECE",
    "start": {
        "state": {
            "elbow_joint": 2.0108683149792914,
            "shoulder_lift_joint": -1.1634956873317392,
            "shoulder_pan_joint": -2.4736205022346,
            "wrist_1_joint": -0.8367026793690192,
            "wrist_2_joint": 0.6746043897045053,
            "wrist_3_joint": 3.133522094754363
        }
    },
    "waypoints": [
        {
            "positions": [
                -2.4736205022346,
                -1.1634956873317392,
                2.0108683149792914,
                -0.8367026793690192,
                0.6746043897045053,
                3.133522094754363
            ]
        },
        {
            "positions": [
                -2.555891969770827,
                -1.1318704012557637,
                1.9680490109024715,
                -0.8251162189260379,
                0.853030735042088,
                3.1427553577482965
            ]
        },
        {
            "positions": [
                -2.6381634373070537,
                -1.100245115179788,
                1.9252297068256516,
                -0.8135297584830566,
                1.0314570803796708,
                3.1519886207422303
            ]
        },
        {
            "positions": [
                -2.7204349048432808,
                -1.0686198291038123,
                1.8824104027488318,
                -0.8019432980400754,
                1.2098834257172535,
                3.1612218837361636
            ]
        },
        {
            "positions": [
                -2.802706372379508,
                -1.0369945430278367,
                1.8395910986720119,
                -0.7903568375970942,
                1.3883097710548364,
                3.170455146730097
            ]
        },
        {
            "positions": [
                -2.8849778399157344,
                -1.005369256951861,
                1.796771794595192,
                -0.7787703771541129,
                1.5667361163924192,
                3.1796884097240308
            ]
        },
        {
            "positions": [
                -2.9672493074519615,
                -0.9737439708758855,
                1.753952490518372,
                -0.7671839167111316,
                1.745162461730002,
                3.188921672717964
            ]
        }
    ]
}