{
    "goal": {
        "global_pose": {
            "orientation": {
                "w": 0.7047431468963623,
                "x": -0.7094548344612122,
                "y": 0.0024358443915843964,
                "z": -0.0022348060738295317
            },
            "position": {
                "x": 0.6094750761985779,
                "y": 0.3671506643295288,
                "z": 0.19426114857196808
            }
        },
        "name": "move_to_magneteinheit_A"
    },
    "id": "LBKPIECE_move_to_magneteinheit_A_74",
    "joint_names": [
        "shoulder_pan_joint",
        "shoulder_lift_joint",
        "elbow_joint",
        "wrist_1_joint",
        "wrist_2_joint",
        "wrist_3_joint"
    ],
    "metrics": {
        "cart_traj_len": 1.7920762738696003,
        "distance_elbow_joint": 3.540981182871667,
        "distance_shoulder_lift_joint": 1.1435985098700532,
        "distance_shoulder_pan_joint": 1.2422877273513757,
        "distance_wrist_1_joint": 3.9072139824958367,
        "distance_wrist_2_joint": 1.6970571618319157,
        "distance_wrist_3_joint": 1.1804564411353398,
        "smoothness": 1.0449157961564637e-16,
        "time": 0.339389486,
        "traj_len": 3.5653323836013087,
        "weighted_distance": 4.547172641560317
    },
    "planner": "LBKPIECE",
    "start": {
        "state": {
            "elbow_joint": -1.5739458827952972,
            "shoulder_lift_joint": 0.006533473998580023,
            "shoulder_pan_joint": -1.1188671628667068,
            "wrist_1_joint": 3.138208179676308,
            "wrist_2_joint": -1.5706037135050406,
            "wrist_3_joint": -2.0226958329764257
        }
    },
    "waypoints": [
        {
            "positions": [
                -1.1188671628667068,
                0.006533473998580023,
                -1.5739458827952972,
                3.138208179676308,
                -1.5706037135050406,
                -2.0226958329764257
            ]
        },
        {
            "positions": [
                -1.088609850780481,
                -0.02206238626784779,
                -1.4577318457041226,
                3.009716008326395,
                -1.523244384269425,
                -2.060154687859917
            ]
        },
        {
            "positions": [
                -1.058352538694255,
                -0.0506582465342756,
                -1.341517808612948,
                2.881223836976482,
                -1.4758850550338096,
                -2.097613542743408
            ]
        },
        {
            "positions": [
                -1.028095226608029,
                -0.07925410680070341,
                -1.2253037715217734,
                2.7527316656265692,
                -1.428525725798194,
                -2.135072397626899
            ]
        },
        {
            "positions": [
                -0.997837914521803,
                -0.10784996706713122,
                -1.1090897344305988,
                2.6242394942766563,
                -1.3811663965625784,
                -2.17253125251039
            ]
        },
        {
            "positions": [
                -0.9675806024355771,
                -0.13644582733355903,
                -0.9928756973394243,
                2.4957473229267433,
                -1.333807067326963,
                -2.2099901073938812
            ]
        },
        {
            "positions": [
                -0.9373232903493511,
                -0.16504168759998683,
                -0.8766616602482497,
                2.3672551515768303,
                -1.2864477380913475,
                -2.2474489622773723
            ]
        },
        {
            "positions": [
                -0.9070659782631252,
                -0.19363754786641466,
                -0.760447623157075,
                2.2387629802269173,
                -1.2390884088557321,
                -2.2849078171608634
            ]
        },
        {
            "positions": [
                -0.8768086661768993,
                -0.22223340813284245,
                -0.6442335860659004,
                2.1102708088770044,
                -1.1917290796201165,
                -2.3223666720443545
            ]
        },
        {
            "positions": [
                -0.8465513540906734,
                -0.2508292683992703,
                -0.5280195489747259,
                1.9817786375270916,
                -1.144369750384501,
                -2.3598255269278456
            ]
        },
        {
            "positions": [
                -0.8162940420044474,
                -0.27942512866569813,
                -0.4118055118835513,
                1.8532864661771786,
                -1.0970104211488856,
                -2.3972843818113367
            ]
        },
        {
            "positions": [
                -0.7860367299182215,
                -0.3080209889321259,
                -0.2955914747923767,
                1.7247942948272657,
                -1.04965109191327,
                -2.4347432366948274
            ]
        },
        {
            "positions": [
                -0.7557794178319955,
                -0.3366168491985537,
                -0.17937743770120207,
                1.5963021234773527,
                -1.0022917626776544,
                -2.4722020915783185
            ]
        },
        {
            "positions": [
                -0.7255221057457696,
                -0.3652127094649815,
                -0.06316340061002745,
                1.4678099521274397,
                -0.9549324334420389,
                -2.5096609464618096
            ]
        },
        {
            "positions": [
                -0.6952647936595436,
                -0.3938085697314094,
                0.05305063648114716,
                1.3393177807775267,
                -0.9075731042064235,
                -2.5471198013453007
            ]
        },
        {
            "positions": [
                -0.6650074815733177,
                -0.4224044299978372,
                0.169264673572322,
                1.2108256094276137,
                -0.8602137749708079,
                -2.584578656228792
            ]
        },
        {
            "positions": [
                -0.6347501694870918,
                -0.45100029026426497,
                0.2854787106634964,
                1.082333438077701,
                -0.8128544457351924,
                -2.622037511112283
            ]
        },
        {
            "positions": [
                -0.6044928574008658,
                -0.4795961505306928,
                0.40169274775467123,
                0.9538412667277876,
                -0.7654951164995768,
                -2.659496365995774
            ]
        },
        {
            "positions": [
                -0.5742355453146399,
                -0.5081920107971205,
                0.5179067848458454,
                0.825349095377875,
                -0.7181357872639613,
                -2.696955220879265
            ]
        },
        {
            "positions": [
                -0.5439782332284139,
                -0.5367878710635484,
                0.6341208219370202,
                0.6968569240279621,
                -0.6707764580283457,
                -2.734414075762756
            ]
        },
        {
            "positions": [
                -0.513720921142188,
                -0.5653837313299762,
                0.7503348590281946,
                0.5683647526780491,
                -0.6234171287927304,
                -2.7718729306462473
            ]
        },
        {
            "positions": [
                -0.483463609055962,
                -0.593979591596404,
                0.8665488961193695,
                0.4398725813281361,
                -0.5760577995571148,
                -2.8093317855297384
            ]
        },
        {
            "positions": [
                -0.45320629696973613,
                -0.6225754518628318,
                0.9827629332105439,
                0.31138040997822314,
                -0.5286984703214994,
                -2.8467906404132295
            ]
        },
        {
            "positions": [
                -0.4229489848835102,
                -0.6511713121292596,
                1.0989769703017187,
                0.18288823862831016,
                -0.4813391410858838,
                -2.8842494952967206
            ]
        },
        {
            "positions": [
                -0.39269167279728423,
                -0.6797671723956874,
                1.215191007392893,
                0.05439606727839719,
                -0.43397981185026824,
                -2.9217083501802117
            ]
        },
        {
            "positions": [
                -0.3624343607110583,
                -0.7083630326621153,
                1.331405044484068,
                -0.07409610407151579,
                -0.38662048261465265,
                -2.959167205063703
            ]
        },
        {
            "positions": [
                -0.3321770486248323,
                -0.736958892928543,
                1.4476190815752423,
                -0.20258827542142877,
                -0.3392611533790373,
                -2.996626059947194
            ]
        },
        {
            "positions": [
                -0.30191973653860643,
                -0.7655547531949709,
                1.5638331186664174,
                -0.33108044677134196,
                -0.29190182414342175,
                -3.034084914830685
            ]
        },
        {
            "positions": [
                -0.23102968636806054,
                -0.8274731336410546,
                1.631033482234743,
                -0.40406800611270643,
                -0.22217594539837227,
                -3.0622628080441983
            ]
        },
        {
            "positions": [
                -0.16013963619751462,
                -0.8893915140871383,
                1.6982338458030684,
                -0.47705556545407085,
                -0.15245006665332275,
                -3.090440701257712
            ]
        },
        {
            "positions": [
                -0.0892495860269687,
                -0.951309894533222,
                1.765434209371394,
                -0.5500431247954354,
                -0.08272418790827324,
                -3.1186185944712252
            ]
        },
        {
            "positions": [
                -0.018359535856422804,
                -1.0132282749793058,
                1.8326345729397193,
                -0.6230306841367997,
                -0.012998309163223754,
                -3.1467964876847385
            ]
        },
        {
            "positions": [
                0.052530514314123145,
                -1.0751466554253895,
                1.8998349365080451,
                -0.6960182434781643,
                0.05672756958182579,
                -3.1749743808982522
            ]
        },
        {
            "positions": [
                0.12342056448466905,
                -1.1370650358714731,
                1.9670353000763705,
                -0.7690058028195287,
                0.12645344832687525,
                -3.2031522741117655
            ]
        }
    ]
}