{
    "goal": {
        "global_pose": {
            "orientation": {
                "w": 0.005598929693374612,
                "x": 0.007748599140229565,
                "y": 0.7110244013736278,
                "z": -0.7031023480610252
            },
            "position": {
                "x": 0.1141497679147869,
                "y": -0.7141253447532654,
                "z": 0.3711530566215515
            }
        },
        "name": "move_to_auspresseinheit_B"
    },
    "id": "LBKPIECE_move_to_auspresseinheit_B_137",
    "joint_names": [
        "shoulder_pan_joint",
        "shoulder_lift_joint",
        "elbow_joint",
        "wrist_1_joint",
        "wrist_2_joint",
        "wrist_3_joint"
    ],
    "metrics": {
        "cart_traj_len": 0.5647029445616075,
        "distance_elbow_joint": 0.06388726985623094,
        "distance_shoulder_lift_joint": 0.2947448577614453,
        "distance_shoulder_pan_joint": 0.5777288654779726,
        "distance_wrist_1_joint": 0.32850728687610964,
        "distance_wrist_2_joint": 0.9863225581640358,
        "distance_wrist_3_joint": 0.00012719104550651394,
        "smoothness": 2.5376526478085547e-16,
        "time": 0.242775585,
        "traj_len": 1.500439278738497,
        "weighted_distance": 1.8884920588428376
    },
    "planner": "LBKPIECE",
    "start": {
        "state": {
            "elbow_joint": 2.0193061681459312,
            "shoulder_lift_joint": -1.1220205130644991,
            "shoulder_pan_joint": -1.0952072088045026,
            "wrist_1_joint": -0.8559671810662515,
            "wrist_2_joint": 0.4759638712940361,
            "wrist_3_joint": 3.159081874192446
        }
    },
    "waypoints": [
        {
            "positions": [
                -1.0952072088045026,
                -1.1220205130644991,
                2.0193061681459312,
                -0.8559671810662515,
                0.4759638712940361,
                3.159081874192446
            ]
        },
        {
            "positions": [
                -1.1914953530508314,
                -1.17114465602474,
                2.0086582898365593,
                -0.8012159665868999,
                0.6403509643213754,
                3.1590606756848616
            ]
        },
        {
            "positions": [
                -1.2877834972971602,
                -1.220268798984981,
                1.9980104115271875,
                -0.7464647521075483,
                0.8047380573487146,
                3.159039477177277
            ]
        },
        {
            "positions": [
                -1.384071641543489,
                -1.2693929419452217,
                1.9873625332178158,
                -0.6917135376281967,
                0.9691251503760541,
                3.1590182786696928
            ]
        },
        {
            "positions": [
                -1.4803597857898176,
                -1.3185170849054626,
                1.976714654908444,
                -0.636962323148845,
                1.1335122434033933,
                3.1589970801621083
            ]
        },
        {
            "positions": [
                -1.5766479300361464,
                -1.3676412278657035,
                1.966066776599072,
                -0.5822111086694934,
                1.2978993364307327,
                3.158975881654524
            ]
        },
        {
            "positions": [
                -1.6729360742824753,
                -1.4167653708259444,
                1.9554188982897003,
                -0.5274598941901418,
                1.462286429458072,
                3.1589546831469395
            ]
        }
    ]
}