{
    "goal": {
        "global_pose": {
            "orientation": {
                "w": -0.4816463035849501,
                "x": 0.5182115481033762,
                "y": 0.4908360881923453,
                "z": -0.5084816262002911
            },
            "position": {
                "x": -0.8240239810943604,
                "y": 0.19912469901144506,
                "z": 0.16403168439865112
            }
        },
        "name": "move_to_storage_D"
    },
    "id": "LBKPIECE_move_to_storage_D_39",
    "joint_names": [
        "shoulder_pan_joint",
        "shoulder_lift_joint",
        "elbow_joint",
        "wrist_1_joint",
        "wrist_2_joint",
        "wrist_3_joint"
    ],
    "metrics": {
        "cart_traj_len": 0.5578361735848362,
        "distance_elbow_joint": 0.5593015343689025,
        "distance_shoulder_lift_joint": 0.15273482893687884,
        "distance_shoulder_pan_joint": 0.15081868638287302,
        "distance_wrist_1_joint": 3.8454660158675438,
        "distance_wrist_2_joint": 1.914086935260482,
        "distance_wrist_3_joint": 3.152224392654544,
        "smoothness": 0.23385935089124224,
        "time": 0.390557858,
        "traj_len": 3.1264408507872368,
        "weighted_distance": 4.673182441325006
    },
    "planner": "LBKPIECE",
    "start": {
        "state": {
            "elbow_joint": -2.384821990628643,
            "shoulder_lift_joint": -2.278805467437664,
            "shoulder_pan_joint": -0.18546946439364564,
            "wrist_1_joint": 1.4845938187801415,
            "wrist_2_joint": 0.178987772454074,
            "wrist_3_joint": 0.03710569632802521
        }
    },
    "waypoints": [
        {
            "positions": [
                -0.18546946439364564,
                -2.278805467437664,
                -2.384821990628643,
                1.4845938187801415,
                0.178987772454074,
                0.03710569632802521
            ]
        },
        {
            "positions": [
                -0.1256761656847229,
                -2.2388370122705936,
                -2.246409210762842,
                1.4329994972295779,
                0.24848742725906262,
                0.042028949978443184
            ]
        },
        {
            "positions": [
                -0.1218834411983083,
                -2.2341384133635183,
                -2.228872179325213,
                1.2749215099663704,
                0.1716296239067504,
                0.1731664974369484
            ]
        },
        {
            "positions": [
                -0.11809071671189371,
                -2.229439814456443,
                -2.2113351478875836,
                1.1168435227031628,
                0.09477182055443817,
                0.30430404489545365
            ]
        },
        {
            "positions": [
                -0.11429799222547911,
                -2.2247412155493675,
                -2.1937981164499547,
                0.9587655354399554,
                0.01791401720212593,
                0.4354415923539589
            ]
        },
        {
            "positions": [
                -0.11050526773906452,
                -2.220042616642292,
                -2.1762610850123254,
                0.8006875481767479,
                -0.05894378615018628,
                0.5665791398124641
            ]
        },
        {
            "positions": [
                -0.10671254325264992,
                -2.215344017735217,
                -2.158724053574696,
                0.6426095609135403,
                -0.13580158950249852,
                0.6977166872709694
            ]
        },
        {
            "positions": [
                -0.10291981876623532,
                -2.2106454188281415,
                -2.141187022137067,
                0.48453157365033284,
                -0.21265939285481075,
                0.8288542347294746
            ]
        },
        {
            "positions": [
                -0.09912709427982073,
                -2.205946819921066,
                -2.1236499906994375,
                0.3264535863871252,
                -0.289517196207123,
                0.9599917821879799
            ]
        },
        {
            "positions": [
                -0.09533436979340615,
                -2.2012482210139908,
                -2.106112959261808,
                0.16837559912391797,
                -0.3663749995594352,
                1.091129329646485
            ]
        },
        {
            "positions": [
                -0.09154164530699155,
                -2.1965496221069154,
                -2.088575927824179,
                0.01029761186071032,
                -0.4432328029117475,
                1.2222668771049903
            ]
        },
        {
            "positions": [
                -0.08774892082057695,
                -2.19185102319984,
                -2.07103889638655,
                -0.14778037540249733,
                -0.5200906062640597,
                1.3534044245634955
            ]
        },
        {
            "positions": [
                -0.08395619633416235,
                -2.1871524242927647,
                -2.0535018649489207,
                -0.30585836266570454,
                -0.5969484096163719,
                1.4845419720220008
            ]
        },
        {
            "positions": [
                -0.08016347184774776,
                -2.1824538253856893,
                -2.0359648335112914,
                -0.4639363499289122,
                -0.6738062129686841,
                1.615679519480506
            ]
        },
        {
            "positions": [
                -0.07637074736133317,
                -2.177755226478614,
                -2.018427802073662,
                -0.6220143371921194,
                -0.7506640163209963,
                1.746817066939011
            ]
        },
        {
            "positions": [
                -0.07257802287491857,
                -2.1730566275715386,
                -2.000890770636033,
                -0.7800923244553275,
                -0.8275218196733086,
                1.8779546143975165
            ]
        },
        {
            "positions": [
                -0.06878529838850397,
                -2.1683580286644633,
                -1.9833537391984037,
                -0.9381703117185347,
                -0.9043796230256208,
                2.009092161856022
            ]
        },
        {
            "positions": [
                -0.06499257390208939,
                -2.163659429757388,
                -1.9658167077607747,
                -1.096248298981742,
                -0.981237426377933,
                2.140229709314527
            ]
        },
        {
            "positions": [
                -0.06119984941567479,
                -2.1589608308503125,
                -1.9482796763231454,
                -1.25432628624495,
                -1.0580952297302453,
                2.2713672567730323
            ]
        },
        {
            "positions": [
                -0.0574071249292602,
                -2.154262231943237,
                -1.930742644885516,
                -1.4124042735081572,
                -1.1349530330825575,
                2.4025048042315373
            ]
        },
        {
            "positions": [
                -0.0536144004428456,
                -2.149563633036162,
                -1.9132056134478868,
                -1.5704822607713644,
                -1.2118108364348696,
                2.5336423516900424
            ]
        },
        {
            "positions": [
                -0.049821675956431,
                -2.1448650341290865,
                -1.8956685820102575,
                -1.7285602480345725,
                -1.2886686397871818,
                2.664779899148548
            ]
        },
        {
            "positions": [
                -0.04602895147001641,
                -2.140166435222011,
                -1.8781315505726284,
                -1.8866382352977797,
                -1.365526443139494,
                2.7959174466070533
            ]
        },
        {
            "positions": [
                -0.04223622698360181,
                -2.1354678363149358,
                -1.8605945191349993,
                -2.0447162225609867,
                -1.4423842464918062,
                2.9270549940655584
            ]
        },
        {
            "positions": [
                -0.03844350249718721,
                -2.1307692374078604,
                -1.84305748769737,
                -2.2027942098241953,
                -1.5192420498441186,
                3.058192541524064
            ]
        },
        {
            "positions": [
                -0.03465077801077263,
                -2.126070638500785,
                -1.8255204562597407,
                -2.360872197087402,
                -1.5960998531964308,
                3.189330088982569
            ]
        }
    ]
}