{
    "goal": {
        "global_pose": {
            "orientation": {
                "w": 0.5084816217422485,
                "x": -0.49083608388900757,
                "y": 0.5182115435600281,
                "z": -0.4816462993621826
            },
            "position": {
                "x": 0.5540239810943604,
                "y": 0.030875300988554955,
                "z": 0.16403168439865112
            }
        },
        "name": "move_to_storage_A"
    },
    "id": "LBKPIECE_move_to_storage_A_34",
    "joint_names": [
        "shoulder_pan_joint",
        "shoulder_lift_joint",
        "elbow_joint",
        "wrist_1_joint",
        "wrist_2_joint",
        "wrist_3_joint"
    ],
    "metrics": {
        "cart_traj_len": 0.3525210881501488,
        "distance_elbow_joint": 0.44927596092682953,
        "distance_shoulder_lift_joint": 0.23603605223649282,
        "distance_shoulder_pan_joint": 0.46160192842173814,
        "distance_wrist_1_joint": 0.24123676305933484,
        "distance_wrist_2_joint": 1.0953960596256676,
        "distance_wrist_3_joint": 0.09104673250618545,
        "smoothness": 1.5543122343307022e-15,
        "time": 0.26436103299999997,
        "traj_len": 1.6045539868687024,
        "weighted_distance": 2.023195439020566
    },
    "planner": "LBKPIECE",
    "start": {
        "state": {
            "elbow_joint": 1.971548880431181,
            "shoulder_lift_joint": -1.1394869514688781,
            "shoulder_pan_joint": 0.12281150262730567,
            "wrist_1_joint": -0.7804693444481463,
            "wrist_2_joint": 0.12958644648617612,
            "wrist_3_joint": 3.0906942077768043
        }
    },
    "waypoints": [
        {
            "positions": [
                0.12281150262730567,
                -1.1394869514688781,
                1.971548880431181,
                -0.7804693444481463,
                0.12958644648617612,
                3.0906942077768043
            ]
        },
        {
            "positions": [
                0.05686836999562879,
                -1.1732063875026628,
                2.0357311605635853,
                -0.8149317391709084,
                0.28607159786127145,
                3.1037008838491165
            ]
        },
        {
            "positions": [
                -0.00907476263604809,
                -1.2069258235364475,
                2.0999134406959894,
                -0.8493941338936706,
                0.44255674923636684,
                3.1167075599214287
            ]
        },
        {
            "positions": [
                -0.07501789526772495,
                -1.2406452595702322,
                2.1640957208283935,
                -0.8838565286164326,
                0.5990419006114622,
                3.129714235993741
            ]
        },
        {
            "positions": [
                -0.14096102789940185,
                -1.2743646956040169,
                2.2282780009607976,
                -0.9183189233391947,
                0.7555270519865576,
                3.142720912066053
            ]
        },
        {
            "positions": [
                -0.20690416053107874,
                -1.3080841316378016,
                2.292460281093202,
                -0.9527813180619569,
                0.912012203361653,
                3.1557275881383653
            ]
        },
        {
            "positions": [
                -0.2728472931627556,
                -1.3418035676715863,
                2.3566425612256063,
                -0.987243712784719,
                1.0684973547367482,
                3.1687342642106775
            ]
        },
        {
            "positions": [
                -0.33879042579443247,
                -1.375523003705371,
                2.4208248413580105,
                -1.0217061075074811,
                1.2249825061118436,
                3.1817409402829897
            ]
        }
    ]
}