{
    "goal": {
        "global_pose": {
            "orientation": {
                "w": -0.00223480608172531,
                "x": 0.0024358444001904467,
                "y": 0.7094548369677653,
                "z": -0.704743149386269
            },
            "position": {
                "x": -0.37947507619857795,
                "y": -0.6371506643295288,
                "z": 0.19426114857196808
            }
        },
        "name": "move_to_magneteinheit_C"
    },
    "id": "LBKPIECE_move_to_magneteinheit_C_28",
    "joint_names": [
        "shoulder_pan_joint",
        "shoulder_lift_joint",
        "elbow_joint",
        "wrist_1_joint",
        "wrist_2_joint",
        "wrist_3_joint"
    ],
    "metrics": {
        "cart_traj_len": 5.413985181672775,
        "distance_elbow_joint": 0.8022780016308941,
        "distance_shoulder_lift_joint": 3.641353470125141,
        "distance_shoulder_pan_joint": 8.755014765199935,
        "distance_wrist_1_joint": 1.9263948215516953,
        "distance_wrist_2_joint": 2.888736714537352,
        "distance_wrist_3_joint": 5.442478365889219,
        "smoothness": 0.5775185461268711,
        "time": 0.8327297819999999,
        "traj_len": 4.843165921061784,
        "weighted_distance": 6.257503048884734
    },
    "planner": "LBKPIECE",
    "start": {
        "state": {
            "elbow_joint": 1.9565354006593851,
            "shoulder_lift_joint": -1.4165861576512813,
            "shoulder_pan_joint": -1.6717766223278752,
            "wrist_1_joint": -0.528663328821883,
            "wrist_2_joint": 1.472756589259273,
            "wrist_3_joint": 3.159348288315503
        }
    },
    "waypoints": [
        {
            "positions": [
                -1.6717766223278752,
                -1.4165861576512813,
                1.9565354006593851,
                -0.528663328821883,
                1.472756589259273,
                3.159348288315503
            ]
        },
        {
            "positions": [
                -1.5346563097725563,
                -1.4749976249440948,
                1.9712745692870293,
                -0.5006137053397833,
                1.4092666201633903,
                3.0650036774055036
            ]
        },
        {
            "positions": [
                -1.3975359972172376,
                -1.5334090922369084,
                1.9860137379146734,
                -0.4725640818576837,
                1.3457766510675078,
                2.970659066495504
            ]
        },
        {
            "positions": [
                -1.2604156846619188,
                -1.591820559529722,
                2.0007529065423175,
                -0.44451445837558407,
                1.282286681971625,
                2.876314455585505
            ]
        },
        {
            "positions": [
                -1.1232953721066,
                -1.6502320268225354,
                2.0154920751699614,
                -0.4164648348934844,
                1.2187967128757422,
                2.7819698446755057
            ]
        },
        {
            "positions": [
                -0.986175059551281,
                -1.708643494115349,
                2.0302312437976058,
                -0.3884152114113847,
                1.1553067437798594,
                2.687625233765506
            ]
        },
        {
            "positions": [
                -0.8490547469959623,
                -1.7670549614081625,
                2.0449704124252497,
                -0.3603655879292851,
                1.0918167746839766,
                2.5932806228555068
            ]
        },
        {
            "positions": [
                -0.7119344344406434,
                -1.825466428700976,
                2.059709581052894,
                -0.33231596444718536,
                1.0283268055880939,
                2.4989360119455073
            ]
        },
        {
            "positions": [
                -0.5748141218853247,
                -1.8838778959937896,
                2.074448749680538,
                -0.3042663409650857,
                0.9648368364922113,
                2.4045914010355083
            ]
        },
        {
            "positions": [
                -0.4376938093300058,
                -1.9422893632866032,
                2.089187918308182,
                -0.27621671748298604,
                0.9013468673963285,
                2.310246790125509
            ]
        },
        {
            "positions": [
                -0.3005734967746869,
                -2.000700830579417,
                2.103927086935826,
                -0.24816709400088638,
                0.8378568983004457,
                2.2159021792155094
            ]
        },
        {
            "positions": [
                -0.16345318421936827,
                -2.0591122978722303,
                2.11866625556347,
                -0.22011747051878672,
                0.7743669292045632,
                2.1215575683055103
            ]
        },
        {
            "positions": [
                -0.026332871664049406,
                -2.1175237651650436,
                2.1334054241911145,
                -0.19206784703668706,
                0.7108769601086804,
                2.027212957395511
            ]
        },
        {
            "positions": [
                0.11078744089126946,
                -2.1759352324578574,
                2.1481445928187584,
                -0.1640182235545874,
                0.6473869910127976,
                1.9328683464855112
            ]
        },
        {
            "positions": [
                0.24790775344658833,
                -2.234346699750671,
                2.1628837614464027,
                -0.13596860007248768,
                0.5838970219169148,
                1.838523735575512
            ]
        },
        {
            "positions": [
                0.385028066001907,
                -2.2927581670434845,
                2.1776229300740466,
                -0.10791897659038802,
                0.5204070528210322,
                1.7441791246655125
            ]
        },
        {
            "positions": [
                0.5221483785572258,
                -2.3511696343362978,
                2.1923620987016905,
                -0.07986935310828835,
                0.4569170837251495,
                1.6498345137555133
            ]
        },
        {
            "positions": [
                0.6592686911125443,
                -2.4095811016291115,
                2.207101267329335,
                -0.05181972962618875,
                0.39342711462926694,
                1.555489902845514
            ]
        },
        {
            "positions": [
                0.7963890036678636,
                -2.4679925689219253,
                2.2218404359569788,
                -0.02377010614408903,
                0.32993714553338394,
                1.4611452919355143
            ]
        },
        {
            "positions": [
                0.933509316223182,
                -2.5264040362147386,
                2.236579604584623,
                0.0042795173380105744,
                0.2664471764375014,
                1.366800681025515
            ]
        },
        {
            "positions": [
                1.0706296287785013,
                -2.584815503507552,
                2.251318773212267,
                0.03232914082011029,
                0.20295720734161837,
                1.2724560701155156
            ]
        },
        {
            "positions": [
                1.2077499413338197,
                -2.6432269708003657,
                2.266057941839911,
                0.06037876430221001,
                0.13946723824573581,
                1.1781114592055164
            ]
        },
        {
            "positions": [
                1.3448702538891386,
                -2.7016384380931795,
                2.2807971104675553,
                0.08842838778430961,
                0.07597726914985325,
                1.0837668482955172
            ]
        },
        {
            "positions": [
                1.4819905664444575,
                -2.760049905385993,
                2.2955362790951996,
                0.11647801126640933,
                0.012487300053970252,
                0.9894222373855177
            ]
        },
        {
            "positions": [
                1.6191108789997763,
                -2.818461372678806,
                2.3102754477228435,
                0.14452763474850894,
                -0.05100266904191231,
                0.8950776264755183
            ]
        },
        {
            "positions": [
                1.7562311915550948,
                -2.87687283997162,
                2.3250146163504875,
                0.17257725823060854,
                -0.11449263813779509,
                0.8007330155655192
            ]
        },
        {
            "positions": [
                1.893351504110414,
                -2.9352843072644337,
                2.339753784978132,
                0.20062688171270826,
                -0.17798260723367787,
                0.7063884046555193
            ]
        },
        {
            "positions": [
                2.0304718166657327,
                -2.993695774557247,
                2.3544929536057757,
                0.22867650519480798,
                -0.24147257632956043,
                0.6120437937455203
            ]
        },
        {
            "positions": [
                2.1675921292210516,
                -3.0521072418500603,
                2.36923212223342,
                0.2567261286769077,
                -0.30496254542544343,
                0.5176991828355209
            ]
        },
        {
            "positions": [
                2.3047124417763705,
                -3.110518709142874,
                2.383971290861064,
                0.2847757521590073,
                -0.368452514521326,
                0.4233545719255214
            ]
        },
        {
            "positions": [
                2.150566451418445,
                -3.047698679509534,
                2.3718796098472184,
                0.24887395407607812,
                -0.33466130127110805,
                0.5106605283609805
            ]
        },
        {
            "positions": [
                1.9964204610605192,
                -2.9848786498761934,
                2.3597879288333727,
                0.21297215599314895,
                -0.30087008802089016,
                0.5979664847964395
            ]
        },
        {
            "positions": [
                1.8422744707025938,
                -2.9220586202428533,
                2.347696247819527,
                0.17707035791021974,
                -0.2670788747706722,
                0.6852724412318987
            ]
        },
        {
            "positions": [
                1.6881284803446681,
                -2.8592385906095132,
                2.3356045668056815,
                0.14116855982729057,
                -0.2332876615204543,
                0.7725783976673577
            ]
        },
        {
            "positions": [
                1.5339824899867425,
                -2.7964185609761727,
                2.323512885791836,
                0.10526676174436139,
                -0.19949644827023635,
                0.8598843541028168
            ]
        },
        {
            "positions": [
                1.379836499628817,
                -2.7335985313428326,
                2.31142120477799,
                0.06936496366143222,
                -0.16570523502001844,
                0.947190310538276
            ]
        },
        {
            "positions": [
                1.2256905092708912,
                -2.670778501709492,
                2.2993295237641442,
                0.03346316557850304,
                -0.13191402176980052,
                1.034496266973735
            ]
        },
        {
            "positions": [
                1.0715445189129658,
                -2.607958472076152,
                2.2872378427502986,
                -0.0024386325044261636,
                -0.0981228085195826,
                1.121802223409194
            ]
        },
        {
            "positions": [
                0.9173985285550399,
                -2.545138442442812,
                2.275146161736453,
                -0.03834043058735537,
                -0.06433159526936466,
                1.2091081798446532
            ]
        },
        {
            "positions": [
                0.7632525381971145,
                -2.4823184128094713,
                2.2630544807226074,
                -0.07424222867028452,
                -0.030540382019146717,
                1.2964141362801123
            ]
        },
        {
            "positions": [
                0.6091065478391888,
                -2.419498383176131,
                2.250962799708762,
                -0.11014402675321372,
                0.0032508312310712273,
                1.3837200927155715
            ]
        },
        {
            "positions": [
                0.4549605574812634,
                -2.356678353542791,
                2.238871118694916,
                -0.14604582483614287,
                0.037042044481289116,
                1.4710260491510305
            ]
        },
        {
            "positions": [
                0.30081456712333754,
                -2.2938583239094505,
                2.2267794376810706,
                -0.18194762291907207,
                0.07083325773150706,
                1.5583320055864895
            ]
        },
        {
            "positions": [
                0.1466685767654119,
                -2.2310382942761104,
                2.214687756667225,
                -0.21784942100200122,
                0.10462447098172495,
                1.6456379620219486
            ]
        },
        {
            "positions": [
                -0.007477413592513749,
                -2.1682182646427703,
                2.2025960756533793,
                -0.25375121908493037,
                0.13841568423194295,
                1.7329439184574078
            ]
        },
        {
            "positions": [
                -0.16162340395043895,
                -2.10539823500943,
                2.1905043946395333,
                -0.28965301716785963,
                0.17220689748216078,
                1.8202498748928668
            ]
        },
        {
            "positions": [
                -0.3157693943083646,
                -2.0425782053760897,
                2.1784127136256877,
                -0.3255548152507888,
                0.20599811073237873,
                1.9075558313283258
            ]
        },
        {
            "positions": [
                -0.4699153846662907,
                -1.9797581757427494,
                2.166321032611842,
                -0.36145661333371804,
                0.23978932398259667,
                1.994861787763785
            ]
        },
        {
            "positions": [
                -0.6240613750242159,
                -1.916938146109409,
                2.1542293515979964,
                -0.3973584114166472,
                0.2735805372328146,
                2.082167744199244
            ]
        },
        {
            "positions": [
                -0.7782073653821415,
                -1.854118116476069,
                2.142137670584151,
                -0.43326020949957633,
                0.30737175048303256,
                2.169473700634703
            ]
        },
        {
            "positions": [
                -0.9323533557400667,
                -1.7912980868427288,
                2.130045989570305,
                -0.4691620075825055,
                0.3411629637332504,
                2.256779657070162
            ]
        },
        {
            "positions": [
                -1.0864993460979928,
                -1.7284780572093883,
                2.1179543085564596,
                -0.5050638056654347,
                0.37495417698346845,
                2.3440856135056216
            ]
        },
        {
            "positions": [
                -1.2406453364559185,
                -1.6656580275760482,
                2.105862627542614,
                -0.5409656037483639,
                0.4087453902336863,
                2.4313915699410806
            ]
        },
        {
            "positions": [
                -1.3947913268138437,
                -1.6028379979427079,
                2.0937709465287684,
                -0.576867401831293,
                0.4425366034839042,
                2.5186975263765397
            ]
        },
        {
            "positions": [
                -1.5489373171717693,
                -1.5400179683093678,
                2.0816792655149228,
                -0.6127691999142222,
                0.47632781673412206,
                2.6060034828119987
            ]
        },
        {
            "positions": [
                -1.7030833075296954,
                -1.4771979386760272,
                2.069587584501077,
                -0.6486709979971514,
                0.5101190299843401,
                2.6933094392474577
            ]
        },
        {
            "positions": [
                -1.8572292978876206,
                -1.4143779090426871,
                2.057495903487231,
                -0.6845727960800806,
                0.543910243234558,
                2.7806153956829167
            ]
        },
        {
            "positions": [
                -2.0113752882455467,
                -1.3515578794093468,
                2.0454042224733855,
                -0.7204745941630097,
                0.5777014564847759,
                2.8679213521183757
            ]
        },
        {
            "positions": [
                -2.165521278603472,
                -1.2887378497760067,
                2.03331254145954,
                -0.7563763922459388,
                0.6114926697349938,
                2.9552273085538348
            ]
        },
        {
            "positions": [
                -2.319667268961398,
                -1.2259178201426661,
                2.0212208604456943,
                -0.792278190328868,
                0.6452838829852119,
                3.042533264989294
            ]
        },
        {
            "positions": [
                -2.4738132593193236,
                -1.163097790509326,
                2.0091291794318487,
                -0.8281799884117974,
                0.6790750962354297,
                3.1298392214247532
            ]
        }
    ]
}