{
    "goal": {
        "global_pose": {
            "orientation": {
                "w": -0.00223480608172531,
                "x": 0.0024358444001904467,
                "y": 0.7094548369677653,
                "z": -0.704743149386269
            },
            "position": {
                "x": 0.6205249238014221,
                "y": -0.6371506643295288,
                "z": 0.19426114857196808
            }
        },
        "name": "move_to_magneteinheit_B"
    },
    "id": "LBKPIECE_move_to_magneteinheit_B_78",
    "joint_names": [
        "shoulder_pan_joint",
        "shoulder_lift_joint",
        "elbow_joint",
        "wrist_1_joint",
        "wrist_2_joint",
        "wrist_3_joint"
    ],
    "metrics": {
        "cart_traj_len": 4.231706710783892,
        "distance_elbow_joint": 4.054995096878437,
        "distance_shoulder_lift_joint": 1.0120847720277937,
        "distance_shoulder_pan_joint": 4.793097243659123,
        "distance_wrist_1_joint": 2.733250697622215,
        "distance_wrist_2_joint": 1.9517219156181242,
        "distance_wrist_3_joint": 3.9156703193559563,
        "smoothness": 0.3982700854319873,
        "time": 0.21670743599999998,
        "traj_len": 4.29660564226712,
        "weighted_distance": 5.565710493469266
    },
    "planner": "LBKPIECE",
    "start": {
        "state": {
            "elbow_joint": 2.393587130804639,
            "shoulder_lift_joint": -1.9085141043513325,
            "shoulder_pan_joint": 0.7066247066698809,
            "wrist_1_joint": -0.4678290934590222,
            "wrist_2_joint": 0.7096259084215963,
            "wrist_3_joint": 3.147370379541726
        }
    },
    "waypoints": [
        {
            "positions": [
                0.7066247066698809,
                -1.9085141043513325,
                2.393587130804639,
                -0.4678290934590222,
                0.7096259084215963,
                3.147370379541726
            ]
        },
        {
            "positions": [
                0.6219690648318431,
                -1.8965723583756657,
                2.343733988916115,
                -0.3423957706700553,
                0.7080703443822225,
                3.032716654660006
            ]
        },
        {
            "positions": [
                0.5373134229938054,
                -1.884630612399999,
                2.2938808470275913,
                -0.21696244788108837,
                0.7065147803428486,
                2.9180629297782854
            ]
        },
        {
            "positions": [
                0.45265778115576755,
                -1.8726888664243322,
                2.2440277051390676,
                -0.09152912509212141,
                0.7049592163034748,
                2.8034092048965653
            ]
        },
        {
            "positions": [
                0.3680021393177298,
                -1.8607471204486654,
                2.194174563250544,
                0.03390419769684544,
                0.7034036522641011,
                2.688755480014845
            ]
        },
        {
            "positions": [
                0.28334649747969204,
                -1.8488053744729986,
                2.14432142136202,
                0.15933752048581235,
                0.7018480882247272,
                2.574101755133125
            ]
        },
        {
            "positions": [
                0.19869085564165423,
                -1.8368636284973319,
                2.0944682794734963,
                0.28477084327477936,
                0.7002925241853534,
                2.4594480302514046
            ]
        },
        {
            "positions": [
                0.11403521380361648,
                -1.8249218825216649,
                2.044615137584972,
                0.41020416606374627,
                0.6987369601459795,
                2.3447943053696845
            ]
        },
        {
            "positions": [
                0.02937957196557872,
                -1.812980136545998,
                1.9947619956964486,
                0.5356374888527131,
                0.6971813961066057,
                2.2301405804879644
            ]
        },
        {
            "positions": [
                -0.05527606987245903,
                -1.8010383905703313,
                1.9449088538079249,
                0.6610708116416801,
                0.6956258320672318,
                2.1154868556062443
            ]
        },
        {
            "positions": [
                -0.1399317117104968,
                -1.7890966445946646,
                1.8950557119194011,
                0.7865041344306469,
                0.694070268027858,
                2.0008331307245237
            ]
        },
        {
            "positions": [
                -0.22458735354853454,
                -1.7771548986189978,
                1.8452025700308772,
                0.9119374572196137,
                0.6925147039884841,
                1.8861794058428039
            ]
        },
        {
            "positions": [
                -0.3092429953865724,
                -1.765213152643331,
                1.7953494281423534,
                1.037370780008581,
                0.6909591399491104,
                1.7715256809610833
            ]
        },
        {
            "positions": [
                -0.39389863722461016,
                -1.7532714066676642,
                1.7454962862538297,
                1.1628041027975478,
                0.6894035759097366,
                1.6568719560793632
            ]
        },
        {
            "positions": [
                -0.4785542790626479,
                -1.7413296606919975,
                1.695643144365306,
                1.2882374255865148,
                0.6878480118703627,
                1.542218231197643
            ]
        },
        {
            "positions": [
                -0.5632099209006857,
                -1.7293879147163307,
                1.6457900024767822,
                1.4136707483754816,
                0.6862924478309889,
                1.4275645063159228
            ]
        },
        {
            "positions": [
                -0.42460620899270357,
                -1.7612363344441881,
                1.5575709711582468,
                1.3929453949549777,
                0.6440648886440626,
                1.355274360570133
            ]
        },
        {
            "positions": [
                -0.2860024970847215,
                -1.7930847541720456,
                1.4693519398397117,
                1.3722200415344739,
                0.6018373294571364,
                1.2829842148243429
            ]
        },
        {
            "positions": [
                -0.14739878517673938,
                -1.824933173899903,
                1.3811329085211765,
                1.35149468811397,
                0.5596097702702101,
                1.210694069078553
            ]
        },
        {
            "positions": [
                -0.00879507326875728,
                -1.8567815936277605,
                1.2929138772026412,
                1.330769334693466,
                0.517382211083284,
                1.138403923332763
            ]
        },
        {
            "positions": [
                0.12980863863922487,
                -1.888630013355618,
                1.2046948458841058,
                1.310043981272962,
                0.47515465189635764,
                1.0661137775869731
            ]
        },
        {
            "positions": [
                0.2684123505472069,
                -1.9204784330834754,
                1.1164758145655707,
                1.2893186278524582,
                0.4329270927094314,
                0.993823631841183
            ]
        },
        {
            "positions": [
                0.40701606245518906,
                -1.9523268528113331,
                1.0282567832470355,
                1.2685932744319544,
                0.39069953352250514,
                0.9215334860953931
            ]
        },
        {
            "positions": [
                0.5456197743631711,
                -1.9841752725391903,
                0.9400377519285001,
                1.2478679210114505,
                0.34847197433557897,
                0.8492433403496032
            ]
        },
        {
            "positions": [
                0.6842234862711533,
                -2.016023692267048,
                0.8518187206099649,
                1.2271425675909466,
                0.3062444151486527,
                0.7769531946038133
            ]
        },
        {
            "positions": [
                0.8228271981791354,
                -2.0478721119949057,
                0.7635996892914296,
                1.2064172141704428,
                0.2640168559617264,
                0.7046630488580233
            ]
        },
        {
            "positions": [
                0.9614309100871173,
                -2.0797205317227627,
                0.6753806579728944,
                1.185691860749939,
                0.22178929677480025,
                0.6323729031122334
            ]
        },
        {
            "positions": [
                1.1000346219950994,
                -2.1115689514506206,
                0.5871616266543591,
                1.164966507329435,
                0.17956173758787397,
                0.5600827573664434
            ]
        },
        {
            "positions": [
                1.2386383339030815,
                -2.1434173711784776,
                0.49894259533582397,
                1.144241153908931,
                0.13733417840094775,
                0.48779261162065357
            ]
        },
        {
            "positions": [
                1.3772420458110637,
                -2.1752657909063355,
                0.4107235640172886,
                1.1235158004884271,
                0.09510661921402142,
                0.4155024658748634
            ]
        },
        {
            "positions": [
                1.5158457577190458,
                -2.207114210634193,
                0.32250453269875345,
                1.1027904470679233,
                0.05287906002709519,
                0.34321232012907354
            ]
        },
        {
            "positions": [
                1.654449469627028,
                -2.2389626303620505,
                0.2342855013802181,
                1.0820650936474194,
                0.010651500840169081,
                0.2709221743832837
            ]
        },
        {
            "positions": [
                1.7930531815350101,
                -2.270811050089908,
                0.14606647006168272,
                1.0613397402269156,
                -0.03157605834675725,
                0.19863202863749363
            ]
        },
        {
            "positions": [
                1.9316568934429923,
                -2.3026594698177654,
                0.05784743874314757,
                1.0406143868064117,
                -0.07380361753368347,
                0.12634188289170378
            ]
        },
        {
            "positions": [
                2.070260605350974,
                -2.334507889545623,
                -0.030371592575387574,
                1.0198890333859079,
                -0.1160311767206097,
                0.054051737145913936
            ]
        },
        {
            "positions": [
                2.2088643172589566,
                -2.3663563092734803,
                -0.11859062389392294,
                0.9991636799654039,
                -0.15825873590753603,
                -0.018238408599876132
            ]
        },
        {
            "positions": [
                2.3474680291669383,
                -2.3982047290013377,
                -0.2068096552124583,
                0.9784383265449,
                -0.20048629509446214,
                -0.0905285543456662
            ]
        },
        {
            "positions": [
                2.4860717410749205,
                -2.430053148729195,
                -0.29502868653099346,
                0.9577129731243961,
                -0.24271385428138836,
                -0.16281870009145605
            ]
        },
        {
            "positions": [
                2.6246754529829026,
                -2.4619015684570527,
                -0.3832477178495286,
                0.9369876197038922,
                -0.2849414134683147,
                -0.23510884583724612
            ]
        },
        {
            "positions": [
                2.7632791648908848,
                -2.49374998818491,
                -0.4714667491680639,
                0.9162622662833884,
                -0.32716897265524103,
                -0.3073989915830359
            ]
        },
        {
            "positions": [
                2.7790940331879255,
                -2.5033198827324132,
                -0.6454753102472819,
                0.871871552864862,
                -0.34706480396309386,
                -0.3340401745462445
            ]
        },
        {
            "positions": [
                2.7949089014849666,
                -2.512889777279917,
                -0.8194838713264998,
                0.8274808394463357,
                -0.36696063527094663,
                -0.36068135750945307
            ]
        },
        {
            "positions": [
                2.8107237697820073,
                -2.52245967182742,
                -0.9934924324057176,
                0.7830901260278093,
                -0.38685646657879946,
                -0.3873225404726617
            ]
        },
        {
            "positions": [
                2.7874069543254874,
                -2.516504276188718,
                -1.1185938148713095,
                0.8066827468207669,
                -0.26751614964837533,
                -0.33609687608221034
            ]
        },
        {
            "positions": [
                2.764090138868967,
                -2.5105488805500165,
                -1.2436951973369015,
                0.8302753676137246,
                -0.14817583271795126,
                -0.284871211691759
            ]
        },
        {
            "positions": [
                2.740773323412447,
                -2.5045934849113145,
                -1.3687965798024935,
                0.8538679884066822,
                -0.028835515787527133,
                -0.23364554730130765
            ]
        },
        {
            "positions": [
                2.7209287036533714,
                -2.4990883253199154,
                -1.4419494263703196,
                0.8914660811719726,
                0.09546913166908687,
                -0.1768204457587537
            ]
        },
        {
            "positions": [
                2.7010840838942958,
                -2.493583165728516,
                -1.5151022729381458,
                0.9290641739372629,
                0.21977377912570087,
                -0.11999534421619974
            ]
        },
        {
            "positions": [
                2.6812394641352206,
                -2.4880780061371164,
                -1.588255119505972,
                0.9666622667025533,
                0.34407842658231486,
                -0.0631702426736458
            ]
        },
        {
            "positions": [
                2.661394844376145,
                -2.4825728465457173,
                -1.6614079660737981,
                1.0042603594678436,
                0.46838307403892887,
                -0.006345141131091822
            ]
        }
    ]
}