{
    "goal": {
        "global_pose": {
            "orientation": {
                "w": -0.00223480608172531,
                "x": 0.0024358444001904467,
                "y": 0.7094548369677653,
                "z": -0.704743149386269
            },
            "position": {
                "x": -0.37947507619857795,
                "y": -0.6371506643295288,
                "z": 0.19426114857196808
            }
        },
        "name": "move_to_magneteinheit_C"
    },
    "id": "LBKPIECE_move_to_magneteinheit_C_10",
    "joint_names": [
        "shoulder_pan_joint",
        "shoulder_lift_joint",
        "elbow_joint",
        "wrist_1_joint",
        "wrist_2_joint",
        "wrist_3_joint"
    ],
    "metrics": {
        "cart_traj_len": 1.4309277614604634,
        "distance_elbow_joint": 0.9419192577628224,
        "distance_shoulder_lift_joint": 0.9204964371179754,
        "distance_shoulder_pan_joint": 1.3407736016293768,
        "distance_wrist_1_joint": 0.5165840727601906,
        "distance_wrist_2_joint": 1.2116933172894278,
        "distance_wrist_3_joint": 2.445880727856511,
        "smoothness": 0.9373067010877741,
        "time": 0.381456719,
        "traj_len": 2.7161272824402585,
        "weighted_distance": 3.741308094795047
    },
    "planner": "LBKPIECE",
    "start": {
        "state": {
            "elbow_joint": 1.9565354006593851,
            "shoulder_lift_joint": -1.4165861576512813,
            "shoulder_pan_joint": -1.6717766223278752,
            "wrist_1_joint": -0.528663328821883,
            "wrist_2_joint": 1.472756589259273,
            "wrist_3_joint": 3.159348288315503
        }
    },
    "waypoints": [
        {
            "positions": [
                -1.6717766223278752,
                -1.4165861576512813,
                1.9565354006593851,
                -0.528663328821883,
                1.472756589259273,
                3.159348288315503
            ]
        },
        {
            "positions": [
                -1.6199444014384756,
                -1.4354877220004436,
                1.9697754904388547,
                -0.5109958682027574,
                1.483773943722794,
                2.993385964352653
            ]
        },
        {
            "positions": [
                -1.5681121805490763,
                -1.4543892863496062,
                1.9830155802183242,
                -0.49332840758363183,
                1.4947912981863145,
                2.827423640389802
            ]
        },
        {
            "positions": [
                -1.5266745604731438,
                -1.4808215259601318,
                1.8991375243075554,
                -0.4740037739152386,
                1.4631321153812977,
                2.6485029405116354
            ]
        },
        {
            "positions": [
                -1.485236940397211,
                -1.5072537655706575,
                1.8152594683967869,
                -0.4546791402468454,
                1.431472932576281,
                2.4695822406334687
            ]
        },
        {
            "positions": [
                -1.4437993203212782,
                -1.5336860051811831,
                1.731381412486018,
                -0.4353545065784522,
                1.3998137497712644,
                2.290661540755302
            ]
        },
        {
            "positions": [
                -1.4023617002453457,
                -1.5601182447917088,
                1.6475033565752493,
                -0.416029872910059,
                1.3681545669662476,
                2.111740840877135
            ]
        },
        {
            "positions": [
                -1.5698828227293702,
                -1.618224825523384,
                1.6602370812349792,
                -0.42240033933851184,
                1.3834773667462859,
                2.0144762301980963
            ]
        },
        {
            "positions": [
                -1.7374039452133947,
                -1.676331406255059,
                1.6729708058947093,
                -0.4287708057669647,
                1.3988001665263239,
                1.917211619519057
            ]
        },
        {
            "positions": [
                -1.859944558269946,
                -1.6949042255109,
                1.7487980381520751,
                -0.4440346824862033,
                1.4380228750780517,
                1.972382436593964
            ]
        },
        {
            "positions": [
                -1.9824851713264975,
                -1.713477044766741,
                1.8246252704094412,
                -0.45929855920544194,
                1.4772455836297795,
                2.027553253668871
            ]
        },
        {
            "positions": [
                -2.1050257843830487,
                -1.7320498640225819,
                1.9004525026668073,
                -0.47456243592468056,
                1.5164682921815071,
                2.0827240707437777
            ]
        },
        {
            "positions": [
                -2.2275663974396003,
                -1.7506226832784229,
                1.9762797349241732,
                -0.4898263126439192,
                1.555691000733235,
                2.137894887818685
            ]
        },
        {
            "positions": [
                -2.2635226311604337,
                -1.6995519161346209,
                2.0062833085743197,
                -0.5223413778296149,
                1.4948134292022497,
                2.252925113145449
            ]
        },
        {
            "positions": [
                -2.2994788648812676,
                -1.6484811489908187,
                2.036286882224466,
                -0.5548564430153107,
                1.4339358576712642,
                2.3679553384722127
            ]
        },
        {
            "positions": [
                -2.335435098602101,
                -1.5974103818470167,
                2.0662904558746122,
                -0.5873715082010064,
                1.373058286140279,
                2.4829855637989766
            ]
        },
        {
            "positions": [
                -2.3713913323229345,
                -1.5463396147032147,
                2.0962940295247585,
                -0.6198865733867021,
                1.3121807146092936,
                2.5980157891257405
            ]
        },
        {
            "positions": [
                -2.3962780341035854,
                -1.4974196169683325,
                2.1071577815371736,
                -0.6493981108594135,
                1.2432002045882868,
                2.689562212213799
            ]
        },
        {
            "positions": [
                -2.4211647358842368,
                -1.4484996192334503,
                2.118021533549589,
                -0.6789096483321249,
                1.17421969456728,
                2.781108635301857
            ]
        },
        {
            "positions": [
                -2.434303646861226,
                -1.377415407371985,
                2.090669364152972,
                -0.7141773586887,
                1.0507161602649358,
                2.8660703961211733
            ]
        },
        {
            "positions": [
                -2.447442557838215,
                -1.3063311955105197,
                2.0633171947563547,
                -0.7494450690452752,
                0.9272126259625915,
                2.9510321569404896
            ]
        },
        {
            "positions": [
                -2.460581468815204,
                -1.2352469836490543,
                2.035965025359738,
                -0.7847127794018504,
                0.8037090916602471,
                3.0359939177598054
            ]
        },
        {
            "positions": [
                -2.473720379792193,
                -1.164162771787589,
                2.0086128559631207,
                -0.8199804897584255,
                0.6802055573579028,
                3.1209556785791217
            ]
        }
    ]
}