{
    "goal": {
        "global_pose": {
            "orientation": {
                "w": 0.7031023502349854,
                "x": -0.7110244035720825,
                "y": 0.007748599164187908,
                "z": 0.005598929710686207
            },
            "position": {
                "x": 0.11585023208521307,
                "y": 0.44412534475326537,
                "z": 0.3711530566215515
            }
        },
        "name": "move_to_auspresseinheit_A"
    },
    "id": "LBKPIECE_move_to_auspresseinheit_A_82",
    "joint_names": [
        "shoulder_pan_joint",
        "shoulder_lift_joint",
        "elbow_joint",
        "wrist_1_joint",
        "wrist_2_joint",
        "wrist_3_joint"
    ],
    "metrics": {
        "cart_traj_len": 3.0213891678600433,
        "distance_elbow_joint": 0.8678848355756426,
        "distance_shoulder_lift_joint": 2.99718927214416,
        "distance_shoulder_pan_joint": 2.570729534929053,
        "distance_wrist_1_joint": 7.921785862860191,
        "distance_wrist_2_joint": 4.785711337721325,
        "distance_wrist_3_joint": 11.99116237187033,
        "smoothness": 0.44656859307949287,
        "time": 0.847411966,
        "traj_len": 5.579826450267129,
        "weighted_distance": 8.23555008238204
    },
    "planner": "LBKPIECE",
    "start": {
        "state": {
            "elbow_joint": 2.4225746994637096,
            "shoulder_lift_joint": -1.373653595662188,
            "shoulder_pan_joint": -0.3378633848294565,
            "wrist_1_joint": -1.0288595594406726,
            "wrist_2_joint": 1.2330228066703421,
            "wrist_3_joint": 3.189163495502006
        }
    },
    "waypoints": [
        {
            "positions": [
                -0.3378633848294565,
                -1.373653595662188,
                2.4225746994637096,
                -1.0288595594406726,
                1.2330228066703421,
                3.189163495502006
            ]
        },
        {
            "positions": [
                -0.29580060105334893,
                -1.4147088648806565,
                2.412135423251357,
                -0.9301270857582197,
                1.1714200070867882,
                3.04908611904503
            ]
        },
        {
            "positions": [
                -0.25373781727724143,
                -1.4557641340991252,
                2.401696147039005,
                -0.8313946120757666,
                1.1098172075032342,
                2.9090087425880538
            ]
        },
        {
            "positions": [
                -0.21167503350113384,
                -1.4968194033175937,
                2.3912568708266524,
                -0.7326621383933136,
                1.04821440791968,
                2.7689313661310777
            ]
        },
        {
            "positions": [
                -0.1696122497250263,
                -1.5378746725360624,
                2.3808175946143,
                -0.6339296647108605,
                0.986611608336126,
                2.628853989674102
            ]
        },
        {
            "positions": [
                -0.12754946594891875,
                -1.5789299417545308,
                2.370378318401947,
                -0.5351971910284076,
                0.9250088087525721,
                2.488776613217126
            ]
        },
        {
            "positions": [
                -0.08548668217281119,
                -1.6199852109729993,
                2.3599390421895947,
                -0.4364647173459546,
                0.8634060091690181,
                2.34869923676015
            ]
        },
        {
            "positions": [
                -0.04342389839670363,
                -1.661040480191468,
                2.3494997659772423,
                -0.3377322436635015,
                0.801803209585464,
                2.208621860303174
            ]
        },
        {
            "positions": [
                -0.0013611146205961266,
                -1.7020957494099365,
                2.33906048976489,
                -0.23899976998104855,
                0.74020041000191,
                2.068544483846198
            ]
        },
        {
            "positions": [
                0.04070166915551143,
                -1.7431510186284052,
                2.3286212135525375,
                -0.14026729629859547,
                0.678597610418356,
                1.9284671073892221
            ]
        },
        {
            "positions": [
                0.08276445293161899,
                -1.7842062878468736,
                2.318181937340185,
                -0.0415348226161425,
                0.616994810834802,
                1.788389730932246
            ]
        },
        {
            "positions": [
                0.12482723670772655,
                -1.825261557065342,
                2.3077426611278327,
                0.057197651066310584,
                0.5553920112512479,
                1.64831235447527
            ]
        },
        {
            "positions": [
                0.1668900204838341,
                -1.8663168262838106,
                2.2973033849154803,
                0.15593012474876344,
                0.49378921166769396,
                1.5082349780182942
            ]
        },
        {
            "positions": [
                0.20895280425994162,
                -1.907372095502279,
                2.286864108703128,
                0.2546625984312165,
                0.43218641208414,
                1.3681576015613184
            ]
        },
        {
            "positions": [
                0.25101558803604923,
                -1.948427364720748,
                2.276424832490775,
                0.3533950721136696,
                0.3705836125005859,
                1.2280802251043421
            ]
        },
        {
            "positions": [
                0.29307837181215673,
                -1.9894826339392164,
                2.2659855562784226,
                0.4521275457961227,
                0.30898081291703194,
                1.088002848647366
            ]
        },
        {
            "positions": [
                0.33514115558826424,
                -2.030537903157685,
                2.25554628006607,
                0.5508600194785755,
                0.24737801333347786,
                0.9479254721903905
            ]
        },
        {
            "positions": [
                0.37720393936437174,
                -2.0715931723761534,
                2.2451070038537178,
                0.6495924931610284,
                0.185775213749924,
                0.8078480957334144
            ]
        },
        {
            "positions": [
                0.41926672314047936,
                -2.1126484415946223,
                2.2346677276413653,
                0.7483249668434817,
                0.12417241416636982,
                0.6677707192764384
            ]
        },
        {
            "positions": [
                0.461329506916587,
                -2.1537037108130903,
                2.224228451429013,
                0.8470574405259346,
                0.06256961458281585,
                0.5276933428194623
            ]
        },
        {
            "positions": [
                0.5033922906926944,
                -2.1947589800315592,
                2.2137891752166605,
                0.9457899142083876,
                0.000966814999261878,
                0.3876159663624863
            ]
        },
        {
            "positions": [
                0.545455074468802,
                -2.2358142492500277,
                2.203349899004308,
                1.0445223878908405,
                -0.06063598458429209,
                0.2475385899055107
            ]
        },
        {
            "positions": [
                0.5875178582449097,
                -2.276869518468496,
                2.1929106227919553,
                1.1432548615732938,
                -0.12223878416784628,
                0.10746121344853421
            ]
        },
        {
            "positions": [
                0.629580642021017,
                -2.3179247876869646,
                2.182471346579603,
                1.2419873352557467,
                -0.18384158375140003,
                -0.03261616300844139
            ]
        },
        {
            "positions": [
                0.6716434257971247,
                -2.358980056905433,
                2.1720320703672504,
                1.3407198089381995,
                -0.24544438333495422,
                -0.17269353946541743
            ]
        },
        {
            "positions": [
                0.7137062095732323,
                -2.400035326123902,
                2.161592794154898,
                1.4394522826206528,
                -0.3070471829185084,
                -0.3127709159223935
            ]
        },
        {
            "positions": [
                0.7557689933493397,
                -2.44109059534237,
                2.1511535179425456,
                1.5381847563031057,
                -0.36864998250206216,
                -0.4528482923793691
            ]
        },
        {
            "positions": [
                0.7978317771254473,
                -2.482145864560839,
                2.140714241730193,
                1.6369172299855586,
                -0.43025278208561635,
                -0.5929256688363456
            ]
        },
        {
            "positions": [
                0.8398945609015549,
                -2.523201133779308,
                2.130274965517841,
                1.7356497036680119,
                -0.4918555816691703,
                -0.7330030452933216
            ]
        },
        {
            "positions": [
                0.8819573446776623,
                -2.564256402997776,
                2.1198356893054884,
                1.8343821773504647,
                -0.5534583812527243,
                -0.8730804217502972
            ]
        },
        {
            "positions": [
                0.9240201284537699,
                -2.605311672216245,
                2.109396413093136,
                1.933114651032918,
                -0.6150611808362783,
                -1.0131577982072737
            ]
        },
        {
            "positions": [
                0.9660829122298773,
                -2.646366941434713,
                2.0989571368807836,
                2.0318471247153704,
                -0.6766639804198322,
                -1.1532351746642493
            ]
        },
        {
            "positions": [
                1.008145696005985,
                -2.6874222106531818,
                2.0885178606684307,
                2.1305795983978237,
                -0.7382667800033864,
                -1.293312551121225
            ]
        },
        {
            "positions": [
                1.0502084797820925,
                -2.7284774798716507,
                2.0780785844560783,
                2.229312072080277,
                -0.7998695795869404,
                -1.4333899275782014
            ]
        },
        {
            "positions": [
                1.0922712635582,
                -2.7695327490901187,
                2.067639308243726,
                2.3280445457627295,
                -0.8614723791704941,
                -1.573467304035177
            ]
        },
        {
            "positions": [
                1.1343340473343075,
                -2.8105880183085876,
                2.0572000320313735,
                2.4267770194451828,
                -0.9230751787540483,
                -1.7135446804921535
            ]
        },
        {
            "positions": [
                1.1763968311104152,
                -2.851643287527056,
                2.046760755819021,
                2.525509493127636,
                -0.9846779783376025,
                -1.853622056949129
            ]
        },
        {
            "positions": [
                1.2184596148865228,
                -2.8926985567455246,
                2.0363214796066686,
                2.624241966810089,
                -1.0462807779211563,
                -1.9936994334061047
            ]
        },
        {
            "positions": [
                1.2605223986626304,
                -2.933753825963993,
                2.0258822033943162,
                2.722974440492542,
                -1.1078835775047104,
                -2.133776809863081
            ]
        },
        {
            "positions": [
                1.3025851824387378,
                -2.9748090951824615,
                2.0154429271819634,
                2.8217069141749946,
                -1.1694863770882642,
                -2.2738541863200568
            ]
        },
        {
            "positions": [
                1.3446479662148454,
                -3.0158643644009304,
                2.005003650969611,
                2.920439387857448,
                -1.2310891766718184,
                -2.4139315627770332
            ]
        },
        {
            "positions": [
                1.386710749990953,
                -3.0569196336193984,
                1.9945643747572586,
                3.0191718615399012,
                -1.2926919762553726,
                -2.554008939234009
            ]
        },
        {
            "positions": [
                1.4287735337670604,
                -3.0979749028378674,
                1.9841250985449062,
                3.1179043352223537,
                -1.3542947758389263,
                -2.6940863156909844
            ]
        },
        {
            "positions": [
                1.470836317543168,
                -3.139030172056336,
                1.9736858223325537,
                3.216636808904807,
                -1.4158975754224805,
                -2.8341636921479614
            ]
        },
        {
            "positions": [
                1.4496688221943783,
                -3.1048131527299465,
                1.9853245989560118,
                3.114517656279398,
                -1.3565422710994666,
                -2.668390492586285
            ]
        },
        {
            "positions": [
                1.4285013268455888,
                -3.070596133403557,
                1.9969633755794696,
                3.0123985036539898,
                -1.2971869667764524,
                -2.5026172930246084
            ]
        },
        {
            "positions": [
                1.4073338314967991,
                -3.0363791140771683,
                2.008602152202928,
                2.910279351028581,
                -1.2378316624534385,
                -2.336844093462932
            ]
        },
        {
            "positions": [
                1.3861663361480094,
                -3.002162094750779,
                2.0202409288263854,
                2.8081601984031725,
                -1.1784763581304245,
                -2.171070893901256
            ]
        },
        {
            "positions": [
                1.3649988407992197,
                -2.9679450754243897,
                2.0318797054498434,
                2.7060410457777637,
                -1.1191210538074103,
                -2.0052976943395793
            ]
        },
        {
            "positions": [
                1.3438313454504303,
                -2.9337280560980004,
                2.0435184820733014,
                2.6039218931523553,
                -1.0597657494843964,
                -1.839524494777903
            ]
        },
        {
            "positions": [
                1.3226638501016406,
                -2.899511036771611,
                2.0551572586967595,
                2.5018027405269465,
                -1.0004104451613824,
                -1.6737512952162266
            ]
        },
        {
            "positions": [
                1.3014963547528509,
                -2.865294017445222,
                2.0667960353202175,
                2.3996835879015377,
                -0.9410551408383684,
                -1.5079780956545503
            ]
        },
        {
            "positions": [
                1.2803288594040612,
                -2.831076998118833,
                2.0784348119436755,
                2.2975644352761293,
                -0.8816998365153543,
                -1.3422048960928739
            ]
        },
        {
            "positions": [
                1.2591613640552717,
                -2.7968599787924435,
                2.0900735885671335,
                2.1954452826507205,
                -0.8223445321923403,
                -1.1764316965311974
            ]
        },
        {
            "positions": [
                1.237993868706482,
                -2.762642959466054,
                2.1017123651905916,
                2.0933261300253116,
                -0.7629892278693262,
                -1.010658496969521
            ]
        },
        {
            "positions": [
                1.2168263733576923,
                -2.7284259401396653,
                2.113351141814049,
                1.9912069773999033,
                -0.7036339235463123,
                -0.8448852974078447
            ]
        },
        {
            "positions": [
                1.1956588780089028,
                -2.694208920813276,
                2.124989918437507,
                1.8890878247744947,
                -0.6442786192232982,
                -0.6791120978461684
            ]
        },
        {
            "positions": [
                1.174491382660113,
                -2.6599919014868867,
                2.136628695060965,
                1.786968672149086,
                -0.5849233149002843,
                -0.5133388982844918
            ]
        },
        {
            "positions": [
                1.1533238873113234,
                -2.6257748821604974,
                2.1482674716844232,
                1.6848495195236772,
                -0.5255680105772702,
                -0.3475656987228155
            ]
        },
        {
            "positions": [
                1.1321563919625337,
                -2.591557862834108,
                2.1599062483078812,
                1.5827303668982688,
                -0.46621270625425626,
                -0.18179249916113926
            ]
        },
        {
            "positions": [
                1.110988896613744,
                -2.5573408435077187,
                2.1715450249313393,
                1.48061121427286,
                -0.4068574019312421,
                -0.016019299599462578
            ]
        },
        {
            "positions": [
                1.0898214012649545,
                -2.52312382418133,
                2.1831838015547973,
                1.3784920616474514,
                -0.34750209760822814,
                0.14975389996221367
            ]
        },
        {
            "positions": [
                1.0686539059161648,
                -2.4889068048549405,
                2.194822578178255,
                1.2763729090220428,
                -0.2881467932852142,
                0.3155270995238899
            ]
        },
        {
            "positions": [
                1.0474864105673751,
                -2.454689785528551,
                2.206461354801713,
                1.174253756396634,
                -0.22879148896220003,
                0.4813002990855666
            ]
        },
        {
            "positions": [
                1.0263189152185856,
                -2.420472766202162,
                2.218100131425171,
                1.0721346037712252,
                -0.16943618463918608,
                0.6470734986472428
            ]
        },
        {
            "positions": [
                1.005151419869796,
                -2.386255746875773,
                2.229738908048629,
                0.9700154511458168,
                -0.11008088031617191,
                0.8128466982089195
            ]
        },
        {
            "positions": [
                0.9839839245210062,
                -2.3520387275493837,
                2.241377684672087,
                0.8678962985204084,
                -0.05072557599315819,
                0.9786198977705953
            ]
        },
        {
            "positions": [
                0.9628164291722167,
                -2.3178217082229944,
                2.253016461295545,
                0.7657771458949996,
                0.008629728329855979,
                1.144393097332272
            ]
        },
        {
            "positions": [
                0.941648933823427,
                -2.283604688896605,
                2.264655237919003,
                0.6636579932695912,
                0.06798503265286993,
                1.3101662968939483
            ]
        },
        {
            "positions": [
                0.9204814384746374,
                -2.2493876695702157,
                2.2762940145424606,
                0.5615388406441824,
                0.1273403369758841,
                1.4759394964556245
            ]
        },
        {
            "positions": [
                0.8993139431258477,
                -2.2151706502438264,
                2.2879327911659186,
                0.45941968801877353,
                0.18669564129889804,
                1.6417126960173016
            ]
        },
        {
            "positions": [
                0.8781464477770581,
                -2.1809536309174375,
                2.2995715677893767,
                0.35730053539336515,
                0.246050945621912,
                1.8074858955789779
            ]
        },
        {
            "positions": [
                0.8569789524282684,
                -2.1467366115910482,
                2.3112103444128347,
                0.2551813827679563,
                0.30540624994492616,
                1.9732590951406541
            ]
        },
        {
            "positions": [
                0.8358114570794788,
                -2.112519592264659,
                2.3228491210362927,
                0.1530622301425475,
                0.3647615542679401,
                2.1390322947023304
            ]
        },
        {
            "positions": [
                0.8146439617306891,
                -2.07830257293827,
                2.3344878976597507,
                0.05094307751713911,
                0.42411685859095427,
                2.3048054942640066
            ]
        },
        {
            "positions": [
                0.7934764663818995,
                -2.0440855536118807,
                2.3461266742832088,
                -0.05117607510826927,
                0.483472162913968,
                2.470578693825683
            ]
        },
        {
            "positions": [
                0.7723089710331099,
                -2.0098685342854914,
                2.3577654509066663,
                -0.1532952277336781,
                0.5428274672369822,
                2.636351893387359
            ]
        },
        {
            "positions": [
                0.7511414756843202,
                -1.975651514959102,
                2.3694042275301244,
                -0.2554143803590869,
                0.6021827715599963,
                2.8021250929490362
            ]
        },
        {
            "positions": [
                0.7299739803355306,
                -1.941434495632713,
                2.3810430041535824,
                -0.3575335329844953,
                0.6615380758830103,
                2.9678982925107125
            ]
        },
        {
            "positions": [
                0.7088064849867409,
                -1.9072174763063237,
                2.3926817807770404,
                -0.45965268560990424,
                0.720893380206024,
                3.1336714920723883
            ]
        }
    ]
}