{
    "goal": {
        "global_pose": {
            "orientation": {
                "w": 0.7031023502349854,
                "x": -0.7110244035720825,
                "y": 0.007748599164187908,
                "z": 0.005598929710686207
            },
            "position": {
                "x": 0.11585023208521307,
                "y": 0.44412534475326537,
                "z": 0.3711530566215515
            }
        },
        "name": "move_to_auspresseinheit_A"
    },
    "id": "LBKPIECE_move_to_auspresseinheit_A_67",
    "joint_names": [
        "shoulder_pan_joint",
        "shoulder_lift_joint",
        "elbow_joint",
        "wrist_1_joint",
        "wrist_2_joint",
        "wrist_3_joint"
    ],
    "metrics": {
        "cart_traj_len": 5.902844975948917,
        "distance_elbow_joint": 8.15422636174976,
        "distance_shoulder_lift_joint": 0.5700293622615284,
        "distance_shoulder_pan_joint": 1.0417721376675466,
        "distance_wrist_1_joint": 1.9489752884021814,
        "distance_wrist_2_joint": 0.7624183886589967,
        "distance_wrist_3_joint": 2.8464414149375052,
        "smoothness": 0.8922799713767121,
        "time": 0.52534997,
        "traj_len": 3.9145705963333346,
        "weighted_distance": 4.871153812046351
    },
    "planner": "LBKPIECE",
    "start": {
        "state": {
            "elbow_joint": 2.4225746994637096,
            "shoulder_lift_joint": -1.373653595662188,
            "shoulder_pan_joint": -0.3378633848294565,
            "wrist_1_joint": -1.0288595594406726,
            "wrist_2_joint": 1.2330228066703421,
            "wrist_3_joint": 3.189163495502006
        }
    },
    "waypoints": [
        {
            "positions": [
                -0.3378633848294565,
                -1.373653595662188,
                2.4225746994637096,
                -1.0288595594406726,
                1.2330228066703421,
                3.189163495502006
            ]
        },
        {
            "positions": [
                -0.313677725579243,
                -1.3974127306584434,
                2.2180105202329923,
                -0.971145891130697,
                1.2201352648199524,
                3.1168186510712053
            ]
        },
        {
            "positions": [
                -0.2894920663290295,
                -1.421171865654699,
                2.0134463410022745,
                -0.9134322228207215,
                1.2072477229695624,
                3.0444738066404047
            ]
        },
        {
            "positions": [
                -0.26530640707881603,
                -1.4449310006509544,
                1.8088821617715574,
                -0.855718554510746,
                1.1943601811191726,
                2.9721289622096037
            ]
        },
        {
            "positions": [
                -0.24112074782860254,
                -1.4686901356472097,
                1.6043179825408398,
                -0.7980048862007704,
                1.1814726392687829,
                2.899784117778803
            ]
        },
        {
            "positions": [
                -0.21693508857838906,
                -1.492449270643465,
                1.3997538033101224,
                -0.7402912178907948,
                1.1685850974183931,
                2.8274392733480025
            ]
        },
        {
            "positions": [
                -0.1927494293281756,
                -1.5162084056397207,
                1.195189624079405,
                -0.6825775495808193,
                1.1556975555680031,
                2.755094428917202
            ]
        },
        {
            "positions": [
                -0.1685637700779621,
                -1.539967540635976,
                0.9906254448486878,
                -0.6248638812708436,
                1.1428100137176134,
                2.6827495844864013
            ]
        },
        {
            "positions": [
                -0.1443781108277486,
                -1.5637266756322314,
                0.78606126561797,
                -0.5671502129608681,
                1.1299224718672236,
                2.6104047400556003
            ]
        },
        {
            "positions": [
                -0.12019245157753514,
                -1.587485810628487,
                0.5814970863872526,
                -0.5094365446508925,
                1.1170349300168336,
                2.5380598956247997
            ]
        },
        {
            "positions": [
                -0.09600679232732165,
                -1.6112449456247424,
                0.37693290715653527,
                -0.4517228763409169,
                1.1041473881664439,
                2.465715051193999
            ]
        },
        {
            "positions": [
                -0.07182113307710813,
                -1.6350040806209978,
                0.17236872792581748,
                -0.3940092080309413,
                1.091259846316054,
                2.3933702067631986
            ]
        },
        {
            "positions": [
                -0.0476354738268947,
                -1.6587632156172534,
                -0.032195451304899425,
                -0.3362955397209658,
                1.0783723044656641,
                2.321025362332398
            ]
        },
        {
            "positions": [
                -0.02344981457668116,
                -1.6825223506135087,
                -0.23675963053561722,
                -0.2785818714109901,
                1.0654847626152744,
                2.248680517901597
            ]
        },
        {
            "positions": [
                0.000735844673532271,
                -1.7062814856097641,
                -0.4413238097663341,
                -0.22086820310101463,
                1.0525972207648846,
                2.1763356734707964
            ]
        },
        {
            "positions": [
                0.024921503923745758,
                -1.7300406206060197,
                -0.6458879889970519,
                -0.16315453479103903,
                1.0397096789144946,
                2.103990829039996
            ]
        },
        {
            "positions": [
                0.0491071631739593,
                -1.753799755602275,
                -0.8504521682277697,
                -0.10544086648106343,
                1.0268221370641049,
                2.031645984609195
            ]
        },
        {
            "positions": [
                0.07329282242417273,
                -1.7775588905985304,
                -1.0550163474584866,
                -0.04772719817108795,
                1.013934595213715,
                1.9593011401783944
            ]
        },
        {
            "positions": [
                0.09747848167438622,
                -1.801318025594786,
                -1.2595805266892044,
                0.009986470138887649,
                1.0010470533633253,
                1.8869562957475938
            ]
        },
        {
            "positions": [
                0.1216641409245997,
                -1.8250771605910412,
                -1.4641447059199213,
                0.06770013844886313,
                0.9881595115129355,
                1.8146114513167932
            ]
        },
        {
            "positions": [
                0.1458498001748132,
                -1.8488362955872968,
                -1.6687088851506395,
                0.12541380675883884,
                0.9752719696625456,
                1.7422666068859924
            ]
        },
        {
            "positions": [
                0.16984927775579045,
                -1.8530876469532236,
                -1.4448310470522021,
                0.08676278271833687,
                0.9536569330408619,
                1.8094107322505344
            ]
        },
        {
            "positions": [
                0.19384875533676774,
                -1.8573389983191506,
                -1.2209532089537647,
                0.048111758677834904,
                0.9320418964191781,
                1.8765548576150763
            ]
        },
        {
            "positions": [
                0.217848232917745,
                -1.8615903496850774,
                -0.9970753708553274,
                0.009460734637332935,
                0.9104268597974944,
                1.9436989829796183
            ]
        },
        {
            "positions": [
                0.24184771049872228,
                -1.8658417010510042,
                -0.77319753275689,
                -0.029190289403169034,
                0.8888118231758106,
                2.0108431083441602
            ]
        },
        {
            "positions": [
                0.26584718807969954,
                -1.8700930524169312,
                -0.5493196946584524,
                -0.067841313443671,
                0.8671967865541268,
                2.0779872337087024
            ]
        },
        {
            "positions": [
                0.2898466656606768,
                -1.874344403782858,
                -0.32544185656001523,
                -0.10649233748417297,
                0.8455817499324432,
                2.145131359073244
            ]
        },
        {
            "positions": [
                0.31384614324165405,
                -1.8785957551487849,
                -0.10156401846157781,
                -0.14514336152467494,
                0.8239667133107593,
                2.212275484437786
            ]
        },
        {
            "positions": [
                0.33784562082263137,
                -1.8828471065147119,
                0.12231381963685961,
                -0.1837943855651769,
                0.8023516766890756,
                2.279419609802328
            ]
        },
        {
            "positions": [
                0.3618450984036086,
                -1.8870984578806387,
                0.34619165773529703,
                -0.22244540960567888,
                0.7807366400673919,
                2.3465637351668702
            ]
        },
        {
            "positions": [
                0.3858445759845859,
                -1.8913498092465655,
                0.5700694958337347,
                -0.26109643364618085,
                0.7591216034457081,
                2.413707860531412
            ]
        },
        {
            "positions": [
                0.4098440535655632,
                -1.8956011606124925,
                0.7939473339321719,
                -0.29974745768668287,
                0.7375065668240244,
                2.480851985895954
            ]
        },
        {
            "positions": [
                0.4338435311465404,
                -1.8998525119784193,
                1.017825172030609,
                -0.3383984817271848,
                0.7158915302023406,
                2.547996111260496
            ]
        },
        {
            "positions": [
                0.4578430087275177,
                -1.9041038633443461,
                1.2417030101290467,
                -0.3770495057676867,
                0.6942764935806569,
                2.615140236625038
            ]
        },
        {
            "positions": [
                0.48184248630849497,
                -1.9083552147102731,
                1.465580848227484,
                -0.4157005298081887,
                0.6726614569589731,
                2.6822843619895798
            ]
        },
        {
            "positions": [
                0.5058419638894722,
                -1.9126065660762,
                1.6894586863259216,
                -0.45435155384869075,
                0.6510464203372893,
                2.7494284873541215
            ]
        },
        {
            "positions": [
                0.5298414414704495,
                -1.9168579174421267,
                1.9133365244243588,
                -0.49300257788919266,
                0.6294313837156056,
                2.8165726127186637
            ]
        },
        {
            "positions": [
                0.5538409190514268,
                -1.9211092688080538,
                2.137214362522796,
                -0.5316536019296946,
                0.6078163470939218,
                2.883716738083206
            ]
        },
        {
            "positions": [
                0.577840396632404,
                -1.9253606201739806,
                2.3610922006212336,
                -0.5703046259701966,
                0.5862013104722381,
                2.9508608634477476
            ]
        },
        {
            "positions": [
                0.640874574735247,
                -1.9161994512991125,
                2.3776630463030015,
                -0.5208128812333795,
                0.6439997567026845,
                3.046335998327616
            ]
        },
        {
            "positions": [
                0.70390875283809,
                -1.9070382824242447,
                2.3942338919847694,
                -0.47132113649656254,
                0.7017982029331308,
                3.1418111332074843
            ]
        }
    ]
}