{
    "goal": {
        "global_pose": {
            "orientation": {
                "w": -0.00223480608172531,
                "x": 0.0024358444001904467,
                "y": 0.7094548369677653,
                "z": -0.704743149386269
            },
            "position": {
                "x": -0.37947507619857795,
                "y": -0.6371506643295288,
                "z": 0.19426114857196808
            }
        },
        "name": "move_to_magneteinheit_C"
    },
    "id": "LBKPIECE_move_to_magneteinheit_C_62",
    "joint_names": [
        "shoulder_pan_joint",
        "shoulder_lift_joint",
        "elbow_joint",
        "wrist_1_joint",
        "wrist_2_joint",
        "wrist_3_joint"
    ],
    "metrics": {
        "cart_traj_len": 1.2973876572571983,
        "distance_elbow_joint": 0.8229398996909241,
        "distance_shoulder_lift_joint": 0.8114530202688317,
        "distance_shoulder_pan_joint": 1.406340831048069,
        "distance_wrist_1_joint": 1.7485233774732123,
        "distance_wrist_2_joint": 1.3674901306034224,
        "distance_wrist_3_joint": 1.4058843355932282,
        "smoothness": 1.5217436980032857,
        "time": 0.14335135200000002,
        "traj_len": 2.75002392620095,
        "weighted_distance": 3.672929862377007
    },
    "planner": "LBKPIECE",
    "start": {
        "state": {
            "elbow_joint": 1.9565354006593851,
            "shoulder_lift_joint": -1.4165861576512813,
            "shoulder_pan_joint": -1.6717766223278752,
            "wrist_1_joint": -0.528663328821883,
            "wrist_2_joint": 1.472756589259273,
            "wrist_3_joint": 3.159348288315503
        }
    },
    "waypoints": [
        {
            "positions": [
                -1.6717766223278752,
                -1.4165861576512813,
                1.9565354006593851,
                -0.528663328821883,
                1.472756589259273,
                3.159348288315503
            ]
        },
        {
            "positions": [
                -1.5755351997531584,
                -1.4098550966211745,
                1.9541864972746599,
                -0.5212009435562792,
                1.5236984937738287,
                3.0034754220227136
            ]
        },
        {
            "positions": [
                -1.4792937771784416,
                -1.4031240355910675,
                1.9518375938899346,
                -0.5137385582906754,
                1.5746403982883843,
                2.8476025557299236
            ]
        },
        {
            "positions": [
                -1.3830523546037248,
                -1.3963929745609607,
                1.9494886905052093,
                -0.5062761730250716,
                1.62558230280294,
                2.691729689437134
            ]
        },
        {
            "positions": [
                -1.4584004216090785,
                -1.4293748355713878,
                1.942871766808109,
                -0.6183502125925117,
                1.4981516860120472,
                2.6569254009159784
            ]
        },
        {
            "positions": [
                -1.5337484886144321,
                -1.462356696581815,
                1.9362548431110085,
                -0.7304242521599518,
                1.3707210692211542,
                2.6221211123948223
            ]
        },
        {
            "positions": [
                -1.609096555619786,
                -1.4953385575922422,
                1.9296379194139082,
                -0.842498291727392,
                1.2432904524302615,
                2.5873168238736666
            ]
        },
        {
            "positions": [
                -1.6844446226251397,
                -1.5283204186026693,
                1.9230209957168078,
                -0.954572331294832,
                1.1158598356393687,
                2.5525125353525104
            ]
        },
        {
            "positions": [
                -1.7597926896304936,
                -1.5613022796130966,
                1.9164040720197075,
                -1.0666463708622722,
                0.9884292188484759,
                2.5177082468313547
            ]
        },
        {
            "positions": [
                -1.8351407566358473,
                -1.5942841406235237,
                1.909787148322607,
                -1.1787204104297122,
                0.8609986020575832,
                2.4829039583101986
            ]
        },
        {
            "positions": [
                -1.910488823641201,
                -1.6272660016339509,
                1.9031702246255067,
                -1.2907944499971524,
                0.7335679852666903,
                2.448099669789043
            ]
        },
        {
            "positions": [
                -2.006514488708462,
                -1.6353253680912978,
                1.9764593935889978,
                -1.3326852705530556,
                0.7559745674811598,
                2.5368586894590197
            ]
        },
        {
            "positions": [
                -2.1025401537757227,
                -1.6433847345486445,
                2.049748562552489,
                -1.3745760911089586,
                0.7783811496956292,
                2.6256177091289965
            ]
        },
        {
            "positions": [
                -2.198565818842983,
                -1.6514441010059915,
                2.1230377315159803,
                -1.4164669116648618,
                0.8007877319100987,
                2.7143767287989737
            ]
        },
        {
            "positions": [
                -2.294591483910244,
                -1.6595034674633384,
                2.1963269004794714,
                -1.458357732220765,
                0.8231943141245681,
                2.8031357484689505
            ]
        },
        {
            "positions": [
                -2.3906171489775048,
                -1.6675628339206852,
                2.2696160694429626,
                -1.500248552776668,
                0.8456008963390376,
                2.8918947681389273
            ]
        },
        {
            "positions": [
                -2.4866428140447656,
                -1.6756222003780321,
                2.3429052384064537,
                -1.5421393733325712,
                0.868007478553507,
                2.980653787808904
            ]
        },
        {
            "positions": [
                -2.48383759326819,
                -1.5732160781057443,
                2.276937296431234,
                -1.404084769058791,
                0.8303653573061691,
                3.0130701076182853
            ]
        },
        {
            "positions": [
                -2.4810323724916143,
                -1.4708099558334562,
                2.2109693544560143,
                -1.2660301647850107,
                0.7927232360588312,
                3.045486427427667
            ]
        },
        {
            "positions": [
                -2.478227151715039,
                -1.3684038335611683,
                2.1450014124807946,
                -1.1279755605112305,
                0.7550811148114934,
                3.077902747237048
            ]
        },
        {
            "positions": [
                -2.4754219309384635,
                -1.2659977112888803,
                2.079033470505575,
                -0.9899209562374502,
                0.7174389935641555,
                3.11031906704643
            ]
        },
        {
            "positions": [
                -2.472616710161888,
                -1.1635915890165924,
                2.013065528530355,
                -0.85186635196367,
                0.6797968723168176,
                3.142735386855811
            ]
        }
    ]
}