{
    "goal": {
        "global_pose": {
            "orientation": {
                "w": 0.7047431468963623,
                "x": -0.7094548344612122,
                "y": 0.0024358443915843964,
                "z": -0.0022348060738295317
            },
            "position": {
                "x": 0.6094750761985779,
                "y": 0.3671506643295288,
                "z": 0.19426114857196808
            }
        },
        "name": "move_to_magneteinheit_A"
    },
    "id": "LBKPIECE_move_to_magneteinheit_A_105",
    "joint_names": [
        "shoulder_pan_joint",
        "shoulder_lift_joint",
        "elbow_joint",
        "wrist_1_joint",
        "wrist_2_joint",
        "wrist_3_joint"
    ],
    "metrics": {
        "cart_traj_len": 1.960542239625921,
        "distance_elbow_joint": 3.560725823725125,
        "distance_shoulder_lift_joint": 0.7808121816044865,
        "distance_shoulder_pan_joint": 1.242640442277454,
        "distance_wrist_1_joint": 1.2290578524330436,
        "distance_wrist_2_joint": 1.4454113782845146,
        "distance_wrist_3_joint": 2.049112896976924,
        "smoothness": 1.5860328959332069e-16,
        "time": 0.407421108,
        "traj_len": 3.210570132437781,
        "weighted_distance": 4.132850783656839
    },
    "planner": "LBKPIECE",
    "start": {
        "state": {
            "elbow_joint": -1.5739458827952972,
            "shoulder_lift_joint": 0.006533473998580023,
            "shoulder_pan_joint": -1.1188671628667068,
            "wrist_1_joint": 3.138208179676308,
            "wrist_2_joint": -1.5706037135050406,
            "wrist_3_joint": -2.0226958329764257
        }
    },
    "waypoints": [
        {
            "positions": [
                -1.1188671628667068,
                0.006533473998580023,
                -1.5739458827952972,
                3.138208179676308,
                -1.5706037135050406,
                -2.0226958329764257
            ]
        },
        {
            "positions": [
                -1.0728434427823568,
                -0.022385495690475037,
                -1.4420671485832557,
                3.0926875184750844,
                -1.5170699587537622,
                -1.946802762718021
            ]
        },
        {
            "positions": [
                -1.0268197226980065,
                -0.051304465379530095,
                -1.310188414371214,
                3.0471668572738606,
                -1.463536204002484,
                -1.8709096924596165
            ]
        },
        {
            "positions": [
                -0.9807960026136564,
                -0.08022343506858515,
                -1.1783096801591721,
                3.001646196072637,
                -1.4100024492512055,
                -1.795016622201212
            ]
        },
        {
            "positions": [
                -0.9347722825293063,
                -0.10914240475764021,
                -1.0464309459471306,
                2.956125534871413,
                -1.3564686944999274,
                -1.7191235519428074
            ]
        },
        {
            "positions": [
                -0.8887485624449561,
                -0.13806137444669525,
                -0.9145522117350889,
                2.910604873670189,
                -1.302934939748649,
                -1.6432304816844028
            ]
        },
        {
            "positions": [
                -0.842724842360606,
                -0.1669803441357503,
                -0.7826734775230473,
                2.865084212468965,
                -1.2494011849973707,
                -1.5673374114259984
            ]
        },
        {
            "positions": [
                -0.7967011222762559,
                -0.19589931382480538,
                -0.6507947433110056,
                2.8195635512677413,
                -1.1958674302460923,
                -1.4914443411675937
            ]
        },
        {
            "positions": [
                -0.7506774021919057,
                -0.22481828351386043,
                -0.518916009098964,
                2.7740428900665175,
                -1.1423336754948141,
                -1.415551270909189
            ]
        },
        {
            "positions": [
                -0.7046536821075555,
                -0.2537372532029155,
                -0.3870372748869222,
                2.7285222288652937,
                -1.0887999207435357,
                -1.3396582006507844
            ]
        },
        {
            "positions": [
                -0.6586299620232055,
                -0.28265622289197057,
                -0.25515854067488064,
                2.68300156766407,
                -1.0352661659922573,
                -1.2637651303923798
            ]
        },
        {
            "positions": [
                -0.6126062419388553,
                -0.3115751925810256,
                -0.12327980646283887,
                2.637480906462846,
                -0.9817324112409791,
                -1.1878720601339752
            ]
        },
        {
            "positions": [
                -0.5665825218545051,
                -0.34049416227008067,
                0.008598927749202678,
                2.591960245261622,
                -0.9281986564897008,
                -1.1119789898755708
            ]
        },
        {
            "positions": [
                -0.520558801770155,
                -0.3694131319591358,
                0.14047766196124445,
                2.5464395840603986,
                -0.8746649017384225,
                -1.0360859196171661
            ]
        },
        {
            "positions": [
                -0.4745350816858048,
                -0.39833210164819083,
                0.272356396173286,
                2.5009189228591744,
                -0.8211311469871442,
                -0.9601928493587615
            ]
        },
        {
            "positions": [
                -0.42851136160145464,
                -0.42725107133724594,
                0.404235130385328,
                2.4553982616579506,
                -0.7675973922358658,
                -0.8842997791003568
            ]
        },
        {
            "positions": [
                -0.38248764151710457,
                -0.45617004102630093,
                0.5361138645973693,
                2.409877600456727,
                -0.7140636374845876,
                -0.8084067088419524
            ]
        },
        {
            "positions": [
                -0.3364639214327543,
                -0.48508901071535604,
                0.6679925988094111,
                2.364356939255503,
                -0.6605298827333091,
                -0.7325136385835478
            ]
        },
        {
            "positions": [
                -0.2904402013484042,
                -0.514007980404411,
                0.7998713330214529,
                2.3188362780542793,
                -0.6069961279820308,
                -0.6566205683251432
            ]
        },
        {
            "positions": [
                -0.24441648126405402,
                -0.5429269500934661,
                0.9317500672334946,
                2.273315616853055,
                -0.5534623732307524,
                -0.5807274980667385
            ]
        },
        {
            "positions": [
                -0.19839276117970395,
                -0.5718459197825211,
                1.063628801445536,
                2.2277949556518317,
                -0.49992861847947423,
                -0.5048344278083341
            ]
        },
        {
            "positions": [
                -0.15236904109535376,
                -0.6007648894715762,
                1.1955075356575777,
                2.1822742944506075,
                -0.4463948637281958,
                -0.42894135754992946
            ]
        },
        {
            "positions": [
                -0.10634532101100369,
                -0.6296838591606312,
                1.3273862698696195,
                2.136753633249384,
                -0.3928611089769176,
                -0.3530482872915248
            ]
        },
        {
            "positions": [
                -0.060321600926653396,
                -0.6586028288496864,
                1.4592650040816613,
                2.09123297204816,
                -0.3393273542256392,
                -0.2771552170331202
            ]
        },
        {
            "positions": [
                -0.014297880842303323,
                -0.6875217985387413,
                1.5911437382937026,
                2.045712310846936,
                -0.285793599474361,
                -0.20126214677471577
            ]
        },
        {
            "positions": [
                0.03172583924204675,
                -0.7164407682277965,
                1.7230224725057444,
                2.0001916496457124,
                -0.2322598447230826,
                -0.12536907651631113
            ]
        },
        {
            "positions": [
                0.07774955932639682,
                -0.7453597379168515,
                1.8549012067177861,
                1.9546709884444886,
                -0.1787260899718044,
                -0.04947600625790649
            ]
        },
        {
            "positions": [
                0.12377327941074717,
                -0.7742787076059066,
                1.9867799409298281,
                1.9091503272432646,
                -0.1251923352205259,
                0.026417064000497932
            ]
        }
    ]
}