{
    "goal": {
        "global_pose": {
            "orientation": {
                "w": -0.00223480608172531,
                "x": 0.0024358444001904467,
                "y": 0.7094548369677653,
                "z": -0.704743149386269
            },
            "position": {
                "x": -0.37947507619857795,
                "y": -0.6371506643295288,
                "z": 0.19426114857196808
            }
        },
        "name": "move_to_magneteinheit_C"
    },
    "id": "LBKPIECE_move_to_magneteinheit_C_129",
    "joint_names": [
        "shoulder_pan_joint",
        "shoulder_lift_joint",
        "elbow_joint",
        "wrist_1_joint",
        "wrist_2_joint",
        "wrist_3_joint"
    ],
    "metrics": {
        "cart_traj_len": 2.6773542033951503,
        "distance_elbow_joint": 3.2108692792949713,
        "distance_shoulder_lift_joint": 0.9125794254255786,
        "distance_shoulder_pan_joint": 1.9678808892689152,
        "distance_wrist_1_joint": 2.7322878782156783,
        "distance_wrist_2_joint": 1.9338217252266228,
        "distance_wrist_3_joint": 4.644728855351508,
        "smoothness": 1.001456540496606,
        "time": 0.449709892,
        "traj_len": 3.9245595998510803,
        "weighted_distance": 5.418277896797892
    },
    "planner": "LBKPIECE",
    "start": {
        "state": {
            "elbow_joint": 1.9565354006593851,
            "shoulder_lift_joint": -1.4165861576512813,
            "shoulder_pan_joint": -1.6717766223278752,
            "wrist_1_joint": -0.528663328821883,
            "wrist_2_joint": 1.472756589259273,
            "wrist_3_joint": 3.159348288315503
        }
    },
    "waypoints": [
        {
            "positions": [
                -1.6717766223278752,
                -1.4165861576512813,
                1.9565354006593851,
                -0.528663328821883,
                1.472756589259273,
                3.159348288315503
            ]
        },
        {
            "positions": [
                -1.5200900524982623,
                -1.4829366889379,
                1.991041251819724,
                -0.516567969688582,
                1.4949003161203052,
                3.0707308605178962
            ]
        },
        {
            "positions": [
                -1.519640758664796,
                -1.4792373267626993,
                1.917014962459351,
                -0.47242603232822045,
                1.4360349883638623,
                2.9337929414480333
            ]
        },
        {
            "positions": [
                -1.5191914648313296,
                -1.4755379645874984,
                1.8429886730989784,
                -0.42828409496785896,
                1.3771696606074197,
                2.7968550223781703
            ]
        },
        {
            "positions": [
                -1.5187421709978635,
                -1.4718386024122976,
                1.7689623837386055,
                -0.3841421576074975,
                1.318304332850977,
                2.6599171033083078
            ]
        },
        {
            "positions": [
                -1.518292877164397,
                -1.4681392402370967,
                1.6949360943782326,
                -0.34000022024713594,
                1.259439005094534,
                2.522979184238445
            ]
        },
        {
            "positions": [
                -1.5479637855851516,
                -1.448912734883863,
                1.612613558315585,
                -0.29655520354066456,
                1.1922995463141226,
                2.396132525648093
            ]
        },
        {
            "positions": [
                -1.577634694005906,
                -1.4296862295306296,
                1.5302910222529376,
                -0.2531101868341932,
                1.125160087533711,
                2.269285867057741
            ]
        },
        {
            "positions": [
                -1.6073056024266605,
                -1.410459724177396,
                1.44796848619029,
                -0.20966517012772173,
                1.0580206287532996,
                2.1424392084673896
            ]
        },
        {
            "positions": [
                -1.6369765108474152,
                -1.3912332188241625,
                1.3656459501276426,
                -0.16622015342125035,
                0.9908811699728881,
                2.0155925498770375
            ]
        },
        {
            "positions": [
                -1.6666474192681697,
                -1.3720067134709288,
                1.283323414064995,
                -0.12277513671477897,
                0.9237417111924766,
                1.888745891286686
            ]
        },
        {
            "positions": [
                -1.6963183276889242,
                -1.3527802081176952,
                1.2010008780023473,
                -0.07933012000830753,
                0.8566022524120651,
                1.761899232696334
            ]
        },
        {
            "positions": [
                -1.7259892361096787,
                -1.3335537027644617,
                1.1186783419396997,
                -0.03588510330183614,
                0.7894627936316536,
                1.6350525741059823
            ]
        },
        {
            "positions": [
                -1.7556601445304332,
                -1.314327197411228,
                1.0363558058770523,
                0.007559913404635243,
                0.7223233348512421,
                1.5082059155156304
            ]
        },
        {
            "positions": [
                -1.8466404845974282,
                -1.2723428341162066,
                0.9580425206921677,
                0.02948421245882618,
                0.6477878258494553,
                1.4220611922754587
            ]
        },
        {
            "positions": [
                -1.9376208246644233,
                -1.2303584708211852,
                0.8797292355072829,
                0.05140851151301712,
                0.5732523168476684,
                1.3359164690352867
            ]
        },
        {
            "positions": [
                -2.0286011647314184,
                -1.1883741075261638,
                0.8014159503223981,
                0.07333281056720806,
                0.4987168078458817,
                1.249771745795115
            ]
        },
        {
            "positions": [
                -2.119581504798413,
                -1.1463897442311424,
                0.7231026651375134,
                0.095257109621399,
                0.42418129884409483,
                1.1636270225549432
            ]
        },
        {
            "positions": [
                -2.210561844865408,
                -1.104405380936121,
                0.6447893799526287,
                0.11718140867558993,
                0.349645789842308,
                1.0774822993147712
            ]
        },
        {
            "positions": [
                -2.301542184932403,
                -1.0624210176410998,
                0.566476094767744,
                0.13910570772978087,
                0.2751102808405212,
                0.9913375760745995
            ]
        },
        {
            "positions": [
                -2.392522524999398,
                -1.0204366543460783,
                0.4881628095828592,
                0.1610300067839718,
                0.2005747718387344,
                0.9051928528344276
            ]
        },
        {
            "positions": [
                -2.4835028650663933,
                -0.9784522910510568,
                0.4098495243979745,
                0.18295430583816275,
                0.1260392628369476,
                0.8190481295942558
            ]
        },
        {
            "positions": [
                -2.5184606937397236,
                -0.9718329967806687,
                0.4808106419526422,
                0.07298788400816866,
                0.15572446766657097,
                0.9612765167893234
            ]
        },
        {
            "positions": [
                -2.5534185224130534,
                -0.9652137025102806,
                0.55177175950731,
                -0.03697853782182542,
                0.18540967249619433,
                1.103504903984391
            ]
        },
        {
            "positions": [
                -2.5883763510863838,
                -0.9585944082398925,
                0.6227328770619778,
                -0.14694495965181953,
                0.2150948773258177,
                1.2457332911794587
            ]
        },
        {
            "positions": [
                -2.623334179759714,
                -0.9519751139695045,
                0.6936939946166455,
                -0.2569113814818136,
                0.24478008215544106,
                1.387961678374526
            ]
        },
        {
            "positions": [
                -2.658292008433044,
                -0.9453558196991164,
                0.7646551121713133,
                -0.36687780331180775,
                0.27446528698506445,
                1.530190065569594
            ]
        },
        {
            "positions": [
                -2.6932498371063742,
                -0.9387365254287283,
                0.835616229725981,
                -0.4768442251418018,
                0.3041504918146878,
                1.6724184527646615
            ]
        },
        {
            "positions": [
                -2.7282076657797045,
                -0.9321172311583402,
                0.9065773472806489,
                -0.586810646971796,
                0.3338356966443111,
                1.814646839959729
            ]
        },
        {
            "positions": [
                -2.7631654944530344,
                -0.9254979368879521,
                0.9775384648353165,
                -0.6967770688017899,
                0.3635209014739345,
                1.9568752271547967
            ]
        },
        {
            "positions": [
                -2.7981233231263647,
                -0.9188786426175641,
                1.0484995823899843,
                -0.8067434906317841,
                0.39320610630355785,
                2.0991036143498643
            ]
        },
        {
            "positions": [
                -2.833081151799695,
                -0.912259348347176,
                1.1194606999446521,
                -0.9167099124617782,
                0.42289131113318124,
                2.241332001544932
            ]
        },
        {
            "positions": [
                -2.868038980473025,
                -0.9056400540767879,
                1.1904218174993197,
                -1.0266763342917722,
                0.45257651596280457,
                2.3835603887399994
            ]
        },
        {
            "positions": [
                -2.902996809146355,
                -0.8990207598063998,
                1.2613829350539876,
                -1.1366427561217665,
                0.48226172079242796,
                2.5257887759350672
            ]
        },
        {
            "positions": [
                -2.8225742519619934,
                -0.928691131732456,
                1.3530952121374182,
                -1.0346062962111473,
                0.48214399748940123,
                2.5565063791938476
            ]
        },
        {
            "positions": [
                -2.7421516947776317,
                -0.9583615036585122,
                1.4448074892208491,
                -0.9325698363005279,
                0.4820262741863745,
                2.587223982452628
            ]
        },
        {
            "positions": [
                -2.6617291375932703,
                -0.9880318755845684,
                1.5365197663042798,
                -0.8305333763899088,
                0.48190855088334783,
                2.617941585711409
            ]
        },
        {
            "positions": [
                -2.5813065804089086,
                -1.0177022475106245,
                1.6282320433877104,
                -0.7284969164792894,
                0.4817908275803211,
                2.648659188970189
            ]
        },
        {
            "positions": [
                -2.500884023224547,
                -1.0473726194366808,
                1.719944320471141,
                -0.6264604565686702,
                0.4816731042772944,
                2.6793767922289695
            ]
        },
        {
            "positions": [
                -2.4939889166741294,
                -1.0758628957809755,
                1.7912135466310701,
                -0.674183177079322,
                0.528174571930199,
                2.7904018007278557
            ]
        },
        {
            "positions": [
                -2.4870938101237114,
                -1.1043531721252702,
                1.8624827727909992,
                -0.7219058975899737,
                0.5746760395831036,
                2.901426809226742
            ]
        },
        {
            "positions": [
                -2.4801987035732935,
                -1.1328434484695646,
                1.9337519989509282,
                -0.7696286181006256,
                0.6211775072360084,
                3.012451817725628
            ]
        },
        {
            "positions": [
                -2.473303597022876,
                -1.1613337248138593,
                2.0050212251108572,
                -0.8173513386112773,
                0.667678974888913,
                3.1234768262245143
            ]
        }
    ]
}