{
    "goal": {
        "global_pose": {
            "orientation": {
                "w": 0.7047431493862688,
                "x": -0.7094548369677653,
                "y": 0.0024358444001904,
                "z": -0.0022348060817251984
            },
            "position": {
                "x": -0.39052492380142206,
                "y": 0.3671506643295288,
                "z": 0.19426114857196808
            }
        },
        "name": "move_to_magneteinheit_D"
    },
    "id": "LBKPIECE_move_to_magneteinheit_D_7",
    "joint_names": [
        "shoulder_pan_joint",
        "shoulder_lift_joint",
        "elbow_joint",
        "wrist_1_joint",
        "wrist_2_joint",
        "wrist_3_joint"
    ],
    "metrics": {
        "cart_traj_len": 3.816627678586468,
        "distance_elbow_joint": 3.351024866876042,
        "distance_shoulder_lift_joint": 1.634332738605049,
        "distance_shoulder_pan_joint": 2.929076869221459,
        "distance_wrist_1_joint": 1.7410185854389795,
        "distance_wrist_2_joint": 0.6018366938970559,
        "distance_wrist_3_joint": 3.2129688356078994,
        "smoothness": 0.25570587490596364,
        "time": 0.610809108,
        "traj_len": 3.6701850892899786,
        "weighted_distance": 4.715829888810486
    },
    "planner": "LBKPIECE",
    "start": {
        "state": {
            "elbow_joint": 0.7495348899011911,
            "shoulder_lift_joint": -0.6476975780737668,
            "shoulder_pan_joint": -2.711696901376276,
            "wrist_1_joint": -0.0750647808097303,
            "wrist_2_joint": 0.43296659715458535,
            "wrist_3_joint": 3.1361499051832418
        }
    },
    "waypoints": [
        {
            "positions": [
                -2.711696901376276,
                -0.6476975780737668,
                0.7495348899011911,
                -0.0750647808097303,
                0.43296659715458535,
                3.1361499051832418
            ]
        },
        {
            "positions": [
                -2.7090763090253027,
                -0.6677752743662018,
                0.7702645560477155,
                0.01227182983275514,
                0.38696162188833694,
                3.007378387184562
            ]
        },
        {
            "positions": [
                -2.7064557166743297,
                -0.6878529706586367,
                0.79099422219424,
                0.09960844047524058,
                0.34095664662208847,
                2.8786068691858824
            ]
        },
        {
            "positions": [
                -2.7038351243233563,
                -0.7079306669510717,
                0.8117238883407645,
                0.18694505111772602,
                0.29495167135584005,
                2.749835351187203
            ]
        },
        {
            "positions": [
                -2.701214531972383,
                -0.7280083632435066,
                0.8324535544872889,
                0.27428166176021146,
                0.24894669608959163,
                2.621063833188523
            ]
        },
        {
            "positions": [
                -2.6951262081293366,
                -0.8039091523621779,
                0.7090042980917841,
                0.257094411242643,
                0.23802135558607018,
                2.516993961716625
            ]
        },
        {
            "positions": [
                -2.6890378842862903,
                -0.8798099414808491,
                0.5855550416962794,
                0.23990716072507448,
                0.22709601508254873,
                2.4129240902447266
            ]
        },
        {
            "positions": [
                -2.6829495604432436,
                -0.9557107305995204,
                0.46210578530077473,
                0.22271991020750598,
                0.21617067457902728,
                2.308854218772828
            ]
        },
        {
            "positions": [
                -2.6768612366001974,
                -1.0316115197181916,
                0.33865652890527,
                0.2055326596899375,
                0.20524533407550583,
                2.20478434730093
            ]
        },
        {
            "positions": [
                -2.5575273271985464,
                -1.0529095475333017,
                0.22724912203194259,
                0.23232647807497744,
                0.19619633483666482,
                2.1073211146418114
            ]
        },
        {
            "positions": [
                -2.438193417796895,
                -1.0742075753484117,
                0.11584171515861522,
                0.2591202964600174,
                0.18714733559782382,
                2.0098578819826933
            ]
        },
        {
            "positions": [
                -2.318859508395244,
                -1.0955056031635217,
                0.004434308285287847,
                0.28591411484505735,
                0.17809833635898284,
                1.912394649323575
            ]
        },
        {
            "positions": [
                -2.1995255989935925,
                -1.1168036309786318,
                -0.10697309858803955,
                0.31270793323009727,
                0.16904933712014183,
                1.8149314166644568
            ]
        },
        {
            "positions": [
                -2.0801916895919415,
                -1.1381016587937418,
                -0.2183805054613669,
                0.33950175161513724,
                0.16000033788130086,
                1.7174681840053383
            ]
        },
        {
            "positions": [
                -1.9608577801902904,
                -1.1593996866088518,
                -0.3297879123346943,
                0.3662955700001772,
                0.15095133864245985,
                1.6200049513462202
            ]
        },
        {
            "positions": [
                -1.841523870788639,
                -1.1806977144239619,
                -0.4411953192080217,
                0.3930893883852171,
                0.14190233940361885,
                1.5225417186871018
            ]
        },
        {
            "positions": [
                -1.722189961386988,
                -1.201995742239072,
                -0.5526027260813491,
                0.4198832067702571,
                0.13285334016477784,
                1.4250784860279835
            ]
        },
        {
            "positions": [
                -1.6028560519853365,
                -1.223293770054182,
                -0.6640101329546765,
                0.44667702515529706,
                0.12380434092593685,
                1.3276152533688652
            ]
        },
        {
            "positions": [
                -1.4835221425836855,
                -1.2445917978692917,
                -0.7754175398280038,
                0.47347084354033697,
                0.11475534168709586,
                1.230152020709747
            ]
        },
        {
            "positions": [
                -1.3641882331820343,
                -1.2658898256844018,
                -0.8868249467013313,
                0.500264661925377,
                0.10570634244825486,
                1.1326887880506287
            ]
        },
        {
            "positions": [
                -1.2448543237803833,
                -1.2871878534995118,
                -0.9982323535746586,
                0.5270584803104168,
                0.09665734320941387,
                1.0352255553915104
            ]
        },
        {
            "positions": [
                -1.1255204143787318,
                -1.3084858813146218,
                -1.109639760447986,
                0.5538522986954568,
                0.08760834397057286,
                0.9377623227323921
            ]
        },
        {
            "positions": [
                -1.0061865049770808,
                -1.3297839091297319,
                -1.2210471673213132,
                0.5806461170804968,
                0.07855934473173187,
                0.8402990900732739
            ]
        },
        {
            "positions": [
                -0.8868525955754296,
                -1.351081936944842,
                -1.3324545741946405,
                0.6074399354655367,
                0.06951034549289087,
                0.7428358574141556
            ]
        },
        {
            "positions": [
                -0.7675186861737784,
                -1.372379964759952,
                -1.4438619810679683,
                0.6342337538505767,
                0.060461346254049864,
                0.6453726247550371
            ]
        },
        {
            "positions": [
                -0.6481847767721272,
                -1.393677992575062,
                -1.5552693879412955,
                0.6610275722356167,
                0.05141234701520889,
                0.547909392095919
            ]
        },
        {
            "positions": [
                -0.5288508673704757,
                -1.414976020390172,
                -1.6666767948146228,
                0.6878213906206566,
                0.04236334777636788,
                0.45044615943680055
            ]
        },
        {
            "positions": [
                -0.4095169579688247,
                -1.436274048205282,
                -1.7780842016879501,
                0.7146152090056965,
                0.03331434853752688,
                0.3529829267776823
            ]
        },
        {
            "positions": [
                -0.2901830485671737,
                -1.457572076020392,
                -1.8894916085612774,
                0.7414090273907364,
                0.0242653492986859,
                0.255519694118564
            ]
        },
        {
            "positions": [
                -0.17084913916552225,
                -1.478870103835502,
                -2.000899015434605,
                0.7682028457757765,
                0.015216350059844869,
                0.15805646145944552
            ]
        },
        {
            "positions": [
                -0.05151522976387132,
                -1.5001681316506121,
                -2.1123064223079324,
                0.7949966641608164,
                0.006167350821003878,
                0.06059322880032746
            ]
        },
        {
            "positions": [
                -0.03795588832893155,
                -1.6054708385885441,
                -2.170990460862522,
                0.8868395660540604,
                0.032546145331342494,
                0.03934480848703304
            ]
        },
        {
            "positions": [
                -0.02439654689399177,
                -1.710773545526476,
                -2.2296744994171114,
                0.9786824679473045,
                0.0589249398416811,
                0.01809638817373862
            ]
        },
        {
            "positions": [
                -0.010837205459052,
                -1.8160762524644083,
                -2.288358537971701,
                1.0705253698405486,
                0.08530373435201971,
                -0.0031520321395557896
            ]
        },
        {
            "positions": [
                0.002722135975887781,
                -1.9213789594023403,
                -2.3470425765262903,
                1.1623682717337926,
                0.11168252886235833,
                -0.024400452452850226
            ]
        },
        {
            "positions": [
                0.016281477410827548,
                -2.0266816663402722,
                -2.40572661508088,
                1.2542111736270367,
                0.13806132337269694,
                -0.04564887276614464
            ]
        },
        {
            "positions": [
                -0.050751352733957485,
                -2.111797883119787,
                -2.395751270840288,
                1.3456260492475915,
                0.15244248170995728,
                -0.03525885354663978
            ]
        },
        {
            "positions": [
                -0.11778418287874251,
                -2.1969140998993013,
                -2.3857759265996963,
                1.4370409248681464,
                0.16682364004721761,
                -0.024868834327134923
            ]
        },
        {
            "positions": [
                -0.18481701302352754,
                -2.282030316678816,
                -2.3758005823591044,
                1.5284558004887012,
                0.18120479838447795,
                -0.01447881510763006
            ]
        }
    ]
}