{
    "goal": {
        "global_pose": {
            "orientation": {
                "w": 0.005598929693374612,
                "x": 0.007748599140229565,
                "y": 0.7110244013736278,
                "z": -0.7031023480610252
            },
            "position": {
                "x": -0.8858502320852131,
                "y": -0.7141253447532654,
                "z": 0.3711530566215515
            }
        },
        "name": "move_to_auspresseinheit_C"
    },
    "id": "LBKPIECE_move_to_auspresseinheit_C_39",
    "joint_names": [
        "shoulder_pan_joint",
        "shoulder_lift_joint",
        "elbow_joint",
        "wrist_1_joint",
        "wrist_2_joint",
        "wrist_3_joint"
    ],
    "metrics": {
        "cart_traj_len": 0.4923728711573685,
        "distance_elbow_joint": 0.9961463023752691,
        "distance_shoulder_lift_joint": 0.3236066117300167,
        "distance_shoulder_pan_joint": 0.255344574446819,
        "distance_wrist_1_joint": 0.6639614071780213,
        "distance_wrist_2_joint": 1.3167099704246041,
        "distance_wrist_3_joint": 0.049281136209760934,
        "smoothness": 6.45947944157498e-16,
        "time": 0.374997421,
        "traj_len": 1.8986969221980876,
        "weighted_distance": 2.3841735784935287
    },
    "planner": "LBKPIECE",
    "start": {
        "state": {
            "elbow_joint": 1.7527959577730765,
            "shoulder_lift_joint": -0.9740617694224828,
            "shoulder_pan_joint": -2.967991417825869,
            "wrist_1_joint": -0.7595177689779385,
            "wrist_2_joint": 1.7443932448376545,
            "wrist_3_joint": 3.1991315425061013
        }
    },
    "waypoints": [
        {
            "positions": [
                -2.967991417825869,
                -0.9740617694224828,
                1.7527959577730765,
                -0.7595177689779385,
                1.7443932448376545,
                3.1991315425061013
            ]
        },
        {
            "positions": [
                -2.942456960381187,
                -0.9417011082494812,
                1.6531813275355496,
                -0.6931216282601365,
                1.6127222477951941,
                3.194203428885125
            ]
        },
        {
            "positions": [
                -2.9169225029365053,
                -0.9093404470764794,
                1.5535666972980227,
                -0.6267254875423343,
                1.4810512507527336,
                3.1892753152641493
            ]
        },
        {
            "positions": [
                -2.8913880454918233,
                -0.8769797859034778,
                1.4539520670604957,
                -0.5603293468245322,
                1.3493802537102733,
                3.184347201643173
            ]
        },
        {
            "positions": [
                -2.8658535880471416,
                -0.8446191247304761,
                1.3543374368229688,
                -0.49393320610673,
                1.217709256667813,
                3.179419088022197
            ]
        },
        {
            "positions": [
                -2.8403191306024596,
                -0.8122584635574744,
                1.2547228065854419,
                -0.4275370653889279,
                1.0860382596253524,
                3.1744909744012206
            ]
        },
        {
            "positions": [
                -2.8147846731577775,
                -0.7798978023844728,
                1.1551081763479152,
                -0.36114092467112574,
                0.954367262582892,
                3.169562860780245
            ]
        },
        {
            "positions": [
                -2.789250215713096,
                -0.7475371412114711,
                1.0554935461103883,
                -0.29474478395332365,
                0.8226962655404316,
                3.1646347471592686
            ]
        },
        {
            "positions": [
                -2.7637157582684138,
                -0.7151764800384695,
                0.9558789158728611,
                -0.2283486432355215,
                0.6910252684979712,
                3.1597066335382924
            ]
        },
        {
            "positions": [
                -2.738181300823732,
                -0.6828158188654678,
                0.8562642856353343,
                -0.1619525025177193,
                0.5593542714555106,
                3.1547785199173166
            ]
        },
        {
            "positions": [
                -2.71264684337905,
                -0.6504551576924661,
                0.7566496553978074,
                -0.09555636179991728,
                0.42768327441305026,
                3.1498504062963404
            ]
        }
    ]
}