{
    "goal": {
        "global_pose": {
            "orientation": {
                "w": -0.00223480608172531,
                "x": 0.0024358444001904467,
                "y": 0.7094548369677653,
                "z": -0.704743149386269
            },
            "position": {
                "x": -0.37947507619857795,
                "y": -0.6371506643295288,
                "z": 0.19426114857196808
            }
        },
        "name": "move_to_magneteinheit_C"
    },
    "id": "LBKPIECE_move_to_magneteinheit_C_138",
    "joint_names": [
        "shoulder_pan_joint",
        "shoulder_lift_joint",
        "elbow_joint",
        "wrist_1_joint",
        "wrist_2_joint",
        "wrist_3_joint"
    ],
    "metrics": {
        "cart_traj_len": 3.2995096105131587,
        "distance_elbow_joint": 2.10864217809857,
        "distance_shoulder_lift_joint": 0.2978355440737952,
        "distance_shoulder_pan_joint": 2.7288776963466677,
        "distance_wrist_1_joint": 0.6670270191780944,
        "distance_wrist_2_joint": 1.1657465731243544,
        "distance_wrist_3_joint": 4.544411634132411,
        "smoothness": 0.4390074251920279,
        "time": 0.451571232,
        "traj_len": 3.3930135049766452,
        "weighted_distance": 4.736468885733461
    },
    "planner": "LBKPIECE",
    "start": {
        "state": {
            "elbow_joint": 1.9565354006593851,
            "shoulder_lift_joint": -1.4165861576512813,
            "shoulder_pan_joint": -1.6717766223278752,
            "wrist_1_joint": -0.528663328821883,
            "wrist_2_joint": 1.472756589259273,
            "wrist_3_joint": 3.159348288315503
        }
    },
    "waypoints": [
        {
            "positions": [
                -1.6717766223278752,
                -1.4165861576512813,
                1.9565354006593851,
                -0.528663328821883,
                1.472756589259273,
                3.159348288315503
            ]
        },
        {
            "positions": [
                -1.5925747623007194,
                -1.3980262660182774,
                1.9354652741655964,
                -0.5137355016667453,
                1.3909074010736644,
                3.0336654145088406
            ]
        },
        {
            "positions": [
                -1.5133729022735636,
                -1.3794663743852738,
                1.9143951476718077,
                -0.4988076745116077,
                1.3090582128880557,
                2.907982540702178
            ]
        },
        {
            "positions": [
                -1.434171042246408,
                -1.3609064827522699,
                1.8933250211780188,
                -0.48387984735646994,
                1.2272090247024472,
                2.7822996668955158
            ]
        },
        {
            "positions": [
                -1.3549691822192522,
                -1.3423465911192662,
                1.8722548946842301,
                -0.46895202020133225,
                1.1453598365168385,
                2.6566167930888533
            ]
        },
        {
            "positions": [
                -1.2757673221920964,
                -1.3237866994862624,
                1.8511847681904414,
                -0.45402419304619457,
                1.0635106483312298,
                2.530933919282191
            ]
        },
        {
            "positions": [
                -1.2008392400007666,
                -1.315016742977225,
                1.7939484692192214,
                -0.460666180355114,
                1.0200994841616646,
                2.40918344949999
            ]
        },
        {
            "positions": [
                -1.125911157809437,
                -1.3062467864681877,
                1.7367121702480013,
                -0.4673081676640333,
                0.9766883199920996,
                2.2874329797177895
            ]
        },
        {
            "positions": [
                -1.050983075618107,
                -1.2974768299591504,
                1.6794758712767812,
                -0.47395015497295273,
                0.9332771558225345,
                2.1656825099355888
            ]
        },
        {
            "positions": [
                -1.0171288132427483,
                -1.301265582676219,
                1.5546574712571373,
                -0.520811713810897,
                0.922516670972374,
                1.9927780581773897
            ]
        },
        {
            "positions": [
                -0.9832745508673896,
                -1.3050543353932875,
                1.429839071237493,
                -0.5676732726488413,
                0.9117561861222135,
                1.819873606419191
            ]
        },
        {
            "positions": [
                -0.9494202884920309,
                -1.308843088110356,
                1.3050206712178491,
                -0.6145348314867856,
                0.9009957012720531,
                1.646969154660992
            ]
        },
        {
            "positions": [
                -0.915566026116672,
                -1.3126318408274247,
                1.1802022711982052,
                -0.6613963903247299,
                0.8902352164218925,
                1.4740647029027931
            ]
        },
        {
            "positions": [
                -0.8817117637413132,
                -1.3164205935444933,
                1.0553838711785613,
                -0.7082579491626741,
                0.8794747315717321,
                1.3011602511445939
            ]
        },
        {
            "positions": [
                -0.8478575013659545,
                -1.3202093462615618,
                0.9305654711589172,
                -0.7551195080006184,
                0.8687142467215716,
                1.128255799386395
            ]
        },
        {
            "positions": [
                -1.0804254775552309,
                -1.3201307544586969,
                0.9739793192529471,
                -0.7767293143482933,
                0.8226276377193473,
                1.09270118335877
            ]
        },
        {
            "positions": [
                -1.3129934537445074,
                -1.320052162655832,
                1.0173931673469772,
                -0.798339120695968,
                0.776541028717123,
                1.057146567331145
            ]
        },
        {
            "positions": [
                -1.5455614299337839,
                -1.319973570852967,
                1.060807015441007,
                -0.8199489270436429,
                0.7304544197148988,
                1.02159195130352
            ]
        },
        {
            "positions": [
                -1.7781294061230604,
                -1.3198949790501018,
                1.104220863535037,
                -0.8415587333913177,
                0.6843678107126745,
                0.986037335275895
            ]
        },
        {
            "positions": [
                -2.010697382312337,
                -1.3198163872472368,
                1.147634711629067,
                -0.8631685397389925,
                0.6382812017104502,
                0.9504827192482699
            ]
        },
        {
            "positions": [
                -2.2432653585016133,
                -1.3197377954443719,
                1.1910485597230969,
                -0.8847783460866673,
                0.5921945927082259,
                0.9149281032206449
            ]
        },
        {
            "positions": [
                -2.47583333469089,
                -1.319659203641507,
                1.234462407817127,
                -0.9063881524343421,
                0.5461079837060017,
                0.8793734871930199
            ]
        },
        {
            "positions": [
                -2.4989004109760793,
                -1.306006563116631,
                1.3554556982157195,
                -0.9136298682428963,
                0.535934734358111,
                1.0891218341437516
            ]
        },
        {
            "positions": [
                -2.5219674872612683,
                -1.292353922591755,
                1.4764489886143122,
                -0.9208715840514505,
                0.5257614850102204,
                1.2988701810944834
            ]
        },
        {
            "positions": [
                -2.5450345635464577,
                -1.2787012820668793,
                1.5974422790129048,
                -0.9281132998600048,
                0.5155882356623296,
                1.5086185280452151
            ]
        },
        {
            "positions": [
                -2.568101639831647,
                -1.2650486415420035,
                1.7184355694114972,
                -0.9353550156685589,
                0.5054149863144389,
                1.7183668749959469
            ]
        },
        {
            "positions": [
                -2.591168716116836,
                -1.2513960010171274,
                1.83942885981009,
                -0.9425967314771131,
                0.4952417369665483,
                1.9281152219466786
            ]
        },
        {
            "positions": [
                -2.6142357924020256,
                -1.2377433604922516,
                1.9604221502086825,
                -0.9498384472856674,
                0.4850684876186576,
                2.1378635688974104
            ]
        },
        {
            "positions": [
                -2.597920568609928,
                -1.2294819157918624,
                1.994307968029796,
                -0.94185100089874,
                0.4898332807414086,
                2.2453297615242365
            ]
        },
        {
            "positions": [
                -2.5673543034707835,
                -1.213165348389474,
                1.9990404059616016,
                -0.9197044552047385,
                0.5331567003316555,
                2.4699499011939148
            ]
        },
        {
            "positions": [
                -2.536788038331639,
                -1.1968487809870858,
                2.0037728438934073,
                -0.8975579095107371,
                0.5764801199219025,
                2.6945700408635935
            ]
        },
        {
            "positions": [
                -2.506221773192494,
                -1.1805322135846974,
                2.0085052818252134,
                -0.8754113638167357,
                0.6198035395121495,
                2.9191901805332723
            ]
        },
        {
            "positions": [
                -2.4756555080533498,
                -1.164215646182309,
                2.013237719757019,
                -0.8532648181227342,
                0.6631269591023965,
                3.1438103202029506
            ]
        }
    ]
}