{
    "goal": {
        "global_pose": {
            "orientation": {
                "w": -0.4816463035849501,
                "x": 0.5182115481033762,
                "y": 0.4908360881923453,
                "z": -0.5084816262002911
            },
            "position": {
                "x": -0.8240239810943604,
                "y": -0.300875300988555,
                "z": 0.16403168439865112
            }
        },
        "name": "move_to_storage_C"
    },
    "id": "LBKPIECE_move_to_storage_C_32",
    "joint_names": [
        "shoulder_pan_joint",
        "shoulder_lift_joint",
        "elbow_joint",
        "wrist_1_joint",
        "wrist_2_joint",
        "wrist_3_joint"
    ],
    "metrics": {
        "cart_traj_len": 0.5756388891357183,
        "distance_elbow_joint": 0.25970348757566364,
        "distance_shoulder_lift_joint": 0.18863518938317592,
        "distance_shoulder_pan_joint": 0.49468009936565194,
        "distance_wrist_1_joint": 0.08860357325733981,
        "distance_wrist_2_joint": 1.0599099717853135,
        "distance_wrist_3_joint": 0.06556889526501397,
        "smoothness": 0.0,
        "time": 0.459221859,
        "traj_len": 1.4687073284463992,
        "weighted_distance": 1.8538480391350418
    },
    "planner": "LBKPIECE",
    "start": {
        "state": {
            "elbow_joint": 2.0108683149792914,
            "shoulder_lift_joint": -1.1634956873317392,
            "shoulder_pan_joint": -2.4736205022346,
            "wrist_1_joint": -0.8367026793690192,
            "wrist_2_joint": 0.6746043897045053,
            "wrist_3_joint": 3.133522094754363
        }
    },
    "waypoints": [
        {
            "positions": [
                -2.4736205022346,
                -1.1634956873317392,
                2.0108683149792914,
                -0.8367026793690192,
                0.6746043897045053,
                3.133522094754363
            ]
        },
        {
            "positions": [
                -2.556067185462209,
                -1.13205648910121,
                1.9675844003833474,
                -0.8219354171594626,
                0.8512560516687242,
                3.1444502439651987
            ]
        },
        {
            "positions": [
                -2.6385138686898175,
                -1.1006172908706806,
                1.9243004857874035,
                -0.8071681549499059,
                1.027907713632943,
                3.1553783931760346
            ]
        },
        {
            "positions": [
                -2.7209605519174263,
                -1.0691780926401513,
                1.8810165711914597,
                -0.7924008927403493,
                1.204559375597162,
                3.16630654238687
            ]
        },
        {
            "positions": [
                -2.8034072351450345,
                -1.037738894409622,
                1.8377326565955157,
                -0.7776336305307927,
                1.381211037561381,
                3.1772346915977057
            ]
        },
        {
            "positions": [
                -2.8858539183726433,
                -1.0062996961790927,
                1.7944487419995716,
                -0.762866368321236,
                1.5578626995256,
                3.1881628408085416
            ]
        },
        {
            "positions": [
                -2.968300601600252,
                -0.9748604979485633,
                1.7511648274036278,
                -0.7480991061116794,
                1.7345143614898189,
                3.199090990019377
            ]
        }
    ]
}