{
    "goal": {
        "global_pose": {
            "orientation": {
                "w": 0.7047431493862688,
                "x": -0.7094548369677653,
                "y": 0.0024358444001904,
                "z": -0.0022348060817251984
            },
            "position": {
                "x": -0.39052492380142206,
                "y": 0.3671506643295288,
                "z": 0.19426114857196808
            }
        },
        "name": "move_to_magneteinheit_D"
    },
    "id": "LBKPIECE_move_to_magneteinheit_D_72",
    "joint_names": [
        "shoulder_pan_joint",
        "shoulder_lift_joint",
        "elbow_joint",
        "wrist_1_joint",
        "wrist_2_joint",
        "wrist_3_joint"
    ],
    "metrics": {
        "cart_traj_len": 4.703997078630031,
        "distance_elbow_joint": 4.757128334921514,
        "distance_shoulder_lift_joint": 1.1454099215980402,
        "distance_shoulder_pan_joint": 2.9085563501338845,
        "distance_wrist_1_joint": 2.2164479695091557,
        "distance_wrist_2_joint": 2.211057135040563,
        "distance_wrist_3_joint": 2.542342144876002,
        "smoothness": 0.36590652808173796,
        "time": 0.749221568,
        "traj_len": 3.9725233613006177,
        "weighted_distance": 5.029227699198048
    },
    "planner": "LBKPIECE",
    "start": {
        "state": {
            "elbow_joint": 0.7495348899011911,
            "shoulder_lift_joint": -0.6476975780737668,
            "shoulder_pan_joint": -2.711696901376276,
            "wrist_1_joint": -0.0750647808097303,
            "wrist_2_joint": 0.43296659715458535,
            "wrist_3_joint": 3.1361499051832418
        }
    },
    "waypoints": [
        {
            "positions": [
                -2.711696901376276,
                -0.6476975780737668,
                0.7495348899011911,
                -0.0750647808097303,
                0.43296659715458535,
                3.1361499051832418
            ]
        },
        {
            "positions": [
                -2.7109319210473686,
                -0.6952243059771668,
                0.8351074363035144,
                -0.07551524068589721,
                0.30941101697736445,
                3.0349620322985005
            ]
        },
        {
            "positions": [
                -2.710166940718461,
                -0.7427510338805668,
                0.9206799827058375,
                -0.07596570056206413,
                0.18585543680014355,
                2.933774159413759
            ]
        },
        {
            "positions": [
                -2.7094019603895534,
                -0.7902777617839668,
                1.0062525291081608,
                -0.07641616043823105,
                0.062299856622922645,
                2.832586286529018
            ]
        },
        {
            "positions": [
                -2.7086369800606462,
                -0.8378044896873668,
                1.091825075510484,
                -0.07686662031439795,
                -0.06125572355429826,
                2.7313984136442766
            ]
        },
        {
            "positions": [
                -2.7078719997317386,
                -0.8853312175907668,
                1.1773976219128073,
                -0.07731708019056487,
                -0.18481130373151916,
                2.6302105407595353
            ]
        },
        {
            "positions": [
                -2.707107019402831,
                -0.9328579454941668,
                1.2629701683151304,
                -0.07776754006673178,
                -0.3083668839087401,
                2.529022667874794
            ]
        },
        {
            "positions": [
                -2.6591497377519016,
                -0.9782419075731436,
                1.3253535506204828,
                -0.06821579233167549,
                -0.3999857743747455,
                2.4114033127702013
            ]
        },
        {
            "positions": [
                -2.611192456100972,
                -1.0236258696521203,
                1.387736932925835,
                -0.05866404459661918,
                -0.4916046648407508,
                2.2937839576656085
            ]
        },
        {
            "positions": [
                -2.5632351744500426,
                -1.0690098317310972,
                1.4501203152311877,
                -0.04911229686156289,
                -0.5832235553067562,
                2.1761646025610157
            ]
        },
        {
            "positions": [
                -2.515277892799113,
                -1.1143937938100739,
                1.51250369753654,
                -0.03956054912650658,
                -0.6748424457727615,
                2.058545247456423
            ]
        },
        {
            "positions": [
                -2.4673206111481836,
                -1.1597777558890507,
                1.5748870798418924,
                -0.03000880139145029,
                -0.7664613362387668,
                1.9409258923518304
            ]
        },
        {
            "positions": [
                -2.3270859329842297,
                -1.184378951765171,
                1.4528328498216774,
                -0.08597869234511432,
                -0.7268348444062118,
                1.9367766223931835
            ]
        },
        {
            "positions": [
                -2.186851254820276,
                -1.2089801476412914,
                1.3307786198014622,
                -0.14194858329877835,
                -0.6872083525736569,
                1.9326273524345363
            ]
        },
        {
            "positions": [
                -2.046616576656322,
                -1.2335813435174114,
                1.208724389781247,
                -0.1979184742524424,
                -0.6475818607411019,
                1.9284780824758894
            ]
        },
        {
            "positions": [
                -1.9063818984923684,
                -1.2581825393935318,
                1.086670159761032,
                -0.25388836520610647,
                -0.607955368908547,
                1.9243288125172422
            ]
        },
        {
            "positions": [
                -1.7661472203284148,
                -1.282783735269652,
                0.964615929740817,
                -0.3098582561597705,
                -0.568328877075992,
                1.9201795425585952
            ]
        },
        {
            "positions": [
                -1.625912542164461,
                -1.3073849311457724,
                0.8425616997206018,
                -0.36582814711343453,
                -0.5287023852434369,
                1.916030272599948
            ]
        },
        {
            "positions": [
                -1.485677864000507,
                -1.3319861270218927,
                0.7205074697003867,
                -0.4217980380670986,
                -0.48907589341088203,
                1.9118810026413011
            ]
        },
        {
            "positions": [
                -1.3454431858365532,
                -1.3565873228980128,
                0.5984532396801717,
                -0.4777679290207626,
                -0.4494494015783271,
                1.907731732682654
            ]
        },
        {
            "positions": [
                -1.2052085076725996,
                -1.381188518774133,
                0.47639900965995663,
                -0.5337378199744267,
                -0.4098229097457721,
                1.903582462724007
            ]
        },
        {
            "positions": [
                -1.0649738295086457,
                -1.4057897146502534,
                0.35434477963974165,
                -0.5897077109280906,
                -0.37019641791321717,
                1.8994331927653598
            ]
        },
        {
            "positions": [
                -0.9247391513446919,
                -1.4303909105263737,
                0.23229054961952644,
                -0.6456776018817547,
                -0.3305699260806622,
                1.8952839228067129
            ]
        },
        {
            "positions": [
                -0.784504473180738,
                -1.454992106402494,
                0.11023631959931124,
                -0.7016474928354188,
                -0.2909434342481072,
                1.8911346528480657
            ]
        },
        {
            "positions": [
                -0.6442697950167842,
                -1.479593302278614,
                -0.011817910420903743,
                -0.7576173837890829,
                -0.25131694241555225,
                1.8869853828894187
            ]
        },
        {
            "positions": [
                -0.5040351168528305,
                -1.5041944981547344,
                -0.13387214044111895,
                -0.8135872747427468,
                -0.2116904505829973,
                1.8828361129307716
            ]
        },
        {
            "positions": [
                -0.36380043868887646,
                -1.5287956940308547,
                -0.25592637046133393,
                -0.869557165696411,
                -0.17206395875044234,
                1.8786868429721246
            ]
        },
        {
            "positions": [
                -0.33739845789425166,
                -1.5460509656545969,
                -0.40249196267822485,
                -0.9642159678595734,
                -0.15716706910079686,
                1.9656380727118767
            ]
        },
        {
            "positions": [
                -0.31099647709962686,
                -1.563306237278339,
                -0.5490575548951158,
                -1.058874770022736,
                -0.1422701794511514,
                2.052589302451629
            ]
        },
        {
            "positions": [
                -0.2845944963050021,
                -1.5805615089020815,
                -0.6956231471120067,
                -1.1535335721858986,
                -0.1273732898015059,
                2.1395405321913814
            ]
        },
        {
            "positions": [
                -0.2581925155103773,
                -1.5978167805258237,
                -0.8421887393288976,
                -1.248192374349061,
                -0.11247640015186042,
                2.2264917619311335
            ]
        },
        {
            "positions": [
                -0.2317905347157525,
                -1.6150720521495658,
                -0.9887543315457885,
                -1.3428511765122235,
                -0.09757951050221493,
                2.3134429916708856
            ]
        },
        {
            "positions": [
                -0.20538855392112773,
                -1.632327323773308,
                -1.1353199237626794,
                -1.437509978675386,
                -0.08268262085256946,
                2.4003942214106377
            ]
        },
        {
            "positions": [
                -0.17898657312650293,
                -1.6495825953970504,
                -1.2818855159795703,
                -1.5321687808385485,
                -0.06778573120292397,
                2.4873454511503903
            ]
        },
        {
            "positions": [
                -0.15258459233187815,
                -1.6668378670207926,
                -1.4284511081964613,
                -1.626827583001711,
                -0.0528888415532785,
                2.5742966808901424
            ]
        },
        {
            "positions": [
                -0.12618261153725333,
                -1.6840931386445348,
                -1.5750167004133522,
                -1.7214863851648736,
                -0.037991951903633,
                2.6612479106298945
            ]
        },
        {
            "positions": [
                -0.09978063074262855,
                -1.701348410268277,
                -1.721582292630243,
                -1.816145187328036,
                -0.023095062253987525,
                2.7481991403696466
            ]
        },
        {
            "positions": [
                -0.07337864994800375,
                -1.7186036818920192,
                -1.868147884847134,
                -1.9108039894911986,
                -0.008198172604342052,
                2.8351503701093987
            ]
        },
        {
            "positions": [
                -0.046976669153379,
                -1.7358589535157614,
                -2.014713477064025,
                -2.0054627916543613,
                0.006698717045303421,
                2.9221015998491513
            ]
        },
        {
            "positions": [
                -0.0205746883587542,
                -1.7531142251395038,
                -2.1612790692809156,
                -2.1001215938175237,
                0.02159560669494892,
                3.0090528295889034
            ]
        },
        {
            "positions": [
                0.005827292435870601,
                -1.770369496763246,
                -2.307844661497807,
                -2.194780395980686,
                0.036492496344594394,
                3.0960040593286555
            ]
        },
        {
            "positions": [
                -0.08968878572499707,
                -1.7590004953089653,
                -2.3323668633183634,
                -2.195387834474505,
                -0.06784518818733078,
                3.1297849924828327
            ]
        },
        {
            "positions": [
                -0.18520486388586474,
                -1.7476314938546849,
                -2.35688906513892,
                -2.195995272968323,
                -0.17218287271925595,
                3.1635659256370094
            ]
        }
    ]
}