{
    "goal": {
        "global_pose": {
            "orientation": {
                "w": -0.4816463035849501,
                "x": 0.5182115481033762,
                "y": 0.4908360881923453,
                "z": -0.5084816262002911
            },
            "position": {
                "x": -0.8240239810943604,
                "y": -0.300875300988555,
                "z": 0.16403168439865112
            }
        },
        "name": "move_to_storage_C"
    },
    "id": "LBKPIECE_move_to_storage_C_15",
    "joint_names": [
        "shoulder_pan_joint",
        "shoulder_lift_joint",
        "elbow_joint",
        "wrist_1_joint",
        "wrist_2_joint",
        "wrist_3_joint"
    ],
    "metrics": {
        "cart_traj_len": 0.5763073989984184,
        "distance_elbow_joint": 0.2581530330366937,
        "distance_shoulder_lift_joint": 0.18833669419204668,
        "distance_shoulder_pan_joint": 0.495613902607003,
        "distance_wrist_1_joint": 0.08535291129362321,
        "distance_wrist_2_joint": 1.0622692522532318,
        "distance_wrist_3_joint": 0.06552622479033632,
        "smoothness": 0.0,
        "time": 0.6989033960000001,
        "traj_len": 1.468077660811217,
        "weighted_distance": 1.853085705330561
    },
    "planner": "LBKPIECE",
    "start": {
        "state": {
            "elbow_joint": 2.0108683149792914,
            "shoulder_lift_joint": -1.1634956873317392,
            "shoulder_pan_joint": -2.4736205022346,
            "wrist_1_joint": -0.8367026793690192,
            "wrist_2_joint": 0.6746043897045053,
            "wrist_3_joint": 3.133522094754363
        }
    },
    "waypoints": [
        {
            "positions": [
                -2.4736205022346,
                -1.1634956873317392,
                2.0108683149792914,
                -0.8367026793690192,
                0.6746043897045053,
                3.133522094754363
            ]
        },
        {
            "positions": [
                -2.5562228193357672,
                -1.1321062382997316,
                1.9678428094731757,
                -0.8224771941534154,
                0.8516492650800439,
                3.1444431322194193
            ]
        },
        {
            "positions": [
                -2.6388251364369344,
                -1.1007167892677236,
                1.9248173039670602,
                -0.8082517089378115,
                1.0286941404555825,
                3.1553641696844754
            ]
        },
        {
            "positions": [
                -2.7214274535381016,
                -1.069327340235716,
                1.8817917984609447,
                -0.7940262237222075,
                1.2057390158311212,
                3.1662852071495315
            ]
        },
        {
            "positions": [
                -2.8040297706392687,
                -1.037937891203708,
                1.838766292954829,
                -0.7798007385066037,
                1.38278389120666,
                3.1772062446145872
            ]
        },
        {
            "positions": [
                -2.886632087740436,
                -1.0065484421717004,
                1.7957407874487132,
                -0.7655752532909998,
                1.5598287665821986,
                3.1881272820796434
            ]
        },
        {
            "positions": [
                -2.969234404841603,
                -0.9751589931396926,
                1.7527152819425977,
                -0.751349768075396,
                1.736873641957737,
                3.1990483195446995
            ]
        }
    ]
}