{
    "goal": {
        "global_pose": {
            "orientation": {
                "w": -0.00223480608172531,
                "x": 0.0024358444001904467,
                "y": 0.7094548369677653,
                "z": -0.704743149386269
            },
            "position": {
                "x": 0.6205249238014221,
                "y": -0.6371506643295288,
                "z": 0.19426114857196808
            }
        },
        "name": "move_to_magneteinheit_B"
    },
    "id": "LBKPIECE_move_to_magneteinheit_B_69",
    "joint_names": [
        "shoulder_pan_joint",
        "shoulder_lift_joint",
        "elbow_joint",
        "wrist_1_joint",
        "wrist_2_joint",
        "wrist_3_joint"
    ],
    "metrics": {
        "cart_traj_len": 4.192554090258407,
        "distance_elbow_joint": 4.770673665961635,
        "distance_shoulder_lift_joint": 0.8040453087223567,
        "distance_shoulder_pan_joint": 3.35817379712661,
        "distance_wrist_1_joint": 1.4420795405119846,
        "distance_wrist_2_joint": 2.850856799037812,
        "distance_wrist_3_joint": 3.659196193140715,
        "smoothness": 0.5013560334358407,
        "time": 0.550059465,
        "traj_len": 4.109139241313333,
        "weighted_distance": 5.3381976387477765
    },
    "planner": "LBKPIECE",
    "start": {
        "state": {
            "elbow_joint": 2.393587130804639,
            "shoulder_lift_joint": -1.9085141043513325,
            "shoulder_pan_joint": 0.7066247066698809,
            "wrist_1_joint": -0.4678290934590222,
            "wrist_2_joint": 0.7096259084215963,
            "wrist_3_joint": 3.147370379541726
        }
    },
    "waypoints": [
        {
            "positions": [
                0.7066247066698809,
                -1.9085141043513325,
                2.393587130804639,
                -0.4678290934590222,
                0.7096259084215963,
                3.147370379541726
            ]
        },
        {
            "positions": [
                0.6564350059011377,
                -1.8848219078714552,
                2.36212331615193,
                -0.45906739439382815,
                0.6397305054259425,
                3.0005298327665213
            ]
        },
        {
            "positions": [
                0.6062453051323944,
                -1.861129711391578,
                2.330659501499221,
                -0.4503056953286341,
                0.5698351024302886,
                2.853689285991317
            ]
        },
        {
            "positions": [
                0.5560556043636512,
                -1.8374375149117008,
                2.2991956868465118,
                -0.44154399626344004,
                0.4999396994346347,
                2.7068487392161122
            ]
        },
        {
            "positions": [
                0.5058659035949079,
                -1.8137453184318235,
                2.267731872193803,
                -0.432782297198246,
                0.43004429643898073,
                2.5600081924409075
            ]
        },
        {
            "positions": [
                0.4556762028261647,
                -1.7900531219519462,
                2.236268057541094,
                -0.424020598133052,
                0.36014889344332685,
                2.413167645665703
            ]
        },
        {
            "positions": [
                0.4638492851842867,
                -1.8214966008951587,
                2.076525712470763,
                -0.39565955601634023,
                0.3217503260621385,
                2.297962848068679
            ]
        },
        {
            "positions": [
                0.4720223675424086,
                -1.8529400798383713,
                1.916783367400432,
                -0.36729851389962853,
                0.2833517586809501,
                2.182758050471654
            ]
        },
        {
            "positions": [
                0.4801954499005306,
                -1.8843835587815838,
                1.757041022330101,
                -0.3389374717829168,
                0.24495319129976173,
                2.06755325287463
            ]
        },
        {
            "positions": [
                0.5709501526687818,
                -1.8865453694769874,
                1.6266372819983024,
                -0.2993938955238934,
                0.2899405086377702,
                1.9879099444112796
            ]
        },
        {
            "positions": [
                0.6617048554370331,
                -1.888707180172391,
                1.4962335416665038,
                -0.25985031926487,
                0.33492782597577864,
                1.908266635947929
            ]
        },
        {
            "positions": [
                0.7524595582052842,
                -1.8908689908677945,
                1.3658298013347054,
                -0.22030674300584663,
                0.37991514331378706,
                1.8286233274845787
            ]
        },
        {
            "positions": [
                0.8432142609735355,
                -1.893030801563198,
                1.2354260610029066,
                -0.18076316674682327,
                0.42490246065179554,
                1.7489800190212281
            ]
        },
        {
            "positions": [
                0.9339689637417867,
                -1.8951926122586016,
                1.1050223206711083,
                -0.14121959048779986,
                0.469889777989804,
                1.6693367105578778
            ]
        },
        {
            "positions": [
                1.0247236665100379,
                -1.8973544229540051,
                0.9746185803393097,
                -0.1016760142287765,
                0.5148770953278125,
                1.5896934020945275
            ]
        },
        {
            "positions": [
                1.1154783692782893,
                -1.8995162336494087,
                0.8442148400075111,
                -0.062132437969753096,
                0.559864412665821,
                1.510050093631177
            ]
        },
        {
            "positions": [
                1.2062330720465404,
                -1.9016780443448125,
                0.7138110996757125,
                -0.02258886171072977,
                0.6048517300038294,
                1.4304067851678264
            ]
        },
        {
            "positions": [
                1.2969877748147915,
                -1.903839855040216,
                0.583407359343914,
                0.01695471454829367,
                0.6498390473418378,
                1.350763476704476
            ]
        },
        {
            "positions": [
                1.387742477583043,
                -1.9060016657356196,
                0.4530036190121154,
                0.05649829080731705,
                0.6948263646798463,
                1.2711201682411257
            ]
        },
        {
            "positions": [
                1.478497180351294,
                -1.9081634764310231,
                0.32259987868031703,
                0.09604186706634038,
                0.7398136820178547,
                1.1914768597777754
            ]
        },
        {
            "positions": [
                1.5692518831195452,
                -1.9103252871264267,
                0.19219613834851845,
                0.13558544332536376,
                0.7848009993558631,
                1.1118335513144249
            ]
        },
        {
            "positions": [
                1.6600065858877966,
                -1.9124870978218302,
                0.061792398016719874,
                0.1751290195843872,
                0.8297883166938718,
                1.0321902428510745
            ]
        },
        {
            "positions": [
                1.7507612886560477,
                -1.9146489085172338,
                -0.0686113423150787,
                0.21467259584341059,
                0.8747756340318802,
                0.952546934387724
            ]
        },
        {
            "positions": [
                1.8415159914242991,
                -1.9168107192126373,
                -0.19901508264687728,
                0.25421617210243397,
                0.9197629513698886,
                0.8729036259243734
            ]
        },
        {
            "positions": [
                1.93227069419255,
                -1.918972529908041,
                -0.32941882297867586,
                0.29375974836145724,
                0.964750268707897,
                0.7932603174610231
            ]
        },
        {
            "positions": [
                2.023025396960801,
                -1.9211343406034445,
                -0.4598225633104742,
                0.3333033246204806,
                1.0097375860459055,
                0.7136170089976728
            ]
        },
        {
            "positions": [
                2.113780099729053,
                -1.923296151298848,
                -0.590226303642273,
                0.3728469008795041,
                1.054724903383914,
                0.6339737005343222
            ]
        },
        {
            "positions": [
                2.204534802497304,
                -1.9254579619942516,
                -0.7206300439740714,
                0.4123904771385274,
                1.0997122207219223,
                0.5543303920709719
            ]
        },
        {
            "positions": [
                2.295289505265555,
                -1.9276197726896551,
                -0.8510337843058702,
                0.4519340533975509,
                1.144699538059931,
                0.47468708360762135
            ]
        },
        {
            "positions": [
                2.3860442080338062,
                -1.9297815833850587,
                -0.9814375246376685,
                0.49147762965657416,
                1.1896868553979394,
                0.395043775144271
            ]
        },
        {
            "positions": [
                2.4767989108020574,
                -1.9319433940804625,
                -1.111841264969467,
                0.5310212059155975,
                1.2346741727359478,
                0.3154004666809207
            ]
        },
        {
            "positions": [
                2.567553613570309,
                -1.934105204775866,
                -1.2422450053012657,
                0.570564782174621,
                1.2796614900739562,
                0.23575715821757015
            ]
        },
        {
            "positions": [
                2.65830831633856,
                -1.9362670154712696,
                -1.372648745633064,
                0.6101083584336443,
                1.3246488074119647,
                0.15611384975421982
            ]
        },
        {
            "positions": [
                2.7490630191068113,
                -1.9384288261666731,
                -1.5030524859648624,
                0.6496519346926677,
                1.369636124749973,
                0.0764705412908695
            ]
        },
        {
            "positions": [
                2.839817721875063,
                -1.9405906368620767,
                -1.6334562262966612,
                0.6891955109516912,
                1.4146234420879817,
                -0.003172767172480828
            ]
        },
        {
            "positions": [
                2.9305724246433136,
                -1.9427524475574802,
                -1.7638599666284596,
                0.7287390872107145,
                1.4596107594259902,
                -0.08281607563583115
            ]
        },
        {
            "positions": [
                3.021327127411565,
                -1.9449142582528838,
                -1.8942637069602584,
                0.768282663469738,
                1.5045980767639986,
                -0.16245938409918192
            ]
        },
        {
            "positions": [
                3.1120818301798163,
                -1.9470760689482873,
                -2.0246674472920567,
                0.8078262397287612,
                1.549585394102007,
                -0.24210269256253225
            ]
        },
        {
            "positions": [
                3.055729371938661,
                -2.013146241364116,
                -1.9806150613089395,
                0.8286292656442865,
                1.4143914092127905,
                -0.20838730243297507
            ]
        },
        {
            "positions": [
                2.999376913697506,
                -2.0792164137799447,
                -1.9365626753258223,
                0.8494322915598118,
                1.279197424323574,
                -0.1746719123034179
            ]
        },
        {
            "positions": [
                2.9430244554563507,
                -2.1452865861957733,
                -1.892510289342705,
                0.870235317475337,
                1.1440034394343577,
                -0.1409565221738607
            ]
        },
        {
            "positions": [
                2.8866719972151955,
                -2.211356758611602,
                -1.8484579033595878,
                0.8910383433908623,
                1.0088094545451411,
                -0.10724113204430352
            ]
        },
        {
            "positions": [
                2.83031953897404,
                -2.2774269310274304,
                -1.8044055173764706,
                0.9118413693063876,
                0.8736154696559246,
                -0.07352574191474634
            ]
        },
        {
            "positions": [
                2.7739670807328847,
                -2.3434971034432595,
                -1.7603531313933534,
                0.9326443952219128,
                0.7384214847667082,
                -0.03981035178518916
            ]
        },
        {
            "positions": [
                2.7176146224917295,
                -2.409567275859088,
                -1.7163007454102361,
                0.9534474211374381,
                0.6032274998774918,
                -0.006094961655631975
            ]
        },
        {
            "positions": [
                2.6612621642505743,
                -2.4756374482749166,
                -1.672248359427119,
                0.9742504470529634,
                0.4680335149882754,
                0.02762042847392523
            ]
        }
    ]
}