{
    "goal": {
        "global_pose": {
            "orientation": {
                "w": -0.00223480608172531,
                "x": 0.0024358444001904467,
                "y": 0.7094548369677653,
                "z": -0.704743149386269
            },
            "position": {
                "x": 0.6205249238014221,
                "y": -0.6371506643295288,
                "z": 0.19426114857196808
            }
        },
        "name": "move_to_magneteinheit_B"
    },
    "id": "LBKPIECE_move_to_magneteinheit_B_16",
    "joint_names": [
        "shoulder_pan_joint",
        "shoulder_lift_joint",
        "elbow_joint",
        "wrist_1_joint",
        "wrist_2_joint",
        "wrist_3_joint"
    ],
    "metrics": {
        "cart_traj_len": 1.4533972362817908,
        "distance_elbow_joint": 0.7295741160495177,
        "distance_shoulder_lift_joint": 1.2484031333675656,
        "distance_shoulder_pan_joint": 1.6200463376769845,
        "distance_wrist_1_joint": 2.6120108832790447,
        "distance_wrist_2_joint": 2.946180898090343,
        "distance_wrist_3_joint": 3.1364511251879192,
        "smoothness": 5.113754540202099e-16,
        "time": 0.563276341,
        "traj_len": 3.5060899152262737,
        "weighted_distance": 4.911594499283975
    },
    "planner": "LBKPIECE",
    "start": {
        "state": {
            "elbow_joint": 2.393587130804639,
            "shoulder_lift_joint": -1.9085141043513325,
            "shoulder_pan_joint": 0.7066247066698809,
            "wrist_1_joint": -0.4678290934590222,
            "wrist_2_joint": 0.7096259084215963,
            "wrist_3_joint": 3.147370379541726
        }
    },
    "waypoints": [
        {
            "positions": [
                0.7066247066698809,
                -1.9085141043513325,
                2.393587130804639,
                -0.4678290934590222,
                0.7096259084215963,
                3.147370379541726
            ]
        },
        {
            "positions": [
                0.6559982586174751,
                -1.869501506433596,
                2.3707879396780913,
                -0.38620375335655205,
                0.6175577553562731,
                3.0493562818796036
            ]
        },
        {
            "positions": [
                0.6053718105650694,
                -1.8304889085158598,
                2.347988748551544,
                -0.30457841325408186,
                0.5254896022909499,
                2.951342184217481
            ]
        },
        {
            "positions": [
                0.5547453625126636,
                -1.7914763105981233,
                2.3251895574249963,
                -0.22295307315161172,
                0.43342144922562675,
                2.8533280865553587
            ]
        },
        {
            "positions": [
                0.5041189144602578,
                -1.7524637126803868,
                2.3023903662984493,
                -0.1413277330491416,
                0.3413532961603035,
                2.7553139888932363
            ]
        },
        {
            "positions": [
                0.453492466407852,
                -1.7134511147626503,
                2.279591175171902,
                -0.059702392946671456,
                0.2492851430949803,
                2.657299891231114
            ]
        },
        {
            "positions": [
                0.4028660183554463,
                -1.6744385168449138,
                2.2567919840453543,
                0.021922947155798733,
                0.15721699002965717,
                2.559285793568991
            ]
        },
        {
            "positions": [
                0.35223957030304054,
                -1.6354259189271776,
                2.233992792918807,
                0.10354828725826887,
                0.06514883696433393,
                2.4612716959068686
            ]
        },
        {
            "positions": [
                0.30161312225063475,
                -1.596413321009441,
                2.2111936017922593,
                0.185173627360739,
                -0.0269193161009893,
                2.363257598244746
            ]
        },
        {
            "positions": [
                0.25098667419822895,
                -1.5574007230917046,
                2.188394410665712,
                0.26679896746320914,
                -0.11898746916631253,
                2.2652435005826237
            ]
        },
        {
            "positions": [
                0.20036022614582316,
                -1.5183881251739684,
                2.1655952195391643,
                0.34842430756567927,
                -0.21105562223163576,
                2.1672294029205013
            ]
        },
        {
            "positions": [
                0.14973377809341748,
                -1.479375527256232,
                2.142796028412617,
                0.4300496476681494,
                -0.3031237752969589,
                2.069215305258379
            ]
        },
        {
            "positions": [
                0.09910733004101169,
                -1.4403629293384954,
                2.11999683728607,
                0.5116749877706197,
                -0.395191928362282,
                1.9712012075962564
            ]
        },
        {
            "positions": [
                0.048480881988605895,
                -1.401350331420759,
                2.0971976461595223,
                0.5933003278730897,
                -0.48726008142760535,
                1.873187109934134
            ]
        },
        {
            "positions": [
                -0.0021455660637997864,
                -1.3623377335030225,
                2.074398455032975,
                0.67492566797556,
                -0.5793282344929285,
                1.7751730122720113
            ]
        },
        {
            "positions": [
                -0.05277201411620558,
                -1.3233251355852862,
                2.0515992639064273,
                0.75655100807803,
                -0.6713963875582518,
                1.6771589146098889
            ]
        },
        {
            "positions": [
                -0.10339846216861137,
                -1.2843125376675497,
                2.02880007277988,
                0.8381763481805002,
                -0.7634645406235749,
                1.5791448169477664
            ]
        },
        {
            "positions": [
                -0.15402491022101716,
                -1.2452999397498132,
                2.0060008816533323,
                0.9198016882829705,
                -0.8555326936888981,
                1.481130719285644
            ]
        },
        {
            "positions": [
                -0.20465135827342296,
                -1.206287341832077,
                1.983201690526785,
                1.0014270283854405,
                -0.9476008467542214,
                1.3831166216235216
            ]
        },
        {
            "positions": [
                -0.25527780632582864,
                -1.1672747439143405,
                1.9604024994002376,
                1.0830523684879108,
                -1.0396689998195445,
                1.285102523961399
            ]
        },
        {
            "positions": [
                -0.30590425437823454,
                -1.128262145996604,
                1.9376033082736903,
                1.1646777085903808,
                -1.1317371528848679,
                1.1870884262992765
            ]
        },
        {
            "positions": [
                -0.3565307024306402,
                -1.0892495480788675,
                1.9148041171471428,
                1.246303048692851,
                -1.223805305950191,
                1.089074328637154
            ]
        },
        {
            "positions": [
                -0.4071571504830459,
                -1.050236950161131,
                1.8920049260205953,
                1.327928388795321,
                -1.3158734590155141,
                0.9910602309750316
            ]
        },
        {
            "positions": [
                -0.4577835985354518,
                -1.0112243522433948,
                1.8692057348940478,
                1.4095537288977913,
                -1.4079416120808375,
                0.8930461333129092
            ]
        },
        {
            "positions": [
                -0.5084100465878575,
                -0.9722117543256583,
                1.8464065437675006,
                1.4911790690002615,
                -1.5000097651461604,
                0.7950320356507867
            ]
        },
        {
            "positions": [
                -0.5590364946402632,
                -0.9331991564079218,
                1.823607352640953,
                1.5728044091027316,
                -1.5920779182114837,
                0.6970179379886643
            ]
        },
        {
            "positions": [
                -0.6096629426926691,
                -0.8941865584901854,
                1.8008081615144058,
                1.6544297492052016,
                -1.684146071276807,
                0.5990038403265419
            ]
        },
        {
            "positions": [
                -0.6602893907450748,
                -0.8551739605724491,
                1.7780089703878583,
                1.736055089307672,
                -1.7762142243421304,
                0.500989742664419
            ]
        },
        {
            "positions": [
                -0.7109158387974804,
                -0.8161613626547126,
                1.7552097792613108,
                1.817680429410142,
                -1.8682823774074533,
                0.40297564500229655
            ]
        },
        {
            "positions": [
                -0.7615422868498863,
                -0.7771487647369761,
                1.7324105881347633,
                1.899305769512612,
                -1.9603505304727766,
                0.3049615473401741
            ]
        },
        {
            "positions": [
                -0.812168734902292,
                -0.7381361668192399,
                1.7096113970082158,
                1.9809311096150821,
                -2.0524186835381,
                0.20694744967805168
            ]
        },
        {
            "positions": [
                -0.8627951829546979,
                -0.6991235689015034,
                1.6868122058816684,
                2.0625564497175524,
                -2.1444868366034227,
                0.10893335201592924
            ]
        },
        {
            "positions": [
                -0.9134216310071037,
                -0.6601109709837669,
                1.664013014755121,
                2.1441817898200224,
                -2.2365549896687464,
                0.010919254353806637
            ]
        }
    ]
}