{
    "goal": {
        "global_pose": {
            "orientation": {
                "w": 0.7047431493862688,
                "x": -0.7094548369677653,
                "y": 0.0024358444001904,
                "z": -0.0022348060817251984
            },
            "position": {
                "x": -0.39052492380142206,
                "y": 0.3671506643295288,
                "z": 0.19426114857196808
            }
        },
        "name": "move_to_magneteinheit_D"
    },
    "id": "LBKPIECE_move_to_magneteinheit_D_88",
    "joint_names": [
        "shoulder_pan_joint",
        "shoulder_lift_joint",
        "elbow_joint",
        "wrist_1_joint",
        "wrist_2_joint",
        "wrist_3_joint"
    ],
    "metrics": {
        "cart_traj_len": 5.415495764451729,
        "distance_elbow_joint": 3.9821776598849046,
        "distance_shoulder_lift_joint": 1.1085620143100545,
        "distance_shoulder_pan_joint": 3.8435736735514885,
        "distance_wrist_1_joint": 3.578443131483672,
        "distance_wrist_2_joint": 2.8230198764782943,
        "distance_wrist_3_joint": 7.469747015936237,
        "smoothness": 0.8390897846108537,
        "time": 0.651747229,
        "traj_len": 4.775512890951573,
        "weighted_distance": 6.6442817829679015
    },
    "planner": "LBKPIECE",
    "start": {
        "state": {
            "elbow_joint": 0.7495348899011911,
            "shoulder_lift_joint": -0.6476975780737668,
            "shoulder_pan_joint": -2.711696901376276,
            "wrist_1_joint": -0.0750647808097303,
            "wrist_2_joint": 0.43296659715458535,
            "wrist_3_joint": 3.1361499051832418
        }
    },
    "waypoints": [
        {
            "positions": [
                -2.711696901376276,
                -0.6476975780737668,
                0.7495348899011911,
                -0.0750647808097303,
                0.43296659715458535,
                3.1361499051832418
            ]
        },
        {
            "positions": [
                -2.755349073765349,
                -0.6599611559845596,
                0.7082777319073809,
                -0.16972649248811073,
                0.32477614766197527,
                3.0538671450142014
            ]
        },
        {
            "positions": [
                -2.7990012461544223,
                -0.6722247338953524,
                0.6670205739135705,
                -0.26438820416649117,
                0.21658569816936515,
                2.9715843848451615
            ]
        },
        {
            "positions": [
                -2.842653418543495,
                -0.6844883118061452,
                0.6257634159197603,
                -0.35904991584487156,
                0.1083952486767551,
                2.889301624676121
            ]
        },
        {
            "positions": [
                -2.886305590932568,
                -0.696751889716938,
                0.58450625792595,
                -0.453711627523252,
                0.0002047991841449548,
                2.807018864507081
            ]
        },
        {
            "positions": [
                -2.929957763321641,
                -0.7090154676277308,
                0.5432490999321398,
                -0.5483733392016324,
                -0.10798565030846513,
                2.724736104338041
            ]
        },
        {
            "positions": [
                -2.973609935710714,
                -0.7212790455385236,
                0.5019919419383294,
                -0.6430350508800129,
                -0.21617609980107516,
                2.6424533441690006
            ]
        },
        {
            "positions": [
                -3.017262108099787,
                -0.7335426234493165,
                0.46073478394451917,
                -0.7376967625583933,
                -0.3243665492936853,
                2.5601705839999607
            ]
        },
        {
            "positions": [
                -3.06091428048886,
                -0.7458062013601093,
                0.41947762595070887,
                -0.8323584742367738,
                -0.43255699878629544,
                2.4778878238309203
            ]
        },
        {
            "positions": [
                -3.1045664528779326,
                -0.7580697792709021,
                0.3782204679568986,
                -0.9270201859151543,
                -0.5407474482789054,
                2.39560506366188
            ]
        },
        {
            "positions": [
                -3.1482186252670057,
                -0.7703333571816949,
                0.3369633099630884,
                -1.0216818975935347,
                -0.6489378977715157,
                2.31332230349284
            ]
        },
        {
            "positions": [
                -3.1918707976560787,
                -0.7825969350924877,
                0.2957061519692781,
                -1.116343609271915,
                -0.7571283472641257,
                2.2310395433237997
            ]
        },
        {
            "positions": [
                -3.1327698570506395,
                -0.793629241793355,
                0.34508269490148974,
                -1.039117475190537,
                -0.6366412726428188,
                2.301621765365819
            ]
        },
        {
            "positions": [
                -3.0736689164452002,
                -0.8046615484942224,
                0.39445923783370135,
                -0.9618913411091589,
                -0.5161541980215119,
                2.3722039874078384
            ]
        },
        {
            "positions": [
                -3.014567975839761,
                -0.8156938551950897,
                0.443835780765913,
                -0.8846652070277807,
                -0.39566712340020493,
                2.442786209449858
            ]
        },
        {
            "positions": [
                -2.9554670352343217,
                -0.8267261618959572,
                0.4932123236981246,
                -0.8074390729464027,
                -0.275180048778898,
                2.5133684314918767
            ]
        },
        {
            "positions": [
                -2.896366094628882,
                -0.8377584685968245,
                0.5425888666303363,
                -0.7302129388650245,
                -0.1546929741575911,
                2.583950653533896
            ]
        },
        {
            "positions": [
                -2.837265154023443,
                -0.8487907752976919,
                0.591965409562548,
                -0.6529868047836465,
                -0.03420589953628417,
                2.6545328755759154
            ]
        },
        {
            "positions": [
                -2.7781642134180036,
                -0.8598230819985592,
                0.6413419524947597,
                -0.5757606707022683,
                0.08628117508502275,
                2.725115097617935
            ]
        },
        {
            "positions": [
                -2.7190632728125643,
                -0.8708553886994266,
                0.6907184954269712,
                -0.4985345366208903,
                0.20676824970632968,
                2.795697319659954
            ]
        },
        {
            "positions": [
                -2.659962332207125,
                -0.8818876954002939,
                0.7400950383591829,
                -0.42130840253951224,
                0.3272553243276366,
                2.8662795417019735
            ]
        },
        {
            "positions": [
                -2.5834065662465657,
                -0.9054237378224496,
                0.6639950269801077,
                -0.46846418158550607,
                0.3184923248550962,
                2.709635141684985
            ]
        },
        {
            "positions": [
                -2.5068508002860064,
                -0.9289597802446053,
                0.5878950156010325,
                -0.5156199606315,
                0.3097293253825558,
                2.552990741667997
            ]
        },
        {
            "positions": [
                -2.430295034325447,
                -0.952495822666761,
                0.5117950042219572,
                -0.5627757396774937,
                0.30096632591001543,
                2.396346341651009
            ]
        },
        {
            "positions": [
                -2.3537392683648877,
                -0.9760318650889167,
                0.43569499284288205,
                -0.6099315187234875,
                0.29220332643747504,
                2.2397019416340207
            ]
        },
        {
            "positions": [
                -2.2771835024043288,
                -0.9995679075110724,
                0.35959498146380686,
                -0.6570872977694814,
                0.28344032696493465,
                2.0830575416170323
            ]
        },
        {
            "positions": [
                -2.2006277364437694,
                -1.0231039499332282,
                0.2834949700847316,
                -0.7042430768154753,
                0.27467732749239426,
                1.9264131416000443
            ]
        },
        {
            "positions": [
                -2.12407197048321,
                -1.046639992355384,
                0.20739495870565638,
                -0.751398855861469,
                0.2659143280198538,
                1.769768741583056
            ]
        },
        {
            "positions": [
                -2.0475162045226507,
                -1.0701760347775395,
                0.1312949473265812,
                -0.7985546349074628,
                0.2571513285473135,
                1.6131243415660679
            ]
        },
        {
            "positions": [
                -1.9709604385620914,
                -1.0937120771996953,
                0.05519493594750602,
                -0.8457104139534567,
                0.24838832907477307,
                1.4564799415490797
            ]
        },
        {
            "positions": [
                -1.894404672601532,
                -1.117248119621851,
                -0.020905075431569164,
                -0.8928661929994506,
                0.23962532960223268,
                1.2998355415320915
            ]
        },
        {
            "positions": [
                -1.8178489066409729,
                -1.1407841620440067,
                -0.09700508681064446,
                -0.9400219720454444,
                0.23086233012969226,
                1.1431911415151033
            ]
        },
        {
            "positions": [
                -1.7412931406804135,
                -1.1643202044661625,
                -0.17310509818971964,
                -0.9871777510914381,
                0.22209933065715187,
                0.986546741498115
            ]
        },
        {
            "positions": [
                -1.6647373747198542,
                -1.1878562468883183,
                -0.24920510956879482,
                -1.034333530137432,
                0.21333633118461148,
                0.8299023414811266
            ]
        },
        {
            "positions": [
                -1.588181608759295,
                -1.2113922893104738,
                -0.3253051209478701,
                -1.081489309183426,
                0.2045733317120711,
                0.6732579414641386
            ]
        },
        {
            "positions": [
                -1.5116258427987357,
                -1.2349283317326296,
                -0.4014051323269452,
                -1.1286450882294197,
                0.1958103322395307,
                0.5166135414471507
            ]
        },
        {
            "positions": [
                -1.4350700768381763,
                -1.2584643741547854,
                -0.4775051437060205,
                -1.1758008672754134,
                0.18704733276699032,
                0.35996914143016223
            ]
        },
        {
            "positions": [
                -1.358514310877617,
                -1.282000416576941,
                -0.5536051550850958,
                -1.2229566463214072,
                0.17828433329444993,
                0.2033247414131738
            ]
        },
        {
            "positions": [
                -1.2819585449170576,
                -1.3055364589990968,
                -0.6297051664641709,
                -1.2701124253674012,
                0.16952133382190954,
                0.04668034139618582
            ]
        },
        {
            "positions": [
                -1.2054027789564985,
                -1.3290725014212526,
                -0.7058051778432461,
                -1.317268204413395,
                0.16075833434936915,
                -0.10996405862080216
            ]
        },
        {
            "positions": [
                -1.1288470129959391,
                -1.3526085438434081,
                -0.7819051892223212,
                -1.3644239834593888,
                0.15199533487682876,
                -0.2666084586377906
            ]
        },
        {
            "positions": [
                -1.0522912470353798,
                -1.376144586265564,
                -0.8580052006013965,
                -1.4115797625053825,
                0.14323233540428834,
                -0.423252858654779
            ]
        },
        {
            "positions": [
                -0.9757354810748207,
                -1.3996806286877197,
                -0.9341052119804718,
                -1.4587355415513765,
                0.13446933593174795,
                -0.579897258671767
            ]
        },
        {
            "positions": [
                -0.8991797151142613,
                -1.4232166711098753,
                -1.0102052233595469,
                -1.5058913205973703,
                0.12570633645920756,
                -0.736541658688755
            ]
        },
        {
            "positions": [
                -0.822623949153702,
                -1.446752713532031,
                -1.0863052347386222,
                -1.553047099643364,
                0.11694333698666717,
                -0.8931860587057434
            ]
        },
        {
            "positions": [
                -0.7460681831931426,
                -1.4702887559541868,
                -1.1624052461176975,
                -1.6002028786893578,
                0.10818033751412678,
                -1.0498304587227318
            ]
        },
        {
            "positions": [
                -0.6695124172325833,
                -1.4938247983763424,
                -1.2385052574967725,
                -1.6473586577353516,
                0.0994173380415864,
                -1.2064748587397203
            ]
        },
        {
            "positions": [
                -0.5929566512720239,
                -1.517360840798498,
                -1.3146052688758478,
                -1.6945144367813456,
                0.090654338569046,
                -1.3631192587567078
            ]
        },
        {
            "positions": [
                -0.516400885311465,
                -1.540896883220654,
                -1.3907052802549231,
                -1.7416702158273394,
                0.08189133909650559,
                -1.5197636587736962
            ]
        },
        {
            "positions": [
                -0.43984511935090564,
                -1.5644329256428096,
                -1.4668052916339984,
                -1.7888259948733332,
                0.0731283396239652,
                -1.6764080587906847
            ]
        },
        {
            "positions": [
                -0.3632893533903463,
                -1.5879689680649651,
                -1.5429053030130733,
                -1.8359817739193272,
                0.06436534015142481,
                -1.8330524588076722
            ]
        },
        {
            "positions": [
                -0.28673358742978694,
                -1.6115050104871211,
                -1.6190053143921486,
                -1.883137552965321,
                0.05560234067888442,
                -1.9896968588246606
            ]
        },
        {
            "positions": [
                -0.2101778214692278,
                -1.6350410529092767,
                -1.6951053257712236,
                -1.9302933320113147,
                0.046839341206344046,
                -2.146341258841649
            ]
        },
        {
            "positions": [
                -0.15932138136210408,
                -1.647155191310048,
                -1.761513837611616,
                -1.9655462580979144,
                0.04749793082738249,
                -2.2500612841504526
            ]
        },
        {
            "positions": [
                -0.10846494125498035,
                -1.6592693297108192,
                -1.8279223494520083,
                -2.000799184184514,
                0.04815652044842093,
                -2.353781309459256
            ]
        },
        {
            "positions": [
                -0.07737055847119483,
                -1.6659043521993044,
                -1.9059862713689615,
                -2.04326147367005,
                0.05492206116583964,
                -2.4313274612687015
            ]
        },
        {
            "positions": [
                -0.0462761756874093,
                -1.6725393746877897,
                -1.984050193285915,
                -2.0857237631555856,
                0.06168760188325835,
                -2.508873613078147
            ]
        },
        {
            "positions": [
                -0.005803175481029305,
                -1.6812777678035893,
                -2.1078840061604684,
                -2.1542381627073315,
                0.07354404232601941,
                -2.6194135595113828
            ]
        },
        {
            "positions": [
                -0.021747398126587644,
                -1.6904973152066136,
                -2.1844195804661553,
                -2.2008352107583566,
                0.05365899437100555,
                -2.691892387174169
            ]
        },
        {
            "positions": [
                -0.03769162077214599,
                -1.699716862609638,
                -2.2609551547718425,
                -2.247432258809382,
                0.033773946415991685,
                -2.764371214836955
            ]
        },
        {
            "positions": [
                -0.0861728573739865,
                -1.7185644392010324,
                -2.288591768915863,
                -2.2527673388157856,
                -0.03344288035628548,
                -2.8639531812235193
            ]
        },
        {
            "positions": [
                -0.13465409397582703,
                -1.7374120157924269,
                -2.316228383059883,
                -2.258102418822189,
                -0.10065970712856265,
                -2.9635351476100835
            ]
        },
        {
            "positions": [
                -0.18313533057766757,
                -1.7562595923838213,
                -2.3438649972039034,
                -2.263437498828593,
                -0.16787653390083981,
                -3.0631171139966478
            ]
        }
    ]
}