{
    "goal": {
        "global_pose": {
            "orientation": {
                "w": 0.7031023480610252,
                "x": -0.7110244013736278,
                "y": 0.0077485991402295624,
                "z": 0.005598929693374583
            },
            "position": {
                "x": -0.8841497679147869,
                "y": 0.44412534475326537,
                "z": 0.3711530566215515
            }
        },
        "name": "move_to_auspresseinheit_D"
    },
    "id": "LBKPIECE_move_to_auspresseinheit_D_102",
    "joint_names": [
        "shoulder_pan_joint",
        "shoulder_lift_joint",
        "elbow_joint",
        "wrist_1_joint",
        "wrist_2_joint",
        "wrist_3_joint"
    ],
    "metrics": {
        "cart_traj_len": 0.3427045410129783,
        "distance_elbow_joint": 0.6295527282582414,
        "distance_shoulder_lift_joint": 0.11676002542899466,
        "distance_shoulder_pan_joint": 0.13424311864776742,
        "distance_wrist_1_joint": 0.5047231014641946,
        "distance_wrist_2_joint": 1.4327734701938102,
        "distance_wrist_3_joint": 0.018563524310093893,
        "smoothness": 3.9474596431116675e-16,
        "time": 0.6420470159999999,
        "traj_len": 1.6842256286801665,
        "weighted_distance": 2.1934538036123064
    },
    "planner": "LBKPIECE",
    "start": {
        "state": {
            "elbow_joint": -1.8275484843655228,
            "shoulder_lift_joint": -2.1267897864000416,
            "shoulder_pan_joint": -0.035127520176001514,
            "wrist_1_joint": -2.3477863256791385,
            "wrist_2_joint": -1.605890476484521,
            "wrist_3_joint": -3.0880375317375353
        }
    },
    "waypoints": [
        {
            "positions": [
                -0.035127520176001514,
                -2.1267897864000416,
                -1.8275484843655228,
                -2.3477863256791385,
                -1.605890476484521,
                -3.0880375317375353
            ]
        },
        {
            "positions": [
                -0.05190791000697244,
                -2.141384789578666,
                -1.7488543933332426,
                -2.4108767133621627,
                -1.4267937927102947,
                -3.090357972276297
            ]
        },
        {
            "positions": [
                -0.06868829983794336,
                -2.1559797927572903,
                -1.6701603023009624,
                -2.4739671010451874,
                -1.2476971089360684,
                -3.092678412815059
            ]
        },
        {
            "positions": [
                -0.0854686896689143,
                -2.1705747959359147,
                -1.5914662112686822,
                -2.5370574887282116,
                -1.0686004251618422,
                -3.0949988533538204
            ]
        },
        {
            "positions": [
                -0.10224907949988522,
                -2.185169799114539,
                -1.5127721202364022,
                -2.600147876411236,
                -0.8895037413876159,
                -3.097319293892582
            ]
        },
        {
            "positions": [
                -0.11902946933085615,
                -2.199764802293163,
                -1.4340780292041218,
                -2.66323826409426,
                -0.7104070576133896,
                -3.099639734431344
            ]
        },
        {
            "positions": [
                -0.13580985916182708,
                -2.2143598054717875,
                -1.3553839381718418,
                -2.7263286517772842,
                -0.5313103738391634,
                -3.1019601749701056
            ]
        },
        {
            "positions": [
                -0.152590248992798,
                -2.228954808650412,
                -1.2766898471395616,
                -2.789419039460309,
                -0.3522136900649371,
                -3.1042806155088676
            ]
        },
        {
            "positions": [
                -0.16937063882376893,
                -2.2435498118290362,
                -1.1979957561072814,
                -2.852509427143333,
                -0.17311700629071075,
                -3.106601056047629
            ]
        }
    ]
}