{
    "goal": {
        "global_pose": {
            "orientation": {
                "w": 0.005598929693374612,
                "x": 0.007748599140229565,
                "y": 0.7110244013736278,
                "z": -0.7031023480610252
            },
            "position": {
                "x": -0.8858502320852131,
                "y": -0.7141253447532654,
                "z": 0.3711530566215515
            }
        },
        "name": "move_to_auspresseinheit_C"
    },
    "id": "LBKPIECE_move_to_auspresseinheit_C_102",
    "joint_names": [
        "shoulder_pan_joint",
        "shoulder_lift_joint",
        "elbow_joint",
        "wrist_1_joint",
        "wrist_2_joint",
        "wrist_3_joint"
    ],
    "metrics": {
        "cart_traj_len": 0.49515222570397627,
        "distance_elbow_joint": 1.022308445282951,
        "distance_shoulder_lift_joint": 0.33568714731775984,
        "distance_shoulder_pan_joint": 0.25644572721981973,
        "distance_wrist_1_joint": 0.7147198086554394,
        "distance_wrist_2_joint": 1.316516786025503,
        "distance_wrist_3_joint": 0.08460751700197555,
        "smoothness": 4.844609574787718e-16,
        "time": 0.331697819,
        "traj_len": 1.931394685584344,
        "weighted_distance": 2.43531046484598
    },
    "planner": "LBKPIECE",
    "start": {
        "state": {
            "elbow_joint": 1.7527959577730765,
            "shoulder_lift_joint": -0.9740617694224828,
            "shoulder_pan_joint": -2.967991417825869,
            "wrist_1_joint": -0.7595177689779385,
            "wrist_2_joint": 1.7443932448376545,
            "wrist_3_joint": 3.1991315425061013
        }
    },
    "waypoints": [
        {
            "positions": [
                -2.967991417825869,
                -0.9740617694224828,
                1.7527959577730765,
                -0.7595177689779385,
                1.7443932448376545,
                3.1991315425061013
            ]
        },
        {
            "positions": [
                -2.942346845103887,
                -0.9404930546907068,
                1.6505651132447814,
                -0.6880457881123946,
                1.6127415662351041,
                3.1906707908059038
            ]
        },
        {
            "positions": [
                -2.916702272381905,
                -0.9069243399589308,
                1.5483342687164863,
                -0.6165738072468506,
                1.4810898876325538,
                3.182210039105706
            ]
        },
        {
            "positions": [
                -2.8910576996599233,
                -0.8733556252271548,
                1.4461034241881912,
                -0.5451018263813068,
                1.3494382090300037,
                3.1737492874055087
            ]
        },
        {
            "positions": [
                -2.8654131269379413,
                -0.8397869104953788,
                1.343872579659896,
                -0.47362984551576276,
                1.2177865304274533,
                3.165288535705311
            ]
        },
        {
            "positions": [
                -2.839768554215959,
                -0.8062181957636029,
                1.241641735131601,
                -0.40215786465021885,
                1.086134851824903,
                3.1568277840051135
            ]
        },
        {
            "positions": [
                -2.814123981493977,
                -0.772649481031827,
                1.139410890603306,
                -0.33068588378467495,
                0.9544831732223528,
                3.148367032304916
            ]
        },
        {
            "positions": [
                -2.788479408771995,
                -0.7390807663000509,
                1.037180046075011,
                -0.25921390291913105,
                0.8228314946198024,
                3.1399062806047184
            ]
        },
        {
            "positions": [
                -2.7628348360500135,
                -0.7055120515682749,
                0.9349492015467157,
                -0.18774192205358697,
                0.691179816017252,
                3.131445528904521
            ]
        },
        {
            "positions": [
                -2.7371902633280314,
                -0.6719433368364989,
                0.8327183570184207,
                -0.11626994118804312,
                0.5595281374147019,
                3.1229847772043233
            ]
        },
        {
            "positions": [
                -2.7115456906060493,
                -0.638374622104723,
                0.7304875124901256,
                -0.04479796032249913,
                0.42787645881215147,
                3.1145240255041258
            ]
        }
    ]
}