{
    "goal": {
        "global_pose": {
            "orientation": {
                "w": -0.00223480608172531,
                "x": 0.0024358444001904467,
                "y": 0.7094548369677653,
                "z": -0.704743149386269
            },
            "position": {
                "x": -0.37947507619857795,
                "y": -0.6371506643295288,
                "z": 0.19426114857196808
            }
        },
        "name": "move_to_magneteinheit_C"
    },
    "id": "LBKPIECE_move_to_magneteinheit_C_22",
    "joint_names": [
        "shoulder_pan_joint",
        "shoulder_lift_joint",
        "elbow_joint",
        "wrist_1_joint",
        "wrist_2_joint",
        "wrist_3_joint"
    ],
    "metrics": {
        "cart_traj_len": 3.019290155596625,
        "distance_elbow_joint": 2.0600581234051223,
        "distance_shoulder_lift_joint": 0.8745703670638381,
        "distance_shoulder_pan_joint": 2.725611313344465,
        "distance_wrist_1_joint": 3.259884438346206,
        "distance_wrist_2_joint": 3.6360707418855798,
        "distance_wrist_3_joint": 3.0104604279386997,
        "smoothness": 0.649698234011045,
        "time": 0.277294278,
        "traj_len": 3.9454601014309993,
        "weighted_distance": 5.336996481926243
    },
    "planner": "LBKPIECE",
    "start": {
        "state": {
            "elbow_joint": 1.9565354006593851,
            "shoulder_lift_joint": -1.4165861576512813,
            "shoulder_pan_joint": -1.6717766223278752,
            "wrist_1_joint": -0.528663328821883,
            "wrist_2_joint": 1.472756589259273,
            "wrist_3_joint": 3.159348288315503
        }
    },
    "waypoints": [
        {
            "positions": [
                -1.6717766223278752,
                -1.4165861576512813,
                1.9565354006593851,
                -0.528663328821883,
                1.472756589259273,
                3.159348288315503
            ]
        },
        {
            "positions": [
                -1.6543991789670716,
                -1.4268577643455242,
                1.9639871766388928,
                -0.5241981597629102,
                1.4394722405197315,
                3.1568089097365424
            ]
        },
        {
            "positions": [
                -1.568878138672899,
                -1.4423491156647705,
                1.889156414407954,
                -0.5058106149875682,
                1.3226660992601071,
                3.0995876559653737
            ]
        },
        {
            "positions": [
                -1.483357098378726,
                -1.457840466984017,
                1.8143256521770152,
                -0.48742307021222614,
                1.2058599580004825,
                3.0423664021942045
            ]
        },
        {
            "positions": [
                -1.3978360580845535,
                -1.4733318183032633,
                1.7394948899460765,
                -0.4690355254368841,
                1.089053816740858,
                2.985145148423036
            ]
        },
        {
            "positions": [
                -1.3303233190210044,
                -1.471228233027163,
                1.6332053400810793,
                -0.44525408179327824,
                1.0064233183279971,
                2.906356932941748
            ]
        },
        {
            "positions": [
                -1.2628105799574554,
                -1.4691246477510627,
                1.5269157902160821,
                -0.4214726381496724,
                0.9237928199151362,
                2.82756871746046
            ]
        },
        {
            "positions": [
                -1.1952978408939063,
                -1.4670210624749624,
                1.4206262403510852,
                -0.3976911945060665,
                0.8411623215022752,
                2.748780501979172
            ]
        },
        {
            "positions": [
                -1.1277851018303573,
                -1.464917477198862,
                1.314336690486088,
                -0.37390975086246064,
                0.7585318230894142,
                2.6699922864978842
            ]
        },
        {
            "positions": [
                -1.060272362766808,
                -1.4628138919227618,
                1.2080471406210909,
                -0.3501283072188548,
                0.6759013246765533,
                2.5912040710165964
            ]
        },
        {
            "positions": [
                -0.992759623703259,
                -1.4607103066466613,
                1.1017575907560937,
                -0.3263468635752489,
                0.5932708262636923,
                2.512415855535308
            ]
        },
        {
            "positions": [
                -0.9252468846397099,
                -1.4586067213705611,
                0.9954680408910965,
                -0.30256541993164304,
                0.5106403278508314,
                2.4336276400540204
            ]
        },
        {
            "positions": [
                -1.0428830010422685,
                -1.4219664705243518,
                0.9930235584250694,
                -0.21866100996821095,
                0.426692880054541,
                2.3801717892015235
            ]
        },
        {
            "positions": [
                -1.1605191174448273,
                -1.3853262196781426,
                0.9905790759590423,
                -0.13475660000477885,
                0.34274543225825055,
                2.3267159383490266
            ]
        },
        {
            "positions": [
                -1.2781552338473858,
                -1.3486859688319333,
                0.988134593493015,
                -0.05085219004134672,
                0.2587979844619602,
                2.2732600874965296
            ]
        },
        {
            "positions": [
                -1.3957913502499446,
                -1.3120457179857241,
                0.9856901110269879,
                0.033052219922085346,
                0.17485053666566974,
                2.219804236644033
            ]
        },
        {
            "positions": [
                -1.5134274666525032,
                -1.2754054671395147,
                0.9832456285609608,
                0.11695662988551742,
                0.09090308886937937,
                2.166348385791536
            ]
        },
        {
            "positions": [
                -1.631063583055062,
                -1.2387652162933054,
                0.9808011460949336,
                0.2008610398489496,
                0.006955641073088992,
                2.1128925349390393
            ]
        },
        {
            "positions": [
                -1.7486996994576205,
                -1.202124965447096,
                0.9783566636289065,
                0.28476544981238167,
                -0.07699180672320138,
                2.0594366840865423
            ]
        },
        {
            "positions": [
                -1.8663358158601793,
                -1.1654847146008869,
                0.9759121811628793,
                0.36866985977581374,
                -0.16093925451949187,
                2.0059808332340454
            ]
        },
        {
            "positions": [
                -1.9839719322627378,
                -1.1288444637546775,
                0.9734676986968521,
                0.4525742697392458,
                -0.24488670231578225,
                1.9525249823815487
            ]
        },
        {
            "positions": [
                -2.1016080486652964,
                -1.0922042129084684,
                0.971023216230825,
                0.5364786797026779,
                -0.3288341501120726,
                1.899069131529052
            ]
        },
        {
            "positions": [
                -2.219244165067855,
                -1.055563962062259,
                0.9685787337647979,
                0.62038308966611,
                -0.412781597908363,
                1.845613280676555
            ]
        },
        {
            "positions": [
                -2.336880281470414,
                -1.0189237112160496,
                0.9661342512987707,
                0.7042874996295423,
                -0.49672904570465337,
                1.7921574298240581
            ]
        },
        {
            "positions": [
                -2.4545163978729727,
                -0.9822834603698405,
                0.9636897688327435,
                0.7881919095929744,
                -0.5806764935009439,
                1.7387015789715612
            ]
        },
        {
            "positions": [
                -2.5721525142755315,
                -0.9456432095236311,
                0.9612452863667164,
                0.8720963195564064,
                -0.6646239412972341,
                1.6852457281190643
            ]
        },
        {
            "positions": [
                -2.68978863067809,
                -0.9090029586774219,
                0.9588008039006892,
                0.9560007295198385,
                -0.7485713890935247,
                1.6317898772665675
            ]
        },
        {
            "positions": [
                -2.6817412297025305,
                -0.9113856867261373,
                1.0464685226908033,
                0.8582803090187724,
                -0.6893324632651331,
                1.7312043974596227
            ]
        },
        {
            "positions": [
                -2.6736938287269716,
                -0.9137684147748526,
                1.1341362414809173,
                0.7605598885177063,
                -0.6300935374367415,
                1.830618917652678
            ]
        },
        {
            "positions": [
                -2.6656464277514123,
                -0.916151142823568,
                1.2218039602710316,
                0.6628394680166403,
                -0.5708546116083499,
                1.930033437845733
            ]
        },
        {
            "positions": [
                -2.657599026775853,
                -0.9185338708722834,
                1.3094716790611454,
                0.5651190475155742,
                -0.5116156857799583,
                2.029447958038788
            ]
        },
        {
            "positions": [
                -2.6495516258002936,
                -0.9209165989209989,
                1.3971393978512596,
                0.4673986270145081,
                -0.4523767599515666,
                2.1288624782318433
            ]
        },
        {
            "positions": [
                -2.6415042248247342,
                -0.9232993269697143,
                1.4848071166413737,
                0.3696782065134421,
                -0.39313783412317505,
                2.2282769984248985
            ]
        },
        {
            "positions": [
                -2.6334568238491753,
                -0.9256820550184296,
                1.5724748354314877,
                0.27195778601237597,
                -0.3338989082947834,
                2.3276915186179536
            ]
        },
        {
            "positions": [
                -2.625409422873616,
                -0.928064783067145,
                1.6601425542216017,
                0.17423736551130983,
                -0.2746599824663918,
                2.427106038811009
            ]
        },
        {
            "positions": [
                -2.6087249093387888,
                -0.954113007777844,
                1.6985956902623238,
                0.06385325262287032,
                -0.17012316503243077,
                2.5035044671827116
            ]
        },
        {
            "positions": [
                -2.5920403958039615,
                -0.9801612324885431,
                1.737048826303046,
                -0.046530860265569185,
                -0.06558634759846976,
                2.579902895554414
            ]
        },
        {
            "positions": [
                -2.575355882269134,
                -1.0062094571992422,
                1.7755019623437678,
                -0.15691497315400868,
                0.03895046983549122,
                2.6563013239261166
            ]
        },
        {
            "positions": [
                -2.5586713687343066,
                -1.0322576819099412,
                1.8139550983844899,
                -0.26729908604244823,
                0.14348728726945226,
                2.732699752297819
            ]
        },
        {
            "positions": [
                -2.5419868551994793,
                -1.0583059066206402,
                1.852408234425212,
                -0.37768319893088775,
                0.2480241047034133,
                2.8090981806695217
            ]
        },
        {
            "positions": [
                -2.525302341664652,
                -1.0843541313313394,
                1.890861370465934,
                -0.48806731181932717,
                0.3525609221373742,
                2.885496609041224
            ]
        },
        {
            "positions": [
                -2.5086178281298244,
                -1.1104023560420384,
                1.929314506506656,
                -0.5984514247077667,
                0.45709773957133537,
                2.9618950374129267
            ]
        },
        {
            "positions": [
                -2.491933314594997,
                -1.1364505807527374,
                1.967767642547378,
                -0.7088355375962062,
                0.5616345570052963,
                3.038293465784629
            ]
        },
        {
            "positions": [
                -2.47524880106017,
                -1.1624988054634364,
                2.0062207785881,
                -0.8192196504846457,
                0.6661713744392573,
                3.1146918941563317
            ]
        }
    ]
}