{
    "goal": {
        "global_pose": {
            "orientation": {
                "w": 0.005598929693374612,
                "x": 0.007748599140229565,
                "y": 0.7110244013736278,
                "z": -0.7031023480610252
            },
            "position": {
                "x": -0.8858502320852131,
                "y": -0.7141253447532654,
                "z": 0.3711530566215515
            }
        },
        "name": "move_to_auspresseinheit_C"
    },
    "id": "LBKPIECE_move_to_auspresseinheit_C_131",
    "joint_names": [
        "shoulder_pan_joint",
        "shoulder_lift_joint",
        "elbow_joint",
        "wrist_1_joint",
        "wrist_2_joint",
        "wrist_3_joint"
    ],
    "metrics": {
        "cart_traj_len": 0.49514906945495013,
        "distance_elbow_joint": 1.0203572350902363,
        "distance_shoulder_lift_joint": 0.33409298806950793,
        "distance_shoulder_pan_joint": 0.2564970714703718,
        "distance_wrist_1_joint": 0.7137552306320882,
        "distance_wrist_2_joint": 1.3161126493361386,
        "distance_wrist_3_joint": 0.0766162596186386,
        "smoothness": 3.2297397335745243e-16,
        "time": 0.438184079,
        "traj_len": 1.928064167556926,
        "weighted_distance": 2.429101034008772
    },
    "planner": "LBKPIECE",
    "start": {
        "state": {
            "elbow_joint": 1.7527959577730765,
            "shoulder_lift_joint": -0.9740617694224828,
            "shoulder_pan_joint": -2.967991417825869,
            "wrist_1_joint": -0.7595177689779385,
            "wrist_2_joint": 1.7443932448376545,
            "wrist_3_joint": 3.1991315425061013
        }
    },
    "waypoints": [
        {
            "positions": [
                -2.967991417825869,
                -0.9740617694224828,
                1.7527959577730765,
                -0.7595177689779385,
                1.7443932448376545,
                3.1991315425061013
            ]
        },
        {
            "positions": [
                -2.942341710678832,
                -0.940652470615532,
                1.6507602342640528,
                -0.6881422459147297,
                1.6127819799040406,
                3.1914699165442375
            ]
        },
        {
            "positions": [
                -2.9166920035317947,
                -0.9072431718085812,
                1.5487245107550291,
                -0.6167667228515209,
                1.4811707149704267,
                3.1838082905823737
            ]
        },
        {
            "positions": [
                -2.8910422963847573,
                -0.8738338730016304,
                1.4466887872460057,
                -0.5453911997883121,
                1.3495594500368129,
                3.17614666462051
            ]
        },
        {
            "positions": [
                -2.8653925892377203,
                -0.8404245741946796,
                1.344653063736982,
                -0.47401567672510325,
                1.217948185103199,
                3.168485038658646
            ]
        },
        {
            "positions": [
                -2.8397428820906834,
                -0.8070152753877289,
                1.2426173402279583,
                -0.40264015366189443,
                1.0863369201695852,
                3.1608234126967822
            ]
        },
        {
            "positions": [
                -2.814093174943646,
                -0.773605976580778,
                1.1405816167189347,
                -0.3312646305986856,
                0.9547256552359713,
                3.153161786734918
            ]
        },
        {
            "positions": [
                -2.7884434677966086,
                -0.7401966777738272,
                1.038545893209911,
                -0.25988910753547684,
                0.8231143903023576,
                3.145500160773054
            ]
        },
        {
            "positions": [
                -2.7627937606495716,
                -0.7067873789668764,
                0.9365101697008874,
                -0.18851358447226796,
                0.6915031253687436,
                3.1378385348111903
            ]
        },
        {
            "positions": [
                -2.7371440535025346,
                -0.6733780801599256,
                0.8344744461918637,
                -0.11713806140905914,
                0.5598918604351297,
                3.1301769088493265
            ]
        },
        {
            "positions": [
                -2.7114943463554972,
                -0.6399687813529749,
                0.7324387226828403,
                -0.0457625383458503,
                0.42828059550151576,
                3.1225152828874627
            ]
        }
    ]
}