{
    "goal": {
        "global_pose": {
            "orientation": {
                "w": -0.4816463035849501,
                "x": 0.5182115481033762,
                "y": 0.4908360881923453,
                "z": -0.5084816262002911
            },
            "position": {
                "x": -0.8240239810943604,
                "y": -0.300875300988555,
                "z": 0.16403168439865112
            }
        },
        "name": "move_to_storage_C"
    },
    "id": "LBKPIECE_move_to_storage_C_68",
    "joint_names": [
        "shoulder_pan_joint",
        "shoulder_lift_joint",
        "elbow_joint",
        "wrist_1_joint",
        "wrist_2_joint",
        "wrist_3_joint"
    ],
    "metrics": {
        "cart_traj_len": 0.576787686610349,
        "distance_elbow_joint": 0.2588527203182822,
        "distance_shoulder_lift_joint": 0.18851680261093517,
        "distance_shoulder_pan_joint": 0.49402336838739513,
        "distance_wrist_1_joint": 0.0836769833485419,
        "distance_wrist_2_joint": 1.0773937837908432,
        "distance_wrist_3_joint": 0.06578153571707457,
        "smoothness": 2.5376526478085547e-16,
        "time": 0.220152359,
        "traj_len": 1.4724962458943902,
        "weighted_distance": 1.8603437942344436
    },
    "planner": "LBKPIECE",
    "start": {
        "state": {
            "elbow_joint": 2.0108683149792914,
            "shoulder_lift_joint": -1.1634956873317392,
            "shoulder_pan_joint": -2.4736205022346,
            "wrist_1_joint": -0.8367026793690192,
            "wrist_2_joint": 0.6746043897045053,
            "wrist_3_joint": 3.133522094754363
        }
    },
    "waypoints": [
        {
            "positions": [
                -2.4736205022346,
                -1.1634956873317392,
                2.0108683149792914,
                -0.8367026793690192,
                0.6746043897045053,
                3.133522094754363
            ]
        },
        {
            "positions": [
                -2.555957730299166,
                -1.1320762202299166,
                1.9677261949262443,
                -0.8227565154775955,
                0.8541700203363125,
                3.1444856840405424
            ]
        },
        {
            "positions": [
                -2.6382949583637316,
                -1.1006567531280942,
                1.9245840748731973,
                -0.8088103515861719,
                1.0337356509681197,
                3.155449273326721
            ]
        },
        {
            "positions": [
                -2.720632186428298,
                -1.0692372860262718,
                1.8814419548201502,
                -0.7948641876947482,
                1.213301281599927,
                3.1664128626129004
            ]
        },
        {
            "positions": [
                -2.8029694144928636,
                -1.0378178189244491,
                1.8382998347671033,
                -0.7809180238033246,
                1.392866912231734,
                3.1773764518990797
            ]
        },
        {
            "positions": [
                -2.8853066425574294,
                -1.0063983518226265,
                1.7951577147140563,
                -0.766971859911901,
                1.5724325428635413,
                3.1883400411852585
            ]
        },
        {
            "positions": [
                -2.967643870621995,
                -0.9749788847208041,
                1.7520155946610092,
                -0.7530256960204773,
                1.7519981734953485,
                3.1993036304714377
            ]
        }
    ]
}