{
    "goal": {
        "global_pose": {
            "orientation": {
                "w": 0.7031023480610252,
                "x": -0.7110244013736278,
                "y": 0.0077485991402295624,
                "z": 0.005598929693374583
            },
            "position": {
                "x": -0.8841497679147869,
                "y": 0.44412534475326537,
                "z": 0.3711530566215515
            }
        },
        "name": "move_to_auspresseinheit_D"
    },
    "id": "LBKPIECE_move_to_auspresseinheit_D_107",
    "joint_names": [
        "shoulder_pan_joint",
        "shoulder_lift_joint",
        "elbow_joint",
        "wrist_1_joint",
        "wrist_2_joint",
        "wrist_3_joint"
    ],
    "metrics": {
        "cart_traj_len": 0.34341996925937057,
        "distance_elbow_joint": 0.6440144612412606,
        "distance_shoulder_lift_joint": 0.12424998288632949,
        "distance_shoulder_pan_joint": 0.13368216029835375,
        "distance_wrist_1_joint": 0.5475923426635623,
        "distance_wrist_2_joint": 1.4335210715746258,
        "distance_wrist_3_joint": 0.017032117362463683,
        "smoothness": 0.0,
        "time": 0.241820093,
        "traj_len": 1.7029656884466566,
        "weighted_distance": 2.217040772063002
    },
    "planner": "LBKPIECE",
    "start": {
        "state": {
            "elbow_joint": -1.8275484843655228,
            "shoulder_lift_joint": -2.1267897864000416,
            "shoulder_pan_joint": -0.035127520176001514,
            "wrist_1_joint": -2.3477863256791385,
            "wrist_2_joint": -1.605890476484521,
            "wrist_3_joint": -3.0880375317375353
        }
    },
    "waypoints": [
        {
            "positions": [
                -0.035127520176001514,
                -2.1267897864000416,
                -1.8275484843655228,
                -2.3477863256791385,
                -1.605890476484521,
                -3.0880375317375353
            ]
        },
        {
            "positions": [
                -0.05183779021329574,
                -2.1423210342608328,
                -1.7470466767103652,
                -2.416235368512084,
                -1.4267003425376927,
                -3.085908517067227
            ]
        },
        {
            "positions": [
                -0.06854806025058996,
                -2.157852282121624,
                -1.6665448690552076,
                -2.484684411345029,
                -1.2475102085908645,
                -3.0837795023969194
            ]
        },
        {
            "positions": [
                -0.08525833028788417,
                -2.173383529982415,
                -1.58604306140005,
                -2.553133454177974,
                -1.0683200746440362,
                -3.0816504877266113
            ]
        },
        {
            "positions": [
                -0.10196860032517839,
                -2.1889147778432063,
                -1.5055412537448924,
                -2.6215824970109196,
                -0.8891299406972081,
                -3.079521473056303
            ]
        },
        {
            "positions": [
                -0.11867887036247261,
                -2.2044460257039975,
                -1.4250394460897349,
                -2.690031539843865,
                -0.7099398067503798,
                -3.0773924583859955
            ]
        },
        {
            "positions": [
                -0.13538914039976682,
                -2.2199772735647887,
                -1.3445376384345773,
                -2.7584805826768104,
                -0.5307496728035517,
                -3.0752634437156874
            ]
        },
        {
            "positions": [
                -0.15209941043706104,
                -2.23550852142558,
                -1.2640358307794197,
                -2.8269296255097554,
                -0.3515595388567234,
                -3.0731344290453797
            ]
        },
        {
            "positions": [
                -0.16880968047435527,
                -2.251039769286371,
                -1.1835340231242621,
                -2.8953786683427007,
                -0.1723694049098952,
                -3.0710054143750716
            ]
        }
    ]
}