{
    "goal": {
        "global_pose": {
            "orientation": {
                "w": 0.7031023502349854,
                "x": -0.7110244035720825,
                "y": 0.007748599164187908,
                "z": 0.005598929710686207
            },
            "position": {
                "x": 0.11585023208521307,
                "y": 0.44412534475326537,
                "z": 0.3711530566215515
            }
        },
        "name": "move_to_auspresseinheit_A"
    },
    "id": "LBKPIECE_move_to_auspresseinheit_A_81",
    "joint_names": [
        "shoulder_pan_joint",
        "shoulder_lift_joint",
        "elbow_joint",
        "wrist_1_joint",
        "wrist_2_joint",
        "wrist_3_joint"
    ],
    "metrics": {
        "cart_traj_len": 0.681057329100067,
        "distance_elbow_joint": 0.127638069201371,
        "distance_shoulder_lift_joint": 0.5344026908981634,
        "distance_shoulder_pan_joint": 1.0432202097718717,
        "distance_wrist_1_joint": 0.7761191749239752,
        "distance_wrist_2_joint": 0.7123895472165107,
        "distance_wrist_3_joint": 0.6109237773961844,
        "smoothness": 0.9895852821150918,
        "time": 0.34071594299999997,
        "traj_len": 1.9505623469676832,
        "weighted_distance": 2.552459548424016
    },
    "planner": "LBKPIECE",
    "start": {
        "state": {
            "elbow_joint": 2.4225746994637096,
            "shoulder_lift_joint": -1.373653595662188,
            "shoulder_pan_joint": -0.3378633848294565,
            "wrist_1_joint": -1.0288595594406726,
            "wrist_2_joint": 1.2330228066703421,
            "wrist_3_joint": 3.189163495502006
        }
    },
    "waypoints": [
        {
            "positions": [
                -0.3378633848294565,
                -1.373653595662188,
                2.4225746994637096,
                -1.0288595594406726,
                1.2330228066703421,
                3.189163495502006
            ]
        },
        {
            "positions": [
                -0.26146116785551893,
                -1.4295594233398692,
                2.411218784349007,
                -0.9325861353330471,
                1.1441407532550647,
                3.141584341556643
            ]
        },
        {
            "positions": [
                -0.18505895088158136,
                -1.4854652510175506,
                2.3998628692343043,
                -0.8363127112254216,
                1.0552586998397873,
                3.09400518761128
            ]
        },
        {
            "positions": [
                -0.1086567339076438,
                -1.5413710786952317,
                2.3885069541196016,
                -0.7400392871177961,
                0.9663766464245098,
                3.046426033665917
            ]
        },
        {
            "positions": [
                -0.032254516933706234,
                -1.597276906372913,
                2.377151039004899,
                -0.6437658630101705,
                0.8774945930092324,
                2.9988468797205545
            ]
        },
        {
            "positions": [
                0.04414770004023133,
                -1.6531827340505942,
                2.365795123890196,
                -0.5474924389025448,
                0.7886125395939549,
                2.9512677257751916
            ]
        },
        {
            "positions": [
                0.1205499170141689,
                -1.7090885617282754,
                2.3544392087754935,
                -0.45121901479491944,
                0.6997304861786776,
                2.9036885718298286
            ]
        },
        {
            "positions": [
                0.19695213398810643,
                -1.7649943894059568,
                2.343083293660791,
                -0.35494559068729387,
                0.6108484327634002,
                2.8561094178844657
            ]
        },
        {
            "positions": [
                0.3664203643062094,
                -1.8126816884574217,
                2.359132181460275,
                -0.3890139927441593,
                0.6409201571999231,
                2.948732651144014
            ]
        },
        {
            "positions": [
                0.5358885946243123,
                -1.8603689875088865,
                2.375181069259759,
                -0.42308239480102483,
                0.670991881636446,
                3.0413558844035617
            ]
        },
        {
            "positions": [
                0.7053568249424153,
                -1.9080562865603514,
                2.391229957059243,
                -0.4571507968578903,
                0.7010636060729689,
                3.13397911766311
            ]
        }
    ]
}