{
    "goal": {
        "global_pose": {
            "orientation": {
                "w": 0.005598929693374612,
                "x": 0.007748599140229565,
                "y": 0.7110244013736278,
                "z": -0.7031023480610252
            },
            "position": {
                "x": -0.8858502320852131,
                "y": -0.7141253447532654,
                "z": 0.3711530566215515
            }
        },
        "name": "move_to_auspresseinheit_C"
    },
    "id": "LBKPIECE_move_to_auspresseinheit_C_114",
    "joint_names": [
        "shoulder_pan_joint",
        "shoulder_lift_joint",
        "elbow_joint",
        "wrist_1_joint",
        "wrist_2_joint",
        "wrist_3_joint"
    ],
    "metrics": {
        "cart_traj_len": 0.49364520151886276,
        "distance_elbow_joint": 1.0124676891374693,
        "distance_shoulder_lift_joint": 0.3299844850149276,
        "distance_shoulder_pan_joint": 0.2563536655979739,
        "distance_wrist_1_joint": 0.7121275941372336,
        "distance_wrist_2_joint": 1.3039735904487144,
        "distance_wrist_3_joint": 0.08899289486088424,
        "smoothness": 0.0,
        "time": 0.21363976899999998,
        "traj_len": 1.9245518749041821,
        "weighted_distance": 2.4285771335300264
    },
    "planner": "LBKPIECE",
    "start": {
        "state": {
            "elbow_joint": 1.7527959577730765,
            "shoulder_lift_joint": -0.9740617694224828,
            "shoulder_pan_joint": -2.967991417825869,
            "wrist_1_joint": -0.7595177689779385,
            "wrist_2_joint": 1.7443932448376545,
            "wrist_3_joint": 3.1991315425061013
        }
    },
    "waypoints": [
        {
            "positions": [
                -2.967991417825869,
                -0.9740617694224828,
                1.7527959577730765,
                -0.7595177689779385,
                1.7443932448376545,
                3.1991315425061013
            ]
        },
        {
            "positions": [
                -2.9423560512660716,
                -0.94106332092099,
                1.6515491888593297,
                -0.6883050095642151,
                1.613995885792783,
                3.190232253020013
            ]
        },
        {
            "positions": [
                -2.916720684706274,
                -0.9080648724194973,
                1.5503024199455826,
                -0.6170922501504919,
                1.4835985267479115,
                3.1813329635339245
            ]
        },
        {
            "positions": [
                -2.891085318146477,
                -0.8750664239180045,
                1.4490556510318358,
                -0.5458794907367684,
                1.3532011677030402,
                3.172433674047836
            ]
        },
        {
            "positions": [
                -2.8654499515866796,
                -0.8420679754165117,
                1.3478088821180887,
                -0.4746667313230451,
                1.2228038086581687,
                3.1635343845617476
            ]
        },
        {
            "positions": [
                -2.839814585026882,
                -0.809069526915019,
                1.2465621132043418,
                -0.40345397190932175,
                1.0924064496132972,
                3.154635095075659
            ]
        },
        {
            "positions": [
                -2.8141792184670846,
                -0.7760710784135263,
                1.1453153442905948,
                -0.3322412124955984,
                0.9620090905684259,
                3.1457358055895708
            ]
        },
        {
            "positions": [
                -2.788543851907287,
                -0.7430726299120335,
                1.0440685753768482,
                -0.26102845308187506,
                0.8316117315235544,
                3.1368365161034824
            ]
        },
        {
            "positions": [
                -2.76290848534749,
                -0.7100741814105407,
                0.942821806463101,
                -0.18981569366815165,
                0.7012143724786828,
                3.127937226617394
            ]
        },
        {
            "positions": [
                -2.7372731187876926,
                -0.677075732909048,
                0.8415750375493541,
                -0.11860293425442825,
                0.5708170134338115,
                3.1190379371313055
            ]
        },
        {
            "positions": [
                -2.711637752227895,
                -0.6440772844075552,
                0.7403282686356071,
                -0.04739017484070491,
                0.44041965438894015,
                3.110138647645217
            ]
        }
    ]
}