{
    "goal": {
        "global_pose": {
            "orientation": {
                "w": 0.7031023502349854,
                "x": -0.7110244035720825,
                "y": 0.007748599164187908,
                "z": 0.005598929710686207
            },
            "position": {
                "x": 0.11585023208521307,
                "y": 0.44412534475326537,
                "z": 0.3711530566215515
            }
        },
        "name": "move_to_auspresseinheit_A"
    },
    "id": "LBKPIECE_move_to_auspresseinheit_A_77",
    "joint_names": [
        "shoulder_pan_joint",
        "shoulder_lift_joint",
        "elbow_joint",
        "wrist_1_joint",
        "wrist_2_joint",
        "wrist_3_joint"
    ],
    "metrics": {
        "cart_traj_len": 4.012733348045707,
        "distance_elbow_joint": 2.6964149789205463,
        "distance_shoulder_lift_joint": 0.7558545204416887,
        "distance_shoulder_pan_joint": 6.317888234833289,
        "distance_wrist_1_joint": 7.329200402157774,
        "distance_wrist_2_joint": 0.6567703883725701,
        "distance_wrist_3_joint": 1.862295789497891,
        "smoothness": 0.6255704107181524,
        "time": 0.461633961,
        "traj_len": 4.429269049654103,
        "weighted_distance": 5.5972302689589135
    },
    "planner": "LBKPIECE",
    "start": {
        "state": {
            "elbow_joint": 2.4225746994637096,
            "shoulder_lift_joint": -1.373653595662188,
            "shoulder_pan_joint": -0.3378633848294565,
            "wrist_1_joint": -1.0288595594406726,
            "wrist_2_joint": 1.2330228066703421,
            "wrist_3_joint": 3.189163495502006
        }
    },
    "waypoints": [
        {
            "positions": [
                -0.3378633848294565,
                -1.373653595662188,
                2.4225746994637096,
                -1.0288595594406726,
                1.2330228066703421,
                3.189163495502006
            ]
        },
        {
            "positions": [
                -0.4525468445545747,
                -1.3688895523009437,
                2.3633339432651286,
                -0.8572903136923385,
                1.2357519644269501,
                3.147617453129425
            ]
        },
        {
            "positions": [
                -0.567230304279693,
                -1.3641255089396993,
                2.304093187066548,
                -0.6857210679440044,
                1.2384811221835579,
                3.106071410756844
            ]
        },
        {
            "positions": [
                -0.6819137640048113,
                -1.359361465578455,
                2.244852430867967,
                -0.5141518221956702,
                1.2412102799401659,
                3.0645253683842633
            ]
        },
        {
            "positions": [
                -0.7965972237299295,
                -1.3545974222172106,
                2.185611674669386,
                -0.34258257644733614,
                1.2439394376967736,
                3.0229793260116824
            ]
        },
        {
            "positions": [
                -0.9112806834550478,
                -1.3498333788559662,
                2.126370918470805,
                -0.17101333069900204,
                1.2466685954533816,
                2.9814332836391015
            ]
        },
        {
            "positions": [
                -1.025964143180166,
                -1.345069335494722,
                2.0671301622722242,
                0.0005559150493321674,
                1.2493977532099894,
                2.9398872412665207
            ]
        },
        {
            "positions": [
                -1.1406476029052843,
                -1.3403052921334777,
                2.007889406073643,
                0.17212516079766638,
                1.2521269109665973,
                2.89834119889394
            ]
        },
        {
            "positions": [
                -1.2553310626304026,
                -1.3355412487722333,
                1.9486486498750624,
                0.34369440654600036,
                1.254856068723205,
                2.856795156521359
            ]
        },
        {
            "positions": [
                -1.370014522355521,
                -1.330777205410989,
                1.8894078936764815,
                0.5152636522943346,
                1.257585226479813,
                2.815249114148778
            ]
        },
        {
            "positions": [
                -1.4846979820806392,
                -1.3260131620497446,
                1.8301671374779005,
                0.6868328980426686,
                1.2603143842364208,
                2.7737030717761977
            ]
        },
        {
            "positions": [
                -1.5993814418057575,
                -1.3212491186885003,
                1.7709263812793195,
                0.8584021437910028,
                1.2630435419930288,
                2.7321570294036164
            ]
        },
        {
            "positions": [
                -1.7140649015308758,
                -1.316485075327256,
                1.7116856250807388,
                1.029971389539337,
                1.2657726997496366,
                2.690610987031036
            ]
        },
        {
            "positions": [
                -1.8287483612559938,
                -1.3117210319660115,
                1.6524448688821578,
                1.201540635287671,
                1.2685018575062446,
                2.649064944658455
            ]
        },
        {
            "positions": [
                -1.9434318209811123,
                -1.3069569886047672,
                1.5932041126835768,
                1.3731098810360054,
                1.2712310152628523,
                2.6075189022858742
            ]
        },
        {
            "positions": [
                -2.0581152807062306,
                -1.3021929452435228,
                1.533963356484996,
                1.5446791267843394,
                1.2739601730194603,
                2.5659728599132934
            ]
        },
        {
            "positions": [
                -2.1727987404313485,
                -1.2974289018822784,
                1.474722600286415,
                1.7162483725326734,
                1.276689330776068,
                2.5244268175407125
            ]
        },
        {
            "positions": [
                -2.2874822001564667,
                -1.292664858521034,
                1.4154818440878343,
                1.8878176182810074,
                1.279418488532676,
                2.4828807751681317
            ]
        },
        {
            "positions": [
                -2.402165659881585,
                -1.28790081515979,
                1.3562410878892532,
                2.059386864029342,
                1.2821476462892838,
                2.441334732795551
            ]
        },
        {
            "positions": [
                -2.5168491196067033,
                -1.2831367717985456,
                1.2970003316906724,
                2.2309561097776758,
                1.2848768040458918,
                2.39978869042297
            ]
        },
        {
            "positions": [
                -2.6315325793318216,
                -1.2783727284373012,
                1.2377595754920914,
                2.4025253555260098,
                1.2876059618024995,
                2.358242648050389
            ]
        },
        {
            "positions": [
                -2.74621603905694,
                -1.2736086850760568,
                1.1785188192935105,
                2.5740946012743438,
                1.2903351195591075,
                2.316696605677808
            ]
        },
        {
            "positions": [
                -2.860899498782058,
                -1.2688446417148125,
                1.1192780630949295,
                2.745663847022678,
                1.2930642773157155,
                2.2751505633052274
            ]
        },
        {
            "positions": [
                -2.9755829585071765,
                -1.2640805983535681,
                1.0600373068963487,
                2.917233092771012,
                1.2957934350723233,
                2.2336045209326465
            ]
        },
        {
            "positions": [
                -2.8392804155014146,
                -1.2880169510622004,
                1.1094401804649852,
                2.791932805735972,
                1.2737934439623015,
                2.2671873659299995
            ]
        },
        {
            "positions": [
                -2.702977872495653,
                -1.3119533037708324,
                1.1588430540336216,
                2.666632518700932,
                1.2517934528522796,
                2.3007702109273525
            ]
        },
        {
            "positions": [
                -2.566675329489891,
                -1.3358896564794647,
                1.2082459276022581,
                2.5413322316658915,
                1.229793461742258,
                2.3343530559247054
            ]
        },
        {
            "positions": [
                -2.430372786484129,
                -1.359826009188097,
                1.2576488011708946,
                2.416031944630851,
                1.207793470632236,
                2.3679359009220584
            ]
        },
        {
            "positions": [
                -2.2940702434783677,
                -1.383762361896729,
                1.307051674739531,
                2.2907316575958108,
                1.1857934795222143,
                2.401518745919412
            ]
        },
        {
            "positions": [
                -2.157767700472606,
                -1.4076987146053612,
                1.3564545483081676,
                2.165431370560771,
                1.1637934884121923,
                2.435101590916765
            ]
        },
        {
            "positions": [
                -2.021465157466844,
                -1.4316350673139933,
                1.405857421876804,
                2.0401310835257305,
                1.1417934973021706,
                2.468684435914118
            ]
        },
        {
            "positions": [
                -1.885162614461082,
                -1.4555714200226255,
                1.4552602954454406,
                1.91483079649069,
                1.1197935061921487,
                2.5022672809114708
            ]
        },
        {
            "positions": [
                -1.7488600714553204,
                -1.4795077727312578,
                1.504663169014077,
                1.78953050945565,
                1.097793515082127,
                2.5358501259088237
            ]
        },
        {
            "positions": [
                -1.6125575284495586,
                -1.5034441254398898,
                1.5540660425827135,
                1.6642302224206096,
                1.075793523972105,
                2.5694329709061767
            ]
        },
        {
            "positions": [
                -1.4762549854437967,
                -1.527380478148522,
                1.6034689161513502,
                1.5389299353855694,
                1.0537935328620833,
                2.6030158159035297
            ]
        },
        {
            "positions": [
                -1.339952442438035,
                -1.551316830857154,
                1.6528717897199865,
                1.4136296483505293,
                1.0317935417520614,
                2.6365986609008827
            ]
        },
        {
            "positions": [
                -1.203649899432273,
                -1.5752531835657864,
                1.7022746632886232,
                1.288329361315489,
                1.0097935506420397,
                2.6701815058982357
            ]
        },
        {
            "positions": [
                -1.0673473564265115,
                -1.5991895362744186,
                1.7516775368572595,
                1.1630290742804488,
                0.9877935595320179,
                2.7037643508955886
            ]
        },
        {
            "positions": [
                -0.9310448134207494,
                -1.6231258889830507,
                1.8010804104258962,
                1.0377287872454082,
                0.965793568421996,
                2.737347195892942
            ]
        },
        {
            "positions": [
                -0.7947422704149876,
                -1.647062241691683,
                1.8504832839945324,
                0.912428500210368,
                0.9437935773119743,
                2.770930040890295
            ]
        },
        {
            "positions": [
                -0.6584397274092257,
                -1.6709985944003152,
                1.8998861575631691,
                0.7871282131753277,
                0.9217935862019524,
                2.804512885887648
            ]
        },
        {
            "positions": [
                -0.5221371844034643,
                -1.6949349471089472,
                1.9492890311318054,
                0.6618279261402877,
                0.8997935950919307,
                2.838095730885001
            ]
        },
        {
            "positions": [
                -0.38583464139770207,
                -1.7188712998175795,
                1.9986919047004421,
                0.5365276391052474,
                0.8777936039819088,
                2.871678575882354
            ]
        },
        {
            "positions": [
                -0.24953209839194068,
                -1.7428076525262117,
                2.0480947782690784,
                0.411227352070207,
                0.855793612871887,
                2.905261420879707
            ]
        },
        {
            "positions": [
                -0.1132295553861784,
                -1.7667440052348438,
                2.097497651837715,
                0.2859270650351666,
                0.8337936217618651,
                2.93884426587706
            ]
        },
        {
            "positions": [
                0.023072987619582985,
                -1.7906803579434758,
                2.146900525406352,
                0.1606267780001267,
                0.8117936306518434,
                2.972427110874413
            ]
        },
        {
            "positions": [
                0.15937553062534482,
                -1.8146167106521083,
                2.196303398974988,
                0.03532649096508633,
                0.7897936395418216,
                3.0060099558717663
            ]
        },
        {
            "positions": [
                0.29567807363110665,
                -1.8385530633607403,
                2.2457062725436243,
                -0.0899737960699536,
                0.7677936484317998,
                3.0395928008691193
            ]
        },
        {
            "positions": [
                0.4319806166368685,
                -1.8624894160693726,
                2.295109146112261,
                -0.2152740831049944,
                0.7457936573217779,
                3.0731756458664723
            ]
        },
        {
            "positions": [
                0.5682831596426303,
                -1.8864257687780046,
                2.3445120196808977,
                -0.34057437014003433,
                0.7237936662117561,
                3.1067584908638253
            ]
        },
        {
            "positions": [
                0.7045857026483923,
                -1.9103621214866369,
                2.393914893249534,
                -0.46587465717507476,
                0.7017936751017343,
                3.1403413358611783
            ]
        }
    ]
}