{
    "goal": {
        "global_pose": {
            "orientation": {
                "w": 0.7047431493862688,
                "x": -0.7094548369677653,
                "y": 0.0024358444001904,
                "z": -0.0022348060817251984
            },
            "position": {
                "x": -0.39052492380142206,
                "y": 0.3671506643295288,
                "z": 0.19426114857196808
            }
        },
        "name": "move_to_magneteinheit_D"
    },
    "id": "LBKPIECE_move_to_magneteinheit_D_14",
    "joint_names": [
        "shoulder_pan_joint",
        "shoulder_lift_joint",
        "elbow_joint",
        "wrist_1_joint",
        "wrist_2_joint",
        "wrist_3_joint"
    ],
    "metrics": {
        "cart_traj_len": 8.538398727660875,
        "distance_elbow_joint": 4.507460979043795,
        "distance_shoulder_lift_joint": 5.944331267138007,
        "distance_shoulder_pan_joint": 7.111148806503717,
        "distance_wrist_1_joint": 7.040609821319446,
        "distance_wrist_2_joint": 3.845858939112645,
        "distance_wrist_3_joint": 4.121981457699214,
        "smoothness": 0.6467314662492222,
        "time": 0.728352169,
        "traj_len": 5.707135119376165,
        "weighted_distance": 7.190397968586116
    },
    "planner": "LBKPIECE",
    "start": {
        "state": {
            "elbow_joint": 0.7495348899011911,
            "shoulder_lift_joint": -0.6476975780737668,
            "shoulder_pan_joint": -2.711696901376276,
            "wrist_1_joint": -0.0750647808097303,
            "wrist_2_joint": 0.43296659715458535,
            "wrist_3_joint": 3.1361499051832418
        }
    },
    "waypoints": [
        {
            "positions": [
                -2.711696901376276,
                -0.6476975780737668,
                0.7495348899011911,
                -0.0750647808097303,
                0.43296659715458535,
                3.1361499051832418
            ]
        },
        {
            "positions": [
                -2.731569382817856,
                -0.6261160257923621,
                0.7016287808308415,
                -0.18727826858320873,
                0.37716115301135944,
                3.0109513514887247
            ]
        },
        {
            "positions": [
                -2.7514418642594363,
                -0.6045344735109575,
                0.6537226717604919,
                -0.2994917563566871,
                0.3213557088681335,
                2.8857527977942077
            ]
        },
        {
            "positions": [
                -2.771314345701016,
                -0.5829529212295528,
                0.6058165626901423,
                -0.41170524413016557,
                0.2655502647249076,
                2.760554244099691
            ]
        },
        {
            "positions": [
                -2.791186827142596,
                -0.561371368948148,
                0.5579104536197926,
                -0.523918731903644,
                0.2097448205816817,
                2.635355690405174
            ]
        },
        {
            "positions": [
                -2.8110593085841757,
                -0.5397898166667433,
                0.5100043445494431,
                -0.6361322196771224,
                0.1539393764384558,
                2.5101571367106574
            ]
        },
        {
            "positions": [
                -2.830931790025756,
                -0.5182082643853386,
                0.46209823547909346,
                -0.7483457074506009,
                0.09813393229522988,
                2.3849585830161404
            ]
        },
        {
            "positions": [
                -2.850804271467336,
                -0.49662671210393394,
                0.41419212640874387,
                -0.8605591952240793,
                0.04232848815200396,
                2.2597600293216233
            ]
        },
        {
            "positions": [
                -2.8706767529089157,
                -0.4750451598225292,
                0.3662860173383942,
                -0.9727726829975577,
                -0.01347695599122195,
                2.1345614756271063
            ]
        },
        {
            "positions": [
                -2.8905492343504955,
                -0.4534636075411245,
                0.31837990826804463,
                -1.084986170771036,
                -0.06928240013444781,
                2.0093629219325893
            ]
        },
        {
            "positions": [
                -2.9104217157920758,
                -0.4318820552597198,
                0.27047379919769504,
                -1.1971996585445144,
                -0.12508784427767378,
                1.8841643682380727
            ]
        },
        {
            "positions": [
                -2.9302941972336556,
                -0.4103005029783151,
                0.22256769012734534,
                -1.309413146317993,
                -0.18089328842089974,
                1.7589658145435556
            ]
        },
        {
            "positions": [
                -2.9501666786752354,
                -0.3887189506969104,
                0.1746615810569958,
                -1.4216266340914714,
                -0.2366987325641256,
                1.6337672608490388
            ]
        },
        {
            "positions": [
                -2.9700391601168152,
                -0.3671373984155057,
                0.12675547198664616,
                -1.5338401218649498,
                -0.29250417670735157,
                1.5085687071545217
            ]
        },
        {
            "positions": [
                -2.9899116415583955,
                -0.345555846134101,
                0.07884936291629663,
                -1.6460536096384282,
                -0.34830962085057743,
                1.383370153460005
            ]
        },
        {
            "positions": [
                -3.0097841229999753,
                -0.32397429385269627,
                0.030943253845946983,
                -1.7582670974119066,
                -0.4041150649938034,
                1.2581715997654879
            ]
        },
        {
            "positions": [
                -3.029656604441555,
                -0.3023927415712916,
                -0.016962855224402662,
                -1.870480585185385,
                -0.45992050913702925,
                1.1329730460709708
            ]
        },
        {
            "positions": [
                -3.049529085883135,
                -0.2808111892898869,
                -0.06486896429475231,
                -1.9826940729588636,
                -0.5157259532802552,
                1.0077744923764538
            ]
        },
        {
            "positions": [
                -3.0694015673247153,
                -0.2592296370084822,
                -0.11277507336510184,
                -2.094907560732342,
                -0.571531397423481,
                0.8825759386819372
            ]
        },
        {
            "positions": [
                -3.089274048766295,
                -0.2376480847270775,
                -0.1606811824354515,
                -2.2071210485058206,
                -0.627336841566707,
                0.75737738498742
            ]
        },
        {
            "positions": [
                -2.972126158740189,
                -0.3252402793775614,
                -0.1740706507691581,
                -2.233886745444403,
                -0.5587889307443558,
                0.6924075677692779
            ]
        },
        {
            "positions": [
                -2.854978268714082,
                -0.41283247402804535,
                -0.1874601191028647,
                -2.2606524423829857,
                -0.49024101992200453,
                0.6274377505511359
            ]
        },
        {
            "positions": [
                -2.737830378687976,
                -0.5004246686785293,
                -0.2008495874365713,
                -2.2874181393215682,
                -0.42169310909965324,
                0.5624679333329938
            ]
        },
        {
            "positions": [
                -2.6206824886618696,
                -0.5880168633290133,
                -0.2142390557702779,
                -2.3141838362601512,
                -0.353145198277302,
                0.4974981161148518
            ]
        },
        {
            "positions": [
                -2.503534598635763,
                -0.6756090579794971,
                -0.22762852410398451,
                -2.340949533198734,
                -0.2845972874549508,
                0.43252829889670974
            ]
        },
        {
            "positions": [
                -2.3863867086096566,
                -0.7632012526299812,
                -0.24101799243769112,
                -2.3677152301373163,
                -0.2160493766325995,
                0.36755848167856764
            ]
        },
        {
            "positions": [
                -2.26923881858355,
                -0.850793447280465,
                -0.25440746077139775,
                -2.394480927075899,
                -0.14750146581024826,
                0.3025886644604256
            ]
        },
        {
            "positions": [
                -2.1520909285574437,
                -0.9383856419309489,
                -0.26779692910510433,
                -2.4212466240144814,
                -0.07895355498789702,
                0.23761884724228355
            ]
        },
        {
            "positions": [
                -2.0349430385313374,
                -1.025977836581433,
                -0.28118639743881096,
                -2.448012320953064,
                -0.010405644165545791,
                0.17264903002414156
            ]
        },
        {
            "positions": [
                -1.917795148505231,
                -1.1135700312319168,
                -0.29457586577251754,
                -2.4747780178916465,
                0.05814226665680544,
                0.10767921280599946
            ]
        },
        {
            "positions": [
                -1.8006472584791244,
                -1.2011622258824006,
                -0.3079653341062242,
                -2.501543714830229,
                0.12669017747915667,
                0.04270939558785747
            ]
        },
        {
            "positions": [
                -1.683499368453018,
                -1.2887544205328847,
                -0.32135480243993075,
                -2.528309411768812,
                0.19523808830150802,
                -0.022260421630284744
            ]
        },
        {
            "positions": [
                -1.5663514784269115,
                -1.3763466151833685,
                -0.3347442707736374,
                -2.5550751087073946,
                0.26378599912385925,
                -0.08723023884842673
            ]
        },
        {
            "positions": [
                -1.4492035884008052,
                -1.4639388098338526,
                -0.348133739107344,
                -2.581840805645977,
                0.3323339099462105,
                -0.15220005606656883
            ]
        },
        {
            "positions": [
                -1.3320556983746987,
                -1.5515310044843365,
                -0.3615232074410506,
                -2.6086065025845597,
                0.4008818207685616,
                -0.21716987328471082
            ]
        },
        {
            "positions": [
                -1.261653011862279,
                -1.573142182477683,
                -0.44282865641430014,
                -2.424765096550873,
                0.376940092052574,
                -0.20933636618077206
            ]
        },
        {
            "positions": [
                -1.1912503253498596,
                -1.5947533604710293,
                -0.5241341053875497,
                -2.2409236905171865,
                0.3529983633365864,
                -0.2015028590768333
            ]
        },
        {
            "positions": [
                -1.12084763883744,
                -1.6163645384643759,
                -0.6054395543607991,
                -2.0570822844835,
                0.3290566346205988,
                -0.19366935197289456
            ]
        },
        {
            "positions": [
                -1.0504449523250206,
                -1.6379757164577224,
                -0.6867450033340488,
                -1.8732408784498134,
                0.3051149059046112,
                -0.1858358448689558
            ]
        },
        {
            "positions": [
                -0.9800422658126009,
                -1.659586894451069,
                -0.7680504523072982,
                -1.6893994724161265,
                0.2811731771886236,
                -0.17800233776501703
            ]
        },
        {
            "positions": [
                -0.9096395793001815,
                -1.6811980724444153,
                -0.8493559012805477,
                -1.5055580663824402,
                0.257231448472636,
                -0.1701688306610783
            ]
        },
        {
            "positions": [
                -0.8392368927877618,
                -1.7028092504377619,
                -0.9306613502537973,
                -1.3217166603487533,
                0.23328971975664842,
                -0.16233532355713953
            ]
        },
        {
            "positions": [
                -0.7688342062753423,
                -1.7244204284311084,
                -1.011966799227047,
                -1.1378752543150668,
                0.20934799104066082,
                -0.15450181645320077
            ]
        },
        {
            "positions": [
                -0.6984315197629227,
                -1.746031606424455,
                -1.0932722482002963,
                -0.9540338482813802,
                0.18540626232467322,
                -0.146668309349262
            ]
        },
        {
            "positions": [
                -0.6280288332505032,
                -1.7676427844178013,
                -1.1745776971735458,
                -0.7701924422476936,
                0.16146453360868562,
                -0.13883480224532324
            ]
        },
        {
            "positions": [
                -0.5576261467380835,
                -1.7892539624111479,
                -1.2558831461467954,
                -0.586351036214007,
                0.13752280489269803,
                -0.13100129514138448
            ]
        },
        {
            "positions": [
                -0.4872234602256641,
                -1.8108651404044944,
                -1.3371885951200448,
                -0.4025096301803206,
                0.11358107617671043,
                -0.12316778803744574
            ]
        },
        {
            "positions": [
                -0.41682077371324455,
                -1.8324763183978408,
                -1.4184940440932945,
                -0.21866822414663378,
                0.08963934746072283,
                -0.11533428093350698
            ]
        },
        {
            "positions": [
                -0.3464180872008249,
                -1.8540874963911873,
                -1.499799493066544,
                -0.03482681811294697,
                0.06569761874473523,
                -0.10750077382956821
            ]
        },
        {
            "positions": [
                -0.27601540068840524,
                -1.8756986743845339,
                -1.5811049420397936,
                0.14901458792073985,
                0.04175589002874763,
                -0.09966726672562945
            ]
        },
        {
            "positions": [
                -0.2056127141759858,
                -1.8973098523778802,
                -1.662410391013043,
                0.3328559939544262,
                0.017814161312760035,
                -0.09183375962169071
            ]
        },
        {
            "positions": [
                -0.13521002766356638,
                -1.9189210303712267,
                -1.7437158399862924,
                0.5166973999881126,
                -0.006127567403227563,
                -0.08400025251775195
            ]
        },
        {
            "positions": [
                -0.06480734115114682,
                -1.9405322083645733,
                -1.825021288959542,
                0.7005388060217995,
                -0.030069296119215147,
                -0.07616674541381319
            ]
        },
        {
            "positions": [
                0.05486383648222201,
                -1.8240470232326147,
                -1.7793586259076966,
                0.6859594272738321,
                0.02075351780956363,
                -0.05073019174129795
            ]
        },
        {
            "positions": [
                0.17453501411559086,
                -1.7075618381006559,
                -1.733695962855851,
                0.6713800485258646,
                0.07157633173834241,
                -0.025293638068782716
            ]
        },
        {
            "positions": [
                0.2942061917489597,
                -1.5910766529686973,
                -1.6880332998040053,
                0.6568006697778972,
                0.12239914566712119,
                0.00014291560373252965
            ]
        },
        {
            "positions": [
                0.4138773693823285,
                -1.4745914678367384,
                -1.6423706367521598,
                0.6422212910299299,
                0.17322195959589998,
                0.025579469276247754
            ]
        },
        {
            "positions": [
                0.5335485470156973,
                -1.3581062827047798,
                -1.5967079737003143,
                0.6276419122819624,
                0.22404477352467872,
                0.05101602294876298
            ]
        },
        {
            "positions": [
                0.6532197246490662,
                -1.2416210975728212,
                -1.5510453106484685,
                0.613062533533995,
                0.2748675874534575,
                0.07645257662127825
            ]
        },
        {
            "positions": [
                0.7728909022824351,
                -1.1251359124408624,
                -1.505382647596623,
                0.5984831547860275,
                0.3256904013822363,
                0.10188913029379346
            ]
        },
        {
            "positions": [
                0.8925620799158038,
                -1.0086507273089038,
                -1.4597199845447775,
                0.5839037760380601,
                0.37651321531101506,
                0.1273256839663087
            ]
        },
        {
            "positions": [
                1.0122332575491728,
                -0.8921655421769452,
                -1.414057321492932,
                0.5693243972900927,
                0.42733602923979386,
                0.1527622376388239
            ]
        },
        {
            "positions": [
                1.1319044351825416,
                -0.7756803570449864,
                -1.3683946584410864,
                0.5547450185421252,
                0.4781588431685726,
                0.17819879131133914
            ]
        },
        {
            "positions": [
                1.2515756128159103,
                -0.6591951719130278,
                -1.3227319953892407,
                0.5401656397941579,
                0.5289816570973513,
                0.20363534498385438
            ]
        },
        {
            "positions": [
                1.3712467904492793,
                -0.542709986781069,
                -1.277069332337395,
                0.5255862610461903,
                0.5798044710261302,
                0.22907189865636968
            ]
        },
        {
            "positions": [
                1.4909179680826483,
                -0.42622480164911036,
                -1.2314066692855494,
                0.511006882298223,
                0.630627284954909,
                0.25450845232888486
            ]
        },
        {
            "positions": [
                1.610589145716017,
                -0.30973961651715154,
                -1.185744006233704,
                0.49642750355025556,
                0.6814500988836878,
                0.2799450060014001
            ]
        },
        {
            "positions": [
                1.7302603233493858,
                -0.19325443138519294,
                -1.1400813431818584,
                0.4818481248022881,
                0.7322729128124665,
                0.30538155967391534
            ]
        },
        {
            "positions": [
                1.6239249185161628,
                -0.30903886878377307,
                -1.2094127239821573,
                0.5362499086755514,
                0.7009371621326541,
                0.2917087682143246
            ]
        },
        {
            "positions": [
                1.5175895136829396,
                -0.4248233061823532,
                -1.278744104782456,
                0.5906516925488148,
                0.6696014114528416,
                0.2780359767547339
            ]
        },
        {
            "positions": [
                1.4112541088497164,
                -0.5406077435809333,
                -1.3480754855827548,
                0.6450534764220781,
                0.638265660773029,
                0.26436318529514324
            ]
        },
        {
            "positions": [
                1.3049187040164933,
                -0.6563921809795135,
                -1.4174068663830535,
                0.6994552602953416,
                0.6069299100932166,
                0.2506903938355525
            ]
        },
        {
            "positions": [
                1.1985832991832701,
                -0.7721766183780937,
                -1.4867382471833523,
                0.7538570441686049,
                0.5755941594134042,
                0.2370176023759618
            ]
        },
        {
            "positions": [
                1.092247894350047,
                -0.8879610557766738,
                -1.5560696279836512,
                0.8082588280418682,
                0.5442584087335917,
                0.2233448109163711
            ]
        },
        {
            "positions": [
                0.9859124895168239,
                -1.003745493175254,
                -1.62540100878395,
                0.8626606119151317,
                0.5129226580537791,
                0.20967201945678038
            ]
        },
        {
            "positions": [
                0.8795770846836009,
                -1.119529930573834,
                -1.6947323895842488,
                0.917062395788395,
                0.4815869073739667,
                0.19599922799718972
            ]
        },
        {
            "positions": [
                0.7732416798503776,
                -1.2353143679724143,
                -1.7640637703845476,
                0.9714641796616583,
                0.4502511566941542,
                0.182326436537599
            ]
        },
        {
            "positions": [
                0.6669062750171544,
                -1.3510988053709945,
                -1.8333951511848465,
                1.0258659635349217,
                0.41891540601434174,
                0.16865364507800829
            ]
        },
        {
            "positions": [
                0.5605708701839311,
                -1.4668832427695748,
                -1.9027265319851452,
                1.0802677474081852,
                0.3875796553345292,
                0.15498085361841757
            ]
        },
        {
            "positions": [
                0.45423546535070836,
                -1.5826676801681547,
                -1.972057912785444,
                1.1346695312814483,
                0.3562439046547168,
                0.14130806215882688
            ]
        },
        {
            "positions": [
                0.3479000605174851,
                -1.6984521175667349,
                -2.041389293585743,
                1.1890713151547119,
                0.3249081539749043,
                0.12763527069923616
            ]
        },
        {
            "positions": [
                0.2415646556842619,
                -1.8142365549653152,
                -2.110720674386042,
                1.243473099027975,
                0.2935724032950918,
                0.11396247923964545
            ]
        },
        {
            "positions": [
                0.13522925085103865,
                -1.9300209923638953,
                -2.1800520551863407,
                1.2978748829012385,
                0.26223665261527934,
                0.10028968778005476
            ]
        },
        {
            "positions": [
                0.02889384601781586,
                -2.045805429762475,
                -2.249383435986639,
                1.3522766667745016,
                0.23090090193546686,
                0.08661689632046407
            ]
        },
        {
            "positions": [
                -0.07744155881540737,
                -2.1615898671610556,
                -2.318714816786938,
                1.4066784506477652,
                0.19956515125565444,
                0.07294410486087335
            ]
        },
        {
            "positions": [
                -0.18377696364863066,
                -2.2773743045596357,
                -2.388046197587237,
                1.4610802345210285,
                0.16822940057584193,
                0.059271313401282645
            ]
        }
    ]
}