{
    "goal": {
        "global_pose": {
            "orientation": {
                "w": 0.7031023502349854,
                "x": -0.7110244035720825,
                "y": 0.007748599164187908,
                "z": 0.005598929710686207
            },
            "position": {
                "x": 0.11585023208521307,
                "y": 0.44412534475326537,
                "z": 0.3711530566215515
            }
        },
        "name": "move_to_auspresseinheit_A"
    },
    "id": "LBKPIECE_move_to_auspresseinheit_A_109",
    "joint_names": [
        "shoulder_pan_joint",
        "shoulder_lift_joint",
        "elbow_joint",
        "wrist_1_joint",
        "wrist_2_joint",
        "wrist_3_joint"
    ],
    "metrics": {
        "cart_traj_len": 3.9954788905133873,
        "distance_elbow_joint": 4.429751433531276,
        "distance_shoulder_lift_joint": 1.7546673403961262,
        "distance_shoulder_pan_joint": 3.304111353889536,
        "distance_wrist_1_joint": 5.20345853240257,
        "distance_wrist_2_joint": 1.3684100612268462,
        "distance_wrist_3_joint": 9.34949503303573,
        "smoothness": 0.4691607603294787,
        "time": 0.587461774,
        "traj_len": 5.040822725952785,
        "weighted_distance": 7.11904153760764
    },
    "planner": "LBKPIECE",
    "start": {
        "state": {
            "elbow_joint": 2.4225746994637096,
            "shoulder_lift_joint": -1.373653595662188,
            "shoulder_pan_joint": -0.3378633848294565,
            "wrist_1_joint": -1.0288595594406726,
            "wrist_2_joint": 1.2330228066703421,
            "wrist_3_joint": 3.189163495502006
        }
    },
    "waypoints": [
        {
            "positions": [
                -0.3378633848294565,
                -1.373653595662188,
                2.4225746994637096,
                -1.0288595594406726,
                1.2330228066703421,
                3.189163495502006
            ]
        },
        {
            "positions": [
                -0.3439947764957223,
                -1.4287141203325169,
                2.3110828514873565,
                -0.9278935311131671,
                1.253796365735737,
                3.1061821518430754
            ]
        },
        {
            "positions": [
                -0.35012616816198816,
                -1.4837746450028457,
                2.1995910035110033,
                -0.8269275027856616,
                1.2745699248011317,
                3.0232008081841446
            ]
        },
        {
            "positions": [
                -0.35625755982825397,
                -1.5388351696731746,
                2.0880991555346498,
                -0.7259614744581562,
                1.2953434838665263,
                2.940219464525214
            ]
        },
        {
            "positions": [
                -0.3623889514945198,
                -1.5938956943435034,
                1.9766073075582966,
                -0.6249954461306506,
                1.316117042931921,
                2.8572381208662834
            ]
        },
        {
            "positions": [
                -0.3685203431607856,
                -1.6489562190138323,
                1.8651154595819435,
                -0.524029417803145,
                1.336890601997316,
                2.774256777207353
            ]
        },
        {
            "positions": [
                -0.3746517348270514,
                -1.7040167436841611,
                1.7536236116055903,
                -0.4230633894756396,
                1.3576641610627105,
                2.6912754335484226
            ]
        },
        {
            "positions": [
                -0.38078312649331725,
                -1.75907726835449,
                1.6421317636292372,
                -0.32209736114813403,
                1.3784377201281053,
                2.6082940898894917
            ]
        },
        {
            "positions": [
                -0.38691451815958305,
                -1.8141377930248188,
                1.5306399156528836,
                -0.22113133282062847,
                1.3992112791935,
                2.5253127462305613
            ]
        },
        {
            "positions": [
                -0.39304590982584886,
                -1.8691983176951477,
                1.4191480676765305,
                -0.1201653044931229,
                1.4199848382588949,
                2.4423314025716305
            ]
        },
        {
            "positions": [
                -0.3991773014921147,
                -1.9242588423654765,
                1.3076562197001773,
                -0.01919927616561745,
                1.4407583973242897,
                2.3593500589127
            ]
        },
        {
            "positions": [
                -0.40530869315838053,
                -1.9793193670358054,
                1.196164371723824,
                0.08176675216188811,
                1.4615319563896843,
                2.2763687152537697
            ]
        },
        {
            "positions": [
                -0.41144008482464633,
                -2.034379891706134,
                1.0846725237474708,
                0.18273278048939345,
                1.482305515455079,
                2.193387371594839
            ]
        },
        {
            "positions": [
                -0.41757147649091214,
                -2.089440416376463,
                0.9731806757711177,
                0.28369880881689924,
                1.5030790745204738,
                2.110406027935908
            ]
        },
        {
            "positions": [
                -0.42370286815717795,
                -2.144500941046792,
                0.8616888277947645,
                0.3846648371444046,
                1.5238526335858684,
                2.027424684276978
            ]
        },
        {
            "positions": [
                -0.4298342598234438,
                -2.199561465717121,
                0.7501969798184112,
                0.48563086547191014,
                1.5446261926512632,
                1.9444433406180472
            ]
        },
        {
            "positions": [
                -0.4359656514897096,
                -2.2546219903874496,
                0.6387051318420578,
                0.5865968937994157,
                1.565399751716658,
                1.8614619969591166
            ]
        },
        {
            "positions": [
                -0.4420970431559754,
                -2.309682515057778,
                0.5272132838657047,
                0.687562922126921,
                1.5861733107820528,
                1.7784806533001862
            ]
        },
        {
            "positions": [
                -0.4482284348222413,
                -2.3647430397281073,
                0.4157214358893513,
                0.7885289504544268,
                1.6069468698474476,
                1.6954993096412554
            ]
        },
        {
            "positions": [
                -0.4543598264885071,
                -2.4198035643984364,
                0.30422958791299815,
                0.8894949787819322,
                1.6277204289128422,
                1.612517965982325
            ]
        },
        {
            "positions": [
                -0.4604912181547729,
                -2.474864089068765,
                0.1927377399366449,
                0.9904610071094377,
                1.648493987978237,
                1.5295366223233944
            ]
        },
        {
            "positions": [
                -0.36999521066630303,
                -2.449432586350858,
                0.27805580699226917,
                1.0265227774331909,
                1.620958877875761,
                1.4028246809518392
            ]
        },
        {
            "positions": [
                -0.27949920317783317,
                -2.4240010836329513,
                0.36337387404789345,
                1.062584547756944,
                1.5934237677732852,
                1.2761127395802843
            ]
        },
        {
            "positions": [
                -0.1890031956893633,
                -2.3985695809150442,
                0.4486919411035178,
                1.0986463180806971,
                1.565888657670809,
                1.149400798208729
            ]
        },
        {
            "positions": [
                -0.09850718820089344,
                -2.373138078197137,
                0.5340100081591421,
                1.1347080884044503,
                1.5383535475683332,
                1.0226888568371741
            ]
        },
        {
            "positions": [
                -0.008011180712423571,
                -2.3477065754792306,
                0.6193280752147664,
                1.1707698587282034,
                1.5108184374658573,
                0.895976915465619
            ]
        },
        {
            "positions": [
                0.0824848267760463,
                -2.3222750727613235,
                0.7046461422703907,
                1.2068316290519565,
                1.4832833273633814,
                0.7692649740940639
            ]
        },
        {
            "positions": [
                0.17298083426451616,
                -2.2968435700434164,
                0.7899642093260151,
                1.2428933993757096,
                1.4557482172609055,
                0.6425530327225087
            ]
        },
        {
            "positions": [
                0.263476841752986,
                -2.2714120673255094,
                0.8752822763816392,
                1.2789551696994628,
                1.4282131071584294,
                0.5158410913509539
            ]
        },
        {
            "positions": [
                0.3539728492414559,
                -2.2459805646076028,
                0.9606003434372635,
                1.315016940023216,
                1.4006779970559535,
                0.38912914997939874
            ]
        },
        {
            "positions": [
                0.44446885672992575,
                -2.2205490618896957,
                1.045918410492888,
                1.351078710346969,
                1.3731428869534776,
                0.26241720860784357
            ]
        },
        {
            "positions": [
                0.5349648642183956,
                -2.1951175591717886,
                1.1312364775485122,
                1.3871404806707222,
                1.3456077768510017,
                0.13570526723628862
            ]
        },
        {
            "positions": [
                0.6254608717068655,
                -2.169686056453882,
                1.2165545446041364,
                1.4232022509944753,
                1.3180726667485256,
                0.008993325864733448
            ]
        },
        {
            "positions": [
                0.7159568791953352,
                -2.144254553735975,
                1.3018726116597605,
                1.4592640213182284,
                1.2905375566460497,
                -0.1177186155068215
            ]
        },
        {
            "positions": [
                0.8064528866838052,
                -2.118823051018068,
                1.3871906787153852,
                1.4953257916419815,
                1.2630024465435739,
                -0.2444305568783769
            ]
        },
        {
            "positions": [
                0.8969488941722752,
                -2.0933915483001613,
                1.4725087457710093,
                1.5313875619657347,
                1.235467336441098,
                -0.37114249824993184
            ]
        },
        {
            "positions": [
                0.987444901660745,
                -2.067960045582254,
                1.5578268128266335,
                1.5674493322894878,
                1.207932226338622,
                -0.49785443962148657
            ]
        },
        {
            "positions": [
                1.077940909149215,
                -2.042528542864347,
                1.643144879882258,
                1.603511102613241,
                1.180397116236146,
                -0.6245663809930422
            ]
        },
        {
            "positions": [
                1.1684369166376847,
                -2.0170970401464405,
                1.7284629469378823,
                1.639572872936994,
                1.15286200613367,
                -0.7512783223645969
            ]
        },
        {
            "positions": [
                1.2589329241261544,
                -1.9916655374285335,
                1.8137810139935064,
                1.6756346432607472,
                1.1253268960311942,
                -0.8779902637361521
            ]
        },
        {
            "positions": [
                1.3494289316146244,
                -1.9662340347106264,
                1.899099081049131,
                1.7116964135845003,
                1.097791785928718,
                -1.0047022051077072
            ]
        },
        {
            "positions": [
                1.4399249391030942,
                -1.9408025319927196,
                1.9844171481047552,
                1.7477581839082534,
                1.0702566758262422,
                -1.1314141464792624
            ]
        },
        {
            "positions": [
                1.5304209465915641,
                -1.9153710292748127,
                2.0697352151603794,
                1.7838199542320066,
                1.0427215657237663,
                -1.2581260878508171
            ]
        },
        {
            "positions": [
                1.6209169540800341,
                -1.8899395265569057,
                2.155053282216004,
                1.8198817245557597,
                1.0151864556212904,
                -1.3848380292223723
            ]
        },
        {
            "positions": [
                1.7114129615685036,
                -1.8645080238389988,
                2.240371349271628,
                1.8559434948795128,
                0.9876513455188145,
                -1.5115499705939275
            ]
        },
        {
            "positions": [
                1.6655229915302787,
                -1.8664671502826253,
                2.2472932067565927,
                1.7505500640575864,
                0.9743742438161086,
                -1.3002417175512095
            ]
        },
        {
            "positions": [
                1.619633021492054,
                -1.8684262767262518,
                2.2542150642415573,
                1.64515663323566,
                0.9610971421134027,
                -1.0889334645084918
            ]
        },
        {
            "positions": [
                1.573743051453829,
                -1.8703854031698783,
                2.2611369217265223,
                1.5397632024137338,
                0.9478200404106968,
                -0.877625211465774
            ]
        },
        {
            "positions": [
                1.5278530814156044,
                -1.8723445296135048,
                2.268058779211487,
                1.4343697715918073,
                0.9345429387079908,
                -0.666316958423056
            ]
        },
        {
            "positions": [
                1.4819631113773795,
                -1.8743036560571313,
                2.2749806366964513,
                1.3289763407698811,
                0.9212658370052849,
                -0.4550087053803382
            ]
        },
        {
            "positions": [
                1.4360731413391548,
                -1.8762627825007578,
                2.281902494181416,
                1.2235829099479547,
                0.907988735302579,
                -0.2437004523376205
            ]
        },
        {
            "positions": [
                1.3901831713009298,
                -1.8782219089443843,
                2.288824351666381,
                1.1181894791260283,
                0.894711633599873,
                -0.03239219929490256
            ]
        },
        {
            "positions": [
                1.3442932012627051,
                -1.8801810353880108,
                2.2957462091513454,
                1.0127960483041019,
                0.8814345318971671,
                0.17891605374781538
            ]
        },
        {
            "positions": [
                1.2984032312244802,
                -1.8821401618316373,
                2.30266806663631,
                0.9074026174821754,
                0.8681574301944612,
                0.3902243067905331
            ]
        },
        {
            "positions": [
                1.2525132611862553,
                -1.8840992882752639,
                2.3095899241212745,
                0.8020091866602492,
                0.8548803284917553,
                0.601532559833251
            ]
        },
        {
            "positions": [
                1.2066232911480306,
                -1.8860584147188904,
                2.3165117816062395,
                0.6966157558383228,
                0.8416032267890494,
                0.8128408128759688
            ]
        },
        {
            "positions": [
                1.1607333211098059,
                -1.8880175411625169,
                2.323433639091204,
                0.5912223250163966,
                0.8283261250863434,
                1.0241490659186865
            ]
        },
        {
            "positions": [
                1.114843351071581,
                -1.8899766676061434,
                2.3303554965761686,
                0.48582889419446995,
                0.8150490233836375,
                1.2354573189614046
            ]
        },
        {
            "positions": [
                1.068953381033356,
                -1.8919357940497699,
                2.337277354061133,
                0.38043546337254375,
                0.8017719216809316,
                1.4467655720041224
            ]
        },
        {
            "positions": [
                1.0230634109951313,
                -1.8938949204933964,
                2.3441992115460977,
                0.27504203255061754,
                0.7884948199782257,
                1.65807382504684
            ]
        },
        {
            "positions": [
                0.9771734409569064,
                -1.8958540469370229,
                2.3511210690310627,
                0.1696486017286909,
                0.7752177182755198,
                1.8693820780895583
            ]
        },
        {
            "positions": [
                0.9312834709186817,
                -1.8978131733806494,
                2.358042926516027,
                0.06425517090676469,
                0.7619406165728139,
                2.0806903311322755
            ]
        },
        {
            "positions": [
                0.8853935008804568,
                -1.8997722998242759,
                2.3649647840009917,
                -0.04113825991516196,
                0.748663514870108,
                2.2919985841749937
            ]
        },
        {
            "positions": [
                0.839503530842232,
                -1.9017314262679024,
                2.3718866414859563,
                -0.14653169073708794,
                0.7353864131674019,
                2.5033068372177114
            ]
        },
        {
            "positions": [
                0.7936135608040071,
                -1.9036905527115289,
                2.3788084989709213,
                -0.25192512155901436,
                0.7221093114646961,
                2.7146150902604296
            ]
        },
        {
            "positions": [
                0.7477235907657823,
                -1.9056496791551554,
                2.385730356455886,
                -0.3573185523809408,
                0.7088322097619901,
                2.9259233433031477
            ]
        },
        {
            "positions": [
                0.7018336207275576,
                -1.9076088055987819,
                2.3926522139408504,
                -0.4627119832028671,
                0.6955551080592842,
                3.137231596345865
            ]
        }
    ]
}