{
    "goal": {
        "global_pose": {
            "orientation": {
                "w": -0.4816463035849501,
                "x": 0.5182115481033762,
                "y": 0.4908360881923453,
                "z": -0.5084816262002911
            },
            "position": {
                "x": -0.8240239810943604,
                "y": -0.300875300988555,
                "z": 0.16403168439865112
            }
        },
        "name": "move_to_storage_C"
    },
    "id": "LBKPIECE_move_to_storage_C_97",
    "joint_names": [
        "shoulder_pan_joint",
        "shoulder_lift_joint",
        "elbow_joint",
        "wrist_1_joint",
        "wrist_2_joint",
        "wrist_3_joint"
    ],
    "metrics": {
        "cart_traj_len": 0.5767094151164003,
        "distance_elbow_joint": 0.26270888709351503,
        "distance_shoulder_lift_joint": 0.1906092329569684,
        "distance_shoulder_pan_joint": 0.49285301451234576,
        "distance_wrist_1_joint": 0.08836311196063229,
        "distance_wrist_2_joint": 1.0753809484535561,
        "distance_wrist_3_joint": 0.05997797528176818,
        "smoothness": 2.5376526478085547e-16,
        "time": 0.252104807,
        "traj_len": 1.473055725442451,
        "weighted_distance": 1.8583845622573685
    },
    "planner": "LBKPIECE",
    "start": {
        "state": {
            "elbow_joint": 2.0108683149792914,
            "shoulder_lift_joint": -1.1634956873317392,
            "shoulder_pan_joint": -2.4736205022346,
            "wrist_1_joint": -0.8367026793690192,
            "wrist_2_joint": 0.6746043897045053,
            "wrist_3_joint": 3.133522094754363
        }
    },
    "waypoints": [
        {
            "positions": [
                -2.4736205022346,
                -1.1634956873317392,
                2.0108683149792914,
                -0.8367026793690192,
                0.6746043897045053,
                3.133522094754363
            ]
        },
        {
            "positions": [
                -2.5557626713199912,
                -1.1317274818389111,
                1.9670835004637055,
                -0.8219754940422471,
                0.8538345477800979,
                3.143518423967991
            ]
        },
        {
            "positions": [
                -2.637904840405382,
                -1.099959276346083,
                1.9232986859481198,
                -0.8072483087154751,
                1.0330647058556908,
                3.1535147531816192
            ]
        },
        {
            "positions": [
                -2.7200470094907727,
                -1.068191070853255,
                1.879513871432534,
                -0.7925211233887031,
                1.2122948639312834,
                3.1635110823952473
            ]
        },
        {
            "positions": [
                -2.802189178576164,
                -1.036422865360427,
                1.835729056916948,
                -0.777793938061931,
                1.391525022006876,
                3.1735074116088753
            ]
        },
        {
            "positions": [
                -2.884331347661555,
                -1.004654659867599,
                1.7919442424013623,
                -0.763066752735159,
                1.5707551800824688,
                3.1835037408225033
            ]
        },
        {
            "positions": [
                -2.966473516746946,
                -0.9728864543747708,
                1.7481594278857764,
                -0.7483395674083869,
                1.7499853381580615,
                3.1935000700361313
            ]
        }
    ]
}