{
    "goal": {
        "global_pose": {
            "orientation": {
                "w": 0.005598929693374612,
                "x": 0.007748599140229565,
                "y": 0.7110244013736278,
                "z": -0.7031023480610252
            },
            "position": {
                "x": 0.1141497679147869,
                "y": -0.7141253447532654,
                "z": 0.3711530566215515
            }
        },
        "name": "move_to_auspresseinheit_B"
    },
    "id": "LBKPIECE_move_to_auspresseinheit_B_78",
    "joint_names": [
        "shoulder_pan_joint",
        "shoulder_lift_joint",
        "elbow_joint",
        "wrist_1_joint",
        "wrist_2_joint",
        "wrist_3_joint"
    ],
    "metrics": {
        "cart_traj_len": 0.5645066362703076,
        "distance_elbow_joint": 0.0638941628456755,
        "distance_shoulder_lift_joint": 0.2955532730618764,
        "distance_shoulder_pan_joint": 0.5778603768096051,
        "distance_wrist_1_joint": 0.3329344079068881,
        "distance_wrist_2_joint": 0.9867233391713004,
        "distance_wrist_3_joint": 0.00683892910035766,
        "smoothness": 0.0,
        "time": 0.266460008,
        "traj_len": 1.5045944599445071,
        "weighted_distance": 1.896612795004454
    },
    "planner": "LBKPIECE",
    "start": {
        "state": {
            "elbow_joint": 2.0193061681459312,
            "shoulder_lift_joint": -1.1220205130644991,
            "shoulder_pan_joint": -1.0952072088045026,
            "wrist_1_joint": -0.8559671810662515,
            "wrist_2_joint": 0.4759638712940361,
            "wrist_3_joint": 3.159081874192446
        }
    },
    "waypoints": [
        {
            "positions": [
                -1.0952072088045026,
                -1.1220205130644991,
                2.0193061681459312,
                -0.8559671810662515,
                0.4759638712940361,
                3.159081874192446
            ]
        },
        {
            "positions": [
                -1.1915172716061035,
                -1.1712793919081452,
                2.0086571410049854,
                -0.8004781130817701,
                0.6404177611559195,
                3.1579420526757196
            ]
        },
        {
            "positions": [
                -1.2878273344077042,
                -1.2205382707517913,
                1.9980081138640393,
                -0.7449890450972888,
                0.8048716510178029,
                3.1568022311589936
            ]
        },
        {
            "positions": [
                -1.3841373972093052,
                -1.2697971495954374,
                1.9873590867230935,
                -0.6894999771128074,
                0.9693255408796864,
                3.155662409642267
            ]
        },
        {
            "positions": [
                -1.480447460010906,
                -1.3190560284390833,
                1.9767100595821476,
                -0.6340109091283261,
                1.1337794307415696,
                3.1545225881255408
            ]
        },
        {
            "positions": [
                -1.5767575228125068,
                -1.3683149072827294,
                1.9660610324412016,
                -0.5785218411438446,
                1.298233320603453,
                3.153382766608815
            ]
        },
        {
            "positions": [
                -1.6730675856141077,
                -1.4175737861263755,
                1.9554120053002557,
                -0.5230327731593634,
                1.4626872104653366,
                3.1522429450920884
            ]
        }
    ]
}