{
    "goal": {
        "global_pose": {
            "orientation": {
                "w": -0.00223480608172531,
                "x": 0.0024358444001904467,
                "y": 0.7094548369677653,
                "z": -0.704743149386269
            },
            "position": {
                "x": 0.6205249238014221,
                "y": -0.6371506643295288,
                "z": 0.19426114857196808
            }
        },
        "name": "move_to_magneteinheit_B"
    },
    "id": "LBKPIECE_move_to_magneteinheit_B_142",
    "joint_names": [
        "shoulder_pan_joint",
        "shoulder_lift_joint",
        "elbow_joint",
        "wrist_1_joint",
        "wrist_2_joint",
        "wrist_3_joint"
    ],
    "metrics": {
        "cart_traj_len": 3.9329807318604644,
        "distance_elbow_joint": 4.04787447629645,
        "distance_shoulder_lift_joint": 0.594086862403661,
        "distance_shoulder_pan_joint": 2.2584542621339594,
        "distance_wrist_1_joint": 2.273369858726318,
        "distance_wrist_2_joint": 1.4370876847117948,
        "distance_wrist_3_joint": 6.282551929936167,
        "smoothness": 0.1791382603080749,
        "time": 0.8203613670000001,
        "traj_len": 4.110161198080721,
        "weighted_distance": 5.759252249860114
    },
    "planner": "LBKPIECE",
    "start": {
        "state": {
            "elbow_joint": 2.393587130804639,
            "shoulder_lift_joint": -1.9085141043513325,
            "shoulder_pan_joint": 0.7066247066698809,
            "wrist_1_joint": -0.4678290934590222,
            "wrist_2_joint": 0.7096259084215963,
            "wrist_3_joint": 3.147370379541726
        }
    },
    "waypoints": [
        {
            "positions": [
                0.7066247066698809,
                -1.9085141043513325,
                2.393587130804639,
                -0.4678290934590222,
                0.7096259084215963,
                3.147370379541726
            ]
        },
        {
            "positions": [
                0.6304849553322599,
                -1.9013901756165077,
                2.362480138386728,
                -0.5033727558316067,
                0.7363083304185711,
                3.0925790558948094
            ]
        },
        {
            "positions": [
                0.5543452039946389,
                -1.8942662468816829,
                2.331373145968817,
                -0.5389164182041911,
                0.762990752415546,
                3.037787732247893
            ]
        },
        {
            "positions": [
                0.5909100540277934,
                -1.8891571971333228,
                2.205167523788675,
                -0.5965361906198527,
                0.7655339406328662,
                2.8732716179660076
            ]
        },
        {
            "positions": [
                0.6274749040609479,
                -1.8840481473849626,
                2.078961901608533,
                -0.6541559630355144,
                0.7680771288501864,
                2.708755503684122
            ]
        },
        {
            "positions": [
                0.6640397540941023,
                -1.8789390976366025,
                1.9527562794283904,
                -0.711775735451176,
                0.7706203170675066,
                2.544239389402237
            ]
        },
        {
            "positions": [
                0.7006046041272568,
                -1.8738300478882424,
                1.826550657248248,
                -0.7693955078668375,
                0.7731635052848267,
                2.3797232751203516
            ]
        },
        {
            "positions": [
                0.7371694541604112,
                -1.8687209981398822,
                1.7003450350681057,
                -0.8270152802824993,
                0.7757066935021468,
                2.2152071608384665
            ]
        },
        {
            "positions": [
                0.7737343041935657,
                -1.863611948391522,
                1.5741394128879636,
                -0.8846350526981608,
                0.778249881719467,
                2.0506910465565813
            ]
        },
        {
            "positions": [
                0.8102991542267202,
                -1.858502898643162,
                1.4479337907078211,
                -0.9422548251138224,
                0.7807930699367872,
                1.8861749322746957
            ]
        },
        {
            "positions": [
                0.8468640042598746,
                -1.8533938488948019,
                1.321728168527679,
                -0.999874597529484,
                0.7833362581541073,
                1.7216588179928105
            ]
        },
        {
            "positions": [
                0.8834288542930291,
                -1.8482847991464417,
                1.1955225463475365,
                -1.0574943699451458,
                0.7858794463714275,
                1.557142703710925
            ]
        },
        {
            "positions": [
                0.9199937043261835,
                -1.8431757493980816,
                1.0693169241673943,
                -1.1151141423608073,
                0.7884226345887477,
                1.3926265894290397
            ]
        },
        {
            "positions": [
                0.956558554359338,
                -1.8380666996497215,
                0.9431113019872519,
                -1.1727339147764688,
                0.7909658228060679,
                1.2281104751471545
            ]
        },
        {
            "positions": [
                0.9931234043924925,
                -1.8329576499013613,
                0.8169056798071097,
                -1.2303536871921303,
                0.793509011023388,
                1.0635943608652694
            ]
        },
        {
            "positions": [
                1.029688254425647,
                -1.8278486001530012,
                0.6907000576269673,
                -1.287973459607792,
                0.7960521992407081,
                0.8990782465833838
            ]
        },
        {
            "positions": [
                1.0662531044588013,
                -1.8227395504046413,
                0.5644944354468251,
                -1.3455932320234538,
                0.7985953874580283,
                0.7345621323014986
            ]
        },
        {
            "positions": [
                1.1028179544919559,
                -1.8176305006562812,
                0.4382888132666829,
                -1.4032130044391153,
                0.8011385756753485,
                0.5700460180196134
            ]
        },
        {
            "positions": [
                1.1393828045251104,
                -1.812521450907921,
                0.3120831910865407,
                -1.4608327768547769,
                0.8036817638926687,
                0.40552990373772824
            ]
        },
        {
            "positions": [
                1.1759476545582648,
                -1.807412401159561,
                0.1858775689063985,
                -1.5184525492704384,
                0.8062249521099888,
                0.24101378945584306
            ]
        },
        {
            "positions": [
                1.2125125045914191,
                -1.8023033514112008,
                0.059671946726255864,
                -1.5760723216861003,
                0.808768140327309,
                0.076497675173957
            ]
        },
        {
            "positions": [
                1.2490773546245737,
                -1.7971943016628407,
                -0.06653367545388633,
                -1.6336920941017619,
                0.8113113285446292,
                -0.08801843910792817
            ]
        },
        {
            "positions": [
                1.2856422046577283,
                -1.7920852519144805,
                -0.19273929763402853,
                -1.6913118665174234,
                0.8138545167619493,
                -0.25253455338981334
            ]
        },
        {
            "positions": [
                1.3222070546908826,
                -1.7869762021661204,
                -0.31894491981417117,
                -1.748931638933085,
                0.8163977049792694,
                -0.4170506676716985
            ]
        },
        {
            "positions": [
                1.358771904724037,
                -1.7818671524177603,
                -0.44515054199431336,
                -1.8065514113487464,
                0.8189408931965896,
                -0.5815667819535837
            ]
        },
        {
            "positions": [
                1.3953367547571915,
                -1.7767581026694002,
                -0.5713561641744556,
                -1.8641711837644084,
                0.8214840814139098,
                -0.7460828962354689
            ]
        },
        {
            "positions": [
                1.4319016047903461,
                -1.77164905292104,
                -0.6975617863545978,
                -1.92179095618007,
                0.82402726963123,
                -0.910599010517354
            ]
        },
        {
            "positions": [
                1.4684664548235005,
                -1.76654000317268,
                -0.8237674085347404,
                -1.9794107285957314,
                0.8265704578485501,
                -1.07511512479924
            ]
        },
        {
            "positions": [
                1.5050313048566548,
                -1.7614309534243198,
                -0.9499730307148826,
                -2.037030501011393,
                0.8291136460658703,
                -1.2396312390811253
            ]
        },
        {
            "positions": [
                1.5415961548898094,
                -1.7563219036759596,
                -1.0761786528950248,
                -2.094650273427055,
                0.8316568342831905,
                -1.4041473533630104
            ]
        },
        {
            "positions": [
                1.578161004922964,
                -1.7512128539275995,
                -1.202384275075167,
                -2.1522700458427164,
                0.8342000225005106,
                -1.5686634676448954
            ]
        },
        {
            "positions": [
                1.640324368206595,
                -1.7576080004877848,
                -1.3001904748186797,
                -2.1930420322913236,
                0.8373848984895789,
                -1.6954957262904315
            ]
        },
        {
            "positions": [
                1.720607207555876,
                -1.7907878205912688,
                -1.3418514933995374,
                -2.216113587609241,
                0.7722881434878892,
                -1.8111668732341661
            ]
        },
        {
            "positions": [
                1.800890046905157,
                -1.8239676406947531,
                -1.383512511980395,
                -2.2391851429271576,
                0.7071913884861996,
                -1.9268380201779007
            ]
        },
        {
            "positions": [
                1.881172886254438,
                -1.8571474607982372,
                -1.4251735305612527,
                -2.262256698245075,
                0.6420946334845099,
                -2.042509167121635
            ]
        },
        {
            "positions": [
                1.9614557256037188,
                -1.8903272809017215,
                -1.4668345491421104,
                -2.285328253562992,
                0.5769978784828202,
                -2.15818031406537
            ]
        },
        {
            "positions": [
                2.041738564953,
                -1.9235071010052056,
                -1.5084955677229683,
                -2.3083998088809095,
                0.5119011234811305,
                -2.2738514610091043
            ]
        },
        {
            "positions": [
                2.1220214043022807,
                -1.9566869211086897,
                -1.550156586303826,
                -2.3314713641988263,
                0.4468043684794409,
                -2.3895226079528387
            ]
        },
        {
            "positions": [
                2.202304243651562,
                -1.989866741212174,
                -1.5918176048846837,
                -2.3545429195167435,
                0.3817076134777512,
                -2.5051937548965735
            ]
        },
        {
            "positions": [
                2.279473385231965,
                -2.0553855183030714,
                -1.5944603446255945,
                -2.433844666978025,
                0.3447347908569192,
                -2.580231176133826
            ]
        },
        {
            "positions": [
                2.356642526812368,
                -2.1209042953939683,
                -1.5971030843665055,
                -2.5131464144393063,
                0.30776196823608726,
                -2.6552685973710792
            ]
        },
        {
            "positions": [
                2.433811668392771,
                -2.1864230724848657,
                -1.5997458241074163,
                -2.5924481619005877,
                0.27078914561525524,
                -2.730306018608332
            ]
        },
        {
            "positions": [
                2.4904887421579174,
                -2.1860292241292,
                -1.6133812044535147,
                -2.5552604643293995,
                0.08510591017288305,
                -2.831524901554859
            ]
        },
        {
            "positions": [
                2.547165815923064,
                -2.1856353757735345,
                -1.627016584799613,
                -2.5180727667582117,
                -0.10057732526948915,
                -2.932743784501386
            ]
        },
        {
            "positions": [
                2.60384288968821,
                -2.1852415274178694,
                -1.6406519651457114,
                -2.4808850691870235,
                -0.28626056071186134,
                -3.0339626674479128
            ]
        },
        {
            "positions": [
                2.6605199634533565,
                -2.184847679062204,
                -1.65428734549181,
                -2.4436973716158352,
                -0.47194379615423354,
                -3.13518155039444
            ]
        }
    ]
}