{
    "goal": {
        "global_pose": {
            "orientation": {
                "w": 0.005598929693374612,
                "x": 0.007748599140229565,
                "y": 0.7110244013736278,
                "z": -0.7031023480610252
            },
            "position": {
                "x": 0.1141497679147869,
                "y": -0.7141253447532654,
                "z": 0.3711530566215515
            }
        },
        "name": "move_to_auspresseinheit_B"
    },
    "id": "LBKPIECE_move_to_auspresseinheit_B_65",
    "joint_names": [
        "shoulder_pan_joint",
        "shoulder_lift_joint",
        "elbow_joint",
        "wrist_1_joint",
        "wrist_2_joint",
        "wrist_3_joint"
    ],
    "metrics": {
        "cart_traj_len": 0.5650952279804875,
        "distance_elbow_joint": 0.06339105891079266,
        "distance_shoulder_lift_joint": 0.29410588673585125,
        "distance_shoulder_pan_joint": 0.578764904617945,
        "distance_wrist_1_joint": 0.3263507361076735,
        "distance_wrist_2_joint": 0.9846384642761659,
        "distance_wrist_3_joint": 0.006416340225383177,
        "smoothness": 0.0,
        "time": 0.630549321,
        "traj_len": 1.5012219658910575,
        "weighted_distance": 1.891425195906097
    },
    "planner": "LBKPIECE",
    "start": {
        "state": {
            "elbow_joint": 2.0193061681459312,
            "shoulder_lift_joint": -1.1220205130644991,
            "shoulder_pan_joint": -1.0952072088045026,
            "wrist_1_joint": -0.8559671810662515,
            "wrist_2_joint": 0.4759638712940361,
            "wrist_3_joint": 3.159081874192446
        }
    },
    "waypoints": [
        {
            "positions": [
                -1.0952072088045026,
                -1.1220205130644991,
                2.0193061681459312,
                -0.8559671810662515,
                0.4759638712940361,
                3.159081874192446
            ]
        },
        {
            "positions": [
                -1.1916680262408268,
                -1.1710381608538076,
                2.0087409916607992,
                -0.8015753917149726,
                0.6400702820067304,
                3.1580124841548822
            ]
        },
        {
            "positions": [
                -1.288128843677151,
                -1.2200558086431161,
                1.998175815175667,
                -0.7471836023636936,
                0.8041766927194247,
                3.1569430941173184
            ]
        },
        {
            "positions": [
                -1.3845896611134751,
                -1.2690734564324249,
                1.9876106386905348,
                -0.6927918130124147,
                0.9682831034321191,
                3.155873704079754
            ]
        },
        {
            "positions": [
                -1.4810504785497993,
                -1.3180911042217334,
                1.9770454622054028,
                -0.6384000236611358,
                1.1323895141448133,
                3.1548043140421904
            ]
        },
        {
            "positions": [
                -1.5775112959861235,
                -1.3671087520110419,
                1.9664802857202708,
                -0.5840082343098569,
                1.2964959248575076,
                3.1537349240046266
            ]
        },
        {
            "positions": [
                -1.6739721134224477,
                -1.4161263998003504,
                1.9559151092351386,
                -0.529616444958578,
                1.460602335570202,
                3.152665533967063
            ]
        }
    ]
}