{
    "goal": {
        "global_pose": {
            "orientation": {
                "w": -0.4816463035849501,
                "x": 0.5182115481033762,
                "y": 0.4908360881923453,
                "z": -0.5084816262002911
            },
            "position": {
                "x": -0.8240239810943604,
                "y": 0.19912469901144506,
                "z": 0.16403168439865112
            }
        },
        "name": "move_to_storage_D"
    },
    "id": "LBKPIECE_move_to_storage_D_145",
    "joint_names": [
        "shoulder_pan_joint",
        "shoulder_lift_joint",
        "elbow_joint",
        "wrist_1_joint",
        "wrist_2_joint",
        "wrist_3_joint"
    ],
    "metrics": {
        "cart_traj_len": 6.677970522082266,
        "distance_elbow_joint": 4.945535196932729,
        "distance_shoulder_lift_joint": 3.331687721951292,
        "distance_shoulder_pan_joint": 4.067168059895423,
        "distance_wrist_1_joint": 5.690958587371933,
        "distance_wrist_2_joint": 4.153968066987302,
        "distance_wrist_3_joint": 11.540770435343823,
        "smoothness": 0.5270355595256367,
        "time": 0.645563297,
        "traj_len": 5.807761020262672,
        "weighted_distance": 8.164346611550084
    },
    "planner": "LBKPIECE",
    "start": {
        "state": {
            "elbow_joint": -2.384821990628643,
            "shoulder_lift_joint": -2.278805467437664,
            "shoulder_pan_joint": -0.18546946439364564,
            "wrist_1_joint": 1.4845938187801415,
            "wrist_2_joint": 0.178987772454074,
            "wrist_3_joint": 0.03710569632802521
        }
    },
    "waypoints": [
        {
            "positions": [
                -0.18546946439364564,
                -2.278805467437664,
                -2.384821990628643,
                1.4845938187801415,
                0.178987772454074,
                0.03710569632802521
            ]
        },
        {
            "positions": [
                -0.17501289038789125,
                -2.2786365699738282,
                -2.3657563706632576,
                1.4668714711461002,
                0.17658650547796814,
                0.03406313546234428
            ]
        },
        {
            "positions": [
                -0.10137076156205183,
                -2.230464796329832,
                -2.2767860609230146,
                1.35889266667562,
                0.19906648556814358,
                -0.008411408306065918
            ]
        },
        {
            "positions": [
                -0.0277286327362124,
                -2.182293022685836,
                -2.187815751182772,
                1.25091386220514,
                0.221546465658319,
                -0.05088595207447612
            ]
        },
        {
            "positions": [
                0.045913496089627,
                -2.1341212490418395,
                -2.098845441442529,
                1.14293505773466,
                0.24402644574849444,
                -0.09336049584288632
            ]
        },
        {
            "positions": [
                0.11955562491546645,
                -2.0859494753978436,
                -2.009875131702286,
                1.0349562532641798,
                0.2665064258386699,
                -0.1358350396112965
            ]
        },
        {
            "positions": [
                0.19319775374130588,
                -2.037777701753847,
                -1.9209048219620433,
                0.9269774487936997,
                0.28898640592884534,
                -0.1783095833797067
            ]
        },
        {
            "positions": [
                0.26683988256714525,
                -1.989605928109851,
                -1.8319345122218005,
                0.8189986443232197,
                0.31146638601902077,
                -0.2207841271481169
            ]
        },
        {
            "positions": [
                0.34048201139298473,
                -1.9414341544658549,
                -1.7429642024815575,
                0.7110198398527395,
                0.3339463661091962,
                -0.26325867091652716
            ]
        },
        {
            "positions": [
                0.41412414021882415,
                -1.8932623808218587,
                -1.6539938927413145,
                0.6030410353822595,
                0.35642634619937164,
                -0.3057332146849373
            ]
        },
        {
            "positions": [
                0.48776626904466347,
                -1.8450906071778626,
                -1.5650235830010717,
                0.4950622309117795,
                0.378906326289547,
                -0.3482077584533475
            ]
        },
        {
            "positions": [
                0.561408397870503,
                -1.7969188335338664,
                -1.476053273260829,
                0.3870834264412992,
                0.4013863063797225,
                -0.3906823022217577
            ]
        },
        {
            "positions": [
                0.6350505266963424,
                -1.7487470598898702,
                -1.387082963520586,
                0.2791046219708193,
                0.42386628646989793,
                -0.4331568459901679
            ]
        },
        {
            "positions": [
                0.7086926555221817,
                -1.7005752862458738,
                -1.2981126537803431,
                0.17112581750033917,
                0.44634626656007337,
                -0.4756313897585781
            ]
        },
        {
            "positions": [
                0.7823347843480213,
                -1.652403512601878,
                -1.2091423440401001,
                0.06314701302985903,
                0.46882624665024886,
                -0.5181059335269883
            ]
        },
        {
            "positions": [
                0.8559769131738607,
                -1.6042317389578815,
                -1.1201720342998571,
                -0.044831791440621105,
                0.49130622674042423,
                -0.5605804772953986
            ]
        },
        {
            "positions": [
                0.9296190419997,
                -1.5560599653138856,
                -1.0312017245596146,
                -0.15281059591110102,
                0.5137862068305996,
                -0.6030550210638087
            ]
        },
        {
            "positions": [
                1.0032611708255397,
                -1.5078881916698892,
                -0.9422314148193716,
                -0.26078940038158116,
                0.5362661869207751,
                -0.6455295648322189
            ]
        },
        {
            "positions": [
                1.076903299651379,
                -1.4597164180258928,
                -0.8532611050791286,
                -0.3687682048520615,
                0.5587461670109506,
                -0.6880041086006291
            ]
        },
        {
            "positions": [
                1.1505454284772183,
                -1.4115446443818969,
                -0.7642907953388858,
                -0.4767470093225412,
                0.581226147101126,
                -0.7304786523690393
            ]
        },
        {
            "positions": [
                1.2241875573030576,
                -1.3633728707379005,
                -0.675320485598643,
                -0.5847258137930216,
                0.6037061271913015,
                -0.7729531961374495
            ]
        },
        {
            "positions": [
                1.2978296861288974,
                -1.3152010970939045,
                -0.5863501758584,
                -0.6927046182635017,
                0.6261861072814768,
                -0.8154277399058597
            ]
        },
        {
            "positions": [
                1.3714718149547367,
                -1.2670293234499084,
                -0.4973798661181572,
                -0.8006834227339814,
                0.6486660873716523,
                -0.8579022836742699
            ]
        },
        {
            "positions": [
                1.445113943780576,
                -1.218857549805912,
                -0.4084095563779142,
                -0.9086622272044615,
                0.6711460674618277,
                -0.9003768274426801
            ]
        },
        {
            "positions": [
                1.5187560726064153,
                -1.1706857761619158,
                -0.3194392466376712,
                -1.0166410316749417,
                0.6936260475520032,
                -0.9428513712110903
            ]
        },
        {
            "positions": [
                1.5923982014322546,
                -1.1225140025179197,
                -0.23046893689742864,
                -1.1246198361454218,
                0.7161060276421786,
                -0.9853259149795005
            ]
        },
        {
            "positions": [
                1.6660403302580944,
                -1.0743422288739235,
                -0.14149862715718547,
                -1.2325986406159022,
                0.738586007732354,
                -1.0278004587479108
            ]
        },
        {
            "positions": [
                1.6398804690475401,
                -1.117396305107001,
                -0.15683067499357595,
                -1.28524320437091,
                0.6702577393276963,
                -0.8526736210088062
            ]
        },
        {
            "positions": [
                1.613720607836986,
                -1.1604503813400786,
                -0.1721627228299664,
                -1.337887768125918,
                0.6019294709230385,
                -0.6775467832697014
            ]
        },
        {
            "positions": [
                1.5875607466264317,
                -1.2035044575731562,
                -0.18749477066635686,
                -1.3905323318809262,
                0.5336012025183807,
                -0.5024199455305967
            ]
        },
        {
            "positions": [
                1.5614008854158772,
                -1.2465585338062337,
                -0.2028268185027473,
                -1.443176895635934,
                0.4652729341137229,
                -0.327293107791492
            ]
        },
        {
            "positions": [
                1.535241024205323,
                -1.2896126100393113,
                -0.21815886633913778,
                -1.495821459390942,
                0.39694466570906506,
                -0.15216627005238714
            ]
        },
        {
            "positions": [
                1.5090811629947687,
                -1.3326666862723888,
                -0.23349091417552825,
                -1.54846602314595,
                0.3286163973044073,
                0.022960567686717503
            ]
        },
        {
            "positions": [
                1.4829213017842144,
                -1.3757207625054662,
                -0.24882296201191872,
                -1.6011105869009579,
                0.26028812889974945,
                0.19808740542582237
            ]
        },
        {
            "positions": [
                1.4567614405736602,
                -1.4187748387385437,
                -0.26415500984830914,
                -1.6537551506559658,
                0.19195986049509173,
                0.3732142431649268
            ]
        },
        {
            "positions": [
                1.4306015793631057,
                -1.4618289149716213,
                -0.2794870576846996,
                -1.706399714410974,
                0.12363159209043384,
                0.5483410809040317
            ]
        },
        {
            "positions": [
                1.4044417181525515,
                -1.5048829912046988,
                -0.2948191055210901,
                -1.7590442781659819,
                0.05530332368577606,
                0.7234679186431365
            ]
        },
        {
            "positions": [
                1.3782818569419972,
                -1.5479370674377764,
                -0.31015115335748056,
                -1.8116888419209898,
                -0.013024944718881715,
                0.898594756382241
            ]
        },
        {
            "positions": [
                1.352121995731443,
                -1.590991143670854,
                -0.325483201193871,
                -1.864333405675998,
                -0.08135321312353949,
                1.0737215941213458
            ]
        },
        {
            "positions": [
                1.3259621345208887,
                -1.6340452199039315,
                -0.34081524903026145,
                -1.9169779694310058,
                -0.14968148152819727,
                1.2488484318604502
            ]
        },
        {
            "positions": [
                1.2998022733103345,
                -1.677099296137009,
                -0.3561472968666519,
                -1.9696225331860138,
                -0.21800974993285516,
                1.4239752695995556
            ]
        },
        {
            "positions": [
                1.2736424120997802,
                -1.7201533723700866,
                -0.3714793447030424,
                -2.0222670969410217,
                -0.2863380183375128,
                1.59910210733866
            ]
        },
        {
            "positions": [
                1.247482550889226,
                -1.763207448603164,
                -0.38681139253943286,
                -2.0749116606960296,
                -0.3546662867421706,
                1.7742289450777644
            ]
        },
        {
            "positions": [
                1.2213226896786715,
                -1.8062615248362417,
                -0.40214344037582334,
                -2.1275562244510375,
                -0.4229945551468286,
                1.9493557828168697
            ]
        },
        {
            "positions": [
                1.1951628284681173,
                -1.849315601069319,
                -0.41747548821221375,
                -2.1802007882060455,
                -0.4913228235514864,
                2.124482620555974
            ]
        },
        {
            "positions": [
                1.169002967257563,
                -1.8923696773023966,
                -0.4328075360486042,
                -2.2328453519610534,
                -0.5596510919561439,
                2.2996094582950786
            ]
        },
        {
            "positions": [
                1.1428431060470086,
                -1.9354237535354741,
                -0.4481395838849947,
                -2.2854899157160613,
                -0.6279793603608019,
                2.474736296034184
            ]
        },
        {
            "positions": [
                1.1166832448364543,
                -1.9784778297685517,
                -0.46347163172138517,
                -2.3381344794710692,
                -0.6963076287654597,
                2.6498631337732883
            ]
        },
        {
            "positions": [
                1.0905233836259,
                -2.0215319060016292,
                -0.4788036795577756,
                -2.390779043226077,
                -0.7646358971701175,
                2.8249899715123927
            ]
        },
        {
            "positions": [
                1.0643635224153458,
                -2.064585982234707,
                -0.49413572739416606,
                -2.4434236069810855,
                -0.8329641655747753,
                3.000116809251498
            ]
        },
        {
            "positions": [
                1.0382036612047916,
                -2.1076400584677843,
                -0.5094677752305565,
                -2.4960681707360934,
                -0.901292433979433,
                3.175243646990602
            ]
        },
        {
            "positions": [
                1.0799884400519069,
                -2.0788525149468975,
                -0.44804033614140115,
                -2.4510603655293646,
                -0.8499848325045639,
                3.0101694318714083
            ]
        },
        {
            "positions": [
                1.1217732188990222,
                -2.050064971426011,
                -0.3866128970522457,
                -2.4060525603226357,
                -0.7986772310296948,
                2.8450952167522146
            ]
        },
        {
            "positions": [
                1.1635579977461372,
                -2.021277427905124,
                -0.32518545796309034,
                -2.361044755115907,
                -0.7473696295548258,
                2.680021001633021
            ]
        },
        {
            "positions": [
                1.2053427765932525,
                -1.9924898843842376,
                -0.2637580188739349,
                -2.316036949909178,
                -0.6960620280799567,
                2.5149467865138266
            ]
        },
        {
            "positions": [
                1.2471275554403678,
                -1.963702340863351,
                -0.20233057978477953,
                -2.271029144702449,
                -0.6447544266050875,
                2.349872571394633
            ]
        },
        {
            "positions": [
                1.288912334287483,
                -1.9349147973424643,
                -0.14090314069562415,
                -2.2260213394957202,
                -0.5934468251302185,
                2.184798356275439
            ]
        },
        {
            "positions": [
                1.3306971131345984,
                -1.9061272538215777,
                -0.07947570160646872,
                -2.1810135342889914,
                -0.5421392236553493,
                2.0197241411562454
            ]
        },
        {
            "positions": [
                1.3724818919817137,
                -1.877339710300691,
                -0.01804826251731334,
                -2.1360057290822625,
                -0.49083162218048026,
                1.8546499260370517
            ]
        },
        {
            "positions": [
                1.414266670828829,
                -1.8485521667798044,
                0.04337917657184209,
                -2.0909979238755336,
                -0.43952402070561114,
                1.689575710917858
            ]
        },
        {
            "positions": [
                1.456051449675944,
                -1.8197646232589175,
                0.10480661566099747,
                -2.0459901186688043,
                -0.388216419230742,
                1.524501495798664
            ]
        },
        {
            "positions": [
                1.4978362285230593,
                -1.7909770797380309,
                0.16623405475015296,
                -2.0009823134620754,
                -0.3369088177558729,
                1.35942728067947
            ]
        },
        {
            "positions": [
                1.5396210073701746,
                -1.7621895362171442,
                0.22766149383930823,
                -1.9559745082553468,
                -0.2856012162810039,
                1.1943530655602765
            ]
        },
        {
            "positions": [
                1.5814057862172899,
                -1.7334019926962574,
                0.2890889329284637,
                -1.9109667030486177,
                -0.23429361480613475,
                1.0292788504410826
            ]
        },
        {
            "positions": [
                1.6231905650644052,
                -1.704614449175371,
                0.3505163720176191,
                -1.8659588978418888,
                -0.18298601333126563,
                0.8642046353218888
            ]
        },
        {
            "positions": [
                1.6649753439115202,
                -1.6758269056544841,
                0.41194381110677447,
                -1.82095109263516,
                -0.1316784118563965,
                0.6991304202026951
            ]
        },
        {
            "positions": [
                1.7067601227586358,
                -1.6470393621335975,
                0.47337125019592985,
                -1.775943287428431,
                -0.08037081038152749,
                0.5340562050835014
            ]
        },
        {
            "positions": [
                1.7485449016057508,
                -1.6182518186127108,
                0.5347986892850853,
                -1.7309354822217022,
                -0.029063208906658367,
                0.3689819899643072
            ]
        },
        {
            "positions": [
                1.7903296804528661,
                -1.5894642750918242,
                0.5962261283742407,
                -1.6859276770149734,
                0.022244392568210758,
                0.2039077748451139
            ]
        },
        {
            "positions": [
                1.8321144592999814,
                -1.5606767315709376,
                0.6576535674633961,
                -1.6409198718082445,
                0.07355199404307988,
                0.03883355972591973
            ]
        },
        {
            "positions": [
                1.8738992381470965,
                -1.5318891880500507,
                0.7190810065525515,
                -1.5959120666015156,
                0.124859595517949,
                -0.126240655393274
            ]
        },
        {
            "positions": [
                1.915684016994212,
                -1.503101644529164,
                0.7805084456417071,
                -1.5509042613947868,
                0.17616719699281824,
                -0.2913148705124682
            ]
        },
        {
            "positions": [
                1.957468795841327,
                -1.4743141010082774,
                0.8419358847308624,
                -1.505896456188058,
                0.22747479846768726,
                -0.4563890856316619
            ]
        },
        {
            "positions": [
                1.9992535746884426,
                -1.4455265574873908,
                0.9033633238200176,
                -1.460888650981329,
                0.27878239994255627,
                -0.6214633007508557
            ]
        },
        {
            "positions": [
                2.0410383535355576,
                -1.4167390139665041,
                0.964790762909173,
                -1.4158808457746002,
                0.3300900014174253,
                -0.7865375158700489
            ]
        },
        {
            "positions": [
                2.082823132382673,
                -1.3879514704456173,
                1.0262182019983286,
                -1.370873040567871,
                0.3813976028922945,
                -0.9516117309892436
            ]
        },
        {
            "positions": [
                2.124607911229788,
                -1.3591639269247306,
                1.087645641087484,
                -1.3258652353611422,
                0.43270520436716353,
                -1.1166859461084369
            ]
        },
        {
            "positions": [
                2.1663926900769033,
                -1.330376383403844,
                1.1490730801766393,
                -1.2808574301544133,
                0.48401280584203277,
                -1.281760161227631
            ]
        },
        {
            "positions": [
                2.208177468924019,
                -1.3015888398829574,
                1.2105005192657947,
                -1.2358496249476845,
                0.5353204073169018,
                -1.4468343763468243
            ]
        },
        {
            "positions": [
                2.2499622477711343,
                -1.2728012963620707,
                1.27192795835495,
                -1.1908418197409556,
                0.586628008791771,
                -1.6119085914660185
            ]
        },
        {
            "positions": [
                2.291747026618249,
                -1.2440137528411839,
                1.3333553974441055,
                -1.1458340145342267,
                0.63793561026664,
                -1.7769828065852118
            ]
        },
        {
            "positions": [
                2.3335318054653644,
                -1.2152262093202975,
                1.3947828365332609,
                -1.1008262093274979,
                0.689243211741509,
                -1.942057021704406
            ]
        },
        {
            "positions": [
                2.37531658431248,
                -1.1864386657994106,
                1.4562102756224162,
                -1.055818404120769,
                0.7405508132163781,
                -2.1071312368235993
            ]
        },
        {
            "positions": [
                2.417101363159595,
                -1.1576511222785237,
                1.5176377147115718,
                -1.01081059891404,
                0.7918584146912473,
                -2.2722054519427934
            ]
        },
        {
            "positions": [
                2.45888614200671,
                -1.1288635787576373,
                1.5790651538007272,
                -0.965802793707311,
                0.8431660161661163,
                -2.4372796670619876
            ]
        },
        {
            "positions": [
                2.5006709208538256,
                -1.1000760352367507,
                1.6404925928898826,
                -0.9207949885005822,
                0.8944736176409855,
                -2.602353882181181
            ]
        },
        {
            "positions": [
                2.5424556997009407,
                -1.071288491715864,
                1.701920031979038,
                -0.8757871832938535,
                0.9457812191158546,
                -2.767428097300374
            ]
        },
        {
            "positions": [
                2.5842404785480557,
                -1.0425009481949772,
                1.7633474710681933,
                -0.8307793780871244,
                0.9970888205907238,
                -2.9325023124195693
            ]
        },
        {
            "positions": [
                2.6260252573951712,
                -1.0137134046740905,
                1.824774910157349,
                -0.7857715728803955,
                1.0483964220655928,
                -3.097576527538763
            ]
        }
    ]
}