{
    "goal": {
        "global_pose": {
            "orientation": {
                "w": 0.5084816262002911,
                "x": -0.4908360881923452,
                "y": 0.5182115481033761,
                "z": -0.48164630358495003
            },
            "position": {
                "x": 0.5540239810943604,
                "y": -0.46912469901144505,
                "z": 0.16403168439865112
            }
        },
        "name": "move_to_storage_B"
    },
    "id": "LBKPIECE_move_to_storage_B_7",
    "joint_names": [
        "shoulder_pan_joint",
        "shoulder_lift_joint",
        "elbow_joint",
        "wrist_1_joint",
        "wrist_2_joint",
        "wrist_3_joint"
    ],
    "metrics": {
        "cart_traj_len": 0.8029497289292369,
        "distance_elbow_joint": 0.5782212231655481,
        "distance_shoulder_lift_joint": 0.48351239206770047,
        "distance_shoulder_pan_joint": 0.6486241014539229,
        "distance_wrist_1_joint": 3.012730398880019,
        "distance_wrist_2_joint": 2.702712667712048,
        "distance_wrist_3_joint": 3.123470438403895,
        "smoothness": 0.16220661794514935,
        "time": 0.31610103,
        "traj_len": 3.2479641657018217,
        "weighted_distance": 4.744644893464946
    },
    "planner": "LBKPIECE",
    "start": {
        "state": {
            "elbow_joint": 1.6649325340416963,
            "shoulder_lift_joint": -0.6616387945129425,
            "shoulder_pan_joint": -0.9139837929255878,
            "wrist_1_joint": 2.1467571094334352,
            "wrist_2_joint": -2.234195976750228,
            "wrist_3_joint": 0.005470921511140723
        }
    },
    "waypoints": [
        {
            "positions": [
                -0.9139837929255878,
                -0.6616387945129425,
                1.6649325340416963,
                2.1467571094334352,
                -2.234195976750228,
                0.005470921511140723
            ]
        },
        {
            "positions": [
                -0.79723168993989,
                -0.6553484323397321,
                1.6079678110650768,
                2.1508009247521365,
                -2.2199322929130867,
                -0.05369587475208185
            ]
        },
        {
            "positions": [
                -0.6804795869541922,
                -0.6490580701665215,
                1.5510030880884573,
                2.1548447400708377,
                -2.205668609075945,
                -0.11286267101530444
            ]
        },
        {
            "positions": [
                -0.6964457367804432,
                -0.66717082661734,
                1.5688604641350845,
                2.0392815566768907,
                -2.1028153283052617,
                -0.22844485739520637
            ]
        },
        {
            "positions": [
                -0.7124118866066943,
                -0.6852835830681584,
                1.586717840181712,
                1.9237183732829441,
                -1.9999620475345785,
                -0.3440270437751083
            ]
        },
        {
            "positions": [
                -0.7283780364329453,
                -0.7033963395189768,
                1.604575216228339,
                1.8081551898889974,
                -1.8971087667638953,
                -0.45960923015501026
            ]
        },
        {
            "positions": [
                -0.7443441862591964,
                -0.7215090959697953,
                1.6224325922749665,
                1.6925920064950506,
                -1.7942554859932118,
                -0.5751914165349121
            ]
        },
        {
            "positions": [
                -0.7603103360854474,
                -0.7396218524206137,
                1.6402899683215937,
                1.5770288231011036,
                -1.6914022052225286,
                -0.6907736029148142
            ]
        },
        {
            "positions": [
                -0.7762764859116985,
                -0.7577346088714322,
                1.658147344368221,
                1.461465639707157,
                -1.5885489244518454,
                -0.8063557892947161
            ]
        },
        {
            "positions": [
                -0.7922426357379495,
                -0.7758473653222506,
                1.6760047204148483,
                1.34590245631321,
                -1.4856956436811621,
                -0.9219379756746179
            ]
        },
        {
            "positions": [
                -0.8082087855642006,
                -0.7939601217730691,
                1.6938620964614755,
                1.2303392729192633,
                -1.3828423629104787,
                -1.0375201620545198
            ]
        },
        {
            "positions": [
                -0.8241749353904516,
                -0.8120728782238875,
                1.7117194725081029,
                1.1147760895253165,
                -1.2799890821397955,
                -1.1531023484344218
            ]
        },
        {
            "positions": [
                -0.8401410852167027,
                -0.830185634674706,
                1.72957684855473,
                0.9992129061313697,
                -1.1771358013691122,
                -1.2686845348143239
            ]
        },
        {
            "positions": [
                -0.8561072350429537,
                -0.8482983911255244,
                1.7474342246013574,
                0.8836497227374229,
                -1.074282520598429,
                -1.3842667211942257
            ]
        },
        {
            "positions": [
                -0.8720733848692048,
                -0.8664111475763429,
                1.7652916006479846,
                0.7680865393434761,
                -0.9714292398277458,
                -1.4998489075741277
            ]
        },
        {
            "positions": [
                -0.8880395346954558,
                -0.8845239040271613,
                1.783148976694612,
                0.6525233559495294,
                -0.8685759590570625,
                -1.6154310939540295
            ]
        },
        {
            "positions": [
                -0.9040056845217068,
                -0.9026366604779796,
                1.8010063527412392,
                0.5369601725555826,
                -0.7657226782863793,
                -1.7310132803339313
            ]
        },
        {
            "positions": [
                -0.9199718343479579,
                -0.9207494169287981,
                1.8188637287878664,
                0.42139698916163604,
                -0.6628693975156961,
                -1.8465954667138331
            ]
        },
        {
            "positions": [
                -0.935937984174209,
                -0.9388621733796165,
                1.8367211048344938,
                0.3058338057676888,
                -0.5600161167450126,
                -1.9621776530937354
            ]
        },
        {
            "positions": [
                -0.95190413400046,
                -0.9569749298304351,
                1.854578480881121,
                0.19027062237374226,
                -0.4571628359743294,
                -2.077759839473637
            ]
        },
        {
            "positions": [
                -0.967870283826711,
                -0.9750876862812534,
                1.8724358569277482,
                0.07470743897979526,
                -0.35430955520364615,
                -2.193342025853539
            ]
        },
        {
            "positions": [
                -0.9838364336529621,
                -0.9932004427320719,
                1.8902932329743756,
                -0.040855744414151296,
                -0.25145627443296314,
                -2.308924212233441
            ]
        },
        {
            "positions": [
                -0.9998025834792132,
                -1.0113131991828903,
                1.908150609021003,
                -0.1564189278080983,
                -0.14860299366227947,
                -2.4245063986133433
            ]
        },
        {
            "positions": [
                -1.0157687333054644,
                -1.0294259556337089,
                1.9260079850676302,
                -0.27198211120204485,
                -0.04574971289159624,
                -2.540088584993245
            ]
        },
        {
            "positions": [
                -1.0317348831317152,
                -1.0475387120845272,
                1.9438653611142573,
                -0.38754529459599185,
                0.05710356787908699,
                -2.655670771373147
            ]
        },
        {
            "positions": [
                -1.0477010329579663,
                -1.0656514685353455,
                1.9617227371608847,
                -0.5031084779899384,
                0.15995684864977022,
                -2.7712529577530485
            ]
        },
        {
            "positions": [
                -1.0636671827842175,
                -1.083764224986164,
                1.979580113207512,
                -0.6186716613838854,
                0.26281012942045345,
                -2.886835144132951
            ]
        },
        {
            "positions": [
                -1.0796333326104683,
                -1.1018769814369826,
                1.9974374892541393,
                -0.7342348447778324,
                0.3656634101911367,
                -3.0024173305128525
            ]
        },
        {
            "positions": [
                -1.0955994824367195,
                -1.119989737887801,
                2.0152948653007665,
                -0.8497980281717789,
                0.4685166909618198,
                -3.1179995168927546
            ]
        }
    ]
}