{
    "goal": {
        "global_pose": {
            "orientation": {
                "w": -0.00223480608172531,
                "x": 0.0024358444001904467,
                "y": 0.7094548369677653,
                "z": -0.704743149386269
            },
            "position": {
                "x": -0.37947507619857795,
                "y": -0.6371506643295288,
                "z": 0.19426114857196808
            }
        },
        "name": "move_to_magneteinheit_C"
    },
    "id": "LBKPIECE_move_to_magneteinheit_C_46",
    "joint_names": [
        "shoulder_pan_joint",
        "shoulder_lift_joint",
        "elbow_joint",
        "wrist_1_joint",
        "wrist_2_joint",
        "wrist_3_joint"
    ],
    "metrics": {
        "cart_traj_len": 0.8034100181650841,
        "distance_elbow_joint": 0.22650757003957112,
        "distance_shoulder_lift_joint": 0.32458625370641014,
        "distance_shoulder_pan_joint": 1.055902026697069,
        "distance_wrist_1_joint": 0.31587277847050443,
        "distance_wrist_2_joint": 1.2488374734998309,
        "distance_wrist_3_joint": 0.443570517405242,
        "smoothness": 1.3149092733813574,
        "time": 0.518749984,
        "traj_len": 1.901388077121193,
        "weighted_distance": 2.463154056611045
    },
    "planner": "LBKPIECE",
    "start": {
        "state": {
            "elbow_joint": 1.9565354006593851,
            "shoulder_lift_joint": -1.4165861576512813,
            "shoulder_pan_joint": -1.6717766223278752,
            "wrist_1_joint": -0.528663328821883,
            "wrist_2_joint": 1.472756589259273,
            "wrist_3_joint": 3.159348288315503
        }
    },
    "waypoints": [
        {
            "positions": [
                -1.6717766223278752,
                -1.4165861576512813,
                1.9565354006593851,
                -0.528663328821883,
                1.472756589259273,
                3.159348288315503
            ]
        },
        {
            "positions": [
                -1.658323025448511,
                -1.4224043183936426,
                1.948644797022633,
                -0.5207707813478902,
                1.464547289443801,
                3.1571525086588856
            ]
        },
        {
            "positions": [
                -1.5456154900137684,
                -1.4514782394964936,
                1.8892767241528008,
                -0.5168264639107698,
                1.347702688107176,
                3.086576770413049
            ]
        },
        {
            "positions": [
                -1.5952825718617667,
                -1.4294445987048974,
                1.8850742462744627,
                -0.557870485695949,
                1.1671075889369236,
                3.0532915290769638
            ]
        },
        {
            "positions": [
                -1.6449496537097648,
                -1.4074109579133012,
                1.8808717683961247,
                -0.5989145074811283,
                0.986512489766671,
                3.020006287740878
            ]
        },
        {
            "positions": [
                -1.694616735557763,
                -1.385377317121705,
                1.8766692905177869,
                -0.6399585292663075,
                0.8059173905964185,
                2.986721046404793
            ]
        },
        {
            "positions": [
                -1.744283817405761,
                -1.3633436763301088,
                1.8724668126394488,
                -0.6810025510514868,
                0.625322291426166,
                2.9534358050687075
            ]
        },
        {
            "positions": [
                -1.7939508992537594,
                -1.3413100355385126,
                1.8682643347611108,
                -0.722046572836666,
                0.44472719225591356,
                2.9201505637326224
            ]
        },
        {
            "positions": [
                -1.9643022705395021,
                -1.2964285435627083,
                1.902823460796435,
                -0.7467505239950397,
                0.4999292113800315,
                2.971243761938213
            ]
        },
        {
            "positions": [
                -2.134653641825245,
                -1.251547051586904,
                1.9373825868317591,
                -0.7714544751534135,
                0.5551312305041494,
                3.022336960143803
            ]
        },
        {
            "positions": [
                -2.305005013110988,
                -1.2066655596111,
                1.9719417128670833,
                -0.7961584263117872,
                0.6103332496282673,
                3.0734301583493933
            ]
        },
        {
            "positions": [
                -2.4753563843967306,
                -1.1617840676352957,
                2.0065008389024075,
                -0.820862377470161,
                0.6655352687523852,
                3.1245233565549837
            ]
        }
    ]
}