{
    "goal": {
        "global_pose": {
            "orientation": {
                "w": -0.4816463035849501,
                "x": 0.5182115481033762,
                "y": 0.4908360881923453,
                "z": -0.5084816262002911
            },
            "position": {
                "x": -0.8240239810943604,
                "y": -0.300875300988555,
                "z": 0.16403168439865112
            }
        },
        "name": "move_to_storage_C"
    },
    "id": "LBKPIECE_move_to_storage_C_9",
    "joint_names": [
        "shoulder_pan_joint",
        "shoulder_lift_joint",
        "elbow_joint",
        "wrist_1_joint",
        "wrist_2_joint",
        "wrist_3_joint"
    ],
    "metrics": {
        "cart_traj_len": 0.5764918808245022,
        "distance_elbow_joint": 0.2583905916486329,
        "distance_shoulder_lift_joint": 0.18930888397267365,
        "distance_shoulder_pan_joint": 0.49522890337119385,
        "distance_wrist_1_joint": 0.08521190129168921,
        "distance_wrist_2_joint": 1.0662481470618108,
        "distance_wrist_3_joint": 0.060612123345427094,
        "smoothness": 2.5376526478085547e-16,
        "time": 0.362958958,
        "traj_len": 1.4679920131565525,
        "weighted_distance": 1.8514007793386558
    },
    "planner": "LBKPIECE",
    "start": {
        "state": {
            "elbow_joint": 2.0108683149792914,
            "shoulder_lift_joint": -1.1634956873317392,
            "shoulder_pan_joint": -2.4736205022346,
            "wrist_1_joint": -0.8367026793690192,
            "wrist_2_joint": 0.6746043897045053,
            "wrist_3_joint": 3.133522094754363
        }
    },
    "waypoints": [
        {
            "positions": [
                -2.4736205022346,
                -1.1634956873317392,
                2.0108683149792914,
                -0.8367026793690192,
                0.6746043897045053,
                3.133522094754363
            ]
        },
        {
            "positions": [
                -2.5561586527964657,
                -1.131944206669627,
                1.9678032163711858,
                -0.8225006958204043,
                0.8523124142148071,
                3.143624115311934
            ]
        },
        {
            "positions": [
                -2.6386968033583313,
                -1.1003927260075148,
                1.9247381177630805,
                -0.8082987122717895,
                1.0300204387251088,
                3.1537261358695057
            ]
        },
        {
            "positions": [
                -2.721234953920197,
                -1.0688412453454024,
                1.881673019154975,
                -0.7940967287231746,
                1.2077284632354108,
                3.1638281564270767
            ]
        },
        {
            "positions": [
                -2.8037731044820626,
                -1.0372897646832901,
                1.8386079205468695,
                -0.7798947451745597,
                1.3854364877457126,
                3.1739301769846477
            ]
        },
        {
            "positions": [
                -2.8863112550439283,
                -1.005738284021178,
                1.795542821938764,
                -0.7656927616259449,
                1.5631445122560144,
                3.1840321975422192
            ]
        },
        {
            "positions": [
                -2.968849405605794,
                -0.9741868033590656,
                1.7524777233306585,
                -0.75149077807733,
                1.7408525367663161,
                3.1941342180997903
            ]
        }
    ]
}