{
    "goal": {
        "global_pose": {
            "orientation": {
                "w": -0.4816463035849501,
                "x": 0.5182115481033762,
                "y": 0.4908360881923453,
                "z": -0.5084816262002911
            },
            "position": {
                "x": -0.8240239810943604,
                "y": 0.19912469901144506,
                "z": 0.16403168439865112
            }
        },
        "name": "move_to_storage_D"
    },
    "id": "LBKPIECE_move_to_storage_D_41",
    "joint_names": [
        "shoulder_pan_joint",
        "shoulder_lift_joint",
        "elbow_joint",
        "wrist_1_joint",
        "wrist_2_joint",
        "wrist_3_joint"
    ],
    "metrics": {
        "cart_traj_len": 4.026733519649812,
        "distance_elbow_joint": 4.210514062571945,
        "distance_shoulder_lift_joint": 1.3344327510842822,
        "distance_shoulder_pan_joint": 2.8153511031907494,
        "distance_wrist_1_joint": 2.272119059604177,
        "distance_wrist_2_joint": 0.958769925593009,
        "distance_wrist_3_joint": 3.223497319380342,
        "smoothness": 0.3779544959355142,
        "time": 0.273038604,
        "traj_len": 3.848984829981083,
        "weighted_distance": 4.948996650370898
    },
    "planner": "LBKPIECE",
    "start": {
        "state": {
            "elbow_joint": -2.384821990628643,
            "shoulder_lift_joint": -2.278805467437664,
            "shoulder_pan_joint": -0.18546946439364564,
            "wrist_1_joint": 1.4845938187801415,
            "wrist_2_joint": 0.178987772454074,
            "wrist_3_joint": 0.03710569632802521
        }
    },
    "waypoints": [
        {
            "positions": [
                -0.18546946439364564,
                -2.278805467437664,
                -2.384821990628643,
                1.4845938187801415,
                0.178987772454074,
                0.03710569632802521
            ]
        },
        {
            "positions": [
                -0.1701645984211571,
                -2.31373858840906,
                -2.374451911444661,
                1.4418836610649692,
                0.15538604062042316,
                0.0027240985295124975
            ]
        },
        {
            "positions": [
                -0.09136854080359887,
                -2.2755198666939007,
                -2.266056293052276,
                1.3786004679181665,
                0.18426805918673378,
                0.07246027927011603
            ]
        },
        {
            "positions": [
                -0.012572483186040623,
                -2.2373011449787414,
                -2.1576606746598905,
                1.3153172747713637,
                0.21315007775304443,
                0.14219646001071956
            ]
        },
        {
            "positions": [
                0.0662235744315176,
                -2.199082423263582,
                -2.0492650562675054,
                1.252034081624561,
                0.24203209631935504,
                0.2119326407513231
            ]
        },
        {
            "positions": [
                0.14501963204907586,
                -2.1608637015484224,
                -1.9408694378751203,
                1.1887508884777582,
                0.2709141148856657,
                0.2816688214919266
            ]
        },
        {
            "positions": [
                0.22381568966663412,
                -2.122644979833263,
                -1.832473819482735,
                1.1254676953309555,
                0.2997961334519763,
                0.35140500223253013
            ]
        },
        {
            "positions": [
                0.3026117472841923,
                -2.084426258118104,
                -1.7240782010903497,
                1.0621845021841527,
                0.32867815201828693,
                0.4211411829731337
            ]
        },
        {
            "positions": [
                0.3814078049017506,
                -2.0462075364029446,
                -1.6156825826979646,
                0.99890130903735,
                0.35756017058459755,
                0.49087736371373725
            ]
        },
        {
            "positions": [
                0.46020386251930884,
                -2.0079888146877853,
                -1.5072869643055793,
                0.9356181158905472,
                0.3864421891509082,
                0.5606135444543408
            ]
        },
        {
            "positions": [
                0.5389999201368671,
                -1.9697700929726258,
                -1.398891345913194,
                0.8723349227437445,
                0.41532420771721884,
                0.6303497251949443
            ]
        },
        {
            "positions": [
                0.6177959777544253,
                -1.9315513712574666,
                -1.2904957275208089,
                0.8090517295969417,
                0.44420622628352946,
                0.7000859059355478
            ]
        },
        {
            "positions": [
                0.6965920353719837,
                -1.893332649542307,
                -1.1821001091284236,
                0.745768536450139,
                0.4730882448498401,
                0.7698220866761514
            ]
        },
        {
            "positions": [
                0.7753880929895418,
                -1.8551139278271478,
                -1.0737044907360382,
                0.6824853433033362,
                0.5019702634161507,
                0.8395582674167549
            ]
        },
        {
            "positions": [
                0.8541841506071002,
                -1.8168952061119885,
                -0.9653088723436531,
                0.6192021501565335,
                0.5308522819824613,
                0.9092944481573584
            ]
        },
        {
            "positions": [
                0.9329802082246583,
                -1.7786764843968292,
                -0.8569132539512678,
                0.5559189570097307,
                0.559734300548772,
                0.979030628897962
            ]
        },
        {
            "positions": [
                1.0117762658422167,
                -1.74045776268167,
                -0.7485176355588827,
                0.49263576386292796,
                0.5886163191150826,
                1.0487668096385654
            ]
        },
        {
            "positions": [
                1.0905723234597748,
                -1.7022390409665105,
                -0.6401220171664974,
                0.4293525707161252,
                0.6174983376813932,
                1.118502990379169
            ]
        },
        {
            "positions": [
                1.169368381077333,
                -1.664020319251351,
                -0.5317263987741121,
                0.36606937756932245,
                0.6463803562477038,
                1.1882391711197726
            ]
        },
        {
            "positions": [
                1.2481644386948914,
                -1.6258015975361917,
                -0.423330780381727,
                0.3027861844225197,
                0.6752623748140145,
                1.257975351860376
            ]
        },
        {
            "positions": [
                1.3269604963124495,
                -1.5875828758210324,
                -0.3149351619893417,
                0.23950299127571695,
                0.7041443933803251,
                1.3277115326009796
            ]
        },
        {
            "positions": [
                1.4057565539300079,
                -1.5493641541058731,
                -0.2065395435969566,
                0.1762197981289142,
                0.7330264119466358,
                1.397447713341583
            ]
        },
        {
            "positions": [
                1.484552611547566,
                -1.5111454323907139,
                -0.09814392520457105,
                0.11293660498211144,
                0.7619084305129463,
                1.4671838940821866
            ]
        },
        {
            "positions": [
                1.5633486691651244,
                -1.4729267106755544,
                0.010251693187814048,
                0.04965341183530869,
                0.790790449079257,
                1.5369200748227902
            ]
        },
        {
            "positions": [
                1.6421447267826825,
                -1.434707988960395,
                0.11864731158019914,
                -0.01362978131149406,
                0.8196724676455677,
                1.6066562555633936
            ]
        },
        {
            "positions": [
                1.7209407844002407,
                -1.3964892672452356,
                0.22704292997258468,
                -0.07691297445829681,
                0.8485544862118782,
                1.6763924363039973
            ]
        },
        {
            "positions": [
                1.799736842017799,
                -1.3582705455300763,
                0.3354385483649698,
                -0.14019616760509956,
                0.8774365047781889,
                1.7461286170446009
            ]
        },
        {
            "positions": [
                1.8785328996353574,
                -1.320051823814917,
                0.4438341667573549,
                -0.20347936075190232,
                0.9063185233444995,
                1.8158647977852043
            ]
        },
        {
            "positions": [
                1.9573289572529153,
                -1.2818331020997578,
                0.55222978514974,
                -0.26676255389870507,
                0.9352005419108101,
                1.8856009785258079
            ]
        },
        {
            "positions": [
                2.0361250148704735,
                -1.2436143803845983,
                0.6606254035421255,
                -0.3300457470455078,
                0.9640825604771208,
                1.9553371592664115
            ]
        },
        {
            "positions": [
                2.114921072488032,
                -1.205395658669439,
                0.7690210219345106,
                -0.39332894019231057,
                0.9929645790434314,
                2.0250733400070153
            ]
        },
        {
            "positions": [
                2.19371713010559,
                -1.1671769369542797,
                0.8774166403268957,
                -0.4566121333391133,
                1.0218465976097422,
                2.094809520747618
            ]
        },
        {
            "positions": [
                2.272513187723148,
                -1.1289582152391202,
                0.9858122587192812,
                -0.5198953264859161,
                1.0507286161760527,
                2.1645457014882217
            ]
        },
        {
            "positions": [
                2.3513092453407065,
                -1.090739493523961,
                1.0942078771116663,
                -0.5831785196327188,
                1.0796106347423633,
                2.2342818822288253
            ]
        },
        {
            "positions": [
                2.3977379775834393,
                -1.0779894043193297,
                1.2161219095836056,
                -0.6172363064979384,
                1.0777867014694602,
                2.3938748718759113
            ]
        },
        {
            "positions": [
                2.4441667098261726,
                -1.0652393151146986,
                1.3380359420555445,
                -0.6512940933631578,
                1.0759627681965573,
                2.5534678615229973
            ]
        },
        {
            "positions": [
                2.4905954420689054,
                -1.0524892259100675,
                1.4599499745274835,
                -0.6853518802283773,
                1.0741388349236543,
                2.7130608511700833
            ]
        },
        {
            "positions": [
                2.537024174311638,
                -1.0397391367054363,
                1.5818640069994228,
                -0.7194096670935968,
                1.0723149016507512,
                2.8726538408171693
            ]
        },
        {
            "positions": [
                2.5834529065543714,
                -1.026989047500805,
                1.703778039471362,
                -0.7534674539588164,
                1.0704909683778483,
                3.0322468304642554
            ]
        },
        {
            "positions": [
                2.6298816387971042,
                -1.014238958296174,
                1.825692071943301,
                -0.7875252408240359,
                1.0686670351049452,
                3.1918398201113414
            ]
        }
    ]
}