{
    "goal": {
        "global_pose": {
            "orientation": {
                "w": -0.4816463035849501,
                "x": 0.5182115481033762,
                "y": 0.4908360881923453,
                "z": -0.5084816262002911
            },
            "position": {
                "x": -0.8240239810943604,
                "y": -0.300875300988555,
                "z": 0.16403168439865112
            }
        },
        "name": "move_to_storage_C"
    },
    "id": "LBKPIECE_move_to_storage_C_149",
    "joint_names": [
        "shoulder_pan_joint",
        "shoulder_lift_joint",
        "elbow_joint",
        "wrist_1_joint",
        "wrist_2_joint",
        "wrist_3_joint"
    ],
    "metrics": {
        "cart_traj_len": 0.576702484050078,
        "distance_elbow_joint": 0.2590297497816054,
        "distance_shoulder_lift_joint": 0.1888305603730558,
        "distance_shoulder_pan_joint": 0.49378218516635775,
        "distance_wrist_1_joint": 0.07874887319325774,
        "distance_wrist_2_joint": 1.0733640062972434,
        "distance_wrist_3_joint": 0.0616349534683267,
        "smoothness": 2.5376526478085547e-16,
        "time": 0.242178849,
        "traj_len": 1.4681247659105294,
        "weighted_distance": 1.8522346273372068
    },
    "planner": "LBKPIECE",
    "start": {
        "state": {
            "elbow_joint": 2.0108683149792914,
            "shoulder_lift_joint": -1.1634956873317392,
            "shoulder_pan_joint": -2.4736205022346,
            "wrist_1_joint": -0.8367026793690192,
            "wrist_2_joint": 0.6746043897045053,
            "wrist_3_joint": 3.133522094754363
        }
    },
    "waypoints": [
        {
            "positions": [
                -2.4736205022346,
                -1.1634956873317392,
                2.0108683149792914,
                -0.8367026793690192,
                0.6746043897045053,
                3.133522094754363
            ]
        },
        {
            "positions": [
                -2.5559175330956596,
                -1.1320239272695634,
                1.9676966900156905,
                -0.8235778671701429,
                0.8534983907540459,
                3.143794586999084
            ]
        },
        {
            "positions": [
                -2.638214563956719,
                -1.1005521672073872,
                1.9245250650520895,
                -0.8104530549712666,
                1.0323923918035864,
                3.1540670792438052
            ]
        },
        {
            "positions": [
                -2.720511594817779,
                -1.0690804071452114,
                1.8813534400884886,
                -0.7973282427723903,
                1.211286392853127,
                3.1643395714885267
            ]
        },
        {
            "positions": [
                -2.8028086256788387,
                -1.0376086470830355,
                1.8381818151248879,
                -0.784203430573514,
                1.3901803939026676,
                3.174612063733248
            ]
        },
        {
            "positions": [
                -2.8851056565398983,
                -1.0061368870208593,
                1.795010190161287,
                -0.7710786183746378,
                1.5690743949522081,
                3.184884555977969
            ]
        },
        {
            "positions": [
                -2.967402687400958,
                -0.9746651269586835,
                1.751838565197686,
                -0.7579538061757615,
                1.7479683960017487,
                3.19515704822269
            ]
        }
    ]
}