{
    "goal": {
        "global_pose": {
            "orientation": {
                "w": 0.005598929693374612,
                "x": 0.007748599140229565,
                "y": 0.7110244013736278,
                "z": -0.7031023480610252
            },
            "position": {
                "x": 0.1141497679147869,
                "y": -0.7141253447532654,
                "z": 0.3711530566215515
            }
        },
        "name": "move_to_auspresseinheit_B"
    },
    "id": "LBKPIECE_move_to_auspresseinheit_B_33",
    "joint_names": [
        "shoulder_pan_joint",
        "shoulder_lift_joint",
        "elbow_joint",
        "wrist_1_joint",
        "wrist_2_joint",
        "wrist_3_joint"
    ],
    "metrics": {
        "cart_traj_len": 0.5637778085115368,
        "distance_elbow_joint": 0.06516902581777329,
        "distance_shoulder_lift_joint": 0.29407799399883205,
        "distance_shoulder_pan_joint": 0.5758183850639969,
        "distance_wrist_1_joint": 0.3375219366437774,
        "distance_wrist_2_joint": 0.9937518334435689,
        "distance_wrist_3_joint": 0.008272342269254551,
        "smoothness": 0.0,
        "time": 0.38576109700000005,
        "traj_len": 1.508181526619791,
        "weighted_distance": 1.9032682343440346
    },
    "planner": "LBKPIECE",
    "start": {
        "state": {
            "elbow_joint": 2.0193061681459312,
            "shoulder_lift_joint": -1.1220205130644991,
            "shoulder_pan_joint": -1.0952072088045026,
            "wrist_1_joint": -0.8559671810662515,
            "wrist_2_joint": 0.4759638712940361,
            "wrist_3_joint": 3.159081874192446
        }
    },
    "waypoints": [
        {
            "positions": [
                -1.0952072088045026,
                -1.1220205130644991,
                2.0193061681459312,
                -0.8559671810662515,
                0.4759638712940361,
                3.159081874192446
            ]
        },
        {
            "positions": [
                -1.1911769396485021,
                -1.1710335120643045,
                2.008444663842969,
                -0.7997135249589552,
                0.6415891768679642,
                3.1577031504809034
            ]
        },
        {
            "positions": [
                -1.2871466704925016,
                -1.2200465110641099,
                1.9975831595400069,
                -0.743459868851659,
                0.8072144824418923,
                3.1563244267693613
            ]
        },
        {
            "positions": [
                -1.3831164013365012,
                -1.269059510063915,
                1.9867216552370446,
                -0.6872062127443628,
                0.9728397880158206,
                3.1549457030578187
            ]
        },
        {
            "positions": [
                -1.4790861321805004,
                -1.3180725090637204,
                1.9758601509340823,
                -0.6309525566370666,
                1.1384650935897487,
                3.153566979346276
            ]
        },
        {
            "positions": [
                -1.5750558630245,
                -1.3670855080635258,
                1.9649986466311202,
                -0.5746989005297702,
                1.304090399163677,
                3.152188255634734
            ]
        },
        {
            "positions": [
                -1.6710255938684995,
                -1.4160985070633312,
                1.954137142328158,
                -0.5184452444224741,
                1.469715704737605,
                3.1508095319231915
            ]
        }
    ]
}