{
    "goal": {
        "global_pose": {
            "orientation": {
                "w": -0.00223480608172531,
                "x": 0.0024358444001904467,
                "y": 0.7094548369677653,
                "z": -0.704743149386269
            },
            "position": {
                "x": -0.37947507619857795,
                "y": -0.6371506643295288,
                "z": 0.19426114857196808
            }
        },
        "name": "move_to_magneteinheit_C"
    },
    "id": "LBKPIECE_move_to_magneteinheit_C_48",
    "joint_names": [
        "shoulder_pan_joint",
        "shoulder_lift_joint",
        "elbow_joint",
        "wrist_1_joint",
        "wrist_2_joint",
        "wrist_3_joint"
    ],
    "metrics": {
        "cart_traj_len": 8.772767295973786,
        "distance_elbow_joint": 7.854311785252381,
        "distance_shoulder_lift_joint": 1.9222578688429894,
        "distance_shoulder_pan_joint": 7.394010767346575,
        "distance_wrist_1_joint": 1.0085264226761872,
        "distance_wrist_2_joint": 4.952898109799726,
        "distance_wrist_3_joint": 7.533947305270523,
        "smoothness": 0.42425274880784025,
        "time": 0.35936182,
        "traj_len": 5.53768473815442,
        "weighted_distance": 7.1899423782256635
    },
    "planner": "LBKPIECE",
    "start": {
        "state": {
            "elbow_joint": 1.9565354006593851,
            "shoulder_lift_joint": -1.4165861576512813,
            "shoulder_pan_joint": -1.6717766223278752,
            "wrist_1_joint": -0.528663328821883,
            "wrist_2_joint": 1.472756589259273,
            "wrist_3_joint": 3.159348288315503
        }
    },
    "waypoints": [
        {
            "positions": [
                -1.6717766223278752,
                -1.4165861576512813,
                1.9565354006593851,
                -0.528663328821883,
                1.472756589259273,
                3.159348288315503
            ]
        },
        {
            "positions": [
                -1.6449317612600982,
                -1.4100873854475786,
                1.9284345602200506,
                -0.4631845843427298,
                1.4170570403850744,
                3.088884324259457
            ]
        },
        {
            "positions": [
                -1.6012608291746873,
                -1.4073929834680292,
                1.8807036119874498,
                -0.4176768400520687,
                1.3031106379500814,
                2.9536879312482482
            ]
        },
        {
            "positions": [
                -1.557589897089276,
                -1.4046985814884796,
                1.8329726637548494,
                -0.37216909576140755,
                1.1891642355150884,
                2.8184915382370397
            ]
        },
        {
            "positions": [
                -1.5139189650038651,
                -1.4020041795089302,
                1.7852417155222486,
                -0.3266613514707464,
                1.0752178330800954,
                2.683295145225831
            ]
        },
        {
            "positions": [
                -1.4183314312596345,
                -1.4340582016916803,
                1.641725792442062,
                -0.3206287698505156,
                0.9988040898823998,
                2.6434657745561725
            ]
        },
        {
            "positions": [
                -1.3227438975154038,
                -1.4661122238744304,
                1.4982098693618757,
                -0.31459618823028473,
                0.9223903466847041,
                2.603636403886514
            ]
        },
        {
            "positions": [
                -1.227156363771173,
                -1.4981662460571803,
                1.3546939462816892,
                -0.30856360661005394,
                0.8459766034870084,
                2.5638070332168548
            ]
        },
        {
            "positions": [
                -1.1315688300269424,
                -1.5302202682399304,
                1.2111780232015028,
                -0.3025310249898231,
                0.7695628602893128,
                2.523977662547196
            ]
        },
        {
            "positions": [
                -1.0359812962827117,
                -1.5622742904226805,
                1.067662100121316,
                -0.2964984433695923,
                0.6931491170916171,
                2.4841482918775375
            ]
        },
        {
            "positions": [
                -0.940393762538481,
                -1.5943283126054306,
                0.9241461770411297,
                -0.29046586174936145,
                0.6167353738939214,
                2.444318921207879
            ]
        },
        {
            "positions": [
                -0.8448062287942503,
                -1.6263823347881805,
                0.7806302539609433,
                -0.28443328012913066,
                0.5403216306962257,
                2.4044895505382198
            ]
        },
        {
            "positions": [
                -0.7492186950500195,
                -1.6584363569709306,
                0.6371143308807568,
                -0.2784006985088998,
                0.46390788749853007,
                2.364660179868561
            ]
        },
        {
            "positions": [
                -0.6536311613057889,
                -1.6904903791536807,
                0.4935984078005704,
                -0.272368116888669,
                0.3874941443008344,
                2.3248308091989025
            ]
        },
        {
            "positions": [
                -0.5580436275615581,
                -1.7225444013364308,
                0.3500824847203836,
                -0.2663355352684382,
                0.3110804011031387,
                2.285001438529244
            ]
        },
        {
            "positions": [
                -0.46245609381732744,
                -1.7545984235191807,
                0.20656656164019727,
                -0.2603029536482074,
                0.23466665790544305,
                2.245172067859585
            ]
        },
        {
            "positions": [
                -0.36686856007309676,
                -1.7866524457019308,
                0.0630506385600107,
                -0.25427037202797653,
                0.15825291470774738,
                2.205342697189926
            ]
        },
        {
            "positions": [
                -0.2712810263288661,
                -1.818706467884681,
                -0.08046528452017565,
                -0.24823779040774574,
                0.08183917151005171,
                2.1655133265202675
            ]
        },
        {
            "positions": [
                -0.1756934925846354,
                -1.850760490067431,
                -0.223981207600362,
                -0.24220520878751492,
                0.00542542831235604,
                2.125683955850609
            ]
        },
        {
            "positions": [
                -0.08010595884040472,
                -1.882814512250181,
                -0.36749713068054835,
                -0.2361726271672841,
                -0.07098831488533963,
                2.0858545851809502
            ]
        },
        {
            "positions": [
                0.015481574903826179,
                -1.914868534432931,
                -0.5110130537607351,
                -0.23014004554705328,
                -0.1474020580830353,
                2.046025214511291
            ]
        },
        {
            "positions": [
                0.11106910864805664,
                -1.9469225566156811,
                -0.6545289768409215,
                -0.22410746392682246,
                -0.22381580128073097,
                2.0061958438416325
            ]
        },
        {
            "positions": [
                0.20665664239228732,
                -1.9789765787984313,
                -0.7980448999211078,
                -0.21807488230659167,
                -0.30022954447842665,
                1.9663664731719739
            ]
        },
        {
            "positions": [
                0.302244176136518,
                -2.011030600981181,
                -0.9415608230012942,
                -0.21204230068636082,
                -0.3766432876761223,
                1.9265371025023152
            ]
        },
        {
            "positions": [
                0.3978317098807489,
                -2.0430846231639315,
                -1.0850767460814814,
                -0.20600971906613003,
                -0.453057030873818,
                1.8867077318326562
            ]
        },
        {
            "positions": [
                0.4934192436249796,
                -2.0751386453466814,
                -1.2285926691616678,
                -0.1999771374458992,
                -0.5294707740715137,
                1.8468783611629975
            ]
        },
        {
            "positions": [
                0.5890067773692103,
                -2.1071926675294312,
                -1.372108592241854,
                -0.19394455582566839,
                -0.6058845172692093,
                1.807048990493339
            ]
        },
        {
            "positions": [
                0.6845943111134409,
                -2.1392466897121816,
                -1.5156245153220405,
                -0.18791197420543757,
                -0.682298260466905,
                1.7672196198236803
            ]
        },
        {
            "positions": [
                0.7801818448576716,
                -2.1713007118949315,
                -1.6591404384022272,
                -0.18187939258520675,
                -0.7587120036646007,
                1.7273902491540212
            ]
        },
        {
            "positions": [
                0.8757693786019023,
                -2.203354734077682,
                -1.8026563614824136,
                -0.17584681096497592,
                -0.8351257468622963,
                1.6875608784843625
            ]
        },
        {
            "positions": [
                0.971356912346133,
                -2.2354087562604317,
                -1.9461722845626,
                -0.1698142293447451,
                -0.911539490059992,
                1.647731507814704
            ]
        },
        {
            "positions": [
                0.830035408626011,
                -2.198402792509932,
                -1.8338779896065494,
                -0.1793248751046357,
                -0.9286348515103764,
                1.5693455059795456
            ]
        },
        {
            "positions": [
                0.688713904905889,
                -2.1613968287594325,
                -1.7215836946504988,
                -0.18883552086452632,
                -0.9457302129607608,
                1.490959504144387
            ]
        },
        {
            "positions": [
                0.5473924011857669,
                -2.124390865008933,
                -1.6092893996944482,
                -0.19834616662441693,
                -0.9628255744111452,
                1.4125735023092287
            ]
        },
        {
            "positions": [
                0.40607089746564495,
                -2.0873849012584333,
                -1.4969951047383976,
                -0.20785681238430753,
                -0.9799209358615296,
                1.3341875004740702
            ]
        },
        {
            "positions": [
                0.264749393745523,
                -2.0503789375079338,
                -1.384700809782347,
                -0.21736745814419817,
                -0.997016297311914,
                1.2558014986389119
            ]
        },
        {
            "positions": [
                0.123427890025401,
                -2.013372973757434,
                -1.2724065148262964,
                -0.22687810390408875,
                -1.0141116587622985,
                1.1774154968037536
            ]
        },
        {
            "positions": [
                -0.01789361369472109,
                -1.9763670100069346,
                -1.1601122198702458,
                -0.23638874966397938,
                -1.0312070202126828,
                1.099029494968595
            ]
        },
        {
            "positions": [
                -0.15921511741484307,
                -1.939361046256435,
                -1.0478179249141952,
                -0.24589939542387,
                -1.0483023816630672,
                1.0206434931334365
            ]
        },
        {
            "positions": [
                -0.30053662113496493,
                -1.9023550825059354,
                -0.9355236299581444,
                -0.2554100411837606,
                -1.0653977431134516,
                0.9422574912982782
            ]
        },
        {
            "positions": [
                -0.441858124855087,
                -1.8653491187554359,
                -0.8232293350020938,
                -0.26492068694365123,
                -1.082493104563836,
                0.8638714894631198
            ]
        },
        {
            "positions": [
                -0.5831796285752089,
                -1.8283431550049365,
                -0.7109350400460435,
                -0.2744313327035418,
                -1.0995884660142203,
                0.7854854876279614
            ]
        },
        {
            "positions": [
                -0.724501132295331,
                -1.791337191254437,
                -0.5986407450899927,
                -0.2839419784634324,
                -1.1166838274646047,
                0.707099485792803
            ]
        },
        {
            "positions": [
                -0.8658226360154531,
                -1.7543312275039373,
                -0.48634645013394207,
                -0.293452624223323,
                -1.133779188914989,
                0.6287134839576447
            ]
        },
        {
            "positions": [
                -1.0071441397355752,
                -1.7173252637534377,
                -0.3740521551778915,
                -0.30296326998321366,
                -1.1508745503653737,
                0.5503274821224862
            ]
        },
        {
            "positions": [
                -1.148465643455697,
                -1.6803193000029382,
                -0.26175786022184067,
                -0.31247391574310424,
                -1.167969911815758,
                0.47194148028732763
            ]
        },
        {
            "positions": [
                -1.289787147175819,
                -1.6433133362524386,
                -0.1494635652657903,
                -0.32198456150299487,
                -1.1850652732661424,
                0.3935554784521693
            ]
        },
        {
            "positions": [
                -1.4311086508959407,
                -1.6063073725019392,
                -0.03716927030973993,
                -0.33149520726288545,
                -1.2021606347165268,
                0.315169476617011
            ]
        },
        {
            "positions": [
                -1.5724301546160628,
                -1.5693014087514394,
                0.0751250246463111,
                -0.3410058530227761,
                -1.2192559961669112,
                0.23678347478185247
            ]
        },
        {
            "positions": [
                -1.713751658336185,
                -1.53229544500094,
                0.18741931960236125,
                -0.35051649878266666,
                -1.2363513576172955,
                0.15839747294669415
            ]
        },
        {
            "positions": [
                -1.855073162056307,
                -1.4952894812504403,
                0.2997136145584123,
                -0.36002714454255735,
                -1.25344671906768,
                0.08001147111153561
            ]
        },
        {
            "positions": [
                -1.996394665776429,
                -1.458283517499941,
                0.41200790951446287,
                -0.36953779030244793,
                -1.2705420805180643,
                0.0016254692763773004
            ]
        },
        {
            "positions": [
                -2.1377161694965507,
                -1.4212775537494413,
                0.524302204470513,
                -0.3790484360623385,
                -1.2876374419684486,
                -0.07676053255878101
            ]
        },
        {
            "positions": [
                -2.2790376732166733,
                -1.3842715899989417,
                0.636596499426564,
                -0.38855908182222915,
                -1.3047328034188332,
                -0.15514653439393955
            ]
        },
        {
            "positions": [
                -2.420359176936795,
                -1.3472656262484421,
                0.7488907943826146,
                -0.3980697275821197,
                -1.3218281648692174,
                -0.23353253622909786
            ]
        },
        {
            "positions": [
                -2.5616806806569166,
                -1.3102596624979426,
                0.8611850893386648,
                -0.40758037334201036,
                -1.338923526319602,
                -0.3119185380642562
            ]
        },
        {
            "positions": [
                -2.703002184377039,
                -1.273253698747443,
                0.9734793842947158,
                -0.41709101910190094,
                -1.3560188877699864,
                -0.3903045398994145
            ]
        },
        {
            "positions": [
                -2.8443236880971607,
                -1.2362477349969434,
                1.0857736792507664,
                -0.4266016648617916,
                -1.3731142492203707,
                -0.4686905417345728
            ]
        },
        {
            "positions": [
                -2.9856451918172833,
                -1.1992417712464438,
                1.198067974206817,
                -0.4361123106216822,
                -1.390209610670755,
                -0.5470765435697316
            ]
        },
        {
            "positions": [
                -3.1269666955374054,
                -1.1622358074959442,
                1.3103622691628676,
                -0.4456229563815728,
                -1.4073049721211395,
                -0.6254625454048899
            ]
        },
        {
            "positions": [
                -3.094339014297954,
                -1.1621808892367118,
                1.3451157464781138,
                -0.4643163861896839,
                -1.303663144700174,
                -0.4380057218273835
            ]
        },
        {
            "positions": [
                -3.061711333058503,
                -1.1621259709774794,
                1.3798692237933599,
                -0.48300981599779497,
                -1.2000213172792085,
                -0.2505488982498771
            ]
        },
        {
            "positions": [
                -3.029083651819051,
                -1.1620710527182467,
                1.4146227011086059,
                -0.5017032458059061,
                -1.096379489858243,
                -0.06309207467237077
            ]
        },
        {
            "positions": [
                -2.9964559705796,
                -1.1620161344590143,
                1.4493761784238521,
                -0.5203966756140171,
                -0.9927376624372777,
                0.12436474890513571
            ]
        },
        {
            "positions": [
                -2.9638282893401486,
                -1.1619612161997819,
                1.4841296557390984,
                -0.5390901054221283,
                -0.8890958350163122,
                0.3118215724826421
            ]
        },
        {
            "positions": [
                -2.9312006081006974,
                -1.1619062979405494,
                1.5188831330543444,
                -0.5577835352302394,
                -0.7854540075953468,
                0.49927839606014834
            ]
        },
        {
            "positions": [
                -2.898572926861246,
                -1.161851379681317,
                1.5536366103695904,
                -0.5764769650383506,
                -0.6818121801743813,
                0.6867352196376548
            ]
        },
        {
            "positions": [
                -2.8659452456217944,
                -1.1617964614220844,
                1.5883900876848367,
                -0.5951703948464616,
                -0.5781703527534158,
                0.8741920432151613
            ]
        },
        {
            "positions": [
                -2.833317564382343,
                -1.161741543162852,
                1.623143565000083,
                -0.6138638246545727,
                -0.47452852533245027,
                1.0616488667926678
            ]
        },
        {
            "positions": [
                -2.800689883142892,
                -1.1616866249036195,
                1.657897042315329,
                -0.6325572544626838,
                -0.3708866979114849,
                1.249105690370174
            ]
        },
        {
            "positions": [
                -2.7680622019034407,
                -1.161631706644387,
                1.6926505196305752,
                -0.6512506842707949,
                -0.26724487049051926,
                1.4365625139476808
            ]
        },
        {
            "positions": [
                -2.7354345206639894,
                -1.1615767883851547,
                1.7274039969458213,
                -0.669944114078906,
                -0.1636030430695541,
                1.6240193375251866
            ]
        },
        {
            "positions": [
                -2.7028068394245377,
                -1.161521870125922,
                1.7621574742610675,
                -0.6886375438870171,
                -0.05996121564858847,
                1.8114761611026933
            ]
        },
        {
            "positions": [
                -2.6701791581850864,
                -1.1614669518666896,
                1.7969109515763135,
                -0.7073309736951282,
                0.04368061177237692,
                1.9989329846801995
            ]
        },
        {
            "positions": [
                -2.637551476945635,
                -1.1614120336074572,
                1.8316644288915596,
                -0.7260244035032393,
                0.14732243919334254,
                2.1863898082577062
            ]
        },
        {
            "positions": [
                -2.604923795706184,
                -1.1613571153482247,
                1.8664179062068058,
                -0.7447178333113504,
                0.25096426661430793,
                2.3738466318352125
            ]
        },
        {
            "positions": [
                -2.5722961144667327,
                -1.1613021970889923,
                1.901171383522052,
                -0.7634112631194615,
                0.3546060940352733,
                2.5613034554127188
            ]
        },
        {
            "positions": [
                -2.539668433227281,
                -1.1612472788297596,
                1.935924860837298,
                -0.7821046929275726,
                0.45824792145623894,
                2.7487602789902255
            ]
        },
        {
            "positions": [
                -2.5070407519878297,
                -1.1611923605705272,
                1.9706783381525441,
                -0.8007981227356837,
                0.5618897488772041,
                2.9362171025677313
            ]
        },
        {
            "positions": [
                -2.4744130707483785,
                -1.1611374423112948,
                2.0054318154677904,
                -0.8194915525437948,
                0.6655315762981697,
                3.123673926145238
            ]
        }
    ]
}