{
    "goal": {
        "global_pose": {
            "orientation": {
                "w": 0.5084816262002911,
                "x": -0.4908360881923452,
                "y": 0.5182115481033761,
                "z": -0.48164630358495003
            },
            "position": {
                "x": 0.5540239810943604,
                "y": -0.46912469901144505,
                "z": 0.16403168439865112
            }
        },
        "name": "move_to_storage_B"
    },
    "id": "LBKPIECE_move_to_storage_B_89",
    "joint_names": [
        "shoulder_pan_joint",
        "shoulder_lift_joint",
        "elbow_joint",
        "wrist_1_joint",
        "wrist_2_joint",
        "wrist_3_joint"
    ],
    "metrics": {
        "cart_traj_len": 0.8485608344278817,
        "distance_elbow_joint": 0.3692882954063512,
        "distance_shoulder_lift_joint": 0.4591252659460432,
        "distance_shoulder_pan_joint": 0.6853749827142743,
        "distance_wrist_1_joint": 2.9805053391802026,
        "distance_wrist_2_joint": 2.7035632817318267,
        "distance_wrist_3_joint": 3.8972048385334372,
        "smoothness": 0.361998844891794,
        "time": 0.255165663,
        "traj_len": 3.330925097253335,
        "weighted_distance": 4.957170594350273
    },
    "planner": "LBKPIECE",
    "start": {
        "state": {
            "elbow_joint": 1.6649325340416963,
            "shoulder_lift_joint": -0.6616387945129425,
            "shoulder_pan_joint": -0.9139837929255878,
            "wrist_1_joint": 2.1467571094334352,
            "wrist_2_joint": -2.234195976750228,
            "wrist_3_joint": 0.005470921511140723
        }
    },
    "waypoints": [
        {
            "positions": [
                -0.9139837929255878,
                -0.6616387945129425,
                1.6649325340416963,
                2.1467571094334352,
                -2.234195976750228,
                0.005470921511140723
            ]
        },
        {
            "positions": [
                -0.8510939763831131,
                -0.6955181159091405,
                1.6625601219674577,
                2.0942637653464002,
                -2.150332978613783,
                0.100374780349598
            ]
        },
        {
            "positions": [
                -0.7882041598406385,
                -0.7293974373053385,
                1.660187709893219,
                2.0417704212593657,
                -2.066469980477338,
                0.1952786391880553
            ]
        },
        {
            "positions": [
                -0.7253143432981639,
                -0.7632767587015366,
                1.6578152978189804,
                1.9892770771723307,
                -1.9826069823408927,
                0.2901824980265125
            ]
        },
        {
            "positions": [
                -0.6624245267556892,
                -0.7971560800977345,
                1.6554428857447419,
                1.9367837330852957,
                -1.8987439842044478,
                0.38508635686496984
            ]
        },
        {
            "positions": [
                -0.6797771554174642,
                -0.8101003993121846,
                1.6698348316291178,
                1.8259624545720132,
                -1.8040195326370059,
                0.24438278073778552
            ]
        },
        {
            "positions": [
                -0.6971297840792392,
                -0.8230447185266346,
                1.6842267775134936,
                1.7151411760587307,
                -1.709295081069564,
                0.1036792046106012
            ]
        },
        {
            "positions": [
                -0.7144824127410143,
                -0.8359890377410847,
                1.6986187233978696,
                1.6043198975454482,
                -1.6145706295021223,
                -0.03702437151658311
            ]
        },
        {
            "positions": [
                -0.7318350414027893,
                -0.8489333569555347,
                1.7130106692822453,
                1.4934986190321657,
                -1.5198461779346804,
                -0.17772794764376743
            ]
        },
        {
            "positions": [
                -0.7491876700645643,
                -0.8618776761699848,
                1.7274026151666213,
                1.382677340518883,
                -1.4251217263672384,
                -0.31843152377095185
            ]
        },
        {
            "positions": [
                -0.7665402987263393,
                -0.8748219953844348,
                1.741794561050997,
                1.2718560620056008,
                -1.3303972747997967,
                -0.45913509989813606
            ]
        },
        {
            "positions": [
                -0.7838929273881143,
                -0.8877663145988849,
                1.756186506935373,
                1.161034783492318,
                -1.2356728232323548,
                -0.5998386760253205
            ]
        },
        {
            "positions": [
                -0.8012455560498895,
                -0.9007106338133349,
                1.7705784528197488,
                1.0502135049790355,
                -1.140948371664913,
                -0.7405422521525047
            ]
        },
        {
            "positions": [
                -0.8185981847116645,
                -0.913654953027785,
                1.7849703987041248,
                0.939392226465753,
                -1.046223920097471,
                -0.8812458282796889
            ]
        },
        {
            "positions": [
                -0.8359508133734395,
                -0.926599272242235,
                1.7993623445885005,
                0.8285709479524705,
                -0.9514994685300291,
                -1.0219494044068735
            ]
        },
        {
            "positions": [
                -0.8533034420352145,
                -0.939543591456685,
                1.8137542904728765,
                0.717749669439188,
                -0.8567750169625874,
                -1.1626529805340577
            ]
        },
        {
            "positions": [
                -0.8706560706969895,
                -0.952487910671135,
                1.8281462363572523,
                0.6069283909259056,
                -0.7620505653951455,
                -1.303356556661242
            ]
        },
        {
            "positions": [
                -0.8880086993587646,
                -0.9654322298855851,
                1.8425381822416282,
                0.49610711241262284,
                -0.6673261138277036,
                -1.4440601327884264
            ]
        },
        {
            "positions": [
                -0.9053613280205396,
                -0.9783765491000351,
                1.856930128126004,
                0.38528583389934035,
                -0.5726016622602617,
                -1.5847637089156108
            ]
        },
        {
            "positions": [
                -0.9227139566823146,
                -0.9913208683144852,
                1.87132207401038,
                0.27446455538605785,
                -0.47787721069281996,
                -1.7254672850427948
            ]
        },
        {
            "positions": [
                -0.9400665853440897,
                -1.0042651875289352,
                1.8857140198947557,
                0.16364327687277536,
                -0.38315275912537805,
                -1.8661708611699792
            ]
        },
        {
            "positions": [
                -0.9574192140058646,
                -1.0172095067433853,
                1.9001059657791317,
                0.05282199835949264,
                -0.28842830755793614,
                -2.0068744372971636
            ]
        },
        {
            "positions": [
                -0.9747718426676397,
                -1.0301538259578353,
                1.9144979116635075,
                -0.057999280153789634,
                -0.19370385599049444,
                -2.1475780134243476
            ]
        },
        {
            "positions": [
                -0.9921244713294147,
                -1.0430981451722854,
                1.9288898575478834,
                -0.16882055866707235,
                -0.09897940442305231,
                -2.2882815895515325
            ]
        },
        {
            "positions": [
                -1.0094770999911897,
                -1.0560424643867354,
                1.9432818034322592,
                -0.2796418371803546,
                -0.004254952855610394,
                -2.428985165678717
            ]
        },
        {
            "positions": [
                -1.0268297286529648,
                -1.0689867836011855,
                1.9576737493166352,
                -0.39046311569363734,
                0.0904694987118313,
                -2.569688741805901
            ]
        },
        {
            "positions": [
                -1.0441823573147397,
                -1.0819311028156355,
                1.9720656952010112,
                -0.5012843942069196,
                0.185193950279273,
                -2.7103923179330853
            ]
        },
        {
            "positions": [
                -1.0615349859765149,
                -1.0948754220300856,
                1.986457641085387,
                -0.6121056727202023,
                0.2799184018467149,
                -2.8510958940602698
            ]
        },
        {
            "positions": [
                -1.0788876146382897,
                -1.1078197412445356,
                2.0008495869697627,
                -0.7229269512334846,
                0.3746428534141568,
                -2.9917994701874537
            ]
        },
        {
            "positions": [
                -1.0962402433000649,
                -1.1207640604589857,
                2.0152415328541387,
                -0.8337482297467672,
                0.4693673049815989,
                -3.132503046314638
            ]
        }
    ]
}