{
    "goal": {
        "global_pose": {
            "orientation": {
                "w": 0.5084816217422485,
                "x": -0.49083608388900757,
                "y": 0.5182115435600281,
                "z": -0.4816462993621826
            },
            "position": {
                "x": 0.5540239810943604,
                "y": 0.030875300988554955,
                "z": 0.16403168439865112
            }
        },
        "name": "move_to_storage_A"
    },
    "id": "LBKPIECE_move_to_storage_A_114",
    "joint_names": [
        "shoulder_pan_joint",
        "shoulder_lift_joint",
        "elbow_joint",
        "wrist_1_joint",
        "wrist_2_joint",
        "wrist_3_joint"
    ],
    "metrics": {
        "cart_traj_len": 0.3533873203914519,
        "distance_elbow_joint": 0.45363181019949406,
        "distance_shoulder_lift_joint": 0.23235312213886106,
        "distance_shoulder_pan_joint": 0.4606597772216585,
        "distance_wrist_1_joint": 0.2612262430584471,
        "distance_wrist_2_joint": 1.1050116437160074,
        "distance_wrist_3_joint": 0.09578581676010733,
        "smoothness": 2.2204460668324854e-16,
        "time": 0.146335163,
        "traj_len": 1.6151372737617615,
        "weighted_distance": 2.041195221773078
    },
    "planner": "LBKPIECE",
    "start": {
        "state": {
            "elbow_joint": 1.971548880431181,
            "shoulder_lift_joint": -1.1394869514688781,
            "shoulder_pan_joint": 0.12281150262730567,
            "wrist_1_joint": -0.7804693444481463,
            "wrist_2_joint": 0.12958644648617612,
            "wrist_3_joint": 3.0906942077768043
        }
    },
    "waypoints": [
        {
            "positions": [
                0.12281150262730567,
                -1.1394869514688781,
                1.971548880431181,
                -0.7804693444481463,
                0.12958644648617612,
                3.0906942077768043
            ]
        },
        {
            "positions": [
                0.057002963024211595,
                -1.1726802546315727,
                2.0363534247453945,
                -0.8177873791707816,
                0.28744525273132004,
                3.104377895885391
            ]
        },
        {
            "positions": [
                -0.008805576578882479,
                -1.205873557794267,
                2.101157969059608,
                -0.8551054138934169,
                0.4453040589764639,
                3.1180615839939776
            ]
        },
        {
            "positions": [
                -0.07461411618197655,
                -1.2390668609569615,
                2.165962513373821,
                -0.8924234486160522,
                0.6031628652216079,
                3.1317452721025645
            ]
        },
        {
            "positions": [
                -0.14042265578507063,
                -1.2722601641196558,
                2.2307670576880345,
                -0.9297414833386874,
                0.7610216714667517,
                3.1454289602111514
            ]
        },
        {
            "positions": [
                -0.2062311953881647,
                -1.3054534672823503,
                2.2955716020022483,
                -0.9670595180613228,
                0.9188804777118956,
                3.1591126483197383
            ]
        },
        {
            "positions": [
                -0.2720397349912588,
                -1.3386467704450447,
                2.3603761463164616,
                -1.004377552783958,
                1.0767392839570396,
                3.1727963364283247
            ]
        },
        {
            "positions": [
                -0.33784827459435285,
                -1.3718400736077392,
                2.425180690630675,
                -1.0416955875065934,
                1.2345980902021836,
                3.1864800245369116
            ]
        }
    ]
}