{
    "goal": {
        "global_pose": {
            "orientation": {
                "w": -0.4816463035849501,
                "x": 0.5182115481033762,
                "y": 0.4908360881923453,
                "z": -0.5084816262002911
            },
            "position": {
                "x": -0.8240239810943604,
                "y": 0.19912469901144506,
                "z": 0.16403168439865112
            }
        },
        "name": "move_to_storage_D"
    },
    "id": "LBKPIECE_move_to_storage_D_126",
    "joint_names": [
        "shoulder_pan_joint",
        "shoulder_lift_joint",
        "elbow_joint",
        "wrist_1_joint",
        "wrist_2_joint",
        "wrist_3_joint"
    ],
    "metrics": {
        "cart_traj_len": 3.7013702381392255,
        "distance_elbow_joint": 4.209524249016412,
        "distance_shoulder_lift_joint": 1.2654933552378862,
        "distance_shoulder_pan_joint": 2.813947659804487,
        "distance_wrist_1_joint": 2.267214058504776,
        "distance_wrist_2_joint": 0.8790774834215136,
        "distance_wrist_3_joint": 3.1352008068826716,
        "smoothness": 0.05569218038754569,
        "time": 0.271045956,
        "traj_len": 3.817126879325306,
        "weighted_distance": 4.8976678907985765
    },
    "planner": "LBKPIECE",
    "start": {
        "state": {
            "elbow_joint": -2.384821990628643,
            "shoulder_lift_joint": -2.278805467437664,
            "shoulder_pan_joint": -0.18546946439364564,
            "wrist_1_joint": 1.4845938187801415,
            "wrist_2_joint": 0.178987772454074,
            "wrist_3_joint": 0.03710569632802521
        }
    },
    "waypoints": [
        {
            "positions": [
                -0.18546946439364564,
                -2.278805467437664,
                -2.384821990628643,
                1.4845938187801415,
                0.178987772454074,
                0.03710569632802521
            ]
        },
        {
            "positions": [
                -0.18106911987775182,
                -2.2766631596487885,
                -2.3777500122538084,
                1.4811822590381656,
                0.1802044370217956,
                0.03968777678438104
            ]
        },
        {
            "positions": [
                -0.10389317700376755,
                -2.2495657504050546,
                -2.2528449621377855,
                1.424703292263081,
                0.2011306517654672,
                -0.04866679314386667
            ]
        },
        {
            "positions": [
                -0.026717234129783274,
                -2.22246834116132,
                -2.1279399120217626,
                1.3682243254879962,
                0.22205686650913886,
                -0.13702136307211438
            ]
        },
        {
            "positions": [
                0.050458708744201,
                -2.1953709319175863,
                -2.00303486190574,
                1.3117453587129115,
                0.24298308125281048,
                -0.2253759330003621
            ]
        },
        {
            "positions": [
                0.12763465161818527,
                -2.1682735226738523,
                -1.878129811789717,
                1.2552663919378269,
                0.2639092959964821,
                -0.3137305029286098
            ]
        },
        {
            "positions": [
                0.20481059449216954,
                -2.1411761134301184,
                -1.7532247616736942,
                1.1987874251627422,
                0.28483551074015373,
                -0.4020850728568576
            ]
        },
        {
            "positions": [
                0.2819865373661538,
                -2.114078704186384,
                -1.6283197115576713,
                1.1423084583876575,
                0.30576172548382535,
                -0.4904396427851052
            ]
        },
        {
            "positions": [
                0.359162480240138,
                -2.08698129494265,
                -1.5034146614416484,
                1.0858294916125728,
                0.32668794022749703,
                -0.578794212713353
            ]
        },
        {
            "positions": [
                0.43633842311412235,
                -2.059883885698916,
                -1.3785096113256254,
                1.0293505248374881,
                0.34761415497116865,
                -0.6671487826416006
            ]
        },
        {
            "positions": [
                0.5135143659881067,
                -2.032786476455182,
                -1.2536045612096027,
                0.9728715580624034,
                0.3685403697148403,
                -0.7555033525698485
            ]
        },
        {
            "positions": [
                0.590690308862091,
                -2.005689067211448,
                -1.1286995110935798,
                0.9163925912873189,
                0.3894665844585119,
                -0.8438579224980961
            ]
        },
        {
            "positions": [
                0.6678662517360752,
                -1.9785916579677139,
                -1.0037944609775569,
                0.8599136245122341,
                0.4103927992021835,
                -0.9322124924263439
            ]
        },
        {
            "positions": [
                0.7450421946100594,
                -1.95149424872398,
                -0.8788894108615342,
                0.8034346577371495,
                0.43131901394585515,
                -1.0205670623545915
            ]
        },
        {
            "positions": [
                0.8222181374840438,
                -1.9243968394802458,
                -0.7539843607455112,
                0.7469556909620648,
                0.45224522868952677,
                -1.1089216322828392
            ]
        },
        {
            "positions": [
                0.8993940803580278,
                -1.8972994302365118,
                -0.6290793106294885,
                0.6904767241869801,
                0.4731714434331984,
                -1.197276202211087
            ]
        },
        {
            "positions": [
                0.9765700232320123,
                -1.8702020209927777,
                -0.5041742605134656,
                0.6339977574118955,
                0.49409765817687,
                -1.2856307721393347
            ]
        },
        {
            "positions": [
                1.0537459661059965,
                -1.8431046117490437,
                -0.37926921039744266,
                0.5775187906368108,
                0.5150238729205416,
                -1.3739853420675823
            ]
        },
        {
            "positions": [
                1.1309219089799807,
                -1.8160072025053098,
                -0.25436416028141995,
                0.5210398238617262,
                0.5359500876642133,
                -1.46233991199583
            ]
        },
        {
            "positions": [
                1.2080978518539651,
                -1.7889097932615754,
                -0.12945911016539702,
                0.4645608570866413,
                0.556876302407885,
                -1.550694481924078
            ]
        },
        {
            "positions": [
                1.2852737947279493,
                -1.7618123840178415,
                -0.004554060049374087,
                0.40808189031155684,
                0.5778025171515566,
                -1.6390490518523255
            ]
        },
        {
            "positions": [
                1.3624497376019336,
                -1.7347149747741075,
                0.12035099006664884,
                0.35160292353647216,
                0.5987287318952281,
                -1.7274036217805733
            ]
        },
        {
            "positions": [
                1.4396256804759178,
                -1.7076175655303736,
                0.24525604018267133,
                0.2951239567613875,
                0.6196549466388998,
                -1.8157581917088208
            ]
        },
        {
            "positions": [
                1.5168016233499022,
                -1.6805201562866392,
                0.3701610902986947,
                0.23864498998630257,
                0.6405811613825715,
                -1.9041127616370688
            ]
        },
        {
            "positions": [
                1.5939775662238864,
                -1.6534227470429053,
                0.4950661404147172,
                0.1821660232112181,
                0.6615073761262431,
                -1.9924673315653165
            ]
        },
        {
            "positions": [
                1.6711535090978706,
                -1.6263253377991713,
                0.6199711905307401,
                0.12568705643613343,
                0.6824335908699146,
                -2.080821901493564
            ]
        },
        {
            "positions": [
                1.7483294519718549,
                -1.5992279285554374,
                0.744876240646763,
                0.06920808966104874,
                0.7033598056135862,
                -2.1691764714218116
            ]
        },
        {
            "positions": [
                1.8255053948458395,
                -1.572130519311703,
                0.869781290762786,
                0.012729122885964061,
                0.724286020357258,
                -2.2575310413500596
            ]
        },
        {
            "positions": [
                1.9026813377198237,
                -1.545033110067969,
                0.9946863408788089,
                -0.04374984388912062,
                0.7452122351009296,
                -2.345885611278307
            ]
        },
        {
            "positions": [
                1.9798572805938075,
                -1.5179357008242351,
                1.1195913909948314,
                -0.1002288106642053,
                0.7661384498446012,
                -2.434240181206555
            ]
        },
        {
            "positions": [
                2.057033223467792,
                -1.490838291580501,
                1.2444964411108543,
                -0.15670777743928999,
                0.7870646645882728,
                -2.5225947511348026
            ]
        },
        {
            "positions": [
                2.1342091663417766,
                -1.4637408823367668,
                1.3694014912268773,
                -0.21318674421437467,
                0.8079908793319445,
                -2.6109493210630506
            ]
        },
        {
            "positions": [
                2.211385109215761,
                -1.4366434730930329,
                1.4943065413429002,
                -0.26966571098945935,
                0.8289170940756161,
                -2.699303890991298
            ]
        },
        {
            "positions": [
                2.2809006235816076,
                -1.3660882462774904,
                1.5493724941837117,
                -0.35515813244532185,
                0.8671084543756113,
                -2.764908400766404
            ]
        },
        {
            "positions": [
                2.3504161379474544,
                -1.2955330194619479,
                1.6044384470245234,
                -0.44065055390118435,
                0.9052998146756066,
                -2.8305129105415103
            ]
        },
        {
            "positions": [
                2.419931652313301,
                -1.2249777926464054,
                1.659504399865335,
                -0.5261429753570469,
                0.9434911749756019,
                -2.8961174203166165
            ]
        },
        {
            "positions": [
                2.489447166679148,
                -1.154422565830863,
                1.7145703527061464,
                -0.6116353968129093,
                0.9816825352755971,
                -2.9617219300917226
            ]
        },
        {
            "positions": [
                2.558962681044995,
                -1.0838673390153202,
                1.7696363055469582,
                -0.6971278182687719,
                1.0198738955755924,
                -3.0273264398668287
            ]
        },
        {
            "positions": [
                2.6284781954108416,
                -1.0133121121997777,
                1.8247022583877697,
                -0.7826202397246345,
                1.0580652558755876,
                -3.092930949641935
            ]
        }
    ]
}