{
    "goal": {
        "global_pose": {
            "orientation": {
                "w": 0.5084816262002911,
                "x": -0.4908360881923452,
                "y": 0.5182115481033761,
                "z": -0.48164630358495003
            },
            "position": {
                "x": 0.5540239810943604,
                "y": -0.46912469901144505,
                "z": 0.16403168439865112
            }
        },
        "name": "move_to_storage_B"
    },
    "id": "LBKPIECE_move_to_storage_B_70",
    "joint_names": [
        "shoulder_pan_joint",
        "shoulder_lift_joint",
        "elbow_joint",
        "wrist_1_joint",
        "wrist_2_joint",
        "wrist_3_joint"
    ],
    "metrics": {
        "cart_traj_len": 0.9198346251310985,
        "distance_elbow_joint": 0.7991469508005993,
        "distance_shoulder_lift_joint": 0.4585420716332669,
        "distance_shoulder_pan_joint": 0.6650851680336274,
        "distance_wrist_1_joint": 3.5703935207135387,
        "distance_wrist_2_joint": 2.70872657236412,
        "distance_wrist_3_joint": 3.1348015975807946,
        "smoothness": 0.46336232877288397,
        "time": 0.495000655,
        "traj_len": 3.36700102184807,
        "weighted_distance": 4.887271137287678
    },
    "planner": "LBKPIECE",
    "start": {
        "state": {
            "elbow_joint": 1.6649325340416963,
            "shoulder_lift_joint": -0.6616387945129425,
            "shoulder_pan_joint": -0.9139837929255878,
            "wrist_1_joint": 2.1467571094334352,
            "wrist_2_joint": -2.234195976750228,
            "wrist_3_joint": 0.005470921511140723
        }
    },
    "waypoints": [
        {
            "positions": [
                -0.9139837929255878,
                -0.6616387945129425,
                1.6649325340416963,
                2.1467571094334352,
                -2.234195976750228,
                0.005470921511140723
            ]
        },
        {
            "positions": [
                -0.9036183033830387,
                -0.6728534769589976,
                1.669786026454161,
                2.1448229614218213,
                -2.2113109812558305,
                0.010475267147006157
            ]
        },
        {
            "positions": [
                -0.8266171348172326,
                -0.6815776845249836,
                1.595165304031016,
                2.2418403045644557,
                -2.1725922241413262,
                0.08809900350221807
            ]
        },
        {
            "positions": [
                -0.7496159662514267,
                -0.6903018920909695,
                1.520544581607871,
                2.33885764770709,
                -2.1338734670268216,
                0.16572273985743
            ]
        },
        {
            "positions": [
                -0.6726147976856206,
                -0.6990260996569555,
                1.445923859184726,
                2.4358749908497246,
                -2.0951547099123173,
                0.24334647621264194
            ]
        },
        {
            "positions": [
                -0.6889115735622998,
                -0.7152243599065422,
                1.467863524227753,
                2.3098208622622622,
                -1.996320659699771,
                0.3547667086310763
            ]
        },
        {
            "positions": [
                -0.705208349438979,
                -0.7314226201561289,
                1.48980318927078,
                2.1837667336748,
                -1.8974866094872243,
                0.4661869410495107
            ]
        },
        {
            "positions": [
                -0.7215051253156584,
                -0.7476208804057156,
                1.5117428543138067,
                2.0577126050873376,
                -1.7986525592746778,
                0.5776071734679451
            ]
        },
        {
            "positions": [
                -0.7378019011923376,
                -0.7638191406553022,
                1.5336825193568338,
                1.9316584764998752,
                -1.6998185090621312,
                0.6890274058863795
            ]
        },
        {
            "positions": [
                -0.7540986770690168,
                -0.7800174009048889,
                1.5556221843998606,
                1.8056043479124129,
                -1.6009844588495847,
                0.8004476383048138
            ]
        },
        {
            "positions": [
                -0.770395452945696,
                -0.7962156611544756,
                1.5775618494428876,
                1.6795502193249505,
                -1.5021504086370383,
                0.9118678707232482
            ]
        },
        {
            "positions": [
                -0.7866922288223752,
                -0.8124139214040623,
                1.5995015144859144,
                1.5534960907374882,
                -1.4033163584244916,
                1.0232881031416825
            ]
        },
        {
            "positions": [
                -0.8029890046990544,
                -0.828612181653649,
                1.6214411795289414,
                1.4274419621500256,
                -1.304482308211945,
                1.1347083355601169
            ]
        },
        {
            "positions": [
                -0.8192857805757338,
                -0.8448104419032356,
                1.6433808445719682,
                1.3013878335625633,
                -1.2056482579993988,
                1.2461285679785514
            ]
        },
        {
            "positions": [
                -0.835582556452413,
                -0.8610087021528223,
                1.6653205096149952,
                1.175333704975101,
                -1.1068142077868521,
                1.3575488003969856
            ]
        },
        {
            "positions": [
                -0.8518793323290922,
                -0.877206962402409,
                1.687260174658022,
                1.0492795763876386,
                -1.0079801575743057,
                1.4689690328154201
            ]
        },
        {
            "positions": [
                -0.8681761082057715,
                -0.8934052226519957,
                1.709199839701049,
                0.9232254478001762,
                -0.909146107361759,
                1.5803892652338543
            ]
        },
        {
            "positions": [
                -0.8844728840824507,
                -0.9096034829015824,
                1.7311395047440759,
                0.7971713192127139,
                -0.8103120571492126,
                1.6918094976522888
            ]
        },
        {
            "positions": [
                -0.9007696599591299,
                -0.9258017431511691,
                1.7530791697871027,
                0.6711171906252515,
                -0.7114780069366662,
                1.803229730070723
            ]
        },
        {
            "positions": [
                -0.9170664358358092,
                -0.9420000034007558,
                1.7750188348301297,
                0.5450630620377894,
                -0.6126439567241198,
                1.914649962489157
            ]
        },
        {
            "positions": [
                -0.9333632117124884,
                -0.9581982636503426,
                1.7969584998731567,
                0.41900893345032664,
                -0.5138099065115729,
                2.026070194907592
            ]
        },
        {
            "positions": [
                -0.9496599875891676,
                -0.9743965238999293,
                1.8188981649161835,
                0.2929548048628643,
                -0.41497585629902645,
                2.1374904273260262
            ]
        },
        {
            "positions": [
                -0.9659567634658468,
                -0.9905947841495159,
                1.8408378299592103,
                0.16690067627540195,
                -0.31614180608648,
                2.248910659744461
            ]
        },
        {
            "positions": [
                -0.982253539342526,
                -1.0067930443991027,
                1.8627774950022373,
                0.04084654768794005,
                -0.21730775587393358,
                2.360330892162895
            ]
        },
        {
            "positions": [
                -0.9985503152192053,
                -1.0229913046486891,
                1.8847171600452641,
                -0.08520758089952274,
                -0.11847370566138693,
                2.4717511245813295
            ]
        },
        {
            "positions": [
                -1.0148470910958847,
                -1.039189564898276,
                1.9066568250882912,
                -0.21126170948698508,
                -0.019639655448840276,
                2.5831713569997636
            ]
        },
        {
            "positions": [
                -1.0311438669725637,
                -1.0553878251478626,
                1.928596490131318,
                -0.3373158380744474,
                0.07919439476370593,
                2.694591589418198
            ]
        },
        {
            "positions": [
                -1.047440642849243,
                -1.0715860853974493,
                1.950536155174345,
                -0.46336996666190977,
                0.1780284449762526,
                2.8060118218366323
            ]
        },
        {
            "positions": [
                -1.0637374187259223,
                -1.087784345647036,
                1.9724758202173718,
                -0.5894240952493721,
                0.27686249518879924,
                2.917432054255067
            ]
        },
        {
            "positions": [
                -1.0800341946026015,
                -1.1039826058966227,
                1.9944154852603986,
                -0.7154782238368345,
                0.37569654540134545,
                3.0288522866735015
            ]
        },
        {
            "positions": [
                -1.0963309704792807,
                -1.1201808661462094,
                2.0163551503034256,
                -0.8415323524242968,
                0.47453059561389216,
                3.1402725190919356
            ]
        }
    ]
}