{
    "goal": {
        "global_pose": {
            "orientation": {
                "w": -0.00223480608172531,
                "x": 0.0024358444001904467,
                "y": 0.7094548369677653,
                "z": -0.704743149386269
            },
            "position": {
                "x": -0.37947507619857795,
                "y": -0.6371506643295288,
                "z": 0.19426114857196808
            }
        },
        "name": "move_to_magneteinheit_C"
    },
    "id": "LBKPIECE_move_to_magneteinheit_C_114",
    "joint_names": [
        "shoulder_pan_joint",
        "shoulder_lift_joint",
        "elbow_joint",
        "wrist_1_joint",
        "wrist_2_joint",
        "wrist_3_joint"
    ],
    "metrics": {
        "cart_traj_len": 2.3758807671813065,
        "distance_elbow_joint": 2.6549784042393196,
        "distance_shoulder_lift_joint": 0.8345438187060341,
        "distance_shoulder_pan_joint": 1.2567027760009741,
        "distance_wrist_1_joint": 0.3550704284062083,
        "distance_wrist_2_joint": 1.7824541221726995,
        "distance_wrist_3_joint": 1.7678883845980424,
        "smoothness": 0.5779632891111521,
        "time": 0.432543836,
        "traj_len": 2.9413666779446728,
        "weighted_distance": 3.78483014861939
    },
    "planner": "LBKPIECE",
    "start": {
        "state": {
            "elbow_joint": 1.9565354006593851,
            "shoulder_lift_joint": -1.4165861576512813,
            "shoulder_pan_joint": -1.6717766223278752,
            "wrist_1_joint": -0.528663328821883,
            "wrist_2_joint": 1.472756589259273,
            "wrist_3_joint": 3.159348288315503
        }
    },
    "waypoints": [
        {
            "positions": [
                -1.6717766223278752,
                -1.4165861576512813,
                1.9565354006593851,
                -0.528663328821883,
                1.472756589259273,
                3.159348288315503
            ]
        },
        {
            "positions": [
                -1.5988959716942408,
                -1.4156542712727833,
                1.9278696949513878,
                -0.5190385166790825,
                1.4819758250284778,
                3.034187271406922
            ]
        },
        {
            "positions": [
                -1.5260153210606067,
                -1.4147223848942851,
                1.8992039892433903,
                -0.5094137045362819,
                1.4911950607976827,
                2.9090262544983405
            ]
        },
        {
            "positions": [
                -1.5204689067847665,
                -1.4013277507773108,
                1.7678281525246058,
                -0.5129132825411054,
                1.393617710336825,
                2.811412558023379
            ]
        },
        {
            "positions": [
                -1.5149224925089264,
                -1.3879331166603364,
                1.6364523158058213,
                -0.5164128605459289,
                1.296040359875967,
                2.713798861548417
            ]
        },
        {
            "positions": [
                -1.5093760782330863,
                -1.374538482543362,
                1.5050764790870366,
                -0.5199124385507524,
                1.1984630094151094,
                2.6161851650734556
            ]
        },
        {
            "positions": [
                -1.5038296639572462,
                -1.3611438484263876,
                1.373700642368252,
                -0.5234120165555759,
                1.1008856589542517,
                2.518571468598494
            ]
        },
        {
            "positions": [
                -1.498283249681406,
                -1.3477492143094132,
                1.2423248056494673,
                -0.5269115945603995,
                1.0033083084933938,
                2.4209577721235322
            ]
        },
        {
            "positions": [
                -1.492736835405566,
                -1.3343545801924388,
                1.1109489689306828,
                -0.530411172565223,
                0.9057309580325361,
                2.3233440756485706
            ]
        },
        {
            "positions": [
                -1.620011756377791,
                -1.2785935833447148,
                1.0458716127915775,
                -0.5314694360157352,
                0.811318755290911,
                2.314109445906797
            ]
        },
        {
            "positions": [
                -1.747286677350016,
                -1.2228325864969907,
                0.980794256652472,
                -0.5325276994662475,
                0.7169065525492859,
                2.3048748161650234
            ]
        },
        {
            "positions": [
                -1.8745615983222412,
                -1.1670715896492667,
                0.9157169005133666,
                -0.5335859629167596,
                0.6224943498076607,
                2.29564018642325
            ]
        },
        {
            "positions": [
                -2.001836519294466,
                -1.1113105928015428,
                0.8506395443742611,
                -0.5346442263672719,
                0.5280821470660356,
                2.2864055566814763
            ]
        },
        {
            "positions": [
                -2.1291114402666915,
                -1.0555495959538188,
                0.7855621882351558,
                -0.5357024898177841,
                0.4336699443244105,
                2.2771709269397027
            ]
        },
        {
            "positions": [
                -2.2563863612389166,
                -0.9997885991060946,
                0.7204848320960504,
                -0.5367607532682964,
                0.33925774158278543,
                2.267936297197929
            ]
        },
        {
            "positions": [
                -2.3836612822111416,
                -0.9440276022583707,
                0.6554074759569449,
                -0.5378190167188086,
                0.24484553884116025,
                2.2587016674561555
            ]
        },
        {
            "positions": [
                -2.452875551337165,
                -0.9081816420827487,
                0.7158712946949741,
                -0.5344659069907682,
                0.22023099818468395,
                2.323066722295856
            ]
        },
        {
            "positions": [
                -2.5220898204631883,
                -0.8723356819071266,
                0.7763351134330032,
                -0.5311127972627278,
                0.1956164575282076,
                2.3874317771355558
            ]
        },
        {
            "positions": [
                -2.522253450442887,
                -0.8922919837491335,
                0.9506860753614222,
                -0.5595595304104944,
                0.2414441568614688,
                2.5006171927580447
            ]
        },
        {
            "positions": [
                -2.522417080422586,
                -0.9122482855911405,
                1.1250370372898413,
                -0.5880062635582611,
                0.28727185619473,
                2.6138026083805332
            ]
        },
        {
            "positions": [
                -2.522580710402285,
                -0.9322045874331473,
                1.2993879992182602,
                -0.6164529967060279,
                0.3330995555279912,
                2.726988024003022
            ]
        },
        {
            "positions": [
                -2.522744340381984,
                -0.9521608892751542,
                1.4737389611466793,
                -0.6448997298537946,
                0.3789272548612524,
                2.840173439625511
            ]
        },
        {
            "positions": [
                -2.5229079703616826,
                -0.9721171911171611,
                1.6480899230750983,
                -0.6733464630015613,
                0.4247549541945136,
                2.9533588552479997
            ]
        },
        {
            "positions": [
                -2.507077352320833,
                -1.0356211357011094,
                1.7684792672146736,
                -0.7261716652492833,
                0.5045211377606833,
                3.010887047230283
            ]
        },
        {
            "positions": [
                -2.4912467342799838,
                -1.0991250802850578,
                1.888868611354249,
                -0.7789968674970053,
                0.5842873213268529,
                3.068415239212567
            ]
        },
        {
            "positions": [
                -2.4754161162391344,
                -1.162629024869006,
                2.0092579554938244,
                -0.8318220697447273,
                0.6640535048930226,
                3.1259434311948504
            ]
        }
    ]
}