{
    "goal": {
        "global_pose": {
            "orientation": {
                "w": 0.7047431493862688,
                "x": -0.7094548369677653,
                "y": 0.0024358444001904,
                "z": -0.0022348060817251984
            },
            "position": {
                "x": -0.39052492380142206,
                "y": 0.3671506643295288,
                "z": 0.19426114857196808
            }
        },
        "name": "move_to_magneteinheit_D"
    },
    "id": "LBKPIECE_move_to_magneteinheit_D_106",
    "joint_names": [
        "shoulder_pan_joint",
        "shoulder_lift_joint",
        "elbow_joint",
        "wrist_1_joint",
        "wrist_2_joint",
        "wrist_3_joint"
    ],
    "metrics": {
        "cart_traj_len": 4.341128247572782,
        "distance_elbow_joint": 3.254536400846525,
        "distance_shoulder_lift_joint": 1.09288046980769,
        "distance_shoulder_pan_joint": 2.9302578594641453,
        "distance_wrist_1_joint": 2.0939685028924293,
        "distance_wrist_2_joint": 1.5244458808041679,
        "distance_wrist_3_joint": 6.299004925326502,
        "smoothness": 0.27199332731666953,
        "time": 0.504143502,
        "traj_len": 4.146696762381048,
        "weighted_distance": 5.780269740547673
    },
    "planner": "LBKPIECE",
    "start": {
        "state": {
            "elbow_joint": 0.7495348899011911,
            "shoulder_lift_joint": -0.6476975780737668,
            "shoulder_pan_joint": -2.711696901376276,
            "wrist_1_joint": -0.0750647808097303,
            "wrist_2_joint": 0.43296659715458535,
            "wrist_3_joint": 3.1361499051832418
        }
    },
    "waypoints": [
        {
            "positions": [
                -2.711696901376276,
                -0.6476975780737668,
                0.7495348899011911,
                -0.0750647808097303,
                0.43296659715458535,
                3.1361499051832418
            ]
        },
        {
            "positions": [
                -2.7003854227298176,
                -0.6841140764507003,
                0.7013554601354176,
                -0.10263976883298631,
                0.47127847198871264,
                3.1079696900356315
            ]
        },
        {
            "positions": [
                -2.7235526350912993,
                -0.820256552671371,
                0.7094178454573389,
                -0.1388479377669221,
                0.5228514862994786,
                2.9697499935686595
            ]
        },
        {
            "positions": [
                -2.7467198474527805,
                -0.9563990288920416,
                0.7174802307792602,
                -0.17505610670085792,
                0.5744245006102446,
                2.8315302971016876
            ]
        },
        {
            "positions": [
                -2.6652125131349598,
                -0.973668960466768,
                0.6450298629608164,
                -0.20629889626414344,
                0.5446739503900532,
                2.6683081946697613
            ]
        },
        {
            "positions": [
                -2.5837051788171395,
                -0.9909388920414943,
                0.5725794951423726,
                -0.23754168582742896,
                0.5149234001698617,
                2.505086092237835
            ]
        },
        {
            "positions": [
                -2.5021978444993187,
                -1.0082088236162206,
                0.5001291273239289,
                -0.2687844753907145,
                0.4851728499496703,
                2.341863989805909
            ]
        },
        {
            "positions": [
                -2.420690510181498,
                -1.025478755190947,
                0.4276787595054852,
                -0.300027264954,
                0.4554222997294789,
                2.178641887373983
            ]
        },
        {
            "positions": [
                -2.339183175863677,
                -1.0427486867656732,
                0.3552283916870414,
                -0.33127005451728553,
                0.42567174950928743,
                2.0154197849420568
            ]
        },
        {
            "positions": [
                -2.257675841545857,
                -1.0600186183403995,
                0.28277802386859763,
                -0.36251284408057105,
                0.39592119928909597,
                1.8521976825101303
            ]
        },
        {
            "positions": [
                -2.176168507228036,
                -1.077288549915126,
                0.2103276560501539,
                -0.3937556336438566,
                0.36617064906890456,
                1.688975580078204
            ]
        },
        {
            "positions": [
                -2.0946611729102154,
                -1.0945584814898521,
                0.1378772882317102,
                -0.4249984232071421,
                0.3364200988487131,
                1.525753477646278
            ]
        },
        {
            "positions": [
                -2.0131538385923946,
                -1.1118284130645786,
                0.06542692041326637,
                -0.4562412127704276,
                0.3066695486285217,
                1.3625313752143517
            ]
        },
        {
            "positions": [
                -1.9316465042745743,
                -1.1290983446393048,
                -0.007023447405177352,
                -0.48748400233371314,
                0.27691899840833023,
                1.1993092727824255
            ]
        },
        {
            "positions": [
                -1.8501391699567535,
                -1.146368276214031,
                -0.07947381522362107,
                -0.5187267918969987,
                0.24716844818813877,
                1.0360871703504992
            ]
        },
        {
            "positions": [
                -1.7686318356389328,
                -1.1636382077887575,
                -0.1519241830420649,
                -0.5499695814602842,
                0.21741789796794736,
                0.872865067918573
            ]
        },
        {
            "positions": [
                -1.6871245013211122,
                -1.1809081393634837,
                -0.22437455086050861,
                -0.5812123710235697,
                0.1876673477477559,
                0.7096429654866467
            ]
        },
        {
            "positions": [
                -1.6056171670032917,
                -1.1981780709382102,
                -0.29682491867895233,
                -0.6124551605868552,
                0.1579167975275645,
                0.5464208630547205
            ]
        },
        {
            "positions": [
                -1.524109832685471,
                -1.2154480025129364,
                -0.36927528649739616,
                -0.6436979501501408,
                0.12816624730737297,
                0.38319876062279423
            ]
        },
        {
            "positions": [
                -1.4426024983676504,
                -1.2327179340876628,
                -0.44172565431583977,
                -0.6749407397134263,
                0.09841569708718156,
                0.21997665819086842
            ]
        },
        {
            "positions": [
                -1.3610951640498297,
                -1.249987865662389,
                -0.5141760221342838,
                -0.7061835292767118,
                0.0686651468669901,
                0.05675455575894173
            ]
        },
        {
            "positions": [
                -1.2795878297320091,
                -1.2672577972371153,
                -0.5866263899527274,
                -0.7374263188399973,
                0.03891459664679875,
                -0.10646754667298408
            ]
        },
        {
            "positions": [
                -1.1980804954141884,
                -1.2845277288118417,
                -0.6590767577711713,
                -0.7686691084032828,
                0.009164046426607175,
                -0.2696896491049108
            ]
        },
        {
            "positions": [
                -1.1165731610963678,
                -1.301797660386568,
                -0.7315271255896149,
                -0.7999118979665684,
                -0.020586503793584177,
                -0.4329117515368366
            ]
        },
        {
            "positions": [
                -1.035065826778547,
                -1.3190675919612942,
                -0.8039774934080587,
                -0.8311546875298539,
                -0.05033705401377564,
                -0.5961338539687633
            ]
        },
        {
            "positions": [
                -0.9535584924607265,
                -1.3363375235360206,
                -0.8764278612265023,
                -0.8623974770931394,
                -0.0800876042339671,
                -0.7593559564006891
            ]
        },
        {
            "positions": [
                -0.8720511581429058,
                -1.353607455110747,
                -0.9488782290449461,
                -0.8936402666564249,
                -0.10983815445415857,
                -0.9225780588326153
            ]
        },
        {
            "positions": [
                -0.7905438238250853,
                -1.3708773866854733,
                -1.0213285968633898,
                -0.9248830562197105,
                -0.13958870467434992,
                -1.0858001612645416
            ]
        },
        {
            "positions": [
                -0.7090364895072643,
                -1.3881473182601995,
                -1.0937789646818339,
                -0.956125845782996,
                -0.16933925489454138,
                -1.2490222636964678
            ]
        },
        {
            "positions": [
                -0.627529155189444,
                -1.405417249834926,
                -1.1662293325002775,
                -0.9873686353462815,
                -0.19908980511473284,
                -1.412244366128394
            ]
        },
        {
            "positions": [
                -0.5460218208716233,
                -1.4226871814096522,
                -1.2386797003187213,
                -1.018611424909567,
                -0.22884035533492433,
                -1.57546646856032
            ]
        },
        {
            "positions": [
                -0.49613966917055463,
                -1.442458570936173,
                -1.3362154969952738,
                -1.0875512560833478,
                -0.2551037209812843,
                -1.7066000340641039
            ]
        },
        {
            "positions": [
                -0.44625751746948594,
                -1.4622299604626938,
                -1.433751293671826,
                -1.1564910872571283,
                -0.28136708662764426,
                -1.8377335995678876
            ]
        },
        {
            "positions": [
                -0.39637536576841725,
                -1.4820013499892146,
                -1.5312870903483784,
                -1.2254309184309091,
                -0.3076304522740042,
                -1.9688671650716716
            ]
        },
        {
            "positions": [
                -0.3464932140673485,
                -1.5017727395157356,
                -1.6288228870249306,
                -1.29437074960469,
                -0.3338938179203642,
                -2.1000007305754553
            ]
        },
        {
            "positions": [
                -0.29661106236627977,
                -1.5215441290422564,
                -1.726358683701483,
                -1.3633105807784704,
                -0.3601571835667242,
                -2.2311342960792393
            ]
        },
        {
            "positions": [
                -0.24672891066521113,
                -1.5413155185687772,
                -1.8238944803780353,
                -1.4322504119522512,
                -0.3864205492130841,
                -2.3622678615830233
            ]
        },
        {
            "positions": [
                -0.19684675896414236,
                -1.561086908095298,
                -1.9214302770545877,
                -1.501190243126032,
                -0.4126839148594441,
                -2.4934014270868072
            ]
        },
        {
            "positions": [
                -0.1613232746218866,
                -1.580856268428612,
                -2.020646934062733,
                -1.5847263642075315,
                -0.43274437095162366,
                -2.598040594676701
            ]
        },
        {
            "positions": [
                -0.12579979027963079,
                -1.600625628761926,
                -2.119863591070879,
                -1.6682624852890309,
                -0.45280482704380326,
                -2.702679762266594
            ]
        },
        {
            "positions": [
                -0.09027630593737501,
                -1.62039498909524,
                -2.2190802480790244,
                -1.7517986063705302,
                -0.47286528313598286,
                -2.8073189298564873
            ]
        },
        {
            "positions": [
                -0.05475282159511924,
                -1.640164349428554,
                -2.31829690508717,
                -1.8353347274520297,
                -0.4929257392281624,
                -2.911958097446381
            ]
        },
        {
            "positions": [
                -0.029887079509306753,
                -1.67095159236295,
                -2.419773350154716,
                -1.9590374452604333,
                -0.4979480610968684,
                -3.0029483191459336
            ]
        },
        {
            "positions": [
                -0.08731038953580345,
                -1.7044989132551507,
                -2.3984322386911305,
                -2.0618018125731794,
                -0.37809396961719094,
                -3.0542500092111164
            ]
        },
        {
            "positions": [
                -0.14473369956230012,
                -1.738046234147351,
                -2.377091127227545,
                -2.1645661798859255,
                -0.2582398781375135,
                -3.1055516992762993
            ]
        },
        {
            "positions": [
                -0.18566626766055758,
                -1.7405780478814568,
                -2.3667947306517836,
                -2.1600990760696916,
                -0.18733264545547285,
                -3.1628550201432604
            ]
        }
    ]
}