{
    "goal": {
        "global_pose": {
            "orientation": {
                "w": 0.7031023480610252,
                "x": -0.7110244013736278,
                "y": 0.0077485991402295624,
                "z": 0.005598929693374583
            },
            "position": {
                "x": -0.8841497679147869,
                "y": 0.44412534475326537,
                "z": 0.3711530566215515
            }
        },
        "name": "move_to_auspresseinheit_D"
    },
    "id": "LBKPIECE_move_to_auspresseinheit_D_100",
    "joint_names": [
        "shoulder_pan_joint",
        "shoulder_lift_joint",
        "elbow_joint",
        "wrist_1_joint",
        "wrist_2_joint",
        "wrist_3_joint"
    ],
    "metrics": {
        "cart_traj_len": 0.34401896820293865,
        "distance_elbow_joint": 0.6692351430402652,
        "distance_shoulder_lift_joint": 0.13922075311558002,
        "distance_shoulder_pan_joint": 0.13310330458452022,
        "distance_wrist_1_joint": 0.6285550208173829,
        "distance_wrist_2_joint": 1.4483276589528575,
        "distance_wrist_3_joint": 0.08997486870626803,
        "smoothness": 0.0,
        "time": 0.35354723,
        "traj_len": 1.7630702621327585,
        "weighted_distance": 2.3163007504207327
    },
    "planner": "LBKPIECE",
    "start": {
        "state": {
            "elbow_joint": -1.8275484843655228,
            "shoulder_lift_joint": -2.1267897864000416,
            "shoulder_pan_joint": -0.035127520176001514,
            "wrist_1_joint": -2.3477863256791385,
            "wrist_2_joint": -1.605890476484521,
            "wrist_3_joint": -3.0880375317375353
        }
    },
    "waypoints": [
        {
            "positions": [
                -0.035127520176001514,
                -2.1267897864000416,
                -1.8275484843655228,
                -2.3477863256791385,
                -1.605890476484521,
                -3.0880375317375353
            ]
        },
        {
            "positions": [
                -0.051765433249066545,
                -2.144192380539489,
                -1.7438940914854897,
                -2.4263557032813114,
                -1.4248495191154138,
                -3.076790673149252
            ]
        },
        {
            "positions": [
                -0.06840334632213158,
                -2.1615949746789367,
                -1.6602396986054564,
                -2.504925080883484,
                -1.2438085617463066,
                -3.0655438145609684
            ]
        },
        {
            "positions": [
                -0.08504125939519659,
                -2.1789975688183842,
                -1.5765853057254233,
                -2.583494458485657,
                -1.0627676043771994,
                -3.054296955972685
            ]
        },
        {
            "positions": [
                -0.10167917246826162,
                -2.196400162957832,
                -1.4929309128453903,
                -2.66206383608783,
                -0.8817266470080922,
                -3.043050097384401
            ]
        },
        {
            "positions": [
                -0.11831708554132665,
                -2.213802757097279,
                -1.409276519965357,
                -2.740633213690003,
                -0.700685689638985,
                -3.0318032387961176
            ]
        },
        {
            "positions": [
                -0.13495499861439167,
                -2.2312053512367265,
                -1.325622127085324,
                -2.819202591292176,
                -0.5196447322698778,
                -3.020556380207834
            ]
        },
        {
            "positions": [
                -0.1515929116874567,
                -2.248607945376174,
                -1.2419677342052906,
                -2.8977719688943484,
                -0.33860377490077065,
                -3.0093095216195507
            ]
        },
        {
            "positions": [
                -0.16823082476052173,
                -2.2660105395156216,
                -1.1583133413252575,
                -2.9763413464965214,
                -0.15756281753166346,
                -2.9980626630312672
            ]
        }
    ]
}