{
    "goal": {
        "global_pose": {
            "orientation": {
                "w": -0.4816463035849501,
                "x": 0.5182115481033762,
                "y": 0.4908360881923453,
                "z": -0.5084816262002911
            },
            "position": {
                "x": -0.8240239810943604,
                "y": -0.300875300988555,
                "z": 0.16403168439865112
            }
        },
        "name": "move_to_storage_C"
    },
    "id": "LBKPIECE_move_to_storage_C_1",
    "joint_names": [
        "shoulder_pan_joint",
        "shoulder_lift_joint",
        "elbow_joint",
        "wrist_1_joint",
        "wrist_2_joint",
        "wrist_3_joint"
    ],
    "metrics": {
        "cart_traj_len": 0.5763519019001061,
        "distance_elbow_joint": 0.2616190869227333,
        "distance_shoulder_lift_joint": 0.19075988334031513,
        "distance_shoulder_pan_joint": 0.4929709631080561,
        "distance_wrist_1_joint": 0.08736538487101886,
        "distance_wrist_2_joint": 1.073559214630004,
        "distance_wrist_3_joint": 0.06449101190319029,
        "smoothness": 0.0,
        "time": 0.6764057830000001,
        "traj_len": 1.4733518061804918,
        "weighted_distance": 1.8602881948995755
    },
    "planner": "LBKPIECE",
    "start": {
        "state": {
            "elbow_joint": 2.0108683149792914,
            "shoulder_lift_joint": -1.1634956873317392,
            "shoulder_pan_joint": -2.4736205022346,
            "wrist_1_joint": -0.8367026793690192,
            "wrist_2_joint": 0.6746043897045053,
            "wrist_3_joint": 3.133522094754363
        }
    },
    "waypoints": [
        {
            "positions": [
                -2.4736205022346,
                -1.1634956873317392,
                2.0108683149792914,
                -0.8367026793690192,
                0.6746043897045053,
                3.133522094754363
            ]
        },
        {
            "positions": [
                -2.555782329419276,
                -1.1317023734416867,
                1.9672651338255025,
                -0.8221417818905161,
                0.8535309254761726,
                3.1442705967382283
            ]
        },
        {
            "positions": [
                -2.637944156603952,
                -1.099909059551634,
                1.9236619526717136,
                -0.8075808844120129,
                1.0324574612478399,
                3.1550190987220934
            ]
        },
        {
            "positions": [
                -2.720105983788628,
                -1.0681157456615817,
                1.8800587715179247,
                -0.7930199869335097,
                1.2113839970195073,
                3.1657676007059585
            ]
        },
        {
            "positions": [
                -2.802267810973304,
                -1.0363224317715292,
                1.836455590364136,
                -0.7784590894550066,
                1.3903105327911747,
                3.176516102689823
            ]
        },
        {
            "positions": [
                -2.88442963815798,
                -1.0045291178814766,
                1.792852409210347,
                -0.7638981919765035,
                1.5692370685628418,
                3.1872646046736883
            ]
        },
        {
            "positions": [
                -2.966591465342656,
                -0.9727358039914241,
                1.7492492280565581,
                -0.7493372944980004,
                1.7481636043345092,
                3.1980131066575535
            ]
        }
    ]
}