{
    "goal": {
        "global_pose": {
            "orientation": {
                "w": -0.4816463035849501,
                "x": 0.5182115481033762,
                "y": 0.4908360881923453,
                "z": -0.5084816262002911
            },
            "position": {
                "x": -0.8240239810943604,
                "y": 0.19912469901144506,
                "z": 0.16403168439865112
            }
        },
        "name": "move_to_storage_D"
    },
    "id": "LBKPIECE_move_to_storage_D_60",
    "joint_names": [
        "shoulder_pan_joint",
        "shoulder_lift_joint",
        "elbow_joint",
        "wrist_1_joint",
        "wrist_2_joint",
        "wrist_3_joint"
    ],
    "metrics": {
        "cart_traj_len": 3.7581586884214224,
        "distance_elbow_joint": 4.208361500798681,
        "distance_shoulder_lift_joint": 1.309125095387591,
        "distance_shoulder_pan_joint": 2.812698384187361,
        "distance_wrist_1_joint": 2.304125523036349,
        "distance_wrist_2_joint": 0.8751479752818845,
        "distance_wrist_3_joint": 3.1352033324743847,
        "smoothness": 0.09490380789260427,
        "time": 0.34696777300000003,
        "traj_len": 3.826834437386369,
        "weighted_distance": 4.908598779125592
    },
    "planner": "LBKPIECE",
    "start": {
        "state": {
            "elbow_joint": -2.384821990628643,
            "shoulder_lift_joint": -2.278805467437664,
            "shoulder_pan_joint": -0.18546946439364564,
            "wrist_1_joint": 1.4845938187801415,
            "wrist_2_joint": 0.178987772454074,
            "wrist_3_joint": 0.03710569632802521
        }
    },
    "waypoints": [
        {
            "positions": [
                -0.18546946439364564,
                -2.278805467437664,
                -2.384821990628643,
                1.4845938187801415,
                0.178987772454074,
                0.03710569632802521
            ]
        },
        {
            "positions": [
                -0.10028248586761376,
                -2.3006018322700226,
                -2.3802212861371155,
                1.5032370703516118,
                0.31167003637755747,
                0.1023033169206834
            ]
        },
        {
            "positions": [
                -0.02067068652956021,
                -2.2638559185056755,
                -2.2602333173504405,
                1.4460394265104934,
                0.3199103130958669,
                0.19108172635860454
            ]
        },
        {
            "positions": [
                0.058941112808493346,
                -2.227110004741329,
                -2.1402453485637656,
                1.3888417826693749,
                0.32815058981417644,
                0.2798601357965257
            ]
        },
        {
            "positions": [
                0.13855291214654689,
                -2.190364090976982,
                -2.0202573797770906,
                1.3316441388282565,
                0.3363908665324859,
                0.3686385452344468
            ]
        },
        {
            "positions": [
                0.21816471148460045,
                -2.153618177212635,
                -1.900269410990416,
                1.274446494987138,
                0.34463114325079536,
                0.4574169546723679
            ]
        },
        {
            "positions": [
                0.297776510822654,
                -2.116872263448288,
                -1.7802814422037412,
                1.2172488511460196,
                0.35287141996910487,
                0.546195364110289
            ]
        },
        {
            "positions": [
                0.3773883101607075,
                -2.0801263496839413,
                -1.6602934734170662,
                1.160051207304901,
                0.36111169668741433,
                0.6349737735482102
            ]
        },
        {
            "positions": [
                0.457000109498761,
                -2.0433804359195946,
                -1.5403055046303913,
                1.1028535634637826,
                0.36935197340572384,
                0.7237521829861313
            ]
        },
        {
            "positions": [
                0.5366119088368146,
                -2.0066345221552475,
                -1.4203175358437163,
                1.0456559196226642,
                0.3775922501240333,
                0.8125305924240525
            ]
        },
        {
            "positions": [
                0.6162237081748682,
                -1.9698886083909006,
                -1.3003295670570416,
                0.9884582757815458,
                0.38583252684234276,
                0.9013090018619736
            ]
        },
        {
            "positions": [
                0.6958355075129217,
                -1.9331426946265537,
                -1.1803415982703667,
                0.9312606319404273,
                0.3940728035606522,
                0.9900874112998946
            ]
        },
        {
            "positions": [
                0.7754473068509752,
                -1.8963967808622069,
                -1.0603536294836917,
                0.8740629880993089,
                0.40231308027896173,
                1.078865820737816
            ]
        },
        {
            "positions": [
                0.8550591061890288,
                -1.85965086709786,
                -0.9403656606970168,
                0.8168653442581904,
                0.41055335699727125,
                1.1676442301757368
            ]
        },
        {
            "positions": [
                0.9346709055270824,
                -1.822904953333513,
                -0.8203776919103418,
                0.7596677004170719,
                0.4187936337155807,
                1.2564226396136582
            ]
        },
        {
            "positions": [
                1.014282704865136,
                -1.7861590395691662,
                -0.7003897231236671,
                0.7024700565759535,
                0.42703391043389016,
                1.3452010490515791
            ]
        },
        {
            "positions": [
                1.0938945042031896,
                -1.7494131258048193,
                -0.5804017543369921,
                0.645272412734835,
                0.4352741871521997,
                1.4339794584895005
            ]
        },
        {
            "positions": [
                1.1735063035412432,
                -1.7126672120404725,
                -0.4604137855503172,
                0.5880747688937166,
                0.44351446387050913,
                1.5227578679274214
            ]
        },
        {
            "positions": [
                1.2531181028792966,
                -1.6759212982761256,
                -0.34042581676364225,
                0.5308771250525982,
                0.4517547405888186,
                1.6115362773653428
            ]
        },
        {
            "positions": [
                1.3327299022173502,
                -1.6391753845117787,
                -0.22043784797696775,
                0.47367948121147974,
                0.4599950173071281,
                1.7003146868032637
            ]
        },
        {
            "positions": [
                1.4123417015554036,
                -1.6024294707474318,
                -0.1004498791902928,
                0.4164818373703614,
                0.46823529402543757,
                1.7890930962411846
            ]
        },
        {
            "positions": [
                1.4919535008934572,
                -1.565683556983085,
                0.019538089596382147,
                0.3592841935292428,
                0.476475570743747,
                1.877871505679106
            ]
        },
        {
            "positions": [
                1.5715653002315109,
                -1.528937643218738,
                0.1395260583830571,
                0.30208654968812443,
                0.48471584746205654,
                1.966649915117027
            ]
        },
        {
            "positions": [
                1.6511770995695643,
                -1.4921917294543912,
                0.25951402716973204,
                0.24488890584700607,
                0.492956124180366,
                2.0554283245549483
            ]
        },
        {
            "positions": [
                1.7307888989076181,
                -1.455445815690044,
                0.379501995956407,
                0.18769126200588726,
                0.5011964008986755,
                2.1442067339928697
            ]
        },
        {
            "positions": [
                1.8104006982456715,
                -1.4186999019256974,
                0.49948996474308194,
                0.1304936181647689,
                0.509436677616985,
                2.2329851434307906
            ]
        },
        {
            "positions": [
                1.8900124975837251,
                -1.3819539881613505,
                0.6194779335297569,
                0.07329597432365054,
                0.5176769543352945,
                2.321763552868712
            ]
        },
        {
            "positions": [
                1.9696242969217788,
                -1.3452080743970036,
                0.7394659023164318,
                0.016098330482531953,
                0.5259172310536039,
                2.410541962306633
            ]
        },
        {
            "positions": [
                2.049236096259832,
                -1.3084621606326567,
                0.8594538711031068,
                -0.04109931335858641,
                0.5341575077719134,
                2.4993203717445542
            ]
        },
        {
            "positions": [
                2.1288478955978856,
                -1.2717162468683099,
                0.9794418398897813,
                -0.09829695719970477,
                0.5423977844902229,
                2.588098781182475
            ]
        },
        {
            "positions": [
                2.2084596949359394,
                -1.234970333103963,
                1.0994298086764562,
                -0.15549460104082335,
                0.5506380612085323,
                2.6768771906203965
            ]
        },
        {
            "positions": [
                2.288071494273993,
                -1.198224419339616,
                1.2194177774631314,
                -0.21269224488194166,
                0.5588783379268418,
                2.7656556000583175
            ]
        },
        {
            "positions": [
                2.3365225550625244,
                -1.1718028025360696,
                1.3057208821355466,
                -0.2940569529149881,
                0.6296293964710014,
                2.8237489470217594
            ]
        },
        {
            "positions": [
                2.3849736158510564,
                -1.145381185732523,
                1.3920239868079618,
                -0.3754216609480346,
                0.7003804550151609,
                2.881842293985201
            ]
        },
        {
            "positions": [
                2.433424676639588,
                -1.1189595689289764,
                1.4783270914803768,
                -0.45678636898108105,
                0.7711315135593204,
                2.939935640948643
            ]
        },
        {
            "positions": [
                2.48187573742812,
                -1.09253795212543,
                1.564630196152792,
                -0.5381510770141276,
                0.8418825721034799,
                2.9980289879120843
            ]
        },
        {
            "positions": [
                2.5303267982166515,
                -1.0661163353218832,
                1.6509333008252072,
                -0.619515785047174,
                0.9126336306476395,
                3.056122334875526
            ]
        },
        {
            "positions": [
                2.578777859005183,
                -1.0396947185183367,
                1.7372364054976224,
                -0.7008804930802204,
                0.983384689191799,
                3.1142156818389677
            ]
        },
        {
            "positions": [
                2.627228919793715,
                -1.0132731017147902,
                1.8235395101700376,
                -0.782245201113267,
                1.0541357477359585,
                3.1723090288024096
            ]
        }
    ]
}