{
    "goal": {
        "global_pose": {
            "orientation": {
                "w": 0.005598929693374612,
                "x": 0.007748599140229565,
                "y": 0.7110244013736278,
                "z": -0.7031023480610252
            },
            "position": {
                "x": 0.1141497679147869,
                "y": -0.7141253447532654,
                "z": 0.3711530566215515
            }
        },
        "name": "move_to_auspresseinheit_B"
    },
    "id": "LBKPIECE_move_to_auspresseinheit_B_48",
    "joint_names": [
        "shoulder_pan_joint",
        "shoulder_lift_joint",
        "elbow_joint",
        "wrist_1_joint",
        "wrist_2_joint",
        "wrist_3_joint"
    ],
    "metrics": {
        "cart_traj_len": 0.5641222613618804,
        "distance_elbow_joint": 0.0637832354770127,
        "distance_shoulder_lift_joint": 0.29312938299169655,
        "distance_shoulder_pan_joint": 0.5766962437033556,
        "distance_wrist_1_joint": 0.32947072577651015,
        "distance_wrist_2_joint": 0.9911803449570518,
        "distance_wrist_3_joint": 0.001424009286528527,
        "smoothness": 0.0,
        "time": 0.687457234,
        "traj_len": 1.5018934523434595,
        "weighted_distance": 1.8918728898894805
    },
    "planner": "LBKPIECE",
    "start": {
        "state": {
            "elbow_joint": 2.0193061681459312,
            "shoulder_lift_joint": -1.1220205130644991,
            "shoulder_pan_joint": -1.0952072088045026,
            "wrist_1_joint": -0.8559671810662515,
            "wrist_2_joint": 0.4759638712940361,
            "wrist_3_joint": 3.159081874192446
        }
    },
    "waypoints": [
        {
            "positions": [
                -1.0952072088045026,
                -1.1220205130644991,
                2.0193061681459312,
                -0.8559671810662515,
                0.4759638712940361,
                3.159081874192446
            ]
        },
        {
            "positions": [
                -1.1913232494217285,
                -1.1708754102297818,
                2.0086756288997623,
                -0.8010553934368331,
                0.6411605954535448,
                3.158844539311358
            ]
        },
        {
            "positions": [
                -1.2874392900389544,
                -1.2197303073950647,
                1.9980450896535937,
                -0.7461436058074148,
                0.8063573196130533,
                3.15860720443027
            ]
        },
        {
            "positions": [
                -1.3835553306561805,
                -1.2685852045603474,
                1.9874145504074248,
                -0.6912318181779964,
                0.971554043772562,
                3.1583698695491815
            ]
        },
        {
            "positions": [
                -1.4796713712734064,
                -1.31744010172563,
                1.976784011161256,
                -0.6363200305485781,
                1.1367507679320705,
                3.1581325346680935
            ]
        },
        {
            "positions": [
                -1.5757874118906323,
                -1.366294998890913,
                1.9661534719150873,
                -0.5814082429191596,
                1.3019474920915792,
                3.1578951997870055
            ]
        },
        {
            "positions": [
                -1.6719034525078582,
                -1.4151498960561957,
                1.9555229326689185,
                -0.5264964552897413,
                1.467144216251088,
                3.1576578649059175
            ]
        }
    ]
}