{
    "goal": {
        "global_pose": {
            "orientation": {
                "w": -0.00223480608172531,
                "x": 0.0024358444001904467,
                "y": 0.7094548369677653,
                "z": -0.704743149386269
            },
            "position": {
                "x": 0.6205249238014221,
                "y": -0.6371506643295288,
                "z": 0.19426114857196808
            }
        },
        "name": "move_to_magneteinheit_B"
    },
    "id": "LBKPIECE_move_to_magneteinheit_B_45",
    "joint_names": [
        "shoulder_pan_joint",
        "shoulder_lift_joint",
        "elbow_joint",
        "wrist_1_joint",
        "wrist_2_joint",
        "wrist_3_joint"
    ],
    "metrics": {
        "cart_traj_len": 1.4530781053350639,
        "distance_elbow_joint": 0.7280160816559766,
        "distance_shoulder_lift_joint": 1.2474073575492892,
        "distance_shoulder_pan_joint": 1.6223021254055308,
        "distance_wrist_1_joint": 2.608615380415037,
        "distance_wrist_2_joint": 2.9363713625185763,
        "distance_wrist_3_joint": 3.15388803116612,
        "smoothness": 2.69144977797877e-16,
        "time": 0.440434416,
        "traj_len": 3.5066508720872864,
        "weighted_distance": 4.914200153023519
    },
    "planner": "LBKPIECE",
    "start": {
        "state": {
            "elbow_joint": 2.393587130804639,
            "shoulder_lift_joint": -1.9085141043513325,
            "shoulder_pan_joint": 0.7066247066698809,
            "wrist_1_joint": -0.4678290934590222,
            "wrist_2_joint": 0.7096259084215963,
            "wrist_3_joint": 3.147370379541726
        }
    },
    "waypoints": [
        {
            "positions": [
                0.7066247066698809,
                -1.9085141043513325,
                2.393587130804639,
                -0.4678290934590222,
                0.7096259084215963,
                3.147370379541726
            ]
        },
        {
            "positions": [
                0.6559277652509581,
                -1.8695326244279171,
                2.3708366282528894,
                -0.3863098628210523,
                0.6178643033428908,
                3.048811378567785
            ]
        },
        {
            "positions": [
                0.6052308238320352,
                -1.830551144504502,
                2.34808612570114,
                -0.30479063218308233,
                0.5261026982641853,
                2.9502523775938436
            ]
        },
        {
            "positions": [
                0.5545338824131123,
                -1.7915696645810866,
                2.325335623149391,
                -0.22327140154511244,
                0.4343410931854798,
                2.8516933766199024
            ]
        },
        {
            "positions": [
                0.5038369409941895,
                -1.7525881846576714,
                2.3025851205976418,
                -0.14175217090714254,
                0.3425794881067743,
                2.753134375645961
            ]
        },
        {
            "positions": [
                0.4531399995752667,
                -1.713606704734256,
                2.2798346180458924,
                -0.06023294026917264,
                0.2508178830280688,
                2.65457537467202
            ]
        },
        {
            "positions": [
                0.40244305815634385,
                -1.6746252248108409,
                2.257084115494143,
                0.02128629036879731,
                0.15905627794936328,
                2.5560163736980783
            ]
        },
        {
            "positions": [
                0.351746116737421,
                -1.6356437448874255,
                2.234333612942394,
                0.10280552100676715,
                0.06729467287065782,
                2.457457372724137
            ]
        },
        {
            "positions": [
                0.3010491753184982,
                -1.59666226496401,
                2.2115831103906447,
                0.1843247516447371,
                -0.024466932208047742,
                2.358898371750196
            ]
        },
        {
            "positions": [
                0.25035223389957534,
                -1.557680785040595,
                2.1888326078388953,
                0.26584398228270706,
                -0.11622853728675331,
                2.2603393707762547
            ]
        },
        {
            "positions": [
                0.1996552924806525,
                -1.5186993051171798,
                2.166082105287146,
                0.3473632129206769,
                -0.20799014236545876,
                2.1617803698023135
            ]
        },
        {
            "positions": [
                0.14895835106172972,
                -1.4797178251937644,
                2.143331602735397,
                0.42888244355864685,
                -0.2997517474441642,
                2.0632213688283723
            ]
        },
        {
            "positions": [
                0.09826140964280683,
                -1.440736345270349,
                2.1205811001836476,
                0.5104016741966169,
                -0.3915133525228698,
                1.964662367854431
            ]
        },
        {
            "positions": [
                0.04756446822388394,
                -1.4017548653469336,
                2.0978305976318983,
                0.5919209048345868,
                -0.48327495760157535,
                1.8661033668804898
            ]
        },
        {
            "positions": [
                -0.003132473195038843,
                -1.3627733854235184,
                2.075080095080149,
                0.6734401354725565,
                -0.5750365626802807,
                1.7675443659065484
            ]
        },
        {
            "positions": [
                -0.053829414613961624,
                -1.3237919055001033,
                2.0523295925284,
                0.7549593661105265,
                -0.6667981677589863,
                1.6689853649326072
            ]
        },
        {
            "positions": [
                -0.10452635603288452,
                -1.284810425576688,
                2.0295790899766506,
                0.8364785967484965,
                -0.7585597728376918,
                1.570426363958666
            ]
        },
        {
            "positions": [
                -0.1552232974518074,
                -1.2458289456532725,
                2.0068285874249012,
                0.9179978273864664,
                -0.8503213779163974,
                1.4718673629847248
            ]
        },
        {
            "positions": [
                -0.2059202388707302,
                -1.2068474657298573,
                1.9840780848731518,
                0.9995170580244364,
                -0.942082982995103,
                1.3733083620107835
            ]
        },
        {
            "positions": [
                -0.25661718028965297,
                -1.1678659858064422,
                1.9613275823214027,
                1.081036288662406,
                -1.0338445880738083,
                1.274749361036842
            ]
        },
        {
            "positions": [
                -0.30731412170857586,
                -1.1288845058830268,
                1.9385770797696535,
                1.162555519300376,
                -1.1256061931525139,
                1.176190360062901
            ]
        },
        {
            "positions": [
                -0.35801106312749875,
                -1.0899030259596114,
                1.9158265772179042,
                1.244074749938346,
                -1.2173677982312194,
                1.0776313590889597
            ]
        },
        {
            "positions": [
                -0.4087080045464214,
                -1.050921546036196,
                1.8930760746661548,
                1.325593980576316,
                -1.3091294033099248,
                0.9790723581150185
            ]
        },
        {
            "positions": [
                -0.4594049459653443,
                -1.0119400661127809,
                1.8703255721144056,
                1.407113211214286,
                -1.4008910083886306,
                0.8805133571410773
            ]
        },
        {
            "positions": [
                -0.5101018873842672,
                -0.9729585861893656,
                1.8475750695626563,
                1.4886324418522558,
                -1.492652613467336,
                0.781954356167136
            ]
        },
        {
            "positions": [
                -0.5607988288031901,
                -0.9339771062659503,
                1.8248245670109071,
                1.5701516724902256,
                -1.5844142185460413,
                0.6833953551931948
            ]
        },
        {
            "positions": [
                -0.611495770222113,
                -0.8949956263425349,
                1.8020740644591577,
                1.6516709031281958,
                -1.676175823624747,
                0.5848363542192536
            ]
        },
        {
            "positions": [
                -0.6621927116410357,
                -0.8560141464191198,
                1.7793235619074084,
                1.7331901337661655,
                -1.7679374287034524,
                0.48627735324531196
            ]
        },
        {
            "positions": [
                -0.7128896530599586,
                -0.8170326664957044,
                1.7565730593556592,
                1.8147093644041352,
                -1.8596990337821577,
                0.38771835227137075
            ]
        },
        {
            "positions": [
                -0.7635865944788814,
                -0.7780511865722892,
                1.73382255680391,
                1.8962285950421054,
                -1.9514606388608635,
                0.28915935129742953
            ]
        },
        {
            "positions": [
                -0.8142835358978041,
                -0.7390697066488738,
                1.7110720542521607,
                1.9777478256800751,
                -2.043222243939569,
                0.19060035032348832
            ]
        },
        {
            "positions": [
                -0.864980477316727,
                -0.7000882267254587,
                1.6883215517004113,
                2.059267056318045,
                -2.1349838490182744,
                0.09204134934954711
            ]
        },
        {
            "positions": [
                -0.9156774187356498,
                -0.6611067468020434,
                1.6655710491486622,
                2.140786286956015,
                -2.2267454540969798,
                -0.006517651624394025
            ]
        }
    ]
}