{
    "goal": {
        "global_pose": {
            "orientation": {
                "w": -0.4816463035849501,
                "x": 0.5182115481033762,
                "y": 0.4908360881923453,
                "z": -0.5084816262002911
            },
            "position": {
                "x": -0.8240239810943604,
                "y": 0.19912469901144506,
                "z": 0.16403168439865112
            }
        },
        "name": "move_to_storage_D"
    },
    "id": "LBKPIECE_move_to_storage_D_68",
    "joint_names": [
        "shoulder_pan_joint",
        "shoulder_lift_joint",
        "elbow_joint",
        "wrist_1_joint",
        "wrist_2_joint",
        "wrist_3_joint"
    ],
    "metrics": {
        "cart_traj_len": 2.38003251585034,
        "distance_elbow_joint": 2.078963946902614,
        "distance_shoulder_lift_joint": 1.1013014412564979,
        "distance_shoulder_pan_joint": 1.5351743005320666,
        "distance_wrist_1_joint": 3.831408539736149,
        "distance_wrist_2_joint": 1.8330060465574176,
        "distance_wrist_3_joint": 3.1495914645601224,
        "smoothness": 0.22533107094352633,
        "time": 0.284364312,
        "traj_len": 3.678239489150328,
        "weighted_distance": 5.04906360179377
    },
    "planner": "LBKPIECE",
    "start": {
        "state": {
            "elbow_joint": -2.384821990628643,
            "shoulder_lift_joint": -2.278805467437664,
            "shoulder_pan_joint": -0.18546946439364564,
            "wrist_1_joint": 1.4845938187801415,
            "wrist_2_joint": 0.178987772454074,
            "wrist_3_joint": 0.03710569632802521
        }
    },
    "waypoints": [
        {
            "positions": [
                -0.18546946439364564,
                -2.278805467437664,
                -2.384821990628643,
                1.4845938187801415,
                0.178987772454074,
                0.03710569632802521
            ]
        },
        {
            "positions": [
                -0.1673556919487696,
                -2.2680049298540714,
                -2.374251160180129,
                1.473594049100235,
                0.2051321979814808,
                0.043310430092580385
            ]
        },
        {
            "positions": [
                -0.09859834703024684,
                -2.2166998049848803,
                -2.2653226434565505,
                1.3887741754027396,
                0.201994672964583,
                0.12127059958354451
            ]
        },
        {
            "positions": [
                -0.02984100211172408,
                -2.165394680115689,
                -2.1563941267329727,
                1.303954301705244,
                0.19885714794768522,
                0.19923076907450865
            ]
        },
        {
            "positions": [
                0.038916342806798676,
                -2.1140895552464984,
                -2.0474656100093944,
                1.2191344280077485,
                0.19571962293078743,
                0.2771909385654728
            ]
        },
        {
            "positions": [
                0.10767368772532143,
                -2.0627844303773073,
                -1.9385370932858164,
                1.134314554310253,
                0.19258209791388964,
                0.3551511080564369
            ]
        },
        {
            "positions": [
                0.1764310326438442,
                -2.011479305508116,
                -1.829608576562238,
                1.0494946806127574,
                0.18944457289699185,
                0.43311127754740103
            ]
        },
        {
            "positions": [
                0.24518837756236694,
                -1.960174180638925,
                -1.72068005983866,
                0.964674806915262,
                0.18630704788009406,
                0.5110714470383652
            ]
        },
        {
            "positions": [
                0.31394572248088976,
                -1.908869055769734,
                -1.6117515431150817,
                0.8798549332177664,
                0.18316952286319627,
                0.5890316165293293
            ]
        },
        {
            "positions": [
                0.38270306739941246,
                -1.8575639309005432,
                -1.502823026391504,
                0.795035059520271,
                0.1800319978462985,
                0.6669917860202934
            ]
        },
        {
            "positions": [
                0.45146041231793527,
                -1.806258806031352,
                -1.3938945096679256,
                0.7102151858227754,
                0.1768944728294007,
                0.7449519555112576
            ]
        },
        {
            "positions": [
                0.5202177572364579,
                -1.7549536811621609,
                -1.2849659929443473,
                0.6253953121252799,
                0.17375694781250292,
                0.8229121250022217
            ]
        },
        {
            "positions": [
                0.5889751021549807,
                -1.7036485562929697,
                -1.1760374762207695,
                0.5405754384277844,
                0.17061942279560513,
                0.9008722944931857
            ]
        },
        {
            "positions": [
                0.6577324470735034,
                -1.6523434314237788,
                -1.0671089594971912,
                0.4557555647302889,
                0.16748189777870734,
                0.9788324639841499
            ]
        },
        {
            "positions": [
                0.6262791566614617,
                -1.6739270407529885,
                -1.1017112738504258,
                0.3283660062900027,
                0.08706320137746928,
                1.079189950207059
            ]
        },
        {
            "positions": [
                0.59482586624942,
                -1.6955106500821981,
                -1.1363135882036606,
                0.2009764478497164,
                0.00664450497623123,
                1.1795474364299678
            ]
        },
        {
            "positions": [
                0.5633725758373783,
                -1.7170942594114078,
                -1.1709159025568951,
                0.0735868894094302,
                -0.0737741914250068,
                1.279904922652877
            ]
        },
        {
            "positions": [
                0.5319192854253366,
                -1.7386778687406175,
                -1.2055182169101297,
                -0.053802669030856065,
                -0.15419288782624488,
                1.3802624088757858
            ]
        },
        {
            "positions": [
                0.5004659950132949,
                -1.7602614780698271,
                -1.2401205312633643,
                -0.18119222747114228,
                -0.23461158422748288,
                1.4806198950986946
            ]
        },
        {
            "positions": [
                0.46901270460125327,
                -1.7818450873990368,
                -1.274722845616599,
                -0.3085817859114285,
                -0.31503028062872096,
                1.5809773813216037
            ]
        },
        {
            "positions": [
                0.4375594141892115,
                -1.8034286967282465,
                -1.3093251599698337,
                -0.4359713443517147,
                -0.39544897702995896,
                1.6813348675445128
            ]
        },
        {
            "positions": [
                0.40610612377716987,
                -1.8250123060574561,
                -1.3439274743230682,
                -0.563360902792001,
                -0.47586767343119707,
                1.7816923537674216
            ]
        },
        {
            "positions": [
                0.37465283336512817,
                -1.8465959153866658,
                -1.3785297886763028,
                -0.6907504612322872,
                -0.5562863698324351,
                1.8820498399903307
            ]
        },
        {
            "positions": [
                0.34319954295308647,
                -1.8681795247158755,
                -1.4131321030295376,
                -0.8181400196725734,
                -0.6367050662336731,
                1.9824073262132396
            ]
        },
        {
            "positions": [
                0.31174625254104477,
                -1.8897631340450851,
                -1.4477344173827722,
                -0.9455295781128596,
                -0.7171237626349112,
                2.0827648124361486
            ]
        },
        {
            "positions": [
                0.2802929621290031,
                -1.911346743374295,
                -1.4823367317360068,
                -1.0729191365531459,
                -0.7975424590361492,
                2.1831222986590575
            ]
        },
        {
            "positions": [
                0.24883967171696136,
                -1.9329303527035047,
                -1.5169390460892416,
                -1.2003086949934323,
                -0.8779611554373874,
                2.2834797848819663
            ]
        },
        {
            "positions": [
                0.21738638130491966,
                -1.9545139620327143,
                -1.5515413604424761,
                -1.3276982534337183,
                -0.9583798518386253,
                2.3838372711048756
            ]
        },
        {
            "positions": [
                0.18593309089287802,
                -1.9760975713619238,
                -1.5861436747957107,
                -1.4550878118740045,
                -1.0387985482398634,
                2.4841947573277845
            ]
        },
        {
            "positions": [
                0.15447980048083632,
                -1.9976811806911337,
                -1.6207459891489453,
                -1.582477370314291,
                -1.1192172446411015,
                2.584552243550694
            ]
        },
        {
            "positions": [
                0.12302651006879461,
                -2.019264790020343,
                -1.6553483035021799,
                -1.709866928754577,
                -1.1996359410423394,
                2.6849097297736026
            ]
        },
        {
            "positions": [
                0.09157321965675291,
                -2.040848399349553,
                -1.6899506178554147,
                -1.8372564871948633,
                -1.2800546374435775,
                2.7852672159965115
            ]
        },
        {
            "positions": [
                0.06011992924471121,
                -2.062432008678763,
                -1.7245529322086492,
                -1.9646460456351493,
                -1.3604733338448156,
                2.8856247022194204
            ]
        },
        {
            "positions": [
                0.02866663883266951,
                -2.0840156180079723,
                -1.759155246561884,
                -2.092035604075436,
                -1.4408920302460535,
                2.985982188442329
            ]
        },
        {
            "positions": [
                -0.00278665157937219,
                -2.1055992273371817,
                -1.7937575609151186,
                -2.219425162515722,
                -1.5213107266472918,
                3.0863396746652385
            ]
        },
        {
            "positions": [
                -0.03423994199141386,
                -2.1271828366663916,
                -1.8283598752683532,
                -2.346814720956008,
                -1.6017294230485297,
                3.1866971608881474
            ]
        }
    ]
}