{
    "goal": {
        "global_pose": {
            "orientation": {
                "w": -0.00223480608172531,
                "x": 0.0024358444001904467,
                "y": 0.7094548369677653,
                "z": -0.704743149386269
            },
            "position": {
                "x": 0.6205249238014221,
                "y": -0.6371506643295288,
                "z": 0.19426114857196808
            }
        },
        "name": "move_to_magneteinheit_B"
    },
    "id": "LBKPIECE_move_to_magneteinheit_B_42",
    "joint_names": [
        "shoulder_pan_joint",
        "shoulder_lift_joint",
        "elbow_joint",
        "wrist_1_joint",
        "wrist_2_joint",
        "wrist_3_joint"
    ],
    "metrics": {
        "cart_traj_len": 1.453145016000373,
        "distance_elbow_joint": 0.7229308424637777,
        "distance_shoulder_lift_joint": 1.2431241061732414,
        "distance_shoulder_pan_joint": 1.6223784338795717,
        "distance_wrist_1_joint": 2.6225057917976224,
        "distance_wrist_2_joint": 2.9331587633872336,
        "distance_wrist_3_joint": 3.1373238517309234,
        "smoothness": 6.106226668131838e-16,
        "time": 0.8059669349999999,
        "traj_len": 3.5044859522378413,
        "weighted_distance": 4.910370052050974
    },
    "planner": "LBKPIECE",
    "start": {
        "state": {
            "elbow_joint": 2.393587130804639,
            "shoulder_lift_joint": -1.9085141043513325,
            "shoulder_pan_joint": 0.7066247066698809,
            "wrist_1_joint": -0.4678290934590222,
            "wrist_2_joint": 0.7096259084215963,
            "wrist_3_joint": 3.147370379541726
        }
    },
    "waypoints": [
        {
            "positions": [
                0.7066247066698809,
                -1.9085141043513325,
                2.393587130804639,
                -0.4678290934590222,
                0.7096259084215963,
                3.147370379541726
            ]
        },
        {
            "positions": [
                0.6542899184802172,
                -1.8684133267328409,
                2.370266781047743,
                -0.38323213243329246,
                0.6150078837962017,
                3.0461663843245996
            ]
        },
        {
            "positions": [
                0.6019551302905537,
                -1.8283125491143493,
                2.3469464312908466,
                -0.2986351714075627,
                0.5203898591708072,
                2.9449623891074728
            ]
        },
        {
            "positions": [
                0.5496203421008901,
                -1.7882117714958574,
                2.3236260815339507,
                -0.2140382103818329,
                0.4257718345454125,
                2.8437583938903463
            ]
        },
        {
            "positions": [
                0.4972855539112264,
                -1.7481109938773658,
                2.3003057317770548,
                -0.12944124935610318,
                0.33115380992001786,
                2.74255439867322
            ]
        },
        {
            "positions": [
                0.44495076572156284,
                -1.7080102162588742,
                2.2769853820201584,
                -0.044844288330373405,
                0.23653578529462327,
                2.6413504034560935
            ]
        },
        {
            "positions": [
                0.39261597753189925,
                -1.6679094386403825,
                2.2536650322632625,
                0.03975267269535637,
                0.14191776066922868,
                2.5401464082389666
            ]
        },
        {
            "positions": [
                0.34028118934223567,
                -1.627808661021891,
                2.2303446825063666,
                0.12434963372108604,
                0.047299736043834084,
                2.4389424130218402
            ]
        },
        {
            "positions": [
                0.28794640115257203,
                -1.5877078834033993,
                2.2070243327494703,
                0.20894659474681582,
                -0.04731828858156062,
                2.3377384178047134
            ]
        },
        {
            "positions": [
                0.2356116129629084,
                -1.5476071057849077,
                2.1837039829925744,
                0.2935435557725457,
                -0.14193631320695532,
                2.236534422587587
            ]
        },
        {
            "positions": [
                0.1832768247732448,
                -1.507506328166416,
                2.160383633235678,
                0.3781405167982754,
                -0.2365543378323498,
                2.1353304273704605
            ]
        },
        {
            "positions": [
                0.13094203658358117,
                -1.4674055505479242,
                2.137063283478782,
                0.46273747782400515,
                -0.3311723624577445,
                2.034126432153334
            ]
        },
        {
            "positions": [
                0.07860724839391764,
                -1.4273047729294326,
                2.1137429337218863,
                0.547334438849735,
                -0.425790387083139,
                1.9329224369362072
            ]
        },
        {
            "positions": [
                0.026272460204254,
                -1.387203995310941,
                2.09042258396499,
                0.6319313998754648,
                -0.5204084117085337,
                1.8317184417190806
            ]
        },
        {
            "positions": [
                -0.026062327985409528,
                -1.3471032176924493,
                2.067102234208094,
                0.7165283609011943,
                -0.6150264363339282,
                1.7305144465019542
            ]
        },
        {
            "positions": [
                -0.07839711617507317,
                -1.3070024400739575,
                2.043781884451198,
                0.8011253219269243,
                -0.7096444609593229,
                1.6293104512848275
            ]
        },
        {
            "positions": [
                -0.1307319043647368,
                -1.2669016624554659,
                2.020461534694302,
                0.8857222829526539,
                -0.8042624855847176,
                1.5281064560677011
            ]
        },
        {
            "positions": [
                -0.18306669255440033,
                -1.2268008848369742,
                1.9971411849374059,
                0.9703192439783836,
                -0.8988805102101121,
                1.4269024608505747
            ]
        },
        {
            "positions": [
                -0.23540148074406408,
                -1.1867001072184826,
                1.9738208351805098,
                1.0549162050041136,
                -0.993498534835507,
                1.3256984656334478
            ]
        },
        {
            "positions": [
                -0.2877362689337276,
                -1.146599329599991,
                1.9505004854236137,
                1.1395131660298432,
                -1.0881165594609015,
                1.2244944704163214
            ]
        },
        {
            "positions": [
                -0.34007105712339125,
                -1.1064985519814994,
                1.9271801356667178,
                1.224110127055573,
                -1.182734584086296,
                1.123290475199195
            ]
        },
        {
            "positions": [
                -0.39240584531305467,
                -1.0663977743630078,
                1.9038597859098216,
                1.3087070880813025,
                -1.2773526087116904,
                1.0220864799820686
            ]
        },
        {
            "positions": [
                -0.44474063350271853,
                -1.0262969967445161,
                1.8805394361529255,
                1.3933040491070325,
                -1.3719706333370854,
                0.9208824847649417
            ]
        },
        {
            "positions": [
                -0.49707542169238195,
                -0.9861962191260244,
                1.8572190863960296,
                1.4779010101327623,
                -1.46658865796248,
                0.8196784895478153
            ]
        },
        {
            "positions": [
                -0.5494102098820456,
                -0.9460954415075327,
                1.8338987366391335,
                1.562497971158492,
                -1.5612066825878743,
                0.7184744943306884
            ]
        },
        {
            "positions": [
                -0.6017449980717092,
                -0.905994663889041,
                1.8105783868822374,
                1.6470949321842216,
                -1.655824707213269,
                0.617270499113562
            ]
        },
        {
            "positions": [
                -0.6540797862613729,
                -0.8658938862705494,
                1.7872580371253415,
                1.7316918932099516,
                -1.7504427318386637,
                0.5160665038964352
            ]
        },
        {
            "positions": [
                -0.7064145744510365,
                -0.8257931086520578,
                1.7639376873684454,
                1.8162888542356812,
                -1.8450607564640584,
                0.41486250867930874
            ]
        },
        {
            "positions": [
                -0.7587493626406999,
                -0.7856923310335662,
                1.7406173376115492,
                1.9008858152614108,
                -1.9396787810894527,
                0.3136585134621823
            ]
        },
        {
            "positions": [
                -0.8110841508303636,
                -0.7455915534150745,
                1.7172969878546533,
                1.9854827762871408,
                -2.034296805714847,
                0.2124545182450559
            ]
        },
        {
            "positions": [
                -0.8634189390200272,
                -0.7054907757965827,
                1.693976638097757,
                2.0700797373128705,
                -2.128914830340242,
                0.11125052302792904
            ]
        },
        {
            "positions": [
                -0.9157537272096907,
                -0.6653899981780911,
                1.670656288340861,
                2.1546766983386,
                -2.223532854965637,
                0.010046527810802432
            ]
        }
    ]
}