{
    "goal": {
        "global_pose": {
            "orientation": {
                "w": 0.7031023502349854,
                "x": -0.7110244035720825,
                "y": 0.007748599164187908,
                "z": 0.005598929710686207
            },
            "position": {
                "x": 0.11585023208521307,
                "y": 0.44412534475326537,
                "z": 0.3711530566215515
            }
        },
        "name": "move_to_auspresseinheit_A"
    },
    "id": "LBKPIECE_move_to_auspresseinheit_A_9",
    "joint_names": [
        "shoulder_pan_joint",
        "shoulder_lift_joint",
        "elbow_joint",
        "wrist_1_joint",
        "wrist_2_joint",
        "wrist_3_joint"
    ],
    "metrics": {
        "cart_traj_len": 0.6677145701233583,
        "distance_elbow_joint": 0.7223011718914867,
        "distance_shoulder_lift_joint": 1.2256043701439727,
        "distance_shoulder_pan_joint": 1.0431887140172842,
        "distance_wrist_1_joint": 0.5620175847126954,
        "distance_wrist_2_joint": 0.5224036563725563,
        "distance_wrist_3_joint": 0.5681058533797541,
        "smoothness": 0.9612546306847474,
        "time": 0.820207028,
        "traj_len": 2.1549063437926366,
        "weighted_distance": 2.61997219419644
    },
    "planner": "LBKPIECE",
    "start": {
        "state": {
            "elbow_joint": 2.4225746994637096,
            "shoulder_lift_joint": -1.373653595662188,
            "shoulder_pan_joint": -0.3378633848294565,
            "wrist_1_joint": -1.0288595594406726,
            "wrist_2_joint": 1.2330228066703421,
            "wrist_3_joint": 3.189163495502006
        }
    },
    "waypoints": [
        {
            "positions": [
                -0.3378633848294565,
                -1.373653595662188,
                2.4225746994637096,
                -1.0288595594406726,
                1.2330228066703421,
                3.189163495502006
            ]
        },
        {
            "positions": [
                -0.2917499318298872,
                -1.5203629842485467,
                2.480365050368707,
                -1.0119722846677779,
                1.1783196191979315,
                3.137785756120167
            ]
        },
        {
            "positions": [
                -0.24563647883031786,
                -1.6670723728349053,
                2.5381554012737046,
                -0.9950850098948832,
                1.123616431725521,
                3.0864080167383285
            ]
        },
        {
            "positions": [
                -0.19952302583074852,
                -1.813781761421264,
                2.595945752178702,
                -0.9781977351219886,
                1.0689132442531104,
                3.0350302773564897
            ]
        },
        {
            "positions": [
                -0.1534095728311792,
                -1.9604911500076225,
                2.6537361030836992,
                -0.9613104603490938,
                1.0142100567806998,
                2.983652537974651
            ]
        },
        {
            "positions": [
                -0.10729611983160986,
                -2.107200538593981,
                2.711526453988697,
                -0.9444231855761991,
                0.9595068693082892,
                2.9322747985928124
            ]
        },
        {
            "positions": [
                -0.06118266683204056,
                -2.25390992718034,
                2.7693168048936943,
                -0.9275359108033044,
                0.9048036818358787,
                2.8808970592109735
            ]
        },
        {
            "positions": [
                0.04831847545651205,
                -2.204574493090937,
                2.715665509684908,
                -0.861722491363972,
                0.877063034473294,
                2.9180169759379337
            ]
        },
        {
            "positions": [
                0.15781961774506464,
                -2.155239059001534,
                2.6620142144761223,
                -0.7959090719246396,
                0.8493223871107093,
                2.955136892664894
            ]
        },
        {
            "positions": [
                0.26732076003361727,
                -2.1059036249121306,
                2.608362919267336,
                -0.7300956524853071,
                0.8215817397481247,
                2.9922568093918542
            ]
        },
        {
            "positions": [
                0.3768219023221699,
                -2.056568190822728,
                2.5547116240585503,
                -0.6642822330459747,
                0.7938410923855399,
                3.0293767261188145
            ]
        },
        {
            "positions": [
                0.4863230446107225,
                -2.007232756733325,
                2.501060328849764,
                -0.5984688136066422,
                0.7661004450229553,
                3.0664966428457747
            ]
        },
        {
            "positions": [
                0.5958241868992751,
                -1.9578973226439218,
                2.4474090336409784,
                -0.5326553941673098,
                0.7383597976603706,
                3.103616559572735
            ]
        },
        {
            "positions": [
                0.7053253291878278,
                -1.9085618885545188,
                2.393757738432192,
                -0.4668419747279773,
                0.7106191502977859,
                3.140736476299695
            ]
        }
    ]
}