{
    "goal": {
        "global_pose": {
            "orientation": {
                "w": -0.4816463035849501,
                "x": 0.5182115481033762,
                "y": 0.4908360881923453,
                "z": -0.5084816262002911
            },
            "position": {
                "x": -0.8240239810943604,
                "y": 0.19912469901144506,
                "z": 0.16403168439865112
            }
        },
        "name": "move_to_storage_D"
    },
    "id": "LBKPIECE_move_to_storage_D_24",
    "joint_names": [
        "shoulder_pan_joint",
        "shoulder_lift_joint",
        "elbow_joint",
        "wrist_1_joint",
        "wrist_2_joint",
        "wrist_3_joint"
    ],
    "metrics": {
        "cart_traj_len": 0.5621795892484577,
        "distance_elbow_joint": 0.5588756066949259,
        "distance_shoulder_lift_joint": 0.15221291787433744,
        "distance_shoulder_pan_joint": 0.23729180001193909,
        "distance_wrist_1_joint": 3.8390343824839066,
        "distance_wrist_2_joint": 1.9144246370730518,
        "distance_wrist_3_joint": 3.572361945952982,
        "smoothness": 0.40917924622674456,
        "time": 0.290161733,
        "traj_len": 3.205339496853827,
        "weighted_distance": 4.813770268880107
    },
    "planner": "LBKPIECE",
    "start": {
        "state": {
            "elbow_joint": -2.384821990628643,
            "shoulder_lift_joint": -2.278805467437664,
            "shoulder_pan_joint": -0.18546946439364564,
            "wrist_1_joint": 1.4845938187801415,
            "wrist_2_joint": 0.178987772454074,
            "wrist_3_joint": 0.03710569632802521
        }
    },
    "waypoints": [
        {
            "positions": [
                -0.18546946439364564,
                -2.278805467437664,
                -2.384821990628643,
                1.4845938187801415,
                0.178987772454074,
                0.03710569632802521
            ]
        },
        {
            "positions": [
                -0.1542211664137922,
                -2.2711927489478927,
                -2.380126476320483,
                1.4705528576770972,
                0.19290842630181848,
                0.06854919466244305
            ]
        },
        {
            "positions": [
                -0.07257647150688915,
                -2.23848241096736,
                -2.319874613950379,
                1.4082111633242933,
                0.22066630968707057,
                0.16617719737788145
            ]
        },
        {
            "positions": [
                0.009068223400013908,
                -2.2057720729868278,
                -2.259622751580275,
                1.3458694689714896,
                0.2484241930723227,
                0.26380520009331987
            ]
        },
        {
            "positions": [
                0.007286802057585586,
                -2.2024729261775153,
                -2.241552902928335,
                1.1916898842766874,
                0.17154968405337256,
                0.12440259833549958
            ]
        },
        {
            "positions": [
                0.005505380715157263,
                -2.1991737793682025,
                -2.2234830542763953,
                1.0375102995818852,
                0.09467517503442244,
                -0.015000003422320718
            ]
        },
        {
            "positions": [
                0.0037239593727289404,
                -2.19587463255889,
                -2.2054132056244553,
                0.8833307148870828,
                0.017800666015472283,
                -0.15440260518014104
            ]
        },
        {
            "positions": [
                0.0019425380303006185,
                -2.1925754857495776,
                -2.1873433569725154,
                0.7291511301922806,
                -0.059073843003477816,
                -0.2938052069379613
            ]
        },
        {
            "positions": [
                0.00016111668787229493,
                -2.189276338940265,
                -2.1692735083205754,
                0.5749715454974782,
                -0.13594835202242803,
                -0.4332078086957817
            ]
        },
        {
            "positions": [
                -0.001620304654556027,
                -2.1859771921309523,
                -2.151203659668636,
                0.420791960802676,
                -0.21282286104137813,
                -0.572610410453602
            ]
        },
        {
            "positions": [
                -0.0034017259969843505,
                -2.18267804532164,
                -2.133133811016696,
                0.2666123761078736,
                -0.28969737006032836,
                -0.7120130122114223
            ]
        },
        {
            "positions": [
                -0.005183147339412671,
                -2.1793788985123275,
                -2.115063962364756,
                0.11243279141307161,
                -0.36657187907927835,
                -0.8514156139692425
            ]
        },
        {
            "positions": [
                -0.006964568681840994,
                -2.1760797517030146,
                -2.096994113712816,
                -0.04174679328173081,
                -0.44344638809822856,
                -0.9908182157270627
            ]
        },
        {
            "positions": [
                -0.008745990024269318,
                -2.172780604893702,
                -2.078924265060876,
                -0.19592637797653323,
                -0.5203208971171788,
                -1.1302208174848833
            ]
        },
        {
            "positions": [
                -0.010527411366697638,
                -2.1694814580843897,
                -2.060854416408936,
                -0.3501059626713352,
                -0.5971954061361288,
                -1.2696234192427034
            ]
        },
        {
            "positions": [
                -0.012308832709125962,
                -2.166182311275077,
                -2.0427845677569962,
                -0.5042855473661376,
                -0.674069915155079,
                -1.4090260210005239
            ]
        },
        {
            "positions": [
                -0.014090254051554282,
                -2.1628831644657645,
                -2.0247147191050563,
                -0.6584651320609396,
                -0.7509444241740291,
                -1.548428622758344
            ]
        },
        {
            "positions": [
                -0.01587167539398261,
                -2.159584017656452,
                -2.0066448704531163,
                -0.8126447167557425,
                -0.8278189331929794,
                -1.6878312245161644
            ]
        },
        {
            "positions": [
                -0.01765309673641093,
                -2.1562848708471396,
                -1.9885750218011764,
                -0.9668243014505444,
                -0.9046934422119294,
                -1.827233826273985
            ]
        },
        {
            "positions": [
                -0.01943451807883925,
                -2.1529857240378267,
                -1.9705051731492367,
                -1.1210038861453464,
                -0.9815679512308794,
                -1.966636428031805
            ]
        },
        {
            "positions": [
                -0.021215939421267576,
                -2.1496865772285143,
                -1.9524353244972967,
                -1.2751834708401493,
                -1.0584424602498297,
                -2.1060390297896254
            ]
        },
        {
            "positions": [
                -0.022997360763695896,
                -2.146387430419202,
                -1.9343654758453568,
                -1.4293630555349512,
                -1.1353169692687797,
                -2.2454416315474455
            ]
        },
        {
            "positions": [
                -0.024778782106124216,
                -2.143088283609889,
                -1.9162956271934168,
                -1.5835426402297532,
                -1.2121914782877297,
                -2.384844233305266
            ]
        },
        {
            "positions": [
                -0.026560203448552543,
                -2.1397891368005766,
                -1.898225778541477,
                -1.737722224924556,
                -1.28906598730668,
                -2.5242468350630864
            ]
        },
        {
            "positions": [
                -0.028341624790980863,
                -2.136489989991264,
                -1.8801559298895372,
                -1.891901809619358,
                -1.36594049632563,
                -2.6636494368209065
            ]
        },
        {
            "positions": [
                -0.030123046133409184,
                -2.1331908431819517,
                -1.8620860812375972,
                -2.04608139431416,
                -1.44281500534458,
                -2.803052038578727
            ]
        },
        {
            "positions": [
                -0.031904467475837514,
                -2.129891696372639,
                -1.8440162325856573,
                -2.200260979008963,
                -1.5196895143635305,
                -2.9424546403365475
            ]
        },
        {
            "positions": [
                -0.03368588881826583,
                -2.1265925495633264,
                -1.8259463839337173,
                -2.354440563703765,
                -1.5965640233824805,
                -3.0818572420943675
            ]
        }
    ]
}