{
    "goal": {
        "global_pose": {
            "orientation": {
                "w": -0.00223480608172531,
                "x": 0.0024358444001904467,
                "y": 0.7094548369677653,
                "z": -0.704743149386269
            },
            "position": {
                "x": -0.37947507619857795,
                "y": -0.6371506643295288,
                "z": 0.19426114857196808
            }
        },
        "name": "move_to_magneteinheit_C"
    },
    "id": "LBKPIECE_move_to_magneteinheit_C_54",
    "joint_names": [
        "shoulder_pan_joint",
        "shoulder_lift_joint",
        "elbow_joint",
        "wrist_1_joint",
        "wrist_2_joint",
        "wrist_3_joint"
    ],
    "metrics": {
        "cart_traj_len": 1.6604995990020675,
        "distance_elbow_joint": 1.837730651604333,
        "distance_shoulder_lift_joint": 0.693674710861899,
        "distance_shoulder_pan_joint": 1.4277995936047063,
        "distance_wrist_1_joint": 2.588224877767919,
        "distance_wrist_2_joint": 2.7433692944770596,
        "distance_wrist_3_joint": 6.647461722861705,
        "smoothness": 0.9781420425131305,
        "time": 0.277787155,
        "traj_len": 3.99227514722841,
        "weighted_distance": 5.879181785686339
    },
    "planner": "LBKPIECE",
    "start": {
        "state": {
            "elbow_joint": 1.9565354006593851,
            "shoulder_lift_joint": -1.4165861576512813,
            "shoulder_pan_joint": -1.6717766223278752,
            "wrist_1_joint": -0.528663328821883,
            "wrist_2_joint": 1.472756589259273,
            "wrist_3_joint": 3.159348288315503
        }
    },
    "waypoints": [
        {
            "positions": [
                -1.6717766223278752,
                -1.4165861576512813,
                1.9565354006593851,
                -0.528663328821883,
                1.472756589259273,
                3.159348288315503
            ]
        },
        {
            "positions": [
                -1.6525621526520604,
                -1.5123483910735358,
                2.0088743264178266,
                -0.4759201049718237,
                1.485400392952451,
                3.1356222197002865
            ]
        },
        {
            "positions": [
                -1.6333476829762457,
                -1.6081106244957903,
                2.061213252176268,
                -0.4231768811217643,
                1.498044196645629,
                3.11189615108507
            ]
        },
        {
            "positions": [
                -1.6436554442077,
                -1.5938520681964408,
                2.0167218182301947,
                -0.39176527027609975,
                1.3849493222724578,
                2.9315779310514953
            ]
        },
        {
            "positions": [
                -1.6539632054391542,
                -1.579593511897091,
                1.9722303842841213,
                -0.3603536594304351,
                1.2718544478992866,
                2.751259711017921
            ]
        },
        {
            "positions": [
                -1.6642709666706086,
                -1.5653349555977414,
                1.927738950338048,
                -0.3289420485847705,
                1.1587595735261154,
                2.5709414909843464
            ]
        },
        {
            "positions": [
                -1.674578727902063,
                -1.5510763992983918,
                1.8832475163919749,
                -0.2975304377391059,
                1.045664699152944,
                2.3906232709507718
            ]
        },
        {
            "positions": [
                -1.6848864891335174,
                -1.5368178429990422,
                1.8387560824459015,
                -0.26611882689344135,
                0.9325698247797728,
                2.2103050509171975
            ]
        },
        {
            "positions": [
                -1.6951942503649715,
                -1.5225592866996924,
                1.7942646484998284,
                -0.23470721604777672,
                0.8194749504066016,
                2.0299868308836233
            ]
        },
        {
            "positions": [
                -1.705502011596426,
                -1.5083007304003428,
                1.749773214553755,
                -0.2032956052021121,
                0.7063800760334303,
                1.8496686108500484
            ]
        },
        {
            "positions": [
                -1.7158097728278803,
                -1.4940421741009933,
                1.7052817806076819,
                -0.17188399435644752,
                0.593285201660259,
                1.669350390816474
            ]
        },
        {
            "positions": [
                -1.7261175340593347,
                -1.4797836178016435,
                1.6607903466616085,
                -0.1404723835107829,
                0.48019032728708777,
                1.4890321707828993
            ]
        },
        {
            "positions": [
                -1.7364252952907888,
                -1.465525061502294,
                1.6162989127155352,
                -0.10906077266511832,
                0.36709545291391654,
                1.308713950749325
            ]
        },
        {
            "positions": [
                -1.7467330565222432,
                -1.4512665052029443,
                1.571807478769462,
                -0.07764916181945367,
                0.2540005785407452,
                1.1283957307157504
            ]
        },
        {
            "positions": [
                -1.8217635473158809,
                -1.4304630186230405,
                1.5499800861635398,
                -0.020301802395476617,
                0.20236778245066672,
                1.0028051435323047
            ]
        },
        {
            "positions": [
                -1.8967940381095185,
                -1.4096595320431367,
                1.5281526935576173,
                0.03704555702850043,
                0.15073498636058827,
                0.8772145563488589
            ]
        },
        {
            "positions": [
                -1.971824528903156,
                -1.388856045463233,
                1.506325300951695,
                0.09439291645247747,
                0.09910219027050982,
                0.7516239691654132
            ]
        },
        {
            "positions": [
                -2.0468550196967934,
                -1.3680525588833292,
                1.4844979083457728,
                0.15174027587645453,
                0.047469394180431335,
                0.6260333819819673
            ]
        },
        {
            "positions": [
                -2.121885510490431,
                -1.3472490723034254,
                1.4626705157398503,
                0.2090876353004316,
                -0.004163401909647146,
                0.5004427947985216
            ]
        },
        {
            "positions": [
                -2.1969160012840687,
                -1.3264455857235216,
                1.440843123133928,
                0.26643499472440857,
                -0.05579619799972557,
                0.37485220761507587
            ]
        },
        {
            "positions": [
                -2.2719464920777064,
                -1.305642099143618,
                1.4190157305280058,
                0.32378235414838574,
                -0.10742899408980411,
                0.24926162043163003
            ]
        },
        {
            "positions": [
                -2.346976982871344,
                -1.2848386125637141,
                1.3971883379220833,
                0.3811297135723627,
                -0.15906179017988253,
                0.12367103324818429
            ]
        },
        {
            "positions": [
                -2.4220074736649817,
                -1.2640351259838103,
                1.375360945316161,
                0.43847707299633976,
                -0.21069458626996102,
                -0.0019195539352613983
            ]
        },
        {
            "positions": [
                -2.5223808922427784,
                -1.2330069106885695,
                1.3596794729303476,
                0.527799555831185,
                -0.15991833749541556,
                -0.0002782069733411395
            ]
        },
        {
            "positions": [
                -2.635563413307082,
                -1.2377065153956366,
                1.2638518702016976,
                0.48458972335143824,
                -0.19121145135427597,
                -0.09112010390100568
            ]
        },
        {
            "positions": [
                -2.7487459343713865,
                -1.2424061201027035,
                1.1680242674730474,
                0.44137989087169155,
                -0.22250456521313638,
                -0.18196200082867023
            ]
        },
        {
            "positions": [
                -2.7306510652868967,
                -1.2260817114259015,
                1.213883385219047,
                0.45693369976842657,
                -0.12008017872190374,
                0.009090304933784071
            ]
        },
        {
            "positions": [
                -2.7125561962024065,
                -1.2097573027490998,
                1.2597425029650462,
                0.47248750866516165,
                -0.017655792230671097,
                0.20014261069623837
            ]
        },
        {
            "positions": [
                -2.6944613271179163,
                -1.1934328940722978,
                1.3056016207110455,
                0.4880413175618967,
                0.08476859426056155,
                0.39119491645869275
            ]
        },
        {
            "positions": [
                -2.6763664580334265,
                -1.1771084853954958,
                1.351460738457045,
                0.5035951264586318,
                0.1871929807517942,
                0.582247222221147
            ]
        },
        {
            "positions": [
                -2.658271588948937,
                -1.160784076718694,
                1.3973198562030444,
                0.5191489353553668,
                0.28961736724302684,
                0.7732995279836015
            ]
        },
        {
            "positions": [
                -2.6401767198644466,
                -1.1444596680418921,
                1.4431789739490437,
                0.5347027442521018,
                0.3920417537342594,
                0.9643518337460557
            ]
        },
        {
            "positions": [
                -2.6263931208351967,
                -1.1461014071031608,
                1.4902380663580632,
                0.4220344546875229,
                0.4154945961288804,
                1.1440647425143027
            ]
        },
        {
            "positions": [
                -2.6126095218059473,
                -1.1477431461644294,
                1.5372971587670827,
                0.3093661651229439,
                0.43894743852350143,
                1.3237776512825499
            ]
        },
        {
            "positions": [
                -2.5988259227766974,
                -1.149384885225698,
                1.5843562511761022,
                0.19669787555836488,
                0.4624002809181224,
                1.5034905600507968
            ]
        },
        {
            "positions": [
                -2.585042323747448,
                -1.1510266242869667,
                1.6314153435851215,
                0.0840295859937859,
                0.4858531233127434,
                1.6832034688190438
            ]
        },
        {
            "positions": [
                -2.571258724718198,
                -1.1526683633482353,
                1.678474435994141,
                -0.028638703570793123,
                0.5093059657073644,
                1.862916377587291
            ]
        },
        {
            "positions": [
                -2.5574751256889483,
                -1.1543101024095042,
                1.7255335284031605,
                -0.1413069931353721,
                0.5327588081019854,
                2.042629286355538
            ]
        },
        {
            "positions": [
                -2.543691526659699,
                -1.1559518414707728,
                1.77259262081218,
                -0.2539752826999512,
                0.5562116504966064,
                2.222342195123785
            ]
        },
        {
            "positions": [
                -2.529907927630449,
                -1.1575935805320414,
                1.8196517132211993,
                -0.36664357226453004,
                0.5796644928912273,
                2.4020551038920317
            ]
        },
        {
            "positions": [
                -2.5161243286011996,
                -1.15923531959331,
                1.8667108056302189,
                -0.4793118618291091,
                0.6031173352858483,
                2.5817680126602793
            ]
        },
        {
            "positions": [
                -2.5023407295719498,
                -1.1608770586545787,
                1.9137698980392384,
                -0.5919801513936881,
                0.6265701776804694,
                2.761480921428526
            ]
        },
        {
            "positions": [
                -2.4885571305427003,
                -1.1625187977158473,
                1.9608289904482579,
                -0.7046484409582671,
                0.6500230200750903,
                2.941193830196773
            ]
        },
        {
            "positions": [
                -2.4747735315134505,
                -1.164160536777116,
                2.0078880828572774,
                -0.817316730522846,
                0.6734758624697114,
                3.1209067389650205
            ]
        }
    ]
}