{
    "goal": {
        "global_pose": {
            "orientation": {
                "w": 0.5084816262002911,
                "x": -0.4908360881923452,
                "y": 0.5182115481033761,
                "z": -0.48164630358495003
            },
            "position": {
                "x": 0.5540239810943604,
                "y": -0.46912469901144505,
                "z": 0.16403168439865112
            }
        },
        "name": "move_to_storage_B"
    },
    "id": "LBKPIECE_move_to_storage_B_17",
    "joint_names": [
        "shoulder_pan_joint",
        "shoulder_lift_joint",
        "elbow_joint",
        "wrist_1_joint",
        "wrist_2_joint",
        "wrist_3_joint"
    ],
    "metrics": {
        "cart_traj_len": 1.2878915209485409,
        "distance_elbow_joint": 1.07956574872651,
        "distance_shoulder_lift_joint": 0.4590242075638893,
        "distance_shoulder_pan_joint": 1.043111399849128,
        "distance_wrist_1_joint": 3.019649487015916,
        "distance_wrist_2_joint": 2.7019137114602865,
        "distance_wrist_3_joint": 3.1175241093360935,
        "smoothness": 0.14544550914943533,
        "time": 0.654236764,
        "traj_len": 3.3794657364666127,
        "weighted_distance": 4.835018105560745
    },
    "planner": "LBKPIECE",
    "start": {
        "state": {
            "elbow_joint": 1.6649325340416963,
            "shoulder_lift_joint": -0.6616387945129425,
            "shoulder_pan_joint": -0.9139837929255878,
            "wrist_1_joint": 2.1467571094334352,
            "wrist_2_joint": -2.234195976750228,
            "wrist_3_joint": 0.005470921511140723
        }
    },
    "waypoints": [
        {
            "positions": [
                -0.9139837929255878,
                -0.6616387945129425,
                1.6649325340416963,
                2.1467571094334352,
                -2.234195976750228,
                0.005470921511140723
            ]
        },
        {
            "positions": [
                -0.8063280635336354,
                -0.7341174000133512,
                1.5745526035744855,
                2.107990966574488,
                -2.193484031522445,
                -0.005232092310544042
            ]
        },
        {
            "positions": [
                -0.698672334141683,
                -0.8065960055137599,
                1.4841726731072744,
                2.0692248237155413,
                -2.152772086294662,
                -0.015935106132228805
            ]
        },
        {
            "positions": [
                -0.5910166047497305,
                -0.8790746110141685,
                1.3937927426400636,
                2.0304586808565945,
                -2.1120601410668796,
                -0.026638119953913568
            ]
        },
        {
            "positions": [
                -0.48336087535777805,
                -0.9515532165145772,
                1.3034128121728528,
                1.9916925379976473,
                -2.0713481958390965,
                -0.037341133775598334
            ]
        },
        {
            "positions": [
                -0.5069181246762903,
                -0.9580574390362024,
                1.3310299670519938,
                1.8815161950907193,
                -1.9736918138948982,
                -0.15559928970057352
            ]
        },
        {
            "positions": [
                -0.5304753739948025,
                -0.9645616615578276,
                1.358647121931135,
                1.7713398521837913,
                -1.8760354319507,
                -0.2738574456255487
            ]
        },
        {
            "positions": [
                -0.5540326233133148,
                -0.9710658840794528,
                1.3862642768102758,
                1.6611635092768633,
                -1.7783790500065018,
                -0.3921156015505239
            ]
        },
        {
            "positions": [
                -0.577589872631827,
                -0.9775701066010779,
                1.4138814316894168,
                1.5509871663699353,
                -1.6807226680623033,
                -0.5103737574754991
            ]
        },
        {
            "positions": [
                -0.6011471219503393,
                -0.9840743291227031,
                1.441498586568558,
                1.4408108234630073,
                -1.583066286118105,
                -0.6286319134004743
            ]
        },
        {
            "positions": [
                -0.6247043712688515,
                -0.9905785516443283,
                1.469115741447699,
                1.3306344805560792,
                -1.4854099041739068,
                -0.7468900693254494
            ]
        },
        {
            "positions": [
                -0.6482616205873637,
                -0.9970827741659535,
                1.4967328963268398,
                1.2204581376491512,
                -1.3877535222297086,
                -0.8651482252504246
            ]
        },
        {
            "positions": [
                -0.6718188699058759,
                -1.0035869966875786,
                1.5243500512059809,
                1.1102817947422232,
                -1.2900971402855101,
                -0.9834063811753998
            ]
        },
        {
            "positions": [
                -0.6953761192243881,
                -1.0100912192092038,
                1.551967206085122,
                1.0001054518352952,
                -1.192440758341312,
                -1.1016645371003748
            ]
        },
        {
            "positions": [
                -0.7189333685429005,
                -1.016595441730829,
                1.579584360964263,
                0.8899291089283672,
                -1.0947843763971137,
                -1.2199226930253504
            ]
        },
        {
            "positions": [
                -0.7424906178614126,
                -1.0230996642524541,
                1.6072015158434039,
                0.7797527660214392,
                -0.9971279944529154,
                -1.338180848950325
            ]
        },
        {
            "positions": [
                -0.7660478671799249,
                -1.0296038867740793,
                1.634818670722545,
                0.6695764231145112,
                -0.8994716125087172,
                -1.4564390048753006
            ]
        },
        {
            "positions": [
                -0.7896051164984371,
                -1.0361081092957045,
                1.662435825601686,
                0.5594000802075831,
                -0.801815230564519,
                -1.5746971608002758
            ]
        },
        {
            "positions": [
                -0.8131623658169493,
                -1.0426123318173297,
                1.690052980480827,
                0.4492237373006551,
                -0.7041588486203207,
                -1.692955316725251
            ]
        },
        {
            "positions": [
                -0.8367196151354616,
                -1.049116554338955,
                1.717670135359968,
                0.33904739439372733,
                -0.6065024666761225,
                -1.811213472650226
            ]
        },
        {
            "positions": [
                -0.8602768644539738,
                -1.05562077686058,
                1.745287290239109,
                0.2288710514867991,
                -0.508846084731924,
                -1.9294716285752012
            ]
        },
        {
            "positions": [
                -0.8838341137724861,
                -1.0621249993822053,
                1.77290444511825,
                0.11869470857987108,
                -0.4111897027877258,
                -2.0477297845001763
            ]
        },
        {
            "positions": [
                -0.9073913630909982,
                -1.0686292219038305,
                1.8005215999973911,
                0.008518365672943062,
                -0.3135333208435276,
                -2.1659879404251514
            ]
        },
        {
            "positions": [
                -0.9309486124095105,
                -1.0751334444254557,
                1.828138754876532,
                -0.10165797723398473,
                -0.21587693889932957,
                -2.2842460963501265
            ]
        },
        {
            "positions": [
                -0.9545058617280229,
                -1.0816376669470809,
                1.8557559097556733,
                -0.21183432014091297,
                -0.1182205569551309,
                -2.402504252275102
            ]
        },
        {
            "positions": [
                -0.978063111046535,
                -1.0881418894687058,
                1.8833730646348141,
                -0.3220106630478412,
                -0.02056417501093266,
                -2.5207624082000772
            ]
        },
        {
            "positions": [
                -1.001620360365047,
                -1.094646111990331,
                1.9109902195139552,
                -0.432187005954769,
                0.07709220693326557,
                -2.639020564125052
            ]
        },
        {
            "positions": [
                -1.0251776096835594,
                -1.1011503345119562,
                1.9386073743930963,
                -0.5423633488616968,
                0.1747485888774638,
                -2.757278720050027
            ]
        },
        {
            "positions": [
                -1.0487348590020718,
                -1.1076545570335814,
                1.9662245292722371,
                -0.652539691768625,
                0.27240497082166204,
                -2.8755368759750026
            ]
        },
        {
            "positions": [
                -1.072292108320584,
                -1.1141587795552066,
                1.9938416841513784,
                -0.7627160346755533,
                0.3700613527658603,
                -2.9937950318999778
            ]
        },
        {
            "positions": [
                -1.0958493576390962,
                -1.1206630020768318,
                2.0214588390305193,
                -0.8728923775824812,
                0.46771773471005834,
                -3.112053187824953
            ]
        }
    ]
}