{
    "goal": {
        "global_pose": {
            "orientation": {
                "w": 0.7047431468963623,
                "x": -0.7094548344612122,
                "y": 0.0024358443915843964,
                "z": -0.0022348060738295317
            },
            "position": {
                "x": 0.6094750761985779,
                "y": 0.3671506643295288,
                "z": 0.19426114857196808
            }
        },
        "name": "move_to_magneteinheit_A"
    },
    "id": "LBKPIECE_move_to_magneteinheit_A_145",
    "joint_names": [
        "shoulder_pan_joint",
        "shoulder_lift_joint",
        "elbow_joint",
        "wrist_1_joint",
        "wrist_2_joint",
        "wrist_3_joint"
    ],
    "metrics": {
        "cart_traj_len": 1.9819759512939124,
        "distance_elbow_joint": 3.598861280657691,
        "distance_shoulder_lift_joint": 0.7973596429722845,
        "distance_shoulder_pan_joint": 1.2430917270958937,
        "distance_wrist_1_joint": 1.1125537117180282,
        "distance_wrist_2_joint": 1.4313424551232732,
        "distance_wrist_3_joint": 1.9018942305276092,
        "smoothness": 2.9605947464981317e-16,
        "time": 0.41058363600000003,
        "traj_len": 3.1757051261247127,
        "weighted_distance": 4.053737494706743
    },
    "planner": "LBKPIECE",
    "start": {
        "state": {
            "elbow_joint": -1.5739458827952972,
            "shoulder_lift_joint": 0.006533473998580023,
            "shoulder_pan_joint": -1.1188671628667068,
            "wrist_1_joint": 3.138208179676308,
            "wrist_2_joint": -1.5706037135050406,
            "wrist_3_joint": -2.0226958329764257
        }
    },
    "waypoints": [
        {
            "positions": [
                -1.1188671628667068,
                0.006533473998580023,
                -1.5739458827952972,
                3.138208179676308,
                -1.5706037135050406,
                -2.0226958329764257
            ]
        },
        {
            "positions": [
                -1.0710559425937878,
                -0.024134204577277073,
                -1.43552814123154,
                3.0954176523025376,
                -1.515552080615684,
                -1.94954605487921
            ]
        },
        {
            "positions": [
                -1.023244722320869,
                -0.05480188315313417,
                -1.2971103996677824,
                3.0526271249287675,
                -1.4605004477263273,
                -1.8763962767819942
            ]
        },
        {
            "positions": [
                -0.9754335020479499,
                -0.08546956172899127,
                -1.158692658104025,
                3.0098365975549974,
                -1.4054488148369706,
                -1.8032464986847785
            ]
        },
        {
            "positions": [
                -0.9276222817750309,
                -0.11613724030484836,
                -1.0202749165402678,
                2.967046070181227,
                -1.350397181947614,
                -1.7300967205875628
            ]
        },
        {
            "positions": [
                -0.8798110615021119,
                -0.14680491888070543,
                -0.8818571749765104,
                2.9242555428074564,
                -1.2953455490582573,
                -1.6569469424903471
            ]
        },
        {
            "positions": [
                -0.8319998412291929,
                -0.17747259745656255,
                -0.7434394334127531,
                2.8814650154336863,
                -1.2402939161689006,
                -1.5837971643931312
            ]
        },
        {
            "positions": [
                -0.784188620956274,
                -0.2081402760324196,
                -0.6050216918489958,
                2.838674488059916,
                -1.185242283279544,
                -1.5106473862959156
            ]
        },
        {
            "positions": [
                -0.736377400683355,
                -0.23880795460827672,
                -0.4666039502852384,
                2.7958839606861456,
                -1.1301906503901873,
                -1.4374976081986999
            ]
        },
        {
            "positions": [
                -0.6885661804104359,
                -0.2694756331841338,
                -0.3281862087214811,
                2.753093433312375,
                -1.0751390175008306,
                -1.364347830101484
            ]
        },
        {
            "positions": [
                -0.6407549601375169,
                -0.3001433117599909,
                -0.18976846715772355,
                2.710302905938605,
                -1.020087384611474,
                -1.2911980520042683
            ]
        },
        {
            "positions": [
                -0.592943739864598,
                -0.33081099033584804,
                -0.05135072559396647,
                2.667512378564835,
                -0.9650357517221173,
                -1.2180482739070526
            ]
        },
        {
            "positions": [
                -0.545132519591679,
                -0.36147866891170516,
                0.08706701596979105,
                2.6247218511910644,
                -0.9099841188327606,
                -1.1448984958098367
            ]
        },
        {
            "positions": [
                -0.49732129931876,
                -0.3921463474875622,
                0.22548475753354835,
                2.581931323817294,
                -0.854932485943404,
                -1.0717487177126213
            ]
        },
        {
            "positions": [
                -0.44951007904584106,
                -0.4228140260634193,
                0.36390249909730565,
                2.5391407964435238,
                -0.7998808530540473,
                -0.9985989396154054
            ]
        },
        {
            "positions": [
                -0.4016988587729221,
                -0.45348170463927634,
                0.502320240661063,
                2.4963502690697537,
                -0.7448292201646908,
                -0.9254491615181897
            ]
        },
        {
            "positions": [
                -0.35388763850000304,
                -0.4841493832151335,
                0.6407379822248205,
                2.453559741695983,
                -0.689777587275334,
                -0.8522993834209738
            ]
        },
        {
            "positions": [
                -0.3060764182270841,
                -0.5148170617909905,
                0.779155723788578,
                2.4107692143222126,
                -0.6347259543859773,
                -0.7791496053237581
            ]
        },
        {
            "positions": [
                -0.25826519795416514,
                -0.5454847403668476,
                0.9175734653523351,
                2.3679786869484425,
                -0.5796743214966207,
                -0.7059998272265424
            ]
        },
        {
            "positions": [
                -0.21045397768124618,
                -0.5761524189427047,
                1.0559912069160922,
                2.3251881595746724,
                -0.524622688607264,
                -0.6328500491293267
            ]
        },
        {
            "positions": [
                -0.162642757408327,
                -0.6068200975185618,
                1.1944089484798501,
                2.282397632200902,
                -0.46957105571790736,
                -0.5597002710321108
            ]
        },
        {
            "positions": [
                -0.11483153713540806,
                -0.637487776094419,
                1.3328266900436072,
                2.2396071048271313,
                -0.4145194228285507,
                -0.48655049293489516
            ]
        },
        {
            "positions": [
                -0.06702031686248922,
                -0.668155454670276,
                1.4712444316073643,
                2.1968165774533612,
                -0.35946778993919404,
                -0.4134007148376795
            ]
        },
        {
            "positions": [
                -0.01920909658957015,
                -0.6988231332461331,
                1.6096621731711218,
                2.154026050079591,
                -0.3044161570498374,
                -0.3402509367404638
            ]
        },
        {
            "positions": [
                0.028602123683348912,
                -0.7294908118219903,
                1.7480799147348793,
                2.1112355227058206,
                -0.24936452416048072,
                -0.2671011586432479
            ]
        },
        {
            "positions": [
                0.07641334395626775,
                -0.7601584903978473,
                1.8864976562986369,
                2.06844499533205,
                -0.19431289127112406,
                -0.19395138054603223
            ]
        },
        {
            "positions": [
                0.12422456422918689,
                -0.7908261689737044,
                2.024915397862394,
                2.02565446795828,
                -0.13926125838176745,
                -0.12080160244881649
            ]
        }
    ]
}