{
    "goal": {
        "global_pose": {
            "orientation": {
                "w": -0.00223480608172531,
                "x": 0.0024358444001904467,
                "y": 0.7094548369677653,
                "z": -0.704743149386269
            },
            "position": {
                "x": -0.37947507619857795,
                "y": -0.6371506643295288,
                "z": 0.19426114857196808
            }
        },
        "name": "move_to_magneteinheit_C"
    },
    "id": "LBKPIECE_move_to_magneteinheit_C_100",
    "joint_names": [
        "shoulder_pan_joint",
        "shoulder_lift_joint",
        "elbow_joint",
        "wrist_1_joint",
        "wrist_2_joint",
        "wrist_3_joint"
    ],
    "metrics": {
        "cart_traj_len": 0.6442128910988196,
        "distance_elbow_joint": 0.43011206641102784,
        "distance_shoulder_lift_joint": 0.32888207739018194,
        "distance_shoulder_pan_joint": 0.7996373492781863,
        "distance_wrist_1_joint": 1.9520152324835673,
        "distance_wrist_2_joint": 0.8014896473029669,
        "distance_wrist_3_joint": 0.9401363558068949,
        "smoothness": 1.1048984670781998,
        "time": 0.345569314,
        "traj_len": 2.291783743871316,
        "weighted_distance": 3.144209013420251
    },
    "planner": "LBKPIECE",
    "start": {
        "state": {
            "elbow_joint": 1.9565354006593851,
            "shoulder_lift_joint": -1.4165861576512813,
            "shoulder_pan_joint": -1.6717766223278752,
            "wrist_1_joint": -0.528663328821883,
            "wrist_2_joint": 1.472756589259273,
            "wrist_3_joint": 3.159348288315503
        }
    },
    "waypoints": [
        {
            "positions": [
                -1.6717766223278752,
                -1.4165861576512813,
                1.9565354006593851,
                -0.528663328821883,
                1.472756589259273,
                3.159348288315503
            ]
        },
        {
            "positions": [
                -1.7148483872809224,
                -1.422877668920658,
                1.9275899208929022,
                -0.3909873151614093,
                1.3999075845484286,
                3.0782139662661168
            ]
        },
        {
            "positions": [
                -1.7579201522339696,
                -1.4291691801900346,
                1.8986444411264192,
                -0.2533113015009355,
                1.3270585798375842,
                2.9970796442167305
            ]
        },
        {
            "positions": [
                -1.8009919171870168,
                -1.435460691459411,
                1.8696989613599362,
                -0.11563528784046173,
                1.25420957512674,
                2.915945322167344
            ]
        },
        {
            "positions": [
                -1.8440636821400642,
                -1.4417522027287877,
                1.8407534815934534,
                0.02204072582001204,
                1.1813605704158954,
                2.8348110001179583
            ]
        },
        {
            "positions": [
                -1.8871354470931114,
                -1.4480437139981643,
                1.8118080018269704,
                0.15971673948048581,
                1.1085115657050508,
                2.753676678068572
            ]
        },
        {
            "positions": [
                -1.9302072120461586,
                -1.454335225267541,
                1.7828625220604875,
                0.2973927531409596,
                1.0356625609942065,
                2.6725423560191857
            ]
        },
        {
            "positions": [
                -2.029976744839463,
                -1.4152330550965206,
                1.8409880082123635,
                0.243832025644466,
                1.0375460871337223,
                2.7596623405346277
            ]
        },
        {
            "positions": [
                -2.1297462776327674,
                -1.3761308849255003,
                1.8991134943642398,
                0.1902712981479724,
                1.0394296132732381,
                2.8467823250500697
            ]
        },
        {
            "positions": [
                -2.229515810426072,
                -1.3370287147544802,
                1.9572389805161161,
                0.13671057065147876,
                1.041313139412754,
                2.9339023095655117
            ]
        },
        {
            "positions": [
                -2.3292853432193765,
                -1.2979265445834598,
                2.015364466667992,
                0.08314984315498516,
                1.0431966655522698,
                3.0210222940809537
            ]
        },
        {
            "positions": [
                -2.358629888459091,
                -1.2753371586772493,
                2.0200695603794854,
                -0.050457516825680865,
                0.9928494907255655,
                3.04404191246074
            ]
        },
        {
            "positions": [
                -2.3879744336988047,
                -1.2527477727710388,
                2.0247746540909786,
                -0.18406487680634687,
                0.9425023158988612,
                3.067061530840526
            ]
        },
        {
            "positions": [
                -2.4157876130012235,
                -1.2228992536785654,
                2.0199323021637654,
                -0.3988987169974863,
                0.8571132609567184,
                3.086665280403605
            ]
        },
        {
            "positions": [
                -2.4436007923036427,
                -1.1930507345860921,
                2.0150899502365527,
                -0.6137325571886257,
                0.7717242060145756,
                3.106269029966684
            ]
        },
        {
            "positions": [
                -2.4714139716060615,
                -1.1632022154936188,
                2.0102475983093395,
                -0.8285663973797652,
                0.6863351510724327,
                3.125872779529763
            ]
        }
    ]
}