{
    "goal": {
        "global_pose": {
            "orientation": {
                "w": 0.5084816217422485,
                "x": -0.49083608388900757,
                "y": 0.5182115435600281,
                "z": -0.4816462993621826
            },
            "position": {
                "x": 0.5540239810943604,
                "y": 0.030875300988554955,
                "z": 0.16403168439865112
            }
        },
        "name": "move_to_storage_A"
    },
    "id": "LBKPIECE_move_to_storage_A_123",
    "joint_names": [
        "shoulder_pan_joint",
        "shoulder_lift_joint",
        "elbow_joint",
        "wrist_1_joint",
        "wrist_2_joint",
        "wrist_3_joint"
    ],
    "metrics": {
        "cart_traj_len": 0.35271006773931085,
        "distance_elbow_joint": 0.44947200355383177,
        "distance_shoulder_lift_joint": 0.23605042811951882,
        "distance_shoulder_pan_joint": 0.46193130657168935,
        "distance_wrist_1_joint": 0.24003982322052186,
        "distance_wrist_2_joint": 1.0956267295973445,
        "distance_wrist_3_joint": 0.10561556100418423,
        "smoothness": 8.881784232165597e-16,
        "time": 0.264940746,
        "traj_len": 1.6089548943544347,
        "weighted_distance": 2.033625709636197
    },
    "planner": "LBKPIECE",
    "start": {
        "state": {
            "elbow_joint": 1.971548880431181,
            "shoulder_lift_joint": -1.1394869514688781,
            "shoulder_pan_joint": 0.12281150262730567,
            "wrist_1_joint": -0.7804693444481463,
            "wrist_2_joint": 0.12958644648617612,
            "wrist_3_joint": 3.0906942077768043
        }
    },
    "waypoints": [
        {
            "positions": [
                0.12281150262730567,
                -1.1394869514688781,
                1.971548880431181,
                -0.7804693444481463,
                0.12958644648617612,
                3.0906942077768043
            ]
        },
        {
            "positions": [
                0.0568213159742072,
                -1.173208441200238,
                2.0357591666531567,
                -0.8147607477653637,
                0.2861045507143682,
                3.1057821450631162
            ]
        },
        {
            "positions": [
                -0.009168870678891272,
                -1.2069299309315977,
                2.0999694528751327,
                -0.8490521510825811,
                0.44262265494256026,
                3.120870082349428
            ]
        },
        {
            "positions": [
                -0.07515905733198974,
                -1.2406514206629575,
                2.1641797390971087,
                -0.8833435543997985,
                0.5991407591707523,
                3.13595801963574
            ]
        },
        {
            "positions": [
                -0.1411492439850882,
                -1.2743729103943173,
                2.2283900253190847,
                -0.917634957717016,
                0.7556588633989444,
                3.1510459569220526
            ]
        },
        {
            "positions": [
                -0.20713943063818674,
                -1.3080944001256773,
                2.2926003115410607,
                -0.9519263610342333,
                0.9121769676271365,
                3.1661338942083646
            ]
        },
        {
            "positions": [
                -0.27312961729128515,
                -1.3418158898570371,
                2.3568105977630367,
                -0.9862177643514507,
                1.0686950718553285,
                3.1812218314946765
            ]
        },
        {
            "positions": [
                -0.3391198039443837,
                -1.375537379588397,
                2.4210208839850127,
                -1.0205091676686682,
                1.2252131760835208,
                3.1963097687809885
            ]
        }
    ]
}