{
    "goal": {
        "global_pose": {
            "orientation": {
                "w": -0.4816463035849501,
                "x": 0.5182115481033762,
                "y": 0.4908360881923453,
                "z": -0.5084816262002911
            },
            "position": {
                "x": -0.8240239810943604,
                "y": -0.300875300988555,
                "z": 0.16403168439865112
            }
        },
        "name": "move_to_storage_C"
    },
    "id": "LBKPIECE_move_to_storage_C_130",
    "joint_names": [
        "shoulder_pan_joint",
        "shoulder_lift_joint",
        "elbow_joint",
        "wrist_1_joint",
        "wrist_2_joint",
        "wrist_3_joint"
    ],
    "metrics": {
        "cart_traj_len": 0.5770835278201166,
        "distance_elbow_joint": 0.2606922379049763,
        "distance_shoulder_lift_joint": 0.19068089744786987,
        "distance_shoulder_pan_joint": 0.49463325134117087,
        "distance_wrist_1_joint": 0.08600136800910607,
        "distance_wrist_2_joint": 1.0693950939590777,
        "distance_wrist_3_joint": 0.06317228248318285,
        "smoothness": 0.0,
        "time": 0.686424144,
        "traj_len": 1.4712495135582488,
        "weighted_distance": 1.8564256403314228
    },
    "planner": "LBKPIECE",
    "start": {
        "state": {
            "elbow_joint": 2.0108683149792914,
            "shoulder_lift_joint": -1.1634956873317392,
            "shoulder_pan_joint": -2.4736205022346,
            "wrist_1_joint": -0.8367026793690192,
            "wrist_2_joint": 0.6746043897045053,
            "wrist_3_joint": 3.133522094754363
        }
    },
    "waypoints": [
        {
            "positions": [
                -2.4736205022346,
                -1.1634956873317392,
                2.0108683149792914,
                -0.8367026793690192,
                0.6746043897045053,
                3.133522094754363
            ]
        },
        {
            "positions": [
                -2.5560593774581286,
                -1.1317155377570942,
                1.9674196086617954,
                -0.8223691180341682,
                0.8528369053643516,
                3.1440508085015604
            ]
        },
        {
            "positions": [
                -2.638498252681657,
                -1.0999353881824492,
                1.9239709023442992,
                -0.8080355566993171,
                1.0310694210241977,
                3.1545795222487576
            ]
        },
        {
            "positions": [
                -2.7209371279051853,
                -1.0681552386078044,
                1.8805221960268033,
                -0.7937019953644662,
                1.209301936684044,
                3.1651082359959544
            ]
        },
        {
            "positions": [
                -2.803376003128714,
                -1.0363750890331593,
                1.8370734897093073,
                -0.7793684340296152,
                1.3875344523438904,
                3.1756369497431516
            ]
        },
        {
            "positions": [
                -2.8858148783522424,
                -1.0045949394585143,
                1.793624783391811,
                -0.7650348726947641,
                1.5657669680037367,
                3.186165663490349
            ]
        },
        {
            "positions": [
                -2.968253753575771,
                -0.9728147898838694,
                1.750176077074315,
                -0.7507013113599131,
                1.743999483663583,
                3.196694377237546
            ]
        }
    ]
}