{
    "goal": {
        "global_pose": {
            "orientation": {
                "w": 0.005598929693374612,
                "x": 0.007748599140229565,
                "y": 0.7110244013736278,
                "z": -0.7031023480610252
            },
            "position": {
                "x": -0.8858502320852131,
                "y": -0.7141253447532654,
                "z": 0.3711530566215515
            }
        },
        "name": "move_to_auspresseinheit_C"
    },
    "id": "LBKPIECE_move_to_auspresseinheit_C_92",
    "joint_names": [
        "shoulder_pan_joint",
        "shoulder_lift_joint",
        "elbow_joint",
        "wrist_1_joint",
        "wrist_2_joint",
        "wrist_3_joint"
    ],
    "metrics": {
        "cart_traj_len": 0.4933151349073469,
        "distance_elbow_joint": 0.9900929909513072,
        "distance_shoulder_lift_joint": 0.3196549463011369,
        "distance_shoulder_pan_joint": 0.2572990427201125,
        "distance_wrist_1_joint": 0.6596125298878037,
        "distance_wrist_2_joint": 1.303424429760332,
        "distance_wrist_3_joint": 0.0532612100343397,
        "smoothness": 6.45947944157498e-16,
        "time": 0.854292532,
        "traj_len": 1.892972569704863,
        "weighted_distance": 2.3775837586448656
    },
    "planner": "LBKPIECE",
    "start": {
        "state": {
            "elbow_joint": 1.7527959577730765,
            "shoulder_lift_joint": -0.9740617694224828,
            "shoulder_pan_joint": -2.967991417825869,
            "wrist_1_joint": -0.7595177689779385,
            "wrist_2_joint": 1.7443932448376545,
            "wrist_3_joint": 3.1991315425061013
        }
    },
    "waypoints": [
        {
            "positions": [
                -2.967991417825869,
                -0.9740617694224828,
                1.7527959577730765,
                -0.7595177689779385,
                1.7443932448376545,
                3.1991315425061013
            ]
        },
        {
            "positions": [
                -2.942261513553858,
                -0.9420962747923691,
                1.6537866586779457,
                -0.6935565159891581,
                1.6140508018616213,
                3.193805421502667
            ]
        },
        {
            "positions": [
                -2.9165316092818467,
                -0.9101307801622555,
                1.5547773595828152,
                -0.6275952630003778,
                1.483708358885588,
                3.1884793004992336
            ]
        },
        {
            "positions": [
                -2.890801705009835,
                -0.8781652855321417,
                1.4557680604876844,
                -0.5616340100115974,
                1.353365915909555,
                3.1831531794957995
            ]
        },
        {
            "positions": [
                -2.865071800737824,
                -0.846199790902028,
                1.3567587613925536,
                -0.49567275702281705,
                1.2230234729335216,
                3.1778270584923654
            ]
        },
        {
            "positions": [
                -2.839341896465813,
                -0.8142342962719143,
                1.257749462297423,
                -0.4297115040340367,
                1.0926810299574885,
                3.1725009374889312
            ]
        },
        {
            "positions": [
                -2.8136119921938016,
                -0.7822688016418007,
                1.1587401632022922,
                -0.3637502510452563,
                0.9623385869814554,
                3.1671748164854976
            ]
        },
        {
            "positions": [
                -2.7878820879217905,
                -0.750303307011687,
                1.0597308641071614,
                -0.29778899805647596,
                0.8319961440054222,
                3.1618486954820635
            ]
        },
        {
            "positions": [
                -2.762152183649779,
                -0.7183378123815733,
                0.9607215650120307,
                -0.23182774506769555,
                0.7016537010293888,
                3.1565225744786294
            ]
        },
        {
            "positions": [
                -2.7364222793777677,
                -0.6863723177514596,
                0.8617122659169,
                -0.16586649207891513,
                0.5713112580533557,
                3.1511964534751957
            ]
        },
        {
            "positions": [
                -2.7106923751057566,
                -0.6544068231213459,
                0.7627029668217693,
                -0.09990523909013488,
                0.4409688150773226,
                3.1458703324717616
            ]
        }
    ]
}