{
    "goal": {
        "global_pose": {
            "orientation": {
                "w": 0.005598929693374612,
                "x": 0.007748599140229565,
                "y": 0.7110244013736278,
                "z": -0.7031023480610252
            },
            "position": {
                "x": 0.1141497679147869,
                "y": -0.7141253447532654,
                "z": 0.3711530566215515
            }
        },
        "name": "move_to_auspresseinheit_B"
    },
    "id": "LBKPIECE_move_to_auspresseinheit_B_23",
    "joint_names": [
        "shoulder_pan_joint",
        "shoulder_lift_joint",
        "elbow_joint",
        "wrist_1_joint",
        "wrist_2_joint",
        "wrist_3_joint"
    ],
    "metrics": {
        "cart_traj_len": 0.564830995824368,
        "distance_elbow_joint": 0.06313346602432368,
        "distance_shoulder_lift_joint": 0.2940825182567175,
        "distance_shoulder_pan_joint": 0.5775761569869309,
        "distance_wrist_1_joint": 0.32328257524195503,
        "distance_wrist_2_joint": 0.9875118050986873,
        "distance_wrist_3_joint": 0.0033168501500364655,
        "smoothness": 5.075305295617109e-16,
        "time": 0.265674515,
        "traj_len": 1.499634412701526,
        "weighted_distance": 1.8884733125991922
    },
    "planner": "LBKPIECE",
    "start": {
        "state": {
            "elbow_joint": 2.0193061681459312,
            "shoulder_lift_joint": -1.1220205130644991,
            "shoulder_pan_joint": -1.0952072088045026,
            "wrist_1_joint": -0.8559671810662515,
            "wrist_2_joint": 0.4759638712940361,
            "wrist_3_joint": 3.159081874192446
        }
    },
    "waypoints": [
        {
            "positions": [
                -1.0952072088045026,
                -1.1220205130644991,
                2.0193061681459312,
                -0.8559671810662515,
                0.4759638712940361,
                3.159081874192446
            ]
        },
        {
            "positions": [
                -1.1914699016356578,
                -1.1710342661072854,
                2.008783923808544,
                -0.8020867518592589,
                0.6405491721438173,
                3.1585290658341068
            ]
        },
        {
            "positions": [
                -1.287732594466813,
                -1.2200480191500715,
                1.9982616794711567,
                -0.7482063226522665,
                0.8051344729935985,
                3.157976257475767
            ]
        },
        {
            "positions": [
                -1.3839952872979682,
                -1.2690617721928579,
                1.9877394351337694,
                -0.694325893445274,
                0.9697197738433798,
                3.157423449117428
            ]
        },
        {
            "positions": [
                -1.4802579801291231,
                -1.3180755252356442,
                1.977217190796382,
                -0.6404454642382815,
                1.1343050746931609,
                3.1568706407590885
            ]
        },
        {
            "positions": [
                -1.5765206729602783,
                -1.3670892782784303,
                1.966694946458995,
                -0.586565035031289,
                1.2988903755429422,
                3.156317832400749
            ]
        },
        {
            "positions": [
                -1.6727833657914335,
                -1.4161030313212166,
                1.9561727021216075,
                -0.5326846058242964,
                1.4634756763927235,
                3.1557650240424096
            ]
        }
    ]
}