{
    "goal": {
        "global_pose": {
            "orientation": {
                "w": 0.7047431493862688,
                "x": -0.7094548369677653,
                "y": 0.0024358444001904,
                "z": -0.0022348060817251984
            },
            "position": {
                "x": -0.39052492380142206,
                "y": 0.3671506643295288,
                "z": 0.19426114857196808
            }
        },
        "name": "move_to_magneteinheit_D"
    },
    "id": "LBKPIECE_move_to_magneteinheit_D_95",
    "joint_names": [
        "shoulder_pan_joint",
        "shoulder_lift_joint",
        "elbow_joint",
        "wrist_1_joint",
        "wrist_2_joint",
        "wrist_3_joint"
    ],
    "metrics": {
        "cart_traj_len": 6.435383130959392,
        "distance_elbow_joint": 3.7236036055060744,
        "distance_shoulder_lift_joint": 1.0951124633832068,
        "distance_shoulder_pan_joint": 7.5264230635255736,
        "distance_wrist_1_joint": 2.23873857245843,
        "distance_wrist_2_joint": 3.2761673191791485,
        "distance_wrist_3_joint": 4.060260639081475,
        "smoothness": 0.473889923532564,
        "time": 0.601043392,
        "traj_len": 4.681912607378943,
        "weighted_distance": 5.962862805141038
    },
    "planner": "LBKPIECE",
    "start": {
        "state": {
            "elbow_joint": 0.7495348899011911,
            "shoulder_lift_joint": -0.6476975780737668,
            "shoulder_pan_joint": -2.711696901376276,
            "wrist_1_joint": -0.0750647808097303,
            "wrist_2_joint": 0.43296659715458535,
            "wrist_3_joint": 3.1361499051832418
        }
    },
    "waypoints": [
        {
            "positions": [
                -2.711696901376276,
                -0.6476975780737668,
                0.7495348899011911,
                -0.0750647808097303,
                0.43296659715458535,
                3.1361499051832418
            ]
        },
        {
            "positions": [
                -2.728260084876517,
                -0.7072644208889296,
                0.8241323233853537,
                -0.03790876878434108,
                0.4852070342798541,
                3.078172867719607
            ]
        },
        {
            "positions": [
                -2.7448232683767584,
                -0.7668312637040923,
                0.8987297568695164,
                -0.0007527567589518652,
                0.5374474714051228,
                3.0201958302559726
            ]
        },
        {
            "positions": [
                -2.7264909711761236,
                -0.8484320156012647,
                0.9505288140833646,
                -0.004201231453498449,
                0.5519221544428127,
                2.8198329089675624
            ]
        },
        {
            "positions": [
                -2.7081586739754893,
                -0.930032767498437,
                1.0023278712972128,
                -0.007649706148045033,
                0.5663968374805024,
                2.6194699876791527
            ]
        },
        {
            "positions": [
                -2.6898263767748545,
                -1.0116335193956094,
                1.054126928511061,
                -0.011098180842591617,
                0.5808715205181922,
                2.4191070663907426
            ]
        },
        {
            "positions": [
                -2.5768010852865153,
                -1.0663063805690876,
                1.0014647431667076,
                -0.06572615559687595,
                0.549383304811435,
                2.334344079248114
            ]
        },
        {
            "positions": [
                -2.463775793798176,
                -1.1209792417425657,
                0.9488025578223542,
                -0.12035413035116027,
                0.5178950891046779,
                2.2495810921054855
            ]
        },
        {
            "positions": [
                -2.3507505023098365,
                -1.1756521029160436,
                0.8961403724780008,
                -0.1749821051054446,
                0.4864068733979207,
                2.1648181049628565
            ]
        },
        {
            "positions": [
                -2.2377252108214973,
                -1.2303249640895217,
                0.8434781871336474,
                -0.22961007985972892,
                0.45491865769116346,
                2.080055117820228
            ]
        },
        {
            "positions": [
                -2.124699919333158,
                -1.2849978252629999,
                0.790816001789294,
                -0.28423805461401325,
                0.4234304419844063,
                1.9952921306775995
            ]
        },
        {
            "positions": [
                -1.9615267610445009,
                -1.2924889740585273,
                0.710351200292022,
                -0.32712627012349454,
                0.35731517998358453,
                1.9621280669939736
            ]
        },
        {
            "positions": [
                -1.7983536027558433,
                -1.2999801228540546,
                0.6298863987947501,
                -0.37001448563297584,
                0.2911999179827628,
                1.9289640033103477
            ]
        },
        {
            "positions": [
                -1.6351804444671858,
                -1.3074712716495822,
                0.5494215972974781,
                -0.41290270114245714,
                0.225084655981941,
                1.8957999396267218
            ]
        },
        {
            "positions": [
                -1.4720072861785285,
                -1.3149624204451096,
                0.46895679580020605,
                -0.45579091665193844,
                0.15896939398111926,
                1.8626358759430959
            ]
        },
        {
            "positions": [
                -1.308834127889871,
                -1.322453569240637,
                0.388491994302934,
                -0.49867913216141974,
                0.09285413198029746,
                1.8294718122594698
            ]
        },
        {
            "positions": [
                -1.1456609696012134,
                -1.3299447180361643,
                0.30802719280566204,
                -0.5415673476709011,
                0.026738869979475666,
                1.7963077485758439
            ]
        },
        {
            "positions": [
                -0.9824878113125561,
                -1.3374358668316917,
                0.22756239130839007,
                -0.5844555631803823,
                -0.039376392021346074,
                1.763143684892218
            ]
        },
        {
            "positions": [
                -0.8193146530238988,
                -1.344927015627219,
                0.1470975898111181,
                -0.6273437786898637,
                -0.10549165402216781,
                1.729979621208592
            ]
        },
        {
            "positions": [
                -0.6561414947352413,
                -1.3524181644227466,
                0.066632788313846,
                -0.6702319941993449,
                -0.17160691602298966,
                1.6968155575249662
            ]
        },
        {
            "positions": [
                -0.4929683364465838,
                -1.359909313218274,
                -0.013832013183425973,
                -0.7131202097088263,
                -0.2377221780238114,
                1.6636514938413403
            ]
        },
        {
            "positions": [
                -0.32979517815792647,
                -1.3674004620138014,
                -0.09429681468069795,
                -0.7560084252183075,
                -0.30383744002463314,
                1.6304874301577144
            ]
        },
        {
            "positions": [
                -0.16662201986926894,
                -1.3748916108093288,
                -0.17476161617796993,
                -0.7988966407277889,
                -0.369952702025455,
                1.5973233664740885
            ]
        },
        {
            "positions": [
                -0.0034488615806114176,
                -1.3823827596048561,
                -0.2552264176752419,
                -0.8417848562372701,
                -0.43606796402627673,
                1.5641593027904626
            ]
        },
        {
            "positions": [
                0.1597242967080459,
                -1.3898739084003837,
                -0.3356912191725139,
                -0.8846730717467515,
                -0.5021832260270984,
                1.5309952391068364
            ]
        },
        {
            "positions": [
                0.32289745499670364,
                -1.397365057195911,
                -0.4161560206697861,
                -0.9275612872562329,
                -0.5682984880279203,
                1.4978311754232105
            ]
        },
        {
            "positions": [
                0.4860706132853605,
                -1.4048562059914385,
                -0.49662082216705783,
                -0.9704495027657141,
                -0.6344137500287419,
                1.4646671117395846
            ]
        },
        {
            "positions": [
                0.6492437715740182,
                -1.4123473547869658,
                -0.57708562366433,
                -1.0133377182751955,
                -0.7005290120295637,
                1.4315030480559587
            ]
        },
        {
            "positions": [
                0.8124169298626756,
                -1.4198385035824932,
                -0.657550425161602,
                -1.0562259337846767,
                -0.7666442740303856,
                1.3983389843723328
            ]
        },
        {
            "positions": [
                0.9755900881513333,
                -1.4273296523780208,
                -0.738015226658874,
                -1.099114149294158,
                -0.8327595360312074,
                1.365174920688707
            ]
        },
        {
            "positions": [
                1.1387632464399906,
                -1.4348208011735482,
                -0.818480028156146,
                -1.1420023648036393,
                -0.8988747980320291,
                1.332010857005081
            ]
        },
        {
            "positions": [
                1.301936404728648,
                -1.4423119499690755,
                -0.8989448296534179,
                -1.1848905803131207,
                -0.9649900600328509,
                1.298846793321455
            ]
        },
        {
            "positions": [
                1.4651095630173052,
                -1.449803098764603,
                -0.9794096311506899,
                -1.2277787958226019,
                -1.0311053220336726,
                1.2656827296378292
            ]
        },
        {
            "positions": [
                1.628282721305963,
                -1.4572942475601303,
                -1.059874432647962,
                -1.2706670113320833,
                -1.0972205840344944,
                1.2325186659542031
            ]
        },
        {
            "positions": [
                1.7914558795946203,
                -1.4647853963556576,
                -1.1403392341452339,
                -1.3135552268415644,
                -1.1633358460353163,
                1.1993546022705774
            ]
        },
        {
            "positions": [
                1.954629037883278,
                -1.4722765451511852,
                -1.220804035642506,
                -1.3564434423510459,
                -1.229451108036138,
                1.1661905385869513
            ]
        },
        {
            "positions": [
                2.1178021961719353,
                -1.4797676939467126,
                -1.3012688371397778,
                -1.399331657860527,
                -1.2955663700369597,
                1.1330264749033256
            ]
        },
        {
            "positions": [
                2.280975354460592,
                -1.48725884274224,
                -1.38173363863705,
                -1.4422198733700085,
                -1.3616816320377816,
                1.0998624112196995
            ]
        },
        {
            "positions": [
                2.157600450776205,
                -1.5000364026779767,
                -1.4308911886244546,
                -1.4783678449598383,
                -1.3023961698748032,
                1.2010610684755962
            ]
        },
        {
            "positions": [
                2.034225547091818,
                -1.5128139626137134,
                -1.4800487386118593,
                -1.514515816549668,
                -1.2431107077118249,
                1.302259725731493
            ]
        },
        {
            "positions": [
                1.9108506434074306,
                -1.52559152254945,
                -1.5292062885992639,
                -1.5506637881394978,
                -1.1838252455488463,
                1.4034583829873895
            ]
        },
        {
            "positions": [
                1.7874757397230434,
                -1.5383690824851868,
                -1.5783638385866685,
                -1.5868117597293274,
                -1.124539783385868,
                1.5046570402432862
            ]
        },
        {
            "positions": [
                1.6641008360386564,
                -1.5511466424209233,
                -1.6275213885740731,
                -1.6229597313191573,
                -1.0652543212228895,
                1.6058556974991829
            ]
        },
        {
            "positions": [
                1.540725932354269,
                -1.56392420235666,
                -1.6766789385614778,
                -1.6591077029089871,
                -1.0059688590599112,
                1.7070543547550794
            ]
        },
        {
            "positions": [
                1.417351028669882,
                -1.5767017622923967,
                -1.7258364885488824,
                -1.6952556744988168,
                -0.9466833968969328,
                1.8082530120109763
            ]
        },
        {
            "positions": [
                1.2939761249854946,
                -1.5894793222281334,
                -1.774994038536287,
                -1.7314036460886466,
                -0.8873979347339542,
                1.9094516692668728
            ]
        },
        {
            "positions": [
                1.1706012213011077,
                -1.60225688216387,
                -1.8241515885236916,
                -1.7675516176784765,
                -0.8281124725709759,
                2.0106503265227698
            ]
        },
        {
            "positions": [
                1.0472263176167205,
                -1.6150344420996068,
                -1.8733091385110963,
                -1.803699589268306,
                -0.7688270104079975,
                2.1118489837786663
            ]
        },
        {
            "positions": [
                0.9238514139323333,
                -1.6278120020353435,
                -1.9224666884985009,
                -1.839847560858136,
                -0.709541548245019,
                2.2130476410345628
            ]
        },
        {
            "positions": [
                0.8004765102479461,
                -1.6405895619710802,
                -1.9716242384859055,
                -1.8759955324479656,
                -0.6502560860820407,
                2.3142462982904597
            ]
        },
        {
            "positions": [
                0.6771016065635589,
                -1.653367121906817,
                -2.02078178847331,
                -1.9121435040377954,
                -0.5909706239190623,
                2.4154449555463566
            ]
        },
        {
            "positions": [
                0.5537267028791719,
                -1.6661446818425536,
                -2.0699393384607148,
                -1.948291475627625,
                -0.5316851617560839,
                2.5166436128022527
            ]
        },
        {
            "positions": [
                0.4303517991947845,
                -1.6789222417782903,
                -2.1190968884481194,
                -1.984439447217455,
                -0.47239969959310546,
                2.6178422700581496
            ]
        },
        {
            "positions": [
                0.3069768955103973,
                -1.691699801714027,
                -2.168254438435524,
                -2.0205874188072848,
                -0.413114237430127,
                2.7190409273140466
            ]
        },
        {
            "positions": [
                0.1836019918260101,
                -1.7044773616497635,
                -2.2174119884229286,
                -2.0567353903971144,
                -0.35382877526714873,
                2.8202395845699426
            ]
        },
        {
            "positions": [
                0.06022708814162314,
                -1.7172549215855002,
                -2.2665695384103333,
                -2.092883361986944,
                -0.29454331310417015,
                2.9214382418258396
            ]
        },
        {
            "positions": [
                -0.06314781554276383,
                -1.730032481521237,
                -2.315727088397738,
                -2.129031333576774,
                -0.23525785094119178,
                3.0226368990817365
            ]
        },
        {
            "positions": [
                -0.1865227192271514,
                -1.7428100414569736,
                -2.3648846383851425,
                -2.1651793051666037,
                -0.1759723887782133,
                3.123835556337633
            ]
        }
    ]
}