{
    "goal": {
        "global_pose": {
            "orientation": {
                "w": 0.7031023502349854,
                "x": -0.7110244035720825,
                "y": 0.007748599164187908,
                "z": 0.005598929710686207
            },
            "position": {
                "x": 0.11585023208521307,
                "y": 0.44412534475326537,
                "z": 0.3711530566215515
            }
        },
        "name": "move_to_auspresseinheit_A"
    },
    "id": "LBKPIECE_move_to_auspresseinheit_A_93",
    "joint_names": [
        "shoulder_pan_joint",
        "shoulder_lift_joint",
        "elbow_joint",
        "wrist_1_joint",
        "wrist_2_joint",
        "wrist_3_joint"
    ],
    "metrics": {
        "cart_traj_len": 0.7977022795272667,
        "distance_elbow_joint": 0.2485213413850471,
        "distance_shoulder_lift_joint": 0.5370675662270723,
        "distance_shoulder_pan_joint": 1.0472732343969104,
        "distance_wrist_1_joint": 0.5508800313814737,
        "distance_wrist_2_joint": 0.5112535655408419,
        "distance_wrist_3_joint": 1.2284353095430416,
        "smoothness": 0.9644052615227245,
        "time": 0.757193056,
        "traj_len": 2.03062331525923,
        "weighted_distance": 2.764495481002417
    },
    "planner": "LBKPIECE",
    "start": {
        "state": {
            "elbow_joint": 2.4225746994637096,
            "shoulder_lift_joint": -1.373653595662188,
            "shoulder_pan_joint": -0.3378633848294565,
            "wrist_1_joint": -1.0288595594406726,
            "wrist_2_joint": 1.2330228066703421,
            "wrist_3_joint": 3.189163495502006
        }
    },
    "waypoints": [
        {
            "positions": [
                -0.3378633848294565,
                -1.373653595662188,
                2.4225746994637096,
                -1.0288595594406726,
                1.2330228066703421,
                3.189163495502006
            ]
        },
        {
            "positions": [
                -0.27137356990294526,
                -1.4629662630283373,
                2.3996366884013267,
                -0.9687111399286117,
                1.1947474322408917,
                3.0843044756822433
            ]
        },
        {
            "positions": [
                -0.204883754976434,
                -1.5522789303944864,
                2.376698677338944,
                -0.9085627204165506,
                1.1564720578114411,
                2.9794454558624808
            ]
        },
        {
            "positions": [
                -0.13839394004992273,
                -1.6415915977606357,
                2.3537606662765613,
                -0.8484143009044897,
                1.1181966833819907,
                2.8745864360427182
            ]
        },
        {
            "positions": [
                -0.07190412512341149,
                -1.7309042651267847,
                2.3308226552141784,
                -0.7882658813924287,
                1.0799213089525403,
                2.769727416222956
            ]
        },
        {
            "positions": [
                -0.005414310196900196,
                -1.8202169324929343,
                2.3078846441517955,
                -0.7281174618803676,
                1.0416459345230897,
                2.6648683964031936
            ]
        },
        {
            "positions": [
                0.06107550472961107,
                -1.9095295998590833,
                2.2849466330894126,
                -0.6679690423683067,
                1.0033705600936393,
                2.560009376583431
            ]
        },
        {
            "positions": [
                0.19074237369717964,
                -1.9092912874530479,
                2.3071252880915627,
                -0.6299711395064851,
                0.9470502963008115,
                2.6798656147083246
            ]
        },
        {
            "positions": [
                0.32040924266474824,
                -1.9090529750470124,
                2.329303943093713,
                -0.5919732366446636,
                0.8907300325079837,
                2.7997218528332177
            ]
        },
        {
            "positions": [
                0.45007611163231676,
                -1.9088146626409772,
                2.3514825980958625,
                -0.5539753337828421,
                0.8344097687151559,
                2.9195780909581113
            ]
        },
        {
            "positions": [
                0.5797429805998854,
                -1.9085763502349418,
                2.3736612530980126,
                -0.5159774309210206,
                0.7780895049223281,
                3.0394343290830044
            ]
        },
        {
            "positions": [
                0.7094098495674539,
                -1.9083380378289063,
                2.3958399081001627,
                -0.477979528059199,
                0.7217692411295002,
                3.159290567207898
            ]
        }
    ]
}