{
    "goal": {
        "global_pose": {
            "orientation": {
                "w": -0.00223480608172531,
                "x": 0.0024358444001904467,
                "y": 0.7094548369677653,
                "z": -0.704743149386269
            },
            "position": {
                "x": 0.6205249238014221,
                "y": -0.6371506643295288,
                "z": 0.19426114857196808
            }
        },
        "name": "move_to_magneteinheit_B"
    },
    "id": "LBKPIECE_move_to_magneteinheit_B_9",
    "joint_names": [
        "shoulder_pan_joint",
        "shoulder_lift_joint",
        "elbow_joint",
        "wrist_1_joint",
        "wrist_2_joint",
        "wrist_3_joint"
    ],
    "metrics": {
        "cart_traj_len": 3.7960975823205767,
        "distance_elbow_joint": 4.440991844093734,
        "distance_shoulder_lift_joint": 0.7872151049301988,
        "distance_shoulder_pan_joint": 2.7272380747888225,
        "distance_wrist_1_joint": 2.364340712577834,
        "distance_wrist_2_joint": 2.222719003102685,
        "distance_wrist_3_joint": 6.2835187016350496,
        "smoothness": 0.36986575920783055,
        "time": 0.355466216,
        "traj_len": 4.338896569535662,
        "weighted_distance": 5.998343151244263
    },
    "planner": "LBKPIECE",
    "start": {
        "state": {
            "elbow_joint": 2.393587130804639,
            "shoulder_lift_joint": -1.9085141043513325,
            "shoulder_pan_joint": 0.7066247066698809,
            "wrist_1_joint": -0.4678290934590222,
            "wrist_2_joint": 0.7096259084215963,
            "wrist_3_joint": 3.147370379541726
        }
    },
    "waypoints": [
        {
            "positions": [
                0.7066247066698809,
                -1.9085141043513325,
                2.393587130804639,
                -0.4678290934590222,
                0.7096259084215963,
                3.147370379541726
            ]
        },
        {
            "positions": [
                0.6292321316476993,
                -1.9093771277529141,
                2.3653695336738276,
                -0.42898195961310615,
                0.6407046359944262,
                3.044189097710717
            ]
        },
        {
            "positions": [
                0.5518395566255178,
                -1.910240151154496,
                2.337151936543017,
                -0.39013482576719016,
                0.571783363567256,
                2.941007815879708
            ]
        },
        {
            "positions": [
                0.4744469816033362,
                -1.9111031745560776,
                2.3089343394122057,
                -0.3512876919212741,
                0.502862091140086,
                2.8378265340486992
            ]
        },
        {
            "positions": [
                0.39705440658115465,
                -1.9119661979576594,
                2.280716742281395,
                -0.3124405580753581,
                0.4339408187129158,
                2.7346452522176903
            ]
        },
        {
            "positions": [
                0.3196618315589731,
                -1.912829221359241,
                2.252499145150584,
                -0.2735934242294421,
                0.3650195462857457,
                2.6314639703866813
            ]
        },
        {
            "positions": [
                0.3722746865340056,
                -1.9087298156187054,
                2.147821724608755,
                -0.31902577239608265,
                0.3312600673026068,
                2.479005222341435
            ]
        },
        {
            "positions": [
                0.42488754150903807,
                -1.9046304098781697,
                2.0431443040669266,
                -0.3644581205627232,
                0.29750058831946796,
                2.3265464742961885
            ]
        },
        {
            "positions": [
                0.47750039648407056,
                -1.900531004137634,
                1.9384668835250978,
                -0.40989046872936374,
                0.2637411093363291,
                2.174087726250942
            ]
        },
        {
            "positions": [
                0.530113251459103,
                -1.8964315983970983,
                1.8337894629832692,
                -0.45532281689600423,
                0.22998163035319028,
                2.0216289782056958
            ]
        },
        {
            "positions": [
                0.5827261064341356,
                -1.8923321926565626,
                1.7291120424414403,
                -0.5007551650626447,
                0.19622215137005145,
                1.8691702301604494
            ]
        },
        {
            "positions": [
                0.635338961409168,
                -1.888232786916027,
                1.6244346218996117,
                -0.5461875132292853,
                0.1624626723869126,
                1.716711482115203
            ]
        },
        {
            "positions": [
                0.6879518163842004,
                -1.8841333811754912,
                1.5197572013577831,
                -0.5916198613959258,
                0.12870319340377376,
                1.5642527340699566
            ]
        },
        {
            "positions": [
                0.7405646713592329,
                -1.8800339754349555,
                1.4150797808159545,
                -0.6370522095625664,
                0.09494371442063487,
                1.4117939860247102
            ]
        },
        {
            "positions": [
                0.7931775263342655,
                -1.8759345696944196,
                1.310402360274126,
                -0.6824845577292069,
                0.06118423543749607,
                1.2593352379794638
            ]
        },
        {
            "positions": [
                0.845790381309298,
                -1.871835163953884,
                1.205724939732297,
                -0.7279169058958475,
                0.027424756454357213,
                1.1068764899342174
            ]
        },
        {
            "positions": [
                0.8984032362843304,
                -1.8677357582133483,
                1.1010475191904685,
                -0.773349254062488,
                -0.0063347225287816444,
                0.954417741888971
            ]
        },
        {
            "positions": [
                0.9510160912593629,
                -1.8636363524728126,
                0.9963700986486397,
                -0.8187816022291285,
                -0.0400942015119205,
                0.8019589938437244
            ]
        },
        {
            "positions": [
                1.0036289462343952,
                -1.8595369467322769,
                0.8916926781068113,
                -0.864213950395769,
                -0.0738536804950593,
                0.6495002457984784
            ]
        },
        {
            "positions": [
                1.0562418012094277,
                -1.8554375409917412,
                0.7870152575649825,
                -0.9096462985624095,
                -0.10761315947819816,
                0.4970414977532318
            ]
        },
        {
            "positions": [
                1.1088546561844603,
                -1.8513381352512055,
                0.6823378370231539,
                -0.9550786467290501,
                -0.14137263846133702,
                0.3445827497079854
            ]
        },
        {
            "positions": [
                1.1614675111594928,
                -1.8472387295106698,
                0.577660416481325,
                -1.0005109948956905,
                -0.17513211744447593,
                0.19212400166273902
            ]
        },
        {
            "positions": [
                1.2140803661345254,
                -1.8431393237701341,
                0.47298299593949644,
                -1.0459433430623313,
                -0.20889159642761473,
                0.039665253617492624
            ]
        },
        {
            "positions": [
                1.2666932211095578,
                -1.8390399180295984,
                0.36830557539766784,
                -1.0913756912289716,
                -0.24265107541075354,
                -0.11279349442775377
            ]
        },
        {
            "positions": [
                1.3193060760845903,
                -1.8349405122890627,
                0.263628154855839,
                -1.1368080393956124,
                -0.27641055439389245,
                -0.26525224247300017
            ]
        },
        {
            "positions": [
                1.3719189310596227,
                -1.830841106548527,
                0.1589507343140104,
                -1.1822403875622527,
                -0.31017003337703125,
                -0.41771099051824656
            ]
        },
        {
            "positions": [
                1.4245317860346551,
                -1.8267417008079914,
                0.05427331377218181,
                -1.2276727357288935,
                -0.34392951236017016,
                -0.570169738563493
            ]
        },
        {
            "positions": [
                1.4771446410096876,
                -1.8226422950674557,
                -0.050404106769646795,
                -1.2731050838955338,
                -0.37768899134330897,
                -0.7226284866087394
            ]
        },
        {
            "positions": [
                1.5297574959847204,
                -1.81854288932692,
                -0.15508152731147584,
                -1.3185374320621746,
                -0.4114484703264479,
                -0.8750872346539857
            ]
        },
        {
            "positions": [
                1.5823703509597529,
                -1.8144434835863843,
                -0.25975894785330444,
                -1.3639697802288149,
                -0.4452079493095867,
                -1.0275459826992326
            ]
        },
        {
            "positions": [
                1.6349832059347853,
                -1.8103440778458486,
                -0.36443636839513305,
                -1.4094021283954556,
                -0.4789674282927256,
                -1.180004730744479
            ]
        },
        {
            "positions": [
                1.6875960609098177,
                -1.8062446721053127,
                -0.4691137889369612,
                -1.454834476562096,
                -0.5127269072758642,
                -1.3324634787897245
            ]
        },
        {
            "positions": [
                1.7402089158848502,
                -1.802145266364777,
                -0.5737912094787903,
                -1.5002668247287363,
                -0.5464863862590033,
                -1.4849222268349713
            ]
        },
        {
            "positions": [
                1.7928217708598826,
                -1.7980458606242413,
                -0.6784686300206189,
                -1.545699172895377,
                -0.5802458652421421,
                -1.6373809748802177
            ]
        },
        {
            "positions": [
                1.845434625834915,
                -1.7939464548837056,
                -0.7831460505624475,
                -1.5911315210620174,
                -0.6140053442252809,
                -1.7898397229254641
            ]
        },
        {
            "positions": [
                1.8980474808099475,
                -1.78984704914317,
                -0.8878234711042761,
                -1.6365638692286582,
                -0.6477648232084197,
                -1.9422984709707105
            ]
        },
        {
            "positions": [
                1.9506603357849799,
                -1.7857476434026343,
                -0.9925008916461047,
                -1.6819962173952985,
                -0.6815243021915585,
                -2.094757219015957
            ]
        },
        {
            "positions": [
                2.0032731907600123,
                -1.7816482376620986,
                -1.0971783121879337,
                -1.7274285655619392,
                -0.7152837811746975,
                -2.2472159670612033
            ]
        },
        {
            "positions": [
                2.055886045735045,
                -1.7775488319215629,
                -1.2018557327297623,
                -1.7728609137285796,
                -0.7490432601578363,
                -2.3996747151064497
            ]
        },
        {
            "positions": [
                2.1084989007100776,
                -1.7734494261810272,
                -1.306533153271591,
                -1.8182932618952201,
                -0.7828027391409752,
                -2.552133463151696
            ]
        },
        {
            "positions": [
                2.181127297623384,
                -1.7502897236649004,
                -1.4085450863135807,
                -1.8764827682671719,
                -0.8167453530235282,
                -2.6363209310008524
            ]
        },
        {
            "positions": [
                2.2537556945366912,
                -1.7271300211487737,
                -1.5105570193555702,
                -1.9346722746391234,
                -0.8506879669060813,
                -2.7205083988500087
            ]
        },
        {
            "positions": [
                2.326384091449998,
                -1.7039703186326467,
                -1.61256895239756,
                -1.9928617810110751,
                -0.8846305807886343,
                -2.8046958666991646
            ]
        },
        {
            "positions": [
                2.399012488363305,
                -1.68081061611652,
                -1.7145808854395495,
                -2.051051287383027,
                -0.9185731946711874,
                -2.888883334548321
            ]
        },
        {
            "positions": [
                2.4716408852766114,
                -1.6576509136003932,
                -1.8165928184815392,
                -2.1092407937549784,
                -0.9525158085537404,
                -2.9730708023974772
            ]
        },
        {
            "positions": [
                2.5703060397894584,
                -1.7485565048549288,
                -1.850871898575985,
                -2.108059248801171,
                -0.9945385196101743,
                -3.034471793500739
            ]
        },
        {
            "positions": [
                2.588232238078944,
                -1.83591972263671,
                -1.8115653356333627,
                -2.1747144745749534,
                -0.8908276045959911,
                -3.0548070992192558
            ]
        },
        {
            "positions": [
                2.60615843636843,
                -1.9232829404184915,
                -1.7722587726907404,
                -2.241369700348735,
                -0.7871166895818078,
                -3.0751424049377727
            ]
        },
        {
            "positions": [
                2.6240846346579163,
                -2.010646158200273,
                -1.7329522097481183,
                -2.3080249261225174,
                -0.6834057745676247,
                -3.0954777106562896
            ]
        },
        {
            "positions": [
                2.642010832947402,
                -2.098009375982054,
                -1.693645646805496,
                -2.374680151896299,
                -0.5796948595534415,
                -3.1158130163748066
            ]
        },
        {
            "positions": [
                2.659937031236888,
                -2.1853725937638355,
                -1.6543390838628735,
                -2.4413353776700815,
                -0.47598394453925824,
                -3.1361483220933235
            ]
        }
    ]
}