{
    "goal": {
        "global_pose": {
            "orientation": {
                "w": 0.7031023480610252,
                "x": -0.7110244013736278,
                "y": 0.0077485991402295624,
                "z": 0.005598929693374583
            },
            "position": {
                "x": -0.8841497679147869,
                "y": 0.44412534475326537,
                "z": 0.3711530566215515
            }
        },
        "name": "move_to_auspresseinheit_D"
    },
    "id": "LBKPIECE_move_to_auspresseinheit_D_112",
    "joint_names": [
        "shoulder_pan_joint",
        "shoulder_lift_joint",
        "elbow_joint",
        "wrist_1_joint",
        "wrist_2_joint",
        "wrist_3_joint"
    ],
    "metrics": {
        "cart_traj_len": 0.34374170033458257,
        "distance_elbow_joint": 0.6340624377606243,
        "distance_shoulder_lift_joint": 0.11851484428028147,
        "distance_shoulder_pan_joint": 0.13432319771773468,
        "distance_wrist_1_joint": 0.5077264552994718,
        "distance_wrist_2_joint": 1.4468214003445767,
        "distance_wrist_3_joint": 0.014594278007013628,
        "smoothness": 1.5789838364729484e-15,
        "time": 0.183215911,
        "traj_len": 1.6899830216335614,
        "weighted_distance": 2.1999497778512533
    },
    "planner": "LBKPIECE",
    "start": {
        "state": {
            "elbow_joint": -1.8275484843655228,
            "shoulder_lift_joint": -2.1267897864000416,
            "shoulder_pan_joint": -0.035127520176001514,
            "wrist_1_joint": -2.3477863256791385,
            "wrist_2_joint": -1.605890476484521,
            "wrist_3_joint": -3.0880375317375353
        }
    },
    "waypoints": [
        {
            "positions": [
                -0.035127520176001514,
                -2.1267897864000416,
                -1.8275484843655228,
                -2.3477863256791385,
                -1.605890476484521,
                -3.0880375317375353
            ]
        },
        {
            "positions": [
                -0.05191791989071835,
                -2.1416041419350766,
                -1.7482906796454447,
                -2.4112521325915726,
                -1.4250378014414489,
                -3.089861816488412
            ]
        },
        {
            "positions": [
                -0.06870831960543519,
                -2.1564184974701117,
                -1.6690328749253667,
                -2.474717939504006,
                -1.2441851263983768,
                -3.0916861012392887
            ]
        },
        {
            "positions": [
                -0.08549871932015202,
                -2.1712328530051472,
                -1.5897750702052886,
                -2.5381837464164403,
                -1.0633324513553046,
                -3.0935103859901654
            ]
        },
        {
            "positions": [
                -0.10228911903486886,
                -2.1860472085401823,
                -1.5105172654852106,
                -2.6016495533288744,
                -0.8824797763122326,
                -3.095334670741042
            ]
        },
        {
            "positions": [
                -0.1190795187495857,
                -2.2008615640752174,
                -1.4312594607651326,
                -2.6651153602413085,
                -0.7016271012691605,
                -3.0971589554919188
            ]
        },
        {
            "positions": [
                -0.13586991846430252,
                -2.215675919610253,
                -1.3520016560450545,
                -2.7285811671537425,
                -0.5207744262260885,
                -3.0989832402427955
            ]
        },
        {
            "positions": [
                -0.15266031817901937,
                -2.230490275145288,
                -1.2727438513249765,
                -2.792046974066176,
                -0.3399217511830164,
                -3.100807524993672
            ]
        },
        {
            "positions": [
                -0.1694507178937362,
                -2.245304630680323,
                -1.1934860466048984,
                -2.8555127809786103,
                -0.15906907613994417,
                -3.102631809744549
            ]
        }
    ]
}