{
    "goal": {
        "global_pose": {
            "orientation": {
                "w": 0.5084816217422485,
                "x": -0.49083608388900757,
                "y": 0.5182115435600281,
                "z": -0.4816462993621826
            },
            "position": {
                "x": 0.5540239810943604,
                "y": 0.030875300988554955,
                "z": 0.16403168439865112
            }
        },
        "name": "move_to_storage_A"
    },
    "id": "LBKPIECE_move_to_storage_A_52",
    "joint_names": [
        "shoulder_pan_joint",
        "shoulder_lift_joint",
        "elbow_joint",
        "wrist_1_joint",
        "wrist_2_joint",
        "wrist_3_joint"
    ],
    "metrics": {
        "cart_traj_len": 0.35347885005233853,
        "distance_elbow_joint": 0.44725241863065457,
        "distance_shoulder_lift_joint": 0.23312532734448665,
        "distance_shoulder_pan_joint": 0.46142197024846093,
        "distance_wrist_1_joint": 0.23567988478572888,
        "distance_wrist_2_joint": 1.1018886159185013,
        "distance_wrist_3_joint": 0.08677182777022274,
        "smoothness": 8.881784197001252e-16,
        "time": 0.509213423,
        "traj_len": 1.60191761482857,
        "weighted_distance": 2.019220691490341
    },
    "planner": "LBKPIECE",
    "start": {
        "state": {
            "elbow_joint": 1.971548880431181,
            "shoulder_lift_joint": -1.1394869514688781,
            "shoulder_pan_joint": 0.12281150262730567,
            "wrist_1_joint": -0.7804693444481463,
            "wrist_2_joint": 0.12958644648617612,
            "wrist_3_joint": 3.0906942077768043
        }
    },
    "waypoints": [
        {
            "positions": [
                0.12281150262730567,
                -1.1394869514688781,
                1.971548880431181,
                -0.7804693444481463,
                0.12958644648617612,
                3.0906942077768043
            ]
        },
        {
            "positions": [
                0.05689407830609697,
                -1.1727905696609477,
                2.035442083092703,
                -0.8141378994175361,
                0.28699910590310485,
                3.1030901831725504
            ]
        },
        {
            "positions": [
                -0.009023346015111733,
                -1.2060941878530171,
                2.099335285754225,
                -0.8478064543869259,
                0.4444117653200336,
                3.1154861585682965
            ]
        },
        {
            "positions": [
                -0.07494077033632043,
                -1.2393978060450868,
                2.163228488415747,
                -0.8814750093563158,
                0.6018244247369624,
                3.1278821339640426
            ]
        },
        {
            "positions": [
                -0.14085819465752913,
                -1.2727014242371562,
                2.227121691077269,
                -0.9151435643257056,
                0.7592370841538911,
                3.1402781093597887
            ]
        },
        {
            "positions": [
                -0.20677561897873786,
                -1.3060050424292258,
                2.2910148937387915,
                -0.9488121192950956,
                0.91664974357082,
                3.152674084755535
            ]
        },
        {
            "positions": [
                -0.27269304329994654,
                -1.3393086606212952,
                2.3549080964003135,
                -0.9824806742644854,
                1.0740624029877486,
                3.165070060151281
            ]
        },
        {
            "positions": [
                -0.33861046762115526,
                -1.3726122788133648,
                2.4188012990618355,
                -1.0161492292338752,
                1.2314750624046773,
                3.177466035547027
            ]
        }
    ]
}