{
    "goal": {
        "global_pose": {
            "orientation": {
                "w": -0.4816463035849501,
                "x": 0.5182115481033762,
                "y": 0.4908360881923453,
                "z": -0.5084816262002911
            },
            "position": {
                "x": -0.8240239810943604,
                "y": -0.300875300988555,
                "z": 0.16403168439865112
            }
        },
        "name": "move_to_storage_C"
    },
    "id": "LBKPIECE_move_to_storage_C_127",
    "joint_names": [
        "shoulder_pan_joint",
        "shoulder_lift_joint",
        "elbow_joint",
        "wrist_1_joint",
        "wrist_2_joint",
        "wrist_3_joint"
    ],
    "metrics": {
        "cart_traj_len": 0.5776154899066257,
        "distance_elbow_joint": 0.25774514456716546,
        "distance_shoulder_lift_joint": 0.19011182584056063,
        "distance_shoulder_pan_joint": 0.49569752169401315,
        "distance_wrist_1_joint": 0.07220293238628073,
        "distance_wrist_2_joint": 1.0652043391214547,
        "distance_wrist_3_joint": 0.05521067737414853,
        "smoothness": 5.075305295617109e-16,
        "time": 0.362443336,
        "traj_len": 1.4615650656004417,
        "weighted_distance": 1.8395654560900125
    },
    "planner": "LBKPIECE",
    "start": {
        "state": {
            "elbow_joint": 2.0108683149792914,
            "shoulder_lift_joint": -1.1634956873317392,
            "shoulder_pan_joint": -2.4736205022346,
            "wrist_1_joint": -0.8367026793690192,
            "wrist_2_joint": 0.6746043897045053,
            "wrist_3_joint": 3.133522094754363
        }
    },
    "waypoints": [
        {
            "positions": [
                -2.4736205022346,
                -1.1634956873317392,
                2.0108683149792914,
                -0.8367026793690192,
                0.6746043897045053,
                3.133522094754363
            ]
        },
        {
            "positions": [
                -2.5562367558502688,
                -1.131810383024979,
                1.9679107908847637,
                -0.8246688573046391,
                0.8521384462247478,
                3.1427238743167214
            ]
        },
        {
            "positions": [
                -2.638853009465938,
                -1.100125078718219,
                1.9249532667902363,
                -0.8126350352402589,
                1.0296725027449902,
                3.151925653879079
            ]
        },
        {
            "positions": [
                -2.7214692630816066,
                -1.0684397744114589,
                1.8819957426957088,
                -0.8006012131758788,
                1.2072065592652326,
                3.1611274334414374
            ]
        },
        {
            "positions": [
                -2.8040855166972753,
                -1.036754470104699,
                1.839038218601181,
                -0.7885673911114988,
                1.3847406157854751,
                3.1703292130037957
            ]
        },
        {
            "positions": [
                -2.8867017703129445,
                -1.0050691657979387,
                1.7960806945066534,
                -0.7765335690471186,
                1.5622746723057177,
                3.1795309925661535
            ]
        },
        {
            "positions": [
                -2.969318023928613,
                -0.9733838614911786,
                1.753123170412126,
                -0.7644997469827385,
                1.73980872882596,
                3.1887327721285117
            ]
        }
    ]
}