{
    "goal": {
        "global_pose": {
            "orientation": {
                "w": 0.7047431468963623,
                "x": -0.7094548344612122,
                "y": 0.0024358443915843964,
                "z": -0.0022348060738295317
            },
            "position": {
                "x": 0.6094750761985779,
                "y": 0.3671506643295288,
                "z": 0.19426114857196808
            }
        },
        "name": "move_to_magneteinheit_A"
    },
    "id": "LBKPIECE_move_to_magneteinheit_A_64",
    "joint_names": [
        "shoulder_pan_joint",
        "shoulder_lift_joint",
        "elbow_joint",
        "wrist_1_joint",
        "wrist_2_joint",
        "wrist_3_joint"
    ],
    "metrics": {
        "cart_traj_len": 1.9790919696338616,
        "distance_elbow_joint": 3.594117120898072,
        "distance_shoulder_lift_joint": 0.7965311660574156,
        "distance_shoulder_pan_joint": 1.2423461024756859,
        "distance_wrist_1_joint": 1.1173805309858942,
        "distance_wrist_2_joint": 1.442571360471194,
        "distance_wrist_3_joint": 1.924125368292397,
        "smoothness": 4.934324583682563e-16,
        "time": 0.440481079,
        "traj_len": 3.1807344512204505,
        "weighted_distance": 4.065129060340217
    },
    "planner": "LBKPIECE",
    "start": {
        "state": {
            "elbow_joint": -1.5739458827952972,
            "shoulder_lift_joint": 0.006533473998580023,
            "shoulder_pan_joint": -1.1188671628667068,
            "wrist_1_joint": 3.138208179676308,
            "wrist_2_joint": -1.5706037135050406,
            "wrist_3_joint": -2.0226958329764257
        }
    },
    "waypoints": [
        {
            "positions": [
                -1.1188671628667068,
                0.006533473998580023,
                -1.5739458827952972,
                3.138208179676308,
                -1.5706037135050406,
                -2.0226958329764257
            ]
        },
        {
            "positions": [
                -1.0710846204637958,
                -0.024102340080551347,
                -1.4357106089146021,
                3.09523200540762,
                -1.515120199640764,
                -1.9486910111190259
            ]
        },
        {
            "positions": [
                -1.0233020780608848,
                -0.054738154159682716,
                -1.2974753350339072,
                3.0522558311389316,
                -1.459636685776487,
                -1.874686189261626
            ]
        },
        {
            "positions": [
                -0.9755195356579738,
                -0.08537396823881409,
                -1.1592400611532119,
                3.0092796568702433,
                -1.4041531719122105,
                -1.8006813674042261
            ]
        },
        {
            "positions": [
                -0.9277369932550629,
                -0.11600978231794545,
                -1.021004787272517,
                2.966303482601555,
                -1.3486696580479338,
                -1.7266765455468263
            ]
        },
        {
            "positions": [
                -0.8799544508521518,
                -0.1466455963970768,
                -0.8827695133918219,
                2.923327308332867,
                -1.293186144183657,
                -1.6526717236894264
            ]
        },
        {
            "positions": [
                -0.8321719084492408,
                -0.17728141047620818,
                -0.7445342395111267,
                2.8803511340641785,
                -1.2377026303193803,
                -1.5786669018320265
            ]
        },
        {
            "positions": [
                -0.7843893660463299,
                -0.20791722455533954,
                -0.6062989656304318,
                2.8373749597954907,
                -1.1822191164551037,
                -1.5046620799746266
            ]
        },
        {
            "positions": [
                -0.7366068236434189,
                -0.23855303863447092,
                -0.4680636917497367,
                2.7943987855268024,
                -1.126735602590827,
                -1.4306572581172265
            ]
        },
        {
            "positions": [
                -0.6888242812405079,
                -0.2691888527136023,
                -0.3298284178690416,
                2.751422611258114,
                -1.0712520887265504,
                -1.356652436259827
            ]
        },
        {
            "positions": [
                -0.6410417388375969,
                -0.2998246667927337,
                -0.19159314398834648,
                2.708446436989426,
                -1.0157685748622736,
                -1.2826476144024268
            ]
        },
        {
            "positions": [
                -0.5932591964346859,
                -0.330460480871865,
                -0.053357870107651584,
                2.6654702627207376,
                -0.9602850609979969,
                -1.208642792545027
            ]
        },
        {
            "positions": [
                -0.5454766540317748,
                -0.36109629495099643,
                0.08487740377304376,
                2.6224940884520493,
                -0.9048015471337202,
                -1.134637970687627
            ]
        },
        {
            "positions": [
                -0.4976941116288639,
                -0.3917321090301278,
                0.22311267765373866,
                2.579517914183361,
                -0.8493180332694436,
                -1.0606331488302272
            ]
        },
        {
            "positions": [
                -0.449911569225953,
                -0.42236792310925914,
                0.36134795153443355,
                2.536541739914673,
                -0.7938345194051669,
                -0.9866283269728273
            ]
        },
        {
            "positions": [
                -0.40212902682304197,
                -0.4530037371883905,
                0.49958322541512845,
                2.4935655656459845,
                -0.7383510055408903,
                -0.9126235051154274
            ]
        },
        {
            "positions": [
                -0.35434648442013084,
                -0.4836395512675219,
                0.6378184992958238,
                2.4505893913772963,
                -0.6828674916766134,
                -0.8386186832580274
            ]
        },
        {
            "positions": [
                -0.3065639420172199,
                -0.5142753653466532,
                0.7760537731765191,
                2.407613217108608,
                -0.6273839778123368,
                -0.7646138614006277
            ]
        },
        {
            "positions": [
                -0.2587813996143089,
                -0.5449111794257846,
                0.914289047057214,
                2.36463704283992,
                -0.5719004639480602,
                -0.6906090395432278
            ]
        },
        {
            "positions": [
                -0.210998857211398,
                -0.5755469935049159,
                1.052524320937909,
                2.3216608685712314,
                -0.5164169500837834,
                -0.616604217685828
            ]
        },
        {
            "positions": [
                -0.16321631480848686,
                -0.6061828075840473,
                1.1907595948186043,
                2.2786846943025436,
                -0.46093343621950655,
                -0.5425993958284279
            ]
        },
        {
            "positions": [
                -0.11543377240557584,
                -0.6368186216631787,
                1.3289948686992992,
                2.235708520033855,
                -0.4054499223552299,
                -0.468594573971028
            ]
        },
        {
            "positions": [
                -0.06765123000266504,
                -0.66745443574231,
                1.467230142579994,
                2.192732345765167,
                -0.3499664084909533,
                -0.3945897521136281
            ]
        },
        {
            "positions": [
                -0.01986868759975402,
                -0.6980902498214414,
                1.6054654164606894,
                2.149756171496479,
                -0.29448289462667665,
                -0.3205849302562285
            ]
        },
        {
            "positions": [
                0.027913854803157223,
                -0.7287260639005728,
                1.7437006903413848,
                2.1067799972277905,
                -0.2389993807623998,
                -0.24658010839882838
            ]
        },
        {
            "positions": [
                0.07569639720606802,
                -0.7593618779797042,
                1.8819359642220796,
                2.0638038229591023,
                -0.18351586689812316,
                -0.1725752865414285
            ]
        },
        {
            "positions": [
                0.12347893960897902,
                -0.7899976920588355,
                2.0201712381027743,
                2.020827648690414,
                -0.12803235303384652,
                -0.09857046468402875
            ]
        }
    ]
}