{
    "goal": {
        "global_pose": {
            "orientation": {
                "w": 0.005598929693374612,
                "x": 0.007748599140229565,
                "y": 0.7110244013736278,
                "z": -0.7031023480610252
            },
            "position": {
                "x": -0.8858502320852131,
                "y": -0.7141253447532654,
                "z": 0.3711530566215515
            }
        },
        "name": "move_to_auspresseinheit_C"
    },
    "id": "LBKPIECE_move_to_auspresseinheit_C_18",
    "joint_names": [
        "shoulder_pan_joint",
        "shoulder_lift_joint",
        "elbow_joint",
        "wrist_1_joint",
        "wrist_2_joint",
        "wrist_3_joint"
    ],
    "metrics": {
        "cart_traj_len": 0.4939402612912333,
        "distance_elbow_joint": 1.0121630493872689,
        "distance_shoulder_lift_joint": 0.33045813425940784,
        "distance_shoulder_pan_joint": 0.2570175918021831,
        "distance_wrist_1_joint": 0.7105128179675935,
        "distance_wrist_2_joint": 1.3071428295873693,
        "distance_wrist_3_joint": 0.08205049234379169,
        "smoothness": 3.2297397080004555e-16,
        "time": 0.509420046,
        "traj_len": 1.923368117482354,
        "weighted_distance": 2.42509825524455
    },
    "planner": "LBKPIECE",
    "start": {
        "state": {
            "elbow_joint": 1.7527959577730765,
            "shoulder_lift_joint": -0.9740617694224828,
            "shoulder_pan_joint": -2.967991417825869,
            "wrist_1_joint": -0.7595177689779385,
            "wrist_2_joint": 1.7443932448376545,
            "wrist_3_joint": 3.1991315425061013
        }
    },
    "waypoints": [
        {
            "positions": [
                -2.967991417825869,
                -0.9740617694224828,
                1.7527959577730765,
                -0.7595177689779385,
                1.7443932448376545,
                3.1991315425061013
            ]
        },
        {
            "positions": [
                -2.9422896586456506,
                -0.941015955996542,
                1.6515796528343496,
                -0.6884664871811792,
                1.6136789618789176,
                3.1909264932717223
            ]
        },
        {
            "positions": [
                -2.9165878994654326,
                -0.9079701425706013,
                1.5503633478956227,
                -0.6174152053844199,
                1.4829646789201805,
                3.182721444037343
            ]
        },
        {
            "positions": [
                -2.890886140285214,
                -0.8749243291446605,
                1.4491470429568958,
                -0.5463639235876605,
                1.3522503959614438,
                3.1745163948029638
            ]
        },
        {
            "positions": [
                -2.8651843811049957,
                -0.8418785157187196,
                1.3479307380181689,
                -0.47531264179090116,
                1.2215361130027067,
                3.1663113455685847
            ]
        },
        {
            "positions": [
                -2.8394826219247777,
                -0.8088327022927788,
                1.246714433079442,
                -0.4042613599941418,
                1.0908218300439698,
                3.1581062963342053
            ]
        },
        {
            "positions": [
                -2.8137808627445593,
                -0.7757868888668381,
                1.1454981281407153,
                -0.33321007819738246,
                0.9601075470852329,
                3.149901247099826
            ]
        },
        {
            "positions": [
                -2.788079103564341,
                -0.7427410754408973,
                1.0442818232019884,
                -0.2621587964006232,
                0.829393264126496,
                3.141696197865447
            ]
        },
        {
            "positions": [
                -2.7623773443841224,
                -0.7096952620149566,
                0.9430655182632613,
                -0.19110751460386377,
                0.698678981167759,
                3.133491148631068
            ]
        },
        {
            "positions": [
                -2.7366755852039044,
                -0.6766494485890158,
                0.8418492133245346,
                -0.12005623280710442,
                0.5679646982090221,
                3.1252860993966887
            ]
        },
        {
            "positions": [
                -2.710973826023686,
                -0.643603635163075,
                0.7406329083858076,
                -0.049004951010345084,
                0.4372504152502851,
                3.1170810501623096
            ]
        }
    ]
}