{
    "goal": {
        "global_pose": {
            "orientation": {
                "w": -0.00223480608172531,
                "x": 0.0024358444001904467,
                "y": 0.7094548369677653,
                "z": -0.704743149386269
            },
            "position": {
                "x": -0.37947507619857795,
                "y": -0.6371506643295288,
                "z": 0.19426114857196808
            }
        },
        "name": "move_to_magneteinheit_C"
    },
    "id": "LBKPIECE_move_to_magneteinheit_C_57",
    "joint_names": [
        "shoulder_pan_joint",
        "shoulder_lift_joint",
        "elbow_joint",
        "wrist_1_joint",
        "wrist_2_joint",
        "wrist_3_joint"
    ],
    "metrics": {
        "cart_traj_len": 1.9277268774648808,
        "distance_elbow_joint": 1.173334448740577,
        "distance_shoulder_lift_joint": 0.8465303815081053,
        "distance_shoulder_pan_joint": 1.91457739462975,
        "distance_wrist_1_joint": 2.0972674363131287,
        "distance_wrist_2_joint": 1.147161999897739,
        "distance_wrist_3_joint": 2.7334382740366454,
        "smoothness": 0.5602444756036352,
        "time": 0.26384789399999997,
        "traj_len": 3.148382113900081,
        "weighted_distance": 4.315508767157136
    },
    "planner": "LBKPIECE",
    "start": {
        "state": {
            "elbow_joint": 1.9565354006593851,
            "shoulder_lift_joint": -1.4165861576512813,
            "shoulder_pan_joint": -1.6717766223278752,
            "wrist_1_joint": -0.528663328821883,
            "wrist_2_joint": 1.472756589259273,
            "wrist_3_joint": 3.159348288315503
        }
    },
    "waypoints": [
        {
            "positions": [
                -1.6717766223278752,
                -1.4165861576512813,
                1.9565354006593851,
                -0.528663328821883,
                1.472756589259273,
                3.159348288315503
            ]
        },
        {
            "positions": [
                -1.6017550687548925,
                -1.393890474046745,
                1.9270021175837646,
                -0.44450408564947674,
                1.374624038023646,
                3.093233402444597
            ]
        },
        {
            "positions": [
                -1.5317335151819098,
                -1.3711947904422088,
                1.897468834508144,
                -0.36034484247707044,
                1.276491486788019,
                3.027118516573691
            ]
        },
        {
            "positions": [
                -1.461711961608927,
                -1.3484991068376724,
                1.8679355514325233,
                -0.2761855993046642,
                1.178358935552392,
                2.961003630702785
            ]
        },
        {
            "positions": [
                -1.3916904080359442,
                -1.3258034232331362,
                1.8384022683569028,
                -0.19202635613225788,
                1.0802263843167648,
                2.894888744831879
            ]
        },
        {
            "positions": [
                -1.3216688544629616,
                -1.3031077396286,
                1.8088689852812823,
                -0.10786711295985162,
                0.9820938330811378,
                2.828773858960973
            ]
        },
        {
            "positions": [
                -1.2993841038657694,
                -1.3007814452612547,
                1.7399226319387533,
                -0.06971219026074627,
                0.9043625566607294,
                2.6971251928592377
            ]
        },
        {
            "positions": [
                -1.2770993532685773,
                -1.2984551508939097,
                1.6709762785962243,
                -0.031557267561640914,
                0.826631280240321,
                2.565476526757502
            ]
        },
        {
            "positions": [
                -1.254814602671385,
                -1.2961288565265645,
                1.6020299252536954,
                0.00659765513746445,
                0.7489000038199125,
                2.433827860655766
            ]
        },
        {
            "positions": [
                -1.2325298520741927,
                -1.2938025621592193,
                1.5330835719111664,
                0.04475257783656979,
                0.671168727399504,
                2.302179194554031
            ]
        },
        {
            "positions": [
                -1.2102451014770006,
                -1.2914762677918743,
                1.4641372185686374,
                0.08290750053567518,
                0.5934374509790955,
                2.1705305284522955
            ]
        },
        {
            "positions": [
                -1.1879603508798084,
                -1.289149973424529,
                1.3951908652261085,
                0.12106242323478053,
                0.5157061745586871,
                2.03888186235056
            ]
        },
        {
            "positions": [
                -1.3650031779233256,
                -1.3386116192961375,
                1.4199194807067874,
                0.1634844751342594,
                0.5305530551757885,
                1.9943689038540733
            ]
        },
        {
            "positions": [
                -1.5420460049668425,
                -1.3880732651677457,
                1.4446480961874666,
                0.20590652703373824,
                0.5453999357928899,
                1.949855945357587
            ]
        },
        {
            "positions": [
                -1.7190888320103594,
                -1.437534911039354,
                1.4693767116681458,
                0.2483285789332171,
                0.5602468164099914,
                1.9053429868611005
            ]
        },
        {
            "positions": [
                -1.8961316590538766,
                -1.4869965569109624,
                1.4941053271488247,
                0.2907506308326959,
                0.5750936970270929,
                1.860830028364614
            ]
        },
        {
            "positions": [
                -2.0731744860973937,
                -1.5364582027825706,
                1.5188339426295037,
                0.3331726827321748,
                0.5899405776441943,
                1.8163170698681277
            ]
        },
        {
            "positions": [
                -2.2502173131409107,
                -1.585919848654179,
                1.5435625581101828,
                0.3755947346316537,
                0.6047874582612958,
                1.7718041113716412
            ]
        },
        {
            "positions": [
                -2.348684526831892,
                -1.5788121878370915,
                1.6197927090376247,
                0.3238008870139592,
                0.634195290714648,
                1.8929275382437418
            ]
        },
        {
            "positions": [
                -2.4471517405228727,
                -1.5717045270200038,
                1.6960228599650664,
                0.2720070393962647,
                0.6636031231680002,
                2.0140509651158425
            ]
        },
        {
            "positions": [
                -2.545618954213854,
                -1.5645968662029164,
                1.7722530108925083,
                0.22021319177857013,
                0.6930109556213524,
                2.135174391987943
            ]
        },
        {
            "positions": [
                -2.5351757370927626,
                -1.5073109605457107,
                1.805814120555494,
                0.07198064463478315,
                0.6911814121735685,
                2.275534937198869
            ]
        },
        {
            "positions": [
                -2.5247325199716717,
                -1.4500250548885047,
                1.8393752302184798,
                -0.07625190250900382,
                0.6893518687257846,
                2.415895482409795
            ]
        },
        {
            "positions": [
                -2.5142893028505804,
                -1.392739149231299,
                1.8729363398814656,
                -0.2244844496527908,
                0.6875223252780007,
                2.556256027620721
            ]
        },
        {
            "positions": [
                -2.5038460857294895,
                -1.3354532435740931,
                1.9064974495444513,
                -0.37271699679657777,
                0.6856927818302168,
                2.6966165728316467
            ]
        },
        {
            "positions": [
                -2.493402868608398,
                -1.2781673379168874,
                1.9400585592074373,
                -0.5209495439403649,
                0.6838632383824329,
                2.8369771180425727
            ]
        },
        {
            "positions": [
                -2.4829596514873074,
                -1.2208814322596817,
                1.973619668870423,
                -0.6691820910841517,
                0.6820336949346489,
                2.9773376632534987
            ]
        },
        {
            "positions": [
                -2.472516434366216,
                -1.1635955266024758,
                2.007180778533409,
                -0.8174146382279387,
                0.6802041514868651,
                3.1176982084644247
            ]
        }
    ]
}