{
    "goal": {
        "global_pose": {
            "orientation": {
                "w": -0.4816463035849501,
                "x": 0.5182115481033762,
                "y": 0.4908360881923453,
                "z": -0.5084816262002911
            },
            "position": {
                "x": -0.8240239810943604,
                "y": 0.19912469901144506,
                "z": 0.16403168439865112
            }
        },
        "name": "move_to_storage_D"
    },
    "id": "LBKPIECE_move_to_storage_D_56",
    "joint_names": [
        "shoulder_pan_joint",
        "shoulder_lift_joint",
        "elbow_joint",
        "wrist_1_joint",
        "wrist_2_joint",
        "wrist_3_joint"
    ],
    "metrics": {
        "cart_traj_len": 3.7101242486238535,
        "distance_elbow_joint": 4.206612505483404,
        "distance_shoulder_lift_joint": 1.2660143782392232,
        "distance_shoulder_pan_joint": 2.8123290383365704,
        "distance_wrist_1_joint": 2.2609908329771224,
        "distance_wrist_2_joint": 0.8676547571420186,
        "distance_wrist_3_joint": 3.134773886154682,
        "smoothness": 5.693451421789813e-16,
        "time": 0.678347098,
        "traj_len": 3.8142332648034283,
        "weighted_distance": 4.893523143989566
    },
    "planner": "LBKPIECE",
    "start": {
        "state": {
            "elbow_joint": -2.384821990628643,
            "shoulder_lift_joint": -2.278805467437664,
            "shoulder_pan_joint": -0.18546946439364564,
            "wrist_1_joint": 1.4845938187801415,
            "wrist_2_joint": 0.178987772454074,
            "wrist_3_joint": 0.03710569632802521
        }
    },
    "waypoints": [
        {
            "positions": [
                -0.18546946439364564,
                -2.278805467437664,
                -2.384821990628643,
                1.4845938187801415,
                0.178987772454074,
                0.03710569632802521
            ]
        },
        {
            "positions": [
                -0.08791627537026245,
                -2.2500979628082733,
                -2.2330919852381617,
                1.4283239877521217,
                0.1927216468678493,
                -0.001482304300055623
            ]
        },
        {
            "positions": [
                0.009636913653120749,
                -2.221390458178883,
                -2.0813619798476806,
                1.3720541567241016,
                0.2064555212816246,
                -0.04007030492813646
            ]
        },
        {
            "positions": [
                0.10719010267650397,
                -2.1926829535494923,
                -1.929631974457199,
                1.3157843256960817,
                0.2201893956953999,
                -0.07865830555621729
            ]
        },
        {
            "positions": [
                0.20474329169988714,
                -2.1639754489201017,
                -1.777901969066718,
                1.2595144946680619,
                0.23392327010917519,
                -0.11724630618429813
            ]
        },
        {
            "positions": [
                0.3022964807232703,
                -2.135267944290711,
                -1.6261719636762364,
                1.2032446636400418,
                0.24765714452295048,
                -0.15583430681237895
            ]
        },
        {
            "positions": [
                0.3998496697466536,
                -2.1065604396613207,
                -1.474441958285755,
                1.146974832612022,
                0.2613910189367258,
                -0.1944223074404598
            ]
        },
        {
            "positions": [
                0.49740285877003676,
                -2.07785293503193,
                -1.3227119528952738,
                1.090705001584002,
                0.27512489335050105,
                -0.23301030806854064
            ]
        },
        {
            "positions": [
                0.5949560477934199,
                -2.0491454304025396,
                -1.1709819475047925,
                1.034435170555982,
                0.2888587677642764,
                -0.2715983086966215
            ]
        },
        {
            "positions": [
                0.6925092368168031,
                -2.020437925773149,
                -1.0192519421143111,
                0.978165339527962,
                0.3025926421780517,
                -0.31018630932470226
            ]
        },
        {
            "positions": [
                0.7900624258401863,
                -1.9917304211437583,
                -0.8675219367238298,
                0.9218955084999421,
                0.316326516591827,
                -0.34877430995278313
            ]
        },
        {
            "positions": [
                0.8876156148635694,
                -1.9630229165143676,
                -0.7157919313333485,
                0.8656256774719222,
                0.33006039100560225,
                -0.387362310580864
            ]
        },
        {
            "positions": [
                0.9851688038869528,
                -1.934315411884977,
                -0.564061925942867,
                0.8093558464439022,
                0.3437942654193776,
                -0.4259503112089448
            ]
        },
        {
            "positions": [
                1.082721992910336,
                -1.9056079072555865,
                -0.41233192055238566,
                0.7530860154158823,
                0.3575281398331529,
                -0.46453831183702565
            ]
        },
        {
            "positions": [
                1.1802751819337192,
                -1.876900402626196,
                -0.26060191516190434,
                0.6968161843878624,
                0.3712620142469282,
                -0.5031263124651065
            ]
        },
        {
            "positions": [
                1.2778283709571023,
                -1.8481928979968054,
                -0.10887190977142325,
                0.6405463533598424,
                0.38499588866070344,
                -0.5417143130931873
            ]
        },
        {
            "positions": [
                1.3753815599804855,
                -1.8194853933674149,
                0.04285809561905844,
                0.5842765223318225,
                0.39872976307447877,
                -0.5803023137212682
            ]
        },
        {
            "positions": [
                1.4376989246295273,
                -1.7832772942445005,
                0.13274986216971607,
                0.5222246737029702,
                0.42682412444824236,
                -0.6906264926301237
            ]
        },
        {
            "positions": [
                1.5000162892785691,
                -1.7470691951215864,
                0.22264162872037374,
                0.460172825074118,
                0.45491848582200595,
                -0.8009506715389791
            ]
        },
        {
            "positions": [
                1.562333653927611,
                -1.710861095998672,
                0.3125333952710314,
                0.3981209764452658,
                0.48301284719576953,
                -0.9112748504478346
            ]
        },
        {
            "positions": [
                1.6246510185766527,
                -1.674652996875758,
                0.402425161821689,
                0.3360691278164135,
                0.5111072085695331,
                -1.0215990293566901
            ]
        },
        {
            "positions": [
                1.6869683832256943,
                -1.6384448977528436,
                0.4923169283723467,
                0.27401727918756136,
                0.5392015699432966,
                -1.1319232082655455
            ]
        },
        {
            "positions": [
                1.7492857478747361,
                -1.6022367986299293,
                0.5822086949230043,
                0.2119654305587091,
                0.5672959313170602,
                -1.242247387174401
            ]
        },
        {
            "positions": [
                1.811603112523778,
                -1.5660286995070152,
                0.672100461473662,
                0.14991358192985688,
                0.5953902926908239,
                -1.3525715660832565
            ]
        },
        {
            "positions": [
                1.8739204771728197,
                -1.5298206003841008,
                0.7619922280243195,
                0.08786173330100461,
                0.6234846540645874,
                -1.462895744992112
            ]
        },
        {
            "positions": [
                1.9362378418218613,
                -1.4936125012611867,
                0.8518839945749772,
                0.025809884672152394,
                0.651579015438351,
                -1.5732199239009674
            ]
        },
        {
            "positions": [
                1.9985552064709031,
                -1.4574044021382724,
                0.9417757611256349,
                -0.03624196395669976,
                0.6796733768121146,
                -1.6835441028098228
            ]
        },
        {
            "positions": [
                2.060872571119945,
                -1.4211963030153583,
                1.0316675276762926,
                -0.09829381258555203,
                0.7077677381858781,
                -1.7938682817186784
            ]
        },
        {
            "positions": [
                2.1231899357689867,
                -1.384988203892444,
                1.1215592942269503,
                -0.1603456612144043,
                0.7358620995596418,
                -1.904192460627534
            ]
        },
        {
            "positions": [
                2.1855073004180285,
                -1.3487801047695296,
                1.211451060777608,
                -0.22239750984325657,
                0.7639564609334053,
                -2.0145166395363896
            ]
        },
        {
            "positions": [
                2.2478246650670703,
                -1.3125720056466155,
                1.3013428273282657,
                -0.2844493584721087,
                0.792050822307169,
                -2.1248408184452448
            ]
        },
        {
            "positions": [
                2.310142029716112,
                -1.2763639065237011,
                1.3912345938789232,
                -0.346501207100961,
                0.8201451836809325,
                -2.2351649973541003
            ]
        },
        {
            "positions": [
                2.3553873931770855,
                -1.2387106469058067,
                1.452742582589757,
                -0.40791489382896384,
                0.8525019473830983,
                -2.358379739135894
            ]
        },
        {
            "positions": [
                2.4006327566380588,
                -1.2010573872879124,
                1.5142505713005912,
                -0.46932858055696675,
                0.8848587110852639,
                -2.481594480917688
            ]
        },
        {
            "positions": [
                2.445878120099032,
                -1.163404127670018,
                1.575758560011425,
                -0.5307422672849696,
                0.9172154747874297,
                -2.604809222699482
            ]
        },
        {
            "positions": [
                2.491123483560005,
                -1.1257508680521238,
                1.6372665487222589,
                -0.5921559540129725,
                0.9495722384895954,
                -2.7280239644812756
            ]
        },
        {
            "positions": [
                2.536368847020978,
                -1.0880976084342293,
                1.698774537433093,
                -0.6535696407409755,
                0.9819290021917612,
                -2.8512387062630697
            ]
        },
        {
            "positions": [
                2.5816142104819515,
                -1.050444348816335,
                1.7602825261439268,
                -0.7149833274689783,
                1.0142857658939268,
                -2.974453448044863
            ]
        },
        {
            "positions": [
                2.626859573942925,
                -1.0127910891984406,
                1.8217905148547606,
                -0.7763970141969812,
                1.0466425295960926,
                -3.097668189826657
            ]
        }
    ]
}