{
    "goal": {
        "global_pose": {
            "orientation": {
                "w": 0.7031023480610252,
                "x": -0.7110244013736278,
                "y": 0.0077485991402295624,
                "z": 0.005598929693374583
            },
            "position": {
                "x": -0.8841497679147869,
                "y": 0.44412534475326537,
                "z": 0.3711530566215515
            }
        },
        "name": "move_to_auspresseinheit_D"
    },
    "id": "LBKPIECE_move_to_auspresseinheit_D_110",
    "joint_names": [
        "shoulder_pan_joint",
        "shoulder_lift_joint",
        "elbow_joint",
        "wrist_1_joint",
        "wrist_2_joint",
        "wrist_3_joint"
    ],
    "metrics": {
        "cart_traj_len": 0.3419554598075968,
        "distance_elbow_joint": 0.6299031218035696,
        "distance_shoulder_lift_joint": 0.11667959867180366,
        "distance_shoulder_pan_joint": 0.13306009666544888,
        "distance_wrist_1_joint": 0.5122848744662978,
        "distance_wrist_2_joint": 1.4315320431972673,
        "distance_wrist_3_joint": 0.01791572359059268,
        "smoothness": 0.0,
        "time": 0.486931275,
        "traj_len": 1.6856379974344966,
        "weighted_distance": 2.195682996982882
    },
    "planner": "LBKPIECE",
    "start": {
        "state": {
            "elbow_joint": -1.8275484843655228,
            "shoulder_lift_joint": -2.1267897864000416,
            "shoulder_pan_joint": -0.035127520176001514,
            "wrist_1_joint": -2.3477863256791385,
            "wrist_2_joint": -1.605890476484521,
            "wrist_3_joint": -3.0880375317375353
        }
    },
    "waypoints": [
        {
            "positions": [
                -0.035127520176001514,
                -2.1267897864000416,
                -1.8275484843655228,
                -2.3477863256791385,
                -1.605890476484521,
                -3.0880375317375353
            ]
        },
        {
            "positions": [
                -0.051760032259182624,
                -2.141374736234017,
                -1.7488105941400764,
                -2.411821934987426,
                -1.4269489710848626,
                -3.0902769971863595
            ]
        },
        {
            "positions": [
                -0.06839254434236373,
                -2.1559596860679924,
                -1.6700727039146304,
                -2.475857544295713,
                -1.248007465685204,
                -3.0925164626351833
            ]
        },
        {
            "positions": [
                -0.08502505642554484,
                -2.170544635901968,
                -1.5913348136891843,
                -2.539893153604,
                -1.0690659602855457,
                -3.0947559280840076
            ]
        },
        {
            "positions": [
                -0.10165756850872595,
                -2.185129585735943,
                -1.512596923463738,
                -2.6039287629122874,
                -0.8901244548858873,
                -3.096995393532832
            ]
        },
        {
            "positions": [
                -0.11829008059190707,
                -2.199714535569919,
                -1.4338590332382917,
                -2.667964372220575,
                -0.711182949486229,
                -3.0992348589816556
            ]
        },
        {
            "positions": [
                -0.13492259267508816,
                -2.2142994854038944,
                -1.3551211430128456,
                -2.731999981528862,
                -0.5322414440865704,
                -3.10147432443048
            ]
        },
        {
            "positions": [
                -0.15155510475826928,
                -2.2288844352378696,
                -1.2763832527873995,
                -2.796035590837149,
                -0.353299938686912,
                -3.1037137898793037
            ]
        },
        {
            "positions": [
                -0.1681876168414504,
                -2.2434693850718452,
                -1.1976453625619532,
                -2.8600712001454363,
                -0.17435843328725367,
                -3.105953255328128
            ]
        }
    ]
}