{
    "goal": {
        "global_pose": {
            "orientation": {
                "w": 0.7047431493862688,
                "x": -0.7094548369677653,
                "y": 0.0024358444001904,
                "z": -0.0022348060817251984
            },
            "position": {
                "x": -0.39052492380142206,
                "y": 0.3671506643295288,
                "z": 0.19426114857196808
            }
        },
        "name": "move_to_magneteinheit_D"
    },
    "id": "LBKPIECE_move_to_magneteinheit_D_145",
    "joint_names": [
        "shoulder_pan_joint",
        "shoulder_lift_joint",
        "elbow_joint",
        "wrist_1_joint",
        "wrist_2_joint",
        "wrist_3_joint"
    ],
    "metrics": {
        "cart_traj_len": 4.309577166154317,
        "distance_elbow_joint": 5.242975124991174,
        "distance_shoulder_lift_joint": 2.038009088288045,
        "distance_shoulder_pan_joint": 3.228740608808827,
        "distance_wrist_1_joint": 2.314610868485372,
        "distance_wrist_2_joint": 1.0121395816163299,
        "distance_wrist_3_joint": 3.6351004685614616,
        "smoothness": 0.5155180598762003,
        "time": 0.49874183699999997,
        "traj_len": 4.179901403233241,
        "weighted_distance": 5.297973870072959
    },
    "planner": "LBKPIECE",
    "start": {
        "state": {
            "elbow_joint": 0.7495348899011911,
            "shoulder_lift_joint": -0.6476975780737668,
            "shoulder_pan_joint": -2.711696901376276,
            "wrist_1_joint": -0.0750647808097303,
            "wrist_2_joint": 0.43296659715458535,
            "wrist_3_joint": 3.1361499051832418
        }
    },
    "waypoints": [
        {
            "positions": [
                -2.711696901376276,
                -0.6476975780737668,
                0.7495348899011911,
                -0.0750647808097303,
                0.43296659715458535,
                3.1361499051832418
            ]
        },
        {
            "positions": [
                -2.7085523326572303,
                -0.6634178382115816,
                0.7834505067705727,
                -0.01212362979564087,
                0.3965402090821913,
                2.9968561651773715
            ]
        },
        {
            "positions": [
                -2.7054077639381844,
                -0.6791380983493963,
                0.8173661236399543,
                0.050817521218448555,
                0.36011382100979716,
                2.8575624251715013
            ]
        },
        {
            "positions": [
                -2.7022631952191385,
                -0.6948583584872111,
                0.8512817405093359,
                0.11375867223253801,
                0.3236874329374031,
                2.718268685165631
            ]
        },
        {
            "positions": [
                -2.713138109356428,
                -0.7585639245729183,
                0.8830220451904907,
                0.17765806308812807,
                0.33385143669878736,
                2.5353156891548174
            ]
        },
        {
            "positions": [
                -2.7240130234937174,
                -0.8222694906586254,
                0.9147623498716453,
                0.24155745394371814,
                0.3440154404601717,
                2.352362693144004
            ]
        },
        {
            "positions": [
                -2.734887937631007,
                -0.8859750567443326,
                0.9465026545528,
                0.3054568447993082,
                0.35417944422155595,
                2.16940969713319
            ]
        },
        {
            "positions": [
                -2.745762851768297,
                -0.9496806228300398,
                0.9782429592339548,
                0.3693562356548982,
                0.3643434479829402,
                1.9864567011223764
            ]
        },
        {
            "positions": [
                -2.756637765905586,
                -1.0133861889157472,
                1.0099832639151094,
                0.43325562651048827,
                0.37450745174432454,
                1.8035037051115625
            ]
        },
        {
            "positions": [
                -2.7675126800428758,
                -1.0770917550014543,
                1.0417235685962642,
                0.4971550173660783,
                0.3846714555057088,
                1.620550709100749
            ]
        },
        {
            "positions": [
                -2.7783875941801655,
                -1.1407973210871614,
                1.0734638732774189,
                0.5610544082216684,
                0.39483545926709307,
                1.4375977130899353
            ]
        },
        {
            "positions": [
                -2.7892625083174547,
                -1.2045028871728687,
                1.1052041779585737,
                0.6249537990772585,
                0.40499946302847734,
                1.2546447170791217
            ]
        },
        {
            "positions": [
                -2.8001374224547444,
                -1.2682084532585758,
                1.1369444826397284,
                0.6888531899328485,
                0.41516346678986166,
                1.071691721068308
            ]
        },
        {
            "positions": [
                -2.7761079539747784,
                -1.238726768245231,
                1.211508194897253,
                0.7513361317531474,
                0.3509306760800345,
                0.9571709253175081
            ]
        },
        {
            "positions": [
                -2.752078485494812,
                -1.209245083231886,
                1.2860719071547777,
                0.8138190735734462,
                0.28669788537020724,
                0.8426501295667084
            ]
        },
        {
            "positions": [
                -2.728049017014846,
                -1.1797633982185411,
                1.3606356194123024,
                0.8763020153937451,
                0.22246509466038009,
                0.7281293338159085
            ]
        },
        {
            "positions": [
                -2.70401954853488,
                -1.1502817132051961,
                1.435199331669827,
                0.9387849572140439,
                0.15823230395055288,
                0.6136085380651087
            ]
        },
        {
            "positions": [
                -2.679990080054914,
                -1.1208000281918513,
                1.509763043927352,
                1.0012678990343429,
                0.09399951324072564,
                0.49908774231430886
            ]
        },
        {
            "positions": [
                -2.6559606115749474,
                -1.0913183431785063,
                1.5843267561848766,
                1.0637508408546417,
                0.029766722530898515,
                0.3845669465635092
            ]
        },
        {
            "positions": [
                -2.6319311430949814,
                -1.0618366581651615,
                1.6588904684424013,
                1.1262337826749405,
                -0.03446606817892871,
                0.27004615081270933
            ]
        },
        {
            "positions": [
                -2.5290728025784563,
                -1.0952513927726955,
                1.5989227536251502,
                1.1519289268895903,
                -0.047328438926999714,
                0.1514204662653979
            ]
        },
        {
            "positions": [
                -2.426214462061931,
                -1.1286661273802294,
                1.538955038807899,
                1.1776240711042403,
                -0.060190809675070726,
                0.032794781718086474
            ]
        },
        {
            "positions": [
                -2.3233561215454053,
                -1.1620808619877634,
                1.4789873239906477,
                1.2033192153188903,
                -0.07305318042314174,
                -0.08583090282922495
            ]
        },
        {
            "positions": [
                -2.22049778102888,
                -1.1954955965952974,
                1.4190196091733966,
                1.22901435953354,
                -0.08591555117121275,
                -0.20445658737653635
            ]
        },
        {
            "positions": [
                -2.092751618592195,
                -1.2211972022156745,
                1.2172785724752444,
                1.2053959247263026,
                -0.08750377155773004,
                -0.20259952953528154
            ]
        },
        {
            "positions": [
                -1.9650054561555095,
                -1.2468988078360517,
                1.015537535777092,
                1.181777489919065,
                -0.08909199194424731,
                -0.20074247169402673
            ]
        },
        {
            "positions": [
                -1.8372592937188243,
                -1.272600413456429,
                0.8137964990789396,
                1.1581590551118275,
                -0.0906802123307646,
                -0.19888541385277192
            ]
        },
        {
            "positions": [
                -1.7095131312821388,
                -1.2983020190768062,
                0.6120554623807872,
                1.13454062030459,
                -0.0922684327172819,
                -0.1970283560115171
            ]
        },
        {
            "positions": [
                -1.5817669688454536,
                -1.3240036246971834,
                0.41031442568263476,
                1.1109221854973526,
                -0.09385665310379918,
                -0.1951712981702623
            ]
        },
        {
            "positions": [
                -1.4540208064087683,
                -1.3497052303175605,
                0.20857338898448252,
                1.0873037506901149,
                -0.09544487349031647,
                -0.1933142403290075
            ]
        },
        {
            "positions": [
                -1.326274643972083,
                -1.3754068359379377,
                0.006832352286330279,
                1.0636853158828774,
                -0.09703309387683376,
                -0.19145718248775268
            ]
        },
        {
            "positions": [
                -1.1985284815353976,
                -1.4011084415583148,
                -0.1949086844118222,
                1.04006688107564,
                -0.09862131426335105,
                -0.18960012464649786
            ]
        },
        {
            "positions": [
                -1.0707823190987125,
                -1.4268100471786922,
                -0.39664972110997443,
                1.0164484462684023,
                -0.10020953464986833,
                -0.18774306680524305
            ]
        },
        {
            "positions": [
                -0.9430361566620271,
                -1.4525116527990694,
                -0.5983907578081271,
                0.9928300114611648,
                -0.10179775503638562,
                -0.18588600896398824
            ]
        },
        {
            "positions": [
                -0.8152899942253418,
                -1.4782132584194465,
                -0.8001317945062794,
                0.9692115766539273,
                -0.10338597542290291,
                -0.18402895112273343
            ]
        },
        {
            "positions": [
                -0.6875438317886564,
                -1.5039148640398237,
                -1.0018728312044316,
                0.9455931418466897,
                -0.10497419580942019,
                -0.18217189328147862
            ]
        },
        {
            "positions": [
                -0.5597976693519713,
                -1.5296164696602008,
                -1.2036138679025838,
                0.9219747070394522,
                -0.10656241619593748,
                -0.1803148354402238
            ]
        },
        {
            "positions": [
                -0.43205150691528593,
                -1.555318075280578,
                -1.405354904600736,
                0.8983562722322147,
                -0.10815063658245477,
                -0.178457777598969
            ]
        },
        {
            "positions": [
                -0.3043053444786006,
                -1.5810196809009551,
                -1.6070959412988883,
                0.8747378374249772,
                -0.10973885696897206,
                -0.1766007197577142
            ]
        },
        {
            "positions": [
                -0.176559182041915,
                -1.6067212865213325,
                -1.808836977997041,
                0.8511194026177396,
                -0.11132707735548934,
                -0.17474366191645938
            ]
        },
        {
            "positions": [
                -0.048813019605229754,
                -1.6324228921417097,
                -2.0105780146951933,
                0.8275009678105021,
                -0.11291529774200663,
                -0.17288660407520456
            ]
        },
        {
            "positions": [
                -0.025366392493935873,
                -1.7292247485094328,
                -2.1156345530123537,
                0.8875786750421872,
                -0.07104320920629109,
                -0.12283611601706537
            ]
        },
        {
            "positions": [
                -0.0019197653826419914,
                -1.826026604877156,
                -2.220691091329514,
                0.9476563822738723,
                -0.029171120670575562,
                -0.07278562795892618
            ]
        },
        {
            "positions": [
                0.021526861728651883,
                -1.9228284612448792,
                -2.325747629646675,
                1.0077340895055573,
                0.012700967865139953,
                -0.022735139900787016
            ]
        },
        {
            "positions": [
                0.04497348883994577,
                -2.0196303176126023,
                -2.4308041679638355,
                1.0678117967372425,
                0.05457305640085551,
                0.027315348157352204
            ]
        },
        {
            "positions": [
                0.06842011595123965,
                -2.1164321739803253,
                -2.535860706280996,
                1.1278895039689276,
                0.09644514493657105,
                0.0773658362154914
            ]
        },
        {
            "positions": [
                -0.01587159638546004,
                -2.168609141378545,
                -2.4895712490388067,
                1.230766104055807,
                0.12109353704865194,
                0.08158968701871065
            ]
        },
        {
            "positions": [
                -0.10016330872215973,
                -2.220786108776764,
                -2.443281791796618,
                1.3336427041426868,
                0.14574192916073284,
                0.0858135378219299
            ]
        },
        {
            "positions": [
                -0.18445502105885941,
                -2.2729630761749835,
                -2.3969923345544286,
                1.4365193042295663,
                0.17039032127281373,
                0.09003738862514915
            ]
        }
    ]
}