{
    "goal": {
        "global_pose": {
            "orientation": {
                "w": -0.00223480608172531,
                "x": 0.0024358444001904467,
                "y": 0.7094548369677653,
                "z": -0.704743149386269
            },
            "position": {
                "x": 0.6205249238014221,
                "y": -0.6371506643295288,
                "z": 0.19426114857196808
            }
        },
        "name": "move_to_magneteinheit_B"
    },
    "id": "LBKPIECE_move_to_magneteinheit_B_22",
    "joint_names": [
        "shoulder_pan_joint",
        "shoulder_lift_joint",
        "elbow_joint",
        "wrist_1_joint",
        "wrist_2_joint",
        "wrist_3_joint"
    ],
    "metrics": {
        "cart_traj_len": 1.452921509080617,
        "distance_elbow_joint": 0.7280994631670124,
        "distance_shoulder_lift_joint": 1.247185500570831,
        "distance_shoulder_pan_joint": 1.6210895355471973,
        "distance_wrist_1_joint": 2.6111419384445194,
        "distance_wrist_2_joint": 2.9413347185163006,
        "distance_wrist_3_joint": 3.1372131654740025,
        "smoothness": 6.728624422172385e-16,
        "time": 0.22460714999999998,
        "traj_len": 3.5051482595918624,
        "weighted_distance": 4.910495627696728
    },
    "planner": "LBKPIECE",
    "start": {
        "state": {
            "elbow_joint": 2.393587130804639,
            "shoulder_lift_joint": -1.9085141043513325,
            "shoulder_pan_joint": 0.7066247066698809,
            "wrist_1_joint": -0.4678290934590222,
            "wrist_2_joint": 0.7096259084215963,
            "wrist_3_joint": 3.147370379541726
        }
    },
    "waypoints": [
        {
            "positions": [
                0.7066247066698809,
                -1.9085141043513325,
                2.393587130804639,
                -0.4678290934590222,
                0.7096259084215963,
                3.147370379541726
            ]
        },
        {
            "positions": [
                0.655965658684031,
                -1.869539557458494,
                2.3708340225806697,
                -0.3862309078826309,
                0.6177091984679619,
                3.0493324681206633
            ]
        },
        {
            "positions": [
                0.605306610698181,
                -1.8305650105656555,
                2.3480809143567005,
                -0.3046327223062397,
                0.5257924885143276,
                2.951294556699601
            ]
        },
        {
            "positions": [
                0.5546475627123311,
                -1.791590463672817,
                2.3253278061327314,
                -0.22303453672984846,
                0.4338757785606932,
                2.853256645278538
            ]
        },
        {
            "positions": [
                0.5039885147264812,
                -1.7526159167799786,
                2.3025746979087622,
                -0.1414363511534572,
                0.3419590686070588,
                2.755218733857476
            ]
        },
        {
            "positions": [
                0.4533294667406313,
                -1.7136413698871402,
                2.279821589684793,
                -0.05983816557706595,
                0.25004235865342445,
                2.657180822436413
            ]
        },
        {
            "positions": [
                0.4026704187547814,
                -1.6746668229943018,
                2.257068481460824,
                0.021760019999325253,
                0.15812564869979007,
                2.5591429110153507
            ]
        },
        {
            "positions": [
                0.35201137076893146,
                -1.6356922761014632,
                2.234315373236855,
                0.10335820557571657,
                0.06620893874615574,
                2.461104999594288
            ]
        },
        {
            "positions": [
                0.30135232278308155,
                -1.5967177292086248,
                2.2115622650128857,
                0.18495639115210777,
                -0.02570777120747869,
                2.363067088173225
            ]
        },
        {
            "positions": [
                0.25069327479723164,
                -1.5577431823157863,
                2.1888091567889165,
                0.26655457672849897,
                -0.11762448116111313,
                2.265029176752163
            ]
        },
        {
            "positions": [
                0.20003422681138172,
                -1.5187686354229477,
                2.1660560485649474,
                0.3481527623048903,
                -0.20954119111474745,
                2.1669912653311005
            ]
        },
        {
            "positions": [
                0.14937517882553186,
                -1.4797940885301093,
                2.1433029403409782,
                0.4297509478812815,
                -0.3014579010683818,
                2.0689533539100378
            ]
        },
        {
            "positions": [
                0.09871613083968189,
                -1.4408195416372709,
                2.120549832117009,
                0.5113491334576727,
                -0.3933746110220162,
                1.970915442488975
            ]
        },
        {
            "positions": [
                0.04805708285383192,
                -1.4018449947444325,
                2.09779672389304,
                0.592947319034064,
                -0.48529132097565064,
                1.8728775310679124
            ]
        },
        {
            "positions": [
                -0.002601965132017936,
                -1.362870447851594,
                2.075043615669071,
                0.6745455046104554,
                -0.5772080309292849,
                1.7748396196468499
            ]
        },
        {
            "positions": [
                -0.053261013117867795,
                -1.3238959009587554,
                2.0522905074451017,
                0.7561436901868466,
                -0.6691247408829193,
                1.6768017082257873
            ]
        },
        {
            "positions": [
                -0.10392006110371776,
                -1.284921354065917,
                2.0295373992211325,
                0.8377418757632378,
                -0.7610414508365537,
                1.5787637968047248
            ]
        },
        {
            "positions": [
                -0.15457910908956773,
                -1.2459468071730786,
                2.0067842909971634,
                0.919340061339629,
                -0.8529581607901882,
                1.4807258853836622
            ]
        },
        {
            "positions": [
                -0.2052381570754176,
                -1.20697226028024,
                1.9840311827731942,
                1.0009382469160202,
                -0.9448748707438226,
                1.3826879739625997
            ]
        },
        {
            "positions": [
                -0.25589720506126745,
                -1.1679977133874015,
                1.961278074549225,
                1.0825364324924116,
                -1.0367915806974568,
                1.2846500625415371
            ]
        },
        {
            "positions": [
                -0.3065562530471174,
                -1.1290231664945631,
                1.938524966325256,
                1.1641346180688028,
                -1.1287082906510912,
                1.1866121511204746
            ]
        },
        {
            "positions": [
                -0.3572153010329674,
                -1.0900486196017247,
                1.915771858101287,
                1.245732803645194,
                -1.2206250006047257,
                1.0885742396994118
            ]
        },
        {
            "positions": [
                -0.40787434901881714,
                -1.0510740727088863,
                1.8930187498773177,
                1.3273309892215852,
                -1.3125417105583599,
                0.9905363282783495
            ]
        },
        {
            "positions": [
                -0.4585333970046671,
                -1.0120995258160477,
                1.8702656416533485,
                1.4089291747979764,
                -1.4044584205119943,
                0.8924984168572867
            ]
        },
        {
            "positions": [
                -0.5091924449905171,
                -0.9731249789232093,
                1.8475125334293796,
                1.4905273603743676,
                -1.4963751304656288,
                0.7944605054362239
            ]
        },
        {
            "positions": [
                -0.559851492976367,
                -0.9341504320303708,
                1.8247594252054105,
                1.5721255459507588,
                -1.5882918404192632,
                0.6964225940151616
            ]
        },
        {
            "positions": [
                -0.610510540962217,
                -0.8951758851375324,
                1.8020063169814413,
                1.65372373152715,
                -1.6802085503728976,
                0.5983846825940988
            ]
        },
        {
            "positions": [
                -0.6611695889480668,
                -0.8562013382446938,
                1.7792532087574722,
                1.7353219171035417,
                -1.772125260326532,
                0.5003467711730365
            ]
        },
        {
            "positions": [
                -0.7118286369339167,
                -0.8172267913518554,
                1.756500100533503,
                1.8169201026799329,
                -1.864041970280166,
                0.4023088597519737
            ]
        },
        {
            "positions": [
                -0.7624876849197667,
                -0.778252244459017,
                1.7337469923095339,
                1.898518288256324,
                -1.9559586802338005,
                0.3042709483309114
            ]
        },
        {
            "positions": [
                -0.8131467329056165,
                -0.7392776975661783,
                1.7109938840855647,
                1.9801164738327153,
                -2.0478753901874347,
                0.20623303690984862
            ]
        },
        {
            "positions": [
                -0.8638057808914664,
                -0.7003031506733399,
                1.6882407758615956,
                2.0617146594091063,
                -2.1397921001410696,
                0.10819512548878629
            ]
        },
        {
            "positions": [
                -0.9144648288773164,
                -0.6613286037805016,
                1.6654876676376265,
                2.1433128449854975,
                -2.231708810094704,
                0.010157214067723493
            ]
        }
    ]
}