{
    "goal": {
        "global_pose": {
            "orientation": {
                "w": -0.4816463035849501,
                "x": 0.5182115481033762,
                "y": 0.4908360881923453,
                "z": -0.5084816262002911
            },
            "position": {
                "x": -0.8240239810943604,
                "y": -0.300875300988555,
                "z": 0.16403168439865112
            }
        },
        "name": "move_to_storage_C"
    },
    "id": "LBKPIECE_move_to_storage_C_82",
    "joint_names": [
        "shoulder_pan_joint",
        "shoulder_lift_joint",
        "elbow_joint",
        "wrist_1_joint",
        "wrist_2_joint",
        "wrist_3_joint"
    ],
    "metrics": {
        "cart_traj_len": 0.5772494351446855,
        "distance_elbow_joint": 0.2577911035181184,
        "distance_shoulder_lift_joint": 0.18905072345388374,
        "distance_shoulder_pan_joint": 0.4949817798555043,
        "distance_wrist_1_joint": 0.07699431394583234,
        "distance_wrist_2_joint": 1.0719616605423865,
        "distance_wrist_3_joint": 0.05716377785571103,
        "smoothness": 0.0,
        "time": 0.506324659,
        "traj_len": 1.465586353365586,
        "weighted_distance": 1.8469507003087757
    },
    "planner": "LBKPIECE",
    "start": {
        "state": {
            "elbow_joint": 2.0108683149792914,
            "shoulder_lift_joint": -1.1634956873317392,
            "shoulder_pan_joint": -2.4736205022346,
            "wrist_1_joint": -0.8367026793690192,
            "wrist_2_joint": 0.6746043897045053,
            "wrist_3_joint": 3.133522094754363
        }
    },
    "waypoints": [
        {
            "positions": [
                -2.4736205022346,
                -1.1634956873317392,
                2.0108683149792914,
                -0.8367026793690192,
                0.6746043897045053,
                3.133522094754363
            ]
        },
        {
            "positions": [
                -2.556117465543851,
                -1.1319872334227585,
                1.9679031310596051,
                -0.8238702937113804,
                0.8532646664615697,
                3.1430493910636486
            ]
        },
        {
            "positions": [
                -2.6386144288531015,
                -1.100478779513778,
                1.9249379471399186,
                -0.8110379080537418,
                1.0319249432186341,
                3.1525766873729335
            ]
        },
        {
            "positions": [
                -2.721111392162352,
                -1.0689703256047973,
                1.881972763220232,
                -0.7982055223961031,
                1.2105852199756986,
                3.1621039836822185
            ]
        },
        {
            "positions": [
                -2.803608355471603,
                -1.0374618716958168,
                1.8390075793005458,
                -0.7853731367384643,
                1.389245496732763,
                3.171631279991504
            ]
        },
        {
            "positions": [
                -2.886105318780854,
                -1.0059534177868361,
                1.7960423953808595,
                -0.7725407510808255,
                1.5679057734898274,
                3.1811585763007892
            ]
        },
        {
            "positions": [
                -2.9686022820901043,
                -0.9744449638778555,
                1.753077211461173,
                -0.7597083654231869,
                1.7465660502468918,
                3.190685872610074
            ]
        }
    ]
}