{
    "goal": {
        "global_pose": {
            "orientation": {
                "w": -0.00223480608172531,
                "x": 0.0024358444001904467,
                "y": 0.7094548369677653,
                "z": -0.704743149386269
            },
            "position": {
                "x": 0.6205249238014221,
                "y": -0.6371506643295288,
                "z": 0.19426114857196808
            }
        },
        "name": "move_to_magneteinheit_B"
    },
    "id": "LBKPIECE_move_to_magneteinheit_B_143",
    "joint_names": [
        "shoulder_pan_joint",
        "shoulder_lift_joint",
        "elbow_joint",
        "wrist_1_joint",
        "wrist_2_joint",
        "wrist_3_joint"
    ],
    "metrics": {
        "cart_traj_len": 1.4542484667484152,
        "distance_elbow_joint": 0.7302331782094305,
        "distance_shoulder_lift_joint": 1.247901415563978,
        "distance_shoulder_pan_joint": 1.6217356722009884,
        "distance_wrist_1_joint": 2.611288972141491,
        "distance_wrist_2_joint": 2.9374187553078506,
        "distance_wrist_3_joint": 3.1387728868207,
        "smoothness": 2.4223047925893806e-16,
        "time": 0.552557711,
        "traj_len": 3.5053317789111547,
        "weighted_distance": 4.910560495639493
    },
    "planner": "LBKPIECE",
    "start": {
        "state": {
            "elbow_joint": 2.393587130804639,
            "shoulder_lift_joint": -1.9085141043513325,
            "shoulder_pan_joint": 0.7066247066698809,
            "wrist_1_joint": -0.4678290934590222,
            "wrist_2_joint": 0.7096259084215963,
            "wrist_3_joint": 3.147370379541726
        }
    },
    "waypoints": [
        {
            "positions": [
                0.7066247066698809,
                -1.9085141043513325,
                2.393587130804639,
                -0.4678290934590222,
                0.7096259084215963,
                3.147370379541726
            ]
        },
        {
            "positions": [
                0.6559454669136,
                -1.8695171851149581,
                2.370767343985594,
                -0.3862263130796006,
                0.617831572318226,
                3.049283726828579
            ]
        },
        {
            "positions": [
                0.605266227157319,
                -1.830520265878584,
                2.3479475571665493,
                -0.304623532700179,
                0.5260372362148558,
                2.9511970741154325
            ]
        },
        {
            "positions": [
                0.5545869874010382,
                -1.7915233466422096,
                2.3251277703475046,
                -0.2230207523207574,
                0.43424290011148536,
                2.8531104214022855
            ]
        },
        {
            "positions": [
                0.5039077476447573,
                -1.7525264274058352,
                2.30230798352846,
                -0.14141797194133582,
                0.3424485640081151,
                2.7550237686891386
            ]
        },
        {
            "positions": [
                0.45322850788847646,
                -1.713529508169461,
                2.279488196709415,
                -0.05981519156191423,
                0.2506542279047448,
                2.6569371159759916
            ]
        },
        {
            "positions": [
                0.40254926813219555,
                -1.6745325889330867,
                2.2566684098903704,
                0.021787588817507364,
                0.1588598918013744,
                2.5588504632628446
            ]
        },
        {
            "positions": [
                0.35187002837591463,
                -1.6355356696967123,
                2.2338486230713257,
                0.10339036919692896,
                0.0670655556980041,
                2.460763810549698
            ]
        },
        {
            "positions": [
                0.3011907886196338,
                -1.596538750460338,
                2.2110288362522814,
                0.18499314957635055,
                -0.02472878040536619,
                2.362677157836551
            ]
        },
        {
            "positions": [
                0.2505115488633529,
                -1.5575418312239637,
                2.1882090494332367,
                0.26659592995577214,
                -0.11652311650873648,
                2.264590505123404
            ]
        },
        {
            "positions": [
                0.19983230910707206,
                -1.5185449119875893,
                2.165389262614192,
                0.34819871033519373,
                -0.20831745261210677,
                2.1665038524102576
            ]
        },
        {
            "positions": [
                0.1491530693507911,
                -1.4795479927512152,
                2.1425694757951472,
                0.4298014907146153,
                -0.30011178871547717,
                2.0684171996971106
            ]
        },
        {
            "positions": [
                0.09847382959451023,
                -1.4405510735148408,
                2.1197496889761025,
                0.511404271094037,
                -0.39190612481884757,
                1.9703305469839636
            ]
        },
        {
            "positions": [
                0.04779458983822937,
                -1.4015541542784664,
                2.0969299021570578,
                0.5930070514734587,
                -0.48370046092221775,
                1.8722438942708166
            ]
        },
        {
            "positions": [
                -0.002884649918051596,
                -1.3625572350420923,
                2.074110115338013,
                0.6746098318528801,
                -0.5754947970255881,
                1.7741572415576699
            ]
        },
        {
            "positions": [
                -0.053563889674332454,
                -1.3235603158057176,
                2.0512903285189683,
                0.7562126122323016,
                -0.6672891331289583,
                1.676070588844523
            ]
        },
        {
            "positions": [
                -0.10424312943061331,
                -1.2845633965693435,
                2.0284705416999236,
                0.8378153926117233,
                -0.7590834692323287,
                1.577983936131376
            ]
        },
        {
            "positions": [
                -0.15492236918689417,
                -1.2455664773329693,
                2.005650754880879,
                0.919418172991145,
                -0.8508778053356991,
                1.4798972834182291
            ]
        },
        {
            "positions": [
                -0.20560160894317503,
                -1.2065695580965947,
                1.9828309680618341,
                1.0010209533705665,
                -0.9426721414390693,
                1.3818106307050824
            ]
        },
        {
            "positions": [
                -0.256280848699456,
                -1.1675726388602206,
                1.9600111812427894,
                1.082623733749988,
                -1.0344664775424397,
                1.2837239779919356
            ]
        },
        {
            "positions": [
                -0.30696008845573675,
                -1.1285757196238462,
                1.9371913944237447,
                1.1642265141294097,
                -1.1262608136458099,
                1.1856373252787886
            ]
        },
        {
            "positions": [
                -0.3576393282120177,
                -1.0895788003874718,
                1.9143716076047,
                1.2458292945088314,
                -1.2180551497491803,
                1.0875506725656416
            ]
        },
        {
            "positions": [
                -0.4083185679682987,
                -1.0505818811510976,
                1.8915518207856554,
                1.3274320748882529,
                -1.3098494858525507,
                0.9894640198524951
            ]
        },
        {
            "positions": [
                -0.45899780772457943,
                -1.0115849619147232,
                1.8687320339666107,
                1.4090348552676744,
                -1.4016438219559209,
                0.8913773671393481
            ]
        },
        {
            "positions": [
                -0.5096770474808604,
                -0.972588042678349,
                1.845912247147566,
                1.490637635647096,
                -1.4934381580592915,
                0.7932907144262011
            ]
        },
        {
            "positions": [
                -0.5603562872371414,
                -0.9335911234419747,
                1.8230924603285212,
                1.5722404160265178,
                -1.5852324941626617,
                0.6952040617130542
            ]
        },
        {
            "positions": [
                -0.6110355269934221,
                -0.8945942042056003,
                1.8002726735094765,
                1.6538431964059395,
                -1.6770268302660318,
                0.5971174089999072
            ]
        },
        {
            "positions": [
                -0.6617147667497031,
                -0.8555972849692259,
                1.777452886690432,
                1.7354459767853607,
                -1.768821166369402,
                0.49903075628676064
            ]
        },
        {
            "positions": [
                -0.7123940065059841,
                -0.8166003657328518,
                1.7546330998713873,
                1.8170487571647824,
                -1.8606155024727726,
                0.40094410357361365
            ]
        },
        {
            "positions": [
                -0.7630732462622648,
                -0.7776034464964774,
                1.7318133130523425,
                1.8986515375442041,
                -1.9524098385761428,
                0.30285745086046667
            ]
        },
        {
            "positions": [
                -0.8137524860185458,
                -0.738606527260103,
                1.7089935262332978,
                1.9802543179236254,
                -2.044204174679513,
                0.20477079814732013
            ]
        },
        {
            "positions": [
                -0.8644317257748265,
                -0.6996096080237288,
                1.686173739414253,
                2.061857098303047,
                -2.1359985107828834,
                0.10668414543417315
            ]
        },
        {
            "positions": [
                -0.9151109655311074,
                -0.6606126887873546,
                1.6633539525952084,
                2.1434598786824686,
                -2.227792846886254,
                0.008597492721026005
            ]
        }
    ]
}