{
    "goal": {
        "global_pose": {
            "orientation": {
                "w": 0.5084816262002911,
                "x": -0.4908360881923452,
                "y": 0.5182115481033761,
                "z": -0.48164630358495003
            },
            "position": {
                "x": 0.5540239810943604,
                "y": -0.46912469901144505,
                "z": 0.16403168439865112
            }
        },
        "name": "move_to_storage_B"
    },
    "id": "LBKPIECE_move_to_storage_B_108",
    "joint_names": [
        "shoulder_pan_joint",
        "shoulder_lift_joint",
        "elbow_joint",
        "wrist_1_joint",
        "wrist_2_joint",
        "wrist_3_joint"
    ],
    "metrics": {
        "cart_traj_len": 0.7984656930696447,
        "distance_elbow_joint": 0.4766685087058653,
        "distance_shoulder_lift_joint": 0.45857275923215757,
        "distance_shoulder_pan_joint": 0.6218999895320227,
        "distance_wrist_1_joint": 2.998546462775801,
        "distance_wrist_2_joint": 2.7002723609101444,
        "distance_wrist_3_joint": 3.5042266069086905,
        "smoothness": 0.3891537536938963,
        "time": 0.370259043,
        "traj_len": 3.280272349678405,
        "weighted_distance": 4.844322318505243
    },
    "planner": "LBKPIECE",
    "start": {
        "state": {
            "elbow_joint": 1.6649325340416963,
            "shoulder_lift_joint": -0.6616387945129425,
            "shoulder_pan_joint": -0.9139837929255878,
            "wrist_1_joint": 2.1467571094334352,
            "wrist_2_joint": -2.234195976750228,
            "wrist_3_joint": 0.005470921511140723
        }
    },
    "waypoints": [
        {
            "positions": [
                -0.9139837929255878,
                -0.6616387945129425,
                1.6649325340416963,
                2.1467571094334352,
                -2.234195976750228,
                0.005470921511140723
            ]
        },
        {
            "positions": [
                -0.8040363080563674,
                -0.6839621526545001,
                1.6338791479788752,
                2.117355915400145,
                -2.148368697017238,
                0.10006197789421034
            ]
        },
        {
            "positions": [
                -0.6940888231871469,
                -0.7062855107960578,
                1.602825761916054,
                2.087954721366855,
                -2.0625414172842484,
                0.19465303427727998
            ]
        },
        {
            "positions": [
                -0.7095505547176693,
                -0.7222057432171749,
                1.6187704440922164,
                1.9748876415703465,
                -1.9652868864594728,
                0.06715132296410492
            ]
        },
        {
            "positions": [
                -0.7250122862481917,
                -0.7381259756382919,
                1.6347151262683788,
                1.861820561773838,
                -1.8680323556346974,
                -0.06035038834907014
            ]
        },
        {
            "positions": [
                -0.740474017778714,
                -0.7540462080594088,
                1.6506598084445412,
                1.7487534819773294,
                -1.7707778248099217,
                -0.1878520996622452
            ]
        },
        {
            "positions": [
                -0.7559357493092365,
                -0.7699664404805259,
                1.6666044906207036,
                1.635686402180821,
                -1.673523293985146,
                -0.31535381097542026
            ]
        },
        {
            "positions": [
                -0.7713974808397588,
                -0.7858866729016429,
                1.682549172796866,
                1.5226193223843125,
                -1.5762687631603707,
                -0.44285552228859526
            ]
        },
        {
            "positions": [
                -0.7868592123702812,
                -0.8018069053227599,
                1.6984938549730284,
                1.409552242587804,
                -1.479014232335595,
                -0.5703572336017704
            ]
        },
        {
            "positions": [
                -0.8023209439008036,
                -0.8177271377438768,
                1.7144385371491908,
                1.2964851627912957,
                -1.3817597015108194,
                -0.6978589449149453
            ]
        },
        {
            "positions": [
                -0.817782675431326,
                -0.8336473701649939,
                1.7303832193253534,
                1.1834180829947871,
                -1.2845051706860438,
                -0.8253606562281205
            ]
        },
        {
            "positions": [
                -0.8332444069618483,
                -0.849567602586111,
                1.7463279015015158,
                1.0703510031982786,
                -1.1872506398612683,
                -0.9528623675412954
            ]
        },
        {
            "positions": [
                -0.8487061384923708,
                -0.8654878350072279,
                1.7622725836776783,
                0.95728392340177,
                -1.0899961090364927,
                -1.0803640788544704
            ]
        },
        {
            "positions": [
                -0.8641678700228931,
                -0.8814080674283449,
                1.7782172658538407,
                0.8442168436052617,
                -0.992741578211717,
                -1.2078657901676455
            ]
        },
        {
            "positions": [
                -0.8796296015534155,
                -0.8973282998494619,
                1.794161948030003,
                0.731149763808753,
                -0.8954870473869414,
                -1.3353675014808206
            ]
        },
        {
            "positions": [
                -0.8950913330839378,
                -0.913248532270579,
                1.8101066302061655,
                0.6180826840122446,
                -0.798232516562166,
                -1.4628692127939957
            ]
        },
        {
            "positions": [
                -0.9105530646144602,
                -0.929168764691696,
                1.8260513123823279,
                0.5050156042157363,
                -0.7009779857373906,
                -1.5903709241071704
            ]
        },
        {
            "positions": [
                -0.9260147961449826,
                -0.9450889971128129,
                1.8419959945584903,
                0.3919485244192278,
                -0.6037234549126149,
                -1.7178726354203455
            ]
        },
        {
            "positions": [
                -0.941476527675505,
                -0.96100922953393,
                1.8579406767346527,
                0.278881444622719,
                -0.5064689240878393,
                -1.845374346733521
            ]
        },
        {
            "positions": [
                -0.9569382592060274,
                -0.976929461955047,
                1.873885358910815,
                0.1658143648262107,
                -0.40921439326306364,
                -1.9728760580466957
            ]
        },
        {
            "positions": [
                -0.9723999907365497,
                -0.992849694376164,
                1.8898300410869775,
                0.05274728502970216,
                -0.3119598624382882,
                -2.100377769359871
            ]
        },
        {
            "positions": [
                -0.987861722267072,
                -1.008769926797281,
                1.9057747232631401,
                -0.06031979476680638,
                -0.21470533161351257,
                -2.227879480673046
            ]
        },
        {
            "positions": [
                -1.0033234537975946,
                -1.0246901592183981,
                1.9217194054393025,
                -0.17338687456331492,
                -0.11745080078873693,
                -2.355381191986221
            ]
        },
        {
            "positions": [
                -1.018785185328117,
                -1.040610391639515,
                1.937664087615465,
                -0.28645395435982346,
                -0.02019626996396129,
                -2.482882903299396
            ]
        },
        {
            "positions": [
                -1.0342469168586392,
                -1.056530624060632,
                1.9536087697916273,
                -0.39952103415633156,
                0.07705826086081435,
                -2.6103846146125713
            ]
        },
        {
            "positions": [
                -1.0497086483891616,
                -1.072450856481749,
                1.9695534519677897,
                -0.5125881139528401,
                0.17431279168558955,
                -2.737886325925746
            ]
        },
        {
            "positions": [
                -1.065170379919684,
                -1.088371088902866,
                1.9854981341439522,
                -0.6256551937493491,
                0.27156732251036564,
                -2.8653880372389215
            ]
        },
        {
            "positions": [
                -1.0806321114502064,
                -1.104291321323983,
                2.0014428163201146,
                -0.7387222735458572,
                0.36882185333514084,
                -2.992889748552096
            ]
        },
        {
            "positions": [
                -1.0960938429807288,
                -1.1202115537451,
                2.017387498496277,
                -0.8517893533423658,
                0.4660763841599166,
                -3.1203914598652713
            ]
        }
    ]
}