{
    "goal": {
        "global_pose": {
            "orientation": {
                "w": 0.7031023480610252,
                "x": -0.7110244013736278,
                "y": 0.0077485991402295624,
                "z": 0.005598929693374583
            },
            "position": {
                "x": -0.8841497679147869,
                "y": 0.44412534475326537,
                "z": 0.3711530566215515
            }
        },
        "name": "move_to_auspresseinheit_D"
    },
    "id": "LBKPIECE_move_to_auspresseinheit_D_39",
    "joint_names": [
        "shoulder_pan_joint",
        "shoulder_lift_joint",
        "elbow_joint",
        "wrist_1_joint",
        "wrist_2_joint",
        "wrist_3_joint"
    ],
    "metrics": {
        "cart_traj_len": 0.34250229971494206,
        "distance_elbow_joint": 0.6313369232101154,
        "distance_shoulder_lift_joint": 0.11738231181751768,
        "distance_shoulder_pan_joint": 0.13394575022000277,
        "distance_wrist_1_joint": 0.5197082961417223,
        "distance_wrist_2_joint": 1.4312397768517393,
        "distance_wrist_3_joint": 0.010366436990260741,
        "smoothness": 3.947459674368863e-16,
        "time": 0.348431174,
        "traj_len": 1.6864102393045883,
        "weighted_distance": 2.194461310254829
    },
    "planner": "LBKPIECE",
    "start": {
        "state": {
            "elbow_joint": -1.8275484843655228,
            "shoulder_lift_joint": -2.1267897864000416,
            "shoulder_pan_joint": -0.035127520176001514,
            "wrist_1_joint": -2.3477863256791385,
            "wrist_2_joint": -1.605890476484521,
            "wrist_3_joint": -3.0880375317375353
        }
    },
    "waypoints": [
        {
            "positions": [
                -0.035127520176001514,
                -2.1267897864000416,
                -1.8275484843655228,
                -2.3477863256791385,
                -1.605890476484521,
                -3.0880375317375353
            ]
        },
        {
            "positions": [
                -0.05187073895350186,
                -2.1414625753772314,
                -1.7486313689642583,
                -2.4127498626968538,
                -1.4269855043780535,
                -3.089333336361318
            ]
        },
        {
            "positions": [
                -0.0686139577310022,
                -2.156135364354421,
                -1.6697142535629939,
                -2.477713399714569,
                -1.2480805322715862,
                -3.0906291409851003
            ]
        },
        {
            "positions": [
                -0.08535717650850255,
                -2.1708081533316106,
                -1.5907971381617294,
                -2.5426769367322843,
                -1.0691755601651187,
                -3.091924945608883
            ]
        },
        {
            "positions": [
                -0.1021003952860029,
                -2.1854809423088004,
                -1.5118800227604652,
                -2.6076404737499996,
                -0.8902705880586513,
                -3.093220750232666
            ]
        },
        {
            "positions": [
                -0.11884361406350324,
                -2.2001537312859902,
                -1.4329629073592005,
                -2.672604010767715,
                -0.711365615952184,
                -3.0945165548564484
            ]
        },
        {
            "positions": [
                -0.1355868328410036,
                -2.2148265202631796,
                -1.3540457919579363,
                -2.73756754778543,
                -0.5324606438457165,
                -3.095812359480231
            ]
        },
        {
            "positions": [
                -0.15233005161850394,
                -2.2294993092403694,
                -1.2751286765566718,
                -2.8025310848031455,
                -0.3535556717392492,
                -3.0971081641040135
            ]
        },
        {
            "positions": [
                -0.16907327039600428,
                -2.2441720982175593,
                -1.1962115611554074,
                -2.867494621820861,
                -0.17465069963278168,
                -3.098403968727796
            ]
        }
    ]
}