{
    "goal": {
        "global_pose": {
            "orientation": {
                "w": -0.00223480608172531,
                "x": 0.0024358444001904467,
                "y": 0.7094548369677653,
                "z": -0.704743149386269
            },
            "position": {
                "x": -0.37947507619857795,
                "y": -0.6371506643295288,
                "z": 0.19426114857196808
            }
        },
        "name": "move_to_magneteinheit_C"
    },
    "id": "LBKPIECE_move_to_magneteinheit_C_139",
    "joint_names": [
        "shoulder_pan_joint",
        "shoulder_lift_joint",
        "elbow_joint",
        "wrist_1_joint",
        "wrist_2_joint",
        "wrist_3_joint"
    ],
    "metrics": {
        "cart_traj_len": 2.1546928457053984,
        "distance_elbow_joint": 1.0963661093932424,
        "distance_shoulder_lift_joint": 1.5950806845187449,
        "distance_shoulder_pan_joint": 2.2872265557796716,
        "distance_wrist_1_joint": 0.8231695326299627,
        "distance_wrist_2_joint": 1.5609387902947298,
        "distance_wrist_3_joint": 2.75759663371832,
        "smoothness": 1.8955323562463902,
        "time": 0.220117365,
        "traj_len": 3.1812542033504134,
        "weighted_distance": 4.244959351595255
    },
    "planner": "LBKPIECE",
    "start": {
        "state": {
            "elbow_joint": 1.9565354006593851,
            "shoulder_lift_joint": -1.4165861576512813,
            "shoulder_pan_joint": -1.6717766223278752,
            "wrist_1_joint": -0.528663328821883,
            "wrist_2_joint": 1.472756589259273,
            "wrist_3_joint": 3.159348288315503
        }
    },
    "waypoints": [
        {
            "positions": [
                -1.6717766223278752,
                -1.4165861576512813,
                1.9565354006593851,
                -0.528663328821883,
                1.472756589259273,
                3.159348288315503
            ]
        },
        {
            "positions": [
                -1.7435073944727466,
                -1.419488346597793,
                2.016681779520697,
                -0.548069915340674,
                1.3430473387706638,
                3.1725558380426513
            ]
        },
        {
            "positions": [
                -1.815238166617618,
                -1.422390535544305,
                2.0768281583820087,
                -0.5674765018594649,
                1.2133380882820548,
                3.185763387769799
            ]
        },
        {
            "positions": [
                -1.7381570165786762,
                -1.4777824045891959,
                2.042886503396807,
                -0.579165369878673,
                1.1862240186545692,
                3.0302787105780613
            ]
        },
        {
            "positions": [
                -1.6610758665397345,
                -1.5331742736340868,
                2.0089448484116055,
                -0.5908542378978812,
                1.1591099490270835,
                2.874794033386323
            ]
        },
        {
            "positions": [
                -1.5839947165007926,
                -1.5885661426789779,
                1.9750031934264038,
                -0.6025431059170893,
                1.131995879399598,
                2.7193093561945854
            ]
        },
        {
            "positions": [
                -1.506913566461851,
                -1.6439580117238688,
                1.9410615384412022,
                -0.6142319739362975,
                1.1048818097721123,
                2.563824679002847
            ]
        },
        {
            "positions": [
                -1.429832416422909,
                -1.6993498807687597,
                1.9071198834560004,
                -0.6259208419555056,
                1.0777677401446266,
                2.4083400018111094
            ]
        },
        {
            "positions": [
                -1.3527512663839674,
                -1.7547417498136506,
                1.8731782284707987,
                -0.6376097099747138,
                1.050653670517141,
                2.2528553246193717
            ]
        },
        {
            "positions": [
                -1.2756701163450255,
                -1.8101336188585417,
                1.839236573485597,
                -0.6492985779939219,
                1.0235396008896553,
                2.0973706474276335
            ]
        },
        {
            "positions": [
                -1.1985889663060836,
                -1.8655254879034326,
                1.8052949185003955,
                -0.66098744601313,
                0.9964255312621698,
                1.9418859702358955
            ]
        },
        {
            "positions": [
                -1.121507816267142,
                -1.9209173569483236,
                1.7713532635151938,
                -0.6726763140323382,
                0.9693114616346842,
                1.7864012930441575
            ]
        },
        {
            "positions": [
                -1.242099894309088,
                -1.8522704041481373,
                1.8026608380008369,
                -0.6487697638136903,
                0.9073778885798394,
                1.8442462824295167
            ]
        },
        {
            "positions": [
                -1.362691972351034,
                -1.7836234513479512,
                1.8339684124864797,
                -0.6248632135950424,
                0.8454443155249944,
                1.902091271814876
            ]
        },
        {
            "positions": [
                -1.4832840503929798,
                -1.714976498547765,
                1.8652759869721227,
                -0.6009566633763945,
                0.7835107424701496,
                1.959936261200235
            ]
        },
        {
            "positions": [
                -1.603876128434926,
                -1.6463295457475788,
                1.8965835614577655,
                -0.5770501131577466,
                0.7215771694153048,
                2.0177812505855943
            ]
        },
        {
            "positions": [
                -1.724468206476872,
                -1.5776825929473925,
                1.9278911359434086,
                -0.5531435629390987,
                0.6596435963604599,
                2.075626239970953
            ]
        },
        {
            "positions": [
                -1.845060284518818,
                -1.5090356401472065,
                1.9591987104290514,
                -0.5292370127204508,
                0.5977100233056152,
                2.1334712293563123
            ]
        },
        {
            "positions": [
                -1.965652362560764,
                -1.4403886873470202,
                1.9905062849146944,
                -0.5053304625018029,
                0.5357764502507703,
                2.1913162187416715
            ]
        },
        {
            "positions": [
                -2.08624444060271,
                -1.3717417345468341,
                2.0218138594003374,
                -0.48142391228315495,
                0.4738428771959254,
                2.2491612081270307
            ]
        },
        {
            "positions": [
                -2.206836518644656,
                -1.3030947817466478,
                2.0531214338859805,
                -0.4575173620645071,
                0.4119093041410805,
                2.30700619751239
            ]
        },
        {
            "positions": [
                -2.327428596686602,
                -1.2344478289464615,
                2.084429008371623,
                -0.4336108118458592,
                0.3499757310862357,
                2.364851186897749
            ]
        },
        {
            "positions": [
                -2.4480206747285482,
                -1.1658008761462755,
                2.115736582857266,
                -0.4097042616272113,
                0.28804215803139094,
                2.4226961762831083
            ]
        },
        {
            "positions": [
                -2.4668157131195882,
                -1.2072681826922331,
                2.1428638598982186,
                -0.497223792492428,
                0.3799303027675581,
                2.5145911713295863
            ]
        },
        {
            "positions": [
                -2.4856107515106283,
                -1.2487354892381908,
                2.1699911369391707,
                -0.5847433233576447,
                0.47181844750372537,
                2.6064861663760643
            ]
        },
        {
            "positions": [
                -2.504405789901668,
                -1.2902027957841482,
                2.197118413980123,
                -0.6722628542228615,
                0.5637065922398925,
                2.698381161422542
            ]
        },
        {
            "positions": [
                -2.523200828292708,
                -1.3316701023301059,
                2.2242456910210757,
                -0.7597823850880782,
                0.6555947369760597,
                2.79027615646902
            ]
        },
        {
            "positions": [
                -2.5070869452547457,
                -1.275082176251498,
                2.151677014588435,
                -0.7818178422725828,
                0.6584853303501194,
                2.8995910151735265
            ]
        },
        {
            "positions": [
                -2.490973062216783,
                -1.2184942501728897,
                2.079108338155794,
                -0.8038532994570874,
                0.661375923724179,
                3.0089058738780334
            ]
        },
        {
            "positions": [
                -2.474859179178821,
                -1.1619063240942817,
                2.0065396617231537,
                -0.825888756641592,
                0.6642665170982386,
                3.11822073258254
            ]
        }
    ]
}