{
    "goal": {
        "global_pose": {
            "orientation": {
                "w": -0.00223480608172531,
                "x": 0.0024358444001904467,
                "y": 0.7094548369677653,
                "z": -0.704743149386269
            },
            "position": {
                "x": -0.37947507619857795,
                "y": -0.6371506643295288,
                "z": 0.19426114857196808
            }
        },
        "name": "move_to_magneteinheit_C"
    },
    "id": "LBKPIECE_move_to_magneteinheit_C_141",
    "joint_names": [
        "shoulder_pan_joint",
        "shoulder_lift_joint",
        "elbow_joint",
        "wrist_1_joint",
        "wrist_2_joint",
        "wrist_3_joint"
    ],
    "metrics": {
        "cart_traj_len": 1.3623441872170867,
        "distance_elbow_joint": 1.5739673753408596,
        "distance_shoulder_lift_joint": 0.5254438321838004,
        "distance_shoulder_pan_joint": 1.243524330501246,
        "distance_wrist_1_joint": 2.493246965935966,
        "distance_wrist_2_joint": 2.755175324294543,
        "distance_wrist_3_joint": 2.1623010838278054,
        "smoothness": 0.6157990947411136,
        "time": 0.445119487,
        "traj_len": 3.2792771935419274,
        "weighted_distance": 4.508512323369022
    },
    "planner": "LBKPIECE",
    "start": {
        "state": {
            "elbow_joint": 1.9565354006593851,
            "shoulder_lift_joint": -1.4165861576512813,
            "shoulder_pan_joint": -1.6717766223278752,
            "wrist_1_joint": -0.528663328821883,
            "wrist_2_joint": 1.472756589259273,
            "wrist_3_joint": 3.159348288315503
        }
    },
    "waypoints": [
        {
            "positions": [
                -1.6717766223278752,
                -1.4165861576512813,
                1.9565354006593851,
                -0.528663328821883,
                1.472756589259273,
                3.159348288315503
            ]
        },
        {
            "positions": [
                -1.6133549603552266,
                -1.4402299209148746,
                1.9760165710788704,
                -0.46230804469210224,
                1.4512689455346202,
                3.1597203750984595
            ]
        },
        {
            "positions": [
                -1.6146444525721981,
                -1.424097537265574,
                1.9125571520352653,
                -0.3760442548107283,
                1.3336037783982395,
                3.0678385388667784
            ]
        },
        {
            "positions": [
                -1.6159339447891699,
                -1.4079651536162734,
                1.8490977329916605,
                -0.28978046492935433,
                1.215938611261859,
                2.9759567026350973
            ]
        },
        {
            "positions": [
                -1.6172234370061416,
                -1.3918327699669728,
                1.7856383139480556,
                -0.20351667504798038,
                1.0982734441254784,
                2.884074866403416
            ]
        },
        {
            "positions": [
                -1.618512929223113,
                -1.3757003863176722,
                1.7221788949044505,
                -0.11725288516660642,
                0.980608276989098,
                2.792193030171735
            ]
        },
        {
            "positions": [
                -1.6198024214400846,
                -1.3595680026683716,
                1.6587194758608454,
                -0.03098909528523247,
                0.8629431098527174,
                2.700311193940054
            ]
        },
        {
            "positions": [
                -1.6210919136570563,
                -1.343435619019071,
                1.5952600568172406,
                0.05527469459614148,
                0.7452779427163368,
                2.608429357708373
            ]
        },
        {
            "positions": [
                -1.622381405874028,
                -1.3273032353697702,
                1.5318006377736355,
                0.14153848447751544,
                0.6276127755799562,
                2.5165475214766917
            ]
        },
        {
            "positions": [
                -1.6236708980909995,
                -1.3111708517204697,
                1.4683412187300307,
                0.2278022743588894,
                0.5099476084435758,
                2.4246656852450106
            ]
        },
        {
            "positions": [
                -1.624960390307971,
                -1.295038468071169,
                1.4048817996864256,
                0.31406606424026334,
                0.39228244130719525,
                2.3327838490133295
            ]
        },
        {
            "positions": [
                -1.6262498825249427,
                -1.2789060844218685,
                1.3414223806428207,
                0.4003298541216373,
                0.2746172741708146,
                2.2409020127816484
            ]
        },
        {
            "positions": [
                -1.6275393747419145,
                -1.262773700772568,
                1.2779629615992159,
                0.48659364400301125,
                0.15695210703443419,
                2.1490201765499672
            ]
        },
        {
            "positions": [
                -1.628828866958886,
                -1.2466413171232673,
                1.2145035425556108,
                0.5728574338843851,
                0.0392869398980536,
                2.057138340318286
            ]
        },
        {
            "positions": [
                -1.7495094594279679,
                -1.2251334880386369,
                1.2808267021337207,
                0.5444255575210724,
                -0.02900878007600774,
                2.0804071713277192
            ]
        },
        {
            "positions": [
                -1.87019005189705,
                -1.2036256589540066,
                1.3471498617118305,
                0.5159936811577596,
                -0.09730450005006908,
                2.1036760023371524
            ]
        },
        {
            "positions": [
                -1.990870644366132,
                -1.1821178298693762,
                1.4134730212899405,
                0.4875618047944468,
                -0.16560022002413038,
                2.126944833346586
            ]
        },
        {
            "positions": [
                -2.111551236835214,
                -1.160610000784746,
                1.4797961808680502,
                0.459129928431134,
                -0.23389593999819175,
                2.150213664356019
            ]
        },
        {
            "positions": [
                -2.232231829304296,
                -1.1391021717001155,
                1.5461193404461602,
                0.4306980520678212,
                -0.30219165997225306,
                2.173482495365452
            ]
        },
        {
            "positions": [
                -2.3259438273857693,
                -1.1176146204535884,
                1.6198808058508047,
                0.3588405581929536,
                -0.2927674275469731,
                2.2721981687961255
            ]
        },
        {
            "positions": [
                -2.4196558254672427,
                -1.096127069207061,
                1.6936422712554493,
                0.286983064318086,
                -0.28334319512169315,
                2.3709138422267984
            ]
        },
        {
            "positions": [
                -2.513367823548716,
                -1.074639517960534,
                1.7674037366600939,
                0.21512557044321842,
                -0.2739189626964132,
                2.4696295156574717
            ]
        },
        {
            "positions": [
                -2.6070798216301894,
                -1.0531519667140068,
                1.8411652020647384,
                0.14326807656835086,
                -0.26449473027113324,
                2.568345189088145
            ]
        },
        {
            "positions": [
                -2.6358105092369426,
                -1.0512038396433434,
                1.888141173909978,
                0.026286947711393845,
                -0.17479778908663707,
                2.6699546228167765
            ]
        },
        {
            "positions": [
                -2.6125752064302454,
                -1.06731440930744,
                1.9051891089162276,
                -0.09444958329670697,
                -0.05296447420415129,
                2.7337447199262317
            ]
        },
        {
            "positions": [
                -2.589339903623548,
                -1.0834249789715364,
                1.9222370439224774,
                -0.21518611430480777,
                0.06886884067833449,
                2.7975348170356864
            ]
        },
        {
            "positions": [
                -2.5661046008168507,
                -1.099535548635633,
                1.939284978928727,
                -0.33592264531290855,
                0.19070215556082026,
                2.8613249141451416
            ]
        },
        {
            "positions": [
                -2.542869298010153,
                -1.1156461182997297,
                1.9563329139349765,
                -0.4566591763210094,
                0.31253547044330604,
                2.9251150112545967
            ]
        },
        {
            "positions": [
                -2.519633995203456,
                -1.1317566879638263,
                1.9733808489412261,
                -0.5773957073291103,
                0.4343687853257919,
                2.988905108364052
            ]
        },
        {
            "positions": [
                -2.4963986923967583,
                -1.1478672576279227,
                1.990428783947476,
                -0.6981322383372109,
                0.5562021002082775,
                3.0526952054735066
            ]
        },
        {
            "positions": [
                -2.473163389590061,
                -1.1639778272920194,
                2.0074767189537255,
                -0.8188687693453118,
                0.6780354150907634,
                3.1164853025829617
            ]
        }
    ]
}