{
    "goal": {
        "global_pose": {
            "orientation": {
                "w": -0.4816463035849501,
                "x": 0.5182115481033762,
                "y": 0.4908360881923453,
                "z": -0.5084816262002911
            },
            "position": {
                "x": -0.8240239810943604,
                "y": -0.300875300988555,
                "z": 0.16403168439865112
            }
        },
        "name": "move_to_storage_C"
    },
    "id": "LBKPIECE_move_to_storage_C_87",
    "joint_names": [
        "shoulder_pan_joint",
        "shoulder_lift_joint",
        "elbow_joint",
        "wrist_1_joint",
        "wrist_2_joint",
        "wrist_3_joint"
    ],
    "metrics": {
        "cart_traj_len": 0.5761187002499226,
        "distance_elbow_joint": 0.2552762893892928,
        "distance_shoulder_lift_joint": 0.1890472839111652,
        "distance_shoulder_pan_joint": 0.49506655233487074,
        "distance_wrist_1_joint": 0.06787120713173955,
        "distance_wrist_2_joint": 1.0602096680173543,
        "distance_wrist_3_joint": 0.056292406599826705,
        "smoothness": 1.0150610591234219e-15,
        "time": 0.7484347040000001,
        "traj_len": 1.4573137642197198,
        "weighted_distance": 1.8342380150168616
    },
    "planner": "LBKPIECE",
    "start": {
        "state": {
            "elbow_joint": 2.0108683149792914,
            "shoulder_lift_joint": -1.1634956873317392,
            "shoulder_pan_joint": -2.4736205022346,
            "wrist_1_joint": -0.8367026793690192,
            "wrist_2_joint": 0.6746043897045053,
            "wrist_3_joint": 3.133522094754363
        }
    },
    "waypoints": [
        {
            "positions": [
                -2.4736205022346,
                -1.1634956873317392,
                2.0108683149792914,
                -0.8367026793690192,
                0.6746043897045053,
                3.133522094754363
            ]
        },
        {
            "positions": [
                -2.5561315942904117,
                -1.1319878066798783,
                1.9683222667477427,
                -0.8253908115137293,
                0.851306001040731,
                3.142904162521001
            ]
        },
        {
            "positions": [
                -2.638642686346224,
                -1.1004799260280176,
                1.9257762185161937,
                -0.8140789436584394,
                1.0280076123769568,
                3.152286230287639
            ]
        },
        {
            "positions": [
                -2.7211537784020354,
                -1.0689720453761566,
                1.883230170284645,
                -0.8027670758031494,
                1.2047092237131825,
                3.1616682980542765
            ]
        },
        {
            "positions": [
                -2.803664870457847,
                -1.0374641647242957,
                1.8406841220530963,
                -0.7914552079478595,
                1.381410835049408,
                3.171050365820914
            ]
        },
        {
            "positions": [
                -2.886175962513659,
                -1.005956284072435,
                1.7981380738215473,
                -0.7801433400925696,
                1.558112446385634,
                3.1804324335875522
            ]
        },
        {
            "positions": [
                -2.968687054569471,
                -0.974448403420574,
                1.7555920255899986,
                -0.7688314722372797,
                1.7348140577218596,
                3.18981450135419
            ]
        }
    ]
}