{
    "goal": {
        "global_pose": {
            "orientation": {
                "w": 0.005598929693374612,
                "x": 0.007748599140229565,
                "y": 0.7110244013736278,
                "z": -0.7031023480610252
            },
            "position": {
                "x": 0.1141497679147869,
                "y": -0.7141253447532654,
                "z": 0.3711530566215515
            }
        },
        "name": "move_to_auspresseinheit_B"
    },
    "id": "LBKPIECE_move_to_auspresseinheit_B_122",
    "joint_names": [
        "shoulder_pan_joint",
        "shoulder_lift_joint",
        "elbow_joint",
        "wrist_1_joint",
        "wrist_2_joint",
        "wrist_3_joint"
    ],
    "metrics": {
        "cart_traj_len": 0.5644452212060308,
        "distance_elbow_joint": 0.060895174153656084,
        "distance_shoulder_lift_joint": 0.2940107098093556,
        "distance_shoulder_pan_joint": 0.5773267278756318,
        "distance_wrist_1_joint": 0.31730031885204657,
        "distance_wrist_2_joint": 0.9892763419819148,
        "distance_wrist_3_joint": 0.0033656273584008467,
        "smoothness": 5.075305295617109e-16,
        "time": 0.5077613129999999,
        "traj_len": 1.4973893615325993,
        "weighted_distance": 1.8855987949672035
    },
    "planner": "LBKPIECE",
    "start": {
        "state": {
            "elbow_joint": 2.0193061681459312,
            "shoulder_lift_joint": -1.1220205130644991,
            "shoulder_pan_joint": -1.0952072088045026,
            "wrist_1_joint": -0.8559671810662515,
            "wrist_2_joint": 0.4759638712940361,
            "wrist_3_joint": 3.159081874192446
        }
    },
    "waypoints": [
        {
            "positions": [
                -1.0952072088045026,
                -1.1220205130644991,
                2.0193061681459312,
                -0.8559671810662515,
                0.4759638712940361,
                3.159081874192446
            ]
        },
        {
            "positions": [
                -1.191428330117108,
                -1.171022298032725,
                2.0091569724536553,
                -0.8030837945909104,
                0.6408432616243552,
                3.158520936299379
            ]
        },
        {
            "positions": [
                -1.2876494514297132,
                -1.220024083000951,
                1.9990077767613792,
                -0.7502004081155693,
                0.8057226519546743,
                3.1579599984063123
            ]
        },
        {
            "positions": [
                -1.3838705727423184,
                -1.269025867969177,
                1.988858581069103,
                -0.6973170216402282,
                0.9706020422849935,
                3.157399060513246
            ]
        },
        {
            "positions": [
                -1.4800916940549238,
                -1.3180276529374029,
                1.9787093853768272,
                -0.6444336351648872,
                1.1354814326153126,
                3.156838122620179
            ]
        },
        {
            "positions": [
                -1.5763128153675292,
                -1.3670294379056287,
                1.9685601896845513,
                -0.591550248689546,
                1.3003608229456318,
                3.156277184727112
            ]
        },
        {
            "positions": [
                -1.6725339366801344,
                -1.4160312228738547,
                1.9584109939922751,
                -0.5386668622142049,
                1.465240213275951,
                3.155716246834045
            ]
        }
    ]
}