{
    "goal": {
        "global_pose": {
            "orientation": {
                "w": 0.5084816262002911,
                "x": -0.4908360881923452,
                "y": 0.5182115481033761,
                "z": -0.48164630358495003
            },
            "position": {
                "x": 0.5540239810943604,
                "y": -0.46912469901144505,
                "z": 0.16403168439865112
            }
        },
        "name": "move_to_storage_B"
    },
    "id": "LBKPIECE_move_to_storage_B_6",
    "joint_names": [
        "shoulder_pan_joint",
        "shoulder_lift_joint",
        "elbow_joint",
        "wrist_1_joint",
        "wrist_2_joint",
        "wrist_3_joint"
    ],
    "metrics": {
        "cart_traj_len": 1.4756668992326176,
        "distance_elbow_joint": 1.5784395321814564,
        "distance_shoulder_lift_joint": 0.4587436058669643,
        "distance_shoulder_pan_joint": 1.0389983803073741,
        "distance_wrist_1_joint": 2.982223901005786,
        "distance_wrist_2_joint": 2.7022591883769254,
        "distance_wrist_3_joint": 3.1394127966380827,
        "smoothness": 0.19249629347857106,
        "time": 0.404531769,
        "traj_len": 3.4496488813177186,
        "weighted_distance": 4.8850164878980165
    },
    "planner": "LBKPIECE",
    "start": {
        "state": {
            "elbow_joint": 1.6649325340416963,
            "shoulder_lift_joint": -0.6616387945129425,
            "shoulder_pan_joint": -0.9139837929255878,
            "wrist_1_joint": 2.1467571094334352,
            "wrist_2_joint": -2.234195976750228,
            "wrist_3_joint": 0.005470921511140723
        }
    },
    "waypoints": [
        {
            "positions": [
                -0.9139837929255878,
                -0.6616387945129425,
                1.6649325340416963,
                2.1467571094334352,
                -2.234195976750228,
                0.005470921511140723
            ]
        },
        {
            "positions": [
                -0.8940116632943643,
                -0.6786035246339851,
                1.6507537394812986,
                2.099270618543618,
                -2.200491040479628,
                0.006327585543163573
            ]
        },
        {
            "positions": [
                -0.8429041616060019,
                -0.718561677936425,
                1.575692647286938,
                1.998711855340447,
                -2.094626670938603,
                -0.013657380729661491
            ]
        },
        {
            "positions": [
                -0.7917966599176395,
                -0.758519831238865,
                1.5006315550925775,
                1.8981530921372762,
                -1.9887623013975788,
                -0.033642347002486556
            ]
        },
        {
            "positions": [
                -0.7406891582292771,
                -0.7984779845413049,
                1.4255704628982169,
                1.7975943289341054,
                -1.8828979318565542,
                -0.053627313275311624
            ]
        },
        {
            "positions": [
                -0.6895816565409146,
                -0.8384361378437448,
                1.3505093707038562,
                1.6970355657309346,
                -1.7770335623155296,
                -0.07361227954813668
            ]
        },
        {
            "positions": [
                -0.6384741548525522,
                -0.8783942911461848,
                1.2754482785094956,
                1.5964768025277638,
                -1.671169192774505,
                -0.09359724582096174
            ]
        },
        {
            "positions": [
                -0.5873666531641898,
                -0.9183524444486247,
                1.200387186315135,
                1.4959180393245932,
                -1.5653048232334803,
                -0.11358221209378683
            ]
        },
        {
            "positions": [
                -0.5362591514758274,
                -0.9583105977510646,
                1.1253260941207746,
                1.3953592761214224,
                -1.4594404536924557,
                -0.1335671783666119
            ]
        },
        {
            "positions": [
                -0.48515164978746494,
                -0.9982687510535047,
                1.050265001926414,
                1.2948005129182516,
                -1.353576084151431,
                -0.15355214463943695
            ]
        },
        {
            "positions": [
                -0.5128864787497036,
                -1.003819371477432,
                1.09407282011124,
                1.1979701808959515,
                -1.2707742979796979,
                -0.28894652656777603
            ]
        },
        {
            "positions": [
                -0.5406213077119423,
                -1.0093699919013595,
                1.137880638296066,
                1.1011398488736515,
                -1.1879725118079647,
                -0.4243409084961151
            ]
        },
        {
            "positions": [
                -0.5683561366741811,
                -1.0149206123252867,
                1.1816884564808923,
                1.0043095168513512,
                -1.1051707256362315,
                -0.5597352904244541
            ]
        },
        {
            "positions": [
                -0.5960909656364197,
                -1.020471232749214,
                1.2254962746657183,
                0.9074791848290511,
                -1.0223689394644984,
                -0.6951296723527933
            ]
        },
        {
            "positions": [
                -0.6238257945986584,
                -1.0260218531731415,
                1.2693040928505444,
                0.810648852806751,
                -0.9395671532927652,
                -0.8305240542811323
            ]
        },
        {
            "positions": [
                -0.6515606235608971,
                -1.0315724735970688,
                1.3131119110353704,
                0.713818520784451,
                -0.856765367121032,
                -0.9659184362094713
            ]
        },
        {
            "positions": [
                -0.6792954525231358,
                -1.0371230940209963,
                1.3569197292201967,
                0.6169881887621509,
                -0.7739635809492988,
                -1.1013128181378105
            ]
        },
        {
            "positions": [
                -0.7070302814853745,
                -1.0426737144449236,
                1.4007275474050227,
                0.5201578567398507,
                -0.6911617947775657,
                -1.2367072000661496
            ]
        },
        {
            "positions": [
                -0.7347651104476132,
                -1.048224334868851,
                1.4445353655898487,
                0.42332752471755053,
                -0.6083600086058325,
                -1.3721015819944886
            ]
        },
        {
            "positions": [
                -0.7624999394098518,
                -1.0537749552927784,
                1.4883431837746748,
                0.32649719269525057,
                -0.5255582224340993,
                -1.5074959639228276
            ]
        },
        {
            "positions": [
                -0.7902347683720905,
                -1.0593255757167057,
                1.5321510019595008,
                0.2296668606729504,
                -0.44275643626236616,
                -1.6428903458511668
            ]
        },
        {
            "positions": [
                -0.8179695973343293,
                -1.064876196140633,
                1.575958820144327,
                0.13283652865065032,
                -0.3599546500906331,
                -1.7782847277795057
            ]
        },
        {
            "positions": [
                -0.845704426296568,
                -1.0704268165645605,
                1.6197666383291531,
                0.03600619662835003,
                -0.2771528639188998,
                -1.913679109707845
            ]
        },
        {
            "positions": [
                -0.8734392552588066,
                -1.0759774369884878,
                1.6635744565139792,
                -0.06082413539394982,
                -0.19435107774716665,
                -2.0490734916361837
            ]
        },
        {
            "positions": [
                -0.9011740842210453,
                -1.081528057412415,
                1.7073822746988052,
                -0.1576544674162499,
                -0.11154929157543347,
                -2.1844678735645227
            ]
        },
        {
            "positions": [
                -0.928908913183284,
                -1.0870786778363426,
                1.7511900928836313,
                -0.2544847994385502,
                -0.028747505403700302,
                -2.319862255492862
            ]
        },
        {
            "positions": [
                -0.9566437421455227,
                -1.0926292982602699,
                1.7949979110684575,
                -0.35131513146085025,
                0.05405428076803287,
                -2.455256637421201
            ]
        },
        {
            "positions": [
                -0.9843785711077615,
                -1.0981799186841974,
                1.8388057292532838,
                -0.44814546348315054,
                0.13685606693976604,
                -2.59065101934954
            ]
        },
        {
            "positions": [
                -1.01211340007,
                -1.1037305391081247,
                1.8826135474381096,
                -0.5449757955054506,
                0.2196578531114992,
                -2.726045401277879
            ]
        },
        {
            "positions": [
                -1.0398482290322386,
                -1.109281159532052,
                1.9264213656229359,
                -0.6418061275277505,
                0.3024596392832324,
                -2.861439783206218
            ]
        },
        {
            "positions": [
                -1.0675830579944776,
                -1.1148317799559795,
                1.970229183807762,
                -0.7386364595500508,
                0.38526142545496556,
                -2.9968341651345574
            ]
        },
        {
            "positions": [
                -1.0953178869567162,
                -1.1203824003799068,
                2.014037001992588,
                -0.8354667915723507,
                0.46806321162669867,
                -3.1322285470628963
            ]
        }
    ]
}