{
    "goal": {
        "global_pose": {
            "orientation": {
                "w": 0.7031023502349854,
                "x": -0.7110244035720825,
                "y": 0.007748599164187908,
                "z": 0.005598929710686207
            },
            "position": {
                "x": 0.11585023208521307,
                "y": 0.44412534475326537,
                "z": 0.3711530566215515
            }
        },
        "name": "move_to_auspresseinheit_A"
    },
    "id": "LBKPIECE_move_to_auspresseinheit_A_38",
    "joint_names": [
        "shoulder_pan_joint",
        "shoulder_lift_joint",
        "elbow_joint",
        "wrist_1_joint",
        "wrist_2_joint",
        "wrist_3_joint"
    ],
    "metrics": {
        "cart_traj_len": 2.6783716455291757,
        "distance_elbow_joint": 4.1373407031389675,
        "distance_shoulder_lift_joint": 1.7506485479052036,
        "distance_shoulder_pan_joint": 1.9350985011840949,
        "distance_wrist_1_joint": 1.8636305312356334,
        "distance_wrist_2_joint": 1.2118174384065963,
        "distance_wrist_3_joint": 6.289433541858523,
        "smoothness": 0.39899081102636913,
        "time": 0.409052714,
        "traj_len": 4.145837582893114,
        "weighted_distance": 5.730818817332152
    },
    "planner": "LBKPIECE",
    "start": {
        "state": {
            "elbow_joint": 2.4225746994637096,
            "shoulder_lift_joint": -1.373653595662188,
            "shoulder_pan_joint": -0.3378633848294565,
            "wrist_1_joint": -1.0288595594406726,
            "wrist_2_joint": 1.2330228066703421,
            "wrist_3_joint": 3.189163495502006
        }
    },
    "waypoints": [
        {
            "positions": [
                -0.3378633848294565,
                -1.373653595662188,
                2.4225746994637096,
                -1.0288595594406726,
                1.2330228066703421,
                3.189163495502006
            ]
        },
        {
            "positions": [
                -0.33707367632482665,
                -1.3733326251844622,
                2.4210825181577436,
                -1.020011242940147,
                1.2251889233235853,
                3.1774777454084244
            ]
        },
        {
            "positions": [
                -0.2862904580881553,
                -1.3470589689483172,
                2.316902586421566,
                -0.9842675899527739,
                1.1821300922337388,
                3.042805613067521
            ]
        },
        {
            "positions": [
                -0.2355072398514839,
                -1.3207853127121723,
                2.212722654685389,
                -0.9485239369654008,
                1.1390712611438922,
                2.908133480726618
            ]
        },
        {
            "positions": [
                -0.18472402161481252,
                -1.2945116564760273,
                2.108542722949212,
                -0.9127802839780278,
                1.096012430054046,
                2.7734613483857142
            ]
        },
        {
            "positions": [
                -0.13394080337814113,
                -1.2682380002398823,
                2.0043627912130346,
                -0.8770366309906548,
                1.0529535989641994,
                2.638789216044811
            ]
        },
        {
            "positions": [
                -0.08315758514146976,
                -1.2419643440037373,
                1.9001828594768573,
                -0.8412929780032817,
                1.0098947678743528,
                2.5041170837039077
            ]
        },
        {
            "positions": [
                -0.03237436690479839,
                -1.2156906877675924,
                1.79600292774068,
                -0.8055493250159087,
                0.9668359367845064,
                2.3694449513630045
            ]
        },
        {
            "positions": [
                0.018408851331872977,
                -1.1894170315314474,
                1.6918229960045028,
                -0.7698056720285357,
                0.92377710569466,
                2.2347728190221012
            ]
        },
        {
            "positions": [
                0.0691920695685444,
                -1.1631433752953024,
                1.5876430642683255,
                -0.7340620190411626,
                0.8807182746048134,
                2.1001006866811975
            ]
        },
        {
            "positions": [
                0.11997528780521577,
                -1.1368697190591575,
                1.4834631325321483,
                -0.6983183660537896,
                0.8376594435149669,
                1.9654285543402943
            ]
        },
        {
            "positions": [
                0.17075850604188714,
                -1.1105960628230127,
                1.379283200795971,
                -0.6625747130664166,
                0.7946006124251205,
                1.830756421999391
            ]
        },
        {
            "positions": [
                0.22154172427855856,
                -1.0843224065868675,
                1.2751032690597937,
                -0.6268310600790434,
                0.7515417813352739,
                1.6960842896584876
            ]
        },
        {
            "positions": [
                0.2723249425152299,
                -1.0580487503507228,
                1.1709233373236165,
                -0.5910874070916705,
                0.7084829502454275,
                1.5614121573175843
            ]
        },
        {
            "positions": [
                0.3231081607519013,
                -1.0317750941145776,
                1.0667434055874392,
                -0.5553437541042975,
                0.665424119155581,
                1.426740024976681
            ]
        },
        {
            "positions": [
                0.3738913789885726,
                -1.0055014378784328,
                0.9625634738512621,
                -0.5196001011169245,
                0.6223652880657345,
                1.2920678926357778
            ]
        },
        {
            "positions": [
                0.42467459722524403,
                -0.9792277816422879,
                0.8583835421150847,
                -0.4838564481295514,
                0.5793064569758881,
                1.1573957602948743
            ]
        },
        {
            "positions": [
                0.47545781546191546,
                -0.9529541254061429,
                0.7542036103789074,
                -0.4481127951421784,
                0.5362476258860416,
                1.022723627953971
            ]
        },
        {
            "positions": [
                0.5262410336985868,
                -0.9266804691699979,
                0.6500236786427303,
                -0.41236914215480536,
                0.49318879479619515,
                0.8880514956130678
            ]
        },
        {
            "positions": [
                0.5770242519352582,
                -0.9004068129338529,
                0.5458437469065529,
                -0.3766254891674323,
                0.4501299637063486,
                0.7533793632721641
            ]
        },
        {
            "positions": [
                0.6278074701719295,
                -0.874133156697708,
                0.4416638151703758,
                -0.3408818361800593,
                0.4070711326165022,
                0.6187072309312609
            ]
        },
        {
            "positions": [
                0.678590688408601,
                -0.847859500461563,
                0.33748388343419844,
                -0.30513818319268626,
                0.36401230152665565,
                0.48403509859035754
            ]
        },
        {
            "positions": [
                0.7460485720766783,
                -0.9309141297608492,
                0.4413969191758623,
                -0.23418940666328153,
                0.365686442678543,
                0.41796801538745426
            ]
        },
        {
            "positions": [
                0.8135064557447554,
                -1.0139687590601354,
                0.5453099549175262,
                -0.1632406301338768,
                0.3673605838304303,
                0.351900932184551
            ]
        },
        {
            "positions": [
                0.8809643394128327,
                -1.0970233883594218,
                0.64922299065919,
                -0.09229185360447206,
                0.36903472498231765,
                0.28583384898164776
            ]
        },
        {
            "positions": [
                0.9484222230809098,
                -1.180078017658708,
                0.7531360264008539,
                -0.02134307707506733,
                0.37070886613420495,
                0.2197667657787445
            ]
        },
        {
            "positions": [
                1.015880106748987,
                -1.2631326469579944,
                0.8570490621425177,
                0.049605699454337404,
                0.3723830072860923,
                0.1536996825758412
            ]
        },
        {
            "positions": [
                1.0833379904170644,
                -1.3461872762572806,
                0.9609620978841816,
                0.12055447598374214,
                0.3740571484379796,
                0.08763259937293799
            ]
        },
        {
            "positions": [
                1.1507958740851416,
                -1.4292419055565668,
                1.0648751336258455,
                0.19150325251314687,
                0.37573128958986696,
                0.021565516170034722
            ]
        },
        {
            "positions": [
                1.140006585281411,
                -1.4853219832966387,
                1.1788248572569282,
                0.18616691955985554,
                0.3943714329624325,
                0.17812872563405427
            ]
        },
        {
            "positions": [
                1.1292172964776803,
                -1.5414020610367105,
                1.2927745808880111,
                0.18083058660656423,
                0.41301157633499797,
                0.3346919350980738
            ]
        },
        {
            "positions": [
                1.11842800767395,
                -1.5974821387767824,
                1.406724304519094,
                0.1754942536532729,
                0.4316517197075635,
                0.4912551445620933
            ]
        },
        {
            "positions": [
                1.1076387188702193,
                -1.6535622165168542,
                1.5206740281501767,
                0.1701579206999816,
                0.45029186308012903,
                0.647818354026113
            ]
        },
        {
            "positions": [
                1.0968494300664886,
                -1.709642294256926,
                1.6346237517812594,
                0.16482158774669026,
                0.4689320064526945,
                0.8043815634901325
            ]
        },
        {
            "positions": [
                1.086060141262758,
                -1.7657223719969979,
                1.7485734754123423,
                0.15948525479339892,
                0.48757214982526004,
                0.9609447729541519
            ]
        },
        {
            "positions": [
                1.0752708524590273,
                -1.8218024497370697,
                1.8625231990434252,
                0.15414892184010762,
                0.5062122931978256,
                1.1175079824181715
            ]
        },
        {
            "positions": [
                1.064481563655297,
                -1.8778825274771416,
                1.976472922674508,
                0.14881258888681628,
                0.524852436570391,
                1.2740711918821912
            ]
        },
        {
            "positions": [
                1.0536922748515662,
                -1.9339626052172134,
                2.0904226463055906,
                0.14347625593352498,
                0.5434925799429566,
                1.4306344013462107
            ]
        },
        {
            "positions": [
                1.0429029860478356,
                -1.9900426829572853,
                2.2043723699366735,
                0.13813992298023364,
                0.5621327233155221,
                1.5871976108102301
            ]
        },
        {
            "positions": [
                0.9968183491913231,
                -1.9886717890012002,
                2.2375652388414906,
                0.07819903153673395,
                0.5747000603525698,
                1.766655008509456
            ]
        },
        {
            "positions": [
                0.9507337123348105,
                -1.9873008950451152,
                2.2707581077463077,
                0.01825814009323426,
                0.5872673973896174,
                1.9461124062086814
            ]
        },
        {
            "positions": [
                0.904649075478298,
                -1.9859300010890304,
                2.3039509766511244,
                -0.041682751350265446,
                0.599834734426665,
                2.125569803907907
            ]
        },
        {
            "positions": [
                0.8585644386217854,
                -1.9845591071329454,
                2.3371438455559415,
                -0.10162364279376514,
                0.6124020714637127,
                2.3050272016071327
            ]
        },
        {
            "positions": [
                0.8200124869202503,
                -1.9652621835368163,
                2.3502913268028696,
                -0.18915884878749034,
                0.6360063622951758,
                2.5146206708794963
            ]
        },
        {
            "positions": [
                0.7814605352187152,
                -1.9459652599406871,
                2.3634388080497977,
                -0.27669405478121556,
                0.659610653126639,
                2.72421414015186
            ]
        },
        {
            "positions": [
                0.7429085835171799,
                -1.926668336344558,
                2.3765862892967258,
                -0.3642292607749408,
                0.6832149439581021,
                2.9338076094242234
            ]
        },
        {
            "positions": [
                0.7043566318156448,
                -1.907371412748429,
                2.389733770543654,
                -0.451764466768666,
                0.7068192347895652,
                3.143401078696587
            ]
        }
    ]
}