{
    "goal": {
        "global_pose": {
            "orientation": {
                "w": 0.5084816217422485,
                "x": -0.49083608388900757,
                "y": 0.5182115435600281,
                "z": -0.4816462993621826
            },
            "position": {
                "x": 0.5540239810943604,
                "y": 0.030875300988554955,
                "z": 0.16403168439865112
            }
        },
        "name": "move_to_storage_A"
    },
    "id": "LBKPIECE_move_to_storage_A_136",
    "joint_names": [
        "shoulder_pan_joint",
        "shoulder_lift_joint",
        "elbow_joint",
        "wrist_1_joint",
        "wrist_2_joint",
        "wrist_3_joint"
    ],
    "metrics": {
        "cart_traj_len": 0.35284358931575344,
        "distance_elbow_joint": 0.4495431628545681,
        "distance_shoulder_lift_joint": 0.23517729202177295,
        "distance_shoulder_pan_joint": 0.463244980781705,
        "distance_wrist_1_joint": 0.23711202339973037,
        "distance_wrist_2_joint": 1.090986644354996,
        "distance_wrist_3_joint": 0.09343369488156883,
        "smoothness": 2.2204460668324854e-16,
        "time": 0.252610012,
        "traj_len": 1.6029653141270217,
        "weighted_distance": 2.0210056545720514
    },
    "planner": "LBKPIECE",
    "start": {
        "state": {
            "elbow_joint": 1.971548880431181,
            "shoulder_lift_joint": -1.1394869514688781,
            "shoulder_pan_joint": 0.12281150262730567,
            "wrist_1_joint": -0.7804693444481463,
            "wrist_2_joint": 0.12958644648617612,
            "wrist_3_joint": 3.0906942077768043
        }
    },
    "waypoints": [
        {
            "positions": [
                0.12281150262730567,
                -1.1394869514688781,
                1.971548880431181,
                -0.7804693444481463,
                0.12958644648617612,
                3.0906942077768043
            ]
        },
        {
            "positions": [
                0.056633648229919245,
                -1.1730837074719886,
                2.035769332267548,
                -0.8143424906481078,
                0.2854416813940327,
                3.1040418784741712
            ]
        },
        {
            "positions": [
                -0.009544206167467179,
                -1.206680463475099,
                2.0999897841039146,
                -0.8482156368480692,
                0.4412969163018893,
                3.117389549171538
            ]
        },
        {
            "positions": [
                -0.07572206056485362,
                -1.2402772194782095,
                2.1642102359402817,
                -0.8820887830480307,
                0.5971521512097459,
                3.130737219868905
            ]
        },
        {
            "positions": [
                -0.14189991496224003,
                -1.2738739754813198,
                2.2284306877766484,
                -0.9159619292479922,
                0.7530073861176024,
                3.144084890566272
            ]
        },
        {
            "positions": [
                -0.20807776935962646,
                -1.3074707314844303,
                2.292651139613015,
                -0.9498350754479536,
                0.908862621025459,
                3.157432561263639
            ]
        },
        {
            "positions": [
                -0.2742556237570129,
                -1.3410674874875406,
                2.3568715914493823,
                -0.9837082216479152,
                1.0647178559333157,
                3.170780231961006
            ]
        },
        {
            "positions": [
                -0.34043347815439934,
                -1.374664243490651,
                2.421092043285749,
                -1.0175813678478767,
                1.2205730908411723,
                3.184127902658373
            ]
        }
    ]
}