{
    "goal": {
        "global_pose": {
            "orientation": {
                "w": 0.5084816262002911,
                "x": -0.4908360881923452,
                "y": 0.5182115481033761,
                "z": -0.48164630358495003
            },
            "position": {
                "x": 0.5540239810943604,
                "y": -0.46912469901144505,
                "z": 0.16403168439865112
            }
        },
        "name": "move_to_storage_B"
    },
    "id": "LBKPIECE_move_to_storage_B_114",
    "joint_names": [
        "shoulder_pan_joint",
        "shoulder_lift_joint",
        "elbow_joint",
        "wrist_1_joint",
        "wrist_2_joint",
        "wrist_3_joint"
    ],
    "metrics": {
        "cart_traj_len": 0.6172918754418235,
        "distance_elbow_joint": 0.3575597745962058,
        "distance_shoulder_lift_joint": 0.4620798663101593,
        "distance_shoulder_pan_joint": 0.23983536680990736,
        "distance_wrist_1_joint": 3.021464025731643,
        "distance_wrist_2_joint": 2.7080073944405187,
        "distance_wrist_3_joint": 3.116364413054655,
        "smoothness": 0.03385792232482363,
        "time": 0.457017065,
        "traj_len": 3.1472703793832344,
        "weighted_distance": 4.67627106648284
    },
    "planner": "LBKPIECE",
    "start": {
        "state": {
            "elbow_joint": 1.6649325340416963,
            "shoulder_lift_joint": -0.6616387945129425,
            "shoulder_pan_joint": -0.9139837929255878,
            "wrist_1_joint": 2.1467571094334352,
            "wrist_2_joint": -2.234195976750228,
            "wrist_3_joint": 0.005470921511140723
        }
    },
    "waypoints": [
        {
            "positions": [
                -0.9139837929255878,
                -0.6616387945129425,
                1.6649325340416963,
                2.1467571094334352,
                -2.234195976750228,
                0.005470921511140723
            ]
        },
        {
            "positions": [
                -0.8844947476714009,
                -0.6956197761988439,
                1.6754777580008637,
                2.063501290820894,
                -2.178863629690997,
                -0.02194286657955185
            ]
        },
        {
            "positions": [
                -0.8929086005336297,
                -0.7127437315838142,
                1.6893583400263452,
                1.94597296253613,
                -2.072756627795745,
                -0.14550089157811033
            ]
        },
        {
            "positions": [
                -0.9013224533958586,
                -0.7298676869687845,
                1.7032389220518267,
                1.8284446342513658,
                -1.966649625900494,
                -0.2690589165766688
            ]
        },
        {
            "positions": [
                -0.9097363062580873,
                -0.7469916423537548,
                1.7171195040773084,
                1.710916305966602,
                -1.8605426240052423,
                -0.3926169415752273
            ]
        },
        {
            "positions": [
                -0.9181501591203162,
                -0.7641155977387252,
                1.7310000861027899,
                1.5933879776818378,
                -1.7544356221099908,
                -0.5161749665737858
            ]
        },
        {
            "positions": [
                -0.926564011982545,
                -0.7812395531236954,
                1.7448806681282714,
                1.4758596493970737,
                -1.6483286202147394,
                -0.6397329915723442
            ]
        },
        {
            "positions": [
                -0.9349778648447739,
                -0.7983635085086658,
                1.7587612501537528,
                1.3583313211123098,
                -1.542221618319488,
                -0.7632910165709027
            ]
        },
        {
            "positions": [
                -0.9433917177070026,
                -0.8154874638936361,
                1.7726418321792345,
                1.2408029928275455,
                -1.4361146164242364,
                -0.8868490415694612
            ]
        },
        {
            "positions": [
                -0.9518055705692314,
                -0.8326114192786064,
                1.786522414204716,
                1.1232746645427816,
                -1.3300076145289847,
                -1.0104070665680198
            ]
        },
        {
            "positions": [
                -0.9602194234314603,
                -0.8497353746635767,
                1.8004029962301975,
                1.0057463362580175,
                -1.2239006126337335,
                -1.133965091566578
            ]
        },
        {
            "positions": [
                -0.9686332762936891,
                -0.866859330048547,
                1.814283578255679,
                0.8882180079732533,
                -1.1177936107384818,
                -1.2575231165651366
            ]
        },
        {
            "positions": [
                -0.9770471291559178,
                -0.8839832854335173,
                1.8281641602811607,
                0.7706896796884892,
                -1.0116866088432304,
                -1.381081141563695
            ]
        },
        {
            "positions": [
                -0.9854609820181467,
                -0.9011072408184877,
                1.8420447423066422,
                0.6531613514037253,
                -0.9055796069479789,
                -1.5046391665622536
            ]
        },
        {
            "positions": [
                -0.9938748348803755,
                -0.9182311962034579,
                1.8559253243321236,
                0.535633023118961,
                -0.7994726050527272,
                -1.628197191560812
            ]
        },
        {
            "positions": [
                -1.0022886877426043,
                -0.9353551515884283,
                1.8698059063576054,
                0.4181046948341969,
                -0.6933656031574758,
                -1.7517552165593706
            ]
        },
        {
            "positions": [
                -1.010702540604833,
                -0.9524791069733987,
                1.8836864883830868,
                0.300576366549433,
                -0.5872586012622243,
                -1.875313241557929
            ]
        },
        {
            "positions": [
                -1.019116393467062,
                -0.9696030623583689,
                1.8975670704085683,
                0.18304803826466887,
                -0.4811515993669728,
                -1.9988712665564876
            ]
        },
        {
            "positions": [
                -1.0275302463292908,
                -0.9867270177433393,
                1.9114476524340498,
                0.06551970997990475,
                -0.37504459747172114,
                -2.1224292915550462
            ]
        },
        {
            "positions": [
                -1.0359440991915196,
                -1.0038509731283096,
                1.9253282344595313,
                -0.052008618304859144,
                -0.2689375955764699,
                -2.245987316553604
            ]
        },
        {
            "positions": [
                -1.0443579520537485,
                -1.0209749285132799,
                1.9392088164850128,
                -0.16953694658962348,
                -0.16283059368121844,
                -2.369545341552163
            ]
        },
        {
            "positions": [
                -1.0527718049159773,
                -1.0380988838982503,
                1.9530893985104945,
                -0.2870652748743874,
                -0.056723591785966754,
                -2.4931033665507214
            ]
        },
        {
            "positions": [
                -1.0611856577782062,
                -1.0552228392832206,
                1.966969980535976,
                -0.40459360315915127,
                0.04938341010928449,
                -2.61666139154928
            ]
        },
        {
            "positions": [
                -1.0695995106404348,
                -1.0723467946681908,
                1.9808505625614574,
                -0.5221219314439156,
                0.15549041200453617,
                -2.740219416547838
            ]
        },
        {
            "positions": [
                -1.0780133635026636,
                -1.0894707500531613,
                1.9947311445869391,
                -0.6396502597286795,
                0.26159741389978786,
                -2.863777441546397
            ]
        },
        {
            "positions": [
                -1.0864272163648925,
                -1.1065947054381313,
                2.0086117266124206,
                -0.7571785880134434,
                0.3677044157950391,
                -2.9873354665449554
            ]
        },
        {
            "positions": [
                -1.0948410692271213,
                -1.1237186608231018,
                2.022492308637902,
                -0.8747069162982076,
                0.47381141769029084,
                -3.110893491543514
            ]
        }
    ]
}