{
    "goal": {
        "global_pose": {
            "orientation": {
                "w": -0.00223480608172531,
                "x": 0.0024358444001904467,
                "y": 0.7094548369677653,
                "z": -0.704743149386269
            },
            "position": {
                "x": -0.37947507619857795,
                "y": -0.6371506643295288,
                "z": 0.19426114857196808
            }
        },
        "name": "move_to_magneteinheit_C"
    },
    "id": "LBKPIECE_move_to_magneteinheit_C_127",
    "joint_names": [
        "shoulder_pan_joint",
        "shoulder_lift_joint",
        "elbow_joint",
        "wrist_1_joint",
        "wrist_2_joint",
        "wrist_3_joint"
    ],
    "metrics": {
        "cart_traj_len": 2.5578693489860678,
        "distance_elbow_joint": 3.375823134585472,
        "distance_shoulder_lift_joint": 0.9729202424213039,
        "distance_shoulder_pan_joint": 1.6187503008755748,
        "distance_wrist_1_joint": 5.120642869047938,
        "distance_wrist_2_joint": 1.2364107243350784,
        "distance_wrist_3_joint": 4.173755568017167,
        "smoothness": 0.6213973359729262,
        "time": 0.659391179,
        "traj_len": 4.061810290902633,
        "weighted_distance": 5.585952700184624
    },
    "planner": "LBKPIECE",
    "start": {
        "state": {
            "elbow_joint": 1.9565354006593851,
            "shoulder_lift_joint": -1.4165861576512813,
            "shoulder_pan_joint": -1.6717766223278752,
            "wrist_1_joint": -0.528663328821883,
            "wrist_2_joint": 1.472756589259273,
            "wrist_3_joint": 3.159348288315503
        }
    },
    "waypoints": [
        {
            "positions": [
                -1.6717766223278752,
                -1.4165861576512813,
                1.9565354006593851,
                -0.528663328821883,
                1.472756589259273,
                3.159348288315503
            ]
        },
        {
            "positions": [
                -1.655826315637662,
                -1.4191330828647786,
                1.9551440776692015,
                -0.5357856040358615,
                1.468286714591274,
                3.142972460296958
            ]
        },
        {
            "positions": [
                -1.5463823433731487,
                -1.4373734873293615,
                1.9200567387465373,
                -0.5632267540774111,
                1.4232798012163124,
                3.003455598404455
            ]
        },
        {
            "positions": [
                -1.4369383711086354,
                -1.4556138917939447,
                1.8849693998238732,
                -0.5906679041189608,
                1.3782728878413508,
                2.8639387365119515
            ]
        },
        {
            "positions": [
                -1.3274943988441221,
                -1.4738542962585277,
                1.849882060901209,
                -0.6181090541605103,
                1.3332659744663893,
                2.7244218746194484
            ]
        },
        {
            "positions": [
                -1.3342493144193561,
                -1.4594979778003856,
                1.7518032434912154,
                -0.5133288545452063,
                1.2891940049497022,
                2.6186975241717896
            ]
        },
        {
            "positions": [
                -1.34100422999459,
                -1.4451416593422435,
                1.6537244260812218,
                -0.40854865492990217,
                1.2451220354330153,
                2.5129731737241303
            ]
        },
        {
            "positions": [
                -1.3477591455698237,
                -1.4307853408841016,
                1.5556456086712283,
                -0.3037684553145981,
                1.2010500659163281,
                2.4072488232764715
            ]
        },
        {
            "positions": [
                -1.3545140611450577,
                -1.4164290224259595,
                1.4575667912612347,
                -0.19898825569929401,
                1.1569780963996412,
                2.3015244728288122
            ]
        },
        {
            "positions": [
                -1.3612689767202917,
                -1.4020727039678174,
                1.359487973851241,
                -0.09420805608398997,
                1.112906126882954,
                2.1958001223811534
            ]
        },
        {
            "positions": [
                -1.3680238922955255,
                -1.3877163855096752,
                1.2614091564412475,
                0.010572143531314082,
                1.068834157366267,
                2.090075771933494
            ]
        },
        {
            "positions": [
                -1.3747788078707592,
                -1.3733600670515331,
                1.1633303390312542,
                0.11535234314661813,
                1.02476218784958,
                1.9843514214858353
            ]
        },
        {
            "positions": [
                -1.3815337234459932,
                -1.3590037485933912,
                1.0652515216212604,
                0.2201325427619223,
                0.9806902183328929,
                1.878627071038176
            ]
        },
        {
            "positions": [
                -1.3882886390212272,
                -1.3446474301352491,
                0.967172704211267,
                0.32491274237722634,
                0.9366182488162059,
                1.7729027205905172
            ]
        },
        {
            "positions": [
                -1.395043554596461,
                -1.330291111677107,
                0.8690938868012734,
                0.4296929419925304,
                0.8925462792995189,
                1.6671783701428582
            ]
        },
        {
            "positions": [
                -1.492285319144936,
                -1.3198489099627937,
                0.811714421406513,
                0.5662756058339844,
                0.91503801189589,
                1.6063508091416376
            ]
        },
        {
            "positions": [
                -1.5895270836934108,
                -1.3094067082484804,
                0.7543349560117524,
                0.7028582696754385,
                0.937529744492261,
                1.5455232481404169
            ]
        },
        {
            "positions": [
                -1.6867688482418857,
                -1.298964506534167,
                0.6969554906169919,
                0.8394409335168925,
                0.960021477088632,
                1.4846956871391963
            ]
        },
        {
            "positions": [
                -1.7840106127903606,
                -1.2885223048198537,
                0.6395760252222313,
                0.9760235973583467,
                0.982513209685003,
                1.4238681261379758
            ]
        },
        {
            "positions": [
                -1.8812523773388354,
                -1.2780801031055402,
                0.5821965598274709,
                1.1126062611998007,
                1.005004942281374,
                1.363040565136755
            ]
        },
        {
            "positions": [
                -1.9784941418873103,
                -1.267637901391227,
                0.5248170944327104,
                1.2491889250412547,
                1.027496674877745,
                1.3022130041355344
            ]
        },
        {
            "positions": [
                -2.075735906435785,
                -1.2571956996769136,
                0.4674376290379499,
                1.3857715888827087,
                1.0499884074741161,
                1.2413854431343139
            ]
        },
        {
            "positions": [
                -2.17297767098426,
                -1.2467534979626003,
                0.4100581636431893,
                1.522354252724163,
                1.072480140070487,
                1.180557882133093
            ]
        },
        {
            "positions": [
                -2.270219435532735,
                -1.236311296248287,
                0.3526786982484288,
                1.658936916565617,
                1.0949718726668582,
                1.1197303211318725
            ]
        },
        {
            "positions": [
                -2.36746120008121,
                -1.2258690945339736,
                0.2952992328536683,
                1.795519580407071,
                1.1174636052632292,
                1.058902760130652
            ]
        },
        {
            "positions": [
                -2.4013701895152857,
                -1.1528771501224089,
                0.35178891160515663,
                1.709057107709402,
                1.063394841433528,
                1.1509113729989364
            ]
        },
        {
            "positions": [
                -2.4352791789493615,
                -1.0798852057108441,
                0.40827859035664493,
                1.622594635011733,
                1.0093260776038266,
                1.2429199858672209
            ]
        },
        {
            "positions": [
                -2.469188168383438,
                -1.0068932612992796,
                0.4647682691081333,
                1.536132162314064,
                0.9552573137741255,
                1.3349285987355053
            ]
        },
        {
            "positions": [
                -2.5030971578175136,
                -0.9339013168877148,
                0.5212579478596215,
                1.4496696896163952,
                0.9011885499444243,
                1.4269372116037897
            ]
        },
        {
            "positions": [
                -2.5370061472515895,
                -0.8609093724761501,
                0.5777476266111099,
                1.3632072169187262,
                0.847119786114723,
                1.5189458244720742
            ]
        },
        {
            "positions": [
                -2.5352901181202796,
                -0.8797802292865043,
                0.6719243290729553,
                1.2211170453365938,
                0.8377800670426602,
                1.622847688055691
            ]
        },
        {
            "positions": [
                -2.5335740889889697,
                -0.8986510860968586,
                0.7661010315348006,
                1.0790268737544615,
                0.8284403479705974,
                1.7267495516393079
            ]
        },
        {
            "positions": [
                -2.53185805985766,
                -0.917521942907213,
                0.8602777339966459,
                0.9369367021723292,
                0.8191006288985345,
                1.8306514152229247
            ]
        },
        {
            "positions": [
                -2.53014203072635,
                -0.9363927997175673,
                0.9544544364584913,
                0.7948465305901969,
                0.8097609098264716,
                1.9345532788065416
            ]
        },
        {
            "positions": [
                -2.52842600159504,
                -0.9552636565279216,
                1.0486311389203367,
                0.6527563590080646,
                0.8004211907544089,
                2.0384551423901582
            ]
        },
        {
            "positions": [
                -2.5267099724637303,
                -0.9741345133382758,
                1.142807841382182,
                0.5106661874259323,
                0.791081471682346,
                2.1423570059737753
            ]
        },
        {
            "positions": [
                -2.5249939433324204,
                -0.9930053701486301,
                1.2369845438440272,
                0.36857601584379995,
                0.7817417526102831,
                2.2462588695573924
            ]
        },
        {
            "positions": [
                -2.5232779142011106,
                -1.0118762269589845,
                1.3311612463058726,
                0.22648584426166773,
                0.7724020335382203,
                2.350160733141009
            ]
        },
        {
            "positions": [
                -2.5215618850698007,
                -1.0307470837693387,
                1.425337948767718,
                0.0843956726795354,
                0.7630623144661575,
                2.4540625967246257
            ]
        },
        {
            "positions": [
                -2.519845855938491,
                -1.049617940579693,
                1.5195146512295632,
                -0.057694498902596925,
                0.7537225953940946,
                2.5579644603082428
            ]
        },
        {
            "positions": [
                -2.518129826807181,
                -1.0684887973900472,
                1.6136913536914086,
                -0.19978467048472925,
                0.7443828763220318,
                2.66186632389186
            ]
        },
        {
            "positions": [
                -2.516413797675871,
                -1.0873596542004016,
                1.707868056153254,
                -0.3418748420668616,
                0.7350431572499689,
                2.7657681874754765
            ]
        },
        {
            "positions": [
                -2.505322802823712,
                -1.1064238787772587,
                1.7833725920232966,
                -0.46191836373381145,
                0.7228274971503805,
                2.8573793405973493
            ]
        },
        {
            "positions": [
                -2.494231807971553,
                -1.1254881033541158,
                1.8588771278933391,
                -0.5819618854007613,
                0.7106118370507921,
                2.948990493719222
            ]
        },
        {
            "positions": [
                -2.483140813119394,
                -1.1445523279309728,
                1.9343816637633817,
                -0.7020054070677111,
                0.6983961769512037,
                3.0406016468410955
            ]
        },
        {
            "positions": [
                -2.472049818267235,
                -1.16361655250783,
                2.0098861996334243,
                -0.822048928734661,
                0.6861805168516153,
                3.1322127999629683
            ]
        }
    ]
}