{
    "goal": {
        "global_pose": {
            "orientation": {
                "w": -0.4816463035849501,
                "x": 0.5182115481033762,
                "y": 0.4908360881923453,
                "z": -0.5084816262002911
            },
            "position": {
                "x": -0.8240239810943604,
                "y": -0.300875300988555,
                "z": 0.16403168439865112
            }
        },
        "name": "move_to_storage_C"
    },
    "id": "LBKPIECE_move_to_storage_C_63",
    "joint_names": [
        "shoulder_pan_joint",
        "shoulder_lift_joint",
        "elbow_joint",
        "wrist_1_joint",
        "wrist_2_joint",
        "wrist_3_joint"
    ],
    "metrics": {
        "cart_traj_len": 0.5760737465188408,
        "distance_elbow_joint": 0.25524243842003,
        "distance_shoulder_lift_joint": 0.18911751285322964,
        "distance_shoulder_pan_joint": 0.4947072032648703,
        "distance_wrist_1_joint": 0.06832984333558112,
        "distance_wrist_2_joint": 1.0633651150683572,
        "distance_wrist_3_joint": 0.06513527981151768,
        "smoothness": 0.0,
        "time": 0.8963769500000001,
        "traj_len": 1.4614709688370775,
        "weighted_distance": 1.8433293006895322
    },
    "planner": "LBKPIECE",
    "start": {
        "state": {
            "elbow_joint": 2.0108683149792914,
            "shoulder_lift_joint": -1.1634956873317392,
            "shoulder_pan_joint": -2.4736205022346,
            "wrist_1_joint": -0.8367026793690192,
            "wrist_2_joint": 0.6746043897045053,
            "wrist_3_joint": 3.133522094754363
        }
    },
    "waypoints": [
        {
            "positions": [
                -2.4736205022346,
                -1.1634956873317392,
                2.0108683149792914,
                -0.8367026793690192,
                0.6746043897045053,
                3.133522094754363
            ]
        },
        {
            "positions": [
                -2.556071702778745,
                -1.131976101856201,
                1.968327908575953,
                -0.8253143721464223,
                0.8518319088825648,
                3.1443779747229494
            ]
        },
        {
            "positions": [
                -2.6385229033228903,
                -1.1004565163806628,
                1.9257875021726147,
                -0.8139260649238255,
                1.0290594280606244,
                3.1552338546915357
            ]
        },
        {
            "positions": [
                -2.720974103867035,
                -1.0689369309051244,
                1.8832470957692764,
                -0.8025377577012287,
                1.206286947238684,
                3.166089734660122
            ]
        },
        {
            "positions": [
                -2.80342530441118,
                -1.037417345429586,
                1.840706689365938,
                -0.7911494504786318,
                1.3835144664167434,
                3.1769456146287083
            ]
        },
        {
            "positions": [
                -2.885876504955325,
                -1.005897759954048,
                1.7981662829625997,
                -0.779761143256035,
                1.560741985594803,
                3.1878014945972946
            ]
        },
        {
            "positions": [
                -2.9683277054994703,
                -0.9743781744785096,
                1.7556258765592614,
                -0.7683728360334381,
                1.7379695047728625,
                3.198657374565881
            ]
        }
    ]
}