{
    "goal": {
        "global_pose": {
            "orientation": {
                "w": 0.5084816262002911,
                "x": -0.4908360881923452,
                "y": 0.5182115481033761,
                "z": -0.48164630358495003
            },
            "position": {
                "x": 0.5540239810943604,
                "y": -0.46912469901144505,
                "z": 0.16403168439865112
            }
        },
        "name": "move_to_storage_B"
    },
    "id": "LBKPIECE_move_to_storage_B_126",
    "joint_names": [
        "shoulder_pan_joint",
        "shoulder_lift_joint",
        "elbow_joint",
        "wrist_1_joint",
        "wrist_2_joint",
        "wrist_3_joint"
    ],
    "metrics": {
        "cart_traj_len": 0.6691489310893189,
        "distance_elbow_joint": 0.35504061412003174,
        "distance_shoulder_lift_joint": 0.4615072690489048,
        "distance_shoulder_pan_joint": 0.31159550763634014,
        "distance_wrist_1_joint": 3.003735036118759,
        "distance_wrist_2_joint": 2.70732234805999,
        "distance_wrist_3_joint": 3.542064721977403,
        "smoothness": 0.2702888871900742,
        "time": 0.6712812880000001,
        "traj_len": 3.2219971286395386,
        "weighted_distance": 4.814192800989071
    },
    "planner": "LBKPIECE",
    "start": {
        "state": {
            "elbow_joint": 1.6649325340416963,
            "shoulder_lift_joint": -0.6616387945129425,
            "shoulder_pan_joint": -0.9139837929255878,
            "wrist_1_joint": 2.1467571094334352,
            "wrist_2_joint": -2.234195976750228,
            "wrist_3_joint": 0.005470921511140723
        }
    },
    "waypoints": [
        {
            "positions": [
                -0.9139837929255878,
                -0.6616387945129425,
                1.6649325340416963,
                2.1467571094334352,
                -2.234195976750228,
                0.005470921511140723
            ]
        },
        {
            "positions": [
                -0.8923885574512237,
                -0.6937493082262823,
                1.7153187325109367,
                2.1004070038182463,
                -2.1325935057259193,
                0.07548379598106651
            ]
        },
        {
            "positions": [
                -0.8707933219768597,
                -0.7258598219396221,
                1.7657049309801771,
                2.054056898203058,
                -2.0309910347016107,
                0.14549667045099232
            ]
        },
        {
            "positions": [
                -0.8491980865024955,
                -0.7579703356529619,
                1.8160911294494175,
                2.007706792587869,
                -1.9293885636773023,
                0.21550954492091814
            ]
        },
        {
            "positions": [
                -0.8594818282197142,
                -0.7731859909824987,
                1.8245862135624304,
                1.8883449292848191,
                -1.8292837747195079,
                0.07667512414726707
            ]
        },
        {
            "positions": [
                -0.8697655699369329,
                -0.7884016463120357,
                1.8330812976754434,
                1.7689830659817696,
                -1.7291789857617135,
                -0.062159296626384
            ]
        },
        {
            "positions": [
                -0.8800493116541515,
                -0.8036173016415726,
                1.8415763817884563,
                1.6496212026787198,
                -1.629074196803919,
                -0.2009937174000351
            ]
        },
        {
            "positions": [
                -0.8903330533713701,
                -0.8188329569711095,
                1.8500714659014692,
                1.5302593393756703,
                -1.528969407846125,
                -0.3398281381736862
            ]
        },
        {
            "positions": [
                -0.9006167950885888,
                -0.8340486123006463,
                1.8585665500144821,
                1.4108974760726203,
                -1.4288646188883303,
                -0.47866255894733734
            ]
        },
        {
            "positions": [
                -0.9109005368058074,
                -0.8492642676301833,
                1.867061634127495,
                1.2915356127695707,
                -1.328759829930536,
                -0.6174969797209884
            ]
        },
        {
            "positions": [
                -0.9211842785230261,
                -0.8644799229597202,
                1.8755567182405082,
                1.172173749466521,
                -1.2286550409727415,
                -0.7563314004946395
            ]
        },
        {
            "positions": [
                -0.9314680202402448,
                -0.879695578289257,
                1.884051802353521,
                1.0528118861634714,
                -1.1285502520149473,
                -0.8951658212682905
            ]
        },
        {
            "positions": [
                -0.9417517619574635,
                -0.8949112336187939,
                1.892546886466534,
                0.9334500228604217,
                -1.028445463057153,
                -1.0340002420419416
            ]
        },
        {
            "positions": [
                -0.9520355036746821,
                -0.9101268889483308,
                1.901041970579547,
                0.8140881595573719,
                -0.9283406740993585,
                -1.1728346628155928
            ]
        },
        {
            "positions": [
                -0.9623192453919007,
                -0.9253425442778678,
                1.9095370546925599,
                0.6947262962543224,
                -0.8282358851415641,
                -1.3116690835892437
            ]
        },
        {
            "positions": [
                -0.9726029871091194,
                -0.9405581996074046,
                1.9180321388055728,
                0.5753644329512726,
                -0.7281310961837697,
                -1.4505035043628949
            ]
        },
        {
            "positions": [
                -0.9828867288263381,
                -0.9557738549369414,
                1.9265272229185857,
                0.45600256964822306,
                -0.6280263072259753,
                -1.5893379251365458
            ]
        },
        {
            "positions": [
                -0.9931704705435567,
                -0.9709895102664784,
                1.9350223070315986,
                0.33664070634517307,
                -0.5279215182681809,
                -1.7281723459101972
            ]
        },
        {
            "positions": [
                -1.0034542122607755,
                -0.9862051655960153,
                1.9435173911446115,
                0.21727884304212353,
                -0.4278167293103865,
                -1.867006766683848
            ]
        },
        {
            "positions": [
                -1.013737953977994,
                -1.0014208209255522,
                1.9520124752576244,
                0.09791697973907398,
                -0.3277119403525923,
                -2.005841187457499
            ]
        },
        {
            "positions": [
                -1.0240216956952126,
                -1.016636476255089,
                1.9605075593706376,
                -0.021444883563976003,
                -0.2276071513947977,
                -2.14467560823115
            ]
        },
        {
            "positions": [
                -1.0343054374124314,
                -1.031852131584626,
                1.9690026434836505,
                -0.14080674686702555,
                -0.12750236243700352,
                -2.2835100290048014
            ]
        },
        {
            "positions": [
                -1.04458917912965,
                -1.047067786914163,
                1.9774977275966634,
                -0.2601686101700751,
                -0.027397573479209125,
                -2.4223444497784525
            ]
        },
        {
            "positions": [
                -1.0548729208468686,
                -1.0622834422436997,
                1.9859928117096763,
                -0.3795304734731251,
                0.07270721547858527,
                -2.5611788705521037
            ]
        },
        {
            "positions": [
                -1.0651566625640874,
                -1.0774990975732366,
                1.9944878958226893,
                -0.4988923367761746,
                0.1728120044363799,
                -2.700013291325755
            ]
        },
        {
            "positions": [
                -1.075440404281306,
                -1.0927147529027734,
                2.002982979935702,
                -0.6182542000792242,
                0.2729167933941741,
                -2.8388477120994056
            ]
        },
        {
            "positions": [
                -1.0857241459985247,
                -1.1079304082323105,
                2.011478064048715,
                -0.7376160633822741,
                0.3730215823519687,
                -2.9776821328730567
            ]
        },
        {
            "positions": [
                -1.0960078877157433,
                -1.1231460635618473,
                2.019973148161728,
                -0.8569779266853237,
                0.47312637130976287,
                -3.116516553646708
            ]
        }
    ]
}