{
    "goal": {
        "global_pose": {
            "orientation": {
                "w": -0.4816463035849501,
                "x": 0.5182115481033762,
                "y": 0.4908360881923453,
                "z": -0.5084816262002911
            },
            "position": {
                "x": -0.8240239810943604,
                "y": 0.19912469901144506,
                "z": 0.16403168439865112
            }
        },
        "name": "move_to_storage_D"
    },
    "id": "LBKPIECE_move_to_storage_D_10",
    "joint_names": [
        "shoulder_pan_joint",
        "shoulder_lift_joint",
        "elbow_joint",
        "wrist_1_joint",
        "wrist_2_joint",
        "wrist_3_joint"
    ],
    "metrics": {
        "cart_traj_len": 0.7080214262601567,
        "distance_elbow_joint": 0.6094735232452064,
        "distance_shoulder_lift_joint": 0.36305836110149503,
        "distance_shoulder_pan_joint": 0.5583668788971718,
        "distance_wrist_1_joint": 4.177472327867805,
        "distance_wrist_2_joint": 1.7842463968422964,
        "distance_wrist_3_joint": 3.1582529528678194,
        "smoothness": 0.20200512979228225,
        "time": 0.46166561100000003,
        "traj_len": 3.263567134413171,
        "weighted_distance": 4.788433467353132
    },
    "planner": "LBKPIECE",
    "start": {
        "state": {
            "elbow_joint": -2.384821990628643,
            "shoulder_lift_joint": -2.278805467437664,
            "shoulder_pan_joint": -0.18546946439364564,
            "wrist_1_joint": 1.4845938187801415,
            "wrist_2_joint": 0.178987772454074,
            "wrist_3_joint": 0.03710569632802521
        }
    },
    "waypoints": [
        {
            "positions": [
                -0.18546946439364564,
                -2.278805467437664,
                -2.384821990628643,
                1.4845938187801415,
                0.178987772454074,
                0.03710569632802521
            ]
        },
        {
            "positions": [
                -0.09689920148653342,
                -2.214561073844281,
                -2.3915489545051307,
                1.5289632502710702,
                0.10735755937024005,
                0.099004733696685
            ]
        },
        {
            "positions": [
                -0.008328938579421186,
                -2.1503166802508984,
                -2.3982759183816187,
                1.5733326817619988,
                0.035727346286406114,
                0.16090377106534476
            ]
        },
        {
            "positions": [
                0.08024132432769104,
                -2.086072286657516,
                -2.405002882258106,
                1.6177021132529275,
                -0.035902866797427824,
                0.22280280843400455
            ]
        },
        {
            "positions": [
                0.16881158723480327,
                -2.0218278930641334,
                -2.4117298461345937,
                1.662071544743856,
                -0.10753307988126175,
                0.28470184580266433
            ]
        },
        {
            "positions": [
                0.1603080110986065,
                -2.0262479258444652,
                -2.387456276645458,
                1.4954051029978523,
                -0.1699383109023851,
                0.4059792126107135
            ]
        },
        {
            "positions": [
                0.15180443496240972,
                -2.030667958624797,
                -2.3631827071563225,
                1.3287386612518486,
                -0.23234354192350842,
                0.5272565794187627
            ]
        },
        {
            "positions": [
                0.14330085882621296,
                -2.035087991405129,
                -2.3389091376671867,
                1.1620722195058448,
                -0.2947487729446318,
                0.6485339462268118
            ]
        },
        {
            "positions": [
                0.13479728269001617,
                -2.039508024185461,
                -2.3146355681780513,
                0.9954057777598411,
                -0.35715400396575514,
                0.7698113130348611
            ]
        },
        {
            "positions": [
                0.1262937065538194,
                -2.0439280569657927,
                -2.2903619986889154,
                0.8287393360138373,
                -0.4195592349868785,
                0.8910886798429103
            ]
        },
        {
            "positions": [
                0.11779013041762264,
                -2.0483480897461246,
                -2.2660884291997796,
                0.6620728942678336,
                -0.48196446600800186,
                1.0123660466509594
            ]
        },
        {
            "positions": [
                0.10928655428142586,
                -2.0527681225264565,
                -2.241814859710644,
                0.4954064525218298,
                -0.5443696970291252,
                1.1336434134590085
            ]
        },
        {
            "positions": [
                0.1007829781452291,
                -2.0571881553067883,
                -2.2175412902215084,
                0.32874001077582604,
                -0.6067749280502485,
                1.254920780267058
            ]
        },
        {
            "positions": [
                0.09227940200903231,
                -2.06160818808712,
                -2.193267720732373,
                0.16207356902982228,
                -0.6691801590713718,
                1.3761981470751068
            ]
        },
        {
            "positions": [
                0.08377582587283554,
                -2.066028220867452,
                -2.168994151243237,
                -0.004592872716181473,
                -0.7315853900924952,
                1.4974755138831561
            ]
        },
        {
            "positions": [
                0.07527224973663878,
                -2.070448253647784,
                -2.1447205817541013,
                -0.17125931446218523,
                -0.7939906211136185,
                1.6187528806912055
            ]
        },
        {
            "positions": [
                0.066768673600442,
                -2.0748682864281154,
                -2.120447012264966,
                -0.337925756208189,
                -0.8563958521347419,
                1.7400302474992544
            ]
        },
        {
            "positions": [
                0.05826509746424524,
                -2.0792883192084473,
                -2.09617344277583,
                -0.5045921979541925,
                -0.9188010831558652,
                1.8613076143073037
            ]
        },
        {
            "positions": [
                0.04976152132804845,
                -2.083708351988779,
                -2.0718998732866947,
                -0.6712586397001965,
                -0.9812063141769887,
                1.982584981115353
            ]
        },
        {
            "positions": [
                0.04125794519185169,
                -2.088128384769111,
                -2.047626303797559,
                -0.8379250814462005,
                -1.043611545198112,
                2.103862347923402
            ]
        },
        {
            "positions": [
                0.03275436905565493,
                -2.092548417549443,
                -2.023352734308423,
                -1.004591523192204,
                -1.1060167762192352,
                2.2251397147314513
            ]
        },
        {
            "positions": [
                0.024250792919458142,
                -2.0969684503297747,
                -1.9990791648192874,
                -1.171257964938208,
                -1.1684220072403586,
                2.3464170815395007
            ]
        },
        {
            "positions": [
                0.015747216783261353,
                -2.1013884831101066,
                -1.9748055953301518,
                -1.3379244066842115,
                -1.230827238261482,
                2.4676944483475496
            ]
        },
        {
            "positions": [
                0.007243640647064592,
                -2.1058085158904385,
                -1.9505320258410161,
                -1.504590848430215,
                -1.2932324692826054,
                2.588971815155599
            ]
        },
        {
            "positions": [
                -0.0012599354891321968,
                -2.1102285486707704,
                -1.9262584563518805,
                -1.671257290176219,
                -1.3556377003037288,
                2.7102491819636483
            ]
        },
        {
            "positions": [
                -0.009763511625328958,
                -2.1146485814511022,
                -1.9019848868627447,
                -1.8379237319222226,
                -1.4180429313248522,
                2.831526548771697
            ]
        },
        {
            "positions": [
                -0.01826708776152572,
                -2.119068614231434,
                -1.8777113173736093,
                -2.004590173668227,
                -1.4804481623459753,
                2.9528039155797465
            ]
        },
        {
            "positions": [
                -0.026770663897722508,
                -2.123488647011766,
                -1.8534377478844735,
                -2.1712566154142303,
                -1.5428533933670987,
                3.074081282387796
            ]
        },
        {
            "positions": [
                -0.035274240033919255,
                -2.127908679792098,
                -1.8291641783953378,
                -2.337923057160234,
                -1.605258624388222,
                3.195358649195845
            ]
        }
    ]
}