{
    "goal": {
        "global_pose": {
            "orientation": {
                "w": 0.005598929693374612,
                "x": 0.007748599140229565,
                "y": 0.7110244013736278,
                "z": -0.7031023480610252
            },
            "position": {
                "x": -0.8858502320852131,
                "y": -0.7141253447532654,
                "z": 0.3711530566215515
            }
        },
        "name": "move_to_auspresseinheit_C"
    },
    "id": "LBKPIECE_move_to_auspresseinheit_C_32",
    "joint_names": [
        "shoulder_pan_joint",
        "shoulder_lift_joint",
        "elbow_joint",
        "wrist_1_joint",
        "wrist_2_joint",
        "wrist_3_joint"
    ],
    "metrics": {
        "cart_traj_len": 0.493387336480502,
        "distance_elbow_joint": 1.0052601979654472,
        "distance_shoulder_lift_joint": 0.3263291842687279,
        "distance_shoulder_pan_joint": 0.2565308029921982,
        "distance_wrist_1_joint": 0.6980887920320344,
        "distance_wrist_2_joint": 1.3048520115055937,
        "distance_wrist_3_joint": 0.06927268691887267,
        "smoothness": 9.689219124001365e-16,
        "time": 0.36309566899999995,
        "traj_len": 1.9131998525200848,
        "weighted_distance": 2.4086967125518823
    },
    "planner": "LBKPIECE",
    "start": {
        "state": {
            "elbow_joint": 1.7527959577730765,
            "shoulder_lift_joint": -0.9740617694224828,
            "shoulder_pan_joint": -2.967991417825869,
            "wrist_1_joint": -0.7595177689779385,
            "wrist_2_joint": 1.7443932448376545,
            "wrist_3_joint": 3.1991315425061013
        }
    },
    "waypoints": [
        {
            "positions": [
                -2.967991417825869,
                -0.9740617694224828,
                1.7527959577730765,
                -0.7595177689779385,
                1.7443932448376545,
                3.1991315425061013
            ]
        },
        {
            "positions": [
                -2.942338337526649,
                -0.94142885099561,
                1.6522699379765318,
                -0.6897088897747351,
                1.6139080436870952,
                3.1922042738142142
            ]
        },
        {
            "positions": [
                -2.9166852572274293,
                -0.9087959325687373,
                1.551743918179987,
                -0.6199000105715317,
                1.4834228425365357,
                3.1852770051223267
            ]
        },
        {
            "positions": [
                -2.8910321769282095,
                -0.8761630141418644,
                1.4512178983834423,
                -0.5500911313683282,
                1.3529376413859764,
                3.1783497364304396
            ]
        },
        {
            "positions": [
                -2.8653790966289896,
                -0.8435300957149916,
                1.3506918785868975,
                -0.48028225216512477,
                1.222452440235417,
                3.171422467738552
            ]
        },
        {
            "positions": [
                -2.83972601632977,
                -0.8108971772881188,
                1.250165858790353,
                -0.4104733729619213,
                1.0919672390848576,
                3.164495199046665
            ]
        },
        {
            "positions": [
                -2.8140729360305503,
                -0.7782642588612461,
                1.1496398389938083,
                -0.3406644937587179,
                0.9614820379342982,
                3.157567930354778
            ]
        },
        {
            "positions": [
                -2.7884198557313304,
                -0.7456313404343733,
                1.0491138191972635,
                -0.2708556145555145,
                0.8309968367837389,
                3.1506406616628904
            ]
        },
        {
            "positions": [
                -2.7627667754321106,
                -0.7129984220075005,
                0.9485877994007187,
                -0.201046735352311,
                0.7005116356331795,
                3.1437133929710033
            ]
        },
        {
            "positions": [
                -2.7371136951328907,
                -0.6803655035806276,
                0.8480617796041741,
                -0.13123785614910755,
                0.57002643448262,
                3.1367861242791157
            ]
        },
        {
            "positions": [
                -2.711460614833671,
                -0.6477325851537549,
                0.7475357598076293,
                -0.06142897694590415,
                0.43954123333206063,
                3.1298588555872286
            ]
        }
    ]
}