{
    "goal": {
        "global_pose": {
            "orientation": {
                "w": 0.7047431468963623,
                "x": -0.7094548344612122,
                "y": 0.0024358443915843964,
                "z": -0.0022348060738295317
            },
            "position": {
                "x": 0.6094750761985779,
                "y": 0.3671506643295288,
                "z": 0.19426114857196808
            }
        },
        "name": "move_to_magneteinheit_A"
    },
    "id": "LBKPIECE_move_to_magneteinheit_A_49",
    "joint_names": [
        "shoulder_pan_joint",
        "shoulder_lift_joint",
        "elbow_joint",
        "wrist_1_joint",
        "wrist_2_joint",
        "wrist_3_joint"
    ],
    "metrics": {
        "cart_traj_len": 1.9793962391526059,
        "distance_elbow_joint": 3.5937131134865696,
        "distance_shoulder_lift_joint": 0.7965500627293305,
        "distance_shoulder_pan_joint": 1.2416269739940833,
        "distance_wrist_1_joint": 1.108363193915848,
        "distance_wrist_2_joint": 1.4490619381519365,
        "distance_wrist_3_joint": 1.8976258830557664,
        "smoothness": 5.921189492996263e-16,
        "time": 0.392373395,
        "traj_len": 3.175994515948277,
        "weighted_distance": 4.054579887425188
    },
    "planner": "LBKPIECE",
    "start": {
        "state": {
            "elbow_joint": -1.5739458827952972,
            "shoulder_lift_joint": 0.006533473998580023,
            "shoulder_pan_joint": -1.1188671628667068,
            "wrist_1_joint": 3.138208179676308,
            "wrist_2_joint": -1.5706037135050406,
            "wrist_3_joint": -2.0226958329764257
        }
    },
    "waypoints": [
        {
            "positions": [
                -1.1188671628667068,
                0.006533473998580023,
                -1.5739458827952972,
                3.138208179676308,
                -1.5706037135050406,
                -2.0226958329764257
            ]
        },
        {
            "positions": [
                -1.0711122792515497,
                -0.024103066875625,
                -1.4357261476611984,
                3.0955788260641603,
                -1.5148705620376584,
                -1.9497102220896654
            ]
        },
        {
            "positions": [
                -1.0233573956363928,
                -0.05473960774983002,
                -1.2975064125270994,
                3.052949472452012,
                -1.4591374105702761,
                -1.8767246112029052
            ]
        },
        {
            "positions": [
                -0.9756025120212357,
                -0.08537614862403504,
                -1.1592866773930006,
                3.0103201188398643,
                -1.4034042591028941,
                -1.803739000316145
            ]
        },
        {
            "positions": [
                -0.9278476284060786,
                -0.11601268949824006,
                -1.0210669422589018,
                2.967690765227716,
                -1.347671107635512,
                -1.7307533894293847
            ]
        },
        {
            "positions": [
                -0.8800927447909216,
                -0.14664923037244507,
                -0.882847207124803,
                2.925061411615568,
                -1.2919379561681297,
                -1.6577677785426244
            ]
        },
        {
            "positions": [
                -0.8323378611757646,
                -0.1772857712466501,
                -0.7446274719907042,
                2.88243205800342,
                -1.2362048047007475,
                -1.5847821676558642
            ]
        },
        {
            "positions": [
                -0.7845829775606075,
                -0.20792231212085507,
                -0.6064077368566054,
                2.839802704391272,
                -1.1804716532333654,
                -1.511796556769104
            ]
        },
        {
            "positions": [
                -0.7368280939454503,
                -0.23855885299506013,
                -0.4681880017225064,
                2.7971733507791243,
                -1.1247385017659832,
                -1.4388109458823437
            ]
        },
        {
            "positions": [
                -0.6890732103302935,
                -0.26919539386926516,
                -0.32996826658840783,
                2.754543997166976,
                -1.069005350298601,
                -1.3658253349955836
            ]
        },
        {
            "positions": [
                -0.6413183267151363,
                -0.2998319347434702,
                -0.1917485314543088,
                2.7119146435548283,
                -1.0132721988312188,
                -1.2928397241088232
            ]
        },
        {
            "positions": [
                -0.5935634430999793,
                -0.3304684756176752,
                -0.053528796320210015,
                2.66928528994268,
                -0.9575390473638367,
                -1.219854113222063
            ]
        },
        {
            "positions": [
                -0.5458085594848222,
                -0.36110501649188026,
                0.08469093881388878,
                2.626655936330532,
                -0.9018058958964544,
                -1.1468685023353027
            ]
        },
        {
            "positions": [
                -0.4980536758696652,
                -0.39174155736608524,
                0.22291067394798758,
                2.5840265827183844,
                -0.8460727444290723,
                -1.0738828914485425
            ]
        },
        {
            "positions": [
                -0.4502987922545082,
                -0.4223780982402902,
                0.3611304090820864,
                2.541397229106236,
                -0.7903395929616902,
                -1.0008972805617824
            ]
        },
        {
            "positions": [
                -0.4025439086393512,
                -0.45301463911449524,
                0.4993501442161852,
                2.4987678754940883,
                -0.7346064414943081,
                -0.9279116696750223
            ]
        },
        {
            "positions": [
                -0.35478902502419396,
                -0.48365117998870033,
                0.6375698793502844,
                2.45613852188194,
                -0.6788732900269258,
                -0.8549260587882617
            ]
        },
        {
            "positions": [
                -0.30703414140903695,
                -0.5142877208629053,
                0.7757896144843828,
                2.4135091682697922,
                -0.6231401385595436,
                -0.7819404479015015
            ]
        },
        {
            "positions": [
                -0.25927925779387995,
                -0.5449242617371103,
                0.9140093496184816,
                2.370879814657644,
                -0.5674069870921614,
                -0.7089548370147414
            ]
        },
        {
            "positions": [
                -0.21152437417872294,
                -0.5755608026113153,
                1.0522290847525804,
                2.328250461045496,
                -0.5116738356247794,
                -0.6359692261279812
            ]
        },
        {
            "positions": [
                -0.16376949056356582,
                -0.6061973434855203,
                1.1904488198866796,
                2.2856211074333483,
                -0.45594068415739697,
                -0.5629836152412206
            ]
        },
        {
            "positions": [
                -0.1160146069484087,
                -0.6368338843597253,
                1.3286685550207784,
                2.2429917538212,
                -0.40020753269001497,
                -0.4899980043544605
            ]
        },
        {
            "positions": [
                -0.06825972333325181,
                -0.6674704252339303,
                1.4668882901548772,
                2.2003624002090523,
                -0.34447438122263274,
                -0.41701239346770036
            ]
        },
        {
            "positions": [
                -0.020504839718094692,
                -0.6981069661081354,
                1.6051080252889756,
                2.157733046596904,
                -0.28874122975525074,
                -0.3440267825809402
            ]
        },
        {
            "positions": [
                0.027250043897062426,
                -0.7287435069823405,
                1.7433277604230748,
                2.115103692984756,
                -0.2330080782878683,
                -0.27104117169417963
            ]
        },
        {
            "positions": [
                0.07500492751221932,
                -0.7593800478565454,
                1.8815474955571736,
                2.072474339372608,
                -0.1772749268204863,
                -0.19805556080741948
            ]
        },
        {
            "positions": [
                0.1227598111273764,
                -0.7900165887307504,
                2.019767230691272,
                2.02984498576046,
                -0.12154177535310404,
                -0.12506994992065937
            ]
        }
    ]
}