{
    "goal": {
        "global_pose": {
            "orientation": {
                "w": 0.005598929693374612,
                "x": 0.007748599140229565,
                "y": 0.7110244013736278,
                "z": -0.7031023480610252
            },
            "position": {
                "x": 0.1141497679147869,
                "y": -0.7141253447532654,
                "z": 0.3711530566215515
            }
        },
        "name": "move_to_auspresseinheit_B"
    },
    "id": "LBKPIECE_move_to_auspresseinheit_B_25",
    "joint_names": [
        "shoulder_pan_joint",
        "shoulder_lift_joint",
        "elbow_joint",
        "wrist_1_joint",
        "wrist_2_joint",
        "wrist_3_joint"
    ],
    "metrics": {
        "cart_traj_len": 0.5640351846559598,
        "distance_elbow_joint": 0.06202953595431637,
        "distance_shoulder_lift_joint": 0.29575872189273933,
        "distance_shoulder_pan_joint": 0.5783970982429001,
        "distance_wrist_1_joint": 0.33241509661664326,
        "distance_wrist_2_joint": 0.9863329179556182,
        "distance_wrist_3_joint": 0.00662125806189362,
        "smoothness": 2.5376526478085547e-16,
        "time": 0.45231901399999996,
        "traj_len": 1.5038466107698987,
        "weighted_distance": 1.8956648330915884
    },
    "planner": "LBKPIECE",
    "start": {
        "state": {
            "elbow_joint": 2.0193061681459312,
            "shoulder_lift_joint": -1.1220205130644991,
            "shoulder_pan_joint": -1.0952072088045026,
            "wrist_1_joint": -0.8559671810662515,
            "wrist_2_joint": 0.4759638712940361,
            "wrist_3_joint": 3.159081874192446
        }
    },
    "waypoints": [
        {
            "positions": [
                -1.0952072088045026,
                -1.1220205130644991,
                2.0193061681459312,
                -0.8559671810662515,
                0.4759638712940361,
                3.159081874192446
            ]
        },
        {
            "positions": [
                -1.1916067251783193,
                -1.1713136333799556,
                2.0089679121535453,
                -0.8005646649634776,
                0.6403526909533058,
                3.1579783311821306
            ]
        },
        {
            "positions": [
                -1.288006241552136,
                -1.2206067536954122,
                1.9986296561611592,
                -0.7451621488607038,
                0.8047415106125755,
                3.1568747881718147
            ]
        },
        {
            "positions": [
                -1.3844057579259528,
                -1.2698998740108687,
                1.988291400168773,
                -0.6897596327579298,
                0.9691303302718453,
                3.155771245161499
            ]
        },
        {
            "positions": [
                -1.4808052742997693,
                -1.3191929943263254,
                1.977953144176387,
                -0.634357116655156,
                1.1335191499311148,
                3.1546677021511838
            ]
        },
        {
            "positions": [
                -1.577204790673586,
                -1.368486114641782,
                1.967614888184001,
                -0.578954600552382,
                1.2979079695903846,
                3.153564159140868
            ]
        },
        {
            "positions": [
                -1.6736043070474027,
                -1.4177792349572385,
                1.9572766321916149,
                -0.5235520844496082,
                1.4622967892496543,
                3.1524606161305524
            ]
        }
    ]
}