{
    "goal": {
        "global_pose": {
            "orientation": {
                "w": -0.4816463035849501,
                "x": 0.5182115481033762,
                "y": 0.4908360881923453,
                "z": -0.5084816262002911
            },
            "position": {
                "x": -0.8240239810943604,
                "y": -0.300875300988555,
                "z": 0.16403168439865112
            }
        },
        "name": "move_to_storage_C"
    },
    "id": "LBKPIECE_move_to_storage_C_78",
    "joint_names": [
        "shoulder_pan_joint",
        "shoulder_lift_joint",
        "elbow_joint",
        "wrist_1_joint",
        "wrist_2_joint",
        "wrist_3_joint"
    ],
    "metrics": {
        "cart_traj_len": 0.577397754749142,
        "distance_elbow_joint": 0.2607046333646239,
        "distance_shoulder_lift_joint": 0.19078854287777225,
        "distance_shoulder_pan_joint": 0.49305524392939315,
        "distance_wrist_1_joint": 0.07897775213250868,
        "distance_wrist_2_joint": 1.0805365746482005,
        "distance_wrist_3_joint": 0.06029611122078604,
        "smoothness": 2.5376526478085547e-16,
        "time": 0.49204100300000003,
        "traj_len": 1.4711760119622956,
        "weighted_distance": 1.8559271018538324
    },
    "planner": "LBKPIECE",
    "start": {
        "state": {
            "elbow_joint": 2.0108683149792914,
            "shoulder_lift_joint": -1.1634956873317392,
            "shoulder_pan_joint": -2.4736205022346,
            "wrist_1_joint": -0.8367026793690192,
            "wrist_2_joint": 0.6746043897045053,
            "wrist_3_joint": 3.133522094754363
        }
    },
    "waypoints": [
        {
            "positions": [
                -2.4736205022346,
                -1.1634956873317392,
                2.0108683149792914,
                -0.8367026793690192,
                0.6746043897045053,
                3.133522094754363
            ]
        },
        {
            "positions": [
                -2.5557963762228324,
                -1.1316975968521106,
                1.967417542751854,
                -0.8235397206802677,
                0.8546938188125387,
                3.1435714466244944
            ]
        },
        {
            "positions": [
                -2.6379722502110643,
                -1.099899506372482,
                1.9239667705244168,
                -0.8103767619915163,
                1.034783247920572,
                3.153620798494625
            ]
        },
        {
            "positions": [
                -2.7201481241992966,
                -1.068101415892853,
                1.8805159982969795,
                -0.7972138033027649,
                1.2148726770286056,
                3.163670150364756
            ]
        },
        {
            "positions": [
                -2.802323998187529,
                -1.0363033254132243,
                1.8370652260695421,
                -0.7840508446140134,
                1.394962106136639,
                3.173719502234887
            ]
        },
        {
            "positions": [
                -2.884499872175761,
                -1.0045052349335957,
                1.7936144538421048,
                -0.7708878859252619,
                1.5750515352446723,
                3.1837688541050184
            ]
        },
        {
            "positions": [
                -2.966675746163993,
                -0.972707144453967,
                1.7501636816146675,
                -0.7577249272365105,
                1.7551409643527058,
                3.193818205975149
            ]
        }
    ]
}