{
    "goal": {
        "global_pose": {
            "orientation": {
                "w": 0.005598929693374612,
                "x": 0.007748599140229565,
                "y": 0.7110244013736278,
                "z": -0.7031023480610252
            },
            "position": {
                "x": 0.1141497679147869,
                "y": -0.7141253447532654,
                "z": 0.3711530566215515
            }
        },
        "name": "move_to_auspresseinheit_B"
    },
    "id": "LBKPIECE_move_to_auspresseinheit_B_100",
    "joint_names": [
        "shoulder_pan_joint",
        "shoulder_lift_joint",
        "elbow_joint",
        "wrist_1_joint",
        "wrist_2_joint",
        "wrist_3_joint"
    ],
    "metrics": {
        "cart_traj_len": 0.5645622983647564,
        "distance_elbow_joint": 0.060611173952995534,
        "distance_shoulder_lift_joint": 0.2958832074128914,
        "distance_shoulder_pan_joint": 0.5789702472289497,
        "distance_wrist_1_joint": 0.32324195825392843,
        "distance_wrist_2_joint": 0.9845227584912488,
        "distance_wrist_3_joint": 0.0053284372930408885,
        "smoothness": 5.075305255429287e-16,
        "time": 0.28798009599999996,
        "traj_len": 1.499519183816284,
        "weighted_distance": 1.8886448512000116
    },
    "planner": "LBKPIECE",
    "start": {
        "state": {
            "elbow_joint": 2.0193061681459312,
            "shoulder_lift_joint": -1.1220205130644991,
            "shoulder_pan_joint": -1.0952072088045026,
            "wrist_1_joint": -0.8559671810662515,
            "wrist_2_joint": 0.4759638712940361,
            "wrist_3_joint": 3.159081874192446
        }
    },
    "waypoints": [
        {
            "positions": [
                -1.0952072088045026,
                -1.1220205130644991,
                2.0193061681459312,
                -0.8559671810662515,
                0.4759638712940361,
                3.159081874192446
            ]
        },
        {
            "positions": [
                -1.1917022500093275,
                -1.1713343809666477,
                2.009204305820432,
                -0.8020935213572634,
                0.6400509977092442,
                3.1581938013102726
            ]
        },
        {
            "positions": [
                -1.2881972912141526,
                -1.2206482488687962,
                1.9991024434949327,
                -0.7482198616482754,
                0.8041381241244523,
                3.157305728428099
            ]
        },
        {
            "positions": [
                -1.3846923324189775,
                -1.269962116770945,
                1.9890005811694333,
                -0.6943462019392872,
                0.9682252505396605,
                3.1564176555459253
            ]
        },
        {
            "positions": [
                -1.4811873736238024,
                -1.3192759846730935,
                1.9788987188439342,
                -0.6404725422302993,
                1.1323123769548686,
                3.155529582663752
            ]
        },
        {
            "positions": [
                -1.5776824148286275,
                -1.368589852575242,
                1.968796856518435,
                -0.5865988825213111,
                1.2963995033700768,
                3.1546415097815785
            ]
        },
        {
            "positions": [
                -1.6741774560334524,
                -1.4179037204773906,
                1.9586949941929357,
                -0.532725222812323,
                1.460486629785285,
                3.153753436899405
            ]
        }
    ]
}