{
    "goal": {
        "global_pose": {
            "orientation": {
                "w": -0.4816463035849501,
                "x": 0.5182115481033762,
                "y": 0.4908360881923453,
                "z": -0.5084816262002911
            },
            "position": {
                "x": -0.8240239810943604,
                "y": -0.300875300988555,
                "z": 0.16403168439865112
            }
        },
        "name": "move_to_storage_C"
    },
    "id": "LBKPIECE_move_to_storage_C_136",
    "joint_names": [
        "shoulder_pan_joint",
        "shoulder_lift_joint",
        "elbow_joint",
        "wrist_1_joint",
        "wrist_2_joint",
        "wrist_3_joint"
    ],
    "metrics": {
        "cart_traj_len": 0.5762458470170522,
        "distance_elbow_joint": 0.2591351864092526,
        "distance_shoulder_lift_joint": 0.18798968373656333,
        "distance_shoulder_pan_joint": 0.4959334663550936,
        "distance_wrist_1_joint": 0.088360308888638,
        "distance_wrist_2_joint": 1.0578689973008277,
        "distance_wrist_3_joint": 0.06577024719526392,
        "smoothness": 0.0,
        "time": 0.154204477,
        "traj_len": 1.4680115428311997,
        "weighted_distance": 1.852789165141472
    },
    "planner": "LBKPIECE",
    "start": {
        "state": {
            "elbow_joint": 2.0108683149792914,
            "shoulder_lift_joint": -1.1634956873317392,
            "shoulder_pan_joint": -2.4736205022346,
            "wrist_1_joint": -0.8367026793690192,
            "wrist_2_joint": 0.6746043897045053,
            "wrist_3_joint": 3.133522094754363
        }
    },
    "waypoints": [
        {
            "positions": [
                -2.4736205022346,
                -1.1634956873317392,
                2.0108683149792914,
                -0.8367026793690192,
                0.6746043897045053,
                3.133522094754363
            ]
        },
        {
            "positions": [
                -2.556276079960449,
                -1.1321640733756453,
                1.967679117244416,
                -0.8219759612209129,
                0.8509158892546432,
                3.1444838026202406
            ]
        },
        {
            "positions": [
                -2.638931657686298,
                -1.1008324594195515,
                1.9244899195095406,
                -0.8072492430728065,
                1.0272273888047811,
                3.1554455104861177
            ]
        },
        {
            "positions": [
                -2.721587235412147,
                -1.0695008454634576,
                1.8813007217746651,
                -0.7925225249247002,
                1.2035388883549192,
                3.166407218351995
            ]
        },
        {
            "positions": [
                -2.804242813137996,
                -1.0381692315073636,
                1.8381115240397896,
                -0.7777958067765939,
                1.3798503879050572,
                3.1773689262178726
            ]
        },
        {
            "positions": [
                -2.886898390863845,
                -1.0068376175512699,
                1.7949223263049143,
                -0.7630690886284875,
                1.556161887455195,
                3.1883306340837496
            ]
        },
        {
            "positions": [
                -2.9695539685896937,
                -0.9755060035951759,
                1.7517331285700388,
                -0.7483423704803812,
                1.732473387005333,
                3.199292341949627
            ]
        }
    ]
}