{
    "goal": {
        "global_pose": {
            "orientation": {
                "w": 0.7031023502349854,
                "x": -0.7110244035720825,
                "y": 0.007748599164187908,
                "z": 0.005598929710686207
            },
            "position": {
                "x": 0.11585023208521307,
                "y": 0.44412534475326537,
                "z": 0.3711530566215515
            }
        },
        "name": "move_to_auspresseinheit_A"
    },
    "id": "LBKPIECE_move_to_auspresseinheit_A_145",
    "joint_names": [
        "shoulder_pan_joint",
        "shoulder_lift_joint",
        "elbow_joint",
        "wrist_1_joint",
        "wrist_2_joint",
        "wrist_3_joint"
    ],
    "metrics": {
        "cart_traj_len": 1.2638460019480158,
        "distance_elbow_joint": 1.941040922841431,
        "distance_shoulder_lift_joint": 0.5787991629410478,
        "distance_shoulder_pan_joint": 1.0436872302243239,
        "distance_wrist_1_joint": 1.7533829419633131,
        "distance_wrist_2_joint": 2.6133424628417394,
        "distance_wrist_3_joint": 3.82176408825351,
        "smoothness": 0.47215922222750484,
        "time": 0.45146904000000004,
        "traj_len": 3.4281214694151902,
        "weighted_distance": 4.874655925332314
    },
    "planner": "LBKPIECE",
    "start": {
        "state": {
            "elbow_joint": 2.4225746994637096,
            "shoulder_lift_joint": -1.373653595662188,
            "shoulder_pan_joint": -0.3378633848294565,
            "wrist_1_joint": -1.0288595594406726,
            "wrist_2_joint": 1.2330228066703421,
            "wrist_3_joint": 3.189163495502006
        }
    },
    "waypoints": [
        {
            "positions": [
                -0.3378633848294565,
                -1.373653595662188,
                2.4225746994637096,
                -1.0288595594406726,
                1.2330228066703421,
                3.189163495502006
            ]
        },
        {
            "positions": [
                -0.31557314510318735,
                -1.3719087012549667,
                2.352083724337925,
                -0.971677478056286,
                1.1364652011220233,
                3.0661524746643245
            ]
        },
        {
            "positions": [
                -0.2932829053769182,
                -1.3701638068477453,
                2.281592749212141,
                -0.9144953966718994,
                1.0399075955737047,
                2.9431414538266427
            ]
        },
        {
            "positions": [
                -0.27099266565064906,
                -1.368418912440524,
                2.2111017740863566,
                -0.8573133152875128,
                0.9433499900253859,
                2.8201304329889614
            ]
        },
        {
            "positions": [
                -0.2487024259243799,
                -1.3666740180333026,
                2.140610798960572,
                -0.800131233903126,
                0.8467923844770671,
                2.6971194121512796
            ]
        },
        {
            "positions": [
                -0.22641218619811077,
                -1.3649291236260812,
                2.0701198238347875,
                -0.7429491525187394,
                0.7502347789287483,
                2.5741083913135983
            ]
        },
        {
            "positions": [
                -0.20412194647184165,
                -1.3631842292188598,
                1.9996288487090033,
                -0.6857670711343528,
                0.6536771733804296,
                2.4510973704759165
            ]
        },
        {
            "positions": [
                -0.1818317067455725,
                -1.3614393348116385,
                1.929137873583219,
                -0.628584989749966,
                0.5571195678321108,
                2.328086349638235
            ]
        },
        {
            "positions": [
                -0.15954146701930336,
                -1.3596944404044171,
                1.8586468984574345,
                -0.5714029083655794,
                0.4605619622837921,
                2.205075328800554
            ]
        },
        {
            "positions": [
                -0.1372512272930342,
                -1.3579495459971958,
                1.78815592333165,
                -0.5142208269811928,
                0.36400435673547327,
                2.082064307962872
            ]
        },
        {
            "positions": [
                -0.11496098756676507,
                -1.3562046515899744,
                1.7176649482058657,
                -0.45703874559680613,
                0.26744675118715455,
                1.9590532871251904
            ]
        },
        {
            "positions": [
                -0.09267074784049595,
                -1.354459757182753,
                1.6471739730800814,
                -0.3998566642124195,
                0.17088914563883573,
                1.836042266287509
            ]
        },
        {
            "positions": [
                -0.0703805081142268,
                -1.3527148627755317,
                1.576682997954297,
                -0.34267458282803287,
                0.07433154009051712,
                1.7130312454498275
            ]
        },
        {
            "positions": [
                -0.04809026838795766,
                -1.3509699683683103,
                1.5061920228285124,
                -0.28549250144364613,
                -0.022226065457801703,
                1.590020224612146
            ]
        },
        {
            "positions": [
                -0.025800028661688488,
                -1.349225073961089,
                1.435701047702728,
                -0.22831042005925953,
                -0.11878367100612057,
                1.4670092037744644
            ]
        },
        {
            "positions": [
                0.010123518913334541,
                -1.3716064436012976,
                1.4599027852105746,
                -0.16049396614275713,
                -0.19246713545243666,
                1.394591407704241
            ]
        },
        {
            "positions": [
                0.046047066488357574,
                -1.3939878132415064,
                1.4841045227184213,
                -0.0926775122262547,
                -0.2661505998987528,
                1.3221736116340173
            ]
        },
        {
            "positions": [
                0.08197061406338062,
                -1.416369182881715,
                1.5083062602262678,
                -0.024861058309752274,
                -0.3398340643450689,
                1.2497558155637938
            ]
        },
        {
            "positions": [
                0.10998668750721584,
                -1.4526316427962103,
                1.6098265812358283,
                0.02779396285388436,
                -0.31205333908096816,
                1.301385602084318
            ]
        },
        {
            "positions": [
                0.13800276095105107,
                -1.4888941027107057,
                1.711346902245389,
                0.080448984017521,
                -0.28427261381686736,
                1.3530153886048422
            ]
        },
        {
            "positions": [
                0.1660188343948863,
                -1.5251565626252008,
                1.8128672232549496,
                0.13310400518115764,
                -0.2564918885527666,
                1.4046451751253664
            ]
        },
        {
            "positions": [
                0.20754229677950023,
                -1.5542672666694959,
                1.8572519229109672,
                0.08761020692412054,
                -0.18286547193476452,
                1.5375272557987298
            ]
        },
        {
            "positions": [
                0.24906575916411416,
                -1.5833779707137912,
                1.9016366225669847,
                0.04211640866708344,
                -0.10923905531676242,
                1.6704093364720933
            ]
        },
        {
            "positions": [
                0.2905892215487281,
                -1.6124886747580862,
                1.9460213222230023,
                -0.0033773895899536777,
                -0.03561263869876033,
                1.8032914171454568
            ]
        },
        {
            "positions": [
                0.33211268393334203,
                -1.6415993788023815,
                1.9904060218790198,
                -0.048871187846990766,
                0.038013777919241765,
                1.9361734978188203
            ]
        },
        {
            "positions": [
                0.37363614631795594,
                -1.6707100828466765,
                2.034790721535037,
                -0.09436498610402788,
                0.11164019453724389,
                2.0690555784921836
            ]
        },
        {
            "positions": [
                0.4151596087025699,
                -1.6998207868909716,
                2.0791754211910547,
                -0.139858784361065,
                0.18526661115524595,
                2.201937659165547
            ]
        },
        {
            "positions": [
                0.4566830710871838,
                -1.7289314909352669,
                2.1235601208470722,
                -0.18535258261810203,
                0.25889302777324796,
                2.3348197398389106
            ]
        },
        {
            "positions": [
                0.4982065334717978,
                -1.758042194979562,
                2.16794482050309,
                -0.23084638087513917,
                0.33251944439125014,
                2.467701820512274
            ]
        },
        {
            "positions": [
                0.5397299958564117,
                -1.787152899023857,
                2.2123295201591073,
                -0.27634017913217623,
                0.4061458610092522,
                2.6005839011856375
            ]
        },
        {
            "positions": [
                0.5812534582410256,
                -1.8162636030681523,
                2.256714219815125,
                -0.3218339773892134,
                0.4797722776272544,
                2.733465981859001
            ]
        },
        {
            "positions": [
                0.6227769206256395,
                -1.8453743071124473,
                2.3010989194711424,
                -0.3673277756462505,
                0.5533986942452563,
                2.8663480625323645
            ]
        },
        {
            "positions": [
                0.6643003830102535,
                -1.8744850111567426,
                2.34548361912716,
                -0.41282157390328766,
                0.6270251108632585,
                2.999230143205728
            ]
        },
        {
            "positions": [
                0.7058238453948674,
                -1.9035957152010377,
                2.3898683187831775,
                -0.45831537216032464,
                0.7006515274812606,
                3.1321122238790915
            ]
        }
    ]
}