{
    "goal": {
        "global_pose": {
            "orientation": {
                "w": 0.005598929693374612,
                "x": 0.007748599140229565,
                "y": 0.7110244013736278,
                "z": -0.7031023480610252
            },
            "position": {
                "x": -0.8858502320852131,
                "y": -0.7141253447532654,
                "z": 0.3711530566215515
            }
        },
        "name": "move_to_auspresseinheit_C"
    },
    "id": "LBKPIECE_move_to_auspresseinheit_C_78",
    "joint_names": [
        "shoulder_pan_joint",
        "shoulder_lift_joint",
        "elbow_joint",
        "wrist_1_joint",
        "wrist_2_joint",
        "wrist_3_joint"
    ],
    "metrics": {
        "cart_traj_len": 0.4935434716266358,
        "distance_elbow_joint": 1.0072532762059045,
        "distance_shoulder_lift_joint": 0.3275661361982303,
        "distance_shoulder_pan_joint": 0.2565627025938073,
        "distance_wrist_1_joint": 0.6999775052771913,
        "distance_wrist_2_joint": 1.3018693458333928,
        "distance_wrist_3_joint": 0.07149075298063057,
        "smoothness": 3.2297397335745243e-16,
        "time": 0.290894411,
        "traj_len": 1.9143457679032692,
        "weighted_distance": 2.4103004120152742
    },
    "planner": "LBKPIECE",
    "start": {
        "state": {
            "elbow_joint": 1.7527959577730765,
            "shoulder_lift_joint": -0.9740617694224828,
            "shoulder_pan_joint": -2.967991417825869,
            "wrist_1_joint": -0.7595177689779385,
            "wrist_2_joint": 1.7443932448376545,
            "wrist_3_joint": 3.1991315425061013
        }
    },
    "waypoints": [
        {
            "positions": [
                -2.967991417825869,
                -0.9740617694224828,
                1.7527959577730765,
                -0.7595177689779385,
                1.7443932448376545,
                3.1991315425061013
            ]
        },
        {
            "positions": [
                -2.9423351475664883,
                -0.9413051558026597,
                1.6520706301524861,
                -0.6895200184502194,
                1.6142063102543152,
                3.1919824672080384
            ]
        },
        {
            "positions": [
                -2.9166788773071075,
                -0.9085485421828368,
                1.5513453025318955,
                -0.6195222679225003,
                1.4840193756709759,
                3.1848333919099754
            ]
        },
        {
            "positions": [
                -2.8910226070477267,
                -0.8757919285630137,
                1.4506199749113051,
                -0.5495245173947811,
                1.3538324410876366,
                3.177684316611912
            ]
        },
        {
            "positions": [
                -2.865366336788346,
                -0.8430353149431906,
                1.3498946472907147,
                -0.479526766867062,
                1.2236455065042975,
                3.170535241313849
            ]
        },
        {
            "positions": [
                -2.8397100665289656,
                -0.8102787013233677,
                1.2491693196701243,
                -0.4095290163393429,
                1.0934585719209582,
                3.163386166015786
            ]
        },
        {
            "positions": [
                -2.814053796269585,
                -0.7775220877035447,
                1.148443992049534,
                -0.3395312658116238,
                0.9632716373376188,
                3.156237090717723
            ]
        },
        {
            "positions": [
                -2.788397526010204,
                -0.7447654740837216,
                1.0477186644289433,
                -0.2695335152839047,
                0.8330847027542796,
                3.14908801541966
            ]
        },
        {
            "positions": [
                -2.7627412557508233,
                -0.7120088604638986,
                0.9469933368083528,
                -0.1995357647561855,
                0.7028977681709403,
                3.1419389401215967
            ]
        },
        {
            "positions": [
                -2.7370849854914425,
                -0.6792522468440756,
                0.8462680091877623,
                -0.12953801422846634,
                0.572710833587601,
                3.1347898648235337
            ]
        },
        {
            "positions": [
                -2.7114287152320617,
                -0.6464956332242525,
                0.745542681567172,
                -0.05954026370074732,
                0.44252389900426164,
                3.1276407895254708
            ]
        }
    ]
}