{
    "goal": {
        "global_pose": {
            "orientation": {
                "w": 0.7047431493862688,
                "x": -0.7094548369677653,
                "y": 0.0024358444001904,
                "z": -0.0022348060817251984
            },
            "position": {
                "x": -0.39052492380142206,
                "y": 0.3671506643295288,
                "z": 0.19426114857196808
            }
        },
        "name": "move_to_magneteinheit_D"
    },
    "id": "LBKPIECE_move_to_magneteinheit_D_62",
    "joint_names": [
        "shoulder_pan_joint",
        "shoulder_lift_joint",
        "elbow_joint",
        "wrist_1_joint",
        "wrist_2_joint",
        "wrist_3_joint"
    ],
    "metrics": {
        "cart_traj_len": 4.301182334385597,
        "distance_elbow_joint": 4.722306482978119,
        "distance_shoulder_lift_joint": 1.6547427378969186,
        "distance_shoulder_pan_joint": 3.1659349150655474,
        "distance_wrist_1_joint": 2.123736754155321,
        "distance_wrist_2_joint": 2.427447164611768,
        "distance_wrist_3_joint": 5.130345898323992,
        "smoothness": 0.8811714527810774,
        "time": 0.444060676,
        "traj_len": 4.384576827132999,
        "weighted_distance": 5.834071448692305
    },
    "planner": "LBKPIECE",
    "start": {
        "state": {
            "elbow_joint": 0.7495348899011911,
            "shoulder_lift_joint": -0.6476975780737668,
            "shoulder_pan_joint": -2.711696901376276,
            "wrist_1_joint": -0.0750647808097303,
            "wrist_2_joint": 0.43296659715458535,
            "wrist_3_joint": 3.1361499051832418
        }
    },
    "waypoints": [
        {
            "positions": [
                -2.711696901376276,
                -0.6476975780737668,
                0.7495348899011911,
                -0.0750647808097303,
                0.43296659715458535,
                3.1361499051832418
            ]
        },
        {
            "positions": [
                -2.712670382215723,
                -0.6778326372612241,
                0.7822827444877539,
                -0.03866007527359722,
                0.4459041868970973,
                3.141165291337627
            ]
        },
        {
            "positions": [
                -2.6962322794591413,
                -0.7756139589773254,
                0.8747631110022136,
                0.08627103510545109,
                0.48706224443973933,
                3.148510095121723
            ]
        },
        {
            "positions": [
                -2.679794176702559,
                -0.8733952806934269,
                0.9672434775166732,
                0.21120214548449942,
                0.5282203019823813,
                3.1558548989058184
            ]
        },
        {
            "positions": [
                -2.6633560739459767,
                -0.9711766024095283,
                1.059723844031133,
                0.33613325586354775,
                0.5693783595250234,
                3.1631997026899143
            ]
        },
        {
            "positions": [
                -2.646917971189395,
                -1.0689579241256295,
                1.1522042105455925,
                0.46106436624259606,
                0.6105364170676654,
                3.1705445064740103
            ]
        },
        {
            "positions": [
                -2.630479868432813,
                -1.166739245841731,
                1.2446845770600523,
                0.5859954766216444,
                0.6516944746103074,
                3.177889310258106
            ]
        },
        {
            "positions": [
                -2.6140417656762307,
                -1.2645205675578324,
                1.3371649435745119,
                0.7109265870006927,
                0.6928525321529494,
                3.185234114042202
            ]
        },
        {
            "positions": [
                -2.583099582377582,
                -1.321994348821975,
                1.3788941808672952,
                0.7872079687262591,
                0.7150713188049804,
                3.1650327564577063
            ]
        },
        {
            "positions": [
                -2.5521573990789332,
                -1.3794681300861178,
                1.4206234181600788,
                0.8634893504518255,
                0.7372901054570116,
                3.144831398873211
            ]
        },
        {
            "positions": [
                -2.4448751640137347,
                -1.3957247414635146,
                1.3443150874201588,
                0.8446570459286805,
                0.6987524253778241,
                3.0550602904763076
            ]
        },
        {
            "positions": [
                -2.3375929289485358,
                -1.4119813528409113,
                1.2680067566802389,
                0.8258247414055355,
                0.6602147452986366,
                2.9652891820794047
            ]
        },
        {
            "positions": [
                -2.2303106938833372,
                -1.428237964218308,
                1.191698425940319,
                0.8069924368823905,
                0.6216770652194491,
                2.8755180736825015
            ]
        },
        {
            "positions": [
                -2.1230284588181387,
                -1.4444945755957046,
                1.115390095200399,
                0.7881601323592455,
                0.5831393851402616,
                2.785746965285598
            ]
        },
        {
            "positions": [
                -2.01574622375294,
                -1.4607511869731014,
                1.039081764460479,
                0.7693278278361005,
                0.5446017050610741,
                2.6959758568886953
            ]
        },
        {
            "positions": [
                -1.9084639886877415,
                -1.4770077983504981,
                0.9627734337205591,
                0.7504955233129555,
                0.5060640249818866,
                2.606204748491792
            ]
        },
        {
            "positions": [
                -1.8104127205054756,
                -1.4981720244616776,
                0.8350340205787021,
                0.7431666509320726,
                0.4691757581000068,
                2.502724116559442
            ]
        },
        {
            "positions": [
                -1.7123614523232098,
                -1.5193362505728574,
                0.7072946074368451,
                0.7358377785511896,
                0.4322874912181269,
                2.399243484627091
            ]
        },
        {
            "positions": [
                -1.614310184140944,
                -1.540500476684037,
                0.5795551942949881,
                0.7285089061703066,
                0.39539922433624697,
                2.2957628526947405
            ]
        },
        {
            "positions": [
                -1.5162589159586781,
                -1.5616647027952164,
                0.45181578115313115,
                0.7211800337894236,
                0.3585109574543671,
                2.19228222076239
            ]
        },
        {
            "positions": [
                -1.4182076477764123,
                -1.582828928906396,
                0.32407636801127415,
                0.7138511614085407,
                0.32162269057248727,
                2.08880158883004
            ]
        },
        {
            "positions": [
                -1.3201563795941464,
                -1.6039931550175757,
                0.19633695486941716,
                0.7065222890276577,
                0.28473442369060736,
                1.9853209568976893
            ]
        },
        {
            "positions": [
                -1.2221051114118806,
                -1.6251573811287552,
                0.06859754172756016,
                0.6991934166467747,
                0.2478461568087275,
                1.8818403249653388
            ]
        },
        {
            "positions": [
                -1.1240538432296148,
                -1.6463216072399347,
                -0.05914187141429683,
                0.6918645442658917,
                0.2109578899268476,
                1.7783596930329884
            ]
        },
        {
            "positions": [
                -1.026002575047349,
                -1.6674858333511142,
                -0.18688128455615383,
                0.6845356718850089,
                0.17406962304496776,
                1.674879061100638
            ]
        },
        {
            "positions": [
                -0.9279513068650831,
                -1.688650059462294,
                -0.3146206976980108,
                0.6772067995041259,
                0.13718135616308785,
                1.5713984291682874
            ]
        },
        {
            "positions": [
                -0.8299000386828173,
                -1.7098142855734735,
                -0.44236011083986804,
                0.6698779271232429,
                0.10029308928120795,
                1.4679177972359367
            ]
        },
        {
            "positions": [
                -0.7318487705005514,
                -1.730978511684653,
                -0.5700995239817248,
                0.6625490547423599,
                0.0634048223993281,
                1.3644371653035865
            ]
        },
        {
            "positions": [
                -0.6337975023182856,
                -1.7521427377958325,
                -0.697838937123582,
                0.6552201823614769,
                0.026516555517448193,
                1.2609565333712358
            ]
        },
        {
            "positions": [
                -0.5357462341360197,
                -1.7733069639070123,
                -0.8255783502654388,
                0.647891309980594,
                -0.010371711364431602,
                1.1574759014388856
            ]
        },
        {
            "positions": [
                -0.4376949659537539,
                -1.7944711900181918,
                -0.953317763407296,
                0.640562437599711,
                -0.04725997824631156,
                1.0539952695065349
            ]
        },
        {
            "positions": [
                -0.33964369777148806,
                -1.8156354161293713,
                -1.0810571765491528,
                0.633233565218828,
                -0.08414824512819141,
                0.9505146375741846
            ]
        },
        {
            "positions": [
                -0.24159242958922222,
                -1.836799642240551,
                -1.20879658969101,
                0.625904692837945,
                -0.12103651201007137,
                0.847034005641834
            ]
        },
        {
            "positions": [
                -0.14354116140695639,
                -1.8579638683517306,
                -1.3365360028328668,
                0.618575820457062,
                -0.1579247788919511,
                0.7435533737094837
            ]
        },
        {
            "positions": [
                -0.0454898932246905,
                -1.87912809446291,
                -1.4642754159747238,
                0.6112469480761791,
                -0.19481304577383107,
                0.640072741777133
            ]
        },
        {
            "positions": [
                -0.04081036091088205,
                -1.897248291385132,
                -1.6069148228971333,
                0.6749761548742885,
                -0.14788698565686784,
                0.5214657394182818
            ]
        },
        {
            "positions": [
                -0.036130828597073596,
                -1.9153684883073543,
                -1.7495542298195426,
                0.738705361672398,
                -0.10096092553990461,
                0.4028587370594305
            ]
        },
        {
            "positions": [
                -0.03145129628326515,
                -1.9334886852295763,
                -1.892193636741952,
                0.8024345684705074,
                -0.05403486542294139,
                0.28425173470057924
            ]
        },
        {
            "positions": [
                -0.026771763969456696,
                -1.9516088821517985,
                -2.0348330436643614,
                0.8661637752686169,
                -0.007108805305978155,
                0.16564473234172794
            ]
        },
        {
            "positions": [
                -0.022092231655648244,
                -1.9697290790740205,
                -2.177472450586771,
                0.9298929820667263,
                0.03981725481098508,
                0.047037729982876586
            ]
        },
        {
            "positions": [
                -0.017412699341839796,
                -1.9878492759962427,
                -2.3201118575091804,
                0.9936221888648358,
                0.08674331492794829,
                -0.07156927237597455
            ]
        },
        {
            "positions": [
                -0.012733167028031345,
                -2.0059694729184647,
                -2.46275126443159,
                1.0573513956629452,
                0.13366937504491155,
                -0.19017627473482593
            ]
        },
        {
            "positions": [
                -0.07645799670292057,
                -2.0623113170352165,
                -2.4728713873441768,
                1.046626194779249,
                0.05187868944922441,
                -0.3320806079093771
            ]
        },
        {
            "positions": [
                -0.1401828263778098,
                -2.1186531611519683,
                -2.4829915102567637,
                1.035900993895553,
                -0.029911996146462727,
                -0.4739849410839282
            ]
        },
        {
            "positions": [
                -0.20390765605269903,
                -2.17499500526872,
                -2.493111633169351,
                1.0251757930118568,
                -0.11170268174214981,
                -0.6158892742584793
            ]
        },
        {
            "positions": [
                -0.26763248572758824,
                -2.231336849385472,
                -2.503231756081938,
                1.0144505921281608,
                -0.193493367337837,
                -0.7577936074330305
            ]
        },
        {
            "positions": [
                -0.3313573154024775,
                -2.2876786935022237,
                -2.513351878994525,
                1.0037253912444646,
                -0.2752840529335241,
                -0.8996979406075816
            ]
        },
        {
            "positions": [
                -0.30695730362515034,
                -2.2852184230908135,
                -2.4938114360670873,
                1.0759270193299435,
                -0.19968661021997053,
                -0.7336430014717069
            ]
        },
        {
            "positions": [
                -0.28255729184782324,
                -2.282758152679403,
                -2.4742709931396494,
                1.1481286474154226,
                -0.12408916750641696,
                -0.5675880623358323
            ]
        },
        {
            "positions": [
                -0.2581572800704961,
                -2.280297882267993,
                -2.454730550212212,
                1.2203302755009016,
                -0.0484917247928634,
                -0.40153312319995765
            ]
        },
        {
            "positions": [
                -0.23375726829316898,
                -2.2778376118565826,
                -2.4351901072847744,
                1.2925319035863805,
                0.027105717920690164,
                -0.23547818406408305
            ]
        },
        {
            "positions": [
                -0.20935725651584183,
                -2.2753773414451723,
                -2.4156496643573364,
                1.3647335316718596,
                0.10270316063424373,
                -0.0694232449282084
            ]
        },
        {
            "positions": [
                -0.18495724473851471,
                -2.272917071033762,
                -2.396109221429899,
                1.4369351597573385,
                0.17830060334779732,
                0.09663169420766629
            ]
        }
    ]
}