{
    "goal": {
        "global_pose": {
            "orientation": {
                "w": 0.005598929693374612,
                "x": 0.007748599140229565,
                "y": 0.7110244013736278,
                "z": -0.7031023480610252
            },
            "position": {
                "x": -0.8858502320852131,
                "y": -0.7141253447532654,
                "z": 0.3711530566215515
            }
        },
        "name": "move_to_auspresseinheit_C"
    },
    "id": "LBKPIECE_move_to_auspresseinheit_C_118",
    "joint_names": [
        "shoulder_pan_joint",
        "shoulder_lift_joint",
        "elbow_joint",
        "wrist_1_joint",
        "wrist_2_joint",
        "wrist_3_joint"
    ],
    "metrics": {
        "cart_traj_len": 0.49415190460384417,
        "distance_elbow_joint": 1.0192239141760653,
        "distance_shoulder_lift_joint": 0.3343401208648762,
        "distance_shoulder_pan_joint": 0.25587352514628314,
        "distance_wrist_1_joint": 0.7135979402809529,
        "distance_wrist_2_joint": 1.321248800594991,
        "distance_wrist_3_joint": 0.08778433993596346,
        "smoothness": 1.6148698667872622e-16,
        "time": 0.416734737,
        "traj_len": 1.9318562682040121,
        "weighted_distance": 2.437721079563247
    },
    "planner": "LBKPIECE",
    "start": {
        "state": {
            "elbow_joint": 1.7527959577730765,
            "shoulder_lift_joint": -0.9740617694224828,
            "shoulder_pan_joint": -2.967991417825869,
            "wrist_1_joint": -0.7595177689779385,
            "wrist_2_joint": 1.7443932448376545,
            "wrist_3_joint": 3.1991315425061013
        }
    },
    "waypoints": [
        {
            "positions": [
                -2.967991417825869,
                -0.9740617694224828,
                1.7527959577730765,
                -0.7595177689779385,
                1.7443932448376545,
                3.1991315425061013
            ]
        },
        {
            "positions": [
                -2.9424040653112407,
                -0.9406277573359951,
                1.65087356635547,
                -0.6881579749498432,
                1.6122683647781553,
                3.1903531085125048
            ]
        },
        {
            "positions": [
                -2.9168167127966123,
                -0.9071937452495076,
                1.5489511749378635,
                -0.616798180921748,
                1.4801434847186563,
                3.1815746745189086
            ]
        },
        {
            "positions": [
                -2.8912293602819843,
                -0.8737597331630199,
                1.4470287835202569,
                -0.5454383868936526,
                1.3480186046591571,
                3.1727962405253125
            ]
        },
        {
            "positions": [
                -2.865642007767356,
                -0.8403257210765323,
                1.3451063921026503,
                -0.47407859286555737,
                1.215893724599658,
                3.164017806531716
            ]
        },
        {
            "positions": [
                -2.8400546552527275,
                -0.8068917089900447,
                1.2431840006850439,
                -0.4027187988374621,
                1.083768844540159,
                3.1552393725381194
            ]
        },
        {
            "positions": [
                -2.814467302738099,
                -0.7734576969035571,
                1.1412616092674375,
                -0.3313590048093668,
                0.9516439644806599,
                3.1464609385445232
            ]
        },
        {
            "positions": [
                -2.7888799502234707,
                -0.7400236848170695,
                1.0393392178498309,
                -0.25999921078127153,
                0.8195190844211608,
                3.137682504550927
            ]
        },
        {
            "positions": [
                -2.7632925977088427,
                -0.7065896727305818,
                0.9374168264322242,
                -0.1886394167531762,
                0.6873942043616617,
                3.1289040705573306
            ]
        },
        {
            "positions": [
                -2.7377052451942143,
                -0.6731556606440943,
                0.8354944350146177,
                -0.11727962272508086,
                0.5552693243021625,
                3.120125636563734
            ]
        },
        {
            "positions": [
                -2.712117892679586,
                -0.6397216485576066,
                0.7335720435970112,
                -0.04591982869698563,
                0.4231444442426636,
                3.111347202570138
            ]
        }
    ]
}