{
    "goal": {
        "global_pose": {
            "orientation": {
                "w": 0.005598929693374612,
                "x": 0.007748599140229565,
                "y": 0.7110244013736278,
                "z": -0.7031023480610252
            },
            "position": {
                "x": -0.8858502320852131,
                "y": -0.7141253447532654,
                "z": 0.3711530566215515
            }
        },
        "name": "move_to_auspresseinheit_C"
    },
    "id": "LBKPIECE_move_to_auspresseinheit_C_11",
    "joint_names": [
        "shoulder_pan_joint",
        "shoulder_lift_joint",
        "elbow_joint",
        "wrist_1_joint",
        "wrist_2_joint",
        "wrist_3_joint"
    ],
    "metrics": {
        "cart_traj_len": 0.4931163817679452,
        "distance_elbow_joint": 0.997202537789597,
        "distance_shoulder_lift_joint": 0.32351809690483224,
        "distance_shoulder_pan_joint": 0.2556974745029419,
        "distance_wrist_1_joint": 0.6638935581131533,
        "distance_wrist_2_joint": 1.3190458659421336,
        "distance_wrist_3_joint": 0.0441457752061436,
        "smoothness": 6.459479416000911e-16,
        "time": 0.300602498,
        "traj_len": 1.898289574448219,
        "weighted_distance": 2.38217007850539
    },
    "planner": "LBKPIECE",
    "start": {
        "state": {
            "elbow_joint": 1.7527959577730765,
            "shoulder_lift_joint": -0.9740617694224828,
            "shoulder_pan_joint": -2.967991417825869,
            "wrist_1_joint": -0.7595177689779385,
            "wrist_2_joint": 1.7443932448376545,
            "wrist_3_joint": 3.1991315425061013
        }
    },
    "waypoints": [
        {
            "positions": [
                -2.967991417825869,
                -0.9740617694224828,
                1.7527959577730765,
                -0.7595177689779385,
                1.7443932448376545,
                3.1991315425061013
            ]
        },
        {
            "positions": [
                -2.942421670375575,
                -0.9417099597319996,
                1.6530757039941169,
                -0.6931284131666232,
                1.612488658243441,
                3.1947169649854867
            ]
        },
        {
            "positions": [
                -2.9168519229252805,
                -0.9093581500415163,
                1.553355450215157,
                -0.6267390573553079,
                1.4805840716492278,
                3.1903023874648726
            ]
        },
        {
            "positions": [
                -2.8912821754749864,
                -0.8770063403510331,
                1.4536351964361973,
                -0.5603497015439926,
                1.3486794850550143,
                3.1858878099442585
            ]
        },
        {
            "positions": [
                -2.8657124280246924,
                -0.8446545306605499,
                1.3539149426572377,
                -0.4939603457326772,
                1.216774898460801,
                3.181473232423644
            ]
        },
        {
            "positions": [
                -2.840142680574398,
                -0.8123027209700666,
                1.254194688878278,
                -0.4275709899213619,
                1.0848703118665877,
                3.1770586549030293
            ]
        },
        {
            "positions": [
                -2.814572933124104,
                -0.7799509112795835,
                1.1544744350993184,
                -0.36118163411004656,
                0.9529657252723743,
                3.172644077382415
            ]
        },
        {
            "positions": [
                -2.78900318567381,
                -0.7475991015891003,
                1.0547541813203587,
                -0.2947922782987313,
                0.821061138678161,
                3.168229499861801
            ]
        },
        {
            "positions": [
                -2.7634334382235157,
                -0.715247291898617,
                0.9550339275413988,
                -0.2284029224874159,
                0.6891565520839475,
                3.1638149223411864
            ]
        },
        {
            "positions": [
                -2.7378636907732212,
                -0.6828954822081338,
                0.8553136737624392,
                -0.16201356667610056,
                0.5572519654897341,
                3.159400344820572
            ]
        },
        {
            "positions": [
                -2.712293943322927,
                -0.6505436725176506,
                0.7555934199834795,
                -0.09562421086478518,
                0.42534737889552093,
                3.1549857672999577
            ]
        }
    ]
}