{
    "goal": {
        "global_pose": {
            "orientation": {
                "w": 0.5084816217422485,
                "x": -0.49083608388900757,
                "y": 0.5182115435600281,
                "z": -0.4816462993621826
            },
            "position": {
                "x": 0.5540239810943604,
                "y": 0.030875300988554955,
                "z": 0.16403168439865112
            }
        },
        "name": "move_to_storage_A"
    },
    "id": "LBKPIECE_move_to_storage_A_134",
    "joint_names": [
        "shoulder_pan_joint",
        "shoulder_lift_joint",
        "elbow_joint",
        "wrist_1_joint",
        "wrist_2_joint",
        "wrist_3_joint"
    ],
    "metrics": {
        "cart_traj_len": 0.3536095431443029,
        "distance_elbow_joint": 0.44916242022228636,
        "distance_shoulder_lift_joint": 0.23540564832887023,
        "distance_shoulder_pan_joint": 0.46332667335127614,
        "distance_wrist_1_joint": 0.24007128480541806,
        "distance_wrist_2_joint": 1.095980948236773,
        "distance_wrist_3_joint": 0.09479325030240648,
        "smoothness": 2.2204460524777134e-15,
        "time": 0.23832818300000003,
        "traj_len": 1.6058456417872269,
        "weighted_distance": 2.0259266913918763
    },
    "planner": "LBKPIECE",
    "start": {
        "state": {
            "elbow_joint": 1.971548880431181,
            "shoulder_lift_joint": -1.1394869514688781,
            "shoulder_pan_joint": 0.12281150262730567,
            "wrist_1_joint": -0.7804693444481463,
            "wrist_2_joint": 0.12958644648617612,
            "wrist_3_joint": 3.0906942077768043
        }
    },
    "waypoints": [
        {
            "positions": [
                0.12281150262730567,
                -1.1394869514688781,
                1.971548880431181,
                -0.7804693444481463,
                0.12958644648617612,
                3.0906942077768043
            ]
        },
        {
            "positions": [
                0.05662197786283765,
                -1.1731163298015739,
                2.035714940462936,
                -0.8147652422774917,
                0.2861551533771437,
                3.104236100677148
            ]
        },
        {
            "positions": [
                -0.009567546901630364,
                -1.2067457081342696,
                2.0998810004946913,
                -0.8490611401068372,
                0.4427238602681113,
                3.1177779935774916
            ]
        },
        {
            "positions": [
                -0.07575707166609838,
                -1.2403750864669654,
                2.1640470605264466,
                -0.8833570379361826,
                0.5992925671590789,
                3.1313198864778355
            ]
        },
        {
            "positions": [
                -0.1419465964305664,
                -1.2740044647996611,
                2.228213120558202,
                -0.9176529357655281,
                0.7558612740500464,
                3.1448617793781795
            ]
        },
        {
            "positions": [
                -0.20813612119503444,
                -1.3076338431323569,
                2.2923791805899567,
                -0.9519488335948735,
                0.912429980941014,
                3.1584036722785234
            ]
        },
        {
            "positions": [
                -0.27432564595950243,
                -1.3412632214650526,
                2.356545240621712,
                -0.9862447314242189,
                1.0689986878319817,
                3.171945565178867
            ]
        },
        {
            "positions": [
                -0.3405151707239705,
                -1.3748925997977484,
                2.4207113006534673,
                -1.0205406292535644,
                1.2255673947229493,
                3.1854874580792107
            ]
        }
    ]
}