{
    "goal": {
        "global_pose": {
            "orientation": {
                "w": 0.005598929693374612,
                "x": 0.007748599140229565,
                "y": 0.7110244013736278,
                "z": -0.7031023480610252
            },
            "position": {
                "x": -0.8858502320852131,
                "y": -0.7141253447532654,
                "z": 0.3711530566215515
            }
        },
        "name": "move_to_auspresseinheit_C"
    },
    "id": "LBKPIECE_move_to_auspresseinheit_C_62",
    "joint_names": [
        "shoulder_pan_joint",
        "shoulder_lift_joint",
        "elbow_joint",
        "wrist_1_joint",
        "wrist_2_joint",
        "wrist_3_joint"
    ],
    "metrics": {
        "cart_traj_len": 5.447036413732203,
        "distance_elbow_joint": 1.6747975192314382,
        "distance_shoulder_lift_joint": 3.363277057848852,
        "distance_shoulder_pan_joint": 0.2567511934357314,
        "distance_wrist_1_joint": 2.586111008131473,
        "distance_wrist_2_joint": 1.3016996339317322,
        "distance_wrist_3_joint": 3.2524335515861833,
        "smoothness": 0.758877010276106,
        "time": 0.59672126,
        "traj_len": 3.526339456740574,
        "weighted_distance": 4.777839230175182
    },
    "planner": "LBKPIECE",
    "start": {
        "state": {
            "elbow_joint": 1.7527959577730765,
            "shoulder_lift_joint": -0.9740617694224828,
            "shoulder_pan_joint": -2.967991417825869,
            "wrist_1_joint": -0.7595177689779385,
            "wrist_2_joint": 1.7443932448376545,
            "wrist_3_joint": 3.1991315425061013
        }
    },
    "waypoints": [
        {
            "positions": [
                -2.967991417825869,
                -0.9740617694224828,
                1.7527959577730765,
                -0.7595177689779385,
                1.7443932448376545,
                3.1991315425061013
            ]
        },
        {
            "positions": [
                -2.9592086152381003,
                -1.0636649804396514,
                1.6745705504182014,
                -0.8162976562157607,
                1.6859329308708333,
                3.102068601680915
            ]
        },
        {
            "positions": [
                -2.9504258126503315,
                -1.15326819145682,
                1.5963451430633262,
                -0.8730775434535828,
                1.6274726169040123,
                3.0050056608557285
            ]
        },
        {
            "positions": [
                -2.941643010062563,
                -1.2428714024739884,
                1.518119735708451,
                -0.9298574306914049,
                1.5690123029371912,
                2.907942720030542
            ]
        },
        {
            "positions": [
                -2.932860207474794,
                -1.332474613491157,
                1.439894328353576,
                -0.9866373179292272,
                1.51055198897037,
                2.8108797792053557
            ]
        },
        {
            "positions": [
                -2.9240774048870253,
                -1.4220778245083256,
                1.3616689209987007,
                -1.0434172051670492,
                1.4520916750035489,
                2.7138168383801693
            ]
        },
        {
            "positions": [
                -2.9152946022992565,
                -1.5116810355254942,
                1.2834435136438256,
                -1.1001970924048714,
                1.393631361036728,
                2.616753897554983
            ]
        },
        {
            "positions": [
                -2.9065117997114878,
                -1.6012842465426627,
                1.2052181062889504,
                -1.1569769796426934,
                1.3351710470699067,
                2.5196909567297965
            ]
        },
        {
            "positions": [
                -2.897728997123719,
                -1.6908874575598314,
                1.1269926989340753,
                -1.2137568668805157,
                1.2767107331030858,
                2.4226280159046105
            ]
        },
        {
            "positions": [
                -2.8889461945359507,
                -1.780490668577,
                1.0487672915792001,
                -1.2705367541183379,
                1.2182504191362646,
                2.3255650750794237
            ]
        },
        {
            "positions": [
                -2.880163391948182,
                -1.8700938795941684,
                0.970541884224325,
                -1.32731664135616,
                1.1597901051694435,
                2.2285021342542377
            ]
        },
        {
            "positions": [
                -2.871380589360413,
                -1.959697090611337,
                0.8923164768694498,
                -1.3840965285939821,
                1.1013297912026223,
                2.131439193429051
            ]
        },
        {
            "positions": [
                -2.8625977867726444,
                -2.0493003016285054,
                0.8140910695145746,
                -1.4408764158318044,
                1.0428694772358011,
                2.034376252603865
            ]
        },
        {
            "positions": [
                -2.8538149841848757,
                -2.138903512645674,
                0.7358656621596995,
                -1.4976563030696264,
                0.9844091632689802,
                1.9373133117786785
            ]
        },
        {
            "positions": [
                -2.845032181597107,
                -2.2285067236628424,
                0.6576402548048244,
                -1.5544361903074484,
                0.9259488493021591,
                1.840250370953492
            ]
        },
        {
            "positions": [
                -2.836249379009338,
                -2.318109934680011,
                0.5794148474499492,
                -1.6112160775452706,
                0.867488535335338,
                1.7431874301283057
            ]
        },
        {
            "positions": [
                -2.8274665764215694,
                -2.40771314569718,
                0.501189440095074,
                -1.6679959647830929,
                0.8090282213685169,
                1.6461244893031193
            ]
        },
        {
            "positions": [
                -2.8186837738338006,
                -2.4973163567143484,
                0.4229640327401989,
                -1.7247758520209149,
                0.7505679074016958,
                1.5490615484779329
            ]
        },
        {
            "positions": [
                -2.8115208705375565,
                -2.3746481920105493,
                0.4459617390201029,
                -1.6167189903483485,
                0.7300429543019775,
                1.6558857856484672
            ]
        },
        {
            "positions": [
                -2.8043579672413124,
                -2.2519800273067503,
                0.4689594453000069,
                -1.5086621286757822,
                0.7095180012022593,
                1.7627100228190016
            ]
        },
        {
            "positions": [
                -2.7971950639450682,
                -2.129311862602951,
                0.49195715157991093,
                -1.4006052670032156,
                0.688993048102541,
                1.869534259989536
            ]
        },
        {
            "positions": [
                -2.7900321606488236,
                -2.0066436978991518,
                0.5149548578598149,
                -1.2925484053306493,
                0.6684680950028228,
                1.9763584971600703
            ]
        },
        {
            "positions": [
                -2.7828692573525795,
                -1.8839755331953527,
                0.5379525641397189,
                -1.184491543658083,
                0.6479431419031045,
                2.083182734330604
            ]
        },
        {
            "positions": [
                -2.7757063540563354,
                -1.7613073684915534,
                0.560950270419623,
                -1.0764346819855164,
                0.6274181888033863,
                2.190006971501139
            ]
        },
        {
            "positions": [
                -2.7685434507600912,
                -1.6386392037877542,
                0.5839479766995269,
                -0.9683778203129502,
                0.6068932357036682,
                2.296831208671673
            ]
        },
        {
            "positions": [
                -2.761380547463847,
                -1.5159710390839551,
                0.606945682979431,
                -0.8603209586403838,
                0.5863682826039499,
                2.4036554458422072
            ]
        },
        {
            "positions": [
                -2.754217644167603,
                -1.393302874380156,
                0.6299433892593349,
                -0.7522640969678175,
                0.5658433295042317,
                2.5104796830127416
            ]
        },
        {
            "positions": [
                -2.747054740871359,
                -1.270634709676357,
                0.652941095539239,
                -0.644207235295251,
                0.5453183764045134,
                2.617303920183276
            ]
        },
        {
            "positions": [
                -2.7398918375751147,
                -1.1479665449725578,
                0.675938801819143,
                -0.5361503736226847,
                0.5247934233047952,
                2.7241281573538103
            ]
        },
        {
            "positions": [
                -2.73272893427887,
                -1.0252983802687585,
                0.6989365080990471,
                -0.42809351195011813,
                0.5042684702050769,
                2.8309523945243447
            ]
        },
        {
            "positions": [
                -2.725566030982626,
                -0.9026302155649595,
                0.721934214378951,
                -0.3200366502775518,
                0.4837435171053587,
                2.937776631694879
            ]
        },
        {
            "positions": [
                -2.718403127686382,
                -0.7799620508611602,
                0.7449319206588549,
                -0.21197978860498545,
                0.4632185640056405,
                3.0446008688654134
            ]
        },
        {
            "positions": [
                -2.7112402243901377,
                -0.6572938861573612,
                0.767929626938759,
                -0.10392292693241906,
                0.44269361090592224,
                3.1514251060359477
            ]
        }
    ]
}