{
    "goal": {
        "global_pose": {
            "orientation": {
                "w": 0.5084816217422485,
                "x": -0.49083608388900757,
                "y": 0.5182115435600281,
                "z": -0.4816462993621826
            },
            "position": {
                "x": 0.5540239810943604,
                "y": 0.030875300988554955,
                "z": 0.16403168439865112
            }
        },
        "name": "move_to_storage_A"
    },
    "id": "LBKPIECE_move_to_storage_A_58",
    "joint_names": [
        "shoulder_pan_joint",
        "shoulder_lift_joint",
        "elbow_joint",
        "wrist_1_joint",
        "wrist_2_joint",
        "wrist_3_joint"
    ],
    "metrics": {
        "cart_traj_len": 0.3525418310249916,
        "distance_elbow_joint": 0.4485815791970038,
        "distance_shoulder_lift_joint": 0.23558436431106222,
        "distance_shoulder_pan_joint": 0.45747741735160585,
        "distance_wrist_1_joint": 0.23493509556287284,
        "distance_wrist_2_joint": 1.1134746399617055,
        "distance_wrist_3_joint": 0.09090800136338917,
        "smoothness": 4.440892133664971e-16,
        "time": 0.161127386,
        "traj_len": 1.606536989224848,
        "weighted_distance": 2.0276061836557404
    },
    "planner": "LBKPIECE",
    "start": {
        "state": {
            "elbow_joint": 1.971548880431181,
            "shoulder_lift_joint": -1.1394869514688781,
            "shoulder_pan_joint": 0.12281150262730567,
            "wrist_1_joint": -0.7804693444481463,
            "wrist_2_joint": 0.12958644648617612,
            "wrist_3_joint": 3.0906942077768043
        }
    },
    "waypoints": [
        {
            "positions": [
                0.12281150262730567,
                -1.1394869514688781,
                1.971548880431181,
                -0.7804693444481463,
                0.12958644648617612,
                3.0906942077768043
            ]
        },
        {
            "positions": [
                0.05745758586279055,
                -1.1731418606561728,
                2.03563196317361,
                -0.8140315009571282,
                0.2886542521949912,
                3.103681065114431
            ]
        },
        {
            "positions": [
                -0.007896330901724563,
                -1.2067967698434674,
                2.099715045916039,
                -0.8475936574661099,
                0.44772205790380626,
                3.1166679224520584
            ]
        },
        {
            "positions": [
                -0.07325024766623969,
                -1.240451679030762,
                2.163798128658468,
                -0.8811558139750918,
                0.6067898636126213,
                3.129654779789685
            ]
        },
        {
            "positions": [
                -0.1386041644307548,
                -1.2741065882180564,
                2.2278812114008972,
                -0.9147179704840737,
                0.7658576693214364,
                3.1426416371273125
            ]
        },
        {
            "positions": [
                -0.20395808119526992,
                -1.307761497405351,
                2.2919642941433267,
                -0.9482801269930554,
                0.9249254750302515,
                3.1556284944649393
            ]
        },
        {
            "positions": [
                -0.26931199795978505,
                -1.3414164065926457,
                2.3560473768857557,
                -0.9818422835020373,
                1.0839932807390666,
                3.1686153518025666
            ]
        },
        {
            "positions": [
                -0.3346659147243002,
                -1.3750713157799404,
                2.4201304596281847,
                -1.0154044400110191,
                1.2430610864478815,
                3.1816022091401934
            ]
        }
    ]
}