{
    "goal": {
        "global_pose": {
            "orientation": {
                "w": 0.005598929693374612,
                "x": 0.007748599140229565,
                "y": 0.7110244013736278,
                "z": -0.7031023480610252
            },
            "position": {
                "x": -0.8858502320852131,
                "y": -0.7141253447532654,
                "z": 0.3711530566215515
            }
        },
        "name": "move_to_auspresseinheit_C"
    },
    "id": "LBKPIECE_move_to_auspresseinheit_C_44",
    "joint_names": [
        "shoulder_pan_joint",
        "shoulder_lift_joint",
        "elbow_joint",
        "wrist_1_joint",
        "wrist_2_joint",
        "wrist_3_joint"
    ],
    "metrics": {
        "cart_traj_len": 0.49398952916960376,
        "distance_elbow_joint": 1.0133761747761854,
        "distance_shoulder_lift_joint": 0.33088513956924237,
        "distance_shoulder_pan_joint": 0.2558285695630853,
        "distance_wrist_1_joint": 0.701833500345113,
        "distance_wrist_2_joint": 1.311957614362973,
        "distance_wrist_3_joint": 0.08045839019246737,
        "smoothness": 3.2297397335745243e-16,
        "time": 0.6225226660000001,
        "traj_len": 1.9220664371475475,
        "weighted_distance": 2.422611665930404
    },
    "planner": "LBKPIECE",
    "start": {
        "state": {
            "elbow_joint": 1.7527959577730765,
            "shoulder_lift_joint": -0.9740617694224828,
            "shoulder_pan_joint": -2.967991417825869,
            "wrist_1_joint": -0.7595177689779385,
            "wrist_2_joint": 1.7443932448376545,
            "wrist_3_joint": 3.1991315425061013
        }
    },
    "waypoints": [
        {
            "positions": [
                -2.967991417825869,
                -0.9740617694224828,
                1.7527959577730765,
                -0.7595177689779385,
                1.7443932448376545,
                3.1991315425061013
            ]
        },
        {
            "positions": [
                -2.9424085608695605,
                -0.9409732554655585,
                1.651458340295458,
                -0.6893344189434273,
                1.6131974834013572,
                3.1910857034868547
            ]
        },
        {
            "positions": [
                -2.916825703913252,
                -0.9078847415086343,
                1.5501207228178395,
                -0.6191510689089159,
                1.4820017219650599,
                3.1830398644676077
            ]
        },
        {
            "positions": [
                -2.8912428469569433,
                -0.87479622755171,
                1.448783105340221,
                -0.5489677188744047,
                1.3508059605287626,
                3.174994025448361
            ]
        },
        {
            "positions": [
                -2.8656599900006348,
                -0.8417077135947858,
                1.3474454878626023,
                -0.47878436883989334,
                1.2196101990924653,
                3.1669481864291145
            ]
        },
        {
            "positions": [
                -2.8400771330443266,
                -0.8086191996378616,
                1.246107870384984,
                -0.408601018805382,
                1.088414437656168,
                3.1589023474098674
            ]
        },
        {
            "positions": [
                -2.814494276088018,
                -0.7755306856809374,
                1.1447702529073653,
                -0.3384176687708707,
                0.9572186762198707,
                3.150856508390621
            ]
        },
        {
            "positions": [
                -2.7889114191317095,
                -0.7424421717240132,
                1.0434326354297467,
                -0.26823431873635945,
                0.8260229147835735,
                3.142810669371374
            ]
        },
        {
            "positions": [
                -2.763328562175401,
                -0.7093536577670889,
                0.9420950179521281,
                -0.19805096870184813,
                0.6948271533472761,
                3.1347648303521276
            ]
        },
        {
            "positions": [
                -2.7377457052190923,
                -0.6762651438101647,
                0.8407574004745096,
                -0.12786761866733676,
                0.5636313919109788,
                3.1267189913328806
            ]
        },
        {
            "positions": [
                -2.7121628482627838,
                -0.6431766298532404,
                0.7394197829968912,
                -0.05768426863282552,
                0.4324356304746814,
                3.118673152313634
            ]
        }
    ]
}