{
    "goal": {
        "global_pose": {
            "orientation": {
                "w": 0.7047431468963623,
                "x": -0.7094548344612122,
                "y": 0.0024358443915843964,
                "z": -0.0022348060738295317
            },
            "position": {
                "x": 0.6094750761985779,
                "y": 0.3671506643295288,
                "z": 0.19426114857196808
            }
        },
        "name": "move_to_magneteinheit_A"
    },
    "id": "LBKPIECE_move_to_magneteinheit_A_56",
    "joint_names": [
        "shoulder_pan_joint",
        "shoulder_lift_joint",
        "elbow_joint",
        "wrist_1_joint",
        "wrist_2_joint",
        "wrist_3_joint"
    ],
    "metrics": {
        "cart_traj_len": 1.9755582100956406,
        "distance_elbow_joint": 3.5909961328898676,
        "distance_shoulder_lift_joint": 0.795286993232018,
        "distance_shoulder_pan_joint": 1.2419540818291448,
        "distance_wrist_1_joint": 1.1387062646881554,
        "distance_wrist_2_joint": 1.4326772538477235,
        "distance_wrist_3_joint": 1.934034480302483,
        "smoothness": 7.894919311623662e-16,
        "time": 0.44436714699999996,
        "traj_len": 3.1833402593485656,
        "weighted_distance": 4.071008190354109
    },
    "planner": "LBKPIECE",
    "start": {
        "state": {
            "elbow_joint": -1.5739458827952972,
            "shoulder_lift_joint": 0.006533473998580023,
            "shoulder_pan_joint": -1.1188671628667068,
            "wrist_1_joint": 3.138208179676308,
            "wrist_2_joint": -1.5706037135050406,
            "wrist_3_joint": -2.0226958329764257
        }
    },
    "waypoints": [
        {
            "positions": [
                -1.1188671628667068,
                0.006533473998580023,
                -1.5739458827952972,
                3.138208179676308,
                -1.5706037135050406,
                -2.0226958329764257
            ]
        },
        {
            "positions": [
                -1.0710996981809706,
                -0.02405448727957452,
                -1.4358306469149178,
                3.09441178488061,
                -1.515500742203205,
                -1.9483098914263302
            ]
        },
        {
            "positions": [
                -1.0233322334952342,
                -0.05464244855772906,
                -1.2977154110345381,
                3.0506153900849116,
                -1.4603977709013696,
                -1.8739239498762348
            ]
        },
        {
            "positions": [
                -0.9755647688094978,
                -0.0852304098358836,
                -1.1596001751541587,
                3.0068189952892133,
                -1.405294799599534,
                -1.7995380083261392
            ]
        },
        {
            "positions": [
                -0.9277973041237615,
                -0.11581837111403814,
                -1.0214849392737793,
                2.963022600493515,
                -1.3501918282976986,
                -1.7251520667760438
            ]
        },
        {
            "positions": [
                -0.8800298394380252,
                -0.14640633239219267,
                -0.8833697033933996,
                2.9192262056978167,
                -1.295088856995863,
                -1.6507661252259482
            ]
        },
        {
            "positions": [
                -0.8322623747522888,
                -0.17699429367034722,
                -0.74525446751302,
                2.8754298109021184,
                -1.2399858856940273,
                -1.5763801836758526
            ]
        },
        {
            "positions": [
                -0.7844949100665525,
                -0.20758225494850172,
                -0.6071392316326406,
                2.83163341610642,
                -1.184882914392192,
                -1.5019942421257573
            ]
        },
        {
            "positions": [
                -0.7367274453808161,
                -0.2381702162266563,
                -0.46902399575226106,
                2.7878370213107218,
                -1.1297799430903563,
                -1.4276083005756617
            ]
        },
        {
            "positions": [
                -0.6889599806950798,
                -0.26875817750481085,
                -0.3309087598718816,
                2.7440406265150235,
                -1.074676971788521,
                -1.3532223590255663
            ]
        },
        {
            "positions": [
                -0.6411925160093435,
                -0.2993461387829654,
                -0.19279352399150196,
                2.700244231719325,
                -1.0195740004866853,
                -1.2788364174754707
            ]
        },
        {
            "positions": [
                -0.5934250513236071,
                -0.3299341000611199,
                -0.05467828811112252,
                2.656447836923627,
                -0.9644710291848498,
                -1.2044504759253751
            ]
        },
        {
            "positions": [
                -0.5456575866378708,
                -0.3605220613392745,
                0.08343694776925714,
                2.6126514421279285,
                -0.9093680578830143,
                -1.1300645343752798
            ]
        },
        {
            "positions": [
                -0.49789012195213445,
                -0.391110022617429,
                0.22155218364963658,
                2.5688550473322307,
                -0.8542650865811788,
                -1.0556785928251844
            ]
        },
        {
            "positions": [
                -0.4501226572663981,
                -0.4216979838955835,
                0.359667419530016,
                2.525058652536532,
                -0.7991621152793433,
                -0.9812926512750888
            ]
        },
        {
            "positions": [
                -0.4023551925806619,
                -0.45228594517373805,
                0.49778265541039546,
                2.481262257740834,
                -0.7440591439775078,
                -0.9069067097249934
            ]
        },
        {
            "positions": [
                -0.35458772789492543,
                -0.48287390645189265,
                0.6358978912907751,
                2.4374658629451353,
                -0.6889561726756722,
                -0.8325207681748976
            ]
        },
        {
            "positions": [
                -0.3068202632091891,
                -0.5134618677300471,
                0.7740131271711548,
                2.3936694681494375,
                -0.6338532013738367,
                -0.7581348266248022
            ]
        },
        {
            "positions": [
                -0.25905279852345275,
                -0.5440498290082016,
                0.912128363051534,
                2.349873073353739,
                -0.5787502300720012,
                -0.6837488850747069
            ]
        },
        {
            "positions": [
                -0.21128533383771642,
                -0.5746377902863562,
                1.0502435989319137,
                2.306076678558041,
                -0.5236472587701657,
                -0.6093629435246113
            ]
        },
        {
            "positions": [
                -0.16351786915198008,
                -0.6052257515645107,
                1.1883588348122933,
                2.2622802837623426,
                -0.4685442874683301,
                -0.5349770019745157
            ]
        },
        {
            "positions": [
                -0.11575040446624363,
                -0.6358137128426653,
                1.326474070692673,
                2.2184838889666443,
                -0.4134413161664947,
                -0.46059106042442033
            ]
        },
        {
            "positions": [
                -0.0679829397805074,
                -0.6664016741208197,
                1.4645893065730522,
                2.174687494170946,
                -0.3583383448646591,
                -0.38620511887432474
            ]
        },
        {
            "positions": [
                -0.020215475094771174,
                -0.6969896353989743,
                1.6027045424534319,
                2.1308910993752477,
                -0.3032353735628237,
                -0.31181917732422937
            ]
        },
        {
            "positions": [
                0.027551989590965276,
                -0.727577596677129,
                1.7408197783338115,
                2.0870947045795494,
                -0.2481324022609881,
                -0.23743323577413378
            ]
        },
        {
            "positions": [
                0.07531945427670172,
                -0.7581655579552834,
                1.8789350142141912,
                2.043298309783851,
                -0.19302943095915248,
                -0.1630472942240382
            ]
        },
        {
            "positions": [
                0.12308691896243801,
                -0.788753519233438,
                2.01705025009457,
                1.9995019149881528,
                -0.137926459657317,
                -0.08866135267394283
            ]
        }
    ]
}