{
    "goal": {
        "global_pose": {
            "orientation": {
                "w": 0.7047431468963623,
                "x": -0.7094548344612122,
                "y": 0.0024358443915843964,
                "z": -0.0022348060738295317
            },
            "position": {
                "x": 0.6094750761985779,
                "y": 0.3671506643295288,
                "z": 0.19426114857196808
            }
        },
        "name": "move_to_magneteinheit_A"
    },
    "id": "LBKPIECE_move_to_magneteinheit_A_20",
    "joint_names": [
        "shoulder_pan_joint",
        "shoulder_lift_joint",
        "elbow_joint",
        "wrist_1_joint",
        "wrist_2_joint",
        "wrist_3_joint"
    ],
    "metrics": {
        "cart_traj_len": 1.9790893887767065,
        "distance_elbow_joint": 3.592730296923305,
        "distance_shoulder_lift_joint": 0.7942854040876611,
        "distance_shoulder_pan_joint": 1.242737161476568,
        "distance_wrist_1_joint": 1.12534442584968,
        "distance_wrist_2_joint": 1.4344225961309334,
        "distance_wrist_3_joint": 1.916962274955919,
        "smoothness": 6.250144456581818e-16,
        "time": 0.463951014,
        "traj_len": 3.179069385751759,
        "weighted_distance": 4.06204058710847
    },
    "planner": "LBKPIECE",
    "start": {
        "state": {
            "elbow_joint": -1.5739458827952972,
            "shoulder_lift_joint": 0.006533473998580023,
            "shoulder_pan_joint": -1.1188671628667068,
            "wrist_1_joint": 3.138208179676308,
            "wrist_2_joint": -1.5706037135050406,
            "wrist_3_joint": -2.0226958329764257
        }
    },
    "waypoints": [
        {
            "positions": [
                -1.1188671628667068,
                0.006533473998580023,
                -1.5739458827952972,
                3.138208179676308,
                -1.5706037135050406,
                -2.0226958329764257
            ]
        },
        {
            "positions": [
                -1.0710695797329928,
                -0.024015964620176175,
                -1.435763948298247,
                3.0949257017590126,
                -1.5154336136538509,
                -1.9489665147088904
            ]
        },
        {
            "positions": [
                -1.0232719965992785,
                -0.05456540323893237,
                -1.2975820138011969,
                3.0516432238417175,
                -1.4602635138026612,
                -1.875237196441355
            ]
        },
        {
            "positions": [
                -0.9754744134655644,
                -0.08511484185768857,
                -1.1594000793041466,
                3.008360745924422,
                -1.4050934139514712,
                -1.8015078781738196
            ]
        },
        {
            "positions": [
                -0.9276768303318502,
                -0.11566428047644477,
                -1.0212181448070963,
                2.965078268007127,
                -1.3499233141002815,
                -1.7277785599062843
            ]
        },
        {
            "positions": [
                -0.879879247198136,
                -0.14621371909520095,
                -0.8830362103100462,
                2.9217957900898313,
                -1.2947532142490918,
                -1.6540492416387491
            ]
        },
        {
            "positions": [
                -0.8320816640644219,
                -0.17676315771395715,
                -0.744854275812996,
                2.8785133121725357,
                -1.2395831143979021,
                -1.5803199233712135
            ]
        },
        {
            "positions": [
                -0.7842840809307078,
                -0.20731259633271334,
                -0.6066723413159459,
                2.8352308342552406,
                -1.1844130145467124,
                -1.5065906051036784
            ]
        },
        {
            "positions": [
                -0.7364864977969936,
                -0.23786203495146954,
                -0.46849040681889553,
                2.791948356337945,
                -1.1292429146955225,
                -1.432861286836143
            ]
        },
        {
            "positions": [
                -0.6886889146632794,
                -0.26841147357022577,
                -0.33030847232184546,
                2.74866587842065,
                -1.0740728148443328,
                -1.3591319685686076
            ]
        },
        {
            "positions": [
                -0.6408913315295652,
                -0.29896091218898196,
                -0.19212653782479516,
                2.7053834005033544,
                -1.018902714993143,
                -1.2854026503010723
            ]
        },
        {
            "positions": [
                -0.5930937483958512,
                -0.32951035080773816,
                -0.05394460332774509,
                2.662100922586059,
                -0.9637326151419534,
                -1.2116733320335369
            ]
        },
        {
            "positions": [
                -0.5452961652621369,
                -0.36005978942649436,
                0.08423733116930521,
                2.6188184446687632,
                -0.9085625152907636,
                -1.1379440137660015
            ]
        },
        {
            "positions": [
                -0.4974985821284228,
                -0.39060922804525056,
                0.22241926566635528,
                2.575535966751468,
                -0.8533924154395739,
                -1.0642146954984661
            ]
        },
        {
            "positions": [
                -0.4497009989947087,
                -0.42115866666400675,
                0.36060120016340536,
                2.532253488834173,
                -0.7982223155883842,
                -0.990485377230931
            ]
        },
        {
            "positions": [
                -0.40190341586099454,
                -0.4517081052827629,
                0.49878313466045543,
                2.4889710109168774,
                -0.7430522157371945,
                -0.9167560589633956
            ]
        },
        {
            "positions": [
                -0.35410583272728025,
                -0.48225754390151915,
                0.6369650691575062,
                2.445688532999582,
                -0.6878821158860046,
                -0.8430267406958603
            ]
        },
        {
            "positions": [
                -0.3063082495935662,
                -0.5128069825202753,
                0.775147003654556,
                2.4024060550822863,
                -0.6327120160348149,
                -0.7692974224283249
            ]
        },
        {
            "positions": [
                -0.258510666459852,
                -0.5433564211390315,
                0.9133289381516063,
                2.359123577164991,
                -0.5775419161836252,
                -0.6955681041607895
            ]
        },
        {
            "positions": [
                -0.21071308332613792,
                -0.5739058597577876,
                1.0515108726486562,
                2.315841099247696,
                -0.5223718163324356,
                -0.6218387858932544
            ]
        },
        {
            "positions": [
                -0.16291550019242362,
                -0.6044552983765439,
                1.189692807145707,
                2.2725586213304005,
                -0.46720171648124564,
                -0.5481094676257188
            ]
        },
        {
            "positions": [
                -0.11511791705870955,
                -0.6350047369953001,
                1.3278747416427568,
                2.229276143413105,
                -0.41203161663005594,
                -0.4743801493581834
            ]
        },
        {
            "positions": [
                -0.06732033392499548,
                -0.6655541756140563,
                1.466056676139807,
                2.1859936654958094,
                -0.35686151677886624,
                -0.40065083109064825
            ]
        },
        {
            "positions": [
                -0.019522750791281185,
                -0.6961036142328124,
                1.604238610636857,
                2.1427111875785143,
                -0.30169141692767654,
                -0.3269215128231129
            ]
        },
        {
            "positions": [
                0.02827483234243311,
                -0.7266530528515687,
                1.7424205451339077,
                2.0994287096612188,
                -0.2465213170764866,
                -0.2531921945555773
            ]
        },
        {
            "positions": [
                0.07607241547614718,
                -0.7572024914703249,
                1.8806024796309575,
                2.0561462317439236,
                -0.1913512172252969,
                -0.17946287628804214
            ]
        },
        {
            "positions": [
                0.12386999860986114,
                -0.7877519300890811,
                2.018784414128008,
                2.012863753826628,
                -0.13618111737410712,
                -0.10573355802050684
            ]
        }
    ]
}