{
    "goal": {
        "global_pose": {
            "orientation": {
                "w": -0.4816463035849501,
                "x": 0.5182115481033762,
                "y": 0.4908360881923453,
                "z": -0.5084816262002911
            },
            "position": {
                "x": -0.8240239810943604,
                "y": 0.19912469901144506,
                "z": 0.16403168439865112
            }
        },
        "name": "move_to_storage_D"
    },
    "id": "LBKPIECE_move_to_storage_D_99",
    "joint_names": [
        "shoulder_pan_joint",
        "shoulder_lift_joint",
        "elbow_joint",
        "wrist_1_joint",
        "wrist_2_joint",
        "wrist_3_joint"
    ],
    "metrics": {
        "cart_traj_len": 0.7191043377889983,
        "distance_elbow_joint": 1.0609297494263694,
        "distance_shoulder_lift_joint": 0.8007178001137345,
        "distance_shoulder_pan_joint": 0.40536017847051664,
        "distance_wrist_1_joint": 3.823522693785973,
        "distance_wrist_2_joint": 2.165278057319826,
        "distance_wrist_3_joint": 3.1208785299152173,
        "smoothness": 0.2562934223725125,
        "time": 0.17204188799999998,
        "traj_len": 3.3729344803941324,
        "weighted_distance": 4.858728724673551
    },
    "planner": "LBKPIECE",
    "start": {
        "state": {
            "elbow_joint": -2.384821990628643,
            "shoulder_lift_joint": -2.278805467437664,
            "shoulder_pan_joint": -0.18546946439364564,
            "wrist_1_joint": 1.4845938187801415,
            "wrist_2_joint": 0.178987772454074,
            "wrist_3_joint": 0.03710569632802521
        }
    },
    "waypoints": [
        {
            "positions": [
                -0.18546946439364564,
                -2.278805467437664,
                -2.384821990628643,
                1.4845938187801415,
                0.178987772454074,
                0.03710569632802521
            ]
        },
        {
            "positions": [
                -0.12985220537161113,
                -2.1834461358081843,
                -2.4354354691651916,
                1.4265864391737202,
                0.21790024455304996,
                -0.032923650124785056
            ]
        },
        {
            "positions": [
                -0.07423494634957661,
                -2.0880868041787046,
                -2.48604894770174,
                1.3685790595672989,
                0.256812716652026,
                -0.10295299657759532
            ]
        },
        {
            "positions": [
                -0.0186176873275421,
                -1.992727472549225,
                -2.536662426238288,
                1.3105716799608778,
                0.29572518875100196,
                -0.1729823430304056
            ]
        },
        {
            "positions": [
                0.03699957169449242,
                -1.8973681409197454,
                -2.5872759047748364,
                1.2525643003544564,
                0.3346376608499779,
                -0.24301168948321586
            ]
        },
        {
            "positions": [
                0.09261683071652693,
                -1.8020088092902657,
                -2.637889383311385,
                1.194556920748035,
                0.3735501329489539,
                -0.3130410359360261
            ]
        },
        {
            "positions": [
                0.08752587538211318,
                -1.8149656549689193,
                -2.6055748890416397,
                1.0532174889178805,
                0.29472150507595607,
                -0.42387030784207275
            ]
        },
        {
            "positions": [
                0.08243492004769941,
                -1.8279225006475726,
                -2.5732603947718946,
                0.9118780570877257,
                0.21589287720295822,
                -0.5346995797481193
            ]
        },
        {
            "positions": [
                0.07734396471328565,
                -1.840879346326226,
                -2.5409459005021495,
                0.770538625257571,
                0.1370642493299604,
                -0.645528851654166
            ]
        },
        {
            "positions": [
                0.07225300937887189,
                -1.8538361920048796,
                -2.5086314062324044,
                0.6291991934274164,
                0.05823562145696254,
                -0.7563581235602126
            ]
        },
        {
            "positions": [
                0.06716205404445813,
                -1.866793037683533,
                -2.4763169119626594,
                0.48785976159726163,
                -0.020593006416035342,
                -0.8671873954662592
            ]
        },
        {
            "positions": [
                0.062071098710044376,
                -1.8797498833621864,
                -2.4440024176929143,
                0.346520329767107,
                -0.09942163428903311,
                -0.9780166673723059
            ]
        },
        {
            "positions": [
                0.05698014337563061,
                -1.89270672904084,
                -2.411687923423169,
                0.20518089793695227,
                -0.178250262162031,
                -1.0888459392783525
            ]
        },
        {
            "positions": [
                0.051889188041216845,
                -1.9056635747194934,
                -2.379373429153424,
                0.06384146610679764,
                -0.2570788900350288,
                -1.1996752111843991
            ]
        },
        {
            "positions": [
                0.04679823270680309,
                -1.9186204203981467,
                -2.3470589348836786,
                -0.07749796572335699,
                -0.33590751790802664,
                -1.3105044830904458
            ]
        },
        {
            "positions": [
                0.04170727737238933,
                -1.9315772660768002,
                -2.3147444406139335,
                -0.21883739755351184,
                -0.4147361457810246,
                -1.4213337549964924
            ]
        },
        {
            "positions": [
                0.03661632203797557,
                -1.9445341117554538,
                -2.2824299463441884,
                -0.36017682938366646,
                -0.4935647736540223,
                -1.532163026902539
            ]
        },
        {
            "positions": [
                0.03152536670356181,
                -1.9574909574341073,
                -2.2501154520744433,
                -0.5015162612138211,
                -0.5723934015270201,
                -1.6429922988085854
            ]
        },
        {
            "positions": [
                0.02643441136914805,
                -1.9704478031127606,
                -2.217800957804698,
                -0.6428556930439757,
                -0.6512220294000179,
                -1.7538215707146323
            ]
        },
        {
            "positions": [
                0.02134345603473428,
                -1.983404648791414,
                -2.185486463534953,
                -0.7841951248741306,
                -0.7300506572730159,
                -1.864650842620679
            ]
        },
        {
            "positions": [
                0.016252500700320527,
                -1.9963614944700676,
                -2.153171969265208,
                -0.9255345567042852,
                -0.8088792851460136,
                -1.9754801145267253
            ]
        },
        {
            "positions": [
                0.011161545365906758,
                -2.009318340148721,
                -2.120857474995463,
                -1.0668739885344398,
                -0.8877079130190115,
                -2.0863093864327724
            ]
        },
        {
            "positions": [
                0.006070590031493003,
                -2.0222751858273744,
                -2.088542980725718,
                -1.2082134203645944,
                -0.9665365408920095,
                -2.197138658338819
            ]
        },
        {
            "positions": [
                0.0009796346970792486,
                -2.0352320315060277,
                -2.056228486455973,
                -1.349552852194749,
                -1.0453651687650072,
                -2.3079679302448652
            ]
        },
        {
            "positions": [
                -0.00411132063733452,
                -2.0481888771846815,
                -2.0239139921862277,
                -1.4908922840249037,
                -1.1241937966380051,
                -2.418797202150912
            ]
        },
        {
            "positions": [
                -0.009202275971748275,
                -2.0611457228633348,
                -1.9915994979164826,
                -1.6322317158550588,
                -1.203022424511003,
                -2.529626474056959
            ]
        },
        {
            "positions": [
                -0.01429323130616203,
                -2.0741025685419885,
                -1.9592850036467375,
                -1.773571147685213,
                -1.2818510523840005,
                -2.6404557459630054
            ]
        },
        {
            "positions": [
                -0.0193841866405758,
                -2.087059414220642,
                -1.9269705093769924,
                -1.914910579515368,
                -1.3606796802569985,
                -2.751285017869052
            ]
        },
        {
            "positions": [
                -0.024475141974989567,
                -2.100016259899295,
                -1.8946560151072471,
                -2.0562500113455227,
                -1.4395083081299964,
                -2.8621142897750986
            ]
        },
        {
            "positions": [
                -0.029566097309403308,
                -2.112973105577949,
                -1.862341520837502,
                -2.1975894431756773,
                -1.5183369360029941,
                -2.972943561681145
            ]
        },
        {
            "positions": [
                -0.03465705264381706,
                -2.125929951256602,
                -1.830027026567757,
                -2.338928875005832,
                -1.597165563875992,
                -3.083772833587192
            ]
        }
    ]
}