{
    "goal": {
        "global_pose": {
            "orientation": {
                "w": -0.4816463035849501,
                "x": 0.5182115481033762,
                "y": 0.4908360881923453,
                "z": -0.5084816262002911
            },
            "position": {
                "x": -0.8240239810943604,
                "y": 0.19912469901144506,
                "z": 0.16403168439865112
            }
        },
        "name": "move_to_storage_D"
    },
    "id": "LBKPIECE_move_to_storage_D_35",
    "joint_names": [
        "shoulder_pan_joint",
        "shoulder_lift_joint",
        "elbow_joint",
        "wrist_1_joint",
        "wrist_2_joint",
        "wrist_3_joint"
    ],
    "metrics": {
        "cart_traj_len": 0.5745076315067901,
        "distance_elbow_joint": 0.5544544817466814,
        "distance_shoulder_lift_joint": 0.15203327655347465,
        "distance_shoulder_pan_joint": 0.3250138800945781,
        "distance_wrist_1_joint": 3.920967602115471,
        "distance_wrist_2_joint": 1.7748793607379059,
        "distance_wrist_3_joint": 3.1599430596416096,
        "smoothness": 0.09735359459258668,
        "time": 0.40505433199999996,
        "traj_len": 3.1444064083527308,
        "weighted_distance": 4.680066745573861
    },
    "planner": "LBKPIECE",
    "start": {
        "state": {
            "elbow_joint": -2.384821990628643,
            "shoulder_lift_joint": -2.278805467437664,
            "shoulder_pan_joint": -0.18546946439364564,
            "wrist_1_joint": 1.4845938187801415,
            "wrist_2_joint": 0.178987772454074,
            "wrist_3_joint": 0.03710569632802521
        }
    },
    "waypoints": [
        {
            "positions": [
                -0.18546946439364564,
                -2.278805467437664,
                -2.384821990628643,
                1.4845938187801415,
                0.178987772454074,
                0.03710569632802521
            ]
        },
        {
            "positions": [
                -0.06638370780565217,
                -2.24592077731745,
                -2.3386696291024367,
                1.5090368541602408,
                0.17375873419422266,
                0.12379278650401652
            ]
        },
        {
            "positions": [
                0.052702048782341304,
                -2.213036087197236,
                -2.29251726757623,
                1.5334798895403403,
                0.1685296959343713,
                0.21047987668000784
            ]
        },
        {
            "positions": [
                0.049083616827400006,
                -2.2094417581841923,
                -2.2732610276306358,
                1.372143159067204,
                0.09501214242527951,
                0.334920246650409
            ]
        },
        {
            "positions": [
                0.04546518487245871,
                -2.2058474291711487,
                -2.2540047876850413,
                1.2108064285940676,
                0.021494588916187718,
                0.45936061662081007
            ]
        },
        {
            "positions": [
                0.04184675291751741,
                -2.202253100158105,
                -2.2347485477394464,
                1.0494696981209313,
                -0.05202296459290409,
                0.5838009865912113
            ]
        },
        {
            "positions": [
                0.03822832096257612,
                -2.1986587711450616,
                -2.215492307793852,
                0.8881329676477949,
                -0.12554051810199587,
                0.7082413565616124
            ]
        },
        {
            "positions": [
                0.034609889007634814,
                -2.195064442132018,
                -2.1962360678482575,
                0.7267962371746586,
                -0.1990580716110877,
                0.8326817265320134
            ]
        },
        {
            "positions": [
                0.030991457052693523,
                -2.1914701131189744,
                -2.176979827902663,
                0.5654595067015222,
                -0.2725756251201795,
                0.9571220965024145
            ]
        },
        {
            "positions": [
                0.027373025097752225,
                -2.1878757841059304,
                -2.1577235879570686,
                0.4041227762283859,
                -0.34609317862927136,
                1.0815624664728158
            ]
        },
        {
            "positions": [
                0.02375459314281093,
                -2.184281455092887,
                -2.138467348011474,
                0.24278604575524954,
                -0.4196107321383631,
                1.2060028364432167
            ]
        },
        {
            "positions": [
                0.020136161187869636,
                -2.1806871260798433,
                -2.1192111080658798,
                0.08144931528211319,
                -0.4931282856474549,
                1.3304432064136178
            ]
        },
        {
            "positions": [
                0.01651772923292833,
                -2.1770927970667997,
                -2.099954868120285,
                -0.07988741519102316,
                -0.5666458391565468,
                1.454883576384019
            ]
        },
        {
            "positions": [
                0.01289929727798704,
                -2.173498468053756,
                -2.0806986281746904,
                -0.2412241456641595,
                -0.6401633926656385,
                1.5793239463544202
            ]
        },
        {
            "positions": [
                0.009280865323045742,
                -2.1699041390407126,
                -2.061442388229096,
                -0.40256087613729585,
                -0.7136809461747303,
                1.7037643163248213
            ]
        },
        {
            "positions": [
                0.005662433368104451,
                -2.166309810027669,
                -2.0421861482835015,
                -0.563897606610432,
                -0.787198499683822,
                1.8282046862952224
            ]
        },
        {
            "positions": [
                0.002044001413163146,
                -2.1627154810146254,
                -2.022929908337907,
                -0.7252343370835685,
                -0.860716053192914,
                1.9526450562656237
            ]
        },
        {
            "positions": [
                -0.0015744305417781518,
                -2.159121152001582,
                -2.003673668392312,
                -0.8865710675567047,
                -0.9342336067020057,
                2.077085426236025
            ]
        },
        {
            "positions": [
                -0.005192862496719443,
                -2.1555268229885383,
                -1.984417428446718,
                -1.0479077980298412,
                -1.0077511602110973,
                2.201525796206426
            ]
        },
        {
            "positions": [
                -0.008811294451660748,
                -2.1519324939754947,
                -1.9651611885011233,
                -1.2092445285029778,
                -1.0812687137201893,
                2.325966166176827
            ]
        },
        {
            "positions": [
                -0.012429726406602032,
                -2.1483381649624507,
                -1.9459049485555289,
                -1.370581258976114,
                -1.154786267229281,
                2.450406536147228
            ]
        },
        {
            "positions": [
                -0.01604815836154333,
                -2.144743835949407,
                -1.9266487086099344,
                -1.53191798944925,
                -1.2283038207383727,
                2.5748469061176293
            ]
        },
        {
            "positions": [
                -0.01966659031648464,
                -2.1411495069363635,
                -1.9073924686643398,
                -1.6932547199223866,
                -1.3018213742474647,
                2.6992872760880307
            ]
        },
        {
            "positions": [
                -0.023285022271425926,
                -2.13755517792332,
                -1.8881362287187453,
                -1.8545914503955232,
                -1.3753389277565564,
                2.8237276460584315
            ]
        },
        {
            "positions": [
                -0.026903454226367224,
                -2.1339608489102764,
                -1.8688799887731509,
                -2.0159281808686593,
                -1.4488564812656481,
                2.948168016028833
            ]
        },
        {
            "positions": [
                -0.030521886181308522,
                -2.130366519897233,
                -1.8496237488275562,
                -2.177264911341796,
                -1.52237403477474,
                3.072608385999234
            ]
        },
        {
            "positions": [
                -0.03414031813624982,
                -2.1267721908841892,
                -1.8303675088819618,
                -2.338601641814932,
                -1.5958915882838318,
                3.197048755969635
            ]
        }
    ]
}