{
    "goal": {
        "global_pose": {
            "orientation": {
                "w": 0.5084816262002911,
                "x": -0.4908360881923452,
                "y": 0.5182115481033761,
                "z": -0.48164630358495003
            },
            "position": {
                "x": 0.5540239810943604,
                "y": -0.46912469901144505,
                "z": 0.16403168439865112
            }
        },
        "name": "move_to_storage_B"
    },
    "id": "LBKPIECE_move_to_storage_B_40",
    "joint_names": [
        "shoulder_pan_joint",
        "shoulder_lift_joint",
        "elbow_joint",
        "wrist_1_joint",
        "wrist_2_joint",
        "wrist_3_joint"
    ],
    "metrics": {
        "cart_traj_len": 0.8508098706742522,
        "distance_elbow_joint": 0.34925210931236816,
        "distance_shoulder_lift_joint": 0.45884130793267497,
        "distance_shoulder_pan_joint": 0.4674741814454797,
        "distance_wrist_1_joint": 2.9897856031864642,
        "distance_wrist_2_joint": 2.7014879322845147,
        "distance_wrist_3_joint": 3.133843854849528,
        "smoothness": 0.06235204232113,
        "time": 0.547659314,
        "traj_len": 3.1781574833558883,
        "weighted_distance": 4.696769765932865
    },
    "planner": "LBKPIECE",
    "start": {
        "state": {
            "elbow_joint": 1.6649325340416963,
            "shoulder_lift_joint": -0.6616387945129425,
            "shoulder_pan_joint": -0.9139837929255878,
            "wrist_1_joint": 2.1467571094334352,
            "wrist_2_joint": -2.234195976750228,
            "wrist_3_joint": 0.005470921511140723
        }
    },
    "waypoints": [
        {
            "positions": [
                -0.9139837929255878,
                -0.6616387945129425,
                1.6649325340416963,
                2.1467571094334352,
                -2.234195976750228,
                0.005470921511140723
            ]
        },
        {
            "positions": [
                -0.9015112236895211,
                -0.6770897416077917,
                1.6705880203969041,
                2.1485760627610913,
                -2.219107084967596,
                0.019789783323662213
            ]
        },
        {
            "positions": [
                -0.858132977617909,
                -0.753492841335815,
                1.6736814404251046,
                2.1136874638217282,
                -2.099641177801507,
                0.10456184825897574
            ]
        },
        {
            "positions": [
                -0.8147547315462969,
                -0.8298959410638381,
                1.6767748604533048,
                2.0787988648823648,
                -1.9801752706354183,
                0.18933391319428927
            ]
        },
        {
            "positions": [
                -0.7713764854746847,
                -0.9062990407918614,
                1.6798682804815053,
                2.0439102659430017,
                -1.8607093634693297,
                0.2741059781296028
            ]
        },
        {
            "positions": [
                -0.7855011321701011,
                -0.9156112608637639,
                1.6944037745194427,
                1.9185493592890575,
                -1.7594919148169985,
                0.39868027370486653
            ]
        },
        {
            "positions": [
                -0.7996257788655174,
                -0.9249234809356662,
                1.7089392685573799,
                1.7931884526351132,
                -1.6582744661646673,
                0.5232545692801303
            ]
        },
        {
            "positions": [
                -0.8137504255609338,
                -0.9342357010075687,
                1.7234747625953173,
                1.667827545981169,
                -1.5570570175123364,
                0.647828864855394
            ]
        },
        {
            "positions": [
                -0.8278750722563503,
                -0.9435479210794712,
                1.7380102566332547,
                1.5424666393272246,
                -1.455839568860005,
                0.7724031604306578
            ]
        },
        {
            "positions": [
                -0.8419997189517666,
                -0.9528601411513736,
                1.7525457506711921,
                1.4171057326732803,
                -1.354622120207674,
                0.8969774560059215
            ]
        },
        {
            "positions": [
                -0.856124365647183,
                -0.962172361223276,
                1.7670812447091293,
                1.291744826019336,
                -1.2534046715553429,
                1.0215517515811854
            ]
        },
        {
            "positions": [
                -0.8702490123425993,
                -0.9714845812951785,
                1.7816167387470667,
                1.1663839193653915,
                -1.1521872229030117,
                1.1461260471564492
            ]
        },
        {
            "positions": [
                -0.8843736590380157,
                -0.9807968013670809,
                1.7961522327850041,
                1.0410230127114475,
                -1.0509697742506805,
                1.2707003427317127
            ]
        },
        {
            "positions": [
                -0.8984983057334321,
                -0.9901090214389834,
                1.8106877268229415,
                0.915662106057503,
                -0.9497523255983493,
                1.3952746383069767
            ]
        },
        {
            "positions": [
                -0.9126229524288485,
                -0.9994212415108857,
                1.8252232208608787,
                0.7903011994035589,
                -0.8485348769460181,
                1.51984893388224
            ]
        },
        {
            "positions": [
                -0.9267475991242649,
                -1.0087334615827883,
                1.8397587148988161,
                0.6649402927496144,
                -0.747317428293687,
                1.6444232294575039
            ]
        },
        {
            "positions": [
                -0.9408722458196812,
                -1.0180456816546906,
                1.8542942089367536,
                0.5395793860956704,
                -0.646099979641356,
                1.7689975250327676
            ]
        },
        {
            "positions": [
                -0.9549968925150976,
                -1.027357901726593,
                1.8688297029746908,
                0.4142184794417261,
                -0.5448825309890248,
                1.8935718206080314
            ]
        },
        {
            "positions": [
                -0.9691215392105139,
                -1.0366701217984955,
                1.8833651970126282,
                0.28885757278778157,
                -0.44366508233669344,
                2.018146116183295
            ]
        },
        {
            "positions": [
                -0.9832461859059304,
                -1.045982341870398,
                1.8979006910505656,
                0.1634966661338373,
                -0.3424476336843625,
                2.142720411758559
            ]
        },
        {
            "positions": [
                -0.9973708326013467,
                -1.0552945619423004,
                1.912436185088503,
                0.03813575947989323,
                -0.2412301850320313,
                2.2672947073338228
            ]
        },
        {
            "positions": [
                -1.011495479296763,
                -1.064606782014203,
                1.9269716791264404,
                -0.08722514717405128,
                -0.14001273637970035,
                2.391869002909086
            ]
        },
        {
            "positions": [
                -1.0256201259921793,
                -1.0739190020861054,
                1.9415071731643776,
                -0.21258605382799578,
                -0.038795287727368954,
                2.5164432984843503
            ]
        },
        {
            "positions": [
                -1.039744772687596,
                -1.0832312221580076,
                1.956042667202315,
                -0.33794696048193984,
                0.06242216092496222,
                2.6410175940596137
            ]
        },
        {
            "positions": [
                -1.0538694193830123,
                -1.09254344222991,
                1.9705781612402524,
                -0.4633078671358839,
                0.1636396095772934,
                2.7655918896348775
            ]
        },
        {
            "positions": [
                -1.0679940660784286,
                -1.1018556623018125,
                1.9851136552781896,
                -0.5886687737898284,
                0.26485705822962435,
                2.8901661852101412
            ]
        },
        {
            "positions": [
                -1.082118712773845,
                -1.111167882373715,
                1.999649149316127,
                -0.7140296804437729,
                0.36607450688195575,
                3.014740480785405
            ]
        },
        {
            "positions": [
                -1.0962433594692613,
                -1.1204801024456175,
                2.0141846433540644,
                -0.839390587097717,
                0.4672919555342866,
                3.139314776360669
            ]
        }
    ]
}