{
    "goal": {
        "global_pose": {
            "orientation": {
                "w": -0.4816463035849501,
                "x": 0.5182115481033762,
                "y": 0.4908360881923453,
                "z": -0.5084816262002911
            },
            "position": {
                "x": -0.8240239810943604,
                "y": -0.300875300988555,
                "z": 0.16403168439865112
            }
        },
        "name": "move_to_storage_C"
    },
    "id": "LBKPIECE_move_to_storage_C_138",
    "joint_names": [
        "shoulder_pan_joint",
        "shoulder_lift_joint",
        "elbow_joint",
        "wrist_1_joint",
        "wrist_2_joint",
        "wrist_3_joint"
    ],
    "metrics": {
        "cart_traj_len": 0.577202110193357,
        "distance_elbow_joint": 0.2618659358298958,
        "distance_shoulder_lift_joint": 0.19004570458143455,
        "distance_shoulder_pan_joint": 0.495053661541061,
        "distance_wrist_1_joint": 0.08756876599359598,
        "distance_wrist_2_joint": 1.0641895164631874,
        "distance_wrist_3_joint": 0.060631764885243467,
        "smoothness": 2.5376526478085547e-16,
        "time": 0.5490692079999999,
        "traj_len": 1.469474514680135,
        "weighted_distance": 1.8526675798754855
    },
    "planner": "LBKPIECE",
    "start": {
        "state": {
            "elbow_joint": 2.0108683149792914,
            "shoulder_lift_joint": -1.1634956873317392,
            "shoulder_pan_joint": -2.4736205022346,
            "wrist_1_joint": -0.8367026793690192,
            "wrist_2_joint": 0.6746043897045053,
            "wrist_3_joint": 3.133522094754363
        }
    },
    "waypoints": [
        {
            "positions": [
                -2.4736205022346,
                -1.1634956873317392,
                2.0108683149792914,
                -0.8367026793690192,
                0.6746043897045053,
                3.133522094754363
            ]
        },
        {
            "positions": [
                -2.556129445824777,
                -1.1318214032348335,
                1.9672239923409753,
                -0.8221078850367532,
                0.8519693091150365,
                3.143627388901904
            ]
        },
        {
            "positions": [
                -2.638638389414954,
                -1.1001471191379277,
                1.9235796697026595,
                -0.8075130907044872,
                1.0293342285255678,
                3.1537326830494443
            ]
        },
        {
            "positions": [
                -2.7211473330051303,
                -1.068472835041022,
                1.8799353470643436,
                -0.7929182963722212,
                1.206699147936099,
                3.1638379771969847
            ]
        },
        {
            "positions": [
                -2.8036562765953073,
                -1.0367985509441162,
                1.8362910244260275,
                -0.7783235020399553,
                1.3840640673466302,
                3.1739432713445255
            ]
        },
        {
            "positions": [
                -2.886165220185484,
                -1.0051242668472105,
                1.7926467017877115,
                -0.7637287077076892,
                1.5614289867571616,
                3.1840485654920663
            ]
        },
        {
            "positions": [
                -2.968674163775661,
                -0.9734499827503047,
                1.7490023791493956,
                -0.7491339133754232,
                1.7387939061676927,
                3.1941538596396066
            ]
        }
    ]
}