{
    "goal": {
        "global_pose": {
            "orientation": {
                "w": 0.005598929693374612,
                "x": 0.007748599140229565,
                "y": 0.7110244013736278,
                "z": -0.7031023480610252
            },
            "position": {
                "x": 0.1141497679147869,
                "y": -0.7141253447532654,
                "z": 0.3711530566215515
            }
        },
        "name": "move_to_auspresseinheit_B"
    },
    "id": "LBKPIECE_move_to_auspresseinheit_B_31",
    "joint_names": [
        "shoulder_pan_joint",
        "shoulder_lift_joint",
        "elbow_joint",
        "wrist_1_joint",
        "wrist_2_joint",
        "wrist_3_joint"
    ],
    "metrics": {
        "cart_traj_len": 0.5641738760255811,
        "distance_elbow_joint": 0.06391735532247589,
        "distance_shoulder_lift_joint": 0.2937700756016479,
        "distance_shoulder_pan_joint": 0.5773194774274681,
        "distance_wrist_1_joint": 0.3346028174545137,
        "distance_wrist_2_joint": 0.9912304669358509,
        "distance_wrist_3_joint": 0.00011464576654640624,
        "smoothness": 0.0,
        "time": 0.30532017,
        "traj_len": 1.5036471788649433,
        "weighted_distance": 1.8939422943775135
    },
    "planner": "LBKPIECE",
    "start": {
        "state": {
            "elbow_joint": 2.0193061681459312,
            "shoulder_lift_joint": -1.1220205130644991,
            "shoulder_pan_joint": -1.0952072088045026,
            "wrist_1_joint": -0.8559671810662515,
            "wrist_2_joint": 0.4759638712940361,
            "wrist_3_joint": 3.159081874192446
        }
    },
    "waypoints": [
        {
            "positions": [
                -1.0952072088045026,
                -1.1220205130644991,
                2.0193061681459312,
                -0.8559671810662515,
                0.4759638712940361,
                3.159081874192446
            ]
        },
        {
            "positions": [
                -1.1914271217090806,
                -1.1709821923314405,
                2.0086532755921853,
                -0.8002000448238326,
                0.6411689491166779,
                3.159100981820204
            ]
        },
        {
            "positions": [
                -1.2876470346136586,
                -1.2199438715983817,
                1.9980003830384392,
                -0.7444329085814135,
                0.8063740269393198,
                3.1591200894479616
            ]
        },
        {
            "positions": [
                -1.3838669475182366,
                -1.268905550865323,
                1.9873474904846933,
                -0.6886657723389946,
                0.9715791047619615,
                3.159139197075719
            ]
        },
        {
            "positions": [
                -1.4800868604228148,
                -1.3178672301322645,
                1.9766945979309474,
                -0.6328986360965757,
                1.1367841825846035,
                3.159158304703477
            ]
        },
        {
            "positions": [
                -1.5763067733273928,
                -1.3668289093992056,
                1.9660417053772012,
                -0.5771314998541567,
                1.3019892604072452,
                3.1591774123312346
            ]
        },
        {
            "positions": [
                -1.6725266862319708,
                -1.415790588666147,
                1.9553888128234553,
                -0.5213643636117378,
                1.467194338229887,
                3.1591965199589924
            ]
        }
    ]
}