{
    "goal": {
        "global_pose": {
            "orientation": {
                "w": -0.4816463035849501,
                "x": 0.5182115481033762,
                "y": 0.4908360881923453,
                "z": -0.5084816262002911
            },
            "position": {
                "x": -0.8240239810943604,
                "y": 0.19912469901144506,
                "z": 0.16403168439865112
            }
        },
        "name": "move_to_storage_D"
    },
    "id": "LBKPIECE_move_to_storage_D_66",
    "joint_names": [
        "shoulder_pan_joint",
        "shoulder_lift_joint",
        "elbow_joint",
        "wrist_1_joint",
        "wrist_2_joint",
        "wrist_3_joint"
    ],
    "metrics": {
        "cart_traj_len": 3.26181678557533,
        "distance_elbow_joint": 4.284852026065533,
        "distance_shoulder_lift_joint": 1.3951083275072171,
        "distance_shoulder_pan_joint": 2.914193013344527,
        "distance_wrist_1_joint": 4.113832656978989,
        "distance_wrist_2_joint": 5.025534772827532,
        "distance_wrist_3_joint": 8.23193138455678,
        "smoothness": 0.6219821471295583,
        "time": 1.036477483,
        "traj_len": 5.095630695142708,
        "weighted_distance": 7.181133780970845
    },
    "planner": "LBKPIECE",
    "start": {
        "state": {
            "elbow_joint": -2.384821990628643,
            "shoulder_lift_joint": -2.278805467437664,
            "shoulder_pan_joint": -0.18546946439364564,
            "wrist_1_joint": 1.4845938187801415,
            "wrist_2_joint": 0.178987772454074,
            "wrist_3_joint": 0.03710569632802521
        }
    },
    "waypoints": [
        {
            "positions": [
                -0.18546946439364564,
                -2.278805467437664,
                -2.384821990628643,
                1.4845938187801415,
                0.178987772454074,
                0.03710569632802521
            ]
        },
        {
            "positions": [
                -0.23650839249280617,
                -2.278675609025921,
                -2.4200997505567763,
                1.3991857056209627,
                0.03051250334538888,
                0.04823937689021637
            ]
        },
        {
            "positions": [
                -0.15682233130137224,
                -2.2202144652769773,
                -2.3292141012162744,
                1.3420559452576648,
                0.06452580901975966,
                -0.02035463140182428
            ]
        },
        {
            "positions": [
                -0.07713627010993829,
                -2.1617533215280336,
                -2.2383284518757725,
                1.2849261848943667,
                0.09853911469413042,
                -0.08894863969386493
            ]
        },
        {
            "positions": [
                0.0025497910814956115,
                -2.10329217777909,
                -2.147442802535271,
                1.2277964245310689,
                0.13255242036850118,
                -0.1575426479859056
            ]
        },
        {
            "positions": [
                0.0822358522729296,
                -2.044831034030146,
                -2.056557153194769,
                1.1706666641677708,
                0.16656572604287195,
                -0.22613665627794624
            ]
        },
        {
            "positions": [
                0.16192191346436352,
                -1.9863698902812024,
                -1.9656715038542671,
                1.113536903804473,
                0.20057903171724273,
                -0.29473066456998687
            ]
        },
        {
            "positions": [
                0.2206656780967839,
                -1.9887166158932892,
                -1.830204069495336,
                1.146572874353922,
                0.1316456003989667,
                -0.20419074973583165
            ]
        },
        {
            "positions": [
                0.27940944272920426,
                -1.9910633415053762,
                -1.694736635136405,
                1.179608844903371,
                0.06271216908069066,
                -0.11365083490167643
            ]
        },
        {
            "positions": [
                0.3381532073616247,
                -1.993410067117463,
                -1.559269200777474,
                1.2126448154528202,
                -0.006221262237585373,
                -0.02311092006752119
            ]
        },
        {
            "positions": [
                0.39689697199404506,
                -1.9957567927295499,
                -1.423801766418543,
                1.2456807860022692,
                -0.07515469355586141,
                0.067428994766634
            ]
        },
        {
            "positions": [
                0.4556407366264654,
                -1.998103518341637,
                -1.288334332059612,
                1.2787167565517183,
                -0.14408812487413747,
                0.1579689096007893
            ]
        },
        {
            "positions": [
                0.5143845012588858,
                -2.0004502439537237,
                -1.1528668977006808,
                1.3117527271011675,
                -0.21302155619241347,
                0.2485088244349445
            ]
        },
        {
            "positions": [
                0.5731282658913062,
                -2.0027969695658108,
                -1.0173994633417498,
                1.3447886976506167,
                -0.28195498751068954,
                0.33904873926909973
            ]
        },
        {
            "positions": [
                0.6318720305237265,
                -2.0051436951778974,
                -0.8819320289828187,
                1.3778246682000657,
                -0.35088841882896554,
                0.42958865410325486
            ]
        },
        {
            "positions": [
                0.6906157951561469,
                -2.0074904207899844,
                -0.7464645946238877,
                1.4108606387495148,
                -0.41982185014724166,
                0.5201285689374102
            ]
        },
        {
            "positions": [
                0.7493595597885674,
                -2.0098371464020715,
                -0.6109971602649567,
                1.4438966092989638,
                -0.48875528146551767,
                0.6106684837715655
            ]
        },
        {
            "positions": [
                0.8081033244209876,
                -2.012183872014158,
                -0.4755297259060256,
                1.476932579848413,
                -0.5576887127837937,
                0.7012083986057206
            ]
        },
        {
            "positions": [
                0.8668470890534081,
                -2.014530597626245,
                -0.34006229154709455,
                1.5099685503978622,
                -0.6266221441020696,
                0.7917483134398758
            ]
        },
        {
            "positions": [
                0.9255908536858284,
                -2.016877323238332,
                -0.2045948571881635,
                1.5430045209473113,
                -0.6955555754203457,
                0.8822882282740311
            ]
        },
        {
            "positions": [
                0.9843346183182489,
                -2.019224048850419,
                -0.06912742282923245,
                1.5760404914967603,
                -0.7644890067386219,
                0.9728281431081863
            ]
        },
        {
            "positions": [
                1.0430783829506691,
                -2.0215707744625058,
                0.06634001152969837,
                1.6090764620462092,
                -0.833422438056898,
                1.0633680579423417
            ]
        },
        {
            "positions": [
                1.1018221475830896,
                -2.023917500074593,
                0.20180744588862964,
                1.6421124325956584,
                -0.9023558693751739,
                1.1539079727764965
            ]
        },
        {
            "positions": [
                1.1605659122155099,
                -2.02626422568668,
                0.33727488024756047,
                1.6751484031451076,
                -0.97128930069345,
                1.2444478876106517
            ]
        },
        {
            "positions": [
                1.2193096768479303,
                -2.0286109512987665,
                0.47274231460649174,
                1.7081843736945568,
                -1.040222732011726,
                1.3349878024448074
            ]
        },
        {
            "positions": [
                1.2780534414803506,
                -2.0309576769108535,
                0.608209748965423,
                1.741220344244006,
                -1.109156163330002,
                1.4255277172789627
            ]
        },
        {
            "positions": [
                1.336797206112771,
                -2.0333044025229405,
                0.7436771833243538,
                1.774256314793455,
                -1.1780895946482781,
                1.516067632113118
            ]
        },
        {
            "positions": [
                1.3955409707451913,
                -2.035651128135027,
                0.8791446176832851,
                1.8072922853429039,
                -1.247023025966554,
                1.6066075469472727
            ]
        },
        {
            "positions": [
                1.4542847353776118,
                -2.037997853747114,
                1.014612052042216,
                1.840328255892353,
                -1.3159564572848301,
                1.697147461781428
            ]
        },
        {
            "positions": [
                1.513028500010032,
                -2.040344579359201,
                1.1500794864011468,
                1.8733642264418022,
                -1.3848898886031062,
                1.7876873766155832
            ]
        },
        {
            "positions": [
                1.5717722646424526,
                -2.042691304971288,
                1.285546920760078,
                1.9064001969912512,
                -1.4538233199213821,
                1.8782272914497384
            ]
        },
        {
            "positions": [
                1.630516029274873,
                -2.045038030583375,
                1.4210143551190093,
                1.9394361675407006,
                -1.5227567512396583,
                1.9687672062838937
            ]
        },
        {
            "positions": [
                1.6892597939072933,
                -2.047384756195462,
                1.5564817894779401,
                1.9724721380901495,
                -1.5916901825579344,
                2.059307121118049
            ]
        },
        {
            "positions": [
                1.7480035585397138,
                -2.0497314818075485,
                1.6919492238368714,
                2.0055081086395985,
                -1.6606236138762103,
                2.149847035952204
            ]
        },
        {
            "positions": [
                1.806747323172134,
                -2.0520782074196355,
                1.8274166581958022,
                2.0385440791890477,
                -1.7295570451944864,
                2.2403869507863594
            ]
        },
        {
            "positions": [
                1.8315927283109348,
                -2.0206550427768377,
                1.827354298881111,
                1.9531571529278735,
                -1.6454098664540238,
                2.078486646326419
            ]
        },
        {
            "positions": [
                1.8564381334497355,
                -1.9892318781340403,
                1.8272919395664193,
                1.8677702266666996,
                -1.5612626877135614,
                1.9165863418664784
            ]
        },
        {
            "positions": [
                1.8812835385885365,
                -1.9578087134912425,
                1.827229580251728,
                1.7823833004055254,
                -1.4771155089730987,
                1.7546860374065378
            ]
        },
        {
            "positions": [
                1.9061289437273372,
                -1.926385548848445,
                1.8271672209370367,
                1.6969963741443514,
                -1.392968330232636,
                1.5927857329465973
            ]
        },
        {
            "positions": [
                1.930974348866138,
                -1.8949623842056473,
                1.827104861622345,
                1.6116094478831773,
                -1.3088211514921735,
                1.430885428486657
            ]
        },
        {
            "positions": [
                1.955819754004939,
                -1.8635392195628495,
                1.8270425023076537,
                1.5262225216220031,
                -1.224673972751711,
                1.2689851240267165
            ]
        },
        {
            "positions": [
                1.9806651591437396,
                -1.832116054920052,
                1.8269801429929624,
                1.4408355953608292,
                -1.1405267940112485,
                1.107084819566776
            ]
        },
        {
            "positions": [
                2.0055105642825404,
                -1.8006928902772543,
                1.8269177836782708,
                1.3554486690996552,
                -1.056379615270786,
                0.9451845151068354
            ]
        },
        {
            "positions": [
                2.030355969421341,
                -1.7692697256344567,
                1.8268554243635795,
                1.270061742838481,
                -0.9722324365303234,
                0.7832842106468951
            ]
        },
        {
            "positions": [
                2.055201374560142,
                -1.7378465609916591,
                1.8267930650488882,
                1.1846748165773069,
                -0.8880852577898608,
                0.6213839061869546
            ]
        },
        {
            "positions": [
                2.0800467796989426,
                -1.7064233963488613,
                1.8267307057341966,
                1.099287890316133,
                -0.8039380790493983,
                0.4594836017270141
            ]
        },
        {
            "positions": [
                2.1048921848377438,
                -1.6750002317060637,
                1.8266683464195053,
                1.0139009640549588,
                -0.7197909003089358,
                0.29758329726707355
            ]
        },
        {
            "positions": [
                2.1297375899765445,
                -1.6435770670632661,
                1.826605987104814,
                0.9285140377937848,
                -0.6356437215684732,
                0.13568299280713303
            ]
        },
        {
            "positions": [
                2.1545829951153452,
                -1.6121539024204683,
                1.8265436277901224,
                0.8431271115326107,
                -0.5514965428280105,
                -0.026217311652807496
            ]
        },
        {
            "positions": [
                2.179428400254146,
                -1.580730737777671,
                1.826481268475431,
                0.7577401852714367,
                -0.4673493640875481,
                -0.18811761611274758
            ]
        },
        {
            "positions": [
                2.2042738053929467,
                -1.549307573134873,
                1.8264189091607397,
                0.6723532590102625,
                -0.3832021853470855,
                -0.35001792057268855
            ]
        },
        {
            "positions": [
                2.2291192105317474,
                -1.5178844084920755,
                1.8263565498460481,
                0.5869663327490884,
                -0.2990550066066229,
                -0.5119182250326286
            ]
        },
        {
            "positions": [
                2.253964615670548,
                -1.486461243849278,
                1.8262941905313568,
                0.5015794064879144,
                -0.21490782786616047,
                -0.6738185294925692
            ]
        },
        {
            "positions": [
                2.278810020809349,
                -1.45503807920648,
                1.8262318312166654,
                0.41619248022674027,
                -0.13076064912569763,
                -0.8357188339525101
            ]
        },
        {
            "positions": [
                2.3036554259481496,
                -1.4236149145636825,
                1.8261694719019739,
                0.3308055539655661,
                -0.04661347038523522,
                -0.9976191384124502
            ]
        },
        {
            "positions": [
                2.3285008310869504,
                -1.392191749920885,
                1.8261071125872825,
                0.24541862770439216,
                0.0375337083552274,
                -1.1595194428723907
            ]
        },
        {
            "positions": [
                2.353346236225751,
                -1.3607685852780873,
                1.8260447532725912,
                0.1600317014432182,
                0.1216808870956898,
                -1.3214197473323313
            ]
        },
        {
            "positions": [
                2.3781916413645523,
                -1.3293454206352895,
                1.8259823939578996,
                0.07464477518204382,
                0.20582806583615265,
                -1.4833200517922718
            ]
        },
        {
            "positions": [
                2.403037046503353,
                -1.297922255992492,
                1.8259200346432083,
                -0.010742151079130124,
                0.28997524457661483,
                -1.6452203562522123
            ]
        },
        {
            "positions": [
                2.4278824516421538,
                -1.2664990913496943,
                1.825857675328517,
                -0.09612907734030429,
                0.37412242331707746,
                -1.8071206607121524
            ]
        },
        {
            "positions": [
                2.4527278567809545,
                -1.2350759267068967,
                1.8257953160138254,
                -0.18151600360147802,
                0.4582696020575401,
                -1.9690209651720934
            ]
        },
        {
            "positions": [
                2.4775732619197552,
                -1.2036527620640989,
                1.825732956699134,
                -0.2669029298626526,
                0.5424167807980027,
                -2.1309212696320343
            ]
        },
        {
            "positions": [
                2.5024186670585564,
                -1.1722295974213013,
                1.8256705973844427,
                -0.35228985612382635,
                0.6265639595384653,
                -2.2928215740919744
            ]
        },
        {
            "positions": [
                2.527264072197357,
                -1.1408064327785037,
                1.8256082380697511,
                -0.4376767823850005,
                0.710711138278928,
                -2.4547218785519145
            ]
        },
        {
            "positions": [
                2.552109477336158,
                -1.109383268135706,
                1.8255458787550598,
                -0.5230637086461742,
                0.7948583170193901,
                -2.6166221830118546
            ]
        },
        {
            "positions": [
                2.5769548824749586,
                -1.0779601034929083,
                1.8254835194403685,
                -0.6084506349073489,
                0.8790054957598532,
                -2.7785224874717955
            ]
        },
        {
            "positions": [
                2.6018002876137594,
                -1.0465369388501107,
                1.825421160125677,
                -0.6938375611685226,
                0.9631526745003154,
                -2.9404227919317365
            ]
        },
        {
            "positions": [
                2.62664569275256,
                -1.015113774207313,
                1.8253588008109856,
                -0.7792244874296967,
                1.047299853240778,
                -3.1023230963916766
            ]
        }
    ]
}