{
    "goal": {
        "global_pose": {
            "orientation": {
                "w": 0.7047431493862688,
                "x": -0.7094548369677653,
                "y": 0.0024358444001904,
                "z": -0.0022348060817251984
            },
            "position": {
                "x": -0.39052492380142206,
                "y": 0.3671506643295288,
                "z": 0.19426114857196808
            }
        },
        "name": "move_to_magneteinheit_D"
    },
    "id": "LBKPIECE_move_to_magneteinheit_D_25",
    "joint_names": [
        "shoulder_pan_joint",
        "shoulder_lift_joint",
        "elbow_joint",
        "wrist_1_joint",
        "wrist_2_joint",
        "wrist_3_joint"
    ],
    "metrics": {
        "cart_traj_len": 4.6265520002776945,
        "distance_elbow_joint": 5.4450577404950025,
        "distance_shoulder_lift_joint": 1.438673782074145,
        "distance_shoulder_pan_joint": 3.094268417843846,
        "distance_wrist_1_joint": 2.191012130153279,
        "distance_wrist_2_joint": 0.7261459506066427,
        "distance_wrist_3_joint": 6.200049722896493,
        "smoothness": 0.0956793999356626,
        "time": 0.25286527200000003,
        "traj_len": 4.369806373750375,
        "weighted_distance": 5.866213878697425
    },
    "planner": "LBKPIECE",
    "start": {
        "state": {
            "elbow_joint": 0.7495348899011911,
            "shoulder_lift_joint": -0.6476975780737668,
            "shoulder_pan_joint": -2.711696901376276,
            "wrist_1_joint": -0.0750647808097303,
            "wrist_2_joint": 0.43296659715458535,
            "wrist_3_joint": 3.1361499051832418
        }
    },
    "waypoints": [
        {
            "positions": [
                -2.711696901376276,
                -0.6476975780737668,
                0.7495348899011911,
                -0.0750647808097303,
                0.43296659715458535,
                3.1361499051832418
            ]
        },
        {
            "positions": [
                -2.7009203147499243,
                -0.6812910422714077,
                0.8367724785628121,
                -0.08184296391109337,
                0.43480910655197347,
                2.9083919693688123
            ]
        },
        {
            "positions": [
                -2.690143728123573,
                -0.7148845064690484,
                0.9240100672244331,
                -0.08862114701245646,
                0.4366516159493616,
                2.680634033554383
            ]
        },
        {
            "positions": [
                -2.679367141497221,
                -0.7484779706666893,
                1.0112476558860541,
                -0.09539933011381954,
                0.4384941253467497,
                2.4528760977399537
            ]
        },
        {
            "positions": [
                -2.6685905548708693,
                -0.7820714348643301,
                1.0984852445476752,
                -0.10217751321518263,
                0.4403366347441378,
                2.2251181619255243
            ]
        },
        {
            "positions": [
                -2.657813968244518,
                -0.8156648990619709,
                1.1857228332092962,
                -0.10895569631654571,
                0.4421791441415259,
                1.997360226111095
            ]
        },
        {
            "positions": [
                -2.647037381618166,
                -0.8492583632596118,
                1.2729604218709172,
                -0.1157338794179088,
                0.44402165353891404,
                1.7696022902966655
            ]
        },
        {
            "positions": [
                -2.636260794991814,
                -0.8828518274572525,
                1.360198010532538,
                -0.12251206251927188,
                0.44586416293630216,
                1.5418443544822364
            ]
        },
        {
            "positions": [
                -2.6254842083654624,
                -0.9164452916548934,
                1.4474355991941592,
                -0.12929024562063496,
                0.44770667233369027,
                1.3140864186678067
            ]
        },
        {
            "positions": [
                -2.614707621739111,
                -0.9500387558525343,
                1.53467318785578,
                -0.13606842872199804,
                0.4495491817310784,
                1.0863284828533777
            ]
        },
        {
            "positions": [
                -2.603931035112759,
                -0.983632220050175,
                1.6219107765174012,
                -0.1428466118233611,
                0.4513916911284665,
                0.8585705470389482
            ]
        },
        {
            "positions": [
                -2.5931544484864073,
                -1.0172256842478158,
                1.709148365179022,
                -0.1496247949247242,
                0.4532342005258546,
                0.6308126112245187
            ]
        },
        {
            "positions": [
                -2.582377861860056,
                -1.0508191484454568,
                1.796385953840643,
                -0.1564029780260873,
                0.45507670992324273,
                0.4030546754100892
            ]
        },
        {
            "positions": [
                -2.571601275233704,
                -1.0844126126430975,
                1.883623542502264,
                -0.16318116112745037,
                0.45691921932063084,
                0.17529673959566017
            ]
        },
        {
            "positions": [
                -2.545105840341341,
                -1.2157687986996675,
                1.8919584900962227,
                -0.17790711234563988,
                0.3642880942838444,
                0.11003174015372764
            ]
        },
        {
            "positions": [
                -2.5186104054489777,
                -1.3471249847562377,
                1.9002934376901817,
                -0.19263306356382942,
                0.27165696924705796,
                0.04476674071179512
            ]
        },
        {
            "positions": [
                -2.492114970556615,
                -1.4784811708128076,
                1.9086283852841404,
                -0.2073590147820189,
                0.1790258442102715,
                -0.020498258730137414
            ]
        },
        {
            "positions": [
                -2.465619535664252,
                -1.6098373568693778,
                1.9169633328780993,
                -0.22208496600020844,
                0.08639471917348507,
                -0.08576325817206992
            ]
        },
        {
            "positions": [
                -2.4391241007718887,
                -1.7411935429259477,
                1.925298280472058,
                -0.23681091721839795,
                -0.006236405863301361,
                -0.15102825761400246
            ]
        },
        {
            "positions": [
                -2.3484883053183907,
                -1.7352956440155696,
                1.7785157144750197,
                -0.29647834294835407,
                -0.00500448723327238,
                -0.23407187098525378
            ]
        },
        {
            "positions": [
                -2.2578525098648927,
                -1.7293977451051914,
                1.6317331484779813,
                -0.35614576867831016,
                -0.003772568603243399,
                -0.31711548435650516
            ]
        },
        {
            "positions": [
                -2.1672167144113947,
                -1.7234998461948132,
                1.484950582480943,
                -0.4158131944082663,
                -0.0025406499732144173,
                -0.4001590977277565
            ]
        },
        {
            "positions": [
                -2.0765809189578963,
                -1.7176019472844353,
                1.3381680164839047,
                -0.47548062013822245,
                -0.0013087313431854363,
                -0.4832027110990078
            ]
        },
        {
            "positions": [
                -1.9859451235043983,
                -1.711704048374057,
                1.1913854504868664,
                -0.5351480458681785,
                -7.681271315645478e-05,
                -0.5662463244702591
            ]
        },
        {
            "positions": [
                -1.8953093280509004,
                -1.705806149463679,
                1.044602884489828,
                -0.5948154715981346,
                0.0011551059168725267,
                -0.6492899378415105
            ]
        },
        {
            "positions": [
                -1.8046735325974024,
                -1.6999082505533007,
                0.8978203184927898,
                -0.6544828973280908,
                0.002387024546901508,
                -0.7323335512127618
            ]
        },
        {
            "positions": [
                -1.7140377371439044,
                -1.6940103516429226,
                0.7510377524957514,
                -0.7141503230580469,
                0.003618943176930489,
                -0.8153771645840131
            ]
        },
        {
            "positions": [
                -1.6234019416904062,
                -1.6881124527325444,
                0.6042551864987131,
                -0.7738177487880031,
                0.004850861806959471,
                -0.8984207779552646
            ]
        },
        {
            "positions": [
                -1.5327661462369082,
                -1.6822145538221662,
                0.4574726205016748,
                -0.8334851745179592,
                0.006082780436988452,
                -0.981464391326516
            ]
        },
        {
            "positions": [
                -1.4421303507834102,
                -1.6763166549117883,
                0.3106900545046365,
                -0.8931526002479153,
                0.007314699067017434,
                -1.064508004697767
            ]
        },
        {
            "positions": [
                -1.3514945553299123,
                -1.67041875600141,
                0.16390748850759818,
                -0.9528200259778714,
                0.008546617697046415,
                -1.1475516180690184
            ]
        },
        {
            "positions": [
                -1.260858759876414,
                -1.664520857091032,
                0.01712492251055986,
                -1.0124874517078275,
                0.009778536327075395,
                -1.23059523144027
            ]
        },
        {
            "positions": [
                -1.170222964422916,
                -1.6586229581806538,
                -0.12965764348647846,
                -1.0721548774377836,
                0.011010454957104378,
                -1.3136388448115213
            ]
        },
        {
            "positions": [
                -1.079587168969418,
                -1.6527250592702756,
                -0.27644020948351655,
                -1.1318223031677397,
                0.01224237358713336,
                -1.3966824581827726
            ]
        },
        {
            "positions": [
                -0.9889513735159201,
                -1.6468271603598974,
                -0.4232227754805551,
                -1.1914897288976958,
                0.013474292217162339,
                -1.479726071554024
            ]
        },
        {
            "positions": [
                -0.8983155780624221,
                -1.6409292614495192,
                -0.5700053414775932,
                -1.2511571546276519,
                0.014706210847191321,
                -1.5627696849252752
            ]
        },
        {
            "positions": [
                -0.8076797826089237,
                -1.6350313625391413,
                -0.7167879074746317,
                -1.3108245803576082,
                0.015938129477220304,
                -1.6458132982965268
            ]
        },
        {
            "positions": [
                -0.7170439871554257,
                -1.629133463628763,
                -0.8635704734716703,
                -1.3704920060875643,
                0.017170048107249286,
                -1.728856911667778
            ]
        },
        {
            "positions": [
                -0.6264081917019277,
                -1.623235564718385,
                -1.0103530394687084,
                -1.4301594318175204,
                0.018401966737278265,
                -1.8119005250390294
            ]
        },
        {
            "positions": [
                -0.5357723962484298,
                -1.6173376658080068,
                -1.157135605465747,
                -1.4898268575474765,
                0.019633885367307247,
                -1.8949441384102805
            ]
        },
        {
            "positions": [
                -0.4451366007949318,
                -1.6114397668976286,
                -1.303918171462785,
                -1.5494942832774325,
                0.02086580399733623,
                -1.9779877517815319
            ]
        },
        {
            "positions": [
                -0.3545008053414338,
                -1.6055418679872504,
                -1.450700737459823,
                -1.6091617090073886,
                0.02209772262736521,
                -2.061031365152783
            ]
        },
        {
            "positions": [
                -0.2638650098879358,
                -1.5996439690768725,
                -1.5974833034568616,
                -1.6688291347373447,
                0.02332964125739419,
                -2.1440749785240345
            ]
        },
        {
            "positions": [
                -0.1732292144344374,
                -1.5937460701664943,
                -1.7442658694539002,
                -1.728496560467301,
                0.024561559887423173,
                -2.227118591895286
            ]
        },
        {
            "positions": [
                -0.08259341898093941,
                -1.587848171256116,
                -1.8910484354509383,
                -1.7881639861972571,
                0.025793478517452152,
                -2.310162205266537
            ]
        },
        {
            "positions": [
                0.008042376472558566,
                -1.581950272345738,
                -2.0378310014479766,
                -1.8478314119272132,
                0.027025397147481138,
                -2.3932058186377887
            ]
        },
        {
            "positions": [
                0.09867817192605662,
                -1.5760523734353598,
                -2.184613567445015,
                -1.9074988376571693,
                0.028257315777510117,
                -2.47624943200904
            ]
        },
        {
            "positions": [
                0.060007906800276845,
                -1.5770662817494427,
                -2.226481274872527,
                -2.009585967659288,
                -0.005958227035822036,
                -2.6486527756317417
            ]
        },
        {
            "positions": [
                0.021337641674497074,
                -1.5780801900635255,
                -2.268348982300039,
                -2.111673097661407,
                -0.04017376984915419,
                -2.821056119254443
            ]
        },
        {
            "positions": [
                -0.0173326234512827,
                -1.5790940983776085,
                -2.310216689727551,
                -2.213760227663526,
                -0.07438931266248634,
                -2.993459462877145
            ]
        },
        {
            "positions": [
                -0.1012738980333699,
                -1.6675915597721722,
                -2.3271063795898135,
                -2.239918569313268,
                -0.12533798925041442,
                -3.0286796402951963
            ]
        },
        {
            "positions": [
                -0.1852151726154571,
                -1.756089021166736,
                -2.3439960694520754,
                -2.2660769109630094,
                -0.17628666583834252,
                -3.0638998177132475
            ]
        }
    ]
}