{
    "goal": {
        "global_pose": {
            "orientation": {
                "w": 0.7031023480610252,
                "x": -0.7110244013736278,
                "y": 0.0077485991402295624,
                "z": 0.005598929693374583
            },
            "position": {
                "x": -0.8841497679147869,
                "y": 0.44412534475326537,
                "z": 0.3711530566215515
            }
        },
        "name": "move_to_auspresseinheit_D"
    },
    "id": "LBKPIECE_move_to_auspresseinheit_D_98",
    "joint_names": [
        "shoulder_pan_joint",
        "shoulder_lift_joint",
        "elbow_joint",
        "wrist_1_joint",
        "wrist_2_joint",
        "wrist_3_joint"
    ],
    "metrics": {
        "cart_traj_len": 0.3426512534075912,
        "distance_elbow_joint": 0.6395877123342715,
        "distance_shoulder_lift_joint": 0.12193966451489091,
        "distance_shoulder_pan_joint": 0.1333674969362043,
        "distance_wrist_1_joint": 0.5424921483870437,
        "distance_wrist_2_joint": 1.4307283925950458,
        "distance_wrist_3_joint": 0.0037949147653320026,
        "smoothness": 7.894919348737726e-16,
        "time": 0.300685512,
        "traj_len": 1.6946711567536603,
        "weighted_distance": 2.202889171076371
    },
    "planner": "LBKPIECE",
    "start": {
        "state": {
            "elbow_joint": -1.8275484843655228,
            "shoulder_lift_joint": -2.1267897864000416,
            "shoulder_pan_joint": -0.035127520176001514,
            "wrist_1_joint": -2.3477863256791385,
            "wrist_2_joint": -1.605890476484521,
            "wrist_3_joint": -3.0880375317375353
        }
    },
    "waypoints": [
        {
            "positions": [
                -0.035127520176001514,
                -2.1267897864000416,
                -1.8275484843655228,
                -2.3477863256791385,
                -1.605890476484521,
                -3.0880375317375353
            ]
        },
        {
            "positions": [
                -0.05179845729302705,
                -2.142032244464403,
                -1.7476000203237387,
                -2.415597844227519,
                -1.4270494274101402,
                -3.0875631673918686
            ]
        },
        {
            "positions": [
                -0.06846939441005259,
                -2.157274702528764,
                -1.667651556281955,
                -2.4834093627758995,
                -1.2482083783357596,
                -3.0870888030462025
            ]
        },
        {
            "positions": [
                -0.08514033152707813,
                -2.1725171605931255,
                -1.587703092240171,
                -2.55122088132428,
                -1.0693673292613788,
                -3.086614438700536
            ]
        },
        {
            "positions": [
                -0.10181126864410367,
                -2.187759618657487,
                -1.507754628198387,
                -2.61903239987266,
                -0.8905262801869981,
                -3.0861400743548693
            ]
        },
        {
            "positions": [
                -0.11848220576112921,
                -2.2030020767218486,
                -1.427806164156603,
                -2.6868439184210406,
                -0.7116852311126174,
                -3.0856657100092026
            ]
        },
        {
            "positions": [
                -0.13515314287815475,
                -2.21824453478621,
                -1.347857700114819,
                -2.754655436969421,
                -0.5328441820382366,
                -3.085191345663536
            ]
        },
        {
            "positions": [
                -0.15182407999518027,
                -2.233486992850571,
                -1.2679092360730353,
                -2.8224669555178017,
                -0.354003132963856,
                -3.08471698131787
            ]
        },
        {
            "positions": [
                -0.16849501711220582,
                -2.2487294509149325,
                -1.1879607720312513,
                -2.890278474066182,
                -0.1751620838894751,
                -3.0842426169722033
            ]
        }
    ]
}