{
    "goal": {
        "global_pose": {
            "orientation": {
                "w": 0.005598929693374612,
                "x": 0.007748599140229565,
                "y": 0.7110244013736278,
                "z": -0.7031023480610252
            },
            "position": {
                "x": -0.8858502320852131,
                "y": -0.7141253447532654,
                "z": 0.3711530566215515
            }
        },
        "name": "move_to_auspresseinheit_C"
    },
    "id": "LBKPIECE_move_to_auspresseinheit_C_138",
    "joint_names": [
        "shoulder_pan_joint",
        "shoulder_lift_joint",
        "elbow_joint",
        "wrist_1_joint",
        "wrist_2_joint",
        "wrist_3_joint"
    ],
    "metrics": {
        "cart_traj_len": 0.49385243794332523,
        "distance_elbow_joint": 1.0137972936611512,
        "distance_shoulder_lift_joint": 0.33089705351372456,
        "distance_shoulder_pan_joint": 0.25619397193649673,
        "distance_wrist_1_joint": 0.710368066608645,
        "distance_wrist_2_joint": 1.3139568753385098,
        "distance_wrist_3_joint": 0.08429495950344457,
        "smoothness": 3.2297397335745243e-16,
        "time": 0.520768087,
        "traj_len": 1.9260083646137085,
        "weighted_distance": 2.4294902925338095
    },
    "planner": "LBKPIECE",
    "start": {
        "state": {
            "elbow_joint": 1.7527959577730765,
            "shoulder_lift_joint": -0.9740617694224828,
            "shoulder_pan_joint": -2.967991417825869,
            "wrist_1_joint": -0.7595177689779385,
            "wrist_2_joint": 1.7443932448376545,
            "wrist_3_joint": 3.1991315425061013
        }
    },
    "waypoints": [
        {
            "positions": [
                -2.967991417825869,
                -0.9740617694224828,
                1.7527959577730765,
                -0.7595177689779385,
                1.7443932448376545,
                3.1991315425061013
            ]
        },
        {
            "positions": [
                -2.9423720206322193,
                -0.9409720640711103,
                1.6514162284069613,
                -0.688480962317074,
                1.6129975573038036,
                3.190702046555757
            ]
        },
        {
            "positions": [
                -2.91675262343857,
                -0.9078823587197379,
                1.5500364990408462,
                -0.6174441556562096,
                1.4816018697699525,
                3.1822725506054126
            ]
        },
        {
            "positions": [
                -2.89113322624492,
                -0.8747926533683654,
                1.4486567696747312,
                -0.546407348995345,
                1.3502061822361016,
                3.1738430546550678
            ]
        },
        {
            "positions": [
                -2.8655138290512703,
                -0.841702948016993,
                1.347277040308616,
                -0.4753705423344805,
                1.2188104947022507,
                3.1654135587047234
            ]
        },
        {
            "positions": [
                -2.839894431857621,
                -0.8086132426656205,
                1.245897310942501,
                -0.404333735673616,
                1.0874148071683996,
                3.156984062754379
            ]
        },
        {
            "positions": [
                -2.814275034663971,
                -0.7755235373142481,
                1.1445175815763857,
                -0.33329692901275154,
                0.9560191196345486,
                3.1485545668040347
            ]
        },
        {
            "positions": [
                -2.7886556374703213,
                -0.7424338319628756,
                1.0431378522102706,
                -0.26226012235188706,
                0.8246234321006977,
                3.1401250708536903
            ]
        },
        {
            "positions": [
                -2.7630362402766715,
                -0.7093441266115031,
                0.9417581228441555,
                -0.19122331569102247,
                0.6932277445668467,
                3.1316955749033455
            ]
        },
        {
            "positions": [
                -2.737416843083022,
                -0.6762544212601307,
                0.8403783934780403,
                -0.12018650903015804,
                0.5618320570329955,
                3.123266078953001
            ]
        },
        {
            "positions": [
                -2.7117974458893723,
                -0.6431647159087582,
                0.7389986641119253,
                -0.049149702369293474,
                0.43043636949914477,
                3.1148365830026568
            ]
        }
    ]
}