{
    "goal": {
        "global_pose": {
            "orientation": {
                "w": -0.00223480608172531,
                "x": 0.0024358444001904467,
                "y": 0.7094548369677653,
                "z": -0.704743149386269
            },
            "position": {
                "x": 0.6205249238014221,
                "y": -0.6371506643295288,
                "z": 0.19426114857196808
            }
        },
        "name": "move_to_magneteinheit_B"
    },
    "id": "LBKPIECE_move_to_magneteinheit_B_6",
    "joint_names": [
        "shoulder_pan_joint",
        "shoulder_lift_joint",
        "elbow_joint",
        "wrist_1_joint",
        "wrist_2_joint",
        "wrist_3_joint"
    ],
    "metrics": {
        "cart_traj_len": 1.4528537688023877,
        "distance_elbow_joint": 0.7259513054666504,
        "distance_shoulder_lift_joint": 1.2463753649550158,
        "distance_shoulder_pan_joint": 1.6214655001655545,
        "distance_wrist_1_joint": 2.614233889450064,
        "distance_wrist_2_joint": 2.9382927324839065,
        "distance_wrist_3_joint": 3.139419844093351,
        "smoothness": 3.498884703780888e-16,
        "time": 0.597382952,
        "traj_len": 3.505101801177042,
        "weighted_distance": 4.910916915071484
    },
    "planner": "LBKPIECE",
    "start": {
        "state": {
            "elbow_joint": 2.393587130804639,
            "shoulder_lift_joint": -1.9085141043513325,
            "shoulder_pan_joint": 0.7066247066698809,
            "wrist_1_joint": -0.4678290934590222,
            "wrist_2_joint": 0.7096259084215963,
            "wrist_3_joint": 3.147370379541726
        }
    },
    "waypoints": [
        {
            "positions": [
                0.7066247066698809,
                -1.9085141043513325,
                2.393587130804639,
                -0.4678290934590222,
                0.7096259084215963,
                3.147370379541726
            ]
        },
        {
            "positions": [
                0.6559539097897072,
                -1.8695648741964883,
                2.370901152508806,
                -0.3861342844137077,
                0.6178042605314743,
                3.0492635094138087
            ]
        },
        {
            "positions": [
                0.6052831129095337,
                -1.8306156440416441,
                2.348215174212973,
                -0.3044394753683932,
                0.5259826126413523,
                2.9511566392858914
            ]
        },
        {
            "positions": [
                0.5546123160293601,
                -1.7916664138867997,
                2.3255291959171402,
                -0.2227446663230787,
                0.4341609647512301,
                2.853049769157974
            ]
        },
        {
            "positions": [
                0.5039415191491865,
                -1.7527171837319555,
                2.3028432176213074,
                -0.1410498572777642,
                0.3423393168611081,
                2.7549428990300573
            ]
        },
        {
            "positions": [
                0.453270722269013,
                -1.7137679535771113,
                2.2801572393254745,
                -0.05935504823244969,
                0.25051766897098604,
                2.65683602890214
            ]
        },
        {
            "positions": [
                0.4025999253888394,
                -1.6748187234222671,
                2.2574712610296417,
                0.022339760812864762,
                0.1586960210808639,
                2.5587291587742227
            ]
        },
        {
            "positions": [
                0.3519291285086658,
                -1.635869493267423,
                2.234785282733809,
                0.10403456985817933,
                0.06687437319074185,
                2.4606222886463054
            ]
        },
        {
            "positions": [
                0.30125833162849225,
                -1.5969202631125785,
                2.2120993044379764,
                0.18572937890349378,
                -0.024947274699380184,
                2.362515418518388
            ]
        },
        {
            "positions": [
                0.2505875347483187,
                -1.5579710329577343,
                2.1894133261421436,
                0.26742418794880823,
                -0.11676892258950222,
                2.2644085483904712
            ]
        },
        {
            "positions": [
                0.19991673786814512,
                -1.5190218028028901,
                2.1667273478463107,
                0.3491189969941228,
                -0.20859057047962426,
                2.166301678262554
            ]
        },
        {
            "positions": [
                0.1492459409879715,
                -1.4800725726480457,
                2.144041369550478,
                0.43081380603943725,
                -0.3004122183697464,
                2.0681948081346366
            ]
        },
        {
            "positions": [
                0.09857514410779789,
                -1.4411233424932015,
                2.121355391254645,
                0.5125086150847518,
                -0.39223386625986856,
                1.9700879380067193
            ]
        },
        {
            "positions": [
                0.04790434722762438,
                -1.4021741123383573,
                2.098669412958812,
                0.5942034241300662,
                -0.4840555141499905,
                1.8719810678788023
            ]
        },
        {
            "positions": [
                -0.002766449652549241,
                -1.3632248821835131,
                2.0759834346629793,
                0.6758982331753809,
                -0.5758771620401126,
                1.773874197750885
            ]
        },
        {
            "positions": [
                -0.05343724653272275,
                -1.324275652028669,
                2.0532974563671464,
                0.7575930422206953,
                -0.6676988099302346,
                1.6757673276229679
            ]
        },
        {
            "positions": [
                -0.10410804341289637,
                -1.2853264218738247,
                2.0306114780713136,
                0.8392878512660098,
                -0.7595204578203567,
                1.5776604574950506
            ]
        },
        {
            "positions": [
                -0.15477884029306999,
                -1.2463771917189805,
                2.0079254997754807,
                0.9209826603113243,
                -0.8513421057104789,
                1.4795535873671333
            ]
        },
        {
            "positions": [
                -0.2054496371732435,
                -1.2074279615641361,
                1.9852395214796479,
                1.0026774693566387,
                -0.9431637536006008,
                1.3814467172392162
            ]
        },
        {
            "positions": [
                -0.2561204340534171,
                -1.168478731409292,
                1.962553543183815,
                1.0843722784019534,
                -1.034985401490723,
                1.283339847111299
            ]
        },
        {
            "positions": [
                -0.3067912309335906,
                -1.1295295012544475,
                1.9398675648879822,
                1.1660670874472678,
                -1.1268070493808449,
                1.1852329769833818
            ]
        },
        {
            "positions": [
                -0.35746202781376424,
                -1.0905802710996033,
                1.9171815865921493,
                1.2477618964925823,
                -1.218628697270967,
                1.0871261068554645
            ]
        },
        {
            "positions": [
                -0.40813282469393786,
                -1.0516310409447591,
                1.8944956082963167,
                1.3294567055378967,
                -1.3104503451610892,
                0.9890192367275472
            ]
        },
        {
            "positions": [
                -0.4588036215741115,
                -1.012681810789915,
                1.8718096300004838,
                1.4111515145832112,
                -1.402271993051211,
                0.8909123665996299
            ]
        },
        {
            "positions": [
                -0.5094744184542851,
                -0.9737325806350707,
                1.849123651704651,
                1.4928463236285257,
                -1.4940936409413335,
                0.7928054964717126
            ]
        },
        {
            "positions": [
                -0.5601452153344585,
                -0.9347833504802264,
                1.8264376734088181,
                1.57454113267384,
                -1.5859152888314554,
                0.6946986263437958
            ]
        },
        {
            "positions": [
                -0.6108160122146321,
                -0.8958341203253821,
                1.8037516951129853,
                1.6562359417191546,
                -1.6777369367215773,
                0.5965917562158785
            ]
        },
        {
            "positions": [
                -0.6614868090948057,
                -0.8568848901705379,
                1.7810657168171526,
                1.7379307507644695,
                -1.7695585846116992,
                0.49848488608796115
            ]
        },
        {
            "positions": [
                -0.7121576059749793,
                -0.8179356600156937,
                1.7583797385213198,
                1.819625559809784,
                -1.8613802325018216,
                0.40037801596004385
            ]
        },
        {
            "positions": [
                -0.762828402855153,
                -0.7789864298608495,
                1.735693760225487,
                1.9013203688550984,
                -1.9532018803919435,
                0.30227114583212655
            ]
        },
        {
            "positions": [
                -0.8134991997353264,
                -0.7400371997060051,
                1.713007781929654,
                1.9830151779004128,
                -2.0450235282820657,
                0.2041642757042097
            ]
        },
        {
            "positions": [
                -0.8641699966155,
                -0.7010879695511609,
                1.6903218036338212,
                2.064709986945727,
                -2.136845176172188,
                0.1060574055762924
            ]
        },
        {
            "positions": [
                -0.9148407934956735,
                -0.6621387393963167,
                1.6676358253379884,
                2.1464047959910415,
                -2.22866682406231,
                0.007950535448375227
            ]
        }
    ]
}