{
    "goal": {
        "global_pose": {
            "orientation": {
                "w": 0.5084816217422485,
                "x": -0.49083608388900757,
                "y": 0.5182115435600281,
                "z": -0.4816462993621826
            },
            "position": {
                "x": 0.5540239810943604,
                "y": 0.030875300988554955,
                "z": 0.16403168439865112
            }
        },
        "name": "move_to_storage_A"
    },
    "id": "LBKPIECE_move_to_storage_A_26",
    "joint_names": [
        "shoulder_pan_joint",
        "shoulder_lift_joint",
        "elbow_joint",
        "wrist_1_joint",
        "wrist_2_joint",
        "wrist_3_joint"
    ],
    "metrics": {
        "cart_traj_len": 0.35388960332842867,
        "distance_elbow_joint": 0.4490264660192891,
        "distance_shoulder_lift_joint": 0.23546318196203386,
        "distance_shoulder_pan_joint": 0.46273427377622284,
        "distance_wrist_1_joint": 0.2371504181358144,
        "distance_wrist_2_joint": 1.100897511166235,
        "distance_wrist_3_joint": 0.08884476831493782,
        "smoothness": 1.2212453191034883e-15,
        "time": 0.190754072,
        "traj_len": 1.6044053787539272,
        "weighted_distance": 2.022338766207694
    },
    "planner": "LBKPIECE",
    "start": {
        "state": {
            "elbow_joint": 1.971548880431181,
            "shoulder_lift_joint": -1.1394869514688781,
            "shoulder_pan_joint": 0.12281150262730567,
            "wrist_1_joint": -0.7804693444481463,
            "wrist_2_joint": 0.12958644648617612,
            "wrist_3_joint": 3.0906942077768043
        }
    },
    "waypoints": [
        {
            "positions": [
                0.12281150262730567,
                -1.1394869514688781,
                1.971548880431181,
                -0.7804693444481463,
                0.12958644648617612,
                3.0906942077768043
            ]
        },
        {
            "positions": [
                0.05670660637355955,
                -1.1731245488920259,
                2.0356955184339367,
                -0.8143479756104055,
                0.286857519509924,
                3.103386317536081
            ]
        },
        {
            "positions": [
                -0.009398289880186567,
                -1.2067621463151734,
                2.0998421564366923,
                -0.8482266067726647,
                0.4441285925336718,
                3.116078427295358
            ]
        },
        {
            "positions": [
                -0.07550318613393267,
                -1.2403997437383212,
                2.163988794439448,
                -0.8821052379349239,
                0.6013996655574196,
                3.128770537054635
            ]
        },
        {
            "positions": [
                -0.1416080823876788,
                -1.274037341161469,
                2.2281354324422034,
                -0.9159838690971831,
                0.7586707385811675,
                3.1414626468139115
            ]
        },
        {
            "positions": [
                -0.20771297864142496,
                -1.3076749385846167,
                2.292282070444959,
                -0.9498625002594423,
                0.9159418116049154,
                3.1541547565731882
            ]
        },
        {
            "positions": [
                -0.273817874895171,
                -1.3413125360077642,
                2.3564287084477145,
                -0.9837411314217015,
                1.073212884628663,
                3.1668468663324654
            ]
        },
        {
            "positions": [
                -0.33992277114891717,
                -1.374950133430912,
                2.42057534645047,
                -1.0176197625839607,
                1.2304839576524111,
                3.179538976091742
            ]
        }
    ]
}