{
    "goal": {
        "global_pose": {
            "orientation": {
                "w": 0.7031023480610252,
                "x": -0.7110244013736278,
                "y": 0.0077485991402295624,
                "z": 0.005598929693374583
            },
            "position": {
                "x": -0.8841497679147869,
                "y": 0.44412534475326537,
                "z": 0.3711530566215515
            }
        },
        "name": "move_to_auspresseinheit_D"
    },
    "id": "LBKPIECE_move_to_auspresseinheit_D_62",
    "joint_names": [
        "shoulder_pan_joint",
        "shoulder_lift_joint",
        "elbow_joint",
        "wrist_1_joint",
        "wrist_2_joint",
        "wrist_3_joint"
    ],
    "metrics": {
        "cart_traj_len": 0.34222621049951013,
        "distance_elbow_joint": 0.6325850171434388,
        "distance_shoulder_lift_joint": 0.11879094917719613,
        "distance_shoulder_pan_joint": 0.1338217861126845,
        "distance_wrist_1_joint": 0.5191311116472437,
        "distance_wrist_2_joint": 1.4348301084039556,
        "distance_wrist_3_joint": 0.015133564708893932,
        "smoothness": 1.9737298371844314e-16,
        "time": 0.467524456,
        "traj_len": 1.6894651630600177,
        "weighted_distance": 2.199663812190945
    },
    "planner": "LBKPIECE",
    "start": {
        "state": {
            "elbow_joint": -1.8275484843655228,
            "shoulder_lift_joint": -2.1267897864000416,
            "shoulder_pan_joint": -0.035127520176001514,
            "wrist_1_joint": -2.3477863256791385,
            "wrist_2_joint": -1.605890476484521,
            "wrist_3_joint": -3.0880375317375353
        }
    },
    "waypoints": [
        {
            "positions": [
                -0.035127520176001514,
                -2.1267897864000416,
                -1.8275484843655228,
                -2.3477863256791385,
                -1.605890476484521,
                -3.0880375317375353
            ]
        },
        {
            "positions": [
                -0.05185524344008707,
                -2.141638655047191,
                -1.7484753572225928,
                -2.412677714635044,
                -1.4265367129340265,
                -3.089929227326147
            ]
        },
        {
            "positions": [
                -0.06858296670417263,
                -2.1564875236943406,
                -1.6694022300796632,
                -2.4775691035909495,
                -1.247182949383532,
                -3.0918209229147586
            ]
        },
        {
            "positions": [
                -0.0853106899682582,
                -2.17133639234149,
                -1.5903291029367332,
                -2.542460492546855,
                -1.0678291858330375,
                -3.0937126185033703
            ]
        },
        {
            "positions": [
                -0.10203841323234376,
                -2.1861852609886396,
                -1.5112559757938033,
                -2.60735188150276,
                -0.8884754222825432,
                -3.0956043140919824
            ]
        },
        {
            "positions": [
                -0.11876613649642932,
                -2.201034129635789,
                -1.4321828486508734,
                -2.6722432704586656,
                -0.7091216587320487,
                -3.097496009680594
            ]
        },
        {
            "positions": [
                -0.1354938597605149,
                -2.2158829982829387,
                -1.3531097215079435,
                -2.737134659414571,
                -0.5297678951815543,
                -3.099387705269206
            ]
        },
        {
            "positions": [
                -0.15222158302460045,
                -2.230731866930088,
                -1.2740365943650138,
                -2.8020260483704766,
                -0.35041413163105983,
                -3.1012794008578175
            ]
        },
        {
            "positions": [
                -0.168949306288686,
                -2.2455807355772377,
                -1.194963467222084,
                -2.866917437326382,
                -0.17106036808056532,
                -3.103171096446429
            ]
        }
    ]
}