{
    "goal": {
        "global_pose": {
            "orientation": {
                "w": 0.005598929693374612,
                "x": 0.007748599140229565,
                "y": 0.7110244013736278,
                "z": -0.7031023480610252
            },
            "position": {
                "x": 0.1141497679147869,
                "y": -0.7141253447532654,
                "z": 0.3711530566215515
            }
        },
        "name": "move_to_auspresseinheit_B"
    },
    "id": "LBKPIECE_move_to_auspresseinheit_B_43",
    "joint_names": [
        "shoulder_pan_joint",
        "shoulder_lift_joint",
        "elbow_joint",
        "wrist_1_joint",
        "wrist_2_joint",
        "wrist_3_joint"
    ],
    "metrics": {
        "cart_traj_len": 0.5656685783026244,
        "distance_elbow_joint": 0.06711266483650791,
        "distance_shoulder_lift_joint": 0.29390708149751377,
        "distance_shoulder_pan_joint": 0.5765270930044055,
        "distance_wrist_1_joint": 0.3407611809130613,
        "distance_wrist_2_joint": 1.0011434582115861,
        "distance_wrist_3_joint": 0.010289751639163125,
        "smoothness": 0.0,
        "time": 0.294736839,
        "traj_len": 1.513189092645806,
        "weighted_distance": 1.9110796353122523
    },
    "planner": "LBKPIECE",
    "start": {
        "state": {
            "elbow_joint": 2.0193061681459312,
            "shoulder_lift_joint": -1.1220205130644991,
            "shoulder_pan_joint": -1.0952072088045026,
            "wrist_1_joint": -0.8559671810662515,
            "wrist_2_joint": 0.4759638712940361,
            "wrist_3_joint": 3.159081874192446
        }
    },
    "waypoints": [
        {
            "positions": [
                -1.0952072088045026,
                -1.1220205130644991,
                2.0193061681459312,
                -0.8559671810662515,
                0.4759638712940361,
                3.159081874192446
            ]
        },
        {
            "positions": [
                -1.1912950576385701,
                -1.1710050266474181,
                2.0081207240065133,
                -0.7991736509140746,
                0.6428211143293004,
                3.1573669155859188
            ]
        },
        {
            "positions": [
                -1.2873829064726379,
                -1.2199895402303371,
                1.9969352798670952,
                -0.7423801207618977,
                0.8096783573645647,
                3.1556519569793915
            ]
        },
        {
            "positions": [
                -1.3834707553067054,
                -1.2689740538132561,
                1.9857498357276773,
                -0.6855865906097208,
                0.9765356003998291,
                3.1539369983728642
            ]
        },
        {
            "positions": [
                -1.479558604140773,
                -1.317958567396175,
                1.9745643915882594,
                -0.628793060457544,
                1.1433928434350935,
                3.1522220397663374
            ]
        },
        {
            "positions": [
                -1.5756464529748406,
                -1.366943080979094,
                1.9633789474488412,
                -0.5719995303053671,
                1.310250086470358,
                3.15050708115981
            ]
        },
        {
            "positions": [
                -1.6717343018089081,
                -1.415927594562013,
                1.9521935033094233,
                -0.5152060001531902,
                1.4771073295056223,
                3.148792122553283
            ]
        }
    ]
}