{
    "goal": {
        "global_pose": {
            "orientation": {
                "w": -0.4816463035849501,
                "x": 0.5182115481033762,
                "y": 0.4908360881923453,
                "z": -0.5084816262002911
            },
            "position": {
                "x": -0.8240239810943604,
                "y": -0.300875300988555,
                "z": 0.16403168439865112
            }
        },
        "name": "move_to_storage_C"
    },
    "id": "LBKPIECE_move_to_storage_C_135",
    "joint_names": [
        "shoulder_pan_joint",
        "shoulder_lift_joint",
        "elbow_joint",
        "wrist_1_joint",
        "wrist_2_joint",
        "wrist_3_joint"
    ],
    "metrics": {
        "cart_traj_len": 0.5760387485461598,
        "distance_elbow_joint": 0.2610549621828897,
        "distance_shoulder_lift_joint": 0.18888235710942125,
        "distance_shoulder_pan_joint": 0.4929740294893259,
        "distance_wrist_1_joint": 0.08976273099239052,
        "distance_wrist_2_joint": 1.0751507964691298,
        "distance_wrist_3_joint": 0.06124440751985727,
        "smoothness": 0.0,
        "time": 0.311614634,
        "traj_len": 1.4727760467100945,
        "weighted_distance": 1.8591588491208193
    },
    "planner": "LBKPIECE",
    "start": {
        "state": {
            "elbow_joint": 2.0108683149792914,
            "shoulder_lift_joint": -1.1634956873317392,
            "shoulder_pan_joint": -2.4736205022346,
            "wrist_1_joint": -0.8367026793690192,
            "wrist_2_joint": 0.6746043897045053,
            "wrist_3_joint": 3.133522094754363
        }
    },
    "waypoints": [
        {
            "positions": [
                -2.4736205022346,
                -1.1634956873317392,
                2.0108683149792914,
                -0.8367026793690192,
                0.6746043897045053,
                3.133522094754363
            ]
        },
        {
            "positions": [
                -2.555782840482821,
                -1.1320152944801691,
                1.9673591546154765,
                -0.8217422242036208,
                0.853796189116027,
                3.1437294960076727
            ]
        },
        {
            "positions": [
                -2.637945178731042,
                -1.1005349016285988,
                1.9238499942516616,
                -0.8067817690382224,
                1.0329879885275486,
                3.1539368972609823
            ]
        },
        {
            "positions": [
                -2.720107516979263,
                -1.0690545087770287,
                1.8803408338878467,
                -0.791821313872824,
                1.2121797879390703,
                3.164144298514292
            ]
        },
        {
            "positions": [
                -2.802269855227484,
                -1.0375741159254583,
                1.8368316735240315,
                -0.7768608587074255,
                1.3913715873505919,
                3.1743516997676013
            ]
        },
        {
            "positions": [
                -2.884432193475705,
                -1.0060937230738882,
                1.7933225131602166,
                -0.7619004035420271,
                1.5705633867621134,
                3.184559101020911
            ]
        },
        {
            "positions": [
                -2.966594531723926,
                -0.974613330222318,
                1.7498133527964017,
                -0.7469399483766287,
                1.7497551861736351,
                3.1947665022742204
            ]
        }
    ]
}