{
    "goal": {
        "global_pose": {
            "orientation": {
                "w": 0.5084816217422485,
                "x": -0.49083608388900757,
                "y": 0.5182115435600281,
                "z": -0.4816462993621826
            },
            "position": {
                "x": 0.5540239810943604,
                "y": 0.030875300988554955,
                "z": 0.16403168439865112
            }
        },
        "name": "move_to_storage_A"
    },
    "id": "LBKPIECE_move_to_storage_A_75",
    "joint_names": [
        "shoulder_pan_joint",
        "shoulder_lift_joint",
        "elbow_joint",
        "wrist_1_joint",
        "wrist_2_joint",
        "wrist_3_joint"
    ],
    "metrics": {
        "cart_traj_len": 0.3535575048437301,
        "distance_elbow_joint": 0.4516268968476902,
        "distance_shoulder_lift_joint": 0.23457684196450335,
        "distance_shoulder_pan_joint": 0.4619068259163738,
        "distance_wrist_1_joint": 0.25285838997463594,
        "distance_wrist_2_joint": 1.1014561313217266,
        "distance_wrist_3_joint": 0.1030108366901028,
        "smoothness": 0.0,
        "time": 0.5730561049999999,
        "traj_len": 1.6141362776156891,
        "weighted_distance": 2.041022321629923
    },
    "planner": "LBKPIECE",
    "start": {
        "state": {
            "elbow_joint": 1.971548880431181,
            "shoulder_lift_joint": -1.1394869514688781,
            "shoulder_pan_joint": 0.12281150262730567,
            "wrist_1_joint": -0.7804693444481463,
            "wrist_2_joint": 0.12958644648617612,
            "wrist_3_joint": 3.0906942077768043
        }
    },
    "waypoints": [
        {
            "positions": [
                0.12281150262730567,
                -1.1394869514688781,
                1.971548880431181,
                -0.7804693444481463,
                0.12958644648617612,
                3.0906942077768043
            ]
        },
        {
            "positions": [
                0.05682481321068085,
                -1.1729979288923786,
                2.0360670085522794,
                -0.8165919715873801,
                0.28693732238927994,
                3.105410041589676
            ]
        },
        {
            "positions": [
                -0.00916187620594397,
                -1.2065089063158791,
                2.100585136673378,
                -0.8527145987266137,
                0.4442881982923837,
                3.120125875402548
            ]
        },
        {
            "positions": [
                -0.0751485656225688,
                -1.2400198837393797,
                2.165103264794477,
                -0.8888372258658475,
                0.6016390741954876,
                3.13484170921542
            ]
        },
        {
            "positions": [
                -0.1411352550391936,
                -1.27353086116288,
                2.2296213929155755,
                -0.9249598530050811,
                0.7589899500985913,
                3.1495575430282914
            ]
        },
        {
            "positions": [
                -0.20712194445581844,
                -1.3070418385863805,
                2.2941395210366737,
                -0.9610824801443149,
                0.9163408260016951,
                3.1642733768411633
            ]
        },
        {
            "positions": [
                -0.2731086338724433,
                -1.340552816009881,
                2.3586576491577724,
                -0.9972051072835485,
                1.073691701904799,
                3.178989210654035
            ]
        },
        {
            "positions": [
                -0.3390953232890681,
                -1.3740637934333815,
                2.423175777278871,
                -1.0333277344227823,
                1.2310425778079028,
                3.193705044466907
            ]
        }
    ]
}