{
    "goal": {
        "global_pose": {
            "orientation": {
                "w": 0.7031023480610252,
                "x": -0.7110244013736278,
                "y": 0.0077485991402295624,
                "z": 0.005598929693374583
            },
            "position": {
                "x": -0.8841497679147869,
                "y": 0.44412534475326537,
                "z": 0.3711530566215515
            }
        },
        "name": "move_to_auspresseinheit_D"
    },
    "id": "LBKPIECE_move_to_auspresseinheit_D_9",
    "joint_names": [
        "shoulder_pan_joint",
        "shoulder_lift_joint",
        "elbow_joint",
        "wrist_1_joint",
        "wrist_2_joint",
        "wrist_3_joint"
    ],
    "metrics": {
        "cart_traj_len": 0.3427349465789086,
        "distance_elbow_joint": 0.6295358518655312,
        "distance_shoulder_lift_joint": 0.11673689736017367,
        "distance_shoulder_pan_joint": 0.1343725458690709,
        "distance_wrist_1_joint": 0.5062730868341667,
        "distance_wrist_2_joint": 1.4330609257430755,
        "distance_wrist_3_joint": 0.014130690891706266,
        "smoothness": 1.9737298371844314e-16,
        "time": 0.6302747009999999,
        "traj_len": 1.683481511203412,
        "weighted_distance": 2.1912793963628596
    },
    "planner": "LBKPIECE",
    "start": {
        "state": {
            "elbow_joint": -1.8275484843655228,
            "shoulder_lift_joint": -2.1267897864000416,
            "shoulder_pan_joint": -0.035127520176001514,
            "wrist_1_joint": -2.3477863256791385,
            "wrist_2_joint": -1.605890476484521,
            "wrist_3_joint": -3.0880375317375353
        }
    },
    "waypoints": [
        {
            "positions": [
                -0.035127520176001514,
                -2.1267897864000416,
                -1.8275484843655228,
                -2.3477863256791385,
                -1.605890476484521,
                -3.0880375317375353
            ]
        },
        {
            "positions": [
                -0.051924088409635374,
                -2.1413818985700632,
                -1.7488565028823313,
                -2.4110704615334093,
                -1.4267578607666365,
                -3.0898038680989988
            ]
        },
        {
            "positions": [
                -0.06872065664326923,
                -2.155974010740085,
                -1.67016452139914,
                -2.47435459738768,
                -1.2476252450487522,
                -3.091570204460462
            ]
        },
        {
            "positions": [
                -0.08551722487690311,
                -2.1705661229101065,
                -1.5914725399159486,
                -2.537638733241951,
                -1.0684926293308676,
                -3.093336540821925
            ]
        },
        {
            "positions": [
                -0.10231379311053697,
                -2.185158235080128,
                -1.5127805584327572,
                -2.600922869096222,
                -0.8893600136129832,
                -3.0951028771833884
            ]
        },
        {
            "positions": [
                -0.11911036134417083,
                -2.1997503472501503,
                -1.4340885769495657,
                -2.6642070049504927,
                -0.7102273978950988,
                -3.096869213544852
            ]
        },
        {
            "positions": [
                -0.1359069295778047,
                -2.214342459420172,
                -1.3553965954663743,
                -2.7274911408047635,
                -0.5310947821772143,
                -3.098635549906315
            ]
        },
        {
            "positions": [
                -0.15270349781143855,
                -2.2289345715901936,
                -1.276704613983183,
                -2.7907752766590344,
                -0.35196216645933,
                -3.100401886267778
            ]
        },
        {
            "positions": [
                -0.16950006604507242,
                -2.2435266837602152,
                -1.1980126324999916,
                -2.854059412513305,
                -0.17282955074144554,
                -3.1021682226292415
            ]
        }
    ]
}