{
    "goal": {
        "global_pose": {
            "orientation": {
                "w": 0.7031023480610252,
                "x": -0.7110244013736278,
                "y": 0.0077485991402295624,
                "z": 0.005598929693374583
            },
            "position": {
                "x": -0.8841497679147869,
                "y": 0.44412534475326537,
                "z": 0.3711530566215515
            }
        },
        "name": "move_to_auspresseinheit_D"
    },
    "id": "LBKPIECE_move_to_auspresseinheit_D_144",
    "joint_names": [
        "shoulder_pan_joint",
        "shoulder_lift_joint",
        "elbow_joint",
        "wrist_1_joint",
        "wrist_2_joint",
        "wrist_3_joint"
    ],
    "metrics": {
        "cart_traj_len": 0.3440438777383025,
        "distance_elbow_joint": 0.6483580145373049,
        "distance_shoulder_lift_joint": 0.12667937791671147,
        "distance_shoulder_pan_joint": 0.1345479292500122,
        "distance_wrist_1_joint": 0.563843492237246,
        "distance_wrist_2_joint": 1.4292785119202325,
        "distance_wrist_3_joint": 0.024237087005293034,
        "smoothness": 1.1842378960592198e-15,
        "time": 0.790942191,
        "traj_len": 1.71083149750839,
        "weighted_distance": 2.2290223397343656
    },
    "planner": "LBKPIECE",
    "start": {
        "state": {
            "elbow_joint": -1.8275484843655228,
            "shoulder_lift_joint": -2.1267897864000416,
            "shoulder_pan_joint": -0.035127520176001514,
            "wrist_1_joint": -2.3477863256791385,
            "wrist_2_joint": -1.605890476484521,
            "wrist_3_joint": -3.0880375317375353
        }
    },
    "waypoints": [
        {
            "positions": [
                -0.035127520176001514,
                -2.1267897864000416,
                -1.8275484843655228,
                -2.3477863256791385,
                -1.605890476484521,
                -3.0880375317375353
            ]
        },
        {
            "positions": [
                -0.05194601133225304,
                -2.1426247086396306,
                -1.7465037325483597,
                -2.4182667622087943,
                -1.427230662494492,
                -3.0850078958618736
            ]
        },
        {
            "positions": [
                -0.06876450248850456,
                -2.1584596308792197,
                -1.6654589807311966,
                -2.4887471987384497,
                -1.2485708485044629,
                -3.081978259986212
            ]
        },
        {
            "positions": [
                -0.08558299364475608,
                -2.1742945531188083,
                -1.5844142289140335,
                -2.5592276352681056,
                -1.0699110345144338,
                -3.0789486241105504
            ]
        },
        {
            "positions": [
                -0.10240148480100761,
                -2.1901294753583973,
                -1.5033694770968702,
                -2.6297080717977614,
                -0.8912512205244048,
                -3.0759189882348887
            ]
        },
        {
            "positions": [
                -0.11921997595725914,
                -2.2059643975979863,
                -1.422324725279707,
                -2.7001885083274173,
                -0.7125914065343757,
                -3.072889352359227
            ]
        },
        {
            "positions": [
                -0.13603846711351064,
                -2.221799319837575,
                -1.341279973462544,
                -2.770668944857073,
                -0.5339315925443466,
                -3.0698597164835655
            ]
        },
        {
            "positions": [
                -0.15285695826976217,
                -2.237634242077164,
                -1.260235221645381,
                -2.8411493813867286,
                -0.3552717785543176,
                -3.066830080607904
            ]
        },
        {
            "positions": [
                -0.1696754494260137,
                -2.253469164316753,
                -1.1791904698282178,
                -2.9116298179163844,
                -0.17661196456428857,
                -3.0638004447322422
            ]
        }
    ]
}