{
    "goal": {
        "global_pose": {
            "orientation": {
                "w": -0.4816463035849501,
                "x": 0.5182115481033762,
                "y": 0.4908360881923453,
                "z": -0.5084816262002911
            },
            "position": {
                "x": -0.8240239810943604,
                "y": -0.300875300988555,
                "z": 0.16403168439865112
            }
        },
        "name": "move_to_storage_C"
    },
    "id": "LBKPIECE_move_to_storage_C_147",
    "joint_names": [
        "shoulder_pan_joint",
        "shoulder_lift_joint",
        "elbow_joint",
        "wrist_1_joint",
        "wrist_2_joint",
        "wrist_3_joint"
    ],
    "metrics": {
        "cart_traj_len": 0.5765350698747403,
        "distance_elbow_joint": 0.2609648203829402,
        "distance_shoulder_lift_joint": 0.18883395192555064,
        "distance_shoulder_pan_joint": 0.4953663021299848,
        "distance_wrist_1_joint": 0.08941329292210065,
        "distance_wrist_2_joint": 1.0596444619927616,
        "distance_wrist_3_joint": 0.060121442070989684,
        "smoothness": 0.0,
        "time": 0.45962556499999996,
        "traj_len": 1.4677684665587851,
        "weighted_distance": 1.8503094093910806
    },
    "planner": "LBKPIECE",
    "start": {
        "state": {
            "elbow_joint": 2.0108683149792914,
            "shoulder_lift_joint": -1.1634956873317392,
            "shoulder_pan_joint": -2.4736205022346,
            "wrist_1_joint": -0.8367026793690192,
            "wrist_2_joint": 0.6746043897045053,
            "wrist_3_joint": 3.133522094754363
        }
    },
    "waypoints": [
        {
            "positions": [
                -2.4736205022346,
                -1.1634956873317392,
                2.0108683149792914,
                -0.8367026793690192,
                0.6746043897045053,
                3.133522094754363
            ]
        },
        {
            "positions": [
                -2.5561815525895977,
                -1.1320233620108142,
                1.9673741782488015,
                -0.8218004638820025,
                0.8512118000366322,
                3.143542335099528
            ]
        },
        {
            "positions": [
                -2.638742602944595,
                -1.100551036689889,
                1.9238800415183113,
                -0.8068982483949857,
                1.0278192103687591,
                3.153562575444693
            ]
        },
        {
            "positions": [
                -2.7213036532995925,
                -1.069078711368964,
                1.8803859047878213,
                -0.7919960329079689,
                1.204426620700886,
                3.163582815789858
            ]
        },
        {
            "positions": [
                -2.80386470365459,
                -1.037606386048039,
                1.8368917680573313,
                -0.7770938174209521,
                1.3810340310330131,
                3.173603056135023
            ]
        },
        {
            "positions": [
                -2.8864257540095872,
                -1.0061340607271136,
                1.7933976313268412,
                -0.7621916019339353,
                1.55764144136514,
                3.183623296480188
            ]
        },
        {
            "positions": [
                -2.968986804364585,
                -0.9746617354061886,
                1.7499034945963512,
                -0.7472893864469186,
                1.734248851697267,
                3.193643536825353
            ]
        }
    ]
}