{
    "goal": {
        "global_pose": {
            "orientation": {
                "w": 0.7031023480610252,
                "x": -0.7110244013736278,
                "y": 0.0077485991402295624,
                "z": 0.005598929693374583
            },
            "position": {
                "x": -0.8841497679147869,
                "y": 0.44412534475326537,
                "z": 0.3711530566215515
            }
        },
        "name": "move_to_auspresseinheit_D"
    },
    "id": "LBKPIECE_move_to_auspresseinheit_D_65",
    "joint_names": [
        "shoulder_pan_joint",
        "shoulder_lift_joint",
        "elbow_joint",
        "wrist_1_joint",
        "wrist_2_joint",
        "wrist_3_joint"
    ],
    "metrics": {
        "cart_traj_len": 0.34520430652827405,
        "distance_elbow_joint": 0.6685460118606545,
        "distance_shoulder_lift_joint": 0.13786664811270644,
        "distance_shoulder_pan_joint": 0.13402013029093432,
        "distance_wrist_1_joint": 0.6209160012949089,
        "distance_wrist_2_joint": 1.4485529875823238,
        "distance_wrist_3_joint": 0.07823982644418104,
        "smoothness": 7.894919293066633e-16,
        "time": 0.36055412200000003,
        "traj_len": 1.7573109018001651,
        "weighted_distance": 2.305231061596929
    },
    "planner": "LBKPIECE",
    "start": {
        "state": {
            "elbow_joint": -1.8275484843655228,
            "shoulder_lift_joint": -2.1267897864000416,
            "shoulder_pan_joint": -0.035127520176001514,
            "wrist_1_joint": -2.3477863256791385,
            "wrist_2_joint": -1.605890476484521,
            "wrist_3_joint": -3.0880375317375353
        }
    },
    "waypoints": [
        {
            "positions": [
                -0.035127520176001514,
                -2.1267897864000416,
                -1.8275484843655228,
                -2.3477863256791385,
                -1.605890476484521,
                -3.0880375317375353
            ]
        },
        {
            "positions": [
                -0.0518800364623683,
                -2.1440231174141298,
                -1.743980232882941,
                -2.425400825841002,
                -1.4248213530367306,
                -3.0782575534320125
            ]
        },
        {
            "positions": [
                -0.06863255274873509,
                -2.161256448428218,
                -1.660411981400359,
                -2.5030153260028656,
                -1.24375222958894,
                -3.06847757512649
            ]
        },
        {
            "positions": [
                -0.08538506903510189,
                -2.1784897794423066,
                -1.5768437299177773,
                -2.580629826164729,
                -1.0626831061411495,
                -3.0586975968209673
            ]
        },
        {
            "positions": [
                -0.10213758532146867,
                -2.195723110456395,
                -1.4932754784351956,
                -2.658244326326593,
                -0.8816139826933591,
                -3.0489176185154445
            ]
        },
        {
            "positions": [
                -0.11889010160783546,
                -2.212956441470483,
                -1.4097072269526136,
                -2.7358588264884567,
                -0.7005448592455686,
                -3.039137640209922
            ]
        },
        {
            "positions": [
                -0.13564261789420226,
                -2.2301897724845716,
                -1.326138975470032,
                -2.8134733266503202,
                -0.5194757357977782,
                -3.0293576619043994
            ]
        },
        {
            "positions": [
                -0.15239513418056905,
                -2.24742310349866,
                -1.2425707239874502,
                -2.891087826812184,
                -0.3384066123499878,
                -3.019577683598877
            ]
        },
        {
            "positions": [
                -0.16914765046693583,
                -2.264656434512748,
                -1.1590024725048682,
                -2.9687023269740473,
                -0.1573374889021972,
                -3.009797705293354
            ]
        }
    ]
}