{
    "goal": {
        "global_pose": {
            "orientation": {
                "w": 0.7047431493862688,
                "x": -0.7094548369677653,
                "y": 0.0024358444001904,
                "z": -0.0022348060817251984
            },
            "position": {
                "x": -0.39052492380142206,
                "y": 0.3671506643295288,
                "z": 0.19426114857196808
            }
        },
        "name": "move_to_magneteinheit_D"
    },
    "id": "LBKPIECE_move_to_magneteinheit_D_4",
    "joint_names": [
        "shoulder_pan_joint",
        "shoulder_lift_joint",
        "elbow_joint",
        "wrist_1_joint",
        "wrist_2_joint",
        "wrist_3_joint"
    ],
    "metrics": {
        "cart_traj_len": 4.038089862237608,
        "distance_elbow_joint": 4.779076196401101,
        "distance_shoulder_lift_joint": 2.237799538778071,
        "distance_shoulder_pan_joint": 3.306658452911601,
        "distance_wrist_1_joint": 1.9721995165444957,
        "distance_wrist_2_joint": 2.774933410340798,
        "distance_wrist_3_joint": 3.426634725915103,
        "smoothness": 0.4650308474649525,
        "time": 0.5827439719999999,
        "traj_len": 4.300848967458771,
        "weighted_distance": 5.486137459051375
    },
    "planner": "LBKPIECE",
    "start": {
        "state": {
            "elbow_joint": 0.7495348899011911,
            "shoulder_lift_joint": -0.6476975780737668,
            "shoulder_pan_joint": -2.711696901376276,
            "wrist_1_joint": -0.0750647808097303,
            "wrist_2_joint": 0.43296659715458535,
            "wrist_3_joint": 3.1361499051832418
        }
    },
    "waypoints": [
        {
            "positions": [
                -2.711696901376276,
                -0.6476975780737668,
                0.7495348899011911,
                -0.0750647808097303,
                0.43296659715458535,
                3.1361499051832418
            ]
        },
        {
            "positions": [
                -2.7272375628476486,
                -0.7451886629748039,
                0.8047158272771179,
                -0.08544406847844263,
                0.5126053087499443,
                3.000223774432146
            ]
        },
        {
            "positions": [
                -2.742778224319021,
                -0.8426797478758411,
                0.8598967646530447,
                -0.09582335614715495,
                0.592244020345303,
                2.86429764368105
            ]
        },
        {
            "positions": [
                -2.7583188857903935,
                -0.9401708327768783,
                0.9150777020289714,
                -0.1062026438158673,
                0.671882731940662,
                2.728371512929954
            ]
        },
        {
            "positions": [
                -2.7738595472617655,
                -1.0376619176779154,
                0.9702586394048982,
                -0.11658193148457963,
                0.7515214435360207,
                2.5924453821788584
            ]
        },
        {
            "positions": [
                -2.789400208733138,
                -1.1351530025789525,
                1.0254395767808249,
                -0.12696121915329195,
                0.8311601551313796,
                2.4565192514277623
            ]
        },
        {
            "positions": [
                -2.8049408702045104,
                -1.2326440874799895,
                1.0806205141567518,
                -0.1373405068220043,
                0.9107988667267385,
                2.3205931206766666
            ]
        },
        {
            "positions": [
                -2.820481531675883,
                -1.3301351723810266,
                1.1358014515326786,
                -0.14771979449071665,
                0.9904375783220973,
                2.184666989925571
            ]
        },
        {
            "positions": [
                -2.8360221931472553,
                -1.4276262572820637,
                1.1909823889086053,
                -0.15809908215942897,
                1.070076289917456,
                2.048740859174475
            ]
        },
        {
            "positions": [
                -2.851562854618628,
                -1.5251173421831008,
                1.2461633262845322,
                -0.1684783698281413,
                1.149715001512815,
                1.912814728423379
            ]
        },
        {
            "positions": [
                -2.8671035160900002,
                -1.622608427084138,
                1.3013442636604589,
                -0.17885765749685362,
                1.2293537131081738,
                1.7768885976722832
            ]
        },
        {
            "positions": [
                -2.8826441775613727,
                -1.7200995119851752,
                1.3565252010363857,
                -0.18923694516556594,
                1.3089924247035327,
                1.6409624669211873
            ]
        },
        {
            "positions": [
                -2.8981848390327447,
                -1.8175905968862125,
                1.4117061384123124,
                -0.19961623283427832,
                1.3886311362988917,
                1.5050363361700914
            ]
        },
        {
            "positions": [
                -2.913725500504117,
                -1.9150816817872496,
                1.4668870757882393,
                -0.20999552050299064,
                1.4682698478942504,
                1.3691102054189954
            ]
        },
        {
            "positions": [
                -2.9292661619754896,
                -2.0125727666882867,
                1.5220680131641662,
                -0.22037480817170296,
                1.5479085594896094,
                1.2331840746678997
            ]
        },
        {
            "positions": [
                -2.944806823446862,
                -2.1100638515893237,
                1.5772489505400928,
                -0.23075409584041529,
                1.627547271084968,
                1.0972579439168038
            ]
        },
        {
            "positions": [
                -2.8416212376444525,
                -2.09925242173351,
                1.4555986219388437,
                -0.17577044030822617,
                1.5774053122494223,
                1.0529084303763139
            ]
        },
        {
            "positions": [
                -2.7384356518420434,
                -2.088440991877696,
                1.3339482933375943,
                -0.12078678477603705,
                1.5272633534138766,
                1.008558916835824
            ]
        },
        {
            "positions": [
                -2.635250066039634,
                -2.0776295620218814,
                1.212297964736345,
                -0.06580312924384793,
                1.4771213945783308,
                0.9642094032953341
            ]
        },
        {
            "positions": [
                -2.5320644802372243,
                -2.0668181321660675,
                1.0906476361350959,
                -0.010819473711658811,
                1.426979435742785,
                0.9198598897548441
            ]
        },
        {
            "positions": [
                -2.4288788944348148,
                -2.0560067023102535,
                0.9689973075338466,
                0.044164181820530335,
                1.3768374769072391,
                0.8755103762143542
            ]
        },
        {
            "positions": [
                -2.325693308632405,
                -2.0451952724544396,
                0.8473469789325974,
                0.09914783735271943,
                1.3266955180716935,
                0.8311608626738644
            ]
        },
        {
            "positions": [
                -2.222507722829996,
                -2.0343838425986256,
                0.7256966503313481,
                0.15413149288490857,
                1.2765535592361477,
                0.7868113491333744
            ]
        },
        {
            "positions": [
                -2.1193221370275865,
                -2.023572412742811,
                0.6040463217300989,
                0.20911514841709766,
                1.2264116004006018,
                0.7424618355928845
            ]
        },
        {
            "positions": [
                -2.016136551225177,
                -2.0127609828869972,
                0.4823959931288495,
                0.26409880394928686,
                1.1762696415650562,
                0.6981123220523946
            ]
        },
        {
            "positions": [
                -1.9129509654227677,
                -2.0019495530311833,
                0.3607456645276004,
                0.31908245948147596,
                1.1261276827295104,
                0.6537628085119047
            ]
        },
        {
            "positions": [
                -1.8097653796203583,
                -1.991138123175369,
                0.23909533592635124,
                0.37406611501366505,
                1.0759857238939645,
                0.6094132949714148
            ]
        },
        {
            "positions": [
                -1.7065797938179488,
                -1.9803266933195551,
                0.11744500732510188,
                0.42904977054585414,
                1.025843765058419,
                0.565063781430925
            ]
        },
        {
            "positions": [
                -1.6033942080155392,
                -1.969515263463741,
                -0.004205321276147478,
                0.48403342607804334,
                0.975701806222873,
                0.520714267890435
            ]
        },
        {
            "positions": [
                -1.50020862221313,
                -1.958703833607927,
                -0.1258556498773966,
                0.5390170816102324,
                0.9255598473873272,
                0.4763647543499451
            ]
        },
        {
            "positions": [
                -1.3970230364107206,
                -1.947892403752113,
                -0.24750597847864575,
                0.5940007371424215,
                0.8754178885517815,
                0.4320152408094552
            ]
        },
        {
            "positions": [
                -1.293837450608311,
                -1.9370809738962989,
                -0.3691563070798951,
                0.6489843926746106,
                0.8252759297162358,
                0.3876657272689653
            ]
        },
        {
            "positions": [
                -1.1906518648059017,
                -1.926269544040485,
                -0.49080663568114424,
                0.7039680482067997,
                0.7751339708806899,
                0.34331621372847543
            ]
        },
        {
            "positions": [
                -1.087466279003492,
                -1.9154581141846707,
                -0.6124569642823938,
                0.758951703738989,
                0.7249920120451441,
                0.29896670018798543
            ]
        },
        {
            "positions": [
                -0.9842806932010826,
                -1.9046466843288568,
                -0.734107292883643,
                0.813935359271178,
                0.6748500532095982,
                0.25461718664749555
            ]
        },
        {
            "positions": [
                -0.8810951073986732,
                -1.8938352544730426,
                -0.8557576214848921,
                0.8689190148033672,
                0.6247080943740526,
                0.21026767310700567
            ]
        },
        {
            "positions": [
                -0.7779095215962637,
                -1.8830238246172286,
                -0.9774079500861412,
                0.9239026703355564,
                0.5745661355385068,
                0.1659181595665158
            ]
        },
        {
            "positions": [
                -0.6747239357938546,
                -1.8722123947614147,
                -1.0990582786873904,
                0.9788863258677454,
                0.5244241767029609,
                0.1215686460260258
            ]
        },
        {
            "positions": [
                -0.571538349991445,
                -1.8614009649056005,
                -1.22070860728864,
                1.0338699813999346,
                0.4742822178674153,
                0.07721913248553602
            ]
        },
        {
            "positions": [
                -0.4683527641890355,
                -1.8505895350497865,
                -1.342358935889889,
                1.0888536369321236,
                0.42414025903186947,
                0.03286961894504614
            ]
        },
        {
            "positions": [
                -0.36516717838662593,
                -1.8397781051939723,
                -1.4640092644911387,
                1.1438372924643128,
                0.37399830019632363,
                -0.011479894595443962
            ]
        },
        {
            "positions": [
                -0.2619815925842164,
                -1.8289666753381584,
                -1.5856595930923878,
                1.198820947996502,
                0.3238563413607778,
                -0.055829408135933845
            ]
        },
        {
            "positions": [
                -0.15879600678180728,
                -1.8181552454823442,
                -1.707309921693637,
                1.253804603528691,
                0.27371438252523217,
                -0.10017892167642373
            ]
        },
        {
            "positions": [
                -0.055610420979397876,
                -1.8073438156265302,
                -1.828960250294886,
                1.3087882590608801,
                0.22357242368968622,
                -0.1445284352169136
            ]
        },
        {
            "positions": [
                -0.041776297443394304,
                -1.862247083704446,
                -1.973899112087347,
                1.392305770340652,
                0.1858571924405436,
                -0.10030385190799135
            ]
        },
        {
            "positions": [
                -0.027942173907390733,
                -1.9171503517823618,
                -2.118837973879808,
                1.4758232816204238,
                0.14814196119140097,
                -0.05607926859906909
            ]
        },
        {
            "positions": [
                -0.04419716388227711,
                -1.9708909790568405,
                -2.2176004137223773,
                1.5141624513608423,
                0.12817992024368696,
                -0.029529753863602577
            ]
        },
        {
            "positions": [
                -0.06045215385716349,
                -2.0246316063313192,
                -2.316362853564947,
                1.5525016211012608,
                0.10821787929597299,
                -0.002980239128136067
            ]
        },
        {
            "positions": [
                -0.1225391045330487,
                -2.1523443256287846,
                -2.345238019393527,
                1.5358743788151934,
                0.1387295516066831,
                -0.000776144415050555
            ]
        },
        {
            "positions": [
                -0.1846260552089339,
                -2.2800570449262505,
                -2.3741131852221065,
                1.519247136529126,
                0.16924122391739319,
                0.0014279502980349573
            ]
        }
    ]
}