{
    "goal": {
        "global_pose": {
            "orientation": {
                "w": -0.4816463035849501,
                "x": 0.5182115481033762,
                "y": 0.4908360881923453,
                "z": -0.5084816262002911
            },
            "position": {
                "x": -0.8240239810943604,
                "y": 0.19912469901144506,
                "z": 0.16403168439865112
            }
        },
        "name": "move_to_storage_D"
    },
    "id": "LBKPIECE_move_to_storage_D_90",
    "joint_names": [
        "shoulder_pan_joint",
        "shoulder_lift_joint",
        "elbow_joint",
        "wrist_1_joint",
        "wrist_2_joint",
        "wrist_3_joint"
    ],
    "metrics": {
        "cart_traj_len": 3.628564009506175,
        "distance_elbow_joint": 4.21077051496963,
        "distance_shoulder_lift_joint": 1.264565888606509,
        "distance_shoulder_pan_joint": 2.8121576620913324,
        "distance_wrist_1_joint": 2.274913281404105,
        "distance_wrist_2_joint": 0.8680833862111301,
        "distance_wrist_3_joint": 3.140499568557279,
        "smoothness": 5.921189477066522e-16,
        "time": 0.302987715,
        "traj_len": 3.8171966548554948,
        "weighted_distance": 4.898467730481622
    },
    "planner": "LBKPIECE",
    "start": {
        "state": {
            "elbow_joint": -2.384821990628643,
            "shoulder_lift_joint": -2.278805467437664,
            "shoulder_pan_joint": -0.18546946439364564,
            "wrist_1_joint": 1.4845938187801415,
            "wrist_2_joint": 0.178987772454074,
            "wrist_3_joint": 0.03710569632802521
        }
    },
    "waypoints": [
        {
            "positions": [
                -0.18546946439364564,
                -2.278805467437664,
                -2.384821990628643,
                1.4845938187801415,
                0.178987772454074,
                0.03710569632802521
            ]
        },
        {
            "positions": [
                -0.10080402610571504,
                -2.2495166958458017,
                -2.259914116226358,
                1.4477569602349891,
                0.20711375515932245,
                -0.05327877845170473
            ]
        },
        {
            "positions": [
                -0.016138587817784433,
                -2.2202279242539396,
                -2.135006241824073,
                1.4109201016898365,
                0.23523973786457092,
                -0.14366325323143467
            ]
        },
        {
            "positions": [
                0.06852685047014617,
                -2.1909391526620774,
                -2.010098367421788,
                1.374083243144684,
                0.2633657205698194,
                -0.2340477280111646
            ]
        },
        {
            "positions": [
                0.15319228875807678,
                -2.1616503810702152,
                -1.8851904930195027,
                1.3372463845995317,
                0.29149170327506785,
                -0.3244322027908946
            ]
        },
        {
            "positions": [
                0.23785772704600738,
                -2.132361609478353,
                -1.7602826186172176,
                1.3004095260543793,
                0.3196176859803163,
                -0.41481667757062457
            ]
        },
        {
            "positions": [
                0.322523165333938,
                -2.103072837886491,
                -1.6353747442149325,
                1.263572667509227,
                0.3477436686855648,
                -0.5052011523503545
            ]
        },
        {
            "positions": [
                0.4071886036218687,
                -2.0737840662946287,
                -1.5104668698126473,
                1.2267358089640743,
                0.3758696513908133,
                -0.5955856271300844
            ]
        },
        {
            "positions": [
                0.4918540419097992,
                -2.0444952947027666,
                -1.3855589954103622,
                1.189898950418922,
                0.4039956340960617,
                -0.6859701019098143
            ]
        },
        {
            "positions": [
                0.5765194801977298,
                -2.0152065231109044,
                -1.2606511210080773,
                1.1530620918737695,
                0.43212161680131017,
                -0.7763545766895442
            ]
        },
        {
            "positions": [
                0.6611849184856604,
                -1.9859177515190423,
                -1.135743246605792,
                1.116225233328617,
                0.46024759950655864,
                -0.8667390514692743
            ]
        },
        {
            "positions": [
                0.745850356773591,
                -1.95662897992718,
                -1.010835372203507,
                1.0793883747834645,
                0.4883735822118071,
                -0.9571235262490042
            ]
        },
        {
            "positions": [
                0.8305157950615216,
                -1.927340208335318,
                -0.8859274978012219,
                1.042551516238312,
                0.5164995649170556,
                -1.047508001028734
            ]
        },
        {
            "positions": [
                0.9151812333494522,
                -1.8980514367434558,
                -0.7610196233989368,
                1.0057146576931597,
                0.5446255476223041,
                -1.137892475808464
            ]
        },
        {
            "positions": [
                0.999846671637383,
                -1.8687626651515936,
                -0.6361117489966515,
                0.9688777991480071,
                0.5727515303275525,
                -1.228276950588194
            ]
        },
        {
            "positions": [
                1.0845121099253134,
                -1.8394738935597315,
                -0.5112038745943668,
                0.9320409406028547,
                0.600877513032801,
                -1.3186614253679239
            ]
        },
        {
            "positions": [
                1.169177548213244,
                -1.8101851219678693,
                -0.38629600019208143,
                0.8952040820577023,
                0.6290034957380495,
                -1.4090459001476539
            ]
        },
        {
            "positions": [
                1.2538429865011747,
                -1.7808963503760071,
                -0.2613881257897961,
                0.8583672235125498,
                0.6571294784432979,
                -1.4994303749273838
            ]
        },
        {
            "positions": [
                1.3385084247891053,
                -1.751607578784145,
                -0.1364802513875114,
                0.8215303649673974,
                0.6852554611485464,
                -1.5898148497071136
            ]
        },
        {
            "positions": [
                1.4231738630770359,
                -1.7223188071922828,
                -0.011572376985226285,
                0.7846935064222449,
                0.7133814438537949,
                -1.6801993244868438
            ]
        },
        {
            "positions": [
                1.5078393013649665,
                -1.6930300356004206,
                0.11333549741705928,
                0.7478566478770924,
                0.7415074265590433,
                -1.7705837992665738
            ]
        },
        {
            "positions": [
                1.592504739652897,
                -1.6637412640085585,
                0.23824337181934396,
                0.71101978933194,
                0.7696334092642918,
                -1.8609682740463036
            ]
        },
        {
            "positions": [
                1.6771701779408277,
                -1.6344524924166963,
                0.3631512462216291,
                0.6741829307867876,
                0.7977593919695403,
                -1.9513527488260336
            ]
        },
        {
            "positions": [
                1.7618356162287583,
                -1.6051637208248342,
                0.4880591206239142,
                0.6373460722416351,
                0.8258853746747887,
                -2.041737223605763
            ]
        },
        {
            "positions": [
                1.8465010545166889,
                -1.575874949232972,
                0.6129669950261993,
                0.6005092136964827,
                0.8540113573800372,
                -2.132121698385493
            ]
        },
        {
            "positions": [
                1.9311664928046193,
                -1.5465861776411098,
                0.7378748694284845,
                0.5636723551513302,
                0.8821373400852857,
                -2.222506173165223
            ]
        },
        {
            "positions": [
                1.987041433733218,
                -1.5065565945674173,
                0.8234814818716706,
                0.46208741161292854,
                0.8959199627882145,
                -2.293269795232453
            ]
        },
        {
            "positions": [
                2.042916374661817,
                -1.4665270114937246,
                0.9090880943148566,
                0.3605024680745269,
                0.9097025854911432,
                -2.364033417299683
            ]
        },
        {
            "positions": [
                2.098791315590416,
                -1.426497428420032,
                0.9946947067580427,
                0.2589175245361253,
                0.9234852081940721,
                -2.434797039366913
            ]
        },
        {
            "positions": [
                2.1546662565190147,
                -1.3864678453463395,
                1.0803013192012287,
                0.15733258099772368,
                0.9372678308970008,
                -2.5055606614341426
            ]
        },
        {
            "positions": [
                2.2105411974476135,
                -1.3464382622726467,
                1.1659079316444148,
                0.0557476374593221,
                0.9510504535999297,
                -2.576324283501372
            ]
        },
        {
            "positions": [
                2.2664161383762123,
                -1.3064086791989542,
                1.251514544087601,
                -0.04583730607907954,
                0.9648330763028585,
                -2.6470879055686023
            ]
        },
        {
            "positions": [
                2.322291079304811,
                -1.2663790961252617,
                1.337121156530787,
                -0.14742224961748107,
                0.9786156990057873,
                -2.717851527635832
            ]
        },
        {
            "positions": [
                2.37816602023341,
                -1.2263495130515691,
                1.422727768973973,
                -0.24900719315588282,
                0.9923983217087161,
                -2.788615149703062
            ]
        },
        {
            "positions": [
                2.4340409611620086,
                -1.1863199299778764,
                1.5083343814171593,
                -0.35059213669428435,
                1.006180944411645,
                -2.8593787717702916
            ]
        },
        {
            "positions": [
                2.4899159020906074,
                -1.1462903469041839,
                1.5939409938603453,
                -0.45217708023268594,
                1.0199635671145737,
                -2.9301423938375217
            ]
        },
        {
            "positions": [
                2.5355066672929674,
                -1.1022734242131742,
                1.6712768373538922,
                -0.5648912076964452,
                1.0289994309647839,
                -2.9878928866347656
            ]
        },
        {
            "positions": [
                2.581097432495327,
                -1.0582565015221645,
                1.7486126808474391,
                -0.6776053351602045,
                1.038035294814994,
                -3.04564337943201
            ]
        },
        {
            "positions": [
                2.626688197697687,
                -1.014239578831155,
                1.825948524340986,
                -0.7903194626239638,
                1.0470711586652042,
                -3.103393872229254
            ]
        }
    ]
}