{
    "goal": {
        "global_pose": {
            "orientation": {
                "w": -0.00223480608172531,
                "x": 0.0024358444001904467,
                "y": 0.7094548369677653,
                "z": -0.704743149386269
            },
            "position": {
                "x": 0.6205249238014221,
                "y": -0.6371506643295288,
                "z": 0.19426114857196808
            }
        },
        "name": "move_to_magneteinheit_B"
    },
    "id": "LBKPIECE_move_to_magneteinheit_B_149",
    "joint_names": [
        "shoulder_pan_joint",
        "shoulder_lift_joint",
        "elbow_joint",
        "wrist_1_joint",
        "wrist_2_joint",
        "wrist_3_joint"
    ],
    "metrics": {
        "cart_traj_len": 1.4539377483135432,
        "distance_elbow_joint": 0.7301787822772752,
        "distance_shoulder_lift_joint": 1.2489156992714046,
        "distance_shoulder_pan_joint": 1.622169428525321,
        "distance_wrist_1_joint": 2.607435431480752,
        "distance_wrist_2_joint": 2.934747894820435,
        "distance_wrist_3_joint": 3.140580718411348,
        "smoothness": 1.3457248819782903e-16,
        "time": 0.63831875,
        "traj_len": 3.504857765271872,
        "weighted_distance": 4.909925938128845
    },
    "planner": "LBKPIECE",
    "start": {
        "state": {
            "elbow_joint": 2.393587130804639,
            "shoulder_lift_joint": -1.9085141043513325,
            "shoulder_pan_joint": 0.7066247066698809,
            "wrist_1_joint": -0.4678290934590222,
            "wrist_2_joint": 0.7096259084215963,
            "wrist_3_joint": 3.147370379541726
        }
    },
    "waypoints": [
        {
            "positions": [
                0.7066247066698809,
                -1.9085141043513325,
                2.393587130804639,
                -0.4678290934590222,
                0.7096259084215963,
                3.147370379541726
            ]
        },
        {
            "positions": [
                0.6559319120284646,
                -1.869485488749101,
                2.370769043858474,
                -0.3863467362252487,
                0.6179150367084578,
                3.0492272320913716
            ]
        },
        {
            "positions": [
                0.6052391173870483,
                -1.8304568731468698,
                2.347950956912309,
                -0.30486437899147517,
                0.5262041649953192,
                2.9510840846410167
            ]
        },
        {
            "positions": [
                0.554546322745632,
                -1.7914282575446383,
                2.3251328699661444,
                -0.22338202175770167,
                0.4344932932821806,
                2.852940937190662
            ]
        },
        {
            "positions": [
                0.5038535281042158,
                -1.7523996419424068,
                2.3023147830199795,
                -0.14189966452392816,
                0.34278242156904204,
                2.7547977897403078
            ]
        },
        {
            "positions": [
                0.45316073346279945,
                -1.7133710263401756,
                2.2794966960738146,
                -0.060417307290154654,
                0.25107154985590346,
                2.656654642289953
            ]
        },
        {
            "positions": [
                0.4024679388213832,
                -1.674342410737944,
                2.2566786091276496,
                0.021065049943618852,
                0.1593606781427649,
                2.5585114948395984
            ]
        },
        {
            "positions": [
                0.3517751441799669,
                -1.6353137951357128,
                2.2338605221814847,
                0.10254740717739236,
                0.06764980642962626,
                2.4603683473892435
            ]
        },
        {
            "positions": [
                0.3010823495385506,
                -1.5962851795334814,
                2.21104243523532,
                0.18402976441116586,
                -0.024061065283512262,
                2.362225199938889
            ]
        },
        {
            "positions": [
                0.2503895548971343,
                -1.55725656393125,
                2.1882243482891552,
                0.26551212164493937,
                -0.11577193699665078,
                2.2640820524885346
            ]
        },
        {
            "positions": [
                0.19969676025571803,
                -1.5182279483290186,
                2.1654062613429903,
                0.3469944788787129,
                -0.2074828087097894,
                2.1659389050381797
            ]
        },
        {
            "positions": [
                0.14900396561430174,
                -1.4791993327267872,
                2.1425881743968254,
                0.4284768361124864,
                -0.29919368042292804,
                2.067795757587825
            ]
        },
        {
            "positions": [
                0.09831117097288555,
                -1.440170717124556,
                2.119770087450661,
                0.5099591933462599,
                -0.39090455213606656,
                1.9696526101374705
            ]
        },
        {
            "positions": [
                0.04761837633146926,
                -1.4011421015223244,
                2.096952000504496,
                0.5914415505800334,
                -0.4826154238492051,
                1.8715094626871158
            ]
        },
        {
            "positions": [
                -0.0030744183099470357,
                -1.362113485920093,
                2.074133913558331,
                0.672923907813807,
                -0.5743262955623438,
                1.7733663152367614
            ]
        },
        {
            "positions": [
                -0.05376721295136333,
                -1.3230848703178615,
                2.051315826612166,
                0.7544062650475805,
                -0.6660371672754823,
                1.6752231677864067
            ]
        },
        {
            "positions": [
                -0.10446000759277962,
                -1.2840562547156302,
                2.028497739666001,
                0.835888622281354,
                -0.7577480389886209,
                1.577080020336052
            ]
        },
        {
            "positions": [
                -0.15515280223419592,
                -1.245027639113399,
                2.005679652719836,
                0.9173709795151275,
                -0.8494589107017594,
                1.4789368728856973
            ]
        },
        {
            "positions": [
                -0.2058455968756122,
                -1.2059990235111675,
                1.9828615657736715,
                0.998853336748901,
                -0.9411697824148979,
                1.3807937254353426
            ]
        },
        {
            "positions": [
                -0.2565383915170285,
                -1.166970407908936,
                1.9600434788275067,
                1.0803356939826745,
                -1.0328806541280366,
                1.2826505779849882
            ]
        },
        {
            "positions": [
                -0.3072311861584448,
                -1.1279417923067045,
                1.9372253918813418,
                1.161818051216448,
                -1.1245915258411752,
                1.1845074305346335
            ]
        },
        {
            "positions": [
                -0.357923980799861,
                -1.0889131767044733,
                1.9144073049351769,
                1.2433004084502215,
                -1.2163023975543137,
                1.0863642830842788
            ]
        },
        {
            "positions": [
                -0.4086167754412774,
                -1.0498845611022418,
                1.8915892179890121,
                1.324782765683995,
                -1.3080132692674524,
                0.9882211356339243
            ]
        },
        {
            "positions": [
                -0.4593095700826936,
                -1.0108559455000106,
                1.8687711310428474,
                1.4062651229177685,
                -1.399724140980591,
                0.8900779881835694
            ]
        },
        {
            "positions": [
                -0.5100023647241098,
                -0.9718273298977791,
                1.8459530440966825,
                1.487747480151542,
                -1.4914350126937295,
                0.791934840733215
            ]
        },
        {
            "positions": [
                -0.5606951593655262,
                -0.9327987142955477,
                1.8231349571505175,
                1.5692298373853155,
                -1.583145884406868,
                0.6937916932828605
            ]
        },
        {
            "positions": [
                -0.6113879540069423,
                -0.8937700986933164,
                1.8003168702043526,
                1.650712194619089,
                -1.6748567561200065,
                0.5956485458325056
            ]
        },
        {
            "positions": [
                -0.6620807486483588,
                -0.8547414830910849,
                1.7774987832581879,
                1.7321945518528625,
                -1.766567627833145,
                0.49750539838215113
            ]
        },
        {
            "positions": [
                -0.7127735432897749,
                -0.8157128674888534,
                1.7546806963120232,
                1.813676909086636,
                -1.858278499546284,
                0.39936225093179667
            ]
        },
        {
            "positions": [
                -0.7634663379311913,
                -0.7766842518866222,
                1.7318626093658582,
                1.8951592663204095,
                -1.9499893712594225,
                0.30121910348144176
            ]
        },
        {
            "positions": [
                -0.8141591325726075,
                -0.7376556362843907,
                1.7090445224196933,
                1.976641623554183,
                -2.041700242972561,
                0.2030759560310873
            ]
        },
        {
            "positions": [
                -0.8648519272140239,
                -0.6986270206821594,
                1.6862264354735284,
                2.0581239807879563,
                -2.1334111146856998,
                0.1049328085807324
            ]
        },
        {
            "positions": [
                -0.91554472185544,
                -0.659598405079928,
                1.6634083485273636,
                2.13960633802173,
                -2.2251219863988383,
                0.006789661130378113
            ]
        }
    ]
}