{
    "goal": {
        "global_pose": {
            "orientation": {
                "w": 0.7031023480610252,
                "x": -0.7110244013736278,
                "y": 0.0077485991402295624,
                "z": 0.005598929693374583
            },
            "position": {
                "x": -0.8841497679147869,
                "y": 0.44412534475326537,
                "z": 0.3711530566215515
            }
        },
        "name": "move_to_auspresseinheit_D"
    },
    "id": "LBKPIECE_move_to_auspresseinheit_D_105",
    "joint_names": [
        "shoulder_pan_joint",
        "shoulder_lift_joint",
        "elbow_joint",
        "wrist_1_joint",
        "wrist_2_joint",
        "wrist_3_joint"
    ],
    "metrics": {
        "cart_traj_len": 0.34425442261569117,
        "distance_elbow_joint": 0.6576138804619283,
        "distance_shoulder_lift_joint": 0.1318755456193279,
        "distance_shoulder_pan_joint": 0.13371055884194344,
        "distance_wrist_1_joint": 0.5885220741383219,
        "distance_wrist_2_joint": 1.4493211265638555,
        "distance_wrist_3_joint": 0.047681957781334106,
        "smoothness": 1.9737298371844314e-16,
        "time": 0.533372814,
        "traj_len": 1.734567710816361,
        "weighted_distance": 2.2675829113114156
    },
    "planner": "LBKPIECE",
    "start": {
        "state": {
            "elbow_joint": -1.8275484843655228,
            "shoulder_lift_joint": -2.1267897864000416,
            "shoulder_pan_joint": -0.035127520176001514,
            "wrist_1_joint": -2.3477863256791385,
            "wrist_2_joint": -1.605890476484521,
            "wrist_3_joint": -3.0880375317375353
        }
    },
    "waypoints": [
        {
            "positions": [
                -0.035127520176001514,
                -2.1267897864000416,
                -1.8275484843655228,
                -2.3477863256791385,
                -1.605890476484521,
                -3.0880375317375353
            ]
        },
        {
            "positions": [
                -0.051841340031244444,
                -2.1432742296024574,
                -1.7453467493077817,
                -2.4213515849464287,
                -1.424725335664039,
                -3.0820772870148687
            ]
        },
        {
            "positions": [
                -0.06855515988648737,
                -2.1597586728048737,
                -1.6631450142500408,
                -2.494916844213719,
                -1.243560194843557,
                -3.0761170422922017
            ]
        },
        {
            "positions": [
                -0.08526897974173031,
                -2.1762431160072895,
                -1.5809432791922997,
                -2.568482103481009,
                -1.0623950540230753,
                -3.0701567975695347
            ]
        },
        {
            "positions": [
                -0.10198279959697323,
                -2.1927275592097057,
                -1.4987415441345586,
                -2.6420473627482997,
                -0.8812299132025933,
                -3.064196552846868
            ]
        },
        {
            "positions": [
                -0.11869661945221616,
                -2.2092120024121216,
                -1.4165398090768175,
                -2.71561262201559,
                -0.7000647723821113,
                -3.0582363081242017
            ]
        },
        {
            "positions": [
                -0.1354104393074591,
                -2.2256964456145374,
                -1.3343380740190764,
                -2.78917788128288,
                -0.5188996315616294,
                -3.0522760634015347
            ]
        },
        {
            "positions": [
                -0.15212425916270203,
                -2.2421808888169537,
                -1.2521363389613356,
                -2.86274314055017,
                -0.3377344907411475,
                -3.0463158186788677
            ]
        },
        {
            "positions": [
                -0.16883807901794495,
                -2.2586653320193695,
                -1.1699346039035945,
                -2.9363083998174604,
                -0.15656934992066546,
                -3.040355573956201
            ]
        }
    ]
}