{
    "goal": {
        "global_pose": {
            "orientation": {
                "w": -0.4816463035849501,
                "x": 0.5182115481033762,
                "y": 0.4908360881923453,
                "z": -0.5084816262002911
            },
            "position": {
                "x": -0.8240239810943604,
                "y": 0.19912469901144506,
                "z": 0.16403168439865112
            }
        },
        "name": "move_to_storage_D"
    },
    "id": "LBKPIECE_move_to_storage_D_133",
    "joint_names": [
        "shoulder_pan_joint",
        "shoulder_lift_joint",
        "elbow_joint",
        "wrist_1_joint",
        "wrist_2_joint",
        "wrist_3_joint"
    ],
    "metrics": {
        "cart_traj_len": 0.6668397545254784,
        "distance_elbow_joint": 0.55381359736064,
        "distance_shoulder_lift_joint": 0.15239623405261948,
        "distance_shoulder_pan_joint": 0.18888265139471963,
        "distance_wrist_1_joint": 3.8205869678852302,
        "distance_wrist_2_joint": 1.7769009384263184,
        "distance_wrist_3_joint": 3.8769093054477404,
        "smoothness": 0.08290590986390019,
        "time": 0.544364025,
        "traj_len": 3.2201692027853546,
        "weighted_distance": 4.870400005315199
    },
    "planner": "LBKPIECE",
    "start": {
        "state": {
            "elbow_joint": -2.384821990628643,
            "shoulder_lift_joint": -2.278805467437664,
            "shoulder_pan_joint": -0.18546946439364564,
            "wrist_1_joint": 1.4845938187801415,
            "wrist_2_joint": 0.178987772454074,
            "wrist_3_joint": 0.03710569632802521
        }
    },
    "waypoints": [
        {
            "positions": [
                -0.18546946439364564,
                -2.278805467437664,
                -2.384821990628643,
                1.4845938187801415,
                0.178987772454074,
                0.03710569632802521
            ]
        },
        {
            "positions": [
                -0.13887631782605228,
                -2.263669660969408,
                -2.340978002903434,
                1.4387071467445178,
                0.06844717882681582,
                0.1479951551029595
            ]
        },
        {
            "positions": [
                -0.09228317125845892,
                -2.248533854501152,
                -2.297134015178225,
                1.3928204747088941,
                -0.04209341480044235,
                0.25888461387789374
            ]
        },
        {
            "positions": [
                -0.045690024690865555,
                -2.233398048032896,
                -2.253290027453016,
                1.3469338026732705,
                -0.15263400842770053,
                0.369774072652828
            ]
        },
        {
            "positions": [
                -0.030586727287033155,
                -2.190208293991718,
                -2.1679404929793966,
                1.3015194440454045,
                -0.18410739267741438,
                0.39085320418664005
            ]
        },
        {
            "positions": [
                -0.015483429883200759,
                -2.1470185399505395,
                -2.0825909585057776,
                1.2561050854175386,
                -0.21558077692712824,
                0.411932335720452
            ]
        },
        {
            "positions": [
                -0.016305021921647494,
                -2.146122483143344,
                -2.0716525861041353,
                1.0999269013078592,
                -0.27568218514648113,
                0.2596678719789166
            ]
        },
        {
            "positions": [
                -0.017126613960094225,
                -2.1452264263361487,
                -2.060714213702493,
                0.9437487171981798,
                -0.33578359336583397,
                0.10740340823738126
            ]
        },
        {
            "positions": [
                -0.01794820599854096,
                -2.1443303695289533,
                -2.0497758413008507,
                0.7875705330885003,
                -0.3958850015851868,
                -0.04486105550415409
            ]
        },
        {
            "positions": [
                -0.01876979803698769,
                -2.143434312721758,
                -2.038837468899208,
                0.6313923489788209,
                -0.45598640980453975,
                -0.1971255192456895
            ]
        },
        {
            "positions": [
                -0.019591390075434426,
                -2.1425382559145625,
                -2.0278990964975656,
                0.4752141648691415,
                -0.5160878180238926,
                -0.34938998298722485
            ]
        },
        {
            "positions": [
                -0.020412982113881158,
                -2.1416421991073666,
                -2.0169607240959233,
                0.31903598075946205,
                -0.5761892262432454,
                -0.5016544467287603
            ]
        },
        {
            "positions": [
                -0.021234574152327892,
                -2.1407461423001712,
                -2.006022351694281,
                0.1628577966497824,
                -0.6362906344625984,
                -0.6539189104702956
            ]
        },
        {
            "positions": [
                -0.022056166190774627,
                -2.139850085492976,
                -1.9950839792926387,
                0.006679612540103186,
                -0.6963920426819512,
                -0.806183374211831
            ]
        },
        {
            "positions": [
                -0.022877758229221362,
                -2.1389540286857804,
                -1.9841456068909964,
                -0.14949857156957647,
                -0.7564934509013042,
                -0.9584478379533663
            ]
        },
        {
            "positions": [
                -0.023699350267668094,
                -2.138057971878585,
                -1.9732072344893539,
                -0.3056767556792557,
                -0.8165948591206569,
                -1.1107123016949016
            ]
        },
        {
            "positions": [
                -0.02452094230611483,
                -2.1371619150713896,
                -1.9622688620877116,
                -0.4618549397889353,
                -0.8766962673400098,
                -1.2629767654364372
            ]
        },
        {
            "positions": [
                -0.02534253434456156,
                -2.1362658582641942,
                -1.9513304896860693,
                -0.6180331238986145,
                -0.9367976755593626,
                -1.4152412291779723
            ]
        },
        {
            "positions": [
                -0.026164126383008295,
                -2.135369801456999,
                -1.940392117284427,
                -0.7742113080082937,
                -0.9968990837787155,
                -1.5675056929195077
            ]
        },
        {
            "positions": [
                -0.02698571842145503,
                -2.1344737446498034,
                -1.9294537448827844,
                -0.9303894921179738,
                -1.0570004919980684,
                -1.7197701566610433
            ]
        },
        {
            "positions": [
                -0.02780731045990176,
                -2.133577687842608,
                -1.9185153724811421,
                -1.086567676227653,
                -1.1171019002174214,
                -1.8720346204025788
            ]
        },
        {
            "positions": [
                -0.028628902498348492,
                -2.1326816310354126,
                -1.9075770000794998,
                -1.2427458603373323,
                -1.1772033084367741,
                -2.024299084144114
            ]
        },
        {
            "positions": [
                -0.029450494536795227,
                -2.1317855742282172,
                -1.8966386276778575,
                -1.3989240444470115,
                -1.237304716656127,
                -2.176563547885649
            ]
        },
        {
            "positions": [
                -0.030272086575241962,
                -2.1308895174210214,
                -1.885700255276215,
                -1.5551022285566916,
                -1.29740612487548,
                -2.3288280116271847
            ]
        },
        {
            "positions": [
                -0.031093678613688697,
                -2.129993460613826,
                -1.8747618828745727,
                -1.7112804126663708,
                -1.3575075330948327,
                -2.4810924753687202
            ]
        },
        {
            "positions": [
                -0.031915270652135425,
                -2.1290974038066306,
                -1.8638235104729304,
                -1.86745859677605,
                -1.4176089413141857,
                -2.6333569391102554
            ]
        },
        {
            "positions": [
                -0.03273686269058216,
                -2.128201346999435,
                -1.852885138071288,
                -2.0236367808857296,
                -1.4777103495335384,
                -2.7856214028517905
            ]
        },
        {
            "positions": [
                -0.033558454729028894,
                -2.12730529019224,
                -1.8419467656696455,
                -2.1798149649954093,
                -1.5378117577528916,
                -2.9378858665933265
            ]
        },
        {
            "positions": [
                -0.03438004676747563,
                -2.1264092333850444,
                -1.8310083932680032,
                -2.3359931491050885,
                -1.5979131659722443,
                -3.0901503303348616
            ]
        }
    ]
}