{
    "goal": {
        "global_pose": {
            "orientation": {
                "w": 0.005598929693374612,
                "x": 0.007748599140229565,
                "y": 0.7110244013736278,
                "z": -0.7031023480610252
            },
            "position": {
                "x": -0.8858502320852131,
                "y": -0.7141253447532654,
                "z": 0.3711530566215515
            }
        },
        "name": "move_to_auspresseinheit_C"
    },
    "id": "LBKPIECE_move_to_auspresseinheit_C_36",
    "joint_names": [
        "shoulder_pan_joint",
        "shoulder_lift_joint",
        "elbow_joint",
        "wrist_1_joint",
        "wrist_2_joint",
        "wrist_3_joint"
    ],
    "metrics": {
        "cart_traj_len": 0.493910712563252,
        "distance_elbow_joint": 1.0135175236970502,
        "distance_shoulder_lift_joint": 0.33103575029692767,
        "distance_shoulder_pan_joint": 0.25648312518090277,
        "distance_wrist_1_joint": 0.7091647054328056,
        "distance_wrist_2_joint": 1.3023874960249422,
        "distance_wrist_3_joint": 0.08802000370489305,
        "smoothness": 6.459479467149049e-16,
        "time": 0.315033985,
        "traj_len": 1.9236965988267278,
        "weighted_distance": 2.4265615205893822
    },
    "planner": "LBKPIECE",
    "start": {
        "state": {
            "elbow_joint": 1.7527959577730765,
            "shoulder_lift_joint": -0.9740617694224828,
            "shoulder_pan_joint": -2.967991417825869,
            "wrist_1_joint": -0.7595177689779385,
            "wrist_2_joint": 1.7443932448376545,
            "wrist_3_joint": 3.1991315425061013
        }
    },
    "waypoints": [
        {
            "positions": [
                -2.967991417825869,
                -0.9740617694224828,
                1.7527959577730765,
                -0.7595177689779385,
                1.7443932448376545,
                3.1991315425061013
            ]
        },
        {
            "positions": [
                -2.9423431053077787,
                -0.94095819439279,
                1.6514442054033716,
                -0.688601298434658,
                1.6141544952351603,
                3.190329542135612
            ]
        },
        {
            "positions": [
                -2.9166947927896887,
                -0.9078546193630973,
                1.5500924530336664,
                -0.6176848278913774,
                1.483915745632666,
                3.1815275417651225
            ]
        },
        {
            "positions": [
                -2.8910464802715983,
                -0.8747510443334044,
                1.4487407006639614,
                -0.5467683573480968,
                1.3536769960301718,
                3.1727255413946334
            ]
        },
        {
            "positions": [
                -2.865398167753508,
                -0.8416474693037117,
                1.3473889482942565,
                -0.47585188680481627,
                1.2234382464276776,
                3.163923541024144
            ]
        },
        {
            "positions": [
                -2.839749855235418,
                -0.808543894274019,
                1.2460371959245515,
                -0.40493541626153573,
                1.0931994968251835,
                3.1551215406536546
            ]
        },
        {
            "positions": [
                -2.8141015427173275,
                -0.7754403192443262,
                1.1446854435548466,
                -0.3340189457182552,
                0.9629607472226892,
                3.1463195402831654
            ]
        },
        {
            "positions": [
                -2.788453230199237,
                -0.7423367442146335,
                1.0433336911851414,
                -0.26310247517497465,
                0.8327219976201949,
                3.1375175399126762
            ]
        },
        {
            "positions": [
                -2.7628049176811467,
                -0.7092331691849407,
                0.9419819388154363,
                -0.192186004631694,
                0.7024832480177006,
                3.128715539542187
            ]
        },
        {
            "positions": [
                -2.7371566051630567,
                -0.6761295941552479,
                0.8406301864457313,
                -0.12126953408841346,
                0.5722444984152064,
                3.1199135391716974
            ]
        },
        {
            "positions": [
                -2.7115082926449663,
                -0.6430260191255551,
                0.7392784340760263,
                -0.050353063545132956,
                0.4420057488127123,
                3.1111115388012083
            ]
        }
    ]
}