{
    "goal": {
        "global_pose": {
            "orientation": {
                "w": -0.4816463035849501,
                "x": 0.5182115481033762,
                "y": 0.4908360881923453,
                "z": -0.5084816262002911
            },
            "position": {
                "x": -0.8240239810943604,
                "y": -0.300875300988555,
                "z": 0.16403168439865112
            }
        },
        "name": "move_to_storage_C"
    },
    "id": "LBKPIECE_move_to_storage_C_145",
    "joint_names": [
        "shoulder_pan_joint",
        "shoulder_lift_joint",
        "elbow_joint",
        "wrist_1_joint",
        "wrist_2_joint",
        "wrist_3_joint"
    ],
    "metrics": {
        "cart_traj_len": 0.5772962615226112,
        "distance_elbow_joint": 0.26063798059727605,
        "distance_shoulder_lift_joint": 0.18901465686823493,
        "distance_shoulder_pan_joint": 0.4956884757370603,
        "distance_wrist_1_joint": 0.0872640958160138,
        "distance_wrist_2_joint": 1.0645107149495139,
        "distance_wrist_3_joint": 0.07074341403032447,
        "smoothness": 2.5376526478085547e-16,
        "time": 0.62633378,
        "traj_len": 1.4723652189584022,
        "weighted_distance": 1.8604088198093989
    },
    "planner": "LBKPIECE",
    "start": {
        "state": {
            "elbow_joint": 2.0108683149792914,
            "shoulder_lift_joint": -1.1634956873317392,
            "shoulder_pan_joint": -2.4736205022346,
            "wrist_1_joint": -0.8367026793690192,
            "wrist_2_joint": 0.6746043897045053,
            "wrist_3_joint": 3.133522094754363
        }
    },
    "waypoints": [
        {
            "positions": [
                -2.4736205022346,
                -1.1634956873317392,
                2.0108683149792914,
                -0.8367026793690192,
                0.6746043897045053,
                3.133522094754363
            ]
        },
        {
            "positions": [
                -2.556235248190777,
                -1.1319932445203666,
                1.967428651546412,
                -0.8221586633996836,
                0.8520228421960909,
                3.1453126637594173
            ]
        },
        {
            "positions": [
                -2.6388499941469536,
                -1.1004908017089943,
                1.9239889881135328,
                -0.8076146474303479,
                1.0294412946876765,
                3.1571032327644715
            ]
        },
        {
            "positions": [
                -2.72146474010313,
                -1.068988358897622,
                1.8805493246806533,
                -0.7930706314610123,
                1.2068597471792621,
                3.168893801769525
            ]
        },
        {
            "positions": [
                -2.804079486059307,
                -1.0374859160862493,
                1.837109661247774,
                -0.7785266154916767,
                1.384278199670848,
                3.1806843707745793
            ]
        },
        {
            "positions": [
                -2.8866942320154836,
                -1.0059834732748767,
                1.7936699978148947,
                -0.763982599522341,
                1.5616966521624336,
                3.1924749397796335
            ]
        },
        {
            "positions": [
                -2.9693089779716604,
                -0.9744810304635043,
                1.7502303343820154,
                -0.7494385835530054,
                1.7391151046540192,
                3.2042655087846876
            ]
        }
    ]
}