{
    "goal": {
        "global_pose": {
            "orientation": {
                "w": -0.00223480608172531,
                "x": 0.0024358444001904467,
                "y": 0.7094548369677653,
                "z": -0.704743149386269
            },
            "position": {
                "x": -0.37947507619857795,
                "y": -0.6371506643295288,
                "z": 0.19426114857196808
            }
        },
        "name": "move_to_magneteinheit_C"
    },
    "id": "LBKPIECE_move_to_magneteinheit_C_92",
    "joint_names": [
        "shoulder_pan_joint",
        "shoulder_lift_joint",
        "elbow_joint",
        "wrist_1_joint",
        "wrist_2_joint",
        "wrist_3_joint"
    ],
    "metrics": {
        "cart_traj_len": 2.311671935017442,
        "distance_elbow_joint": 4.364602262579144,
        "distance_shoulder_lift_joint": 2.0268857141858145,
        "distance_shoulder_pan_joint": 1.357935202961795,
        "distance_wrist_1_joint": 3.3001185877113244,
        "distance_wrist_2_joint": 1.7534330329979058,
        "distance_wrist_3_joint": 3.3147772352252116,
        "smoothness": 0.9088924086055692,
        "time": 0.373973687,
        "traj_len": 4.014692022516944,
        "weighted_distance": 5.272651906471812
    },
    "planner": "LBKPIECE",
    "start": {
        "state": {
            "elbow_joint": 1.9565354006593851,
            "shoulder_lift_joint": -1.4165861576512813,
            "shoulder_pan_joint": -1.6717766223278752,
            "wrist_1_joint": -0.528663328821883,
            "wrist_2_joint": 1.472756589259273,
            "wrist_3_joint": 3.159348288315503
        }
    },
    "waypoints": [
        {
            "positions": [
                -1.6717766223278752,
                -1.4165861576512813,
                1.9565354006593851,
                -0.528663328821883,
                1.472756589259273,
                3.159348288315503
            ]
        },
        {
            "positions": [
                -1.685445226059683,
                -1.473087912391011,
                1.9708819389095904,
                -0.6064660917106393,
                1.420485017191529,
                3.0598808266247803
            ]
        },
        {
            "positions": [
                -1.699113829791491,
                -1.529589667130741,
                1.9852284771597957,
                -0.6842688545993956,
                1.3682134451237853,
                2.960413364934058
            ]
        },
        {
            "positions": [
                -1.7127824335232988,
                -1.5860914218704707,
                1.999575015410001,
                -0.7620716174881518,
                1.3159418730560413,
                2.8609459032433353
            ]
        },
        {
            "positions": [
                -1.6879544258961703,
                -1.6087038381215588,
                1.949000210457048,
                -0.8127844941436748,
                1.2236484853888174,
                2.7300146884689003
            ]
        },
        {
            "positions": [
                -1.6631264182690417,
                -1.631316254372647,
                1.898425405504095,
                -0.863497370799198,
                1.1313550977215938,
                2.5990834736944657
            ]
        },
        {
            "positions": [
                -1.6382984106419132,
                -1.6539286706237353,
                1.847850600551142,
                -0.914210247454721,
                1.0390617100543702,
                2.468152258920031
            ]
        },
        {
            "positions": [
                -1.6134704030147846,
                -1.6765410868748234,
                1.797275795598189,
                -0.9649231241102441,
                0.9467683223871464,
                2.337221044145596
            ]
        },
        {
            "positions": [
                -1.6681305808876623,
                -1.6165219212088704,
                1.694361134171663,
                -0.8856705253575536,
                0.9071972875962375,
                2.2924974788606307
            ]
        },
        {
            "positions": [
                -1.7227907587605398,
                -1.5565027555429176,
                1.591446472745137,
                -0.8064179266048632,
                0.8676262528053288,
                2.2477739135756654
            ]
        },
        {
            "positions": [
                -1.7774509366334175,
                -1.4964835898769646,
                1.488531811318611,
                -0.7271653278521728,
                0.8280552180144201,
                2.2030503482907
            ]
        },
        {
            "positions": [
                -1.832111114506295,
                -1.4364644242110116,
                1.3856171498920848,
                -0.6479127290994824,
                0.7884841832235112,
                2.1583267830057347
            ]
        },
        {
            "positions": [
                -1.8867712923791726,
                -1.3764452585450588,
                1.2827024884655587,
                -0.568660130346792,
                0.7489131484326024,
                2.1136032177207693
            ]
        },
        {
            "positions": [
                -1.9414314702520503,
                -1.3164260928791058,
                1.1797878270390327,
                -0.48940753159410155,
                0.7093421136416936,
                2.068879652435804
            ]
        },
        {
            "positions": [
                -1.9960916481249278,
                -1.2564069272131528,
                1.0768731656125068,
                -0.41015493284141114,
                0.6697710788507849,
                2.0241560871508386
            ]
        },
        {
            "positions": [
                -2.0507518259978053,
                -1.1963877615472,
                0.9739585041859806,
                -0.3309023340887207,
                0.6302000440598761,
                1.979432521865873
            ]
        },
        {
            "positions": [
                -2.105412003870683,
                -1.136368595881247,
                0.8710438427594546,
                -0.2516497353360303,
                0.5906290092689672,
                1.9347089565809077
            ]
        },
        {
            "positions": [
                -2.1600721817435606,
                -1.076349430215294,
                0.7681291813329285,
                -0.17239713658333988,
                0.5510579744780585,
                1.8899853912959423
            ]
        },
        {
            "positions": [
                -2.2147323596164386,
                -1.016330264549341,
                0.6652145199064023,
                -0.09314453783064947,
                0.5114869396871496,
                1.845261826010977
            ]
        },
        {
            "positions": [
                -2.269392537489316,
                -0.9563110988833883,
                0.5622998584798764,
                -0.013891939077959048,
                0.4719159048962409,
                1.8005382607260116
            ]
        },
        {
            "positions": [
                -2.3240527153621935,
                -0.8962919332174353,
                0.45938519705335024,
                0.06536065967473137,
                0.43234487010533207,
                1.755814695441046
            ]
        },
        {
            "positions": [
                -2.378712893235071,
                -0.8362727675514824,
                0.3564705356268243,
                0.1446132584274218,
                0.39277383531442334,
                1.7110911301560807
            ]
        },
        {
            "positions": [
                -2.433373071107949,
                -0.7762536018855294,
                0.2535558742002981,
                0.2238658571801122,
                0.3532028005235145,
                1.6663675648711154
            ]
        },
        {
            "positions": [
                -2.4880332489808263,
                -0.7162344362195766,
                0.15064121277377218,
                0.3031184559328026,
                0.31363176573260576,
                1.62164399958615
            ]
        },
        {
            "positions": [
                -2.5426934268537043,
                -0.6562152705536235,
                0.047726551347246016,
                0.38237105468549304,
                0.2740607309416969,
                1.5769204343011847
            ]
        },
        {
            "positions": [
                -2.5973536047265817,
                -0.5961961048876707,
                -0.05518811007927993,
                0.46162365343818346,
                0.23448969615078818,
                1.5321968690162193
            ]
        },
        {
            "positions": [
                -2.652013782599459,
                -0.5361769392217178,
                -0.1581027715058061,
                0.5408762521908739,
                0.19491866135987934,
                1.487473303731254
            ]
        },
        {
            "positions": [
                -2.6407956504361256,
                -0.5691393928154517,
                -0.030338177761285418,
                0.46545846802064594,
                0.22406950061192757,
                1.5819003160336673
            ]
        },
        {
            "positions": [
                -2.6295775182727925,
                -0.6021018464091855,
                0.09742641598323526,
                0.39004068385041796,
                0.2532203398639758,
                1.6763273283360804
            ]
        },
        {
            "positions": [
                -2.618359386109459,
                -0.6350643000029194,
                0.22519100972775596,
                0.31462289968018997,
                0.282371179116024,
                1.7707543406384938
            ]
        },
        {
            "positions": [
                -2.607141253946126,
                -0.6680267535966532,
                0.3529556034722766,
                0.23920511550996204,
                0.31152201836807225,
                1.865181352940907
            ]
        },
        {
            "positions": [
                -2.5959231217827923,
                -0.7009892071903872,
                0.4807201972167974,
                0.16378733133973405,
                0.34067285762012045,
                1.9596083652433203
            ]
        },
        {
            "positions": [
                -2.584704989619459,
                -0.7339516607841209,
                0.608484790961318,
                0.08836954716950612,
                0.36982369687216865,
                2.0540353775457336
            ]
        },
        {
            "positions": [
                -2.5734868574561256,
                -0.7669141143778548,
                0.7362493847058388,
                0.012951762999278138,
                0.3989745361242169,
                2.148462389848147
            ]
        },
        {
            "positions": [
                -2.562268725292792,
                -0.7998765679715887,
                0.8640139784503593,
                -0.06246602117094979,
                0.4281253753762651,
                2.24288940215056
            ]
        },
        {
            "positions": [
                -2.551050593129459,
                -0.8328390215653225,
                0.9917785721948802,
                -0.13788380534117783,
                0.45727621462831336,
                2.3373164144529732
            ]
        },
        {
            "positions": [
                -2.5398324609661254,
                -0.8658014751590564,
                1.1195431659394008,
                -0.21330158951140576,
                0.48642705388036156,
                2.4317434267553866
            ]
        },
        {
            "positions": [
                -2.5286143288027922,
                -0.8987639287527902,
                1.2473077596839215,
                -0.2887193736816337,
                0.5155778931324098,
                2.5261704390577995
            ]
        },
        {
            "positions": [
                -2.5173961966394587,
                -0.931726382346524,
                1.3750723534284421,
                -0.3641371578518616,
                0.5447287323844581,
                2.6205974513602133
            ]
        },
        {
            "positions": [
                -2.5061780644761256,
                -0.9646888359402579,
                1.502836947172963,
                -0.43955494202208967,
                0.5738795716365063,
                2.715024463662626
            ]
        },
        {
            "positions": [
                -2.494959932312792,
                -0.9976512895339917,
                1.6306015409174837,
                -0.5149727261923177,
                0.6030304108885545,
                2.8094514759650395
            ]
        },
        {
            "positions": [
                -2.489454899466163,
                -1.038924361283215,
                1.7243966780398416,
                -0.5905253356269804,
                0.6199012497810132,
                2.889682495566834
            ]
        },
        {
            "positions": [
                -2.4839498666195343,
                -1.0801974330324382,
                1.8181918151621994,
                -0.666077945061643,
                0.636772088673472,
                2.969913515168628
            ]
        },
        {
            "positions": [
                -2.4784448337729055,
                -1.1214705047816613,
                1.9119869522845572,
                -0.7416305544963057,
                0.6536429275659309,
                3.050144534770422
            ]
        },
        {
            "positions": [
                -2.4729398009262766,
                -1.1627435765308847,
                2.005782089406915,
                -0.8171831639309683,
                0.6705137664583897,
                3.1303755543722165
            ]
        }
    ]
}