{
    "goal": {
        "global_pose": {
            "orientation": {
                "w": -0.4816463035849501,
                "x": 0.5182115481033762,
                "y": 0.4908360881923453,
                "z": -0.5084816262002911
            },
            "position": {
                "x": -0.8240239810943604,
                "y": 0.19912469901144506,
                "z": 0.16403168439865112
            }
        },
        "name": "move_to_storage_D"
    },
    "id": "LBKPIECE_move_to_storage_D_135",
    "joint_names": [
        "shoulder_pan_joint",
        "shoulder_lift_joint",
        "elbow_joint",
        "wrist_1_joint",
        "wrist_2_joint",
        "wrist_3_joint"
    ],
    "metrics": {
        "cart_traj_len": 3.4853603246987848,
        "distance_elbow_joint": 4.214694157676179,
        "distance_shoulder_lift_joint": 1.2635564538176085,
        "distance_shoulder_pan_joint": 2.8124896489073974,
        "distance_wrist_1_joint": 4.750000613046979,
        "distance_wrist_2_joint": 1.866637903831618,
        "distance_wrist_3_joint": 3.1294750415942083,
        "smoothness": 0.45867475194634927,
        "time": 0.310763988,
        "traj_len": 4.2469817304615285,
        "weighted_distance": 5.559895900009371
    },
    "planner": "LBKPIECE",
    "start": {
        "state": {
            "elbow_joint": -2.384821990628643,
            "shoulder_lift_joint": -2.278805467437664,
            "shoulder_pan_joint": -0.18546946439364564,
            "wrist_1_joint": 1.4845938187801415,
            "wrist_2_joint": 0.178987772454074,
            "wrist_3_joint": 0.03710569632802521
        }
    },
    "waypoints": [
        {
            "positions": [
                -0.18546946439364564,
                -2.278805467437664,
                -2.384821990628643,
                1.4845938187801415,
                0.178987772454074,
                0.03710569632802521
            ]
        },
        {
            "positions": [
                -0.12283103320937568,
                -2.148164022222408,
                -2.3680403106696857,
                1.5943885451525883,
                0.15968693553503865,
                0.035164252999870624
            ]
        },
        {
            "positions": [
                -0.06019260202510571,
                -2.0175225770071523,
                -2.3512586307107277,
                1.7041832715250351,
                0.14038609861600332,
                0.03322280967171604
            ]
        },
        {
            "positions": [
                0.0024458291591642756,
                -1.8868811317918963,
                -2.33447695075177,
                1.813977997897482,
                0.12108526169696798,
                0.031281366343561455
            ]
        },
        {
            "positions": [
                0.06508426034343423,
                -1.7562396865766403,
                -2.3176952707928122,
                1.9237727242699287,
                0.10178442477793265,
                0.02933992301540687
            ]
        },
        {
            "positions": [
                0.1277226915277042,
                -1.6255982413613845,
                -2.3009135908338547,
                2.0335674506423755,
                0.08248358785889731,
                0.027398479687252286
            ]
        },
        {
            "positions": [
                0.1916882589944499,
                -1.6196674616598785,
                -2.1936708231903856,
                1.9269227389020085,
                0.12399007866849784,
                -0.037313202623574196
            ]
        },
        {
            "positions": [
                0.2556538264611956,
                -1.6137366819583725,
                -2.086428055546916,
                1.8202780271616417,
                0.16549656947809838,
                -0.10202488493440068
            ]
        },
        {
            "positions": [
                0.31961939392794125,
                -1.6078059022568665,
                -1.979185287903447,
                1.7136333154212746,
                0.2070030602876989,
                -0.16673656724522717
            ]
        },
        {
            "positions": [
                0.38358496139468695,
                -1.6018751225553605,
                -1.8719425202599778,
                1.6069886036809076,
                0.24850955109729944,
                -0.23144824955605364
            ]
        },
        {
            "positions": [
                0.44755052886143265,
                -1.5959443428538544,
                -1.7646997526165085,
                1.5003438919405405,
                0.2900160419069,
                -0.2961599318668801
            ]
        },
        {
            "positions": [
                0.5115160963281784,
                -1.5900135631523484,
                -1.6574569849730394,
                1.3936991802001737,
                0.3315225327165005,
                -0.36087161417770663
            ]
        },
        {
            "positions": [
                0.575481663794924,
                -1.5840827834508424,
                -1.55021421732957,
                1.2870544684598066,
                0.37302902352610107,
                -0.4255832964885331
            ]
        },
        {
            "positions": [
                0.6394472312616697,
                -1.5781520037493364,
                -1.4429714496861008,
                1.1804097567194396,
                0.41453551433570157,
                -0.49029497879935957
            ]
        },
        {
            "positions": [
                0.7034127987284153,
                -1.5722212240478304,
                -1.3357286820426317,
                1.0737650449790728,
                0.4560420051453021,
                -0.555006661110186
            ]
        },
        {
            "positions": [
                0.7673783661951611,
                -1.5662904443463244,
                -1.2284859143991624,
                0.9671203332387057,
                0.49754849595490264,
                -0.6197183434210125
            ]
        },
        {
            "positions": [
                0.8313439336619067,
                -1.5603596646448183,
                -1.1212431467556931,
                0.8604756214983389,
                0.5390549867645031,
                -0.684430025731839
            ]
        },
        {
            "positions": [
                0.8953095011286525,
                -1.5544288849433123,
                -1.0140003791122238,
                0.7538309097579718,
                0.5805614775741037,
                -0.7491417080426656
            ]
        },
        {
            "positions": [
                0.959275068595398,
                -1.5484981052418063,
                -0.9067576114687548,
                0.647186198017605,
                0.6220679683837043,
                -0.8138533903534919
            ]
        },
        {
            "positions": [
                1.0232406360621438,
                -1.5425673255403003,
                -0.7995148438252855,
                0.5405414862772377,
                0.6635744591933048,
                -0.8785650726643185
            ]
        },
        {
            "positions": [
                1.0872062035288894,
                -1.5366365458387943,
                -0.6922720761818162,
                0.4338967745368709,
                0.7050809500029053,
                -0.943276754975145
            ]
        },
        {
            "positions": [
                1.151171770995635,
                -1.5307057661372883,
                -0.5850293085383469,
                0.3272520627965039,
                0.7465874408125058,
                -1.0079884372859715
            ]
        },
        {
            "positions": [
                1.2151373384623807,
                -1.5247749864357822,
                -0.4777865408948778,
                0.22060735105613705,
                0.7880939316221064,
                -1.072700119596798
            ]
        },
        {
            "positions": [
                1.2791029059291263,
                -1.5188442067342762,
                -0.37054377325140875,
                0.11396263931577022,
                0.8296004224317068,
                -1.1374118019076245
            ]
        },
        {
            "positions": [
                1.3430684733958724,
                -1.5129134270327702,
                -0.26330100560793923,
                0.007317927575402727,
                0.8711069132413075,
                -1.202123484218451
            ]
        },
        {
            "positions": [
                1.407034040862618,
                -1.5069826473312642,
                -0.15605823796447016,
                -0.0993267841649641,
                0.912613404050908,
                -1.2668351665292774
            ]
        },
        {
            "positions": [
                1.4709996083293637,
                -1.5010518676297582,
                -0.04881547032100064,
                -0.20597149590533093,
                0.9541198948605085,
                -1.3315468488401039
            ]
        },
        {
            "positions": [
                1.5349651757961094,
                -1.4951210879282522,
                0.05842729732246843,
                -0.31261620764569775,
                0.995626385670109,
                -1.3962585311509303
            ]
        },
        {
            "positions": [
                1.598930743262855,
                -1.4891903082267461,
                0.16567006496593795,
                -0.419260919386065,
                1.0371328764797096,
                -1.4609702134617568
            ]
        },
        {
            "positions": [
                1.6628963107296006,
                -1.4832595285252401,
                0.272912832609407,
                -0.5259056311264318,
                1.07863936728931,
                -1.5256818957725833
            ]
        },
        {
            "positions": [
                1.7268618781963463,
                -1.477328748823734,
                0.3801556002528761,
                -0.6325503428667987,
                1.1201458580989105,
                -1.5903935780834098
            ]
        },
        {
            "positions": [
                1.790827445663092,
                -1.471397969122228,
                0.48739836789634516,
                -0.7391950546071655,
                1.161652348908511,
                -1.6551052603942362
            ]
        },
        {
            "positions": [
                1.8547930131298376,
                -1.465467189420722,
                0.5946411355398147,
                -0.8458397663475328,
                1.2031588397181117,
                -1.7198169427050627
            ]
        },
        {
            "positions": [
                1.9187585805965832,
                -1.459536409719216,
                0.7018839031832838,
                -0.9524844780879,
                1.2446653305277122,
                -1.7845286250158892
            ]
        },
        {
            "positions": [
                1.9827241480633289,
                -1.45360563001771,
                0.8091266708267533,
                -1.0591291898282669,
                1.2861718213373128,
                -1.8492403073267156
            ]
        },
        {
            "positions": [
                2.0466897155300745,
                -1.447674850316204,
                0.9163694384702223,
                -1.1657739015686337,
                1.3276783121469133,
                -1.913951989637542
            ]
        },
        {
            "positions": [
                2.1106552829968206,
                -1.441744070614698,
                1.0236122061136919,
                -1.272418613309001,
                1.369184802956514,
                -1.9786636719483686
            ]
        },
        {
            "positions": [
                2.1746208504635662,
                -1.435813290913192,
                1.130854973757161,
                -1.3790633250493678,
                1.4106912937661145,
                -2.043375354259195
            ]
        },
        {
            "positions": [
                2.238586417930312,
                -1.429882511211686,
                1.23809774140063,
                -1.4857080367897344,
                1.4521977845757148,
                -2.1080870365700215
            ]
        },
        {
            "positions": [
                2.281745725328472,
                -1.3838121225903937,
                1.3038504553613972,
                -1.4099578708172196,
                1.4077067265179788,
                -2.2174517375362615
            ]
        },
        {
            "positions": [
                2.324905032726632,
                -1.3377417339691013,
                1.3696031693221646,
                -1.3342077048447047,
                1.3632156684602428,
                -2.326816438502502
            ]
        },
        {
            "positions": [
                2.368064340124792,
                -1.291671345347809,
                1.4353558832829318,
                -1.2584575388721897,
                1.3187246104025068,
                -2.436181139468742
            ]
        },
        {
            "positions": [
                2.411223647522952,
                -1.2456009567265167,
                1.5011085972436993,
                -1.1827073728996749,
                1.2742335523447708,
                -2.545545840434982
            ]
        },
        {
            "positions": [
                2.454382954921112,
                -1.1995305681052244,
                1.5668613112044665,
                -1.10695720692716,
                1.2297424942870347,
                -2.654910541401222
            ]
        },
        {
            "positions": [
                2.497542262319272,
                -1.1534601794839323,
                1.6326140251652337,
                -1.0312070409546452,
                1.1852514362292987,
                -2.7642752423674626
            ]
        },
        {
            "positions": [
                2.5407015697174318,
                -1.10738979086264,
                1.6983667391260011,
                -0.9554568749821303,
                1.1407603781715627,
                -2.8736399433337025
            ]
        },
        {
            "positions": [
                2.5838608771155918,
                -1.0613194022413477,
                1.7641194530867685,
                -0.8797067090096155,
                1.0962693201138267,
                -2.9830046442999425
            ]
        },
        {
            "positions": [
                2.6270201845137517,
                -1.0152490136200554,
                1.8298721670475357,
                -0.8039565430371005,
                1.0517782620560907,
                -3.092369345266183
            ]
        }
    ]
}