{
    "goal": {
        "global_pose": {
            "orientation": {
                "w": -0.4816463035849501,
                "x": 0.5182115481033762,
                "y": 0.4908360881923453,
                "z": -0.5084816262002911
            },
            "position": {
                "x": -0.8240239810943604,
                "y": -0.300875300988555,
                "z": 0.16403168439865112
            }
        },
        "name": "move_to_storage_C"
    },
    "id": "LBKPIECE_move_to_storage_C_36",
    "joint_names": [
        "shoulder_pan_joint",
        "shoulder_lift_joint",
        "elbow_joint",
        "wrist_1_joint",
        "wrist_2_joint",
        "wrist_3_joint"
    ],
    "metrics": {
        "cart_traj_len": 0.5765578448996794,
        "distance_elbow_joint": 0.2594934129170148,
        "distance_shoulder_lift_joint": 0.18945016732530628,
        "distance_shoulder_pan_joint": 0.49591856540477774,
        "distance_wrist_1_joint": 0.0865060323505562,
        "distance_wrist_2_joint": 1.0578194866912307,
        "distance_wrist_3_joint": 0.07148736691242163,
        "smoothness": 7.612957943425664e-16,
        "time": 0.368498749,
        "traj_len": 1.4699234781448005,
        "weighted_distance": 1.8568724470108164
    },
    "planner": "LBKPIECE",
    "start": {
        "state": {
            "elbow_joint": 2.0108683149792914,
            "shoulder_lift_joint": -1.1634956873317392,
            "shoulder_pan_joint": -2.4736205022346,
            "wrist_1_joint": -0.8367026793690192,
            "wrist_2_joint": 0.6746043897045053,
            "wrist_3_joint": 3.133522094754363
        }
    },
    "waypoints": [
        {
            "positions": [
                -2.4736205022346,
                -1.1634956873317392,
                2.0108683149792914,
                -0.8367026793690192,
                0.6746043897045053,
                3.133522094754363
            ]
        },
        {
            "positions": [
                -2.5562735964687295,
                -1.1319206594441882,
                1.9676194128264557,
                -0.8222850073105932,
                0.8509076374863771,
                3.1454366559064333
            ]
        },
        {
            "positions": [
                -2.6389266907028595,
                -1.1003456315566371,
                1.9243705106736197,
                -0.8078673352521671,
                1.0272108852682489,
                3.157351217058504
            ]
        },
        {
            "positions": [
                -2.721579784936989,
                -1.068770603669086,
                1.881121608520784,
                -0.7934496631937411,
                1.2035141330501207,
                3.169265778210574
            ]
        },
        {
            "positions": [
                -2.8042328791711184,
                -1.037195575781535,
                1.8378727063679483,
                -0.7790319911353151,
                1.3798173808319925,
                3.181180339362644
            ]
        },
        {
            "positions": [
                -2.8868859734052483,
                -1.005620547893984,
                1.7946238042151124,
                -0.764614319076889,
                1.5561206286138642,
                3.1930949005147147
            ]
        },
        {
            "positions": [
                -2.969539067639378,
                -0.974045520006433,
                1.7513749020622766,
                -0.750196647018463,
                1.732423876395736,
                3.205009461666785
            ]
        }
    ]
}