{
    "goal": {
        "global_pose": {
            "orientation": {
                "w": 0.005598929693374612,
                "x": 0.007748599140229565,
                "y": 0.7110244013736278,
                "z": -0.7031023480610252
            },
            "position": {
                "x": 0.1141497679147869,
                "y": -0.7141253447532654,
                "z": 0.3711530566215515
            }
        },
        "name": "move_to_auspresseinheit_B"
    },
    "id": "LBKPIECE_move_to_auspresseinheit_B_60",
    "joint_names": [
        "shoulder_pan_joint",
        "shoulder_lift_joint",
        "elbow_joint",
        "wrist_1_joint",
        "wrist_2_joint",
        "wrist_3_joint"
    ],
    "metrics": {
        "cart_traj_len": 0.5651612505720802,
        "distance_elbow_joint": 0.06274388825139066,
        "distance_shoulder_lift_joint": 0.2936730103205716,
        "distance_shoulder_pan_joint": 0.5788578528180732,
        "distance_wrist_1_joint": 0.3254654661269093,
        "distance_wrist_2_joint": 0.9871127149237076,
        "distance_wrist_3_joint": 0.005819019531832836,
        "smoothness": 0.0,
        "time": 0.25970175100000004,
        "traj_len": 1.5012234850189645,
        "weighted_distance": 1.8915306426507523
    },
    "planner": "LBKPIECE",
    "start": {
        "state": {
            "elbow_joint": 2.0193061681459312,
            "shoulder_lift_joint": -1.1220205130644991,
            "shoulder_pan_joint": -1.0952072088045026,
            "wrist_1_joint": -0.8559671810662515,
            "wrist_2_joint": 0.4759638712940361,
            "wrist_3_joint": 3.159081874192446
        }
    },
    "waypoints": [
        {
            "positions": [
                -1.0952072088045026,
                -1.1220205130644991,
                2.0193061681459312,
                -0.8559671810662515,
                0.4759638712940361,
                3.159081874192446
            ]
        },
        {
            "positions": [
                -1.191683517607515,
                -1.1709660147845944,
                2.008848853437366,
                -0.8017229367117666,
                0.640482657114654,
                3.158112037603807
            ]
        },
        {
            "positions": [
                -1.288159826410527,
                -1.2199115165046897,
                1.998391538728801,
                -0.7474786923572817,
                0.8050014429352719,
                3.1571422010151684
            ]
        },
        {
            "positions": [
                -1.3846361352135392,
                -1.268857018224785,
                1.9879342240202358,
                -0.6932344480027968,
                0.96952022875589,
                3.1561723644265296
            ]
        },
        {
            "positions": [
                -1.4811124440165515,
                -1.3178025199448802,
                1.9774769093116709,
                -0.6389902036483119,
                1.1340390145765078,
                3.155202527837891
            ]
        },
        {
            "positions": [
                -1.5775887528195636,
                -1.3667480216649754,
                1.9670195946031057,
                -0.5847459592938271,
                1.2985578003971259,
                3.154232691249252
            ]
        },
        {
            "positions": [
                -1.6740650616225758,
                -1.4156935233850707,
                1.9565622798945406,
                -0.5305017149393422,
                1.4630765862177437,
                3.153262854660613
            ]
        }
    ]
}