{
    "goal": {
        "global_pose": {
            "orientation": {
                "w": 0.7047431493862688,
                "x": -0.7094548369677653,
                "y": 0.0024358444001904,
                "z": -0.0022348060817251984
            },
            "position": {
                "x": -0.39052492380142206,
                "y": 0.3671506643295288,
                "z": 0.19426114857196808
            }
        },
        "name": "move_to_magneteinheit_D"
    },
    "id": "LBKPIECE_move_to_magneteinheit_D_64",
    "joint_names": [
        "shoulder_pan_joint",
        "shoulder_lift_joint",
        "elbow_joint",
        "wrist_1_joint",
        "wrist_2_joint",
        "wrist_3_joint"
    ],
    "metrics": {
        "cart_traj_len": 4.472618573118842,
        "distance_elbow_joint": 3.1414255735955163,
        "distance_shoulder_lift_joint": 2.1541063120266406,
        "distance_shoulder_pan_joint": 4.090004663375279,
        "distance_wrist_1_joint": 2.5972079062223234,
        "distance_wrist_2_joint": 2.8783345315899846,
        "distance_wrist_3_joint": 4.74177621786673,
        "smoothness": 0.467149555489669,
        "time": 0.481542699,
        "traj_len": 4.427511174991711,
        "weighted_distance": 5.878941237860967
    },
    "planner": "LBKPIECE",
    "start": {
        "state": {
            "elbow_joint": 0.7495348899011911,
            "shoulder_lift_joint": -0.6476975780737668,
            "shoulder_pan_joint": -2.711696901376276,
            "wrist_1_joint": -0.0750647808097303,
            "wrist_2_joint": 0.43296659715458535,
            "wrist_3_joint": 3.1361499051832418
        }
    },
    "waypoints": [
        {
            "positions": [
                -2.711696901376276,
                -0.6476975780737668,
                0.7495348899011911,
                -0.0750647808097303,
                0.43296659715458535,
                3.1361499051832418
            ]
        },
        {
            "positions": [
                -2.719742694411821,
                -0.6069351660981748,
                0.6548030517422262,
                -0.048780426635270394,
                0.4892807034457786,
                2.9726703988803735
            ]
        },
        {
            "positions": [
                -2.727788487447366,
                -0.5661727541225828,
                0.5600712135832613,
                -0.022496072460810493,
                0.5455948097369718,
                2.8091908925775053
            ]
        },
        {
            "positions": [
                -2.7358342804829108,
                -0.5254103421469908,
                0.46533937542429626,
                0.003788281713649408,
                0.6019089160281651,
                2.645711386274637
            ]
        },
        {
            "positions": [
                -2.7438800735184556,
                -0.48464793017139884,
                0.37060753726533135,
                0.03007263588810931,
                0.6582230223193584,
                2.482231879971769
            ]
        },
        {
            "positions": [
                -2.751925866554001,
                -0.4438855181958068,
                0.27587569910636633,
                0.05635699006256921,
                0.7145371286105516,
                2.3187523736689006
            ]
        },
        {
            "positions": [
                -2.759971659589546,
                -0.40312310622021486,
                0.18114386094740142,
                0.08264134423702911,
                0.7708512349017449,
                2.1552728673660324
            ]
        },
        {
            "positions": [
                -2.7680174526250907,
                -0.3623606942446228,
                0.08641202278843652,
                0.10892569841148901,
                0.8271653411929382,
                1.9917933610631642
            ]
        },
        {
            "positions": [
                -2.7760632456606356,
                -0.3215982822690308,
                -0.008319815370528394,
                0.13521005258594893,
                0.8834794474841314,
                1.828313854760296
            ]
        },
        {
            "positions": [
                -2.7841090386961804,
                -0.2808358702934388,
                -0.10305165352949339,
                0.16149440676040883,
                0.9397935537753246,
                1.6648343484574277
            ]
        },
        {
            "positions": [
                -2.7546814231886647,
                -0.2538681933232025,
                -0.21382577529451416,
                0.16171251199560435,
                0.966083241713102,
                1.5164163505419068
            ]
        },
        {
            "positions": [
                -2.725253807681149,
                -0.22690051635296618,
                -0.32459989705953496,
                0.16193061723079988,
                0.9923729296508795,
                1.367998352626386
            ]
        },
        {
            "positions": [
                -2.6958261921736333,
                -0.19993283938272988,
                -0.43537401882455573,
                0.16214872246599538,
                1.018662617588657,
                1.219580354710865
            ]
        },
        {
            "positions": [
                -2.6663985766661176,
                -0.17296516241249354,
                -0.5461481405895765,
                0.1623668277011909,
                1.0449523055264345,
                1.071162356795344
            ]
        },
        {
            "positions": [
                -2.636970961158602,
                -0.1459974854422572,
                -0.6569222623545973,
                0.16258493293638643,
                1.071241993464212,
                0.9227443588798231
            ]
        },
        {
            "positions": [
                -2.607543345651086,
                -0.11902980847202091,
                -0.767696384119618,
                0.16280303817158195,
                1.0975316814019893,
                0.7743263609643022
            ]
        },
        {
            "positions": [
                -2.4713882667172884,
                -0.16708425617854217,
                -0.8206771487523876,
                0.1290115314213296,
                1.0274379070400048,
                0.8292836655573779
            ]
        },
        {
            "positions": [
                -2.3352331877834906,
                -0.21513870388506345,
                -0.8736579133851572,
                0.09522002467107725,
                0.9573441326780201,
                0.8842409701504536
            ]
        },
        {
            "positions": [
                -2.199078108849693,
                -0.26319315159158474,
                -0.9266386780179268,
                0.061428517920824904,
                0.8872503583160355,
                0.9391982747435292
            ]
        },
        {
            "positions": [
                -2.062923029915895,
                -0.31124759929810597,
                -0.9796194426506963,
                0.027637011170572545,
                0.8171565839540509,
                0.9941555793366048
            ]
        },
        {
            "positions": [
                -1.9267679509820974,
                -0.35930204700462726,
                -1.032600207283466,
                -0.006154495579679786,
                0.7470628095920664,
                1.0491128839296806
            ]
        },
        {
            "positions": [
                -1.7906128720482997,
                -0.40735649471114854,
                -1.0855809719162355,
                -0.039946002329932145,
                0.6769690352300817,
                1.1040701885227562
            ]
        },
        {
            "positions": [
                -1.6544577931145017,
                -0.4554109424176698,
                -1.138561736549005,
                -0.0737375090801845,
                0.6068752608680971,
                1.159027493115832
            ]
        },
        {
            "positions": [
                -1.518302714180704,
                -0.503465390124191,
                -1.1915425011817746,
                -0.10752901583043686,
                0.5367814865061125,
                1.2139847977089075
            ]
        },
        {
            "positions": [
                -1.3821476352469062,
                -0.5515198378307123,
                -1.2445232658145442,
                -0.1413205225806892,
                0.46668771214412785,
                1.2689421023019833
            ]
        },
        {
            "positions": [
                -1.2459925563131085,
                -0.5995742855372336,
                -1.2975040304473138,
                -0.17511202933094153,
                0.39659393778214336,
                1.323899406895059
            ]
        },
        {
            "positions": [
                -1.1098374773793107,
                -0.6476287332437549,
                -1.3504847950800833,
                -0.2089035360811939,
                0.32650016342015864,
                1.3788567114881345
            ]
        },
        {
            "positions": [
                -0.973682398445513,
                -0.6956831809502761,
                -1.403465559712853,
                -0.24269504283144624,
                0.25640638905817414,
                1.43381401608121
            ]
        },
        {
            "positions": [
                -0.8375273195117152,
                -0.7437376286567974,
                -1.4564463243456225,
                -0.2764865495816986,
                0.18631261469618954,
                1.4887713206742859
            ]
        },
        {
            "positions": [
                -0.7013722405779172,
                -0.7917920763633187,
                -1.509427088978392,
                -0.31027805633195094,
                0.11621884033420482,
                1.5437286252673617
            ]
        },
        {
            "positions": [
                -0.5652171616441195,
                -0.83984652406984,
                -1.5624078536111616,
                -0.3440695630822034,
                0.046125065972220325,
                1.5986859298604372
            ]
        },
        {
            "positions": [
                -0.42906208271032176,
                -0.8879009717763612,
                -1.6153886182439312,
                -0.3778610698324557,
                -0.023968708389764393,
                1.6536432344535128
            ]
        },
        {
            "positions": [
                -0.29290700377652445,
                -0.9359554194828824,
                -1.6683693828767008,
                -0.41165257658270804,
                -0.09406248275174889,
                1.7086005390465884
            ]
        },
        {
            "positions": [
                -0.15675192484272626,
                -0.9840098671894039,
                -1.7213501475094704,
                -0.44544408333296037,
                -0.1641562571137336,
                1.7635578436396644
            ]
        },
        {
            "positions": [
                -0.02059684590892852,
                -1.032064314895925,
                -1.77433091214224,
                -0.4792355900832127,
                -0.2342500314757181,
                1.81851514823274
            ]
        },
        {
            "positions": [
                0.11555823302486923,
                -1.0801187626024462,
                -1.8273116767750095,
                -0.513027096833465,
                -0.3043438058377026,
                1.8734724528258155
            ]
        },
        {
            "positions": [
                0.251713311958667,
                -1.1281732103089674,
                -1.880292441407779,
                -0.5468186035837174,
                -0.3744375801996873,
                1.928429757418891
            ]
        },
        {
            "positions": [
                0.3878683908924647,
                -1.176227658015489,
                -1.9332732060405486,
                -0.5806101103339698,
                -0.44453135456167203,
                1.9833870620119671
            ]
        },
        {
            "positions": [
                0.5240234698262626,
                -1.2242821057220101,
                -1.9862539706733182,
                -0.6144016170842221,
                -0.5146251289236565,
                2.0383443666050427
            ]
        },
        {
            "positions": [
                0.4632989727803958,
                -1.2617832715248518,
                -2.0252367844423893,
                -0.735313754295206,
                -0.46773177598352145,
                2.1210562601457426
            ]
        },
        {
            "positions": [
                0.40257447573452904,
                -1.2992844373276933,
                -2.06421959821146,
                -0.8562258915061898,
                -0.42083842304338637,
                2.2037681536864424
            ]
        },
        {
            "positions": [
                0.3418499786886623,
                -1.3367856031305347,
                -2.103202411980531,
                -0.9771380287171736,
                -0.3739450701032513,
                2.2864800472271423
            ]
        },
        {
            "positions": [
                0.2811254816427955,
                -1.3742867689333764,
                -2.142185225749602,
                -1.0980501659281576,
                -0.3270517171631162,
                2.369191940767842
            ]
        },
        {
            "positions": [
                0.2204009845969287,
                -1.411787934736218,
                -2.181168039518673,
                -1.2189623031391412,
                -0.2801583642229811,
                2.451903834308542
            ]
        },
        {
            "positions": [
                0.15967648755106195,
                -1.4492891005390596,
                -2.220150853287744,
                -1.3398744403501253,
                -0.23326501128284605,
                2.5346157278492414
            ]
        },
        {
            "positions": [
                0.09895199050519515,
                -1.486790266341901,
                -2.259133667056815,
                -1.4607865775611089,
                -0.18637165834271097,
                2.6173276213899412
            ]
        },
        {
            "positions": [
                0.038227493459328354,
                -1.5242914321447427,
                -2.298116480825886,
                -1.581698714772093,
                -0.1394783054025759,
                2.700039514930641
            ]
        },
        {
            "positions": [
                -0.02249700358653839,
                -1.5617925979475844,
                -2.3370992945949567,
                -1.7026108519830767,
                -0.0925849524624408,
                2.782751408471341
            ]
        },
        {
            "positions": [
                -0.08322150063240519,
                -1.5992937637504259,
                -2.376082108364028,
                -1.8235229891940605,
                -0.04569159952230575,
                2.865463302012041
            ]
        },
        {
            "positions": [
                -0.11729318299049374,
                -1.647685292799256,
                -2.3708125832539277,
                -1.9478610091525168,
                -0.08991796872749999,
                2.961735212878725
            ]
        },
        {
            "positions": [
                -0.1513648653485823,
                -1.696076821848086,
                -2.365543058143828,
                -2.072199029110973,
                -0.13414433793269423,
                3.058007123745409
            ]
        },
        {
            "positions": [
                -0.18543654770667084,
                -1.744468350896916,
                -2.360273533033728,
                -2.1965370490694296,
                -0.17837070713788847,
                3.154279034612093
            ]
        }
    ]
}