{
    "goal": {
        "global_pose": {
            "orientation": {
                "w": 0.7031023502349854,
                "x": -0.7110244035720825,
                "y": 0.007748599164187908,
                "z": 0.005598929710686207
            },
            "position": {
                "x": 0.11585023208521307,
                "y": 0.44412534475326537,
                "z": 0.3711530566215515
            }
        },
        "name": "move_to_auspresseinheit_A"
    },
    "id": "LBKPIECE_move_to_auspresseinheit_A_16",
    "joint_names": [
        "shoulder_pan_joint",
        "shoulder_lift_joint",
        "elbow_joint",
        "wrist_1_joint",
        "wrist_2_joint",
        "wrist_3_joint"
    ],
    "metrics": {
        "cart_traj_len": 0.6885013950233406,
        "distance_elbow_joint": 0.03220517072483764,
        "distance_shoulder_lift_joint": 0.5336795992422256,
        "distance_shoulder_pan_joint": 1.0436217062308084,
        "distance_wrist_1_joint": 0.5774398895765978,
        "distance_wrist_2_joint": 0.5292469321279977,
        "distance_wrist_3_joint": 0.05965319566193816,
        "smoothness": 0.0,
        "time": 0.147125286,
        "traj_len": 1.666087180661446,
        "weighted_distance": 2.0004598737772463
    },
    "planner": "LBKPIECE",
    "start": {
        "state": {
            "elbow_joint": 2.4225746994637096,
            "shoulder_lift_joint": -1.373653595662188,
            "shoulder_pan_joint": -0.3378633848294565,
            "wrist_1_joint": -1.0288595594406726,
            "wrist_2_joint": 1.2330228066703421,
            "wrist_3_joint": 3.189163495502006
        }
    },
    "waypoints": [
        {
            "positions": [
                -0.3378633848294565,
                -1.373653595662188,
                2.4225746994637096,
                -1.0288595594406726,
                1.2330228066703421,
                3.189163495502006
            ]
        },
        {
            "positions": [
                -0.20741067155060544,
                -1.4403635455674662,
                2.418549053123105,
                -0.956679573243598,
                1.1668669401543423,
                3.1817068460442637
            ]
        },
        {
            "positions": [
                -0.07695795827175439,
                -1.5070734954727445,
                2.4145234067825,
                -0.8844995870465232,
                1.1007110736383428,
                3.174250196586521
            ]
        },
        {
            "positions": [
                0.05349475500709666,
                -1.5737834453780226,
                2.4104977604418956,
                -0.8123196008494484,
                1.034555207122343,
                3.166793547128779
            ]
        },
        {
            "positions": [
                0.1839474682859477,
                -1.640493395283301,
                2.406472114101291,
                -0.7401396146523738,
                0.9683993406063434,
                3.1593368976710368
            ]
        },
        {
            "positions": [
                0.3144001815647988,
                -1.707203345188579,
                2.402446467760686,
                -0.6679596284552991,
                0.9022434740903436,
                3.1518802482132946
            ]
        },
        {
            "positions": [
                0.4448528948436498,
                -1.7739132950938572,
                2.3984208214200815,
                -0.5957796422582243,
                0.8360876075743439,
                3.1444235987555524
            ]
        },
        {
            "positions": [
                0.5753056081225008,
                -1.8406232449991355,
                2.3943951750794765,
                -0.5235996560611496,
                0.7699317410583442,
                3.13696694929781
            ]
        },
        {
            "positions": [
                0.7057583214013519,
                -1.9073331949044137,
                2.390369528738872,
                -0.45141966986407495,
                0.7037758745423445,
                3.1295102998400677
            ]
        }
    ]
}