{
    "goal": {
        "global_pose": {
            "orientation": {
                "w": -0.4816463035849501,
                "x": 0.5182115481033762,
                "y": 0.4908360881923453,
                "z": -0.5084816262002911
            },
            "position": {
                "x": -0.8240239810943604,
                "y": -0.300875300988555,
                "z": 0.16403168439865112
            }
        },
        "name": "move_to_storage_C"
    },
    "id": "LBKPIECE_move_to_storage_C_114",
    "joint_names": [
        "shoulder_pan_joint",
        "shoulder_lift_joint",
        "elbow_joint",
        "wrist_1_joint",
        "wrist_2_joint",
        "wrist_3_joint"
    ],
    "metrics": {
        "cart_traj_len": 0.5769076165205412,
        "distance_elbow_joint": 0.2605136406293336,
        "distance_shoulder_lift_joint": 0.18980264511543588,
        "distance_shoulder_pan_joint": 0.4949538621102385,
        "distance_wrist_1_joint": 0.08794581637134247,
        "distance_wrist_2_joint": 1.067406739065476,
        "distance_wrist_3_joint": 0.06030802089348697,
        "smoothness": 2.5376526478085547e-16,
        "time": 0.31762373099999996,
        "traj_len": 1.4700104503660216,
        "weighted_distance": 1.8538876237272597
    },
    "planner": "LBKPIECE",
    "start": {
        "state": {
            "elbow_joint": 2.0108683149792914,
            "shoulder_lift_joint": -1.1634956873317392,
            "shoulder_pan_joint": -2.4736205022346,
            "wrist_1_joint": -0.8367026793690192,
            "wrist_2_joint": 0.6746043897045053,
            "wrist_3_joint": 3.133522094754363
        }
    },
    "waypoints": [
        {
            "positions": [
                -2.4736205022346,
                -1.1634956873317392,
                2.0108683149792914,
                -0.8367026793690192,
                0.6746043897045053,
                3.133522094754363
            ]
        },
        {
            "positions": [
                -2.5561128125863064,
                -1.1318619131458332,
                1.9674493748744024,
                -0.8220450433071288,
                0.8525055128820846,
                3.143573431569944
            ]
        },
        {
            "positions": [
                -2.6386051229380127,
                -1.1002281389599273,
                1.9240304347695136,
                -0.8073874072452384,
                1.030406636059664,
                3.1536247683855256
            ]
        },
        {
            "positions": [
                -2.721097433289719,
                -1.0685943647740213,
                1.8806114946646246,
                -0.792729771183348,
                1.2083077592372433,
                3.1636761052011066
            ]
        },
        {
            "positions": [
                -2.803589743641426,
                -1.0369605905881154,
                1.8371925545597356,
                -0.7780721351214576,
                1.3862088824148227,
                3.1737274420166877
            ]
        },
        {
            "positions": [
                -2.8860820539931322,
                -1.0053268164022093,
                1.7937736144548468,
                -0.7634144990595672,
                1.564110005592402,
                3.183778778832269
            ]
        },
        {
            "positions": [
                -2.9685743643448386,
                -0.9736930422163034,
                1.7503546743499578,
                -0.7487568629976767,
                1.7420111287699813,
                3.19383011564785
            ]
        }
    ]
}