{
    "goal": {
        "global_pose": {
            "orientation": {
                "w": -0.4816463035849501,
                "x": 0.5182115481033762,
                "y": 0.4908360881923453,
                "z": -0.5084816262002911
            },
            "position": {
                "x": -0.8240239810943604,
                "y": -0.300875300988555,
                "z": 0.16403168439865112
            }
        },
        "name": "move_to_storage_C"
    },
    "id": "LBKPIECE_move_to_storage_C_28",
    "joint_names": [
        "shoulder_pan_joint",
        "shoulder_lift_joint",
        "elbow_joint",
        "wrist_1_joint",
        "wrist_2_joint",
        "wrist_3_joint"
    ],
    "metrics": {
        "cart_traj_len": 0.5772566097124703,
        "distance_elbow_joint": 0.2615212373378768,
        "distance_shoulder_lift_joint": 0.18959493638899483,
        "distance_shoulder_pan_joint": 0.4949942004189034,
        "distance_wrist_1_joint": 0.08954066846994813,
        "distance_wrist_2_joint": 1.0685947972356598,
        "distance_wrist_3_joint": 0.05946335266128999,
        "smoothness": 0.0,
        "time": 0.557989188,
        "traj_len": 1.4709551973165846,
        "weighted_distance": 1.8549316331177441
    },
    "planner": "LBKPIECE",
    "start": {
        "state": {
            "elbow_joint": 2.0108683149792914,
            "shoulder_lift_joint": -1.1634956873317392,
            "shoulder_pan_joint": -2.4736205022346,
            "wrist_1_joint": -0.8367026793690192,
            "wrist_2_joint": 0.6746043897045053,
            "wrist_3_joint": 3.133522094754363
        }
    },
    "waypoints": [
        {
            "positions": [
                -2.4736205022346,
                -1.1634956873317392,
                2.0108683149792914,
                -0.8367026793690192,
                0.6746043897045053,
                3.133522094754363
            ]
        },
        {
            "positions": [
                -2.556119535637751,
                -1.1318965312669067,
                1.9672814420896452,
                -0.8217792346240278,
                0.8527035225771152,
                3.143432653531245
            ]
        },
        {
            "positions": [
                -2.638618569040901,
                -1.1002973752020744,
                1.9236945691999991,
                -0.8068557898790365,
                1.0308026554497252,
                3.1533432123081266
            ]
        },
        {
            "positions": [
                -2.7211176024440515,
                -1.0686982191372418,
                1.8801076963103531,
                -0.7919323451340452,
                1.2089017883223352,
                3.1632537710850084
            ]
        },
        {
            "positions": [
                -2.8036166358472023,
                -1.0370990630724093,
                1.8365208234207069,
                -0.7770089003890538,
                1.3870009211949452,
                3.1731643298618897
            ]
        },
        {
            "positions": [
                -2.886115669250353,
                -1.005499907007577,
                1.7929339505310606,
                -0.7620854556440624,
                1.565100054067555,
                3.1830748886387714
            ]
        },
        {
            "positions": [
                -2.9686147026535035,
                -0.9739007509427444,
                1.7493470776414146,
                -0.7471620108990711,
                1.743199186940165,
                3.192985447415653
            ]
        }
    ]
}