{
    "goal": {
        "global_pose": {
            "orientation": {
                "w": 0.7031023480610252,
                "x": -0.7110244013736278,
                "y": 0.0077485991402295624,
                "z": 0.005598929693374583
            },
            "position": {
                "x": -0.8841497679147869,
                "y": 0.44412534475326537,
                "z": 0.3711530566215515
            }
        },
        "name": "move_to_auspresseinheit_D"
    },
    "id": "LBKPIECE_move_to_auspresseinheit_D_94",
    "joint_names": [
        "shoulder_pan_joint",
        "shoulder_lift_joint",
        "elbow_joint",
        "wrist_1_joint",
        "wrist_2_joint",
        "wrist_3_joint"
    ],
    "metrics": {
        "cart_traj_len": 0.3427177791422482,
        "distance_elbow_joint": 0.6300880216430682,
        "distance_shoulder_lift_joint": 0.117411476017792,
        "distance_shoulder_pan_joint": 0.13435313905869609,
        "distance_wrist_1_joint": 0.5025929893797971,
        "distance_wrist_2_joint": 1.4364575033182803,
        "distance_wrist_3_joint": 0.02343474561640102,
        "smoothness": 0.0,
        "time": 0.311703517,
        "traj_len": 1.6865164911835386,
        "weighted_distance": 2.1977847617464534
    },
    "planner": "LBKPIECE",
    "start": {
        "state": {
            "elbow_joint": -1.8275484843655228,
            "shoulder_lift_joint": -2.1267897864000416,
            "shoulder_pan_joint": -0.035127520176001514,
            "wrist_1_joint": -2.3477863256791385,
            "wrist_2_joint": -1.605890476484521,
            "wrist_3_joint": -3.0880375317375353
        }
    },
    "waypoints": [
        {
            "positions": [
                -0.035127520176001514,
                -2.1267897864000416,
                -1.8275484843655228,
                -2.3477863256791385,
                -1.605890476484521,
                -3.0880375317375353
            ]
        },
        {
            "positions": [
                -0.05192166255833852,
                -2.1414662209022657,
                -1.7487874816601392,
                -2.410610449351613,
                -1.426333288569736,
                -3.0909668749395856
            ]
        },
        {
            "positions": [
                -0.06871580494067553,
                -2.15614265540449,
                -1.6700264789547556,
                -2.473434573024088,
                -1.246776100654951,
                -3.0938962181416354
            ]
        },
        {
            "positions": [
                -0.08550994732301255,
                -2.1708190899067135,
                -1.591265476249372,
                -2.5362586966965623,
                -1.067218912740166,
                -3.0968255613436857
            ]
        },
        {
            "positions": [
                -0.10230408970534956,
                -2.1854955244089376,
                -1.5125044735439888,
                -2.599082820369037,
                -0.8876617248253809,
                -3.099754904545736
            ]
        },
        {
            "positions": [
                -0.11909823208768656,
                -2.2001719589111617,
                -1.4337434708386052,
                -2.6619069440415117,
                -0.7081045369105958,
                -3.102684247747786
            ]
        },
        {
            "positions": [
                -0.13589237447002359,
                -2.2148483934133854,
                -1.3549824681332217,
                -2.724731067713986,
                -0.5285473489958108,
                -3.105613590949836
            ]
        },
        {
            "positions": [
                -0.1526865168523606,
                -2.2295248279156095,
                -1.276221465427838,
                -2.787555191386461,
                -0.34899016108102576,
                -3.108542934151886
            ]
        },
        {
            "positions": [
                -0.1694806592346976,
                -2.2442012624178336,
                -1.1974604627224545,
                -2.8503793150589356,
                -0.16943297316624065,
                -3.1114722773539363
            ]
        }
    ]
}