{
    "goal": {
        "global_pose": {
            "orientation": {
                "w": 0.5084816217422485,
                "x": -0.49083608388900757,
                "y": 0.5182115435600281,
                "z": -0.4816462993621826
            },
            "position": {
                "x": 0.5540239810943604,
                "y": 0.030875300988554955,
                "z": 0.16403168439865112
            }
        },
        "name": "move_to_storage_A"
    },
    "id": "LBKPIECE_move_to_storage_A_129",
    "joint_names": [
        "shoulder_pan_joint",
        "shoulder_lift_joint",
        "elbow_joint",
        "wrist_1_joint",
        "wrist_2_joint",
        "wrist_3_joint"
    ],
    "metrics": {
        "cart_traj_len": 0.3524985443311325,
        "distance_elbow_joint": 0.44951761432179205,
        "distance_shoulder_lift_joint": 0.2332568850587302,
        "distance_shoulder_pan_joint": 0.4567142564313499,
        "distance_wrist_1_joint": 0.24719276048523997,
        "distance_wrist_2_joint": 1.1149309227988966,
        "distance_wrist_3_joint": 0.08838156700726074,
        "smoothness": 4.440892098500626e-16,
        "time": 0.553872766,
        "traj_len": 1.6093458317289262,
        "weighted_distance": 2.0319647692324607
    },
    "planner": "LBKPIECE",
    "start": {
        "state": {
            "elbow_joint": 1.971548880431181,
            "shoulder_lift_joint": -1.1394869514688781,
            "shoulder_pan_joint": 0.12281150262730567,
            "wrist_1_joint": -0.7804693444481463,
            "wrist_2_joint": 0.12958644648617612,
            "wrist_3_joint": 3.0906942077768043
        }
    },
    "waypoints": [
        {
            "positions": [
                0.12281150262730567,
                -1.1394869514688781,
                1.971548880431181,
                -0.7804693444481463,
                0.12958644648617612,
                3.0906942077768043
            ]
        },
        {
            "positions": [
                0.05756660885139854,
                -1.1728093636201253,
                2.0357656824771513,
                -0.8157825959460377,
                0.28886229260030416,
                3.1033201459206987
            ]
        },
        {
            "positions": [
                -0.007678284924508588,
                -1.2061317757713725,
                2.0999824845231214,
                -0.8510958474439292,
                0.44813813871443225,
                3.115946084064593
            ]
        },
        {
            "positions": [
                -0.0729231787004157,
                -1.2394541879226197,
                2.164199286569092,
                -0.8864090989418205,
                0.6074139848285603,
                3.1285720222084876
            ]
        },
        {
            "positions": [
                -0.13816807247632285,
                -1.2727766000738667,
                2.228416088615062,
                -0.921722350439712,
                0.7666898309426884,
                3.1411979603523816
            ]
        },
        {
            "positions": [
                -0.20341296625223,
                -1.306099012225114,
                2.2926328906610323,
                -0.9570356019376034,
                0.9259656770568165,
                3.153823898496276
            ]
        },
        {
            "positions": [
                -0.2686578600281371,
                -1.3394214243763611,
                2.356849692707003,
                -0.9923488534354948,
                1.0852415231709447,
                3.1664498366401705
            ]
        },
        {
            "positions": [
                -0.3339027538040442,
                -1.3727438365276083,
                2.421066494752973,
                -1.0276621049333863,
                1.2445173692850726,
                3.179075774784065
            ]
        }
    ]
}