{
    "goal": {
        "global_pose": {
            "orientation": {
                "w": -0.4816463035849501,
                "x": 0.5182115481033762,
                "y": 0.4908360881923453,
                "z": -0.5084816262002911
            },
            "position": {
                "x": -0.8240239810943604,
                "y": 0.19912469901144506,
                "z": 0.16403168439865112
            }
        },
        "name": "move_to_storage_D"
    },
    "id": "LBKPIECE_move_to_storage_D_107",
    "joint_names": [
        "shoulder_pan_joint",
        "shoulder_lift_joint",
        "elbow_joint",
        "wrist_1_joint",
        "wrist_2_joint",
        "wrist_3_joint"
    ],
    "metrics": {
        "cart_traj_len": 7.399412739914267,
        "distance_elbow_joint": 6.248295089854798,
        "distance_shoulder_lift_joint": 2.8524271857355665,
        "distance_shoulder_pan_joint": 2.812282914885675,
        "distance_wrist_1_joint": 2.796537093603394,
        "distance_wrist_2_joint": 2.570606215654669,
        "distance_wrist_3_joint": 3.502562380118004,
        "smoothness": 0.6242106516426177,
        "time": 0.176892355,
        "traj_len": 4.558805861171554,
        "weighted_distance": 5.7580360323070385
    },
    "planner": "LBKPIECE",
    "start": {
        "state": {
            "elbow_joint": -2.384821990628643,
            "shoulder_lift_joint": -2.278805467437664,
            "shoulder_pan_joint": -0.18546946439364564,
            "wrist_1_joint": 1.4845938187801415,
            "wrist_2_joint": 0.178987772454074,
            "wrist_3_joint": 0.03710569632802521
        }
    },
    "waypoints": [
        {
            "positions": [
                -0.18546946439364564,
                -2.278805467437664,
                -2.384821990628643,
                1.4845938187801415,
                0.178987772454074,
                0.03710569632802521
            ]
        },
        {
            "positions": [
                -0.11796526557522613,
                -2.2348488081724875,
                -2.341812673280324,
                1.523896158619305,
                0.11805225786553891,
                0.09109579084199894
            ]
        },
        {
            "positions": [
                -0.050461066756806616,
                -2.1908921489073108,
                -2.2988033559320042,
                1.5631984984584684,
                0.05711674327700382,
                0.14508588535597267
            ]
        },
        {
            "positions": [
                0.011897110516083977,
                -2.163735648688576,
                -2.1761420579606265,
                1.4692081359012963,
                0.052793611260285804,
                0.07261259716497914
            ]
        },
        {
            "positions": [
                0.07425528778897457,
                -2.136579148469842,
                -2.0534807599892484,
                1.3752177733441244,
                0.04847047924356779,
                0.00013930897398561903
            ]
        },
        {
            "positions": [
                0.13661346506186514,
                -2.1094226482511074,
                -1.9308194620178705,
                1.2812274107869523,
                0.04414734722684978,
                -0.0723339792170079
            ]
        },
        {
            "positions": [
                0.19897164233475576,
                -2.0822661480323728,
                -1.8081581640464925,
                1.1872370482297803,
                0.03982421521013176,
                -0.14480726740800143
            ]
        },
        {
            "positions": [
                0.26132981960764634,
                -2.0551096478136386,
                -1.6854968660751148,
                1.0932466856726084,
                0.035501083193413746,
                -0.21728055559899495
            ]
        },
        {
            "positions": [
                0.3236879968805369,
                -2.027953147594904,
                -1.5628355681037367,
                0.9992563231154364,
                0.031177951176695737,
                -0.2897538437899885
            ]
        },
        {
            "positions": [
                0.3860461741534275,
                -2.00079664737617,
                -1.440174270132359,
                0.9052659605582645,
                0.02685481915997772,
                -0.362227131980982
            ]
        },
        {
            "positions": [
                0.4484043514263181,
                -1.9736401471574352,
                -1.3175129721609808,
                0.8112755980010924,
                0.022531687143259704,
                -0.4347004201719755
            ]
        },
        {
            "positions": [
                0.5107625286992087,
                -1.9464836469387008,
                -1.1948516741896031,
                0.7172852354439204,
                0.018208555126541695,
                -0.507173708362969
            ]
        },
        {
            "positions": [
                0.5731207059720993,
                -1.9193271467199664,
                -1.0721903762182252,
                0.6232948728867485,
                0.013885423109823679,
                -0.5796469965539626
            ]
        },
        {
            "positions": [
                0.6354788832449899,
                -1.8921706465012318,
                -0.9495290782468473,
                0.5293045103295764,
                0.009562291093105663,
                -0.6521202847449561
            ]
        },
        {
            "positions": [
                0.6978370605178804,
                -1.8650141462824974,
                -0.8268677802754694,
                0.4353141477724045,
                0.005239159076387653,
                -0.7245935729359496
            ]
        },
        {
            "positions": [
                0.760195237790771,
                -1.837857646063763,
                -0.7042064823040914,
                0.34132378521523243,
                0.0009160270596696371,
                -0.7970668611269431
            ]
        },
        {
            "positions": [
                0.8225534150636616,
                -1.8107011458450284,
                -0.5815451843327135,
                0.24733342265806058,
                -0.003407104957048379,
                -0.8695401493179367
            ]
        },
        {
            "positions": [
                0.8849115923365524,
                -1.783544645626294,
                -0.45888388636133537,
                0.15334306010088827,
                -0.007730236973766402,
                -0.9420134375089304
            ]
        },
        {
            "positions": [
                0.9472697696094429,
                -1.7563881454075596,
                -0.33622258838995767,
                0.059352697543716415,
                -0.012053368990484412,
                -1.0144867256999237
            ]
        },
        {
            "positions": [
                1.0096279468823335,
                -1.729231645188825,
                -0.21356129041857974,
                -0.034637665013455665,
                -0.01637650100720242,
                -1.0869600138909175
            ]
        },
        {
            "positions": [
                1.071986124155224,
                -1.7020751449700908,
                -0.09089999244720204,
                -0.12862802757062752,
                -0.02069963302392043,
                -1.1594333020819108
            ]
        },
        {
            "positions": [
                1.1343443014281147,
                -1.6749186447513562,
                0.03176130552417611,
                -0.2226183901277996,
                -0.025022765040638453,
                -1.2319065902729045
            ]
        },
        {
            "positions": [
                1.1967024787010052,
                -1.6477621445326218,
                0.1544226034955538,
                -0.31660875268497146,
                -0.029345897057356463,
                -1.3043798784638978
            ]
        },
        {
            "positions": [
                1.259060655973896,
                -1.6206056443138874,
                0.27708390146693196,
                -0.41059911524214354,
                -0.033669029074074486,
                -1.3768531666548915
            ]
        },
        {
            "positions": [
                1.3214188332467864,
                -1.5934491440951528,
                0.39974519943830966,
                -0.5045894777993156,
                -0.037992161090792495,
                -1.4493264548458848
            ]
        },
        {
            "positions": [
                1.383777010519677,
                -1.5662926438764184,
                0.5224064974096878,
                -0.5985798403564877,
                -0.04231529310751052,
                -1.5217997430368786
            ]
        },
        {
            "positions": [
                1.4461351877925674,
                -1.539136143657684,
                0.6450677953810655,
                -0.6925702029136593,
                -0.046638425124228514,
                -1.594273031227872
            ]
        },
        {
            "positions": [
                1.5084933650654582,
                -1.5119796434389494,
                0.7677290933524437,
                -0.7865605654708314,
                -0.05096155714094654,
                -1.6667463194188656
            ]
        },
        {
            "positions": [
                1.5708515423383487,
                -1.4848231432202152,
                0.8903903913238214,
                -0.8805509280280035,
                -0.055284689157664546,
                -1.739219607609859
            ]
        },
        {
            "positions": [
                1.6332097196112394,
                -1.4576666430014806,
                1.0130516892951995,
                -0.9745412905851756,
                -0.05960782117438257,
                -1.8116928958008527
            ]
        },
        {
            "positions": [
                1.6900536302926854,
                -1.5105621832732765,
                0.945173976956628,
                -0.9741386449979645,
                0.05499675419122575,
                -1.9023717570854124
            ]
        },
        {
            "positions": [
                1.7468975409741312,
                -1.5634577235450724,
                0.8772962646180564,
                -0.9737359994107535,
                0.16960132955683407,
                -1.9930506183699719
            ]
        },
        {
            "positions": [
                1.8037414516555772,
                -1.6163532638168683,
                0.809418552279485,
                -0.9733333538235425,
                0.28420590492244246,
                -2.0837294796545316
            ]
        },
        {
            "positions": [
                1.8605853623370232,
                -1.6692488040886642,
                0.7415408399409135,
                -0.9729307082363313,
                0.3988104802880507,
                -2.1744083409390913
            ]
        },
        {
            "positions": [
                1.917429273018469,
                -1.7221443443604598,
                0.6736631276023419,
                -0.9725280626491203,
                0.5134150556536591,
                -2.265087202223651
            ]
        },
        {
            "positions": [
                1.974273183699915,
                -1.775039884632256,
                0.6057854152637704,
                -0.9721254170619092,
                0.6280196310192675,
                -2.3557660635082103
            ]
        },
        {
            "positions": [
                2.031117094381361,
                -1.8279354249040516,
                0.5379077029251988,
                -0.9717227714746982,
                0.7426242063848758,
                -2.44644492479277
            ]
        },
        {
            "positions": [
                2.087961005062807,
                -1.8808309651758477,
                0.4700299905866274,
                -0.9713201258874872,
                0.857228781750484,
                -2.5371237860773297
            ]
        },
        {
            "positions": [
                2.144804915744253,
                -1.9337265054476434,
                0.4021522782480559,
                -0.9709174803002761,
                0.9718333571160923,
                -2.6278026473618894
            ]
        },
        {
            "positions": [
                2.201648826425699,
                -1.9866220457194392,
                0.33427456590948434,
                -0.9705148347130651,
                1.0864379324817008,
                -2.718481508646449
            ]
        },
        {
            "positions": [
                2.2584927371071446,
                -2.039517585991235,
                0.2663968535709129,
                -0.9701121891258541,
                1.2010425078473088,
                -2.809160369931009
            ]
        },
        {
            "positions": [
                2.315336647788591,
                -2.092413126263031,
                0.19851914123234127,
                -0.9697095435386429,
                1.3156470832129177,
                -2.8998392312155685
            ]
        },
        {
            "positions": [
                2.3721805584700366,
                -2.145308666534827,
                0.13064142889376973,
                -0.9693068979514319,
                1.4302516585785257,
                -2.9905180925001282
            ]
        },
        {
            "positions": [
                2.4290244691514826,
                -2.198204206806623,
                0.0627637165551983,
                -0.9689042523642208,
                1.544856233944134,
                -3.0811969537846875
            ]
        },
        {
            "positions": [
                2.4858683798329286,
                -2.2510997470784186,
                -0.0051139957833733485,
                -0.9685016067770098,
                1.6594608093097425,
                -3.171875815069247
            ]
        },
        {
            "positions": [
                2.498681568074665,
                -2.138567450967287,
                0.1614547064759344,
                -0.9526695212248955,
                1.6037388100786438,
                -3.1648194068269895
            ]
        },
        {
            "positions": [
                2.5114947563164014,
                -2.0260351548561557,
                0.32802340873524216,
                -0.9368374356727811,
                1.5480168108475452,
                -3.1577629985847313
            ]
        },
        {
            "positions": [
                2.5243079445581382,
                -1.9135028587450247,
                0.49459211099454986,
                -0.9210053501206668,
                1.4922948116164463,
                -3.1507065903424736
            ]
        },
        {
            "positions": [
                2.5371211327998746,
                -1.8009705626338932,
                0.6611608132538577,
                -0.9051732645685524,
                1.4365728123853476,
                -3.143650182100216
            ]
        },
        {
            "positions": [
                2.549934321041611,
                -1.6884382665227617,
                0.8277295155131653,
                -0.889341179016438,
                1.380850813154249,
                -3.136593773857958
            ]
        },
        {
            "positions": [
                2.5627475092833474,
                -1.5759059704116305,
                0.9942982177724731,
                -0.8735090934643237,
                1.3251288139231503,
                -3.1295373656157
            ]
        },
        {
            "positions": [
                2.5755606975250838,
                -1.463373674300499,
                1.160866920031781,
                -0.8576770079122092,
                1.2694068146920516,
                -3.1224809573734422
            ]
        },
        {
            "positions": [
                2.58837388576682,
                -1.3508413781893678,
                1.3274356222910888,
                -0.8418449223600949,
                1.2136848154609527,
                -3.1154245491311845
            ]
        },
        {
            "positions": [
                2.601187074008557,
                -1.2383090820782363,
                1.4940043245503967,
                -0.8260128368079805,
                1.157962816229854,
                -3.1083681408889268
            ]
        },
        {
            "positions": [
                2.6140002622502934,
                -1.125776785967105,
                1.660573026809704,
                -0.8101807512558662,
                1.1022408169987554,
                -3.1013117326466686
            ]
        },
        {
            "positions": [
                2.6268134504920297,
                -1.0132444898559736,
                1.8271417290690117,
                -0.7943486657037518,
                1.0465188177676568,
                -3.094255324404411
            ]
        }
    ]
}