{
    "goal": {
        "global_pose": {
            "orientation": {
                "w": 0.005598929693374612,
                "x": 0.007748599140229565,
                "y": 0.7110244013736278,
                "z": -0.7031023480610252
            },
            "position": {
                "x": 0.1141497679147869,
                "y": -0.7141253447532654,
                "z": 0.3711530566215515
            }
        },
        "name": "move_to_auspresseinheit_B"
    },
    "id": "LBKPIECE_move_to_auspresseinheit_B_37",
    "joint_names": [
        "shoulder_pan_joint",
        "shoulder_lift_joint",
        "elbow_joint",
        "wrist_1_joint",
        "wrist_2_joint",
        "wrist_3_joint"
    ],
    "metrics": {
        "cart_traj_len": 0.5642831052745255,
        "distance_elbow_joint": 0.06386377058216852,
        "distance_shoulder_lift_joint": 0.29489681200348006,
        "distance_shoulder_pan_joint": 0.5769458123758116,
        "distance_wrist_1_joint": 0.3312343791899688,
        "distance_wrist_2_joint": 0.9896818742801259,
        "distance_wrist_3_joint": 0.00820359260189818,
        "smoothness": 0.0,
        "time": 0.268933482,
        "traj_len": 1.5049339656720666,
        "weighted_distance": 1.8979330019016332
    },
    "planner": "LBKPIECE",
    "start": {
        "state": {
            "elbow_joint": 2.0193061681459312,
            "shoulder_lift_joint": -1.1220205130644991,
            "shoulder_pan_joint": -1.0952072088045026,
            "wrist_1_joint": -0.8559671810662515,
            "wrist_2_joint": 0.4759638712940361,
            "wrist_3_joint": 3.159081874192446
        }
    },
    "waypoints": [
        {
            "positions": [
                -1.0952072088045026,
                -1.1220205130644991,
                2.0193061681459312,
                -0.8559671810662515,
                0.4759638712940361,
                3.159081874192446
            ]
        },
        {
            "positions": [
                -1.1913648442004712,
                -1.1711699817317458,
                2.0086622063822364,
                -0.8007614512012566,
                0.6409108503407237,
                3.157714608758796
            ]
        },
        {
            "positions": [
                -1.2875224795964397,
                -1.2203194503989925,
                1.9980182446185417,
                -0.7455557213362619,
                0.8058578293874115,
                3.1563473433251468
            ]
        },
        {
            "positions": [
                -1.3836801149924085,
                -1.2694689190662392,
                1.987374282854847,
                -0.6903499914712671,
                0.970804808434099,
                3.154980077891497
            ]
        },
        {
            "positions": [
                -1.479837750388377,
                -1.3186183877334858,
                1.9767303210911522,
                -0.6351442616062724,
                1.1357517874807868,
                3.153612812457847
            ]
        },
        {
            "positions": [
                -1.5759953857843456,
                -1.3677678564007325,
                1.9660863593274573,
                -0.5799385317412775,
                1.3006987665274743,
                3.1522455470241977
            ]
        },
        {
            "positions": [
                -1.6721530211803142,
                -1.4169173250679792,
                1.9554423975637627,
                -0.5247328018762827,
                1.465645745574162,
                3.150878281590548
            ]
        }
    ]
}