{
    "goal": {
        "global_pose": {
            "orientation": {
                "w": -0.00223480608172531,
                "x": 0.0024358444001904467,
                "y": 0.7094548369677653,
                "z": -0.704743149386269
            },
            "position": {
                "x": -0.37947507619857795,
                "y": -0.6371506643295288,
                "z": 0.19426114857196808
            }
        },
        "name": "move_to_magneteinheit_C"
    },
    "id": "LBKPIECE_move_to_magneteinheit_C_104",
    "joint_names": [
        "shoulder_pan_joint",
        "shoulder_lift_joint",
        "elbow_joint",
        "wrist_1_joint",
        "wrist_2_joint",
        "wrist_3_joint"
    ],
    "metrics": {
        "cart_traj_len": 1.8814596740582248,
        "distance_elbow_joint": 0.902497703357364,
        "distance_shoulder_lift_joint": 0.9683476724768287,
        "distance_shoulder_pan_joint": 1.9542474776877519,
        "distance_wrist_1_joint": 1.9129427840378002,
        "distance_wrist_2_joint": 0.8781754284645495,
        "distance_wrist_3_joint": 2.230911757340024,
        "smoothness": 1.1111449365910269,
        "time": 0.257568511,
        "traj_len": 2.9744113406461317,
        "weighted_distance": 4.012488573260578
    },
    "planner": "LBKPIECE",
    "start": {
        "state": {
            "elbow_joint": 1.9565354006593851,
            "shoulder_lift_joint": -1.4165861576512813,
            "shoulder_pan_joint": -1.6717766223278752,
            "wrist_1_joint": -0.528663328821883,
            "wrist_2_joint": 1.472756589259273,
            "wrist_3_joint": 3.159348288315503
        }
    },
    "waypoints": [
        {
            "positions": [
                -1.6717766223278752,
                -1.4165861576512813,
                1.9565354006593851,
                -0.528663328821883,
                1.472756589259273,
                3.159348288315503
            ]
        },
        {
            "positions": [
                -1.6684920632846634,
                -1.4402985653848948,
                1.9222744097694862,
                -0.5980348504157937,
                1.482179313818559,
                3.1523218233584007
            ]
        },
        {
            "positions": [
                -1.663565224719846,
                -1.4758671769853147,
                1.8708829234346376,
                -0.7020921328066597,
                1.4963134006574879,
                3.141782125922747
            ]
        },
        {
            "positions": [
                -1.6586383861550287,
                -1.5114357885857346,
                1.8194914370997888,
                -0.8061494151975257,
                1.5104474874964167,
                3.1312424284870937
            ]
        },
        {
            "positions": [
                -1.6090463135506898,
                -1.539713831951643,
                1.7230683255796435,
                -0.8034393855023663,
                1.4782311563453259,
                3.0238586677205572
            ]
        },
        {
            "positions": [
                -1.5594542409463512,
                -1.5679918753175515,
                1.6266452140594985,
                -0.8007293558072068,
                1.446014825194235,
                2.916474906954021
            ]
        },
        {
            "positions": [
                -1.5098621683420124,
                -1.59626991868346,
                1.5302221025393532,
                -0.7980193261120474,
                1.4137984940431443,
                2.8090911461874843
            ]
        },
        {
            "positions": [
                -1.6351087127624178,
                -1.6123665472011588,
                1.5596539537598748,
                -0.7250256169546153,
                1.3659514631847653,
                2.7375166298202274
            ]
        },
        {
            "positions": [
                -1.7603552571828232,
                -1.6284631757188577,
                1.5890858049803964,
                -0.6520319077971832,
                1.3181044323263866,
                2.6659421134529704
            ]
        },
        {
            "positions": [
                -1.8856018016032285,
                -1.6445598042365568,
                1.618517656200918,
                -0.5790381986397511,
                1.2702574014680077,
                2.5943675970857134
            ]
        },
        {
            "positions": [
                -2.010848346023634,
                -1.6606564327542557,
                1.6479495074214396,
                -0.5060444894823191,
                1.2224103706096288,
                2.5227930807184564
            ]
        },
        {
            "positions": [
                -2.1360948904440393,
                -1.6767530612719546,
                1.6773813586419613,
                -0.4330507803248869,
                1.17456333975125,
                2.4512185643511994
            ]
        },
        {
            "positions": [
                -2.2613414348644447,
                -1.6928496897896534,
                1.7068132098624829,
                -0.36005707116745483,
                1.126716308892871,
                2.379644047983943
            ]
        },
        {
            "positions": [
                -2.38658797928485,
                -1.7089463183073523,
                1.7362450610830047,
                -0.2870633620100227,
                1.0788692780344924,
                2.308069531616686
            ]
        },
        {
            "positions": [
                -2.5118345237052555,
                -1.7250429468250514,
                1.7656769123035263,
                -0.2140696528525906,
                1.0310222471761135,
                2.236495015249429
            ]
        },
        {
            "positions": [
                -2.637081068125661,
                -1.7411395753427503,
                1.795108763524048,
                -0.14107594369515852,
                0.9831752163177345,
                2.164920498882172
            ]
        },
        {
            "positions": [
                -2.7623276125460663,
                -1.7572362038604492,
                1.8245406147445695,
                -0.06808223453772644,
                0.9353281854593558,
                2.093345982514915
            ]
        },
        {
            "positions": [
                -2.8875741569664717,
                -1.773332832378148,
                1.8539724659650911,
                0.004911474619705647,
                0.8874811546009769,
                2.021771466147658
            ]
        },
        {
            "positions": [
                -2.8415051530689794,
                -1.7053771659614856,
                1.870909581721935,
                -0.08668805958528611,
                0.8633124660085362,
                2.1432531256112335
            ]
        },
        {
            "positions": [
                -2.795436149171487,
                -1.6374214995448233,
                1.8878466974787786,
                -0.17828759379027787,
                0.8391437774160955,
                2.264734785074809
            ]
        },
        {
            "positions": [
                -2.749367145273995,
                -1.5694658331281608,
                1.9047838132356225,
                -0.2698871279952696,
                0.8149750888236548,
                2.3862164445383844
            ]
        },
        {
            "positions": [
                -2.7032981413765027,
                -1.5015101667114985,
                1.9217209289924664,
                -0.3614866622002614,
                0.7908064002312141,
                2.5076981040019595
            ]
        },
        {
            "positions": [
                -2.657229137479011,
                -1.4335545002948358,
                1.93865804474931,
                -0.45308619640525316,
                0.7666377116387735,
                2.629179763465535
            ]
        },
        {
            "positions": [
                -2.6111601335815187,
                -1.3655988338781735,
                1.955595160506154,
                -0.5446857306102448,
                0.7424690230463328,
                2.7506614229291104
            ]
        },
        {
            "positions": [
                -2.5650911296840264,
                -1.297643167461511,
                1.9725322762629978,
                -0.6362852648152367,
                0.7183003344538921,
                2.872143082392686
            ]
        },
        {
            "positions": [
                -2.519022125786534,
                -1.2296875010448487,
                1.9894693920198414,
                -0.7278847990202284,
                0.6941316458614514,
                2.9936247418562614
            ]
        },
        {
            "positions": [
                -2.472953121889042,
                -1.1617318346281862,
                2.0064065077766853,
                -0.8194843332252202,
                0.6699629572690107,
                3.115106401319837
            ]
        }
    ]
}