{
    "goal": {
        "global_pose": {
            "orientation": {
                "w": 0.5084816262002911,
                "x": -0.4908360881923452,
                "y": 0.5182115481033761,
                "z": -0.48164630358495003
            },
            "position": {
                "x": 0.5540239810943604,
                "y": -0.46912469901144505,
                "z": 0.16403168439865112
            }
        },
        "name": "move_to_storage_B"
    },
    "id": "LBKPIECE_move_to_storage_B_27",
    "joint_names": [
        "shoulder_pan_joint",
        "shoulder_lift_joint",
        "elbow_joint",
        "wrist_1_joint",
        "wrist_2_joint",
        "wrist_3_joint"
    ],
    "metrics": {
        "cart_traj_len": 0.9587996726289876,
        "distance_elbow_joint": 0.7420869158483681,
        "distance_shoulder_lift_joint": 0.457601731762145,
        "distance_shoulder_pan_joint": 0.7950132671241184,
        "distance_wrist_1_joint": 2.9926575878832677,
        "distance_wrist_2_joint": 2.701455342704628,
        "distance_wrist_3_joint": 3.1565887123253504,
        "smoothness": 0.06557584938204976,
        "time": 0.52339506,
        "traj_len": 3.293236031268922,
        "weighted_distance": 4.780449132967161
    },
    "planner": "LBKPIECE",
    "start": {
        "state": {
            "elbow_joint": 1.6649325340416963,
            "shoulder_lift_joint": -0.6616387945129425,
            "shoulder_pan_joint": -0.9139837929255878,
            "wrist_1_joint": 2.1467571094334352,
            "wrist_2_joint": -2.234195976750228,
            "wrist_3_joint": 0.005470921511140723
        }
    },
    "waypoints": [
        {
            "positions": [
                -0.9139837929255878,
                -0.6616387945129425,
                1.6649325340416963,
                2.1467571094334352,
                -2.234195976750228,
                0.005470921511140723
            ]
        },
        {
            "positions": [
                -0.9070826361262794,
                -0.6639861076553832,
                1.6606443705112404,
                2.1330035509743146,
                -2.220445633614716,
                0.0021446720015818664
            ]
        },
        {
            "positions": [
                -0.8612646027920219,
                -0.6758255089548294,
                1.625669492513457,
                1.9993995915016767,
                -2.0881022244867804,
                0.0023376929838340214
            ]
        },
        {
            "positions": [
                -0.8154465694577645,
                -0.6876649102542757,
                1.5906946145156737,
                1.8657956320290388,
                -1.955758815358845,
                0.002530713966086176
            ]
        },
        {
            "positions": [
                -0.769628536123507,
                -0.6995043115537218,
                1.5557197365178903,
                1.7321916725564006,
                -1.8234154062309094,
                0.002723734948338331
            ]
        },
        {
            "positions": [
                -0.7548335717308259,
                -0.7192639174584212,
                1.547800976240854,
                1.590169854507399,
                -1.6929539699912504,
                0.07326683015119817
            ]
        },
        {
            "positions": [
                -0.7400386073381449,
                -0.7390235233631207,
                1.5398822159638177,
                1.4481480364583972,
                -1.5624925337515911,
                0.143809925354058
            ]
        },
        {
            "positions": [
                -0.7252436429454637,
                -0.7587831292678201,
                1.5319634556867814,
                1.3061262184093956,
                -1.4320310975119321,
                0.21435302055691782
            ]
        },
        {
            "positions": [
                -0.7104486785527826,
                -0.7785427351725196,
                1.524044695409745,
                1.1641044003603938,
                -1.3015696612722731,
                0.2848961157597777
            ]
        },
        {
            "positions": [
                -0.6956537141601015,
                -0.798302341077219,
                1.5161259351327088,
                1.0220825823113922,
                -1.1711082250326141,
                0.35543921096263753
            ]
        },
        {
            "positions": [
                -0.6808587497674204,
                -0.8180619469819184,
                1.5082071748556727,
                0.8800607642623905,
                -1.0406467887929551,
                0.4259823061654973
            ]
        },
        {
            "positions": [
                -0.6660637853747393,
                -0.8378215528866177,
                1.5002884145786364,
                0.7380389462133888,
                -0.9101853525532961,
                0.4965254013683572
            ]
        },
        {
            "positions": [
                -0.6512688209820582,
                -0.8575811587913172,
                1.4923696543016,
                0.5960171281643871,
                -0.7797239163136369,
                0.567068496571217
            ]
        },
        {
            "positions": [
                -0.636473856589377,
                -0.8773407646960166,
                1.4844508940245638,
                0.4539953101153853,
                -0.6492624800739779,
                0.6376115917740769
            ]
        },
        {
            "positions": [
                -0.621678892196696,
                -0.8971003706007161,
                1.4765321337475275,
                0.3119734920663839,
                -0.5188010438343189,
                0.7081546869769367
            ]
        },
        {
            "positions": [
                -0.6068839278040149,
                -0.9168599765054155,
                1.4686133734704911,
                0.16995167401738215,
                -0.3883396075946598,
                0.7786977821797966
            ]
        },
        {
            "positions": [
                -0.641734885089911,
                -0.931315730060392,
                1.507596784561717,
                0.09739080598400957,
                -0.32722539519829835,
                0.9484627359396235
            ]
        },
        {
            "positions": [
                -0.6765858423758071,
                -0.9457714836153687,
                1.546580195652943,
                0.024829937950636982,
                -0.2661111828019369,
                1.1182276896994505
            ]
        },
        {
            "positions": [
                -0.7114367996617033,
                -0.9602272371703452,
                1.585563606744169,
                -0.0477309300827356,
                -0.20499697040557546,
                1.2879926434592774
            ]
        },
        {
            "positions": [
                -0.7462877569475993,
                -0.9746829907253218,
                1.624547017835395,
                -0.12029179811610818,
                -0.143882758009214,
                1.4577575972191044
            ]
        },
        {
            "positions": [
                -0.7811387142334953,
                -0.9891387442802984,
                1.6635304289266208,
                -0.19285266614948077,
                -0.08276854561285252,
                1.6275225509789313
            ]
        },
        {
            "positions": [
                -0.8159896715193915,
                -1.0035944978352749,
                1.7025138400178466,
                -0.26541353418285335,
                -0.02165433321649113,
                1.7972875047387582
            ]
        },
        {
            "positions": [
                -0.8508406288052877,
                -1.0180502513902514,
                1.7414972511090725,
                -0.33797440221622593,
                0.03945987917987037,
                1.9670524584985851
            ]
        },
        {
            "positions": [
                -0.8856915860911837,
                -1.0325060049452282,
                1.7804806622002984,
                -0.4105352702495985,
                0.10057409157623182,
                2.136817412258412
            ]
        },
        {
            "positions": [
                -0.9205425433770797,
                -1.0469617585002047,
                1.8194640732915244,
                -0.4830961382829711,
                0.16168830397259337,
                2.306582366018239
            ]
        },
        {
            "positions": [
                -0.9553935006629759,
                -1.0614175120551812,
                1.8584474843827503,
                -0.5556570063163437,
                0.22280251636895476,
                2.476347319778066
            ]
        },
        {
            "positions": [
                -0.9902444579488721,
                -1.0758732656101577,
                1.8974308954739763,
                -0.6282178743497162,
                0.28391672876531615,
                2.646112273537893
            ]
        },
        {
            "positions": [
                -1.0250954152347682,
                -1.0903290191651345,
                1.9364143065652022,
                -0.7007787423830889,
                0.34503094116167754,
                2.8158772272977197
            ]
        },
        {
            "positions": [
                -1.0599463725206641,
                -1.104784772720111,
                1.9753977176564281,
                -0.7733396104164614,
                0.40614515355803915,
                2.9856421810575466
            ]
        },
        {
            "positions": [
                -1.0947973298065603,
                -1.1192405262750875,
                2.014381128747654,
                -0.8459004784498341,
                0.4672593659544006,
                3.1554071348173736
            ]
        }
    ]
}