{
    "goal": {
        "global_pose": {
            "orientation": {
                "w": -0.00223480608172531,
                "x": 0.0024358444001904467,
                "y": 0.7094548369677653,
                "z": -0.704743149386269
            },
            "position": {
                "x": 0.6205249238014221,
                "y": -0.6371506643295288,
                "z": 0.19426114857196808
            }
        },
        "name": "move_to_magneteinheit_B"
    },
    "id": "LBKPIECE_move_to_magneteinheit_B_90",
    "joint_names": [
        "shoulder_pan_joint",
        "shoulder_lift_joint",
        "elbow_joint",
        "wrist_1_joint",
        "wrist_2_joint",
        "wrist_3_joint"
    ],
    "metrics": {
        "cart_traj_len": 4.023207897345379,
        "distance_elbow_joint": 4.126419808128526,
        "distance_shoulder_lift_joint": 0.8498678119567569,
        "distance_shoulder_pan_joint": 3.249867181446186,
        "distance_wrist_1_joint": 2.4303943715400402,
        "distance_wrist_2_joint": 0.4750136318998086,
        "distance_wrist_3_joint": 5.405863588030402,
        "smoothness": 0.49676076961019666,
        "time": 0.57061743,
        "traj_len": 4.066623463390939,
        "weighted_distance": 5.500414672777169
    },
    "planner": "LBKPIECE",
    "start": {
        "state": {
            "elbow_joint": 2.393587130804639,
            "shoulder_lift_joint": -1.9085141043513325,
            "shoulder_pan_joint": 0.7066247066698809,
            "wrist_1_joint": -0.4678290934590222,
            "wrist_2_joint": 0.7096259084215963,
            "wrist_3_joint": 3.147370379541726
        }
    },
    "waypoints": [
        {
            "positions": [
                0.7066247066698809,
                -1.9085141043513325,
                2.393587130804639,
                -0.4678290934590222,
                0.7096259084215963,
                3.147370379541726
            ]
        },
        {
            "positions": [
                0.5427437834977806,
                -1.880165326691217,
                2.3951047619899115,
                -0.4217029716291711,
                0.7219165822417588,
                3.116650882854131
            ]
        },
        {
            "positions": [
                0.3788628603256805,
                -1.8518165490311016,
                2.396622393175184,
                -0.37557684979932,
                0.7342072560619214,
                3.0859313861665356
            ]
        },
        {
            "positions": [
                0.21498193715358033,
                -1.8234677713709861,
                2.398140024360457,
                -0.3294507279694689,
                0.7464979298820839,
                3.0552118894789406
            ]
        },
        {
            "positions": [
                0.16265333801179643,
                -1.8100468816226833,
                2.344717427049339,
                -0.3266972993054481,
                0.7617303826696373,
                2.9793495984791445
            ]
        },
        {
            "positions": [
                0.13458748908618154,
                -1.7969919867069302,
                2.2240795616483733,
                -0.30940544357701893,
                0.7808199805058368,
                2.827972432798147
            ]
        },
        {
            "positions": [
                0.10652164016056664,
                -1.783937091791177,
                2.1034416962474074,
                -0.2921135878485898,
                0.7999095783420364,
                2.676595267117149
            ]
        },
        {
            "positions": [
                0.07845579123495175,
                -1.7708821968754238,
                1.9828038308464413,
                -0.27482173212016064,
                0.8189991761782358,
                2.5252181014361517
            ]
        },
        {
            "positions": [
                0.11482563210070162,
                -1.775262703154389,
                1.8766566646732414,
                -0.24563865454909098,
                0.8258375045350657,
                2.4117595601858928
            ]
        },
        {
            "positions": [
                0.1511954729664515,
                -1.7796432094333545,
                1.7705094985000414,
                -0.2164555769780213,
                0.8326758328918955,
                2.298301018935634
            ]
        },
        {
            "positions": [
                0.2342096974681216,
                -1.79162172120294,
                1.655892846821117,
                -0.15978056043868197,
                0.8279642964972803,
                2.1839959404060276
            ]
        },
        {
            "positions": [
                0.31722392196979166,
                -1.8036002329725251,
                1.5412761951421923,
                -0.10310554389934261,
                0.8232527601026652,
                2.0696908618764214
            ]
        },
        {
            "positions": [
                0.4002381464714617,
                -1.8155787447421106,
                1.4266595434632678,
                -0.04643052736000325,
                0.81854122370805,
                1.9553857833468153
            ]
        },
        {
            "positions": [
                0.4832523709731318,
                -1.8275572565116958,
                1.3120428917843432,
                0.010244489179336097,
                0.813829687313435,
                1.841080704817209
            ]
        },
        {
            "positions": [
                0.5662665954748018,
                -1.8395357682812812,
                1.1974262401054188,
                0.06691950571867544,
                0.8091181509188198,
                1.726775626287603
            ]
        },
        {
            "positions": [
                0.649280819976472,
                -1.8515142800508664,
                1.0828095884264943,
                0.12359452225801482,
                0.8044066145242047,
                1.6124705477579968
            ]
        },
        {
            "positions": [
                0.7322950444781421,
                -1.8634927918204518,
                0.9681929367475697,
                0.18026953879735413,
                0.7996950781295895,
                1.4981654692283906
            ]
        },
        {
            "positions": [
                0.8153092689798122,
                -1.8754713035900372,
                0.8535762850686452,
                0.2369445553366935,
                0.7949835417349744,
                1.3838603906987843
            ]
        },
        {
            "positions": [
                0.8983234934814822,
                -1.8874498153596224,
                0.7389596333897208,
                0.2936195718760328,
                0.7902720053403592,
                1.2695553121691783
            ]
        },
        {
            "positions": [
                0.9813377179831523,
                -1.8994283271292078,
                0.6243429817107962,
                0.3502945884153722,
                0.7855604689457442,
                1.155250233639572
            ]
        },
        {
            "positions": [
                1.0643519424848222,
                -1.911406838898793,
                0.5097263300318717,
                0.40696960495471146,
                0.780848932551129,
                1.0409451551099658
            ]
        },
        {
            "positions": [
                1.1473661669864925,
                -1.9233853506683785,
                0.3951096783529471,
                0.46364462149405095,
                0.7761373961565139,
                0.9266400765803595
            ]
        },
        {
            "positions": [
                1.2303803914881626,
                -1.9353638624379637,
                0.28049302667402265,
                0.5203196380333903,
                0.7714258597618987,
                0.8123349980507533
            ]
        },
        {
            "positions": [
                1.3133946159898326,
                -1.947342374207549,
                0.165876374995098,
                0.5769946545727296,
                0.7667143233672835,
                0.6980299195211472
            ]
        },
        {
            "positions": [
                1.3964088404915027,
                -1.9593208859771343,
                0.05125972331617357,
                0.633669671112069,
                0.7620027869726684,
                0.583724840991541
            ]
        },
        {
            "positions": [
                1.4794230649931728,
                -1.9712993977467197,
                -0.06335692836275086,
                0.6903446876514083,
                0.7572912505780534,
                0.46941976246193473
            ]
        },
        {
            "positions": [
                1.5624372894948428,
                -1.9832779095163051,
                -0.17797358004167552,
                0.7470197041907476,
                0.7525797141834382,
                0.3551146839323287
            ]
        },
        {
            "positions": [
                1.645451513996513,
                -1.9952564212858903,
                -0.2925902317205997,
                0.803694720730087,
                0.747868177788823,
                0.24080960540272267
            ]
        },
        {
            "positions": [
                1.728465738498183,
                -2.0072349330554755,
                -0.4072068833995246,
                0.8603697372694262,
                0.7431566413942079,
                0.12650452687311642
            ]
        },
        {
            "positions": [
                1.811479962999853,
                -2.019213444825061,
                -0.521823535078449,
                0.9170447538087657,
                0.7384451049995927,
                0.012199448343510166
            ]
        },
        {
            "positions": [
                1.894494187501523,
                -2.0311919565946464,
                -0.6364401867573735,
                0.973719770348105,
                0.7337335686049776,
                -0.10210563018609609
            ]
        },
        {
            "positions": [
                1.9775084120031932,
                -2.0431704683642318,
                -0.7510568384362979,
                1.0303947868874443,
                0.7290220322103624,
                -0.21641070871570234
            ]
        },
        {
            "positions": [
                2.0605226365048632,
                -2.0551489801338167,
                -0.8656734901152228,
                1.0870698034267838,
                0.7243104958157474,
                -0.3307157872453086
            ]
        },
        {
            "positions": [
                2.1435368610065333,
                -2.067127491903402,
                -0.9802901417941472,
                1.1437448199661233,
                0.7195989594211322,
                -0.44502086577491484
            ]
        },
        {
            "positions": [
                2.2265510855082034,
                -2.0791060036729876,
                -1.0949067934730716,
                1.2004198365054624,
                0.7148874230265171,
                -0.5593259443045211
            ]
        },
        {
            "positions": [
                2.3095653100098734,
                -2.091084515442573,
                -1.209523445151996,
                1.2570948530448018,
                0.7101758866319019,
                -0.6736310228341273
            ]
        },
        {
            "positions": [
                2.3925795345115435,
                -2.1030630272121584,
                -1.324140096830921,
                1.3137698695841413,
                0.7054643502372868,
                -0.7879361013637336
            ]
        },
        {
            "positions": [
                2.4755937590132135,
                -2.1150415389817434,
                -1.4387567485098454,
                1.3704448861234804,
                0.7007528138426716,
                -0.9022411798933394
            ]
        },
        {
            "positions": [
                2.5586079835148836,
                -2.127020050751329,
                -1.5533734001887698,
                1.4271199026628199,
                0.6960412774480564,
                -1.0165462584229457
            ]
        },
        {
            "positions": [
                2.6416222080165537,
                -2.1389985625209142,
                -1.6679900518676942,
                1.4837949192021593,
                0.6913297410534414,
                -1.1308513369525521
            ]
        },
        {
            "positions": [
                2.6544968285918595,
                -2.187619016643257,
                -1.6761177987492493,
                1.4312809916255966,
                0.6668920874588741,
                -0.9916815988190647
            ]
        },
        {
            "positions": [
                2.667371449167165,
                -2.2362394707656,
                -1.6842455456308043,
                1.3787670640490342,
                0.6424544338643067,
                -0.8525118606855773
            ]
        },
        {
            "positions": [
                2.680246069742471,
                -2.284859924887943,
                -1.6923732925123594,
                1.3262531364724714,
                0.6180167802697394,
                -0.7133421225520897
            ]
        },
        {
            "positions": [
                2.6752690728665365,
                -2.3344244690050253,
                -1.684534893087386,
                1.2459459924351788,
                0.583690616567901,
                -0.5358089582681739
            ]
        },
        {
            "positions": [
                2.670292075990602,
                -2.3839890131221075,
                -1.676696493662413,
                1.1656388483978861,
                0.5493644528660627,
                -0.358275793984258
            ]
        },
        {
            "positions": [
                2.6653150791146674,
                -2.4335535572391898,
                -1.6688580942374396,
                1.0853317043605932,
                0.5150382891642244,
                -0.18074262970034216
            ]
        },
        {
            "positions": [
                2.660338082238733,
                -2.483118101356272,
                -1.6610196948124663,
                1.0050245603233006,
                0.48071212546238606,
                -0.003209465416426306
            ]
        }
    ]
}