{
    "goal": {
        "global_pose": {
            "orientation": {
                "w": -0.00223480608172531,
                "x": 0.0024358444001904467,
                "y": 0.7094548369677653,
                "z": -0.704743149386269
            },
            "position": {
                "x": 0.6205249238014221,
                "y": -0.6371506643295288,
                "z": 0.19426114857196808
            }
        },
        "name": "move_to_magneteinheit_B"
    },
    "id": "LBKPIECE_move_to_magneteinheit_B_68",
    "joint_names": [
        "shoulder_pan_joint",
        "shoulder_lift_joint",
        "elbow_joint",
        "wrist_1_joint",
        "wrist_2_joint",
        "wrist_3_joint"
    ],
    "metrics": {
        "cart_traj_len": 1.451568802697366,
        "distance_elbow_joint": 0.7256956451391054,
        "distance_shoulder_lift_joint": 1.2460052560926593,
        "distance_shoulder_pan_joint": 1.6214551261640642,
        "distance_wrist_1_joint": 2.609300348260301,
        "distance_wrist_2_joint": 2.934830489994491,
        "distance_wrist_3_joint": 3.1535602410276247,
        "smoothness": 2.6914497627957446e-16,
        "time": 0.6754772490000001,
        "traj_len": 3.5058304446561945,
        "weighted_distance": 4.913460941840108
    },
    "planner": "LBKPIECE",
    "start": {
        "state": {
            "elbow_joint": 2.393587130804639,
            "shoulder_lift_joint": -1.9085141043513325,
            "shoulder_pan_joint": 0.7066247066698809,
            "wrist_1_joint": -0.4678290934590222,
            "wrist_2_joint": 0.7096259084215963,
            "wrist_3_joint": 3.147370379541726
        }
    },
    "waypoints": [
        {
            "positions": [
                0.7066247066698809,
                -1.9085141043513325,
                2.393587130804639,
                -0.4678290934590222,
                0.7096259084215963,
                3.147370379541726
            ]
        },
        {
            "positions": [
                0.6559542339772538,
                -1.869576440098437,
                2.3709091418940416,
                -0.38628845757588776,
                0.6179124556092686,
                3.048821622009613
            ]
        },
        {
            "positions": [
                0.6052837612846269,
                -1.8306387758455414,
                2.3482311529834448,
                -0.3047478216927534,
                0.5261990027969407,
                2.9502728644774994
            ]
        },
        {
            "positions": [
                0.5546132885919999,
                -1.7917011115926458,
                2.3255531640728475,
                -0.22320718580961896,
                0.4344855499846128,
                2.8517241069453863
            ]
        },
        {
            "positions": [
                0.5039428158993728,
                -1.75276344733975,
                2.3028751751622507,
                -0.14166654992648453,
                0.34277209717228496,
                2.753175349413273
            ]
        },
        {
            "positions": [
                0.4532723432067458,
                -1.7138257830868544,
                2.2801971862516535,
                -0.060125914043350104,
                0.2510586443599571,
                2.6546265918811596
            ]
        },
        {
            "positions": [
                0.40260187051411883,
                -1.6748881188339588,
                2.2575191973410567,
                0.021414721839784268,
                0.15934519154762927,
                2.5560778343490465
            ]
        },
        {
            "positions": [
                0.35193139782149185,
                -1.6359504545810633,
                2.2348412084304594,
                0.1029553577229187,
                0.06763173873530137,
                2.4575290768169333
            ]
        },
        {
            "positions": [
                0.3012609251288648,
                -1.5970127903281677,
                2.2121632195198626,
                0.18449599360605312,
                -0.024081714077026417,
                2.3589803192848198
            ]
        },
        {
            "positions": [
                0.2505904524362378,
                -1.558075126075272,
                2.1894852306092654,
                0.26603662948918755,
                -0.1157951668893542,
                2.2604315617527067
            ]
        },
        {
            "positions": [
                0.19991997974361075,
                -1.5191374618223765,
                2.1668072416986686,
                0.347577265372322,
                -0.2075086197016821,
                2.1618828042205935
            ]
        },
        {
            "positions": [
                0.14924950705098383,
                -1.480199797569481,
                2.1441292527880713,
                0.4291179012554564,
                -0.29922207251401,
                2.06333404668848
            ]
        },
        {
            "positions": [
                0.0985790343583568,
                -1.4412621333165854,
                2.121451263877474,
                0.5106585371385908,
                -0.3909355253263378,
                1.9647852891563669
            ]
        },
        {
            "positions": [
                0.047908561665729765,
                -1.4023244690636898,
                2.0987732749668773,
                0.5921991730217253,
                -0.4826489781386656,
                1.8662365316242535
            ]
        },
        {
            "positions": [
                -0.002761911026897157,
                -1.363386804810794,
                2.07609528605628,
                0.6737398089048596,
                -0.5743624309509936,
                1.7676877740921402
            ]
        },
        {
            "positions": [
                -0.05343238371952419,
                -1.3244491405578984,
                2.053417297145683,
                0.7552804447879942,
                -0.6660758837633214,
                1.669139016560027
            ]
        },
        {
            "positions": [
                -0.10410285641215122,
                -1.2855114763050028,
                2.030739308235086,
                0.8368210806711285,
                -0.7577893365756492,
                1.5705902590279137
            ]
        },
        {
            "positions": [
                -0.15477332910477826,
                -1.2465738120521073,
                2.008061319324489,
                0.9183617165542628,
                -0.849502789387977,
                1.4720415014958004
            ]
        },
        {
            "positions": [
                -0.2054438017974053,
                -1.2076361477992117,
                1.985383330413892,
                0.9999023524373973,
                -0.9412162422003048,
                1.3734927439636873
            ]
        },
        {
            "positions": [
                -0.2561142744900322,
                -1.168698483546316,
                1.962705341503295,
                1.0814429883205317,
                -1.0329296950126328,
                1.274943986431574
            ]
        },
        {
            "positions": [
                -0.30678474718265936,
                -1.1297608192934203,
                1.9400273525926979,
                1.1629836242036662,
                -1.1246431478249606,
                1.1763952288994606
            ]
        },
        {
            "positions": [
                -0.35745521987528617,
                -1.0908231550405247,
                1.9173493636821008,
                1.2445242600868005,
                -1.2163566006372883,
                1.0778464713673475
            ]
        },
        {
            "positions": [
                -0.4081256925679132,
                -1.0518854907876292,
                1.8946713747715038,
                1.326064895969935,
                -1.3080700534496164,
                0.9792977138352339
            ]
        },
        {
            "positions": [
                -0.45879616526054023,
                -1.0129478265347336,
                1.8719933858609068,
                1.4076055318530694,
                -1.399783506261944,
                0.8807489563031208
            ]
        },
        {
            "positions": [
                -0.5094666379531673,
                -0.974010162281838,
                1.8493153969503098,
                1.4891461677362037,
                -1.491496959074272,
                0.7822001987710077
            ]
        },
        {
            "positions": [
                -0.5601371106457943,
                -0.9350724980289424,
                1.8266374080397125,
                1.5706868036193382,
                -1.5832104118866,
                0.6836514412388941
            ]
        },
        {
            "positions": [
                -0.6108075833384213,
                -0.8961348337760469,
                1.8039594191291157,
                1.6522274395024728,
                -1.6749238646989275,
                0.585102683706781
            ]
        },
        {
            "positions": [
                -0.6614780560310484,
                -0.8571971695231513,
                1.7812814302185185,
                1.7337680753856068,
                -1.7666373175112555,
                0.48655392617466786
            ]
        },
        {
            "positions": [
                -0.7121485287236752,
                -0.8182595052702555,
                1.7586034413079217,
                1.8153087112687414,
                -1.8583507703235835,
                0.3880051686425543
            ]
        },
        {
            "positions": [
                -0.7628190014163022,
                -0.7793218410173599,
                1.7359254523973244,
                1.896849347151876,
                -1.950064223135911,
                0.2894564111104412
            ]
        },
        {
            "positions": [
                -0.8134894741089292,
                -0.7403841767644643,
                1.7132474634867274,
                1.9783899830350105,
                -2.0417776759482393,
                0.19090765357832806
            ]
        },
        {
            "positions": [
                -0.8641599468015563,
                -0.7014465125115688,
                1.6905694745761304,
                2.0599306189181443,
                -2.133491128760567,
                0.0923588960462145
            ]
        },
        {
            "positions": [
                -0.9148304194941832,
                -0.6625088482586731,
                1.6678914856655334,
                2.141471254801279,
                -2.2252045815728945,
                -0.006189861485898624
            ]
        }
    ]
}