{
    "goal": {
        "global_pose": {
            "orientation": {
                "w": 0.7047431493862688,
                "x": -0.7094548369677653,
                "y": 0.0024358444001904,
                "z": -0.0022348060817251984
            },
            "position": {
                "x": -0.39052492380142206,
                "y": 0.3671506643295288,
                "z": 0.19426114857196808
            }
        },
        "name": "move_to_magneteinheit_D"
    },
    "id": "LBKPIECE_move_to_magneteinheit_D_104",
    "joint_names": [
        "shoulder_pan_joint",
        "shoulder_lift_joint",
        "elbow_joint",
        "wrist_1_joint",
        "wrist_2_joint",
        "wrist_3_joint"
    ],
    "metrics": {
        "cart_traj_len": 6.068647084785815,
        "distance_elbow_joint": 8.37910196979038,
        "distance_shoulder_lift_joint": 1.6325972625803102,
        "distance_shoulder_pan_joint": 6.3359696358200885,
        "distance_wrist_1_joint": 2.4051383969839857,
        "distance_wrist_2_joint": 2.375843490439376,
        "distance_wrist_3_joint": 6.298836561778411,
        "smoothness": 0.6759908478587153,
        "time": 0.683973917,
        "traj_len": 5.237125864192357,
        "weighted_distance": 6.693739039458647
    },
    "planner": "LBKPIECE",
    "start": {
        "state": {
            "elbow_joint": 0.7495348899011911,
            "shoulder_lift_joint": -0.6476975780737668,
            "shoulder_pan_joint": -2.711696901376276,
            "wrist_1_joint": -0.0750647808097303,
            "wrist_2_joint": 0.43296659715458535,
            "wrist_3_joint": 3.1361499051832418
        }
    },
    "waypoints": [
        {
            "positions": [
                -2.711696901376276,
                -0.6476975780737668,
                0.7495348899011911,
                -0.0750647808097303,
                0.43296659715458535,
                3.1361499051832418
            ]
        },
        {
            "positions": [
                -2.7240528356515634,
                -0.6717081498333585,
                0.7859461525922291,
                -0.018781648870560757,
                0.46383877933034673,
                3.010941623111588
            ]
        },
        {
            "positions": [
                -2.7541805238780324,
                -0.6758062403141645,
                0.8585365986280777,
                0.09286659345664815,
                0.43756007803467056,
                2.859644184471673
            ]
        },
        {
            "positions": [
                -2.7843082121045017,
                -0.6799043307949705,
                0.9311270446639265,
                0.20451483578385707,
                0.4112813767389944,
                2.7083467458317574
            ]
        },
        {
            "positions": [
                -2.8144359003309707,
                -0.6840024212757765,
                1.0037174906997752,
                0.316163078111066,
                0.38500267544331823,
                2.557049307191842
            ]
        },
        {
            "positions": [
                -2.8445635885574396,
                -0.6881005117565826,
                1.0763079367356239,
                0.42781132043827486,
                0.35872397414764207,
                2.405751868551927
            ]
        },
        {
            "positions": [
                -2.874691276783909,
                -0.6921986022373886,
                1.1488983827714725,
                0.5394595627654837,
                0.3324452728519659,
                2.2544544299120117
            ]
        },
        {
            "positions": [
                -2.904818965010378,
                -0.6962966927181946,
                1.2214888288073213,
                0.6511078050926927,
                0.3061665715562897,
                2.103156991272096
            ]
        },
        {
            "positions": [
                -2.934946653236847,
                -0.7003947831990006,
                1.29407927484317,
                0.7627560474199016,
                0.27988787026061357,
                1.9518595526321807
            ]
        },
        {
            "positions": [
                -2.9650743414633163,
                -0.7044928736798066,
                1.3666697208790186,
                0.8744042897471105,
                0.25360916896493735,
                1.8005621139922656
            ]
        },
        {
            "positions": [
                -2.995202029689785,
                -0.7085909641606126,
                1.4392601669148672,
                0.9860525320743194,
                0.2273304676692612,
                1.6492646753523503
            ]
        },
        {
            "positions": [
                -3.025329717916254,
                -0.7126890546414186,
                1.5118506129507159,
                1.0977007744015281,
                0.20105176637358507,
                1.497967236712435
            ]
        },
        {
            "positions": [
                -3.0554574061427235,
                -0.7167871451222246,
                1.5844410589865645,
                1.209349016728737,
                0.1747730650779089,
                1.3466697980725197
            ]
        },
        {
            "positions": [
                -3.0855850943691925,
                -0.7208852356030307,
                1.6570315050224136,
                1.3209972590559462,
                0.14849436378223269,
                1.1953723594326042
            ]
        },
        {
            "positions": [
                -3.1157127825956614,
                -0.7249833260838368,
                1.7296219510582622,
                1.432645501383155,
                0.12221566248655652,
                1.044074920792689
            ]
        },
        {
            "positions": [
                -3.145840470822131,
                -0.7290814165646428,
                1.8022123970941109,
                1.5442937437103639,
                0.09593696119088035,
                0.8927774821527734
            ]
        },
        {
            "positions": [
                -3.1759681590485997,
                -0.7331795070454488,
                1.8748028431299595,
                1.6559419860375728,
                0.06965825989520422,
                0.7414800435128581
            ]
        },
        {
            "positions": [
                -3.107737430121647,
                -0.779559638556557,
                1.8014195591803766,
                1.6207367966478758,
                0.15511236273311463,
                0.6567362925359428
            ]
        },
        {
            "positions": [
                -3.039506701194694,
                -0.8259397700676652,
                1.7280362752307936,
                1.5855316072581789,
                0.24056646557102504,
                0.5719925415590275
            ]
        },
        {
            "positions": [
                -2.9712759722677418,
                -0.8723199015787733,
                1.6546529912812107,
                1.5503264178684817,
                0.32602056840893545,
                0.487248790582112
            ]
        },
        {
            "positions": [
                -2.903045243340789,
                -0.9187000330898816,
                1.5812697073316277,
                1.5151212284787847,
                0.4114746712468459,
                0.4025050396051967
            ]
        },
        {
            "positions": [
                -2.834814514413836,
                -0.9650801646009897,
                1.507886423382045,
                1.4799160390890878,
                0.49692877408475633,
                0.31776128862828124
            ]
        },
        {
            "positions": [
                -2.7665837854868833,
                -1.011460296112098,
                1.434503139432462,
                1.4447108496993908,
                0.5823828769226667,
                0.2330175376513659
            ]
        },
        {
            "positions": [
                -2.698353056559931,
                -1.057840427623206,
                1.3611198554828792,
                1.4095056603096936,
                0.6678369797605772,
                0.14827378667445057
            ]
        },
        {
            "positions": [
                -2.630122327632978,
                -1.1042205591343142,
                1.2877365715332962,
                1.3743004709199966,
                0.7532910825984875,
                0.06353003569753524
            ]
        },
        {
            "positions": [
                -2.5618915987060253,
                -1.1506006906454225,
                1.2143532875837133,
                1.3390952815302997,
                0.838745185436398,
                -0.021213715279380208
            ]
        },
        {
            "positions": [
                -2.4422903565215037,
                -1.1875375903714938,
                1.0787068359698262,
                1.3407732823548355,
                0.8224040628102978,
                -0.04070196924445585
            ]
        },
        {
            "positions": [
                -2.322689114336982,
                -1.224474490097565,
                0.9430603843559391,
                1.3424512831793713,
                0.8060629401841977,
                -0.06019022320953149
            ]
        },
        {
            "positions": [
                -2.152343741511398,
                -1.269780471288947,
                1.0145794984493526,
                1.3384163975978183,
                0.8187360976249454,
                0.014747053879001146
            ]
        },
        {
            "positions": [
                -1.9819983686858145,
                -1.315086452480329,
                1.0860986125427663,
                1.334381512016265,
                0.831409255065693,
                0.08968433096753378
            ]
        },
        {
            "positions": [
                -1.8116529958602308,
                -1.360392433671711,
                1.1576177266361798,
                1.330346626434712,
                0.8440824125064407,
                0.1646216080560664
            ]
        },
        {
            "positions": [
                -1.6413076230346468,
                -1.405698414863093,
                1.2291368407295933,
                1.3263117408531588,
                0.8567555699471883,
                0.23955888514459905
            ]
        },
        {
            "positions": [
                -1.470962250209063,
                -1.451004396054475,
                1.3006559548230068,
                1.3222768552716058,
                0.869428727387936,
                0.31449616223313165
            ]
        },
        {
            "positions": [
                -1.3006168773834792,
                -1.496310377245857,
                1.3721750689164205,
                1.3182419696900525,
                0.8821018848286837,
                0.3894334393216643
            ]
        },
        {
            "positions": [
                -1.1302715045578953,
                -1.5416163584372389,
                1.443694183009834,
                1.3142070841084994,
                0.8947750422694313,
                0.4643707164101969
            ]
        },
        {
            "positions": [
                -0.9599261317323113,
                -1.586922339628621,
                1.5152132971032475,
                1.3101721985269463,
                0.907448199710179,
                0.5393079934987296
            ]
        },
        {
            "positions": [
                -0.7895807589067276,
                -1.632228320820003,
                1.5867324111966612,
                1.306137312945393,
                0.9201213571509266,
                0.6142452705872622
            ]
        },
        {
            "positions": [
                -0.6192353860811437,
                -1.6775343020113849,
                1.6582515252900747,
                1.30210242736384,
                0.9327945145916743,
                0.6891825476757948
            ]
        },
        {
            "positions": [
                -0.44889001325555977,
                -1.7228402832027672,
                1.7297706393834884,
                1.298067541782287,
                0.945467672032422,
                0.7641198247643276
            ]
        },
        {
            "positions": [
                -0.2785446404299763,
                -1.768146264394149,
                1.801289753476902,
                1.2940326562007338,
                0.9581408294731696,
                0.8390571018528601
            ]
        },
        {
            "positions": [
                -0.10819926760439191,
                -1.813452245585531,
                1.8728088675703156,
                1.2899977706191805,
                0.9708139869139173,
                0.9139943789413928
            ]
        },
        {
            "positions": [
                0.06214610522119157,
                -1.858758226776913,
                1.9443279816637289,
                1.2859628850376275,
                0.9834871443546649,
                0.9889316560299253
            ]
        },
        {
            "positions": [
                0.2324914780467755,
                -1.904064207968295,
                2.0158470957571426,
                1.2819279994560744,
                0.9961603017954126,
                1.063868933118458
            ]
        },
        {
            "positions": [
                0.40283685087235943,
                -1.9493701891596769,
                2.087366209850556,
                1.277893113874521,
                1.0088334592361603,
                1.1388062102069907
            ]
        },
        {
            "positions": [
                0.5731822236979434,
                -1.9946761703510592,
                2.15888532394397,
                1.273858228292968,
                1.021506616676908,
                1.2137434872955233
            ]
        },
        {
            "positions": [
                0.7435275965235268,
                -2.039982151542441,
                2.2304044380373833,
                1.269823342711415,
                1.0341797741176557,
                1.2886807643840559
            ]
        },
        {
            "positions": [
                0.9138729693491108,
                -2.085288132733823,
                2.3019235521307966,
                1.2657884571298619,
                1.0468529315584032,
                1.3636180414725887
            ]
        },
        {
            "positions": [
                1.0842183421746947,
                -2.1305941139252047,
                2.3734426662242103,
                1.2617535715483086,
                1.059526088999151,
                1.438555318561121
            ]
        },
        {
            "positions": [
                1.2545637150002786,
                -2.175900095116587,
                2.444961780317624,
                1.2577186859667555,
                1.0721992464398986,
                1.5134925956496539
            ]
        },
        {
            "positions": [
                1.191904301778588,
                -2.180438997096478,
                2.2353882950208455,
                1.2694228740870912,
                1.0338129285364475,
                1.44702243849633
            ]
        },
        {
            "positions": [
                1.1292448885568973,
                -2.184977899076369,
                2.025814809724067,
                1.281127062207427,
                0.9954266106329962,
                1.380552281343006
            ]
        },
        {
            "positions": [
                1.0665854753352066,
                -2.18951680105626,
                1.8162413244272884,
                1.2928312503277628,
                0.9570402927295449,
                1.314082124189682
            ]
        },
        {
            "positions": [
                1.0039260621135158,
                -2.1940557030361503,
                1.60666783913051,
                1.3045354384480985,
                0.9186539748260937,
                1.2476119670363581
            ]
        },
        {
            "positions": [
                0.9412666488918251,
                -2.198594605016041,
                1.3970943538337315,
                1.3162396265684342,
                0.8802676569226424,
                1.1811418098830342
            ]
        },
        {
            "positions": [
                0.8786072356701344,
                -2.203133506995932,
                1.187520868536953,
                1.3279438146887699,
                0.8418813390191913,
                1.1146716527297102
            ]
        },
        {
            "positions": [
                0.8159478224484438,
                -2.207672408975823,
                0.9779473832401744,
                1.3396480028091056,
                0.80349502111574,
                1.0482014955763863
            ]
        },
        {
            "positions": [
                0.753288409226753,
                -2.212211310955714,
                0.7683738979433961,
                1.3513521909294413,
                0.7651087032122887,
                0.9817313384230623
            ]
        },
        {
            "positions": [
                0.6906289960050623,
                -2.216750212935605,
                0.5588004126466173,
                1.3630563790497772,
                0.7267223853088376,
                0.9152611812697383
            ]
        },
        {
            "positions": [
                0.6279695827833717,
                -2.221289114915496,
                0.34922692734983896,
                1.3747605671701129,
                0.6883360674053863,
                0.8487910241164144
            ]
        },
        {
            "positions": [
                0.5653101695616809,
                -2.225828016895387,
                0.1396534420530604,
                1.3864647552904485,
                0.6499497495019351,
                0.7823208669630904
            ]
        },
        {
            "positions": [
                0.5026507563399902,
                -2.2303669188752773,
                -0.06992004324371814,
                1.3981689434107842,
                0.6115634315984839,
                0.7158507098097665
            ]
        },
        {
            "positions": [
                0.43999134311829957,
                -2.234905820855168,
                -0.27949352854049625,
                1.40987313153112,
                0.5731771136950328,
                0.6493805526564426
            ]
        },
        {
            "positions": [
                0.3773319298966088,
                -2.239444722835059,
                -0.48906701383727524,
                1.4215773196514556,
                0.5347907957915814,
                0.5829103955031185
            ]
        },
        {
            "positions": [
                0.31467251667491813,
                -2.24398362481495,
                -0.6986404991340538,
                1.4332815077717915,
                0.49640447788813014,
                0.5164402383497947
            ]
        },
        {
            "positions": [
                0.25201310345322736,
                -2.248522526794841,
                -0.9082139844308319,
                1.4449856958921272,
                0.458018159984679,
                0.44997008119647064
            ]
        },
        {
            "positions": [
                0.1893536902315367,
                -2.253061428774732,
                -1.1177874697276104,
                1.456689884012463,
                0.41963184208122783,
                0.3834999240431469
            ]
        },
        {
            "positions": [
                0.12669427700984603,
                -2.257600330754623,
                -1.3273609550243894,
                1.4683940721327986,
                0.38124552417777646,
                0.31702976688982276
            ]
        },
        {
            "positions": [
                0.06403486378815537,
                -2.262139232734514,
                -1.5369344403211675,
                1.4800982602531343,
                0.3428592062743253,
                0.2505596097364988
            ]
        },
        {
            "positions": [
                0.0013754505664647088,
                -2.2666781347144043,
                -1.746507925617946,
                1.4918024483734702,
                0.30447288837087405,
                0.18408945258317488
            ]
        },
        {
            "positions": [
                -0.061283962655225954,
                -2.271217036694295,
                -1.9560814109147246,
                1.503506636493806,
                0.2660865704674229,
                0.11761929542985095
            ]
        },
        {
            "positions": [
                -0.12394337587691684,
                -2.275755938674186,
                -2.165654896211503,
                1.5152108246141416,
                0.22770025256397153,
                0.051149138276527006
            ]
        },
        {
            "positions": [
                -0.1866027890986076,
                -2.280294840654077,
                -2.3752283815082817,
                1.5269150127344773,
                0.18931393466052043,
                -0.015321018876796922
            ]
        }
    ]
}