{
    "goal": {
        "global_pose": {
            "orientation": {
                "w": -0.00223480608172531,
                "x": 0.0024358444001904467,
                "y": 0.7094548369677653,
                "z": -0.704743149386269
            },
            "position": {
                "x": 0.6205249238014221,
                "y": -0.6371506643295288,
                "z": 0.19426114857196808
            }
        },
        "name": "move_to_magneteinheit_B"
    },
    "id": "LBKPIECE_move_to_magneteinheit_B_61",
    "joint_names": [
        "shoulder_pan_joint",
        "shoulder_lift_joint",
        "elbow_joint",
        "wrist_1_joint",
        "wrist_2_joint",
        "wrist_3_joint"
    ],
    "metrics": {
        "cart_traj_len": 4.078884552586076,
        "distance_elbow_joint": 4.663417039673691,
        "distance_shoulder_lift_joint": 0.8658469728287852,
        "distance_shoulder_pan_joint": 2.3050677462305584,
        "distance_wrist_1_joint": 2.26862963522077,
        "distance_wrist_2_joint": 1.4606067589446474,
        "distance_wrist_3_joint": 0.4329060310717314,
        "smoothness": 0.5449280475228176,
        "time": 0.41777338499999994,
        "traj_len": 3.4635926700422175,
        "weighted_distance": 4.073269281581942
    },
    "planner": "LBKPIECE",
    "start": {
        "state": {
            "elbow_joint": 2.393587130804639,
            "shoulder_lift_joint": -1.9085141043513325,
            "shoulder_pan_joint": 0.7066247066698809,
            "wrist_1_joint": -0.4678290934590222,
            "wrist_2_joint": 0.7096259084215963,
            "wrist_3_joint": 3.147370379541726
        }
    },
    "waypoints": [
        {
            "positions": [
                0.7066247066698809,
                -1.9085141043513325,
                2.393587130804639,
                -0.4678290934590222,
                0.7096259084215963,
                3.147370379541726
            ]
        },
        {
            "positions": [
                0.6189288332113823,
                -1.9091713867415443,
                2.345433867914389,
                -0.392905913025455,
                0.7777890315418372,
                3.034751370192506
            ]
        },
        {
            "positions": [
                0.5312329597528835,
                -1.9098286691317559,
                2.29728060502414,
                -0.31798273259188786,
                0.845952154662078,
                2.9221323608432863
            ]
        },
        {
            "positions": [
                0.5883204992590078,
                -1.8957830834544602,
                2.0944197965394618,
                -0.4050119449929742,
                0.822806938991083,
                2.926488311491169
            ]
        },
        {
            "positions": [
                0.645408038765132,
                -1.8817374977771644,
                1.8915589880547838,
                -0.49204115739406057,
                0.7996617233200881,
                2.930844262139051
            ]
        },
        {
            "positions": [
                0.7024955782712561,
                -1.8676919120998687,
                1.688698179570106,
                -0.5790703697951469,
                0.7765165076490932,
                2.9352002127869334
            ]
        },
        {
            "positions": [
                0.7595831177773803,
                -1.8536463264225729,
                1.4858373710854278,
                -0.6660995821962332,
                0.7533712919780984,
                2.9395561634348155
            ]
        },
        {
            "positions": [
                0.8166706572835045,
                -1.8396007407452772,
                1.2829765626007499,
                -0.7531287945973196,
                0.7302260763071035,
                2.943912114082698
            ]
        },
        {
            "positions": [
                0.8737581967896287,
                -1.8255551550679814,
                1.0801157541160717,
                -0.840158006998406,
                0.7070808606361085,
                2.94826806473058
            ]
        },
        {
            "positions": [
                0.930845736295753,
                -1.8115095693906857,
                0.8772549456313938,
                -0.9271872193994923,
                0.6839356449651136,
                2.9526240153784626
            ]
        },
        {
            "positions": [
                0.9879332758018771,
                -1.79746398371339,
                0.6743941371467157,
                -1.0142164318005786,
                0.6607904292941187,
                2.9569799660263447
            ]
        },
        {
            "positions": [
                1.0450208153080012,
                -1.7834183980360943,
                0.4715333286620378,
                -1.1012456442016652,
                0.6376452136231238,
                2.9613359166742272
            ]
        },
        {
            "positions": [
                1.1021083548141255,
                -1.7693728123587984,
                0.2686725201773599,
                -1.1882748566027515,
                0.6144999979521288,
                2.9656918673221093
            ]
        },
        {
            "positions": [
                1.1591958943202498,
                -1.7553272266815028,
                0.0658117116926813,
                -1.275304069003838,
                0.5913547822811339,
                2.970047817969992
            ]
        },
        {
            "positions": [
                1.216283433826374,
                -1.741281641004207,
                -0.1370490967919964,
                -1.362333281404924,
                0.568209566610139,
                2.974403768617874
            ]
        },
        {
            "positions": [
                1.273370973332498,
                -1.7272360553269113,
                -0.33990990527667453,
                -1.4493624938060106,
                0.5450643509391442,
                2.9787597192657564
            ]
        },
        {
            "positions": [
                1.3304585128386224,
                -1.7131904696496154,
                -0.5427707137613522,
                -1.5363917062070969,
                0.5219191352681493,
                2.9831156699136385
            ]
        },
        {
            "positions": [
                1.3875460523447467,
                -1.6991448839723198,
                -0.7456315222460308,
                -1.6234209186081832,
                0.4987739195971543,
                2.987471620561521
            ]
        },
        {
            "positions": [
                1.4446335918508706,
                -1.685099298295024,
                -0.9484923307307085,
                -1.7104501310092695,
                0.4756287039261594,
                2.991827571209403
            ]
        },
        {
            "positions": [
                1.501721131356995,
                -1.6710537126177283,
                -1.1513531392153866,
                -1.797479343410356,
                0.4524834882551645,
                2.9961835218572856
            ]
        },
        {
            "positions": [
                1.558808670863119,
                -1.6570081269404326,
                -1.3542139477000643,
                -1.8845085558114423,
                0.4293382725841696,
                3.0005394725051677
            ]
        },
        {
            "positions": [
                1.6158962103692434,
                -1.6429625412631368,
                -1.557074756184743,
                -1.9715377682125286,
                0.40619305691317464,
                3.0048954231530502
            ]
        },
        {
            "positions": [
                1.6729837498753675,
                -1.628916955585841,
                -1.7599355646694201,
                -2.058566980613615,
                0.3830478412421798,
                3.0092513738009323
            ]
        },
        {
            "positions": [
                1.7300712893814918,
                -1.6148713699085453,
                -1.9627963731540987,
                -2.1455961930147014,
                0.35990262557118485,
                3.013607324448815
            ]
        },
        {
            "positions": [
                1.8459671952961991,
                -1.67822779599864,
                -1.9382106329508852,
                -2.194038749921302,
                0.2639368328826809,
                3.040174075374966
            ]
        },
        {
            "positions": [
                1.9618631012109065,
                -1.741584222088735,
                -1.9136248927476718,
                -2.242481306827902,
                0.1679710401941769,
                3.0667408263011176
            ]
        },
        {
            "positions": [
                2.077759007125614,
                -1.80494064817883,
                -1.8890391525444583,
                -2.290923863734502,
                0.07200524750567294,
                3.0933075772272685
            ]
        },
        {
            "positions": [
                2.193654913040321,
                -1.8682970742689247,
                -1.8644534123412448,
                -2.3393664206411025,
                -0.023960545182831042,
                3.11987432815342
            ]
        },
        {
            "positions": [
                2.310468424546852,
                -1.9473344253851177,
                -1.8122807686157203,
                -2.3637163172172078,
                -0.13755249839764516,
                3.1223558394192095
            ]
        },
        {
            "positions": [
                2.427281936053383,
                -2.0263717765013105,
                -1.7601081248901955,
                -2.388066213793313,
                -0.2511444516124593,
                3.1248373506849987
            ]
        },
        {
            "positions": [
                2.5440954475599136,
                -2.1054091276175035,
                -1.7079354811646708,
                -2.4124161103694184,
                -0.3647364048272734,
                3.1273188619507883
            ]
        },
        {
            "positions": [
                2.6609089590664445,
                -2.1844464787336966,
                -1.6557628374391462,
                -2.4367660069455237,
                -0.4783283580420875,
                3.129800373216578
            ]
        }
    ]
}