{
    "goal": {
        "global_pose": {
            "orientation": {
                "w": 0.005598929693374612,
                "x": 0.007748599140229565,
                "y": 0.7110244013736278,
                "z": -0.7031023480610252
            },
            "position": {
                "x": -0.8858502320852131,
                "y": -0.7141253447532654,
                "z": 0.3711530566215515
            }
        },
        "name": "move_to_auspresseinheit_C"
    },
    "id": "LBKPIECE_move_to_auspresseinheit_C_141",
    "joint_names": [
        "shoulder_pan_joint",
        "shoulder_lift_joint",
        "elbow_joint",
        "wrist_1_joint",
        "wrist_2_joint",
        "wrist_3_joint"
    ],
    "metrics": {
        "cart_traj_len": 0.4936965021927753,
        "distance_elbow_joint": 1.0062924623513028,
        "distance_shoulder_lift_joint": 0.32782032029504804,
        "distance_shoulder_pan_joint": 0.2568479734077149,
        "distance_wrist_1_joint": 0.6939441036318261,
        "distance_wrist_2_joint": 1.30638219106508,
        "distance_wrist_3_joint": 0.07331644012447658,
        "smoothness": 4.844609600361787e-16,
        "time": 0.245841502,
        "traj_len": 1.91431541049939,
        "weighted_distance": 2.4107182883574985
    },
    "planner": "LBKPIECE",
    "start": {
        "state": {
            "elbow_joint": 1.7527959577730765,
            "shoulder_lift_joint": -0.9740617694224828,
            "shoulder_pan_joint": -2.967991417825869,
            "wrist_1_joint": -0.7595177689779385,
            "wrist_2_joint": 1.7443932448376545,
            "wrist_3_joint": 3.1991315425061013
        }
    },
    "waypoints": [
        {
            "positions": [
                -2.967991417825869,
                -0.9740617694224828,
                1.7527959577730765,
                -0.7595177689779385,
                1.7443932448376545,
                3.1991315425061013
            ]
        },
        {
            "positions": [
                -2.9423066204850974,
                -0.941279737392978,
                1.6521667115379461,
                -0.6901233586147559,
                1.6137550257311464,
                3.1917998984936538
            ]
        },
        {
            "positions": [
                -2.916621823144326,
                -0.9084977053634732,
                1.551537465302816,
                -0.6207289482515733,
                1.4831168066246385,
                3.184468254481206
            ]
        },
        {
            "positions": [
                -2.8909370258035545,
                -0.8757156733339684,
                1.4509082190676856,
                -0.5513345378883907,
                1.3524785875181304,
                3.177136610468758
            ]
        },
        {
            "positions": [
                -2.8652522284627833,
                -0.8429336413044636,
                1.3502789728325553,
                -0.4819401275252081,
                1.2218403684116224,
                3.1698049664563106
            ]
        },
        {
            "positions": [
                -2.8395674311220116,
                -0.8101516092749588,
                1.2496497265974251,
                -0.4125457171620255,
                1.0912021493051145,
                3.162473322443863
            ]
        },
        {
            "positions": [
                -2.81388263378124,
                -0.777369577245454,
                1.149020480362295,
                -0.34315130679884287,
                0.9605639301986065,
                3.1551416784314155
            ]
        },
        {
            "positions": [
                -2.7881978364404687,
                -0.7445875452159492,
                1.0483912341271646,
                -0.2737568964356603,
                0.8299257110920986,
                3.147810034418968
            ]
        },
        {
            "positions": [
                -2.762513039099697,
                -0.7118055131864444,
                0.9477619878920343,
                -0.20436248607247764,
                0.6992874919855905,
                3.14047839040652
            ]
        },
        {
            "positions": [
                -2.736828241758926,
                -0.6790234811569396,
                0.847132741656904,
                -0.13496807570929503,
                0.5686492728790824,
                3.1331467463940723
            ]
        },
        {
            "positions": [
                -2.711143444418154,
                -0.6462414491274348,
                0.7465034954217736,
                -0.06557366534611248,
                0.4380110537725745,
                3.1258151023816247
            ]
        }
    ]
}