{
    "goal": {
        "global_pose": {
            "orientation": {
                "w": 0.005598929693374612,
                "x": 0.007748599140229565,
                "y": 0.7110244013736278,
                "z": -0.7031023480610252
            },
            "position": {
                "x": 0.1141497679147869,
                "y": -0.7141253447532654,
                "z": 0.3711530566215515
            }
        },
        "name": "move_to_auspresseinheit_B"
    },
    "id": "LBKPIECE_move_to_auspresseinheit_B_30",
    "joint_names": [
        "shoulder_pan_joint",
        "shoulder_lift_joint",
        "elbow_joint",
        "wrist_1_joint",
        "wrist_2_joint",
        "wrist_3_joint"
    ],
    "metrics": {
        "cart_traj_len": 0.5656707654870331,
        "distance_elbow_joint": 0.06651594908942737,
        "distance_shoulder_lift_joint": 0.293050882603471,
        "distance_shoulder_pan_joint": 0.5756440159786214,
        "distance_wrist_1_joint": 0.337924785604952,
        "distance_wrist_2_joint": 1.0073982475429673,
        "distance_wrist_3_joint": 0.0024191503650126123,
        "smoothness": 6.344131583732827e-16,
        "time": 0.38876260399999996,
        "traj_len": 1.5109444169738513,
        "weighted_distance": 1.9060730219648974
    },
    "planner": "LBKPIECE",
    "start": {
        "state": {
            "elbow_joint": 2.0193061681459312,
            "shoulder_lift_joint": -1.1220205130644991,
            "shoulder_pan_joint": -1.0952072088045026,
            "wrist_1_joint": -0.8559671810662515,
            "wrist_2_joint": 0.4759638712940361,
            "wrist_3_joint": 3.159081874192446
        }
    },
    "waypoints": [
        {
            "positions": [
                -1.0952072088045026,
                -1.1220205130644991,
                2.0193061681459312,
                -0.8559671810662515,
                0.4759638712940361,
                3.159081874192446
            ]
        },
        {
            "positions": [
                -1.1911478781342728,
                -1.1708623268317444,
                2.008220176631027,
                -0.7996463834654262,
                0.643863579217864,
                3.1586786824649438
            ]
        },
        {
            "positions": [
                -1.287088547464043,
                -1.2197041405989895,
                1.9971341851161222,
                -0.7433255858646008,
                0.8117632871416918,
                3.158275490737442
            ]
        },
        {
            "positions": [
                -1.3830292167938132,
                -1.2685459543662345,
                1.9860481936012175,
                -0.6870047882637755,
                0.9796629950655198,
                3.1578722990099397
            ]
        },
        {
            "positions": [
                -1.4789698861235836,
                -1.3173877681334798,
                1.974962202086313,
                -0.6306839906629502,
                1.1475627029893476,
                3.1574691072824375
            ]
        },
        {
            "positions": [
                -1.5749105554533538,
                -1.366229581900725,
                1.9638762105714085,
                -0.5743631930621248,
                1.3154624109131756,
                3.1570659155549357
            ]
        },
        {
            "positions": [
                -1.670851224783124,
                -1.4150713956679701,
                1.9527902190565039,
                -0.5180423954612995,
                1.4833621188370034,
                3.1566627238274334
            ]
        }
    ]
}