{
    "goal": {
        "global_pose": {
            "orientation": {
                "w": 0.5084816217422485,
                "x": -0.49083608388900757,
                "y": 0.5182115435600281,
                "z": -0.4816462993621826
            },
            "position": {
                "x": 0.5540239810943604,
                "y": 0.030875300988554955,
                "z": 0.16403168439865112
            }
        },
        "name": "move_to_storage_A"
    },
    "id": "LBKPIECE_move_to_storage_A_97",
    "joint_names": [
        "shoulder_pan_joint",
        "shoulder_lift_joint",
        "elbow_joint",
        "wrist_1_joint",
        "wrist_2_joint",
        "wrist_3_joint"
    ],
    "metrics": {
        "cart_traj_len": 0.352768097517486,
        "distance_elbow_joint": 0.4486574478908507,
        "distance_shoulder_lift_joint": 0.23291213755545215,
        "distance_shoulder_pan_joint": 0.45733640062250064,
        "distance_wrist_1_joint": 0.24280599835392103,
        "distance_wrist_2_joint": 1.1141399647346963,
        "distance_wrist_3_joint": 0.09199805482221146,
        "smoothness": 0.0,
        "time": 0.2094273,
        "traj_len": 1.6086795840003787,
        "weighted_distance": 2.031942931460594
    },
    "planner": "LBKPIECE",
    "start": {
        "state": {
            "elbow_joint": 1.971548880431181,
            "shoulder_lift_joint": -1.1394869514688781,
            "shoulder_pan_joint": 0.12281150262730567,
            "wrist_1_joint": -0.7804693444481463,
            "wrist_2_joint": 0.12958644648617612,
            "wrist_3_joint": 3.0906942077768043
        }
    },
    "waypoints": [
        {
            "positions": [
                0.12281150262730567,
                -1.1394869514688781,
                1.971548880431181,
                -0.7804693444481463,
                0.12958644648617612,
                3.0906942077768043
            ]
        },
        {
            "positions": [
                0.057477731109805585,
                -1.1727601139767998,
                2.035642801558445,
                -0.8151559156415636,
                0.28874929859113274,
                3.10383678703712
            ]
        },
        {
            "positions": [
                -0.007856040407694498,
                -1.2060332764847217,
                2.0997367226857095,
                -0.8498424868349809,
                0.44791215069608936,
                3.116979366297436
            ]
        },
        {
            "positions": [
                -0.07318981192519458,
                -1.2393064389926434,
                2.163830643812974,
                -0.8845290580283982,
                0.607075002801046,
                3.130121945557752
            ]
        },
        {
            "positions": [
                -0.13852358344269466,
                -1.272579601500565,
                2.2279245649402384,
                -0.9192156292218154,
                0.7662378549060026,
                3.143264524818068
            ]
        },
        {
            "positions": [
                -0.2038573549601948,
                -1.305852764008487,
                2.292018486067503,
                -0.9539022004152328,
                0.9254007070109592,
                3.156407104078384
            ]
        },
        {
            "positions": [
                -0.26919112647769483,
                -1.3391259265164086,
                2.3561124071947672,
                -0.98858877160865,
                1.084563559115916,
                3.1695496833387
            ]
        },
        {
            "positions": [
                -0.33452489799519497,
                -1.3723990890243303,
                2.4202063283220316,
                -1.0232753428020673,
                1.2437264112208724,
                3.1826922625990157
            ]
        }
    ]
}