{
    "goal": {
        "global_pose": {
            "orientation": {
                "w": -0.00223480608172531,
                "x": 0.0024358444001904467,
                "y": 0.7094548369677653,
                "z": -0.704743149386269
            },
            "position": {
                "x": 0.6205249238014221,
                "y": -0.6371506643295288,
                "z": 0.19426114857196808
            }
        },
        "name": "move_to_magneteinheit_B"
    },
    "id": "LBKPIECE_move_to_magneteinheit_B_145",
    "joint_names": [
        "shoulder_pan_joint",
        "shoulder_lift_joint",
        "elbow_joint",
        "wrist_1_joint",
        "wrist_2_joint",
        "wrist_3_joint"
    ],
    "metrics": {
        "cart_traj_len": 3.790459694252708,
        "distance_elbow_joint": 4.545425681140568,
        "distance_shoulder_lift_joint": 0.707136748733683,
        "distance_shoulder_pan_joint": 2.251047293428839,
        "distance_wrist_1_joint": 1.9901777721456013,
        "distance_wrist_2_joint": 1.962638144744365,
        "distance_wrist_3_joint": 6.366564097782215,
        "smoothness": 0.34088973117663784,
        "time": 0.653318833,
        "traj_len": 4.22172828803267,
        "weighted_distance": 5.874430512860772
    },
    "planner": "LBKPIECE",
    "start": {
        "state": {
            "elbow_joint": 2.393587130804639,
            "shoulder_lift_joint": -1.9085141043513325,
            "shoulder_pan_joint": 0.7066247066698809,
            "wrist_1_joint": -0.4678290934590222,
            "wrist_2_joint": 0.7096259084215963,
            "wrist_3_joint": 3.147370379541726
        }
    },
    "waypoints": [
        {
            "positions": [
                0.7066247066698809,
                -1.9085141043513325,
                2.393587130804639,
                -0.4678290934590222,
                0.7096259084215963,
                3.147370379541726
            ]
        },
        {
            "positions": [
                0.6079004171886521,
                -1.8921745837635786,
                2.3319711929424978,
                -0.46191200414575906,
                0.7796558947066325,
                3.0720049630571307
            ]
        },
        {
            "positions": [
                0.5833502275314357,
                -1.8845948168783795,
                2.2044087486868076,
                -0.5166446252605277,
                0.7647414213368835,
                2.916539441340244
            ]
        },
        {
            "positions": [
                0.5588000378742193,
                -1.8770150499931804,
                2.076846304431118,
                -0.5713772463752963,
                0.7498269479671344,
                2.7610739196233576
            ]
        },
        {
            "positions": [
                0.6090783187224011,
                -1.8721728083290021,
                1.9768155651717947,
                -0.6184961881751544,
                0.7124150169797953,
                2.6117750906691977
            ]
        },
        {
            "positions": [
                0.659356599570583,
                -1.8673305666648239,
                1.8767848259124713,
                -0.6656151299750126,
                0.6750030859924561,
                2.4624762617150373
            ]
        },
        {
            "positions": [
                0.7096348804187649,
                -1.8624883250006457,
                1.7767540866531482,
                -0.7127340717748707,
                0.6375911550051169,
                2.3131774327608774
            ]
        },
        {
            "positions": [
                0.7599131612669467,
                -1.8576460833364674,
                1.676723347393825,
                -0.7598530135747288,
                0.6001792240177777,
                2.163878603806717
            ]
        },
        {
            "positions": [
                0.8101914421151286,
                -1.8528038416722892,
                1.5766926081345018,
                -0.806971955374587,
                0.5627672930304384,
                2.014579774852557
            ]
        },
        {
            "positions": [
                0.8604697229633106,
                -1.847961600008111,
                1.4766618688751785,
                -0.8540908971744452,
                0.5253553620430992,
                1.8652809458983972
            ]
        },
        {
            "positions": [
                0.9107480038114925,
                -1.8431193583439325,
                1.376631129615855,
                -0.9012098389743033,
                0.48794343105576,
                1.715982116944237
            ]
        },
        {
            "positions": [
                0.9610262846596743,
                -1.8382771166797542,
                1.2766003903565322,
                -0.9483287807741614,
                0.4505315000684208,
                1.566683287990077
            ]
        },
        {
            "positions": [
                1.011304565507856,
                -1.833434875015576,
                1.1765696510972088,
                -0.9954477225740195,
                0.41311956908108155,
                1.417384459035917
            ]
        },
        {
            "positions": [
                1.0615828463560382,
                -1.8285926333513978,
                1.0765389118378856,
                -1.0425666643738776,
                0.37570763809374236,
                1.268085630081757
            ]
        },
        {
            "positions": [
                1.11186112720422,
                -1.8237503916872195,
                0.9765081725785623,
                -1.0896856061737359,
                0.3382957071064031,
                1.1187868011275968
            ]
        },
        {
            "positions": [
                1.162139408052402,
                -1.8189081500230413,
                0.8764774333192391,
                -1.136804547973594,
                0.300883776119064,
                0.9694879721734369
            ]
        },
        {
            "positions": [
                1.2124176889005838,
                -1.814065908358863,
                0.7764466940599157,
                -1.183923489773452,
                0.2634718451317247,
                0.8201891432192765
            ]
        },
        {
            "positions": [
                1.2626959697487656,
                -1.8092236666946848,
                0.6764159548005926,
                -1.2310424315733104,
                0.22605991414438553,
                0.6708903142651166
            ]
        },
        {
            "positions": [
                1.3129742505969475,
                -1.8043814250305066,
                0.5763852155412692,
                -1.2781613733731683,
                0.18864798315704634,
                0.5215914853109562
            ]
        },
        {
            "positions": [
                1.3632525314451294,
                -1.7995391833663283,
                0.47635447628194627,
                -1.3252803151730266,
                0.15123605216970715,
                0.3722926563567963
            ]
        },
        {
            "positions": [
                1.4135308122933115,
                -1.79469694170215,
                0.3763237370226229,
                -1.3723992569728847,
                0.11382412118236784,
                0.2229938274026364
            ]
        },
        {
            "positions": [
                1.463809093141493,
                -1.7898547000379719,
                0.27629299776329974,
                -1.4195181987727428,
                0.07641219019502865,
                0.07369499844847649
            ]
        },
        {
            "positions": [
                1.5140873739896752,
                -1.7850124583737936,
                0.17626225850397637,
                -1.466637140572601,
                0.03900025920768946,
                -0.07560383050568387
            ]
        },
        {
            "positions": [
                1.5643656548378568,
                -1.7801702167096152,
                0.07623151924465343,
                -1.513756082372459,
                0.0015883282203502658,
                -0.22490265945984378
            ]
        },
        {
            "positions": [
                1.614643935686039,
                -1.775327975045437,
                -0.023799220014670386,
                -1.5608750241723173,
                -0.03582360276698904,
                -0.37420148841400414
            ]
        },
        {
            "positions": [
                1.6649222165342208,
                -1.7704857333812587,
                -0.12382995927399332,
                -1.6079939659721756,
                -0.07323553375432823,
                -0.523500317368164
            ]
        },
        {
            "positions": [
                1.7152004973824027,
                -1.7656434917170805,
                -0.2238606985333167,
                -1.6551129077720335,
                -0.11064746474166742,
                -0.672799146322324
            ]
        },
        {
            "positions": [
                1.7654787782305845,
                -1.7608012500529022,
                -0.3238914377926396,
                -1.7022318495718918,
                -0.1480593957290065,
                -0.8220979752764839
            ]
        },
        {
            "positions": [
                1.8157570590787664,
                -1.755959008388724,
                -0.42392217705196344,
                -1.74935079137175,
                -0.18547132671634592,
                -0.9713968042306447
            ]
        },
        {
            "positions": [
                1.8660353399269483,
                -1.7511167667245457,
                -0.5239529163112864,
                -1.796469733171608,
                -0.222883257703685,
                -1.1206956331848046
            ]
        },
        {
            "positions": [
                1.9163136207751301,
                -1.7462745250603675,
                -0.6239836555706093,
                -1.8435886749714663,
                -0.2602951886910243,
                -1.269994462138964
            ]
        },
        {
            "positions": [
                1.966591901623312,
                -1.7414322833961893,
                -0.7240143948299327,
                -1.8907076167713242,
                -0.2977071196783634,
                -1.4192932910931244
            ]
        },
        {
            "positions": [
                2.016870182471494,
                -1.736590041732011,
                -0.8240451340892561,
                -1.9378265585711825,
                -0.3351190506657027,
                -1.5685921200472848
            ]
        },
        {
            "positions": [
                2.0671484633196755,
                -1.7317478000678328,
                -0.9240758733485794,
                -1.9849455003710403,
                -0.37253098165304177,
                -1.7178909490014451
            ]
        },
        {
            "positions": [
                2.1174267441678576,
                -1.7269055584036546,
                -1.0241066126079024,
                -2.0320644421708987,
                -0.4099429126403811,
                -1.8671897779556046
            ]
        },
        {
            "positions": [
                2.1677050250160397,
                -1.7220633167394763,
                -1.1241373518672253,
                -2.0791833839707565,
                -0.44735484362772016,
                -2.016488606909765
            ]
        },
        {
            "positions": [
                2.2179833058642213,
                -1.7172210750752979,
                -1.2241680911265491,
                -2.126302325770615,
                -0.48476677461505946,
                -2.1657874358639253
            ]
        },
        {
            "positions": [
                2.2682615867124034,
                -1.7123788334111196,
                -1.324198830385872,
                -2.173421267570473,
                -0.5221787056023988,
                -2.3150862648180848
            ]
        },
        {
            "positions": [
                2.3185398675605855,
                -1.7075365917469414,
                -1.4242295696451954,
                -2.220540209370331,
                -0.5595906365897378,
                -2.464385093772245
            ]
        },
        {
            "positions": [
                2.368818148408767,
                -1.7026943500827632,
                -1.5242603089045184,
                -2.2676591511701893,
                -0.5970025675770771,
                -2.6136839227264046
            ]
        },
        {
            "positions": [
                2.419096429256949,
                -1.697852108418585,
                -1.6242910481638422,
                -2.3147780929700477,
                -0.6344144985644165,
                -2.762982751680566
            ]
        },
        {
            "positions": [
                2.469374710105131,
                -1.6930098667544067,
                -1.724321787423165,
                -2.3618970347699055,
                -0.6718264295517555,
                -2.912281580634725
            ]
        },
        {
            "positions": [
                2.533313411554359,
                -1.7283201382297504,
                -1.7840711608871944,
                -2.3896506378562363,
                -0.7132550912025222,
                -3.0026298304012786
            ]
        },
        {
            "positions": [
                2.597252113003587,
                -1.7636304097050939,
                -1.8438205343512237,
                -2.417404240942567,
                -0.7546837528532888,
                -3.0929780801678324
            ]
        },
        {
            "positions": [
                2.6611908144528154,
                -1.7989406811804376,
                -1.903569907815253,
                -2.445157844028898,
                -0.7961124145040555,
                -3.183326329934386
            ]
        },
        {
            "positions": [
                2.660913531767955,
                -1.9275079134173463,
                -1.8208136936416945,
                -2.4448195630458316,
                -0.6904991314211752,
                -3.171370533832352
            ]
        },
        {
            "positions": [
                2.660636249083095,
                -2.056075145654255,
                -1.7380574794681363,
                -2.444481282062765,
                -0.5848858483382949,
                -3.159414737730318
            ]
        },
        {
            "positions": [
                2.6603589663982343,
                -2.184642377891164,
                -1.6553012652945778,
                -2.4441430010796985,
                -0.4792725652554147,
                -3.147458941628284
            ]
        }
    ]
}