{
    "goal": {
        "global_pose": {
            "orientation": {
                "w": -0.00223480608172531,
                "x": 0.0024358444001904467,
                "y": 0.7094548369677653,
                "z": -0.704743149386269
            },
            "position": {
                "x": 0.6205249238014221,
                "y": -0.6371506643295288,
                "z": 0.19426114857196808
            }
        },
        "name": "move_to_magneteinheit_B"
    },
    "id": "LBKPIECE_move_to_magneteinheit_B_87",
    "joint_names": [
        "shoulder_pan_joint",
        "shoulder_lift_joint",
        "elbow_joint",
        "wrist_1_joint",
        "wrist_2_joint",
        "wrist_3_joint"
    ],
    "metrics": {
        "cart_traj_len": 1.4523588795853222,
        "distance_elbow_joint": 0.7302831201925171,
        "distance_shoulder_lift_joint": 1.2495407885167797,
        "distance_shoulder_pan_joint": 1.6208568705724042,
        "distance_wrist_1_joint": 2.6025987820687773,
        "distance_wrist_2_joint": 2.943162761781085,
        "distance_wrist_3_joint": 3.143120785822067,
        "smoothness": 4.306319614399981e-16,
        "time": 0.352272467,
        "traj_len": 3.5056473166811335,
        "weighted_distance": 4.911371114510451
    },
    "planner": "LBKPIECE",
    "start": {
        "state": {
            "elbow_joint": 2.393587130804639,
            "shoulder_lift_joint": -1.9085141043513325,
            "shoulder_pan_joint": 0.7066247066698809,
            "wrist_1_joint": -0.4678290934590222,
            "wrist_2_joint": 0.7096259084215963,
            "wrist_3_joint": 3.147370379541726
        }
    },
    "waypoints": [
        {
            "positions": [
                0.7066247066698809,
                -1.9085141043513325,
                2.393587130804639,
                -0.4678290934590222,
                0.7096259084215963,
                3.147370379541726
            ]
        },
        {
            "positions": [
                0.6559729294644933,
                -1.869465954710183,
                2.370765783298623,
                -0.38649788151937287,
                0.6176520721159374,
                3.0491478549847866
            ]
        },
        {
            "positions": [
                0.6053211522591055,
                -1.8304178050690338,
                2.3479444357926065,
                -0.3051666695797236,
                0.5256782358102785,
                2.9509253304278467
            ]
        },
        {
            "positions": [
                0.5546693750537179,
                -1.7913696554278844,
                2.3251230882865905,
                -0.2238354576400743,
                0.4337043995046197,
                2.852702805870907
            ]
        },
        {
            "positions": [
                0.5040175978483303,
                -1.752321505786735,
                2.302301740780574,
                -0.14250424570042497,
                0.3417305631989608,
                2.7544802813139677
            ]
        },
        {
            "positions": [
                0.45336582064294273,
                -1.7132733561455857,
                2.279480393274558,
                -0.06117303376077565,
                0.24975672689330186,
                2.6562577567570282
            ]
        },
        {
            "positions": [
                0.40271404343755507,
                -1.6742252065044363,
                2.256659045768542,
                0.02015817817887361,
                0.15778289058764305,
                2.5580352322000883
            ]
        },
        {
            "positions": [
                0.3520622662321674,
                -1.635177056863287,
                2.233837698262526,
                0.10148939011852293,
                0.06580905428198414,
                2.459812707643149
            ]
        },
        {
            "positions": [
                0.3014104890267798,
                -1.5961289072221376,
                2.2110163507565095,
                0.18282060205817224,
                -0.026164782023674782,
                2.3615901830862094
            ]
        },
        {
            "positions": [
                0.2507587118213922,
                -1.5570807575809882,
                2.1881950032504935,
                0.26415181399782156,
                -0.1181386183293337,
                2.26336765852927
            ]
        },
        {
            "positions": [
                0.2001069346160046,
                -1.5180326079398387,
                2.165373655744477,
                0.3454830259374709,
                -0.21011245463499262,
                2.16514513397233
            ]
        },
        {
            "positions": [
                0.14945515741061688,
                -1.4789844582986895,
                2.142552308238461,
                0.4268142378771202,
                -0.3020862909406514,
                2.0669226094153905
            ]
        },
        {
            "positions": [
                0.09880338020522927,
                -1.43993630865754,
                2.119730960732445,
                0.5081454498167695,
                -0.39406012724631023,
                1.9687000848584508
            ]
        },
        {
            "positions": [
                0.04815160299984167,
                -1.4008881590163909,
                2.096909613226429,
                0.5894766617564189,
                -0.48603396355196926,
                1.8704775603015114
            ]
        },
        {
            "positions": [
                -0.0025001742055460463,
                -1.3618400093752414,
                2.0740882657204125,
                0.6708078736960681,
                -0.5780077998576281,
                1.7722550357445717
            ]
        },
        {
            "positions": [
                -0.05315195141093365,
                -1.322791859734092,
                2.0512669182143966,
                0.7521390856357175,
                -0.6699816361632871,
                1.6740325111876322
            ]
        },
        {
            "positions": [
                -0.10380372861632126,
                -1.2837437100929425,
                2.02844557070838,
                0.8334702975753667,
                -0.7619554724689459,
                1.5758099866306925
            ]
        },
        {
            "positions": [
                -0.15445550582170886,
                -1.2446955604517933,
                2.005624223202364,
                0.9148015095150159,
                -0.8539293087746047,
                1.4775874620737528
            ]
        },
        {
            "positions": [
                -0.20510728302709647,
                -1.2056474108106439,
                1.9828028756963478,
                0.9961327214546654,
                -0.9459031450802637,
                1.3793649375168133
            ]
        },
        {
            "positions": [
                -0.2557590602324842,
                -1.1665992611694946,
                1.959981528190332,
                1.0774639333943146,
                -1.0378769813859225,
                1.2811424129598736
            ]
        },
        {
            "positions": [
                -0.3064108374378717,
                -1.1275511115283452,
                1.9371601806843155,
                1.158795145333964,
                -1.1298508176915816,
                1.1829198884029342
            ]
        },
        {
            "positions": [
                -0.3570626146432595,
                -1.0885029618871958,
                1.9143388331782996,
                1.2401263572736132,
                -1.2218246539972404,
                1.0846973638459945
            ]
        },
        {
            "positions": [
                -0.4077143918486471,
                -1.0494548122460463,
                1.8915174856722832,
                1.3214575692132626,
                -1.3137984903028992,
                0.986474839289055
            ]
        },
        {
            "positions": [
                -0.4583661690540347,
                -1.010406662604897,
                1.8686961381662672,
                1.4027887811529118,
                -1.405772326608558,
                0.8882523147321155
            ]
        },
        {
            "positions": [
                -0.5090179462594223,
                -0.9713585129637476,
                1.845874790660251,
                1.484119993092561,
                -1.4977461629142168,
                0.7900297901751756
            ]
        },
        {
            "positions": [
                -0.5596697234648099,
                -0.9323103633225983,
                1.823053443154235,
                1.5654512050322105,
                -1.589719999219876,
                0.6918072656182361
            ]
        },
        {
            "positions": [
                -0.6103215006701975,
                -0.893262213681449,
                1.8002320956482187,
                1.64678241697186,
                -1.6816938355255349,
                0.5935847410612967
            ]
        },
        {
            "positions": [
                -0.6609732778755851,
                -0.8542140640402995,
                1.7774107481422026,
                1.7281136289115089,
                -1.7736676718311937,
                0.49536221650435674
            ]
        },
        {
            "positions": [
                -0.711625055080973,
                -0.8151659143991503,
                1.7545894006361864,
                1.8094448408511583,
                -1.8656415081368525,
                0.3971396919474173
            ]
        },
        {
            "positions": [
                -0.7622768322863606,
                -0.7761177647580009,
                1.7317680531301702,
                1.8907760527908077,
                -1.9576153444425113,
                0.2989171673904778
            ]
        },
        {
            "positions": [
                -0.8129286094917482,
                -0.7370696151168514,
                1.708946705624154,
                1.9721072647304572,
                -2.0495891807481703,
                0.20069464283353833
            ]
        },
        {
            "positions": [
                -0.8635803866971358,
                -0.6980214654757022,
                1.686125358118138,
                2.053438476670106,
                -2.141563017053829,
                0.10247211827659841
            ]
        },
        {
            "positions": [
                -0.9142321639025234,
                -0.6589733158345528,
                1.6633040106121217,
                2.1347696886097554,
                -2.2335368533594884,
                0.004249593719659121
            ]
        }
    ]
}