{
    "goal": {
        "global_pose": {
            "orientation": {
                "w": 0.5084816262002911,
                "x": -0.4908360881923452,
                "y": 0.5182115481033761,
                "z": -0.48164630358495003
            },
            "position": {
                "x": 0.5540239810943604,
                "y": -0.46912469901144505,
                "z": 0.16403168439865112
            }
        },
        "name": "move_to_storage_B"
    },
    "id": "LBKPIECE_move_to_storage_B_90",
    "joint_names": [
        "shoulder_pan_joint",
        "shoulder_lift_joint",
        "elbow_joint",
        "wrist_1_joint",
        "wrist_2_joint",
        "wrist_3_joint"
    ],
    "metrics": {
        "cart_traj_len": 0.7337305751043176,
        "distance_elbow_joint": 0.35093474495152743,
        "distance_shoulder_lift_joint": 0.45974642864906823,
        "distance_shoulder_pan_joint": 0.547085450349448,
        "distance_wrist_1_joint": 2.9837760642799442,
        "distance_wrist_2_joint": 2.707598860628023,
        "distance_wrist_3_joint": 3.7988932347689834,
        "smoothness": 0.2989935072835906,
        "time": 0.22770105100000002,
        "traj_len": 3.2936354964730077,
        "weighted_distance": 4.912962057463188
    },
    "planner": "LBKPIECE",
    "start": {
        "state": {
            "elbow_joint": 1.6649325340416963,
            "shoulder_lift_joint": -0.6616387945129425,
            "shoulder_pan_joint": -0.9139837929255878,
            "wrist_1_joint": 2.1467571094334352,
            "wrist_2_joint": -2.234195976750228,
            "wrist_3_joint": 0.005470921511140723
        }
    },
    "waypoints": [
        {
            "positions": [
                -0.9139837929255878,
                -0.6616387945129425,
                1.6649325340416963,
                2.1467571094334352,
                -2.234195976750228,
                0.005470921511140723
            ]
        },
        {
            "positions": [
                -0.868339924577755,
                -0.6745999176363563,
                1.6727744370542346,
                2.0568536865287683,
                -2.1071369400133757,
                -0.07724098109411373
            ]
        },
        {
            "positions": [
                -0.8226960562299221,
                -0.6875610407597701,
                1.680616340066773,
                1.9669502636241012,
                -1.9800779032765234,
                -0.15995288369936816
            ]
        },
        {
            "positions": [
                -0.7770521878820892,
                -0.7005221638831839,
                1.6884582430793114,
                1.877046840719434,
                -1.8530188665396714,
                -0.2426647863046226
            ]
        },
        {
            "positions": [
                -0.7314083195342563,
                -0.7134832870065977,
                1.6963001460918496,
                1.7871434178147672,
                -1.7259598298028191,
                -0.3253766889098771
            ]
        },
        {
            "positions": [
                -0.7465962352408445,
                -0.7304792010130732,
                1.7096154432960735,
                1.6778033189538806,
                -1.6343197167327936,
                -0.18087478789537853
            ]
        },
        {
            "positions": [
                -0.7617841509474327,
                -0.7474751150195488,
                1.7229307405002974,
                1.5684632200929942,
                -1.542679603662768,
                -0.03637288688087997
            ]
        },
        {
            "positions": [
                -0.7769720666540209,
                -0.7644710290260244,
                1.7362460377045215,
                1.4591231212321076,
                -1.4510394905927424,
                0.10812901413361858
            ]
        },
        {
            "positions": [
                -0.7921599823606091,
                -0.7814669430324999,
                1.7495613349087453,
                1.3497830223712213,
                -1.359399377522717,
                0.25263091514811714
            ]
        },
        {
            "positions": [
                -0.8073478980671973,
                -0.7984628570389753,
                1.7628766321129692,
                1.2404429235103347,
                -1.2677592644526912,
                0.3971328161626157
            ]
        },
        {
            "positions": [
                -0.8225358137737855,
                -0.815458771045451,
                1.7761919293171933,
                1.1311028246494481,
                -1.1761191513826657,
                0.5416347171771143
            ]
        },
        {
            "positions": [
                -0.8377237294803737,
                -0.8324546850519265,
                1.7895072265214171,
                1.0217627257885615,
                -1.0844790383126401,
                0.6861366181916129
            ]
        },
        {
            "positions": [
                -0.8529116451869618,
                -0.849450599058402,
                1.802822523725641,
                0.9124226269276753,
                -0.9928389252426145,
                0.8306385192061114
            ]
        },
        {
            "positions": [
                -0.86809956089355,
                -0.8664465130648775,
                1.8161378209298649,
                0.8030825280667888,
                -0.9011988121725889,
                0.97514042022061
            ]
        },
        {
            "positions": [
                -0.8832874766001382,
                -0.8834424270713531,
                1.8294531181340887,
                0.6937424292059022,
                -0.8095586991025633,
                1.1196423212351085
            ]
        },
        {
            "positions": [
                -0.8984753923067264,
                -0.9004383410778287,
                1.8427684153383128,
                0.5844023303450159,
                -0.7179185860325379,
                1.264144222249607
            ]
        },
        {
            "positions": [
                -0.9136633080133145,
                -0.9174342550843042,
                1.8560837125425367,
                0.4750622314841293,
                -0.6262784729625122,
                1.4086461232641057
            ]
        },
        {
            "positions": [
                -0.9288512237199027,
                -0.9344301690907797,
                1.8693990097467605,
                0.36572213262324293,
                -0.5346383598924866,
                1.553148024278604
            ]
        },
        {
            "positions": [
                -0.944039139426491,
                -0.9514260830972553,
                1.8827143069509846,
                0.25638203376235613,
                -0.4429982468224609,
                1.6976499252931028
            ]
        },
        {
            "positions": [
                -0.9592270551330792,
                -0.9684219971037309,
                1.8960296041552085,
                0.14704193490146977,
                -0.3513581337524354,
                1.8421518263076013
            ]
        },
        {
            "positions": [
                -0.9744149708396673,
                -0.9854179111102064,
                1.9093449013594324,
                0.037701836040583414,
                -0.2597180206824099,
                1.9866537273220999
            ]
        },
        {
            "positions": [
                -0.9896028865462555,
                -1.0024138251166819,
                1.9226601985636562,
                -0.07163826282030317,
                -0.16807790761238417,
                2.1311556283365984
            ]
        },
        {
            "positions": [
                -1.0047908022528436,
                -1.0194097391231574,
                1.93597549576788,
                -0.18097836168118953,
                -0.07643779454235866,
                2.275657529351097
            ]
        },
        {
            "positions": [
                -1.019978717959432,
                -1.036405653129633,
                1.9492907929721042,
                -0.2903184605420761,
                0.015202318527666847,
                2.4201594303655956
            ]
        },
        {
            "positions": [
                -1.0351666336660201,
                -1.0534015671361086,
                1.962606090176328,
                -0.3996585594029627,
                0.10684243159769258,
                2.564661331380094
            ]
        },
        {
            "positions": [
                -1.0503545493726083,
                -1.070397481142584,
                1.975921387380552,
                -0.5089986582638493,
                0.19848254466771809,
                2.7091632323945927
            ]
        },
        {
            "positions": [
                -1.0655424650791965,
                -1.0873933951490597,
                1.989236684584776,
                -0.6183387571247354,
                0.2901226577377434,
                2.8536651334090912
            ]
        },
        {
            "positions": [
                -1.0807303807857847,
                -1.1043893091555352,
                2.002551981789,
                -0.727678855985622,
                0.38176277080776955,
                2.99816703442359
            ]
        },
        {
            "positions": [
                -1.0959182964923728,
                -1.1213852231620107,
                2.0158672789932237,
                -0.8370189548465086,
                0.4734028838777948,
                3.1426689354380883
            ]
        }
    ]
}