{
    "goal": {
        "global_pose": {
            "orientation": {
                "w": 0.7031023480610252,
                "x": -0.7110244013736278,
                "y": 0.0077485991402295624,
                "z": 0.005598929693374583
            },
            "position": {
                "x": -0.8841497679147869,
                "y": 0.44412534475326537,
                "z": 0.3711530566215515
            }
        },
        "name": "move_to_auspresseinheit_D"
    },
    "id": "LBKPIECE_move_to_auspresseinheit_D_130",
    "joint_names": [
        "shoulder_pan_joint",
        "shoulder_lift_joint",
        "elbow_joint",
        "wrist_1_joint",
        "wrist_2_joint",
        "wrist_3_joint"
    ],
    "metrics": {
        "cart_traj_len": 0.34261142059101746,
        "distance_elbow_joint": 0.6312883927819637,
        "distance_shoulder_lift_joint": 0.11785517707062487,
        "distance_shoulder_pan_joint": 0.13393562515176569,
        "distance_wrist_1_joint": 0.5074106871297448,
        "distance_wrist_2_joint": 1.4450946939266678,
        "distance_wrist_3_joint": 0.015489496659119695,
        "smoothness": 0.0,
        "time": 0.09889095,
        "traj_len": 1.688512384532576,
        "weighted_distance": 2.1987629356287
    },
    "planner": "LBKPIECE",
    "start": {
        "state": {
            "elbow_joint": -1.8275484843655228,
            "shoulder_lift_joint": -2.1267897864000416,
            "shoulder_pan_joint": -0.035127520176001514,
            "wrist_1_joint": -2.3477863256791385,
            "wrist_2_joint": -1.605890476484521,
            "wrist_3_joint": -3.0880375317375353
        }
    },
    "waypoints": [
        {
            "positions": [
                -0.035127520176001514,
                -2.1267897864000416,
                -1.8275484843655228,
                -2.3477863256791385,
                -1.605890476484521,
                -3.0880375317375353
            ]
        },
        {
            "positions": [
                -0.05186947331997223,
                -2.1415216835338695,
                -1.7486374352677774,
                -2.4112126615703566,
                -1.4252536397436875,
                -3.089973718819925
            ]
        },
        {
            "positions": [
                -0.06861142646394294,
                -2.156253580667698,
                -1.6697263861700318,
                -2.474638997461575,
                -1.2446168030028542,
                -3.091909905902315
            ]
        },
        {
            "positions": [
                -0.08535337960791364,
                -2.170985477801526,
                -1.5908153370722864,
                -2.538065333352793,
                -1.0639799662620206,
                -3.0938460929847054
            ]
        },
        {
            "positions": [
                -0.10209533275188436,
                -2.1857173749353542,
                -1.511904287974541,
                -2.6014916692440107,
                -0.8833431295211871,
                -3.095782280067095
            ]
        },
        {
            "positions": [
                -0.11883728589585507,
                -2.200449272069182,
                -1.4329932388767954,
                -2.664918005135229,
                -0.7027062927803536,
                -3.097718467149485
            ]
        },
        {
            "positions": [
                -0.13557923903982577,
                -2.21518116920301,
                -1.35408218977905,
                -2.728344341026447,
                -0.5220694560395203,
                -3.099654654231875
            ]
        },
        {
            "positions": [
                -0.15232119218379647,
                -2.2299130663368385,
                -1.2751711406813047,
                -2.791770676917665,
                -0.34143261929868673,
                -3.101590841314265
            ]
        },
        {
            "positions": [
                -0.1690631453277672,
                -2.2446449634706664,
                -1.196260091583559,
                -2.8551970128088833,
                -0.16079578255785326,
                -3.103527028396655
            ]
        }
    ]
}