{
    "goal": {
        "global_pose": {
            "orientation": {
                "w": -0.00223480608172531,
                "x": 0.0024358444001904467,
                "y": 0.7094548369677653,
                "z": -0.704743149386269
            },
            "position": {
                "x": 0.6205249238014221,
                "y": -0.6371506643295288,
                "z": 0.19426114857196808
            }
        },
        "name": "move_to_magneteinheit_B"
    },
    "id": "LBKPIECE_move_to_magneteinheit_B_37",
    "joint_names": [
        "shoulder_pan_joint",
        "shoulder_lift_joint",
        "elbow_joint",
        "wrist_1_joint",
        "wrist_2_joint",
        "wrist_3_joint"
    ],
    "metrics": {
        "cart_traj_len": 1.4521394025880245,
        "distance_elbow_joint": 0.7295221592430994,
        "distance_shoulder_lift_joint": 1.2492406729299361,
        "distance_shoulder_pan_joint": 1.6210942745349235,
        "distance_wrist_1_joint": 2.6024912568475913,
        "distance_wrist_2_joint": 2.936953851371457,
        "distance_wrist_3_joint": 3.1541323428620323,
        "smoothness": 1.8840148369936264e-16,
        "time": 0.480386432,
        "traj_len": 3.5061994463790906,
        "weighted_distance": 4.9133638529761
    },
    "planner": "LBKPIECE",
    "start": {
        "state": {
            "elbow_joint": 2.393587130804639,
            "shoulder_lift_joint": -1.9085141043513325,
            "shoulder_pan_joint": 0.7066247066698809,
            "wrist_1_joint": -0.4678290934590222,
            "wrist_2_joint": 0.7096259084215963,
            "wrist_3_joint": 3.147370379541726
        }
    },
    "waypoints": [
        {
            "positions": [
                0.7066247066698809,
                -1.9085141043513325,
                2.393587130804639,
                -0.4678290934590222,
                0.7096259084215963,
                3.147370379541726
            ]
        },
        {
            "positions": [
                0.6559655105906645,
                -1.869475333322272,
                2.370789563328292,
                -0.38650124168253497,
                0.6178461005662383,
                3.0488037438272877
            ]
        },
        {
            "positions": [
                0.6053063145114481,
                -1.8304365622932115,
                2.3479919958519453,
                -0.3051733899060477,
                0.5260662927108803,
                2.950237108112849
            ]
        },
        {
            "positions": [
                0.5546471184322318,
                -1.791397791264151,
                2.3251944283755983,
                -0.22384553812956048,
                0.43428648485552224,
                2.8516704723984105
            ]
        },
        {
            "positions": [
                0.5039879223530155,
                -1.7523590202350905,
                2.3023968608992513,
                -0.14251768635307327,
                0.34250667700016424,
                2.753103836683972
            ]
        },
        {
            "positions": [
                0.45332872627379905,
                -1.71332024920603,
                2.2795992934229043,
                -0.061189834576586055,
                0.25072686914480624,
                2.6545372009695334
            ]
        },
        {
            "positions": [
                0.40266953019458274,
                -1.6742814781769695,
                2.256801725946558,
                0.020138017199901215,
                0.15894706128944813,
                2.555970565255095
            ]
        },
        {
            "positions": [
                0.35201033411536636,
                -1.635242707147909,
                2.234004158470211,
                0.10146586897638837,
                0.06716725343409014,
                2.4574039295406562
            ]
        },
        {
            "positions": [
                0.30135113803615,
                -1.5962039361188485,
                2.211206590993864,
                0.18279372075287564,
                -0.024612554421267863,
                2.358837293826218
            ]
        },
        {
            "positions": [
                0.2506919419569336,
                -1.557165165089788,
                2.188409023517517,
                0.2641215725293629,
                -0.11639236227662586,
                2.2602706581117795
            ]
        },
        {
            "positions": [
                0.20003274587771724,
                -1.5181263940607275,
                2.1656114560411703,
                0.3454494243058501,
                -0.20817217013198386,
                2.161704022397341
            ]
        },
        {
            "positions": [
                0.14937354979850093,
                -1.479087623031667,
                2.1428138885648234,
                0.42677727608233734,
                -0.29995197798734186,
                2.0631373866829024
            ]
        },
        {
            "positions": [
                0.09871435371928461,
                -1.4400488520026065,
                2.1200163210884764,
                0.5081051278588247,
                -0.3917317858427001,
                1.964570750968464
            ]
        },
        {
            "positions": [
                0.04805515764006818,
                -1.401010080973546,
                2.09721875361213,
                0.5894329796353119,
                -0.4835115936980581,
                1.8660041152540254
            ]
        },
        {
            "positions": [
                -0.0026040384391481375,
                -1.3619713099444855,
                2.074421186135783,
                0.670760831411799,
                -0.5752914015534161,
                1.7674374795395869
            ]
        },
        {
            "positions": [
                -0.053263234518364566,
                -1.322932538915425,
                2.051623618659436,
                0.7520886831882863,
                -0.6670712094087741,
                1.6688708438251485
            ]
        },
        {
            "positions": [
                -0.10392243059758088,
                -1.2838937678863644,
                2.0288260511830893,
                0.8334165349647735,
                -0.7588510172641321,
                1.57030420811071
            ]
        },
        {
            "positions": [
                -0.1545816266767972,
                -1.244854996857304,
                2.0060284837067424,
                0.9147443867412608,
                -0.8506308251194901,
                1.4717375723962713
            ]
        },
        {
            "positions": [
                -0.20524082275601363,
                -1.2058162258282434,
                1.9832309162303954,
                0.9960722385177481,
                -0.9424106329748481,
                1.373170936681833
            ]
        },
        {
            "positions": [
                -0.25590001883522995,
                -1.166777454799183,
                1.9604333487540486,
                1.0774000902942351,
                -1.034190440830206,
                1.2746043009673944
            ]
        },
        {
            "positions": [
                -0.3065592149144464,
                -1.1277386837701224,
                1.9376357812777016,
                1.1587279420707224,
                -1.125970248685564,
                1.1760376652529558
            ]
        },
        {
            "positions": [
                -0.3572184109936626,
                -1.088699912741062,
                1.9148382138013549,
                1.2400557938472097,
                -1.2177500565409223,
                1.0774710295385175
            ]
        },
        {
            "positions": [
                -0.407877607072879,
                -1.0496611417120014,
                1.892040646325008,
                1.321383645623697,
                -1.30952986439628,
                0.9789043938240787
            ]
        },
        {
            "positions": [
                -0.45853680315209544,
                -1.010622370682941,
                1.8692430788486611,
                1.4027114974001842,
                -1.401309672251638,
                0.8803377581096403
            ]
        },
        {
            "positions": [
                -0.5091959992313116,
                -0.9715835996538804,
                1.8464455113723144,
                1.4840393491766715,
                -1.4930894801069965,
                0.781771122395202
            ]
        },
        {
            "positions": [
                -0.5598551953105281,
                -0.9325448286248199,
                1.8236479438959674,
                1.5653672009531585,
                -1.5848692879623545,
                0.6832044866807632
            ]
        },
        {
            "positions": [
                -0.6105143913897445,
                -0.8935060575957594,
                1.8008503764196204,
                1.646695052729646,
                -1.6766490958177125,
                0.5846378509663248
            ]
        },
        {
            "positions": [
                -0.6611735874689609,
                -0.8544672865666989,
                1.7780528089432737,
                1.728022904506133,
                -1.7684289036730705,
                0.48607121525188646
            ]
        },
        {
            "positions": [
                -0.7118327835481771,
                -0.8154285155376384,
                1.755255241466927,
                1.80935075628262,
                -1.8602087115284285,
                0.38750457953744766
            ]
        },
        {
            "positions": [
                -0.7624919796273936,
                -0.7763897445085779,
                1.73245767399058,
                1.8906786080591076,
                -1.9519885193837865,
                0.2889379438230093
            ]
        },
        {
            "positions": [
                -0.81315117570661,
                -0.7373509734795174,
                1.7096601065142332,
                1.9720064598355946,
                -2.0437683272391443,
                0.19037130810857095
            ]
        },
        {
            "positions": [
                -0.8638103717858262,
                -0.6983122024504569,
                1.6868625390378864,
                2.053334311612082,
                -2.1355481350945027,
                0.09180467239413215
            ]
        },
        {
            "positions": [
                -0.9144695678650425,
                -0.6592734314213964,
                1.6640649715615394,
                2.134662163388569,
                -2.2273279429498603,
                -0.006761963320306285
            ]
        }
    ]
}