{
    "goal": {
        "global_pose": {
            "orientation": {
                "w": 0.5084816217422485,
                "x": -0.49083608388900757,
                "y": 0.5182115435600281,
                "z": -0.4816462993621826
            },
            "position": {
                "x": 0.5540239810943604,
                "y": 0.030875300988554955,
                "z": 0.16403168439865112
            }
        },
        "name": "move_to_storage_A"
    },
    "id": "LBKPIECE_move_to_storage_A_92",
    "joint_names": [
        "shoulder_pan_joint",
        "shoulder_lift_joint",
        "elbow_joint",
        "wrist_1_joint",
        "wrist_2_joint",
        "wrist_3_joint"
    ],
    "metrics": {
        "cart_traj_len": 0.353168266618365,
        "distance_elbow_joint": 0.4524257335492743,
        "distance_shoulder_lift_joint": 0.23652357691491654,
        "distance_shoulder_pan_joint": 0.4631618703090232,
        "distance_wrist_1_joint": 0.24723870241633605,
        "distance_wrist_2_joint": 1.0947493496634921,
        "distance_wrist_3_joint": 0.08907258493449755,
        "smoothness": 1.3322676311638882e-15,
        "time": 0.117849328,
        "traj_len": 1.6072248809010952,
        "weighted_distance": 2.0256616301189996
    },
    "planner": "LBKPIECE",
    "start": {
        "state": {
            "elbow_joint": 1.971548880431181,
            "shoulder_lift_joint": -1.1394869514688781,
            "shoulder_pan_joint": 0.12281150262730567,
            "wrist_1_joint": -0.7804693444481463,
            "wrist_2_joint": 0.12958644648617612,
            "wrist_3_joint": 3.0906942077768043
        }
    },
    "waypoints": [
        {
            "positions": [
                0.12281150262730567,
                -1.1394869514688781,
                1.971548880431181,
                -0.7804693444481463,
                0.12958644648617612,
                3.0906942077768043
            ]
        },
        {
            "positions": [
                0.05664552115458807,
                -1.1732760338852948,
                2.0361811280810773,
                -0.8157891590790515,
                0.2859792107238178,
                3.103418862767447
            ]
        },
        {
            "positions": [
                -0.009520460318129531,
                -1.2070651163017114,
                2.1008133757309735,
                -0.8511089737099566,
                0.4423719749614596,
                3.1161435177580894
            ]
        },
        {
            "positions": [
                -0.07568644179084713,
                -1.240854198718128,
                2.16544562338087,
                -0.8864287883408617,
                0.5987647391991013,
                3.128868172748732
            ]
        },
        {
            "positions": [
                -0.14185242326356473,
                -1.2746432811345447,
                2.2300778710307663,
                -0.9217486029717669,
                0.755157503436743,
                3.141592827739374
            ]
        },
        {
            "positions": [
                -0.20801840473628236,
                -1.3084323635509614,
                2.2947101186806624,
                -0.957068417602672,
                0.9115502676743849,
                3.1543174827300167
            ]
        },
        {
            "positions": [
                -0.27418438620899993,
                -1.342221445967378,
                2.359342366330559,
                -0.9923882322335772,
                1.0679430319120264,
                3.1670421377206592
            ]
        },
        {
            "positions": [
                -0.34035036768171756,
                -1.3760105283837947,
                2.423974613980455,
                -1.0277080468644824,
                1.2243357961496684,
                3.179766792711302
            ]
        }
    ]
}