{
    "goal": {
        "global_pose": {
            "orientation": {
                "w": 0.7047431493862688,
                "x": -0.7094548369677653,
                "y": 0.0024358444001904,
                "z": -0.0022348060817251984
            },
            "position": {
                "x": -0.39052492380142206,
                "y": 0.3671506643295288,
                "z": 0.19426114857196808
            }
        },
        "name": "move_to_magneteinheit_D"
    },
    "id": "LBKPIECE_move_to_magneteinheit_D_101",
    "joint_names": [
        "shoulder_pan_joint",
        "shoulder_lift_joint",
        "elbow_joint",
        "wrist_1_joint",
        "wrist_2_joint",
        "wrist_3_joint"
    ],
    "metrics": {
        "cart_traj_len": 3.782895721966979,
        "distance_elbow_joint": 4.467142555331844,
        "distance_shoulder_lift_joint": 1.6339470742736444,
        "distance_shoulder_pan_joint": 2.810981280899649,
        "distance_wrist_1_joint": 2.4812894051194565,
        "distance_wrist_2_joint": 2.2014790602788845,
        "distance_wrist_3_joint": 3.403624800749379,
        "smoothness": 0.12398328653577177,
        "time": 0.533173645,
        "traj_len": 4.122919375473264,
        "weighted_distance": 5.337460280278435
    },
    "planner": "LBKPIECE",
    "start": {
        "state": {
            "elbow_joint": 0.7495348899011911,
            "shoulder_lift_joint": -0.6476975780737668,
            "shoulder_pan_joint": -2.711696901376276,
            "wrist_1_joint": -0.0750647808097303,
            "wrist_2_joint": 0.43296659715458535,
            "wrist_3_joint": 3.1361499051832418
        }
    },
    "waypoints": [
        {
            "positions": [
                -2.711696901376276,
                -0.6476975780737668,
                0.7495348899011911,
                -0.0750647808097303,
                0.43296659715458535,
                3.1361499051832418
            ]
        },
        {
            "positions": [
                -2.703806731327267,
                -0.7003814834511723,
                0.8324072078224576,
                -0.12965274603236918,
                0.31582388477043805,
                3.1036545282646193
            ]
        },
        {
            "positions": [
                -2.695916561278257,
                -0.7530653888285779,
                0.9152795257437242,
                -0.18424071125500807,
                0.19868117238629074,
                3.0711591513459964
            ]
        },
        {
            "positions": [
                -2.688026391229248,
                -0.8057492942059835,
                0.9981518436649908,
                -0.23882867647764694,
                0.08153846000214343,
                3.0386637744273735
            ]
        },
        {
            "positions": [
                -2.6801362211802386,
                -0.858433199583389,
                1.0810241615862572,
                -0.29341664170028586,
                -0.035604252382003876,
                3.006168397508751
            ]
        },
        {
            "positions": [
                -2.672246051131229,
                -0.9111171049607946,
                1.1638964795075237,
                -0.34800460692292473,
                -0.15274696476615118,
                2.9736730205901285
            ]
        },
        {
            "positions": [
                -2.6643558810822197,
                -0.9638010103382002,
                1.2467687974287904,
                -0.4025925721455636,
                -0.2698896771502985,
                2.9411776436715056
            ]
        },
        {
            "positions": [
                -2.65646571103321,
                -1.0164849157156057,
                1.329641115350057,
                -0.4571805373682025,
                -0.3870323895344458,
                2.9086822667528827
            ]
        },
        {
            "positions": [
                -2.6485755409842007,
                -1.0691688210930113,
                1.4125134332713234,
                -0.5117685025908414,
                -0.5041751019185932,
                2.87618688983426
            ]
        },
        {
            "positions": [
                -2.6100918814862126,
                -1.1233163155409644,
                1.4219539312238814,
                -0.5128179383604741,
                -0.5908089408930074,
                2.799381122930063
            ]
        },
        {
            "positions": [
                -2.537993480225433,
                -1.1580929653520384,
                1.3612260339673101,
                -0.49181981298373345,
                -0.6312507972533432,
                2.703721718032502
            ]
        },
        {
            "positions": [
                -2.465895078964653,
                -1.1928696151631124,
                1.3004981367107389,
                -0.47082168760699283,
                -0.6716926536136791,
                2.608062313134941
            ]
        },
        {
            "positions": [
                -2.3937966777038735,
                -1.2276462649741866,
                1.2397702394541676,
                -0.4498235622302522,
                -0.712134509974015,
                2.51240290823738
            ]
        },
        {
            "positions": [
                -2.321698276443094,
                -1.2624229147852606,
                1.1790423421975964,
                -0.4288254368535116,
                -0.7525763663343509,
                2.416743503339819
            ]
        },
        {
            "positions": [
                -2.249599875182314,
                -1.2971995645963346,
                1.1183144449410252,
                -0.407827311476771,
                -0.7930182226946867,
                2.3210840984422583
            ]
        },
        {
            "positions": [
                -2.163635892931623,
                -1.3068719455961086,
                0.9991424735731917,
                -0.3567394188701701,
                -0.7681866983537052,
                2.2289214642326414
            ]
        },
        {
            "positions": [
                -2.0776719106809325,
                -1.316544326595883,
                0.8799705022053583,
                -0.3056515262635691,
                -0.7433551740127238,
                2.1367588300230245
            ]
        },
        {
            "positions": [
                -1.9917079284302415,
                -1.326216707595657,
                0.7607985308375249,
                -0.2545636336569682,
                -0.7185236496717424,
                2.0445961958134076
            ]
        },
        {
            "positions": [
                -1.9057439461795505,
                -1.335889088595431,
                0.6416265594696915,
                -0.20347574105036728,
                -0.693692125330761,
                1.9524335616037904
            ]
        },
        {
            "positions": [
                -1.8197799639288597,
                -1.3455614695952052,
                0.522454588101858,
                -0.15238784844376635,
                -0.6688606009897795,
                1.8602709273941735
            ]
        },
        {
            "positions": [
                -1.7338159816781689,
                -1.3552338505949795,
                0.40328261673402455,
                -0.10129995583716545,
                -0.644029076648798,
                1.7681082931845564
            ]
        },
        {
            "positions": [
                -1.6478519994274778,
                -1.3649062315947535,
                0.284110645366191,
                -0.050212063230564485,
                -0.6191975523078166,
                1.6759456589749395
            ]
        },
        {
            "positions": [
                -1.5618880171767868,
                -1.3745786125945276,
                0.1649386739983577,
                0.0008758293760364189,
                -0.5943660279668352,
                1.5837830247653226
            ]
        },
        {
            "positions": [
                -1.475924034926096,
                -1.3842509935943017,
                0.04576670263052418,
                0.05196372198263732,
                -0.5695345036258538,
                1.4916203905557057
            ]
        },
        {
            "positions": [
                -1.3899600526754052,
                -1.393923374594076,
                -0.07340526873730924,
                0.10305161458923828,
                -0.5447029792848723,
                1.3994577563460888
            ]
        },
        {
            "positions": [
                -1.3039960704247142,
                -1.40359575559385,
                -0.19257724010514266,
                0.15413950719583924,
                -0.5198714549438909,
                1.3072951221364717
            ]
        },
        {
            "positions": [
                -1.2180320881740234,
                -1.4132681365936242,
                -0.3117492114729761,
                0.2052273998024401,
                -0.49503993060290946,
                1.2151324879268548
            ]
        },
        {
            "positions": [
                -1.1320681059233324,
                -1.4229405175933985,
                -0.4309211828408095,
                0.25631529240904105,
                -0.470208406261928,
                1.122969853717238
            ]
        },
        {
            "positions": [
                -1.0461041236726414,
                -1.4326128985931725,
                -0.5500931542086431,
                0.307403185015642,
                -0.44537688192094654,
                1.0308072195076208
            ]
        },
        {
            "positions": [
                -0.9601401414219508,
                -1.4422852795929466,
                -0.6692651255764763,
                0.35849107762224286,
                -0.42054535757996514,
                0.9386445852980041
            ]
        },
        {
            "positions": [
                -0.8741761591712598,
                -1.4519576605927207,
                -0.7884370969443097,
                0.4095789702288438,
                -0.3957138332389837,
                0.846481951088387
            ]
        },
        {
            "positions": [
                -0.7882121769205688,
                -1.461630041592495,
                -0.9076090683121434,
                0.4606668628354448,
                -0.3708823088980022,
                0.7543193168787699
            ]
        },
        {
            "positions": [
                -0.702248194669878,
                -1.471302422592269,
                -1.0267810396799768,
                0.5117547554420456,
                -0.3460507845570208,
                0.6621566826691532
            ]
        },
        {
            "positions": [
                -0.6162842124191872,
                -1.4809748035920431,
                -1.1459530110478102,
                0.5628426480486466,
                -0.3212192602160394,
                0.569994048459536
            ]
        },
        {
            "positions": [
                -0.5303202301684962,
                -1.4906471845918174,
                -1.2651249824156436,
                0.6139305406552475,
                -0.29638773587505796,
                0.47783141424991915
            ]
        },
        {
            "positions": [
                -0.44435624791780537,
                -1.5003195655915915,
                -1.384296953783477,
                0.6650184332618483,
                -0.2715562115340765,
                0.38566878004030225
            ]
        },
        {
            "positions": [
                -0.35839226566711435,
                -1.5099919465913656,
                -1.5034689251513105,
                0.7161063258684495,
                -0.24672468719309504,
                0.29350614583068513
            ]
        },
        {
            "positions": [
                -0.27242828341642333,
                -1.5196643275911397,
                -1.622640896519144,
                0.7671942184750504,
                -0.22189316285211358,
                0.20134351162106823
            ]
        },
        {
            "positions": [
                -0.18646430116573276,
                -1.529336708590914,
                -1.7418128678869773,
                0.8182821110816512,
                -0.19706163851113223,
                0.10918087741145133
            ]
        },
        {
            "positions": [
                -0.10050031891504194,
                -1.539009089590688,
                -1.8609848392548105,
                0.869370003688252,
                -0.17223011417015074,
                0.01701824320183432
            ]
        },
        {
            "positions": [
                -0.08611864300430444,
                -1.6173928057055635,
                -1.9517949552397444,
                0.9607796495356073,
                -0.13575204102450483,
                -0.02225514951297233
            ]
        },
        {
            "positions": [
                -0.07173696709356694,
                -1.695776521820439,
                -2.0426050712246786,
                1.0521892953829626,
                -0.09927396787885893,
                -0.06152854222777898
            ]
        },
        {
            "positions": [
                -0.057355291182829456,
                -1.7741602379353145,
                -2.1334151872096125,
                1.143598941230318,
                -0.06279589473321304,
                -0.10080193494258563
            ]
        },
        {
            "positions": [
                -0.04297361527209196,
                -1.85254395405019,
                -2.2242253031945465,
                1.2350085870776732,
                -0.026317821587567125,
                -0.14007532765739228
            ]
        },
        {
            "positions": [
                -0.06900262127342498,
                -1.9557321362354974,
                -2.296201243250301,
                1.318640038334597,
                0.017666219775542114,
                -0.1276940134138579
            ]
        },
        {
            "positions": [
                -0.095031627274758,
                -2.058920318420805,
                -2.368177183306056,
                1.4022714895915207,
                0.06165026113865135,
                -0.1153126991703235
            ]
        },
        {
            "positions": [
                -0.14013161867115714,
                -2.1702824853841083,
                -2.370473383045664,
                1.4664948993998799,
                0.12206313943678762,
                -0.06399422945948574
            ]
        },
        {
            "positions": [
                -0.18523161006755628,
                -2.281644652347411,
                -2.3727695827852724,
                1.530718309208239,
                0.1824760177349239,
                -0.012675759748647972
            ]
        }
    ]
}