{
    "goal": {
        "global_pose": {
            "orientation": {
                "w": 0.7031023502349854,
                "x": -0.7110244035720825,
                "y": 0.007748599164187908,
                "z": 0.005598929710686207
            },
            "position": {
                "x": 0.11585023208521307,
                "y": 0.44412534475326537,
                "z": 0.3711530566215515
            }
        },
        "name": "move_to_auspresseinheit_A"
    },
    "id": "LBKPIECE_move_to_auspresseinheit_A_69",
    "joint_names": [
        "shoulder_pan_joint",
        "shoulder_lift_joint",
        "elbow_joint",
        "wrist_1_joint",
        "wrist_2_joint",
        "wrist_3_joint"
    ],
    "metrics": {
        "cart_traj_len": 2.0640784519130513,
        "distance_elbow_joint": 2.4546215515447143,
        "distance_shoulder_lift_joint": 0.8965845586438281,
        "distance_shoulder_pan_joint": 1.247765153252022,
        "distance_wrist_1_joint": 3.0975822669138866,
        "distance_wrist_2_joint": 1.1496707111844602,
        "distance_wrist_3_joint": 5.038251042162463,
        "smoothness": 0.5231366900255033,
        "time": 0.361396761,
        "traj_len": 3.726187768175588,
        "weighted_distance": 5.31114209432629
    },
    "planner": "LBKPIECE",
    "start": {
        "state": {
            "elbow_joint": 2.4225746994637096,
            "shoulder_lift_joint": -1.373653595662188,
            "shoulder_pan_joint": -0.3378633848294565,
            "wrist_1_joint": -1.0288595594406726,
            "wrist_2_joint": 1.2330228066703421,
            "wrist_3_joint": 3.189163495502006
        }
    },
    "waypoints": [
        {
            "positions": [
                -0.3378633848294565,
                -1.373653595662188,
                2.4225746994637096,
                -1.0288595594406726,
                1.2330228066703421,
                3.189163495502006
            ]
        },
        {
            "positions": [
                -0.2914539106023213,
                -1.3841318871768478,
                2.3401025580380854,
                -0.9538474487689053,
                1.2039964682921027,
                3.04927914947469
            ]
        },
        {
            "positions": [
                -0.24504443637518608,
                -1.3946101786915075,
                2.257630416612461,
                -0.8788353380971379,
                1.1749701299138633,
                2.909394803447374
            ]
        },
        {
            "positions": [
                -0.19863496214805085,
                -1.4050884702061672,
                2.1751582751868375,
                -0.8038232274253705,
                1.1459437915356236,
                2.7695104574200577
            ]
        },
        {
            "positions": [
                -0.15222548792091564,
                -1.415566761720827,
                2.0926861337612133,
                -0.7288111167536031,
                1.1169174531573842,
                2.6296261113927413
            ]
        },
        {
            "positions": [
                -0.10581601369378044,
                -1.4260450532354867,
                2.010213992335589,
                -0.6537990060818357,
                1.0878911147791448,
                2.4897417653654252
            ]
        },
        {
            "positions": [
                -0.0594065394666452,
                -1.4365233447501464,
                1.927741850909965,
                -0.5787868954100683,
                1.0588647764009054,
                2.349857419338109
            ]
        },
        {
            "positions": [
                -0.012997065239510053,
                -1.4470016362648062,
                1.845269709484341,
                -0.5037747847383011,
                1.029838438022666,
                2.209973073310793
            ]
        },
        {
            "positions": [
                0.03341240898762521,
                -1.457479927779466,
                1.762797568058717,
                -0.4287626740665337,
                1.0008120996444265,
                2.070088727283477
            ]
        },
        {
            "positions": [
                0.07982188321476041,
                -1.4679582192941256,
                1.6803254266330927,
                -0.3537505633947664,
                0.9717857612661871,
                1.930204381256161
            ]
        },
        {
            "positions": [
                0.12623135744189562,
                -1.4784365108087854,
                1.5978532852074685,
                -0.2787384527229989,
                0.9427594228879476,
                1.7903200352288449
            ]
        },
        {
            "positions": [
                0.17264083166903083,
                -1.488914802323445,
                1.5153811437818445,
                -0.20372634205123163,
                0.913733084509708,
                1.6504356892015288
            ]
        },
        {
            "positions": [
                0.2190503058961661,
                -1.4993930938381048,
                1.4329090023562205,
                -0.12871423137946414,
                0.8847067461314686,
                1.5105513431742126
            ]
        },
        {
            "positions": [
                0.2654597801233013,
                -1.5098713853527646,
                1.3504368609305963,
                -0.05370212070769684,
                0.8556804077532292,
                1.3706669971468965
            ]
        },
        {
            "positions": [
                0.33362875865387726,
                -1.5458779424821254,
                1.3290605425876245,
                0.053842498602091074,
                0.823265263395519,
                1.280222853114045
            ]
        },
        {
            "positions": [
                0.4017977371844532,
                -1.5818844996114863,
                1.3076842242446525,
                0.16138711791187899,
                0.7908501190378087,
                1.1897787090811933
            ]
        },
        {
            "positions": [
                0.4699667157150292,
                -1.617891056740847,
                1.2863079059016806,
                0.26893173722166686,
                0.7584349746800985,
                1.099334565048342
            ]
        },
        {
            "positions": [
                0.5381356942456051,
                -1.6538976138702082,
                1.2649315875587086,
                0.37647635653145484,
                0.7260198303223881,
                1.0088904210154903
            ]
        },
        {
            "positions": [
                0.6063046727761812,
                -1.689904170999569,
                1.2435552692157368,
                0.4840209758412427,
                0.693604685964678,
                0.9184462769826387
            ]
        },
        {
            "positions": [
                0.6744736513067571,
                -1.7259107281289299,
                1.222178950872765,
                0.5915655951510306,
                0.6611895416069677,
                0.8280021329497872
            ]
        },
        {
            "positions": [
                0.742642629837333,
                -1.7619172852582907,
                1.200802632529793,
                0.6991102144608186,
                0.6287743972492574,
                0.7375579889169357
            ]
        },
        {
            "positions": [
                0.810811608367909,
                -1.7979238423876516,
                1.179426314186821,
                0.8066548337706064,
                0.5963592528915472,
                0.6471138448840841
            ]
        },
        {
            "positions": [
                0.8026892168603285,
                -1.834177579524678,
                1.2918413831925064,
                0.7758190661048278,
                0.6363748419151776,
                0.8030503599985888
            ]
        },
        {
            "positions": [
                0.7945668253527479,
                -1.8704313166617044,
                1.4042564521981917,
                0.744983298439049,
                0.6763904309388079,
                0.9589868751130934
            ]
        },
        {
            "positions": [
                0.7864444338451674,
                -1.9066850537987305,
                1.516671521203877,
                0.7141475307732703,
                0.7164060199624382,
                1.1149233902275983
            ]
        },
        {
            "positions": [
                0.7783220423375867,
                -1.942938790935757,
                1.6290865902095626,
                0.6833117631074916,
                0.7564216089860685,
                1.2708599053421028
            ]
        },
        {
            "positions": [
                0.7701996508300062,
                -1.9791925280727833,
                1.7415016592152477,
                0.6524759954417129,
                0.7964371980096989,
                1.4267964204566077
            ]
        },
        {
            "positions": [
                0.7620772593224256,
                -2.0154462652098095,
                1.8539167282209332,
                0.6216402277759342,
                0.8364527870333291,
                1.5827329355711124
            ]
        },
        {
            "positions": [
                0.7539548678148451,
                -2.051700002346836,
                1.9663317972266185,
                0.5908044601101554,
                0.8764683760569595,
                1.738669450685617
            ]
        },
        {
            "positions": [
                0.7458324763072646,
                -2.0879537394838623,
                2.078746866232304,
                0.5599686924443767,
                0.9164839650805898,
                1.8946059658001217
            ]
        },
        {
            "positions": [
                0.7383236759368584,
                -2.072807753434988,
                2.127008665944556,
                0.4381101654227444,
                0.9030836223806482,
                2.0545284076393875
            ]
        },
        {
            "positions": [
                0.7308148755664523,
                -2.0576617673861137,
                2.1752704656568085,
                0.316251638401112,
                0.8896832796807066,
                2.214450849478653
            ]
        },
        {
            "positions": [
                0.7233060751960462,
                -2.042515781337239,
                2.2235322653690606,
                0.19439311137947954,
                0.876282936980765,
                2.374373291317919
            ]
        },
        {
            "positions": [
                0.7209891498194871,
                -2.015146490002133,
                2.257005708386178,
                0.06443188111718334,
                0.8457466535574053,
                2.52816168034006
            ]
        },
        {
            "positions": [
                0.7186722244429281,
                -1.987777198667027,
                2.290479151403295,
                -0.06552934914511285,
                0.8152103701340456,
                2.6819500693622014
            ]
        },
        {
            "positions": [
                0.7163552990663692,
                -1.9604079073319207,
                2.3239525944204127,
                -0.19549057940740897,
                0.7846740867106861,
                2.8357384583843426
            ]
        },
        {
            "positions": [
                0.7140383736898102,
                -1.9330386159968147,
                2.3574260374375298,
                -0.3254518096697052,
                0.7541378032873264,
                2.9895268474064838
            ]
        },
        {
            "positions": [
                0.7117214483132511,
                -1.9056693246617085,
                2.3908994804546473,
                -0.45541303993200133,
                0.7236015198639667,
                3.143315236428625
            ]
        }
    ]
}