{
    "goal": {
        "global_pose": {
            "orientation": {
                "w": 0.005598929693374612,
                "x": 0.007748599140229565,
                "y": 0.7110244013736278,
                "z": -0.7031023480610252
            },
            "position": {
                "x": 0.1141497679147869,
                "y": -0.7141253447532654,
                "z": 0.3711530566215515
            }
        },
        "name": "move_to_auspresseinheit_B"
    },
    "id": "LBKPIECE_move_to_auspresseinheit_B_118",
    "joint_names": [
        "shoulder_pan_joint",
        "shoulder_lift_joint",
        "elbow_joint",
        "wrist_1_joint",
        "wrist_2_joint",
        "wrist_3_joint"
    ],
    "metrics": {
        "cart_traj_len": 0.5655413784199105,
        "distance_elbow_joint": 0.06552608310091745,
        "distance_shoulder_lift_joint": 0.29358821884743214,
        "distance_shoulder_pan_joint": 0.5781039977311873,
        "distance_wrist_1_joint": 0.33642440862581424,
        "distance_wrist_2_joint": 0.9937815960310996,
        "distance_wrist_3_joint": 0.007563636613249436,
        "smoothness": 6.344131583732827e-16,
        "time": 0.310686152,
        "traj_len": 1.5083063153582894,
        "weighted_distance": 1.9027141716067375
    },
    "planner": "LBKPIECE",
    "start": {
        "state": {
            "elbow_joint": 2.0193061681459312,
            "shoulder_lift_joint": -1.1220205130644991,
            "shoulder_pan_joint": -1.0952072088045026,
            "wrist_1_joint": -0.8559671810662515,
            "wrist_2_joint": 0.4759638712940361,
            "wrist_3_joint": 3.159081874192446
        }
    },
    "waypoints": [
        {
            "positions": [
                -1.0952072088045026,
                -1.1220205130644991,
                2.0193061681459312,
                -0.8559671810662515,
                0.4759638712940361,
                3.159081874192446
            ]
        },
        {
            "positions": [
                -1.1915578750930338,
                -1.1709518828724046,
                2.0083851542957785,
                -0.7998964462952824,
                0.6415941372992193,
                3.1578212680902378
            ]
        },
        {
            "positions": [
                -1.287908541381565,
                -1.2198832526803098,
                1.9974641404456255,
                -0.7438257115243134,
                0.8072244033044027,
                3.1565606619880295
            ]
        },
        {
            "positions": [
                -1.3842592076700964,
                -1.268814622488215,
                1.9865431265954725,
                -0.6877549767533444,
                0.9728546693095859,
                3.1553000558858213
            ]
        },
        {
            "positions": [
                -1.4806098739586275,
                -1.3177459922961205,
                1.9756221127453195,
                -0.6316842419823754,
                1.1384849353147692,
                3.154039449783613
            ]
        },
        {
            "positions": [
                -1.5769605402471587,
                -1.366677362104026,
                1.9647010988951668,
                -0.5756135072114063,
                1.3041152013199524,
                3.152778843681405
            ]
        },
        {
            "positions": [
                -1.6733112065356899,
                -1.4156087319119313,
                1.9537800850450138,
                -0.5195427724404372,
                1.4697454673251358,
                3.1515182375791966
            ]
        }
    ]
}