{
    "goal": {
        "global_pose": {
            "orientation": {
                "w": 0.5084816262002911,
                "x": -0.4908360881923452,
                "y": 0.5182115481033761,
                "z": -0.48164630358495003
            },
            "position": {
                "x": 0.5540239810943604,
                "y": -0.46912469901144505,
                "z": 0.16403168439865112
            }
        },
        "name": "move_to_storage_B"
    },
    "id": "LBKPIECE_move_to_storage_B_50",
    "joint_names": [
        "shoulder_pan_joint",
        "shoulder_lift_joint",
        "elbow_joint",
        "wrist_1_joint",
        "wrist_2_joint",
        "wrist_3_joint"
    ],
    "metrics": {
        "cart_traj_len": 1.9245186069227966,
        "distance_elbow_joint": 0.4326685330004081,
        "distance_shoulder_lift_joint": 0.7854905450744425,
        "distance_shoulder_pan_joint": 1.8972012639520868,
        "distance_wrist_1_joint": 2.9884675343982914,
        "distance_wrist_2_joint": 2.706276571099828,
        "distance_wrist_3_joint": 3.1371551956633814,
        "smoothness": 0.16544145641635932,
        "time": 0.70413055,
        "traj_len": 3.456480817708734,
        "weighted_distance": 4.89043087467897
    },
    "planner": "LBKPIECE",
    "start": {
        "state": {
            "elbow_joint": 1.6649325340416963,
            "shoulder_lift_joint": -0.6616387945129425,
            "shoulder_pan_joint": -0.9139837929255878,
            "wrist_1_joint": 2.1467571094334352,
            "wrist_2_joint": -2.234195976750228,
            "wrist_3_joint": 0.005470921511140723
        }
    },
    "waypoints": [
        {
            "positions": [
                -0.9139837929255878,
                -0.6616387945129425,
                1.6649325340416963,
                2.1467571094334352,
                -2.234195976750228,
                0.005470921511140723
            ]
        },
        {
            "positions": [
                -0.8281806235269599,
                -0.7238538076328715,
                1.6607912624723076,
                2.0725213473357322,
                -2.132104920637662,
                0.04881770984893478
            ]
        },
        {
            "positions": [
                -0.7423774541283319,
                -0.7860688207528006,
                1.656649990902919,
                1.9982855852380288,
                -2.0300138645250962,
                0.09216449818672882
            ]
        },
        {
            "positions": [
                -0.656574284729704,
                -0.8482838338727295,
                1.6525087193335304,
                1.9240498231403256,
                -1.9279228084125306,
                0.13551128652452288
            ]
        },
        {
            "positions": [
                -0.5707711153310759,
                -0.9104988469926586,
                1.6483674477641417,
                1.8498140610426224,
                -1.825831752299965,
                0.17885807486231695
            ]
        },
        {
            "positions": [
                -0.484967945932448,
                -0.9727138601125876,
                1.6442261761947532,
                1.7755782989449194,
                -1.7237406961873991,
                0.22220486320011099
            ]
        },
        {
            "positions": [
                -0.3991647765338201,
                -1.0349288732325166,
                1.6400849046253645,
                1.7013425368472161,
                -1.6216496400748333,
                0.265551651537905
            ]
        },
        {
            "positions": [
                -0.3133616071351921,
                -1.0971438863524456,
                1.6359436330559758,
                1.627106774749513,
                -1.5195585839622676,
                0.30889843987569904
            ]
        },
        {
            "positions": [
                -0.22755843773656403,
                -1.1593588994723747,
                1.631802361486587,
                1.5528710126518095,
                -1.4174675278497018,
                0.35224522821349313
            ]
        },
        {
            "positions": [
                -0.14175526833793617,
                -1.2215739125923037,
                1.6276610899171986,
                1.4786352505541065,
                -1.3153764717371361,
                0.3955920165512872
            ]
        },
        {
            "positions": [
                -0.05595209893930815,
                -1.2837889257122328,
                1.62351981834781,
                1.4043994884564033,
                -1.2132854156245703,
                0.4389388048890812
            ]
        },
        {
            "positions": [
                -0.10543636417577514,
                -1.276010810765797,
                1.6421510477433585,
                1.2974418735315814,
                -1.133029891340086,
                0.5676858197598165
            ]
        },
        {
            "positions": [
                -0.1549206294122421,
                -1.2682326958193613,
                1.6607822771389071,
                1.1904842586067594,
                -1.0527743670556018,
                0.6964328346305517
            ]
        },
        {
            "positions": [
                -0.2044048946487091,
                -1.2604545808729253,
                1.6794135065344558,
                1.0835266436819375,
                -0.9725188427711174,
                0.825179849501287
            ]
        },
        {
            "positions": [
                -0.2538891598851761,
                -1.2526764659264895,
                1.6980447359300046,
                0.9765690287571158,
                -0.8922633184866331,
                0.9539268643720222
            ]
        },
        {
            "positions": [
                -0.30337342512164306,
                -1.2448983509800537,
                1.7166759653255532,
                0.8696114138322939,
                -0.8120077942021489,
                1.0826738792427575
            ]
        },
        {
            "positions": [
                -0.35285769035811004,
                -1.237120236033618,
                1.7353071947211018,
                0.762653798907472,
                -0.7317522699176646,
                1.2114208941134927
            ]
        },
        {
            "positions": [
                -0.402341955594577,
                -1.229342121087182,
                1.7539384241166505,
                0.6556961839826501,
                -0.6514967456331803,
                1.340167908984228
            ]
        },
        {
            "positions": [
                -0.451826220831044,
                -1.2215640061407462,
                1.772569653512199,
                0.5487385690578283,
                -0.571241221348696,
                1.4689149238549633
            ]
        },
        {
            "positions": [
                -0.501310486067511,
                -1.2137858911943105,
                1.7912008829077477,
                0.44178095413300633,
                -0.4909856970642117,
                1.5976619387256985
            ]
        },
        {
            "positions": [
                -0.550794751303978,
                -1.2060077762478747,
                1.8098321123032963,
                0.3348233392081845,
                -0.41073017277972745,
                1.7264089535964338
            ]
        },
        {
            "positions": [
                -0.6002790165404451,
                -1.1982296613014387,
                1.8284633416988452,
                0.22786572428336238,
                -0.330474648495243,
                1.8551559684671692
            ]
        },
        {
            "positions": [
                -0.649763281776912,
                -1.190451546355003,
                1.8470945710943938,
                0.12090810935854068,
                -0.25021912421075887,
                1.9839029833379043
            ]
        },
        {
            "positions": [
                -0.6992475470133791,
                -1.1826734314085672,
                1.8657258004899424,
                0.013950494433718763,
                -0.16996359992627452,
                2.1126499982086395
            ]
        },
        {
            "positions": [
                -0.748731812249846,
                -1.1748953164621314,
                1.884357029885491,
                -0.09300712049110316,
                -0.08970807564179029,
                2.241397013079375
            ]
        },
        {
            "positions": [
                -0.7982160774863131,
                -1.1671172015156954,
                1.9029882592810397,
                -0.19996473541592508,
                -0.009452551357305827,
                2.3701440279501105
            ]
        },
        {
            "positions": [
                -0.8477003427227799,
                -1.1593390865692597,
                1.9216194886765883,
                -0.3069223503407468,
                0.07080297292717819,
                2.498891042820845
            ]
        },
        {
            "positions": [
                -0.897184607959247,
                -1.151560971622824,
                1.9402507180721371,
                -0.4138799652655689,
                0.15105849721166265,
                2.6276380576915805
            ]
        },
        {
            "positions": [
                -0.9466688731957139,
                -1.1437828566763881,
                1.9588819474676855,
                -0.5208375801903906,
                0.23131402149614688,
                2.756385072562316
            ]
        },
        {
            "positions": [
                -0.996153138432181,
                -1.1360047417299524,
                1.9775131768632344,
                -0.6277951951152125,
                0.31156954578063134,
                2.8851320874330515
            ]
        },
        {
            "positions": [
                -1.0456374036686478,
                -1.1282266267835164,
                1.996144406258783,
                -0.7347528100400342,
                0.39182507006511536,
                3.013879102303786
            ]
        },
        {
            "positions": [
                -1.0951216689051149,
                -1.1204485118370806,
                2.0147756356543316,
                -0.8417104249648564,
                0.4720805943495999,
                3.142626117174522
            ]
        }
    ]
}