{
    "goal": {
        "global_pose": {
            "orientation": {
                "w": -0.4816463035849501,
                "x": 0.5182115481033762,
                "y": 0.4908360881923453,
                "z": -0.5084816262002911
            },
            "position": {
                "x": -0.8240239810943604,
                "y": -0.300875300988555,
                "z": 0.16403168439865112
            }
        },
        "name": "move_to_storage_C"
    },
    "id": "LBKPIECE_move_to_storage_C_7",
    "joint_names": [
        "shoulder_pan_joint",
        "shoulder_lift_joint",
        "elbow_joint",
        "wrist_1_joint",
        "wrist_2_joint",
        "wrist_3_joint"
    ],
    "metrics": {
        "cart_traj_len": 0.5774415984582174,
        "distance_elbow_joint": 0.2627626548621962,
        "distance_shoulder_lift_joint": 0.19038950923209896,
        "distance_shoulder_pan_joint": 0.4938037060096634,
        "distance_wrist_1_joint": 0.09133439009063282,
        "distance_wrist_2_joint": 1.077708044285487,
        "distance_wrist_3_joint": 0.05779238431457312,
        "smoothness": 0.0,
        "time": 0.49713335599999997,
        "traj_len": 1.4743780684731618,
        "weighted_distance": 1.8596822018290968
    },
    "planner": "LBKPIECE",
    "start": {
        "state": {
            "elbow_joint": 2.0108683149792914,
            "shoulder_lift_joint": -1.1634956873317392,
            "shoulder_pan_joint": -2.4736205022346,
            "wrist_1_joint": -0.8367026793690192,
            "wrist_2_joint": 0.6746043897045053,
            "wrist_3_joint": 3.133522094754363
        }
    },
    "waypoints": [
        {
            "positions": [
                -2.4736205022346,
                -1.1634956873317392,
                2.0108683149792914,
                -0.8367026793690192,
                0.6746043897045053,
                3.133522094754363
            ]
        },
        {
            "positions": [
                -2.5559211199028775,
                -1.1317641024597227,
                1.9670745391689253,
                -0.8214802810205803,
                0.8542223970854198,
                3.143154158806792
            ]
        },
        {
            "positions": [
                -2.6382217375711545,
                -1.1000325175877061,
                1.9232807633585594,
                -0.8062578826721416,
                1.0338404044663343,
                3.1527862228592207
            ]
        },
        {
            "positions": [
                -2.7205223552394315,
                -1.0683009327156898,
                1.8794869875481934,
                -0.7910354843237029,
                1.213458411847249,
                3.1624182869116497
            ]
        },
        {
            "positions": [
                -2.802822972907709,
                -1.0365693478436733,
                1.8356932117378273,
                -0.775813085975264,
                1.3930764192281633,
                3.1720503509640787
            ]
        },
        {
            "positions": [
                -2.8851235905759864,
                -1.0048377629716567,
                1.7918994359274611,
                -0.7605906876268251,
                1.5726944266090777,
                3.1816824150165073
            ]
        },
        {
            "positions": [
                -2.9674242082442635,
                -0.9731061780996403,
                1.7481056601170952,
                -0.7453682892783864,
                1.7523124339899923,
                3.1913144790689363
            ]
        }
    ]
}