{
    "goal": {
        "global_pose": {
            "orientation": {
                "w": -0.00223480608172531,
                "x": 0.0024358444001904467,
                "y": 0.7094548369677653,
                "z": -0.704743149386269
            },
            "position": {
                "x": 0.6205249238014221,
                "y": -0.6371506643295288,
                "z": 0.19426114857196808
            }
        },
        "name": "move_to_magneteinheit_B"
    },
    "id": "LBKPIECE_move_to_magneteinheit_B_94",
    "joint_names": [
        "shoulder_pan_joint",
        "shoulder_lift_joint",
        "elbow_joint",
        "wrist_1_joint",
        "wrist_2_joint",
        "wrist_3_joint"
    ],
    "metrics": {
        "cart_traj_len": 1.4537060550033423,
        "distance_elbow_joint": 0.7316655781505221,
        "distance_shoulder_lift_joint": 1.2487960466681445,
        "distance_shoulder_pan_joint": 1.6215283736370891,
        "distance_wrist_1_joint": 2.606021663109897,
        "distance_wrist_2_joint": 2.93377035921644,
        "distance_wrist_3_joint": 3.138899413366615,
        "smoothness": 2.4980018173577986e-16,
        "time": 0.510061661,
        "traj_len": 3.5043803209909608,
        "weighted_distance": 4.908999112162099
    },
    "planner": "LBKPIECE",
    "start": {
        "state": {
            "elbow_joint": 2.393587130804639,
            "shoulder_lift_joint": -1.9085141043513325,
            "shoulder_pan_joint": 0.7066247066698809,
            "wrist_1_joint": -0.4678290934590222,
            "wrist_2_joint": 0.7096259084215963,
            "wrist_3_joint": 3.147370379541726
        }
    },
    "waypoints": [
        {
            "positions": [
                0.7066247066698809,
                -1.9085141043513325,
                2.393587130804639,
                -0.4678290934590222,
                0.7096259084215963,
                3.147370379541726
            ]
        },
        {
            "positions": [
                0.6543173397783618,
                -1.8682303609104247,
                2.3699850153804283,
                -0.3837638785199933,
                0.6149881548984854,
                3.046115559755706
            ]
        },
        {
            "positions": [
                0.6020099728868429,
                -1.8279466174695167,
                2.346382899956218,
                -0.2996986635809643,
                0.5203504013753745,
                2.9448607399696862
            ]
        },
        {
            "positions": [
                0.5497026059953238,
                -1.787662874028609,
                2.3227807845320076,
                -0.2156334486419354,
                0.4257126478522635,
                2.8436059201836663
            ]
        },
        {
            "positions": [
                0.49739523910380484,
                -1.747379130587701,
                2.299178669107797,
                -0.13156823370290643,
                0.33107489432915255,
                2.742351100397647
            ]
        },
        {
            "positions": [
                0.44508787221228585,
                -1.707095387146793,
                2.275576553683587,
                -0.047503018763877525,
                0.23643714080604156,
                2.641096280611627
            ]
        },
        {
            "positions": [
                0.39278050532076686,
                -1.666811643705885,
                2.2519744382593765,
                0.036562196175151385,
                0.14179938728293062,
                2.539841460825607
            ]
        },
        {
            "positions": [
                0.34047313842924787,
                -1.6265279002649773,
                2.228372322835166,
                0.12062741111418035,
                0.04716163375981963,
                2.438586641039587
            ]
        },
        {
            "positions": [
                0.2881657715377288,
                -1.5862441568240695,
                2.204770207410956,
                0.20469262605320931,
                -0.04747611976329125,
                2.337331821253567
            ]
        },
        {
            "positions": [
                0.23585840464620977,
                -1.5459604133831615,
                2.1811680919867453,
                0.2887578409922383,
                -0.14211387328640235,
                2.2360770014675473
            ]
        },
        {
            "positions": [
                0.18355103775469084,
                -1.5056766699422537,
                2.157565976562535,
                0.37282305593126713,
                -0.23675162680951323,
                2.1348221816815274
            ]
        },
        {
            "positions": [
                0.1312436708631718,
                -1.4653929265013457,
                2.1339638611383247,
                0.4568882708702961,
                -0.3313893803326242,
                2.033567361895508
            ]
        },
        {
            "positions": [
                0.07893630397165285,
                -1.4251091830604379,
                2.110361745714114,
                0.540953485809325,
                -0.4260271338557351,
                1.932312542109488
            ]
        },
        {
            "positions": [
                0.026628937080133808,
                -1.3848254396195299,
                2.0867596302899036,
                0.6250187007483541,
                -0.5206648873788462,
                1.831057722323468
            ]
        },
        {
            "positions": [
                -0.02567842981138513,
                -1.344541696178622,
                2.0631575148656935,
                0.7090839156873829,
                -0.6153026409019571,
                1.7298029025374484
            ]
        },
        {
            "positions": [
                -0.07798579670290418,
                -1.3042579527377143,
                2.039555399441483,
                0.7931491306264118,
                -0.7099403944250682,
                1.6285480827514285
            ]
        },
        {
            "positions": [
                -0.13029316359442322,
                -1.2639742092968063,
                2.0159532840172725,
                0.8772143455654409,
                -0.8045781479481788,
                1.5272932629654086
            ]
        },
        {
            "positions": [
                -0.18260053048594216,
                -1.2236904658558985,
                1.9923511685930622,
                0.9612795605044697,
                -0.8992159014712897,
                1.4260384431793889
            ]
        },
        {
            "positions": [
                -0.23490789737746132,
                -1.1834067224149905,
                1.9687490531688518,
                1.0453447754434988,
                -0.993853654994401,
                1.3247836233933687
            ]
        },
        {
            "positions": [
                -0.28721526426898025,
                -1.1431229789740827,
                1.9451469377446413,
                1.1294099903825277,
                -1.088491408517512,
                1.223528803607349
            ]
        },
        {
            "positions": [
                -0.3395226311604992,
                -1.1028392355331746,
                1.921544822320431,
                1.2134752053215565,
                -1.1831291620406228,
                1.1222739838213291
            ]
        },
        {
            "positions": [
                -0.39182999805201824,
                -1.062555492092267,
                1.8979427068962207,
                1.2975404202605854,
                -1.2777669155637337,
                1.0210191640353097
            ]
        },
        {
            "positions": [
                -0.4441373649435373,
                -1.022271748651359,
                1.8743405914720102,
                1.3816056351996144,
                -1.3724046690868448,
                0.9197643442492893
            ]
        },
        {
            "positions": [
                -0.49644473183505633,
                -0.9819880052104512,
                1.8507384760477998,
                1.4656708501386433,
                -1.4670424226099559,
                0.8185095244632699
            ]
        },
        {
            "positions": [
                -0.5487520987265752,
                -0.9417042617695432,
                1.8271363606235895,
                1.5497360650776721,
                -1.5616801761330665,
                0.7172547046772499
            ]
        },
        {
            "positions": [
                -0.6010594656180942,
                -0.9014205183286355,
                1.803534245199379,
                1.6338012800167012,
                -1.6563179296561776,
                0.61599988489123
            ]
        },
        {
            "positions": [
                -0.6533668325096132,
                -0.8611367748877274,
                1.7799321297751685,
                1.7178664949557303,
                -1.7509556831792887,
                0.5147450651052101
            ]
        },
        {
            "positions": [
                -0.7056741994011323,
                -0.8208530314468196,
                1.7563300143509584,
                1.801931709894759,
                -1.8455934367023994,
                0.4134902453191902
            ]
        },
        {
            "positions": [
                -0.7579815662926511,
                -0.7805692880059116,
                1.7327278989267478,
                1.885996924833788,
                -1.9402311902255105,
                0.31223542553317074
            ]
        },
        {
            "positions": [
                -0.8102889331841702,
                -0.7402855445650038,
                1.7091257835025375,
                1.9700621397728166,
                -2.034868943748621,
                0.21098060574715083
            ]
        },
        {
            "positions": [
                -0.8625963000756892,
                -0.7000018011240958,
                1.6855236680783272,
                2.0541273547118455,
                -2.129506697271733,
                0.10972578596113092
            ]
        },
        {
            "positions": [
                -0.9149036669672083,
                -0.659718057683188,
                1.6619215526541167,
                2.1381925696508746,
                -2.2241444507948436,
                0.008470966175110927
            ]
        }
    ]
}