{
    "goal": {
        "global_pose": {
            "orientation": {
                "w": 0.005598929693374612,
                "x": 0.007748599140229565,
                "y": 0.7110244013736278,
                "z": -0.7031023480610252
            },
            "position": {
                "x": -0.8858502320852131,
                "y": -0.7141253447532654,
                "z": 0.3711530566215515
            }
        },
        "name": "move_to_auspresseinheit_C"
    },
    "id": "LBKPIECE_move_to_auspresseinheit_C_81",
    "joint_names": [
        "shoulder_pan_joint",
        "shoulder_lift_joint",
        "elbow_joint",
        "wrist_1_joint",
        "wrist_2_joint",
        "wrist_3_joint"
    ],
    "metrics": {
        "cart_traj_len": 0.49384423849704817,
        "distance_elbow_joint": 1.01870886189193,
        "distance_shoulder_lift_joint": 0.33374852920857934,
        "distance_shoulder_pan_joint": 0.25521889881129356,
        "distance_wrist_1_joint": 0.7115601520209526,
        "distance_wrist_2_joint": 1.320074241819365,
        "distance_wrist_3_joint": 0.09013428716758609,
        "smoothness": 3.2297397080004555e-16,
        "time": 0.840481247,
        "traj_len": 1.9311770946548912,
        "weighted_distance": 2.4374880387594104
    },
    "planner": "LBKPIECE",
    "start": {
        "state": {
            "elbow_joint": 1.7527959577730765,
            "shoulder_lift_joint": -0.9740617694224828,
            "shoulder_pan_joint": -2.967991417825869,
            "wrist_1_joint": -0.7595177689779385,
            "wrist_2_joint": 1.7443932448376545,
            "wrist_3_joint": 3.1991315425061013
        }
    },
    "waypoints": [
        {
            "positions": [
                -2.967991417825869,
                -0.9740617694224828,
                1.7527959577730765,
                -0.7595177689779385,
                1.7443932448376545,
                3.1991315425061013
            ]
        },
        {
            "positions": [
                -2.9424695279447395,
                -0.9406869165016248,
                1.6509250715838835,
                -0.6883617537758433,
                1.612385820655718,
                3.190118113789343
            ]
        },
        {
            "positions": [
                -2.9169476380636103,
                -0.9073120635807669,
                1.5490541853946904,
                -0.617205738573748,
                1.4803783964737813,
                3.181104685072584
            ]
        },
        {
            "positions": [
                -2.891425748182481,
                -0.873937210659909,
                1.4471832992054976,
                -0.5460497233716528,
                1.3483709722918449,
                3.1720912563558255
            ]
        },
        {
            "positions": [
                -2.8659038583013516,
                -0.8405623577390511,
                1.3453124130163046,
                -0.4748937081695575,
                1.2163635481099084,
                3.163077827639067
            ]
        },
        {
            "positions": [
                -2.840381968420222,
                -0.8071875048181931,
                1.2434415268271115,
                -0.40373769296746226,
                1.084356123927972,
                3.1540643989223085
            ]
        },
        {
            "positions": [
                -2.814860078539093,
                -0.7738126518973352,
                1.1415706406379185,
                -0.332581677765367,
                0.9523486997460355,
                3.1450509702055496
            ]
        },
        {
            "positions": [
                -2.789338188657964,
                -0.7404377989764772,
                1.0396997544487254,
                -0.26142566256327177,
                0.8203412755640991,
                3.136037541488791
            ]
        },
        {
            "positions": [
                -2.763816298776834,
                -0.7070629460556193,
                0.9378288682595325,
                -0.19026964736117646,
                0.6883338513821624,
                3.1270241127720326
            ]
        },
        {
            "positions": [
                -2.7382944088957046,
                -0.6736880931347613,
                0.8359579820703394,
                -0.11911363215908122,
                0.556326427200226,
                3.1180106840552737
            ]
        },
        {
            "positions": [
                -2.7127725190145755,
                -0.6403132402139035,
                0.7340870958811464,
                -0.047957616956985985,
                0.4243190030182896,
                3.1089972553385152
            ]
        }
    ]
}