{
    "goal": {
        "global_pose": {
            "orientation": {
                "w": -0.4816463035849501,
                "x": 0.5182115481033762,
                "y": 0.4908360881923453,
                "z": -0.5084816262002911
            },
            "position": {
                "x": -0.8240239810943604,
                "y": 0.19912469901144506,
                "z": 0.16403168439865112
            }
        },
        "name": "move_to_storage_D"
    },
    "id": "LBKPIECE_move_to_storage_D_146",
    "joint_names": [
        "shoulder_pan_joint",
        "shoulder_lift_joint",
        "elbow_joint",
        "wrist_1_joint",
        "wrist_2_joint",
        "wrist_3_joint"
    ],
    "metrics": {
        "cart_traj_len": 0.554021428534156,
        "distance_elbow_joint": 0.6001380662691211,
        "distance_shoulder_lift_joint": 0.1527631734272834,
        "distance_shoulder_pan_joint": 0.41931369484395453,
        "distance_wrist_1_joint": 3.8206307419133156,
        "distance_wrist_2_joint": 1.997710493351904,
        "distance_wrist_3_joint": 3.1484831023761526,
        "smoothness": 0.23531010372012146,
        "time": 0.652956274,
        "traj_len": 3.1841858099334797,
        "weighted_distance": 4.717451294099311
    },
    "planner": "LBKPIECE",
    "start": {
        "state": {
            "elbow_joint": -2.384821990628643,
            "shoulder_lift_joint": -2.278805467437664,
            "shoulder_pan_joint": -0.18546946439364564,
            "wrist_1_joint": 1.4845938187801415,
            "wrist_2_joint": 0.178987772454074,
            "wrist_3_joint": 0.03710569632802521
        }
    },
    "waypoints": [
        {
            "positions": [
                -0.18546946439364564,
                -2.278805467437664,
                -2.384821990628643,
                1.4845938187801415,
                0.178987772454074,
                0.03710569632802521
            ]
        },
        {
            "positions": [
                -0.1700094273203629,
                -2.2744693068546447,
                -2.360896835598757,
                1.4784163837951345,
                0.19214523812322104,
                0.03756094812684957
            ]
        },
        {
            "positions": [
                -0.0803512632889166,
                -2.248063684173375,
                -2.3685991069552412,
                1.4125232623760187,
                0.22321374852655976,
                0.10871463077978512
            ]
        },
        {
            "positions": [
                0.009306900742529683,
                -2.2216580614921058,
                -2.3763013783117257,
                1.3466301409569026,
                0.2542822589298985,
                0.17986831343272067
            ]
        },
        {
            "positions": [
                0.09896506477397599,
                -2.195252438810836,
                -2.3840036496682098,
                1.2807370195377867,
                0.2853507693332372,
                0.25102199608565623
            ]
        },
        {
            "positions": [
                0.09334509953746209,
                -2.192368682777484,
                -2.3609575622861354,
                1.13003810525983,
                0.20654462364687304,
                0.373295612861428
            ]
        },
        {
            "positions": [
                0.08772513430094821,
                -2.1894849267441314,
                -2.337911474904061,
                0.9793391909818734,
                0.12773847796050883,
                0.4955692296371997
            ]
        },
        {
            "positions": [
                0.08210516906443432,
                -2.1866011707107793,
                -2.314865387521987,
                0.8286402767039167,
                0.04893233227414462,
                0.6178428464129715
            ]
        },
        {
            "positions": [
                0.07648520382792043,
                -2.1837174146774267,
                -2.2918193001399128,
                0.67794136242596,
                -0.029873813412219563,
                0.7401164631887431
            ]
        },
        {
            "positions": [
                0.07086523859140653,
                -2.1808336586440746,
                -2.2687732127578384,
                0.5272424481480033,
                -0.1086799590985838,
                0.8623900799645149
            ]
        },
        {
            "positions": [
                0.06524527335489265,
                -2.177949902610722,
                -2.245727125375764,
                0.3765435338700466,
                -0.18748610478494798,
                0.9846636967402866
            ]
        },
        {
            "positions": [
                0.05962530811837876,
                -2.17506614657737,
                -2.2226810379936897,
                0.2258446195920898,
                -0.2662922504713122,
                1.1069373135160583
            ]
        },
        {
            "positions": [
                0.05400534288186487,
                -2.1721823905440174,
                -2.1996349506116157,
                0.07514570531413334,
                -0.34509839615767635,
                1.22921093029183
            ]
        },
        {
            "positions": [
                0.04838537764535098,
                -2.1692986345106653,
                -2.1765888632295414,
                -0.07555320896382356,
                -0.4239045418440406,
                1.351484547067602
            ]
        },
        {
            "positions": [
                0.04276541240883709,
                -2.1664148784773127,
                -2.153542775847467,
                -0.22625212324178023,
                -0.5027106875304048,
                1.4737581638433737
            ]
        },
        {
            "positions": [
                0.0371454471723232,
                -2.1635311224439606,
                -2.1304966884653926,
                -0.3769510375197369,
                -0.581516833216769,
                1.5960317806191453
            ]
        },
        {
            "positions": [
                0.03152548193580931,
                -2.1606473664106085,
                -2.1074506010833183,
                -0.5276499517976936,
                -0.6603229789031332,
                1.718305397394917
            ]
        },
        {
            "positions": [
                0.02590551669929543,
                -2.157763610377256,
                -2.0844045137012444,
                -0.67834886607565,
                -0.7391291245894974,
                1.8405790141706886
            ]
        },
        {
            "positions": [
                0.020285551462781534,
                -2.154879854343904,
                -2.06135842631917,
                -0.8290477803536072,
                -0.8179352702758617,
                1.9628526309464607
            ]
        },
        {
            "positions": [
                0.014665586226267652,
                -2.1519960983105513,
                -2.0383123389370956,
                -0.9797466946315638,
                -0.8967414159622257,
                2.0851262477222323
            ]
        },
        {
            "positions": [
                0.009045620989753755,
                -2.149112342277199,
                -2.0152662515550213,
                -1.13044560890952,
                -0.9755475616485899,
                2.207399864498004
            ]
        },
        {
            "positions": [
                0.003425655753239859,
                -2.1462285862438466,
                -1.9922201641729471,
                -1.2811445231874772,
                -1.054353707334954,
                2.329673481273776
            ]
        },
        {
            "positions": [
                -0.0021943094832740234,
                -2.1433448302104945,
                -1.969174076790873,
                -1.4318434374654339,
                -1.1331598530213185,
                2.4519470980495477
            ]
        },
        {
            "positions": [
                -0.007814274719787906,
                -2.140461074177142,
                -1.9461279894087986,
                -1.58254235174339,
                -1.2119659987076825,
                2.5742207148253193
            ]
        },
        {
            "positions": [
                -0.013434239956301802,
                -2.13757731814379,
                -1.9230819020267242,
                -1.7332412660213472,
                -1.290772144394047,
                2.696494331601091
            ]
        },
        {
            "positions": [
                -0.0190542051928157,
                -2.1346935621104373,
                -1.90003581464465,
                -1.8839401802993039,
                -1.369578290080411,
                2.8187679483768626
            ]
        },
        {
            "positions": [
                -0.02467417042932958,
                -2.131809806077085,
                -1.876989727262576,
                -2.0346390945772606,
                -1.448384435766775,
                2.9410415651526343
            ]
        },
        {
            "positions": [
                -0.030294135665843464,
                -2.1289260500437326,
                -1.8539436398805016,
                -2.1853380088552172,
                -1.5271905814531395,
                3.0633151819284063
            ]
        },
        {
            "positions": [
                -0.03591410090235735,
                -2.1260422940103805,
                -1.8308975524984272,
                -2.336036923133174,
                -1.6059967271395037,
                3.185588798704178
            ]
        }
    ]
}