{
    "goal": {
        "global_pose": {
            "orientation": {
                "w": 0.7047431468963623,
                "x": -0.7094548344612122,
                "y": 0.0024358443915843964,
                "z": -0.0022348060738295317
            },
            "position": {
                "x": 0.6094750761985779,
                "y": 0.3671506643295288,
                "z": 0.19426114857196808
            }
        },
        "name": "move_to_magneteinheit_A"
    },
    "id": "LBKPIECE_move_to_magneteinheit_A_46",
    "joint_names": [
        "shoulder_pan_joint",
        "shoulder_lift_joint",
        "elbow_joint",
        "wrist_1_joint",
        "wrist_2_joint",
        "wrist_3_joint"
    ],
    "metrics": {
        "cart_traj_len": 1.6025201087320708,
        "distance_elbow_joint": 3.5272010238301643,
        "distance_shoulder_lift_joint": 1.1366850626149152,
        "distance_shoulder_pan_joint": 1.2422033708582068,
        "distance_wrist_1_joint": 3.844310667646133,
        "distance_wrist_2_joint": 1.69630358855969,
        "distance_wrist_3_joint": 1.227757697183267,
        "smoothness": 3.395976315403808e-16,
        "time": 0.905215054,
        "traj_len": 3.5601209825920774,
        "weighted_distance": 4.546492171033041
    },
    "planner": "LBKPIECE",
    "start": {
        "state": {
            "elbow_joint": -1.5739458827952972,
            "shoulder_lift_joint": 0.006533473998580023,
            "shoulder_pan_joint": -1.1188671628667068,
            "wrist_1_joint": 3.138208179676308,
            "wrist_2_joint": -1.5706037135050406,
            "wrist_3_joint": -2.0226958329764257
        }
    },
    "waypoints": [
        {
            "positions": [
                -1.1188671628667068,
                0.006533473998580023,
                -1.5739458827952972,
                3.138208179676308,
                -1.5706037135050406,
                -2.0226958329764257
            ]
        },
        {
            "positions": [
                -1.0837495232203858,
                -0.028598865103790484,
                -1.4667873780677694,
                3.0179860961792233,
                -1.5142769417306574,
                -2.052699638602235
            ]
        },
        {
            "positions": [
                -1.0486318835740647,
                -0.06373120420616099,
                -1.3596288733402415,
                2.897764012682139,
                -1.4579501699562742,
                -2.082703444228045
            ]
        },
        {
            "positions": [
                -1.0135142439277436,
                -0.09886354330853152,
                -1.2524703686127137,
                2.777541929185054,
                -1.4016233981818909,
                -2.1127072498538544
            ]
        },
        {
            "positions": [
                -0.9783966042814226,
                -0.133995882410902,
                -1.145311863885186,
                2.657319845687969,
                -1.345296626407508,
                -2.1427110554796642
            ]
        },
        {
            "positions": [
                -0.9432789646351016,
                -0.1691282215132725,
                -1.0381533591576582,
                2.537097762190885,
                -1.2889698546331245,
                -2.1727148611054736
            ]
        },
        {
            "positions": [
                -0.9081613249887805,
                -0.20426056061564304,
                -0.9309948544301302,
                2.4168756786938,
                -1.2326430828587414,
                -2.2027186667312835
            ]
        },
        {
            "positions": [
                -0.8730436853424595,
                -0.23939289971801353,
                -0.8238363497026024,
                2.296653595196715,
                -1.1763163110843582,
                -2.232722472357093
            ]
        },
        {
            "positions": [
                -0.8379260456961384,
                -0.27452523882038404,
                -0.7166778449750746,
                2.1764315116996302,
                -1.119989539309975,
                -2.2627262779829023
            ]
        },
        {
            "positions": [
                -0.8028084060498173,
                -0.30965757792275456,
                -0.6095193402475468,
                2.0562094282025454,
                -1.0636627675355919,
                -2.292730083608712
            ]
        },
        {
            "positions": [
                -0.7676907664034963,
                -0.34478991702512507,
                -0.5023608355200191,
                1.935987344705461,
                -1.0073359957612087,
                -2.3227338892345215
            ]
        },
        {
            "positions": [
                -0.7325731267571752,
                -0.3799222561274956,
                -0.39520233079249123,
                1.8157652612083761,
                -0.9510092239868254,
                -2.3527376948603314
            ]
        },
        {
            "positions": [
                -0.6974554871108541,
                -0.41505459522986615,
                -0.28804382606496315,
                1.6955431777112913,
                -0.8946824522124421,
                -2.3827415004861408
            ]
        },
        {
            "positions": [
                -0.6623378474645332,
                -0.4501869343322366,
                -0.1808853213374355,
                1.5753210942142066,
                -0.838355680438059,
                -2.4127453061119506
            ]
        },
        {
            "positions": [
                -0.6272202078182121,
                -0.4853192734346071,
                -0.07372681660990765,
                1.4550990107171218,
                -0.7820289086636758,
                -2.44274911173776
            ]
        },
        {
            "positions": [
                -0.592102568171891,
                -0.5204516125369776,
                0.033431688117620206,
                1.3348769272200371,
                -0.7257021368892926,
                -2.47275291736357
            ]
        },
        {
            "positions": [
                -0.5569849285255699,
                -0.555583951639348,
                0.14059019284514807,
                1.2146548437229525,
                -0.6693753651149095,
                -2.5027567229893792
            ]
        },
        {
            "positions": [
                -0.5218672888792489,
                -0.5907162907417186,
                0.24774869757267592,
                1.0944327602258679,
                -0.6130485933405263,
                -2.5327605286151886
            ]
        },
        {
            "positions": [
                -0.48674964923292785,
                -0.6258486298440891,
                0.35490720230020356,
                0.974210676728783,
                -0.5567218215661431,
                -2.5627643342409985
            ]
        },
        {
            "positions": [
                -0.45163200958660676,
                -0.6609809689464596,
                0.46206570702773164,
                0.8539885932316982,
                -0.50039504979176,
                -2.592768139866808
            ]
        },
        {
            "positions": [
                -0.4165143699402858,
                -0.6961133080488301,
                0.5692242117552591,
                0.7337665097346138,
                -0.4440682780173768,
                -2.6227719454926177
            ]
        },
        {
            "positions": [
                -0.3813967302939647,
                -0.7312456471512006,
                0.6763827164827869,
                0.6135444262375289,
                -0.38774150624299364,
                -2.652775751118427
            ]
        },
        {
            "positions": [
                -0.3462790906476436,
                -0.7663779862535711,
                0.7835412212103148,
                0.49332234274044406,
                -0.33141473446861025,
                -2.6827795567442365
            ]
        },
        {
            "positions": [
                -0.31116145100132253,
                -0.8015103253559417,
                0.8906997259378431,
                0.3731002592433592,
                -0.2750879626942271,
                -2.7127833623700464
            ]
        },
        {
            "positions": [
                -0.27604381135500144,
                -0.8366426644583123,
                0.9978582306653709,
                0.25287817574627436,
                -0.2187611909198437,
                -2.742787167995856
            ]
        },
        {
            "positions": [
                -0.24092617170868036,
                -0.8717750035606827,
                1.1050167353928988,
                0.1326560922491895,
                -0.16243441914546053,
                -2.7727909736216656
            ]
        },
        {
            "positions": [
                -0.20580853206235938,
                -0.9069073426630532,
                1.2121752401204262,
                0.012434008752105097,
                -0.10610764737107736,
                -2.802794779247475
            ]
        },
        {
            "positions": [
                -0.1706908924160383,
                -0.9420396817654237,
                1.319333744847954,
                -0.10778807474497976,
                -0.049780875596694196,
                -2.832798584873285
            ]
        },
        {
            "positions": [
                -0.1355732527697172,
                -0.9771720208677942,
                1.426492249575482,
                -0.2280101582420646,
                0.00654589617768897,
                -2.8628023904990942
            ]
        },
        {
            "positions": [
                -0.10045561312339624,
                -1.0123043599701647,
                1.5336507543030098,
                -0.348232241739149,
                0.06287266795207214,
                -2.892806196124904
            ]
        },
        {
            "positions": [
                -0.06533797347707516,
                -1.0474366990725352,
                1.6408092590305379,
                -0.46845432523623404,
                0.11919943972645539,
                -2.9228100017507135
            ]
        },
        {
            "positions": [
                -0.0024465796542168378,
                -1.0750083289204686,
                1.7449578863653141,
                -0.5476703794807646,
                0.12136625150252019,
                -3.0320245112203734
            ]
        },
        {
            "positions": [
                0.06044481416864149,
                -1.1025799587684018,
                1.8491065137000906,
                -0.6268864337252952,
                0.12353306327858497,
                -3.141239020690033
            ]
        },
        {
            "positions": [
                0.12333620799149983,
                -1.1301515886163351,
                1.9532551410348669,
                -0.7061024879698258,
                0.12569987505464977,
                -3.250453530159693
            ]
        }
    ]
}