{
    "goal": {
        "global_pose": {
            "orientation": {
                "w": -0.00223480608172531,
                "x": 0.0024358444001904467,
                "y": 0.7094548369677653,
                "z": -0.704743149386269
            },
            "position": {
                "x": -0.37947507619857795,
                "y": -0.6371506643295288,
                "z": 0.19426114857196808
            }
        },
        "name": "move_to_magneteinheit_C"
    },
    "id": "LBKPIECE_move_to_magneteinheit_C_40",
    "joint_names": [
        "shoulder_pan_joint",
        "shoulder_lift_joint",
        "elbow_joint",
        "wrist_1_joint",
        "wrist_2_joint",
        "wrist_3_joint"
    ],
    "metrics": {
        "cart_traj_len": 1.1393654871499925,
        "distance_elbow_joint": 0.4947114186341255,
        "distance_shoulder_lift_joint": 0.3487246090437237,
        "distance_shoulder_pan_joint": 1.4325589807082635,
        "distance_wrist_1_joint": 0.8911353152083863,
        "distance_wrist_2_joint": 1.9688934775839848,
        "distance_wrist_3_joint": 1.1979176656842596,
        "smoothness": 1.715114349444117,
        "time": 0.34994615500000004,
        "traj_len": 2.5167322994038805,
        "weighted_distance": 3.404380353459882
    },
    "planner": "LBKPIECE",
    "start": {
        "state": {
            "elbow_joint": 1.9565354006593851,
            "shoulder_lift_joint": -1.4165861576512813,
            "shoulder_pan_joint": -1.6717766223278752,
            "wrist_1_joint": -0.528663328821883,
            "wrist_2_joint": 1.472756589259273,
            "wrist_3_joint": 3.159348288315503
        }
    },
    "waypoints": [
        {
            "positions": [
                -1.6717766223278752,
                -1.4165861576512813,
                1.9565354006593851,
                -0.528663328821883,
                1.472756589259273,
                3.159348288315503
            ]
        },
        {
            "positions": [
                -1.649589059787293,
                -1.422243835017309,
                1.9631859045766613,
                -0.4626845311215476,
                1.4178588266912135,
                3.0233613814723395
            ]
        },
        {
            "positions": [
                -1.5518863262396299,
                -1.398563889717985,
                1.9633075276771594,
                -0.3849369372148588,
                1.4895257984174584,
                2.9434458315765415
            ]
        },
        {
            "positions": [
                -1.4541835926919668,
                -1.374883944418661,
                1.9634291507776578,
                -0.30718934330816994,
                1.561192770143703,
                2.863530281680743
            ]
        },
        {
            "positions": [
                -1.3564808591443036,
                -1.351203999119337,
                1.963550773878156,
                -0.2294417494014811,
                1.6328597418699478,
                2.783614731784945
            ]
        },
        {
            "positions": [
                -1.4200760306141418,
                -1.357114460455959,
                1.9377031643918505,
                -0.281937488794691,
                1.4432072348799392,
                2.7484428974276924
            ]
        },
        {
            "positions": [
                -1.48367120208398,
                -1.3630249217925812,
                1.9118555549055454,
                -0.33443322818790094,
                1.2535547278899306,
                2.7132710630704393
            ]
        },
        {
            "positions": [
                -1.5472663735538184,
                -1.3689353831292033,
                1.88600794541924,
                -0.38692896758111084,
                1.063902220899922,
                2.6780992287131866
            ]
        },
        {
            "positions": [
                -1.6108615450236565,
                -1.3748458444658251,
                1.8601603359329346,
                -0.4394247069743208,
                0.8742497139099134,
                2.6429273943559335
            ]
        },
        {
            "positions": [
                -1.674456716493495,
                -1.3807563058024472,
                1.8343127264466292,
                -0.4919204463675307,
                0.6845972069199047,
                2.607755559998681
            ]
        },
        {
            "positions": [
                -1.738051887963333,
                -1.3866667671390693,
                1.808465116960324,
                -0.5444161857607406,
                0.4949446999298961,
                2.5725837256414277
            ]
        },
        {
            "positions": [
                -1.8016470594331713,
                -1.3925772284756914,
                1.7826175074740187,
                -0.5969119251539505,
                0.3052921929398874,
                2.537411891284175
            ]
        },
        {
            "positions": [
                -1.876273833071277,
                -1.3646937476520888,
                1.871165432486039,
                -0.650820044099564,
                0.3124484904047931,
                2.6679222236374938
            ]
        },
        {
            "positions": [
                -1.9509006067093824,
                -1.3368102668284862,
                1.9597133574980592,
                -0.7047281630451775,
                0.31960478786969887,
                2.798432555990813
            ]
        },
        {
            "positions": [
                -2.025527380347488,
                -1.3089267860048837,
                2.0482612825100794,
                -0.7586362819907909,
                0.3267610853346046,
                2.9289428883441317
            ]
        },
        {
            "positions": [
                -2.117163988462514,
                -1.2791027658052694,
                2.0403819265782106,
                -0.7720144254717898,
                0.3994365895179953,
                2.9694431819177547
            ]
        },
        {
            "positions": [
                -2.2088005965775404,
                -1.2492787456056549,
                2.032502570646342,
                -0.7853925689527885,
                0.4721120937013861,
                3.0099434754913776
            ]
        },
        {
            "positions": [
                -2.341272336623268,
                -1.2056010538289885,
                2.0198224245906324,
                -0.8033740270711269,
                0.574415768774202,
                3.061668317714242
            ]
        },
        {
            "positions": [
                -2.4737440766689955,
                -1.161923362052322,
                2.0071422785349227,
                -0.8213554851894653,
                0.6767194438470179,
                3.1133931599371065
            ]
        }
    ]
}