{
    "goal": {
        "global_pose": {
            "orientation": {
                "w": -0.4816463035849501,
                "x": 0.5182115481033762,
                "y": 0.4908360881923453,
                "z": -0.5084816262002911
            },
            "position": {
                "x": -0.8240239810943604,
                "y": -0.300875300988555,
                "z": 0.16403168439865112
            }
        },
        "name": "move_to_storage_C"
    },
    "id": "LBKPIECE_move_to_storage_C_141",
    "joint_names": [
        "shoulder_pan_joint",
        "shoulder_lift_joint",
        "elbow_joint",
        "wrist_1_joint",
        "wrist_2_joint",
        "wrist_3_joint"
    ],
    "metrics": {
        "cart_traj_len": 0.576533796028561,
        "distance_elbow_joint": 0.2586340414889947,
        "distance_shoulder_lift_joint": 0.18986096868619595,
        "distance_shoulder_pan_joint": 0.494206487947066,
        "distance_wrist_1_joint": 0.08036797892371683,
        "distance_wrist_2_joint": 1.0702489349044906,
        "distance_wrist_3_joint": 0.06065933429030723,
        "smoothness": 0.0,
        "time": 0.27344202300000003,
        "traj_len": 1.4676436032772981,
        "weighted_distance": 1.8509222913589845
    },
    "planner": "LBKPIECE",
    "start": {
        "state": {
            "elbow_joint": 2.0108683149792914,
            "shoulder_lift_joint": -1.1634956873317392,
            "shoulder_pan_joint": -2.4736205022346,
            "wrist_1_joint": -0.8367026793690192,
            "wrist_2_joint": 0.6746043897045053,
            "wrist_3_joint": 3.133522094754363
        }
    },
    "waypoints": [
        {
            "positions": [
                -2.4736205022346,
                -1.1634956873317392,
                2.0108683149792914,
                -0.8367026793690192,
                0.6746043897045053,
                3.133522094754363
            ]
        },
        {
            "positions": [
                -2.5559882502257776,
                -1.1318521925507066,
                1.9677626413977922,
                -0.8233080162150664,
                0.8529792121885871,
                3.1436319838027478
            ]
        },
        {
            "positions": [
                -2.6383559982169555,
                -1.100208697769674,
                1.9246569678162933,
                -0.8099133530611136,
                1.0313540346726688,
                3.1537418728511324
            ]
        },
        {
            "positions": [
                -2.720723746208133,
                -1.0685652029886412,
                1.881551294234794,
                -0.7965186899071608,
                1.2097288571567506,
                3.163851761899517
            ]
        },
        {
            "positions": [
                -2.8030914941993106,
                -1.0369217082076085,
                1.8384456206532949,
                -0.783124026753208,
                1.3881036796408324,
                3.173961650947901
            ]
        },
        {
            "positions": [
                -2.8854592421904885,
                -1.0052782134265759,
                1.795339947071796,
                -0.7697293635992551,
                1.5664785021249141,
                3.184071539996286
            ]
        },
        {
            "positions": [
                -2.967826990181666,
                -0.9736347186455433,
                1.7522342734902967,
                -0.7563347004453024,
                1.744853324608996,
                3.1941814290446704
            ]
        }
    ]
}