{
    "goal": {
        "global_pose": {
            "orientation": {
                "w": -0.4816463035849501,
                "x": 0.5182115481033762,
                "y": 0.4908360881923453,
                "z": -0.5084816262002911
            },
            "position": {
                "x": -0.8240239810943604,
                "y": 0.19912469901144506,
                "z": 0.16403168439865112
            }
        },
        "name": "move_to_storage_D"
    },
    "id": "LBKPIECE_move_to_storage_D_71",
    "joint_names": [
        "shoulder_pan_joint",
        "shoulder_lift_joint",
        "elbow_joint",
        "wrist_1_joint",
        "wrist_2_joint",
        "wrist_3_joint"
    ],
    "metrics": {
        "cart_traj_len": 3.697041911002078,
        "distance_elbow_joint": 4.223310613607071,
        "distance_shoulder_lift_joint": 1.262385241700826,
        "distance_shoulder_pan_joint": 2.8145596986599593,
        "distance_wrist_1_joint": 2.782576110245992,
        "distance_wrist_2_joint": 0.8912831427264256,
        "distance_wrist_3_joint": 3.1208547436888727,
        "smoothness": 0.06820012097955937,
        "time": 0.420344541,
        "traj_len": 3.8852245174029703,
        "weighted_distance": 5.001053718065754
    },
    "planner": "LBKPIECE",
    "start": {
        "state": {
            "elbow_joint": -2.384821990628643,
            "shoulder_lift_joint": -2.278805467437664,
            "shoulder_pan_joint": -0.18546946439364564,
            "wrist_1_joint": 1.4845938187801415,
            "wrist_2_joint": 0.178987772454074,
            "wrist_3_joint": 0.03710569632802521
        }
    },
    "waypoints": [
        {
            "positions": [
                -0.18546946439364564,
                -2.278805467437664,
                -2.384821990628643,
                1.4845938187801415,
                0.178987772454074,
                0.03710569632802521
            ]
        },
        {
            "positions": [
                -0.14975362810437726,
                -2.2616927753354474,
                -2.3883633493994996,
                1.4659698451387733,
                0.17688884124069165,
                0.025919799633565117
            ]
        },
        {
            "positions": [
                -0.07468066220919349,
                -2.2364503654517973,
                -2.260964073304469,
                1.384778214492266,
                0.17716519632181726,
                -0.05092511642080343
            ]
        },
        {
            "positions": [
                0.0003923036859902751,
                -2.2112079555681476,
                -2.1335647972094387,
                1.3035865838457585,
                0.17744155140294285,
                -0.127770032475172
            ]
        },
        {
            "positions": [
                0.07546526958117403,
                -2.1859655456844975,
                -2.0061655211144083,
                1.2223949531992513,
                0.17771790648406846,
                -0.20461494852954057
            ]
        },
        {
            "positions": [
                0.1505382354763578,
                -2.1607231358008474,
                -1.8787662450193778,
                1.141203322552744,
                0.17799426156519405,
                -0.2814598645839091
            ]
        },
        {
            "positions": [
                0.22561120137154156,
                -2.1354807259171973,
                -1.7513669689243472,
                1.0600116919062366,
                0.17827061664631966,
                -0.3583047806382777
            ]
        },
        {
            "positions": [
                0.3006841672667253,
                -2.1102383160335476,
                -1.6239676928293167,
                0.9788200612597293,
                0.17854697172744527,
                -0.43514969669264625
            ]
        },
        {
            "positions": [
                0.3757571331619091,
                -2.0849959061498975,
                -1.4965684167342863,
                0.8976284306132221,
                0.17882332680857085,
                -0.5119946127470147
            ]
        },
        {
            "positions": [
                0.45083009905709287,
                -2.0597534962662474,
                -1.3691691406392559,
                0.8164367999667148,
                0.17909968188969647,
                -0.5888395288013832
            ]
        },
        {
            "positions": [
                0.5259030649522767,
                -2.0345110863825973,
                -1.2417698645442252,
                0.7352451693202073,
                0.17937603697082208,
                -0.665684444855752
            ]
        },
        {
            "positions": [
                0.6009760308474603,
                -2.0092686764989476,
                -1.1143705884491948,
                0.6540535386737001,
                0.17965239205194766,
                -0.7425293609101205
            ]
        },
        {
            "positions": [
                0.6760489967426442,
                -1.9840262666152975,
                -0.9869713123541644,
                0.5728619080271927,
                0.17992874713307327,
                -0.8193742769644891
            ]
        },
        {
            "positions": [
                0.7511219626378278,
                -1.9587838567316473,
                -0.8595720362591339,
                0.49167027738068547,
                0.18020510221419886,
                -0.8962191930188576
            ]
        },
        {
            "positions": [
                0.8261949285330117,
                -1.9335414468479974,
                -0.7321727601641033,
                0.4104786467341781,
                0.18048145729532447,
                -0.9730641090732262
            ]
        },
        {
            "positions": [
                0.9012678944281955,
                -1.9082990369643476,
                -0.604773484069073,
                0.32928701608767086,
                0.18075781237645008,
                -1.0499090251275947
            ]
        },
        {
            "positions": [
                0.9763408603233792,
                -1.8830566270806974,
                -0.4773742079740424,
                0.24809538544116339,
                0.18103416745757567,
                -1.1267539411819634
            ]
        },
        {
            "positions": [
                1.051413826218563,
                -1.8578142171970475,
                -0.3499749318790122,
                0.16690375479465636,
                0.18131052253870128,
                -1.2035988572363316
            ]
        },
        {
            "positions": [
                1.1264867921137467,
                -1.8325718073133976,
                -0.22257565578398175,
                0.0857121241481491,
                0.18158687761982686,
                -1.2804437732907001
            ]
        },
        {
            "positions": [
                1.2015597580089306,
                -1.8073293974297475,
                -0.09517637968895087,
                0.004520493501641409,
                0.18186323270095248,
                -1.357288689345069
            ]
        },
        {
            "positions": [
                1.2766327239041144,
                -1.7820869875460974,
                0.03222289640607956,
                -0.07667113714486584,
                0.1821395877820781,
                -1.4341336053994376
            ]
        },
        {
            "positions": [
                1.351705689799298,
                -1.7568445776624475,
                0.15962217250111,
                -0.1578627677913731,
                0.18241594286320367,
                -1.510978521453806
            ]
        },
        {
            "positions": [
                1.4267786556944817,
                -1.7316021677787976,
                0.2870214485961404,
                -0.23905439843788034,
                0.18269229794432928,
                -1.5878234375081746
            ]
        },
        {
            "positions": [
                1.5018516215896656,
                -1.7063597578951475,
                0.41442072469117086,
                -0.3202460290843878,
                0.1829686530254549,
                -1.6646683535625433
            ]
        },
        {
            "positions": [
                1.5769245874848494,
                -1.6811173480114974,
                0.5418200007862013,
                -0.40143765973089507,
                0.18324500810658048,
                -1.7415132696169118
            ]
        },
        {
            "positions": [
                1.651997553380033,
                -1.6558749381278475,
                0.6692192768812317,
                -0.4826292903774023,
                0.1835213631877061,
                -1.8183581856712803
            ]
        },
        {
            "positions": [
                1.7270705192752167,
                -1.6306325282441976,
                0.7966185529762622,
                -0.5638209210239096,
                0.18379771826883168,
                -1.8952031017256488
            ]
        },
        {
            "positions": [
                1.8021434851704008,
                -1.6053901183605475,
                0.924017829071293,
                -0.645012551670417,
                0.1840740733499573,
                -1.9720480177800175
            ]
        },
        {
            "positions": [
                1.8772164510655844,
                -1.5801477084768976,
                1.0514171051663235,
                -0.7262041823169241,
                0.1843504284310829,
                -2.0488929338343858
            ]
        },
        {
            "positions": [
                1.9522894169607683,
                -1.5549052985932477,
                1.1788163812613535,
                -0.8073958129634315,
                0.1846267835122085,
                -2.1257378498887545
            ]
        },
        {
            "positions": [
                2.0273623828559515,
                -1.5296628887095975,
                1.306215657356384,
                -0.8885874436099386,
                0.1849031385933341,
                -2.2025827659431227
            ]
        },
        {
            "positions": [
                2.1024353487511354,
                -1.5044204788259474,
                1.4336149334514148,
                -0.9697790742564465,
                0.18517949367445968,
                -2.279427681997492
            ]
        },
        {
            "positions": [
                2.177508314646319,
                -1.4791780689422975,
                1.561014209546445,
                -1.0509707049029535,
                0.1854558487555853,
                -2.35627259805186
            ]
        },
        {
            "positions": [
                2.2385818952254377,
                -1.4315651605926154,
                1.6028193974637421,
                -1.0286240721775908,
                0.2803760517059365,
                -2.4489947029267825
            ]
        },
        {
            "positions": [
                2.2996554758045558,
                -1.3839522522429333,
                1.644624585381039,
                -1.0062774394522283,
                0.3752962546562877,
                -2.5417168078017047
            ]
        },
        {
            "positions": [
                2.3545612688815156,
                -1.3226969144919174,
                1.6757548053903182,
                -0.9725577192668663,
                0.49042572100586224,
                -2.6320555143948954
            ]
        },
        {
            "positions": [
                2.409467061958475,
                -1.2614415767409015,
                1.706885025399597,
                -0.9388379990815043,
                0.6055551873554368,
                -2.7223942209880856
            ]
        },
        {
            "positions": [
                2.4643728550354345,
                -1.2001862389898856,
                1.7380152454088762,
                -0.9051182788961425,
                0.7206846537050113,
                -2.8127329275812762
            ]
        },
        {
            "positions": [
                2.5192786481123943,
                -1.1389309012388695,
                1.7691454654181553,
                -0.8713985587107805,
                0.8358141200545859,
                -2.903071634174467
            ]
        },
        {
            "positions": [
                2.574184441189354,
                -1.0776755634878536,
                1.8002756854274342,
                -0.8376788385254186,
                0.9509435864041604,
                -2.993410340767657
            ]
        },
        {
            "positions": [
                2.6290902342663136,
                -1.0164202257368378,
                1.8314059054367133,
                -0.8039591183400566,
                1.066073052753735,
                -3.0837490473608478
            ]
        }
    ]
}