{
    "goal": {
        "global_pose": {
            "orientation": {
                "w": -0.00223480608172531,
                "x": 0.0024358444001904467,
                "y": 0.7094548369677653,
                "z": -0.704743149386269
            },
            "position": {
                "x": 0.6205249238014221,
                "y": -0.6371506643295288,
                "z": 0.19426114857196808
            }
        },
        "name": "move_to_magneteinheit_B"
    },
    "id": "LBKPIECE_move_to_magneteinheit_B_132",
    "joint_names": [
        "shoulder_pan_joint",
        "shoulder_lift_joint",
        "elbow_joint",
        "wrist_1_joint",
        "wrist_2_joint",
        "wrist_3_joint"
    ],
    "metrics": {
        "cart_traj_len": 1.4531779233111137,
        "distance_elbow_joint": 0.7322293224399563,
        "distance_shoulder_lift_joint": 1.2500568085117392,
        "distance_shoulder_pan_joint": 1.6197284443265838,
        "distance_wrist_1_joint": 2.605431617116078,
        "distance_wrist_2_joint": 2.9435260835089614,
        "distance_wrist_3_joint": 3.1432663649799726,
        "smoothness": 4.0371746593766418e-16,
        "time": 0.29254056500000003,
        "traj_len": 3.506314110413283,
        "weighted_distance": 4.912202059307849
    },
    "planner": "LBKPIECE",
    "start": {
        "state": {
            "elbow_joint": 2.393587130804639,
            "shoulder_lift_joint": -1.9085141043513325,
            "shoulder_pan_joint": 0.7066247066698809,
            "wrist_1_joint": -0.4678290934590222,
            "wrist_2_joint": 0.7096259084215963,
            "wrist_3_joint": 3.147370379541726
        }
    },
    "waypoints": [
        {
            "positions": [
                0.7066247066698809,
                -1.9085141043513325,
                2.393587130804639,
                -0.4678290934590222,
                0.7096259084215963,
                3.147370379541726
            ]
        },
        {
            "positions": [
                0.6560081927846751,
                -1.8694498290853407,
                2.37070496447839,
                -0.38640935542414473,
                0.6176407183119413,
                3.0491433056361017
            ]
        },
        {
            "positions": [
                0.6053916788994693,
                -1.8303855538193488,
                2.3478227981521416,
                -0.3049896173892673,
                0.5256555282022863,
                2.950916231730478
            ]
        },
        {
            "positions": [
                0.5547751650142636,
                -1.791321278553357,
                2.3249406318258927,
                -0.22356987935438982,
                0.4336703380926312,
                2.8526891578248534
            ]
        },
        {
            "positions": [
                0.5041586511290579,
                -1.7522570032873652,
                2.3020584654996443,
                -0.14215014131951237,
                0.3416851479829762,
                2.7544620839192295
            ]
        },
        {
            "positions": [
                0.4535421372438522,
                -1.7131927280213732,
                2.2791762991733955,
                -0.060730403284634915,
                0.24969995787332122,
                2.656235010013605
            ]
        },
        {
            "positions": [
                0.4029256233586464,
                -1.6741284527553815,
                2.256294132847147,
                0.02068933475024254,
                0.1577147677636661,
                2.5580079361079813
            ]
        },
        {
            "positions": [
                0.35230910947344063,
                -1.6350641774893897,
                2.2334119665208982,
                0.10210907278511999,
                0.0657295776540111,
                2.459780862202357
            ]
        },
        {
            "positions": [
                0.3016925955882349,
                -1.5959999022233977,
                2.21052980019465,
                0.18352881081999745,
                -0.026255612455643895,
                2.361553788296733
            ]
        },
        {
            "positions": [
                0.2510760817030292,
                -1.5569356269574057,
                2.187647633868401,
                0.2649485488548749,
                -0.1182408025652989,
                2.2633267143911087
            ]
        },
        {
            "positions": [
                0.20045956781782348,
                -1.517871351691414,
                2.1647654675421526,
                0.34636828688975235,
                -0.2102259926749539,
                2.1650996404854848
            ]
        },
        {
            "positions": [
                0.14984305393261765,
                -1.4788070764254222,
                2.1418833012159038,
                0.4277880249246298,
                -0.302211182784609,
                2.0668725665798604
            ]
        },
        {
            "positions": [
                0.09922654004741194,
                -1.4397428011594302,
                2.1190011348896554,
                0.5092077629595073,
                -0.3941963728942641,
                1.9686454926742363
            ]
        },
        {
            "positions": [
                0.04861002616220622,
                -1.4006785258934384,
                2.0961189685634065,
                0.5906275009943849,
                -0.486181563003919,
                1.8704184187686121
            ]
        },
        {
            "positions": [
                -0.002006487722999606,
                -1.3616142506274467,
                2.073236802237158,
                0.6720472390292622,
                -0.5781667531135741,
                1.772191344862988
            ]
        },
        {
            "positions": [
                -0.05262300160820532,
                -1.3225499753614547,
                2.0503546359109093,
                0.7534669770641396,
                -0.670151943223229,
                1.6739642709573639
            ]
        },
        {
            "positions": [
                -0.10323951549341104,
                -1.283485700095463,
                2.0274724695846604,
                0.8348867150990171,
                -0.7621371333328841,
                1.5757371970517398
            ]
        },
        {
            "positions": [
                -0.15385602937861675,
                -1.2444214248294712,
                2.004590303258412,
                0.9163064531338947,
                -0.8541223234425392,
                1.4775101231461156
            ]
        },
        {
            "positions": [
                -0.20447254326382247,
                -1.2053571495634792,
                1.9817081369321634,
                0.997726191168772,
                -0.9461075135521941,
                1.3792830492404915
            ]
        },
        {
            "positions": [
                -0.2550890571490283,
                -1.1662928742974874,
                1.9588259706059148,
                1.0791459292036494,
                -1.0380927036618492,
                1.2810559753348674
            ]
        },
        {
            "positions": [
                -0.3057055710342339,
                -1.1272285990314956,
                1.9359438042796662,
                1.160565667238527,
                -1.1300778937715041,
                1.1828289014292432
            ]
        },
        {
            "positions": [
                -0.35632208491943984,
                -1.0881643237655036,
                1.9130616379534175,
                1.2419854052734045,
                -1.2220630838811593,
                1.0846018275236191
            ]
        },
        {
            "positions": [
                -0.40693859880464556,
                -1.0491000484995119,
                1.8901794716271687,
                1.3234051433082819,
                -1.3140482739908144,
                0.9863747536179948
            ]
        },
        {
            "positions": [
                -0.4575551126898513,
                -1.0100357732335201,
                1.8672973053009203,
                1.4048248813431592,
                -1.4060334641004693,
                0.8881476797123709
            ]
        },
        {
            "positions": [
                -0.508171626575057,
                -0.9709714979675281,
                1.8444151389746715,
                1.4862446193780368,
                -1.4980186542101246,
                0.7899206058067465
            ]
        },
        {
            "positions": [
                -0.5587881404602627,
                -0.9319072227015363,
                1.821532972648423,
                1.5676643574129143,
                -1.5900038443197795,
                0.6916935319011226
            ]
        },
        {
            "positions": [
                -0.6094046543454684,
                -0.8928429474355444,
                1.7986508063221742,
                1.6490840954477919,
                -1.6819890344294344,
                0.5934664579954982
            ]
        },
        {
            "positions": [
                -0.6600211682306741,
                -0.8537786721695526,
                1.7757686399959258,
                1.730503833482669,
                -1.7739742245390893,
                0.49523938408987433
            ]
        },
        {
            "positions": [
                -0.7106376821158801,
                -0.8147143969035608,
                1.752886473669677,
                1.8119235715175466,
                -1.8659594146487446,
                0.39701231018425
            ]
        },
        {
            "positions": [
                -0.7612541960010858,
                -0.7756501216375689,
                1.7300043073434284,
                1.8933433095524241,
                -1.9579446047583995,
                0.2987852362786261
            ]
        },
        {
            "positions": [
                -0.8118707098862915,
                -0.7365858463715771,
                1.7071221410171797,
                1.9747630475873013,
                -2.0499297948680546,
                0.20055816237300172
            ]
        },
        {
            "positions": [
                -0.8624872237714972,
                -0.6975215711055851,
                1.6842399746909311,
                2.0561827856221786,
                -2.14191498497771,
                0.10233108846737782
            ]
        },
        {
            "positions": [
                -0.9131037376567028,
                -0.6584572958395934,
                1.6613578083646825,
                2.137602523657056,
                -2.233900175087365,
                0.004104014561753566
            ]
        }
    ]
}