{
    "goal": {
        "global_pose": {
            "orientation": {
                "w": -0.4816463035849501,
                "x": 0.5182115481033762,
                "y": 0.4908360881923453,
                "z": -0.5084816262002911
            },
            "position": {
                "x": -0.8240239810943604,
                "y": -0.300875300988555,
                "z": 0.16403168439865112
            }
        },
        "name": "move_to_storage_C"
    },
    "id": "LBKPIECE_move_to_storage_C_4",
    "joint_names": [
        "shoulder_pan_joint",
        "shoulder_lift_joint",
        "elbow_joint",
        "wrist_1_joint",
        "wrist_2_joint",
        "wrist_3_joint"
    ],
    "metrics": {
        "cart_traj_len": 0.5767490857869648,
        "distance_elbow_joint": 0.2570606880854567,
        "distance_shoulder_lift_joint": 0.18920288217799885,
        "distance_shoulder_pan_joint": 0.4965198267909625,
        "distance_wrist_1_joint": 0.07931259849085803,
        "distance_wrist_2_joint": 1.0576654371207335,
        "distance_wrist_3_joint": 0.06499623545386202,
        "smoothness": 2.5376526478085547e-16,
        "time": 0.359539445,
        "traj_len": 1.4644991185111282,
        "weighted_distance": 1.8470864015089241
    },
    "planner": "LBKPIECE",
    "start": {
        "state": {
            "elbow_joint": 2.0108683149792914,
            "shoulder_lift_joint": -1.1634956873317392,
            "shoulder_pan_joint": -2.4736205022346,
            "wrist_1_joint": -0.8367026793690192,
            "wrist_2_joint": 0.6746043897045053,
            "wrist_3_joint": 3.133522094754363
        }
    },
    "waypoints": [
        {
            "positions": [
                -2.4736205022346,
                -1.1634956873317392,
                2.0108683149792914,
                -0.8367026793690192,
                0.6746043897045053,
                3.133522094754363
            ]
        },
        {
            "positions": [
                -2.5563738066997606,
                -1.131961873635406,
                1.9680248669650486,
                -0.8234839129538762,
                0.8508819625579609,
                3.14435480066334
            ]
        },
        {
            "positions": [
                -2.639127111164921,
                -1.100428059939073,
                1.9251814189508059,
                -0.8102651465387332,
                1.0271595354114165,
                3.155187506572317
            ]
        },
        {
            "positions": [
                -2.721880415630081,
                -1.0688942462427398,
                1.882337970936563,
                -0.7970463801235902,
                1.203437108264872,
                3.1660202124812944
            ]
        },
        {
            "positions": [
                -2.8046337200952416,
                -1.0373604325464068,
                1.8394945229223203,
                -0.7838276137084472,
                1.3797146811183276,
                3.176852918390271
            ]
        },
        {
            "positions": [
                -2.887387024560402,
                -1.0058266188500735,
                1.7966510749080775,
                -0.7706088472933041,
                1.5559922539717832,
                3.187685624299248
            ]
        },
        {
            "positions": [
                -2.9701403290255626,
                -0.9742928051537404,
                1.7538076268938347,
                -0.7573900808781612,
                1.7322698268252388,
                3.198518330208225
            ]
        }
    ]
}