{
    "goal": {
        "global_pose": {
            "orientation": {
                "w": 0.7047431493862688,
                "x": -0.7094548369677653,
                "y": 0.0024358444001904,
                "z": -0.0022348060817251984
            },
            "position": {
                "x": -0.39052492380142206,
                "y": 0.3671506643295288,
                "z": 0.19426114857196808
            }
        },
        "name": "move_to_magneteinheit_D"
    },
    "id": "LBKPIECE_move_to_magneteinheit_D_40",
    "joint_names": [
        "shoulder_pan_joint",
        "shoulder_lift_joint",
        "elbow_joint",
        "wrist_1_joint",
        "wrist_2_joint",
        "wrist_3_joint"
    ],
    "metrics": {
        "cart_traj_len": 4.5702918966336625,
        "distance_elbow_joint": 3.4855345248457272,
        "distance_shoulder_lift_joint": 1.3304058648511532,
        "distance_shoulder_pan_joint": 3.354913404737564,
        "distance_wrist_1_joint": 2.5353180012371843,
        "distance_wrist_2_joint": 0.9092409524174931,
        "distance_wrist_3_joint": 1.0650620329135205,
        "smoothness": 0.7791215353158969,
        "time": 0.609622122,
        "traj_len": 3.5609654282234535,
        "weighted_distance": 4.272605504897961
    },
    "planner": "LBKPIECE",
    "start": {
        "state": {
            "elbow_joint": 0.7495348899011911,
            "shoulder_lift_joint": -0.6476975780737668,
            "shoulder_pan_joint": -2.711696901376276,
            "wrist_1_joint": -0.0750647808097303,
            "wrist_2_joint": 0.43296659715458535,
            "wrist_3_joint": 3.1361499051832418
        }
    },
    "waypoints": [
        {
            "positions": [
                -2.711696901376276,
                -0.6476975780737668,
                0.7495348899011911,
                -0.0750647808097303,
                0.43296659715458535,
                3.1361499051832418
            ]
        },
        {
            "positions": [
                -2.7191645275542906,
                -0.6910179181335774,
                0.7140075215611992,
                -0.05687625637150879,
                0.4422607154206101,
                3.085011919405802
            ]
        },
        {
            "positions": [
                -2.7303659668213123,
                -0.7559984282232931,
                0.6607164690512113,
                -0.02959346971417653,
                0.4562018928196471,
                3.008304940739642
            ]
        },
        {
            "positions": [
                -2.741567406088334,
                -0.8209789383130088,
                0.6074254165412235,
                -0.0023106830568442732,
                0.4701430702186842,
                2.9315979620734822
            ]
        },
        {
            "positions": [
                -2.6273562474212424,
                -0.8583197590007794,
                0.5023078535026767,
                -0.08804950096492754,
                0.4444240919377133,
                2.917095311095113
            ]
        },
        {
            "positions": [
                -2.513145088754151,
                -0.89566057968855,
                0.3971902904641299,
                -0.17378831887301083,
                0.4187051136567424,
                2.9025926601167433
            ]
        },
        {
            "positions": [
                -2.39893393008706,
                -0.9330014003763205,
                0.29207272742558305,
                -0.2595271367810941,
                0.39298613537577154,
                2.888090009138374
            ]
        },
        {
            "positions": [
                -2.2847227714199683,
                -0.9703422210640911,
                0.18695516438703624,
                -0.34526595468917737,
                0.3672671570948007,
                2.873587358160005
            ]
        },
        {
            "positions": [
                -2.1705116127528767,
                -1.0076830417518616,
                0.08183760134848939,
                -0.43100477259726067,
                0.3415481788138298,
                2.8590847071816357
            ]
        },
        {
            "positions": [
                -2.056300454085785,
                -1.0450238624396322,
                -0.023279961690057416,
                -0.5167435905053439,
                0.3158292005328589,
                2.844582056203266
            ]
        },
        {
            "positions": [
                -1.942089295418694,
                -1.0823646831274027,
                -0.12839752472860433,
                -0.6024824084134272,
                0.290110222251888,
                2.8300794052248968
            ]
        },
        {
            "positions": [
                -1.8278781367516026,
                -1.1197055038151733,
                -0.23351508776715102,
                -0.6882212263215104,
                0.2643912439709172,
                2.8155767542465275
            ]
        },
        {
            "positions": [
                -1.713666978084511,
                -1.1570463245029439,
                -0.33863265080569793,
                -0.7739600442295937,
                0.23867226568994626,
                2.8010741032681583
            ]
        },
        {
            "positions": [
                -1.5994558194174195,
                -1.1943871451907144,
                -0.44375021384424473,
                -0.859698862137677,
                0.2129532874089754,
                2.7865714522897886
            ]
        },
        {
            "positions": [
                -1.4852446607503282,
                -1.231727965878485,
                -0.5488677768827915,
                -0.9454376800457603,
                0.18723430912800448,
                2.7720688013114194
            ]
        },
        {
            "positions": [
                -1.3710335020832367,
                -1.2690687865662555,
                -0.6539853399213383,
                -1.0311764979538436,
                0.16151533084703368,
                2.75756615033305
            ]
        },
        {
            "positions": [
                -1.2568223434161454,
                -1.306409607254026,
                -0.7591029029598851,
                -1.1169153158619267,
                0.13579635256606282,
                2.743063499354681
            ]
        },
        {
            "positions": [
                -1.1426111847490539,
                -1.3437504279417967,
                -0.8642204659984322,
                -1.20265413377001,
                0.11007737428509184,
                2.7285608483763113
            ]
        },
        {
            "positions": [
                -1.0284000260819623,
                -1.3810912486295672,
                -0.9693380290369787,
                -1.2883929516780934,
                0.08435839600412098,
                2.714058197397942
            ]
        },
        {
            "positions": [
                -0.914188867414871,
                -1.4184320693173378,
                -1.0744555920755254,
                -1.3741317695861766,
                0.05863941772315012,
                2.699555546419573
            ]
        },
        {
            "positions": [
                -0.7999777087477797,
                -1.4557728900051083,
                -1.1795731551140722,
                -1.45987058749426,
                0.03292043944217926,
                2.6850528954412036
            ]
        },
        {
            "positions": [
                -0.6857665500806882,
                -1.493113710692879,
                -1.2846907181526195,
                -1.5456094054023433,
                0.0072014611612083446,
                2.670550244462834
            ]
        },
        {
            "positions": [
                -0.5715553914135967,
                -1.5304545313806495,
                -1.3898082811911663,
                -1.6313482233104264,
                -0.018517517119762517,
                2.6560475934844647
            ]
        },
        {
            "positions": [
                -0.45734423274650515,
                -1.56779535206842,
                -1.494925844229713,
                -1.7170870412185097,
                -0.04423649540073338,
                2.6415449425060955
            ]
        },
        {
            "positions": [
                -0.34313307407941407,
                -1.6051361727561906,
                -1.6000434072682599,
                -1.8028258591265929,
                -0.06995547368170418,
                2.627042291527726
            ]
        },
        {
            "positions": [
                -0.22892191541232254,
                -1.6424769934439611,
                -1.7051609703068067,
                -1.8885646770346765,
                -0.09567445196267521,
                2.6125396405493566
            ]
        },
        {
            "positions": [
                -0.11471075674523087,
                -1.6798178141317317,
                -1.8102785333453535,
                -1.9743034949427596,
                -0.12139343024364604,
                2.5980369895709874
            ]
        },
        {
            "positions": [
                -0.05193051270882114,
                -1.6563076535209635,
                -1.9582223535854413,
                -2.0419741066652564,
                -0.15416250464277015,
                2.6013437836213065
            ]
        },
        {
            "positions": [
                0.010849731327588596,
                -1.6327974929101954,
                -2.106166173825529,
                -2.109644718387753,
                -0.18693157904189425,
                2.604650577671625
            ]
        },
        {
            "positions": [
                0.07362997536399835,
                -1.6092873322994272,
                -2.2541099940656166,
                -2.17731533011025,
                -0.21970065344101836,
                2.607957371721944
            ]
        },
        {
            "positions": [
                0.13641021940040807,
                -1.585777171688659,
                -2.4020538143057046,
                -2.2449859418327467,
                -0.25246972784014243,
                2.611264165772263
            ]
        },
        {
            "positions": [
                0.1991904634368178,
                -1.562267011077891,
                -2.549997634545792,
                -2.3126565535552435,
                -0.28523880223926656,
                2.614570959822582
            ]
        },
        {
            "positions": [
                0.10311920581172916,
                -1.6074507175127277,
                -2.503497134446106,
                -2.274602045308769,
                -0.2560681505154057,
                2.742174746585
            ]
        },
        {
            "positions": [
                0.007047948186640535,
                -1.6526344239475645,
                -2.4569966343464205,
                -2.236547537062294,
                -0.22689749879154486,
                2.869778533347418
            ]
        },
        {
            "positions": [
                -0.0890233094384481,
                -1.6978181303824016,
                -2.410496134246735,
                -2.198493028815819,
                -0.19772684706768398,
                2.9973823201098355
            ]
        },
        {
            "positions": [
                -0.18509456706353672,
                -1.7430018368172384,
                -2.3639956341470487,
                -2.1604385205693446,
                -0.16855619534382313,
                3.1249861068722535
            ]
        }
    ]
}