{
    "goal": {
        "global_pose": {
            "orientation": {
                "w": 0.005598929693374612,
                "x": 0.007748599140229565,
                "y": 0.7110244013736278,
                "z": -0.7031023480610252
            },
            "position": {
                "x": -0.8858502320852131,
                "y": -0.7141253447532654,
                "z": 0.3711530566215515
            }
        },
        "name": "move_to_auspresseinheit_C"
    },
    "id": "LBKPIECE_move_to_auspresseinheit_C_50",
    "joint_names": [
        "shoulder_pan_joint",
        "shoulder_lift_joint",
        "elbow_joint",
        "wrist_1_joint",
        "wrist_2_joint",
        "wrist_3_joint"
    ],
    "metrics": {
        "cart_traj_len": 0.4929691730871504,
        "distance_elbow_joint": 0.996437024802878,
        "distance_shoulder_lift_joint": 0.32322386677058335,
        "distance_shoulder_pan_joint": 0.25561660680654885,
        "distance_wrist_1_joint": 0.662423848760864,
        "distance_wrist_2_joint": 1.3176236729849957,
        "distance_wrist_3_joint": 0.03941105587375837,
        "smoothness": 1.6148698667872622e-16,
        "time": 0.393322094,
        "traj_len": 1.8959789228785293,
        "weighted_distance": 2.3777312105225445
    },
    "planner": "LBKPIECE",
    "start": {
        "state": {
            "elbow_joint": 1.7527959577730765,
            "shoulder_lift_joint": -0.9740617694224828,
            "shoulder_pan_joint": -2.967991417825869,
            "wrist_1_joint": -0.7595177689779385,
            "wrist_2_joint": 1.7443932448376545,
            "wrist_3_joint": 3.1991315425061013
        }
    },
    "waypoints": [
        {
            "positions": [
                -2.967991417825869,
                -0.9740617694224828,
                1.7527959577730765,
                -0.7595177689779385,
                1.7443932448376545,
                3.1991315425061013
            ]
        },
        {
            "positions": [
                -2.9424297571452143,
                -0.9417393827454245,
                1.6531522552927886,
                -0.6932753841018522,
                1.612630877539155,
                3.1951904369187254
            ]
        },
        {
            "positions": [
                -2.9168680964645595,
                -0.9094169960683661,
                1.553508552812501,
                -0.6270329992257657,
                1.4808685102406554,
                3.1912493313313495
            ]
        },
        {
            "positions": [
                -2.8913064357839042,
                -0.8770946093913078,
                1.4538648503322131,
                -0.5607906143496794,
                1.3491061429421558,
                3.187308225743974
            ]
        },
        {
            "positions": [
                -2.8657447751032494,
                -0.8447722227142495,
                1.3542211478519253,
                -0.49454822947359295,
                1.217343775643656,
                3.183367120156598
            ]
        },
        {
            "positions": [
                -2.8401831144225946,
                -0.8124498360371911,
                1.2545774453716376,
                -0.42830584459750654,
                1.0855814083451567,
                3.179426014569222
            ]
        },
        {
            "positions": [
                -2.81462145374194,
                -0.7801274493601328,
                1.1549337428913498,
                -0.3620634597214201,
                0.953819041046657,
                3.175484908981846
            ]
        },
        {
            "positions": [
                -2.789059793061285,
                -0.7478050626830745,
                1.055290040411062,
                -0.29582107484533376,
                0.8220566737481575,
                3.1715438033944703
            ]
        },
        {
            "positions": [
                -2.76349813238063,
                -0.7154826760060161,
                0.955646337930774,
                -0.22957868996924735,
                0.6902943064496578,
                3.167602697807095
            ]
        },
        {
            "positions": [
                -2.737936471699975,
                -0.6831602893289578,
                0.8560026354504863,
                -0.16333630509316088,
                0.5585319391511583,
                3.163661592219719
            ]
        },
        {
            "positions": [
                -2.71237481101932,
                -0.6508379026518994,
                0.7563589329701985,
                -0.09709392021707451,
                0.42676957185265874,
                3.159720486632343
            ]
        }
    ]
}