{
    "goal": {
        "global_pose": {
            "orientation": {
                "w": 0.005598929693374612,
                "x": 0.007748599140229565,
                "y": 0.7110244013736278,
                "z": -0.7031023480610252
            },
            "position": {
                "x": 0.1141497679147869,
                "y": -0.7141253447532654,
                "z": 0.3711530566215515
            }
        },
        "name": "move_to_auspresseinheit_B"
    },
    "id": "LBKPIECE_move_to_auspresseinheit_B_18",
    "joint_names": [
        "shoulder_pan_joint",
        "shoulder_lift_joint",
        "elbow_joint",
        "wrist_1_joint",
        "wrist_2_joint",
        "wrist_3_joint"
    ],
    "metrics": {
        "cart_traj_len": 0.5641953556353823,
        "distance_elbow_joint": 0.06136683204780424,
        "distance_shoulder_lift_joint": 0.29527830262012333,
        "distance_shoulder_pan_joint": 0.5769683335526099,
        "distance_wrist_1_joint": 0.3232593977070599,
        "distance_wrist_2_joint": 0.9908966590420127,
        "distance_wrist_3_joint": 0.00856419886176596,
        "smoothness": 5.075305255429287e-16,
        "time": 0.354711954,
        "traj_len": 1.5021097575847697,
        "weighted_distance": 1.8941008891566418
    },
    "planner": "LBKPIECE",
    "start": {
        "state": {
            "elbow_joint": 2.0193061681459312,
            "shoulder_lift_joint": -1.1220205130644991,
            "shoulder_pan_joint": -1.0952072088045026,
            "wrist_1_joint": -0.8559671810662515,
            "wrist_2_joint": 0.4759638712940361,
            "wrist_3_joint": 3.159081874192446
        }
    },
    "waypoints": [
        {
            "positions": [
                -1.0952072088045026,
                -1.1220205130644991,
                2.0193061681459312,
                -0.8559671810662515,
                0.4759638712940361,
                3.159081874192446
            ]
        },
        {
            "positions": [
                -1.1913685977299375,
                -1.1712335635011863,
                2.0090783628046305,
                -0.8020906147817415,
                0.6411133144677049,
                3.157654507715485
            ]
        },
        {
            "positions": [
                -1.2875299866553727,
                -1.2204466139378736,
                1.9988505574633297,
                -0.7482140484972315,
                0.8062627576413737,
                3.156227141238524
            ]
        },
        {
            "positions": [
                -1.3836913755808076,
                -1.2696596643745608,
                1.988622752122029,
                -0.6943374822127215,
                0.9714122008150425,
                3.154799774761563
            ]
        },
        {
            "positions": [
                -1.4798527645062425,
                -1.318872714811248,
                1.9783949467807285,
                -0.6404609159282115,
                1.1365616439887112,
                3.153372408284602
            ]
        },
        {
            "positions": [
                -1.5760141534316776,
                -1.3680857652479352,
                1.9681671414394277,
                -0.5865843496437015,
                1.30171108716238,
                3.151945041807641
            ]
        },
        {
            "positions": [
                -1.6721755423571125,
                -1.4172988156846225,
                1.957939336098127,
                -0.5327077833591916,
                1.466860530336049,
                3.15051767533068
            ]
        }
    ]
}