{
    "goal": {
        "global_pose": {
            "orientation": {
                "w": 0.7047431493862688,
                "x": -0.7094548369677653,
                "y": 0.0024358444001904,
                "z": -0.0022348060817251984
            },
            "position": {
                "x": -0.39052492380142206,
                "y": 0.3671506643295288,
                "z": 0.19426114857196808
            }
        },
        "name": "move_to_magneteinheit_D"
    },
    "id": "LBKPIECE_move_to_magneteinheit_D_54",
    "joint_names": [
        "shoulder_pan_joint",
        "shoulder_lift_joint",
        "elbow_joint",
        "wrist_1_joint",
        "wrist_2_joint",
        "wrist_3_joint"
    ],
    "metrics": {
        "cart_traj_len": 4.030946193424021,
        "distance_elbow_joint": 3.2421055320179506,
        "distance_shoulder_lift_joint": 1.2790520540385883,
        "distance_shoulder_pan_joint": 2.9127070558322434,
        "distance_wrist_1_joint": 3.6756932726187337,
        "distance_wrist_2_joint": 1.4449085412584488,
        "distance_wrist_3_joint": 4.1863917096437415,
        "smoothness": 0.3774221128638577,
        "time": 0.5848739310000001,
        "traj_len": 4.091559380653018,
        "weighted_distance": 5.498567395110692
    },
    "planner": "LBKPIECE",
    "start": {
        "state": {
            "elbow_joint": 0.7495348899011911,
            "shoulder_lift_joint": -0.6476975780737668,
            "shoulder_pan_joint": -2.711696901376276,
            "wrist_1_joint": -0.0750647808097303,
            "wrist_2_joint": 0.43296659715458535,
            "wrist_3_joint": 3.1361499051832418
        }
    },
    "waypoints": [
        {
            "positions": [
                -2.711696901376276,
                -0.6476975780737668,
                0.7495348899011911,
                -0.0750647808097303,
                0.43296659715458535,
                3.1361499051832418
            ]
        },
        {
            "positions": [
                -2.7159490562472133,
                -0.6823220675686097,
                0.771702698774173,
                -0.016179103343690944,
                0.4750115623476306,
                3.0185108641538823
            ]
        },
        {
            "positions": [
                -2.720201211118151,
                -0.7169465570634526,
                0.7938705076471548,
                0.042706574122348406,
                0.5170565275406758,
                2.9008718231245223
            ]
        },
        {
            "positions": [
                -2.724453365989088,
                -0.7515710465582954,
                0.8160383165201367,
                0.10159225158838776,
                0.559101492733721,
                2.783232782095163
            ]
        },
        {
            "positions": [
                -2.712266356442842,
                -0.81981324330291,
                0.7894952655250723,
                0.16184193373621883,
                0.5886852111473827,
                2.609816606254146
            ]
        },
        {
            "positions": [
                -2.7000793468965965,
                -0.8880554400475247,
                0.7629522145300079,
                0.2220916158840499,
                0.6182689295610444,
                2.4364004304131295
            ]
        },
        {
            "positions": [
                -2.6878923373503505,
                -0.9562976367921394,
                0.7364091635349437,
                0.28234129803188096,
                0.647852647974706,
                2.262984254572113
            ]
        },
        {
            "positions": [
                -2.6757053278041045,
                -1.0245398335367542,
                0.7098661125398793,
                0.342590980179712,
                0.6774363663883677,
                2.089568078731096
            ]
        },
        {
            "positions": [
                -2.663518318257859,
                -1.0927820302813687,
                0.6833230615448149,
                0.40284066232754306,
                0.7070200848020294,
                1.9161519028900793
            ]
        },
        {
            "positions": [
                -2.651331308711613,
                -1.1610242270259832,
                0.6567800105497505,
                0.4630903444753741,
                0.7366038032156911,
                1.7427357270490629
            ]
        },
        {
            "positions": [
                -2.639144299165367,
                -1.229266423770598,
                0.6302369595546862,
                0.5233400266232052,
                0.7661875216293528,
                1.5693195512080462
            ]
        },
        {
            "positions": [
                -2.626957289619121,
                -1.2975086205152127,
                0.6036939085596218,
                0.5835897087710363,
                0.7957712400430144,
                1.3959033753670294
            ]
        },
        {
            "positions": [
                -2.6147702800728756,
                -1.3657508172598272,
                0.5771508575645575,
                0.6438393909188674,
                0.8253549584566762,
                1.2224871995260127
            ]
        },
        {
            "positions": [
                -2.6025832705266296,
                -1.433993014004442,
                0.5506078065694932,
                0.7040890730666984,
                0.8549386768703378,
                1.049071023684996
            ]
        },
        {
            "positions": [
                -2.491007029174562,
                -1.4299146533217282,
                0.4550161193750911,
                0.6023125122081525,
                0.8245961214189015,
                1.0946555879691497
            ]
        },
        {
            "positions": [
                -2.379430787822494,
                -1.4258362926390147,
                0.3594244321806891,
                0.5005359513496065,
                0.7942535659674653,
                1.1402401522533032
            ]
        },
        {
            "positions": [
                -2.2678545464704265,
                -1.421757931956301,
                0.2638327449862871,
                0.3987593904910606,
                0.763911010516029,
                1.1858247165374567
            ]
        },
        {
            "positions": [
                -2.156278305118359,
                -1.4176795712735875,
                0.16824105779188508,
                0.2969828296325146,
                0.7335684550645929,
                1.2314092808216104
            ]
        },
        {
            "positions": [
                -2.044702063766291,
                -1.4136012105908737,
                0.07264937059748311,
                0.19520626877396863,
                0.7032258996131566,
                1.276993845105764
            ]
        },
        {
            "positions": [
                -1.9331258224142234,
                -1.40952284990816,
                -0.02294231659691892,
                0.09342970791542271,
                0.6728833441617204,
                1.3225784093899176
            ]
        },
        {
            "positions": [
                -1.8215495810621558,
                -1.4054444892254465,
                -0.11853400379132095,
                -0.008346852943123206,
                0.6425407887102842,
                1.368162973674071
            ]
        },
        {
            "positions": [
                -1.709973339710088,
                -1.4013661285427328,
                -0.21412569098572298,
                -0.11012341380166923,
                0.6121982332588479,
                1.4137475379582247
            ]
        },
        {
            "positions": [
                -1.5983970983580202,
                -1.3972877678600193,
                -0.309717378180125,
                -0.21189997466021526,
                0.5818556778074118,
                1.4593321022423784
            ]
        },
        {
            "positions": [
                -1.4868208570059527,
                -1.3932094071773056,
                -0.40530906537452693,
                -0.3136765355187612,
                0.5515131223559755,
                1.5049166665265319
            ]
        },
        {
            "positions": [
                -1.375244615653885,
                -1.389131046494592,
                -0.500900752568929,
                -0.4154530963773071,
                0.5211705669045392,
                1.5505012308106854
            ]
        },
        {
            "positions": [
                -1.2636683743018173,
                -1.3850526858118783,
                -0.596492439763331,
                -0.517229657235853,
                0.49082801145310306,
                1.596085795094839
            ]
        },
        {
            "positions": [
                -1.1520921329497493,
                -1.3809743251291646,
                -0.692084126957733,
                -0.6190062180943992,
                0.4604854560016668,
                1.6416703593789927
            ]
        },
        {
            "positions": [
                -1.0405158915976818,
                -1.3768959644464511,
                -0.7876758141521351,
                -0.7207827789529448,
                0.43014290055023063,
                1.6872549236631462
            ]
        },
        {
            "positions": [
                -0.9289396502456142,
                -1.3728176037637374,
                -0.8832675013465369,
                -0.8225593398114908,
                0.3998003450987944,
                1.7328394879472997
            ]
        },
        {
            "positions": [
                -0.8173634088935464,
                -1.368739243081024,
                -0.9788591885409391,
                -0.9243359006700369,
                0.36945778964735815,
                1.7784240522314534
            ]
        },
        {
            "positions": [
                -0.7057871675414786,
                -1.3646608823983102,
                -1.0744508757353408,
                -1.0261124615285828,
                0.33911523419592193,
                1.824008616515607
            ]
        },
        {
            "positions": [
                -0.5942109261894108,
                -1.3605825217155965,
                -1.1700425629297433,
                -1.127889022387129,
                0.30877267874448566,
                1.8695931807997606
            ]
        },
        {
            "positions": [
                -0.4826346848373433,
                -1.356504161032883,
                -1.2656342501241449,
                -1.2296655832456749,
                0.2784301232930495,
                1.915177745083914
            ]
        },
        {
            "positions": [
                -0.3710584434852757,
                -1.3524258003501692,
                -1.361225937318547,
                -1.3314421441042208,
                0.24808756784161323,
                1.9607623093680677
            ]
        },
        {
            "positions": [
                -0.2594822021332077,
                -1.3483474396674557,
                -1.456817624512949,
                -1.4332187049627667,
                0.21774501239017696,
                2.0063468736522214
            ]
        },
        {
            "positions": [
                -0.14790596078114027,
                -1.344269078984742,
                -1.552409311707351,
                -1.5349952658213124,
                0.1874024569387408,
                2.051931437936375
            ]
        },
        {
            "positions": [
                -0.12991463229561984,
                -1.3743902600099809,
                -1.6464688428150696,
                -1.6135020169486285,
                0.14949374008897054,
                2.1559417204529874
            ]
        },
        {
            "positions": [
                -0.11192330381009938,
                -1.4045114410352197,
                -1.7405283739227881,
                -1.6920087680759446,
                0.11158502323920025,
                2.2599520029695994
            ]
        },
        {
            "positions": [
                -0.09393197532457893,
                -1.4346326220604584,
                -1.8345879050305065,
                -1.7705155192032607,
                0.07367630638942997,
                2.363962285486212
            ]
        },
        {
            "positions": [
                -0.07594064683905849,
                -1.4647538030856972,
                -1.928647436138225,
                -1.8490222703305768,
                0.035767589539659694,
                2.467972568002824
            ]
        },
        {
            "positions": [
                -0.057949318353538046,
                -1.4948749841109361,
                -2.0227069672459437,
                -1.9275290214578928,
                -0.0021411273101105688,
                2.5719828505194364
            ]
        },
        {
            "positions": [
                -0.0399579898680176,
                -1.5249961651361748,
                -2.116766498353662,
                -2.006035772585209,
                -0.04004984415988086,
                2.675993133036049
            ]
        },
        {
            "positions": [
                -0.021966661382497144,
                -1.5551173461614136,
                -2.210826029461381,
                -2.084542523712525,
                -0.07795856100965115,
                2.7800034155526614
            ]
        },
        {
            "positions": [
                -0.003975332896976713,
                -1.5852385271866525,
                -2.304885560569099,
                -2.163049274839841,
                -0.11586727785942139,
                2.8840136980692734
            ]
        },
        {
            "positions": [
                -0.06548762498033452,
                -1.6402751195467629,
                -2.3299119554710273,
                -2.176811979177325,
                -0.13684556078760735,
                2.982456834885906
            ]
        },
        {
            "positions": [
                -0.12699991706369232,
                -1.6953117119068732,
                -2.3549383503729553,
                -2.190574683514809,
                -0.1578238437157933,
                3.080899971702539
            ]
        },
        {
            "positions": [
                -0.1834478910242971,
                -1.7473017620729554,
                -2.3595637888788694,
                -2.18869902135401,
                -0.1679977846723587,
                3.148383851830495
            ]
        }
    ]
}