{
    "goal": {
        "global_pose": {
            "orientation": {
                "w": 0.5084816217422485,
                "x": -0.49083608388900757,
                "y": 0.5182115435600281,
                "z": -0.4816462993621826
            },
            "position": {
                "x": 0.5540239810943604,
                "y": 0.030875300988554955,
                "z": 0.16403168439865112
            }
        },
        "name": "move_to_storage_A"
    },
    "id": "LBKPIECE_move_to_storage_A_7",
    "joint_names": [
        "shoulder_pan_joint",
        "shoulder_lift_joint",
        "elbow_joint",
        "wrist_1_joint",
        "wrist_2_joint",
        "wrist_3_joint"
    ],
    "metrics": {
        "cart_traj_len": 0.3526503396726647,
        "distance_elbow_joint": 0.4477118452844573,
        "distance_shoulder_lift_joint": 0.2358688041263084,
        "distance_shoulder_pan_joint": 0.4601358185547947,
        "distance_wrist_1_joint": 0.23438712202722378,
        "distance_wrist_2_joint": 1.102524552934403,
        "distance_wrist_3_joint": 0.0875335870108307,
        "smoothness": 0.0,
        "time": 0.509632272,
        "traj_len": 1.6025485109468662,
        "weighted_distance": 2.0199357858410516
    },
    "planner": "LBKPIECE",
    "start": {
        "state": {
            "elbow_joint": 1.971548880431181,
            "shoulder_lift_joint": -1.1394869514688781,
            "shoulder_pan_joint": 0.12281150262730567,
            "wrist_1_joint": -0.7804693444481463,
            "wrist_2_joint": 0.12958644648617612,
            "wrist_3_joint": 3.0906942077768043
        }
    },
    "waypoints": [
        {
            "positions": [
                0.12281150262730567,
                -1.1394869514688781,
                1.971548880431181,
                -0.7804693444481463,
                0.12958644648617612,
                3.0906942077768043
            ]
        },
        {
            "positions": [
                0.057077814262335005,
                -1.1731824949154936,
                2.0355077154718177,
                -0.813953219023464,
                0.2870899540482337,
                3.1031990059212085
            ]
        },
        {
            "positions": [
                -0.008655874102635658,
                -1.2068780383621092,
                2.0994665505124543,
                -0.8474370935987816,
                0.44459346161029123,
                3.115703804065613
            ]
        },
        {
            "positions": [
                -0.07438956246760633,
                -1.2405735818087247,
                2.1634253855530914,
                -0.8809209681740994,
                0.6020969691723488,
                3.1282086022100173
            ]
        },
        {
            "positions": [
                -0.14012325083257698,
                -1.27426912525534,
                2.227384220593728,
                -0.914404842749417,
                0.7596004767344063,
                3.140713400354422
            ]
        },
        {
            "positions": [
                -0.20585693919754766,
                -1.3079646687019555,
                2.2913430556343646,
                -0.9478887173247348,
                0.917103984296464,
                3.153218198498826
            ]
        },
        {
            "positions": [
                -0.27159062756251834,
                -1.341660212148571,
                2.3553018906750016,
                -0.9813725919000524,
                1.0746074918585213,
                3.1657229966432308
            ]
        },
        {
            "positions": [
                -0.337324315927489,
                -1.3753557555951865,
                2.419260725715638,
                -1.01485646647537,
                1.2321109994205792,
                3.178227794787635
            ]
        }
    ]
}