{
    "goal": {
        "global_pose": {
            "orientation": {
                "w": 0.7047431493862688,
                "x": -0.7094548369677653,
                "y": 0.0024358444001904,
                "z": -0.0022348060817251984
            },
            "position": {
                "x": -0.39052492380142206,
                "y": 0.3671506643295288,
                "z": 0.19426114857196808
            }
        },
        "name": "move_to_magneteinheit_D"
    },
    "id": "LBKPIECE_move_to_magneteinheit_D_24",
    "joint_names": [
        "shoulder_pan_joint",
        "shoulder_lift_joint",
        "elbow_joint",
        "wrist_1_joint",
        "wrist_2_joint",
        "wrist_3_joint"
    ],
    "metrics": {
        "cart_traj_len": 4.048270855106222,
        "distance_elbow_joint": 3.0954911745638616,
        "distance_shoulder_lift_joint": 1.339224481171056,
        "distance_shoulder_pan_joint": 3.102961768785527,
        "distance_wrist_1_joint": 3.4574419861592585,
        "distance_wrist_2_joint": 0.6041051620944611,
        "distance_wrist_3_joint": 6.206702241584849,
        "smoothness": 0.21904913961945277,
        "time": 0.550063245,
        "traj_len": 4.2197069583513755,
        "weighted_distance": 5.854987484681965
    },
    "planner": "LBKPIECE",
    "start": {
        "state": {
            "elbow_joint": 0.7495348899011911,
            "shoulder_lift_joint": -0.6476975780737668,
            "shoulder_pan_joint": -2.711696901376276,
            "wrist_1_joint": -0.0750647808097303,
            "wrist_2_joint": 0.43296659715458535,
            "wrist_3_joint": 3.1361499051832418
        }
    },
    "waypoints": [
        {
            "positions": [
                -2.711696901376276,
                -0.6476975780737668,
                0.7495348899011911,
                -0.0750647808097303,
                0.43296659715458535,
                3.1361499051832418
            ]
        },
        {
            "positions": [
                -2.7235048221808356,
                -0.6310053391207271,
                0.6524336242249219,
                0.016411771167073985,
                0.4020491302446508,
                3.040886476022661
            ]
        },
        {
            "positions": [
                -2.7353127429853945,
                -0.6143131001676873,
                0.5553323585486527,
                0.10788832314387826,
                0.37113166333471626,
                2.94562304686208
            ]
        },
        {
            "positions": [
                -2.747120663789954,
                -0.5976208612146475,
                0.45823109287238345,
                0.19936487512068257,
                0.3402141964247817,
                2.850359617701499
            ]
        },
        {
            "positions": [
                -2.7589285845945133,
                -0.5809286222616078,
                0.36112982719611425,
                0.29084142709748684,
                0.30929672951484716,
                2.755096188540918
            ]
        },
        {
            "positions": [
                -2.7707365053990727,
                -0.564236383308568,
                0.264028561519845,
                0.38231797907429116,
                0.2783792626049126,
                2.659832759380337
            ]
        },
        {
            "positions": [
                -2.7825444262036316,
                -0.5475441443555282,
                0.1669272958435758,
                0.4737945310510954,
                0.24746179569497806,
                2.564569330219756
            ]
        },
        {
            "positions": [
                -2.794352347008191,
                -0.5308519054024885,
                0.0698260301673066,
                0.5652710830278996,
                0.21654432878504348,
                2.469305901059175
            ]
        },
        {
            "positions": [
                -2.706174511095775,
                -0.5536926433619362,
                0.003023747411541128,
                0.49118250212668346,
                0.2118874662917568,
                2.338685299674737
            ]
        },
        {
            "positions": [
                -2.6179966751833583,
                -0.5765333813213841,
                -0.06377853534422434,
                0.4170939212254673,
                0.20723060379847014,
                2.2080646982902987
            ]
        },
        {
            "positions": [
                -2.529818839270942,
                -0.5993741192808318,
                -0.1305808180999898,
                0.3430053403242511,
                0.20257374130518346,
                2.0774440969058605
            ]
        },
        {
            "positions": [
                -2.4416410033585256,
                -0.6222148572402797,
                -0.19738310085575528,
                0.2689167594230349,
                0.19791687881189682,
                1.9468234955214225
            ]
        },
        {
            "positions": [
                -2.3534631674461095,
                -0.6450555951997274,
                -0.2641853836115207,
                0.19482817852181872,
                0.19326001631861014,
                1.8162028941369843
            ]
        },
        {
            "positions": [
                -2.265285331533693,
                -0.6678963331591753,
                -0.3309876663672862,
                0.12073959762060255,
                0.18860315382532347,
                1.6855822927525463
            ]
        },
        {
            "positions": [
                -2.177107495621277,
                -0.690737071118623,
                -0.39778994912305166,
                0.04665101671938632,
                0.1839462913320368,
                1.5549616913681081
            ]
        },
        {
            "positions": [
                -2.0889296597088602,
                -0.7135778090780709,
                -0.46459223187881715,
                -0.027437564181829854,
                0.17928942883875013,
                1.42434108998367
            ]
        },
        {
            "positions": [
                -2.0007518237964437,
                -0.7364185470375186,
                -0.5313945146345826,
                -0.10152614508304614,
                0.17463256634546345,
                1.2937204885992315
            ]
        },
        {
            "positions": [
                -1.9125739878840275,
                -0.7592592849969664,
                -0.598196797390348,
                -0.1756147259842622,
                0.1699757038521768,
                1.1630998872147935
            ]
        },
        {
            "positions": [
                -1.8243961519716112,
                -0.7821000229564142,
                -0.6649990801461135,
                -0.24970330688547848,
                0.16531884135889013,
                1.0324792858303553
            ]
        },
        {
            "positions": [
                -1.736218316059195,
                -0.8049407609158621,
                -0.731801362901879,
                -0.32379188778669454,
                0.16066197886560346,
                0.9018586844459173
            ]
        },
        {
            "positions": [
                -1.6480404801467785,
                -0.8277814988753098,
                -0.7986036456576445,
                -0.3978804686879108,
                0.1560051163723168,
                0.7712380830614789
            ]
        },
        {
            "positions": [
                -1.5598626442343624,
                -0.8506222368347576,
                -0.8654059284134099,
                -0.471969049589127,
                0.15134825387903011,
                0.6406174816770409
            ]
        },
        {
            "positions": [
                -1.4716848083219458,
                -0.8734629747942054,
                -0.9322082111691754,
                -0.5460576304903432,
                0.14669139138574344,
                0.5099968802926027
            ]
        },
        {
            "positions": [
                -1.3835069724095297,
                -0.8963037127536532,
                -0.9990104939249409,
                -0.6201462113915593,
                0.14203452889245677,
                0.3793762789081647
            ]
        },
        {
            "positions": [
                -1.2953291364971133,
                -0.919144450713101,
                -1.0658127766807062,
                -0.6942347922927755,
                0.13737766639917012,
                0.24875567752372651
            ]
        },
        {
            "positions": [
                -1.2071513005846968,
                -0.9419851886725488,
                -1.132615059436472,
                -0.7683233731939919,
                0.13272080390588342,
                0.11813507613928786
            ]
        },
        {
            "positions": [
                -1.1189734646722804,
                -0.9648259266319965,
                -1.1994173421922374,
                -0.8424119540952079,
                0.12806394141259678,
                -0.012485525245149898
            ]
        },
        {
            "positions": [
                -1.0307956287598643,
                -0.9876666645914444,
                -1.2662196249480027,
                -0.916500534996424,
                0.12340707891931012,
                -0.1431061266295881
            ]
        },
        {
            "positions": [
                -0.942617792847448,
                -1.0105074025508922,
                -1.3330219077037682,
                -0.9905891158976402,
                0.11875021642602344,
                -0.2737267280140263
            ]
        },
        {
            "positions": [
                -0.8544399569350314,
                -1.03334814051034,
                -1.3998241904595337,
                -1.0646776967988565,
                0.11409335393273677,
                -0.4043473293984645
            ]
        },
        {
            "positions": [
                -0.7662621210226153,
                -1.0561888784697877,
                -1.4666264732152992,
                -1.1387662777000727,
                0.1094364914394501,
                -0.5349679307829027
            ]
        },
        {
            "positions": [
                -0.6780842851101991,
                -1.0790296164292354,
                -1.5334287559710646,
                -1.2128548586012888,
                0.10477962894616344,
                -0.6655885321673405
            ]
        },
        {
            "positions": [
                -0.5899064491977826,
                -1.1018703543886832,
                -1.60023103872683,
                -1.286943439502505,
                0.10012276645287678,
                -0.7962091335517787
            ]
        },
        {
            "positions": [
                -0.501728613285366,
                -1.1247110923481312,
                -1.6670333214825956,
                -1.3610320204037212,
                0.09546590395959009,
                -0.9268297349362173
            ]
        },
        {
            "positions": [
                -0.4135507773729499,
                -1.147551830307579,
                -1.7338356042383611,
                -1.4351206013049373,
                0.09080904146630342,
                -1.057450336320655
            ]
        },
        {
            "positions": [
                -0.32537294146053375,
                -1.1703925682670266,
                -1.8006378869941264,
                -1.5092091822061535,
                0.08615217897301677,
                -1.1880709377050933
            ]
        },
        {
            "positions": [
                -0.23719510554811718,
                -1.1932333062264746,
                -1.867440169749892,
                -1.5832977631073697,
                0.0814953164797301,
                -1.3186915390895315
            ]
        },
        {
            "positions": [
                -0.1490172696357006,
                -1.2160740441859224,
                -1.9342424525056574,
                -1.6573863440085859,
                0.07683845398644343,
                -1.4493121404739697
            ]
        },
        {
            "positions": [
                -0.06083943372328457,
                -1.23891478214537,
                -2.0010447352614227,
                -1.731474924909802,
                0.07218159149315675,
                -1.5799327418584084
            ]
        },
        {
            "positions": [
                -0.04737807068155049,
                -1.278330312793502,
                -2.0448761343947517,
                -1.7850058716790433,
                0.06677936916005829,
                -1.7550323707347038
            ]
        },
        {
            "positions": [
                -0.03391670763981641,
                -1.3177458434416336,
                -2.0887075335280807,
                -1.8385368184482846,
                0.06137714682695982,
                -1.930131999610999
            ]
        },
        {
            "positions": [
                -0.020455344598082327,
                -1.3571613740897654,
                -2.1325389326614097,
                -1.892067765217526,
                0.05597492449386135,
                -2.105231628487294
            ]
        },
        {
            "positions": [
                -0.0069939815563482485,
                -1.3965769047378973,
                -2.176370331794739,
                -1.9455987119867673,
                0.050572702160762886,
                -2.2803312573635894
            ]
        },
        {
            "positions": [
                0.006467381485385837,
                -1.435992435386029,
                -2.220201730928068,
                -1.9991296587560086,
                0.04517047982766441,
                -2.455430886239885
            ]
        },
        {
            "positions": [
                0.019928744527119912,
                -1.4754079660341608,
                -2.264033130061397,
                -2.05266060552525,
                0.039768257494565945,
                -2.63053051511618
            ]
        },
        {
            "positions": [
                -0.03324707659590159,
                -1.546398117286046,
                -2.286209039184467,
                -2.1031537137828886,
                -0.014201218669712391,
                -2.746760440509259
            ]
        },
        {
            "positions": [
                -0.0864228977189231,
                -1.6173882685379313,
                -2.3083849483075367,
                -2.153646822040528,
                -0.06817069483399073,
                -2.862990365902338
            ]
        },
        {
            "positions": [
                -0.13959871884194464,
                -1.6883784197898164,
                -2.3305608574306067,
                -2.2041399302981666,
                -0.12214017099826907,
                -2.979220291295417
            ]
        },
        {
            "positions": [
                -0.1860964870911817,
                -1.7532307139022663,
                -2.34595628466267,
                -2.25183503929373,
                -0.17113856493987561,
                -3.0705523364016063
            ]
        }
    ]
}