{
    "goal": {
        "global_pose": {
            "orientation": {
                "w": -0.00223480608172531,
                "x": 0.0024358444001904467,
                "y": 0.7094548369677653,
                "z": -0.704743149386269
            },
            "position": {
                "x": 0.6205249238014221,
                "y": -0.6371506643295288,
                "z": 0.19426114857196808
            }
        },
        "name": "move_to_magneteinheit_B"
    },
    "id": "LBKPIECE_move_to_magneteinheit_B_17",
    "joint_names": [
        "shoulder_pan_joint",
        "shoulder_lift_joint",
        "elbow_joint",
        "wrist_1_joint",
        "wrist_2_joint",
        "wrist_3_joint"
    ],
    "metrics": {
        "cart_traj_len": 4.246594017363732,
        "distance_elbow_joint": 5.4828260127843595,
        "distance_shoulder_lift_joint": 1.0815452862349841,
        "distance_shoulder_pan_joint": 3.611287168747578,
        "distance_wrist_1_joint": 2.7380125815212564,
        "distance_wrist_2_joint": 1.5532256563843398,
        "distance_wrist_3_joint": 5.938472324045643,
        "smoothness": 0.2666642998149434,
        "time": 0.163853014,
        "traj_len": 4.517230238732375,
        "weighted_distance": 6.047607123128539
    },
    "planner": "LBKPIECE",
    "start": {
        "state": {
            "elbow_joint": 2.393587130804639,
            "shoulder_lift_joint": -1.9085141043513325,
            "shoulder_pan_joint": 0.7066247066698809,
            "wrist_1_joint": -0.4678290934590222,
            "wrist_2_joint": 0.7096259084215963,
            "wrist_3_joint": 3.147370379541726
        }
    },
    "waypoints": [
        {
            "positions": [
                0.7066247066698809,
                -1.9085141043513325,
                2.393587130804639,
                -0.4678290934590222,
                0.7096259084215963,
                3.147370379541726
            ]
        },
        {
            "positions": [
                0.663004483202337,
                -1.9147987797290664,
                2.381244965035502,
                -0.4574502225976028,
                0.7246559011537566,
                3.1150259320996447
            ]
        },
        {
            "positions": [
                0.5508597806574905,
                -1.9278335125533432,
                2.3063795960237123,
                -0.4417462854525472,
                0.7486746661211134,
                2.964876771334879
            ]
        },
        {
            "positions": [
                0.4387150781126442,
                -1.94086824537762,
                2.2315142270119224,
                -0.4260423483074916,
                0.7726934310884703,
                2.8147276105701127
            ]
        },
        {
            "positions": [
                0.3265703755677978,
                -1.9539029782018968,
                2.156648858000133,
                -0.41033841116243597,
                0.7967121960558272,
                2.664578449805347
            ]
        },
        {
            "positions": [
                0.2144256730229514,
                -1.9669377110261734,
                2.0817834889883433,
                -0.3946344740173804,
                0.8207309610231841,
                2.5144292890405806
            ]
        },
        {
            "positions": [
                0.10228097047810492,
                -1.9799724438504502,
                2.006918119976554,
                -0.37893053687232475,
                0.844749725990541,
                2.364280128275815
            ]
        },
        {
            "positions": [
                -0.009863732066741404,
                -1.993007176674727,
                1.932052750964764,
                -0.3632265997272692,
                0.8687684909578979,
                2.214130967511049
            ]
        },
        {
            "positions": [
                -0.12200843461158783,
                -2.006041909499004,
                1.8571873819529743,
                -0.34752266258221354,
                0.8927872559252548,
                2.0639818067462827
            ]
        },
        {
            "positions": [
                -0.04846028102613659,
                -1.9869011004800214,
                1.6827167130525311,
                -0.335187413090039,
                0.8663852127015761,
                1.9767279033973744
            ]
        },
        {
            "positions": [
                0.02508787255931466,
                -1.967760291461039,
                1.508246044152088,
                -0.32285216359786445,
                0.8399831694778975,
                1.8894740000484662
            ]
        },
        {
            "positions": [
                0.09863602614476591,
                -1.9486194824420566,
                1.3337753752516446,
                -0.31051691410568993,
                0.8135811262542189,
                1.8022200966995578
            ]
        },
        {
            "positions": [
                0.17218417973021716,
                -1.9294786734230744,
                1.1593047063512016,
                -0.2981816646135154,
                0.7871790830305402,
                1.7149661933506497
            ]
        },
        {
            "positions": [
                0.2457323333156684,
                -1.910337864404092,
                0.9848340374507584,
                -0.2858464151213409,
                0.7607770398068616,
                1.6277122900017413
            ]
        },
        {
            "positions": [
                0.31928048690111965,
                -1.8911970553851096,
                0.8103633685503151,
                -0.27351116562916633,
                0.734374996583183,
                1.540458386652833
            ]
        },
        {
            "positions": [
                0.39282864048657096,
                -1.8720562463661272,
                0.6358926996498719,
                -0.2611759161369918,
                0.7079729533595043,
                1.4532044833039248
            ]
        },
        {
            "positions": [
                0.46637679407202215,
                -1.8529154373471448,
                0.4614220307494288,
                -0.2488406666448173,
                0.6815709101358257,
                1.3659505799550165
            ]
        },
        {
            "positions": [
                0.5399249476574735,
                -1.8337746283281624,
                0.2869513618489856,
                -0.23650541715264276,
                0.655168866912147,
                1.278696676606108
            ]
        },
        {
            "positions": [
                0.6134731012429246,
                -1.8146338193091802,
                0.11248069294854246,
                -0.2241701676604682,
                0.6287668236884685,
                1.1914427732572
            ]
        },
        {
            "positions": [
                0.6870212548283761,
                -1.7954930102901976,
                -0.06198997595190092,
                -0.21183491816829367,
                0.6023647804647898,
                1.1041888699082916
            ]
        },
        {
            "positions": [
                0.7605694084138271,
                -1.7763522012712154,
                -0.23646064485234408,
                -0.19949966867611915,
                0.5759627372411111,
                1.0169349665593834
            ]
        },
        {
            "positions": [
                0.8341175619992786,
                -1.757211392252233,
                -0.41093131375278746,
                -0.1871644191839446,
                0.5495606940174325,
                0.9296810632104751
            ]
        },
        {
            "positions": [
                0.9076657155847297,
                -1.7380705832332506,
                -0.5854019826532304,
                -0.1748291696917701,
                0.5231586507937539,
                0.8424271598615669
            ]
        },
        {
            "positions": [
                0.9812138691701809,
                -1.7189297742142682,
                -0.7598726515536738,
                -0.16249392019959555,
                0.4967566075700752,
                0.7551732565126585
            ]
        },
        {
            "positions": [
                1.0547620227556322,
                -1.6997889651952858,
                -0.9343433204541167,
                -0.15015867070742103,
                0.4703545643463966,
                0.6679193531637502
            ]
        },
        {
            "positions": [
                1.1283101763410834,
                -1.6806481561763036,
                -1.10881398935456,
                -0.1378234212152465,
                0.44395252112271794,
                0.5806654498148418
            ]
        },
        {
            "positions": [
                1.2018583299265346,
                -1.6615073471573212,
                -1.283284658255003,
                -0.12548817172307197,
                0.4175504778990393,
                0.49341154646593366
            ]
        },
        {
            "positions": [
                1.2754064835119858,
                -1.6423665381383388,
                -1.4577553271554464,
                -0.11315292223089743,
                0.39114843467536065,
                0.4061576431170253
            ]
        },
        {
            "positions": [
                1.348954637097437,
                -1.6232257291193564,
                -1.6322259960558894,
                -0.10081767273872291,
                0.3647463914516821,
                0.31890373976811714
            ]
        },
        {
            "positions": [
                1.4225027906828887,
                -1.604084920100374,
                -1.8066966649563327,
                -0.08848242324654837,
                0.3383443482280034,
                0.23164983641920872
            ]
        },
        {
            "positions": [
                1.5344494513209546,
                -1.6204087177655966,
                -1.928420179573076,
                -0.16786887576418352,
                0.3348277346970918,
                0.2173762244598068
            ]
        },
        {
            "positions": [
                1.6463961119590205,
                -1.636732515430819,
                -2.050143694189819,
                -0.24725532828181868,
                0.3313111211661803,
                0.20310261250040493
            ]
        },
        {
            "positions": [
                1.7583427725970866,
                -1.6530563130960414,
                -2.171867208806562,
                -0.32664178079945383,
                0.32779450763526874,
                0.18882900054100304
            ]
        },
        {
            "positions": [
                1.8702894332351525,
                -1.669380110761264,
                -2.2935907234233053,
                -0.406028233317089,
                0.32427789410435715,
                0.17455538858160113
            ]
        },
        {
            "positions": [
                1.9712676538461655,
                -1.7000801315705616,
                -2.3091822246086853,
                -0.5526106342532895,
                0.2986359442913317,
                0.21858657397337808
            ]
        },
        {
            "positions": [
                2.072245874457179,
                -1.7307801523798592,
                -2.324773725794065,
                -0.6991930351894899,
                0.27299399447830625,
                0.262617759365155
            ]
        },
        {
            "positions": [
                2.173224095068192,
                -1.7614801731891567,
                -2.340365226979445,
                -0.8457754361256904,
                0.24735204466528082,
                0.30664894475693194
            ]
        },
        {
            "positions": [
                2.274202315679205,
                -1.7921801939984543,
                -2.3559567281648244,
                -0.9923578370618911,
                0.22171009485225535,
                0.3506801301487089
            ]
        },
        {
            "positions": [
                2.375180536290218,
                -1.8228802148077519,
                -2.3715482293502044,
                -1.1389402379980915,
                0.19606814503922992,
                0.3947113155404859
            ]
        },
        {
            "positions": [
                2.393022102325487,
                -1.8455842896190835,
                -2.3266925635608597,
                -1.220703244032919,
                0.1539840701645639,
                0.5663051534234004
            ]
        },
        {
            "positions": [
                2.410863668360756,
                -1.868288364430415,
                -2.2818368977715147,
                -1.3024662500677464,
                0.11189999528989783,
                0.7378989913063148
            ]
        },
        {
            "positions": [
                2.428705234396025,
                -1.8909924392417465,
                -2.23698123198217,
                -1.384229256102574,
                0.06981592041523177,
                0.9094928291892292
            ]
        },
        {
            "positions": [
                2.4465468004312942,
                -1.9136965140530782,
                -2.1921255661928254,
                -1.4659922621374013,
                0.027731845540565736,
                1.0810866670721437
            ]
        },
        {
            "positions": [
                2.464388366466563,
                -1.9364005888644096,
                -2.1472699004034808,
                -1.5477552681722289,
                -0.014352229334100297,
                1.2526805049550582
            ]
        },
        {
            "positions": [
                2.482229932501832,
                -1.9591046636757412,
                -2.1024142346141357,
                -1.6295182742070562,
                -0.056436304208766386,
                1.4242743428379727
            ]
        },
        {
            "positions": [
                2.500071498537101,
                -1.9818087384870728,
                -2.057558568824791,
                -1.7112812802418838,
                -0.09852037908343242,
                1.595868180720887
            ]
        },
        {
            "positions": [
                2.51791306457237,
                -2.0045128132984043,
                -2.0127029030354464,
                -1.7930442862767113,
                -0.14060445395809845,
                1.7674620186038017
            ]
        },
        {
            "positions": [
                2.5357546306076393,
                -2.027216888109736,
                -1.9678472372461016,
                -1.8748072923115386,
                -0.18268852883276449,
                1.939055856486716
            ]
        },
        {
            "positions": [
                2.5535961966429084,
                -2.0499209629210675,
                -1.9229915714567567,
                -1.956570298346366,
                -0.22477260370743052,
                2.1106496943696307
            ]
        },
        {
            "positions": [
                2.5714377626781775,
                -2.072625037732399,
                -1.878135905667412,
                -2.0383333043811938,
                -0.2668566785820966,
                2.282243532252545
            ]
        },
        {
            "positions": [
                2.589279328713446,
                -2.0953291125437308,
                -1.8332802398780672,
                -2.120096310416021,
                -0.3089407534567627,
                2.453837370135459
            ]
        },
        {
            "positions": [
                2.6071208947487152,
                -2.118033187355062,
                -1.7884245740887224,
                -2.2018593164508484,
                -0.35102482833142873,
                2.625431208018374
            ]
        },
        {
            "positions": [
                2.6249624607839843,
                -2.1407372621663936,
                -1.7435689082993777,
                -2.2836223224856758,
                -0.39310890320609476,
                2.797025045901288
            ]
        },
        {
            "positions": [
                2.6428040268192534,
                -2.1634413369777254,
                -1.698713242510033,
                -2.365385328520503,
                -0.4351929780807608,
                2.968618883784203
            ]
        },
        {
            "positions": [
                2.6606455928545225,
                -2.186145411789057,
                -1.6538575767206882,
                -2.447148334555331,
                -0.4772770529554269,
                3.140212721667117
            ]
        }
    ]
}