{
    "goal": {
        "global_pose": {
            "orientation": {
                "w": -0.4816463035849501,
                "x": 0.5182115481033762,
                "y": 0.4908360881923453,
                "z": -0.5084816262002911
            },
            "position": {
                "x": -0.8240239810943604,
                "y": -0.300875300988555,
                "z": 0.16403168439865112
            }
        },
        "name": "move_to_storage_C"
    },
    "id": "LBKPIECE_move_to_storage_C_51",
    "joint_names": [
        "shoulder_pan_joint",
        "shoulder_lift_joint",
        "elbow_joint",
        "wrist_1_joint",
        "wrist_2_joint",
        "wrist_3_joint"
    ],
    "metrics": {
        "cart_traj_len": 0.5763584656821211,
        "distance_elbow_joint": 0.25789685714319077,
        "distance_shoulder_lift_joint": 0.19006203652073006,
        "distance_shoulder_pan_joint": 0.49374786760501177,
        "distance_wrist_1_joint": 0.07547912265510737,
        "distance_wrist_2_joint": 1.0707392423603985,
        "distance_wrist_3_joint": 0.060443848727707916,
        "smoothness": 0.0,
        "time": 0.246136225,
        "traj_len": 1.4657315494360303,
        "weighted_distance": 1.8481003862028351
    },
    "planner": "LBKPIECE",
    "start": {
        "state": {
            "elbow_joint": 2.0108683149792914,
            "shoulder_lift_joint": -1.1634956873317392,
            "shoulder_pan_joint": -2.4736205022346,
            "wrist_1_joint": -0.8367026793690192,
            "wrist_2_joint": 0.6746043897045053,
            "wrist_3_joint": 3.133522094754363
        }
    },
    "waypoints": [
        {
            "positions": [
                -2.4736205022346,
                -1.1634956873317392,
                2.0108683149792914,
                -0.8367026793690192,
                0.6746043897045053,
                3.133522094754363
            ]
        },
        {
            "positions": [
                -2.555911813502102,
                -1.1318186812449509,
                1.9678855054554263,
                -0.824122825593168,
                0.8530609300979051,
                3.1435960695423146
            ]
        },
        {
            "positions": [
                -2.638203124769604,
                -1.1001416751581625,
                1.9249026959315612,
                -0.8115429718173167,
                1.0315174704913048,
                3.1536700443302657
            ]
        },
        {
            "positions": [
                -2.720494436037106,
                -1.0684646690713742,
                1.881919886407696,
                -0.7989631180414656,
                1.2099740108847046,
                3.163744019118217
            ]
        },
        {
            "positions": [
                -2.802785747304608,
                -1.0367876629845858,
                1.838937076883831,
                -0.7863832642656143,
                1.3884305512781043,
                3.1738179939061686
            ]
        },
        {
            "positions": [
                -2.8850770585721097,
                -1.0051106568977974,
                1.7959542673599658,
                -0.7738034104897631,
                1.566887091671504,
                3.1838919686941196
            ]
        },
        {
            "positions": [
                -2.967368369839612,
                -0.9734336508110092,
                1.7529714578361006,
                -0.7612235567139118,
                1.7453436320649038,
                3.193965943482071
            ]
        }
    ]
}