{
    "goal": {
        "global_pose": {
            "orientation": {
                "w": -0.4816463035849501,
                "x": 0.5182115481033762,
                "y": 0.4908360881923453,
                "z": -0.5084816262002911
            },
            "position": {
                "x": -0.8240239810943604,
                "y": -0.300875300988555,
                "z": 0.16403168439865112
            }
        },
        "name": "move_to_storage_C"
    },
    "id": "LBKPIECE_move_to_storage_C_58",
    "joint_names": [
        "shoulder_pan_joint",
        "shoulder_lift_joint",
        "elbow_joint",
        "wrist_1_joint",
        "wrist_2_joint",
        "wrist_3_joint"
    ],
    "metrics": {
        "cart_traj_len": 0.5762225227335237,
        "distance_elbow_joint": 0.2555856960250038,
        "distance_shoulder_lift_joint": 0.1886011045204391,
        "distance_shoulder_pan_joint": 0.49528422107184467,
        "distance_wrist_1_joint": 0.07136417468425571,
        "distance_wrist_2_joint": 1.0615292321861434,
        "distance_wrist_3_joint": 0.05886409327981745,
        "smoothness": 0.0,
        "time": 0.40153230799999995,
        "traj_len": 1.459872775884085,
        "weighted_distance": 1.8389807272501628
    },
    "planner": "LBKPIECE",
    "start": {
        "state": {
            "elbow_joint": 2.0108683149792914,
            "shoulder_lift_joint": -1.1634956873317392,
            "shoulder_pan_joint": -2.4736205022346,
            "wrist_1_joint": -0.8367026793690192,
            "wrist_2_joint": 0.6746043897045053,
            "wrist_3_joint": 3.133522094754363
        }
    },
    "waypoints": [
        {
            "positions": [
                -2.4736205022346,
                -1.1634956873317392,
                2.0108683149792914,
                -0.8367026793690192,
                0.6746043897045053,
                3.133522094754363
            ]
        },
        {
            "positions": [
                -2.5561678724132406,
                -1.132062169911666,
                1.9682706989751242,
                -0.8248086502549766,
                0.8515259284021959,
                3.143332776967666
            ]
        },
        {
            "positions": [
                -2.6387152425918816,
                -1.100628652491593,
                1.9256730829709567,
                -0.8129146211409339,
                1.0284474670998864,
                3.153143459180969
            ]
        },
        {
            "positions": [
                -2.7212626127705226,
                -1.0691951350715196,
                1.8830754669667895,
                -0.8010205920268914,
                1.205369005797577,
                3.162954141394272
            ]
        },
        {
            "positions": [
                -2.803809982949163,
                -1.0377616176514466,
                1.8404778509626223,
                -0.7891265629128488,
                1.3822905444952676,
                3.172764823607575
            ]
        },
        {
            "positions": [
                -2.8863573531278037,
                -1.0063281002313733,
                1.7978802349584548,
                -0.7772325337988061,
                1.5592120831929581,
                3.1825755058208776
            ]
        },
        {
            "positions": [
                -2.9689047233064447,
                -0.9748945828113001,
                1.7552826189542876,
                -0.7653385046847635,
                1.7361336218906487,
                3.1923861880341806
            ]
        }
    ]
}