{
    "goal": {
        "global_pose": {
            "orientation": {
                "w": 0.5084816262002911,
                "x": -0.4908360881923452,
                "y": 0.5182115481033761,
                "z": -0.48164630358495003
            },
            "position": {
                "x": 0.5540239810943604,
                "y": -0.46912469901144505,
                "z": 0.16403168439865112
            }
        },
        "name": "move_to_storage_B"
    },
    "id": "LBKPIECE_move_to_storage_B_34",
    "joint_names": [
        "shoulder_pan_joint",
        "shoulder_lift_joint",
        "elbow_joint",
        "wrist_1_joint",
        "wrist_2_joint",
        "wrist_3_joint"
    ],
    "metrics": {
        "cart_traj_len": 0.7552576366486922,
        "distance_elbow_joint": 0.3766328675635535,
        "distance_shoulder_lift_joint": 0.4600881348530048,
        "distance_shoulder_pan_joint": 0.5308988737185893,
        "distance_wrist_1_joint": 3.0063456006685336,
        "distance_wrist_2_joint": 2.816046479252636,
        "distance_wrist_3_joint": 3.1452227810944504,
        "smoothness": 0.1929013104163345,
        "time": 0.305816393,
        "traj_len": 3.2148459896472126,
        "weighted_distance": 4.737939676616919
    },
    "planner": "LBKPIECE",
    "start": {
        "state": {
            "elbow_joint": 1.6649325340416963,
            "shoulder_lift_joint": -0.6616387945129425,
            "shoulder_pan_joint": -0.9139837929255878,
            "wrist_1_joint": 2.1467571094334352,
            "wrist_2_joint": -2.234195976750228,
            "wrist_3_joint": 0.005470921511140723
        }
    },
    "waypoints": [
        {
            "positions": [
                -0.9139837929255878,
                -0.6616387945129425,
                1.6649325340416963,
                2.1467571094334352,
                -2.234195976750228,
                0.005470921511140723
            ]
        },
        {
            "positions": [
                -0.8269429670375522,
                -0.7298462726941324,
                1.6595049977454202,
                2.0457894025774137,
                -2.263357349774263,
                0.01184051274206779
            ]
        },
        {
            "positions": [
                -0.7399021411495166,
                -0.7980537508753222,
                1.6540774614491442,
                1.9448216957213924,
                -2.2925187227982984,
                0.018210103972994857
            ]
        },
        {
            "positions": [
                -0.7541748300272173,
                -0.8110006780149471,
                1.6687085732479843,
                1.8326452882431328,
                -2.182209773470116,
                -0.10708923997230901
            ]
        },
        {
            "positions": [
                -0.768447518904918,
                -0.8239476051545722,
                1.6833396850468243,
                1.7204688807648731,
                -2.071900824141933,
                -0.23238858391761288
            ]
        },
        {
            "positions": [
                -0.7827202077826187,
                -0.8368945322941972,
                1.6979707968456643,
                1.6082924732866135,
                -1.9615918748137504,
                -0.3576879278629167
            ]
        },
        {
            "positions": [
                -0.7969928966603195,
                -0.8498414594338222,
                1.7126019086445046,
                1.4961160658083539,
                -1.8512829254855678,
                -0.48298727180822065
            ]
        },
        {
            "positions": [
                -0.8112655855380202,
                -0.8627883865734471,
                1.7272330204433446,
                1.3839396583300942,
                -1.740973976157385,
                -0.6082866157535245
            ]
        },
        {
            "positions": [
                -0.8255382744157209,
                -0.8757353137130722,
                1.7418641322421846,
                1.2717632508518348,
                -1.6306650268292024,
                -0.7335859596988283
            ]
        },
        {
            "positions": [
                -0.8398109632934216,
                -0.8886822408526972,
                1.7564952440410246,
                1.159586843373575,
                -1.5203560775010199,
                -0.8588853036441323
            ]
        },
        {
            "positions": [
                -0.8540836521711224,
                -0.9016291679923222,
                1.7711263558398647,
                1.0474104358953154,
                -1.4100471281728373,
                -0.9841846475894361
            ]
        },
        {
            "positions": [
                -0.8683563410488231,
                -0.9145760951319473,
                1.7857574676387047,
                0.9352340284170559,
                -1.2997381788446547,
                -1.1094839915347399
            ]
        },
        {
            "positions": [
                -0.8826290299265238,
                -0.9275230222715722,
                1.800388579437545,
                0.8230576209387961,
                -1.189429229516472,
                -1.2347833354800437
            ]
        },
        {
            "positions": [
                -0.8969017188042245,
                -0.9404699494111972,
                1.815019691236385,
                0.7108812134605365,
                -1.0791202801882893,
                -1.3600826794253476
            ]
        },
        {
            "positions": [
                -0.9111744076819253,
                -0.9534168765508222,
                1.829650803035225,
                0.598704805982277,
                -0.9688113308601067,
                -1.4853820233706514
            ]
        },
        {
            "positions": [
                -0.925447096559626,
                -0.9663638036904473,
                1.844281914834065,
                0.4865283985040172,
                -0.8585023815319242,
                -1.6106813673159552
            ]
        },
        {
            "positions": [
                -0.9397197854373267,
                -0.9793107308300723,
                1.858913026632905,
                0.37435199102575756,
                -0.7481934322037413,
                -1.7359807112612593
            ]
        },
        {
            "positions": [
                -0.9539924743150274,
                -0.9922576579696972,
                1.873544138431745,
                0.26217558354749815,
                -0.637884482875559,
                -1.861280055206563
            ]
        },
        {
            "positions": [
                -0.9682651631927282,
                -1.0052045851093223,
                1.8881752502305853,
                0.1499991760692383,
                -0.5275755335473762,
                -1.986579399151867
            ]
        },
        {
            "positions": [
                -0.9825378520704289,
                -1.0181515122489473,
                1.9028063620294253,
                0.03782276859097866,
                -0.4172665842191934,
                -2.111878743097171
            ]
        },
        {
            "positions": [
                -0.9968105409481296,
                -1.0310984393885723,
                1.9174374738282653,
                -0.07435363888728053,
                -0.306957634891011,
                -2.2371780870424747
            ]
        },
        {
            "positions": [
                -1.0110832298258303,
                -1.0440453665281972,
                1.9320685856271054,
                -0.18653004636554038,
                -0.19664868556282844,
                -2.3624774309877785
            ]
        },
        {
            "positions": [
                -1.025355918703531,
                -1.0569922936678222,
                1.9466996974259454,
                -0.29870645384380023,
                -0.08633973623464541,
                -2.4877767749330824
            ]
        },
        {
            "positions": [
                -1.0396286075812318,
                -1.0699392208074472,
                1.9613308092247854,
                -0.41088286132205964,
                0.023969213093536723,
                -2.613076118878386
            ]
        },
        {
            "positions": [
                -1.0539012964589325,
                -1.0828861479470722,
                1.9759619210236257,
                -0.5230592688003195,
                0.13427816242171975,
                -2.73837546282369
            ]
        },
        {
            "positions": [
                -1.0681739853366332,
                -1.0958330750866974,
                1.9905930328224657,
                -0.6352356762785789,
                0.24458711174990233,
                -2.863674806768994
            ]
        },
        {
            "positions": [
                -1.082446674214334,
                -1.1087800022263223,
                2.0052241446213057,
                -0.7474120837568383,
                0.3548960610780849,
                -2.9889741507142977
            ]
        },
        {
            "positions": [
                -1.0967193630920347,
                -1.1217269293659473,
                2.0198552564201457,
                -0.8595884912350981,
                0.46520501040626727,
                -3.1142734946596016
            ]
        }
    ]
}