{
    "goal": {
        "global_pose": {
            "orientation": {
                "w": -0.4816463035849501,
                "x": 0.5182115481033762,
                "y": 0.4908360881923453,
                "z": -0.5084816262002911
            },
            "position": {
                "x": -0.8240239810943604,
                "y": 0.19912469901144506,
                "z": 0.16403168439865112
            }
        },
        "name": "move_to_storage_D"
    },
    "id": "LBKPIECE_move_to_storage_D_54",
    "joint_names": [
        "shoulder_pan_joint",
        "shoulder_lift_joint",
        "elbow_joint",
        "wrist_1_joint",
        "wrist_2_joint",
        "wrist_3_joint"
    ],
    "metrics": {
        "cart_traj_len": 3.7459192534047445,
        "distance_elbow_joint": 4.20847207131702,
        "distance_shoulder_lift_joint": 1.2652451136542455,
        "distance_shoulder_pan_joint": 2.812893537633621,
        "distance_wrist_1_joint": 2.266133486996615,
        "distance_wrist_2_joint": 0.8782462342497979,
        "distance_wrist_3_joint": 3.131715804636357,
        "smoothness": 0.01823860761109925,
        "time": 0.44243012400000004,
        "traj_len": 3.8161114040981103,
        "weighted_distance": 4.8959695239050225
    },
    "planner": "LBKPIECE",
    "start": {
        "state": {
            "elbow_joint": -2.384821990628643,
            "shoulder_lift_joint": -2.278805467437664,
            "shoulder_pan_joint": -0.18546946439364564,
            "wrist_1_joint": 1.4845938187801415,
            "wrist_2_joint": 0.178987772454074,
            "wrist_3_joint": 0.03710569632802521
        }
    },
    "waypoints": [
        {
            "positions": [
                -0.18546946439364564,
                -2.278805467437664,
                -2.384821990628643,
                1.4845938187801415,
                0.178987772454074,
                0.03710569632802521
            ]
        },
        {
            "positions": [
                -0.17568025910976898,
                -2.278026708399694,
                -2.3820791592015587,
                1.4856990077319283,
                0.1890387402167514,
                0.03536114259340107
            ]
        },
        {
            "positions": [
                -0.09576691352206274,
                -2.242609555057685,
                -2.267480949030566,
                1.428797107769526,
                0.2043733569748442,
                -0.048336117330459706
            ]
        },
        {
            "positions": [
                -0.015853567934356494,
                -2.2071924017156754,
                -2.152882738859573,
                1.3718952078071236,
                0.219707973732937,
                -0.1320333772543205
            ]
        },
        {
            "positions": [
                0.06405977765334972,
                -2.1717752483736663,
                -2.0382845286885805,
                1.3149933078447213,
                0.2350425904910298,
                -0.21573063717818125
            ]
        },
        {
            "positions": [
                0.143973123241056,
                -2.136358095031657,
                -1.9236863185175876,
                1.258091407882319,
                0.2503772072491226,
                -0.29942789710204204
            ]
        },
        {
            "positions": [
                0.22388646882876218,
                -2.1009409416896476,
                -1.8090881083465948,
                1.2011895079199166,
                0.2657118240072154,
                -0.38312515702590283
            ]
        },
        {
            "positions": [
                0.3037998144164684,
                -2.0655237883476385,
                -1.6944898981756022,
                1.1442876079575144,
                0.28104644076530816,
                -0.46682241694976356
            ]
        },
        {
            "positions": [
                0.3837131600041747,
                -2.0301066350056294,
                -1.5798916880046092,
                1.0873857079951121,
                0.296381057523401,
                -0.5505196768736244
            ]
        },
        {
            "positions": [
                0.46362650559188096,
                -1.99468948166362,
                -1.4652934778336166,
                1.03048380803271,
                0.31171567428149377,
                -0.6342169367974851
            ]
        },
        {
            "positions": [
                0.5435398511795873,
                -1.9592723283216107,
                -1.3506952676626238,
                0.9735819080703074,
                0.3270502910395866,
                -0.717914196721346
            ]
        },
        {
            "positions": [
                0.6234531967672934,
                -1.9238551749796016,
                -1.236097057491631,
                0.9166800081079052,
                0.3423849077976794,
                -0.8016114566452067
            ]
        },
        {
            "positions": [
                0.7033665423549997,
                -1.8884380216375922,
                -1.1214988473206382,
                0.8597781081455028,
                0.35771952455577216,
                -0.8853087165690676
            ]
        },
        {
            "positions": [
                0.7832798879427059,
                -1.853020868295583,
                -1.0069006371496456,
                0.8028762081831005,
                0.37305414131386494,
                -0.9690059764929282
            ]
        },
        {
            "positions": [
                0.863193233530412,
                -1.8176037149535738,
                -0.8923024269786528,
                0.7459743082206981,
                0.3883887580719578,
                -1.0527032364167892
            ]
        },
        {
            "positions": [
                0.9431065791181183,
                -1.7821865616115646,
                -0.77770421680766,
                0.6890724082582959,
                0.40372337483005055,
                -1.1364004963406498
            ]
        },
        {
            "positions": [
                1.0230199247058245,
                -1.746769408269555,
                -0.6631060066366672,
                0.6321705082958935,
                0.4190579915881434,
                -1.2200977562645108
            ]
        },
        {
            "positions": [
                1.1029332702935308,
                -1.711352254927546,
                -0.5485077964656746,
                0.5752686083334912,
                0.43439260834623616,
                -1.3037950161883713
            ]
        },
        {
            "positions": [
                1.182846615881237,
                -1.6759351015855368,
                -0.433909586294682,
                0.518366708371089,
                0.44972722510432894,
                -1.3874922761122321
            ]
        },
        {
            "positions": [
                1.2627599614689433,
                -1.6405179482435275,
                -0.319311376123689,
                0.46146480840868653,
                0.4650618418624217,
                -1.4711895360360931
            ]
        },
        {
            "positions": [
                1.3426733070566494,
                -1.6051007949015181,
                -0.2047131659526964,
                0.4045629084462843,
                0.4803964586205145,
                -1.554886795959954
            ]
        },
        {
            "positions": [
                1.4225866526443556,
                -1.569683641559509,
                -0.09011495578170337,
                0.34766100848388204,
                0.4957310753786073,
                -1.6385840558838145
            ]
        },
        {
            "positions": [
                1.502499998232062,
                -1.5342664882175,
                0.024483254389289222,
                0.2907591085214798,
                0.5110656921367001,
                -1.7222813158076753
            ]
        },
        {
            "positions": [
                1.5824133438197683,
                -1.4988493348754903,
                0.13908146456028225,
                0.23385720855907732,
                0.526400308894793,
                -1.8059785757315363
            ]
        },
        {
            "positions": [
                1.6623266894074744,
                -1.4634321815334812,
                0.25367967473127484,
                0.17695530859667508,
                0.5417349256528857,
                -1.8896758356553969
            ]
        },
        {
            "positions": [
                1.7422400349951805,
                -1.428015028191472,
                0.3682778849022674,
                0.12005340863427261,
                0.5570695424109785,
                -1.9733730955792574
            ]
        },
        {
            "positions": [
                1.822153380582887,
                -1.3925978748494627,
                0.48287609507326,
                0.06315150867187036,
                0.5724041591690713,
                -2.0570703555031185
            ]
        },
        {
            "positions": [
                1.902066726170593,
                -1.3571807215074534,
                0.597474305244253,
                0.006249608709467891,
                0.5877387759271642,
                -2.1407676154269795
            ]
        },
        {
            "positions": [
                1.9819800717582994,
                -1.3217635681654443,
                0.7120725154152456,
                -0.050652291252934356,
                0.603073392685257,
                -2.22446487535084
            ]
        },
        {
            "positions": [
                2.0618934173460057,
                -1.286346414823435,
                0.8266707255862387,
                -0.1075541912153366,
                0.6184080094433497,
                -2.3081621352747006
            ]
        },
        {
            "positions": [
                2.1418067629337116,
                -1.2509292614814256,
                0.9412689357572313,
                -0.16445609117773885,
                0.6337426262014425,
                -2.3918593951985616
            ]
        },
        {
            "positions": [
                2.221720108521418,
                -1.2155121081394162,
                1.0558671459282243,
                -0.22135799114014132,
                0.6490772429595353,
                -2.4755566551224226
            ]
        },
        {
            "positions": [
                2.3016334541091243,
                -1.1800949547974071,
                1.170465356099217,
                -0.2782598911025437,
                0.6644118597176281,
                -2.559253915046283
            ]
        },
        {
            "positions": [
                2.3481749711278175,
                -1.1563042975096944,
                1.2637774596119544,
                -0.3498412338468803,
                0.7205293092870915,
                -2.635733371226576
            ]
        },
        {
            "positions": [
                2.39471648814651,
                -1.1325136402219818,
                1.3570895631246918,
                -0.42142257659121696,
                0.7766467588565549,
                -2.7122128274068684
            ]
        },
        {
            "positions": [
                2.4412580051652033,
                -1.108722982934269,
                1.450401666637429,
                -0.49300391933555354,
                0.8327642084260183,
                -2.788692283587161
            ]
        },
        {
            "positions": [
                2.487799522183896,
                -1.0849323256465564,
                1.5437137701501662,
                -0.5645852620798901,
                0.8888816579954817,
                -2.8651717397674537
            ]
        },
        {
            "positions": [
                2.534341039202589,
                -1.0611416683588437,
                1.6370258736629035,
                -0.6361666048242268,
                0.9449991075649451,
                -2.9416511959477463
            ]
        },
        {
            "positions": [
                2.580882556221282,
                -1.037351011071131,
                1.7303379771756409,
                -0.7077479475685635,
                1.0011165571344085,
                -3.018130652128039
            ]
        },
        {
            "positions": [
                2.627424073239975,
                -1.0135603537834184,
                1.8236500806883782,
                -0.7793292903129001,
                1.057234006703872,
                -3.0946101083083315
            ]
        }
    ]
}