{
    "goal": {
        "global_pose": {
            "orientation": {
                "w": 0.7047431468963623,
                "x": -0.7094548344612122,
                "y": 0.0024358443915843964,
                "z": -0.0022348060738295317
            },
            "position": {
                "x": 0.6094750761985779,
                "y": 0.3671506643295288,
                "z": 0.19426114857196808
            }
        },
        "name": "move_to_magneteinheit_A"
    },
    "id": "LBKPIECE_move_to_magneteinheit_A_85",
    "joint_names": [
        "shoulder_pan_joint",
        "shoulder_lift_joint",
        "elbow_joint",
        "wrist_1_joint",
        "wrist_2_joint",
        "wrist_3_joint"
    ],
    "metrics": {
        "cart_traj_len": 1.9736363527325187,
        "distance_elbow_joint": 3.584849482287786,
        "distance_shoulder_lift_joint": 0.7912873770085684,
        "distance_shoulder_pan_joint": 1.24225985095564,
        "distance_wrist_1_joint": 1.152963237775403,
        "distance_wrist_2_joint": 1.4357376608552537,
        "distance_wrist_3_joint": 1.9573494589707283,
        "smoothness": 8.88178422093736e-16,
        "time": 0.23817327500000002,
        "traj_len": 3.188172998419844,
        "weighted_distance": 4.082627448644499
    },
    "planner": "LBKPIECE",
    "start": {
        "state": {
            "elbow_joint": -1.5739458827952972,
            "shoulder_lift_joint": 0.006533473998580023,
            "shoulder_pan_joint": -1.1188671628667068,
            "wrist_1_joint": 3.138208179676308,
            "wrist_2_joint": -1.5706037135050406,
            "wrist_3_joint": -2.0226958329764257
        }
    },
    "waypoints": [
        {
            "positions": [
                -1.1188671628667068,
                0.006533473998580023,
                -1.5739458827952972,
                3.138208179676308,
                -1.5706037135050406,
                -2.0226958329764257
            ]
        },
        {
            "positions": [
                -1.0710879378299514,
                -0.023900655886364922,
                -1.4360670565534592,
                3.0938634397618694,
                -1.515383034241377,
                -1.9474131614775516
            ]
        },
        {
            "positions": [
                -1.0233087127931961,
                -0.05433478577130987,
                -1.2981882303116214,
                3.049518699847431,
                -1.4601623549777134,
                -1.8721304899786775
            ]
        },
        {
            "positions": [
                -0.9755294877564407,
                -0.08476891565625481,
                -1.1603094040697834,
                3.0051739599329923,
                -1.4049416757140498,
                -1.7968478184798031
            ]
        },
        {
            "positions": [
                -0.9277502627196853,
                -0.11520304554119976,
                -1.0224305778279454,
                2.960829220018554,
                -1.3497209964503862,
                -1.721565146980929
            ]
        },
        {
            "positions": [
                -0.87997103768293,
                -0.14563717542614468,
                -0.8845517515861077,
                2.916484480104115,
                -1.2945003171867224,
                -1.6462824754820549
            ]
        },
        {
            "positions": [
                -0.8321918126461745,
                -0.17607130531108964,
                -0.7466729253442697,
                2.8721397401896764,
                -1.239279637923059,
                -1.5709998039831807
            ]
        },
        {
            "positions": [
                -0.7844125876094192,
                -0.20650543519603456,
                -0.6087940991024319,
                2.827795000275238,
                -1.1840589586593953,
                -1.4957171324843066
            ]
        },
        {
            "positions": [
                -0.7366333625726638,
                -0.23693956508097952,
                -0.47091527286059387,
                2.7834502603607993,
                -1.1288382793957317,
                -1.4204344609854322
            ]
        },
        {
            "positions": [
                -0.6888541375359084,
                -0.2673736949659245,
                -0.3330364466187561,
                2.739105520446361,
                -1.073617600132068,
                -1.3451517894865583
            ]
        },
        {
            "positions": [
                -0.641074912499153,
                -0.29780782485086943,
                -0.19515762037691808,
                2.6947607805319223,
                -1.0183969208684045,
                -1.269869117987684
            ]
        },
        {
            "positions": [
                -0.5932956874623977,
                -0.32824195473581436,
                -0.05727879413508008,
                2.650416040617484,
                -0.9631762416047409,
                -1.19458644648881
            ]
        },
        {
            "positions": [
                -0.5455164624256422,
                -0.35867608462075934,
                0.08060003210675792,
                2.606071300703045,
                -0.9079555623410773,
                -1.1193037749899357
            ]
        },
        {
            "positions": [
                -0.49773723738888687,
                -0.38911021450570427,
                0.2184788583485957,
                2.561726560788607,
                -0.8527348830774137,
                -1.0440211034910616
            ]
        },
        {
            "positions": [
                -0.4499580123521315,
                -0.4195443443906492,
                0.3563576845904335,
                2.517381820874168,
                -0.7975142038137502,
                -0.9687384319921875
            ]
        },
        {
            "positions": [
                -0.40217878731537615,
                -0.4499784742755941,
                0.49423651083227127,
                2.4730370809597293,
                -0.7422935245500866,
                -0.8934557604933133
            ]
        },
        {
            "positions": [
                -0.3543995622786207,
                -0.4804126041605391,
                0.6321153370741095,
                2.428692341045291,
                -0.6870728452864229,
                -0.818173088994439
            ]
        },
        {
            "positions": [
                -0.3066203372418653,
                -0.510846734045484,
                0.7699941633159473,
                2.384347601130852,
                -0.6318521660227593,
                -0.7428904174955648
            ]
        },
        {
            "positions": [
                -0.25884111220510997,
                -0.541280863930429,
                0.9078729895577851,
                2.340002861216414,
                -0.5766314867590957,
                -0.6676077459966907
            ]
        },
        {
            "positions": [
                -0.2110618871683546,
                -0.5717149938153738,
                1.0457518157996233,
                2.295658121301975,
                -0.5214108074954322,
                -0.5923250744978166
            ]
        },
        {
            "positions": [
                -0.16328266213159914,
                -0.6021491237003188,
                1.183630642041461,
                2.2513133813875363,
                -0.4661901282317684,
                -0.5170424029989424
            ]
        },
        {
            "positions": [
                -0.11550343709484379,
                -0.6325832535852638,
                1.3215094682832993,
                2.206968641473098,
                -0.41096944896810483,
                -0.4417597315000683
            ]
        },
        {
            "positions": [
                -0.06772421205808854,
                -0.6630173834702087,
                1.459388294525137,
                2.1626239015586592,
                -0.35574876970444125,
                -0.3664770600011942
            ]
        },
        {
            "positions": [
                -0.01994498702133307,
                -0.6934515133551536,
                1.5972671207669749,
                2.118279161644221,
                -0.30052809044077766,
                -0.29119438850232005
            ]
        },
        {
            "positions": [
                0.027834238015422397,
                -0.7238856432400986,
                1.735145947008813,
                2.073934421729782,
                -0.24530741117711408,
                -0.2159117170034457
            ]
        },
        {
            "positions": [
                0.07561346305217787,
                -0.7543197731250436,
                1.8730247732506509,
                2.0295896818153434,
                -0.1900867319134505,
                -0.14062904550457156
            ]
        },
        {
            "positions": [
                0.12339268808893321,
                -0.7847539030099885,
                2.010903599492489,
                1.985244941900905,
                -0.13486605264978702,
                -0.06534637400569751
            ]
        }
    ]
}