{
    "goal": {
        "global_pose": {
            "orientation": {
                "w": 0.7031023480610252,
                "x": -0.7110244013736278,
                "y": 0.0077485991402295624,
                "z": 0.005598929693374583
            },
            "position": {
                "x": -0.8841497679147869,
                "y": 0.44412534475326537,
                "z": 0.3711530566215515
            }
        },
        "name": "move_to_auspresseinheit_D"
    },
    "id": "LBKPIECE_move_to_auspresseinheit_D_87",
    "joint_names": [
        "shoulder_pan_joint",
        "shoulder_lift_joint",
        "elbow_joint",
        "wrist_1_joint",
        "wrist_2_joint",
        "wrist_3_joint"
    ],
    "metrics": {
        "cart_traj_len": 0.3441172243361498,
        "distance_elbow_joint": 0.6610830085310293,
        "distance_shoulder_lift_joint": 0.13382722219096888,
        "distance_shoulder_pan_joint": 0.1339723111494969,
        "distance_wrist_1_joint": 0.6122543850696816,
        "distance_wrist_2_joint": 1.4297539770077439,
        "distance_wrist_3_joint": 0.06249842748485479,
        "smoothness": 3.947459674368863e-16,
        "time": 0.503335198,
        "traj_len": 1.7416628064679383,
        "weighted_distance": 2.280437359034646
    },
    "planner": "LBKPIECE",
    "start": {
        "state": {
            "elbow_joint": -1.8275484843655228,
            "shoulder_lift_joint": -2.1267897864000416,
            "shoulder_pan_joint": -0.035127520176001514,
            "wrist_1_joint": -2.3477863256791385,
            "wrist_2_joint": -1.605890476484521,
            "wrist_3_joint": -3.0880375317375353
        }
    },
    "waypoints": [
        {
            "positions": [
                -0.035127520176001514,
                -2.1267897864000416,
                -1.8275484843655228,
                -2.3477863256791385,
                -1.605890476484521,
                -3.0880375317375353
            ]
        },
        {
            "positions": [
                -0.05187405906968863,
                -2.143518189173913,
                -1.744913108299144,
                -2.424318123812849,
                -1.427171229358553,
                -3.0802252283019285
            ]
        },
        {
            "positions": [
                -0.06862059796337575,
                -2.160246591947784,
                -1.6622777322327655,
                -2.5008499219465588,
                -1.248451982232585,
                -3.0724129248663217
            ]
        },
        {
            "positions": [
                -0.08536713685706285,
                -2.176974994721655,
                -1.5796423561663868,
                -2.577381720080269,
                -1.069732735106617,
                -3.064600621430715
            ]
        },
        {
            "positions": [
                -0.10211367575074996,
                -2.193703397495526,
                -1.497006980100008,
                -2.6539135182139795,
                -0.891013487980649,
                -3.0567883179951076
            ]
        },
        {
            "positions": [
                -0.11886021464443708,
                -2.2104318002693972,
                -1.4143716040336294,
                -2.7304453163476894,
                -0.7122942408546811,
                -3.048976014559501
            ]
        },
        {
            "positions": [
                -0.13560675353812418,
                -2.227160203043268,
                -1.3317362279672507,
                -2.8069771144813997,
                -0.5335749937287131,
                -3.041163711123894
            ]
        },
        {
            "positions": [
                -0.15235329243181128,
                -2.2438886058171392,
                -1.2491008519008722,
                -2.8835089126151097,
                -0.3548557466027451,
                -3.0333514076882873
            ]
        },
        {
            "positions": [
                -0.1690998313254984,
                -2.2606170085910104,
                -1.1664654758344934,
                -2.96004071074882,
                -0.17613649947677704,
                -3.0255391042526805
            ]
        }
    ]
}