{
    "goal": {
        "global_pose": {
            "orientation": {
                "w": -0.4816463035849501,
                "x": 0.5182115481033762,
                "y": 0.4908360881923453,
                "z": -0.5084816262002911
            },
            "position": {
                "x": -0.8240239810943604,
                "y": -0.300875300988555,
                "z": 0.16403168439865112
            }
        },
        "name": "move_to_storage_C"
    },
    "id": "LBKPIECE_move_to_storage_C_108",
    "joint_names": [
        "shoulder_pan_joint",
        "shoulder_lift_joint",
        "elbow_joint",
        "wrist_1_joint",
        "wrist_2_joint",
        "wrist_3_joint"
    ],
    "metrics": {
        "cart_traj_len": 0.5761726255361783,
        "distance_elbow_joint": 0.2579326996263709,
        "distance_shoulder_lift_joint": 0.1880008517880304,
        "distance_shoulder_pan_joint": 0.4953469830130519,
        "distance_wrist_1_joint": 0.08581004598021957,
        "distance_wrist_2_joint": 1.0645050659538293,
        "distance_wrist_3_joint": 0.060649544120087384,
        "smoothness": 0.0,
        "time": 0.25118596,
        "traj_len": 1.4670532336904443,
        "weighted_distance": 1.8503673664047942
    },
    "planner": "LBKPIECE",
    "start": {
        "state": {
            "elbow_joint": 2.0108683149792914,
            "shoulder_lift_joint": -1.1634956873317392,
            "shoulder_pan_joint": -2.4736205022346,
            "wrist_1_joint": -0.8367026793690192,
            "wrist_2_joint": 0.6746043897045053,
            "wrist_3_joint": 3.133522094754363
        }
    },
    "waypoints": [
        {
            "positions": [
                -2.4736205022346,
                -1.1634956873317392,
                2.0108683149792914,
                -0.8367026793690192,
                0.6746043897045053,
                3.133522094754363
            ]
        },
        {
            "positions": [
                -2.5561783327367755,
                -1.1321622120337342,
                1.9678795317082296,
                -0.8224010050389826,
                0.8520219006968102,
                3.143630352107711
            ]
        },
        {
            "positions": [
                -2.6387361632389505,
                -1.1008287367357292,
                1.9248907484371678,
                -0.808099330708946,
                1.029439411689115,
                3.153738609461059
            ]
        },
        {
            "positions": [
                -2.721293993741126,
                -1.069495261437724,
                1.881901965166106,
                -0.7937976563789094,
                1.2068569226814199,
                3.163846866814407
            ]
        },
        {
            "positions": [
                -2.8038518242433015,
                -1.038161786139719,
                1.8389131818950442,
                -0.7794959820488728,
                1.384274433673725,
                3.1739551241677546
            ]
        },
        {
            "positions": [
                -2.8864096547454765,
                -1.006828310841714,
                1.7959243986239823,
                -0.7651943077188362,
                1.5616919446660298,
                3.184063381521103
            ]
        },
        {
            "positions": [
                -2.968967485247652,
                -0.9754948355437089,
                1.7529356153529205,
                -0.7508926333887996,
                1.7391094556583346,
                3.1941716388744505
            ]
        }
    ]
}