{
    "goal": {
        "global_pose": {
            "orientation": {
                "w": 0.7047431468963623,
                "x": -0.7094548344612122,
                "y": 0.0024358443915843964,
                "z": -0.0022348060738295317
            },
            "position": {
                "x": 0.6094750761985779,
                "y": 0.3671506643295288,
                "z": 0.19426114857196808
            }
        },
        "name": "move_to_magneteinheit_A"
    },
    "id": "LBKPIECE_move_to_magneteinheit_A_135",
    "joint_names": [
        "shoulder_pan_joint",
        "shoulder_lift_joint",
        "elbow_joint",
        "wrist_1_joint",
        "wrist_2_joint",
        "wrist_3_joint"
    ],
    "metrics": {
        "cart_traj_len": 1.5931381183441826,
        "distance_elbow_joint": 3.5286941781330086,
        "distance_shoulder_lift_joint": 1.136256376319953,
        "distance_shoulder_pan_joint": 1.2411372889555392,
        "distance_wrist_1_joint": 3.8401933764107032,
        "distance_wrist_2_joint": 1.7041936162023807,
        "distance_wrist_3_joint": 5.04618503285438,
        "smoothness": 5.783487406585084e-16,
        "time": 0.299731497,
        "traj_len": 4.061608039788671,
        "weighted_distance": 5.668634485235205
    },
    "planner": "LBKPIECE",
    "start": {
        "state": {
            "elbow_joint": -1.5739458827952972,
            "shoulder_lift_joint": 0.006533473998580023,
            "shoulder_pan_joint": -1.1188671628667068,
            "wrist_1_joint": 3.138208179676308,
            "wrist_2_joint": -1.5706037135050406,
            "wrist_3_joint": -2.0226958329764257
        }
    },
    "waypoints": [
        {
            "positions": [
                -1.1188671628667068,
                0.006533473998580023,
                -1.5739458827952972,
                3.138208179676308,
                -1.5706037135050406,
                -2.0226958329764257
            ]
        },
        {
            "positions": [
                -1.089316275034432,
                -0.02052024924713314,
                -1.4899293547445114,
                3.0467750040474817,
                -1.5300276750240316,
                -1.9025485702894167
            ]
        },
        {
            "positions": [
                -1.0597653872021573,
                -0.047573972492846305,
                -1.4059128266937253,
                2.9553418284186557,
                -1.4894516365430224,
                -1.7824013076024077
            ]
        },
        {
            "positions": [
                -1.0302144993698825,
                -0.07462769573855947,
                -1.3218962986429394,
                2.863908652789829,
                -1.4488755980620134,
                -1.6622540449153986
            ]
        },
        {
            "positions": [
                -1.000663611537608,
                -0.10168141898427263,
                -1.2378797705921536,
                2.772475477161003,
                -1.4082995595810044,
                -1.5421067822283896
            ]
        },
        {
            "positions": [
                -0.9711127237053332,
                -0.12873514222998578,
                -1.1538632425413677,
                2.6810423015321767,
                -1.3677235210999952,
                -1.4219595195413806
            ]
        },
        {
            "positions": [
                -0.9415618358730584,
                -0.15578886547569895,
                -1.0698467144905819,
                2.5896091259033507,
                -1.3271474826189862,
                -1.3018122568543715
            ]
        },
        {
            "positions": [
                -0.9120109480407836,
                -0.1828425887214121,
                -0.9858301864397958,
                2.498175950274524,
                -1.2865714441379772,
                -1.1816649941673625
            ]
        },
        {
            "positions": [
                -0.8824600602085089,
                -0.20989631196712527,
                -0.90181365838901,
                2.406742774645698,
                -1.2459954056569682,
                -1.0615177314803534
            ]
        },
        {
            "positions": [
                -0.8529091723762341,
                -0.23695003521283844,
                -0.817797130338224,
                2.3153095990168717,
                -1.205419367175959,
                -0.9413704687933444
            ]
        },
        {
            "positions": [
                -0.8233582845439594,
                -0.2640037584585516,
                -0.7337806022874381,
                2.2238764233880457,
                -1.16484332869495,
                -0.8212232061063354
            ]
        },
        {
            "positions": [
                -0.7938073967116847,
                -0.2910574817042648,
                -0.6497640742366521,
                2.1324432477592192,
                -1.1242672902139408,
                -0.7010759434193261
            ]
        },
        {
            "positions": [
                -0.76425650887941,
                -0.31811120494997797,
                -0.5657475461858663,
                2.041010072130393,
                -1.0836912517329318,
                -0.5809286807323173
            ]
        },
        {
            "positions": [
                -0.7347056210471352,
                -0.34516492819569117,
                -0.48173101813508024,
                1.9495768965015667,
                -1.0431152132519226,
                -0.46078141804530803
            ]
        },
        {
            "positions": [
                -0.7051547332148604,
                -0.37221865144140426,
                -0.3977144900842944,
                1.8581437208727405,
                -1.0025391747709138,
                -0.3406341553582992
            ]
        },
        {
            "positions": [
                -0.6756038453825857,
                -0.39927237468711746,
                -0.3136979620335085,
                1.766710545243914,
                -0.9619631362899046,
                -0.22048689267128996
            ]
        },
        {
            "positions": [
                -0.646052957550311,
                -0.4263260979328306,
                -0.22968143398272267,
                1.675277369615088,
                -0.9213870978088956,
                -0.10033962998428114
            ]
        },
        {
            "positions": [
                -0.6165020697180362,
                -0.4533798211785438,
                -0.1456649059319366,
                1.5838441939862615,
                -0.8808110593278865,
                0.019807632702728117
            ]
        },
        {
            "positions": [
                -0.5869511818857615,
                -0.48043354442425695,
                -0.06164837788115074,
                1.4924110183574355,
                -0.8402350208468774,
                0.13995489538973693
            ]
        },
        {
            "positions": [
                -0.5574002940534867,
                -0.5074872676699701,
                0.022368150169635115,
                1.400977842728609,
                -0.7996589823658683,
                0.2601021580767462
            ]
        },
        {
            "positions": [
                -0.527849406221212,
                -0.5345409909156832,
                0.10638467822042097,
                1.309544667099783,
                -0.7590829438848593,
                0.380249420763755
            ]
        },
        {
            "positions": [
                -0.49829851838893724,
                -0.5615947141613964,
                0.19040120627120705,
                1.2181114914709565,
                -0.7185069054038502,
                0.5003966834507643
            ]
        },
        {
            "positions": [
                -0.46874763055666246,
                -0.5886484374071096,
                0.2744177343219931,
                1.1266783158421303,
                -0.6779308669228411,
                0.6205439461377735
            ]
        },
        {
            "positions": [
                -0.4391967427243877,
                -0.6157021606528228,
                0.358434262372779,
                1.0352451402133038,
                -0.637354828441832,
                0.7406912088247828
            ]
        },
        {
            "positions": [
                -0.409645854892113,
                -0.6427558838985359,
                0.4424507904235646,
                0.9438119645844778,
                -0.596778789960823,
                0.8608384715117912
            ]
        },
        {
            "positions": [
                -0.38009496705983825,
                -0.6698096071442491,
                0.5264673184743509,
                0.8523787889556513,
                -0.556202751479814,
                0.9809857341988004
            ]
        },
        {
            "positions": [
                -0.3505440792275635,
                -0.6968633303899623,
                0.6104838465251368,
                0.7609456133268253,
                -0.5156267129988048,
                1.1011329968858097
            ]
        },
        {
            "positions": [
                -0.3209931913952887,
                -0.7239170536356754,
                0.6945003745759226,
                0.6695124376979988,
                -0.4750506745177958,
                1.221280259572819
            ]
        },
        {
            "positions": [
                -0.29144230356301404,
                -0.7509707768813885,
                0.7785169026267085,
                0.5780792620691728,
                -0.4344746360367868,
                1.3414275222598273
            ]
        },
        {
            "positions": [
                -0.26189141573073926,
                -0.7780245001271017,
                0.8625334306774943,
                0.48664608644034635,
                -0.3938985975557776,
                1.4615747849468366
            ]
        },
        {
            "positions": [
                -0.2323405278984645,
                -0.8050782233728149,
                0.9465499587282802,
                0.3952129108115199,
                -0.3533225590747686,
                1.5817220476338458
            ]
        },
        {
            "positions": [
                -0.2027896400661897,
                -0.8321319466185281,
                1.0305664867790665,
                0.30377973518269386,
                -0.3127465205937594,
                1.701869310320855
            ]
        },
        {
            "positions": [
                -0.17323875223391516,
                -0.8591856698642412,
                1.114583014829852,
                0.21234655955386783,
                -0.27217048211275063,
                1.8220165730078635
            ]
        },
        {
            "positions": [
                -0.14368786440164039,
                -0.8862393931099544,
                1.1985995428806382,
                0.12091338392504136,
                -0.23159444363174142,
                1.9421638356948727
            ]
        },
        {
            "positions": [
                -0.11413697656936561,
                -0.9132931163556676,
                1.282616070931424,
                0.029480208296214894,
                -0.19101840515073243,
                2.062311098381882
            ]
        },
        {
            "positions": [
                -0.08458608873709084,
                -0.9403468396013808,
                1.36663259898221,
                -0.06195296733261113,
                -0.15044236666972322,
                2.1824583610688912
            ]
        },
        {
            "positions": [
                -0.05503520090481606,
                -0.9674005628470939,
                1.4506491270329958,
                -0.15338614296143716,
                -0.10986632818871422,
                2.3026056237558996
            ]
        },
        {
            "positions": [
                -0.025484313072541287,
                -0.994454286092807,
                1.5346656550837816,
                -0.24481931859026362,
                -0.06929028970770523,
                2.422752886442909
            ]
        },
        {
            "positions": [
                0.004066574759733488,
                -1.0215080093385203,
                1.6186821831345675,
                -0.3362524942190901,
                -0.02871425122669602,
                2.542900149129918
            ]
        },
        {
            "positions": [
                0.03361746259200826,
                -1.0485617325842334,
                1.7026987111853538,
                -0.42768566984791656,
                0.011861787254312972,
                2.6630474118169274
            ]
        },
        {
            "positions": [
                0.06316835042428282,
                -1.0756154558299464,
                1.7867152392361392,
                -0.5191188454767421,
                0.05243782573532196,
                2.7831946745039358
            ]
        },
        {
            "positions": [
                0.09271923825655759,
                -1.1026691790756598,
                1.8707317672869255,
                -0.6105520211055686,
                0.09301386421633095,
                2.903341937190945
            ]
        },
        {
            "positions": [
                0.12227012608883248,
                -1.1297229023213728,
                1.9547482953377113,
                -0.701985196734395,
                0.13358990269734022,
                3.023489199877954
            ]
        }
    ]
}