{
    "goal": {
        "global_pose": {
            "orientation": {
                "w": -0.00223480608172531,
                "x": 0.0024358444001904467,
                "y": 0.7094548369677653,
                "z": -0.704743149386269
            },
            "position": {
                "x": 0.6205249238014221,
                "y": -0.6371506643295288,
                "z": 0.19426114857196808
            }
        },
        "name": "move_to_magneteinheit_B"
    },
    "id": "LBKPIECE_move_to_magneteinheit_B_92",
    "joint_names": [
        "shoulder_pan_joint",
        "shoulder_lift_joint",
        "elbow_joint",
        "wrist_1_joint",
        "wrist_2_joint",
        "wrist_3_joint"
    ],
    "metrics": {
        "cart_traj_len": 4.017957174085588,
        "distance_elbow_joint": 5.088906783939241,
        "distance_shoulder_lift_joint": 0.906510755990688,
        "distance_shoulder_pan_joint": 2.4177557302724666,
        "distance_wrist_1_joint": 2.0865460639929667,
        "distance_wrist_2_joint": 4.304987080902266,
        "distance_wrist_3_joint": 6.27081519051843,
        "smoothness": 0.24480777117570934,
        "time": 0.44889513400000003,
        "traj_len": 4.590808382585363,
        "weighted_distance": 6.325241903006408
    },
    "planner": "LBKPIECE",
    "start": {
        "state": {
            "elbow_joint": 2.393587130804639,
            "shoulder_lift_joint": -1.9085141043513325,
            "shoulder_pan_joint": 0.7066247066698809,
            "wrist_1_joint": -0.4678290934590222,
            "wrist_2_joint": 0.7096259084215963,
            "wrist_3_joint": 3.147370379541726
        }
    },
    "waypoints": [
        {
            "positions": [
                0.7066247066698809,
                -1.9085141043513325,
                2.393587130804639,
                -0.4678290934590222,
                0.7096259084215963,
                3.147370379541726
            ]
        },
        {
            "positions": [
                0.5902606013022083,
                -1.8569927911879631,
                2.3636507906897997,
                -0.44670278464443147,
                0.7223874473992742,
                3.097698827276487
            ]
        },
        {
            "positions": [
                0.47389649593453576,
                -1.805471478024594,
                2.33371445057496,
                -0.4255764758298407,
                0.735148986376952,
                3.0480272750112483
            ]
        },
        {
            "positions": [
                0.5131477598192944,
                -1.798105236787593,
                2.190008552275272,
                -0.47796763807827464,
                0.6490275771631406,
                2.990485603937864
            ]
        },
        {
            "positions": [
                0.552399023704053,
                -1.790738995550592,
                2.0463026539755838,
                -0.5303588003267086,
                0.5629061679493294,
                2.9329439328644797
            ]
        },
        {
            "positions": [
                0.5916502875888118,
                -1.7833727543135909,
                1.9025967556758954,
                -0.5827499625751424,
                0.47678475873551807,
                2.8754022617910953
            ]
        },
        {
            "positions": [
                0.6309015514735704,
                -1.7760065130765899,
                1.758890857376207,
                -0.6351411248235763,
                0.39066334952170667,
                2.8178605907177108
            ]
        },
        {
            "positions": [
                0.670152815358329,
                -1.7686402718395888,
                1.6151849590765188,
                -0.6875322870720102,
                0.30454194030789533,
                2.7603189196443267
            ]
        },
        {
            "positions": [
                0.7094040792430877,
                -1.7612740306025878,
                1.4714790607768307,
                -0.7399234493204442,
                0.2184205310940841,
                2.7027772485709423
            ]
        },
        {
            "positions": [
                0.7486553431278464,
                -1.7539077893655868,
                1.3277731624771423,
                -0.7923146115688782,
                0.1322991218802726,
                2.6452355774975578
            ]
        },
        {
            "positions": [
                0.7879066070126051,
                -1.7465415481285858,
                1.1840672641774541,
                -0.844705773817312,
                0.04617771266646131,
                2.5876939064241737
            ]
        },
        {
            "positions": [
                0.8271578708973637,
                -1.7391753068915847,
                1.040361365877766,
                -0.8970969360657459,
                -0.03994369654734997,
                2.5301522353507893
            ]
        },
        {
            "positions": [
                0.8664091347821223,
                -1.7318090656545837,
                0.8966554675780776,
                -0.9494880983141798,
                -0.12606510576116137,
                2.4726105642774048
            ]
        },
        {
            "positions": [
                0.905660398666881,
                -1.7244428244175827,
                0.7529495692783894,
                -1.001879260562614,
                -0.21218651497497265,
                2.4150688932040207
            ]
        },
        {
            "positions": [
                0.9449116625516396,
                -1.7170765831805817,
                0.609243670978701,
                -1.0542704228110478,
                -0.2983079241887838,
                2.3575272221306367
            ]
        },
        {
            "positions": [
                0.9841629264363984,
                -1.7097103419435808,
                0.46553777267901286,
                -1.1066615850594816,
                -0.38442933340259544,
                2.2999855510572518
            ]
        },
        {
            "positions": [
                1.023414190321157,
                -1.7023441007065796,
                0.3218318743793245,
                -1.1590527473079155,
                -0.47055074261640684,
                2.2424438799838677
            ]
        },
        {
            "positions": [
                1.0626654542059155,
                -1.6949778594695788,
                0.17812597607963632,
                -1.2114439095563494,
                -0.556672151830218,
                2.1849022089104837
            ]
        },
        {
            "positions": [
                1.1019167180906744,
                -1.6876116182325778,
                0.034420077779948155,
                -1.2638350718047833,
                -0.6427935610440294,
                2.127360537837099
            ]
        },
        {
            "positions": [
                1.1411679819754332,
                -1.6802453769955767,
                -0.10928582051974045,
                -1.3162262340532171,
                -0.7289149702578408,
                2.0698188667637147
            ]
        },
        {
            "positions": [
                1.1804192458601916,
                -1.6728791357585757,
                -0.25299171881942817,
                -1.368617396301651,
                -0.815036379471652,
                2.0122771956903307
            ]
        },
        {
            "positions": [
                1.2196705097449505,
                -1.6655128945215747,
                -0.3966976171191168,
                -1.421008558550085,
                -0.9011577886854634,
                1.9547355246169462
            ]
        },
        {
            "positions": [
                1.2589217736297091,
                -1.6581466532845737,
                -0.5404035154188049,
                -1.4733997207985188,
                -0.9872791978992748,
                1.8971938535435617
            ]
        },
        {
            "positions": [
                1.2981730375144678,
                -1.6507804120475726,
                -0.6841094137184931,
                -1.5257908830469527,
                -1.073400607113086,
                1.8396521824701775
            ]
        },
        {
            "positions": [
                1.3374243013992264,
                -1.6434141708105716,
                -0.8278153120181813,
                -1.578182045295387,
                -1.1595220163268973,
                1.7821105113967932
            ]
        },
        {
            "positions": [
                1.376675565283985,
                -1.6360479295735706,
                -0.9715212103178699,
                -1.6305732075438208,
                -1.2456434255407087,
                1.7245688403234087
            ]
        },
        {
            "positions": [
                1.4159268291687437,
                -1.6286816883365696,
                -1.115227108617558,
                -1.6829643697922547,
                -1.3317648347545197,
                1.6670271692500247
            ]
        },
        {
            "positions": [
                1.4551780930535023,
                -1.6213154470995685,
                -1.2589330069172462,
                -1.7353555320406886,
                -1.4178862439683315,
                1.6094854981766402
            ]
        },
        {
            "positions": [
                1.5048472331805551,
                -1.6175335133414925,
                -1.3893169752273096,
                -1.7749680710555302,
                -1.5032160742180276,
                1.5685715995200171
            ]
        },
        {
            "positions": [
                1.554516373307608,
                -1.6137515795834165,
                -1.519700943537373,
                -1.814580610070372,
                -1.588545904467724,
                1.5276577008633938
            ]
        },
        {
            "positions": [
                1.6041855134346608,
                -1.6099696458253405,
                -1.6500849118474363,
                -1.8541931490852137,
                -1.67387573471742,
                1.4867438022067707
            ]
        },
        {
            "positions": [
                1.6538546535617136,
                -1.6061877120672647,
                -1.7804688801574997,
                -1.8938056881000553,
                -1.7592055649671163,
                1.4458299035501474
            ]
        },
        {
            "positions": [
                1.7035237936887666,
                -1.6024057783091887,
                -1.910852848467563,
                -1.9334182271148972,
                -1.8445353952168124,
                1.4049160048935243
            ]
        },
        {
            "positions": [
                1.7531929338158194,
                -1.5986238445511127,
                -2.0412368167776265,
                -1.9730307661297388,
                -1.9298652254665085,
                1.3640021062369012
            ]
        },
        {
            "positions": [
                1.8028620739428722,
                -1.5948419107930367,
                -2.17162078508769,
                -2.0126433051445805,
                -2.015195055716205,
                1.323088207580278
            ]
        },
        {
            "positions": [
                1.8571103217721594,
                -1.628052441728778,
                -2.1542277920924446,
                -2.0358104316147285,
                -1.963729527421434,
                1.1327029566801423
            ]
        },
        {
            "positions": [
                1.9113585696014468,
                -1.6612629726645194,
                -2.136834799097199,
                -2.0589775580848766,
                -1.912263999126663,
                0.942317705780007
            ]
        },
        {
            "positions": [
                1.965606817430734,
                -1.6944735036002607,
                -2.1194418061019533,
                -2.0821446845550247,
                -1.860798470831892,
                0.7519324548798714
            ]
        },
        {
            "positions": [
                2.019855065260021,
                -1.727684034536002,
                -2.102048813106708,
                -2.1053118110251727,
                -1.809332942537121,
                0.5615472039797359
            ]
        },
        {
            "positions": [
                2.0741033130893083,
                -1.7608945654717434,
                -2.084655820111463,
                -2.128478937495321,
                -1.75786741424235,
                0.3711619530796003
            ]
        },
        {
            "positions": [
                2.1283515609185955,
                -1.7941050964074847,
                -2.0672628271162172,
                -2.151646063965469,
                -1.7064018859475791,
                0.18077670217946484
            ]
        },
        {
            "positions": [
                2.1825998087478826,
                -1.8273156273432263,
                -2.0498698341209716,
                -2.174813190435617,
                -1.6549363576528082,
                -0.009608548720670518
            ]
        },
        {
            "positions": [
                2.23684805657717,
                -1.8605261582789676,
                -2.0324768411257264,
                -2.1979803169057655,
                -1.6034708293580373,
                -0.1999937996208061
            ]
        },
        {
            "positions": [
                2.291096304406457,
                -1.893736689214709,
                -2.015083848130481,
                -2.2211474433759135,
                -1.5520053010632664,
                -0.39037905052094146
            ]
        },
        {
            "positions": [
                2.3453445522357446,
                -1.9269472201504503,
                -1.9976908551352355,
                -2.2443145698460616,
                -1.5005397727684953,
                -0.5807643014210773
            ]
        },
        {
            "positions": [
                2.3995928000650317,
                -1.9601577510861916,
                -1.98029786213999,
                -2.2674816963162097,
                -1.4490742444737243,
                -0.7711495523212124
            ]
        },
        {
            "positions": [
                2.453841047894319,
                -1.993368282021933,
                -1.9629048691447446,
                -2.2906488227863577,
                -1.3976087161789534,
                -0.9615348032213482
            ]
        },
        {
            "positions": [
                2.508089295723606,
                -2.0265788129576743,
                -1.9455118761494992,
                -2.313815949256506,
                -1.3461431878841825,
                -1.1519200541214836
            ]
        },
        {
            "positions": [
                2.5231727676984113,
                -2.0426889789844496,
                -1.915752880238627,
                -2.329421346550218,
                -1.2601363785820094,
                -1.3490725298070056
            ]
        },
        {
            "positions": [
                2.5382562396732165,
                -2.0587991450112253,
                -1.885993884327755,
                -2.34502674384393,
                -1.1741295692798364,
                -1.5462250054925277
            ]
        },
        {
            "positions": [
                2.553339711648021,
                -2.0749093110380006,
                -1.8562348884168829,
                -2.360632141137642,
                -1.0881227599776635,
                -1.7433774811780496
            ]
        },
        {
            "positions": [
                2.5684231836228264,
                -2.0910194770647763,
                -1.826475892506011,
                -2.376237538431354,
                -1.0021159506754904,
                -1.9405299568635719
            ]
        },
        {
            "positions": [
                2.5835066555976316,
                -2.1071296430915516,
                -1.7967168965951388,
                -2.391842935725066,
                -0.9161091413733174,
                -2.1376824325490937
            ]
        },
        {
            "positions": [
                2.598590127572437,
                -2.123239809118327,
                -1.7669579006842666,
                -2.407448333018778,
                -0.8301023320711445,
                -2.334834908234616
            ]
        },
        {
            "positions": [
                2.613673599547242,
                -2.1393499751451026,
                -1.7371989047733947,
                -2.42305373031249,
                -0.7440955227689715,
                -2.531987383920138
            ]
        },
        {
            "positions": [
                2.6287570715220467,
                -2.155460141171878,
                -1.7074399088625225,
                -2.438659127606202,
                -0.6580887134667983,
                -2.7291398596056604
            ]
        },
        {
            "positions": [
                2.643840543496852,
                -2.1715703071986536,
                -1.6776809129516503,
                -2.454264524899914,
                -0.5720819041646253,
                -2.926292335291182
            ]
        },
        {
            "positions": [
                2.658924015471657,
                -2.187680473225429,
                -1.6479219170407784,
                -2.469869922193626,
                -0.4860750948624524,
                -3.123444810976704
            ]
        }
    ]
}