{
    "goal": {
        "global_pose": {
            "orientation": {
                "w": 0.7047431493862688,
                "x": -0.7094548369677653,
                "y": 0.0024358444001904,
                "z": -0.0022348060817251984
            },
            "position": {
                "x": -0.39052492380142206,
                "y": 0.3671506643295288,
                "z": 0.19426114857196808
            }
        },
        "name": "move_to_magneteinheit_D"
    },
    "id": "LBKPIECE_move_to_magneteinheit_D_21",
    "joint_names": [
        "shoulder_pan_joint",
        "shoulder_lift_joint",
        "elbow_joint",
        "wrist_1_joint",
        "wrist_2_joint",
        "wrist_3_joint"
    ],
    "metrics": {
        "cart_traj_len": 3.8415378542443173,
        "distance_elbow_joint": 5.163999729753044,
        "distance_shoulder_lift_joint": 1.62953053546056,
        "distance_shoulder_pan_joint": 2.971093332422342,
        "distance_wrist_1_joint": 1.5449832198493576,
        "distance_wrist_2_joint": 2.470481573459586,
        "distance_wrist_3_joint": 4.811224628542529,
        "smoothness": 0.40349747959125287,
        "time": 0.512064493,
        "traj_len": 4.311764490262359,
        "weighted_distance": 5.6770790966729905
    },
    "planner": "LBKPIECE",
    "start": {
        "state": {
            "elbow_joint": 0.7495348899011911,
            "shoulder_lift_joint": -0.6476975780737668,
            "shoulder_pan_joint": -2.711696901376276,
            "wrist_1_joint": -0.0750647808097303,
            "wrist_2_joint": 0.43296659715458535,
            "wrist_3_joint": 3.1361499051832418
        }
    },
    "waypoints": [
        {
            "positions": [
                -2.711696901376276,
                -0.6476975780737668,
                0.7495348899011911,
                -0.0750647808097303,
                0.43296659715458535,
                3.1361499051832418
            ]
        },
        {
            "positions": [
                -2.7016245988984,
                -0.6943097569388617,
                0.8633067973036455,
                -0.005400840409632471,
                0.28890788338781137,
                3.136224631563465
            ]
        },
        {
            "positions": [
                -2.6915522964205234,
                -0.7409219358039566,
                0.9770787047060999,
                0.06426309999046535,
                0.14484916962103744,
                3.1362993579436886
            ]
        },
        {
            "positions": [
                -2.6814799939426472,
                -0.7875341146690514,
                1.0908506121085542,
                0.1339270403905632,
                0.0007904558542635165,
                3.136374084323912
            ]
        },
        {
            "positions": [
                -2.6714076914647706,
                -0.8341462935341464,
                1.2046225195110087,
                0.203590980790661,
                -0.14326825791251047,
                3.1364488107041355
            ]
        },
        {
            "positions": [
                -2.6613353889868945,
                -0.8807584723992412,
                1.318394426913463,
                0.27325492119075884,
                -0.2873269716792844,
                3.1365235370843587
            ]
        },
        {
            "positions": [
                -2.6368591096580998,
                -0.92493248065519,
                1.4139774036326767,
                0.3396712701485807,
                -0.4185008797614902,
                3.1305847384595653
            ]
        },
        {
            "positions": [
                -2.612382830329305,
                -0.9691064889111387,
                1.5095603803518902,
                0.40608761910640245,
                -0.5496747878436961,
                3.1246459398347715
            ]
        },
        {
            "positions": [
                -2.5721487423905605,
                -1.0141354383453203,
                1.5944659231662304,
                0.47419512524910035,
                -0.6779114190920763,
                3.112440399129009
            ]
        },
        {
            "positions": [
                -2.5319146544518163,
                -1.0591643877795018,
                1.6793714659805705,
                0.5423026313917982,
                -0.8061480503404567,
                3.1002348584232466
            ]
        },
        {
            "positions": [
                -2.4916805665130717,
                -1.1041933372136834,
                1.7642770087949107,
                0.6104101375344961,
                -0.934384681588837,
                3.088029317717484
            ]
        },
        {
            "positions": [
                -2.4069526742277523,
                -1.126747438852561,
                1.6469151751825906,
                0.6313729842863325,
                -0.9193273786834971,
                2.962607393101822
            ]
        },
        {
            "positions": [
                -2.322224781942433,
                -1.1493015404914384,
                1.5295533415702705,
                0.652335831038169,
                -0.9042700757781572,
                2.83718546848616
            ]
        },
        {
            "positions": [
                -2.2374968896571135,
                -1.1718556421303157,
                1.4121915079579503,
                0.6732986777900054,
                -0.8892127728728172,
                2.7117635438704975
            ]
        },
        {
            "positions": [
                -2.152768997371794,
                -1.1944097437691932,
                1.2948296743456302,
                0.6942615245418418,
                -0.8741554699674773,
                2.5863416192548354
            ]
        },
        {
            "positions": [
                -2.0680411050864747,
                -1.2169638454080707,
                1.1774678407333101,
                0.7152243712936781,
                -0.8590981670621374,
                2.4609196946391734
            ]
        },
        {
            "positions": [
                -1.9833132128011555,
                -1.2395179470469482,
                1.0601060071209902,
                0.7361872180455146,
                -0.8440408641567975,
                2.3354977700235113
            ]
        },
        {
            "positions": [
                -1.898585320515836,
                -1.2620720486858257,
                0.9427441735086699,
                0.757150064797351,
                -0.8289835612514574,
                2.2100758454078493
            ]
        },
        {
            "positions": [
                -1.8138574282305167,
                -1.284626150324703,
                0.8253823398963499,
                0.7781129115491874,
                -0.8139262583461175,
                2.084653920792187
            ]
        },
        {
            "positions": [
                -1.7291295359451972,
                -1.3071802519635805,
                0.7080205062840297,
                0.7990757583010237,
                -0.7988689554407776,
                1.9592319961765248
            ]
        },
        {
            "positions": [
                -1.6444016436598778,
                -1.329734353602458,
                0.5906586726717096,
                0.8200386050528602,
                -0.7838116525354377,
                1.8338100715608625
            ]
        },
        {
            "positions": [
                -1.5596737513745587,
                -1.3522884552413355,
                0.4732968390593897,
                0.8410014518046965,
                -0.7687543496300977,
                1.7083881469452007
            ]
        },
        {
            "positions": [
                -1.4749458590892393,
                -1.3748425568802127,
                0.3559350054470696,
                0.861964298556533,
                -0.7536970467247578,
                1.5829662223295384
            ]
        },
        {
            "positions": [
                -1.3902179668039198,
                -1.3973966585190902,
                0.23857317183474924,
                0.8829271453083694,
                -0.7386397438194179,
                1.4575442977138762
            ]
        },
        {
            "positions": [
                -1.3054900745186004,
                -1.4199507601579677,
                0.12121133822242913,
                0.9038899920602058,
                -0.7235824409140779,
                1.3321223730982141
            ]
        },
        {
            "positions": [
                -1.220762182233281,
                -1.4425048617968452,
                0.0038495046101090225,
                0.9248528388120423,
                -0.708525138008738,
                1.2067004484825519
            ]
        },
        {
            "positions": [
                -1.1360342899479616,
                -1.4650589634357227,
                -0.11351232900221087,
                0.9458156855638786,
                -0.693467835103398,
                1.08127852386689
            ]
        },
        {
            "positions": [
                -1.0513063976626424,
                -1.4876130650746,
                -0.23087416261453098,
                0.966778532315715,
                -0.6784105321980581,
                0.955856599251228
            ]
        },
        {
            "positions": [
                -0.9665785053773228,
                -1.5101671667134775,
                -0.3482359962268513,
                0.9877413790675514,
                -0.6633532292927182,
                0.8304346746355655
            ]
        },
        {
            "positions": [
                -0.8818506130920036,
                -1.532721268352355,
                -0.4655978298391712,
                1.008704225819388,
                -0.6482959263873782,
                0.7050127500199035
            ]
        },
        {
            "positions": [
                -0.797122720806684,
                -1.5552753699912325,
                -0.5829596634514915,
                1.0296670725712243,
                -0.6332386234820383,
                0.579590825404241
            ]
        },
        {
            "positions": [
                -0.7123948285213648,
                -1.57782947163011,
                -0.7003214970638114,
                1.0506299193230606,
                -0.6181813205766984,
                0.4541689007885794
            ]
        },
        {
            "positions": [
                -0.6276669362360454,
                -1.6003835732689873,
                -0.8176833306761313,
                1.071592766074897,
                -0.6031240176713585,
                0.32874697617291737
            ]
        },
        {
            "positions": [
                -0.542939043950726,
                -1.622937674907865,
                -0.9350451642884516,
                1.0925556128267335,
                -0.5880667147660186,
                0.2033250515572549
            ]
        },
        {
            "positions": [
                -0.4582111516654068,
                -1.6454917765467423,
                -1.0524069979007715,
                1.1135184595785699,
                -0.5730094118606786,
                0.07790312694159285
            ]
        },
        {
            "positions": [
                -0.3734832593800874,
                -1.6680458781856196,
                -1.1697688315130919,
                1.1344813063304062,
                -0.5579521089553386,
                -0.04751879767406919
            ]
        },
        {
            "positions": [
                -0.288755367094768,
                -1.6905999798244973,
                -1.2871306651254122,
                1.1554441530822426,
                -0.5428948060499987,
                -0.17294072228973167
            ]
        },
        {
            "positions": [
                -0.2040274748094486,
                -1.7131540814633746,
                -1.404492498737732,
                1.1764069998340791,
                -0.5278375031446587,
                -0.29836264690539327
            ]
        },
        {
            "positions": [
                -0.1192995825241292,
                -1.7357081831022523,
                -1.5218543323500524,
                1.1973698465859155,
                -0.5127802002393188,
                -0.42378457152105575
            ]
        },
        {
            "positions": [
                -0.03457169023880994,
                -1.7582622847411296,
                -1.6392161659623723,
                1.2183326933377518,
                -0.4977228973339789,
                -0.5492064961367178
            ]
        },
        {
            "positions": [
                -0.010599777304877107,
                -1.784652067048464,
                -1.739014134614294,
                1.2419304881716178,
                -0.47598994099732256,
                -0.6384380900972412
            ]
        },
        {
            "positions": [
                0.013372135629055724,
                -1.8110418493557983,
                -1.8388121032662157,
                1.2655282830054835,
                -0.4542569846606663,
                -0.7276696840577644
            ]
        },
        {
            "positions": [
                0.03734404856298855,
                -1.8374316316631327,
                -1.9386100719181374,
                1.2891260778393494,
                -0.43252402832400993,
                -0.8169012780182878
            ]
        },
        {
            "positions": [
                0.0008977527478061798,
                -1.8985946537377802,
                -2.002684166157986,
                1.3196123010730412,
                -0.3521554735831687,
                -0.7020113523065072
            ]
        },
        {
            "positions": [
                -0.03554854306737619,
                -1.9597576758124275,
                -2.066758260397834,
                1.350098524306733,
                -0.27178691884232736,
                -0.5871214265947268
            ]
        },
        {
            "positions": [
                -0.07199483888255857,
                -2.020920697887075,
                -2.1308323546376826,
                1.3805847475404247,
                -0.19141836410148605,
                -0.4722315008829462
            ]
        },
        {
            "positions": [
                -0.0881700562395227,
                -2.0570319260559558,
                -2.1667589975737997,
                1.3934095985047463,
                -0.14083311093033465,
                -0.400144267917258
            ]
        },
        {
            "positions": [
                -0.10434527359648682,
                -2.093143154224837,
                -2.202685640509917,
                1.4062344494690682,
                -0.09024785775918326,
                -0.32805703495156974
            ]
        },
        {
            "positions": [
                -0.13113296037102073,
                -2.154504807328,
                -2.263450627694749,
                1.4274624459925878,
                -0.003916700797014422,
                -0.20519638879422017
            ]
        },
        {
            "positions": [
                -0.15792064714555465,
                -2.2158664604311635,
                -2.3242156148795803,
                1.4486904425161076,
                0.08241445616515441,
                -0.0823357426368706
            ]
        },
        {
            "positions": [
                -0.18470833392008856,
                -2.277228113534327,
                -2.384980602064412,
                1.4699184390396272,
                0.16874561312732328,
                0.04052490352047898
            ]
        }
    ]
}