{
    "goal": {
        "global_pose": {
            "orientation": {
                "w": 0.7031023480610252,
                "x": -0.7110244013736278,
                "y": 0.0077485991402295624,
                "z": 0.005598929693374583
            },
            "position": {
                "x": -0.8841497679147869,
                "y": 0.44412534475326537,
                "z": 0.3711530566215515
            }
        },
        "name": "move_to_auspresseinheit_D"
    },
    "id": "LBKPIECE_move_to_auspresseinheit_D_69",
    "joint_names": [
        "shoulder_pan_joint",
        "shoulder_lift_joint",
        "elbow_joint",
        "wrist_1_joint",
        "wrist_2_joint",
        "wrist_3_joint"
    ],
    "metrics": {
        "cart_traj_len": 0.3439104683801206,
        "distance_elbow_joint": 0.6350553581799834,
        "distance_shoulder_lift_joint": 0.11922599321722993,
        "distance_shoulder_pan_joint": 0.1345249810745271,
        "distance_wrist_1_joint": 0.5078999741560355,
        "distance_wrist_2_joint": 1.446283381387988,
        "distance_wrist_3_joint": 0.020511022550196767,
        "smoothness": 1.184237882547641e-15,
        "time": 0.29148169700000004,
        "traj_len": 1.6921881427802172,
        "weighted_distance": 2.204247289033238
    },
    "planner": "LBKPIECE",
    "start": {
        "state": {
            "elbow_joint": -1.8275484843655228,
            "shoulder_lift_joint": -2.1267897864000416,
            "shoulder_pan_joint": -0.035127520176001514,
            "wrist_1_joint": -2.3477863256791385,
            "wrist_2_joint": -1.605890476484521,
            "wrist_3_joint": -3.0880375317375353
        }
    },
    "waypoints": [
        {
            "positions": [
                -0.035127520176001514,
                -2.1267897864000416,
                -1.8275484843655228,
                -2.3477863256791385,
                -1.605890476484521,
                -3.0880375317375353
            ]
        },
        {
            "positions": [
                -0.0519431428103174,
                -2.1416930355521955,
                -1.7481665645930249,
                -2.411273822448643,
                -1.4251050538110226,
                -3.0906014095563097
            ]
        },
        {
            "positions": [
                -0.06875876544463329,
                -2.156596284704349,
                -1.6687846448205268,
                -2.4747613192181475,
                -1.244319631137524,
                -3.0931652873750846
            ]
        },
        {
            "positions": [
                -0.08557438807894918,
                -2.171499533856503,
                -1.589402725048029,
                -2.538248815987652,
                -1.0635342084640254,
                -3.095729165193859
            ]
        },
        {
            "positions": [
                -0.10239001071326506,
                -2.1864027830086563,
                -1.510020805275531,
                -2.601736312757156,
                -0.882748785790527,
                -3.0982930430126334
            ]
        },
        {
            "positions": [
                -0.11920563334758094,
                -2.2013060321608102,
                -1.4306388855030332,
                -2.6652238095266605,
                -0.7019633631170284,
                -3.1008569208314083
            ]
        },
        {
            "positions": [
                -0.13602125598189685,
                -2.216209281312964,
                -1.3512569657305353,
                -2.728711306296165,
                -0.5211779404435299,
                -3.1034207986501827
            ]
        },
        {
            "positions": [
                -0.15283687861621273,
                -2.2311125304651176,
                -1.2718750459580372,
                -2.7921988030656695,
                -0.34039251777003154,
                -3.1059846764689576
            ]
        },
        {
            "positions": [
                -0.1696525012505286,
                -2.2460157796172715,
                -1.1924931261855394,
                -2.855686299835174,
                -0.159607095096533,
                -3.108548554287732
            ]
        }
    ]
}