{
    "goal": {
        "global_pose": {
            "orientation": {
                "w": 0.5084816217422485,
                "x": -0.49083608388900757,
                "y": 0.5182115435600281,
                "z": -0.4816462993621826
            },
            "position": {
                "x": 0.5540239810943604,
                "y": 0.030875300988554955,
                "z": 0.16403168439865112
            }
        },
        "name": "move_to_storage_A"
    },
    "id": "LBKPIECE_move_to_storage_A_10",
    "joint_names": [
        "shoulder_pan_joint",
        "shoulder_lift_joint",
        "elbow_joint",
        "wrist_1_joint",
        "wrist_2_joint",
        "wrist_3_joint"
    ],
    "metrics": {
        "cart_traj_len": 0.3534939020190244,
        "distance_elbow_joint": 0.4504671396517004,
        "distance_shoulder_lift_joint": 0.23520590805799158,
        "distance_shoulder_pan_joint": 0.46358917898056456,
        "distance_wrist_1_joint": 0.23730254894323388,
        "distance_wrist_2_joint": 1.0948793302139004,
        "distance_wrist_3_joint": 0.09804073609159669,
        "smoothness": 4.440892098500626e-16,
        "time": 0.207848666,
        "traj_len": 1.6060774707152168,
        "weighted_distance": 2.026758050009748
    },
    "planner": "LBKPIECE",
    "start": {
        "state": {
            "elbow_joint": 1.971548880431181,
            "shoulder_lift_joint": -1.1394869514688781,
            "shoulder_pan_joint": 0.12281150262730567,
            "wrist_1_joint": -0.7804693444481463,
            "wrist_2_joint": 0.12958644648617612,
            "wrist_3_joint": 3.0906942077768043
        }
    },
    "waypoints": [
        {
            "positions": [
                0.12281150262730567,
                -1.1394869514688781,
                1.971548880431181,
                -0.7804693444481463,
                0.12958644648617612,
                3.0906942077768043
            ]
        },
        {
            "positions": [
                0.05658447705865359,
                -1.1730877954771626,
                2.0359013289528525,
                -0.814369708582894,
                0.28599777937387616,
                3.104700027218461
            ]
        },
        {
            "positions": [
                -0.009642548509998489,
                -1.2066886394854472,
                2.100253777474524,
                -0.8482700727176417,
                0.4424091122615762,
                3.1187058466601174
            ]
        },
        {
            "positions": [
                -0.07586957407865055,
                -1.2402894834937317,
                2.1646062259961956,
                -0.8821704368523894,
                0.5988204451492762,
                3.132711666101774
            ]
        },
        {
            "positions": [
                -0.14209659964730265,
                -1.2738903275020161,
                2.228958674517867,
                -0.9160708009871371,
                0.7552317780369763,
                3.146717485543431
            ]
        },
        {
            "positions": [
                -0.20832362521595477,
                -1.3074911715103008,
                2.293311123039538,
                -0.9499711651218847,
                0.9116431109246764,
                3.160723304985088
            ]
        },
        {
            "positions": [
                -0.2745506507846068,
                -1.3410920155185853,
                2.35766357156121,
                -0.9838715292566325,
                1.0680544438123762,
                3.174729124426744
            ]
        },
        {
            "positions": [
                -0.3407776763532589,
                -1.3746928595268697,
                2.4220160200828813,
                -1.0177718933913802,
                1.2244657767000766,
                3.188734943868401
            ]
        }
    ]
}