{
    "goal": {
        "global_pose": {
            "orientation": {
                "w": 0.7047431493862688,
                "x": -0.7094548369677653,
                "y": 0.0024358444001904,
                "z": -0.0022348060817251984
            },
            "position": {
                "x": -0.39052492380142206,
                "y": 0.3671506643295288,
                "z": 0.19426114857196808
            }
        },
        "name": "move_to_magneteinheit_D"
    },
    "id": "LBKPIECE_move_to_magneteinheit_D_142",
    "joint_names": [
        "shoulder_pan_joint",
        "shoulder_lift_joint",
        "elbow_joint",
        "wrist_1_joint",
        "wrist_2_joint",
        "wrist_3_joint"
    ],
    "metrics": {
        "cart_traj_len": 3.7506396893967806,
        "distance_elbow_joint": 3.2751468637517083,
        "distance_shoulder_lift_joint": 1.6262335155780014,
        "distance_shoulder_pan_joint": 2.842087502566576,
        "distance_wrist_1_joint": 1.5088716890390894,
        "distance_wrist_2_joint": 0.6137079834580913,
        "distance_wrist_3_joint": 3.0493100486680325,
        "smoothness": 0.15013082358880514,
        "time": 0.677242601,
        "traj_len": 3.593794318413549,
        "weighted_distance": 4.597451182219856
    },
    "planner": "LBKPIECE",
    "start": {
        "state": {
            "elbow_joint": 0.7495348899011911,
            "shoulder_lift_joint": -0.6476975780737668,
            "shoulder_pan_joint": -2.711696901376276,
            "wrist_1_joint": -0.0750647808097303,
            "wrist_2_joint": 0.43296659715458535,
            "wrist_3_joint": 3.1361499051832418
        }
    },
    "waypoints": [
        {
            "positions": [
                -2.711696901376276,
                -0.6476975780737668,
                0.7495348899011911,
                -0.0750647808097303,
                0.43296659715458535,
                3.1361499051832418
            ]
        },
        {
            "positions": [
                -2.70994198711103,
                -0.6556692968227309,
                0.7602684262595423,
                0.012057829027368058,
                0.407172151248201,
                2.9392339284986924
            ]
        },
        {
            "positions": [
                -2.7081870728457833,
                -0.6636410155716951,
                0.7710019626178933,
                0.09918043886446641,
                0.3813777053418167,
                2.742317951814143
            ]
        },
        {
            "positions": [
                -2.706432158580537,
                -0.6716127343206592,
                0.7817354989762445,
                0.18630304870156478,
                0.35558325943543234,
                2.545401975129593
            ]
        },
        {
            "positions": [
                -2.7046772443152904,
                -0.6795844530696233,
                0.7924690353345956,
                0.27342565853866313,
                0.329788813529048,
                2.3484859984450437
            ]
        },
        {
            "positions": [
                -2.7029223300500442,
                -0.6875561718185874,
                0.8032025716929467,
                0.3605482683757615,
                0.3039943676226637,
                2.1515700217604943
            ]
        },
        {
            "positions": [
                -2.6565035614155974,
                -0.6967778721208827,
                0.7066247225021717,
                0.4084594147425457,
                0.3281682234584933,
                1.9952891107324349
            ]
        },
        {
            "positions": [
                -2.6100847927811506,
                -0.705999572423178,
                0.6100468733113966,
                0.45637056110932994,
                0.35234207929432293,
                1.8390081997043757
            ]
        },
        {
            "positions": [
                -2.5636660241467037,
                -0.7152212727254733,
                0.5134690241206215,
                0.5042817074761142,
                0.3765159351301526,
                1.6827272886763165
            ]
        },
        {
            "positions": [
                -2.5172472555122565,
                -0.7244429730277686,
                0.4168911749298464,
                0.5521928538428984,
                0.4006897909659822,
                1.526446377648257
            ]
        },
        {
            "positions": [
                -2.4708284868778096,
                -0.7336646733300639,
                0.32031332573907123,
                0.6001040002096827,
                0.42486364680181177,
                1.3701654666201977
            ]
        },
        {
            "positions": [
                -2.424409718243363,
                -0.7428863736323592,
                0.22373547654829617,
                0.648015146576467,
                0.4490375026376414,
                1.2138845555921385
            ]
        },
        {
            "positions": [
                -2.28624646840337,
                -0.7766567262699305,
                0.07470007518787103,
                0.6562058063814861,
                0.4510382565686727,
                1.1698941828965812
            ]
        },
        {
            "positions": [
                -2.1480832185633774,
                -0.8104270789075019,
                -0.07433532617255412,
                0.6643964661865052,
                0.45303901049970396,
                1.125903810201024
            ]
        },
        {
            "positions": [
                -2.0099199687233846,
                -0.8441974315450731,
                -0.22337072753297932,
                0.6725871259915243,
                0.4550397644307352,
                1.0819134375054666
            ]
        },
        {
            "positions": [
                -1.8717567188833917,
                -0.8779677841826444,
                -0.3724061288934044,
                0.6807777857965434,
                0.45704051836176646,
                1.0379230648099094
            ]
        },
        {
            "positions": [
                -1.7335934690433987,
                -0.9117381368202158,
                -0.5214415302538297,
                0.6889684456015625,
                0.45904127229279773,
                0.9939326921143521
            ]
        },
        {
            "positions": [
                -1.595430219203406,
                -0.9455084894577871,
                -0.6704769316142548,
                0.6971591054065815,
                0.461042026223829,
                0.9499423194187948
            ]
        },
        {
            "positions": [
                -1.4572669693634133,
                -0.9792788420953584,
                -0.8195123329746798,
                0.7053497652116006,
                0.4630427801548603,
                0.9059519467232376
            ]
        },
        {
            "positions": [
                -1.3191037195234205,
                -1.0130491947329296,
                -0.968547734335105,
                0.7135404250166197,
                0.46504353408589155,
                0.8619615740276804
            ]
        },
        {
            "positions": [
                -1.1809404696834278,
                -1.046819547370501,
                -1.1175831356955304,
                0.7217310848216388,
                0.46704428801692277,
                0.8179712013321231
            ]
        },
        {
            "positions": [
                -1.0427772198434349,
                -1.0805899000080723,
                -1.2666185370559555,
                0.7299217446266579,
                0.46904504194795404,
                0.7739808286365658
            ]
        },
        {
            "positions": [
                -0.9046139700034421,
                -1.1143602526456435,
                -1.4156539384163807,
                0.738112404431677,
                0.4710457958789853,
                0.7299904559410085
            ]
        },
        {
            "positions": [
                -0.7664507201634494,
                -1.148130605283215,
                -1.5646893397768058,
                0.7463030642366961,
                0.4730465498100166,
                0.6860000832454513
            ]
        },
        {
            "positions": [
                -0.6282874703234567,
                -1.1819009579207862,
                -1.7137247411372307,
                0.7544937240417152,
                0.47504730374104787,
                0.6420097105498941
            ]
        },
        {
            "positions": [
                -0.49012422048346393,
                -1.2156713105583576,
                -1.8627601424976559,
                0.7626843838467343,
                0.47704805767207914,
                0.5980193378543368
            ]
        },
        {
            "positions": [
                -0.351960970643471,
                -1.2494416631959289,
                -2.0117955438580815,
                0.7708750436517534,
                0.47904881160311036,
                0.5540289651587795
            ]
        },
        {
            "positions": [
                -0.21379772080347825,
                -1.2832120158335,
                -2.160830945218506,
                0.7790657034567725,
                0.48104956553414163,
                0.5100385924632223
            ]
        },
        {
            "positions": [
                -0.07563447096348544,
                -1.3169823684710715,
                -2.3098663465789313,
                0.7872563632617916,
                0.4830503194651729,
                0.4660482197676649
            ]
        },
        {
            "positions": [
                -0.027648003558339684,
                -1.4448110995808356,
                -2.3450262357107694,
                0.8267141339370156,
                0.44626069048984673,
                0.47016853520174606
            ]
        },
        {
            "positions": [
                -0.03401362341288977,
                -1.5934954070113472,
                -2.3573896816681956,
                0.9244096355515571,
                0.4086265776356596,
                0.39820917820539076
            ]
        },
        {
            "positions": [
                -0.04037924326743985,
                -1.7421797144418587,
                -2.369753127625622,
                1.0221051371660985,
                0.3709924647814725,
                0.32624982120903545
            ]
        },
        {
            "positions": [
                -0.04674486312198993,
                -1.8908640218723702,
                -2.3821165735830485,
                1.11980063878064,
                0.33335835192728547,
                0.2542904642126801
            ]
        },
        {
            "positions": [
                -0.053110482976540016,
                -2.0395483293028818,
                -2.3944800195404747,
                1.2174961403951814,
                0.2957242390730983,
                0.18233110721632478
            ]
        },
        {
            "positions": [
                -0.0594761028310901,
                -2.1882326367333933,
                -2.406843465497901,
                1.315191642009723,
                0.25809012621891125,
                0.11037175021996945
            ]
        },
        {
            "positions": [
                -0.13520240611662382,
                -2.2396517108844183,
                -2.399983578636438,
                1.3863608017415046,
                0.20965836091647194,
                0.10119699251800893
            ]
        },
        {
            "positions": [
                -0.1856866083069796,
                -2.2739310936517683,
                -2.395410320728796,
                1.4338069082293592,
                0.1773705173815124,
                0.09508048738336856
            ]
        }
    ]
}