{
    "goal": {
        "global_pose": {
            "orientation": {
                "w": 0.7047431468963623,
                "x": -0.7094548344612122,
                "y": 0.0024358443915843964,
                "z": -0.0022348060738295317
            },
            "position": {
                "x": 0.6094750761985779,
                "y": 0.3671506643295288,
                "z": 0.19426114857196808
            }
        },
        "name": "move_to_magneteinheit_A"
    },
    "id": "LBKPIECE_move_to_magneteinheit_A_61",
    "joint_names": [
        "shoulder_pan_joint",
        "shoulder_lift_joint",
        "elbow_joint",
        "wrist_1_joint",
        "wrist_2_joint",
        "wrist_3_joint"
    ],
    "metrics": {
        "cart_traj_len": 1.6347883589600674,
        "distance_elbow_joint": 3.5441325770077254,
        "distance_shoulder_lift_joint": 1.1460688757516548,
        "distance_shoulder_pan_joint": 1.241442376018711,
        "distance_wrist_1_joint": 3.9091578745871116,
        "distance_wrist_2_joint": 1.7036087446017059,
        "distance_wrist_3_joint": 2.109731510337602,
        "smoothness": 0.04905381452127289,
        "time": 0.569473739,
        "traj_len": 3.6951511414696565,
        "weighted_distance": 4.846273991239924
    },
    "planner": "LBKPIECE",
    "start": {
        "state": {
            "elbow_joint": -1.5739458827952972,
            "shoulder_lift_joint": 0.006533473998580023,
            "shoulder_pan_joint": -1.1188671628667068,
            "wrist_1_joint": 3.138208179676308,
            "wrist_2_joint": -1.5706037135050406,
            "wrist_3_joint": -2.0226958329764257
        }
    },
    "waypoints": [
        {
            "positions": [
                -1.1188671628667068,
                0.006533473998580023,
                -1.5739458827952972,
                3.138208179676308,
                -1.5706037135050406,
                -2.0226958329764257
            ]
        },
        {
            "positions": [
                -1.0996910768712775,
                -0.037022232615855015,
                -1.4712043697595627,
                3.007270000321901,
                -1.494700996574759,
                -2.0014328322054014
            ]
        },
        {
            "positions": [
                -1.080514990875848,
                -0.08057793923029005,
                -1.3684628567238284,
                2.8763318209674935,
                -1.4187982796444774,
                -1.980169831434377
            ]
        },
        {
            "positions": [
                -1.0613389048804187,
                -0.12413364584472507,
                -1.2657213436880939,
                2.7453936416130857,
                -1.3428955627141959,
                -1.9589068306633526
            ]
        },
        {
            "positions": [
                -1.0421628188849894,
                -0.1676893524591601,
                -1.1629798306523593,
                2.6144554622586784,
                -1.2669928457839144,
                -1.937643829892328
            ]
        },
        {
            "positions": [
                -1.02298673288956,
                -0.21124505907359514,
                -1.060238317616625,
                2.483517282904271,
                -1.1910901288536329,
                -1.9163808291213036
            ]
        },
        {
            "positions": [
                -1.0038106468941306,
                -0.2548007656880302,
                -0.9574968045808905,
                2.3525791035498633,
                -1.1151874119233511,
                -1.8951178283502792
            ]
        },
        {
            "positions": [
                -0.9846345608987013,
                -0.29835647230246526,
                -0.854755291545156,
                2.221640924195456,
                -1.0392846949930696,
                -1.8738548275792548
            ]
        },
        {
            "positions": [
                -0.965458474903272,
                -0.3419121789169003,
                -0.7520137785094214,
                2.0907027448410487,
                -0.963381978062788,
                -1.8525918268082304
            ]
        },
        {
            "positions": [
                -0.9462823889078426,
                -0.3854678855313353,
                -0.6492722654736869,
                1.9597645654866411,
                -0.8874792611325065,
                -1.831328826037206
            ]
        },
        {
            "positions": [
                -0.9271063029124131,
                -0.42902359214577035,
                -0.5465307524379526,
                1.8288263861322338,
                -0.811576544202225,
                -1.8100658252661816
            ]
        },
        {
            "positions": [
                -0.9079302169169838,
                -0.4725792987602054,
                -0.44378923940221804,
                1.6978882067778263,
                -0.7356738272719434,
                -1.788802824495157
            ]
        },
        {
            "positions": [
                -0.8887541309215545,
                -0.5161350053746403,
                -0.34104772636648373,
                1.566950027423419,
                -0.6597711103416619,
                -1.7675398237241327
            ]
        },
        {
            "positions": [
                -0.8695780449261251,
                -0.5596907119890754,
                -0.23830621333074897,
                1.4360118480690114,
                -0.5838683934113802,
                -1.7462768229531083
            ]
        },
        {
            "positions": [
                -0.8504019589306957,
                -0.6032464186035105,
                -0.13556470029501466,
                1.3050736687146038,
                -0.5079656764810987,
                -1.7250138221820839
            ]
        },
        {
            "positions": [
                -0.8312258729352664,
                -0.6468021252179454,
                -0.03282318725928035,
                1.1741354893601965,
                -0.4320629595508172,
                -1.7037508214110595
            ]
        },
        {
            "positions": [
                -0.812049786939837,
                -0.6903578318323805,
                0.0699183257764544,
                1.0431973100057892,
                -0.35616024262053547,
                -1.682487820640035
            ]
        },
        {
            "positions": [
                -0.7928737009444077,
                -0.7339135384468155,
                0.17265983881218872,
                0.9122591306513814,
                -0.2802575256902542,
                -1.6612248198690107
            ]
        },
        {
            "positions": [
                -0.7736976149489783,
                -0.7774692450612506,
                0.27540135184792347,
                0.7813209512969741,
                -0.20435480875997247,
                -1.6399618190979863
            ]
        },
        {
            "positions": [
                -0.754521528953549,
                -0.8210249516756856,
                0.3781428648836578,
                0.6503827719425668,
                -0.12845209182969097,
                -1.618698818326962
            ]
        },
        {
            "positions": [
                -0.7353454429581195,
                -0.8645806582901207,
                0.4808843779193921,
                0.5194445925881594,
                -0.05254937489940947,
                -1.5974358175559373
            ]
        },
        {
            "positions": [
                -0.7161693569626901,
                -0.9081363649045557,
                0.5836258909551268,
                0.3885064132337517,
                0.02335334203087225,
                -1.576172816784913
            ]
        },
        {
            "positions": [
                -0.6969932709672608,
                -0.9516920715189907,
                0.6863674039908609,
                0.25756823387934435,
                0.09925605896115372,
                -1.5549098160138886
            ]
        },
        {
            "positions": [
                -0.6339495414196251,
                -0.9661415584600741,
                0.7851227340079044,
                0.17845147012625612,
                0.10185213374080854,
                -1.681213315504278
            ]
        },
        {
            "positions": [
                -0.5709058118719893,
                -0.9805910454011575,
                0.8838780640249481,
                0.09933470637316791,
                0.10444820852046335,
                -1.8075168149946679
            ]
        },
        {
            "positions": [
                -0.5078620823243536,
                -0.9950405323422409,
                0.9826333940419916,
                0.02021794262007967,
                0.10704428330011817,
                -1.9338203144850574
            ]
        },
        {
            "positions": [
                -0.44481835277671783,
                -1.0094900192833243,
                1.0813887240590352,
                -0.05889882113300854,
                0.10964035807977299,
                -2.060123813975447
            ]
        },
        {
            "positions": [
                -0.38177462322908207,
                -1.0239395062244077,
                1.1801440540760786,
                -0.13801558488609678,
                0.1122364328594278,
                -2.1864273134658365
            ]
        },
        {
            "positions": [
                -0.3187308936814463,
                -1.038388993165491,
                1.2788993840931222,
                -0.217132348639185,
                0.11483250763908262,
                -2.312730812956226
            ]
        },
        {
            "positions": [
                -0.2556871641338106,
                -1.0528384801065744,
                1.3776547141101658,
                -0.29624911239227314,
                0.11742858241873744,
                -2.4390343124466156
            ]
        },
        {
            "positions": [
                -0.19264343458617483,
                -1.0672879670476578,
                1.4764100441272094,
                -0.37536587614536143,
                0.12002465719839225,
                -2.565337811937005
            ]
        },
        {
            "positions": [
                -0.12959970503853913,
                -1.0817374539887412,
                1.5751653741442528,
                -0.4544826398984496,
                0.12262073197804707,
                -2.6916413114273947
            ]
        },
        {
            "positions": [
                -0.06655597549090331,
                -1.0961869409298246,
                1.6739207041612965,
                -0.5335994036515379,
                0.1252168067577019,
                -2.8179448109177847
            ]
        },
        {
            "positions": [
                -0.0035122459432676,
                -1.110636427870908,
                1.77267603417834,
                -0.6127161674046261,
                0.1278128815373567,
                -2.944248310408174
            ]
        },
        {
            "positions": [
                0.05953148360436822,
                -1.1250859148119914,
                1.8714313641953837,
                -0.6918329311577144,
                0.13040895631701152,
                -3.070551809898564
            ]
        },
        {
            "positions": [
                0.12257521315200397,
                -1.1395354017530748,
                1.970186694212427,
                -0.7709496949108026,
                0.13300503109666634,
                -3.1968553093889533
            ]
        }
    ]
}