{
    "goal": {
        "global_pose": {
            "orientation": {
                "w": 0.7031023502349854,
                "x": -0.7110244035720825,
                "y": 0.007748599164187908,
                "z": 0.005598929710686207
            },
            "position": {
                "x": 0.11585023208521307,
                "y": 0.44412534475326537,
                "z": 0.3711530566215515
            }
        },
        "name": "move_to_auspresseinheit_A"
    },
    "id": "LBKPIECE_move_to_auspresseinheit_A_30",
    "joint_names": [
        "shoulder_pan_joint",
        "shoulder_lift_joint",
        "elbow_joint",
        "wrist_1_joint",
        "wrist_2_joint",
        "wrist_3_joint"
    ],
    "metrics": {
        "cart_traj_len": 0.7345132625227233,
        "distance_elbow_joint": 0.5534710324838978,
        "distance_shoulder_lift_joint": 0.5299319734992107,
        "distance_shoulder_pan_joint": 1.0421906547709265,
        "distance_wrist_1_joint": 1.8790119711263773,
        "distance_wrist_2_joint": 1.7424021527455422,
        "distance_wrist_3_joint": 1.0734735288842274,
        "smoothness": 1.0675400047727404,
        "time": 0.264084177,
        "traj_len": 2.611605122048543,
        "weighted_distance": 3.5480758863291744
    },
    "planner": "LBKPIECE",
    "start": {
        "state": {
            "elbow_joint": 2.4225746994637096,
            "shoulder_lift_joint": -1.373653595662188,
            "shoulder_pan_joint": -0.3378633848294565,
            "wrist_1_joint": -1.0288595594406726,
            "wrist_2_joint": 1.2330228066703421,
            "wrist_3_joint": 3.189163495502006
        }
    },
    "waypoints": [
        {
            "positions": [
                -0.3378633848294565,
                -1.373653595662188,
                2.4225746994637096,
                -1.0288595594406726,
                1.2330228066703421,
                3.189163495502006
            ]
        },
        {
            "positions": [
                -0.2971382951545198,
                -1.3915660870934372,
                2.3932524131189057,
                -0.906195711380276,
                1.119334648340578,
                3.133280611386682
            ]
        },
        {
            "positions": [
                -0.25641320547958313,
                -1.4094785785246864,
                2.363930126774102,
                -0.7835318633198793,
                1.005646490010814,
                3.0773977272713577
            ]
        },
        {
            "positions": [
                -0.21568811580464642,
                -1.4273910699559356,
                2.3346078404292987,
                -0.6608680152594828,
                0.8919583316810499,
                3.0215148431560337
            ]
        },
        {
            "positions": [
                -0.17496302612970974,
                -1.4453035613871847,
                2.3052855540844948,
                -0.538204167199086,
                0.7782701733512858,
                2.9656319590407096
            ]
        },
        {
            "positions": [
                -0.13423793645477305,
                -1.4632160528184337,
                2.275963267739691,
                -0.4155403191386895,
                0.6645820150215217,
                2.9097490749253856
            ]
        },
        {
            "positions": [
                -0.09351284677983637,
                -1.4811285442496829,
                2.2466409813948873,
                -0.29287647107829284,
                0.5508938566917576,
                2.853866190810061
            ]
        },
        {
            "positions": [
                -0.05278775710489969,
                -1.499041035680932,
                2.217318695050084,
                -0.1702126230178963,
                0.4372056983619935,
                2.797983306694737
            ]
        },
        {
            "positions": [
                -0.012062667429962981,
                -1.5169535271121812,
                2.18799640870528,
                -0.04754877495749954,
                0.32351754003222943,
                2.742100422579413
            ]
        },
        {
            "positions": [
                0.02866242224497373,
                -1.5348660185434304,
                2.158674122360476,
                0.07511507310289711,
                0.20982938170246523,
                2.686217538464089
            ]
        },
        {
            "positions": [
                0.06938751191991041,
                -1.5527785099746796,
                2.1293518360156725,
                0.19777892116329365,
                0.09614122337270123,
                2.630334654348765
            ]
        },
        {
            "positions": [
                0.14529406539868597,
                -1.594025286558161,
                2.166705295063595,
                0.12798525085566348,
                0.1605060670818711,
                2.6985756335443085
            ]
        },
        {
            "positions": [
                0.22120061887746154,
                -1.6352720631416426,
                2.2040587541115184,
                0.058191580548033306,
                0.22487091079104096,
                2.7668166127398526
            ]
        },
        {
            "positions": [
                0.29710717235623707,
                -1.676518839725124,
                2.2414122131594416,
                -0.011602089759596868,
                0.2892357545002109,
                2.835057591935396
            ]
        },
        {
            "positions": [
                0.3730137258350127,
                -1.7177656163086055,
                2.2787656722073644,
                -0.08139576006722704,
                0.3536005982093807,
                2.90329857113094
            ]
        },
        {
            "positions": [
                0.4489202793137882,
                -1.759012392892087,
                2.316119131255287,
                -0.15118943037485721,
                0.4179654419185507,
                2.971539550326484
            ]
        },
        {
            "positions": [
                0.5248268327925638,
                -1.8002591694755685,
                2.3534725903032103,
                -0.2209831006824874,
                0.4823302856277205,
                3.0397805295220275
            ]
        },
        {
            "positions": [
                0.5846603118421992,
                -1.8347013027041785,
                2.3655150618859846,
                -0.2988535902413643,
                0.5554407880253478,
                3.074846800374602
            ]
        },
        {
            "positions": [
                0.6444937908918347,
                -1.8691434359327888,
                2.377557533468759,
                -0.37672407980024125,
                0.6285512904229751,
                3.1099130712271768
            ]
        },
        {
            "positions": [
                0.7043272699414701,
                -1.9035855691613988,
                2.389600005051533,
                -0.45459456935911824,
                0.7016617928206025,
                3.1449793420797514
            ]
        }
    ]
}