{
    "goal": {
        "global_pose": {
            "orientation": {
                "w": 0.7031023480610252,
                "x": -0.7110244013736278,
                "y": 0.0077485991402295624,
                "z": 0.005598929693374583
            },
            "position": {
                "x": -0.8841497679147869,
                "y": 0.44412534475326537,
                "z": 0.3711530566215515
            }
        },
        "name": "move_to_auspresseinheit_D"
    },
    "id": "LBKPIECE_move_to_auspresseinheit_D_148",
    "joint_names": [
        "shoulder_pan_joint",
        "shoulder_lift_joint",
        "elbow_joint",
        "wrist_1_joint",
        "wrist_2_joint",
        "wrist_3_joint"
    ],
    "metrics": {
        "cart_traj_len": 0.3428767989374703,
        "distance_elbow_joint": 0.6488116537493929,
        "distance_shoulder_lift_joint": 0.12784424282826823,
        "distance_shoulder_pan_joint": 0.13327395192846864,
        "distance_wrist_1_joint": 0.5639628901349991,
        "distance_wrist_2_joint": 1.440280993586515,
        "distance_wrist_3_joint": 0.03463389822212415,
        "smoothness": 1.9737298371844314e-16,
        "time": 0.482313295,
        "traj_len": 1.717209256453554,
        "weighted_distance": 2.241053169966195
    },
    "planner": "LBKPIECE",
    "start": {
        "state": {
            "elbow_joint": -1.8275484843655228,
            "shoulder_lift_joint": -2.1267897864000416,
            "shoulder_pan_joint": -0.035127520176001514,
            "wrist_1_joint": -2.3477863256791385,
            "wrist_2_joint": -1.605890476484521,
            "wrist_3_joint": -3.0880375317375353
        }
    },
    "waypoints": [
        {
            "positions": [
                -0.035127520176001514,
                -2.1267897864000416,
                -1.8275484843655228,
                -2.3477863256791385,
                -1.605890476484521,
                -3.0880375317375353
            ]
        },
        {
            "positions": [
                -0.051786764167060094,
                -2.142770316753575,
                -1.7464470276468487,
                -2.4182816869460133,
                -1.4258553522862065,
                -3.0837082944597696
            ]
        },
        {
            "positions": [
                -0.06844600815811867,
                -2.1587508471071084,
                -1.6653455709281746,
                -2.488777048212888,
                -1.2458202280878923,
                -3.0793790571820043
            ]
        },
        {
            "positions": [
                -0.08510525214917725,
                -2.1747313774606423,
                -1.5842441142095005,
                -2.559272409479763,
                -1.0657851038895778,
                -3.0750498199042386
            ]
        },
        {
            "positions": [
                -0.10176449614023583,
                -2.1907119078141757,
                -1.5031426574908262,
                -2.6297677707466383,
                -0.8857499796912635,
                -3.070720582626473
            ]
        },
        {
            "positions": [
                -0.11842374013129442,
                -2.206692438167709,
                -1.4220412007721523,
                -2.700263132013513,
                -0.7057148554929491,
                -3.0663913453487077
            ]
        },
        {
            "positions": [
                -0.13508298412235298,
                -2.222672968521243,
                -1.340939744053478,
                -2.770758493280388,
                -0.5256797312946346,
                -3.062062108070942
            ]
        },
        {
            "positions": [
                -0.15174222811341156,
                -2.2386534988747764,
                -1.259838287334804,
                -2.8412538545472628,
                -0.3456446070963204,
                -3.057732870793177
            ]
        },
        {
            "positions": [
                -0.16840147210447015,
                -2.25463402922831,
                -1.1787368306161299,
                -2.9117492158141376,
                -0.16560948289800592,
                -3.053403633515411
            ]
        }
    ]
}