{
    "goal": {
        "global_pose": {
            "orientation": {
                "w": 0.005598929693374612,
                "x": 0.007748599140229565,
                "y": 0.7110244013736278,
                "z": -0.7031023480610252
            },
            "position": {
                "x": 0.1141497679147869,
                "y": -0.7141253447532654,
                "z": 0.3711530566215515
            }
        },
        "name": "move_to_auspresseinheit_B"
    },
    "id": "LBKPIECE_move_to_auspresseinheit_B_110",
    "joint_names": [
        "shoulder_pan_joint",
        "shoulder_lift_joint",
        "elbow_joint",
        "wrist_1_joint",
        "wrist_2_joint",
        "wrist_3_joint"
    ],
    "metrics": {
        "cart_traj_len": 0.5645657325602169,
        "distance_elbow_joint": 0.06408960704056188,
        "distance_shoulder_lift_joint": 0.2941727688390303,
        "distance_shoulder_pan_joint": 0.5789417681049069,
        "distance_wrist_1_joint": 0.3352400156648664,
        "distance_wrist_2_joint": 0.9844404223119587,
        "distance_wrist_3_joint": 0.0069794858474496735,
        "smoothness": 5.075305295617109e-16,
        "time": 0.337651044,
        "traj_len": 1.504614258808142,
        "weighted_distance": 1.8967085905537777
    },
    "planner": "LBKPIECE",
    "start": {
        "state": {
            "elbow_joint": 2.0193061681459312,
            "shoulder_lift_joint": -1.1220205130644991,
            "shoulder_pan_joint": -1.0952072088045026,
            "wrist_1_joint": -0.8559671810662515,
            "wrist_2_joint": 0.4759638712940361,
            "wrist_3_joint": 3.159081874192446
        }
    },
    "waypoints": [
        {
            "positions": [
                -1.0952072088045026,
                -1.1220205130644991,
                2.0193061681459312,
                -0.8559671810662515,
                0.4759638712940361,
                3.159081874192446
            ]
        },
        {
            "positions": [
                -1.1916975034886539,
                -1.1710493078710043,
                2.0086245669725042,
                -0.8000938451221071,
                0.6400372750126959,
                3.1579186265512043
            ]
        },
        {
            "positions": [
                -1.288187798172805,
                -1.2200781026775092,
                1.9979429657990773,
                -0.7442205091779627,
                0.8041106787313557,
                3.156755378909963
            ]
        },
        {
            "positions": [
                -1.384678092856956,
                -1.2691068974840143,
                1.9872613646256503,
                -0.6883471732338182,
                0.9681840824500154,
                3.155592131268721
            ]
        },
        {
            "positions": [
                -1.4811683875411072,
                -1.3181356922905194,
                1.9765797634522233,
                -0.6324738372896739,
                1.1322574861686752,
                3.1544288836274794
            ]
        },
        {
            "positions": [
                -1.5776586822252585,
                -1.3671644870970243,
                1.9658981622787963,
                -0.5766005013455295,
                1.2963308898873351,
                3.153265635986238
            ]
        },
        {
            "positions": [
                -1.6741489769094096,
                -1.4161932819035294,
                1.9552165611053693,
                -0.5207271654013851,
                1.4604042936059949,
                3.1521023883449963
            ]
        }
    ]
}