{
    "goal": {
        "global_pose": {
            "orientation": {
                "w": 0.005598929693374612,
                "x": 0.007748599140229565,
                "y": 0.7110244013736278,
                "z": -0.7031023480610252
            },
            "position": {
                "x": -0.8858502320852131,
                "y": -0.7141253447532654,
                "z": 0.3711530566215515
            }
        },
        "name": "move_to_auspresseinheit_C"
    },
    "id": "ProjEST_move_to_auspresseinheit_C_60",
    "joint_names": [
        "shoulder_pan_joint",
        "shoulder_lift_joint",
        "elbow_joint",
        "wrist_1_joint",
        "wrist_2_joint",
        "wrist_3_joint"
    ],
    "metrics": {
        "cart_traj_len": 0.4938243814255551,
        "distance_elbow_joint": 1.005027786973327,
        "distance_shoulder_lift_joint": 0.3266659720070141,
        "distance_shoulder_pan_joint": 0.25655502764257365,
        "distance_wrist_1_joint": 0.6884405176569702,
        "distance_wrist_2_joint": 1.302437429645696,
        "distance_wrist_3_joint": 0.07388074972644398,
        "smoothness": 9.689219149575435e-16,
        "time": 0.420934595,
        "traj_len": 1.9112842498309939,
        "weighted_distance": 2.4065840792308877
    },
    "planner": "ProjEST",
    "start": {
        "state": {
            "elbow_joint": 1.7527959577730765,
            "shoulder_lift_joint": -0.9740617694224828,
            "shoulder_pan_joint": -2.967991417825869,
            "wrist_1_joint": -0.7595177689779385,
            "wrist_2_joint": 1.7443932448376545,
            "wrist_3_joint": 3.1991315425061013
        }
    },
    "waypoints": [
        {
            "positions": [
                -2.967991417825869,
                -0.9740617694224828,
                1.7527959577730765,
                -0.7595177689779385,
                1.7443932448376545,
                3.1991315425061013
            ]
        },
        {
            "positions": [
                -2.9423359150616117,
                -0.9413951722217814,
                1.6522931790757438,
                -0.6906737172122415,
                1.614149501873085,
                3.191743467533457
            ]
        },
        {
            "positions": [
                -2.9166804122973544,
                -0.90872857502108,
                1.551790400378411,
                -0.6218296654465445,
                1.4839057589085152,
                3.1843553925608123
            ]
        },
        {
            "positions": [
                -2.891024909533097,
                -0.8760619778203785,
                1.4512876216810784,
                -0.5529856136808475,
                1.3536620159439456,
                3.176967317588168
            ]
        },
        {
            "positions": [
                -2.8653694067688398,
                -0.8433953806196771,
                1.3507848429837457,
                -0.48414156191515045,
                1.223418272979376,
                3.169579242615524
            ]
        },
        {
            "positions": [
                -2.839713904004582,
                -0.8107287834189758,
                1.250282064286413,
                -0.41529751014945343,
                1.0931745300148066,
                3.162191167642879
            ]
        },
        {
            "positions": [
                -2.8140584012403247,
                -0.7780621862182744,
                1.1497792855890803,
                -0.3464534583837564,
                0.9629307870502369,
                3.154803092670235
            ]
        },
        {
            "positions": [
                -2.7884028984760674,
                -0.745395589017573,
                1.0492765068917476,
                -0.27760940661805944,
                0.8326870440856673,
                3.1474150176975906
            ]
        },
        {
            "positions": [
                -2.76274739571181,
                -0.7127289918168715,
                0.9487737281944149,
                -0.20876535485236236,
                0.7024433011210975,
                3.1400269427249463
            ]
        },
        {
            "positions": [
                -2.7370918929475527,
                -0.6800623946161701,
                0.8482709494970821,
                -0.13992130308666528,
                0.572199558156528,
                3.1326388677523016
            ]
        },
        {
            "positions": [
                -2.7114363901832954,
                -0.6473957974154687,
                0.7477681707997493,
                -0.07107725132096827,
                0.4419558151919585,
                3.1252507927796573
            ]
        }
    ]
}