{
    "goal": {
        "global_pose": {
            "orientation": {
                "w": 0.7031023502349854,
                "x": -0.7110244035720825,
                "y": 0.007748599164187908,
                "z": 0.005598929710686207
            },
            "position": {
                "x": 0.11585023208521307,
                "y": 0.44412534475326537,
                "z": 0.3711530566215515
            }
        },
        "name": "move_to_auspresseinheit_A"
    },
    "id": "ProjEST_move_to_auspresseinheit_A_84",
    "joint_names": [
        "shoulder_pan_joint",
        "shoulder_lift_joint",
        "elbow_joint",
        "wrist_1_joint",
        "wrist_2_joint",
        "wrist_3_joint"
    ],
    "metrics": {
        "cart_traj_len": 0.7300930533507635,
        "distance_elbow_joint": 0.19592448123239548,
        "distance_shoulder_lift_joint": 0.5323220512025282,
        "distance_shoulder_pan_joint": 1.0488147920271547,
        "distance_wrist_1_joint": 0.608312042909837,
        "distance_wrist_2_joint": 0.5094588773114873,
        "distance_wrist_3_joint": 0.22084020548026073,
        "smoothness": 0.5133352300843192,
        "time": 0.9881788939999999,
        "traj_len": 1.7651267518690161,
        "weighted_distance": 2.1622034551229237
    },
    "planner": "ProjEST",
    "start": {
        "state": {
            "elbow_joint": 2.4225746994637096,
            "shoulder_lift_joint": -1.373653595662188,
            "shoulder_pan_joint": -0.3378633848294565,
            "wrist_1_joint": -1.0288595594406726,
            "wrist_2_joint": 1.2330228066703421,
            "wrist_3_joint": 3.189163495502006
        }
    },
    "waypoints": [
        {
            "positions": [
                -0.3378633848294565,
                -1.373653595662188,
                2.4225746994637096,
                -1.0288595594406726,
                1.2330228066703421,
                3.189163495502006
            ]
        },
        {
            "positions": [
                -0.205253963054916,
                -1.4472677910655807,
                2.4062495785823073,
                -0.94434975506223,
                1.1666418447065874,
                3.169140145168298
            ]
        },
        {
            "positions": [
                -0.07264454128037551,
                -1.5208819864689733,
                2.389924457700905,
                -0.8598399506837873,
                1.1002608827428326,
                3.14911679483459
            ]
        },
        {
            "positions": [
                0.059964880494164985,
                -1.594496181872366,
                2.3735993368195025,
                -0.7753301463053446,
                1.0338799207790779,
                3.129093444500882
            ]
        },
        {
            "positions": [
                0.19257430226870548,
                -1.6681103772757586,
                2.3572742159380997,
                -0.6908203419269019,
                0.9674989588153231,
                3.1090700941671736
            ]
        },
        {
            "positions": [
                0.3251837240432461,
                -1.7417245726791513,
                2.3409490950566973,
                -0.6063105375484592,
                0.9011179968515683,
                3.0890467438334657
            ]
        },
        {
            "positions": [
                0.45779314581778646,
                -1.815338768082544,
                2.324623974175295,
                -0.5218007331700166,
                0.8347370348878136,
                3.0690233934997577
            ]
        },
        {
            "positions": [
                0.5904025675923271,
                -1.8889529634859366,
                2.3082988532938926,
                -0.43729092879157394,
                0.7683560729240588,
                3.0490000431660498
            ]
        },
        {
            "positions": [
                0.7109514071976981,
                -1.9059756468647162,
                2.389947488356471,
                -0.4540343410523123,
                0.7235639293588548,
                3.1296767963103544
            ]
        }
    ]
}