{
    "goal": {
        "global_pose": {
            "orientation": {
                "w": -0.00223480608172531,
                "x": 0.0024358444001904467,
                "y": 0.7094548369677653,
                "z": -0.704743149386269
            },
            "position": {
                "x": 0.6205249238014221,
                "y": -0.6371506643295288,
                "z": 0.19426114857196808
            }
        },
        "name": "move_to_magneteinheit_B"
    },
    "id": "ProjEST_move_to_magneteinheit_B_140",
    "joint_names": [
        "shoulder_pan_joint",
        "shoulder_lift_joint",
        "elbow_joint",
        "wrist_1_joint",
        "wrist_2_joint",
        "wrist_3_joint"
    ],
    "metrics": {
        "cart_traj_len": 1.4523595894455037,
        "distance_elbow_joint": 0.723825184847293,
        "distance_shoulder_lift_joint": 1.2443358308189327,
        "distance_shoulder_pan_joint": 1.6205705967946753,
        "distance_wrist_1_joint": 2.62027252225215,
        "distance_wrist_2_joint": 2.9392421224185865,
        "distance_wrist_3_joint": 3.144666742178718,
        "smoothness": 3.498884688597863e-16,
        "time": 0.095390594,
        "traj_len": 3.506125068977198,
        "weighted_distance": 4.913426617783005
    },
    "planner": "ProjEST",
    "start": {
        "state": {
            "elbow_joint": 2.393587130804639,
            "shoulder_lift_joint": -1.9085141043513325,
            "shoulder_pan_joint": 0.7066247066698809,
            "wrist_1_joint": -0.4678290934590222,
            "wrist_2_joint": 0.7096259084215963,
            "wrist_3_joint": 3.147370379541726
        }
    },
    "waypoints": [
        {
            "positions": [
                0.7066247066698809,
                -1.9085141043513325,
                2.393587130804639,
                -0.4678290934590222,
                0.7096259084215963,
                3.147370379541726
            ]
        },
        {
            "positions": [
                0.6559818755200473,
                -1.8696286096382408,
                2.3709675937781607,
                -0.3859455771386425,
                0.6177745920960155,
                3.0490995438486412
            ]
        },
        {
            "positions": [
                0.6053390443702137,
                -1.8307431149251492,
                2.348348056751683,
                -0.3040620608182628,
                0.5259232757704346,
                2.950828708155556
            ]
        },
        {
            "positions": [
                0.5546962132203801,
                -1.7918576202120575,
                2.325728519725205,
                -0.22217854449788313,
                0.4340719594448539,
                2.852557872462471
            ]
        },
        {
            "positions": [
                0.5040533820705464,
                -1.7529721254989659,
                2.303108982698727,
                -0.14029502817750344,
                0.342220643119273,
                2.7542870367693864
            ]
        },
        {
            "positions": [
                0.45341055092071286,
                -1.7140866307858742,
                2.280489445672249,
                -0.05841151185712373,
                0.25036932679369217,
                2.6560162010763015
            ]
        },
        {
            "positions": [
                0.4027677197708792,
                -1.6752011360727825,
                2.2578699086457714,
                0.023472004463255924,
                0.15851801046811143,
                2.5577453653832163
            ]
        },
        {
            "positions": [
                0.35212488862104563,
                -1.6363156413596909,
                2.2352503716192933,
                0.10535552078363558,
                0.06666669414253057,
                2.4594745296901315
            ]
        },
        {
            "positions": [
                0.30148205747121204,
                -1.5974301466465994,
                2.2126308345928156,
                0.1872390371040153,
                -0.025184622183050287,
                2.3612036939970467
            ]
        },
        {
            "positions": [
                0.25083922632137845,
                -1.5585446519335076,
                2.1900112975663375,
                0.269122553424395,
                -0.11703593850863114,
                2.2629328583039614
            ]
        },
        {
            "positions": [
                0.20019639517154486,
                -1.5196591572204161,
                2.16739176053986,
                0.3510060697447747,
                -0.208887254834212,
                2.1646620226108766
            ]
        },
        {
            "positions": [
                0.14955356402171127,
                -1.4807736625073245,
                2.1447722235133817,
                0.4328895860651543,
                -0.30073857115979274,
                2.0663911869177918
            ]
        },
        {
            "positions": [
                0.09891073287187757,
                -1.4418881677942328,
                2.122152686486904,
                0.514773102385534,
                -0.3925898874853735,
                1.9681203512247067
            ]
        },
        {
            "positions": [
                0.04826790172204398,
                -1.4030026730811411,
                2.099533149460426,
                0.5966566187059137,
                -0.48444120381095446,
                1.869849515531622
            ]
        },
        {
            "positions": [
                -0.002374929427789607,
                -1.3641171783680495,
                2.0769136124339482,
                0.6785401350262934,
                -0.5762925201365352,
                1.771578679838537
            ]
        },
        {
            "positions": [
                -0.053017760577623196,
                -1.3252316836549578,
                2.05429407540747,
                0.7604236513466731,
                -0.6681438364621162,
                1.673307844145452
            ]
        },
        {
            "positions": [
                -0.10366059172745679,
                -1.2863461889418661,
                2.0316745383809924,
                0.8423071676670528,
                -0.7599951527876969,
                1.575037008452367
            ]
        },
        {
            "positions": [
                -0.15430342287729037,
                -1.2474606942287745,
                2.0090550013545143,
                0.9241906839874325,
                -0.8518464691132777,
                1.476766172759282
            ]
        },
        {
            "positions": [
                -0.20494625402712396,
                -1.2085751995156828,
                1.9864354643280366,
                1.0060742003078122,
                -0.9436977854388586,
                1.3784953370661972
            ]
        },
        {
            "positions": [
                -0.25558908517695755,
                -1.1696897048025912,
                1.9638159273015585,
                1.087957716628192,
                -1.0355491017644394,
                1.2802245013731122
            ]
        },
        {
            "positions": [
                -0.30623191632679114,
                -1.1308042100894995,
                1.9411963902750808,
                1.1698412329485717,
                -1.1274004180900203,
                1.1819536656800274
            ]
        },
        {
            "positions": [
                -0.35687474747662484,
                -1.091918715376408,
                1.9185768532486027,
                1.2517247492689512,
                -1.219251734415601,
                1.0836828299869423
            ]
        },
        {
            "positions": [
                -0.4075175786264583,
                -1.0530332206633162,
                1.8959573162221248,
                1.3336082655893309,
                -1.3111030507411818,
                0.9854119942938575
            ]
        },
        {
            "positions": [
                -0.458160409776292,
                -1.0141477259502247,
                1.873337779195647,
                1.4154917819097106,
                -1.4029543670667628,
                0.8871411586007727
            ]
        },
        {
            "positions": [
                -0.5088032409261257,
                -0.975262231237133,
                1.850718242169169,
                1.4973752982300903,
                -1.4948056833923433,
                0.7888703229076874
            ]
        },
        {
            "positions": [
                -0.5594460720759592,
                -0.9363767365240413,
                1.8280987051426911,
                1.5792588145504698,
                -1.5866569997179243,
                0.6905994872146026
            ]
        },
        {
            "positions": [
                -0.6100889032257929,
                -0.8974912418109497,
                1.8054791681162132,
                1.6611423308708495,
                -1.6785083160435053,
                0.5923286515215178
            ]
        },
        {
            "positions": [
                -0.6607317343756264,
                -0.8586057470978581,
                1.7828596310897353,
                1.7430258471912292,
                -1.7703596323690862,
                0.49405781582843256
            ]
        },
        {
            "positions": [
                -0.7113745655254601,
                -0.8197202523847664,
                1.7602400940632574,
                1.824909363511609,
                -1.8622109486946667,
                0.39578698013534774
            ]
        },
        {
            "positions": [
                -0.7620173966752936,
                -0.7808347576716748,
                1.7376205570367795,
                1.9067928798319886,
                -1.9540622650202477,
                0.29751614444226293
            ]
        },
        {
            "positions": [
                -0.8126602278251273,
                -0.7419492629585831,
                1.7150010200103016,
                1.9886763961523684,
                -2.045913581345829,
                0.19924530874917812
            ]
        },
        {
            "positions": [
                -0.8633030589749607,
                -0.7030637682454914,
                1.6923814829838237,
                2.070559912472748,
                -2.137764897671409,
                0.10097447305609286
            ]
        },
        {
            "positions": [
                -0.9139458901247944,
                -0.6641782735323997,
                1.6697619459573458,
                2.1524434287931276,
                -2.22961621399699,
                0.0027036373630078487
            ]
        }
    ]
}