{
    "goal": {
        "global_pose": {
            "orientation": {
                "w": 0.7031023502349854,
                "x": -0.7110244035720825,
                "y": 0.007748599164187908,
                "z": 0.005598929710686207
            },
            "position": {
                "x": 0.11585023208521307,
                "y": 0.44412534475326537,
                "z": 0.3711530566215515
            }
        },
        "name": "move_to_auspresseinheit_A"
    },
    "id": "ProjEST_move_to_auspresseinheit_A_15",
    "joint_names": [
        "shoulder_pan_joint",
        "shoulder_lift_joint",
        "elbow_joint",
        "wrist_1_joint",
        "wrist_2_joint",
        "wrist_3_joint"
    ],
    "metrics": {
        "cart_traj_len": 0.8362052109933265,
        "distance_elbow_joint": 0.445579932539232,
        "distance_shoulder_lift_joint": 0.5803099549824062,
        "distance_shoulder_pan_joint": 1.040150625979447,
        "distance_wrist_1_joint": 0.5455356570710889,
        "distance_wrist_2_joint": 1.6289247693121545,
        "distance_wrist_3_joint": 3.4659328461411474,
        "smoothness": 1.0168593338025214,
        "time": 0.6549386150000001,
        "traj_len": 2.776046430812258,
        "weighted_distance": 4.100336559929077
    },
    "planner": "ProjEST",
    "start": {
        "state": {
            "elbow_joint": 2.4225746994637096,
            "shoulder_lift_joint": -1.373653595662188,
            "shoulder_pan_joint": -0.3378633848294565,
            "wrist_1_joint": -1.0288595594406726,
            "wrist_2_joint": 1.2330228066703421,
            "wrist_3_joint": 3.189163495502006
        }
    },
    "waypoints": [
        {
            "positions": [
                -0.3378633848294565,
                -1.373653595662188,
                2.4225746994637096,
                -1.0288595594406726,
                1.2330228066703421,
                3.189163495502006
            ]
        },
        {
            "positions": [
                -0.2997056578342871,
                -1.420219321376053,
                2.4029915530660415,
                -1.0015353153886128,
                1.142772973874024,
                3.0438091476278375
            ]
        },
        {
            "positions": [
                -0.26154793083911776,
                -1.466785047089918,
                2.383408406668373,
                -0.9742110713365532,
                1.052523141077706,
                2.8984547997536687
            ]
        },
        {
            "positions": [
                -0.22339020384394834,
                -1.5133507728037827,
                2.363825260270705,
                -0.9468868272844935,
                0.962273308281388,
                2.7531004518795
            ]
        },
        {
            "positions": [
                -0.18523247684877897,
                -1.5599164985176477,
                2.3442421138730367,
                -0.9195625832324337,
                0.87202347548507,
                2.6077461040053316
            ]
        },
        {
            "positions": [
                -0.14707474985360955,
                -1.6064822242315127,
                2.3246589674753686,
                -0.892238339180374,
                0.7817736426887519,
                2.462391756131163
            ]
        },
        {
            "positions": [
                -0.10891702285844018,
                -1.6530479499453776,
                2.3050758210777005,
                -0.8649140951283143,
                0.6915238098924339,
                2.3170374082569944
            ]
        },
        {
            "positions": [
                -0.07075929586327079,
                -1.6996136756592426,
                2.285492674680032,
                -0.8375898510762545,
                0.6012739770961159,
                2.1716830603828257
            ]
        },
        {
            "positions": [
                -0.03260156886810145,
                -1.7461794013731073,
                2.265909528282364,
                -0.8102656070241948,
                0.5110241442997978,
                2.0263287125086573
            ]
        },
        {
            "positions": [
                0.005556158127067945,
                -1.7927451270869725,
                2.2463263818846957,
                -0.782941362972135,
                0.42077431150347977,
                1.8809743646344885
            ]
        },
        {
            "positions": [
                0.043713885122237395,
                -1.8393108528008373,
                2.226743235487027,
                -0.7556171189200753,
                0.33052447870716173,
                1.73562001676032
            ]
        },
        {
            "positions": [
                0.08187161211740673,
                -1.8858765785147023,
                2.207160089089359,
                -0.7282928748680155,
                0.2402746459108437,
                1.5902656688861514
            ]
        },
        {
            "positions": [
                0.12002933911257613,
                -1.9324423042285672,
                2.187576942691691,
                -0.7009686308159558,
                0.15002481311452565,
                1.4449113210119828
            ]
        },
        {
            "positions": [
                0.18472466156117773,
                -1.9300510546267864,
                2.2109749622213815,
                -0.6767858832108034,
                0.21068334375411873,
                1.6362091734176634
            ]
        },
        {
            "positions": [
                0.2494199840097793,
                -1.9276598050250056,
                2.2343729817510716,
                -0.652603135605651,
                0.2713418743937118,
                1.8275070258233437
            ]
        },
        {
            "positions": [
                0.3141153064583809,
                -1.925268555423225,
                2.257771001280762,
                -0.6284203880004985,
                0.33200040503330497,
                2.018804878229024
            ]
        },
        {
            "positions": [
                0.37881062890698247,
                -1.9228773058214441,
                2.2811690208104523,
                -0.604237640395346,
                0.39265893567289806,
                2.2101027306347047
            ]
        },
        {
            "positions": [
                0.4435059513555841,
                -1.9204860562196633,
                2.304567040340143,
                -0.5800548927901936,
                0.4533174663124912,
                2.4014005830403855
            ]
        },
        {
            "positions": [
                0.5082012738041857,
                -1.9180948066178825,
                2.327965059869833,
                -0.5558721451850411,
                0.5139759969520843,
                2.5926984354460654
            ]
        },
        {
            "positions": [
                0.5728965962527872,
                -1.9157035570161018,
                2.3513630793995235,
                -0.5316893975798886,
                0.5746345275916773,
                2.783996287851746
            ]
        },
        {
            "positions": [
                0.6375919187013888,
                -1.913312307414321,
                2.3747610989292136,
                -0.5075066499747363,
                0.6352930582312705,
                2.975294140257427
            ]
        },
        {
            "positions": [
                0.7022872411499904,
                -1.9109210578125402,
                2.398159118458904,
                -0.4833239023695838,
                0.6959515888708636,
                3.166591992663107
            ]
        }
    ]
}