{
    "goal": {
        "global_pose": {
            "orientation": {
                "w": 0.7047431493862688,
                "x": -0.7094548369677653,
                "y": 0.0024358444001904,
                "z": -0.0022348060817251984
            },
            "position": {
                "x": -0.39052492380142206,
                "y": 0.3671506643295288,
                "z": 0.19426114857196808
            }
        },
        "name": "move_to_magneteinheit_D"
    },
    "id": "ProjEST_move_to_magneteinheit_D_1",
    "joint_names": [
        "shoulder_pan_joint",
        "shoulder_lift_joint",
        "elbow_joint",
        "wrist_1_joint",
        "wrist_2_joint",
        "wrist_3_joint"
    ],
    "metrics": {
        "cart_traj_len": 4.785385647773782,
        "distance_elbow_joint": 3.110893214299006,
        "distance_shoulder_lift_joint": 1.2812259589037676,
        "distance_shoulder_pan_joint": 3.944961950820711,
        "distance_wrist_1_joint": 4.749538203416366,
        "distance_wrist_2_joint": 0.6043077878400102,
        "distance_wrist_3_joint": 0.2113397295540933,
        "smoothness": 0.8478088059544393,
        "time": 0.555308627,
        "traj_len": 3.7285743716377655,
        "weighted_distance": 4.436078481632006
    },
    "planner": "ProjEST",
    "start": {
        "state": {
            "elbow_joint": 0.7495348899011911,
            "shoulder_lift_joint": -0.6476975780737668,
            "shoulder_pan_joint": -2.711696901376276,
            "wrist_1_joint": -0.0750647808097303,
            "wrist_2_joint": 0.43296659715458535,
            "wrist_3_joint": 3.1361499051832418
        }
    },
    "waypoints": [
        {
            "positions": [
                -2.711696901376276,
                -0.6476975780737668,
                0.7495348899011911,
                -0.0750647808097303,
                0.43296659715458535,
                3.1361499051832418
            ]
        },
        {
            "positions": [
                -2.7078760947892726,
                -0.6343213442963876,
                0.6923626248492027,
                0.07618508394756708,
                0.32432222554540935,
                3.1361138281232175
            ]
        },
        {
            "positions": [
                -2.704055288202269,
                -0.6209451105190085,
                0.6351903597972143,
                0.22743494870486447,
                0.21567785393623332,
                3.1360777510631928
            ]
        },
        {
            "positions": [
                -2.700234481615265,
                -0.6075688767416294,
                0.5780180947452259,
                0.37868481346216176,
                0.10703348232705734,
                3.1360416740031685
            ]
        },
        {
            "positions": [
                -2.6964136750282615,
                -0.5941926429642502,
                0.5208458296932374,
                0.5299346782194592,
                -0.0016108892821187215,
                3.1360055969431437
            ]
        },
        {
            "positions": [
                -2.692592868441258,
                -0.580816409186871,
                0.4636735646412491,
                0.6811845429767565,
                -0.11025526089129467,
                3.1359695198831194
            ]
        },
        {
            "positions": [
                -2.65388852685755,
                -0.6104601506803062,
                0.37451494281855835,
                0.7834985848758107,
                -0.11051378357511812,
                3.1107457993529906
            ]
        },
        {
            "positions": [
                -2.615184185273842,
                -0.6401038921737415,
                0.28535632099586755,
                0.8858126267748649,
                -0.11077230625894158,
                3.0855220788228617
            ]
        },
        {
            "positions": [
                -2.494476661910542,
                -0.6835794258839164,
                0.20073745671584398,
                0.7541044816202875,
                -0.11211031246138879,
                3.089702560485912
            ]
        },
        {
            "positions": [
                -2.3737691385472424,
                -0.7270549595940913,
                0.11611859243582037,
                0.6223963364657101,
                -0.113448318663836,
                3.093883042148962
            ]
        },
        {
            "positions": [
                -2.253061615183942,
                -0.7705304933042662,
                0.031499728155796825,
                0.4906881913111327,
                -0.11478632486628322,
                3.0980635238120118
            ]
        },
        {
            "positions": [
                -2.132354091820642,
                -0.814006027014441,
                -0.05311913612422681,
                0.3589800461565553,
                -0.11612433106873044,
                3.102244005475062
            ]
        },
        {
            "positions": [
                -2.0116465684573424,
                -0.8574815607246159,
                -0.13773800040425038,
                0.22727190100197792,
                -0.11746233727117765,
                3.106424487138112
            ]
        },
        {
            "positions": [
                -1.8909390450940422,
                -0.9009570944347908,
                -0.2223568646842739,
                0.09556375584740051,
                -0.11880034347362486,
                3.1106049688011623
            ]
        },
        {
            "positions": [
                -1.7702315217307423,
                -0.9444326281449656,
                -0.30697572896429753,
                -0.036144389307176894,
                -0.12013834967607206,
                3.1147854504642125
            ]
        },
        {
            "positions": [
                -1.6495239983674423,
                -0.9879081618551405,
                -0.39159459324432117,
                -0.1678525344617543,
                -0.12147635587851928,
                3.1189659321272623
            ]
        },
        {
            "positions": [
                -1.5288164750041422,
                -1.0313836955653155,
                -0.4762134575243447,
                -0.2995606796163317,
                -0.1228143620809665,
                3.1231464137903124
            ]
        },
        {
            "positions": [
                -1.4081089516408423,
                -1.0748592292754902,
                -0.5608323218043683,
                -0.4312688247709091,
                -0.12415236828341371,
                3.1273268954533626
            ]
        },
        {
            "positions": [
                -1.2874014282775423,
                -1.1183347629856653,
                -0.6454511860843919,
                -0.5629769699254865,
                -0.12549037448586092,
                3.131507377116413
            ]
        },
        {
            "positions": [
                -1.1666939049142422,
                -1.16181029669584,
                -0.7300700503644153,
                -0.6946851150800639,
                -0.12682838068830815,
                3.135687858779463
            ]
        },
        {
            "positions": [
                -1.0459863815509423,
                -1.205285830406015,
                -0.8146889146444389,
                -0.8263932602346413,
                -0.12816638689075535,
                3.139868340442513
            ]
        },
        {
            "positions": [
                -0.9252788581876423,
                -1.2487613641161897,
                -0.8993077789244626,
                -0.9581014053892187,
                -0.12950439309320255,
                3.144048822105563
            ]
        },
        {
            "positions": [
                -0.8045713348243424,
                -1.2922368978263645,
                -0.983926643204486,
                -1.089809550543796,
                -0.13084239929564978,
                3.148229303768613
            ]
        },
        {
            "positions": [
                -0.6838638114610422,
                -1.3357124315365394,
                -1.0685455074845098,
                -1.2215176956983735,
                -0.13218040549809698,
                3.1524097854316633
            ]
        },
        {
            "positions": [
                -0.5631562880977423,
                -1.3791879652467145,
                -1.1531643717645332,
                -1.353225840852951,
                -0.1335184117005442,
                3.1565902670947135
            ]
        },
        {
            "positions": [
                -0.44244876473444217,
                -1.4226634989568891,
                -1.2377832360445569,
                -1.4849339860075284,
                -0.1348564179029914,
                3.1607707487577636
            ]
        },
        {
            "positions": [
                -0.32174124137114246,
                -1.4661390326670642,
                -1.3224021003245803,
                -1.6166421311621058,
                -0.13619442410543864,
                3.1649512304208134
            ]
        },
        {
            "positions": [
                -0.2010337180078423,
                -1.509614566377239,
                -1.4070209646046041,
                -1.7483502763166832,
                -0.13753243030788584,
                3.1691317120838636
            ]
        },
        {
            "positions": [
                -0.08032619464454216,
                -1.553090100087414,
                -1.4916398288846275,
                -1.8800584214712606,
                -0.13887043651033307,
                3.1733121937469138
            ]
        },
        {
            "positions": [
                0.04038132871875755,
                -1.5965656337975886,
                -1.5762586931646512,
                -2.011766566625838,
                -0.14020844271278027,
                3.177492675409964
            ]
        },
        {
            "positions": [
                0.1610888520820577,
                -1.6400411675077637,
                -1.6608775574446746,
                -2.1434747117804154,
                -0.1415464489152275,
                3.181673157073014
            ]
        },
        {
            "positions": [
                0.28179637544535785,
                -1.6835167012179384,
                -1.7454964217246982,
                -2.275182856934993,
                -0.1428844551176747,
                3.185853638736064
            ]
        },
        {
            "positions": [
                0.402503898808658,
                -1.7269922349281135,
                -1.830115286004722,
                -2.40689100208957,
                -0.1442224613201219,
                3.190034120399114
            ]
        },
        {
            "positions": [
                0.5232114221719577,
                -1.7704677686382881,
                -1.9147341502847457,
                -2.5385991472441476,
                -0.14556046752256913,
                3.1942146020621642
            ]
        },
        {
            "positions": [
                0.38120069671746204,
                -1.7655290825251972,
                -2.0040589851073594,
                -2.4657493428815958,
                -0.15071661215514046,
                3.183810726071282
            ]
        },
        {
            "positions": [
                0.23918997126296637,
                -1.7605903964121064,
                -2.093383819929973,
                -2.3928995385190444,
                -0.15587275678771179,
                3.1734068500804
            ]
        },
        {
            "positions": [
                0.0971792458084707,
                -1.7556517102990152,
                -2.182708654752587,
                -2.3200497341564925,
                -0.1610289014202831,
                3.163002974089518
            ]
        },
        {
            "positions": [
                -0.04483147964602496,
                -1.7507130241859243,
                -2.272033489575201,
                -2.247199929793941,
                -0.16618504605285442,
                3.152599098098636
            ]
        },
        {
            "positions": [
                -0.18684220510052063,
                -1.7457743380728334,
                -2.3613583243978145,
                -2.1743501254313893,
                -0.17134119068542575,
                3.1421952221077536
            ]
        }
    ]
}