{
    "goal": {
        "global_pose": {
            "orientation": {
                "w": 0.5084816217422485,
                "x": -0.49083608388900757,
                "y": 0.5182115435600281,
                "z": -0.4816462993621826
            },
            "position": {
                "x": 0.5540239810943604,
                "y": 0.030875300988554955,
                "z": 0.16403168439865112
            }
        },
        "name": "move_to_storage_A"
    },
    "id": "ProjEST_move_to_storage_A_100",
    "joint_names": [
        "shoulder_pan_joint",
        "shoulder_lift_joint",
        "elbow_joint",
        "wrist_1_joint",
        "wrist_2_joint",
        "wrist_3_joint"
    ],
    "metrics": {
        "cart_traj_len": 0.3526690650830379,
        "distance_elbow_joint": 0.4471990555147227,
        "distance_shoulder_lift_joint": 0.23309834576726862,
        "distance_shoulder_pan_joint": 0.4619658925008941,
        "distance_wrist_1_joint": 0.2370032305762355,
        "distance_wrist_2_joint": 1.0932621367763624,
        "distance_wrist_3_joint": 0.09606381347100834,
        "smoothness": 1.1102230263833737e-15,
        "time": 0.08632936999999999,
        "traj_len": 1.602682898956151,
        "weighted_distance": 2.0226184684465593
    },
    "planner": "ProjEST",
    "start": {
        "state": {
            "elbow_joint": 1.971548880431181,
            "shoulder_lift_joint": -1.1394869514688781,
            "shoulder_pan_joint": 0.12281150262730567,
            "wrist_1_joint": -0.7804693444481463,
            "wrist_2_joint": 0.12958644648617612,
            "wrist_3_joint": 3.0906942077768043
        }
    },
    "waypoints": [
        {
            "positions": [
                0.12281150262730567,
                -1.1394869514688781,
                1.971548880431181,
                -0.7804693444481463,
                0.12958644648617612,
                3.0906942077768043
            ]
        },
        {
            "positions": [
                0.05681637512717795,
                -1.1727867151499165,
                2.035434459790427,
                -0.81432694881618,
                0.28576675173994215,
                3.104417609701234
            ]
        },
        {
            "positions": [
                -0.009178752372949767,
                -1.2060864788309549,
                2.0993200391496734,
                -0.8481845531842136,
                0.44194705699370823,
                3.1181410116256636
            ]
        },
        {
            "positions": [
                -0.0751738798730775,
                -1.2393862425119933,
                2.1632056185089192,
                -0.8820421575522472,
                0.5981273622474743,
                3.1318644135500935
            ]
        },
        {
            "positions": [
                -0.1411690073732052,
                -1.2726860061930316,
                2.227091197868165,
                -0.9158997619202809,
                0.7543076675012403,
                3.1455878154745234
            ]
        },
        {
            "positions": [
                -0.20716413487333296,
                -1.30598576987407,
                2.2909767772274114,
                -0.9497573662883145,
                0.9104879727550065,
                3.1593112173989533
            ]
        },
        {
            "positions": [
                -0.27315926237346067,
                -1.3392855335551084,
                2.3548623565866578,
                -0.9836149706563482,
                1.0666682780087724,
                3.1730346193233827
            ]
        },
        {
            "positions": [
                -0.3391543898735884,
                -1.3725852972361468,
                2.4187479359459036,
                -1.0174725750243818,
                1.2228485832625386,
                3.1867580212478126
            ]
        }
    ]
}