{
    "goal": {
        "global_pose": {
            "orientation": {
                "w": 0.005598929693374612,
                "x": 0.007748599140229565,
                "y": 0.7110244013736278,
                "z": -0.7031023480610252
            },
            "position": {
                "x": 0.1141497679147869,
                "y": -0.7141253447532654,
                "z": 0.3711530566215515
            }
        },
        "name": "move_to_auspresseinheit_B"
    },
    "id": "ProjEST_move_to_auspresseinheit_B_88",
    "joint_names": [
        "shoulder_pan_joint",
        "shoulder_lift_joint",
        "elbow_joint",
        "wrist_1_joint",
        "wrist_2_joint",
        "wrist_3_joint"
    ],
    "metrics": {
        "cart_traj_len": 0.5646686440174001,
        "distance_elbow_joint": 0.06207109023022017,
        "distance_shoulder_lift_joint": 0.295235765347019,
        "distance_shoulder_pan_joint": 0.5766371120249214,
        "distance_wrist_1_joint": 0.3227481963725839,
        "distance_wrist_2_joint": 0.9935860487929471,
        "distance_wrist_3_joint": 0.00014700749127838364,
        "smoothness": 5.075305255429287e-16,
        "time": 0.188657308,
        "traj_len": 1.5001417333902054,
        "weighted_distance": 1.8886644700441255
    },
    "planner": "ProjEST",
    "start": {
        "state": {
            "elbow_joint": 2.0193061681459312,
            "shoulder_lift_joint": -1.1220205130644991,
            "shoulder_pan_joint": -1.0952072088045026,
            "wrist_1_joint": -0.8559671810662515,
            "wrist_2_joint": 0.4759638712940361,
            "wrist_3_joint": 3.159081874192446
        }
    },
    "waypoints": [
        {
            "positions": [
                -1.0952072088045026,
                -1.1220205130644991,
                2.0193061681459312,
                -0.8559671810662515,
                0.4759638712940361,
                3.159081874192446
            ]
        },
        {
            "positions": [
                -1.1913133941419896,
                -1.171226473955669,
                2.0089609864408944,
                -0.8021758150041541,
                0.6415615460928606,
                3.1591063754409925
            ]
        },
        {
            "positions": [
                -1.2874195794794765,
                -1.2204324348468387,
                1.9986158047358578,
                -0.7483844489420568,
                0.8071592208916851,
                3.159130876689539
            ]
        },
        {
            "positions": [
                -1.3835257648169632,
                -1.2696383957380086,
                1.9882706230308211,
                -0.6945930828799596,
                0.9727568956905097,
                3.1591553779380854
            ]
        },
        {
            "positions": [
                -1.4796319501544501,
                -1.3188443566291785,
                1.9779254413257845,
                -0.6408017168178622,
                1.138354570489334,
                3.1591798791866315
            ]
        },
        {
            "positions": [
                -1.575738135491937,
                -1.3680503175203482,
                1.9675802596207477,
                -0.5870103507557649,
                1.3039522452881587,
                3.159204380435178
            ]
        },
        {
            "positions": [
                -1.671844320829424,
                -1.4172562784115181,
                1.957235077915711,
                -0.5332189846936676,
                1.4695499200869833,
                3.1592288816837244
            ]
        }
    ]
}