{
    "goal": {
        "global_pose": {
            "orientation": {
                "w": 0.7031023502349854,
                "x": -0.7110244035720825,
                "y": 0.007748599164187908,
                "z": 0.005598929710686207
            },
            "position": {
                "x": 0.11585023208521307,
                "y": 0.44412534475326537,
                "z": 0.3711530566215515
            }
        },
        "name": "move_to_auspresseinheit_A"
    },
    "id": "ProjEST_move_to_auspresseinheit_A_18",
    "joint_names": [
        "shoulder_pan_joint",
        "shoulder_lift_joint",
        "elbow_joint",
        "wrist_1_joint",
        "wrist_2_joint",
        "wrist_3_joint"
    ],
    "metrics": {
        "cart_traj_len": 1.48133854907909,
        "distance_elbow_joint": 1.283088274014737,
        "distance_shoulder_lift_joint": 0.7505469168810148,
        "distance_shoulder_pan_joint": 2.0780004694926273,
        "distance_wrist_1_joint": 1.1354646537232282,
        "distance_wrist_2_joint": 1.9884747178562396,
        "distance_wrist_3_joint": 5.735747584536615,
        "smoothness": 0.8275306115595038,
        "time": 0.721740895,
        "traj_len": 3.6015722422998073,
        "weighted_distance": 5.250405427884322
    },
    "planner": "ProjEST",
    "start": {
        "state": {
            "elbow_joint": 2.4225746994637096,
            "shoulder_lift_joint": -1.373653595662188,
            "shoulder_pan_joint": -0.3378633848294565,
            "wrist_1_joint": -1.0288595594406726,
            "wrist_2_joint": 1.2330228066703421,
            "wrist_3_joint": 3.189163495502006
        }
    },
    "waypoints": [
        {
            "positions": [
                -0.3378633848294565,
                -1.373653595662188,
                2.4225746994637096,
                -1.0288595594406726,
                1.2330228066703421,
                3.189163495502006
            ]
        },
        {
            "positions": [
                -0.366587996554974,
                -1.409313880489724,
                2.3860511634121817,
                -0.9813221220444706,
                1.1633729048968033,
                3.0282693061350465
            ]
        },
        {
            "positions": [
                -0.3953126082804915,
                -1.4449741653172599,
                2.349527627360654,
                -0.9337846846482685,
                1.0937230031232648,
                2.867375116768087
            ]
        },
        {
            "positions": [
                -0.42403722000600896,
                -1.4806344501447959,
                2.313004091309126,
                -0.8862472472520663,
                1.024073101349726,
                2.706480927401128
            ]
        },
        {
            "positions": [
                -0.4527618317315264,
                -1.5162947349723317,
                2.2764805552575975,
                -0.8387098098558642,
                0.9544231995761872,
                2.545586738034169
            ]
        },
        {
            "positions": [
                -0.48148644345704394,
                -1.5519550197998677,
                2.2399570192060696,
                -0.791172372459662,
                0.8847732978026484,
                2.3846925486672097
            ]
        },
        {
            "positions": [
                -0.5102110551825614,
                -1.5876153046274035,
                2.2034334831545417,
                -0.7436349350634599,
                0.8151233960291098,
                2.2237983593002504
            ]
        },
        {
            "positions": [
                -0.5389356669080789,
                -1.6232755894549395,
                2.1669099471030138,
                -0.6960974976672578,
                0.745473494255571,
                2.062904169933291
            ]
        },
        {
            "positions": [
                -0.5676602786335964,
                -1.6589358742824754,
                2.130386411051486,
                -0.6485600602710557,
                0.6758235924820323,
                1.9020099805663317
            ]
        },
        {
            "positions": [
                -0.5963848903591138,
                -1.6945961591100114,
                2.0938628749999575,
                -0.6010226228748536,
                0.6061736907084935,
                1.7411157911993724
            ]
        },
        {
            "positions": [
                -0.6251095020846313,
                -1.7302564439375474,
                2.0573393389484296,
                -0.5534851854786514,
                0.5365237889349547,
                1.5802216018324131
            ]
        },
        {
            "positions": [
                -0.6538341138101489,
                -1.7659167287650832,
                2.0208158028969017,
                -0.5059477480824494,
                0.466873887161416,
                1.4193274124654538
            ]
        },
        {
            "positions": [
                -0.6825587255356662,
                -1.801577013592619,
                1.9842922668453737,
                -0.45841031068624727,
                0.3972239853878773,
                1.2584332230984947
            ]
        },
        {
            "positions": [
                -0.7112833372611838,
                -1.837237298420155,
                1.9477687307938458,
                -0.41087287329004507,
                0.3275740836143385,
                1.0975390337315356
            ]
        },
        {
            "positions": [
                -0.7400079489867013,
                -1.872897583247691,
                1.911245194742318,
                -0.363335435893843,
                0.2579241818407998,
                0.9366448443645758
            ]
        },
        {
            "positions": [
                -0.7687325607122188,
                -1.9085578680752269,
                1.8747216586907898,
                -0.3157979984976409,
                0.188274280067261,
                0.7757506549976165
            ]
        },
        {
            "positions": [
                -0.7974571724377362,
                -1.9442181529027627,
                1.8381981226392619,
                -0.2682605611014388,
                0.11862437829372241,
                0.6148564656306577
            ]
        },
        {
            "positions": [
                -0.8261817841632537,
                -1.979878437730299,
                1.8016745865877337,
                -0.2207231237052366,
                0.04897447652018361,
                0.45396227626369834
            ]
        },
        {
            "positions": [
                -0.8549063958887712,
                -2.0155387225578347,
                1.7651510505362058,
                -0.17318568630903453,
                -0.020675425253355223,
                0.29306808689673924
            ]
        },
        {
            "positions": [
                -0.7573465547366891,
                -2.008747360683749,
                1.8042550896041578,
                -0.19067261009600894,
                0.02524810511742867,
                0.4705463478924484
            ]
        },
        {
            "positions": [
                -0.659786713584607,
                -2.0019559988096636,
                1.8433591286721098,
                -0.20815953388298336,
                0.07117163548821256,
                0.6480246088881576
            ]
        },
        {
            "positions": [
                -0.562226872432525,
                -1.9951646369355782,
                1.882463167740062,
                -0.22564645766995778,
                0.11709516585899646,
                0.8255028698838668
            ]
        },
        {
            "positions": [
                -0.464667031280443,
                -1.9883732750614926,
                1.921567206808014,
                -0.2431333814569322,
                0.16301869622978035,
                1.002981130879576
            ]
        },
        {
            "positions": [
                -0.36710719012836096,
                -1.9815819131874073,
                1.960671245875966,
                -0.2606203052439066,
                0.20894222660056425,
                1.180459391875285
            ]
        },
        {
            "positions": [
                -0.26954734897627897,
                -1.9747905513133217,
                1.9997752849439183,
                -0.27810722903088103,
                0.25486575697134817,
                1.3579376528709943
            ]
        },
        {
            "positions": [
                -0.17198750782419692,
                -1.9679991894392361,
                2.0388793240118703,
                -0.2955941528178554,
                0.30078928734213206,
                1.5354159138667034
            ]
        },
        {
            "positions": [
                -0.07442766667211487,
                -1.9612078275651506,
                2.0779833630798223,
                -0.31308107660482987,
                0.34671281771291595,
                1.7128941748624127
            ]
        },
        {
            "positions": [
                0.023132174479967182,
                -1.9544164656910652,
                2.1170874021477744,
                -0.33056800039180423,
                0.39263634808369985,
                1.890372435858122
            ]
        },
        {
            "positions": [
                0.12069201563204923,
                -1.9476251038169796,
                2.1561914412157264,
                -0.3480549241787787,
                0.43855987845448374,
                2.067850696853831
            ]
        },
        {
            "positions": [
                0.21825185678413128,
                -1.940833741942894,
                2.1952954802836784,
                -0.36554184796575306,
                0.48448340882526764,
                2.24532895784954
            ]
        },
        {
            "positions": [
                0.3158116979362132,
                -1.9340423800688087,
                2.234399519351631,
                -0.3830287717527275,
                0.5304069391960515,
                2.422807218845249
            ]
        },
        {
            "positions": [
                0.4133715390882954,
                -1.927251018194723,
                2.2735035584195824,
                -0.4005156955397019,
                0.5763304695668354,
                2.6002854798409585
            ]
        },
        {
            "positions": [
                0.5109313802403773,
                -1.9204596563206375,
                2.312607597487535,
                -0.4180026193266763,
                0.6222539999376193,
                2.7777637408366678
            ]
        },
        {
            "positions": [
                0.6084912213924595,
                -1.9136682944465522,
                2.351711636555487,
                -0.43548954311365073,
                0.6681775303084032,
                2.955242001832377
            ]
        },
        {
            "positions": [
                0.7060510625445414,
                -1.9068769325724666,
                2.390815675623439,
                -0.45297646690062515,
                0.7141010606791871,
                3.1327202628280864
            ]
        }
    ]
}