{
    "goal": {
        "global_pose": {
            "orientation": {
                "w": 0.7047431468963623,
                "x": -0.7094548344612122,
                "y": 0.0024358443915843964,
                "z": -0.0022348060738295317
            },
            "position": {
                "x": 0.6094750761985779,
                "y": 0.3671506643295288,
                "z": 0.19426114857196808
            }
        },
        "name": "move_to_magneteinheit_A"
    },
    "id": "ProjEST_move_to_magneteinheit_A_99",
    "joint_names": [
        "shoulder_pan_joint",
        "shoulder_lift_joint",
        "elbow_joint",
        "wrist_1_joint",
        "wrist_2_joint",
        "wrist_3_joint"
    ],
    "metrics": {
        "cart_traj_len": 1.9608996154660132,
        "distance_elbow_joint": 3.565387859749803,
        "distance_shoulder_lift_joint": 0.7826147810762089,
        "distance_shoulder_pan_joint": 1.2410508296496074,
        "distance_wrist_1_joint": 1.2287703491823072,
        "distance_wrist_2_joint": 1.440519762280988,
        "distance_wrist_3_joint": 2.049537892028583,
        "smoothness": 5.075305228381563e-16,
        "time": 0.361747498,
        "traj_len": 3.210588960606371,
        "weighted_distance": 4.132341632717212
    },
    "planner": "ProjEST",
    "start": {
        "state": {
            "elbow_joint": -1.5739458827952972,
            "shoulder_lift_joint": 0.006533473998580023,
            "shoulder_pan_joint": -1.1188671628667068,
            "wrist_1_joint": 3.138208179676308,
            "wrist_2_joint": -1.5706037135050406,
            "wrist_3_joint": -2.0226958329764257
        }
    },
    "waypoints": [
        {
            "positions": [
                -1.1188671628667068,
                0.006533473998580023,
                -1.5739458827952972,
                3.138208179676308,
                -1.5706037135050406,
                -2.0226958329764257
            ]
        },
        {
            "positions": [
                -1.0729023173241288,
                -0.022452258633872155,
                -1.4418944805823415,
                3.09269816674363,
                -1.5172511297168558,
                -1.9467870221605523
            ]
        },
        {
            "positions": [
                -1.0269374717815507,
                -0.05143799126632433,
                -1.309843078369386,
                3.047188153810952,
                -1.463898545928671,
                -1.870878211344679
            ]
        },
        {
            "positions": [
                -0.9809726262389726,
                -0.08042372389877651,
                -1.1777916761564302,
                3.001678140878274,
                -1.4105459621404863,
                -1.7949694005288055
            ]
        },
        {
            "positions": [
                -0.9350077806963947,
                -0.10940945653122869,
                -1.0457402739434745,
                2.956168127945596,
                -1.3571933783523016,
                -1.719060589712932
            ]
        },
        {
            "positions": [
                -0.8890429351538166,
                -0.13839518916368085,
                -0.9136888717305189,
                2.910658115012918,
                -1.3038407945641168,
                -1.6431517788970584
            ]
        },
        {
            "positions": [
                -0.8430780896112385,
                -0.16738092179613304,
                -0.7816374695175632,
                2.86514810208024,
                -1.250488210775932,
                -1.5672429680811852
            ]
        },
        {
            "positions": [
                -0.7971132440686605,
                -0.19636665442858522,
                -0.6495860673046076,
                2.8196380891475616,
                -1.1971356269877473,
                -1.4913341572653116
            ]
        },
        {
            "positions": [
                -0.7511483985260825,
                -0.22535238706103738,
                -0.5175346650916519,
                2.774128076214884,
                -1.1437830431995626,
                -1.4154253464494384
            ]
        },
        {
            "positions": [
                -0.7051835529835044,
                -0.2543381196934896,
                -0.38548326287869616,
                2.7286180632822057,
                -1.0904304594113778,
                -1.3395165356335648
            ]
        },
        {
            "positions": [
                -0.6592187074409264,
                -0.28332385232594176,
                -0.25343186066574064,
                2.683108050349528,
                -1.037077875623193,
                -1.2636077248176913
            ]
        },
        {
            "positions": [
                -0.6132538618983483,
                -0.31230958495839395,
                -0.12138045845278489,
                2.6375980374168497,
                -0.9837252918350085,
                -1.187698914001818
            ]
        },
        {
            "positions": [
                -0.5672890163557702,
                -0.34129531759084614,
                0.010670943760170859,
                2.5920880244841715,
                -0.9303727080468237,
                -1.1117901031859445
            ]
        },
        {
            "positions": [
                -0.5213241708131922,
                -0.3702810502232983,
                0.14272234597312639,
                2.5465780115514938,
                -0.877020124258639,
                -1.035881292370071
            ]
        },
        {
            "positions": [
                -0.4753593252706141,
                -0.3992667828557505,
                0.27477374818608213,
                2.5010679986188156,
                -0.8236675404704542,
                -0.9599724815541977
            ]
        },
        {
            "positions": [
                -0.429394479728036,
                -0.4282525154882027,
                0.4068251503990379,
                2.4555579856861374,
                -0.7703149566822695,
                -0.884063670738324
            ]
        },
        {
            "positions": [
                -0.38342963418545806,
                -0.45723824812065483,
                0.5388765526119934,
                2.4100479727534596,
                -0.7169623728940848,
                -0.8081548599224508
            ]
        },
        {
            "positions": [
                -0.3374647886428799,
                -0.4862239807531071,
                0.6709279548249494,
                2.3645379598207814,
                -0.6636097891059,
                -0.7322460491065772
            ]
        },
        {
            "positions": [
                -0.2914999431003019,
                -0.5152097133855591,
                0.8029793570379049,
                2.319027946888103,
                -0.6102572053177153,
                -0.6563372382907038
            ]
        },
        {
            "positions": [
                -0.24553509755772385,
                -0.5441954460180114,
                0.9350307592508604,
                2.2735179339554255,
                -0.5569046215295306,
                -0.5804284274748304
            ]
        },
        {
            "positions": [
                -0.19957025201514578,
                -0.5731811786504635,
                1.067082161463816,
                2.2280079210227473,
                -0.5035520377413458,
                -0.504519616658957
            ]
        },
        {
            "positions": [
                -0.1536054064725677,
                -0.6021669112829158,
                1.199133563676772,
                2.182497908090069,
                -0.4501994539531611,
                -0.42861080584308353
            ]
        },
        {
            "positions": [
                -0.10764056092998975,
                -0.6311526439153679,
                1.3311849658897275,
                2.1369878951573913,
                -0.39684687016497633,
                -0.3527019950272101
            ]
        },
        {
            "positions": [
                -0.06167571538741168,
                -0.66013837654782,
                1.4632363681026834,
                2.091477882224713,
                -0.3434942863767916,
                -0.2767931842113365
            ]
        },
        {
            "positions": [
                -0.015710869844833608,
                -0.6891241091802722,
                1.595287770315639,
                2.045967869292035,
                -0.29014170258860683,
                -0.20088437339546328
            ]
        },
        {
            "positions": [
                0.030253975697744462,
                -0.7181098418127244,
                1.7273391725285945,
                2.000457856359357,
                -0.23678911880042208,
                -0.12497556257958964
            ]
        },
        {
            "positions": [
                0.07621882124032253,
                -0.7470955744451766,
                1.85939057474155,
                1.9549478434266792,
                -0.18343653501223733,
                -0.04906675176371644
            ]
        },
        {
            "positions": [
                0.12218366678290066,
                -0.7760813070776288,
                1.9914419769545062,
                1.909437830494001,
                -0.13008395122405267,
                0.02684205905215702
            ]
        }
    ]
}