{
    "goal": {
        "global_pose": {
            "orientation": {
                "w": 0.005598929693374612,
                "x": 0.007748599140229565,
                "y": 0.7110244013736278,
                "z": -0.7031023480610252
            },
            "position": {
                "x": 0.1141497679147869,
                "y": -0.7141253447532654,
                "z": 0.3711530566215515
            }
        },
        "name": "move_to_auspresseinheit_B"
    },
    "id": "ProjEST_move_to_auspresseinheit_B_108",
    "joint_names": [
        "shoulder_pan_joint",
        "shoulder_lift_joint",
        "elbow_joint",
        "wrist_1_joint",
        "wrist_2_joint",
        "wrist_3_joint"
    ],
    "metrics": {
        "cart_traj_len": 0.5639172742327686,
        "distance_elbow_joint": 0.058681502768056504,
        "distance_shoulder_lift_joint": 0.29485507466315863,
        "distance_shoulder_pan_joint": 0.5777979077442728,
        "distance_wrist_1_joint": 0.3149486728134383,
        "distance_wrist_2_joint": 0.9875112338727876,
        "distance_wrist_3_joint": 0.01031129020584709,
        "smoothness": 5.075305295617109e-16,
        "time": 0.026047261999999998,
        "traj_len": 1.4980339388904247,
        "weighted_distance": 1.8887001268506023
    },
    "planner": "ProjEST",
    "start": {
        "state": {
            "elbow_joint": 2.0193061681459312,
            "shoulder_lift_joint": -1.1220205130644991,
            "shoulder_pan_joint": -1.0952072088045026,
            "wrist_1_joint": -0.8559671810662515,
            "wrist_2_joint": 0.4759638712940361,
            "wrist_3_joint": 3.159081874192446
        }
    },
    "waypoints": [
        {
            "positions": [
                -1.0952072088045026,
                -1.1220205130644991,
                2.0193061681459312,
                -0.8559671810662515,
                0.4759638712940361,
                3.159081874192446
            ]
        },
        {
            "positions": [
                -1.1915068600952148,
                -1.171163025508359,
                2.0095259176845883,
                -0.8034757355973451,
                0.6405490769395007,
                3.1608004225600874
            ]
        },
        {
            "positions": [
                -1.287806511385927,
                -1.2203055379522187,
                1.9997456672232456,
                -0.7509842901284387,
                0.8051342825849652,
                3.1625189709277284
            ]
        },
        {
            "positions": [
                -1.3841061626766389,
                -1.2694480503960786,
                1.989965416761903,
                -0.6984928446595323,
                0.9697194882304299,
                3.1642375192953693
            ]
        },
        {
            "positions": [
                -1.480405813967351,
                -1.3185905628399381,
                1.9801851663005603,
                -0.6460013991906259,
                1.1343046938758945,
                3.1659560676630107
            ]
        },
        {
            "positions": [
                -1.5767054652580632,
                -1.367733075283798,
                1.9704049158392174,
                -0.5935099537217196,
                1.2988898995213591,
                3.167674616030652
            ]
        },
        {
            "positions": [
                -1.6730051165487754,
                -1.4168755877276578,
                1.9606246653778747,
                -0.5410185082528132,
                1.4634751051668238,
                3.169393164398293
            ]
        }
    ]
}