{
    "goal": {
        "global_pose": {
            "orientation": {
                "w": 0.7031023502349854,
                "x": -0.7110244035720825,
                "y": 0.007748599164187908,
                "z": 0.005598929710686207
            },
            "position": {
                "x": 0.11585023208521307,
                "y": 0.44412534475326537,
                "z": 0.3711530566215515
            }
        },
        "name": "move_to_auspresseinheit_A"
    },
    "id": "ProjEST_move_to_auspresseinheit_A_102",
    "joint_names": [
        "shoulder_pan_joint",
        "shoulder_lift_joint",
        "elbow_joint",
        "wrist_1_joint",
        "wrist_2_joint",
        "wrist_3_joint"
    ],
    "metrics": {
        "cart_traj_len": 2.3021427639457412,
        "distance_elbow_joint": 2.8576003029356323,
        "distance_shoulder_lift_joint": 0.7387650886507342,
        "distance_shoulder_pan_joint": 1.8160003606754387,
        "distance_wrist_1_joint": 3.0293563991822303,
        "distance_wrist_2_joint": 1.5435716460675255,
        "distance_wrist_3_joint": 6.456198250027557,
        "smoothness": 0.481277603171395,
        "time": 0.087141286,
        "traj_len": 4.05481097556213,
        "weighted_distance": 5.824673088924732
    },
    "planner": "ProjEST",
    "start": {
        "state": {
            "elbow_joint": 2.4225746994637096,
            "shoulder_lift_joint": -1.373653595662188,
            "shoulder_pan_joint": -0.3378633848294565,
            "wrist_1_joint": -1.0288595594406726,
            "wrist_2_joint": 1.2330228066703421,
            "wrist_3_joint": 3.189163495502006
        }
    },
    "waypoints": [
        {
            "positions": [
                -0.3378633848294565,
                -1.373653595662188,
                2.4225746994637096,
                -1.0288595594406726,
                1.2330228066703421,
                3.189163495502006
            ]
        },
        {
            "positions": [
                -0.30003108566796993,
                -1.39337584265633,
                2.3537881930020235,
                -0.9554535463472855,
                1.1837260737233006,
                3.0503633149886067
            ]
        },
        {
            "positions": [
                -0.26219878650648337,
                -1.4130980896504721,
                2.2850016865403378,
                -0.8820475332538984,
                1.1344293407762593,
                2.9115631344752075
            ]
        },
        {
            "positions": [
                -0.2243664873449968,
                -1.4328203366446142,
                2.2162151800786516,
                -0.8086415201605113,
                1.0851326078292178,
                2.7727629539618084
            ]
        },
        {
            "positions": [
                -0.18653418818351025,
                -1.4525425836387562,
                2.1474286736169654,
                -0.7352355070671241,
                1.0358358748821763,
                2.6339627734484092
            ]
        },
        {
            "positions": [
                -0.1487018890220237,
                -1.4722648306328983,
                2.0786421671552793,
                -0.661829493973737,
                0.986539141935135,
                2.49516259293501
            ]
        },
        {
            "positions": [
                -0.11086958986053713,
                -1.4919870776270405,
                2.0098556606935936,
                -0.5884234808803499,
                0.9372424089880935,
                2.356362412421611
            ]
        },
        {
            "positions": [
                -0.07303729069905057,
                -1.5117093246211826,
                1.9410691542319074,
                -0.5150174677869628,
                0.8879456760410521,
                2.217562231908212
            ]
        },
        {
            "positions": [
                -0.03520499153756401,
                -1.5314315716153246,
                1.8722826477702212,
                -0.44161145469357566,
                0.8386489430940107,
                2.0787620513948126
            ]
        },
        {
            "positions": [
                0.002627307623922548,
                -1.5511538186094667,
                1.8034961413085355,
                -0.36820544160018853,
                0.7893522101469692,
                1.9399618708814133
            ]
        },
        {
            "positions": [
                0.04045960678540911,
                -1.5708760656036087,
                1.7347096348468494,
                -0.2947994285068014,
                0.7400554771999278,
                1.801161690368014
            ]
        },
        {
            "positions": [
                0.07829190594689567,
                -1.5905983125977508,
                1.6659231283851632,
                -0.22139341541341429,
                0.6907587442528863,
                1.662361509854615
            ]
        },
        {
            "positions": [
                0.11612420510838223,
                -1.6103205595918928,
                1.5971366219234773,
                -0.14798740232002716,
                0.6414620113058449,
                1.5235613293412158
            ]
        },
        {
            "positions": [
                0.1539565042698688,
                -1.6300428065860348,
                1.5283501154617913,
                -0.07458138922664004,
                0.5921652783588034,
                1.3847611488278164
            ]
        },
        {
            "positions": [
                0.19178880343135535,
                -1.6497650535801769,
                1.4595636090001052,
                -0.0011753761332529145,
                0.5428685454117621,
                1.2459609683144175
            ]
        },
        {
            "positions": [
                0.2296211025928419,
                -1.669487300574319,
                1.390777102538419,
                0.07223063696013421,
                0.4935718124647206,
                1.1071607878010181
            ]
        },
        {
            "positions": [
                0.26745340175432847,
                -1.6892095475684612,
                1.321990596076733,
                0.14563665005352133,
                0.4442750795176792,
                0.9683606072876194
            ]
        },
        {
            "positions": [
                0.30528570091581503,
                -1.7089317945626032,
                1.2532040896150471,
                0.21904266314690846,
                0.3949783465706377,
                0.8295604267742198
            ]
        },
        {
            "positions": [
                0.3431180000773016,
                -1.7286540415567453,
                1.1844175831533612,
                0.2924486762402956,
                0.3456816136235963,
                0.6907602462608207
            ]
        },
        {
            "positions": [
                0.38095029923878815,
                -1.7483762885508873,
                1.115631076691675,
                0.3658546893336827,
                0.2963848806765549,
                0.5519600657474215
            ]
        },
        {
            "positions": [
                0.4187825984002747,
                -1.7680985355450294,
                1.0468445702299891,
                0.4392607024270698,
                0.24708814772951349,
                0.41315988523402236
            ]
        },
        {
            "positions": [
                0.4566148975617612,
                -1.7878207825391714,
                0.978058063768303,
                0.512666715520457,
                0.1977914147824719,
                0.2743597047206233
            ]
        },
        {
            "positions": [
                0.555360591353109,
                -1.8204533182838936,
                0.9994232815051153,
                0.5780644044747953,
                0.20001289192578128,
                0.18904003936982644
            ]
        },
        {
            "positions": [
                0.6541062851444567,
                -1.853085854028616,
                1.0207884992419276,
                0.6434620934291339,
                0.20223436906909065,
                0.10372037401902956
            ]
        },
        {
            "positions": [
                0.7528519789358044,
                -1.8857183897733383,
                1.0421537169787398,
                0.7088597823834724,
                0.20445584621240004,
                0.01840070866823268
            ]
        },
        {
            "positions": [
                0.8515976727271521,
                -1.9183509255180604,
                1.0635189347155523,
                0.7742574713378108,
                0.20667732335570943,
                -0.0669189566825642
            ]
        },
        {
            "positions": [
                0.8102489167720593,
                -1.929750842781639,
                1.175827954616355,
                0.7349478242569324,
                0.2292256485482082,
                0.06380510698640254
            ]
        },
        {
            "positions": [
                0.7689001608169665,
                -1.9411507600452174,
                1.2881369745171578,
                0.6956381771760541,
                0.251773973740707,
                0.1945291706553693
            ]
        },
        {
            "positions": [
                0.7275514048618738,
                -1.952550677308796,
                1.4004459944179604,
                0.6563285300951758,
                0.2743222989332057,
                0.32525323432433606
            ]
        },
        {
            "positions": [
                0.686202648906781,
                -1.9639505945723745,
                1.5127550143187631,
                0.6170188830142975,
                0.2968706241257045,
                0.4559772979933028
            ]
        },
        {
            "positions": [
                0.6448538929516883,
                -1.975350511835953,
                1.625064034219566,
                0.5777092359334192,
                0.31941894931820325,
                0.5867013616622695
            ]
        },
        {
            "positions": [
                0.6035051369965955,
                -1.9867504290995315,
                1.7373730541203685,
                0.5383995888525408,
                0.34196727451070197,
                0.7174254253312363
            ]
        },
        {
            "positions": [
                0.5621563810415027,
                -1.9981503463631098,
                1.8496820740211712,
                0.4990899417716625,
                0.36451559970320074,
                0.848149489000203
            ]
        },
        {
            "positions": [
                0.5208076250864099,
                -2.0095502636266884,
                1.961991093921974,
                0.4597802946907842,
                0.3870639248956995,
                0.9788735526691698
            ]
        },
        {
            "positions": [
                0.5020352890333403,
                -2.0086393817865567,
                2.0314198607877314,
                0.3873835112925993,
                0.40883319513530636,
                1.1658845446553465
            ]
        },
        {
            "positions": [
                0.4832629529802706,
                -2.0077284999464253,
                2.1008486276534883,
                0.3149867278944144,
                0.4306024653749132,
                1.3528955366415234
            ]
        },
        {
            "positions": [
                0.46449061692720095,
                -2.0068176181062936,
                2.1702773945192457,
                0.24258994449622945,
                0.45237173561452004,
                1.5399065286277003
            ]
        },
        {
            "positions": [
                0.49441964784206077,
                -1.9943006462105637,
                2.197885436580406,
                0.15576846430095884,
                0.484091727282971,
                1.7390678176942906
            ]
        },
        {
            "positions": [
                0.5243486787569206,
                -1.9817836743148338,
                2.2254934786415665,
                0.06894698410568822,
                0.515811718951422,
                1.938229106760881
            ]
        },
        {
            "positions": [
                0.5542777096717804,
                -1.969266702419104,
                2.2531015207027267,
                -0.017874496089582415,
                0.5475317106198729,
                2.137390395827471
            ]
        },
        {
            "positions": [
                0.5842067405866402,
                -1.956749730523374,
                2.280709562763887,
                -0.104695976284853,
                0.5792517022883239,
                2.3365516848940615
            ]
        },
        {
            "positions": [
                0.6141357715015,
                -1.9442327586276442,
                2.3083176048250476,
                -0.19151745648012358,
                0.6109716939567749,
                2.535712973960652
            ]
        },
        {
            "positions": [
                0.6440648024163598,
                -1.9317157867319144,
                2.3359256468862077,
                -0.2783389366753943,
                0.6426916856252258,
                2.7348742630272422
            ]
        },
        {
            "positions": [
                0.6739938333312196,
                -1.9191988148361845,
                2.3635336889473684,
                -0.36516041687066486,
                0.6744116772936768,
                2.9340355520938326
            ]
        },
        {
            "positions": [
                0.7039228642460794,
                -1.9066818429404546,
                2.3911417310085286,
                -0.4519818970659354,
                0.7061316689621278,
                3.133196841160423
            ]
        }
    ]
}