{
    "goal": {
        "global_pose": {
            "orientation": {
                "w": 0.7047431493862688,
                "x": -0.7094548369677653,
                "y": 0.0024358444001904,
                "z": -0.0022348060817251984
            },
            "position": {
                "x": -0.39052492380142206,
                "y": 0.3671506643295288,
                "z": 0.19426114857196808
            }
        },
        "name": "move_to_magneteinheit_D"
    },
    "id": "ProjEST_move_to_magneteinheit_D_43",
    "joint_names": [
        "shoulder_pan_joint",
        "shoulder_lift_joint",
        "elbow_joint",
        "wrist_1_joint",
        "wrist_2_joint",
        "wrist_3_joint"
    ],
    "metrics": {
        "cart_traj_len": 4.545438193312555,
        "distance_elbow_joint": 3.487048915211957,
        "distance_shoulder_lift_joint": 1.6325419470040223,
        "distance_shoulder_pan_joint": 3.491594938585492,
        "distance_wrist_1_joint": 1.5829509217055913,
        "distance_wrist_2_joint": 0.5784770095527154,
        "distance_wrist_3_joint": 4.325613072895229,
        "smoothness": 0.4502241138581742,
        "time": 0.966863547,
        "traj_len": 3.885643679617961,
        "weighted_distance": 5.0902731637903065
    },
    "planner": "ProjEST",
    "start": {
        "state": {
            "elbow_joint": 0.7495348899011911,
            "shoulder_lift_joint": -0.6476975780737668,
            "shoulder_pan_joint": -2.711696901376276,
            "wrist_1_joint": -0.0750647808097303,
            "wrist_2_joint": 0.43296659715458535,
            "wrist_3_joint": 3.1361499051832418
        }
    },
    "waypoints": [
        {
            "positions": [
                -2.711696901376276,
                -0.6476975780737668,
                0.7495348899011911,
                -0.0750647808097303,
                0.43296659715458535,
                3.1361499051832418
            ]
        },
        {
            "positions": [
                -2.7155824463729847,
                -0.7361444637272765,
                0.7942214044130995,
                0.003284044351581708,
                0.47351108351967475,
                3.048029285378024
            ]
        },
        {
            "positions": [
                -2.719467991369693,
                -0.824591349380786,
                0.8389079189250079,
                0.08163286951289371,
                0.5140555698847641,
                2.9599086655728066
            ]
        },
        {
            "positions": [
                -2.7233535363664014,
                -0.9130382350342956,
                0.8835944334369163,
                0.1599816946742057,
                0.5546000562498535,
                2.8717880457675893
            ]
        },
        {
            "positions": [
                -2.72723908136311,
                -1.0014851206878053,
                0.9282809479488248,
                0.23833051983551773,
                0.5951445426149429,
                2.7836674259623715
            ]
        },
        {
            "positions": [
                -2.6197523469504245,
                -1.0392427344711284,
                0.8503355464995145,
                0.27495435760259324,
                0.5821744937100064,
                2.6631921433601975
            ]
        },
        {
            "positions": [
                -2.5122656125377394,
                -1.0770003482544512,
                0.7723901450502043,
                0.31157819536966874,
                0.5692044448050699,
                2.542716860758024
            ]
        },
        {
            "positions": [
                -2.404778878125054,
                -1.1147579620377743,
                0.694444743600894,
                0.34820203313674425,
                0.5562343959001335,
                2.42224157815585
            ]
        },
        {
            "positions": [
                -2.297292143712369,
                -1.1525155758210972,
                0.6164993421515839,
                0.3848258709038198,
                0.543264346995197,
                2.3017662955536764
            ]
        },
        {
            "positions": [
                -2.1898054092996833,
                -1.1902731896044203,
                0.5385539407022735,
                0.4214497086708953,
                0.5302942980902605,
                2.1812910129515024
            ]
        },
        {
            "positions": [
                -2.082318674886998,
                -1.2280308033877432,
                0.4606085392529633,
                0.4580735464379708,
                0.517324249185324,
                2.0608157303493284
            ]
        },
        {
            "positions": [
                -1.9748319404743127,
                -1.2657884171710663,
                0.382663137803653,
                0.49469738420504633,
                0.5043542002803876,
                1.9403404477471546
            ]
        },
        {
            "positions": [
                -1.8673452060616273,
                -1.3035460309543891,
                0.30471773635434285,
                0.5313212219721218,
                0.49138415137545116,
                1.8198651651449809
            ]
        },
        {
            "positions": [
                -1.759858471648942,
                -1.3413036447377122,
                0.22677233490503246,
                0.5679450597391974,
                0.4784141024705147,
                1.6993898825428069
            ]
        },
        {
            "positions": [
                -1.6523717372362565,
                -1.3790612585210353,
                0.1488269334557223,
                0.6045688975062729,
                0.4654440535655782,
                1.578914599940633
            ]
        },
        {
            "positions": [
                -1.5448850028235714,
                -1.4168188723043582,
                0.070881532006412,
                0.6411927352733484,
                0.45247400466064175,
                1.4584393173384593
            ]
        },
        {
            "positions": [
                -1.4373982684108861,
                -1.4545764860876813,
                -0.007063869442898163,
                0.6778165730404239,
                0.43950395575570533,
                1.3379640347362856
            ]
        },
        {
            "positions": [
                -1.3299115339982006,
                -1.4923340998710044,
                -0.08500927089220855,
                0.7144404108074994,
                0.42653390685076886,
                1.2174887521341116
            ]
        },
        {
            "positions": [
                -1.2224247995855153,
                -1.5300917136543273,
                -0.16295467234151872,
                0.7510642485745749,
                0.4135638579458324,
                1.0970134695319378
            ]
        },
        {
            "positions": [
                -1.11493806517283,
                -1.5678493274376502,
                -0.2409000737908289,
                0.7876880863416504,
                0.4005938090408959,
                0.976538186929764
            ]
        },
        {
            "positions": [
                -1.0074513307601447,
                -1.6056069412209732,
                -0.31884547524013906,
                0.824311924108726,
                0.38762376013595945,
                0.8560629043275902
            ]
        },
        {
            "positions": [
                -0.8999645963474594,
                -1.6433645550042963,
                -0.39679087668944946,
                0.8609357618758013,
                0.374653711231023,
                0.7355876217254163
            ]
        },
        {
            "positions": [
                -0.7924778619347739,
                -1.6811221687876192,
                -0.47473627813875985,
                0.8975595996428771,
                0.3616836623260865,
                0.6151123391232423
            ]
        },
        {
            "positions": [
                -0.6849911275220886,
                -1.7188797825709423,
                -0.55268167958807,
                0.9341834374099525,
                0.34871361342115004,
                0.4946370565210687
            ]
        },
        {
            "positions": [
                -0.577504393109403,
                -1.7566373963542654,
                -0.6306270810373802,
                0.970807275177028,
                0.33574356451621357,
                0.3741617739188947
            ]
        },
        {
            "positions": [
                -0.47001765869671797,
                -1.7943950101375883,
                -0.7085724824866904,
                1.0074311129441036,
                0.3227735156112771,
                0.2536864913167207
            ]
        },
        {
            "positions": [
                -0.3625309242840329,
                -1.8321526239209112,
                -0.7865178839360008,
                1.044054950711179,
                0.3098034667063406,
                0.13321120871454717
            ]
        },
        {
            "positions": [
                -0.25504418987134736,
                -1.8699102377042343,
                -0.8644632853853109,
                1.0806787884782545,
                0.2968334178014042,
                0.012735926112373175
            ]
        },
        {
            "positions": [
                -0.14755745545866228,
                -1.9076678514875574,
                -0.9424086868346211,
                1.11730262624533,
                0.28386336889646774,
                -0.10773935648980038
            ]
        },
        {
            "positions": [
                -0.04007072104597631,
                -1.9454254652708802,
                -1.0203540882839315,
                1.1539264640124056,
                0.2708933199915312,
                -0.22821463909197437
            ]
        },
        {
            "positions": [
                0.06741601336670877,
                -1.9831830790542033,
                -1.0982994897332419,
                1.1905503017794812,
                0.2579232710865948,
                -0.34868992169414836
            ]
        },
        {
            "positions": [
                0.1749027477793943,
                -2.0209406928375264,
                -1.1762448911825518,
                1.2271741395465567,
                0.24495322218165833,
                -0.4691652042963219
            ]
        },
        {
            "positions": [
                0.2823894821920793,
                -2.0586983066208493,
                -1.2541902926318622,
                1.263797977313632,
                0.23198317327672185,
                -0.589640486898496
            ]
        },
        {
            "positions": [
                0.21958990961912606,
                -2.0896578303062685,
                -1.4146069709863462,
                1.2972580021577647,
                0.224409792730688,
                -0.5068794853550762
            ]
        },
        {
            "positions": [
                0.15679033704617276,
                -2.1206173539916877,
                -1.5750236493408303,
                1.330718027001897,
                0.2168364121846542,
                -0.4241184838116564
            ]
        },
        {
            "positions": [
                0.0939907644732195,
                -2.151576877677107,
                -1.7354403276953143,
                1.3641780518460296,
                0.20926303163862034,
                -0.3413574822682366
            ]
        },
        {
            "positions": [
                0.031191191900266202,
                -2.1825364013625266,
                -1.8958570060497983,
                1.397638076690162,
                0.2016896510925865,
                -0.2585964807248167
            ]
        },
        {
            "positions": [
                -0.03160838067268712,
                -2.213495925047946,
                -2.0562736844042826,
                1.4310981015342945,
                0.19411627054655267,
                -0.17583547918139686
            ]
        },
        {
            "positions": [
                -0.09440795324564033,
                -2.244455448733365,
                -2.2166903627587664,
                1.4645581263784269,
                0.18654289000051882,
                -0.0930744776379771
            ]
        },
        {
            "positions": [
                -0.15720752581859365,
                -2.275414972418784,
                -2.3771070411132507,
                1.4980181512225594,
                0.17896950945448498,
                -0.010313476094557184
            ]
        },
        {
            "positions": [
                -0.18403471285139086,
                -2.280239525077789,
                -2.380021909215498,
                1.507886140895861,
                0.17884547852258498,
                0.01018219391499493
            ]
        }
    ]
}