{
    "goal": {
        "global_pose": {
            "orientation": {
                "w": -0.00223480608172531,
                "x": 0.0024358444001904467,
                "y": 0.7094548369677653,
                "z": -0.704743149386269
            },
            "position": {
                "x": -0.37947507619857795,
                "y": -0.6371506643295288,
                "z": 0.19426114857196808
            }
        },
        "name": "move_to_magneteinheit_C"
    },
    "id": "ProjEST_move_to_magneteinheit_C_135",
    "joint_names": [
        "shoulder_pan_joint",
        "shoulder_lift_joint",
        "elbow_joint",
        "wrist_1_joint",
        "wrist_2_joint",
        "wrist_3_joint"
    ],
    "metrics": {
        "cart_traj_len": 1.7190197423373865,
        "distance_elbow_joint": 0.8248541787747803,
        "distance_shoulder_lift_joint": 1.0851958209338273,
        "distance_shoulder_pan_joint": 1.3069992966866437,
        "distance_wrist_1_joint": 1.8754254273249766,
        "distance_wrist_2_joint": 1.0597770261685515,
        "distance_wrist_3_joint": 3.831985802586334,
        "smoothness": 0.6496023575396619,
        "time": 0.8795097270000001,
        "traj_len": 3.1597844155060817,
        "weighted_distance": 4.5368944897519174
    },
    "planner": "ProjEST",
    "start": {
        "state": {
            "elbow_joint": 1.9565354006593851,
            "shoulder_lift_joint": -1.4165861576512813,
            "shoulder_pan_joint": -1.6717766223278752,
            "wrist_1_joint": -0.528663328821883,
            "wrist_2_joint": 1.472756589259273,
            "wrist_3_joint": 3.159348288315503
        }
    },
    "waypoints": [
        {
            "positions": [
                -1.6717766223278752,
                -1.4165861576512813,
                1.9565354006593851,
                -0.528663328821883,
                1.472756589259273,
                3.159348288315503
            ]
        },
        {
            "positions": [
                -1.642752083243948,
                -1.4021873958635636,
                1.9278406644967747,
                -0.4470139398328875,
                1.4353094290674138,
                3.02023868641323
            ]
        },
        {
            "positions": [
                -1.6137275441600207,
                -1.3877886340758459,
                1.8991459283341645,
                -0.36536455084389197,
                1.3978622688755544,
                2.8811290845109565
            ]
        },
        {
            "positions": [
                -1.5974729976702275,
                -1.4063701495394691,
                1.8712715678789769,
                -0.30891551970538617,
                1.3428912024968767,
                2.7461592094224807
            ]
        },
        {
            "positions": [
                -1.5812184511804346,
                -1.4249516650030924,
                1.843397207423789,
                -0.25246648856688036,
                1.2879201361181989,
                2.6111893343340054
            ]
        },
        {
            "positions": [
                -1.5749160404267393,
                -1.466980767271242,
                1.8128410004467106,
                -0.1951492699878013,
                1.2145138312086305,
                2.456970067741113
            ]
        },
        {
            "positions": [
                -1.568613629673044,
                -1.5090098695393916,
                1.7822847934696324,
                -0.13783205140872223,
                1.141107526299062,
                2.3027508011482203
            ]
        },
        {
            "positions": [
                -1.5623112189193489,
                -1.5510389718075412,
                1.751728586492554,
                -0.0805148328296432,
                1.0677012213894936,
                2.1485315345553273
            ]
        },
        {
            "positions": [
                -1.5560088081656536,
                -1.5930680740756906,
                1.7211723795154756,
                -0.02319761425056413,
                0.9942949164799251,
                1.9943122679624348
            ]
        },
        {
            "positions": [
                -1.5497063974119583,
                -1.6350971763438404,
                1.6906161725383975,
                0.03411960432851496,
                0.9208886115703567,
                1.8400930013695422
            ]
        },
        {
            "positions": [
                -1.543403986658263,
                -1.6771262786119898,
                1.660059965561319,
                0.09143682290759397,
                0.8474823066607883,
                1.6858737347766497
            ]
        },
        {
            "positions": [
                -1.5371015759045679,
                -1.7191553808801394,
                1.6295037585842407,
                0.14875404148667304,
                0.7740760017512198,
                1.531654468183757
            ]
        },
        {
            "positions": [
                -1.5307991651508726,
                -1.761184483148289,
                1.5989475516071625,
                0.2060712600657521,
                0.7006696968416514,
                1.3774352015908644
            ]
        },
        {
            "positions": [
                -1.5244967543971772,
                -1.8032135854164386,
                1.5683913446300841,
                0.26338847864483117,
                0.6272633919320829,
                1.2232159349979717
            ]
        },
        {
            "positions": [
                -1.7048527252219803,
                -1.780342556712631,
                1.5753427250914636,
                0.23323596596996554,
                0.6199627275449995,
                1.3083512151333525
            ]
        },
        {
            "positions": [
                -1.8852086960467833,
                -1.7574715280088233,
                1.582294105552843,
                0.2030834532950999,
                0.612662063157916,
                1.3934864952687334
            ]
        },
        {
            "positions": [
                -2.065564666871586,
                -1.734600499305016,
                1.5892454860142222,
                0.17293094062023429,
                0.6053613987708327,
                1.4786217754041142
            ]
        },
        {
            "positions": [
                -2.2459206376963894,
                -1.7117294706012083,
                1.5961968664756017,
                0.14277842794536866,
                0.5980607343837493,
                1.563757055539495
            ]
        },
        {
            "positions": [
                -2.426276608521192,
                -1.6888584418974006,
                1.603148246936981,
                0.11262591527050304,
                0.5907600699966659,
                1.648892335674876
            ]
        },
        {
            "positions": [
                -2.451830672535599,
                -1.6518035111105904,
                1.6528832145371941,
                0.04481114814968988,
                0.6116349020319027,
                1.7924929378935102
            ]
        },
        {
            "positions": [
                -2.4773847365500057,
                -1.61474858032378,
                1.7026181821374071,
                -0.023003618971123282,
                0.6325097340671395,
                1.9360935401121442
            ]
        },
        {
            "positions": [
                -2.5029388005644124,
                -1.5776936495369698,
                1.7523531497376204,
                -0.09081838609193647,
                0.6533845661023763,
                2.079694142330778
            ]
        },
        {
            "positions": [
                -2.528492864578819,
                -1.5406387187501596,
                1.8020881173378334,
                -0.15863315321274962,
                0.6742593981376132,
                2.2232947445494124
            ]
        },
        {
            "positions": [
                -2.554046928593226,
                -1.5035837879633491,
                1.8518230849380464,
                -0.22644792033356287,
                0.69513423017285,
                2.3668953467680467
            ]
        },
        {
            "positions": [
                -2.5796009926076326,
                -1.466528857176539,
                1.9015580525382594,
                -0.294262687454376,
                0.7160090622080868,
                2.510495948986681
            ]
        },
        {
            "positions": [
                -2.5599856443803533,
                -1.4094747413431827,
                1.920972442820254,
                -0.39283564753419886,
                0.7061594032028637,
                2.6246034681016983
            ]
        },
        {
            "positions": [
                -2.540370296153074,
                -1.3524206255098266,
                1.9403868331022482,
                -0.4914086076140218,
                0.6963097441976406,
                2.7387109872167157
            ]
        },
        {
            "positions": [
                -2.5207549479257945,
                -1.2953665096764704,
                1.9598012233842428,
                -0.5899815676938447,
                0.6864600851924174,
                2.852818506331733
            ]
        },
        {
            "positions": [
                -2.501139599698515,
                -1.2383123938431142,
                1.9792156136662373,
                -0.6885545277736675,
                0.6766104261871944,
                2.9669260254467504
            ]
        },
        {
            "positions": [
                -2.4880627008803287,
                -1.2002763166208767,
                1.9921585405209004,
                -0.7542698344935495,
                0.6700439868503789,
                3.042997704856762
            ]
        },
        {
            "positions": [
                -2.4749858020621422,
                -1.1622402393986395,
                2.0051014673755634,
                -0.8199851412134315,
                0.6634775475135635,
                3.1190693842667736
            ]
        }
    ]
}