{
    "goal": {
        "global_pose": {
            "orientation": {
                "w": -0.4816463035849501,
                "x": 0.5182115481033762,
                "y": 0.4908360881923453,
                "z": -0.5084816262002911
            },
            "position": {
                "x": -0.8240239810943604,
                "y": -0.300875300988555,
                "z": 0.16403168439865112
            }
        },
        "name": "move_to_storage_C"
    },
    "id": "ProjEST_move_to_storage_C_110",
    "joint_names": [
        "shoulder_pan_joint",
        "shoulder_lift_joint",
        "elbow_joint",
        "wrist_1_joint",
        "wrist_2_joint",
        "wrist_3_joint"
    ],
    "metrics": {
        "cart_traj_len": 0.5771016528400101,
        "distance_elbow_joint": 0.2580311509170665,
        "distance_shoulder_lift_joint": 0.18908009185419705,
        "distance_shoulder_pan_joint": 0.49646520320498944,
        "distance_wrist_1_joint": 0.08275196862581935,
        "distance_wrist_2_joint": 1.0614420956400739,
        "distance_wrist_3_joint": 0.07306159721170635,
        "smoothness": 0.0,
        "time": 0.021965532,
        "traj_len": 1.4699769071158406,
        "weighted_distance": 1.8577269353010841
    },
    "planner": "ProjEST",
    "start": {
        "state": {
            "elbow_joint": 2.0108683149792914,
            "shoulder_lift_joint": -1.1634956873317392,
            "shoulder_pan_joint": -2.4736205022346,
            "wrist_1_joint": -0.8367026793690192,
            "wrist_2_joint": 0.6746043897045053,
            "wrist_3_joint": 3.133522094754363
        }
    },
    "waypoints": [
        {
            "positions": [
                -2.4736205022346,
                -1.1634956873317392,
                2.0108683149792914,
                -0.8367026793690192,
                0.6746043897045053,
                3.133522094754363
            ]
        },
        {
            "positions": [
                -2.556364702768765,
                -1.131982338689373,
                1.9678631231597803,
                -0.8229106845980493,
                0.8515114056445177,
                3.145699027622981
            ]
        },
        {
            "positions": [
                -2.63910890330293,
                -1.1004689900470068,
                1.9248579313402692,
                -0.8091186898270795,
                1.0284184215845298,
                3.1578759604915985
            ]
        },
        {
            "positions": [
                -2.721853103837095,
                -1.0689556414046408,
                1.8818527395207583,
                -0.7953266950561095,
                1.2053254375245421,
                3.170052893360216
            ]
        },
        {
            "positions": [
                -2.8045973043712595,
                -1.0374422927622746,
                1.8388475477012471,
                -0.7815347002851396,
                1.3822324534645545,
                3.182229826228834
            ]
        },
        {
            "positions": [
                -2.8873415049054247,
                -1.0059289441199084,
                1.795842355881736,
                -0.7677427055141698,
                1.5591394694045668,
                3.194406759097452
            ]
        },
        {
            "positions": [
                -2.9700857054395895,
                -0.9744155954775422,
                1.752837164062225,
                -0.7539507107431999,
                1.7360464853445792,
                3.2065836919660695
            ]
        }
    ]
}