{
    "goal": {
        "global_pose": {
            "orientation": {
                "w": -0.00223480608172531,
                "x": 0.0024358444001904467,
                "y": 0.7094548369677653,
                "z": -0.704743149386269
            },
            "position": {
                "x": 0.6205249238014221,
                "y": -0.6371506643295288,
                "z": 0.19426114857196808
            }
        },
        "name": "move_to_magneteinheit_B"
    },
    "id": "ProjEST_move_to_magneteinheit_B_142",
    "joint_names": [
        "shoulder_pan_joint",
        "shoulder_lift_joint",
        "elbow_joint",
        "wrist_1_joint",
        "wrist_2_joint",
        "wrist_3_joint"
    ],
    "metrics": {
        "cart_traj_len": 1.4534666862849357,
        "distance_elbow_joint": 0.7295885338648818,
        "distance_shoulder_lift_joint": 1.2482655279960033,
        "distance_shoulder_pan_joint": 1.6216693504957247,
        "distance_wrist_1_joint": 2.6083588102358384,
        "distance_wrist_2_joint": 2.936776378242819,
        "distance_wrist_3_joint": 3.1409400540135133,
        "smoothness": 3.498884703780888e-16,
        "time": 0.260177202,
        "traj_len": 3.5050818328319786,
        "weighted_distance": 4.910459647665833
    },
    "planner": "ProjEST",
    "start": {
        "state": {
            "elbow_joint": 2.393587130804639,
            "shoulder_lift_joint": -1.9085141043513325,
            "shoulder_pan_joint": 0.7066247066698809,
            "wrist_1_joint": -0.4678290934590222,
            "wrist_2_joint": 0.7096259084215963,
            "wrist_3_joint": 3.147370379541726
        }
    },
    "waypoints": [
        {
            "positions": [
                0.7066247066698809,
                -1.9085141043513325,
                2.393587130804639,
                -0.4678290934590222,
                0.7096259084215963,
                3.147370379541726
            ]
        },
        {
            "positions": [
                0.6559475394668894,
                -1.8695058066014574,
                2.370787489121361,
                -0.38631788063915223,
                0.6178516466015083,
                3.049216002853804
            ]
        },
        {
            "positions": [
                0.6052703722638981,
                -1.8304975088515822,
                2.3479878474380835,
                -0.30480666781928223,
                0.5260773847814202,
                2.9510616261658815
            ]
        },
        {
            "positions": [
                0.5545932050609067,
                -1.7914892111017071,
                2.3251882057548063,
                -0.22329545499941228,
                0.4343031229613321,
                2.8529072494779593
            ]
        },
        {
            "positions": [
                0.5039160378579153,
                -1.7524809133518322,
                2.3023885640715287,
                -0.14178424217954233,
                0.34252886114124403,
                2.754752872790037
            ]
        },
        {
            "positions": [
                0.45323887065492385,
                -1.713472615601957,
                2.279588922388251,
                -0.06027302935967238,
                0.25075459932115596,
                2.6565984961021147
            ]
        },
        {
            "positions": [
                0.4025617034519325,
                -1.674464317852082,
                2.2567892807049734,
                0.021238183460197624,
                0.15898033750106788,
                2.558444119414192
            ]
        },
        {
            "positions": [
                0.3518845362489411,
                -1.6354560201022068,
                2.233989639021696,
                0.10274939628006757,
                0.0672060756809798,
                2.46028974272627
            ]
        },
        {
            "positions": [
                0.3012073690459497,
                -1.5964477223523317,
                2.211189997338418,
                0.18426060909993752,
                -0.024568186139108272,
                2.3621353660383475
            ]
        },
        {
            "positions": [
                0.25053020184295827,
                -1.5574394246024565,
                2.188390355655141,
                0.26577182191980747,
                -0.11634244795919635,
                2.2639809893504257
            ]
        },
        {
            "positions": [
                0.19985303463996684,
                -1.5184311268525814,
                2.1655907139718633,
                0.3472830347396774,
                -0.20811670977928443,
                2.165826612662503
            ]
        },
        {
            "positions": [
                0.14917586743697553,
                -1.4794228291027065,
                2.1427910722885857,
                0.42879424755954737,
                -0.2998909715993725,
                2.067672235974581
            ]
        },
        {
            "positions": [
                0.0984987002339841,
                -1.4404145313528312,
                2.119991430605308,
                0.5103054603794175,
                -0.3916652334194606,
                1.9695178592866585
            ]
        },
        {
            "positions": [
                0.04782153303099268,
                -1.4014062336029562,
                2.0971917889220304,
                0.5918166731992873,
                -0.48343949523954866,
                1.8713634825987362
            ]
        },
        {
            "positions": [
                -0.0028556341719986333,
                -1.362397935853081,
                2.074392147238753,
                0.6733278860191574,
                -0.5752137570596367,
                1.773209105910814
            ]
        },
        {
            "positions": [
                -0.05353280137499006,
                -1.323389638103206,
                2.0515925055554756,
                0.7548390988390272,
                -0.6669880188797248,
                1.6750547292228917
            ]
        },
        {
            "positions": [
                -0.10420996857798148,
                -1.2843813403533308,
                2.028792863872198,
                0.8363503116588973,
                -0.7587622806998129,
                1.5769003525349694
            ]
        },
        {
            "positions": [
                -0.1548871357809729,
                -1.2453730426034557,
                2.0059932221889203,
                0.9178615244787673,
                -0.850536542519901,
                1.4787459758470471
            ]
        },
        {
            "positions": [
                -0.20556430298396433,
                -1.2063647448535806,
                1.9831935805056429,
                0.9993727372986372,
                -0.942310804339989,
                1.3805915991591249
            ]
        },
        {
            "positions": [
                -0.25624147018695564,
                -1.1673564471037055,
                1.9603939388223652,
                1.0808839501185072,
                -1.0340850661600771,
                1.2824372224712026
            ]
        },
        {
            "positions": [
                -0.3069186373899472,
                -1.1283481493538305,
                1.9375942971390878,
                1.162395162938377,
                -1.1258593279801652,
                1.1842828457832804
            ]
        },
        {
            "positions": [
                -0.3575958045929385,
                -1.0893398516039552,
                1.9147946554558102,
                1.2439063757582471,
                -1.2176335898002533,
                1.086128469095358
            ]
        },
        {
            "positions": [
                -0.4082729717959298,
                -1.0503315538540803,
                1.8919950137725325,
                1.325417588578117,
                -1.3094078516203413,
                0.9879740924074358
            ]
        },
        {
            "positions": [
                -0.45895013899892134,
                -1.0113232561042051,
                1.869195372089255,
                1.406928801397987,
                -1.4011821134404292,
                0.8898197157195136
            ]
        },
        {
            "positions": [
                -0.5096273062019127,
                -0.97231495835433,
                1.8463957304059775,
                1.488440014217857,
                -1.4929563752605175,
                0.7916653390315909
            ]
        },
        {
            "positions": [
                -0.560304473404904,
                -0.9333066606044549,
                1.8235960887227,
                1.5699512270377272,
                -1.5847306370806058,
                0.6935109623436686
            ]
        },
        {
            "positions": [
                -0.6109816406078955,
                -0.8942983628545798,
                1.8007964470394224,
                1.6514624398575968,
                -1.6765048989006937,
                0.5953565856557463
            ]
        },
        {
            "positions": [
                -0.6616588078108868,
                -0.8552900651047046,
                1.7779968053561448,
                1.7329736526774668,
                -1.7682791607207815,
                0.4972022089678241
            ]
        },
        {
            "positions": [
                -0.7123359750138781,
                -0.8162817673548297,
                1.7551971636728672,
                1.814484865497337,
                -1.8600534225408698,
                0.3990478322799018
            ]
        },
        {
            "positions": [
                -0.7630131422168697,
                -0.7772734696049546,
                1.7323975219895897,
                1.895996078317207,
                -1.951827684360958,
                0.30089345559197955
            ]
        },
        {
            "positions": [
                -0.813690309419861,
                -0.7382651718550794,
                1.709597880306312,
                1.9775072911370766,
                -2.043601946181046,
                0.2027390789040573
            ]
        },
        {
            "positions": [
                -0.8643674766228525,
                -0.6992568741052043,
                1.6867982386230347,
                2.0590185039569464,
                -2.1353762080011336,
                0.10458470221613503
            ]
        },
        {
            "positions": [
                -0.9150446438258437,
                -0.6602485763553291,
                1.663998596939757,
                2.1405297167768165,
                -2.2271504698212223,
                0.006430325528212952
            ]
        }
    ]
}