{
    "goal": {
        "global_pose": {
            "orientation": {
                "w": -0.00223480608172531,
                "x": 0.0024358444001904467,
                "y": 0.7094548369677653,
                "z": -0.704743149386269
            },
            "position": {
                "x": 0.6205249238014221,
                "y": -0.6371506643295288,
                "z": 0.19426114857196808
            }
        },
        "name": "move_to_magneteinheit_B"
    },
    "id": "ProjEST_move_to_magneteinheit_B_38",
    "joint_names": [
        "shoulder_pan_joint",
        "shoulder_lift_joint",
        "elbow_joint",
        "wrist_1_joint",
        "wrist_2_joint",
        "wrist_3_joint"
    ],
    "metrics": {
        "cart_traj_len": 3.537460956681202,
        "distance_elbow_joint": 4.956491425430199,
        "distance_shoulder_lift_joint": 0.7856951413052775,
        "distance_shoulder_pan_joint": 1.9540597754845508,
        "distance_wrist_1_joint": 1.4427646822601214,
        "distance_wrist_2_joint": 1.0068957610209401,
        "distance_wrist_3_joint": 4.639124822187652,
        "smoothness": 0.40923077011463527,
        "time": 3.56383698,
        "traj_len": 3.8451308960409585,
        "weighted_distance": 5.149071925633309
    },
    "planner": "ProjEST",
    "start": {
        "state": {
            "elbow_joint": 2.393587130804639,
            "shoulder_lift_joint": -1.9085141043513325,
            "shoulder_pan_joint": 0.7066247066698809,
            "wrist_1_joint": -0.4678290934590222,
            "wrist_2_joint": 0.7096259084215963,
            "wrist_3_joint": 3.147370379541726
        }
    },
    "waypoints": [
        {
            "positions": [
                0.7066247066698809,
                -1.9085141043513325,
                2.393587130804639,
                -0.4678290934590222,
                0.7096259084215963,
                3.147370379541726
            ]
        },
        {
            "positions": [
                0.7256725449508024,
                -1.902031837983072,
                2.4010731910257697,
                -0.3926350383929638,
                0.6318376544748178,
                2.9483507697483637
            ]
        },
        {
            "positions": [
                0.7447203832317237,
                -1.8955495716148114,
                2.4085592512469005,
                -0.3174409833269055,
                0.5540494005280392,
                2.749331159955001
            ]
        },
        {
            "positions": [
                0.7637682215126452,
                -1.889067305246551,
                2.4160453114680314,
                -0.24224692826084715,
                0.4762611465812605,
                2.5503115501616387
            ]
        },
        {
            "positions": [
                0.7828160597935667,
                -1.8825850388782905,
                2.423531371689162,
                -0.1670528731947888,
                0.39847289263448193,
                2.3512919403682764
            ]
        },
        {
            "positions": [
                0.8488333149347731,
                -1.879484385932708,
                2.2564456240548916,
                -0.1446694793653237,
                0.412849600525828,
                2.237087982030394
            ]
        },
        {
            "positions": [
                0.9148505700759795,
                -1.8763837329871254,
                2.0893598764206205,
                -0.12228608553585862,
                0.427226308417174,
                2.1228840236925115
            ]
        },
        {
            "positions": [
                0.9808678252171859,
                -1.8732830800415428,
                1.9222741287863498,
                -0.09990269170639354,
                0.44160301630852006,
                2.0086800653546293
            ]
        },
        {
            "positions": [
                1.0468850803583922,
                -1.8701824270959602,
                1.755188381152079,
                -0.07751929787692846,
                0.45597972419986604,
                1.894476107016747
            ]
        },
        {
            "positions": [
                1.1129023354995986,
                -1.8670817741503776,
                1.5881026335178081,
                -0.05513590404746338,
                0.4703564320912121,
                1.7802721486788646
            ]
        },
        {
            "positions": [
                1.178919590640805,
                -1.863981121204795,
                1.4210168858835373,
                -0.0327525102179983,
                0.4847331399825581,
                1.6660681903409822
            ]
        },
        {
            "positions": [
                1.2449368457820114,
                -1.8608804682592124,
                1.2539311382492666,
                -0.010369116388533217,
                0.49910984787390417,
                1.5518642320031
            ]
        },
        {
            "positions": [
                1.3109541009232177,
                -1.8577798153136298,
                1.0868453906149957,
                0.012014277440931864,
                0.5134865557652502,
                1.4376602736652178
            ]
        },
        {
            "positions": [
                1.3769713560644241,
                -1.8546791623680472,
                0.9197596429807249,
                0.034397671270396946,
                0.5278632636565962,
                1.3234563153273353
            ]
        },
        {
            "positions": [
                1.4429886112056305,
                -1.8515785094224646,
                0.752673895346454,
                0.05678106509986203,
                0.5422399715479422,
                1.2092523569894529
            ]
        },
        {
            "positions": [
                1.5090058663468369,
                -1.848477856476882,
                0.5855881477121831,
                0.07916445892932711,
                0.5566166794392883,
                1.0950483986515707
            ]
        },
        {
            "positions": [
                1.5750231214880432,
                -1.8453772035312994,
                0.4185024000779123,
                0.10154785275879219,
                0.5709933873306343,
                0.9808444403136882
            ]
        },
        {
            "positions": [
                1.6410403766292498,
                -1.842276550585717,
                0.25141665244364164,
                0.12393124658825727,
                0.5853700952219804,
                0.866640481975806
            ]
        },
        {
            "positions": [
                1.7070576317704562,
                -1.8391758976401344,
                0.084330904809371,
                0.14631464041772235,
                0.5997468031133264,
                0.7524365236379236
            ]
        },
        {
            "positions": [
                1.7730748869116626,
                -1.8360752446945519,
                -0.08275484282490009,
                0.16869803424718743,
                0.6141235110046724,
                0.6382325653000411
            ]
        },
        {
            "positions": [
                1.8390921420528688,
                -1.8329745917489693,
                -0.24984059045917073,
                0.19108142807665252,
                0.6285002188960185,
                0.5240286069621589
            ]
        },
        {
            "positions": [
                1.9051093971940753,
                -1.8298739388033867,
                -0.4169263380934418,
                0.2134648219061176,
                0.6428769267873645,
                0.4098246486242765
            ]
        },
        {
            "positions": [
                1.9711266523352815,
                -1.826773285857804,
                -0.5840120857277125,
                0.23584821573558268,
                0.6572536346787106,
                0.29562069028639426
            ]
        },
        {
            "positions": [
                2.037143907476488,
                -1.8236726329122215,
                -0.7510978333619835,
                0.25823160956504776,
                0.6716303425700565,
                0.1814167319485116
            ]
        },
        {
            "positions": [
                2.1031611626176945,
                -1.8205719799666389,
                -0.9181835809962542,
                0.28061500339451284,
                0.6860070504614026,
                0.06721277361062938
            ]
        },
        {
            "positions": [
                2.169178417758901,
                -1.8174713270210563,
                -1.0852693286305253,
                0.3029983972239779,
                0.7003837583527486,
                -0.04699118472725283
            ]
        },
        {
            "positions": [
                2.2351956729001072,
                -1.8143706740754737,
                -1.252355076264796,
                0.325381791053443,
                0.7147604662440946,
                -0.16119514306513505
            ]
        },
        {
            "positions": [
                2.3012129280413136,
                -1.811270021129891,
                -1.4194408238990666,
                0.3477651848829081,
                0.7291371741354407,
                -0.2753991014030177
            ]
        },
        {
            "positions": [
                2.36723018318252,
                -1.8081693681843085,
                -1.5865265715333376,
                0.37014857871237317,
                0.7435138820267867,
                -0.3896030597408999
            ]
        },
        {
            "positions": [
                2.4332474383237264,
                -1.805068715238726,
                -1.7536123191676087,
                0.39253197254183825,
                0.7578905899181327,
                -0.5038070180787821
            ]
        },
        {
            "positions": [
                2.4992646934649327,
                -1.8019680622931433,
                -1.920698066801879,
                0.41491536637130333,
                0.7722672978094788,
                -0.6180109764166644
            ]
        },
        {
            "positions": [
                2.565281948606139,
                -1.7988674093475607,
                -2.08778381443615,
                0.4372987602007684,
                0.7866440057008248,
                -0.7322149347545469
            ]
        },
        {
            "positions": [
                2.5804923447344414,
                -1.8805150707159408,
                -2.0429491525821586,
                0.5030046250421347,
                0.7522367340664853,
                -0.6451681628468767
            ]
        },
        {
            "positions": [
                2.5957027408627438,
                -1.962162732084321,
                -1.9981144907281676,
                0.5687104898835009,
                0.7178294624321457,
                -0.5581213909392067
            ]
        },
        {
            "positions": [
                2.610913136991046,
                -2.0438103934527008,
                -1.9532798288741762,
                0.6344163547248672,
                0.6834221907978061,
                -0.4710746190315365
            ]
        },
        {
            "positions": [
                2.6261235331193484,
                -2.125458054821081,
                -1.908445167020185,
                0.7001222195662336,
                0.6490149191634665,
                -0.38402784712386634
            ]
        },
        {
            "positions": [
                2.6413339292476508,
                -2.207105716189461,
                -1.8636105051661938,
                0.7658280844075998,
                0.614607647529127,
                -0.2969810752161962
            ]
        },
        {
            "positions": [
                2.647784113549911,
                -2.296375762675996,
                -1.7999242754493907,
                0.8355305858720995,
                0.5694292228638653,
                -0.18887919243185328
            ]
        },
        {
            "positions": [
                2.6542342978521716,
                -2.3856458091625314,
                -1.7362380457325877,
                0.9052330873365992,
                0.5242507981986037,
                -0.08077730964751034
            ]
        },
        {
            "positions": [
                2.6606844821544318,
                -2.4749158556490665,
                -1.6725518160157846,
                0.9749355888010991,
                0.4790723735333419,
                0.027324573136832616
            ]
        }
    ]
}