{
    "goal": {
        "global_pose": {
            "orientation": {
                "w": 0.005598929693374612,
                "x": 0.007748599140229565,
                "y": 0.7110244013736278,
                "z": -0.7031023480610252
            },
            "position": {
                "x": 0.1141497679147869,
                "y": -0.7141253447532654,
                "z": 0.3711530566215515
            }
        },
        "name": "move_to_auspresseinheit_B"
    },
    "id": "ProjEST_move_to_auspresseinheit_B_69",
    "joint_names": [
        "shoulder_pan_joint",
        "shoulder_lift_joint",
        "elbow_joint",
        "wrist_1_joint",
        "wrist_2_joint",
        "wrist_3_joint"
    ],
    "metrics": {
        "cart_traj_len": 0.564289941273727,
        "distance_elbow_joint": 0.06226966869799555,
        "distance_shoulder_lift_joint": 0.29382909822929415,
        "distance_shoulder_pan_joint": 0.5745747806789239,
        "distance_wrist_1_joint": 0.32595453703405153,
        "distance_wrist_2_joint": 1.0066837713361745,
        "distance_wrist_3_joint": 0.00405725429558057,
        "smoothness": 5.075305255429287e-16,
        "time": 0.046277731,
        "traj_len": 1.5057785727895123,
        "weighted_distance": 1.8995057060281255
    },
    "planner": "ProjEST",
    "start": {
        "state": {
            "elbow_joint": 2.0193061681459312,
            "shoulder_lift_joint": -1.1220205130644991,
            "shoulder_pan_joint": -1.0952072088045026,
            "wrist_1_joint": -0.8559671810662515,
            "wrist_2_joint": 0.4759638712940361,
            "wrist_3_joint": 3.159081874192446
        }
    },
    "waypoints": [
        {
            "positions": [
                -1.0952072088045026,
                -1.1220205130644991,
                2.0193061681459312,
                -0.8559671810662515,
                0.4759638712940361,
                3.159081874192446
            ]
        },
        {
            "positions": [
                -1.19096967225099,
                -1.170992029436048,
                2.008927890029599,
                -0.8016414248939095,
                0.6437444998500652,
                3.1597580832417096
            ]
        },
        {
            "positions": [
                -1.2867321356974772,
                -1.2199635458075972,
                1.998549611913266,
                -0.7473156687215676,
                0.8115251284060943,
                3.1604342922909727
            ]
        },
        {
            "positions": [
                -1.3824945991439646,
                -1.2689350621791462,
                1.9881713337969336,
                -0.6929899125492257,
                0.9793057569621233,
                3.1611105013402363
            ]
        },
        {
            "positions": [
                -1.4782570625904519,
                -1.3179065785506952,
                1.977793055680601,
                -0.6386641563768838,
                1.1470863855181523,
                3.1617867103895
            ]
        },
        {
            "positions": [
                -1.5740195260369392,
                -1.3668780949222443,
                1.9674147775642683,
                -0.5843384002045419,
                1.3148670140741816,
                3.162462919438763
            ]
        },
        {
            "positions": [
                -1.6697819894834265,
                -1.4158496112937933,
                1.9570364994479357,
                -0.5300126440321999,
                1.4826476426302106,
                3.1631391284880266
            ]
        }
    ]
}