{
    "goal": {
        "global_pose": {
            "orientation": {
                "w": 0.7047431468963623,
                "x": -0.7094548344612122,
                "y": 0.0024358443915843964,
                "z": -0.0022348060738295317
            },
            "position": {
                "x": 0.6094750761985779,
                "y": 0.3671506643295288,
                "z": 0.19426114857196808
            }
        },
        "name": "move_to_magneteinheit_A"
    },
    "id": "ProjEST_move_to_magneteinheit_A_27",
    "joint_names": [
        "shoulder_pan_joint",
        "shoulder_lift_joint",
        "elbow_joint",
        "wrist_1_joint",
        "wrist_2_joint",
        "wrist_3_joint"
    ],
    "metrics": {
        "cart_traj_len": 1.5913639195613627,
        "distance_elbow_joint": 3.540593385234767,
        "distance_shoulder_lift_joint": 1.1443932712045863,
        "distance_shoulder_pan_joint": 1.2415872783210704,
        "distance_wrist_1_joint": 3.908763130222178,
        "distance_wrist_2_joint": 1.691643462758795,
        "distance_wrist_3_joint": 5.102719019679523,
        "smoothness": 2.8917437032925425e-16,
        "time": 0.06666377,
        "traj_len": 4.0779528623343495,
        "weighted_distance": 5.695221170398998
    },
    "planner": "ProjEST",
    "start": {
        "state": {
            "elbow_joint": -1.5739458827952972,
            "shoulder_lift_joint": 0.006533473998580023,
            "shoulder_pan_joint": -1.1188671628667068,
            "wrist_1_joint": 3.138208179676308,
            "wrist_2_joint": -1.5706037135050406,
            "wrist_3_joint": -2.0226958329764257
        }
    },
    "waypoints": [
        {
            "positions": [
                -1.1188671628667068,
                0.006533473998580023,
                -1.5739458827952972,
                3.138208179676308,
                -1.5706037135050406,
                -2.0226958329764257
            ]
        },
        {
            "positions": [
                -1.0893055610019196,
                -0.02071398483962442,
                -1.4896460402897076,
                3.0451423908614945,
                -1.5303264882012597,
                -1.9012025229840561
            ]
        },
        {
            "positions": [
                -1.059743959137132,
                -0.04796144367782886,
                -1.405346197784118,
                2.952076602046681,
                -1.4900492628974789,
                -1.7797092129916865
            ]
        },
        {
            "positions": [
                -1.0301823572723448,
                -0.0752089025160333,
                -1.321046355278528,
                2.859010813231867,
                -1.449772037593698,
                -1.6582159029993169
            ]
        },
        {
            "positions": [
                -1.0006207554075572,
                -0.10245636135423775,
                -1.2367465127729385,
                2.765945024417053,
                -1.4094948122899171,
                -1.5367225930069472
            ]
        },
        {
            "positions": [
                -0.97105915354277,
                -0.12970382019244217,
                -1.1524466702673488,
                2.6728792356022395,
                -1.3692175869861365,
                -1.4152292830145776
            ]
        },
        {
            "positions": [
                -0.9414975516779825,
                -0.1569512790306466,
                -1.0681468277617592,
                2.5798134467874254,
                -1.3289403616823556,
                -1.2937359730222082
            ]
        },
        {
            "positions": [
                -0.9119359498131951,
                -0.18419873786885105,
                -0.9838469852561694,
                2.4867476579726118,
                -1.2886631363785748,
                -1.1722426630298386
            ]
        },
        {
            "positions": [
                -0.8823743479484077,
                -0.2114461967070555,
                -0.8995471427505798,
                2.393681869157798,
                -1.248385911074794,
                -1.050749353037469
            ]
        },
        {
            "positions": [
                -0.8528127460836203,
                -0.23869365554525993,
                -0.81524730024499,
                2.3006160803429845,
                -1.208108685771013,
                -0.9292560430450993
            ]
        },
        {
            "positions": [
                -0.8232511442188329,
                -0.2659411143834644,
                -0.7309474577394004,
                2.207550291528171,
                -1.1678314604672322,
                -0.8077627330527297
            ]
        },
        {
            "positions": [
                -0.7936895423540455,
                -0.29318857322166886,
                -0.6466476152338105,
                2.1144845027133568,
                -1.1275542351634513,
                -0.6862694230603601
            ]
        },
        {
            "positions": [
                -0.7641279404892583,
                -0.32043603205987325,
                -0.5623477727282209,
                2.021418713898543,
                -1.0872770098596707,
                -0.5647761130679907
            ]
        },
        {
            "positions": [
                -0.7345663386244707,
                -0.34768349089807776,
                -0.47804793022263126,
                1.9283529250837292,
                -1.0469997845558896,
                -0.44328280307562085
            ]
        },
        {
            "positions": [
                -0.7050047367596834,
                -0.37493094973628216,
                -0.3937480877170416,
                1.8352871362689156,
                -1.006722559252109,
                -0.32178949308325144
            ]
        },
        {
            "positions": [
                -0.6754431348948959,
                -0.4021784085744866,
                -0.30944824521145176,
                1.7422213474541017,
                -0.966445333948328,
                -0.2002961830908816
            ]
        },
        {
            "positions": [
                -0.6458815330301086,
                -0.42942586741269106,
                -0.22514840270586234,
                1.649155558639288,
                -0.9261681086445472,
                -0.0788028730985122
            ]
        },
        {
            "positions": [
                -0.6163199311653212,
                -0.4566733262508955,
                -0.14084856020027248,
                1.5560897698244742,
                -0.8858908833407664,
                0.04269043689385743
            ]
        },
        {
            "positions": [
                -0.5867583293005338,
                -0.4839207850890999,
                -0.05654871769468284,
                1.4630239810096606,
                -0.8456136580369856,
                0.16418374688622706
            ]
        },
        {
            "positions": [
                -0.5571967274357464,
                -0.5111682439273043,
                0.027751124810907024,
                1.3699581921948467,
                -0.8053364327332047,
                0.2856770568785967
            ]
        },
        {
            "positions": [
                -0.527635125570959,
                -0.5384157027655088,
                0.11205096731649644,
                1.276892403380033,
                -0.7650592074294239,
                0.4071703668709663
            ]
        },
        {
            "positions": [
                -0.49807352370617164,
                -0.5656631616037132,
                0.1963508098220863,
                1.1838266145652192,
                -0.724781982125643,
                0.5286636768633359
            ]
        },
        {
            "positions": [
                -0.46851192184138424,
                -0.5929106204419177,
                0.28065065232767616,
                1.0907608257504053,
                -0.6845047568218622,
                0.6501569868557056
            ]
        },
        {
            "positions": [
                -0.43895031997659684,
                -0.6201580792801221,
                0.3649504948332658,
                0.9976950369355917,
                -0.6442275315180813,
                0.7716502968480756
            ]
        },
        {
            "positions": [
                -0.40938871811180955,
                -0.6474055381183265,
                0.44925033733885544,
                0.904629248120778,
                -0.6039503062143006,
                0.8931436068404444
            ]
        },
        {
            "positions": [
                -0.37982711624702203,
                -0.674652996956531,
                0.5335501798444449,
                0.811563459305964,
                -0.5636730809105197,
                1.0146369168328144
            ]
        },
        {
            "positions": [
                -0.35026551438223463,
                -0.7019004557947355,
                0.6178500223500347,
                0.7184976704911503,
                -0.5233958556067388,
                1.136130226825184
            ]
        },
        {
            "positions": [
                -0.32070391251744723,
                -0.7291479146329399,
                0.7021498648556246,
                0.6254318816763367,
                -0.483118630302958,
                1.2576235368175537
            ]
        },
        {
            "positions": [
                -0.29114231065265994,
                -0.7563953734711443,
                0.786449707361214,
                0.532366092861523,
                -0.44284140499917735,
                1.3791168468099229
            ]
        },
        {
            "positions": [
                -0.26158070878787254,
                -0.7836428323093487,
                0.8707495498668039,
                0.43930030404670894,
                -0.4025641796953965,
                1.5006101568022925
            ]
        },
        {
            "positions": [
                -0.23201910692308514,
                -0.8108902911475532,
                0.9550493923723937,
                0.3462345152318953,
                -0.3622869543916154,
                1.6221034667946626
            ]
        },
        {
            "positions": [
                -0.20245750505829763,
                -0.8381377499857576,
                1.0393492348779836,
                0.25316872641708166,
                -0.32200972908783454,
                1.7435967767870322
            ]
        },
        {
            "positions": [
                -0.17289590319351045,
                -0.8653852088239621,
                1.1236490773835726,
                0.16010293760226801,
                -0.2817325037840539,
                1.8650900867794014
            ]
        },
        {
            "positions": [
                -0.14333430132872294,
                -0.8926326676621665,
                1.2079489198891624,
                0.06703714878745393,
                -0.24145527848027304,
                1.986583396771771
            ]
        },
        {
            "positions": [
                -0.11377269946393564,
                -0.919880126500371,
                1.2922487623947523,
                -0.026028640027359717,
                -0.20117805317649218,
                2.1080767067641406
            ]
        },
        {
            "positions": [
                -0.08421109759914813,
                -0.9471275853385754,
                1.3765486049003421,
                -0.11909442884217336,
                -0.16090082787271132,
                2.2295700167565102
            ]
        },
        {
            "positions": [
                -0.05464949573436084,
                -0.9743750441767798,
                1.4608484474059316,
                -0.212160217656987,
                -0.12062360256893068,
                2.35106332674888
            ]
        },
        {
            "positions": [
                -0.02508789386957333,
                -1.0016225030149843,
                1.5451482899115214,
                -0.3052260064718011,
                -0.08034637726514982,
                2.4725566367412495
            ]
        },
        {
            "positions": [
                0.00447370799521396,
                -1.0288699618531887,
                1.6294481324171113,
                -0.39829179528661474,
                -0.04006915196136873,
                2.594049946733619
            ]
        },
        {
            "positions": [
                0.03403530986000147,
                -1.0561174206913932,
                1.7137479749227007,
                -0.4913575841014284,
                0.0002080733424121295,
                2.7155432567259887
            ]
        },
        {
            "positions": [
                0.06359691172478876,
                -1.0833648795295976,
                1.7980478174282901,
                -0.584423372916242,
                0.04048529864619277,
                2.8370365667183584
            ]
        },
        {
            "positions": [
                0.09315851358957605,
                -1.110612338367802,
                1.88234765993388,
                -0.6774891617310561,
                0.08076252394997363,
                2.958529876710728
            ]
        },
        {
            "positions": [
                0.12272011545436358,
                -1.1378597972060065,
                1.96664750243947,
                -0.7705549505458696,
                0.12103974925375459,
                3.0800231867030976
            ]
        }
    ]
}