{
    "goal": {
        "global_pose": {
            "orientation": {
                "w": 0.005598929693374612,
                "x": 0.007748599140229565,
                "y": 0.7110244013736278,
                "z": -0.7031023480610252
            },
            "position": {
                "x": 0.1141497679147869,
                "y": -0.7141253447532654,
                "z": 0.3711530566215515
            }
        },
        "name": "move_to_auspresseinheit_B"
    },
    "id": "ProjEST_move_to_auspresseinheit_B_140",
    "joint_names": [
        "shoulder_pan_joint",
        "shoulder_lift_joint",
        "elbow_joint",
        "wrist_1_joint",
        "wrist_2_joint",
        "wrist_3_joint"
    ],
    "metrics": {
        "cart_traj_len": 0.564736604634355,
        "distance_elbow_joint": 0.058609831966800474,
        "distance_shoulder_lift_joint": 0.29467906315342907,
        "distance_shoulder_pan_joint": 0.5776178180202407,
        "distance_wrist_1_joint": 0.3132383260981062,
        "distance_wrist_2_joint": 0.9944821967253272,
        "distance_wrist_3_joint": 0.0024872288616797356,
        "smoothness": 0.0,
        "time": 0.09705585700000001,
        "traj_len": 1.497035224978218,
        "weighted_distance": 1.8851550189234771
    },
    "planner": "ProjEST",
    "start": {
        "state": {
            "elbow_joint": 2.0193061681459312,
            "shoulder_lift_joint": -1.1220205130644991,
            "shoulder_pan_joint": -1.0952072088045026,
            "wrist_1_joint": -0.8559671810662515,
            "wrist_2_joint": 0.4759638712940361,
            "wrist_3_joint": 3.159081874192446
        }
    },
    "waypoints": [
        {
            "positions": [
                -1.0952072088045026,
                -1.1220205130644991,
                2.0193061681459312,
                -0.8559671810662515,
                0.4759638712940361,
                3.159081874192446
            ]
        },
        {
            "positions": [
                -1.1914768451412094,
                -1.1711336902567373,
                2.009537862818131,
                -0.8037607933832338,
                0.6417109040815907,
                3.1586673360488327
            ]
        },
        {
            "positions": [
                -1.2877464814779163,
                -1.2202468674489755,
                1.9997695574903311,
                -0.751554405700216,
                0.8074579368691452,
                3.1582527979052193
            ]
        },
        {
            "positions": [
                -1.3840161178146229,
                -1.2693600446412137,
                1.990001252162531,
                -0.6993480180171984,
                0.9732049696566998,
                3.157838259761606
            ]
        },
        {
            "positions": [
                -1.4802857541513297,
                -1.3184732218334518,
                1.9802329468347308,
                -0.6471416303341807,
                1.1389520024442543,
                3.157423721617993
            ]
        },
        {
            "positions": [
                -1.5765553904880365,
                -1.36758639902569,
                1.970464641506931,
                -0.5949352426511629,
                1.3046990352318089,
                3.1570091834743796
            ]
        },
        {
            "positions": [
                -1.6728250268247433,
                -1.4166995762179282,
                1.9606963361791307,
                -0.5427288549681453,
                1.4704460680193634,
                3.1565946453307663
            ]
        }
    ]
}