{
    "goal": {
        "global_pose": {
            "orientation": {
                "w": -0.4816463035849501,
                "x": 0.5182115481033762,
                "y": 0.4908360881923453,
                "z": -0.5084816262002911
            },
            "position": {
                "x": -0.8240239810943604,
                "y": 0.19912469901144506,
                "z": 0.16403168439865112
            }
        },
        "name": "move_to_storage_D"
    },
    "id": "ProjEST_move_to_storage_D_134",
    "joint_names": [
        "shoulder_pan_joint",
        "shoulder_lift_joint",
        "elbow_joint",
        "wrist_1_joint",
        "wrist_2_joint",
        "wrist_3_joint"
    ],
    "metrics": {
        "cart_traj_len": 4.203055642334857,
        "distance_elbow_joint": 4.212193781287484,
        "distance_shoulder_lift_joint": 1.2645397745191849,
        "distance_shoulder_pan_joint": 2.813665033806433,
        "distance_wrist_1_joint": 2.2798430718982856,
        "distance_wrist_2_joint": 0.8746577445277934,
        "distance_wrist_3_joint": 3.139891508747057,
        "smoothness": 1.8219044578801224e-16,
        "time": 0.12946956399999998,
        "traj_len": 3.8190039165712095,
        "weighted_distance": 4.900925907285931
    },
    "planner": "ProjEST",
    "start": {
        "state": {
            "elbow_joint": -2.384821990628643,
            "shoulder_lift_joint": -2.278805467437664,
            "shoulder_pan_joint": -0.18546946439364564,
            "wrist_1_joint": 1.4845938187801415,
            "wrist_2_joint": 0.178987772454074,
            "wrist_3_joint": 0.03710569632802521
        }
    },
    "waypoints": [
        {
            "positions": [
                -0.18546946439364564,
                -2.278805467437664,
                -2.384821990628643,
                1.4845938187801415,
                0.178987772454074,
                0.03710569632802521
            ]
        },
        {
            "positions": [
                -0.04819874426794382,
                -2.2400723622223047,
                -2.30825290441884,
                1.4246282405957333,
                0.21472757939911738,
                0.02191405936791002
            ]
        },
        {
            "positions": [
                0.089071975857758,
                -2.201339257006946,
                -2.2316838182090364,
                1.3646626624113254,
                0.25046738634416077,
                0.006722422407794831
            ]
        },
        {
            "positions": [
                0.22634269598345974,
                -2.1626061517915867,
                -2.1551147319992325,
                1.3046970842269172,
                0.28620719328920413,
                -0.008469214552320359
            ]
        },
        {
            "positions": [
                0.36361341610916165,
                -2.123873046576228,
                -2.078545645789429,
                1.244731506042509,
                0.3219470002342475,
                -0.02366085151243555
            ]
        },
        {
            "positions": [
                0.5008841362348634,
                -2.0851399413608687,
                -2.0019765595796257,
                1.184765927858101,
                0.3576868071792909,
                -0.03885248847255074
            ]
        },
        {
            "positions": [
                0.6381548563605651,
                -2.0464068361455094,
                -1.9254074733698223,
                1.1248003496736931,
                0.3934266141243342,
                -0.05404412543266593
            ]
        },
        {
            "positions": [
                0.775425576486267,
                -2.0076737309301507,
                -1.848838387160019,
                1.064834771489285,
                0.42916642106937763,
                -0.06923576239278112
            ]
        },
        {
            "positions": [
                0.9126962966119689,
                -1.9689406257147914,
                -1.772269300950215,
                1.0048691933048768,
                0.46490622801442105,
                -0.08442739935289631
            ]
        },
        {
            "positions": [
                1.0499670167376707,
                -1.9302075204994324,
                -1.6957002147404117,
                0.9449036151204687,
                0.5006460349594644,
                -0.0996190363130115
            ]
        },
        {
            "positions": [
                1.1872377368633724,
                -1.8914744152840735,
                -1.6191311285306083,
                0.8849380369360607,
                0.5363858419045078,
                -0.11481067327312668
            ]
        },
        {
            "positions": [
                1.2387005165972802,
                -1.8601455323424452,
                -1.4960417385595566,
                0.8249313480055533,
                0.5548594017286992,
                -0.22152407109976613
            ]
        },
        {
            "positions": [
                1.2901632963311878,
                -1.8288166494008167,
                -1.3729523485885047,
                0.764924659075046,
                0.5733329615528906,
                -0.32823746892640554
            ]
        },
        {
            "positions": [
                1.3416260760650955,
                -1.7974877664591884,
                -1.249862958617453,
                0.7049179701445387,
                0.591806521377082,
                -0.434950866753045
            ]
        },
        {
            "positions": [
                1.393088855799003,
                -1.76615888351756,
                -1.126773568646401,
                0.6449112812140314,
                0.6102800812012734,
                -0.5416642645796844
            ]
        },
        {
            "positions": [
                1.4445516355329109,
                -1.7348300005759316,
                -1.0036841786753494,
                0.5849045922835241,
                0.6287536410254648,
                -0.6483776624063239
            ]
        },
        {
            "positions": [
                1.4960144152668184,
                -1.7035011176343033,
                -0.8805947887042976,
                0.5248979033530168,
                0.6472272008496562,
                -0.7550910602329634
            ]
        },
        {
            "positions": [
                1.5474771950007262,
                -1.6721722346926748,
                -0.7575053987332458,
                0.46489121442250947,
                0.6657007606738476,
                -0.8618044580596028
            ]
        },
        {
            "positions": [
                1.5989399747346338,
                -1.6408433517510466,
                -0.6344160087621942,
                0.40488452549200216,
                0.6841743204980391,
                -0.9685178558862422
            ]
        },
        {
            "positions": [
                1.6504027544685416,
                -1.609514468809418,
                -0.5113266187911423,
                0.34487783656149484,
                0.7026478803222306,
                -1.0752312537128819
            ]
        },
        {
            "positions": [
                1.7018655342024491,
                -1.5781855858677898,
                -0.3882372288200906,
                0.28487114763098753,
                0.721121440146422,
                -1.181944651539521
            ]
        },
        {
            "positions": [
                1.753328313936357,
                -1.5468567029261613,
                -0.2651478388490387,
                0.22486445870048022,
                0.7395949999706134,
                -1.2886580493661606
            ]
        },
        {
            "positions": [
                1.8047910936702647,
                -1.515527819984533,
                -0.14205844887798702,
                0.1648577697699729,
                0.7580685597948048,
                -1.3953714471928
            ]
        },
        {
            "positions": [
                1.8562538734041722,
                -1.4841989370429045,
                -0.01896905890693512,
                0.1048510808394656,
                0.7765421196189962,
                -1.5020848450194395
            ]
        },
        {
            "positions": [
                1.9077166531380798,
                -1.4528700541012762,
                0.10412033106411656,
                0.04484439190895828,
                0.7950156794431876,
                -1.608798242846079
            ]
        },
        {
            "positions": [
                1.9591794328719876,
                -1.421541171159648,
                0.22720972103516823,
                -0.015162297021549032,
                0.813489239267379,
                -1.7155116406727184
            ]
        },
        {
            "positions": [
                2.0106422126058954,
                -1.3902122882180197,
                0.3502991110062199,
                -0.07516898595205634,
                0.8319627990915704,
                -1.8222250384993577
            ]
        },
        {
            "positions": [
                2.062104992339803,
                -1.3588834052763912,
                0.4733885009772716,
                -0.13517567488256366,
                0.8504363589157619,
                -1.9289384363259972
            ]
        },
        {
            "positions": [
                2.1135677720737105,
                -1.3275545223347627,
                0.5964778909483237,
                -0.19518236381307097,
                0.8689099187399534,
                -2.035651834152637
            ]
        },
        {
            "positions": [
                2.1650305518076185,
                -1.2962256393931342,
                0.7195672809193754,
                -0.2551890527435783,
                0.8873834785641448,
                -2.1423652319792765
            ]
        },
        {
            "positions": [
                2.216493331541526,
                -1.2648967564515061,
                0.8426566708904271,
                -0.3151957416740856,
                0.9058570383883362,
                -2.2490786298059158
            ]
        },
        {
            "positions": [
                2.2679561112754336,
                -1.2335678735098776,
                0.9657460608614792,
                -0.3752024306045929,
                0.9243305982125276,
                -2.3557920276325555
            ]
        },
        {
            "positions": [
                2.3194188910093416,
                -1.2022389905682491,
                1.0888354508325309,
                -0.4352091195351002,
                0.942804158036719,
                -2.4625054254591947
            ]
        },
        {
            "positions": [
                2.370881670743249,
                -1.170910107626621,
                1.2119248408035825,
                -0.49521580846560753,
                0.9612777178609104,
                -2.569218823285834
            ]
        },
        {
            "positions": [
                2.4223444504771567,
                -1.1395812246849926,
                1.3350142307746342,
                -0.5552224973961148,
                0.9797512776851018,
                -2.6759322211124736
            ]
        },
        {
            "positions": [
                2.4738072302110643,
                -1.108252341743364,
                1.4581036207456863,
                -0.6152291863266222,
                0.9982248375092933,
                -2.7826456189391133
            ]
        },
        {
            "positions": [
                2.525270009944972,
                -1.0769234588017356,
                1.581193010716738,
                -0.6752358752571295,
                1.0166983973334847,
                -2.8893590167657526
            ]
        },
        {
            "positions": [
                2.57673278967888,
                -1.0455945758601075,
                1.7042824006877897,
                -0.7352425641876368,
                1.035171957157676,
                -2.9960724145923923
            ]
        },
        {
            "positions": [
                2.6281955694127874,
                -1.014265692918479,
                1.8273717906588414,
                -0.7952492531181441,
                1.0536455169818675,
                -3.1027858124190315
            ]
        }
    ]
}