{
    "goal": {
        "global_pose": {
            "orientation": {
                "w": 0.005598929693374612,
                "x": 0.007748599140229565,
                "y": 0.7110244013736278,
                "z": -0.7031023480610252
            },
            "position": {
                "x": -0.8858502320852131,
                "y": -0.7141253447532654,
                "z": 0.3711530566215515
            }
        },
        "name": "move_to_auspresseinheit_C"
    },
    "id": "ProjEST_move_to_auspresseinheit_C_113",
    "joint_names": [
        "shoulder_pan_joint",
        "shoulder_lift_joint",
        "elbow_joint",
        "wrist_1_joint",
        "wrist_2_joint",
        "wrist_3_joint"
    ],
    "metrics": {
        "cart_traj_len": 0.4937024240257945,
        "distance_elbow_joint": 1.0210915463617853,
        "distance_shoulder_lift_joint": 0.33541178840987795,
        "distance_shoulder_pan_joint": 0.25518838757979356,
        "distance_wrist_1_joint": 0.7170578791079585,
        "distance_wrist_2_joint": 1.3208043639233853,
        "distance_wrist_3_joint": 0.08857144489896518,
        "smoothness": 4.844609600361787e-16,
        "time": 0.42329875,
        "traj_len": 1.933423236200953,
        "weighted_distance": 2.4399037979213527
    },
    "planner": "ProjEST",
    "start": {
        "state": {
            "elbow_joint": 1.7527959577730765,
            "shoulder_lift_joint": -0.9740617694224828,
            "shoulder_pan_joint": -2.967991417825869,
            "wrist_1_joint": -0.7595177689779385,
            "wrist_2_joint": 1.7443932448376545,
            "wrist_3_joint": 3.1991315425061013
        }
    },
    "waypoints": [
        {
            "positions": [
                -2.967991417825869,
                -0.9740617694224828,
                1.7527959577730765,
                -0.7595177689779385,
                1.7443932448376545,
                3.1991315425061013
            ]
        },
        {
            "positions": [
                -2.9424725790678896,
                -0.940520590581495,
                1.650686803136898,
                -0.6878119810671427,
                1.612312808445316,
                3.190274398016205
            ]
        },
        {
            "positions": [
                -2.91695374030991,
                -0.9069794117405072,
                1.5485776485007194,
                -0.6161061931563468,
                1.4802323720529773,
                3.181417253526308
            ]
        },
        {
            "positions": [
                -2.891434901551931,
                -0.8734382328995194,
                1.446468493864541,
                -0.544400405245551,
                1.3481519356606388,
                3.1725601090364117
            ]
        },
        {
            "positions": [
                -2.8659160627939517,
                -0.8398970540585315,
                1.3443593392283624,
                -0.47269461733475515,
                1.2160714992683004,
                3.1637029645465153
            ]
        },
        {
            "positions": [
                -2.8403972240359723,
                -0.8063558752175438,
                1.2422501845921838,
                -0.4009888294239593,
                1.083991062875962,
                3.154845820056619
            ]
        },
        {
            "positions": [
                -2.814878385277993,
                -0.7728146963765561,
                1.1401410299560053,
                -0.32928304151316345,
                0.9519106264836233,
                3.145988675566722
            ]
        },
        {
            "positions": [
                -2.7893595465200134,
                -0.7392735175355682,
                1.0380318753198268,
                -0.2575772536023676,
                0.8198301900912848,
                3.1371315310768257
            ]
        },
        {
            "positions": [
                -2.7638407077620344,
                -0.7057323386945804,
                0.9359227206836482,
                -0.18587146569157176,
                0.6877497536989461,
                3.1282743865869294
            ]
        },
        {
            "positions": [
                -2.738321869004055,
                -0.6721911598535926,
                0.8338135660474697,
                -0.11416567778077591,
                0.5556693173066076,
                3.1194172420970325
            ]
        },
        {
            "positions": [
                -2.7128030302460755,
                -0.6386499810126048,
                0.7317044114112912,
                -0.042459889869980075,
                0.4235888809142691,
                3.110560097607136
            ]
        }
    ]
}