{
    "goal": {
        "global_pose": {
            "orientation": {
                "w": 0.7047431468963623,
                "x": -0.7094548344612122,
                "y": 0.0024358443915843964,
                "z": -0.0022348060738295317
            },
            "position": {
                "x": 0.6094750761985779,
                "y": 0.3671506643295288,
                "z": 0.19426114857196808
            }
        },
        "name": "move_to_magneteinheit_A"
    },
    "id": "ProjEST_move_to_magneteinheit_A_4",
    "joint_names": [
        "shoulder_pan_joint",
        "shoulder_lift_joint",
        "elbow_joint",
        "wrist_1_joint",
        "wrist_2_joint",
        "wrist_3_joint"
    ],
    "metrics": {
        "cart_traj_len": 1.5931864841886003,
        "distance_elbow_joint": 3.533211034417268,
        "distance_shoulder_lift_joint": 1.1397249927427089,
        "distance_shoulder_pan_joint": 1.242650072837156,
        "distance_wrist_1_joint": 3.8625116483610964,
        "distance_wrist_2_joint": 1.7046743147263583,
        "distance_wrist_3_joint": 5.073270512647325,
        "smoothness": 2.685190586622542e-16,
        "time": 0.161557182,
        "traj_len": 4.068911718842264,
        "weighted_distance": 5.680648692192998
    },
    "planner": "ProjEST",
    "start": {
        "state": {
            "elbow_joint": -1.5739458827952972,
            "shoulder_lift_joint": 0.006533473998580023,
            "shoulder_pan_joint": -1.1188671628667068,
            "wrist_1_joint": 3.138208179676308,
            "wrist_2_joint": -1.5706037135050406,
            "wrist_3_joint": -2.0226958329764257
        }
    },
    "waypoints": [
        {
            "positions": [
                -1.1188671628667068,
                0.006533473998580023,
                -1.5739458827952972,
                3.138208179676308,
                -1.5706037135050406,
                -2.0226958329764257
            ]
        },
        {
            "positions": [
                -1.0892802563705841,
                -0.02060283535243686,
                -1.4898218105472671,
                3.0462436166200915,
                -1.5300162298210798,
                -1.9019036779133942
            ]
        },
        {
            "positions": [
                -1.0596933498744614,
                -0.047739144703453744,
                -1.4056977382992368,
                2.954279053563875,
                -1.4894287461371187,
                -1.7811115228503627
            ]
        },
        {
            "positions": [
                -1.0301064433783385,
                -0.07487545405447063,
                -1.3215736660512067,
                2.8623144905076585,
                -1.448841262453158,
                -1.6603193677873311
            ]
        },
        {
            "positions": [
                -1.0005195368822157,
                -0.10201176340548751,
                -1.2374495938031764,
                2.770349927451442,
                -1.4082537787691969,
                -1.5395272127242996
            ]
        },
        {
            "positions": [
                -0.970932630386093,
                -0.12914807275650436,
                -1.1533255215551463,
                2.678385364395225,
                -1.367666295085236,
                -1.418735057661268
            ]
        },
        {
            "positions": [
                -0.9413457238899703,
                -0.15628438210752127,
                -1.069201449307116,
                2.586420801339009,
                -1.327078811401275,
                -1.2979429025982365
            ]
        },
        {
            "positions": [
                -0.9117588173938476,
                -0.18342069145853815,
                -0.9850773770590859,
                2.494456238282792,
                -1.2864913277173142,
                -1.177150747535205
            ]
        },
        {
            "positions": [
                -0.8821719108977248,
                -0.21055700080955503,
                -0.9009533048110557,
                2.4024916752265755,
                -1.2459038440333532,
                -1.0563585924721735
            ]
        },
        {
            "positions": [
                -0.852585004401602,
                -0.2376933101605719,
                -0.8168292325630256,
                2.3105271121703588,
                -1.2053163603493924,
                -0.9355664374091417
            ]
        },
        {
            "positions": [
                -0.8229980979054793,
                -0.2648296195115888,
                -0.7327051603149954,
                2.2185625491141425,
                -1.1647288766654316,
                -0.8147742823461102
            ]
        },
        {
            "positions": [
                -0.7934111914093565,
                -0.29196592886260575,
                -0.6485810880669651,
                2.126597986057926,
                -1.1241413929814705,
                -0.6939821272830786
            ]
        },
        {
            "positions": [
                -0.7638242849132337,
                -0.3191022382136226,
                -0.564457015818935,
                2.0346334230017096,
                -1.0835539092975097,
                -0.5731899722200471
            ]
        },
        {
            "positions": [
                -0.734237378417111,
                -0.3462385475646395,
                -0.4803329435709047,
                1.9426688599454927,
                -1.0429664256135487,
                -0.45239781715701555
            ]
        },
        {
            "positions": [
                -0.7046504719209883,
                -0.37337485691565636,
                -0.39620887132287463,
                1.8507042968892762,
                -1.0023789419295879,
                -0.331605662093984
            ]
        },
        {
            "positions": [
                -0.6750635654248655,
                -0.40051116626667327,
                -0.3120847990748443,
                1.7587397338330595,
                -0.9617914582456268,
                -0.21081350703095225
            ]
        },
        {
            "positions": [
                -0.6454766589287427,
                -0.4276474756176901,
                -0.22796072682681423,
                1.666775170776843,
                -0.921203974561666,
                -0.09002135196792094
            ]
        },
        {
            "positions": [
                -0.6158897524326199,
                -0.45478378496870703,
                -0.14383665457878414,
                1.5748106077206263,
                -0.8806164908777051,
                0.03077080309511082
            ]
        },
        {
            "positions": [
                -0.5863028459364972,
                -0.4819200943197239,
                -0.05971258233075405,
                1.4828460446644098,
                -0.8400290071937442,
                0.15156295815814236
            ]
        },
        {
            "positions": [
                -0.5567159394403745,
                -0.5090564036707407,
                0.024411489917276263,
                1.3908814816081931,
                -0.7994415235097833,
                0.2723551132211739
            ]
        },
        {
            "positions": [
                -0.5271290329442517,
                -0.5361927130217575,
                0.10853556216530635,
                1.2989169185519767,
                -0.7588540398258223,
                0.39314726828420543
            ]
        },
        {
            "positions": [
                -0.4975421264481289,
                -0.5633290223727745,
                0.19265963441333667,
                1.20695235549576,
                -0.7182665561418614,
                0.513939423347237
            ]
        },
        {
            "positions": [
                -0.46795521995200606,
                -0.5904653317237915,
                0.276783706661367,
                1.1149877924395435,
                -0.6776790724579005,
                0.6347315784102685
            ]
        },
        {
            "positions": [
                -0.43836831345588334,
                -0.6176016410748083,
                0.3609077789093973,
                1.0230232293833268,
                -0.6370915887739395,
                0.7555237334733005
            ]
        },
        {
            "positions": [
                -0.4087814069597606,
                -0.6447379504258252,
                0.44503185115742716,
                0.9310586663271105,
                -0.5965041050899788,
                0.8763158885363316
            ]
        },
        {
            "positions": [
                -0.3791945004636379,
                -0.671874259776842,
                0.5291559234054575,
                0.8390941032708938,
                -0.5559166214060178,
                0.9971080435993631
            ]
        },
        {
            "positions": [
                -0.34960759396751506,
                -0.699010569127859,
                0.6132799956534878,
                0.7471295402146771,
                -0.5153291377220568,
                1.1179001986623947
            ]
        },
        {
            "positions": [
                -0.32002068747139223,
                -0.7261468784788758,
                0.6974040679015181,
                0.6551649771584604,
                -0.47474165403809576,
                1.2386923537254266
            ]
        },
        {
            "positions": [
                -0.2904337809752696,
                -0.7532831878298927,
                0.781528140149548,
                0.5632004141022442,
                -0.43415417035413517,
                1.3594845087884577
            ]
        },
        {
            "positions": [
                -0.2608468744791468,
                -0.7804194971809095,
                0.8656522123975783,
                0.4712358510460275,
                -0.39356668667017414,
                1.4802766638514893
            ]
        },
        {
            "positions": [
                -0.23125996798302406,
                -0.8075558065319265,
                0.9497762846456086,
                0.3792712879898108,
                -0.3529792029862131,
                1.6010688189145212
            ]
        },
        {
            "positions": [
                -0.20167306148690123,
                -0.8346921158829433,
                1.0339003568936385,
                0.2873067249335941,
                -0.3123917193022523,
                1.7218609739775528
            ]
        },
        {
            "positions": [
                -0.17208615499077862,
                -0.8618284252339602,
                1.1180244291416688,
                0.19534216187737785,
                -0.2718042356182915,
                1.8426531290405839
            ]
        },
        {
            "positions": [
                -0.14249924849465578,
                -0.888964734584977,
                1.2021485013896986,
                0.10337759882116115,
                -0.23121675193433044,
                1.9634452841036154
            ]
        },
        {
            "positions": [
                -0.11291234199853295,
                -0.916101043935994,
                1.286272573637729,
                0.011413035764944457,
                -0.19062926825036963,
                2.0842374391666474
            ]
        },
        {
            "positions": [
                -0.08332543550241023,
                -0.9432373532870109,
                1.3703966458857593,
                -0.08055152729127224,
                -0.1500417845664086,
                2.205029594229679
            ]
        },
        {
            "positions": [
                -0.053738529006287505,
                -0.9703736626380277,
                1.4545207181337891,
                -0.1725160903474885,
                -0.10945430088244779,
                2.3258217492927105
            ]
        },
        {
            "positions": [
                -0.024151622510164783,
                -0.9975099719890446,
                1.5386447903818194,
                -0.2644806534037052,
                -0.06886681719848675,
                2.446613904355742
            ]
        },
        {
            "positions": [
                0.005435283985957939,
                -1.0246462813400614,
                1.6227688626298498,
                -0.3564452164599219,
                -0.02827933351452594,
                2.5674060594187735
            ]
        },
        {
            "positions": [
                0.035022190482080884,
                -1.0517825906910785,
                1.70689293487788,
                -0.4484097795161386,
                0.012308150169435095,
                2.688198214481805
            ]
        },
        {
            "positions": [
                0.06460909697820338,
                -1.0789189000420951,
                1.79101700712591,
                -0.5403743425723548,
                0.05289563385339591,
                2.8089903695448366
            ]
        },
        {
            "positions": [
                0.09419600347432633,
                -1.1060552093931122,
                1.8751410793739403,
                -0.6323389056285715,
                0.09348311753735672,
                2.929782524607868
            ]
        },
        {
            "positions": [
                0.12378290997044904,
                -1.133191518744129,
                1.9592651516219703,
                -0.7243034686847881,
                0.13407060122131784,
                3.0505746796708997
            ]
        }
    ]
}