{
    "goal": {
        "global_pose": {
            "orientation": {
                "w": -0.00223480608172531,
                "x": 0.0024358444001904467,
                "y": 0.7094548369677653,
                "z": -0.704743149386269
            },
            "position": {
                "x": -0.37947507619857795,
                "y": -0.6371506643295288,
                "z": 0.19426114857196808
            }
        },
        "name": "move_to_magneteinheit_C"
    },
    "id": "ProjEST_move_to_magneteinheit_C_104",
    "joint_names": [
        "shoulder_pan_joint",
        "shoulder_lift_joint",
        "elbow_joint",
        "wrist_1_joint",
        "wrist_2_joint",
        "wrist_3_joint"
    ],
    "metrics": {
        "cart_traj_len": 1.29952405394791,
        "distance_elbow_joint": 0.3279694610754793,
        "distance_shoulder_lift_joint": 0.5973925324859153,
        "distance_shoulder_pan_joint": 1.9337438163907203,
        "distance_wrist_1_joint": 2.3561691736632824,
        "distance_wrist_2_joint": 2.1386721641438413,
        "distance_wrist_3_joint": 4.260427577123812,
        "smoothness": 1.0635395426994534,
        "time": 0.349228125,
        "traj_len": 3.4079869020996907,
        "weighted_distance": 4.9628692524524345
    },
    "planner": "ProjEST",
    "start": {
        "state": {
            "elbow_joint": 1.9565354006593851,
            "shoulder_lift_joint": -1.4165861576512813,
            "shoulder_pan_joint": -1.6717766223278752,
            "wrist_1_joint": -0.528663328821883,
            "wrist_2_joint": 1.472756589259273,
            "wrist_3_joint": 3.159348288315503
        }
    },
    "waypoints": [
        {
            "positions": [
                -1.6717766223278752,
                -1.4165861576512813,
                1.9565354006593851,
                -0.528663328821883,
                1.472756589259273,
                3.159348288315503
            ]
        },
        {
            "positions": [
                -1.5374222674149822,
                -1.4740334744883,
                1.940659794221873,
                -0.43335399366388716,
                1.4551405505895543,
                3.1401191151872534
            ]
        },
        {
            "positions": [
                -1.403067912502089,
                -1.5314807913253188,
                1.9247841877843612,
                -0.33804465850589127,
                1.4375245119198352,
                3.1208899420590033
            ]
        },
        {
            "positions": [
                -1.2687135575891961,
                -1.5889281081623374,
                1.9089085813468492,
                -0.24273532334789538,
                1.4199084732501164,
                3.1016607689307536
            ]
        },
        {
            "positions": [
                -1.3542207941362026,
                -1.5767686049631275,
                1.920784464888523,
                -0.19611994005451808,
                1.3314753987368901,
                2.970792596400032
            ]
        },
        {
            "positions": [
                -1.439728030683209,
                -1.5646091017639174,
                1.932660348430197,
                -0.14950455676114077,
                1.243042324223664,
                2.8399244238693107
            ]
        },
        {
            "positions": [
                -1.5252352672302156,
                -1.5524495985647073,
                1.9445362319718709,
                -0.1028891734677635,
                1.1546092497104374,
                2.709056251338589
            ]
        },
        {
            "positions": [
                -1.6107425037772218,
                -1.5402900953654974,
                1.9564121155135448,
                -0.05627379017438619,
                1.0661761751972114,
                2.5781880788078673
            ]
        },
        {
            "positions": [
                -1.6962497403242285,
                -1.5281305921662875,
                1.9682879990552187,
                -0.009658406881008885,
                0.9777431006839851,
                2.447319906277146
            ]
        },
        {
            "positions": [
                -1.781756976871235,
                -1.5159710889670774,
                1.9801638825968926,
                0.03695697641236839,
                0.8893100261707587,
                2.3164517337464243
            ]
        },
        {
            "positions": [
                -1.8672642134182413,
                -1.5038115857678673,
                1.9920397661385665,
                0.08357235970574572,
                0.8008769516575325,
                2.1855835612157026
            ]
        },
        {
            "positions": [
                -1.9527714499652478,
                -1.4916520825686574,
                2.0039156496802404,
                0.130187742999123,
                0.7124438771443062,
                2.054715388684981
            ]
        },
        {
            "positions": [
                -2.038278686512254,
                -1.4794925793694476,
                2.0157915332219143,
                0.17680312629250028,
                0.62401080263108,
                1.9238472161542597
            ]
        },
        {
            "positions": [
                -2.123785923059261,
                -1.4673330761702374,
                2.027667416763588,
                0.2234185095858776,
                0.5355777281178538,
                1.792979043623538
            ]
        },
        {
            "positions": [
                -2.209293159606267,
                -1.4551735729710273,
                2.039543300305262,
                0.27003389287925494,
                0.4471446536046274,
                1.6621108710928165
            ]
        },
        {
            "positions": [
                -2.2948003961532737,
                -1.4430140697718175,
                2.051419183846936,
                0.31664927617263217,
                0.35871157909140106,
                1.531242698562095
            ]
        },
        {
            "positions": [
                -2.38030763270028,
                -1.4308545665726076,
                2.06329506738861,
                0.3632646594660095,
                0.2702785045781748,
                1.4003745260313734
            ]
        },
        {
            "positions": [
                -2.4658148692472865,
                -1.4186950633733975,
                2.075170950930284,
                0.40988004275938683,
                0.18184543006494858,
                1.2695063535006519
            ]
        },
        {
            "positions": [
                -2.551322105794293,
                -1.4065355601741873,
                2.0870468344719577,
                0.45649542605276405,
                0.09341235555172234,
                1.1386381809699302
            ]
        },
        {
            "positions": [
                -2.6368293423412994,
                -1.3943760569749775,
                2.0989227180136316,
                0.5031108093461414,
                0.004979281038496153,
                1.0077700084392087
            ]
        },
        {
            "positions": [
                -2.623959366322723,
                -1.3760113951051216,
                2.0917466990644757,
                0.3976852321888886,
                0.0583453643071315,
                1.1755780809025362
            ]
        },
        {
            "positions": [
                -2.611089390304146,
                -1.357646733235266,
                2.0845706801153194,
                0.29225965503163587,
                0.11171144757576684,
                1.3433861533658638
            ]
        },
        {
            "positions": [
                -2.5982194142855697,
                -1.33928207136541,
                2.0773946611661636,
                0.1868340778743831,
                0.1650775308444022,
                1.511194225829191
            ]
        },
        {
            "positions": [
                -2.5853494382669933,
                -1.3209174094955543,
                2.0702186422170077,
                0.08140850071713035,
                0.21844361411303753,
                1.6790022982925186
            ]
        },
        {
            "positions": [
                -2.572479462248417,
                -1.3025527476256986,
                2.0630426232678514,
                -0.02401707644012241,
                0.2718096973816729,
                1.846810370755846
            ]
        },
        {
            "positions": [
                -2.5596094862298404,
                -1.2841880857558428,
                2.0558666043186955,
                -0.12944265359737517,
                0.3251757806503082,
                2.014618443219174
            ]
        },
        {
            "positions": [
                -2.5467395102112635,
                -1.265823423885987,
                2.0486905853695396,
                -0.23486823075462793,
                0.37854186391894357,
                2.182426515682501
            ]
        },
        {
            "positions": [
                -2.533869534192687,
                -1.2474587620161313,
                2.0415145664203833,
                -0.3402938079118807,
                0.4319079471875789,
                2.3502345881458284
            ]
        },
        {
            "positions": [
                -2.5209995581741107,
                -1.2290941001462754,
                2.0343385474712274,
                -0.44571938506913344,
                0.48527403045621426,
                2.518042660609156
            ]
        },
        {
            "positions": [
                -2.508129582155534,
                -1.2107294382764195,
                2.0271625285220716,
                -0.5511449622263862,
                0.5386401137248495,
                2.685850733072484
            ]
        },
        {
            "positions": [
                -2.4952596061369574,
                -1.192364776406564,
                2.0199865095729153,
                -0.656570539383639,
                0.5920061969934849,
                2.8536588055358107
            ]
        },
        {
            "positions": [
                -2.482389630118381,
                -1.174000114536708,
                2.0128104906237594,
                -0.7619961165408917,
                0.6453722802621202,
                3.0214668779991385
            ]
        },
        {
            "positions": [
                -2.4742643754413614,
                -1.1638775261874783,
                2.0085942129174708,
                -0.821284226149116,
                0.6758741369615605,
                3.1166193056867257
            ]
        }
    ]
}