{
    "goal": {
        "global_pose": {
            "orientation": {
                "w": 0.7031023502349854,
                "x": -0.7110244035720825,
                "y": 0.007748599164187908,
                "z": 0.005598929710686207
            },
            "position": {
                "x": 0.11585023208521307,
                "y": 0.44412534475326537,
                "z": 0.3711530566215515
            }
        },
        "name": "move_to_auspresseinheit_A"
    },
    "id": "ProjEST_move_to_auspresseinheit_A_141",
    "joint_names": [
        "shoulder_pan_joint",
        "shoulder_lift_joint",
        "elbow_joint",
        "wrist_1_joint",
        "wrist_2_joint",
        "wrist_3_joint"
    ],
    "metrics": {
        "cart_traj_len": 0.7658648791449557,
        "distance_elbow_joint": 0.6961521107166302,
        "distance_shoulder_lift_joint": 0.5545509662450929,
        "distance_shoulder_pan_joint": 1.045441063228041,
        "distance_wrist_1_joint": 1.4632782797980077,
        "distance_wrist_2_joint": 3.5498787051306806,
        "distance_wrist_3_joint": 1.6952890644963308,
        "smoothness": 1.0159407257643205,
        "time": 0.37472854899999997,
        "traj_len": 3.0007649340817726,
        "weighted_distance": 4.172328522963662
    },
    "planner": "ProjEST",
    "start": {
        "state": {
            "elbow_joint": 2.4225746994637096,
            "shoulder_lift_joint": -1.373653595662188,
            "shoulder_pan_joint": -0.3378633848294565,
            "wrist_1_joint": -1.0288595594406726,
            "wrist_2_joint": 1.2330228066703421,
            "wrist_3_joint": 3.189163495502006
        }
    },
    "waypoints": [
        {
            "positions": [
                -0.3378633848294565,
                -1.373653595662188,
                2.4225746994637096,
                -1.0288595594406726,
                1.2330228066703421,
                3.189163495502006
            ]
        },
        {
            "positions": [
                -0.31165960077702587,
                -1.3727201297886555,
                2.392261176671556,
                -0.9439498489715412,
                1.063420600303293,
                3.1160440661934214
            ]
        },
        {
            "positions": [
                -0.2854558167245953,
                -1.371786663915123,
                2.361947653879402,
                -0.8590401385024098,
                0.8938183939362441,
                3.0429246368848366
            ]
        },
        {
            "positions": [
                -0.2592520326721647,
                -1.3708531980415906,
                2.3316341310872484,
                -0.7741304280332784,
                0.7242161875691949,
                2.969805207576252
            ]
        },
        {
            "positions": [
                -0.2330482486197341,
                -1.369919732168058,
                2.3013206082950948,
                -0.6892207175641469,
                0.5546139812021459,
                2.8966857782676674
            ]
        },
        {
            "positions": [
                -0.2068444645673035,
                -1.3689862662945256,
                2.2710070855029407,
                -0.6043110070950155,
                0.38501177483509674,
                2.823566348959083
            ]
        },
        {
            "positions": [
                -0.1806406805148729,
                -1.368052800420993,
                2.240693562710787,
                -0.5194012966258841,
                0.2154095684680477,
                2.750446919650498
            ]
        },
        {
            "positions": [
                -0.15443689646244227,
                -1.3671193345474606,
                2.2103800399186335,
                -0.43449158615675265,
                0.04580736210099845,
                2.6773274903419138
            ]
        },
        {
            "positions": [
                -0.1282331124100117,
                -1.366185868673928,
                2.1800665171264795,
                -0.3495818756876212,
                -0.12379484426605036,
                2.6042080610333294
            ]
        },
        {
            "positions": [
                -0.1020293283575811,
                -1.3652524028003956,
                2.149752994334326,
                -0.2646721652184898,
                -0.2933970506330996,
                2.5310886317247445
            ]
        },
        {
            "positions": [
                -0.07582554430515048,
                -1.3643189369268631,
                2.1194394715421723,
                -0.17976245474935837,
                -0.46299925700014866,
                2.45796920241616
            ]
        },
        {
            "positions": [
                -0.049621760252719915,
                -1.3633854710533306,
                2.0891259487500182,
                -0.09485274428022694,
                -0.6326014633671975,
                2.3848497731075753
            ]
        },
        {
            "positions": [
                -0.023417976200289292,
                -1.3624520051797981,
                2.0588124259578646,
                -0.009943033811095514,
                -0.8022036697342467,
                2.311730343798991
            ]
        },
        {
            "positions": [
                0.03749832834961687,
                -1.40773111982669,
                2.0865115790587634,
                -0.04697317999179812,
                -0.675982650673739,
                2.3798850031984338
            ]
        },
        {
            "positions": [
                0.09841463289952303,
                -1.453010234473582,
                2.114210732159662,
                -0.08400332617250073,
                -0.5497616316132313,
                2.4480396625978766
            ]
        },
        {
            "positions": [
                0.1593309374494292,
                -1.4982893491204738,
                2.141909885260561,
                -0.12103347235320333,
                -0.42354061255272357,
                2.51619432199732
            ]
        },
        {
            "positions": [
                0.22024724199933535,
                -1.543568463767366,
                2.1696090383614597,
                -0.15806361853390594,
                -0.29731959349221593,
                2.584348981396763
            ]
        },
        {
            "positions": [
                0.2811635465492415,
                -1.5888475784142577,
                2.1973081914623585,
                -0.19509376471460854,
                -0.17109857443170806,
                2.6525036407962057
            ]
        },
        {
            "positions": [
                0.3420798510991477,
                -1.6341266930611495,
                2.225007344563257,
                -0.23212391089531115,
                -0.04487755537120042,
                2.720658300195649
            ]
        },
        {
            "positions": [
                0.4029961556490539,
                -1.6794058077080416,
                2.252706497664156,
                -0.26915405707601375,
                0.08134346368930734,
                2.788812959595092
            ]
        },
        {
            "positions": [
                0.46391246019896,
                -1.7246849223549334,
                2.2804056507650547,
                -0.30618420325671636,
                0.20756448274981487,
                2.8569676189945348
            ]
        },
        {
            "positions": [
                0.5248287647488662,
                -1.7699640370018255,
                2.3081048038659535,
                -0.34321434943741896,
                0.33378550181032285,
                2.9251222783939776
            ]
        },
        {
            "positions": [
                0.5857450692987723,
                -1.8152431516487173,
                2.3358039569668523,
                -0.38024449561812157,
                0.4600065208708306,
                2.9932769377934205
            ]
        },
        {
            "positions": [
                0.6466613738486785,
                -1.8605222662956091,
                2.363503110067751,
                -0.4172746417988242,
                0.5862275399313381,
                3.061431597192864
            ]
        },
        {
            "positions": [
                0.7075776783985847,
                -1.9058013809425012,
                2.39120226316865,
                -0.4543047879795268,
                0.7124485589918458,
                3.1295862565923067
            ]
        }
    ]
}