{
    "goal": {
        "global_pose": {
            "orientation": {
                "w": -0.00223480608172531,
                "x": 0.0024358444001904467,
                "y": 0.7094548369677653,
                "z": -0.704743149386269
            },
            "position": {
                "x": 0.6205249238014221,
                "y": -0.6371506643295288,
                "z": 0.19426114857196808
            }
        },
        "name": "move_to_magneteinheit_B"
    },
    "id": "ProjEST_move_to_magneteinheit_B_127",
    "joint_names": [
        "shoulder_pan_joint",
        "shoulder_lift_joint",
        "elbow_joint",
        "wrist_1_joint",
        "wrist_2_joint",
        "wrist_3_joint"
    ],
    "metrics": {
        "cart_traj_len": 1.4538771638935795,
        "distance_elbow_joint": 0.7315277997001044,
        "distance_shoulder_lift_joint": 1.2492845546962381,
        "distance_shoulder_pan_joint": 1.622030225714,
        "distance_wrist_1_joint": 2.6049646870991143,
        "distance_wrist_2_joint": 2.93525346030606,
        "distance_wrist_3_joint": 3.140202726408928,
        "smoothness": 5.113754555385124e-16,
        "time": 0.089570222,
        "traj_len": 3.504748700538235,
        "weighted_distance": 4.909570964366181
    },
    "planner": "ProjEST",
    "start": {
        "state": {
            "elbow_joint": 2.393587130804639,
            "shoulder_lift_joint": -1.9085141043513325,
            "shoulder_pan_joint": 0.7066247066698809,
            "wrist_1_joint": -0.4678290934590222,
            "wrist_2_joint": 0.7096259084215963,
            "wrist_3_joint": 3.147370379541726
        }
    },
    "waypoints": [
        {
            "positions": [
                0.7066247066698809,
                -1.9085141043513325,
                2.393587130804639,
                -0.4678290934590222,
                0.7096259084215963,
                3.147370379541726
            ]
        },
        {
            "positions": [
                0.6559362621163184,
                -1.869473962017075,
                2.3707268870640106,
                -0.38642394698717486,
                0.617899237787032,
                3.049239044341447
            ]
        },
        {
            "positions": [
                0.6052478175627558,
                -1.8304338196828176,
                2.3478666433233824,
                -0.30501880051532754,
                0.5261725671524676,
                2.951107709141168
            ]
        },
        {
            "positions": [
                0.5545593730091933,
                -1.7913936773485601,
                2.325006399582754,
                -0.22361365404348021,
                0.4344458965179033,
                2.852976373940889
            ]
        },
        {
            "positions": [
                0.5038709284556309,
                -1.7523535350143027,
                2.302146155842126,
                -0.1422085075716329,
                0.3427192258833389,
                2.7548450387406103
            ]
        },
        {
            "positions": [
                0.4531824839020684,
                -1.7133133926800452,
                2.2792859121014977,
                -0.06080336109978557,
                0.25099255524877456,
                2.656713703540331
            ]
        },
        {
            "positions": [
                0.40249403934850586,
                -1.6742732503457878,
                2.256425668360869,
                0.020601785372061754,
                0.1592658846142102,
                2.558582368340052
            ]
        },
        {
            "positions": [
                0.35180559479494333,
                -1.6352331080115303,
                2.2335654246202408,
                0.10200693184390913,
                0.0675392139796458,
                2.460451033139773
            ]
        },
        {
            "positions": [
                0.30111715024138086,
                -1.596192965677273,
                2.2107051808796125,
                0.1834120783157564,
                -0.024187456654918504,
                2.362319697939494
            ]
        },
        {
            "positions": [
                0.2504287056878184,
                -1.5571528233430154,
                2.1878449371389843,
                0.26481722478760367,
                -0.1159141272894828,
                2.264188362739215
            ]
        },
        {
            "positions": [
                0.19974026113425591,
                -1.5181126810087582,
                2.164984693398356,
                0.34622237125945104,
                -0.20764079792404722,
                2.166057027538936
            ]
        },
        {
            "positions": [
                0.14905181658069333,
                -1.4790725386745007,
                2.142124449657728,
                0.4276275177312984,
                -0.2993674685586116,
                2.0679256923386573
            ]
        },
        {
            "positions": [
                0.09836337202713086,
                -1.4400323963402433,
                2.1192642059170996,
                0.5090326642031457,
                -0.3910941391931759,
                1.969794357138378
            ]
        },
        {
            "positions": [
                0.047674927473568385,
                -1.4009922540059858,
                2.0964039621764714,
                0.590437810674993,
                -0.4828208098277402,
                1.871663021938099
            ]
        },
        {
            "positions": [
                -0.003013517079994199,
                -1.3619521116717284,
                2.073543718435843,
                0.6718429571468405,
                -0.5745474804623047,
                1.7735316867378201
            ]
        },
        {
            "positions": [
                -0.05370196163355667,
                -1.322911969337471,
                2.050683474695215,
                0.7532481036186878,
                -0.666274151096869,
                1.675400351537541
            ]
        },
        {
            "positions": [
                -0.10439040618711914,
                -1.2838718270032135,
                2.0278232309545867,
                0.834653250090535,
                -0.7580008217314333,
                1.577269016337262
            ]
        },
        {
            "positions": [
                -0.15507885074068162,
                -1.244831684668956,
                2.0049629872139585,
                0.9160583965623823,
                -0.8497274923659976,
                1.479137681136983
            ]
        },
        {
            "positions": [
                -0.2057672952942441,
                -1.2057915423346985,
                1.98210274347333,
                0.9974635430342296,
                -0.941454163000562,
                1.381006345936704
            ]
        },
        {
            "positions": [
                -0.2564557398478067,
                -1.166751400000441,
                1.9592424997327018,
                1.078868689506077,
                -1.0331808336351265,
                1.282875010736425
            ]
        },
        {
            "positions": [
                -0.30714418440136904,
                -1.1277112576661836,
                1.9363822559920736,
                1.1602738359779243,
                -1.1249075042696908,
                1.184743675536146
            ]
        },
        {
            "positions": [
                -0.35783262895493173,
                -1.0886711153319264,
                1.9135220122514454,
                1.2416789824497716,
                -1.216634174904255,
                1.0866123403358672
            ]
        },
        {
            "positions": [
                -0.4085210735084942,
                -1.0496309729976687,
                1.890661768510817,
                1.323084128921619,
                -1.3083608455388196,
                0.9884810051355881
            ]
        },
        {
            "positions": [
                -0.4592095180620567,
                -1.0105908306634115,
                1.8678015247701887,
                1.4044892753934664,
                -1.400087516173384,
                0.8903496699353091
            ]
        },
        {
            "positions": [
                -0.5098979626156191,
                -0.9715506883291539,
                1.8449412810295605,
                1.4858944218653136,
                -1.4918141868079482,
                0.79221833473503
            ]
        },
        {
            "positions": [
                -0.5605864071691816,
                -0.9325105459948965,
                1.8220810372889322,
                1.5672995683371609,
                -1.5835408574425125,
                0.694086999534751
            ]
        },
        {
            "positions": [
                -0.6112748517227441,
                -0.8934704036606391,
                1.799220793548304,
                1.6487047148090082,
                -1.6752675280770768,
                0.5959556643344719
            ]
        },
        {
            "positions": [
                -0.6619632962763066,
                -0.8544302613263817,
                1.7763605498076758,
                1.7301098612808554,
                -1.766994198711641,
                0.49782432913419283
            ]
        },
        {
            "positions": [
                -0.7126517408298693,
                -0.8153901189921242,
                1.7535003060670475,
                1.8115150077527031,
                -1.8587208693462058,
                0.3996929939339142
            ]
        },
        {
            "positions": [
                -0.7633401853834317,
                -0.7763499766578668,
                1.7306400623264193,
                1.8929201542245504,
                -1.9504475399807701,
                0.30156165873363516
            ]
        },
        {
            "positions": [
                -0.8140286299369942,
                -0.7373098343236093,
                1.707779818585791,
                1.9743253006963977,
                -2.042174210615334,
                0.2034303235333561
            ]
        },
        {
            "positions": [
                -0.8647170744905567,
                -0.6982696919893518,
                1.6849195748451626,
                2.0557304471682447,
                -2.1339008812498985,
                0.10529898833307705
            ]
        },
        {
            "positions": [
                -0.9154055190441192,
                -0.6592295496550945,
                1.6620593311045344,
                2.137135593640092,
                -2.2256275518844633,
                0.007167653132797857
            ]
        }
    ]
}