{
    "goal": {
        "global_pose": {
            "orientation": {
                "w": 0.7047431468963623,
                "x": -0.7094548344612122,
                "y": 0.0024358443915843964,
                "z": -0.0022348060738295317
            },
            "position": {
                "x": 0.6094750761985779,
                "y": 0.3671506643295288,
                "z": 0.19426114857196808
            }
        },
        "name": "move_to_magneteinheit_A"
    },
    "id": "ProjEST_move_to_magneteinheit_A_85",
    "joint_names": [
        "shoulder_pan_joint",
        "shoulder_lift_joint",
        "elbow_joint",
        "wrist_1_joint",
        "wrist_2_joint",
        "wrist_3_joint"
    ],
    "metrics": {
        "cart_traj_len": 1.5931546479171637,
        "distance_elbow_joint": 3.532520799757948,
        "distance_shoulder_lift_joint": 1.138382771815511,
        "distance_shoulder_pan_joint": 1.2412347479689303,
        "distance_wrist_1_joint": 3.8570792864379735,
        "distance_wrist_2_joint": 1.6947282688991474,
        "distance_wrist_3_joint": 5.05554465722852,
        "smoothness": 8.262124899841806e-17,
        "time": 0.1386667,
        "traj_len": 4.064417612906926,
        "weighted_distance": 5.672952265082282
    },
    "planner": "ProjEST",
    "start": {
        "state": {
            "elbow_joint": -1.5739458827952972,
            "shoulder_lift_joint": 0.006533473998580023,
            "shoulder_pan_joint": -1.1188671628667068,
            "wrist_1_joint": 3.138208179676308,
            "wrist_2_joint": -1.5706037135050406,
            "wrist_3_joint": -2.0226958329764257
        }
    },
    "waypoints": [
        {
            "positions": [
                -1.1188671628667068,
                0.006533473998580023,
                -1.5739458827952972,
                3.138208179676308,
                -1.5706037135050406,
                -2.0226958329764257
            ]
        },
        {
            "positions": [
                -1.0893139545817323,
                -0.020570877711313097,
                -1.4898382447058223,
                3.0463729585706423,
                -1.5302530404360133,
                -1.9023257220900325
            ]
        },
        {
            "positions": [
                -1.0597607462967578,
                -0.047675229421206215,
                -1.4057306066163473,
                2.954537737464976,
                -1.489902367366986,
                -1.7819556112036392
            ]
        },
        {
            "positions": [
                -1.0302075380117832,
                -0.07477958113109934,
                -1.3216229685268723,
                2.86270251635931,
                -1.4495516942979587,
                -1.6615855003172457
            ]
        },
        {
            "positions": [
                -1.0006543297268087,
                -0.10188393284099245,
                -1.2375153304373974,
                2.770867295253644,
                -1.4092010212289314,
                -1.5412153894308525
            ]
        },
        {
            "positions": [
                -0.9711011214418341,
                -0.12898828455088557,
                -1.1534076923479224,
                2.679032074147978,
                -1.368850348159904,
                -1.420845278544459
            ]
        },
        {
            "positions": [
                -0.9415479131568597,
                -0.15609263626077868,
                -1.0693000542584477,
                2.587196853042312,
                -1.3284996750908766,
                -1.3004751676580657
            ]
        },
        {
            "positions": [
                -0.9119947048718852,
                -0.1831969879706718,
                -0.9851924161689726,
                2.495361631936646,
                -1.2881490020218493,
                -1.1801050567716724
            ]
        },
        {
            "positions": [
                -0.8824414965869106,
                -0.2103013396805649,
                -0.9010847780794976,
                2.40352641083098,
                -1.247798328952822,
                -1.0597349458852792
            ]
        },
        {
            "positions": [
                -0.8528882883019361,
                -0.23740569139045803,
                -0.8169771399900226,
                2.311691189725314,
                -1.2074476558837948,
                -0.9393648349988859
            ]
        },
        {
            "positions": [
                -0.8233350800169615,
                -0.2645100431003512,
                -0.7328695019005477,
                2.219855968619648,
                -1.1670969828147675,
                -0.8189947241124924
            ]
        },
        {
            "positions": [
                -0.793781871731987,
                -0.2916143948102443,
                -0.6487618638110727,
                2.1280207475139816,
                -1.12674630974574,
                -0.6986246132260991
            ]
        },
        {
            "positions": [
                -0.7642286634470126,
                -0.31871874652013743,
                -0.5646542257215978,
                2.0361855264083157,
                -1.0863956366767127,
                -0.5782545023397059
            ]
        },
        {
            "positions": [
                -0.7346754551620379,
                -0.34582309823003055,
                -0.48054658763212266,
                1.9443503053026496,
                -1.0460449636076854,
                -0.4578843914533124
            ]
        },
        {
            "positions": [
                -0.7051222468770635,
                -0.37292744993992366,
                -0.3964389495426479,
                1.8525150841969837,
                -1.005694290538658,
                -0.3375142805669191
            ]
        },
        {
            "positions": [
                -0.6755690385920889,
                -0.40003180164981683,
                -0.31233131145317294,
                1.7606798630913176,
                -0.9653436174696308,
                -0.21714416968052586
            ]
        },
        {
            "positions": [
                -0.6460158303071144,
                -0.4271361533597099,
                -0.22822367336369798,
                1.6688446419856517,
                -0.9249929444006035,
                -0.09677405879413259
            ]
        },
        {
            "positions": [
                -0.6164626220221399,
                -0.45424050506960306,
                -0.144116035274223,
                1.5770094208799856,
                -0.8846422713315761,
                0.023596052092260678
            ]
        },
        {
            "positions": [
                -0.5869094137371653,
                -0.4813448567794961,
                -0.06000839718474804,
                1.4851741997743195,
                -0.8442915982625488,
                0.14396616297865394
            ]
        },
        {
            "positions": [
                -0.5573562054521908,
                -0.5084492084893892,
                0.024099240904726926,
                1.3933389786686534,
                -0.8039409251935216,
                0.26433627386504766
            ]
        },
        {
            "positions": [
                -0.5278029971672162,
                -0.5355535601992824,
                0.1082068789942019,
                1.3015037575629875,
                -0.7635902521244943,
                0.3847063847514409
            ]
        },
        {
            "positions": [
                -0.4982497888822417,
                -0.5626579119091755,
                0.19231451708367686,
                1.2096685364573214,
                -0.7232395790554669,
                0.5050764956378342
            ]
        },
        {
            "positions": [
                -0.46869658059726715,
                -0.5897622636190686,
                0.27642215517315183,
                1.117833315351655,
                -0.6828889059864395,
                0.6254466065242275
            ]
        },
        {
            "positions": [
                -0.4391433723122926,
                -0.6168666153289618,
                0.360529793262627,
                1.0259980942459892,
                -0.6425382329174122,
                0.7458167174106212
            ]
        },
        {
            "positions": [
                -0.4095901640273182,
                -0.6439709670388548,
                0.44463743135210154,
                0.9341628731403233,
                -0.602187559848385,
                0.866186828297014
            ]
        },
        {
            "positions": [
                -0.38003695574234353,
                -0.6710753187487479,
                0.5287450694415765,
                0.8423276520346574,
                -0.5618368867793575,
                0.9865569391834077
            ]
        },
        {
            "positions": [
                -0.350483747457369,
                -0.698179670458641,
                0.6128527075310519,
                0.7504924309289911,
                -0.5214862137103302,
                1.106927050069801
            ]
        },
        {
            "positions": [
                -0.32093053917239445,
                -0.7252840221685343,
                0.6969603456205269,
                0.6586572098233252,
                -0.48113554064130293,
                1.2272971609561942
            ]
        },
        {
            "positions": [
                -0.29137733088742,
                -0.7523883738784273,
                0.7810679837100014,
                0.5668219887176593,
                -0.44078486757227564,
                1.3476672718425875
            ]
        },
        {
            "positions": [
                -0.2618241226024455,
                -0.7794927255883204,
                0.8651756217994764,
                0.474986767611993,
                -0.40043419450324835,
                1.4680373827289808
            ]
        },
        {
            "positions": [
                -0.23227091431747093,
                -0.8065970772982136,
                0.9492832598889513,
                0.3831515465063271,
                -0.36008352143422107,
                1.588407493615374
            ]
        },
        {
            "positions": [
                -0.20271770603249628,
                -0.8337014290081067,
                1.0333908979784268,
                0.29131632540066077,
                -0.31973284836519356,
                1.7087776045017677
            ]
        },
        {
            "positions": [
                -0.17316449774752196,
                -0.8608057807179997,
                1.1174985360679013,
                0.19948110429499533,
                -0.2793821752961665,
                1.8291477153881606
            ]
        },
        {
            "positions": [
                -0.1436112894625473,
                -0.8879101324278929,
                1.2016061741573763,
                0.107645883189329,
                -0.23903150222713898,
                1.9495178262745543
            ]
        },
        {
            "positions": [
                -0.11405808117757288,
                -0.9150144841377861,
                1.2857138122468512,
                0.015810662083663107,
                -0.1986808291581117,
                2.069887937160947
            ]
        },
        {
            "positions": [
                -0.08450487289259812,
                -0.9421188358476792,
                1.3698214503363262,
                -0.07602455902200322,
                -0.1583301560890844,
                2.190258048047341
            ]
        },
        {
            "positions": [
                -0.054951664607623796,
                -0.9692231875575722,
                1.4539290884258012,
                -0.1678597801276691,
                -0.11797948302005712,
                2.3106281589337336
            ]
        },
        {
            "positions": [
                -0.025398456322649254,
                -0.9963275392674653,
                1.5380367265152761,
                -0.259695001233335,
                -0.07762880995102983,
                2.4309982698201273
            ]
        },
        {
            "positions": [
                0.004154751962325287,
                -1.0234318909773585,
                1.622144364604751,
                -0.35153022233900133,
                -0.037278136882002544,
                2.551368380706521
            ]
        },
        {
            "positions": [
                0.03370796024729983,
                -1.0505362426872518,
                1.706252002694226,
                -0.4433654434446672,
                0.0030725361870249657,
                2.671738491592914
            ]
        },
        {
            "positions": [
                0.06326116853227437,
                -1.0776405943971448,
                1.790359640783701,
                -0.5352006645503331,
                0.04342320925605203,
                2.7921086024793076
            ]
        },
        {
            "positions": [
                0.09281437681724891,
                -1.1047449461070378,
                1.874467278873176,
                -0.627035885655999,
                0.08377388232507954,
                2.9124787133657004
            ]
        },
        {
            "positions": [
                0.12236758510222336,
                -1.131849297816931,
                1.958574916962651,
                -0.7188711067616655,
                0.12412455539410686,
                3.0328488242520946
            ]
        }
    ]
}