{
    "goal": {
        "global_pose": {
            "orientation": {
                "w": 0.005598929693374612,
                "x": 0.007748599140229565,
                "y": 0.7110244013736278,
                "z": -0.7031023480610252
            },
            "position": {
                "x": -0.8858502320852131,
                "y": -0.7141253447532654,
                "z": 0.3711530566215515
            }
        },
        "name": "move_to_auspresseinheit_C"
    },
    "id": "ProjEST_move_to_auspresseinheit_C_95",
    "joint_names": [
        "shoulder_pan_joint",
        "shoulder_lift_joint",
        "elbow_joint",
        "wrist_1_joint",
        "wrist_2_joint",
        "wrist_3_joint"
    ],
    "metrics": {
        "cart_traj_len": 0.49449209565735247,
        "distance_elbow_joint": 1.0134208324574976,
        "distance_shoulder_lift_joint": 0.33123321769864866,
        "distance_shoulder_pan_joint": 0.25664858937948054,
        "distance_wrist_1_joint": 0.7012790298184125,
        "distance_wrist_2_joint": 1.3092355137519385,
        "distance_wrist_3_joint": 0.06893909165430578,
        "smoothness": 0.0,
        "time": 1.033409831,
        "traj_len": 1.9185297169343725,
        "weighted_distance": 2.41436306334388
    },
    "planner": "ProjEST",
    "start": {
        "state": {
            "elbow_joint": 1.7527959577730765,
            "shoulder_lift_joint": -0.9740617694224828,
            "shoulder_pan_joint": -2.967991417825869,
            "wrist_1_joint": -0.7595177689779385,
            "wrist_2_joint": 1.7443932448376545,
            "wrist_3_joint": 3.1991315425061013
        }
    },
    "waypoints": [
        {
            "positions": [
                -2.967991417825869,
                -0.9740617694224828,
                1.7527959577730765,
                -0.7595177689779385,
                1.7443932448376545,
                3.1991315425061013
            ]
        },
        {
            "positions": [
                -2.942326558887921,
                -0.9409384476526179,
                1.6514538745273268,
                -0.6893898659960973,
                1.6134696934624606,
                3.1922376333406706
            ]
        },
        {
            "positions": [
                -2.916661699949973,
                -0.907815125882753,
                1.550111791281577,
                -0.6192619630142561,
                1.4825461420872668,
                3.1853437241752403
            ]
        },
        {
            "positions": [
                -2.890996841012025,
                -0.8746918041128882,
                1.4487697080358273,
                -0.5491340600324148,
                1.351622590712073,
                3.1784498150098095
            ]
        },
        {
            "positions": [
                -2.865331982074077,
                -0.8415684823430233,
                1.3474276247900774,
                -0.47900615705057353,
                1.220699039336879,
                3.171555905844379
            ]
        },
        {
            "positions": [
                -2.839667123136129,
                -0.8084451605731584,
                1.2460855415443277,
                -0.4088782540687323,
                1.0897754879616852,
                3.1646619966789484
            ]
        },
        {
            "positions": [
                -2.8140022641981806,
                -0.7753218388032936,
                1.1447434582985778,
                -0.33875035108689106,
                0.9588519365864914,
                3.1577680875135177
            ]
        },
        {
            "positions": [
                -2.7883374052602328,
                -0.7421985170334288,
                1.0434013750528282,
                -0.2686224481050498,
                0.8279283852112976,
                3.1508741783480874
            ]
        },
        {
            "positions": [
                -2.7626725463222845,
                -0.7090751952635639,
                0.9420592918070784,
                -0.19849454512320852,
                0.6970048338361037,
                3.1439802691826566
            ]
        },
        {
            "positions": [
                -2.7370076873843368,
                -0.675951873493699,
                0.8407172085613287,
                -0.12836664214136728,
                0.5660812824609098,
                3.1370863600172263
            ]
        },
        {
            "positions": [
                -2.7113428284463885,
                -0.6428285517238341,
                0.7393751253155788,
                -0.05823873915952606,
                0.4351577310857161,
                3.1301924508517955
            ]
        }
    ]
}