{
    "goal": {
        "global_pose": {
            "orientation": {
                "w": -0.00223480608172531,
                "x": 0.0024358444001904467,
                "y": 0.7094548369677653,
                "z": -0.704743149386269
            },
            "position": {
                "x": -0.37947507619857795,
                "y": -0.6371506643295288,
                "z": 0.19426114857196808
            }
        },
        "name": "move_to_magneteinheit_C"
    },
    "id": "ProjEST_move_to_magneteinheit_C_26",
    "joint_names": [
        "shoulder_pan_joint",
        "shoulder_lift_joint",
        "elbow_joint",
        "wrist_1_joint",
        "wrist_2_joint",
        "wrist_3_joint"
    ],
    "metrics": {
        "cart_traj_len": 4.654584826812503,
        "distance_elbow_joint": 3.096378331007656,
        "distance_shoulder_lift_joint": 0.8919979100084987,
        "distance_shoulder_pan_joint": 5.545365879472866,
        "distance_wrist_1_joint": 1.1501955648346538,
        "distance_wrist_2_joint": 1.5635305890996158,
        "distance_wrist_3_joint": 3.8810477043502245,
        "smoothness": 0.9684878453859017,
        "time": 0.61621513,
        "traj_len": 4.016032367744751,
        "weighted_distance": 5.157939272753047
    },
    "planner": "ProjEST",
    "start": {
        "state": {
            "elbow_joint": 1.9565354006593851,
            "shoulder_lift_joint": -1.4165861576512813,
            "shoulder_pan_joint": -1.6717766223278752,
            "wrist_1_joint": -0.528663328821883,
            "wrist_2_joint": 1.472756589259273,
            "wrist_3_joint": 3.159348288315503
        }
    },
    "waypoints": [
        {
            "positions": [
                -1.6717766223278752,
                -1.4165861576512813,
                1.9565354006593851,
                -0.528663328821883,
                1.472756589259273,
                3.159348288315503
            ]
        },
        {
            "positions": [
                -1.6801410868204643,
                -1.4888654791431164,
                1.8877730376181732,
                -0.609520527144953,
                1.4125749704840183,
                3.1095706490991866
            ]
        },
        {
            "positions": [
                -1.6885055513130531,
                -1.5611448006349515,
                1.8190106745769612,
                -0.690377725468023,
                1.3523933517087636,
                3.05979300988287
            ]
        },
        {
            "positions": [
                -1.6968700158056422,
                -1.6334241221267867,
                1.7502483115357492,
                -0.7712349237910929,
                1.2922117329335088,
                3.0100153706665536
            ]
        },
        {
            "positions": [
                -1.5579331497844193,
                -1.6394016930269684,
                1.6949117489579728,
                -0.7559361336022609,
                1.2391038770294616,
                2.9036199705828185
            ]
        },
        {
            "positions": [
                -1.4189962837631966,
                -1.6453792639271503,
                1.6395751863801962,
                -0.7406373434134288,
                1.1859960211254144,
                2.7972245704990835
            ]
        },
        {
            "positions": [
                -1.2800594177419737,
                -1.651356834827332,
                1.5842386238024198,
                -0.7253385532245967,
                1.132888165221367,
                2.6908291704153484
            ]
        },
        {
            "positions": [
                -1.141122551720751,
                -1.6573344057275137,
                1.5289020612246433,
                -0.7100397630357647,
                1.0797803093173197,
                2.584433770331614
            ]
        },
        {
            "positions": [
                -1.0021856856995282,
                -1.6633119766276956,
                1.4735654986468667,
                -0.6947409728469326,
                1.0266724534132725,
                2.4780383702478788
            ]
        },
        {
            "positions": [
                -0.8632488196783054,
                -1.6692895475278773,
                1.4182289360690903,
                -0.6794421826581005,
                0.9735645975092252,
                2.3716429701641437
            ]
        },
        {
            "positions": [
                -0.7243119536570827,
                -1.675267118428059,
                1.3628923734913139,
                -0.6641433924692685,
                0.920456741605178,
                2.2652475700804087
            ]
        },
        {
            "positions": [
                -0.5853750876358599,
                -1.681244689328241,
                1.3075558109135372,
                -0.6488446022804364,
                0.8673488857011307,
                2.158852169996674
            ]
        },
        {
            "positions": [
                -0.446438221614637,
                -1.6872222602284226,
                1.2522192483357608,
                -0.6335458120916043,
                0.8142410297970835,
                2.052456769912939
            ]
        },
        {
            "positions": [
                -0.30750135559341407,
                -1.6931998311286045,
                1.1968826857579842,
                -0.6182470219027723,
                0.7611331738930361,
                1.9460613698292037
            ]
        },
        {
            "positions": [
                -0.1685644895721914,
                -1.6991774020287862,
                1.1415461231802078,
                -0.6029482317139402,
                0.7080253179889889,
                1.839665969745469
            ]
        },
        {
            "positions": [
                -0.029627623550968485,
                -1.705154972928968,
                1.0862095606024313,
                -0.5876494415251081,
                0.6549174620849416,
                1.7332705696617339
            ]
        },
        {
            "positions": [
                0.10930924247025398,
                -1.7111325438291498,
                1.030872998024655,
                -0.572350651336276,
                0.6018096061808944,
                1.626875169577999
            ]
        },
        {
            "positions": [
                0.24824610849147688,
                -1.7171101147293315,
                0.9755364354468783,
                -0.557051861147444,
                0.5487017502768472,
                1.520479769494264
            ]
        },
        {
            "positions": [
                0.38718297451269956,
                -1.7230876856295132,
                0.9201998728691019,
                -0.5417530709586119,
                0.4955938943727999,
                1.4140843694105292
            ]
        },
        {
            "positions": [
                0.5261198405339225,
                -1.7290652565296951,
                0.8648633102913253,
                -0.5264542807697798,
                0.4424860384687527,
                1.3076889693267941
            ]
        },
        {
            "positions": [
                0.6650567065551454,
                -1.7350428274298768,
                0.8095267477135488,
                -0.5111554905809478,
                0.38937818256470536,
                1.201293569243059
            ]
        },
        {
            "positions": [
                0.49015996900407327,
                -1.7327082945713796,
                0.8969176971656081,
                -0.5018174202413864,
                0.41051689637888295,
                1.2943980422864767
            ]
        },
        {
            "positions": [
                0.31526323145300117,
                -1.7303737617128827,
                0.9843086466176674,
                -0.4924793499018252,
                0.4316556101930605,
                1.3875025153298943
            ]
        },
        {
            "positions": [
                0.14036649390192912,
                -1.7280392288543855,
                1.0716995960697266,
                -0.4831412795622638,
                0.45279432400723807,
                1.480606988373312
            ]
        },
        {
            "positions": [
                -0.03453024364914303,
                -1.7257046959958886,
                1.159090545521786,
                -0.4738032092227025,
                0.4739330378214156,
                1.5737114614167296
            ]
        },
        {
            "positions": [
                -0.2094269812002152,
                -1.7233701631373914,
                1.2464814949738452,
                -0.4644651388831412,
                0.49507175163559325,
                1.6668159344601472
            ]
        },
        {
            "positions": [
                -0.3843237187512871,
                -1.7210356302788943,
                1.3338724444259045,
                -0.4551270685435799,
                0.5162104654497708,
                1.7599204075035646
            ]
        },
        {
            "positions": [
                -0.5592204563023595,
                -1.7187010974203973,
                1.4212633938779637,
                -0.4457889982040186,
                0.5373491792639483,
                1.8530248805469824
            ]
        },
        {
            "positions": [
                -0.7341171938534314,
                -1.7163665645619002,
                1.508654343330023,
                -0.43645092786445727,
                0.5584878930781259,
                1.9461293535903998
            ]
        },
        {
            "positions": [
                -0.9090139314045036,
                -1.714032031703403,
                1.5960452927820823,
                -0.427112857524896,
                0.5796266068923035,
                2.0392338266338177
            ]
        },
        {
            "positions": [
                -1.0839106689555758,
                -1.711697498844906,
                1.6834362422341416,
                -0.4177747871853347,
                0.6007653207064811,
                2.132338299677235
            ]
        },
        {
            "positions": [
                -1.258807406506648,
                -1.709362965986409,
                1.7708271916862008,
                -0.4084367168457733,
                0.6219040345206587,
                2.225442772720653
            ]
        },
        {
            "positions": [
                -1.4337041440577196,
                -1.707028433127912,
                1.8582181411382601,
                -0.3990986465062121,
                0.6430427483348362,
                2.31854724576407
            ]
        },
        {
            "positions": [
                -1.6086008816087918,
                -1.7046939002694148,
                1.9456090905903194,
                -0.3897605761666507,
                0.6641814621490139,
                2.4116517188074877
            ]
        },
        {
            "positions": [
                -1.7834976191598644,
                -1.7023593674109176,
                2.0330000400423787,
                -0.3804225058270894,
                0.6853201759631913,
                2.5047561918509054
            ]
        },
        {
            "positions": [
                -1.9583943567109365,
                -1.7000248345524207,
                2.120390989494438,
                -0.3710844354875281,
                0.7064588897773689,
                2.5978606648943234
            ]
        },
        {
            "positions": [
                -2.1332910942620082,
                -1.6976903016939235,
                2.207781938946497,
                -0.36174636514796676,
                0.7275976035915465,
                2.6909651379377406
            ]
        },
        {
            "positions": [
                -2.3081878318130804,
                -1.6953557688354266,
                2.2951728883985565,
                -0.3524082948084055,
                0.748736317405724,
                2.7840696109811582
            ]
        },
        {
            "positions": [
                -2.4830845693641526,
                -1.6930212359769294,
                2.3825638378506158,
                -0.34307022446884416,
                0.7698750312199016,
                2.877174084024576
            ]
        },
        {
            "positions": [
                -2.4810436718211504,
                -1.5867173062215383,
                2.3072973202656653,
                -0.43896207857748315,
                0.7499439644699315,
                2.9265965781238283
            ]
        },
        {
            "positions": [
                -2.479002774278148,
                -1.4804133764661471,
                2.2320308026807147,
                -0.5348539326861221,
                0.7300128977199615,
                2.9760190722230813
            ]
        },
        {
            "positions": [
                -2.476961876735146,
                -1.374109446710756,
                2.156764285095764,
                -0.630745786794761,
                0.7100818309699913,
                3.0254415663223337
            ]
        },
        {
            "positions": [
                -2.474920979192144,
                -1.2678055169553648,
                2.0814977675108133,
                -0.7266376409034001,
                0.6901507642200213,
                3.0748640604215867
            ]
        },
        {
            "positions": [
                -2.4728800816491416,
                -1.1615015871999737,
                2.0062312499258628,
                -0.822529495012039,
                0.6702196974700512,
                3.124286554520839
            ]
        }
    ]
}