{
    "goal": {
        "global_pose": {
            "orientation": {
                "w": -0.00223480608172531,
                "x": 0.0024358444001904467,
                "y": 0.7094548369677653,
                "z": -0.704743149386269
            },
            "position": {
                "x": -0.37947507619857795,
                "y": -0.6371506643295288,
                "z": 0.19426114857196808
            }
        },
        "name": "move_to_magneteinheit_C"
    },
    "id": "ProjEST_move_to_magneteinheit_C_101",
    "joint_names": [
        "shoulder_pan_joint",
        "shoulder_lift_joint",
        "elbow_joint",
        "wrist_1_joint",
        "wrist_2_joint",
        "wrist_3_joint"
    ],
    "metrics": {
        "cart_traj_len": 1.2738390099753234,
        "distance_elbow_joint": 1.3170911837379953,
        "distance_shoulder_lift_joint": 1.1208099162379674,
        "distance_shoulder_pan_joint": 2.09758434663422,
        "distance_wrist_1_joint": 2.270184372880066,
        "distance_wrist_2_joint": 1.1156471698218988,
        "distance_wrist_3_joint": 1.9876456586526299,
        "smoothness": 1.1718098854062429,
        "time": 0.432276965,
        "traj_len": 3.147850480560469,
        "weighted_distance": 4.155729239011127
    },
    "planner": "ProjEST",
    "start": {
        "state": {
            "elbow_joint": 1.9565354006593851,
            "shoulder_lift_joint": -1.4165861576512813,
            "shoulder_pan_joint": -1.6717766223278752,
            "wrist_1_joint": -0.528663328821883,
            "wrist_2_joint": 1.472756589259273,
            "wrist_3_joint": 3.159348288315503
        }
    },
    "waypoints": [
        {
            "positions": [
                -1.6717766223278752,
                -1.4165861576512813,
                1.9565354006593851,
                -0.528663328821883,
                1.472756589259273,
                3.159348288315503
            ]
        },
        {
            "positions": [
                -1.7151232734929505,
                -1.4323246647978014,
                1.9335802019618498,
                -0.39622984425890795,
                1.4330325522983334,
                3.0293858999288057
            ]
        },
        {
            "positions": [
                -1.7584699246580255,
                -1.4480631719443218,
                1.9106250032643144,
                -0.26379635969593285,
                1.3933085153373936,
                2.8994235115421088
            ]
        },
        {
            "positions": [
                -1.8018165758231008,
                -1.463801679090842,
                1.887669804566779,
                -0.13136287513295775,
                1.353584478376454,
                2.7694611231554114
            ]
        },
        {
            "positions": [
                -1.8624958660747644,
                -1.4726496063940246,
                1.8671618649700061,
                -0.012775925614941494,
                1.296452382283178,
                2.6450474412008083
            ]
        },
        {
            "positions": [
                -1.9231751563264279,
                -1.4814975336972074,
                1.8466539253732333,
                0.10581102390307476,
                1.2393202861899018,
                2.5206337592462056
            ]
        },
        {
            "positions": [
                -1.9838544465780914,
                -1.4903454610003903,
                1.8261459857764601,
                0.22439797342109097,
                1.1821881900966258,
                2.3962200772916025
            ]
        },
        {
            "positions": [
                -2.044533736829755,
                -1.499193388303573,
                1.8056380461796873,
                0.34298492293910726,
                1.1250560940033496,
                2.2718063953369994
            ]
        },
        {
            "positions": [
                -2.1052130270814184,
                -1.5080413156067558,
                1.7851301065829144,
                0.4615718724571235,
                1.0679239979100736,
                2.1473927133823967
            ]
        },
        {
            "positions": [
                -2.2181547026295756,
                -1.546077848739415,
                1.8611514339933777,
                0.33083834158419717,
                1.0856395670511838,
                2.160212231074933
            ]
        },
        {
            "positions": [
                -2.331096378177733,
                -1.5841143818720742,
                1.9371727614038412,
                0.20010481071127084,
                1.103355136192294,
                2.173031748767469
            ]
        },
        {
            "positions": [
                -2.4440380537258903,
                -1.6221509150047333,
                2.0131940888143047,
                0.06937127983834457,
                1.121070705333404,
                2.185851266460005
            ]
        },
        {
            "positions": [
                -2.556979729274048,
                -1.6601874481373924,
                2.089215416224768,
                -0.061362251034581816,
                1.138786274474514,
                2.198670784152541
            ]
        },
        {
            "positions": [
                -2.669921404822205,
                -1.6982239812700517,
                2.1652367436352313,
                -0.1920957819075081,
                1.1565018436156242,
                2.2114903018450773
            ]
        },
        {
            "positions": [
                -2.7828630803703627,
                -1.7362605144027108,
                2.241258071045695,
                -0.32282931278043436,
                1.1742174127567344,
                2.224309819537613
            ]
        },
        {
            "positions": [
                -2.89580475591852,
                -1.7742970475353699,
                2.317279398456158,
                -0.45356284365336075,
                1.1919329818978444,
                2.2371293372301495
            ]
        },
        {
            "positions": [
                -3.008746431466677,
                -1.812333580668029,
                2.3933007258666215,
                -0.5842963745262871,
                1.2096485510389545,
                2.2499488549226854
            ]
        },
        {
            "positions": [
                -3.1216881070148346,
                -1.8503701138006883,
                2.469322053277085,
                -0.7150299053992134,
                1.2273641201800647,
                2.2627683726152217
            ]
        },
        {
            "positions": [
                -3.049724455687361,
                -1.7740338960130704,
                2.4180449485029345,
                -0.7265129491486271,
                1.1661002917130971,
                2.3583588642248547
            ]
        },
        {
            "positions": [
                -2.977760804359888,
                -1.6976976782254527,
                2.366767843728784,
                -0.7379959928980409,
                1.1048364632461296,
                2.453949355834488
            ]
        },
        {
            "positions": [
                -2.9057971530324145,
                -1.6213614604378348,
                2.3154907389546335,
                -0.7494790366474545,
                1.0435726347791618,
                2.5495398474441213
            ]
        },
        {
            "positions": [
                -2.833833501704941,
                -1.5450252426502171,
                2.264213634180483,
                -0.7609620803968683,
                0.9823088063121943,
                2.6451303390537544
            ]
        },
        {
            "positions": [
                -2.761869850377468,
                -1.468689024862599,
                2.212936529406333,
                -0.772445124146282,
                0.9210449778452267,
                2.7407208306633875
            ]
        },
        {
            "positions": [
                -2.6899061990499944,
                -1.3923528070749813,
                2.1616594246321825,
                -0.7839281678956957,
                0.8597811493782591,
                2.8363113222730205
            ]
        },
        {
            "positions": [
                -2.617942547722521,
                -1.3160165892873636,
                2.110382319858032,
                -0.7954112116451094,
                0.7985173209112915,
                2.9319018138826536
            ]
        },
        {
            "positions": [
                -2.545978896395048,
                -1.2396803714997457,
                2.0591052150838816,
                -0.8068942553945231,
                0.7372534924443239,
                3.027492305492287
            ]
        },
        {
            "positions": [
                -2.4740152450675743,
                -1.1633441537121278,
                2.007828110309731,
                -0.8183772991439369,
                0.6759896639773563,
                3.12308279710192
            ]
        }
    ]
}