{
    "goal": {
        "global_pose": {
            "orientation": {
                "w": 0.7031023480610252,
                "x": -0.7110244013736278,
                "y": 0.0077485991402295624,
                "z": 0.005598929693374583
            },
            "position": {
                "x": -0.8841497679147869,
                "y": 0.44412534475326537,
                "z": 0.3711530566215515
            }
        },
        "name": "move_to_auspresseinheit_D"
    },
    "id": "ProjEST_move_to_auspresseinheit_D_49",
    "joint_names": [
        "shoulder_pan_joint",
        "shoulder_lift_joint",
        "elbow_joint",
        "wrist_1_joint",
        "wrist_2_joint",
        "wrist_3_joint"
    ],
    "metrics": {
        "cart_traj_len": 0.342931814022991,
        "distance_elbow_joint": 0.633418662517619,
        "distance_shoulder_lift_joint": 0.1182933886879769,
        "distance_shoulder_pan_joint": 0.13390687440455737,
        "distance_wrist_1_joint": 0.5198560189219381,
        "distance_wrist_2_joint": 1.4396784159558655,
        "distance_wrist_3_joint": 0.015373595348111113,
        "smoothness": 3.947459674368863e-16,
        "time": 0.044646983,
        "traj_len": 1.6913092431119947,
        "weighted_distance": 2.2024551258561647
    },
    "planner": "ProjEST",
    "start": {
        "state": {
            "elbow_joint": -1.8275484843655228,
            "shoulder_lift_joint": -2.1267897864000416,
            "shoulder_pan_joint": -0.035127520176001514,
            "wrist_1_joint": -2.3477863256791385,
            "wrist_2_joint": -1.605890476484521,
            "wrist_3_joint": -3.0880375317375353
        }
    },
    "waypoints": [
        {
            "positions": [
                -0.035127520176001514,
                -2.1267897864000416,
                -1.8275484843655228,
                -2.3477863256791385,
                -1.605890476484521,
                -3.0880375317375353
            ]
        },
        {
            "positions": [
                -0.05186587947657119,
                -2.1415764599860387,
                -1.7483711515508205,
                -2.412768328044381,
                -1.4259306744900377,
                -3.0899592311560493
            ]
        },
        {
            "positions": [
                -0.06860423877714086,
                -2.156363133572036,
                -1.669193818736118,
                -2.477750330409623,
                -1.2459708724955547,
                -3.091880930574563
            ]
        },
        {
            "positions": [
                -0.08534259807771052,
                -2.171149807158033,
                -1.5900164859214156,
                -2.5427323327748654,
                -1.0660110705010715,
                -3.093802629993077
            ]
        },
        {
            "positions": [
                -0.1020809573782802,
                -2.1859364807440302,
                -1.5108391531067134,
                -2.6077143351401073,
                -0.8860512685065882,
                -3.095724329411591
            ]
        },
        {
            "positions": [
                -0.11881931667884987,
                -2.200723154330027,
                -1.4316618202920108,
                -2.6726963375053496,
                -0.706091466512105,
                -3.0976460288301046
            ]
        },
        {
            "positions": [
                -0.13555767597941953,
                -2.215509827916024,
                -1.3524844874773085,
                -2.737678339870592,
                -0.5261316645176219,
                -3.0995677282486187
            ]
        },
        {
            "positions": [
                -0.1522960352799892,
                -2.2302965015020213,
                -1.2733071546626062,
                -2.8026603422358343,
                -0.3461718625231387,
                -3.1014894276671323
            ]
        },
        {
            "positions": [
                -0.16903439458055888,
                -2.2450831750880185,
                -1.1941298218479037,
                -2.8676423446010766,
                -0.16621206052865548,
                -3.1034111270856464
            ]
        }
    ]
}