{
    "goal": {
        "global_pose": {
            "orientation": {
                "w": 0.7031023480610252,
                "x": -0.7110244013736278,
                "y": 0.0077485991402295624,
                "z": 0.005598929693374583
            },
            "position": {
                "x": -0.8841497679147869,
                "y": 0.44412534475326537,
                "z": 0.3711530566215515
            }
        },
        "name": "move_to_auspresseinheit_D"
    },
    "id": "ProjEST_move_to_auspresseinheit_D_148",
    "joint_names": [
        "shoulder_pan_joint",
        "shoulder_lift_joint",
        "elbow_joint",
        "wrist_1_joint",
        "wrist_2_joint",
        "wrist_3_joint"
    ],
    "metrics": {
        "cart_traj_len": 0.34418529102262563,
        "distance_elbow_joint": 0.64533386467253,
        "distance_shoulder_lift_joint": 0.12472627337530318,
        "distance_shoulder_pan_joint": 0.1344336829475917,
        "distance_wrist_1_joint": 0.5492252189931532,
        "distance_wrist_2_joint": 1.4430512635268833,
        "distance_wrist_3_joint": 0.004253776764093775,
        "smoothness": 3.9474596431116675e-16,
        "time": 0.159658723,
        "traj_len": 1.703239290375711,
        "weighted_distance": 2.214002736296362
    },
    "planner": "ProjEST",
    "start": {
        "state": {
            "elbow_joint": -1.8275484843655228,
            "shoulder_lift_joint": -2.1267897864000416,
            "shoulder_pan_joint": -0.035127520176001514,
            "wrist_1_joint": -2.3477863256791385,
            "wrist_2_joint": -1.605890476484521,
            "wrist_3_joint": -3.0880375317375353
        }
    },
    "waypoints": [
        {
            "positions": [
                -0.035127520176001514,
                -2.1267897864000416,
                -1.8275484843655228,
                -2.3477863256791385,
                -1.605890476484521,
                -3.0880375317375353
            ]
        },
        {
            "positions": [
                -0.05193173054445048,
                -2.1423805705719543,
                -1.7468817512814565,
                -2.4164394780532827,
                -1.4255090685436607,
                -3.0875058096420234
            ]
        },
        {
            "positions": [
                -0.06873594091289945,
                -2.1579713547438675,
                -1.6662150181973903,
                -2.4850926304274266,
                -1.2451276606028001,
                -3.086974087546512
            ]
        },
        {
            "positions": [
                -0.0855401512813484,
                -2.17356213891578,
                -1.585548285113324,
                -2.553745782801571,
                -1.0647462526619398,
                -3.086442365451
            ]
        },
        {
            "positions": [
                -0.10234436164979736,
                -2.1891529230876934,
                -1.5048815520292578,
                -2.622398935175715,
                -0.8843648447210793,
                -3.085910643355488
            ]
        },
        {
            "positions": [
                -0.11914857201824633,
                -2.204743707259606,
                -1.4242148189451915,
                -2.6910520875498594,
                -0.7039834367802189,
                -3.0853789212599767
            ]
        },
        {
            "positions": [
                -0.13595278238669528,
                -2.220334491431519,
                -1.3435480858611253,
                -2.7597052399240036,
                -0.5236020288393586,
                -3.084847199164465
            ]
        },
        {
            "positions": [
                -0.15275699275514426,
                -2.235925275603432,
                -1.262881352777059,
                -2.8283583922981475,
                -0.34322062089849803,
                -3.0843154770689534
            ]
        },
        {
            "positions": [
                -0.1695612031235932,
                -2.2515160597753447,
                -1.1822146196929928,
                -2.8970115446722917,
                -0.1628392129576377,
                -3.0837837549734415
            ]
        }
    ]
}