{
    "goal": {
        "global_pose": {
            "orientation": {
                "w": 0.005598929693374612,
                "x": 0.007748599140229565,
                "y": 0.7110244013736278,
                "z": -0.7031023480610252
            },
            "position": {
                "x": -0.8858502320852131,
                "y": -0.7141253447532654,
                "z": 0.3711530566215515
            }
        },
        "name": "move_to_auspresseinheit_C"
    },
    "id": "ProjEST_move_to_auspresseinheit_C_14",
    "joint_names": [
        "shoulder_pan_joint",
        "shoulder_lift_joint",
        "elbow_joint",
        "wrist_1_joint",
        "wrist_2_joint",
        "wrist_3_joint"
    ],
    "metrics": {
        "cart_traj_len": 0.4938487291555048,
        "distance_elbow_joint": 1.017995337079103,
        "distance_shoulder_lift_joint": 0.33402212938010767,
        "distance_shoulder_pan_joint": 0.25554610500551744,
        "distance_wrist_1_joint": 0.7088966467108364,
        "distance_wrist_2_joint": 1.3176244436450515,
        "distance_wrist_3_joint": 0.0719431269028088,
        "smoothness": 0.0,
        "time": 0.09866735,
        "traj_len": 1.9251046176048263,
        "weighted_distance": 2.4241359559407822
    },
    "planner": "ProjEST",
    "start": {
        "state": {
            "elbow_joint": 1.7527959577730765,
            "shoulder_lift_joint": -0.9740617694224828,
            "shoulder_pan_joint": -2.967991417825869,
            "wrist_1_joint": -0.7595177689779385,
            "wrist_2_joint": 1.7443932448376545,
            "wrist_3_joint": 3.1991315425061013
        }
    },
    "waypoints": [
        {
            "positions": [
                -2.967991417825869,
                -0.9740617694224828,
                1.7527959577730765,
                -0.7595177689779385,
                1.7443932448376545,
                3.1991315425061013
            ]
        },
        {
            "positions": [
                -2.9424368073253175,
                -0.940659556484472,
                1.6509964240651662,
                -0.688628104306855,
                1.6126308004731493,
                3.1919372298158204
            ]
        },
        {
            "positions": [
                -2.9168821968247656,
                -0.9072573435464613,
                1.549196890357256,
                -0.6177384396357712,
                1.4808683561086442,
                3.1847429171255395
            ]
        },
        {
            "positions": [
                -2.8913275863242136,
                -0.8738551306084505,
                1.4473973566493457,
                -0.5468487749646876,
                1.349105911744139,
                3.1775486044352586
            ]
        },
        {
            "positions": [
                -2.865772975823662,
                -0.8404529176704397,
                1.3455978229414352,
                -0.475959110293604,
                1.2173434673796337,
                3.1703542917449776
            ]
        },
        {
            "positions": [
                -2.8402183653231106,
                -0.8070507047324289,
                1.243798289233525,
                -0.40506944562252034,
                1.0855810230151288,
                3.163159979054697
            ]
        },
        {
            "positions": [
                -2.8146637548225586,
                -0.7736484917944182,
                1.1419987555256146,
                -0.3341797809514367,
                0.9538185786506236,
                3.1559656663644162
            ]
        },
        {
            "positions": [
                -2.7891091443220066,
                -0.7402462788564075,
                1.0401992218177045,
                -0.2632901162803531,
                0.8220561342861185,
                3.1487713536741353
            ]
        },
        {
            "positions": [
                -2.763554533821455,
                -0.7068440659183967,
                0.938399688109794,
                -0.19240045160926944,
                0.6902936899216132,
                3.1415770409838544
            ]
        },
        {
            "positions": [
                -2.7379999233209036,
                -0.6734418529803858,
                0.8366001544018837,
                -0.12151078693818573,
                0.5585312455571081,
                3.1343827282935735
            ]
        },
        {
            "positions": [
                -2.7124453128203516,
                -0.6400396400423751,
                0.7348006206939734,
                -0.05062112226710219,
                0.426768801192603,
                3.1271884156032925
            ]
        }
    ]
}