{
    "goal": {
        "global_pose": {
            "orientation": {
                "w": 0.7047431468963623,
                "x": -0.7094548344612122,
                "y": 0.0024358443915843964,
                "z": -0.0022348060738295317
            },
            "position": {
                "x": 0.6094750761985779,
                "y": 0.3671506643295288,
                "z": 0.19426114857196808
            }
        },
        "name": "move_to_magneteinheit_A"
    },
    "id": "ProjEST_move_to_magneteinheit_A_80",
    "joint_names": [
        "shoulder_pan_joint",
        "shoulder_lift_joint",
        "elbow_joint",
        "wrist_1_joint",
        "wrist_2_joint",
        "wrist_3_joint"
    ],
    "metrics": {
        "cart_traj_len": 1.9714616342726061,
        "distance_elbow_joint": 3.5819930879563753,
        "distance_shoulder_lift_joint": 0.788632692910953,
        "distance_shoulder_pan_joint": 1.241066374771528,
        "distance_wrist_1_joint": 1.1700823875676012,
        "distance_wrist_2_joint": 1.4355077124764226,
        "distance_wrist_3_joint": 1.980200866497988,
        "smoothness": 6.250144456581818e-16,
        "time": 0.62972848,
        "traj_len": 3.1933498277171055,
        "weighted_distance": 4.094322282774142
    },
    "planner": "ProjEST",
    "start": {
        "state": {
            "elbow_joint": -1.5739458827952972,
            "shoulder_lift_joint": 0.006533473998580023,
            "shoulder_pan_joint": -1.1188671628667068,
            "wrist_1_joint": 3.138208179676308,
            "wrist_2_joint": -1.5706037135050406,
            "wrist_3_joint": -2.0226958329764257
        }
    },
    "waypoints": [
        {
            "positions": [
                -1.1188671628667068,
                0.006533473998580023,
                -1.5739458827952972,
                3.138208179676308,
                -1.5706037135050406,
                -2.0226958329764257
            ]
        },
        {
            "positions": [
                -1.0711338407601096,
                -0.023798552651841248,
                -1.4361769178738981,
                3.093205010923708,
                -1.5153918784097935,
                -1.9465342611880416
            ]
        },
        {
            "positions": [
                -1.0234005186535124,
                -0.05413057930226252,
                -1.2984079529524992,
                3.048201842171108,
                -1.4601800433145464,
                -1.8703726893996575
            ]
        },
        {
            "positions": [
                -0.9756671965469151,
                -0.08446260595268379,
                -1.1606389880311,
                3.003198673418508,
                -1.4049682082192996,
                -1.7942111176112734
            ]
        },
        {
            "positions": [
                -0.9279338744403179,
                -0.11479463260310506,
                -1.022870023109701,
                2.958195504665908,
                -1.3497563731240525,
                -1.718049545822889
            ]
        },
        {
            "positions": [
                -0.8802005523337206,
                -0.1451266592535263,
                -0.885101058188302,
                2.913192335913308,
                -1.2945445380288054,
                -1.641887974034505
            ]
        },
        {
            "positions": [
                -0.8324672302271234,
                -0.1754586859039476,
                -0.7473320932669029,
                2.868189167160708,
                -1.2393327029335584,
                -1.5657264022461208
            ]
        },
        {
            "positions": [
                -0.7847339081205262,
                -0.20579071255436882,
                -0.609563128345504,
                2.823185998408108,
                -1.1841208678383115,
                -1.4895648304577367
            ]
        },
        {
            "positions": [
                -0.737000586013929,
                -0.23612273920479013,
                -0.47179416342410474,
                2.778182829655508,
                -1.1289090327430644,
                -1.4134032586693523
            ]
        },
        {
            "positions": [
                -0.6892672639073318,
                -0.2664547658552114,
                -0.33402519850270584,
                2.7331796609029078,
                -1.0736971976478173,
                -1.3372416868809682
            ]
        },
        {
            "positions": [
                -0.6415339418007344,
                -0.29678679250563267,
                -0.19625623358130673,
                2.6881764921503075,
                -1.0184853625525703,
                -1.261080115092584
            ]
        },
        {
            "positions": [
                -0.5938006196941373,
                -0.32711881915605395,
                -0.05848726865990761,
                2.6431733233977077,
                -0.9632735274573233,
                -1.1849185433042
            ]
        },
        {
            "positions": [
                -0.54606729758754,
                -0.35745084580647524,
                0.07928169626149151,
                2.5981701546451075,
                -0.9080616923620762,
                -1.1087569715158159
            ]
        },
        {
            "positions": [
                -0.4983339754809428,
                -0.38778287245689647,
                0.2170506611828904,
                2.5531669858925077,
                -0.8528498572668293,
                -1.0325953997274318
            ]
        },
        {
            "positions": [
                -0.4506006533743456,
                -0.4181148991073177,
                0.3548196261042893,
                2.5081638171399074,
                -0.7976380221715823,
                -0.9564338279390476
            ]
        },
        {
            "positions": [
                -0.40286733126774843,
                -0.448446925757739,
                0.4925885910256882,
                2.4631606483873076,
                -0.7424261870763353,
                -0.8802722561506635
            ]
        },
        {
            "positions": [
                -0.3551340091611511,
                -0.4787789524081603,
                0.6303575559470878,
                2.4181574796347074,
                -0.6872143519810882,
                -0.8041106843622792
            ]
        },
        {
            "positions": [
                -0.3074006870545539,
                -0.5091109790585815,
                0.7681265208684864,
                2.373154310882107,
                -0.6320025168858412,
                -0.727949112573895
            ]
        },
        {
            "positions": [
                -0.2596673649479567,
                -0.5394430057090027,
                0.9058954857898855,
                2.3281511421295074,
                -0.5767906817905942,
                -0.6517875407855109
            ]
        },
        {
            "positions": [
                -0.21193404284135953,
                -0.569775032359424,
                1.0436644507112847,
                2.2831479733769076,
                -0.5215788466953473,
                -0.5756259689971268
            ]
        },
        {
            "positions": [
                -0.1642007207347621,
                -0.6001070590098453,
                1.1814334156326838,
                2.2381448046243073,
                -0.46636701160009997,
                -0.4994643972087427
            ]
        },
        {
            "positions": [
                -0.11646739862816502,
                -0.6304390856602665,
                1.319202380554083,
                2.193141635871707,
                -0.4111551765048531,
                -0.4233028254203586
            ]
        },
        {
            "positions": [
                -0.06873407652156782,
                -0.6607711123106879,
                1.456971345475482,
                2.1481384671191073,
                -0.35594334140960604,
                -0.34714125363197446
            ]
        },
        {
            "positions": [
                -0.021000754414970624,
                -0.6911031389611091,
                1.5947403103968807,
                2.1031352983665075,
                -0.3007315063143592,
                -0.27097968184359034
            ]
        },
        {
            "positions": [
                0.026732567691626796,
                -0.7214351656115304,
                1.7325092753182803,
                2.058132129613907,
                -0.2455196712191119,
                -0.194818110055206
            ]
        },
        {
            "positions": [
                0.074465889798224,
                -0.7517671922619517,
                1.870278240239679,
                2.013128960861307,
                -0.19030783612386504,
                -0.11865653826682188
            ]
        },
        {
            "positions": [
                0.12219921190482118,
                -0.7820992189123729,
                2.008047205161078,
                1.968125792108707,
                -0.13509600102861785,
                -0.0424949664784378
            ]
        }
    ]
}