{
    "goal": {
        "global_pose": {
            "orientation": {
                "w": 0.7031023480610252,
                "x": -0.7110244013736278,
                "y": 0.0077485991402295624,
                "z": 0.005598929693374583
            },
            "position": {
                "x": -0.8841497679147869,
                "y": 0.44412534475326537,
                "z": 0.3711530566215515
            }
        },
        "name": "move_to_auspresseinheit_D"
    },
    "id": "ProjEST_move_to_auspresseinheit_D_150",
    "joint_names": [
        "shoulder_pan_joint",
        "shoulder_lift_joint",
        "elbow_joint",
        "wrist_1_joint",
        "wrist_2_joint",
        "wrist_3_joint"
    ],
    "metrics": {
        "cart_traj_len": 0.34282551721356086,
        "distance_elbow_joint": 0.6365810894294053,
        "distance_shoulder_lift_joint": 0.12034131949384097,
        "distance_shoulder_pan_joint": 0.1333963411315475,
        "distance_wrist_1_joint": 0.522794879717353,
        "distance_wrist_2_joint": 1.436105906475411,
        "distance_wrist_3_joint": 0.0031649540497116213,
        "smoothness": 0.0,
        "time": 0.064526316,
        "traj_len": 1.6889003790328396,
        "weighted_distance": 2.194906645985076
    },
    "planner": "ProjEST",
    "start": {
        "state": {
            "elbow_joint": -1.8275484843655228,
            "shoulder_lift_joint": -2.1267897864000416,
            "shoulder_pan_joint": -0.035127520176001514,
            "wrist_1_joint": -2.3477863256791385,
            "wrist_2_joint": -1.605890476484521,
            "wrist_3_joint": -3.0880375317375353
        }
    },
    "waypoints": [
        {
            "positions": [
                -0.035127520176001514,
                -2.1267897864000416,
                -1.8275484843655228,
                -2.3477863256791385,
                -1.605890476484521,
                -3.0880375317375353
            ]
        },
        {
            "positions": [
                -0.051802062817444955,
                -2.1418324513367715,
                -1.747975848186847,
                -2.4131356856438075,
                -1.4263772381750945,
                -3.0884331509937493
            ]
        },
        {
            "positions": [
                -0.0684766054588884,
                -2.156875116273502,
                -1.6684032120081715,
                -2.4784850456084766,
                -1.2468639998656683,
                -3.0888287702499633
            ]
        },
        {
            "positions": [
                -0.08515114810033182,
                -2.171917781210232,
                -1.5888305758294958,
                -2.5438344055731457,
                -1.0673507615562419,
                -3.0892243895061773
            ]
        },
        {
            "positions": [
                -0.10182569074177526,
                -2.186960446146962,
                -1.5092579396508201,
                -2.609183765537815,
                -0.8878375232468155,
                -3.089620008762391
            ]
        },
        {
            "positions": [
                -0.1185002333832187,
                -2.202003111083692,
                -1.4296853034721444,
                -2.6745331255024842,
                -0.7083242849373892,
                -3.090015628018605
            ]
        },
        {
            "positions": [
                -0.13517477602466213,
                -2.2170457760204223,
                -1.3501126672934687,
                -2.7398824854671533,
                -0.5288110466279627,
                -3.090411247274819
            ]
        },
        {
            "positions": [
                -0.15184931866610557,
                -2.2320884409571526,
                -1.2705400311147932,
                -2.8052318454318224,
                -0.3492978083185365,
                -3.090806866531033
            ]
        },
        {
            "positions": [
                -0.168523861307549,
                -2.2471311058938825,
                -1.1909673949361175,
                -2.8705812053964914,
                -0.16978457000911015,
                -3.091202485787247
            ]
        }
    ]
}