{
    "goal": {
        "global_pose": {
            "orientation": {
                "w": 0.7031023480610252,
                "x": -0.7110244013736278,
                "y": 0.0077485991402295624,
                "z": 0.005598929693374583
            },
            "position": {
                "x": -0.8841497679147869,
                "y": 0.44412534475326537,
                "z": 0.3711530566215515
            }
        },
        "name": "move_to_auspresseinheit_D"
    },
    "id": "ProjEST_move_to_auspresseinheit_D_20",
    "joint_names": [
        "shoulder_pan_joint",
        "shoulder_lift_joint",
        "elbow_joint",
        "wrist_1_joint",
        "wrist_2_joint",
        "wrist_3_joint"
    ],
    "metrics": {
        "cart_traj_len": 0.3439670662055685,
        "distance_elbow_joint": 0.6528708107212795,
        "distance_shoulder_lift_joint": 0.12921958330621885,
        "distance_shoulder_pan_joint": 0.13404398980425852,
        "distance_wrist_1_joint": 0.5801547740685722,
        "distance_wrist_2_joint": 1.441111465950569,
        "distance_wrist_3_joint": 0.0479781724061934,
        "smoothness": 3.9474596431116675e-16,
        "time": 0.096131961,
        "traj_len": 1.7278248743021067,
        "weighted_distance": 2.2588938401546494
    },
    "planner": "ProjEST",
    "start": {
        "state": {
            "elbow_joint": -1.8275484843655228,
            "shoulder_lift_joint": -2.1267897864000416,
            "shoulder_pan_joint": -0.035127520176001514,
            "wrist_1_joint": -2.3477863256791385,
            "wrist_2_joint": -1.605890476484521,
            "wrist_3_joint": -3.0880375317375353
        }
    },
    "waypoints": [
        {
            "positions": [
                -0.035127520176001514,
                -2.1267897864000416,
                -1.8275484843655228,
                -2.3477863256791385,
                -1.605890476484521,
                -3.0880375317375353
            ]
        },
        {
            "positions": [
                -0.05188301890153383,
                -2.142942234313319,
                -1.7459396330253627,
                -2.42030567243771,
                -1.4257515432407,
                -3.082040260186761
            ]
        },
        {
            "positions": [
                -0.06863851762706615,
                -2.159094682226596,
                -1.6643307816852029,
                -2.4928250191962817,
                -1.2456126099968787,
                -3.076042988635987
            ]
        },
        {
            "positions": [
                -0.08539401635259847,
                -2.1752471301398737,
                -1.582721930345043,
                -2.565344365954853,
                -1.0654736767530575,
                -3.070045717085213
            ]
        },
        {
            "positions": [
                -0.10214951507813078,
                -2.1913995780531508,
                -1.501113079004883,
                -2.6378637127134246,
                -0.8853347435092365,
                -3.0640484455344383
            ]
        },
        {
            "positions": [
                -0.11890501380366308,
                -2.2075520259664283,
                -1.419504227664723,
                -2.710383059471996,
                -0.7051958102654153,
                -3.058051173983664
            ]
        },
        {
            "positions": [
                -0.13566051252919542,
                -2.223704473879706,
                -1.3378953763245631,
                -2.7829024062305674,
                -0.5250568770215942,
                -3.05205390243289
            ]
        },
        {
            "positions": [
                -0.15241601125472773,
                -2.239856921792983,
                -1.2562865249844033,
                -2.8554217529891393,
                -0.3449179437777732,
                -3.046056630882116
            ]
        },
        {
            "positions": [
                -0.16917150998026004,
                -2.2560093697062604,
                -1.1746776736442432,
                -2.9279410997477107,
                -0.16477901053395194,
                -3.040059359331342
            ]
        }
    ]
}