{
    "goal": {
        "global_pose": {
            "orientation": {
                "w": -0.4816463035849501,
                "x": 0.5182115481033762,
                "y": 0.4908360881923453,
                "z": -0.5084816262002911
            },
            "position": {
                "x": -0.8240239810943604,
                "y": 0.19912469901144506,
                "z": 0.16403168439865112
            }
        },
        "name": "move_to_storage_D"
    },
    "id": "ProjEST_move_to_storage_D_106",
    "joint_names": [
        "shoulder_pan_joint",
        "shoulder_lift_joint",
        "elbow_joint",
        "wrist_1_joint",
        "wrist_2_joint",
        "wrist_3_joint"
    ],
    "metrics": {
        "cart_traj_len": 4.432281711551223,
        "distance_elbow_joint": 4.215444197874955,
        "distance_shoulder_lift_joint": 1.263140165554869,
        "distance_shoulder_pan_joint": 2.813019385235318,
        "distance_wrist_1_joint": 2.2863602697950305,
        "distance_wrist_2_joint": 2.3720065481278656,
        "distance_wrist_3_joint": 3.1521921402437574,
        "smoothness": 0.07742652480027078,
        "time": 0.06656124199999999,
        "traj_len": 4.012750017984151,
        "weighted_distance": 5.202395006652437
    },
    "planner": "ProjEST",
    "start": {
        "state": {
            "elbow_joint": -2.384821990628643,
            "shoulder_lift_joint": -2.278805467437664,
            "shoulder_pan_joint": -0.18546946439364564,
            "wrist_1_joint": 1.4845938187801415,
            "wrist_2_joint": 0.178987772454074,
            "wrist_3_joint": 0.03710569632802521
        }
    },
    "waypoints": [
        {
            "positions": [
                -0.18546946439364564,
                -2.278805467437664,
                -2.384821990628643,
                1.4845938187801415,
                0.178987772454074,
                0.03710569632802521
            ]
        },
        {
            "positions": [
                -0.09724520818080779,
                -2.2355574765763744,
                -2.3095382543943623,
                1.3898339559555015,
                0.24975404731656192,
                0.05023097762348627
            ]
        },
        {
            "positions": [
                -0.009020951967969926,
                -2.1923094857150844,
                -2.234254518160082,
                1.2950740931308613,
                0.32052032217904985,
                0.06335625891894733
            ]
        },
        {
            "positions": [
                0.07920330424486793,
                -2.149061494853795,
                -2.158970781925801,
                1.2003142303062213,
                0.3912865970415378,
                0.0764815402144084
            ]
        },
        {
            "positions": [
                0.1674275604577058,
                -2.1058135039925054,
                -2.08368704569152,
                1.1055543674815813,
                0.4620528719040257,
                0.08960682150986947
            ]
        },
        {
            "positions": [
                0.25565181667054365,
                -2.062565513131216,
                -2.0084033094572398,
                1.0107945046569413,
                0.5328191467665137,
                0.10273210280533053
            ]
        },
        {
            "positions": [
                0.3438760728833815,
                -2.019317522269926,
                -1.933119573222959,
                0.9160346418323012,
                0.6035854216290016,
                0.11585738410079159
            ]
        },
        {
            "positions": [
                0.4321003290962194,
                -1.9760695314086365,
                -1.857835836988678,
                0.8212747790076611,
                0.6743516964914895,
                0.12898266539625267
            ]
        },
        {
            "positions": [
                0.5203245853090572,
                -1.932821540547347,
                -1.7825521007543976,
                0.7265149161830211,
                0.7451179713539775,
                0.14210794669171373
            ]
        },
        {
            "positions": [
                0.6085488415218951,
                -1.8895735496860573,
                -1.7072683645201168,
                0.631755053358381,
                0.8158842462164655,
                0.15523322798717482
            ]
        },
        {
            "positions": [
                0.696773097734733,
                -1.8463255588247678,
                -1.6319846282858361,
                0.536995190533741,
                0.8866505210789533,
                0.16835850928263585
            ]
        },
        {
            "positions": [
                0.7849973539475709,
                -1.803077567963478,
                -1.5567008920515555,
                0.4422353277091009,
                0.9574167959414412,
                0.18148379057809694
            ]
        },
        {
            "positions": [
                0.8732216101604087,
                -1.7598295771021886,
                -1.4814171558172746,
                0.3474754648844609,
                1.0281830708039292,
                0.19460907187355797
            ]
        },
        {
            "positions": [
                0.9614458663732464,
                -1.716581586240899,
                -1.4061334195829942,
                0.2527156020598209,
                1.0989493456664172,
                0.20773435316901903
            ]
        },
        {
            "positions": [
                1.0496701225860845,
                -1.6733335953796091,
                -1.3308496833487131,
                0.1579557392351807,
                1.1697156205289052,
                0.22085963446448012
            ]
        },
        {
            "positions": [
                1.1378943787989222,
                -1.6300856045183196,
                -1.2555659471144325,
                0.0631958764105407,
                1.2404818953913932,
                0.23398491575994118
            ]
        },
        {
            "positions": [
                1.22611863501176,
                -1.5868376136570301,
                -1.1802822108801518,
                -0.0315639864140993,
                1.311248170253881,
                0.24711019705540224
            ]
        },
        {
            "positions": [
                1.3143428912245978,
                -1.5435896227957406,
                -1.1049984746458712,
                -0.1263238492387393,
                1.382014445116369,
                0.2602354783508633
            ]
        },
        {
            "positions": [
                1.402567147437436,
                -1.5003416319344507,
                -1.0297147384115903,
                -0.2210837120633795,
                1.452780719978857,
                0.2733607596463244
            ]
        },
        {
            "positions": [
                1.4907914036502736,
                -1.4570936410731612,
                -0.9544310021773097,
                -0.3158435748880195,
                1.523546994841345,
                0.2864860409417854
            ]
        },
        {
            "positions": [
                1.5790156598631115,
                -1.4138456502118717,
                -0.879147265943029,
                -0.4106034377126595,
                1.5943132697038327,
                0.2996113222372465
            ]
        },
        {
            "positions": [
                1.6672399160759492,
                -1.3705976593505822,
                -0.8038635297087484,
                -0.5053633005372995,
                1.6650795445663207,
                0.3127366035327076
            ]
        },
        {
            "positions": [
                1.7554641722887874,
                -1.3273496684892923,
                -0.7285797934744676,
                -0.6001231633619397,
                1.7358458194288087,
                0.3258618848281687
            ]
        },
        {
            "positions": [
                1.843688428501625,
                -1.2841016776280028,
                -0.6532960572401869,
                -0.6948830261865797,
                1.8066120942912967,
                0.33898716612362967
            ]
        },
        {
            "positions": [
                1.8849442965195222,
                -1.2699734473256235,
                -0.5225635170040552,
                -0.700508469598596,
                1.7674340823812629,
                0.48900351719984825
            ]
        },
        {
            "positions": [
                1.9262001645374196,
                -1.255845217023244,
                -0.39183097676792367,
                -0.7061339130106125,
                1.7282560704712289,
                0.6390198682760668
            ]
        },
        {
            "positions": [
                1.9674560325553168,
                -1.2417169867208646,
                -0.2610984365317921,
                -0.7117593564226288,
                1.689078058561195,
                0.7890362193522853
            ]
        },
        {
            "positions": [
                2.008711900573214,
                -1.2275887564184853,
                -0.13036589629566042,
                -0.7173847998346452,
                1.649900046651161,
                0.9390525704285039
            ]
        },
        {
            "positions": [
                2.0499677685911113,
                -1.213460526116106,
                0.00036664394047114524,
                -0.7230102432466615,
                1.6107220347411273,
                1.0890689215047225
            ]
        },
        {
            "positions": [
                2.0912236366090085,
                -1.1993322958137265,
                0.1310991841766027,
                -0.7286356866586778,
                1.5715440228310933,
                1.239085272580941
            ]
        },
        {
            "positions": [
                2.1324795046269056,
                -1.1852040655113472,
                0.2618317244127344,
                -0.7342611300706943,
                1.5323660109210595,
                1.3891016236571594
            ]
        },
        {
            "positions": [
                2.1737353726448028,
                -1.1710758352089679,
                0.39256426464886607,
                -0.7398865734827106,
                1.4931879990110255,
                1.539117974733378
            ]
        },
        {
            "positions": [
                2.2149912406627,
                -1.1569476049065885,
                0.5232968048849975,
                -0.745512016894727,
                1.4540099871009917,
                1.6891343258095965
            ]
        },
        {
            "positions": [
                2.256247108680597,
                -1.142819374604209,
                0.6540293451211292,
                -0.7511374603067433,
                1.4148319751909577,
                1.839150676885815
            ]
        },
        {
            "positions": [
                2.2975029766984947,
                -1.1286911443018297,
                0.7847618853572609,
                -0.7567629037187598,
                1.375653963280924,
                1.9891670279620337
            ]
        },
        {
            "positions": [
                2.338758844716392,
                -1.1145629139994504,
                0.9154944255933923,
                -0.7623883471307761,
                1.3364759513708901,
                2.1391833790382524
            ]
        },
        {
            "positions": [
                2.380014712734289,
                -1.1004346836970709,
                1.0462269658295242,
                -0.7680137905427924,
                1.2972979394608561,
                2.289199730114471
            ]
        },
        {
            "positions": [
                2.421270580752186,
                -1.0863064533946916,
                1.1769595060656557,
                -0.7736392339548088,
                1.2581199275508221,
                2.439216081190689
            ]
        },
        {
            "positions": [
                2.4625264487700838,
                -1.0721782230923123,
                1.3076920463017874,
                -0.7792646773668251,
                1.2189419156407884,
                2.5892324322669076
            ]
        },
        {
            "positions": [
                2.503782316787981,
                -1.058049992789933,
                1.438424586537919,
                -0.7848901207788416,
                1.1797639037307546,
                2.7392487833431263
            ]
        },
        {
            "positions": [
                2.545038184805878,
                -1.0439217624875536,
                1.5691571267740505,
                -0.7905155641908579,
                1.1405858918207206,
                2.889265134419345
            ]
        },
        {
            "positions": [
                2.5862940528237752,
                -1.029793532185174,
                1.699889667010182,
                -0.7961410076028743,
                1.1014078799106866,
                3.0392814854955637
            ]
        },
        {
            "positions": [
                2.6275499208416724,
                -1.0156653018827948,
                1.8306222072463139,
                -0.8017664510148906,
                1.0622298680006528,
                3.1892978365717823
            ]
        }
    ]
}