{
    "goal": {
        "global_pose": {
            "orientation": {
                "w": 0.7047431468963623,
                "x": -0.7094548344612122,
                "y": 0.0024358443915843964,
                "z": -0.0022348060738295317
            },
            "position": {
                "x": 0.6094750761985779,
                "y": 0.3671506643295288,
                "z": 0.19426114857196808
            }
        },
        "name": "move_to_magneteinheit_A"
    },
    "id": "ProjEST_move_to_magneteinheit_A_58",
    "joint_names": [
        "shoulder_pan_joint",
        "shoulder_lift_joint",
        "elbow_joint",
        "wrist_1_joint",
        "wrist_2_joint",
        "wrist_3_joint"
    ],
    "metrics": {
        "cart_traj_len": 1.9613089796383247,
        "distance_elbow_joint": 3.5685841706283865,
        "distance_shoulder_lift_joint": 0.7851301830824984,
        "distance_shoulder_pan_joint": 1.2408952606532693,
        "distance_wrist_1_joint": 1.2212140207624882,
        "distance_wrist_2_joint": 1.435907784503117,
        "distance_wrist_3_joint": 2.0250652002537444,
        "smoothness": 3.6185046922262754e-16,
        "time": 0.048174544,
        "traj_len": 3.2057443160494734,
        "weighted_distance": 4.12117080762938
    },
    "planner": "ProjEST",
    "start": {
        "state": {
            "elbow_joint": -1.5739458827952972,
            "shoulder_lift_joint": 0.006533473998580023,
            "shoulder_pan_joint": -1.1188671628667068,
            "wrist_1_joint": 3.138208179676308,
            "wrist_2_joint": -1.5706037135050406,
            "wrist_3_joint": -2.0226958329764257
        }
    },
    "waypoints": [
        {
            "positions": [
                -1.1188671628667068,
                0.006533473998580023,
                -1.5739458827952972,
                3.138208179676308,
                -1.5706037135050406,
                -2.0226958329764257
            ]
        },
        {
            "positions": [
                -1.0711404220723504,
                -0.023663840735362228,
                -1.4366926454634361,
                3.091238409646982,
                -1.5153764910241514,
                -1.9448087098897433
            ]
        },
        {
            "positions": [
                -1.0234136812779937,
                -0.05386115546930448,
                -1.2994394081315752,
                3.044268639617655,
                -1.4601492685432624,
                -1.8669215868030609
            ]
        },
        {
            "positions": [
                -0.9756869404836372,
                -0.08405847020324674,
                -1.162186170799714,
                2.9972988695883287,
                -1.4049220460623733,
                -1.7890344637163782
            ]
        },
        {
            "positions": [
                -0.9279601996892808,
                -0.11425578493718898,
                -1.024932933467853,
                2.9503290995590024,
                -1.349694823581484,
                -1.7111473406296958
            ]
        },
        {
            "positions": [
                -0.8802334588949243,
                -0.1444530996711312,
                -0.8876796961359921,
                2.9033593295296756,
                -1.2944676011005951,
                -1.6332602175430133
            ]
        },
        {
            "positions": [
                -0.8325067181005678,
                -0.17465041440507348,
                -0.7504264588041311,
                2.8563895595003492,
                -1.239240378619706,
                -1.5553730944563309
            ]
        },
        {
            "positions": [
                -0.7847799773062113,
                -0.2048477291390157,
                -0.6131732214722702,
                2.809419789471023,
                -1.1840131561388167,
                -1.4774859713696484
            ]
        },
        {
            "positions": [
                -0.7370532365118547,
                -0.23504504387295796,
                -0.4759199841404089,
                2.7624500194416965,
                -1.1287859336579276,
                -1.3995988482829658
            ]
        },
        {
            "positions": [
                -0.6893264957174983,
                -0.2652423586069002,
                -0.338666746808548,
                2.7154802494123698,
                -1.0735587111770386,
                -1.3217117251962835
            ]
        },
        {
            "positions": [
                -0.6415997549231417,
                -0.2954396733408425,
                -0.2014135094766869,
                2.6685104793830434,
                -1.0183314886961494,
                -1.2438246021096009
            ]
        },
        {
            "positions": [
                -0.5938730141287852,
                -0.32563698807478475,
                -0.064160272144826,
                2.621540709353717,
                -0.9631042662152604,
                -1.1659374790229187
            ]
        },
        {
            "positions": [
                -0.5461462733344287,
                -0.355834302808727,
                0.07309296518703512,
                2.5745709393243903,
                -0.9078770437343712,
                -1.088050355936236
            ]
        },
        {
            "positions": [
                -0.4984195325400722,
                -0.38603161754266924,
                0.21034620251889602,
                2.527601169295064,
                -0.8526498212534821,
                -1.0101632328495536
            ]
        },
        {
            "positions": [
                -0.45069279174571575,
                -0.41622893227661145,
                0.3475994398507569,
                2.4806313992657376,
                -0.797422598772593,
                -0.9322761097628711
            ]
        },
        {
            "positions": [
                -0.4029660509513593,
                -0.4464262470105537,
                0.4848526771826178,
                2.4336616292364113,
                -0.742195376291704,
                -0.8543889866761887
            ]
        },
        {
            "positions": [
                -0.3552393101570026,
                -0.476623561744496,
                0.6221059145144794,
                2.3866918592070845,
                -0.6869681538108147,
                -0.776501863589506
            ]
        },
        {
            "positions": [
                -0.30751256936264615,
                -0.5068208764784382,
                0.7593591518463401,
                2.339722089177758,
                -0.6317409313299256,
                -0.6986147405028236
            ]
        },
        {
            "positions": [
                -0.2597858285682897,
                -0.5370181912123804,
                0.8966123891782012,
                2.292752319148432,
                -0.5765137088490365,
                -0.6207276174161411
            ]
        },
        {
            "positions": [
                -0.21205908777393323,
                -0.5672155059463226,
                1.0338656265100619,
                2.2457825491191055,
                -0.5212864863681475,
                -0.5428404943294587
            ]
        },
        {
            "positions": [
                -0.16433234697957655,
                -0.5974128206802649,
                1.1711188638419234,
                2.1988127790897787,
                -0.46605926388725827,
                -0.46495337124277625
            ]
        },
        {
            "positions": [
                -0.11660560618522009,
                -0.6276101354142072,
                1.308372101173784,
                2.1518430090604523,
                -0.4108320414063691,
                -0.3870662481560938
            ]
        },
        {
            "positions": [
                -0.06887886539086363,
                -0.6578074501481495,
                1.4456253385056452,
                2.104873239031126,
                -0.3556048189254801,
                -0.30917912506941136
            ]
        },
        {
            "positions": [
                -0.02115212459650717,
                -0.6880047648820916,
                1.582878575837506,
                2.0579034690017997,
                -0.30037759644459094,
                -0.23129200198272892
            ]
        },
        {
            "positions": [
                0.02657461619784951,
                -0.718202079616034,
                1.7201318131693675,
                2.010933698972473,
                -0.24515037396370176,
                -0.15340487889604626
            ]
        },
        {
            "positions": [
                0.07430135699220597,
                -0.7483993943499762,
                1.8573850505012282,
                1.9639639289431463,
                -0.1899231514828128,
                -0.07551775580936382
            ]
        },
        {
            "positions": [
                0.12202809778656237,
                -0.7785967090839184,
                1.9946382878330893,
                1.91699415891382,
                -0.13469592900192354,
                0.002369367277318787
            ]
        }
    ]
}