{
    "goal": {
        "global_pose": {
            "orientation": {
                "w": 0.7047431468963623,
                "x": -0.7094548344612122,
                "y": 0.0024358443915843964,
                "z": -0.0022348060738295317
            },
            "position": {
                "x": 0.6094750761985779,
                "y": 0.3671506643295288,
                "z": 0.19426114857196808
            }
        },
        "name": "move_to_magneteinheit_A"
    },
    "id": "ProjEST_move_to_magneteinheit_A_76",
    "joint_names": [
        "shoulder_pan_joint",
        "shoulder_lift_joint",
        "elbow_joint",
        "wrist_1_joint",
        "wrist_2_joint",
        "wrist_3_joint"
    ],
    "metrics": {
        "cart_traj_len": 1.9680490918358948,
        "distance_elbow_joint": 3.575293654461059,
        "distance_shoulder_lift_joint": 0.7867099524144561,
        "distance_shoulder_pan_joint": 1.2408204827612161,
        "distance_wrist_1_joint": 1.182332681751617,
        "distance_wrist_2_joint": 1.4503366812820868,
        "distance_wrist_3_joint": 1.9785157897398764,
        "smoothness": 2.631639782912575e-16,
        "time": 0.05916204,
        "traj_len": 3.195936363948806,
        "weighted_distance": 4.099232877615489
    },
    "planner": "ProjEST",
    "start": {
        "state": {
            "elbow_joint": -1.5739458827952972,
            "shoulder_lift_joint": 0.006533473998580023,
            "shoulder_pan_joint": -1.1188671628667068,
            "wrist_1_joint": 3.138208179676308,
            "wrist_2_joint": -1.5706037135050406,
            "wrist_3_joint": -2.0226958329764257
        }
    },
    "waypoints": [
        {
            "positions": [
                -1.1188671628667068,
                0.006533473998580023,
                -1.5739458827952972,
                3.138208179676308,
                -1.5706037135050406,
                -2.0226958329764257
            ]
        },
        {
            "positions": [
                -1.0711432981451217,
                -0.02372460109428368,
                -1.4364345883929488,
                3.092733845762784,
                -1.5148215334557296,
                -1.9465990718325843
            ]
        },
        {
            "positions": [
                -1.0234194334235363,
                -0.05398267618714738,
                -1.2989232939906004,
                3.0472595118492607,
                -1.4590393534064185,
                -1.8705023106887428
            ]
        },
        {
            "positions": [
                -0.9756955687019511,
                -0.08424075128001109,
                -1.161411999588252,
                3.001785177935737,
                -1.4032571733571075,
                -1.7944055495449016
            ]
        },
        {
            "positions": [
                -0.9279717039803659,
                -0.11449882637287478,
                -1.0239007051859035,
                2.9563108440222132,
                -1.3474749933077965,
                -1.7183087884010602
            ]
        },
        {
            "positions": [
                -0.8802478392587807,
                -0.14475690146573847,
                -0.886389410783555,
                2.9108365101086893,
                -1.2916928132584853,
                -1.6422120272572187
            ]
        },
        {
            "positions": [
                -0.8325239745371954,
                -0.17501497655860218,
                -0.7488781163812067,
                2.8653621761951658,
                -1.2359106332091745,
                -1.5661152661133773
            ]
        },
        {
            "positions": [
                -0.7848001098156102,
                -0.20527305165146584,
                -0.6113668219788583,
                2.8198878422816422,
                -1.1801284531598633,
                -1.490018504969536
            ]
        },
        {
            "positions": [
                -0.7370762450940249,
                -0.23553112674432958,
                -0.4738555275765097,
                2.7744135083681183,
                -1.1243462731105522,
                -1.4139217438256946
            ]
        },
        {
            "positions": [
                -0.6893523803724397,
                -0.2657892018371933,
                -0.3363442331741615,
                2.7289391744545943,
                -1.0685640930612412,
                -1.3378249826818531
            ]
        },
        {
            "positions": [
                -0.6416285156508544,
                -0.296047276930057,
                -0.19883293877181285,
                2.683464840541071,
                -1.0127819130119302,
                -1.2617282215380117
            ]
        },
        {
            "positions": [
                -0.5939046509292693,
                -0.32630535202292066,
                -0.061321644369464634,
                2.6379905066275473,
                -0.9569997329626192,
                -1.1856314603941702
            ]
        },
        {
            "positions": [
                -0.546180786207684,
                -0.3565634271157844,
                0.0761896500328838,
                2.5925161727140233,
                -0.9012175529133082,
                -1.1095346992503288
            ]
        },
        {
            "positions": [
                -0.49845692148609877,
                -0.3868215022086481,
                0.21370094443523224,
                2.5470418388004994,
                -0.8454353728639972,
                -1.0334379381064875
            ]
        },
        {
            "positions": [
                -0.4507330567645136,
                -0.41707957730151174,
                0.3512122388375807,
                2.501567504886976,
                -0.7896531928146862,
                -0.9573411769626461
            ]
        },
        {
            "positions": [
                -0.4030091920429284,
                -0.44733765239437545,
                0.4887235332399291,
                2.4560931709734524,
                -0.7338710127653751,
                -0.8812444158188049
            ]
        },
        {
            "positions": [
                -0.355285327321343,
                -0.4775957274872392,
                0.6262348276422778,
                2.4106188370599284,
                -0.678088832716064,
                -0.8051476546749632
            ]
        },
        {
            "positions": [
                -0.3075614625997578,
                -0.5078538025801028,
                0.763746122044626,
                2.3651445031464045,
                -0.622306652666753,
                -0.729050893531122
            ]
        },
        {
            "positions": [
                -0.2598375978781726,
                -0.5381118776729665,
                0.9012574164469742,
                2.319670169232881,
                -0.5665244726174421,
                -0.6529541323872805
            ]
        },
        {
            "positions": [
                -0.21211373315658744,
                -0.5683699527658302,
                1.0387687108493224,
                2.2741958353193574,
                -0.5107422925681311,
                -0.5768573712434393
            ]
        },
        {
            "positions": [
                -0.16438986843500203,
                -0.598628027858694,
                1.1762800052516715,
                2.2287215014058335,
                -0.45496011251881985,
                -0.5007606100995976
            ]
        },
        {
            "positions": [
                -0.11666600371341684,
                -0.6288861029515577,
                1.3137912996540198,
                2.1832471674923095,
                -0.39917793246950883,
                -0.4246638489557564
            ]
        },
        {
            "positions": [
                -0.06894213899183166,
                -0.6591441780444213,
                1.451302594056368,
                2.137772833578786,
                -0.3433957524201978,
                -0.3485670878119149
            ]
        },
        {
            "positions": [
                -0.021218274270246473,
                -0.689402253137285,
                1.5888138884587162,
                2.0922984996652625,
                -0.2876135723708868,
                -0.2724703266680737
            ]
        },
        {
            "positions": [
                0.026505590451338934,
                -0.7196603282301488,
                1.7263251828610648,
                2.0468241657517385,
                -0.2318313923215758,
                -0.19637356552423202
            ]
        },
        {
            "positions": [
                0.07422945517292412,
                -0.7499184033230124,
                1.8638364772634135,
                2.0013498318382146,
                -0.17604921227226478,
                -0.12027680438039079
            ]
        },
        {
            "positions": [
                0.12195331989450932,
                -0.7801764784158761,
                2.0013477716657615,
                1.955875497924691,
                -0.12026703222295376,
                -0.044180043236549366
            ]
        }
    ]
}