{
    "goal": {
        "global_pose": {
            "orientation": {
                "w": 0.7031023502349854,
                "x": -0.7110244035720825,
                "y": 0.007748599164187908,
                "z": 0.005598929710686207
            },
            "position": {
                "x": 0.11585023208521307,
                "y": 0.44412534475326537,
                "z": 0.3711530566215515
            }
        },
        "name": "move_to_auspresseinheit_A"
    },
    "id": "ProjEST_move_to_auspresseinheit_A_71",
    "joint_names": [
        "shoulder_pan_joint",
        "shoulder_lift_joint",
        "elbow_joint",
        "wrist_1_joint",
        "wrist_2_joint",
        "wrist_3_joint"
    ],
    "metrics": {
        "cart_traj_len": 0.6724738571858633,
        "distance_elbow_joint": 0.2360545721583005,
        "distance_shoulder_lift_joint": 1.0387968324245096,
        "distance_shoulder_pan_joint": 1.040048843036827,
        "distance_wrist_1_joint": 0.6817206240836469,
        "distance_wrist_2_joint": 0.5367896390859337,
        "distance_wrist_3_joint": 0.42607000496833125,
        "smoothness": 0.968993344443355,
        "time": 0.51026985,
        "traj_len": 1.989844344605263,
        "weighted_distance": 2.4556324620886962
    },
    "planner": "ProjEST",
    "start": {
        "state": {
            "elbow_joint": 2.4225746994637096,
            "shoulder_lift_joint": -1.373653595662188,
            "shoulder_pan_joint": -0.3378633848294565,
            "wrist_1_joint": -1.0288595594406726,
            "wrist_2_joint": 1.2330228066703421,
            "wrist_3_joint": 3.189163495502006
        }
    },
    "waypoints": [
        {
            "positions": [
                -0.3378633848294565,
                -1.373653595662188,
                2.4225746994637096,
                -1.0288595594406726,
                1.2330228066703421,
                3.189163495502006
            ]
        },
        {
            "positions": [
                -0.26915287089087925,
                -1.4862711923850809,
                2.4375418653447465,
                -0.9410609902823605,
                1.1811850835342979,
                3.21729493376405
            ]
        },
        {
            "positions": [
                -0.20044235695230195,
                -1.5988887891079737,
                2.452509031225784,
                -0.8532624211240483,
                1.1293473603982538,
                3.2454263720260936
            ]
        },
        {
            "positions": [
                -0.13173184301372468,
                -1.7115063858308666,
                2.4674761971068206,
                -0.765463851965736,
                1.0775096372622095,
                3.2735578102881377
            ]
        },
        {
            "positions": [
                -0.0630213290751474,
                -1.8241239825537594,
                2.4824433629878575,
                -0.6776652828074239,
                1.0256719141261652,
                3.301689248550182
            ]
        },
        {
            "positions": [
                0.005689184863429897,
                -1.9367415792766525,
                2.4974105288688944,
                -0.5898667136491116,
                0.973834190990121,
                3.329820686812226
            ]
        },
        {
            "positions": [
                0.07439969880200714,
                -2.049359175999545,
                2.5123776947499317,
                -0.5020681444907994,
                0.9219964678540769,
                3.3579521250742697
            ]
        },
        {
            "positions": [
                0.14311021274058444,
                -2.161976772722438,
                2.5273448606309685,
                -0.4142695753324872,
                0.8701587447180326,
                3.3860835633363138
            ]
        },
        {
            "positions": [
                0.282879024107281,
                -2.099358358881373,
                2.4945237578832082,
                -0.43105223532635256,
                0.8266773504346265,
                3.328796079052808
            ]
        },
        {
            "positions": [
                0.42264783547397755,
                -2.0367399450403085,
                2.461702655135448,
                -0.4478348953202179,
                0.7831959561512205,
                3.271508594769302
            ]
        },
        {
            "positions": [
                0.5624166468406742,
                -1.9741215311992435,
                2.428881552387687,
                -0.4646175553140832,
                0.7397145618678145,
                3.2142211104857963
            ]
        },
        {
            "positions": [
                0.7021854582073707,
                -1.9115031173581787,
                2.396060449639927,
                -0.4814002153079486,
                0.6962331675844085,
                3.1569336262022905
            ]
        }
    ]
}