{
    "goal": {
        "global_pose": {
            "orientation": {
                "w": 0.7031023480610252,
                "x": -0.7110244013736278,
                "y": 0.0077485991402295624,
                "z": 0.005598929693374583
            },
            "position": {
                "x": -0.8841497679147869,
                "y": 0.44412534475326537,
                "z": 0.3711530566215515
            }
        },
        "name": "move_to_auspresseinheit_D"
    },
    "id": "ProjEST_move_to_auspresseinheit_D_126",
    "joint_names": [
        "shoulder_pan_joint",
        "shoulder_lift_joint",
        "elbow_joint",
        "wrist_1_joint",
        "wrist_2_joint",
        "wrist_3_joint"
    ],
    "metrics": {
        "cart_traj_len": 0.3434011587972239,
        "distance_elbow_joint": 0.6423253195796605,
        "distance_shoulder_lift_joint": 0.12342286524542256,
        "distance_shoulder_pan_joint": 0.13361539250672186,
        "distance_wrist_1_joint": 0.5379865122439491,
        "distance_wrist_2_joint": 1.4486251169939353,
        "distance_wrist_3_joint": 0.002725361312741814,
        "smoothness": 1.973729812604375e-15,
        "time": 0.159346664,
        "traj_len": 1.6996177711127969,
        "weighted_distance": 2.2092448754598935
    },
    "planner": "ProjEST",
    "start": {
        "state": {
            "elbow_joint": -1.8275484843655228,
            "shoulder_lift_joint": -2.1267897864000416,
            "shoulder_pan_joint": -0.035127520176001514,
            "wrist_1_joint": -2.3477863256791385,
            "wrist_2_joint": -1.605890476484521,
            "wrist_3_joint": -3.0880375317375353
        }
    },
    "waypoints": [
        {
            "positions": [
                -0.035127520176001514,
                -2.1267897864000416,
                -1.8275484843655228,
                -2.3477863256791385,
                -1.605890476484521,
                -3.0880375317375353
            ]
        },
        {
            "positions": [
                -0.05182944423934174,
                -2.1422176445557195,
                -1.7472578194180652,
                -2.4150346397096323,
                -1.424812336860279,
                -3.088378201901628
            ]
        },
        {
            "positions": [
                -0.06853136830268197,
                -2.1576455027113974,
                -1.6669671544706075,
                -2.4822829537401256,
                -1.2437341972360372,
                -3.0887188720657206
            ]
        },
        {
            "positions": [
                -0.08523329236602221,
                -2.173073360867075,
                -1.58667648952315,
                -2.5495312677706194,
                -1.0626560576117954,
                -3.0890595422298133
            ]
        },
        {
            "positions": [
                -0.10193521642936244,
                -2.188501219022753,
                -1.5063858245756925,
                -2.6167795818011133,
                -0.8815779179875534,
                -3.0894002123939064
            ]
        },
        {
            "positions": [
                -0.11863714049270267,
                -2.203929077178431,
                -1.426095159628235,
                -2.6840278958316066,
                -0.7004997783633115,
                -3.089740882557999
            ]
        },
        {
            "positions": [
                -0.13533906455604292,
                -2.2193569353341083,
                -1.3458044946807775,
                -2.7512762098621004,
                -0.5194216387390695,
                -3.0900815527220917
            ]
        },
        {
            "positions": [
                -0.15204098861938314,
                -2.234784793489786,
                -1.2655138297333197,
                -2.818524523892594,
                -0.33834349911482753,
                -3.0904222228861844
            ]
        },
        {
            "positions": [
                -0.16874291268272337,
                -2.250212651645464,
                -1.1852231647858622,
                -2.8857728379230876,
                -0.15726535949058582,
                -3.090762893050277
            ]
        }
    ]
}