{
    "goal": {
        "global_pose": {
            "orientation": {
                "w": -0.4816463035849501,
                "x": 0.5182115481033762,
                "y": 0.4908360881923453,
                "z": -0.5084816262002911
            },
            "position": {
                "x": -0.8240239810943604,
                "y": 0.19912469901144506,
                "z": 0.16403168439865112
            }
        },
        "name": "move_to_storage_D"
    },
    "id": "ProjEST_move_to_storage_D_66",
    "joint_names": [
        "shoulder_pan_joint",
        "shoulder_lift_joint",
        "elbow_joint",
        "wrist_1_joint",
        "wrist_2_joint",
        "wrist_3_joint"
    ],
    "metrics": {
        "cart_traj_len": 3.908122129008066,
        "distance_elbow_joint": 4.438282801179858,
        "distance_shoulder_lift_joint": 1.2633470178188653,
        "distance_shoulder_pan_joint": 2.8205860998249155,
        "distance_wrist_1_joint": 2.2732568075547914,
        "distance_wrist_2_joint": 0.967036076379538,
        "distance_wrist_3_joint": 3.156140037016618,
        "smoothness": 0.16364399596537232,
        "time": 0.102979754,
        "traj_len": 3.862466678144239,
        "weighted_distance": 4.94683957671382
    },
    "planner": "ProjEST",
    "start": {
        "state": {
            "elbow_joint": -2.384821990628643,
            "shoulder_lift_joint": -2.278805467437664,
            "shoulder_pan_joint": -0.18546946439364564,
            "wrist_1_joint": 1.4845938187801415,
            "wrist_2_joint": 0.178987772454074,
            "wrist_3_joint": 0.03710569632802521
        }
    },
    "waypoints": [
        {
            "positions": [
                -0.18546946439364564,
                -2.278805467437664,
                -2.384821990628643,
                1.4845938187801415,
                0.178987772454074,
                0.03710569632802521
            ]
        },
        {
            "positions": [
                -0.0788239447994813,
                -2.238302183196252,
                -2.4415562808101425,
                1.37235716844738,
                0.17842494911104917,
                0.05737814528004535
            ]
        },
        {
            "positions": [
                0.027821574794683057,
                -2.19779889895484,
                -2.4982905709916423,
                1.260120518114619,
                0.17786212576802438,
                0.0776505942320655
            ]
        },
        {
            "positions": [
                0.10440991256410832,
                -2.1640508237964546,
                -2.3724964793274075,
                1.2061668774016372,
                0.2051120499104615,
                0.15271070637318299
            ]
        },
        {
            "positions": [
                0.1809982503335336,
                -2.1303027486380697,
                -2.246702387663173,
                1.1522132366886553,
                0.2323619740528986,
                0.22777081851430048
            ]
        },
        {
            "positions": [
                0.25758658810295887,
                -2.0965546734796843,
                -2.1209082959989383,
                1.0982595959756736,
                0.25961189819533576,
                0.302830930655418
            ]
        },
        {
            "positions": [
                0.3341749258723841,
                -2.0628065983212993,
                -1.9951142043347034,
                1.0443059552626917,
                0.28686182233777285,
                0.37789104279653546
            ]
        },
        {
            "positions": [
                0.4107632636418094,
                -2.029058523162914,
                -1.8693201126704688,
                0.99035231454971,
                0.31411174648021,
                0.4529511549376529
            ]
        },
        {
            "positions": [
                0.4873516014112347,
                -1.995310448004529,
                -1.7435260210062342,
                0.9363986738367281,
                0.3413616706226471,
                0.5280112670787704
            ]
        },
        {
            "positions": [
                0.5639399391806599,
                -1.9615623728461438,
                -1.6177319293419994,
                0.8824450331237464,
                0.3686115947650842,
                0.6030713792198878
            ]
        },
        {
            "positions": [
                0.6405282769500852,
                -1.9278142976877586,
                -1.4919378376777648,
                0.8284913924107646,
                0.3958615189075213,
                0.6781314913610055
            ]
        },
        {
            "positions": [
                0.7171166147195104,
                -1.8940662225293732,
                -1.36614374601353,
                0.7745377516977828,
                0.4231114430499584,
                0.7531916035021229
            ]
        },
        {
            "positions": [
                0.7937049524889357,
                -1.860318147370988,
                -1.2403496543492953,
                0.720584110984801,
                0.4503613671923956,
                0.8282517156432403
            ]
        },
        {
            "positions": [
                0.870293290258361,
                -1.8265700722126028,
                -1.1145555626850605,
                0.6666304702718192,
                0.4776112913348327,
                0.9033118277843579
            ]
        },
        {
            "positions": [
                0.9468816280277863,
                -1.7928219970542176,
                -0.9887614710208259,
                0.6126768295588374,
                0.5048612154772698,
                0.9783719399254753
            ]
        },
        {
            "positions": [
                1.0234699657972115,
                -1.7590739218958324,
                -0.8629673793565913,
                0.5587231888458557,
                0.5321111396197069,
                1.0534320520665927
            ]
        },
        {
            "positions": [
                1.1000583035666367,
                -1.7253258467374473,
                -0.7371732876923567,
                0.504769548132874,
                0.559361063762144,
                1.1284921642077104
            ]
        },
        {
            "positions": [
                1.176646641336062,
                -1.691577771579062,
                -0.6113791960281219,
                0.4508159074198922,
                0.5866109879045811,
                1.2035522763488278
            ]
        },
        {
            "positions": [
                1.2532349791054873,
                -1.657829696420677,
                -0.48558510436388724,
                0.3968622667069104,
                0.6138609120470183,
                1.2786123884899454
            ]
        },
        {
            "positions": [
                1.3298233168749125,
                -1.6240816212622917,
                -0.3597910126996524,
                0.3429086259939286,
                0.6411108361894554,
                1.3536725006310628
            ]
        },
        {
            "positions": [
                1.4064116546443377,
                -1.5903335461039065,
                -0.23399692103541758,
                0.28895498528094676,
                0.6683607603318925,
                1.4287326127721802
            ]
        },
        {
            "positions": [
                1.4829999924137631,
                -1.5565854709455214,
                -0.10820282937118275,
                0.23500134456796506,
                0.6956106844743296,
                1.5037927249132979
            ]
        },
        {
            "positions": [
                1.5595883301831883,
                -1.522837395787136,
                0.017591262293051635,
                0.18104770385498314,
                0.7228606086167668,
                1.5788528370544153
            ]
        },
        {
            "positions": [
                1.6361766679526135,
                -1.489089320628751,
                0.14338535395728647,
                0.12709406314200145,
                0.7501105327592039,
                1.6539129491955329
            ]
        },
        {
            "positions": [
                1.712765005722039,
                -1.4553412454703656,
                0.2691794456215213,
                0.07314042242901952,
                0.777360456901641,
                1.7289730613366503
            ]
        },
        {
            "positions": [
                1.7893533434914641,
                -1.4215931703119806,
                0.3949735372857561,
                0.019186781716037826,
                0.8046103810440781,
                1.804033173477768
            ]
        },
        {
            "positions": [
                1.8659416812608896,
                -1.3878450951535952,
                0.5207676289499905,
                -0.034766858996944094,
                0.8318603051865153,
                1.8790932856188853
            ]
        },
        {
            "positions": [
                1.9425300190303147,
                -1.3540970199952103,
                0.6465617206142253,
                -0.08872049970992579,
                0.8591102293289524,
                1.9541533977600027
            ]
        },
        {
            "positions": [
                2.0191183567997397,
                -1.3203489448368249,
                0.7723558122784597,
                -0.1426741404229075,
                0.8863601534713894,
                2.02921350990112
            ]
        },
        {
            "positions": [
                2.0957066945691647,
                -1.28660086967844,
                0.8981499039426946,
                -0.1966277811358892,
                0.9136100776138265,
                2.104273622042238
            ]
        },
        {
            "positions": [
                2.1722950323385906,
                -1.2528527945200545,
                1.023943995606929,
                -0.2505814218488709,
                0.9408600017562637,
                2.179333734183355
            ]
        },
        {
            "positions": [
                2.2488833701080155,
                -1.2191047193616695,
                1.1497380872711638,
                -0.3045350625618528,
                0.9681099258987008,
                2.2543938463244726
            ]
        },
        {
            "positions": [
                2.3254717078774405,
                -1.1853566442032841,
                1.2755321789353986,
                -0.3584887032748345,
                0.9953598500411379,
                2.32945395846559
            ]
        },
        {
            "positions": [
                2.4020600456468664,
                -1.151608569044899,
                1.4013262705996334,
                -0.41244234398781643,
                1.022609774183575,
                2.4045140706067074
            ]
        },
        {
            "positions": [
                2.4786483834162913,
                -1.1178604938865138,
                1.5271203622638678,
                -0.4663959847007981,
                1.0498596983260122,
                2.4795741827478253
            ]
        },
        {
            "positions": [
                2.5552367211857163,
                -1.0841124187281286,
                1.652914453928103,
                -0.52034962541378,
                1.0771096224684493,
                2.5546342948889427
            ]
        },
        {
            "positions": [
                2.631825058955142,
                -1.0503643435697434,
                1.7787085455923375,
                -0.5743032661267617,
                1.1043595466108864,
                2.62969440703006
            ]
        },
        {
            "positions": [
                2.630727866796433,
                -1.0387290455860951,
                1.794646913669964,
                -0.6457565070093914,
                1.091221876994011,
                2.8175448491349213
            ]
        },
        {
            "positions": [
                2.6296306746377236,
                -1.0270937476024469,
                1.8105852817475905,
                -0.717209747892021,
                1.0780842073771355,
                3.005395291239782
            ]
        },
        {
            "positions": [
                2.6285334824790145,
                -1.0154584496187986,
                1.826523649825217,
                -0.7886629887746507,
                1.06494653776026,
                3.1932457333446433
            ]
        }
    ]
}