{
    "goal": {
        "global_pose": {
            "orientation": {
                "w": -0.00223480608172531,
                "x": 0.0024358444001904467,
                "y": 0.7094548369677653,
                "z": -0.704743149386269
            },
            "position": {
                "x": -0.37947507619857795,
                "y": -0.6371506643295288,
                "z": 0.19426114857196808
            }
        },
        "name": "move_to_magneteinheit_C"
    },
    "id": "ProjEST_move_to_magneteinheit_C_33",
    "joint_names": [
        "shoulder_pan_joint",
        "shoulder_lift_joint",
        "elbow_joint",
        "wrist_1_joint",
        "wrist_2_joint",
        "wrist_3_joint"
    ],
    "metrics": {
        "cart_traj_len": 0.5444697500505586,
        "distance_elbow_joint": 0.05222607222212283,
        "distance_shoulder_lift_joint": 0.25158885579239265,
        "distance_shoulder_pan_joint": 0.8013782588566156,
        "distance_wrist_1_joint": 0.29291831816916936,
        "distance_wrist_2_joint": 0.7880067907452123,
        "distance_wrist_3_joint": 0.4388885549541066,
        "smoothness": 0.6376892814130843,
        "time": 0.219884904,
        "traj_len": 1.6201872887847315,
        "weighted_distance": 2.1409598477230287
    },
    "planner": "ProjEST",
    "start": {
        "state": {
            "elbow_joint": 1.9565354006593851,
            "shoulder_lift_joint": -1.4165861576512813,
            "shoulder_pan_joint": -1.6717766223278752,
            "wrist_1_joint": -0.528663328821883,
            "wrist_2_joint": 1.472756589259273,
            "wrist_3_joint": 3.159348288315503
        }
    },
    "waypoints": [
        {
            "positions": [
                -1.6717766223278752,
                -1.4165861576512813,
                1.9565354006593851,
                -0.528663328821883,
                1.472756589259273,
                3.159348288315503
            ]
        },
        {
            "positions": [
                -1.7375501542754666,
                -1.397213610648947,
                1.96620469413757,
                -0.5849978905348265,
                1.2994424757839411,
                3.1013633778638385
            ]
        },
        {
            "positions": [
                -1.8033236862230577,
                -1.3778410636466125,
                1.9758739876157545,
                -0.6413324522477701,
                1.1261283623086094,
                3.0433784674121735
            ]
        },
        {
            "positions": [
                -1.869097218170649,
                -1.3584685166442783,
                1.9855432810939393,
                -0.6976670139607136,
                0.9528142488332774,
                2.985393556960509
            ]
        },
        {
            "positions": [
                -1.9348707501182405,
                -1.339095969641944,
                1.995212574572124,
                -0.7540015756736571,
                0.7795001353579454,
                2.9274086465088445
            ]
        },
        {
            "positions": [
                -2.1142987938069906,
                -1.2810630803809255,
                1.9997288740085855,
                -0.7765282661127889,
                0.7479166897433172,
                2.9963916175579937
            ]
        },
        {
            "positions": [
                -2.2937268374957407,
                -1.223030191119907,
                2.004245173445047,
                -0.7990549565519206,
                0.716333244128689,
                3.0653745886071433
            ]
        },
        {
            "positions": [
                -2.473154881184491,
                -1.1649973018588886,
                2.008761472881508,
                -0.8215816469910524,
                0.6847497985140608,
                3.1343575596562925
            ]
        }
    ]
}