{
    "goal": {
        "global_pose": {
            "orientation": {
                "w": -0.00223480608172531,
                "x": 0.0024358444001904467,
                "y": 0.7094548369677653,
                "z": -0.704743149386269
            },
            "position": {
                "x": 0.6205249238014221,
                "y": -0.6371506643295288,
                "z": 0.19426114857196808
            }
        },
        "name": "move_to_magneteinheit_B"
    },
    "id": "ProjEST_move_to_magneteinheit_B_8",
    "joint_names": [
        "shoulder_pan_joint",
        "shoulder_lift_joint",
        "elbow_joint",
        "wrist_1_joint",
        "wrist_2_joint",
        "wrist_3_joint"
    ],
    "metrics": {
        "cart_traj_len": 3.8524566215545213,
        "distance_elbow_joint": 4.144393574134886,
        "distance_shoulder_lift_joint": 0.6177696606902459,
        "distance_shoulder_pan_joint": 2.805314902931526,
        "distance_wrist_1_joint": 1.9676634850849364,
        "distance_wrist_2_joint": 1.190945749208975,
        "distance_wrist_3_joint": 6.2860042288664175,
        "smoothness": 0.06184205013008831,
        "time": 4.114315421,
        "traj_len": 4.124571686965445,
        "weighted_distance": 5.722124543641437
    },
    "planner": "ProjEST",
    "start": {
        "state": {
            "elbow_joint": 2.393587130804639,
            "shoulder_lift_joint": -1.9085141043513325,
            "shoulder_pan_joint": 0.7066247066698809,
            "wrist_1_joint": -0.4678290934590222,
            "wrist_2_joint": 0.7096259084215963,
            "wrist_3_joint": 3.147370379541726
        }
    },
    "waypoints": [
        {
            "positions": [
                0.7066247066698809,
                -1.9085141043513325,
                2.393587130804639,
                -0.4678290934590222,
                0.7096259084215963,
                3.147370379541726
            ]
        },
        {
            "positions": [
                0.6557234234443339,
                -1.8979318616585505,
                2.36088700032676,
                -0.47783327461673564,
                0.6044177246117858,
                2.972197855179818
            ]
        },
        {
            "positions": [
                0.604822140218787,
                -1.8873496189657684,
                2.3281868698488815,
                -0.48783745577444904,
                0.49920954080197527,
                2.7970253308179105
            ]
        },
        {
            "positions": [
                0.55392085699324,
                -1.8767673762729862,
                2.295486739371003,
                -0.49784163693216243,
                0.3940013569921647,
                2.621852806456003
            ]
        },
        {
            "positions": [
                0.503019573767693,
                -1.8661851335802042,
                2.262786608893124,
                -0.5078458180898759,
                0.2887931731823542,
                2.446680282094095
            ]
        },
        {
            "positions": [
                0.45211829054214603,
                -1.8556028908874223,
                2.230086478415245,
                -0.5178499992475893,
                0.18358498937254364,
                2.271507757732187
            ]
        },
        {
            "positions": [
                0.4012170073165991,
                -1.84502064819464,
                2.1973863479373668,
                -0.5278541804053027,
                0.07837680556273303,
                2.0963352333702794
            ]
        },
        {
            "positions": [
                0.38924317033244116,
                -1.840990932888239,
                2.1217407005895543,
                -0.5735485662731313,
                0.05583186639783042,
                1.961826070925572
            ]
        },
        {
            "positions": [
                0.37726933334828316,
                -1.836961217581838,
                2.0460950532417415,
                -0.6192429521409599,
                0.03328692723292781,
                1.8273169084808645
            ]
        },
        {
            "positions": [
                0.46121939257689576,
                -1.8333971211638032,
                1.9131721313462924,
                -0.6650142216784184,
                0.021875110339190353,
                1.7091157603209555
            ]
        },
        {
            "positions": [
                0.5451694518055084,
                -1.8298330247457684,
                1.7802492094508433,
                -0.7107854912158769,
                0.010463293445452892,
                1.5909146121610465
            ]
        },
        {
            "positions": [
                0.629119511034121,
                -1.8262689283277336,
                1.6473262875553945,
                -0.7565567607533353,
                -0.0009485234482845689,
                1.4727134640011372
            ]
        },
        {
            "positions": [
                0.7130695702627337,
                -1.8227048319096988,
                1.5144033656599454,
                -0.8023280302907938,
                -0.012360340342022026,
                1.3545123158412282
            ]
        },
        {
            "positions": [
                0.7970196294913463,
                -1.819140735491664,
                1.3814804437644963,
                -0.8480992998282523,
                -0.02377215723575949,
                1.2363111676813192
            ]
        },
        {
            "positions": [
                0.8809696887199588,
                -1.8155766390736292,
                1.2485575218690474,
                -0.8938705693657107,
                -0.03518397412949695,
                1.1181100195214102
            ]
        },
        {
            "positions": [
                0.9649197479485715,
                -1.8120125426555944,
                1.1156345999735984,
                -0.9396418389031692,
                -0.04659579102323441,
                0.9999088713615011
            ]
        },
        {
            "positions": [
                1.048869807177184,
                -1.8084484462375598,
                0.9827116780781493,
                -0.9854131084406277,
                -0.05800760791697186,
                0.8817077232015921
            ]
        },
        {
            "positions": [
                1.132819866405797,
                -1.804884349819525,
                0.8497887561827002,
                -1.0311843779780863,
                -0.06941942481070934,
                0.763506575041683
            ]
        },
        {
            "positions": [
                1.2167699256344093,
                -1.8013202534014903,
                0.7168658342872511,
                -1.0769556475155446,
                -0.08083124170444679,
                0.645305426881774
            ]
        },
        {
            "positions": [
                1.300719984863022,
                -1.7977561569834555,
                0.5839429123918021,
                -1.122726917053003,
                -0.09224305859818424,
                0.5271042787218649
            ]
        },
        {
            "positions": [
                1.3846700440916346,
                -1.7941920605654207,
                0.4510199904963532,
                -1.1684981865904616,
                -0.1036548754919217,
                0.40890313056195593
            ]
        },
        {
            "positions": [
                1.468620103320247,
                -1.790627964147386,
                0.31809706860090414,
                -1.2142694561279201,
                -0.11506669238565917,
                0.2907019824020467
            ]
        },
        {
            "positions": [
                1.55257016254886,
                -1.787063867729351,
                0.18517414670545507,
                -1.2600407256653785,
                -0.12647850927939663,
                0.1725008342421377
            ]
        },
        {
            "positions": [
                1.6365202217774724,
                -1.7834997713113163,
                0.05225122481000599,
                -1.3058119952028369,
                -0.1378903261731341,
                0.05429968608222868
            ]
        },
        {
            "positions": [
                1.7204702810060848,
                -1.7799356748932815,
                -0.08067169708544286,
                -1.3515832647402954,
                -0.14930214306687153,
                -0.06390146207768033
            ]
        },
        {
            "positions": [
                1.8044203402346977,
                -1.7763715784752467,
                -0.21359461898089194,
                -1.3973545342777538,
                -0.160713959960609,
                -0.18210261023758934
            ]
        },
        {
            "positions": [
                1.8883703994633105,
                -1.772807482057212,
                -0.346517540876341,
                -1.4431258038152124,
                -0.1721257768543465,
                -0.30030375839749857
            ]
        },
        {
            "positions": [
                1.972320458691923,
                -1.7692433856391772,
                -0.4794404627717901,
                -1.4888970733526707,
                -0.18353759374808395,
                -0.4185049065574078
            ]
        },
        {
            "positions": [
                2.0562705179205354,
                -1.7656792892211424,
                -0.6123633846672392,
                -1.5346683428901293,
                -0.1949494106418214,
                -0.5367060547173166
            ]
        },
        {
            "positions": [
                2.1402205771491483,
                -1.7621151928031078,
                -0.7452863065626882,
                -1.580439612427588,
                -0.20636122753555886,
                -0.6549072028772258
            ]
        },
        {
            "positions": [
                2.2241706363777607,
                -1.758551096385073,
                -0.8782092284581373,
                -1.6262108819650463,
                -0.2177730444292963,
                -0.7731083510371346
            ]
        },
        {
            "positions": [
                2.308120695606373,
                -1.7549869999670382,
                -1.011132150353586,
                -1.6719821515025046,
                -0.22918486132303378,
                -0.8913094991970438
            ]
        },
        {
            "positions": [
                2.392070754834986,
                -1.7514229035490034,
                -1.144055072249035,
                -1.7177534210399632,
                -0.24059667821677122,
                -1.0095106473569526
            ]
        },
        {
            "positions": [
                2.476020814063599,
                -1.7478588071309686,
                -1.2769779941444845,
                -1.7635246905774218,
                -0.2520084951105087,
                -1.1277117955168623
            ]
        },
        {
            "positions": [
                2.5599708732922113,
                -1.7442947107129338,
                -1.4099009160399332,
                -1.8092959601148801,
                -0.26342031200424615,
                -1.245912943676771
            ]
        },
        {
            "positions": [
                2.643920932520824,
                -1.740730614294899,
                -1.5428238379353822,
                -1.8550672296523387,
                -0.27483212889798364,
                -1.3641140918366803
            ]
        },
        {
            "positions": [
                2.7278709917494366,
                -1.7371665178768643,
                -1.6757467598308313,
                -1.900838499189797,
                -0.2862439457917211,
                -1.482315239996589
            ]
        },
        {
            "positions": [
                2.7350961472154567,
                -1.7853638083657897,
                -1.682887595088849,
                -1.9679617650218508,
                -0.305477506380236,
                -1.656544312619734
            ]
        },
        {
            "positions": [
                2.742321302681477,
                -1.8335610988547149,
                -1.690028430346867,
                -2.035085030853905,
                -0.32471106696875096,
                -1.8307733852428785
            ]
        },
        {
            "positions": [
                2.7495464581474964,
                -1.88175838934364,
                -1.6971692656048847,
                -2.1022082966859585,
                -0.34394462755726585,
                -2.005002457866023
            ]
        },
        {
            "positions": [
                2.7567716136135165,
                -1.9299556798325654,
                -1.7043101008629025,
                -2.1693315625180123,
                -0.3631781881457808,
                -2.179231530489168
            ]
        },
        {
            "positions": [
                2.7374801637445776,
                -1.9806822622845808,
                -1.6950108323694335,
                -2.2225637657232014,
                -0.3868065186741001,
                -2.3711119942562715
            ]
        },
        {
            "positions": [
                2.7181887138756387,
                -2.031408844736596,
                -1.6857115638759645,
                -2.275795968928391,
                -0.41043484920241935,
                -2.562992458023375
            ]
        },
        {
            "positions": [
                2.6988972640066993,
                -2.082135427188611,
                -1.6764122953824954,
                -2.32902817213358,
                -0.43406317973073866,
                -2.7548729217904793
            ]
        },
        {
            "positions": [
                2.6796058141377603,
                -2.1328620096406268,
                -1.6671130268890264,
                -2.3822603753387694,
                -0.45769151025905797,
                -2.946753385557583
            ]
        },
        {
            "positions": [
                2.6603143642688214,
                -2.183588592092642,
                -1.6578137583955574,
                -2.4354925785439585,
                -0.4813198407873772,
                -3.1386338493246866
            ]
        }
    ]
}