{
    "goal": {
        "global_pose": {
            "orientation": {
                "w": -0.00223480608172531,
                "x": 0.0024358444001904467,
                "y": 0.7094548369677653,
                "z": -0.704743149386269
            },
            "position": {
                "x": 0.6205249238014221,
                "y": -0.6371506643295288,
                "z": 0.19426114857196808
            }
        },
        "name": "move_to_magneteinheit_B"
    },
    "id": "ProjEST_move_to_magneteinheit_B_22",
    "joint_names": [
        "shoulder_pan_joint",
        "shoulder_lift_joint",
        "elbow_joint",
        "wrist_1_joint",
        "wrist_2_joint",
        "wrist_3_joint"
    ],
    "metrics": {
        "cart_traj_len": 3.933070403784354,
        "distance_elbow_joint": 5.327724095280781,
        "distance_shoulder_lift_joint": 1.4295842263150866,
        "distance_shoulder_pan_joint": 2.191413852517479,
        "distance_wrist_1_joint": 1.995229530694867,
        "distance_wrist_2_joint": 2.242536658178516,
        "distance_wrist_3_joint": 3.7274497775028856,
        "smoothness": 1.0323516810750055,
        "time": 0.583835509,
        "traj_len": 4.11265584999397,
        "weighted_distance": 5.348514175391964
    },
    "planner": "ProjEST",
    "start": {
        "state": {
            "elbow_joint": 2.393587130804639,
            "shoulder_lift_joint": -1.9085141043513325,
            "shoulder_pan_joint": 0.7066247066698809,
            "wrist_1_joint": -0.4678290934590222,
            "wrist_2_joint": 0.7096259084215963,
            "wrist_3_joint": 3.147370379541726
        }
    },
    "waypoints": [
        {
            "positions": [
                0.7066247066698809,
                -1.9085141043513325,
                2.393587130804639,
                -0.4678290934590222,
                0.7096259084215963,
                3.147370379541726
            ]
        },
        {
            "positions": [
                0.7491588411852776,
                -1.9158488399049882,
                2.394878050171556,
                -0.4617022045627741,
                0.6876612255183956,
                3.1039933513071167
            ]
        },
        {
            "positions": [
                0.8264145951026098,
                -1.9770865137323885,
                2.4475922068685554,
                -0.41133639097029095,
                0.7365474671221554,
                3.109699408194414
            ]
        },
        {
            "positions": [
                0.903670349019942,
                -2.038324187559789,
                2.5003063635655547,
                -0.36097057737780786,
                0.785433708725915,
                3.1154054650817105
            ]
        },
        {
            "positions": [
                0.9809261029372742,
                -2.099561861387189,
                2.553020520262554,
                -0.3106047637853247,
                0.8343199503296748,
                3.1211115219690075
            ]
        },
        {
            "positions": [
                1.0255826034515172,
                -2.0871087027400677,
                2.385427289285162,
                -0.3175912712615198,
                0.7906731640482831,
                3.0013360596655576
            ]
        },
        {
            "positions": [
                1.0702391039657602,
                -2.0746555440929457,
                2.2178340583077705,
                -0.3245777787377149,
                0.7470263777668915,
                2.8815605973621077
            ]
        },
        {
            "positions": [
                1.1148956044800031,
                -2.062202385445824,
                2.0502408273303785,
                -0.33156428621391,
                0.7033795914855,
                2.761785135058658
            ]
        },
        {
            "positions": [
                1.1595521049942463,
                -2.0497492267987023,
                1.8826475963529867,
                -0.3385507936901051,
                0.6597328052041084,
                2.6420096727552083
            ]
        },
        {
            "positions": [
                1.2042086055084893,
                -2.037296068151581,
                1.715054365375595,
                -0.34553730116630016,
                0.6160860189227167,
                2.5222342104517583
            ]
        },
        {
            "positions": [
                1.2488651060227323,
                -2.024842909504459,
                1.5474611343982032,
                -0.3525238086424953,
                0.5724392326413252,
                2.402458748148309
            ]
        },
        {
            "positions": [
                1.2935216065369752,
                -2.012389750857337,
                1.3798679034208112,
                -0.3595103161186904,
                0.5287924463599336,
                2.2826832858448585
            ]
        },
        {
            "positions": [
                1.3381781070512182,
                -1.9999365922102155,
                1.2122746724434195,
                -0.36649682359488545,
                0.485145660078542,
                2.162907823541409
            ]
        },
        {
            "positions": [
                1.3828346075654614,
                -1.9874834335630938,
                1.0446814414660275,
                -0.37348333107108056,
                0.4414988737971503,
                2.0431323612379586
            ]
        },
        {
            "positions": [
                1.4274911080797044,
                -1.975030274915972,
                0.8770882104886357,
                -0.3804698385472757,
                0.39785208751575873,
                1.9233568989345091
            ]
        },
        {
            "positions": [
                1.4721476085939473,
                -1.9625771162688503,
                0.709494979511244,
                -0.3874563460234708,
                0.35420530123436716,
                1.8035814366310594
            ]
        },
        {
            "positions": [
                1.5168041091081903,
                -1.9501239576217286,
                0.5419017485338524,
                -0.39444285349966585,
                0.3105585149529756,
                1.6838059743276097
            ]
        },
        {
            "positions": [
                1.5614606096224333,
                -1.937670798974607,
                0.37430851755646,
                -0.40142936097586096,
                0.26691172867158397,
                1.5640305120241595
            ]
        },
        {
            "positions": [
                1.6061171101366765,
                -1.9252176403274852,
                0.20671528657906846,
                -0.408415868452056,
                0.22326494239019234,
                1.4442550497207098
            ]
        },
        {
            "positions": [
                1.6507736106509192,
                -1.9127644816803635,
                0.03912205560167692,
                -0.41540237592825113,
                0.17961815610880072,
                1.3244795874172601
            ]
        },
        {
            "positions": [
                1.6954301111651624,
                -1.9003113230332418,
                -0.12847117537571506,
                -0.42238888340444625,
                0.1359713698274092,
                1.2047041251138102
            ]
        },
        {
            "positions": [
                1.7400866116794054,
                -1.88785816438612,
                -0.2960644063531066,
                -0.4293753908806413,
                0.09232458354601758,
                1.0849286628103605
            ]
        },
        {
            "positions": [
                1.7847431121936483,
                -1.8754050057389984,
                -0.46365763733049903,
                -0.4363618983568365,
                0.048677797264625844,
                0.9651532005069101
            ]
        },
        {
            "positions": [
                1.8293996127078915,
                -1.8629518470918767,
                -0.631250868307891,
                -0.44334840583303153,
                0.00503101098323433,
                0.8453777382034606
            ]
        },
        {
            "positions": [
                1.8740561132221343,
                -1.850498688444755,
                -0.7988440992852825,
                -0.4503349133092266,
                -0.038615775298157295,
                0.7256022759000107
            ]
        },
        {
            "positions": [
                1.9187126137363775,
                -1.8380455297976332,
                -0.9664373302626741,
                -0.4573214207854217,
                -0.08226256157954892,
                0.6058268135965612
            ]
        },
        {
            "positions": [
                1.9633691142506204,
                -1.8255923711505115,
                -1.134030561240066,
                -0.4643079282616168,
                -0.12590934786094043,
                0.4860513512931113
            ]
        },
        {
            "positions": [
                2.0080256147648634,
                -1.8131392125033898,
                -1.3016237922174576,
                -0.47129443573781193,
                -0.16955613414233195,
                0.36627588898966135
            ]
        },
        {
            "positions": [
                2.052682115279106,
                -1.8006860538562681,
                -1.4692170231948491,
                -0.478280943214007,
                -0.21320292042372357,
                0.24650042668621186
            ]
        },
        {
            "positions": [
                2.0973386157933493,
                -1.7882328952091464,
                -1.636810254172242,
                -0.4852674506902021,
                -0.2568497067051154,
                0.12672496438276148
            ]
        },
        {
            "positions": [
                2.1419951163075925,
                -1.7757797365620247,
                -1.804403485149634,
                -0.4922539581663972,
                -0.3004964929865068,
                0.006949502079311554
            ]
        },
        {
            "positions": [
                2.1866516168218357,
                -1.763326577914903,
                -1.971996716127025,
                -0.4992404656425923,
                -0.34414327926789845,
                -0.11282596022413793
            ]
        },
        {
            "positions": [
                2.2313081173360785,
                -1.7508734192677813,
                -2.139589947104417,
                -0.5062269731187874,
                -0.38779006554929013,
                -0.2326014225275879
            ]
        },
        {
            "positions": [
                2.279333214821265,
                -1.8186292201362082,
                -2.0995465499828225,
                -0.36599676430290556,
                -0.3069446670665892,
                -0.2168317942490484
            ]
        },
        {
            "positions": [
                2.327358312306451,
                -1.8863850210046351,
                -2.0595031528612275,
                -0.22576655548702373,
                -0.22609926858388818,
                -0.20106216597050885
            ]
        },
        {
            "positions": [
                2.3753834097916378,
                -1.9541408218730623,
                -2.019459755739633,
                -0.0855363466711419,
                -0.1452538701011872,
                -0.18529253769196935
            ]
        },
        {
            "positions": [
                2.4234085072768243,
                -2.0218966227414894,
                -1.9794163586180382,
                0.054693862144739924,
                -0.06440847161848623,
                -0.16952290941342985
            ]
        },
        {
            "positions": [
                2.4714336047620105,
                -2.089652423609916,
                -1.9393729614964434,
                0.1949240709606217,
                0.016436926864214774,
                -0.15375328113489034
            ]
        },
        {
            "positions": [
                2.519458702247197,
                -2.1574082244783432,
                -1.899329564374849,
                0.3351542797765036,
                0.09728232534691572,
                -0.13798365285635084
            ]
        },
        {
            "positions": [
                2.567483799732383,
                -2.22516402534677,
                -1.8592861672532541,
                0.47538448859238547,
                0.17812772382961667,
                -0.1222140245778113
            ]
        },
        {
            "positions": [
                2.6155088972175697,
                -2.292919826215197,
                -1.8192427701316594,
                0.6156146974082672,
                0.2589731223123177,
                -0.1064443962992718
            ]
        },
        {
            "positions": [
                2.697701404063414,
                -2.252654522409288,
                -1.790877082122271,
                0.5785883725571499,
                0.3520160320194925,
                -0.02958564571243534
            ]
        },
        {
            "positions": [
                2.779893910909259,
                -2.2123892186033784,
                -1.7625113941128827,
                0.5415620477060326,
                0.4450589417266672,
                0.04727310487440112
            ]
        },
        {
            "positions": [
                2.7405123614832254,
                -2.3014795561369077,
                -1.729644165624763,
                0.6903916048588385,
                0.45137701749637177,
                0.03615073597180061
            ]
        },
        {
            "positions": [
                2.7011308120571917,
                -2.390569893670437,
                -1.696776937136643,
                0.8392211620116445,
                0.4576950932660763,
                0.025028367069200096
            ]
        },
        {
            "positions": [
                2.661749262631158,
                -2.479660231203966,
                -1.6639097086485233,
                0.9880507191644505,
                0.4640131690357809,
                0.013905998166599586
            ]
        }
    ]
}