{
    "goal": {
        "global_pose": {
            "orientation": {
                "w": 0.7047431493862688,
                "x": -0.7094548369677653,
                "y": 0.0024358444001904,
                "z": -0.0022348060817251984
            },
            "position": {
                "x": -0.39052492380142206,
                "y": 0.3671506643295288,
                "z": 0.19426114857196808
            }
        },
        "name": "move_to_magneteinheit_D"
    },
    "id": "ProjEST_move_to_magneteinheit_D_128",
    "joint_names": [
        "shoulder_pan_joint",
        "shoulder_lift_joint",
        "elbow_joint",
        "wrist_1_joint",
        "wrist_2_joint",
        "wrist_3_joint"
    ],
    "metrics": {
        "cart_traj_len": 3.7220057182651565,
        "distance_elbow_joint": 3.132848931938558,
        "distance_shoulder_lift_joint": 2.1651744300877374,
        "distance_shoulder_pan_joint": 3.25745736384566,
        "distance_wrist_1_joint": 2.1126295007028233,
        "distance_wrist_2_joint": 1.4476506915147904,
        "distance_wrist_3_joint": 3.2000922179577156,
        "smoothness": 0.3268187739208899,
        "time": 0.3463248,
        "traj_len": 3.913547385179754,
        "weighted_distance": 5.027555843964375
    },
    "planner": "ProjEST",
    "start": {
        "state": {
            "elbow_joint": 0.7495348899011911,
            "shoulder_lift_joint": -0.6476975780737668,
            "shoulder_pan_joint": -2.711696901376276,
            "wrist_1_joint": -0.0750647808097303,
            "wrist_2_joint": 0.43296659715458535,
            "wrist_3_joint": 3.1361499051832418
        }
    },
    "waypoints": [
        {
            "positions": [
                -2.711696901376276,
                -0.6476975780737668,
                0.7495348899011911,
                -0.0750647808097303,
                0.43296659715458535,
                3.1361499051832418
            ]
        },
        {
            "positions": [
                -2.7244745870518146,
                -0.6179707514711155,
                0.6313375757824586,
                0.03495819762049701,
                0.3994955650626986,
                3.143949888551735
            ]
        },
        {
            "positions": [
                -2.737252272727353,
                -0.5882439248684642,
                0.5131402616637262,
                0.1449811760507243,
                0.36602453297081194,
                3.1517498719202277
            ]
        },
        {
            "positions": [
                -2.7500299584028913,
                -0.5585170982658129,
                0.39494294754499376,
                0.25500415448095165,
                0.3325535008789252,
                3.159549855288721
            ]
        },
        {
            "positions": [
                -2.7550986074596913,
                -0.528510129925555,
                0.26807768023120343,
                0.3679313740744599,
                0.29426505869854125,
                3.1637562481457686
            ]
        },
        {
            "positions": [
                -2.760167256516491,
                -0.4985031615852971,
                0.1412124129174131,
                0.4808585936679682,
                0.2559766165181573,
                3.1679626410028163
            ]
        },
        {
            "positions": [
                -2.7652359055732916,
                -0.46849619324503927,
                0.014347145603622768,
                0.5937858132614764,
                0.21768817433777335,
                3.172169033859864
            ]
        },
        {
            "positions": [
                -2.7703045546300915,
                -0.43848922490478137,
                -0.11251812171016756,
                0.7067130328549847,
                0.17939973215738936,
                3.1763754267169118
            ]
        },
        {
            "positions": [
                -2.7753732036868914,
                -0.4084822565645235,
                -0.2393833890239579,
                0.8196402524484929,
                0.14111128997700542,
                3.1805818195739595
            ]
        },
        {
            "positions": [
                -2.675699961473005,
                -0.4028410712258214,
                -0.362628549133932,
                0.867864825186801,
                0.0760869756354912,
                3.1339274400866364
            ]
        },
        {
            "positions": [
                -2.576026719259119,
                -0.39719988588711935,
                -0.48587370924390605,
                0.916089397925109,
                0.011062661293976983,
                3.087273060599313
            ]
        },
        {
            "positions": [
                -2.4763534770452327,
                -0.39155870054841724,
                -0.6091188693538802,
                0.964313970663417,
                -0.053961653047537195,
                3.0406186811119897
            ]
        },
        {
            "positions": [
                -2.3766802348313467,
                -0.3859175152097152,
                -0.7323640294638543,
                1.012538543401725,
                -0.11898596738905146,
                2.993964301624666
            ]
        },
        {
            "positions": [
                -2.2770069926174603,
                -0.38027632987101306,
                -0.8556091895738283,
                1.060763116140033,
                -0.1840102817305656,
                2.947309922137343
            ]
        },
        {
            "positions": [
                -2.140506119225849,
                -0.4034688829932213,
                -0.8947067380491619,
                1.0170811510988778,
                -0.23051553740045727,
                2.88070168255789
            ]
        },
        {
            "positions": [
                -2.0040052458342377,
                -0.4266614361154296,
                -0.9338042865244955,
                0.9733991860577224,
                -0.277020793070349,
                2.8140934429784368
            ]
        },
        {
            "positions": [
                -1.8675043724426266,
                -0.44985398923763786,
                -0.9729018349998291,
                0.9297172210165671,
                -0.3235260487402406,
                2.747485203398984
            ]
        },
        {
            "positions": [
                -1.731003499051015,
                -0.4730465423598461,
                -1.0119993834751628,
                0.8860352559754117,
                -0.3700313044101323,
                2.680876963819531
            ]
        },
        {
            "positions": [
                -1.594502625659404,
                -0.49623909548205436,
                -1.0510969319504964,
                0.8423532909342564,
                -0.416536560080024,
                2.6142687242400777
            ]
        },
        {
            "positions": [
                -1.4875802828289189,
                -0.569406889785446,
                -1.1107661432324616,
                0.8717701665329772,
                -0.4036751868336981,
                2.5018922314423406
            ]
        },
        {
            "positions": [
                -1.3806579399984338,
                -0.6425746840888376,
                -1.1704353545144266,
                0.9011870421316982,
                -0.39081381358737216,
                2.389515738644603
            ]
        },
        {
            "positions": [
                -1.2737355971679487,
                -0.715742478392229,
                -1.2301045657963918,
                0.9306039177304191,
                -0.37795244034104625,
                2.2771392458468656
            ]
        },
        {
            "positions": [
                -1.1668132543374634,
                -0.7889102726956208,
                -1.289773777078357,
                0.96002079332914,
                -0.3650910670947204,
                2.1647627530491285
            ]
        },
        {
            "positions": [
                -1.0598909115069786,
                -0.8620780669990122,
                -1.3494429883603223,
                0.9894376689278609,
                -0.3522296938483944,
                2.0523862602513914
            ]
        },
        {
            "positions": [
                -0.9529685686764933,
                -0.9352458613024038,
                -1.4091121996422873,
                1.0188545445265818,
                -0.33936832060206856,
                1.9400097674536538
            ]
        },
        {
            "positions": [
                -0.8460462258460082,
                -1.0084136556057954,
                -1.4687814109242525,
                1.0482714201253027,
                -0.32650694735574265,
                1.8276332746559165
            ]
        },
        {
            "positions": [
                -0.7391238830155231,
                -1.0815814499091871,
                -1.5284506222062175,
                1.0776882957240237,
                -0.31364557410941674,
                1.7152567818581792
            ]
        },
        {
            "positions": [
                -0.632201540185038,
                -1.1547492442125786,
                -1.5881198334881828,
                1.1071051713227444,
                -0.3007842008630908,
                1.6028802890604419
            ]
        },
        {
            "positions": [
                -0.525279197354553,
                -1.2279170385159701,
                -1.647789044770148,
                1.1365220469214654,
                -0.2879228276167649,
                1.4905037962627046
            ]
        },
        {
            "positions": [
                -0.4183568545240679,
                -1.3010848328193618,
                -1.7074582560521132,
                1.1659389225201862,
                -0.27506145437043905,
                1.3781273034649673
            ]
        },
        {
            "positions": [
                -0.3114345116935826,
                -1.3742526271227533,
                -1.7671274673340782,
                1.1953557981189071,
                -0.2622000811241131,
                1.26575081066723
            ]
        },
        {
            "positions": [
                -0.20451216886309753,
                -1.4474204214261448,
                -1.8267966786160434,
                1.224772673717628,
                -0.2493387078777872,
                1.1533743178694926
            ]
        },
        {
            "positions": [
                -0.09758982603261246,
                -1.5205882157295365,
                -1.8864658898980085,
                1.254189549316349,
                -0.2364773346314613,
                1.0409978250717553
            ]
        },
        {
            "positions": [
                0.009332516797872614,
                -1.5937560100329282,
                -1.9461351011799737,
                1.2836064249150698,
                -0.2236159613851354,
                0.928621332274018
            ]
        },
        {
            "positions": [
                0.11625485962835766,
                -1.6669238043363197,
                -2.005804312461939,
                1.3130233005137908,
                -0.21075458813880948,
                0.8162448394762807
            ]
        },
        {
            "positions": [
                0.08661354873139401,
                -1.7434104841062545,
                -2.053819948392907,
                1.351893831873929,
                -0.15792962332087607,
                0.7198124863553002
            ]
        },
        {
            "positions": [
                0.05697223783443037,
                -1.8198971638761896,
                -2.1018355843238754,
                1.3907643632340674,
                -0.10510465850294262,
                0.6233801332343197
            ]
        },
        {
            "positions": [
                0.02733092693746672,
                -1.8963838436461247,
                -2.1498512202548437,
                1.429634894594206,
                -0.052279693685009176,
                0.5269477801133392
            ]
        },
        {
            "positions": [
                -0.0023103839594969255,
                -1.9728705234160595,
                -2.1978668561858115,
                1.4685054259543442,
                0.000545271132924241,
                0.43051542699235873
            ]
        },
        {
            "positions": [
                -0.03195169485646057,
                -2.0493572031859943,
                -2.2458824921167797,
                1.5073759573144825,
                0.053370235950857714,
                0.3340830738713782
            ]
        },
        {
            "positions": [
                -0.061593005753424204,
                -2.1258438829559294,
                -2.293898128047748,
                1.5462464886746208,
                0.10619520076879112,
                0.23765072075039767
            ]
        },
        {
            "positions": [
                -0.12374557217243184,
                -2.201936697355963,
                -2.3386060850425574,
                1.5189971982711614,
                0.14390308748447436,
                0.13128611837867926
            ]
        },
        {
            "positions": [
                -0.1858981385914395,
                -2.2780295117559968,
                -2.383314042037367,
                1.4917479078677018,
                0.18161097420015762,
                0.024921516006960815
            ]
        }
    ]
}