{
    "goal": {
        "global_pose": {
            "orientation": {
                "w": 0.005598929693374612,
                "x": 0.007748599140229565,
                "y": 0.7110244013736278,
                "z": -0.7031023480610252
            },
            "position": {
                "x": -0.8858502320852131,
                "y": -0.7141253447532654,
                "z": 0.3711530566215515
            }
        },
        "name": "move_to_auspresseinheit_C"
    },
    "id": "ProjEST_move_to_auspresseinheit_C_146",
    "joint_names": [
        "shoulder_pan_joint",
        "shoulder_lift_joint",
        "elbow_joint",
        "wrist_1_joint",
        "wrist_2_joint",
        "wrist_3_joint"
    ],
    "metrics": {
        "cart_traj_len": 0.49367074247557735,
        "distance_elbow_joint": 1.014849806466736,
        "distance_shoulder_lift_joint": 0.33179395216174035,
        "distance_shoulder_pan_joint": 0.25614107425200094,
        "distance_wrist_1_joint": 0.7131634083891675,
        "distance_wrist_2_joint": 1.3152974269664854,
        "distance_wrist_3_joint": 0.09134279013764601,
        "smoothness": 0.0,
        "time": 2.741802012,
        "traj_len": 1.929401062084754,
        "weighted_distance": 2.4359258761310287
    },
    "planner": "ProjEST",
    "start": {
        "state": {
            "elbow_joint": 1.7527959577730765,
            "shoulder_lift_joint": -0.9740617694224828,
            "shoulder_pan_joint": -2.967991417825869,
            "wrist_1_joint": -0.7595177689779385,
            "wrist_2_joint": 1.7443932448376545,
            "wrist_3_joint": 3.1991315425061013
        }
    },
    "waypoints": [
        {
            "positions": [
                -2.967991417825869,
                -0.9740617694224828,
                1.7527959577730765,
                -0.7595177689779385,
                1.7443932448376545,
                3.1991315425061013
            ]
        },
        {
            "positions": [
                -2.942377310400669,
                -0.9408823742063087,
                1.651310977126403,
                -0.6882014281390219,
                1.6128635021410058,
                3.189997263492337
            ]
        },
        {
            "positions": [
                -2.916763202975469,
                -0.9077029789901347,
                1.5498259964797292,
                -0.616885087300105,
                1.4813337594443574,
                3.1808629844785723
            ]
        },
        {
            "positions": [
                -2.8911490955502686,
                -0.8745235837739607,
                1.4483410158330559,
                -0.5455687464611882,
                1.3498040167477088,
                3.1717287054648073
            ]
        },
        {
            "positions": [
                -2.8655349881250687,
                -0.8413441885577866,
                1.346856035186382,
                -0.47425240562227156,
                1.2182742740510601,
                3.162594426451043
            ]
        },
        {
            "positions": [
                -2.839920880699869,
                -0.8081647933416126,
                1.2453710545397085,
                -0.4029360647833548,
                1.0867445313544117,
                3.1534601474372783
            ]
        },
        {
            "positions": [
                -2.8143067732746685,
                -0.7749853981254387,
                1.143886073893035,
                -0.33161972394443806,
                0.9552147886577632,
                3.144325868423514
            ]
        },
        {
            "positions": [
                -2.788692665849468,
                -0.7418060029092646,
                1.0424010932463614,
                -0.26030338310552137,
                0.8236850459611147,
                3.1351915894097493
            ]
        },
        {
            "positions": [
                -2.7630785584242683,
                -0.7086266076930905,
                0.9409161125996877,
                -0.18898704226660457,
                0.6921553032644661,
                3.1260573103959843
            ]
        },
        {
            "positions": [
                -2.7374644509990684,
                -0.6754472124769164,
                0.8394311319530141,
                -0.11767070142768776,
                0.5606255605678174,
                3.11692303138222
            ]
        },
        {
            "positions": [
                -2.711850343573868,
                -0.6422678172607424,
                0.7379461513063407,
                -0.04635436058877107,
                0.4290958178711691,
                3.1077887523684553
            ]
        }
    ]
}