{
    "goal": {
        "global_pose": {
            "orientation": {
                "w": -0.4816463035849501,
                "x": 0.5182115481033762,
                "y": 0.4908360881923453,
                "z": -0.5084816262002911
            },
            "position": {
                "x": -0.8240239810943604,
                "y": 0.19912469901144506,
                "z": 0.16403168439865112
            }
        },
        "name": "move_to_storage_D"
    },
    "id": "ProjEST_move_to_storage_D_49",
    "joint_names": [
        "shoulder_pan_joint",
        "shoulder_lift_joint",
        "elbow_joint",
        "wrist_1_joint",
        "wrist_2_joint",
        "wrist_3_joint"
    ],
    "metrics": {
        "cart_traj_len": 3.8240651118067777,
        "distance_elbow_joint": 4.209398636589651,
        "distance_shoulder_lift_joint": 1.2638249831723984,
        "distance_shoulder_pan_joint": 2.811935694348899,
        "distance_wrist_1_joint": 2.3223905485918537,
        "distance_wrist_2_joint": 0.8725670917470529,
        "distance_wrist_3_joint": 3.2458917115868067,
        "smoothness": 0.25788618912423966,
        "time": 0.156917129,
        "traj_len": 3.837448197179561,
        "weighted_distance": 4.94092599919784
    },
    "planner": "ProjEST",
    "start": {
        "state": {
            "elbow_joint": -2.384821990628643,
            "shoulder_lift_joint": -2.278805467437664,
            "shoulder_pan_joint": -0.18546946439364564,
            "wrist_1_joint": 1.4845938187801415,
            "wrist_2_joint": 0.178987772454074,
            "wrist_3_joint": 0.03710569632802521
        }
    },
    "waypoints": [
        {
            "positions": [
                -0.18546946439364564,
                -2.278805467437664,
                -2.384821990628643,
                1.4845938187801415,
                0.178987772454074,
                0.03710569632802521
            ]
        },
        {
            "positions": [
                -0.12903553345413896,
                -2.237867383041994,
                -2.3640157950125085,
                1.5135887446801535,
                0.18756243886431276,
                0.08956345847869683
            ]
        },
        {
            "positions": [
                -0.053873899972001066,
                -2.2047505026024012,
                -2.2554982968091073,
                1.4530434081543808,
                0.20862924973720254,
                -0.0045595473109895784
            ]
        },
        {
            "positions": [
                0.021287733510136825,
                -2.171633622162808,
                -2.1469807986057066,
                1.3924980716286082,
                0.22969606061009232,
                -0.09868255310067599
            ]
        },
        {
            "positions": [
                0.09644936699227472,
                -2.138516741723215,
                -2.0384633004023054,
                1.3319527351028357,
                0.2507628714829821,
                -0.19280555889036238
            ]
        },
        {
            "positions": [
                0.1716110004744126,
                -2.1053998612836216,
                -1.9299458021989047,
                1.271407398577063,
                0.27182968235587185,
                -0.2869285646800488
            ]
        },
        {
            "positions": [
                0.2467726339565505,
                -2.0722829808440286,
                -1.8214283039955035,
                1.2108620620512904,
                0.29289649322876166,
                -0.3810515704697352
            ]
        },
        {
            "positions": [
                0.32193426743868836,
                -2.0391661004044352,
                -1.7129108057921028,
                1.150316725525518,
                0.3139633041016514,
                -0.4751745762594216
            ]
        },
        {
            "positions": [
                0.39709590092082625,
                -2.0060492199648423,
                -1.6043933075887016,
                1.0897713889997453,
                0.33503011497454116,
                -0.5692975820491081
            ]
        },
        {
            "positions": [
                0.47225753440296414,
                -1.972932339525249,
                -1.4958758093853008,
                1.0292260524739727,
                0.35609692584743097,
                -0.6634205878387944
            ]
        },
        {
            "positions": [
                0.547419167885102,
                -1.9398154590856558,
                -1.3873583111818997,
                0.9686807159482,
                0.3771637367203208,
                -0.7575435936284809
            ]
        },
        {
            "positions": [
                0.6225808013672399,
                -1.9066985786460626,
                -1.2788408129784987,
                0.9081353794224275,
                0.3982305475932105,
                -0.8516665994181672
            ]
        },
        {
            "positions": [
                0.6977424348493778,
                -1.8735816982064695,
                -1.1703233147750978,
                0.8475900428966548,
                0.4192973584661003,
                -0.9457896052078538
            ]
        },
        {
            "positions": [
                0.7729040683315157,
                -1.8404648177668763,
                -1.0618058165716968,
                0.7870447063708823,
                0.44036416933899003,
                -1.03991261099754
            ]
        },
        {
            "positions": [
                0.8480657018136536,
                -1.8073479373272832,
                -0.9532883183682956,
                0.7264993698451097,
                0.4614309802118799,
                -1.1340356167872265
            ]
        },
        {
            "positions": [
                0.9232273352957915,
                -1.77423105688769,
                -0.8447708201648949,
                0.6659540333193371,
                0.48249779108476964,
                -1.228158622576913
            ]
        },
        {
            "positions": [
                0.9983889687779294,
                -1.741114176448097,
                -0.7362533219614937,
                0.6054086967935645,
                0.5035646019576594,
                -1.3222816283665995
            ]
        },
        {
            "positions": [
                1.0735506022600674,
                -1.7079972960085037,
                -0.627735823758093,
                0.5448633602677918,
                0.5246314128305491,
                -1.4164046341562857
            ]
        },
        {
            "positions": [
                1.1487122357422053,
                -1.6748804155689108,
                -0.519218325554692,
                0.48431802374201927,
                0.5456982237034389,
                -1.5105276399459722
            ]
        },
        {
            "positions": [
                1.2238738692243432,
                -1.6417635351293174,
                -0.4107008273512909,
                0.4237726872162466,
                0.5667650345763288,
                -1.6046506457356586
            ]
        },
        {
            "positions": [
                1.299035502706481,
                -1.6086466546897245,
                -0.3021833291478897,
                0.36322735069047396,
                0.5878318454492185,
                -1.698773651525345
            ]
        },
        {
            "positions": [
                1.374197136188619,
                -1.575529774250131,
                -0.19366583094448897,
                0.30268201416470153,
                0.6088986563221083,
                -1.7928966573150313
            ]
        },
        {
            "positions": [
                1.4493587696707568,
                -1.5424128938105381,
                -0.08514833274108824,
                0.24213667763892888,
                0.629965467194998,
                -1.8870196631047178
            ]
        },
        {
            "positions": [
                1.5245204031528947,
                -1.5092960133709448,
                0.023369165462312935,
                0.18159134111315622,
                0.6510322780678879,
                -1.9811426688944045
            ]
        },
        {
            "positions": [
                1.5996820366350326,
                -1.4761791329313518,
                0.1318866636657141,
                0.12104600458738357,
                0.6720990889407776,
                -2.0752656746840907
            ]
        },
        {
            "positions": [
                1.6748436701171705,
                -1.4430622524917587,
                0.24040416186911484,
                0.06050066806161114,
                0.6931658998136674,
                -2.169388680473777
            ]
        },
        {
            "positions": [
                1.7500053035993082,
                -1.4099453720521655,
                0.34892166007251557,
                -4.466846416151249e-05,
                0.7142327106865571,
                -2.263511686263463
            ]
        },
        {
            "positions": [
                1.8251669370814463,
                -1.3768284916125721,
                0.4574391582759172,
                -0.060590004989934165,
                0.735299521559447,
                -2.35763469205315
            ]
        },
        {
            "positions": [
                1.9003285705635842,
                -1.3437116111729792,
                0.5659566564793179,
                -0.12113534151570682,
                0.7563663324323368,
                -2.451757697842836
            ]
        },
        {
            "positions": [
                1.975490204045722,
                -1.310594730733386,
                0.6744741546827187,
                -0.18168067804147925,
                0.7774331433052265,
                -2.545880703632523
            ]
        },
        {
            "positions": [
                2.0506518375278597,
                -1.277477850293793,
                0.7829916528861194,
                -0.2422260145672519,
                0.7984999541781163,
                -2.640003709422209
            ]
        },
        {
            "positions": [
                2.1258134710099976,
                -1.2443609698541997,
                0.891509151089521,
                -0.30277135109302455,
                0.8195667650510061,
                -2.7341267152118958
            ]
        },
        {
            "positions": [
                2.2009751044921355,
                -1.2112440894146066,
                1.0000266492929217,
                -0.3633166876187972,
                0.8406335759238959,
                -2.828249721001582
            ]
        },
        {
            "positions": [
                2.2665194031339344,
                -1.1815487573739742,
                1.1241675239369884,
                -0.42758177503312716,
                0.8724647580640266,
                -2.8734973193774698
            ]
        },
        {
            "positions": [
                2.3320637017757337,
                -1.1518534253333421,
                1.248308398581055,
                -0.4918468624474571,
                0.9042959402041574,
                -2.918744917753358
            ]
        },
        {
            "positions": [
                2.3976080004175326,
                -1.1221580932927098,
                1.3724492732251217,
                -0.5561119498617871,
                0.9361271223442881,
                -2.963992516129246
            ]
        },
        {
            "positions": [
                2.4631522990593315,
                -1.0924627612520774,
                1.4965901478691883,
                -0.620377037276117,
                0.9679583044844188,
                -3.009240114505134
            ]
        },
        {
            "positions": [
                2.528696597701131,
                -1.0627674292114453,
                1.620731022513255,
                -0.684642124690447,
                0.9997894866245496,
                -3.0544877128810217
            ]
        },
        {
            "positions": [
                2.5942408963429298,
                -1.033072097170813,
                1.7448718971573216,
                -0.7489072121047771,
                1.0316206687646803,
                -3.09973531125691
            ]
        },
        {
            "positions": [
                2.6264662299552533,
                -1.0149804842652654,
                1.824576645961008,
                -0.779806878011689,
                1.051554864201127,
                -3.1038704909574384
            ]
        }
    ]
}