{
    "goal": {
        "global_pose": {
            "orientation": {
                "w": 0.7031023480610252,
                "x": -0.7110244013736278,
                "y": 0.0077485991402295624,
                "z": 0.005598929693374583
            },
            "position": {
                "x": -0.8841497679147869,
                "y": 0.44412534475326537,
                "z": 0.3711530566215515
            }
        },
        "name": "move_to_auspresseinheit_D"
    },
    "id": "ProjEST_move_to_auspresseinheit_D_137",
    "joint_names": [
        "shoulder_pan_joint",
        "shoulder_lift_joint",
        "elbow_joint",
        "wrist_1_joint",
        "wrist_2_joint",
        "wrist_3_joint"
    ],
    "metrics": {
        "cart_traj_len": 0.34274400954037115,
        "distance_elbow_joint": 0.6340740304600141,
        "distance_shoulder_lift_joint": 0.11942179832033473,
        "distance_shoulder_pan_joint": 0.13357857132388454,
        "distance_wrist_1_joint": 0.5089280591917649,
        "distance_wrist_2_joint": 1.4484077212344553,
        "distance_wrist_3_joint": 0.017568864682278917,
        "smoothness": 0.0,
        "time": 0.313966296,
        "traj_len": 1.6917384683256251,
        "weighted_distance": 2.2032822231851075
    },
    "planner": "ProjEST",
    "start": {
        "state": {
            "elbow_joint": -1.8275484843655228,
            "shoulder_lift_joint": -2.1267897864000416,
            "shoulder_pan_joint": -0.035127520176001514,
            "wrist_1_joint": -2.3477863256791385,
            "wrist_2_joint": -1.605890476484521,
            "wrist_3_joint": -3.0880375317375353
        }
    },
    "waypoints": [
        {
            "positions": [
                -0.035127520176001514,
                -2.1267897864000416,
                -1.8275484843655228,
                -2.3477863256791385,
                -1.605890476484521,
                -3.0880375317375353
            ]
        },
        {
            "positions": [
                -0.05182484159148708,
                -2.1417175111900835,
                -1.7482892305580209,
                -2.411402333078109,
                -1.4248395113302141,
                -3.09023363982282
            ]
        },
        {
            "positions": [
                -0.06852216300697264,
                -2.1566452359801254,
                -1.6690299767505192,
                -2.47501834047708,
                -1.243788546175907,
                -3.092429747908105
            ]
        },
        {
            "positions": [
                -0.08521948442245822,
                -2.1715729607701673,
                -1.5897707229430176,
                -2.5386343478760502,
                -1.0627375810216002,
                -3.0946258559933897
            ]
        },
        {
            "positions": [
                -0.10191680583794378,
                -2.186500685560209,
                -1.5105114691355157,
                -2.6022503552750207,
                -0.8816866158672934,
                -3.096821964078675
            ]
        },
        {
            "positions": [
                -0.11861412725342935,
                -2.2014284103502506,
                -1.4312522153280138,
                -2.6658663626739916,
                -0.7006356507129865,
                -3.0990180721639597
            ]
        },
        {
            "positions": [
                -0.13531144866891492,
                -2.2163561351402925,
                -1.3519929615205122,
                -2.729482370072962,
                -0.5195846855586794,
                -3.1012141802492446
            ]
        },
        {
            "positions": [
                -0.1520087700844005,
                -2.2312838599303344,
                -1.2727337077130105,
                -2.793098377471933,
                -0.3385337204043726,
                -3.1034102883345294
            ]
        },
        {
            "positions": [
                -0.16870609149988605,
                -2.2462115847203763,
                -1.1934744539055087,
                -2.8567143848709033,
                -0.15748275525006564,
                -3.105606396419814
            ]
        }
    ]
}