{
    "goal": {
        "global_pose": {
            "orientation": {
                "w": 0.7047431468963623,
                "x": -0.7094548344612122,
                "y": 0.0024358443915843964,
                "z": -0.0022348060738295317
            },
            "position": {
                "x": 0.6094750761985779,
                "y": 0.3671506643295288,
                "z": 0.19426114857196808
            }
        },
        "name": "move_to_magneteinheit_A"
    },
    "id": "ProjEST_move_to_magneteinheit_A_123",
    "joint_names": [
        "shoulder_pan_joint",
        "shoulder_lift_joint",
        "elbow_joint",
        "wrist_1_joint",
        "wrist_2_joint",
        "wrist_3_joint"
    ],
    "metrics": {
        "cart_traj_len": 1.575993966481162,
        "distance_elbow_joint": 3.5607368958160706,
        "distance_shoulder_lift_joint": 1.1537252696667384,
        "distance_shoulder_pan_joint": 1.2412488459784445,
        "distance_wrist_1_joint": 3.9950959638450474,
        "distance_wrist_2_joint": 1.6982248202921335,
        "distance_wrist_3_joint": 1.110071102248647,
        "smoothness": 8.359326297333332e-16,
        "time": 0.293143622,
        "traj_len": 3.571988647496949,
        "weighted_distance": 4.546709347042272
    },
    "planner": "ProjEST",
    "start": {
        "state": {
            "elbow_joint": -1.5739458827952972,
            "shoulder_lift_joint": 0.006533473998580023,
            "shoulder_pan_joint": -1.1188671628667068,
            "wrist_1_joint": 3.138208179676308,
            "wrist_2_joint": -1.5706037135050406,
            "wrist_3_joint": -2.0226958329764257
        }
    },
    "waypoints": [
        {
            "positions": [
                -1.1188671628667068,
                0.006533473998580023,
                -1.5739458827952972,
                3.138208179676308,
                -1.5706037135050406,
                -2.0226958329764257
            ]
        },
        {
            "positions": [
                -1.0818676121090578,
                -0.03111531713631363,
                -1.4745929194738507,
                3.0052685330164723,
                -1.5239236798709797,
                -2.0573138258550503
            ]
        },
        {
            "positions": [
                -1.044868061351409,
                -0.06876410827120728,
                -1.375239956152404,
                2.8723288863566365,
                -1.4772436462369187,
                -2.0919318187336744
            ]
        },
        {
            "positions": [
                -1.00786851059376,
                -0.10641289940610094,
                -1.2758869928309573,
                2.7393892396968007,
                -1.4305636126028578,
                -2.126549811612299
            ]
        },
        {
            "positions": [
                -0.970868959836111,
                -0.14406169054099457,
                -1.1765340295095108,
                2.606449593036965,
                -1.3838835789687969,
                -2.1611678044909235
            ]
        },
        {
            "positions": [
                -0.933869409078462,
                -0.18171048167588824,
                -1.077181066188064,
                2.473509946377129,
                -1.337203545334736,
                -2.195785797369548
            ]
        },
        {
            "positions": [
                -0.896869858320813,
                -0.21935927281078188,
                -0.9778281028666176,
                2.3405702997172932,
                -1.290523511700675,
                -2.230403790248172
            ]
        },
        {
            "positions": [
                -0.8598703075631641,
                -0.2570080639456756,
                -0.8784751395451709,
                2.2076306530574574,
                -1.243843478066614,
                -2.2650217831267967
            ]
        },
        {
            "positions": [
                -0.8228707568055151,
                -0.2946568550805692,
                -0.7791221762237244,
                2.0746910063976216,
                -1.1971634444325532,
                -2.2996397760054212
            ]
        },
        {
            "positions": [
                -0.7858712060478661,
                -0.3323056462154629,
                -0.6797692129022777,
                1.9417513597377858,
                -1.1504834107984923,
                -2.3342577688840453
            ]
        },
        {
            "positions": [
                -0.7488716552902173,
                -0.36995443735035655,
                -0.580416249580831,
                1.80881171307795,
                -1.1038033771644313,
                -2.36887576176267
            ]
        },
        {
            "positions": [
                -0.7118721045325682,
                -0.40760322848525016,
                -0.48106328625938466,
                1.6758720664181144,
                -1.0571233435303702,
                -2.4034937546412944
            ]
        },
        {
            "positions": [
                -0.6748725537749193,
                -0.4452520196201438,
                -0.38171032293793794,
                1.5429324197582786,
                -1.0104433098963095,
                -2.438111747519919
            ]
        },
        {
            "positions": [
                -0.6378730030172703,
                -0.4829008107550375,
                -0.2823573596164912,
                1.4099927730984427,
                -0.9637632762622484,
                -2.472729740398543
            ]
        },
        {
            "positions": [
                -0.6008734522596213,
                -0.5205496018899312,
                -0.1830043962950445,
                1.277053126438607,
                -0.9170832426281875,
                -2.5073477332771676
            ]
        },
        {
            "positions": [
                -0.5638739015019724,
                -0.5581983930248248,
                -0.083651432973598,
                1.1441134797787709,
                -0.8704032089941266,
                -2.541965726155792
            ]
        },
        {
            "positions": [
                -0.5268743507443234,
                -0.5958471841597184,
                0.01570153034784849,
                1.0111738331189355,
                -0.8237231753600657,
                -2.5765837190344163
            ]
        },
        {
            "positions": [
                -0.4898747999866745,
                -0.633495975294612,
                0.11505449366929499,
                0.8782341864590997,
                -0.7770431417260047,
                -2.611201711913041
            ]
        },
        {
            "positions": [
                -0.45287524922902544,
                -0.6711447664295057,
                0.21440745699074193,
                0.7452945397992634,
                -0.7303631080919438,
                -2.6458197047916654
            ]
        },
        {
            "positions": [
                -0.4158756984713766,
                -0.7087935575643993,
                0.3137604203121884,
                0.612354893139428,
                -0.6836830744578829,
                -2.68043769767029
            ]
        },
        {
            "positions": [
                -0.3788761477137276,
                -0.746442348699293,
                0.41311338363363515,
                0.4794152464795918,
                -0.6370030408238219,
                -2.7150556905489145
            ]
        },
        {
            "positions": [
                -0.34187659695607864,
                -0.7840911398341867,
                0.5124663469550816,
                0.3464755998197564,
                -0.590323007189761,
                -2.7496736834275386
            ]
        },
        {
            "positions": [
                -0.3048770461984297,
                -0.8217399309690803,
                0.6118193102765279,
                0.21353595315992058,
                -0.5436429735557,
                -2.784291676306163
            ]
        },
        {
            "positions": [
                -0.26787749544078066,
                -0.859388722103974,
                0.7111722735979751,
                0.08059630650008476,
                -0.4969629399216391,
                -2.8189096691847877
            ]
        },
        {
            "positions": [
                -0.23087794468313172,
                -0.8970375132388676,
                0.8105252369194214,
                -0.05234334015975106,
                -0.45028290628757817,
                -2.853527662063412
            ]
        },
        {
            "positions": [
                -0.19387839392548278,
                -0.9346863043737612,
                0.9098782002408681,
                -0.18528298681958688,
                -0.40360287265351724,
                -2.8881456549420363
            ]
        },
        {
            "positions": [
                -0.15687884316783385,
                -0.9723350955086549,
                1.0092311635623148,
                -0.3182226334794227,
                -0.3569228390194563,
                -2.922763647820661
            ]
        },
        {
            "positions": [
                -0.11987929241018491,
                -1.0099838866435484,
                1.108584126883761,
                -0.4511622801392585,
                -0.3102428053853954,
                -2.9573816406992854
            ]
        },
        {
            "positions": [
                -0.08287974165253575,
                -1.0476326777784424,
                1.2079370902052082,
                -0.5841019267990943,
                -0.26356277175133447,
                -2.9919996335779095
            ]
        },
        {
            "positions": [
                -0.045880190894886985,
                -1.0852814689133359,
                1.3072900535266547,
                -0.7170415734589304,
                -0.21688273811727354,
                -3.026617626456534
            ]
        },
        {
            "positions": [
                -0.003814722393230774,
                -1.1007590506020415,
                1.4771652934001844,
                -0.7520031261363828,
                -0.13075677689118193,
                -3.0531549536486686
            ]
        },
        {
            "positions": [
                0.03825074610842544,
                -1.116236632290747,
                1.6470405332737141,
                -0.7869646788138351,
                -0.04463081566509028,
                -3.0796922808408036
            ]
        },
        {
            "positions": [
                0.08031621461008165,
                -1.1317142139794527,
                1.8169157731472438,
                -0.8219262314912876,
                0.04149514556100137,
                -3.106229608032938
            ]
        },
        {
            "positions": [
                0.12238168311173787,
                -1.1471917956681583,
                1.9867910130207735,
                -0.85688778416874,
                0.12762110678709299,
                -3.1327669352250727
            ]
        }
    ]
}