{
    "goal": {
        "global_pose": {
            "orientation": {
                "w": -0.4816463035849501,
                "x": 0.5182115481033762,
                "y": 0.4908360881923453,
                "z": -0.5084816262002911
            },
            "position": {
                "x": -0.8240239810943604,
                "y": -0.300875300988555,
                "z": 0.16403168439865112
            }
        },
        "name": "move_to_storage_C"
    },
    "id": "ProjEST_move_to_storage_C_120",
    "joint_names": [
        "shoulder_pan_joint",
        "shoulder_lift_joint",
        "elbow_joint",
        "wrist_1_joint",
        "wrist_2_joint",
        "wrist_3_joint"
    ],
    "metrics": {
        "cart_traj_len": 0.5776039252166313,
        "distance_elbow_joint": 0.2581463296777109,
        "distance_shoulder_lift_joint": 0.19000294585073774,
        "distance_shoulder_pan_joint": 0.49446679428337426,
        "distance_wrist_1_joint": 0.07376317613425953,
        "distance_wrist_2_joint": 1.0758411240365664,
        "distance_wrist_3_joint": 0.06209789704612367,
        "smoothness": 0.0,
        "time": 0.031992902,
        "traj_len": 1.467759608051936,
        "weighted_distance": 1.8515178533548755
    },
    "planner": "ProjEST",
    "start": {
        "state": {
            "elbow_joint": 2.0108683149792914,
            "shoulder_lift_joint": -1.1634956873317392,
            "shoulder_pan_joint": -2.4736205022346,
            "wrist_1_joint": -0.8367026793690192,
            "wrist_2_joint": 0.6746043897045053,
            "wrist_3_joint": 3.133522094754363
        }
    },
    "waypoints": [
        {
            "positions": [
                -2.4736205022346,
                -1.1634956873317392,
                2.0108683149792914,
                -0.8367026793690192,
                0.6746043897045053,
                3.133522094754363
            ]
        },
        {
            "positions": [
                -2.5560316346151626,
                -1.1318285296899497,
                1.967843926699673,
                -0.8244088166799759,
                0.8539112437105997,
                3.1438717442620505
            ]
        },
        {
            "positions": [
                -2.6384427669957247,
                -1.10016137204816,
                1.9248195384200544,
                -0.8121149539909327,
                1.033218097716694,
                3.154221393769738
            ]
        },
        {
            "positions": [
                -2.720853899376287,
                -1.0684942144063703,
                1.881795150140436,
                -0.7998210913018895,
                1.2125249517227885,
                3.1645710432774248
            ]
        },
        {
            "positions": [
                -2.8032650317568497,
                -1.0368270567645808,
                1.8387707618608176,
                -0.7875272286128462,
                1.391831805728883,
                3.174920692785112
            ]
        },
        {
            "positions": [
                -2.885676164137412,
                -1.0051598991227912,
                1.795746373581199,
                -0.7752333659238029,
                1.5711386597349772,
                3.1852703422927995
            ]
        },
        {
            "positions": [
                -2.9680872965179743,
                -0.9734927414810015,
                1.7527219853015805,
                -0.7629395032347597,
                1.7504455137410717,
                3.195619991800487
            ]
        }
    ]
}