{
    "goal": {
        "global_pose": {
            "orientation": {
                "w": 0.7047431493862688,
                "x": -0.7094548369677653,
                "y": 0.0024358444001904,
                "z": -0.0022348060817251984
            },
            "position": {
                "x": -0.39052492380142206,
                "y": 0.3671506643295288,
                "z": 0.19426114857196808
            }
        },
        "name": "move_to_magneteinheit_D"
    },
    "id": "ProjEST_move_to_magneteinheit_D_63",
    "joint_names": [
        "shoulder_pan_joint",
        "shoulder_lift_joint",
        "elbow_joint",
        "wrist_1_joint",
        "wrist_2_joint",
        "wrist_3_joint"
    ],
    "metrics": {
        "cart_traj_len": 4.59959135890645,
        "distance_elbow_joint": 6.303235743900653,
        "distance_shoulder_lift_joint": 1.6361748052117349,
        "distance_shoulder_pan_joint": 3.2189077977961804,
        "distance_wrist_1_joint": 3.9787669058519706,
        "distance_wrist_2_joint": 3.503469113135992,
        "distance_wrist_3_joint": 4.266645886007955,
        "smoothness": 0.46787606771187146,
        "time": 0.182794677,
        "traj_len": 4.786146701878711,
        "weighted_distance": 6.238808222962808
    },
    "planner": "ProjEST",
    "start": {
        "state": {
            "elbow_joint": 0.7495348899011911,
            "shoulder_lift_joint": -0.6476975780737668,
            "shoulder_pan_joint": -2.711696901376276,
            "wrist_1_joint": -0.0750647808097303,
            "wrist_2_joint": 0.43296659715458535,
            "wrist_3_joint": 3.1361499051832418
        }
    },
    "waypoints": [
        {
            "positions": [
                -2.711696901376276,
                -0.6476975780737668,
                0.7495348899011911,
                -0.0750647808097303,
                0.43296659715458535,
                3.1361499051832418
            ]
        },
        {
            "positions": [
                -2.7011386346611332,
                -0.7070525658866992,
                0.8430671094666481,
                -0.13799887507949593,
                0.516964446847557,
                3.070687654482835
            ]
        },
        {
            "positions": [
                -2.69058036794599,
                -0.7664075536996316,
                0.9365993290321051,
                -0.20093296934926158,
                0.6009622965405287,
                3.005225403782428
            ]
        },
        {
            "positions": [
                -2.680022101230847,
                -0.825762541512564,
                1.0301315485975622,
                -0.2638670636190272,
                0.6849601462335003,
                2.9397631530820214
            ]
        },
        {
            "positions": [
                -2.669463834515704,
                -0.8851175293254965,
                1.123663768163019,
                -0.3268011578887928,
                0.768957995926472,
                2.8743009023816146
            ]
        },
        {
            "positions": [
                -2.658905567800561,
                -0.9444725171384288,
                1.2171959877284761,
                -0.3897352521585584,
                0.8529558456194436,
                2.8088386516812074
            ]
        },
        {
            "positions": [
                -2.6483473010854177,
                -1.0038275049513614,
                1.3107282072939332,
                -0.45266934642832407,
                0.9369536953124153,
                2.7433764009808006
            ]
        },
        {
            "positions": [
                -2.637789034370275,
                -1.0631824927642937,
                1.4042604268593901,
                -0.5156034406980897,
                1.020951545005387,
                2.677914150280394
            ]
        },
        {
            "positions": [
                -2.627230767655132,
                -1.1225374805772261,
                1.4977926464248472,
                -0.5785375349678554,
                1.1049493946983586,
                2.612451899579987
            ]
        },
        {
            "positions": [
                -2.616672500939989,
                -1.1818924683901586,
                1.591324865990304,
                -0.641471629237621,
                1.1889472443913303,
                2.5469896488795802
            ]
        },
        {
            "positions": [
                -2.6061142342248456,
                -1.2412474562030908,
                1.6848570855557612,
                -0.7044057235073866,
                1.272945094084302,
                2.4815273981791734
            ]
        },
        {
            "positions": [
                -2.5955559675097026,
                -1.3006024440160233,
                1.778389305121218,
                -0.7673398177771522,
                1.3569429437772735,
                2.4160651474787667
            ]
        },
        {
            "positions": [
                -2.5849977007945597,
                -1.3599574318289558,
                1.8719215246866752,
                -0.8302739120469179,
                1.4409407934702452,
                2.3506028967783594
            ]
        },
        {
            "positions": [
                -2.5744394340794168,
                -1.419312419641888,
                1.9654537442521323,
                -0.8932080063166836,
                1.5249386431632168,
                2.2851406460779526
            ]
        },
        {
            "positions": [
                -2.5638811673642734,
                -1.4786674074548207,
                2.058985963817589,
                -0.9561421005864492,
                1.6089364928561884,
                2.219678395377546
            ]
        },
        {
            "positions": [
                -2.5533229006491305,
                -1.538022395267753,
                2.1525181833830462,
                -1.0190761948562148,
                1.69293434254916,
                2.154216144677139
            ]
        },
        {
            "positions": [
                -2.460525382284111,
                -1.5491652245256404,
                2.0926203230341933,
                -1.0004919054098296,
                1.723307110261594,
                1.988429998159523
            ]
        },
        {
            "positions": [
                -2.3677278639190917,
                -1.5603080537835279,
                2.032722462685341,
                -0.9819076159634442,
                1.753679877974028,
                1.822643851641907
            ]
        },
        {
            "positions": [
                -2.2749303455540724,
                -1.5714508830414153,
                1.972824602336488,
                -0.963323326517059,
                1.7840526456864616,
                1.656857705124291
            ]
        },
        {
            "positions": [
                -2.182132827189053,
                -1.5825937122993028,
                1.9129267419876352,
                -0.9447390370706737,
                1.8144254133988955,
                1.491071558606675
            ]
        },
        {
            "positions": [
                -2.089335308824033,
                -1.5937365415571902,
                1.8530288816387823,
                -0.9261547476242884,
                1.8447981811113294,
                1.3252854120890587
            ]
        },
        {
            "positions": [
                -1.996537790459014,
                -1.6048793708150777,
                1.7931310212899296,
                -0.9075704581779032,
                1.8751709488237633,
                1.1594992655714427
            ]
        },
        {
            "positions": [
                -1.899058281246866,
                -1.6157926681709023,
                1.6881699745388186,
                -0.8463779335689436,
                1.8507231673486513,
                1.0680971409178153
            ]
        },
        {
            "positions": [
                -1.8015787720347178,
                -1.6267059655267269,
                1.5832089277877075,
                -0.785185408959984,
                1.8262753858735392,
                0.9766950162641881
            ]
        },
        {
            "positions": [
                -1.7040992628225697,
                -1.6376192628825512,
                1.4782478810365962,
                -0.7239928843510245,
                1.8018276043984272,
                0.8852928916105607
            ]
        },
        {
            "positions": [
                -1.6066197536104216,
                -1.6485325602383758,
                1.3732868342854851,
                -0.6628003597420649,
                1.777379822923315,
                0.7938907669569334
            ]
        },
        {
            "positions": [
                -1.5091402443982735,
                -1.6594458575942004,
                1.268325787534374,
                -0.6016078351331053,
                1.752932041448203,
                0.7024886423033061
            ]
        },
        {
            "positions": [
                -1.4116607351861257,
                -1.670359154950025,
                1.1633647407832628,
                -0.5404153105241458,
                1.728484259973091,
                0.6110865176496788
            ]
        },
        {
            "positions": [
                -1.3141812259739774,
                -1.6812724523058495,
                1.058403694032152,
                -0.47922278591518624,
                1.704036478497979,
                0.5196843929960514
            ]
        },
        {
            "positions": [
                -1.2167017167618295,
                -1.692185749661674,
                0.9534426472810407,
                -0.41803026130622667,
                1.6795886970228668,
                0.4282822683424241
            ]
        },
        {
            "positions": [
                -1.1192222075496812,
                -1.7030990470174985,
                0.8484816005299296,
                -0.35683773669726704,
                1.6551409155477548,
                0.3368801436887968
            ]
        },
        {
            "positions": [
                -1.0217426983375333,
                -1.714012344373323,
                0.7435205537788185,
                -0.2956452120883075,
                1.6306931340726427,
                0.24547801903516953
            ]
        },
        {
            "positions": [
                -0.924263189125385,
                -1.7249256417291476,
                0.6385595070277073,
                -0.2344526874793479,
                1.6062453525975307,
                0.15407589438154212
            ]
        },
        {
            "positions": [
                -0.8267836799132371,
                -1.7358389390849722,
                0.5335984602765962,
                -0.17326016287038837,
                1.5817975711224186,
                0.06267376972791494
            ]
        },
        {
            "positions": [
                -0.729304170701089,
                -1.7467522364407966,
                0.4286374135254849,
                -0.11206763826142874,
                1.5573497896473065,
                -0.028728354925712463
            ]
        },
        {
            "positions": [
                -0.6318246614889409,
                -1.7576655337966212,
                0.32367636677437406,
                -0.05087511365246933,
                1.5329020081721945,
                -0.12013047957933987
            ]
        },
        {
            "positions": [
                -0.5343451522767928,
                -1.7685788311524457,
                0.21871532002326277,
                0.010317410956490303,
                1.5084542266970824,
                -0.21153260423296727
            ]
        },
        {
            "positions": [
                -0.4368656430646447,
                -1.7794921285082703,
                0.1137542732721517,
                0.07150993556544982,
                1.4840064452219703,
                -0.30293472888659445
            ]
        },
        {
            "positions": [
                -0.3393861338524966,
                -1.7904054258640947,
                0.00879322652104042,
                0.13270246017440956,
                1.4595586637468583,
                -0.39433685354022185
            ]
        },
        {
            "positions": [
                -0.2419066246403485,
                -1.8013187232199193,
                -0.09616782023007042,
                0.19389498478336908,
                1.4351108822717462,
                -0.48573897819384904
            ]
        },
        {
            "positions": [
                -0.14442711542820036,
                -1.8122320205757438,
                -0.20112886698118165,
                0.2550875093923285,
                1.4106631007966342,
                -0.5771411028474764
            ]
        },
        {
            "positions": [
                -0.12533312618493156,
                -1.8249270314932033,
                -0.34855107188323126,
                0.3499415622998989,
                1.322107519019007,
                -0.5465462282351278
            ]
        },
        {
            "positions": [
                -0.10623913694166273,
                -1.8376220424106628,
                -0.49597327678528086,
                0.44479561520746935,
                1.2335519372413801,
                -0.515951353622779
            ]
        },
        {
            "positions": [
                -0.08714514769839393,
                -1.8503170533281224,
                -0.6433954816873304,
                0.5396496681150398,
                1.144996355463753,
                -0.48535647901043033
            ]
        },
        {
            "positions": [
                -0.06805115845512512,
                -1.8630120642455819,
                -0.7908176865893801,
                0.6345037210226102,
                1.0564407736861259,
                -0.4547616043980816
            ]
        },
        {
            "positions": [
                -0.048957169211856305,
                -1.8757070751630414,
                -0.9382398914914296,
                0.7293577739301806,
                0.9678851919084989,
                -0.4241667297857329
            ]
        },
        {
            "positions": [
                -0.029863179968587505,
                -1.8884020860805009,
                -1.0856620963934793,
                0.8242118268377511,
                0.8793296101308719,
                -0.3935718551733842
            ]
        },
        {
            "positions": [
                -0.010769190725318678,
                -1.9010970969979604,
                -1.2330843012955288,
                0.9190658797453215,
                0.7907740283532447,
                -0.3629769805610355
            ]
        },
        {
            "positions": [
                0.008324798517950122,
                -1.91379210791542,
                -1.3805065061975785,
                1.0139199326528918,
                0.7022184465756177,
                -0.3323821059486868
            ]
        },
        {
            "positions": [
                0.02741878776121892,
                -1.9264871188328796,
                -1.5279287110996282,
                1.1087739855604624,
                0.6136628647979907,
                -0.30178723133633806
            ]
        },
        {
            "positions": [
                0.04651277700448775,
                -1.939182129750339,
                -1.6753509160016777,
                1.203628038468033,
                0.5251072830203636,
                -0.27119235672398934
            ]
        },
        {
            "positions": [
                0.06560676624775655,
                -1.9518771406677986,
                -1.8227731209037272,
                1.298482091375603,
                0.43655170124273657,
                -0.24059748211164067
            ]
        },
        {
            "positions": [
                0.08470075549102535,
                -1.964572151585258,
                -1.970195325805777,
                1.3933361442831735,
                0.34799611946510955,
                -0.21000260749929195
            ]
        },
        {
            "positions": [
                0.10379474473429418,
                -1.9772671625027176,
                -2.1176175307078267,
                1.488190197190744,
                0.25944053768748243,
                -0.17940773288694323
            ]
        },
        {
            "positions": [
                0.122888733977563,
                -1.9899621734201771,
                -2.265039735609876,
                1.5830442500983146,
                0.1708849559098553,
                -0.14881285827459456
            ]
        },
        {
            "positions": [
                0.14198272322083177,
                -2.002657184337637,
                -2.4124619405119256,
                1.6778983030058847,
                0.0823293741322284,
                -0.11821798366224584
            ]
        },
        {
            "positions": [
                0.1610767124641006,
                -2.015352195255096,
                -2.5598841454139754,
                1.7727523559134553,
                -0.006226207645398635,
                -0.08762310904989712
            ]
        },
        {
            "positions": [
                0.07454316647515,
                -2.0824822422626976,
                -2.5129216150085316,
                1.7120206206545012,
                0.03874069360401428,
                -0.07166388800498305
            ]
        },
        {
            "positions": [
                -0.011990379513800609,
                -2.1496122892702987,
                -2.4659590846030874,
                1.6512888853955472,
                0.0837075948534272,
                -0.05570466696006898
            ]
        },
        {
            "positions": [
                -0.09852392550275124,
                -2.2167423362779,
                -2.4189965541976433,
                1.5905571501365934,
                0.12867449610284012,
                -0.039745445915154914
            ]
        },
        {
            "positions": [
                -0.1850574714917018,
                -2.2838723832855017,
                -2.3720340237921995,
                1.5298254148776393,
                0.17364139735225304,
                -0.02378622487024084
            ]
        }
    ]
}