{
    "goal": {
        "global_pose": {
            "orientation": {
                "w": -0.00223480608172531,
                "x": 0.0024358444001904467,
                "y": 0.7094548369677653,
                "z": -0.704743149386269
            },
            "position": {
                "x": 0.6205249238014221,
                "y": -0.6371506643295288,
                "z": 0.19426114857196808
            }
        },
        "name": "move_to_magneteinheit_B"
    },
    "id": "ProjEST_move_to_magneteinheit_B_144",
    "joint_names": [
        "shoulder_pan_joint",
        "shoulder_lift_joint",
        "elbow_joint",
        "wrist_1_joint",
        "wrist_2_joint",
        "wrist_3_joint"
    ],
    "metrics": {
        "cart_traj_len": 1.453776314562163,
        "distance_elbow_joint": 0.7307112230566772,
        "distance_shoulder_lift_joint": 1.2480727642954306,
        "distance_shoulder_pan_joint": 1.6206042460130938,
        "distance_wrist_1_joint": 2.610974612677851,
        "distance_wrist_2_joint": 2.9379576773659424,
        "distance_wrist_3_joint": 3.1545568122183134,
        "smoothness": 4.037174644193617e-16,
        "time": 0.278422203,
        "traj_len": 3.507545770995342,
        "weighted_distance": 4.91537620636587
    },
    "planner": "ProjEST",
    "start": {
        "state": {
            "elbow_joint": 2.393587130804639,
            "shoulder_lift_joint": -1.9085141043513325,
            "shoulder_pan_joint": 0.7066247066698809,
            "wrist_1_joint": -0.4678290934590222,
            "wrist_2_joint": 0.7096259084215963,
            "wrist_3_joint": 3.147370379541726
        }
    },
    "waypoints": [
        {
            "positions": [
                0.7066247066698809,
                -1.9085141043513325,
                2.393587130804639,
                -0.4678290934590222,
                0.7096259084215963,
                3.147370379541726
            ]
        },
        {
            "positions": [
                0.6559808239819717,
                -1.8695118304671003,
                2.3707524050841178,
                -0.3862361368128393,
                0.6178147310039106,
                3.0487904791599036
            ]
        },
        {
            "positions": [
                0.6053369412940625,
                -1.8305095565828682,
                2.3479176793635963,
                -0.3046431801666565,
                0.526003553586225,
                2.9502105787780817
            ]
        },
        {
            "positions": [
                0.5546930586061534,
                -1.7915072826986358,
                2.3250829536430753,
                -0.22305022352047363,
                0.4341923761685393,
                2.8516306783962593
            ]
        },
        {
            "positions": [
                0.5040491759182442,
                -1.7525050088144036,
                2.3022482279225542,
                -0.14145726687429078,
                0.3423811987508536,
                2.753050778014437
            ]
        },
        {
            "positions": [
                0.45340529323033496,
                -1.7135027349301715,
                2.2794135022020328,
                -0.05986431022810795,
                0.2505700213331679,
                2.6544708776326145
            ]
        },
        {
            "positions": [
                0.40276141054242576,
                -1.6745004610459393,
                2.2565787764815117,
                0.021728646418074926,
                0.15875884391548223,
                2.555890977250792
            ]
        },
        {
            "positions": [
                0.3521175278545166,
                -1.6354981871617071,
                2.2337440507609907,
                0.1033216030642578,
                0.0669476664977966,
                2.45731107686897
            ]
        },
        {
            "positions": [
                0.3014736451666074,
                -1.596495913277475,
                2.2109093250404697,
                0.18491455971044063,
                -0.024863510919889142,
                2.3587311764871477
            ]
        },
        {
            "positions": [
                0.2508297624786982,
                -1.5574936393932426,
                2.188074599319948,
                0.26650751635662345,
                -0.11667468833757488,
                2.2601512761053253
            ]
        },
        {
            "positions": [
                0.20018587979078906,
                -1.5184913655090104,
                2.165239873599427,
                0.3481004730028063,
                -0.2084858657552605,
                2.1615713757235033
            ]
        },
        {
            "positions": [
                0.14954199710287985,
                -1.4794890916247783,
                2.142405147878906,
                0.4296934296489892,
                -0.30029704317294614,
                2.062991475341681
            ]
        },
        {
            "positions": [
                0.09889811441497065,
                -1.440486817740546,
                2.119570422158385,
                0.511286386295172,
                -0.3921082205906319,
                1.9644115749598585
            ]
        },
        {
            "positions": [
                0.04825423172706145,
                -1.4014845438563137,
                2.0967356964378636,
                0.592879342941355,
                -0.4839193980083176,
                1.8658316745780361
            ]
        },
        {
            "positions": [
                -0.0023896509608476446,
                -1.3624822699720815,
                2.0739009707173426,
                0.6744722995875378,
                -0.5757305754260031,
                1.767251774196214
            ]
        },
        {
            "positions": [
                -0.05303353364875685,
                -1.3234799960878494,
                2.0510662449968216,
                0.7560652562337207,
                -0.6675417528436889,
                1.6686718738143917
            ]
        },
        {
            "positions": [
                -0.10367741633666605,
                -1.2844777222036172,
                2.0282315192763,
                0.8376582128799035,
                -0.7593529302613746,
                1.5700919734325693
            ]
        },
        {
            "positions": [
                -0.15432129902457525,
                -1.245475448319385,
                2.005396793555779,
                0.9192511695260863,
                -0.8511641076790604,
                1.471512073050747
            ]
        },
        {
            "positions": [
                -0.20496518171248446,
                -1.206473174435153,
                1.9825620678352578,
                1.0008441261722691,
                -0.9429752850967461,
                1.3729321726689248
            ]
        },
        {
            "positions": [
                -0.25560906440039355,
                -1.1674709005509207,
                1.9597273421147368,
                1.082437082818452,
                -1.0347864625144316,
                1.2743522722871026
            ]
        },
        {
            "positions": [
                -0.30625294708830275,
                -1.1284686266666883,
                1.9368926163942155,
                1.1640300394646348,
                -1.1265976399321174,
                1.1757723719052802
            ]
        },
        {
            "positions": [
                -0.35689682977621195,
                -1.0894663527824562,
                1.9140578906736945,
                1.2456229961108178,
                -1.218408817349803,
                1.0771924715234578
            ]
        },
        {
            "positions": [
                -0.40754071246412116,
                -1.050464078898224,
                1.8912231649531732,
                1.3272159527570007,
                -1.3102199947674886,
                0.9786125711416358
            ]
        },
        {
            "positions": [
                -0.45818459515203036,
                -1.0114618050139916,
                1.868388439232652,
                1.4088089094031835,
                -1.4020311721851744,
                0.8800326707598134
            ]
        },
        {
            "positions": [
                -0.5088284778399396,
                -0.9724595311297596,
                1.845553713512131,
                1.4904018660493663,
                -1.49384234960286,
                0.781452770377991
            ]
        },
        {
            "positions": [
                -0.5594723605278488,
                -0.9334572572455274,
                1.8227189877916097,
                1.5719948226955494,
                -1.5856535270205458,
                0.6828728699961686
            ]
        },
        {
            "positions": [
                -0.610116243215758,
                -0.8944549833612951,
                1.7998842620710884,
                1.6535877793417322,
                -1.6774647044382316,
                0.5842929696143462
            ]
        },
        {
            "positions": [
                -0.660760125903667,
                -0.855452709477063,
                1.7770495363505674,
                1.735180735987915,
                -1.7692758818559173,
                0.4857130692325242
            ]
        },
        {
            "positions": [
                -0.7114040085915762,
                -0.8164504355928308,
                1.7542148106300464,
                1.8167736926340978,
                -1.8610870592736026,
                0.3871331688507018
            ]
        },
        {
            "positions": [
                -0.7620478912794854,
                -0.7774481617085987,
                1.731380084909525,
                1.8983666492802806,
                -1.9528982366912884,
                0.2885532684688794
            ]
        },
        {
            "positions": [
                -0.8126917739673946,
                -0.7384458878243663,
                1.7085453591890039,
                1.9799596059264635,
                -2.044709414108974,
                0.18997336808705745
            ]
        },
        {
            "positions": [
                -0.8633356566553038,
                -0.6994436139401341,
                1.6857106334684828,
                2.061552562572646,
                -2.1365205915266596,
                0.09139346770523504
            ]
        },
        {
            "positions": [
                -0.913979539343213,
                -0.6604413400559018,
                1.6628759077479616,
                2.143145519218829,
                -2.228331768944346,
                -0.0071864326765874705
            ]
        }
    ]
}