{
    "goal": {
        "global_pose": {
            "orientation": {
                "w": 0.5084816217422485,
                "x": -0.49083608388900757,
                "y": 0.5182115435600281,
                "z": -0.4816462993621826
            },
            "position": {
                "x": 0.5540239810943604,
                "y": 0.030875300988554955,
                "z": 0.16403168439865112
            }
        },
        "name": "move_to_storage_A"
    },
    "id": "ProjEST_move_to_storage_A_97",
    "joint_names": [
        "shoulder_pan_joint",
        "shoulder_lift_joint",
        "elbow_joint",
        "wrist_1_joint",
        "wrist_2_joint",
        "wrist_3_joint"
    ],
    "metrics": {
        "cart_traj_len": 0.3539301134078235,
        "distance_elbow_joint": 0.4490145570373254,
        "distance_shoulder_lift_joint": 0.2355408783911257,
        "distance_shoulder_pan_joint": 0.4607498894485348,
        "distance_wrist_1_joint": 0.239563084048535,
        "distance_wrist_2_joint": 1.1095397471522994,
        "distance_wrist_3_joint": 0.10086527330989048,
        "smoothness": 4.440892098500626e-16,
        "time": 0.022958654,
        "traj_len": 1.6109852356206469,
        "weighted_distance": 2.0361991079480233
    },
    "planner": "ProjEST",
    "start": {
        "state": {
            "elbow_joint": 1.971548880431181,
            "shoulder_lift_joint": -1.1394869514688781,
            "shoulder_pan_joint": 0.12281150262730567,
            "wrist_1_joint": -0.7804693444481463,
            "wrist_2_joint": 0.12958644648617612,
            "wrist_3_joint": 3.0906942077768043
        }
    },
    "waypoints": [
        {
            "positions": [
                0.12281150262730567,
                -1.1394869514688781,
                1.971548880431181,
                -0.7804693444481463,
                0.12958644648617612,
                3.0906942077768043
            ]
        },
        {
            "positions": [
                0.05699008984894356,
                -1.173135648381896,
                2.035693817150799,
                -0.8146926421693655,
                0.2880921246507903,
                3.10510353253536
            ]
        },
        {
            "positions": [
                -0.008831322929418545,
                -1.206784345294914,
                2.099838753870417,
                -0.8489159398905849,
                0.4465978028154045,
                3.1195128572939157
            ]
        },
        {
            "positions": [
                -0.07465273570778067,
                -1.240433042207932,
                2.1639836905900345,
                -0.8831392376118041,
                0.6051034809800186,
                3.1339221820524714
            ]
        },
        {
            "positions": [
                -0.14047414848614276,
                -1.27408173912095,
                2.2281286273096526,
                -0.9173625353330235,
                0.7636091591446329,
                3.1483315068110276
            ]
        },
        {
            "positions": [
                -0.20629556126450488,
                -1.3077304360339679,
                2.2922735640292706,
                -0.9515858330542427,
                0.9221148373092471,
                3.1627408315695833
            ]
        },
        {
            "positions": [
                -0.272116974042867,
                -1.3413791329469857,
                2.3564185007488883,
                -0.985809130775462,
                1.0806205154738613,
                3.177150156328139
            ]
        },
        {
            "positions": [
                -0.3379383868212291,
                -1.3750278298600038,
                2.4205634374685063,
                -1.0200324284966813,
                1.2391261936384756,
                3.1915594810866947
            ]
        }
    ]
}