{
    "goal": {
        "global_pose": {
            "orientation": {
                "w": -0.00223480608172531,
                "x": 0.0024358444001904467,
                "y": 0.7094548369677653,
                "z": -0.704743149386269
            },
            "position": {
                "x": -0.37947507619857795,
                "y": -0.6371506643295288,
                "z": 0.19426114857196808
            }
        },
        "name": "move_to_magneteinheit_C"
    },
    "id": "ProjEST_move_to_magneteinheit_C_43",
    "joint_names": [
        "shoulder_pan_joint",
        "shoulder_lift_joint",
        "elbow_joint",
        "wrist_1_joint",
        "wrist_2_joint",
        "wrist_3_joint"
    ],
    "metrics": {
        "cart_traj_len": 2.5246428658746796,
        "distance_elbow_joint": 0.6639359970767347,
        "distance_shoulder_lift_joint": 1.0034210207083398,
        "distance_shoulder_pan_joint": 3.2123156139879727,
        "distance_wrist_1_joint": 1.98932515612563,
        "distance_wrist_2_joint": 2.1584560810129236,
        "distance_wrist_3_joint": 2.409339487292302,
        "smoothness": 0.8810935428794252,
        "time": 2.10616797,
        "traj_len": 3.3818328397784394,
        "weighted_distance": 4.516996077918051
    },
    "planner": "ProjEST",
    "start": {
        "state": {
            "elbow_joint": 1.9565354006593851,
            "shoulder_lift_joint": -1.4165861576512813,
            "shoulder_pan_joint": -1.6717766223278752,
            "wrist_1_joint": -0.528663328821883,
            "wrist_2_joint": 1.472756589259273,
            "wrist_3_joint": 3.159348288315503
        }
    },
    "waypoints": [
        {
            "positions": [
                -1.6717766223278752,
                -1.4165861576512813,
                1.9565354006593851,
                -0.528663328821883,
                1.472756589259273,
                3.159348288315503
            ]
        },
        {
            "positions": [
                -1.5610466076712022,
                -1.4519962722001105,
                1.9258990008460068,
                -0.4750181374927578,
                1.403943701565661,
                3.0679683203695713
            ]
        },
        {
            "positions": [
                -1.4503165930145292,
                -1.4874063867489398,
                1.8952626010326283,
                -0.4213729461636326,
                1.335130813872049,
                2.9765883524236396
            ]
        },
        {
            "positions": [
                -1.3395865783578562,
                -1.5228165012977688,
                1.86462620121925,
                -0.36772775483450737,
                1.266317926178437,
                2.885208384477708
            ]
        },
        {
            "positions": [
                -1.2288565637011832,
                -1.558226615846598,
                1.8339898014058715,
                -0.3140825635053821,
                1.1975050384848247,
                2.793828416531776
            ]
        },
        {
            "positions": [
                -1.1181265490445103,
                -1.5936367303954273,
                1.8033534015924932,
                -0.26043737217625684,
                1.1286921507912129,
                2.7024484485858444
            ]
        },
        {
            "positions": [
                -1.0073965343878373,
                -1.6290468449442566,
                1.772717001779115,
                -0.20679218084713163,
                1.0598792630976006,
                2.6110684806399127
            ]
        },
        {
            "positions": [
                -0.8966665197311643,
                -1.6644569594930858,
                1.7420806019657364,
                -0.15314698951800637,
                0.9910663754039887,
                2.519688512693981
            ]
        },
        {
            "positions": [
                -0.7859365050744913,
                -1.699867074041915,
                1.7114442021523582,
                -0.09950179818888111,
                0.9222534877103765,
                2.4283085447480492
            ]
        },
        {
            "positions": [
                -0.6752064904178183,
                -1.735277188590744,
                1.6808078023389796,
                -0.045856606859755844,
                0.8534406000167645,
                2.3369285768021175
            ]
        },
        {
            "positions": [
                -0.5644764757611455,
                -1.7706873031395733,
                1.6501714025256013,
                0.0077885844693693085,
                0.7846277123231524,
                2.245548608856186
            ]
        },
        {
            "positions": [
                -0.7421945014755295,
                -1.7179251632766577,
                1.6612415564423293,
                0.03593625880200631,
                0.7125073868030608,
                2.21725056122586
            ]
        },
        {
            "positions": [
                -0.9199125271899133,
                -1.6651630234137422,
                1.672311710359057,
                0.0640839331346433,
                0.6403870612829692,
                2.1889525135955346
            ]
        },
        {
            "positions": [
                -1.0976305529042973,
                -1.6124008835508266,
                1.683381864275785,
                0.09223160746728029,
                0.5682667357628777,
                2.1606544659652087
            ]
        },
        {
            "positions": [
                -1.2753485786186813,
                -1.5596387436879109,
                1.694452018192513,
                0.12037928179991729,
                0.49614641024278605,
                2.132356418334883
            ]
        },
        {
            "positions": [
                -1.4530666043330651,
                -1.5068766038249954,
                1.7055221721092408,
                0.1485269561325543,
                0.4240260847226945,
                2.104058370704557
            ]
        },
        {
            "positions": [
                -1.6307846300474491,
                -1.4541144639620798,
                1.7165923260259686,
                0.17667463046519127,
                0.3519057592026029,
                2.0757603230742316
            ]
        },
        {
            "positions": [
                -1.8085026557618331,
                -1.401352324099164,
                1.7276624799426965,
                0.20482230479782826,
                0.2797854336825113,
                2.047462275443906
            ]
        },
        {
            "positions": [
                -1.986220681476217,
                -1.3485901842362487,
                1.7387326338594244,
                0.23296997913046527,
                0.20766510816241968,
                2.01916422781358
            ]
        },
        {
            "positions": [
                -2.163938707190601,
                -1.295828044373333,
                1.7498027877761524,
                0.2611176534631023,
                0.13554478264232805,
                1.9908661801832543
            ]
        },
        {
            "positions": [
                -2.341656732904985,
                -1.2430659045104173,
                1.7608729416928801,
                0.28926532779573927,
                0.06342445712223654,
                1.9625681325529287
            ]
        },
        {
            "positions": [
                -2.519374758619369,
                -1.1903037646475019,
                1.771943095609608,
                0.31741300212837625,
                -0.00869586839785505,
                1.9342700849226029
            ]
        },
        {
            "positions": [
                -2.5298031229279347,
                -1.1807534688959236,
                1.7976627386568649,
                0.18444972988907968,
                0.06428934378406143,
                2.0584906746890974
            ]
        },
        {
            "positions": [
                -2.540231487236501,
                -1.1712031731443453,
                1.823382381704122,
                0.0514864576497831,
                0.1372745559659779,
                2.1827112644555924
            ]
        },
        {
            "positions": [
                -2.5506598515450665,
                -1.1616528773927672,
                1.8491020247513787,
                -0.08147681458951339,
                0.21025976814789435,
                2.306931854222087
            ]
        },
        {
            "positions": [
                -2.5610882158536326,
                -1.152102581641189,
                1.8748216677986358,
                -0.21444008682881005,
                0.2832449803298108,
                2.431152443988582
            ]
        },
        {
            "positions": [
                -2.571516580162198,
                -1.1425522858896107,
                1.9005413108458926,
                -0.3474033590681065,
                0.3562301925117273,
                2.5553730337550764
            ]
        },
        {
            "positions": [
                -2.5470227394071507,
                -1.147848500382132,
                1.9273418335015575,
                -0.4670114750628285,
                0.43424958312328044,
                2.6961626175218085
            ]
        },
        {
            "positions": [
                -2.5225288986521033,
                -1.1531447148746532,
                1.9541423561572224,
                -0.5866195910575505,
                0.5122689737348336,
                2.8369522012885406
            ]
        },
        {
            "positions": [
                -2.498035057897056,
                -1.1584409293671745,
                1.9809428788128873,
                -0.7062277070522723,
                0.5902883643463867,
                2.9777417850552728
            ]
        },
        {
            "positions": [
                -2.4735412171420084,
                -1.1637371438596957,
                2.0077434014685522,
                -0.8258358230469943,
                0.6683077549579398,
                3.118531368822005
            ]
        }
    ]
}