{
    "goal": {
        "global_pose": {
            "orientation": {
                "w": 0.5084816217422485,
                "x": -0.49083608388900757,
                "y": 0.5182115435600281,
                "z": -0.4816462993621826
            },
            "position": {
                "x": 0.5540239810943604,
                "y": 0.030875300988554955,
                "z": 0.16403168439865112
            }
        },
        "name": "move_to_storage_A"
    },
    "id": "ProjEST_move_to_storage_A_81",
    "joint_names": [
        "shoulder_pan_joint",
        "shoulder_lift_joint",
        "elbow_joint",
        "wrist_1_joint",
        "wrist_2_joint",
        "wrist_3_joint"
    ],
    "metrics": {
        "cart_traj_len": 0.35263676383454784,
        "distance_elbow_joint": 0.451476999962084,
        "distance_shoulder_lift_joint": 0.23371263834090072,
        "distance_shoulder_pan_joint": 0.456631507493448,
        "distance_wrist_1_joint": 0.25683211155276675,
        "distance_wrist_2_joint": 1.1165375545364888,
        "distance_wrist_3_joint": 0.10943026447786863,
        "smoothness": 8.881784197001252e-16,
        "time": 0.078593636,
        "traj_len": 1.6200682320086266,
        "weighted_distance": 2.053497326856928
    },
    "planner": "ProjEST",
    "start": {
        "state": {
            "elbow_joint": 1.971548880431181,
            "shoulder_lift_joint": -1.1394869514688781,
            "shoulder_pan_joint": 0.12281150262730567,
            "wrist_1_joint": -0.7804693444481463,
            "wrist_2_joint": 0.12958644648617612,
            "wrist_3_joint": 3.0906942077768043
        }
    },
    "waypoints": [
        {
            "positions": [
                0.12281150262730567,
                -1.1394869514688781,
                1.971548880431181,
                -0.7804693444481463,
                0.12958644648617612,
                3.0906942077768043
            ]
        },
        {
            "positions": [
                0.05757843012824167,
                -1.172874471231864,
                2.036045594711479,
                -0.8171596460985415,
                0.2890918114199602,
                3.106327102702214
            ]
        },
        {
            "positions": [
                -0.007654642370822334,
                -1.2062619909948498,
                2.1005423089917765,
                -0.8538499477489367,
                0.44859717635374435,
                3.121959997627624
            ]
        },
        {
            "positions": [
                -0.07288771486988632,
                -1.2396495107578356,
                2.165039023272074,
                -0.8905402493993321,
                0.6081025412875285,
                3.137592892553034
            ]
        },
        {
            "positions": [
                -0.13812078736895034,
                -1.2730370305208214,
                2.229535737552372,
                -0.9272305510497273,
                0.7676079062213126,
                3.1532257874784433
            ]
        },
        {
            "positions": [
                -0.20335385986801435,
                -1.3064245502838072,
                2.2940324518326696,
                -0.9639208527001226,
                0.9271132711550968,
                3.168858682403853
            ]
        },
        {
            "positions": [
                -0.2685869323670783,
                -1.339812070046793,
                2.3585291661129673,
                -1.0006111543505178,
                1.0866186360888808,
                3.184491577329263
            ]
        },
        {
            "positions": [
                -0.33382000486614233,
                -1.3731995898097789,
                2.423025880393265,
                -1.037301456000913,
                1.2461240010226649,
                3.200124472254673
            ]
        }
    ]
}