{
    "goal": {
        "global_pose": {
            "orientation": {
                "w": -0.4816463035849501,
                "x": 0.5182115481033762,
                "y": 0.4908360881923453,
                "z": -0.5084816262002911
            },
            "position": {
                "x": -0.8240239810943604,
                "y": -0.300875300988555,
                "z": 0.16403168439865112
            }
        },
        "name": "move_to_storage_C"
    },
    "id": "ProjEST_move_to_storage_C_109",
    "joint_names": [
        "shoulder_pan_joint",
        "shoulder_lift_joint",
        "elbow_joint",
        "wrist_1_joint",
        "wrist_2_joint",
        "wrist_3_joint"
    ],
    "metrics": {
        "cart_traj_len": 0.5764034147597835,
        "distance_elbow_joint": 0.2589835986402633,
        "distance_shoulder_lift_joint": 0.1902975865181984,
        "distance_shoulder_pan_joint": 0.4918748089151954,
        "distance_wrist_1_joint": 0.07266046454538033,
        "distance_wrist_2_joint": 1.0810783774767596,
        "distance_wrist_3_joint": 0.057489685669039226,
        "smoothness": 0.0,
        "time": 0.251395887,
        "traj_len": 1.4671007197070132,
        "weighted_distance": 1.8496223222931363
    },
    "planner": "ProjEST",
    "start": {
        "state": {
            "elbow_joint": 2.0108683149792914,
            "shoulder_lift_joint": -1.1634956873317392,
            "shoulder_pan_joint": -2.4736205022346,
            "wrist_1_joint": -0.8367026793690192,
            "wrist_2_joint": 0.6746043897045053,
            "wrist_3_joint": 3.133522094754363
        }
    },
    "waypoints": [
        {
            "positions": [
                -2.4736205022346,
                -1.1634956873317392,
                2.0108683149792914,
                -0.8367026793690192,
                0.6746043897045053,
                3.133522094754363
            ]
        },
        {
            "positions": [
                -2.5555996370537994,
                -1.1317794229120395,
                1.9677043818725808,
                -0.8245926019447891,
                0.8547841192839652,
                3.143103709032536
            ]
        },
        {
            "positions": [
                -2.6375787718729984,
                -1.1000631584923397,
                1.9245404487658704,
                -0.8124825245205591,
                1.0349638488634252,
                3.1526853233107097
            ]
        },
        {
            "positions": [
                -2.7195579066921978,
                -1.06834689407264,
                1.8813765156591598,
                -0.800372447096329,
                1.215143578442885,
                3.1622669375888828
            ]
        },
        {
            "positions": [
                -2.801537041511397,
                -1.0366306296529404,
                1.8382125825524491,
                -0.788262369672099,
                1.395323308022345,
                3.171848551867056
            ]
        },
        {
            "positions": [
                -2.883516176330596,
                -1.0049143652332406,
                1.7950486494457387,
                -0.776152292247869,
                1.575503037601805,
                3.1814301661452293
            ]
        },
        {
            "positions": [
                -2.9654953111497955,
                -0.9731981008135409,
                1.751884716339028,
                -0.7640422148236389,
                1.755682767181265,
                3.1910117804234024
            ]
        }
    ]
}