{
    "goal": {
        "global_pose": {
            "orientation": {
                "w": 0.005598929693374612,
                "x": 0.007748599140229565,
                "y": 0.7110244013736278,
                "z": -0.7031023480610252
            },
            "position": {
                "x": 0.1141497679147869,
                "y": -0.7141253447532654,
                "z": 0.3711530566215515
            }
        },
        "name": "move_to_auspresseinheit_B"
    },
    "id": "ProjEST_move_to_auspresseinheit_B_41",
    "joint_names": [
        "shoulder_pan_joint",
        "shoulder_lift_joint",
        "elbow_joint",
        "wrist_1_joint",
        "wrist_2_joint",
        "wrist_3_joint"
    ],
    "metrics": {
        "cart_traj_len": 0.5651766422523044,
        "distance_elbow_joint": 0.06447449305462283,
        "distance_shoulder_lift_joint": 0.29509587049746333,
        "distance_shoulder_pan_joint": 0.5767680317401318,
        "distance_wrist_1_joint": 0.3347283023894706,
        "distance_wrist_2_joint": 0.998770389276548,
        "distance_wrist_3_joint": 0.0014170558535138156,
        "smoothness": 2.5376526478085547e-16,
        "time": 0.237124819,
        "traj_len": 1.5070680617715149,
        "weighted_distance": 1.8993648796860485
    },
    "planner": "ProjEST",
    "start": {
        "state": {
            "elbow_joint": 2.0193061681459312,
            "shoulder_lift_joint": -1.1220205130644991,
            "shoulder_pan_joint": -1.0952072088045026,
            "wrist_1_joint": -0.8559671810662515,
            "wrist_2_joint": 0.4759638712940361,
            "wrist_3_joint": 3.159081874192446
        }
    },
    "waypoints": [
        {
            "positions": [
                -1.0952072088045026,
                -1.1220205130644991,
                2.0193061681459312,
                -0.8559671810662515,
                0.4759638712940361,
                3.159081874192446
            ]
        },
        {
            "positions": [
                -1.1913352140945246,
                -1.1712031581474096,
                2.0085604193034943,
                -0.8001791306680064,
                0.6424256028401274,
                3.159318050168032
            ]
        },
        {
            "positions": [
                -1.2874632193845466,
                -1.2203858032303203,
                1.9978146704610569,
                -0.7443910802697613,
                0.8088873343862188,
                3.159554226143617
            ]
        },
        {
            "positions": [
                -1.3835912246745685,
                -1.2695684483132308,
                1.98706892161862,
                -0.6886030298715162,
                0.9753490659323101,
                3.159790402119203
            ]
        },
        {
            "positions": [
                -1.4797192299645905,
                -1.3187510933961413,
                1.9763231727761827,
                -0.6328149794732711,
                1.1418107974784015,
                3.1600265780947887
            ]
        },
        {
            "positions": [
                -1.5758472352546125,
                -1.367933738479052,
                1.9655774239337456,
                -0.577026929075026,
                1.3082725290244928,
                3.160262754070374
            ]
        },
        {
            "positions": [
                -1.6719752405446344,
                -1.4171163835619625,
                1.9548316750913084,
                -0.5212388786767809,
                1.4747342605705842,
                3.16049893004596
            ]
        }
    ]
}