{
    "goal": {
        "global_pose": {
            "orientation": {
                "w": -0.4816463035849501,
                "x": 0.5182115481033762,
                "y": 0.4908360881923453,
                "z": -0.5084816262002911
            },
            "position": {
                "x": -0.8240239810943604,
                "y": 0.19912469901144506,
                "z": 0.16403168439865112
            }
        },
        "name": "move_to_storage_D"
    },
    "id": "ProjEST_move_to_storage_D_142",
    "joint_names": [
        "shoulder_pan_joint",
        "shoulder_lift_joint",
        "elbow_joint",
        "wrist_1_joint",
        "wrist_2_joint",
        "wrist_3_joint"
    ],
    "metrics": {
        "cart_traj_len": 3.7936808088224643,
        "distance_elbow_joint": 4.212589976498686,
        "distance_shoulder_lift_joint": 1.2645553147953863,
        "distance_shoulder_pan_joint": 2.815484729432715,
        "distance_wrist_1_joint": 3.2162439696919245,
        "distance_wrist_2_joint": 1.1803048398160998,
        "distance_wrist_3_joint": 3.1921218240845417,
        "smoothness": 0.17734802902274416,
        "time": 0.35394435199999996,
        "traj_len": 3.9851349606154307,
        "weighted_distance": 5.1635349434274636
    },
    "planner": "ProjEST",
    "start": {
        "state": {
            "elbow_joint": -2.384821990628643,
            "shoulder_lift_joint": -2.278805467437664,
            "shoulder_pan_joint": -0.18546946439364564,
            "wrist_1_joint": 1.4845938187801415,
            "wrist_2_joint": 0.178987772454074,
            "wrist_3_joint": 0.03710569632802521
        }
    },
    "waypoints": [
        {
            "positions": [
                -0.18546946439364564,
                -2.278805467437664,
                -2.384821990628643,
                1.4845938187801415,
                0.178987772454074,
                0.03710569632802521
            ]
        },
        {
            "positions": [
                -0.06063995584343944,
                -2.1935978735690362,
                -2.353378987700193,
                1.401452790271207,
                0.1993173390144692,
                0.011954650737631262
            ]
        },
        {
            "positions": [
                0.020498550169870705,
                -2.1595184704110086,
                -2.2449535075311733,
                1.3155246026751606,
                0.19458134601678517,
                0.09097521502905975
            ]
        },
        {
            "positions": [
                0.10163705618318085,
                -2.1254390672529815,
                -2.1365280273621536,
                1.2295964150791143,
                0.18984535301910113,
                0.16999577932048826
            ]
        },
        {
            "positions": [
                0.182775562196491,
                -2.091359664094954,
                -2.028102547193134,
                1.1436682274830678,
                0.18510936002141712,
                0.24901634361191674
            ]
        },
        {
            "positions": [
                0.2639140682098011,
                -2.0572802609369267,
                -1.9196770670241143,
                1.0577400398870216,
                0.18037336702373308,
                0.3280369079033452
            ]
        },
        {
            "positions": [
                0.34505257422311125,
                -2.023200857778899,
                -1.8112515868550947,
                0.9718118522909751,
                0.17563737402604904,
                0.4070574721947737
            ]
        },
        {
            "positions": [
                0.4261910802364214,
                -1.9891214546208718,
                -1.7028261066860753,
                0.8858836646949287,
                0.170901381028365,
                0.4860780364862022
            ]
        },
        {
            "positions": [
                0.5073295862497316,
                -1.9550420514628444,
                -1.5944006265170556,
                0.7999554770988824,
                0.16616538803068098,
                0.5650986007776306
            ]
        },
        {
            "positions": [
                0.5884680922630418,
                -1.9209626483048168,
                -1.485975146348036,
                0.714027289502836,
                0.16142939503299694,
                0.6441191650690592
            ]
        },
        {
            "positions": [
                0.6696065982763519,
                -1.8868832451467894,
                -1.3775496661790163,
                0.6280991019067895,
                0.1566934020353129,
                0.7231397293604878
            ]
        },
        {
            "positions": [
                0.750745104289662,
                -1.852803841988762,
                -1.2691241860099967,
                0.5421709143107433,
                0.15195740903762886,
                0.8021602936519161
            ]
        },
        {
            "positions": [
                0.8318836103029723,
                -1.8187244388307346,
                -1.160698705840977,
                0.4562427267146968,
                0.14722141603994482,
                0.8811808579433447
            ]
        },
        {
            "positions": [
                0.9130221163162823,
                -1.7846450356727073,
                -1.0522732256719576,
                0.3703145391186504,
                0.1424854230422608,
                0.9602014222347731
            ]
        },
        {
            "positions": [
                0.9941606223295925,
                -1.7505656325146797,
                -0.9438477455029377,
                0.28438635152260394,
                0.13774943004457676,
                1.0392219865262018
            ]
        },
        {
            "positions": [
                1.0752991283429025,
                -1.7164862293566523,
                -0.8354222653339183,
                0.19845816392655768,
                0.13301343704689272,
                1.1182425508176301
            ]
        },
        {
            "positions": [
                1.1564376343562128,
                -1.682406826198625,
                -0.7269967851648986,
                0.1125299763305112,
                0.1282774440492087,
                1.1972631151090587
            ]
        },
        {
            "positions": [
                1.237576140369523,
                -1.6483274230405975,
                -0.618571304995879,
                0.02660178873446495,
                0.12354145105152466,
                1.2762836794004873
            ]
        },
        {
            "positions": [
                1.318714646382833,
                -1.6142480198825702,
                -0.5101458248268596,
                -0.05932639886158131,
                0.11880545805384063,
                1.3553042436919156
            ]
        },
        {
            "positions": [
                1.3998531523961433,
                -1.5801686167245426,
                -0.4017203446578397,
                -0.145254586457628,
                0.11406946505615659,
                1.4343248079833444
            ]
        },
        {
            "positions": [
                1.4809916584094533,
                -1.5460892135665154,
                -0.29329486448882003,
                -0.23118277405367427,
                0.10933347205847255,
                1.5133453722747727
            ]
        },
        {
            "positions": [
                1.5621301644227634,
                -1.5120098104084878,
                -0.18486938431980038,
                -0.3171109616497205,
                0.10459747906078852,
                1.592365936566201
            ]
        },
        {
            "positions": [
                1.6432686704360735,
                -1.4779304072504604,
                -0.07644390415078117,
                -0.403039149245767,
                0.0998614860631045,
                1.6713865008576296
            ]
        },
        {
            "positions": [
                1.724407176449384,
                -1.443851004092433,
                0.03198157601823892,
                -0.4889673368418135,
                0.09512549306542045,
                1.7504070651490582
            ]
        },
        {
            "positions": [
                1.805545682462694,
                -1.4097716009344055,
                0.14040705618725857,
                -0.5748955244378597,
                0.09038950006773641,
                1.8294276294404868
            ]
        },
        {
            "positions": [
                1.886684188476004,
                -1.3756921977763783,
                0.24883253635627778,
                -0.6608237120339062,
                0.08565350707005238,
                1.908448193731915
            ]
        },
        {
            "positions": [
                1.9678226944893142,
                -1.3416127946183507,
                0.35725801652529743,
                -0.7467518996299525,
                0.08091751407236836,
                1.9874687580233434
            ]
        },
        {
            "positions": [
                2.048961200502624,
                -1.3075333914603233,
                0.4656834966943175,
                -0.8326800872259992,
                0.0761815210746843,
                2.066489322314772
            ]
        },
        {
            "positions": [
                2.130099706515934,
                -1.273453988302296,
                0.5741089768633367,
                -0.9186082748220454,
                0.07144552807700028,
                2.1455098866062006
            ]
        },
        {
            "positions": [
                2.2112382125292442,
                -1.2393745851442683,
                0.6825344570323564,
                -1.0045364624180917,
                0.06670953507931623,
                2.2245304508976287
            ]
        },
        {
            "positions": [
                2.2923767185425543,
                -1.2052951819862412,
                0.790959937201376,
                -1.090464650014138,
                0.06197354208163222,
                2.3035510151890572
            ]
        },
        {
            "positions": [
                2.373515224555865,
                -1.1712157788282136,
                0.8993854173703957,
                -1.1763928376101846,
                0.05723754908394818,
                2.382571579480486
            ]
        },
        {
            "positions": [
                2.454653730569175,
                -1.1371363756701862,
                1.0078108975394153,
                -1.262321025206231,
                0.052501556086264126,
                2.4615921437719144
            ]
        },
        {
            "positions": [
                2.4741383455102746,
                -1.1234823508893075,
                1.098917240687263,
                -1.2101733445722809,
                0.16507483278931961,
                2.5412958421563436
            ]
        },
        {
            "positions": [
                2.4936229604513738,
                -1.1098283261084287,
                1.1900235838351103,
                -1.1580256639383306,
                0.2776481094923751,
                2.6209995405407733
            ]
        },
        {
            "positions": [
                2.5131075753924734,
                -1.09617430132755,
                1.281129926982958,
                -1.1058779833043806,
                0.3902213861954306,
                2.7007032389252026
            ]
        },
        {
            "positions": [
                2.5325921903335726,
                -1.0825202765466713,
                1.3722362701308053,
                -1.0537303026704303,
                0.5027946628984862,
                2.780406937309632
            ]
        },
        {
            "positions": [
                2.5520768052746723,
                -1.0688662517657925,
                1.463342613278653,
                -1.0015826220364803,
                0.6153679396015418,
                2.8601106356940615
            ]
        },
        {
            "positions": [
                2.5715614202157715,
                -1.0552122269849138,
                1.5544489564265003,
                -0.9494349414025302,
                0.7279412163045972,
                2.939814334078491
            ]
        },
        {
            "positions": [
                2.591046035156871,
                -1.041558202204035,
                1.6455552995743479,
                -0.89728726076858,
                0.8405144930076528,
                3.01951803246292
            ]
        },
        {
            "positions": [
                2.6105306500979704,
                -1.0279041774231563,
                1.7366616427221953,
                -0.8451395801346299,
                0.9530877697107082,
                3.0992217308473498
            ]
        },
        {
            "positions": [
                2.63001526503907,
                -1.0142501526422776,
                1.8277679858700429,
                -0.7929918995006797,
                1.0656610464137637,
                3.178925429231779
            ]
        }
    ]
}