{
    "goal": {
        "global_pose": {
            "orientation": {
                "w": 0.5084816262002911,
                "x": -0.4908360881923452,
                "y": 0.5182115481033761,
                "z": -0.48164630358495003
            },
            "position": {
                "x": 0.5540239810943604,
                "y": -0.46912469901144505,
                "z": 0.16403168439865112
            }
        },
        "name": "move_to_storage_B"
    },
    "id": "ProjEST_move_to_storage_B_24",
    "joint_names": [
        "shoulder_pan_joint",
        "shoulder_lift_joint",
        "elbow_joint",
        "wrist_1_joint",
        "wrist_2_joint",
        "wrist_3_joint"
    ],
    "metrics": {
        "cart_traj_len": 1.771288268305931,
        "distance_elbow_joint": 0.7915313249563265,
        "distance_shoulder_lift_joint": 0.4585186111394641,
        "distance_shoulder_pan_joint": 1.804099277671748,
        "distance_wrist_1_joint": 2.9862276408282833,
        "distance_wrist_2_joint": 2.7082584244354737,
        "distance_wrist_3_joint": 3.838325221213083,
        "smoothness": 0.29435778287231856,
        "time": 0.066065075,
        "traj_len": 3.547810662964469,
        "weighted_distance": 5.094908930288578
    },
    "planner": "ProjEST",
    "start": {
        "state": {
            "elbow_joint": 1.6649325340416963,
            "shoulder_lift_joint": -0.6616387945129425,
            "shoulder_pan_joint": -0.9139837929255878,
            "wrist_1_joint": 2.1467571094334352,
            "wrist_2_joint": -2.234195976750228,
            "wrist_3_joint": 0.005470921511140723
        }
    },
    "waypoints": [
        {
            "positions": [
                -0.9139837929255878,
                -0.6616387945129425,
                1.6649325340416963,
                2.1467571094334352,
                -2.234195976750228,
                0.005470921511140723
            ]
        },
        {
            "positions": [
                -0.7980189943882808,
                -0.723803897544234,
                1.6334117813970557,
                2.0966361112353953,
                -2.1596943186581967,
                -0.044507215526349043
            ]
        },
        {
            "positions": [
                -0.6820541958509737,
                -0.7859690005755255,
                1.6018910287524153,
                2.046515113037355,
                -2.0851926605661655,
                -0.09448535256383882
            ]
        },
        {
            "positions": [
                -0.5660893973136667,
                -0.8481341036068171,
                1.5703702761077747,
                1.996394114839315,
                -2.0106910024741342,
                -0.14446348960132857
            ]
        },
        {
            "positions": [
                -0.45012459877635963,
                -0.9102992066381086,
                1.538849523463134,
                1.9462731166412748,
                -1.9361893443821032,
                -0.19444162663881834
            ]
        },
        {
            "positions": [
                -0.33415980023905256,
                -0.9724643096694001,
                1.5073287708184935,
                1.8961521184432346,
                -1.8616876862900722,
                -0.2444197636763081
            ]
        },
        {
            "positions": [
                -0.21819500170174555,
                -1.0346294127006916,
                1.475808018173853,
                1.8460311202451944,
                -1.787186028198041,
                -0.2943979007137979
            ]
        },
        {
            "positions": [
                -0.10223020316443841,
                -1.0967945157319832,
                1.4442872655292125,
                1.7959101220471543,
                -1.7126843701060097,
                -0.34437603775128767
            ]
        },
        {
            "positions": [
                -0.14192403068086235,
                -1.0977290313288002,
                1.4671227077869662,
                1.690494895909474,
                -1.6252144973943594,
                -0.20483690727326148
            ]
        },
        {
            "positions": [
                -0.18161785819728626,
                -1.098663546925617,
                1.4899581500447199,
                1.585079669771794,
                -1.5377446246827093,
                -0.0652977767952353
            ]
        },
        {
            "positions": [
                -0.22131168571371018,
                -1.099598062522434,
                1.5127935923024736,
                1.479664443634114,
                -1.450274751971059,
                0.07424135368279089
            ]
        },
        {
            "positions": [
                -0.2610055132301341,
                -1.100532578119251,
                1.5356290345602273,
                1.3742492174964338,
                -1.362804879259409,
                0.21378048416081707
            ]
        },
        {
            "positions": [
                -0.300699340746558,
                -1.1014670937160678,
                1.558464476817981,
                1.2688339913587536,
                -1.2753350065477587,
                0.3533196146388433
            ]
        },
        {
            "positions": [
                -0.34039316826298194,
                -1.1024016093128848,
                1.5812999190757346,
                1.1634187652210737,
                -1.1878651338361084,
                0.49285874511686945
            ]
        },
        {
            "positions": [
                -0.3800869957794059,
                -1.1033361249097018,
                1.6041353613334886,
                1.0580035390833933,
                -1.1003952611244583,
                0.6323978755948957
            ]
        },
        {
            "positions": [
                -0.41978082329582983,
                -1.1042706405065186,
                1.6269708035912422,
                0.9525883129457133,
                -1.012925388412808,
                0.7719370060729218
            ]
        },
        {
            "positions": [
                -0.4594746508122537,
                -1.1052051561033356,
                1.649806245848996,
                0.8471730868080333,
                -0.9254555157011578,
                0.9114761365509481
            ]
        },
        {
            "positions": [
                -0.49916847832867767,
                -1.1061396717001526,
                1.6726416881067496,
                0.7417578606703532,
                -0.8379856429895075,
                1.0510152670289743
            ]
        },
        {
            "positions": [
                -0.5388623058451015,
                -1.1070741872969694,
                1.6954771303645033,
                0.636342634532673,
                -0.7505157702778573,
                1.1905543975070003
            ]
        },
        {
            "positions": [
                -0.5785561333615254,
                -1.1080087028937864,
                1.718312572622257,
                0.5309274083949931,
                -0.663045897566207,
                1.3300935279850266
            ]
        },
        {
            "positions": [
                -0.6182499608779495,
                -1.1089432184906034,
                1.7411480148800107,
                0.4255121822573127,
                -0.575576024854557,
                1.4696326584630528
            ]
        },
        {
            "positions": [
                -0.6579437883943734,
                -1.1098777340874204,
                1.7639834571377644,
                0.3200969561196325,
                -0.48810615214290665,
                1.609171788941079
            ]
        },
        {
            "positions": [
                -0.6976376159107972,
                -1.1108122496842372,
                1.786818899395518,
                0.21468172998195256,
                -0.40063627943125657,
                1.748710919419105
            ]
        },
        {
            "positions": [
                -0.7373314434272212,
                -1.1117467652810542,
                1.8096543416532718,
                0.10926650384427239,
                -0.31316640671960627,
                1.8882500498971313
            ]
        },
        {
            "positions": [
                -0.7770252709436452,
                -1.1126812808778712,
                1.8324897839110257,
                0.0038512777065922155,
                -0.22569653400795597,
                2.0277891803751578
            ]
        },
        {
            "positions": [
                -0.816719098460069,
                -1.113615796474688,
                1.8553252261687792,
                -0.10156394843108774,
                -0.1382266612963059,
                2.1673283108531836
            ]
        },
        {
            "positions": [
                -0.856412925976493,
                -1.114550312071505,
                1.878160668426533,
                -0.2069791745687679,
                -0.0507567885846556,
                2.3068674413312102
            ]
        },
        {
            "positions": [
                -0.8961067534929169,
                -1.115484827668322,
                1.9009961106842868,
                -0.31239440070644786,
                0.0367130841269947,
                2.446406571809236
            ]
        },
        {
            "positions": [
                -0.9358005810093408,
                -1.1164193432651388,
                1.9238315529420404,
                -0.4178096268441278,
                0.12418295683864478,
                2.585945702287262
            ]
        },
        {
            "positions": [
                -0.9754944085257647,
                -1.1173538588619558,
                1.9466669951997941,
                -0.5232248529818082,
                0.21165282955029507,
                2.7254848327652885
            ]
        },
        {
            "positions": [
                -1.0151882360421887,
                -1.1182883744587728,
                1.9695024374575478,
                -0.6286400791194886,
                0.2991227022619456,
                2.865023963243315
            ]
        },
        {
            "positions": [
                -1.0548820635586125,
                -1.1192228900555896,
                1.9923378797153015,
                -0.7340553052571681,
                0.38659257497359567,
                3.004563093721341
            ]
        },
        {
            "positions": [
                -1.0945758910750365,
                -1.1201574056524066,
                2.015173321973055,
                -0.8394705313948484,
                0.47406244768524586,
                3.1441022241993672
            ]
        }
    ]
}