{
    "goal": {
        "global_pose": {
            "orientation": {
                "w": 0.7047431493862688,
                "x": -0.7094548369677653,
                "y": 0.0024358444001904,
                "z": -0.0022348060817251984
            },
            "position": {
                "x": -0.39052492380142206,
                "y": 0.3671506643295288,
                "z": 0.19426114857196808
            }
        },
        "name": "move_to_magneteinheit_D"
    },
    "id": "ProjEST_move_to_magneteinheit_D_46",
    "joint_names": [
        "shoulder_pan_joint",
        "shoulder_lift_joint",
        "elbow_joint",
        "wrist_1_joint",
        "wrist_2_joint",
        "wrist_3_joint"
    ],
    "metrics": {
        "cart_traj_len": 4.846248650024718,
        "distance_elbow_joint": 4.199897700351999,
        "distance_shoulder_lift_joint": 1.1002030686794861,
        "distance_shoulder_pan_joint": 2.9954728544479003,
        "distance_wrist_1_joint": 3.4088490831362375,
        "distance_wrist_2_joint": 0.6542312810696354,
        "distance_wrist_3_joint": 4.515459484062745,
        "smoothness": 0.25289014562594425,
        "time": 0.36520057499999997,
        "traj_len": 4.107811275088962,
        "weighted_distance": 5.47431391172258
    },
    "planner": "ProjEST",
    "start": {
        "state": {
            "elbow_joint": 0.7495348899011911,
            "shoulder_lift_joint": -0.6476975780737668,
            "shoulder_pan_joint": -2.711696901376276,
            "wrist_1_joint": -0.0750647808097303,
            "wrist_2_joint": 0.43296659715458535,
            "wrist_3_joint": 3.1361499051832418
        }
    },
    "waypoints": [
        {
            "positions": [
                -2.711696901376276,
                -0.6476975780737668,
                0.7495348899011911,
                -0.0750647808097303,
                0.43296659715458535,
                3.1361499051832418
            ]
        },
        {
            "positions": [
                -2.725571412172812,
                -0.6974342614592006,
                0.7810449251509229,
                -0.019828469627100206,
                0.4233806272867978,
                3.010439156355062
            ]
        },
        {
            "positions": [
                -2.739445922969347,
                -0.7471709448446345,
                0.8125549604006548,
                0.03540784155552988,
                0.4137946574190103,
                2.8847284075268824
            ]
        },
        {
            "positions": [
                -2.7427573109437624,
                -0.8147032429237785,
                0.8610022129142064,
                0.08823642896621077,
                0.4085189494990953,
                2.702293240548233
            ]
        },
        {
            "positions": [
                -2.7460686989181777,
                -0.8822355410029225,
                0.9094494654277581,
                0.14106501637689167,
                0.40324324157918034,
                2.519858073569583
            ]
        },
        {
            "positions": [
                -2.749380086892593,
                -0.9497678390820664,
                0.9578967179413097,
                0.19389360378757253,
                0.39796753365926535,
                2.3374229065909335
            ]
        },
        {
            "positions": [
                -2.7526914748670084,
                -1.0173001371612105,
                1.0063439704548613,
                0.24672219119825345,
                0.3926918257393504,
                2.154987739612284
            ]
        },
        {
            "positions": [
                -2.7560028628414237,
                -1.0848324352403544,
                1.0547912229684129,
                0.2995507786089343,
                0.3874161178194354,
                1.9725525726336344
            ]
        },
        {
            "positions": [
                -2.7593142508158386,
                -1.1523647333194984,
                1.1032384754819646,
                0.35237936601961517,
                0.3821404098995204,
                1.790117405654985
            ]
        },
        {
            "positions": [
                -2.762625638790254,
                -1.2198970313986424,
                1.1516857279955164,
                0.40520795343029603,
                0.3768647019796055,
                1.6076822386763352
            ]
        },
        {
            "positions": [
                -2.7659370267646692,
                -1.2874293294777863,
                1.200132980509068,
                0.458036540840977,
                0.3715889940596905,
                1.4252470716976855
            ]
        },
        {
            "positions": [
                -2.7692484147390846,
                -1.3549616275569303,
                1.2485802330226194,
                0.5108651282516579,
                0.36631328613977554,
                1.2428119047190358
            ]
        },
        {
            "positions": [
                -2.7725598027135,
                -1.4224939256360742,
                1.2970274855361712,
                0.5636937156623387,
                0.36103757821986054,
                1.0603767377403863
            ]
        },
        {
            "positions": [
                -2.5839324418605307,
                -1.437063944897211,
                1.2453772138301296,
                0.4713978589891262,
                0.33057343307583026,
                1.048787041996421
            ]
        },
        {
            "positions": [
                -2.3953050810075616,
                -1.4516339641583476,
                1.1937269421240881,
                0.3791020023159136,
                0.3001092879318,
                1.0371973462524557
            ]
        },
        {
            "positions": [
                -2.206677720154592,
                -1.4662039834194842,
                1.1420766704180465,
                0.2868061456427011,
                0.26964514278776974,
                1.0256076505084903
            ]
        },
        {
            "positions": [
                -2.018050359301623,
                -1.4807740026806209,
                1.090426398712005,
                0.19451028896948858,
                0.23918099764373946,
                1.0140179547645252
            ]
        },
        {
            "positions": [
                -1.8294229984486536,
                -1.4953440219417575,
                1.0387761270059634,
                0.10221443229627603,
                0.20871685249970914,
                1.0024282590205598
            ]
        },
        {
            "positions": [
                -1.6407956375956845,
                -1.5099140412028942,
                0.987125855299922,
                0.00991857562306353,
                0.17825270735567889,
                0.9908385632765945
            ]
        },
        {
            "positions": [
                -1.452168276742715,
                -1.5244840604640308,
                0.9354755835938804,
                -0.08237728105014908,
                0.1477885622116486,
                0.9792488675326292
            ]
        },
        {
            "positions": [
                -1.263540915889746,
                -1.5390540797251675,
                0.8838253118878389,
                -0.17467313772336157,
                0.11732441706761834,
                0.9676591717886639
            ]
        },
        {
            "positions": [
                -1.0749135550367765,
                -1.5536240989863042,
                0.8321750401817973,
                -0.2669689943965742,
                0.08686027192358803,
                0.9560694760446986
            ]
        },
        {
            "positions": [
                -0.8862861941838074,
                -1.5681941182474408,
                0.7805247684757557,
                -0.3592648510697867,
                0.05639612677955774,
                0.9444797803007332
            ]
        },
        {
            "positions": [
                -0.6976588333308382,
                -1.5827641375085775,
                0.7288744967697143,
                -0.4515607077429993,
                0.025931981635527512,
                0.932890084556768
            ]
        },
        {
            "positions": [
                -0.5090314724778691,
                -1.5973341567697141,
                0.6772242250636727,
                -0.5438565644162117,
                -0.004532163508502773,
                0.9213003888128026
            ]
        },
        {
            "positions": [
                -0.32040411162489946,
                -1.6119041760308508,
                0.6255739533576311,
                -0.6361524210894243,
                -0.03499630865253306,
                0.9097106930688373
            ]
        },
        {
            "positions": [
                -0.13177675077193018,
                -1.6264741952919874,
                0.5739236816515896,
                -0.7284482777626369,
                -0.06546045379656336,
                0.898120997324872
            ]
        },
        {
            "positions": [
                -0.12468376576311568,
                -1.6323065875885348,
                0.4160731125004312,
                -0.810298836892033,
                -0.07313003123873595,
                1.0211360443613757
            ]
        },
        {
            "positions": [
                -0.1175907807543012,
                -1.638138979885082,
                0.2582225433492729,
                -0.8921493960214291,
                -0.08079960868090855,
                1.1441510913978792
            ]
        },
        {
            "positions": [
                -0.1104977957454867,
                -1.6439713721816296,
                0.10037197419811456,
                -0.9739999551508253,
                -0.08846918612308113,
                1.2671661384343829
            ]
        },
        {
            "positions": [
                -0.10340481073667221,
                -1.649803764478177,
                -0.05747859495304375,
                -1.0558505142802215,
                -0.09613876356525372,
                1.3901811854708863
            ]
        },
        {
            "positions": [
                -0.09631182572785771,
                -1.6556361567747242,
                -0.2153291641042021,
                -1.1377010734096176,
                -0.10380834100742632,
                1.51319623250739
            ]
        },
        {
            "positions": [
                -0.08921884071904321,
                -1.6614685490712715,
                -0.37317973325536047,
                -1.2195516325390137,
                -0.11147791844959892,
                1.6362112795438937
            ]
        },
        {
            "positions": [
                -0.08212585571022873,
                -1.6673009413678188,
                -0.5310303024065188,
                -1.3014021916684095,
                -0.11914749589177151,
                1.7592263265803973
            ]
        },
        {
            "positions": [
                -0.07503287070141423,
                -1.6731333336643661,
                -0.6888808715576771,
                -1.3832527507978059,
                -0.1268170733339441,
                1.8822413736169008
            ]
        },
        {
            "positions": [
                -0.06793988569259973,
                -1.6789657259609136,
                -0.8467314407088355,
                -1.465103309927202,
                -0.13448665077611668,
                2.0052564206534047
            ]
        },
        {
            "positions": [
                -0.060846900683785246,
                -1.684798118257461,
                -1.0045820098599938,
                -1.546953869056598,
                -0.14215622821828927,
                2.128271467689908
            ]
        },
        {
            "positions": [
                -0.053753915674970745,
                -1.6906305105540083,
                -1.1624325790111523,
                -1.6288044281859944,
                -0.14982580566046189,
                2.2512865147264116
            ]
        },
        {
            "positions": [
                -0.046660930666156245,
                -1.6964629028505556,
                -1.3202831481623105,
                -1.7106549873153902,
                -0.15749538310263447,
                2.3743015617629153
            ]
        },
        {
            "positions": [
                -0.03956794565734177,
                -1.7022952951471029,
                -1.4781337173134688,
                -1.7925055464447863,
                -0.16516496054480706,
                2.4973166087994185
            ]
        },
        {
            "positions": [
                -0.03247496064852727,
                -1.7081276874436502,
                -1.6359842864646272,
                -1.8743561055741824,
                -0.17283453798697965,
                2.6203316558359226
            ]
        },
        {
            "positions": [
                -0.02538197563971277,
                -1.7139600797401977,
                -1.7938348556157853,
                -1.9562066647035787,
                -0.18050411542915223,
                2.743346702872426
            ]
        },
        {
            "positions": [
                -0.018288990630898283,
                -1.719792472036745,
                -1.9516854247669437,
                -2.0380572238329746,
                -0.18817369287132485,
                2.8663617499089296
            ]
        },
        {
            "positions": [
                -0.011196005622083782,
                -1.7256248643332923,
                -2.109535993918102,
                -2.119907782962371,
                -0.1958432703134974,
                2.9893767969454332
            ]
        },
        {
            "positions": [
                -0.09781908363171311,
                -1.7367627555432725,
                -2.2324568065494743,
                -2.1631523269821002,
                -0.1831325635127209,
                3.08246418523734
            ]
        },
        {
            "positions": [
                -0.18444216164134244,
                -1.747900646753253,
                -2.355377619180847,
                -2.206396871001829,
                -0.17042185671194438,
                3.175551573529247
            ]
        }
    ]
}