{
    "goal": {
        "global_pose": {
            "orientation": {
                "w": 0.005598929693374612,
                "x": 0.007748599140229565,
                "y": 0.7110244013736278,
                "z": -0.7031023480610252
            },
            "position": {
                "x": 0.1141497679147869,
                "y": -0.7141253447532654,
                "z": 0.3711530566215515
            }
        },
        "name": "move_to_auspresseinheit_B"
    },
    "id": "ProjEST_move_to_auspresseinheit_B_34",
    "joint_names": [
        "shoulder_pan_joint",
        "shoulder_lift_joint",
        "elbow_joint",
        "wrist_1_joint",
        "wrist_2_joint",
        "wrist_3_joint"
    ],
    "metrics": {
        "cart_traj_len": 0.563820141304939,
        "distance_elbow_joint": 0.05859096114988138,
        "distance_shoulder_lift_joint": 0.29546061407091595,
        "distance_shoulder_pan_joint": 0.5769810785752572,
        "distance_wrist_1_joint": 0.31411205762242134,
        "distance_wrist_2_joint": 0.9900754249923251,
        "distance_wrist_3_joint": 0.0007166118798229704,
        "smoothness": 5.075305255429287e-16,
        "time": 0.7911248550000001,
        "traj_len": 1.495304901446733,
        "weighted_distance": 1.8819026156167105
    },
    "planner": "ProjEST",
    "start": {
        "state": {
            "elbow_joint": 2.0193061681459312,
            "shoulder_lift_joint": -1.1220205130644991,
            "shoulder_pan_joint": -1.0952072088045026,
            "wrist_1_joint": -0.8559671810662515,
            "wrist_2_joint": 0.4759638712940361,
            "wrist_3_joint": 3.159081874192446
        }
    },
    "waypoints": [
        {
            "positions": [
                -1.0952072088045026,
                -1.1220205130644991,
                2.0193061681459312,
                -0.8559671810662515,
                0.4759638712940361,
                3.159081874192446
            ]
        },
        {
            "positions": [
                -1.1913707219003788,
                -1.1712639487429852,
                2.0095410079542844,
                -0.8036151714625146,
                0.6409764421260903,
                3.158962438879142
            ]
        },
        {
            "positions": [
                -1.287534234996255,
                -1.220507384421471,
                1.9997758477626375,
                -0.7512631618587777,
                0.8059890129581444,
                3.1588430035658384
            ]
        },
        {
            "positions": [
                -1.383697748092131,
                -1.269750820099957,
                1.9900106875709906,
                -0.6989111522550409,
                0.9710015837901986,
                3.1587235682525345
            ]
        },
        {
            "positions": [
                -1.4798612611880073,
                -1.318994255778443,
                1.9802455273793436,
                -0.646559142651304,
                1.1360141546222529,
                3.1586041329392307
            ]
        },
        {
            "positions": [
                -1.5760247742838835,
                -1.3682376914569292,
                1.9704803671876967,
                -0.594207133047567,
                1.301026725454307,
                3.158484697625927
            ]
        },
        {
            "positions": [
                -1.6721882873797598,
                -1.417481127135415,
                1.9607152069960498,
                -0.5418551234438301,
                1.4660392962863613,
                3.158365262312623
            ]
        }
    ]
}