{
    "goal": {
        "global_pose": {
            "orientation": {
                "w": 0.7031023502349854,
                "x": -0.7110244035720825,
                "y": 0.007748599164187908,
                "z": 0.005598929710686207
            },
            "position": {
                "x": 0.11585023208521307,
                "y": 0.44412534475326537,
                "z": 0.3711530566215515
            }
        },
        "name": "move_to_auspresseinheit_A"
    },
    "id": "ProjEST_move_to_auspresseinheit_A_100",
    "joint_names": [
        "shoulder_pan_joint",
        "shoulder_lift_joint",
        "elbow_joint",
        "wrist_1_joint",
        "wrist_2_joint",
        "wrist_3_joint"
    ],
    "metrics": {
        "cart_traj_len": 0.6660556343105115,
        "distance_elbow_joint": 0.2993935654464446,
        "distance_shoulder_lift_joint": 0.8578326603988151,
        "distance_shoulder_pan_joint": 1.0449841642494415,
        "distance_wrist_1_joint": 0.5715655503145194,
        "distance_wrist_2_joint": 0.5226972200929536,
        "distance_wrist_3_joint": 0.04886649840794988,
        "smoothness": 0.6771360014500009,
        "time": 0.239426682,
        "traj_len": 1.829026970525619,
        "weighted_distance": 2.1301022102550613
    },
    "planner": "ProjEST",
    "start": {
        "state": {
            "elbow_joint": 2.4225746994637096,
            "shoulder_lift_joint": -1.373653595662188,
            "shoulder_pan_joint": -0.3378633848294565,
            "wrist_1_joint": -1.0288595594406726,
            "wrist_2_joint": 1.2330228066703421,
            "wrist_3_joint": 3.189163495502006
        }
    },
    "waypoints": [
        {
            "positions": [
                -0.3378633848294565,
                -1.373653595662188,
                2.4225746994637096,
                -1.0288595594406726,
                1.2330228066703421,
                3.189163495502006
            ]
        },
        {
            "positions": [
                -0.23170660792461667,
                -1.4728431664205377,
                2.4416570121776537,
                -0.9712178952704759,
                1.1780110310944505,
                3.18383605224065
            ]
        },
        {
            "positions": [
                -0.12554983101977682,
                -1.5720327371788874,
                2.4607393248915974,
                -0.913576231100279,
                1.1229992555185588,
                3.1785086089792935
            ]
        },
        {
            "positions": [
                -0.01939305411493697,
                -1.671222307937237,
                2.4798216376055415,
                -0.8559345669300822,
                1.0679874799426672,
                3.1731811657179376
            ]
        },
        {
            "positions": [
                0.08676372278990285,
                -1.7704118786955867,
                2.4989039503194856,
                -0.7982929027598853,
                1.0129757043667755,
                3.1678537224565813
            ]
        },
        {
            "positions": [
                0.19292049969474273,
                -1.8696014494539366,
                2.5179862630334298,
                -0.7406512385896885,
                0.9579639287908837,
                3.1625262791952253
            ]
        },
        {
            "positions": [
                0.29907727659958255,
                -1.968791020212286,
                2.5370685757473734,
                -0.6830095744194917,
                0.902952153214992,
                3.157198835933869
            ]
        },
        {
            "positions": [
                0.4052340535044223,
                -2.067980590970636,
                2.5561508884613175,
                -0.6253679102492948,
                0.8479403776391004,
                3.151871392672513
            ]
        },
        {
            "positions": [
                0.5058629621429432,
                -2.01347870260718,
                2.500878429645039,
                -0.5693432765415809,
                0.8020687806185297,
                3.1480132608130273
            ]
        },
        {
            "positions": [
                0.6064918707814642,
                -1.9589768142437245,
                2.4456059708287596,
                -0.5133186428338671,
                0.7561971835979592,
                3.1441551289535417
            ]
        },
        {
            "positions": [
                0.7071207794199851,
                -1.9044749258802687,
                2.390333512012481,
                -0.4572940091261532,
                0.7103255865773885,
                3.140296997094056
            ]
        }
    ]
}