{
    "goal": {
        "global_pose": {
            "orientation": {
                "w": 0.5084816217422485,
                "x": -0.49083608388900757,
                "y": 0.5182115435600281,
                "z": -0.4816462993621826
            },
            "position": {
                "x": 0.5540239810943604,
                "y": 0.030875300988554955,
                "z": 0.16403168439865112
            }
        },
        "name": "move_to_storage_A"
    },
    "id": "ProjEST_move_to_storage_A_86",
    "joint_names": [
        "shoulder_pan_joint",
        "shoulder_lift_joint",
        "elbow_joint",
        "wrist_1_joint",
        "wrist_2_joint",
        "wrist_3_joint"
    ],
    "metrics": {
        "cart_traj_len": 0.3534523719043444,
        "distance_elbow_joint": 0.45184819463500214,
        "distance_shoulder_lift_joint": 0.2361043882737912,
        "distance_shoulder_pan_joint": 0.4639596208094852,
        "distance_wrist_1_joint": 0.24676237042271643,
        "distance_wrist_2_joint": 1.093044866521387,
        "distance_wrist_3_joint": 0.0918712616872912,
        "smoothness": 0.0,
        "time": 0.049478456999999997,
        "traj_len": 1.6073551886094353,
        "weighted_distance": 2.0266081176854
    },
    "planner": "ProjEST",
    "start": {
        "state": {
            "elbow_joint": 1.971548880431181,
            "shoulder_lift_joint": -1.1394869514688781,
            "shoulder_pan_joint": 0.12281150262730567,
            "wrist_1_joint": -0.7804693444481463,
            "wrist_2_joint": 0.12958644648617612,
            "wrist_3_joint": 3.0906942077768043
        }
    },
    "waypoints": [
        {
            "positions": [
                0.12281150262730567,
                -1.1394869514688781,
                1.971548880431181,
                -0.7804693444481463,
                0.12958644648617612,
                3.0906942077768043
            ]
        },
        {
            "positions": [
                0.056531556797379215,
                -1.1732161497937055,
                2.0360986225218953,
                -0.8157211116513915,
                0.28573571313208856,
                3.1038186737321314
            ]
        },
        {
            "positions": [
                -0.009748389032547239,
                -1.2069453481185328,
                2.10064836461261,
                -0.8509728788546367,
                0.44188497977800095,
                3.116943139687459
            ]
        },
        {
            "positions": [
                -0.0760283348624737,
                -1.2406745464433602,
                2.1651981067033246,
                -0.8862246460578819,
                0.5980342464239135,
                3.130067605642786
            ]
        },
        {
            "positions": [
                -0.14230828069240015,
                -1.2744037447681873,
                2.229747848794039,
                -0.9214764132611271,
                0.7541835130698258,
                3.1431920715981136
            ]
        },
        {
            "positions": [
                -0.20858822652232661,
                -1.3081329430930146,
                2.294297590884754,
                -0.9567281804643724,
                0.9103327797157382,
                3.1563165375534408
            ]
        },
        {
            "positions": [
                -0.2748681723522531,
                -1.341862141417842,
                2.3588473329754684,
                -0.9919799476676175,
                1.0664820463616507,
                3.1694410035087683
            ]
        },
        {
            "positions": [
                -0.34114811818217955,
                -1.3755913397426693,
                2.423397075066183,
                -1.0272317148708627,
                1.2226313130075632,
                3.1825654694640955
            ]
        }
    ]
}