{
    "goal": {
        "global_pose": {
            "orientation": {
                "w": 0.7031023502349854,
                "x": -0.7110244035720825,
                "y": 0.007748599164187908,
                "z": 0.005598929710686207
            },
            "position": {
                "x": 0.11585023208521307,
                "y": 0.44412534475326537,
                "z": 0.3711530566215515
            }
        },
        "name": "move_to_auspresseinheit_A"
    },
    "id": "ProjEST_move_to_auspresseinheit_A_5",
    "joint_names": [
        "shoulder_pan_joint",
        "shoulder_lift_joint",
        "elbow_joint",
        "wrist_1_joint",
        "wrist_2_joint",
        "wrist_3_joint"
    ],
    "metrics": {
        "cart_traj_len": 2.383997801112171,
        "distance_elbow_joint": 1.7155009254946245,
        "distance_shoulder_lift_joint": 0.5362107991036309,
        "distance_shoulder_pan_joint": 2.6745435368990824,
        "distance_wrist_1_joint": 0.5555286628791105,
        "distance_wrist_2_joint": 0.530827075264431,
        "distance_wrist_3_joint": 0.34478504198319593,
        "smoothness": 1.191162340744791,
        "time": 0.374222581,
        "traj_len": 2.5213877213994826,
        "weighted_distance": 2.851897940623754
    },
    "planner": "ProjEST",
    "start": {
        "state": {
            "elbow_joint": 2.4225746994637096,
            "shoulder_lift_joint": -1.373653595662188,
            "shoulder_pan_joint": -0.3378633848294565,
            "wrist_1_joint": -1.0288595594406726,
            "wrist_2_joint": 1.2330228066703421,
            "wrist_3_joint": 3.189163495502006
        }
    },
    "waypoints": [
        {
            "positions": [
                -0.3378633848294565,
                -1.373653595662188,
                2.4225746994637096,
                -1.0288595594406726,
                1.2330228066703421,
                3.189163495502006
            ]
        },
        {
            "positions": [
                -0.4544318535534425,
                -1.3925574844688193,
                2.2980904910811084,
                -0.9847137908299279,
                1.2130018785400778,
                3.211523442483686
            ]
        },
        {
            "positions": [
                -0.5710003222774285,
                -1.4114613732754506,
                2.1736062826985068,
                -0.9405680222191832,
                1.1929809504098134,
                3.233883389465366
            ]
        },
        {
            "positions": [
                -0.6875687910014145,
                -1.430365262082082,
                2.0491220743159055,
                -0.8964222536084385,
                1.172960022279549,
                3.2562433364470458
            ]
        },
        {
            "positions": [
                -0.8041372597254005,
                -1.4492691508887132,
                1.9246378659333043,
                -0.8522764849976938,
                1.1529390941492847,
                3.278603283428726
            ]
        },
        {
            "positions": [
                -0.9207057284493865,
                -1.4681730396953445,
                1.800153657550703,
                -0.8081307163869491,
                1.1329181660190204,
                3.300963230410406
            ]
        },
        {
            "positions": [
                -1.0372741971733725,
                -1.4870769285019758,
                1.6756694491681017,
                -0.7639849477762044,
                1.112897237888756,
                3.323323177392086
            ]
        },
        {
            "positions": [
                -1.1538426658973586,
                -1.5059808173086071,
                1.5511852407855002,
                -0.7198391791654597,
                1.0928763097584917,
                3.345683124373766
            ]
        },
        {
            "positions": [
                -0.9679862403142405,
                -1.5463691750543282,
                1.6355963874671418,
                -0.6951883509050699,
                1.0538082519232337,
                3.3268565830626224
            ]
        },
        {
            "positions": [
                -0.7821298147311225,
                -1.5867575328000494,
                1.7200075341487833,
                -0.6705375226446801,
                1.0147401940879757,
                3.308030041751479
            ]
        },
        {
            "positions": [
                -0.5962733891480045,
                -1.6271458905457707,
                1.8044186808304248,
                -0.6458866943842905,
                0.9756721362527175,
                3.2892035004403355
            ]
        },
        {
            "positions": [
                -0.41041696356488644,
                -1.6675342482914919,
                1.8888298275120663,
                -0.6212358661239007,
                0.9366040784174595,
                3.270376959129192
            ]
        },
        {
            "positions": [
                -0.22456053798176845,
                -1.707922606037213,
                1.9732409741937078,
                -0.5965850378635109,
                0.8975360205822014,
                3.2515504178180485
            ]
        },
        {
            "positions": [
                -0.03870411239865046,
                -1.7483109637829342,
                2.0576521208753493,
                -0.5719342096031211,
                0.8584679627469434,
                3.232723876506905
            ]
        },
        {
            "positions": [
                0.14715231318446764,
                -1.7886993215286553,
                2.142063267556991,
                -0.5472833813427314,
                0.8193999049116854,
                3.213897335195761
            ]
        },
        {
            "positions": [
                0.33300873876758574,
                -1.8290876792743767,
                2.2264744142386323,
                -0.5226325530823417,
                0.7803318470764273,
                3.1950707938846175
            ]
        },
        {
            "positions": [
                0.5188651643507036,
                -1.8694760370200978,
                2.3108855609202736,
                -0.4979817248219519,
                0.7412637892411692,
                3.176244252573474
            ]
        },
        {
            "positions": [
                0.7047215899338217,
                -1.909864394765819,
                2.3952967076019154,
                -0.47333089656156213,
                0.7021957314059112,
                3.1574177112623305
            ]
        }
    ]
}