{
    "goal": {
        "global_pose": {
            "orientation": {
                "w": 0.7047431468963623,
                "x": -0.7094548344612122,
                "y": 0.0024358443915843964,
                "z": -0.0022348060738295317
            },
            "position": {
                "x": 0.6094750761985779,
                "y": 0.3671506643295288,
                "z": 0.19426114857196808
            }
        },
        "name": "move_to_magneteinheit_A"
    },
    "id": "ProjEST_move_to_magneteinheit_A_93",
    "joint_names": [
        "shoulder_pan_joint",
        "shoulder_lift_joint",
        "elbow_joint",
        "wrist_1_joint",
        "wrist_2_joint",
        "wrist_3_joint"
    ],
    "metrics": {
        "cart_traj_len": 1.5585078455057608,
        "distance_elbow_joint": 3.5556818576675635,
        "distance_shoulder_lift_joint": 2.5244306592707826,
        "distance_shoulder_pan_joint": 1.2427648001508311,
        "distance_wrist_1_joint": 5.166318595150301,
        "distance_wrist_2_joint": 1.7007866605474853,
        "distance_wrist_3_joint": 2.648400564703197,
        "smoothness": 0.26705150647241144,
        "time": 0.21364107499999999,
        "traj_len": 4.103459898365057,
        "weighted_distance": 5.3853773797751945
    },
    "planner": "ProjEST",
    "start": {
        "state": {
            "elbow_joint": -1.5739458827952972,
            "shoulder_lift_joint": 0.006533473998580023,
            "shoulder_pan_joint": -1.1188671628667068,
            "wrist_1_joint": 3.138208179676308,
            "wrist_2_joint": -1.5706037135050406,
            "wrist_3_joint": -2.0226958329764257
        }
    },
    "waypoints": [
        {
            "positions": [
                -1.1188671628667068,
                0.006533473998580023,
                -1.5739458827952972,
                3.138208179676308,
                -1.5706037135050406,
                -2.0226958329764257
            ]
        },
        {
            "positions": [
                -1.0860244980999663,
                -0.04916598974753469,
                -1.47184516434123,
                2.9997860220848582,
                -1.535123295061419,
                -1.9996809045380812
            ]
        },
        {
            "positions": [
                -1.0531818333332257,
                -0.1048654534936494,
                -1.369744445887163,
                2.8613638644934083,
                -1.4996428766177976,
                -1.976665976099737
            ]
        },
        {
            "positions": [
                -1.020339168566485,
                -0.16056491723976407,
                -1.2676437274330958,
                2.7229417069019584,
                -1.4641624581741761,
                -1.9536510476613924
            ]
        },
        {
            "positions": [
                -0.9874965037997445,
                -0.2162643809858788,
                -1.1655430089790286,
                2.5845195493105084,
                -1.4286820397305546,
                -1.9306361192230481
            ]
        },
        {
            "positions": [
                -0.9546538390330039,
                -0.27196384473199353,
                -1.0634422905249616,
                2.4460973917190585,
                -1.3932016212869331,
                -1.9076211907847036
            ]
        },
        {
            "positions": [
                -0.9218111742662634,
                -0.3276633084781082,
                -0.9613415720708944,
                2.3076752341276086,
                -1.3577212028433117,
                -1.8846062623463593
            ]
        },
        {
            "positions": [
                -0.8889685094995228,
                -0.38336277222422294,
                -0.8592408536168272,
                2.1692530765361586,
                -1.32224078439969,
                -1.8615913339080148
            ]
        },
        {
            "positions": [
                -0.8561258447327822,
                -0.43906223597033767,
                -0.7571401351627601,
                2.0308309189447087,
                -1.2867603659560687,
                -1.8385764054696705
            ]
        },
        {
            "positions": [
                -0.8232831799660416,
                -0.4947616997164523,
                -0.6550394167086931,
                1.892408761353259,
                -1.251279947512447,
                -1.815561477031326
            ]
        },
        {
            "positions": [
                -0.790440515199301,
                -0.550461163462567,
                -0.5529386982546258,
                1.7539866037618088,
                -1.2157995290688255,
                -1.7925465485929817
            ]
        },
        {
            "positions": [
                -0.7575978504325604,
                -0.6061606272086817,
                -0.45083797980055884,
                1.615564446170359,
                -1.180319110625204,
                -1.7695316201546372
            ]
        },
        {
            "positions": [
                -0.7247551856658199,
                -0.6618600909547964,
                -0.34873726134649163,
                1.4771422885789092,
                -1.1448386921815825,
                -1.7465166917162929
            ]
        },
        {
            "positions": [
                -0.6919125208990793,
                -0.717559554700911,
                -0.24663654289242465,
                1.3387201309874592,
                -1.109358273737961,
                -1.7235017632779484
            ]
        },
        {
            "positions": [
                -0.6590698561323387,
                -0.7732590184470258,
                -0.14453582443835722,
                1.2002979733960093,
                -1.0738778552943395,
                -1.700486834839604
            ]
        },
        {
            "positions": [
                -0.6262271913655981,
                -0.8289584821931405,
                -0.04243510598429023,
                1.0618758158045596,
                -1.038397436850718,
                -1.6774719064012595
            ]
        },
        {
            "positions": [
                -0.5933845265988575,
                -0.8846579459392553,
                0.059665612469776974,
                0.9234536582131092,
                -1.0029170184070966,
                -1.6544569779629152
            ]
        },
        {
            "positions": [
                -0.560541861832117,
                -0.9403574096853698,
                0.16176633092384396,
                0.7850315006216597,
                -0.9674365999634751,
                -1.6314420495245707
            ]
        },
        {
            "positions": [
                -0.5276991970653764,
                -0.9960568734314845,
                0.26386704937791094,
                0.6466093430302098,
                -0.9319561815198536,
                -1.6084271210862264
            ]
        },
        {
            "positions": [
                -0.4948565322986358,
                -1.0517563371775993,
                0.3659677678319784,
                0.5081871854387594,
                -0.896475763076232,
                -1.585412192647882
            ]
        },
        {
            "positions": [
                -0.4620138675318952,
                -1.107455800923714,
                0.4680684862860456,
                0.36976502784730947,
                -0.8609953446326105,
                -1.5623972642095376
            ]
        },
        {
            "positions": [
                -0.42917120276515464,
                -1.1631552646698287,
                0.5701692047401126,
                0.23134287025585998,
                -0.8255149261889891,
                -1.539382335771193
            ]
        },
        {
            "positions": [
                -0.39632853799841405,
                -1.2188547284159434,
                0.6722699231941796,
                0.09292071266441004,
                -0.7900345077453677,
                -1.5163674073328488
            ]
        },
        {
            "positions": [
                -0.3634858732316735,
                -1.2745541921620582,
                0.774370641648247,
                -0.045501444927040335,
                -0.7545540893017461,
                -1.4933524788945043
            ]
        },
        {
            "positions": [
                -0.3306432084649329,
                -1.3302536559081728,
                0.876471360102314,
                -0.18392360251848983,
                -0.7190736708581246,
                -1.47033755045616
            ]
        },
        {
            "positions": [
                -0.2978005436981923,
                -1.3859531196542876,
                0.978572078556381,
                -0.32234576010993976,
                -0.6835932524145031,
                -1.4473226220178155
            ]
        },
        {
            "positions": [
                -0.26495787893145173,
                -1.4416525834004021,
                1.080672797010448,
                -0.4607679177013897,
                -0.6481128339708816,
                -1.424307693579471
            ]
        },
        {
            "positions": [
                -0.23211521416471115,
                -1.4973520471465172,
                1.1827735154645154,
                -0.5991900752928401,
                -0.61263241552726,
                -1.4012927651411267
            ]
        },
        {
            "positions": [
                -0.19927254939797057,
                -1.5530515108926317,
                1.2848742339185828,
                -0.7376122328842896,
                -0.5771519970836385,
                -1.3782778367027824
            ]
        },
        {
            "positions": [
                -0.16642988463122999,
                -1.6087509746387463,
                1.3869749523726498,
                -0.8760343904757395,
                -0.541671578640017,
                -1.3552629082644378
            ]
        },
        {
            "positions": [
                -0.1335872198644894,
                -1.664450438384861,
                1.4890756708267168,
                -1.014456548067189,
                -0.5061911601963955,
                -1.3322479798260933
            ]
        },
        {
            "positions": [
                -0.10074455509774882,
                -1.7201499021309758,
                1.5911763892807842,
                -1.1528787056586394,
                -0.47071074175277405,
                -1.309233051387749
            ]
        },
        {
            "positions": [
                -0.06790189033100824,
                -1.7758493658770906,
                1.6932771077348512,
                -1.2913008632500897,
                -0.43523032330915257,
                -1.2862181229494047
            ]
        },
        {
            "positions": [
                -0.03505922556426759,
                -1.8315488296232052,
                1.7953778261889182,
                -1.4297230208415397,
                -0.3997499048655311,
                -1.2632031945110602
            ]
        },
        {
            "positions": [
                -0.020608601668959323,
                -1.7691535245642056,
                1.8123194760692225,
                -1.3753241667840437,
                -0.3515741910557151,
                -1.4349220968963177
            ]
        },
        {
            "positions": [
                -0.006157977773651055,
                -1.7067582195052058,
                1.829261125949527,
                -1.3209253127265475,
                -0.30339847724589913,
                -1.606640999281575
            ]
        },
        {
            "positions": [
                0.008292646121657213,
                -1.6443629144462062,
                1.8462027758298314,
                -1.2665264586690514,
                -0.2552227634360832,
                -1.7783599016668323
            ]
        },
        {
            "positions": [
                0.02274327001696548,
                -1.5819676093872064,
                1.8631444257101357,
                -1.2121276046115552,
                -0.2070470496262672,
                -1.9500788040520898
            ]
        },
        {
            "positions": [
                0.03719389391227375,
                -1.5195723043282068,
                1.8800860755904403,
                -1.1577287505540592,
                -0.15887133581645124,
                -2.121797706437347
            ]
        },
        {
            "positions": [
                0.051644517807582016,
                -1.457176999269207,
                1.8970277254707446,
                -1.1033298964965632,
                -0.1106956220066353,
                -2.2935166088226047
            ]
        },
        {
            "positions": [
                0.06609514170289028,
                -1.3947816942102074,
                1.9139693753510492,
                -1.048931042439067,
                -0.0625199081968193,
                -2.465235511207862
            ]
        },
        {
            "positions": [
                0.08054576559819855,
                -1.3323863891512076,
                1.9309110252313535,
                -0.994532188381571,
                -0.014344194387003295,
                -2.6369544135931196
            ]
        },
        {
            "positions": [
                0.09499638949350682,
                -1.269991084092208,
                1.9478526751116578,
                -0.9401333343240749,
                0.033831519422812706,
                -2.8086733159783774
            ]
        },
        {
            "positions": [
                0.10944701338881509,
                -1.2075957790332081,
                1.9647943249919624,
                -0.8857344802665789,
                0.0820072332326286,
                -2.9803922183636344
            ]
        },
        {
            "positions": [
                0.12389763728412335,
                -1.1452004739742085,
                1.9817359748722667,
                -0.8313356262090827,
                0.1301829470424446,
                -3.152111120748892
            ]
        }
    ]
}