{
    "goal": {
        "global_pose": {
            "orientation": {
                "w": 0.7031023480610252,
                "x": -0.7110244013736278,
                "y": 0.0077485991402295624,
                "z": 0.005598929693374583
            },
            "position": {
                "x": -0.8841497679147869,
                "y": 0.44412534475326537,
                "z": 0.3711530566215515
            }
        },
        "name": "move_to_auspresseinheit_D"
    },
    "id": "ProjEST_move_to_auspresseinheit_D_46",
    "joint_names": [
        "shoulder_pan_joint",
        "shoulder_lift_joint",
        "elbow_joint",
        "wrist_1_joint",
        "wrist_2_joint",
        "wrist_3_joint"
    ],
    "metrics": {
        "cart_traj_len": 0.3442462328160105,
        "distance_elbow_joint": 0.6616177688773337,
        "distance_shoulder_lift_joint": 0.13479583429158248,
        "distance_shoulder_pan_joint": 0.13416756437216448,
        "distance_wrist_1_joint": 0.6049366238636815,
        "distance_wrist_2_joint": 1.4456704057280083,
        "distance_wrist_3_joint": 0.06524264648911027,
        "smoothness": 1.4802973701761192e-15,
        "time": 0.071800973,
        "traj_len": 1.7454027740386693,
        "weighted_distance": 2.2863777391743016
    },
    "planner": "ProjEST",
    "start": {
        "state": {
            "elbow_joint": -1.8275484843655228,
            "shoulder_lift_joint": -2.1267897864000416,
            "shoulder_pan_joint": -0.035127520176001514,
            "wrist_1_joint": -2.3477863256791385,
            "wrist_2_joint": -1.605890476484521,
            "wrist_3_joint": -3.0880375317375353
        }
    },
    "waypoints": [
        {
            "positions": [
                -0.035127520176001514,
                -2.1267897864000416,
                -1.8275484843655228,
                -2.3477863256791385,
                -1.605890476484521,
                -3.0880375317375353
            ]
        },
        {
            "positions": [
                -0.051898465722522075,
                -2.1436392656864895,
                -1.7448462632558561,
                -2.423403403662099,
                -1.42518167576852,
                -3.0798822009263964
            ]
        },
        {
            "positions": [
                -0.06866941126904264,
                -2.160488744972937,
                -1.6621440421461893,
                -2.4990204816450587,
                -1.244472875052519,
                -3.0717268701152576
            ]
        },
        {
            "positions": [
                -0.0854403568155632,
                -2.177338224259385,
                -1.5794418210365226,
                -2.574637559628019,
                -1.0637640743365178,
                -3.0635715393041187
            ]
        },
        {
            "positions": [
                -0.10221130236208376,
                -2.1941877035458326,
                -1.496739599926856,
                -2.6502546376109795,
                -0.8830552736205168,
                -3.0554162084929803
            ]
        },
        {
            "positions": [
                -0.11898224790860432,
                -2.2110371828322806,
                -1.4140373788171892,
                -2.7258717155939394,
                -0.7023464729045158,
                -3.0472608776818415
            ]
        },
        {
            "positions": [
                -0.13575319345512488,
                -2.2278866621187285,
                -1.3313351577075225,
                -2.8014887935768997,
                -0.5216376721885148,
                -3.0391055468707027
            ]
        },
        {
            "positions": [
                -0.15252413900164544,
                -2.244736141405176,
                -1.248632936597856,
                -2.87710587155986,
                -0.34092887147251383,
                -3.030950216059564
            ]
        },
        {
            "positions": [
                -0.169295084548166,
                -2.261585620691624,
                -1.165930715488189,
                -2.95272294954282,
                -0.16022007075651257,
                -3.022794885248425
            ]
        }
    ]
}