{
    "goal": {
        "global_pose": {
            "orientation": {
                "w": 0.005598929693374612,
                "x": 0.007748599140229565,
                "y": 0.7110244013736278,
                "z": -0.7031023480610252
            },
            "position": {
                "x": -0.8858502320852131,
                "y": -0.7141253447532654,
                "z": 0.3711530566215515
            }
        },
        "name": "move_to_auspresseinheit_C"
    },
    "id": "ProjEST_move_to_auspresseinheit_C_144",
    "joint_names": [
        "shoulder_pan_joint",
        "shoulder_lift_joint",
        "elbow_joint",
        "wrist_1_joint",
        "wrist_2_joint",
        "wrist_3_joint"
    ],
    "metrics": {
        "cart_traj_len": 0.4920296786979695,
        "distance_elbow_joint": 0.9861557671977526,
        "distance_shoulder_lift_joint": 0.3176698972144406,
        "distance_shoulder_pan_joint": 0.25639483515332717,
        "distance_wrist_1_joint": 0.6575542524385679,
        "distance_wrist_2_joint": 1.303989903167122,
        "distance_wrist_3_joint": 0.053391761099296,
        "smoothness": 0.0,
        "time": 0.020932893,
        "traj_len": 1.8908084028453298,
        "weighted_distance": 2.375601838287466
    },
    "planner": "ProjEST",
    "start": {
        "state": {
            "elbow_joint": 1.7527959577730765,
            "shoulder_lift_joint": -0.9740617694224828,
            "shoulder_pan_joint": -2.967991417825869,
            "wrist_1_joint": -0.7595177689779385,
            "wrist_2_joint": 1.7443932448376545,
            "wrist_3_joint": 3.1991315425061013
        }
    },
    "waypoints": [
        {
            "positions": [
                -2.967991417825869,
                -0.9740617694224828,
                1.7527959577730765,
                -0.7595177689779385,
                1.7443932448376545,
                3.1991315425061013
            ]
        },
        {
            "positions": [
                -2.9423519343105364,
                -0.9422947797010387,
                1.6541803810533013,
                -0.6937623437340817,
                1.6139942545209423,
                3.193792366396172
            ]
        },
        {
            "positions": [
                -2.916712450795204,
                -0.9105277899795947,
                1.555564804333526,
                -0.6280069184902249,
                1.48359526420423,
                3.1884531902862423
            ]
        },
        {
            "positions": [
                -2.8910729672798707,
                -0.8787608002581506,
                1.4569492276137508,
                -0.5622514932463681,
                1.3531962738875178,
                3.1831140141763123
            ]
        },
        {
            "positions": [
                -2.865433483764538,
                -0.8469938105367065,
                1.3583336508939754,
                -0.4964960680025114,
                1.2227972835708056,
                3.177774838066383
            ]
        },
        {
            "positions": [
                -2.8397940002492055,
                -0.8152268208152624,
                1.2597180741742002,
                -0.4307406427586546,
                1.0923982932540934,
                3.1724356619564533
            ]
        },
        {
            "positions": [
                -2.814154516733873,
                -0.7834598310938184,
                1.1611024974544248,
                -0.3649852175147978,
                0.9619993029373812,
                3.167096485846524
            ]
        },
        {
            "positions": [
                -2.78851503321854,
                -0.7516928413723744,
                1.0624869207346497,
                -0.29922979227094104,
                0.8316003126206691,
                3.1617573097365943
            ]
        },
        {
            "positions": [
                -2.762875549703207,
                -0.7199258516509304,
                0.9638713440148744,
                -0.23347436702708424,
                0.7012013223039568,
                3.1564181336266643
            ]
        },
        {
            "positions": [
                -2.7372360661878745,
                -0.6881588619294863,
                0.8652557672950992,
                -0.16771894178322744,
                0.5708023319872446,
                3.151078957516735
            ]
        },
        {
            "positions": [
                -2.711596582672542,
                -0.6563918722080422,
                0.766640190575324,
                -0.10196351653937061,
                0.44040334167053236,
                3.1457397814068053
            ]
        }
    ]
}