{
    "goal": {
        "global_pose": {
            "orientation": {
                "w": 0.5084816217422485,
                "x": -0.49083608388900757,
                "y": 0.5182115435600281,
                "z": -0.4816462993621826
            },
            "position": {
                "x": 0.5540239810943604,
                "y": 0.030875300988554955,
                "z": 0.16403168439865112
            }
        },
        "name": "move_to_storage_A"
    },
    "id": "ProjEST_move_to_storage_A_37",
    "joint_names": [
        "shoulder_pan_joint",
        "shoulder_lift_joint",
        "elbow_joint",
        "wrist_1_joint",
        "wrist_2_joint",
        "wrist_3_joint"
    ],
    "metrics": {
        "cart_traj_len": 0.3529797737788494,
        "distance_elbow_joint": 0.4507291922296972,
        "distance_shoulder_lift_joint": 0.23587603309929772,
        "distance_shoulder_pan_joint": 0.4620050739982783,
        "distance_wrist_1_joint": 0.24760123189255756,
        "distance_wrist_2_joint": 1.097177466980365,
        "distance_wrist_3_joint": 0.09012161295886623,
        "smoothness": 6.661338165333112e-16,
        "time": 0.034202782,
        "traj_len": 1.6073302744486155,
        "weighted_distance": 2.026951537642111
    },
    "planner": "ProjEST",
    "start": {
        "state": {
            "elbow_joint": 1.971548880431181,
            "shoulder_lift_joint": -1.1394869514688781,
            "shoulder_pan_joint": 0.12281150262730567,
            "wrist_1_joint": -0.7804693444481463,
            "wrist_2_joint": 0.12958644648617612,
            "wrist_3_joint": 3.0906942077768043
        }
    },
    "waypoints": [
        {
            "positions": [
                0.12281150262730567,
                -1.1394869514688781,
                1.971548880431181,
                -0.7804693444481463,
                0.12958644648617612,
                3.0906942077768043
            ]
        },
        {
            "positions": [
                0.05681077777040877,
                -1.1731835276259206,
                2.0359387650354233,
                -0.815840949004226,
                0.2863260846262282,
                3.103568723913785
            ]
        },
        {
            "positions": [
                -0.009189947086488126,
                -1.2068801037829633,
                2.100328649639666,
                -0.8512125535603056,
                0.44306572276628037,
                3.1164432400507662
            ]
        },
        {
            "positions": [
                -0.07519067194338502,
                -1.2405766799400058,
                2.1647185342439084,
                -0.8865841581163852,
                0.5998053609063325,
                3.129317756187747
            ]
        },
        {
            "positions": [
                -0.14119139680028192,
                -1.2742732560970482,
                2.229108418848151,
                -0.9219557626724649,
                0.7565449990463846,
                3.1421922723247278
            ]
        },
        {
            "positions": [
                -0.20719212165717882,
                -1.307969832254091,
                2.2934983034523935,
                -0.9573273672285445,
                0.9132846371864368,
                3.1550667884617085
            ]
        },
        {
            "positions": [
                -0.2731928465140757,
                -1.3416664084111334,
                2.3578881880566356,
                -0.9926989717846242,
                1.0700242753264888,
                3.1679413045986897
            ]
        },
        {
            "positions": [
                -0.3391935713709726,
                -1.3753629845681759,
                2.422278072660878,
                -1.0280705763407039,
                1.2267639134665411,
                3.1808158207356705
            ]
        }
    ]
}