{
    "goal": {
        "global_pose": {
            "orientation": {
                "w": -0.4816463035849501,
                "x": 0.5182115481033762,
                "y": 0.4908360881923453,
                "z": -0.5084816262002911
            },
            "position": {
                "x": -0.8240239810943604,
                "y": 0.19912469901144506,
                "z": 0.16403168439865112
            }
        },
        "name": "move_to_storage_D"
    },
    "id": "ProjEST_move_to_storage_D_62",
    "joint_names": [
        "shoulder_pan_joint",
        "shoulder_lift_joint",
        "elbow_joint",
        "wrist_1_joint",
        "wrist_2_joint",
        "wrist_3_joint"
    ],
    "metrics": {
        "cart_traj_len": 3.8369784354688994,
        "distance_elbow_joint": 4.213280671818648,
        "distance_shoulder_lift_joint": 1.2653248624181208,
        "distance_shoulder_pan_joint": 2.8148360403503667,
        "distance_wrist_1_joint": 2.2992034823950283,
        "distance_wrist_2_joint": 0.8879992725117926,
        "distance_wrist_3_joint": 3.1498302810874,
        "smoothness": 0.037113863217361556,
        "time": 0.290727427,
        "traj_len": 3.824980341201946,
        "weighted_distance": 4.910940635729878
    },
    "planner": "ProjEST",
    "start": {
        "state": {
            "elbow_joint": -2.384821990628643,
            "shoulder_lift_joint": -2.278805467437664,
            "shoulder_pan_joint": -0.18546946439364564,
            "wrist_1_joint": 1.4845938187801415,
            "wrist_2_joint": 0.178987772454074,
            "wrist_3_joint": 0.03710569632802521
        }
    },
    "waypoints": [
        {
            "positions": [
                -0.18546946439364564,
                -2.278805467437664,
                -2.384821990628643,
                1.4845938187801415,
                0.178987772454074,
                0.03710569632802521
            ]
        },
        {
            "positions": [
                -0.14865014641381286,
                -2.2683818129221986,
                -2.3833335876022184,
                1.4928931745925833,
                0.20189164156976275,
                0.07554918365369485
            ]
        },
        {
            "positions": [
                -0.07267154926817516,
                -2.237430842267925,
                -2.26532877770285,
                1.419138004442928,
                0.2146506172039551,
                0.15306045256078935
            ]
        },
        {
            "positions": [
                0.0033070478774625267,
                -2.2064798716136513,
                -2.1473239678034814,
                1.3453828342932728,
                0.22740959283814743,
                0.23057172146788385
            ]
        },
        {
            "positions": [
                0.07928564502310023,
                -2.1755289009593777,
                -2.0293191579041134,
                1.2716276641436175,
                0.24016856847233978,
                0.3080829903749783
            ]
        },
        {
            "positions": [
                0.1552642421687379,
                -2.144577930305104,
                -1.911314348004745,
                1.1978724939939622,
                0.2529275441065321,
                0.3855942592820728
            ]
        },
        {
            "positions": [
                0.23124283931437561,
                -2.113626959650831,
                -1.7933095381053765,
                1.124117323844307,
                0.26568651974072444,
                0.46310552818916734
            ]
        },
        {
            "positions": [
                0.3072214364600133,
                -2.082675988996557,
                -1.675304728206008,
                1.0503621536946517,
                0.2784454953749168,
                0.5406167970962619
            ]
        },
        {
            "positions": [
                0.38320003360565097,
                -2.0517250183422835,
                -1.5572999183066398,
                0.9766069835449965,
                0.2912044710091091,
                0.6181280660033563
            ]
        },
        {
            "positions": [
                0.4591786307512887,
                -2.02077404768801,
                -1.4392951084072714,
                0.9028518133953413,
                0.30396344664330144,
                0.6956393349104508
            ]
        },
        {
            "positions": [
                0.5351572278969265,
                -1.9898230770337362,
                -1.321290298507903,
                0.8290966432456859,
                0.3167224222774938,
                0.7731506038175454
            ]
        },
        {
            "positions": [
                0.611135825042564,
                -1.9588721063794625,
                -1.2032854886085347,
                0.7553414730960307,
                0.3294813979116862,
                0.8506618727246399
            ]
        },
        {
            "positions": [
                0.687114422188202,
                -1.9279211357251889,
                -1.0852806787091662,
                0.6815863029463753,
                0.3422403735458785,
                0.9281731416317345
            ]
        },
        {
            "positions": [
                0.7630930193338394,
                -1.8969701650709152,
                -0.967275868809798,
                0.6078311327967202,
                0.3549993491800708,
                1.0056844105388287
            ]
        },
        {
            "positions": [
                0.8390716164794774,
                -1.8660191944166415,
                -0.8492710589104295,
                0.5340759626470649,
                0.3677583248142632,
                1.0831956794459232
            ]
        },
        {
            "positions": [
                0.9150502136251148,
                -1.8350682237623681,
                -0.7312662490110613,
                0.46032079249740976,
                0.3805173004484555,
                1.1607069483530177
            ]
        },
        {
            "positions": [
                0.9910288107707528,
                -1.8041172531080945,
                -0.6132614391116928,
                0.38656562234775427,
                0.39327627608264787,
                1.2382182172601124
            ]
        },
        {
            "positions": [
                1.0670074079163903,
                -1.7731662824538208,
                -0.4952566292123244,
                0.3128104521980992,
                0.4060352517168402,
                1.3157294861672066
            ]
        },
        {
            "positions": [
                1.142986005062028,
                -1.7422153117995474,
                -0.37725181931295637,
                0.23905528204844395,
                0.41879422735103256,
                1.3932407550743011
            ]
        },
        {
            "positions": [
                1.218964602207666,
                -1.7112643411452737,
                -0.25924700941358747,
                0.16530011189878846,
                0.4315532029852249,
                1.4707520239813958
            ]
        },
        {
            "positions": [
                1.2949431993533036,
                -1.680313370491,
                -0.14124219951421946,
                0.09154494174913341,
                0.4443121786194172,
                1.5482632928884903
            ]
        },
        {
            "positions": [
                1.370921796498941,
                -1.6493623998367264,
                -0.023237389614851,
                0.017789771599478144,
                0.45707115425360956,
                1.6257745617955848
            ]
        },
        {
            "positions": [
                1.4469003936445788,
                -1.6184114291824527,
                0.09476742028451746,
                -0.055965398550177126,
                0.4698301298878019,
                1.7032858307026792
            ]
        },
        {
            "positions": [
                1.5228789907902167,
                -1.587460458528179,
                0.2127722301838859,
                -0.12972056869983262,
                0.48258910552199424,
                1.780797099609774
            ]
        },
        {
            "positions": [
                1.5988575879358542,
                -1.5565094878739054,
                0.33077704008325437,
                -0.20347573884948766,
                0.49534808115618656,
                1.8583083685168682
            ]
        },
        {
            "positions": [
                1.674836185081492,
                -1.5255585172196318,
                0.4487818499826224,
                -0.27723090899914293,
                0.5081070567903789,
                1.9358196374239627
            ]
        },
        {
            "positions": [
                1.7508147822271296,
                -1.4946075465653583,
                0.5667866598819908,
                -0.3509860791487982,
                0.5208660324245713,
                2.013330906331057
            ]
        },
        {
            "positions": [
                1.8267933793727675,
                -1.4636565759110847,
                0.6847914697813593,
                -0.42474124929845347,
                0.5336250080587637,
                2.090842175238152
            ]
        },
        {
            "positions": [
                1.902771976518405,
                -1.432705605256811,
                0.8027962796807278,
                -0.49849641944810874,
                0.5463839836929559,
                2.1683534441452466
            ]
        },
        {
            "positions": [
                1.9787505736640425,
                -1.4017546346025376,
                0.9208010895800958,
                -0.5722515895977638,
                0.5591429593271482,
                2.245864713052341
            ]
        },
        {
            "positions": [
                2.05472917080968,
                -1.370803663948264,
                1.0388058994794642,
                -0.6460067597474193,
                0.5719019349613406,
                2.3233759819594355
            ]
        },
        {
            "positions": [
                2.130707767955318,
                -1.3398526932939903,
                1.1568107093788327,
                -0.7197619298970748,
                0.5846609105955329,
                2.40088725086653
            ]
        },
        {
            "positions": [
                2.2066863651009556,
                -1.3089017226397166,
                1.2748155192782011,
                -0.7935171000467298,
                0.5974198862297253,
                2.4783985197736245
            ]
        },
        {
            "positions": [
                2.267069252366065,
                -1.2666987058368346,
                1.3539073995513158,
                -0.794159078895769,
                0.6645009089063169,
                2.579618156579596
            ]
        },
        {
            "positions": [
                2.3274521396311743,
                -1.2244956890339527,
                1.4329992798244304,
                -0.7948010577448081,
                0.7315819315829085,
                2.680837793385568
            ]
        },
        {
            "positions": [
                2.387835026896284,
                -1.1822926722310707,
                1.5120911600975453,
                -0.7954430365938473,
                0.7986629542595001,
                2.7820574301915393
            ]
        },
        {
            "positions": [
                2.448217914161393,
                -1.140089655428189,
                1.59118304037066,
                -0.7960850154428863,
                0.8657439769360917,
                2.8832770669975107
            ]
        },
        {
            "positions": [
                2.5086008014265024,
                -1.097886638625307,
                1.6702749206437746,
                -0.7967269942919255,
                0.9328249996126833,
                2.984496703803482
            ]
        },
        {
            "positions": [
                2.5689836886916115,
                -1.055683621822425,
                1.7493668009168895,
                -0.7973689731409647,
                0.9999060222892748,
                3.085716340609454
            ]
        },
        {
            "positions": [
                2.629366575956721,
                -1.013480605019543,
                1.828458681190004,
                -0.7980109519900038,
                1.0669870449658665,
                3.1869359774154256
            ]
        }
    ]
}