{
    "goal": {
        "global_pose": {
            "orientation": {
                "w": -0.00223480608172531,
                "x": 0.0024358444001904467,
                "y": 0.7094548369677653,
                "z": -0.704743149386269
            },
            "position": {
                "x": 0.6205249238014221,
                "y": -0.6371506643295288,
                "z": 0.19426114857196808
            }
        },
        "name": "move_to_magneteinheit_B"
    },
    "id": "ProjEST_move_to_magneteinheit_B_80",
    "joint_names": [
        "shoulder_pan_joint",
        "shoulder_lift_joint",
        "elbow_joint",
        "wrist_1_joint",
        "wrist_2_joint",
        "wrist_3_joint"
    ],
    "metrics": {
        "cart_traj_len": 3.532600364920023,
        "distance_elbow_joint": 4.2220824197517235,
        "distance_shoulder_lift_joint": 0.5711686195795116,
        "distance_shoulder_pan_joint": 2.418055726982231,
        "distance_wrist_1_joint": 1.8188073714368942,
        "distance_wrist_2_joint": 1.623463613722605,
        "distance_wrist_3_joint": 4.0674273211698955,
        "smoothness": 0.610977774889795,
        "time": 0.7469079829999999,
        "traj_len": 3.8367961989976567,
        "weighted_distance": 5.128170307248205
    },
    "planner": "ProjEST",
    "start": {
        "state": {
            "elbow_joint": 2.393587130804639,
            "shoulder_lift_joint": -1.9085141043513325,
            "shoulder_pan_joint": 0.7066247066698809,
            "wrist_1_joint": -0.4678290934590222,
            "wrist_2_joint": 0.7096259084215963,
            "wrist_3_joint": 3.147370379541726
        }
    },
    "waypoints": [
        {
            "positions": [
                0.7066247066698809,
                -1.9085141043513325,
                2.393587130804639,
                -0.4678290934590222,
                0.7096259084215963,
                3.147370379541726
            ]
        },
        {
            "positions": [
                0.6343599265383193,
                -1.9102745376365147,
                2.3537832245142694,
                -0.3969240947450921,
                0.6850566718369858,
                3.0578932800304286
            ]
        },
        {
            "positions": [
                0.5620951464067578,
                -1.9120349709216968,
                2.3139793182239,
                -0.32601909603116197,
                0.6604874352523754,
                2.9684161805191316
            ]
        },
        {
            "positions": [
                0.4898303662751963,
                -1.913795404206879,
                2.2741754119335305,
                -0.2551140973172319,
                0.6359181986677649,
                2.878939081007834
            ]
        },
        {
            "positions": [
                0.5353472031632993,
                -1.9142240648093032,
                2.1499596379790593,
                -0.21580511297199303,
                0.6791500029132641,
                2.745901529744393
            ]
        },
        {
            "positions": [
                0.5808640400514024,
                -1.9146527254117274,
                2.025743864024588,
                -0.17649612862675418,
                0.7223818071587634,
                2.6128639784809518
            ]
        },
        {
            "positions": [
                0.6263808769395054,
                -1.9150813860141516,
                1.9015280900701168,
                -0.1371871442815153,
                0.7656136114042627,
                2.479826427217511
            ]
        },
        {
            "positions": [
                0.6718977138276083,
                -1.9155100466165758,
                1.7773123161156457,
                -0.09787815993627644,
                0.808845415649762,
                2.34678887595407
            ]
        },
        {
            "positions": [
                0.7174145507157114,
                -1.915938707219,
                1.6530965421611745,
                -0.05856917559103758,
                0.8520772198952612,
                2.2137513246906284
            ]
        },
        {
            "positions": [
                0.7629313876038144,
                -1.9163673678214241,
                1.5288807682067032,
                -0.019260191245798697,
                0.8953090241407604,
                2.0807137734271874
            ]
        },
        {
            "positions": [
                0.8084482244919173,
                -1.9167960284238483,
                1.404664994252232,
                0.020048793099440132,
                0.9385408283862597,
                1.9476762221637465
            ]
        },
        {
            "positions": [
                0.8539650613800205,
                -1.9172246890262725,
                1.2804492202977609,
                0.059357777444679016,
                0.981772632631759,
                1.8146386709003053
            ]
        },
        {
            "positions": [
                0.8994818982681234,
                -1.9176533496286967,
                1.1562334463432897,
                0.0986667617899179,
                1.0250044368772582,
                1.681601119636864
            ]
        },
        {
            "positions": [
                0.9449987351562265,
                -1.918082010231121,
                1.0320176723888186,
                0.13797574613515673,
                1.0682362411227575,
                1.5485635683734231
            ]
        },
        {
            "positions": [
                0.9905155720443295,
                -1.918510670833545,
                0.9078018984343472,
                0.1772847304803956,
                1.1114680453682566,
                1.415526017109982
            ]
        },
        {
            "positions": [
                1.0360324089324324,
                -1.9189393314359693,
                0.7835861244798761,
                0.2165937148256345,
                1.154699849613756,
                1.2824884658465407
            ]
        },
        {
            "positions": [
                1.0815492458205356,
                -1.9193679920383935,
                0.6593703505254049,
                0.2559026991708734,
                1.1979316538592553,
                1.1494509145830998
            ]
        },
        {
            "positions": [
                1.1270660827086385,
                -1.9197966526408177,
                0.5351545765709336,
                0.29521168351611216,
                1.2411634581047544,
                1.0164133633196586
            ]
        },
        {
            "positions": [
                1.1725829195967414,
                -1.9202253132432419,
                0.41093880261646243,
                0.33452066786135104,
                1.284395262350254,
                0.8833758120562176
            ]
        },
        {
            "positions": [
                1.2180997564848446,
                -1.920653973845666,
                0.2867230286619912,
                0.3738296522065899,
                1.327627066595753,
                0.7503382607927764
            ]
        },
        {
            "positions": [
                1.3086008460741307,
                -1.9258160058027036,
                0.15955924813512617,
                0.42339237004636643,
                1.282803319269508,
                0.6755954389225812
            ]
        },
        {
            "positions": [
                1.3991019356634167,
                -1.9309780377597414,
                0.032395467608261175,
                0.47295508788614293,
                1.237979571943263,
                0.600852617052386
            ]
        },
        {
            "positions": [
                1.4896030252527028,
                -1.936140069716779,
                -0.09476831291860383,
                0.5225178057259194,
                1.193155824617018,
                0.5261097951821908
            ]
        },
        {
            "positions": [
                1.5801041148419888,
                -1.9413021016738168,
                -0.22193209344546883,
                0.5720805235656959,
                1.148332077290773,
                0.4513669733119956
            ]
        },
        {
            "positions": [
                1.670605204431275,
                -1.9464641336308544,
                -0.3490958739723339,
                0.6216432414054724,
                1.1035083299645279,
                0.3766241514418004
            ]
        },
        {
            "positions": [
                1.761106294020561,
                -1.951626165587892,
                -0.4762596544991988,
                0.6712059592452488,
                1.058684582638283,
                0.3018813295716052
            ]
        },
        {
            "positions": [
                1.851607383609847,
                -1.9567881975449297,
                -0.6034234350260638,
                0.7207686770850255,
                1.013860835312038,
                0.22713850770140998
            ]
        },
        {
            "positions": [
                1.9421084731991332,
                -1.9619502295019673,
                -0.7305872155529288,
                0.7703313949248018,
                0.9690370879857929,
                0.15239568583121477
            ]
        },
        {
            "positions": [
                2.0326095627884193,
                -1.9671122614590049,
                -0.8577509960797939,
                0.8198941127645785,
                0.9242133406595479,
                0.07765286396101956
            ]
        },
        {
            "positions": [
                2.1231106523777052,
                -1.9722742934160427,
                -0.9849147766066589,
                0.8694568306043549,
                0.8793895933333029,
                0.0029100420908243496
            ]
        },
        {
            "positions": [
                2.213611741966991,
                -1.9774363253730802,
                -1.1120785571335237,
                0.9190195484441314,
                0.8345658460070579,
                -0.07183277977937086
            ]
        },
        {
            "positions": [
                2.3041128315562776,
                -1.9825983573301178,
                -1.239242337660389,
                0.9685822662839079,
                0.7897420986808128,
                -0.14657560164956607
            ]
        },
        {
            "positions": [
                2.3946139211455635,
                -1.9877603892871556,
                -1.3664061181872538,
                1.0181449841236843,
                0.7449183513545679,
                -0.22131842351976128
            ]
        },
        {
            "positions": [
                2.48511501073485,
                -1.9929224212441932,
                -1.4935698987141186,
                1.0677077019634609,
                0.7000946040283228,
                -0.2960612453899565
            ]
        },
        {
            "positions": [
                2.575616100324136,
                -1.998084453201231,
                -1.6207336792409839,
                1.1172704198032375,
                0.6552708567020779,
                -0.3708040672601518
            ]
        },
        {
            "positions": [
                2.6661171899134217,
                -2.0032464851582685,
                -1.7478974597678487,
                1.1668331376430139,
                0.6104471093758328,
                -0.4455468891303469
            ]
        },
        {
            "positions": [
                2.6710137734699972,
                -2.073554362619041,
                -1.7411020862627686,
                1.1404103486860993,
                0.5869448504900723,
                -0.37426168271328014
            ]
        },
        {
            "positions": [
                2.6759103570265728,
                -2.143862240079814,
                -1.7343067127576886,
                1.1139875597291848,
                0.5634425916043118,
                -0.3029764762962134
            ]
        },
        {
            "positions": [
                2.6708498917478494,
                -2.255802401363491,
                -1.7119710187013295,
                1.0702210389221751,
                0.5321550712545302,
                -0.19232992974164984
            ]
        },
        {
            "positions": [
                2.665789426469126,
                -2.3677425626471673,
                -1.6896353246449702,
                1.0264545181151654,
                0.5008675509047485,
                -0.08168338318708629
            ]
        },
        {
            "positions": [
                2.6607289611904026,
                -2.479682723930844,
                -1.6672996305886112,
                0.9826879973081556,
                0.469580030554967,
                0.02896316336747727
            ]
        }
    ]
}