{
    "goal": {
        "global_pose": {
            "orientation": {
                "w": 0.7031023480610252,
                "x": -0.7110244013736278,
                "y": 0.0077485991402295624,
                "z": 0.005598929693374583
            },
            "position": {
                "x": -0.8841497679147869,
                "y": 0.44412534475326537,
                "z": 0.3711530566215515
            }
        },
        "name": "move_to_auspresseinheit_D"
    },
    "id": "ProjEST_move_to_auspresseinheit_D_136",
    "joint_names": [
        "shoulder_pan_joint",
        "shoulder_lift_joint",
        "elbow_joint",
        "wrist_1_joint",
        "wrist_2_joint",
        "wrist_3_joint"
    ],
    "metrics": {
        "cart_traj_len": 0.34454455886003,
        "distance_elbow_joint": 0.6618476272906699,
        "distance_shoulder_lift_joint": 0.13375588220580337,
        "distance_shoulder_pan_joint": 0.13317145913864378,
        "distance_wrist_1_joint": 0.5978538956364399,
        "distance_wrist_2_joint": 1.4466672792944097,
        "distance_wrist_3_joint": 0.04597884708650124,
        "smoothness": 3.9474596431116675e-16,
        "time": 0.071277097,
        "traj_len": 1.737606109177931,
        "weighted_distance": 2.2706285164588946
    },
    "planner": "ProjEST",
    "start": {
        "state": {
            "elbow_joint": -1.8275484843655228,
            "shoulder_lift_joint": -2.1267897864000416,
            "shoulder_pan_joint": -0.035127520176001514,
            "wrist_1_joint": -2.3477863256791385,
            "wrist_2_joint": -1.605890476484521,
            "wrist_3_joint": -3.0880375317375353
        }
    },
    "waypoints": [
        {
            "positions": [
                -0.035127520176001514,
                -2.1267897864000416,
                -1.8275484843655228,
                -2.3477863256791385,
                -1.605890476484521,
                -3.0880375317375353
            ]
        },
        {
            "positions": [
                -0.05177395256833199,
                -2.143509271675767,
                -1.744817530954189,
                -2.4225180626336935,
                -1.4250570665727198,
                -3.0822901758517225
            ]
        },
        {
            "positions": [
                -0.06842038496066247,
                -2.1602287569514926,
                -1.6620865775428553,
                -2.4972497995882486,
                -1.2442236566609186,
                -3.07654281996591
            ]
        },
        {
            "positions": [
                -0.08506681735299293,
                -2.1769482422272177,
                -1.5793556241315216,
                -2.5719815365428036,
                -1.0633902467491172,
                -3.0707954640800974
            ]
        },
        {
            "positions": [
                -0.1017132497453234,
                -2.1936677275029433,
                -1.4966246707201878,
                -2.646713273497358,
                -0.8825568368373161,
                -3.0650481081942846
            ]
        },
        {
            "positions": [
                -0.11835968213765388,
                -2.210387212778669,
                -1.413893717308854,
                -2.7214450104519132,
                -0.7017234269255149,
                -3.059300752308472
            ]
        },
        {
            "positions": [
                -0.13500611452998434,
                -2.227106698054394,
                -1.3311627638975203,
                -2.7961767474064683,
                -0.5208900170137136,
                -3.053553396422659
            ]
        },
        {
            "positions": [
                -0.15165254692231483,
                -2.2438261833301194,
                -1.2484318104861867,
                -2.8709084843610233,
                -0.34005660710191243,
                -3.047806040536847
            ]
        },
        {
            "positions": [
                -0.1682989793146453,
                -2.260545668605845,
                -1.1657008570748528,
                -2.9456402213155783,
                -0.15922319719011122,
                -3.042058684651034
            ]
        }
    ]
}