{
    "goal": {
        "global_pose": {
            "orientation": {
                "w": -0.4816463035849501,
                "x": 0.5182115481033762,
                "y": 0.4908360881923453,
                "z": -0.5084816262002911
            },
            "position": {
                "x": -0.8240239810943604,
                "y": 0.19912469901144506,
                "z": 0.16403168439865112
            }
        },
        "name": "move_to_storage_D"
    },
    "id": "ProjEST_move_to_storage_D_75",
    "joint_names": [
        "shoulder_pan_joint",
        "shoulder_lift_joint",
        "elbow_joint",
        "wrist_1_joint",
        "wrist_2_joint",
        "wrist_3_joint"
    ],
    "metrics": {
        "cart_traj_len": 0.8408727132691507,
        "distance_elbow_joint": 1.1174060337930267,
        "distance_shoulder_lift_joint": 0.8676759118366464,
        "distance_shoulder_pan_joint": 0.592444308751047,
        "distance_wrist_1_joint": 3.822600476593031,
        "distance_wrist_2_joint": 1.7786475898923824,
        "distance_wrist_3_joint": 3.161242536275504,
        "smoothness": 0.16700942263155932,
        "time": 0.11348956399999999,
        "traj_len": 3.3674941510181777,
        "weighted_distance": 4.823250977937812
    },
    "planner": "ProjEST",
    "start": {
        "state": {
            "elbow_joint": -2.384821990628643,
            "shoulder_lift_joint": -2.278805467437664,
            "shoulder_pan_joint": -0.18546946439364564,
            "wrist_1_joint": 1.4845938187801415,
            "wrist_2_joint": 0.178987772454074,
            "wrist_3_joint": 0.03710569632802521
        }
    },
    "waypoints": [
        {
            "positions": [
                -0.18546946439364564,
                -2.278805467437664,
                -2.384821990628643,
                1.4845938187801415,
                0.178987772454074,
                0.03710569632802521
            ]
        },
        {
            "positions": [
                -0.11104772383106583,
                -2.176718017123764,
                -2.441119400089683,
                1.4764480708027732,
                0.13847040089109808,
                0.09115394354300183
            ]
        },
        {
            "positions": [
                -0.03662598326848601,
                -2.074630566809864,
                -2.497416809550723,
                1.4683023228254048,
                0.09795302932812214,
                0.14520219075797844
            ]
        },
        {
            "positions": [
                0.03779575729409382,
                -1.9725431164959637,
                -2.553714219011763,
                1.4601565748480367,
                0.057435657765146225,
                0.19925043797295502
            ]
        },
        {
            "positions": [
                0.11221749785667362,
                -1.8704556661820635,
                -2.610011628472803,
                1.4520108268706684,
                0.016918286202170285,
                0.25329868518793164
            ]
        },
        {
            "positions": [
                0.18663923841925345,
                -1.7683682158681635,
                -2.666309037933843,
                1.4438650788933,
                -0.023599085360805627,
                0.3073469324029082
            ]
        },
        {
            "positions": [
                0.17782581418172755,
                -1.7826577622788493,
                -2.63287227847433,
                1.2925902094250525,
                -0.08664151464390574,
                0.4229869844109331
            ]
        },
        {
            "positions": [
                0.16901238994420165,
                -1.7969473086895351,
                -2.599435519014817,
                1.141315339956805,
                -0.14968394392700585,
                0.5386270364189579
            ]
        },
        {
            "positions": [
                0.16019896570667574,
                -1.811236855100221,
                -2.565998759555304,
                0.9900404704885574,
                -0.21272637321010593,
                0.6542670884269828
            ]
        },
        {
            "positions": [
                0.15138554146914984,
                -1.825526401510907,
                -2.532562000095791,
                0.8387656010203098,
                -0.27576880249320607,
                0.7699071404350076
            ]
        },
        {
            "positions": [
                0.14257211723162394,
                -1.8398159479215928,
                -2.499125240636278,
                0.6874907315520622,
                -0.3388112317763062,
                0.8855471924430325
            ]
        },
        {
            "positions": [
                0.13375869299409804,
                -1.8541054943322786,
                -2.4656884811767648,
                0.5362158620838147,
                -0.40185366105940623,
                1.0011872444510574
            ]
        },
        {
            "positions": [
                0.12494526875657214,
                -1.8683950407429644,
                -2.4322517217172517,
                0.3849409926155669,
                -0.4648960903425064,
                1.1168272964590824
            ]
        },
        {
            "positions": [
                0.11613184451904623,
                -1.8826845871536502,
                -2.3988149622577386,
                0.2336661231473196,
                -0.5279385196256066,
                1.232467348467107
            ]
        },
        {
            "positions": [
                0.10731842028152033,
                -1.896974133564336,
                -2.3653782027982255,
                0.08239125367907207,
                -0.5909809489087066,
                1.348107400475132
            ]
        },
        {
            "positions": [
                0.09850499604399443,
                -1.911263679975022,
                -2.3319414433387124,
                -0.06888361578917568,
                -0.6540233781918068,
                1.4637474524831569
            ]
        },
        {
            "positions": [
                0.08969157180646853,
                -1.9255532263857078,
                -2.2985046838791994,
                -0.2201584852574232,
                -0.7170658074749068,
                1.5793875044911818
            ]
        },
        {
            "positions": [
                0.08087814756894263,
                -1.9398427727963936,
                -2.2650679244196863,
                -0.37143335472567074,
                -0.7801082367580068,
                1.6950275564992063
            ]
        },
        {
            "positions": [
                0.07206472333141672,
                -1.9541323192070794,
                -2.231631164960173,
                -0.5227082241939183,
                -0.843150666041107,
                1.8106676085072313
            ]
        },
        {
            "positions": [
                0.06325129909389081,
                -1.9684218656177652,
                -2.19819440550066,
                -0.6739830936621662,
                -0.9061930953242072,
                1.9263076605152563
            ]
        },
        {
            "positions": [
                0.05443787485636492,
                -1.982711412028451,
                -2.164757646041147,
                -0.8252579631304133,
                -0.9692355246073072,
                2.0419477125232812
            ]
        },
        {
            "positions": [
                0.04562445061883902,
                -1.997000958439137,
                -2.131320886581634,
                -0.9765328325986609,
                -1.0322779538904074,
                2.1575877645313057
            ]
        },
        {
            "positions": [
                0.03681102638131312,
                -2.0112905048498226,
                -2.097884127122121,
                -1.1278077020669088,
                -1.0953203831735077,
                2.2732278165393307
            ]
        },
        {
            "positions": [
                0.027997602143787215,
                -2.0255800512605084,
                -2.0644473676626083,
                -1.279082571535156,
                -1.1583628124566074,
                2.3888678685473557
            ]
        },
        {
            "positions": [
                0.019184177906261313,
                -2.0398695976711947,
                -2.0310106082030948,
                -1.430357441003404,
                -1.2214052417397077,
                2.50450792055538
            ]
        },
        {
            "positions": [
                0.01037075366873541,
                -2.0541591440818805,
                -1.9975738487435817,
                -1.5816323104716514,
                -1.2844476710228079,
                2.620147972563405
            ]
        },
        {
            "positions": [
                0.0015573294312095087,
                -2.0684486904925663,
                -1.9641370892840688,
                -1.7329071799398985,
                -1.3474901003059079,
                2.73578802457143
            ]
        },
        {
            "positions": [
                -0.007256094806316393,
                -2.082738236903252,
                -1.9307003298245557,
                -1.8841820494081465,
                -1.410532529589008,
                2.851428076579455
            ]
        },
        {
            "positions": [
                -0.016069519043842295,
                -2.097027783313938,
                -1.8972635703650427,
                -2.035456918876394,
                -1.473574958872108,
                2.96706812858748
            ]
        },
        {
            "positions": [
                -0.024882943281368197,
                -2.1113173297246237,
                -1.8638268109055296,
                -2.1867317883446415,
                -1.536617388155208,
                3.0827081805955046
            ]
        },
        {
            "positions": [
                -0.033696367518894085,
                -2.1256068761353095,
                -1.8303900514460165,
                -2.338006657812889,
                -1.5996598174383083,
                3.1983482326035295
            ]
        }
    ]
}