{
    "goal": {
        "global_pose": {
            "orientation": {
                "w": 0.005598929693374612,
                "x": 0.007748599140229565,
                "y": 0.7110244013736278,
                "z": -0.7031023480610252
            },
            "position": {
                "x": -0.8858502320852131,
                "y": -0.7141253447532654,
                "z": 0.3711530566215515
            }
        },
        "name": "move_to_auspresseinheit_C"
    },
    "id": "ProjEST_move_to_auspresseinheit_C_111",
    "joint_names": [
        "shoulder_pan_joint",
        "shoulder_lift_joint",
        "elbow_joint",
        "wrist_1_joint",
        "wrist_2_joint",
        "wrist_3_joint"
    ],
    "metrics": {
        "cart_traj_len": 0.4949352013351683,
        "distance_elbow_joint": 1.0183255070802253,
        "distance_shoulder_lift_joint": 0.33281865176602243,
        "distance_shoulder_pan_joint": 0.25651640005749377,
        "distance_wrist_1_joint": 0.7129254265769994,
        "distance_wrist_2_joint": 1.3144467278469585,
        "distance_wrist_3_joint": 0.07758205587365685,
        "smoothness": 6.459479467149049e-16,
        "time": 1.855412148,
        "traj_len": 1.9268146691369556,
        "weighted_distance": 2.4279932115581846
    },
    "planner": "ProjEST",
    "start": {
        "state": {
            "elbow_joint": 1.7527959577730765,
            "shoulder_lift_joint": -0.9740617694224828,
            "shoulder_pan_joint": -2.967991417825869,
            "wrist_1_joint": -0.7595177689779385,
            "wrist_2_joint": 1.7443932448376545,
            "wrist_3_joint": 3.1991315425061013
        }
    },
    "waypoints": [
        {
            "positions": [
                -2.967991417825869,
                -0.9740617694224828,
                1.7527959577730765,
                -0.7595177689779385,
                1.7443932448376545,
                3.1991315425061013
            ]
        },
        {
            "positions": [
                -2.94233977782012,
                -0.9407799042458805,
                1.650963407065054,
                -0.6882252263202386,
                1.6129485720529586,
                3.1913733369187356
            ]
        },
        {
            "positions": [
                -2.9166881378143703,
                -0.9074980390692783,
                1.5491308563570314,
                -0.6169326836625386,
                1.4815038992682628,
                3.18361513133137
            ]
        },
        {
            "positions": [
                -2.8910364978086207,
                -0.874216173892676,
                1.447298305649009,
                -0.5456401410048387,
                1.350059226483567,
                3.175856925744004
            ]
        },
        {
            "positions": [
                -2.8653848578028716,
                -0.8409343087160738,
                1.3454657549409863,
                -0.47434759834713874,
                1.218614553698871,
                3.1680987201566384
            ]
        },
        {
            "positions": [
                -2.8397332177971224,
                -0.8076524435394716,
                1.2436332042329639,
                -0.40305505568943883,
                1.0871698809141752,
                3.160340514569273
            ]
        },
        {
            "positions": [
                -2.814081577791373,
                -0.7743705783628694,
                1.1418006535249412,
                -0.3317625130317389,
                0.9557252081294794,
                3.1525823089819074
            ]
        },
        {
            "positions": [
                -2.788429937785623,
                -0.7410887131862671,
                1.039968102816919,
                -0.26046997037403896,
                0.8242805353447836,
                3.1448241033945417
            ]
        },
        {
            "positions": [
                -2.762778297779874,
                -0.7078068480096649,
                0.9381355521088962,
                -0.18917742771633894,
                0.6928358625600877,
                3.137065897807176
            ]
        },
        {
            "positions": [
                -2.737126657774125,
                -0.6745249828330626,
                0.8363030014008738,
                -0.11788488505863903,
                0.5613911897753918,
                3.12930769221981
            ]
        },
        {
            "positions": [
                -2.7114750177683753,
                -0.6412431176564604,
                0.7344704506928513,
                -0.04659234240093915,
                0.42994651699069586,
                3.1215494866324445
            ]
        }
    ]
}