{
    "goal": {
        "global_pose": {
            "orientation": {
                "w": 0.7047431493862688,
                "x": -0.7094548369677653,
                "y": 0.0024358444001904,
                "z": -0.0022348060817251984
            },
            "position": {
                "x": -0.39052492380142206,
                "y": 0.3671506643295288,
                "z": 0.19426114857196808
            }
        },
        "name": "move_to_magneteinheit_D"
    },
    "id": "ProjEST_move_to_magneteinheit_D_37",
    "joint_names": [
        "shoulder_pan_joint",
        "shoulder_lift_joint",
        "elbow_joint",
        "wrist_1_joint",
        "wrist_2_joint",
        "wrist_3_joint"
    ],
    "metrics": {
        "cart_traj_len": 4.403535391912636,
        "distance_elbow_joint": 3.8939548305523486,
        "distance_shoulder_lift_joint": 1.6332852705644647,
        "distance_shoulder_pan_joint": 3.009902712574223,
        "distance_wrist_1_joint": 2.1298526647897558,
        "distance_wrist_2_joint": 2.0280736077817174,
        "distance_wrist_3_joint": 3.590804176619574,
        "smoothness": 0.2995043441534496,
        "time": 0.121536384,
        "traj_len": 4.035575951816802,
        "weighted_distance": 5.255987812837157
    },
    "planner": "ProjEST",
    "start": {
        "state": {
            "elbow_joint": 0.7495348899011911,
            "shoulder_lift_joint": -0.6476975780737668,
            "shoulder_pan_joint": -2.711696901376276,
            "wrist_1_joint": -0.0750647808097303,
            "wrist_2_joint": 0.43296659715458535,
            "wrist_3_joint": 3.1361499051832418
        }
    },
    "waypoints": [
        {
            "positions": [
                -2.711696901376276,
                -0.6476975780737668,
                0.7495348899011911,
                -0.0750647808097303,
                0.43296659715458535,
                3.1361499051832418
            ]
        },
        {
            "positions": [
                -2.729749994392555,
                -0.6808230291099451,
                0.8007194485856882,
                -0.10248150764553524,
                0.5149074756934574,
                2.9621341630162603
            ]
        },
        {
            "positions": [
                -2.7478030874088333,
                -0.7139484801461233,
                0.8519040072701853,
                -0.1298982344813402,
                0.5968483542323294,
                2.788118420849279
            ]
        },
        {
            "positions": [
                -2.7416459449510158,
                -0.7511382292476343,
                0.8830701987958898,
                -0.1544562786186653,
                0.6774947035702636,
                2.600262838257151
            ]
        },
        {
            "positions": [
                -2.735488802493198,
                -0.7883279783491453,
                0.9142363903215942,
                -0.17901432275599038,
                0.7581410529081978,
                2.412407255665024
            ]
        },
        {
            "positions": [
                -2.7293316600353803,
                -0.8255177274506562,
                0.9454025818472985,
                -0.20357236689331548,
                0.8387874022461319,
                2.224551673072896
            ]
        },
        {
            "positions": [
                -2.723174517577563,
                -0.8627074765521672,
                0.976568773373003,
                -0.22813041103064058,
                0.9194337515840662,
                2.0366960904807687
            ]
        },
        {
            "positions": [
                -2.717017375119745,
                -0.8998972256536781,
                1.0077349648987073,
                -0.25268845516796573,
                1.0000801009220004,
                1.8488405078886407
            ]
        },
        {
            "positions": [
                -2.7108602326619273,
                -0.9370869747551891,
                1.0389011564244117,
                -0.27724649930529077,
                1.0807264502599345,
                1.6609849252965132
            ]
        },
        {
            "positions": [
                -2.70470309020411,
                -0.9742767238567,
                1.0700673479501162,
                -0.3018045434426159,
                1.1613727995978689,
                1.4731293427043857
            ]
        },
        {
            "positions": [
                -2.698545947746292,
                -1.011466472958211,
                1.1012335394758206,
                -0.32636258757994097,
                1.2420191489358028,
                1.2852737601122581
            ]
        },
        {
            "positions": [
                -2.6923888052884744,
                -1.048656222059722,
                1.132399731001525,
                -0.3509206317172661,
                1.3226654982737371,
                1.0974181775201304
            ]
        },
        {
            "positions": [
                -2.5922487957541316,
                -1.0877898393175818,
                1.01067966105312,
                -0.2979003561781537,
                1.2908574495050416,
                1.0487140142189852
            ]
        },
        {
            "positions": [
                -2.492108786219789,
                -1.1269234565754418,
                0.8889595911047147,
                -0.2448800806390412,
                1.2590494007363457,
                1.0000098509178403
            ]
        },
        {
            "positions": [
                -2.3919687766854465,
                -1.1660570738333016,
                0.7672395211563096,
                -0.19185980509992875,
                1.2272413519676502,
                0.9513056876166952
            ]
        },
        {
            "positions": [
                -2.2918287671511037,
                -1.2051906910911614,
                0.6455194512079043,
                -0.1388395295608163,
                1.1954333031989544,
                0.9026015243155502
            ]
        },
        {
            "positions": [
                -2.191688757616761,
                -1.2443243083490214,
                0.5237993812594992,
                -0.08581925402170382,
                1.1636252544302588,
                0.8538973610144052
            ]
        },
        {
            "positions": [
                -2.091548748082418,
                -1.2834579256068812,
                0.4020793113110941,
                -0.03279897848259139,
                1.1318172056615632,
                0.80519319771326
            ]
        },
        {
            "positions": [
                -1.9914087385480757,
                -1.322591542864741,
                0.28035924136268886,
                0.020221297056521093,
                1.1000091568928676,
                0.756489034412115
            ]
        },
        {
            "positions": [
                -1.8912687290137329,
                -1.3617251601226008,
                0.15863917141428374,
                0.07324157259563352,
                1.0682011081241718,
                0.70778487111097
            ]
        },
        {
            "positions": [
                -1.7911287194793903,
                -1.4008587773804608,
                0.03691910146587851,
                0.126261848134746,
                1.0363930593554762,
                0.6590807078098249
            ]
        },
        {
            "positions": [
                -1.6909887099450476,
                -1.4399923946383206,
                -0.0848009684825266,
                0.17928212367385848,
                1.0045850105867804,
                0.6103765445086798
            ]
        },
        {
            "positions": [
                -1.5908487004107048,
                -1.4791260118961804,
                -0.20652103843093172,
                0.23230239921297086,
                0.9727769618180848,
                0.5616723812075348
            ]
        },
        {
            "positions": [
                -1.4907086908763623,
                -1.5182596291540404,
                -0.32824110837933684,
                0.28532267475208334,
                0.9409689130493892,
                0.5129682179063897
            ]
        },
        {
            "positions": [
                -1.3905686813420195,
                -1.5573932464119002,
                -0.44996117832774196,
                0.3383429502911958,
                0.9091608642806934,
                0.46426405460524467
            ]
        },
        {
            "positions": [
                -1.290428671807677,
                -1.59652686366976,
                -0.5716812482761473,
                0.3913632258303083,
                0.8773528155119978,
                0.41555989130409965
            ]
        },
        {
            "positions": [
                -1.190288662273334,
                -1.63566048092762,
                -0.6934013182245526,
                0.4443835013694208,
                0.845544766743302,
                0.3668557280029545
            ]
        },
        {
            "positions": [
                -1.0901486527389914,
                -1.6747940981854799,
                -0.8151213881729575,
                0.49740377690853316,
                0.8137367179746064,
                0.3181515647018095
            ]
        },
        {
            "positions": [
                -0.9900086432046487,
                -1.7139277154433399,
                -0.9368414581213629,
                0.5504240524476456,
                0.7819286692059108,
                0.26944740140066437
            ]
        },
        {
            "positions": [
                -0.8898686336703061,
                -1.7530613327011997,
                -1.058561528069768,
                0.6034443279867581,
                0.7501206204372152,
                0.22074323809951935
            ]
        },
        {
            "positions": [
                -0.7897286241359633,
                -1.7921949499590597,
                -1.1802815980181731,
                0.6564646035258705,
                0.7183125716685195,
                0.17203907479837421
            ]
        },
        {
            "positions": [
                -0.6895886146016208,
                -1.8313285672169193,
                -1.3020016679665782,
                0.709484879064983,
                0.6865045228998239,
                0.1233349114972293
            ]
        },
        {
            "positions": [
                -0.589448605067278,
                -1.8704621844747793,
                -1.4237217379149834,
                0.7625051546040955,
                0.6546964741311281,
                0.07463074819608417
            ]
        },
        {
            "positions": [
                -0.48930859553293526,
                -1.909595801732639,
                -1.5454418078633885,
                0.8155254301432078,
                0.6228884253624325,
                0.025926584894939264
            ]
        },
        {
            "positions": [
                -0.3891685859985925,
                -1.948729418990499,
                -1.667161877811794,
                0.8685457056823203,
                0.5910803765937368,
                -0.022777578406205867
            ]
        },
        {
            "positions": [
                -0.2890285764642502,
                -1.987863036248359,
                -1.7888819477601987,
                0.9215659812214327,
                0.5592723278250412,
                -0.071481741707351
            ]
        },
        {
            "positions": [
                -0.1888885669299074,
                -2.026996653506219,
                -1.9106020177086043,
                0.9745862567605452,
                0.5274642790563454,
                -0.12018590500849613
            ]
        },
        {
            "positions": [
                -0.08874855739556464,
                -2.0661302707640785,
                -2.032322087657009,
                1.0276065322996577,
                0.4956562302876498,
                -0.16889006830964104
            ]
        },
        {
            "positions": [
                0.011391452138778235,
                -2.1052638880219385,
                -2.1540421576054145,
                1.0806268078387702,
                0.46384818151895413,
                -0.21759423161078617
            ]
        },
        {
            "positions": [
                0.014129219968843249,
                -2.1327568160996173,
                -2.222429303915999,
                1.1523530549317857,
                0.4058460299984953,
                -0.17118923172163386
            ]
        },
        {
            "positions": [
                0.016866987798908262,
                -2.1602497441772956,
                -2.290816450226584,
                1.224079302024801,
                0.34784387847803644,
                -0.12478423183248155
            ]
        },
        {
            "positions": [
                0.019604755628973278,
                -2.1877426722549744,
                -2.3592035965371685,
                1.2958055491178166,
                0.2898417269575776,
                -0.07837923194332923
            ]
        },
        {
            "positions": [
                -0.08358958612295624,
                -2.234362760446603,
                -2.368946927493829,
                1.399440865641385,
                0.2370662592843747,
                -0.029456711864282385
            ]
        },
        {
            "positions": [
                -0.18678392787488576,
                -2.2809828486382315,
                -2.3786902584504896,
                1.5030761821649534,
                0.18429079161117182,
                0.019465808214764454
            ]
        }
    ]
}