{
    "goal": {
        "global_pose": {
            "orientation": {
                "w": 0.7031023480610252,
                "x": -0.7110244013736278,
                "y": 0.0077485991402295624,
                "z": 0.005598929693374583
            },
            "position": {
                "x": -0.8841497679147869,
                "y": 0.44412534475326537,
                "z": 0.3711530566215515
            }
        },
        "name": "move_to_auspresseinheit_D"
    },
    "id": "ProjEST_move_to_auspresseinheit_D_51",
    "joint_names": [
        "shoulder_pan_joint",
        "shoulder_lift_joint",
        "elbow_joint",
        "wrist_1_joint",
        "wrist_2_joint",
        "wrist_3_joint"
    ],
    "metrics": {
        "cart_traj_len": 0.3437335310437972,
        "distance_elbow_joint": 0.6353238686312392,
        "distance_shoulder_lift_joint": 0.11927297809216775,
        "distance_shoulder_pan_joint": 0.13487666454140196,
        "distance_wrist_1_joint": 0.5227637948584527,
        "distance_wrist_2_joint": 1.434778505366827,
        "distance_wrist_3_joint": 0.002446863106604358,
        "smoothness": 0.0,
        "time": 0.043105642,
        "traj_len": 1.688035152061915,
        "weighted_distance": 2.1936040438135547
    },
    "planner": "ProjEST",
    "start": {
        "state": {
            "elbow_joint": -1.8275484843655228,
            "shoulder_lift_joint": -2.1267897864000416,
            "shoulder_pan_joint": -0.035127520176001514,
            "wrist_1_joint": -2.3477863256791385,
            "wrist_2_joint": -1.605890476484521,
            "wrist_3_joint": -3.0880375317375353
        }
    },
    "waypoints": [
        {
            "positions": [
                -0.035127520176001514,
                -2.1267897864000416,
                -1.8275484843655228,
                -2.3477863256791385,
                -1.605890476484521,
                -3.0880375317375353
            ]
        },
        {
            "positions": [
                -0.05198710324367676,
                -2.1416989086615628,
                -1.7481330007866178,
                -2.413131800036445,
                -1.4265431633136676,
                -3.088343389625861
            ]
        },
        {
            "positions": [
                -0.068846686311352,
                -2.1566080309230835,
                -1.6687175172077129,
                -2.4784772743937515,
                -1.2471958501428142,
                -3.0886492475141862
            ]
        },
        {
            "positions": [
                -0.08570626937902726,
                -2.1715171531846043,
                -1.589302033628808,
                -2.543822748751058,
                -1.0678485369719608,
                -3.088955105402512
            ]
        },
        {
            "positions": [
                -0.1025658524467025,
                -2.1864262754461254,
                -1.5098865500499032,
                -2.609168223108365,
                -0.8885012238011075,
                -3.0892609632908377
            ]
        },
        {
            "positions": [
                -0.11942543551437773,
                -2.2013353977076466,
                -1.4304710664709983,
                -2.6745136974656716,
                -0.7091539106302541,
                -3.089566821179163
            ]
        },
        {
            "positions": [
                -0.136285018582053,
                -2.2162445199691674,
                -1.3510555828920934,
                -2.739859171822978,
                -0.5298065974594008,
                -3.0898726790674886
            ]
        },
        {
            "positions": [
                -0.15314460164972823,
                -2.231153642230688,
                -1.2716400993131884,
                -2.8052046461802846,
                -0.35045928428854745,
                -3.090178536955814
            ]
        },
        {
            "positions": [
                -0.17000418471740347,
                -2.2460627644922093,
                -1.1922246157342835,
                -2.870550120537591,
                -0.17111197111769413,
                -3.0904843948441396
            ]
        }
    ]
}