{
    "goal": {
        "global_pose": {
            "orientation": {
                "w": 0.7047431493862688,
                "x": -0.7094548369677653,
                "y": 0.0024358444001904,
                "z": -0.0022348060817251984
            },
            "position": {
                "x": -0.39052492380142206,
                "y": 0.3671506643295288,
                "z": 0.19426114857196808
            }
        },
        "name": "move_to_magneteinheit_D"
    },
    "id": "ProjEST_move_to_magneteinheit_D_66",
    "joint_names": [
        "shoulder_pan_joint",
        "shoulder_lift_joint",
        "elbow_joint",
        "wrist_1_joint",
        "wrist_2_joint",
        "wrist_3_joint"
    ],
    "metrics": {
        "cart_traj_len": 6.187148694481306,
        "distance_elbow_joint": 4.286389309534426,
        "distance_shoulder_lift_joint": 1.860405030995459,
        "distance_shoulder_pan_joint": 8.397461661605448,
        "distance_wrist_1_joint": 4.1623056154243265,
        "distance_wrist_2_joint": 3.1938221351697846,
        "distance_wrist_3_joint": 9.895878675575647,
        "smoothness": 0.4286842937510162,
        "time": 0.523208282,
        "traj_len": 5.638817467191599,
        "weighted_distance": 7.677509200909526
    },
    "planner": "ProjEST",
    "start": {
        "state": {
            "elbow_joint": 0.7495348899011911,
            "shoulder_lift_joint": -0.6476975780737668,
            "shoulder_pan_joint": -2.711696901376276,
            "wrist_1_joint": -0.0750647808097303,
            "wrist_2_joint": 0.43296659715458535,
            "wrist_3_joint": 3.1361499051832418
        }
    },
    "waypoints": [
        {
            "positions": [
                -2.711696901376276,
                -0.6476975780737668,
                0.7495348899011911,
                -0.0750647808097303,
                0.43296659715458535,
                3.1361499051832418
            ]
        },
        {
            "positions": [
                -2.7424045874028873,
                -0.6188494212634144,
                0.7414826337085065,
                -0.24962260911608053,
                0.37301775900310885,
                3.0728655957930284
            ]
        },
        {
            "positions": [
                -2.773112273429499,
                -0.5900012644530619,
                0.733430377515822,
                -0.4241804374224307,
                0.3130689208516323,
                3.0095812864028146
            ]
        },
        {
            "positions": [
                -2.80381995945611,
                -0.5611531076427094,
                0.7253781213231374,
                -0.598738265728781,
                0.25312008270015574,
                2.946296977012601
            ]
        },
        {
            "positions": [
                -2.834527645482721,
                -0.532304950832357,
                0.7173258651304528,
                -0.7732960940351312,
                0.19317124454867923,
                2.8830126676223875
            ]
        },
        {
            "positions": [
                -2.813972518493577,
                -0.5868240098553967,
                0.7532314348640613,
                -0.8113248915690908,
                0.10122975813544433,
                2.7295965287433313
            ]
        },
        {
            "positions": [
                -2.793417391504433,
                -0.6413430688784365,
                0.7891370045976698,
                -0.8493536891030504,
                0.009288271722209418,
                2.5761803898642746
            ]
        },
        {
            "positions": [
                -2.7728622645152896,
                -0.6958621279014764,
                0.8250425743312783,
                -0.8873824866370101,
                -0.08265321469102549,
                2.4227642509852183
            ]
        },
        {
            "positions": [
                -2.7523071375261456,
                -0.7503811869245162,
                0.8609481440648867,
                -0.9254112841709697,
                -0.1745947011042604,
                2.269348112106162
            ]
        },
        {
            "positions": [
                -2.7317520105370017,
                -0.8049002459475559,
                0.8968537137984952,
                -0.9634400817049293,
                -0.2665361875174953,
                2.115931973227106
            ]
        },
        {
            "positions": [
                -2.711196883547858,
                -0.8594193049705958,
                0.9327592835321037,
                -1.001468879238889,
                -0.3584776739307302,
                1.962515834348049
            ]
        },
        {
            "positions": [
                -2.690641756558714,
                -0.9139383639936356,
                0.9686648532657122,
                -1.0394976767728488,
                -0.4504191603439652,
                1.8090996954689929
            ]
        },
        {
            "positions": [
                -2.67008662956957,
                -0.9684574230166754,
                1.0045704229993206,
                -1.0775264743068083,
                -0.5423606467572,
                1.6556835565899364
            ]
        },
        {
            "positions": [
                -2.6495315025804262,
                -1.0229764820397151,
                1.040475992732929,
                -1.1155552718407677,
                -0.6343021331704348,
                1.50226741771088
            ]
        },
        {
            "positions": [
                -2.6289763755912823,
                -1.077495541062755,
                1.0763815624665376,
                -1.1535840693747275,
                -0.7262436195836699,
                1.3488512788318237
            ]
        },
        {
            "positions": [
                -2.6084212486021388,
                -1.1320146000857947,
                1.1122871322001462,
                -1.1916128669086872,
                -0.8181851059969047,
                1.1954351399527672
            ]
        },
        {
            "positions": [
                -2.587866121612995,
                -1.1865336591088345,
                1.1481927019337546,
                -1.2296416644426467,
                -0.9101265924101396,
                1.0420190010737107
            ]
        },
        {
            "positions": [
                -2.567310994623851,
                -1.2410527181318742,
                1.184098271667363,
                -1.2676704619766064,
                -1.0020680788233745,
                0.8886028621946545
            ]
        },
        {
            "positions": [
                -2.5467558676347073,
                -1.2955717771549142,
                1.2200038414009715,
                -1.305699259510566,
                -1.0940095652366095,
                0.7351867233155982
            ]
        },
        {
            "positions": [
                -2.5262007406455633,
                -1.350090836177954,
                1.25590941113458,
                -1.3437280570445256,
                -1.1859510516498444,
                0.5817705844365415
            ]
        },
        {
            "positions": [
                -2.5056456136564194,
                -1.4046098952009938,
                1.2918149808681885,
                -1.3817568545784853,
                -1.2778925380630792,
                0.4283544455574854
            ]
        },
        {
            "positions": [
                -2.3630866853188324,
                -1.410291346869079,
                1.2083849738911157,
                -1.3270382822720392,
                -1.2740521718435103,
                0.32351573408782996
            ]
        },
        {
            "positions": [
                -2.220527756981246,
                -1.4159727985371642,
                1.1249549669140426,
                -1.272319709965593,
                -1.270211805623941,
                0.21867702261817454
            ]
        },
        {
            "positions": [
                -2.077968828643659,
                -1.4216542502052494,
                1.0415249599369698,
                -1.217601137659147,
                -1.2663714394043721,
                0.11383831114851911
            ]
        },
        {
            "positions": [
                -1.9354099003060719,
                -1.4273357018733346,
                0.9580949529598968,
                -1.1628825653527008,
                -1.2625310731848032,
                0.008999599678863657
            ]
        },
        {
            "positions": [
                -1.7928509719684849,
                -1.43301715354142,
                0.874664945982824,
                -1.1081639930462546,
                -1.258690706965234,
                -0.0958391117907918
            ]
        },
        {
            "positions": [
                -1.6502920436308983,
                -1.4386986052095052,
                0.791234939005751,
                -1.0534454207398085,
                -1.254850340745665,
                -0.2006778232604472
            ]
        },
        {
            "positions": [
                -1.5077331152933113,
                -1.4443800568775904,
                0.7078049320286781,
                -0.9987268484333623,
                -1.2510099745260959,
                -0.3055165347301027
            ]
        },
        {
            "positions": [
                -1.3651741869557246,
                -1.4500615085456756,
                0.6243749250516052,
                -0.9440082761269162,
                -1.247169608306527,
                -0.4103552461997581
            ]
        },
        {
            "positions": [
                -1.2226152586181376,
                -1.4557429602137608,
                0.5409449180745323,
                -0.8892897038204701,
                -1.243329242086958,
                -0.5151939576694136
            ]
        },
        {
            "positions": [
                -1.0800563302805506,
                -1.461424411881846,
                0.45751491109745934,
                -0.834571131514024,
                -1.2394888758673888,
                -0.620032669139069
            ]
        },
        {
            "positions": [
                -0.9374974019429638,
                -1.4671058635499312,
                0.3740849041203864,
                -0.7798525592075778,
                -1.2356485096478198,
                -0.7248713806087246
            ]
        },
        {
            "positions": [
                -0.7949384736053771,
                -1.4727873152180164,
                0.2906548971433136,
                -0.7251339869011317,
                -1.2318081434282508,
                -0.8297100920783798
            ]
        },
        {
            "positions": [
                -0.6523795452677901,
                -1.4784687668861016,
                0.20722489016624057,
                -0.6704154145946856,
                -1.2279677772086817,
                -0.9345488035480354
            ]
        },
        {
            "positions": [
                -0.5098206169302033,
                -1.484150218554187,
                0.12379488318916776,
                -0.6156968422882394,
                -1.2241274109891127,
                -1.0393875150176908
            ]
        },
        {
            "positions": [
                -0.3672616885926163,
                -1.4898316702222723,
                0.040364876212094725,
                -0.5609782699817932,
                -1.2202870447695437,
                -1.1442262264873464
            ]
        },
        {
            "positions": [
                -0.22470276025502978,
                -1.4955131218903575,
                -0.04306513076497809,
                -0.5062596976753472,
                -1.2164466785499746,
                -1.2490649379570016
            ]
        },
        {
            "positions": [
                -0.08214383191744279,
                -1.5011945735584427,
                -0.1264951377420509,
                -0.451541125368901,
                -1.2126063123304056,
                -1.3539036494266572
            ]
        },
        {
            "positions": [
                0.0604150964201442,
                -1.5068760252265279,
                -0.20992514471912394,
                -0.39682255306245484,
                -1.2087659461108364,
                -1.4587423608963126
            ]
        },
        {
            "positions": [
                0.2029740247577312,
                -1.512557476894613,
                -0.29335515169619697,
                -0.3421039807560087,
                -1.2049255798912675,
                -1.563581072365968
            ]
        },
        {
            "positions": [
                0.3455329530953182,
                -1.5182389285626983,
                -0.3767851586732698,
                -0.2873854084495626,
                -1.2010852136716985,
                -1.6684197838356234
            ]
        },
        {
            "positions": [
                0.48809188143290516,
                -1.5239203802307835,
                -0.4602151656503428,
                -0.23266683614311634,
                -1.1972448474521293,
                -1.773258495305279
            ]
        },
        {
            "positions": [
                0.6306508097704917,
                -1.529601831898869,
                -0.5436451726274156,
                -0.17794826383667028,
                -1.1934044812325604,
                -1.8780972067749346
            ]
        },
        {
            "positions": [
                0.7732097381080782,
                -1.535283283566954,
                -0.6270751796044884,
                -0.12322969153022423,
                -1.1895641150129914,
                -1.9829359182445898
            ]
        },
        {
            "positions": [
                0.9157686664456652,
                -1.5409647352350393,
                -0.7105051865815613,
                -0.06851111922377817,
                -1.1857237487934222,
                -2.087774629714245
            ]
        },
        {
            "positions": [
                1.0583275947832522,
                -1.5466461869031245,
                -0.7939351935586343,
                -0.013792546917331894,
                -1.1818833825738533,
                -2.192613341183901
            ]
        },
        {
            "positions": [
                1.2008865231208392,
                -1.5523276385712097,
                -0.8773652005357073,
                0.04092602538911416,
                -1.1780430163542843,
                -2.2974520526535565
            ]
        },
        {
            "positions": [
                1.3434454514584262,
                -1.558009090239295,
                -0.9607952075127799,
                0.09564459769556044,
                -1.1742026501347151,
                -2.402290764123212
            ]
        },
        {
            "positions": [
                1.4860043797960127,
                -1.56369054190738,
                -1.044225214489853,
                0.1503631700020065,
                -1.1703622839151462,
                -2.5071294755928673
            ]
        },
        {
            "positions": [
                1.6285633081336002,
                -1.5693719935754653,
                -1.127655221466926,
                0.20508174230845277,
                -1.1665219176955772,
                -2.611968187062523
            ]
        },
        {
            "positions": [
                1.7711222364711867,
                -1.5750534452435505,
                -1.211085228443999,
                0.25980031461489883,
                -1.162681551476008,
                -2.7168068985321785
            ]
        },
        {
            "positions": [
                1.9136811648087733,
                -1.5807348969116357,
                -1.294515235421072,
                0.3145188869213451,
                -1.158841185256439,
                -2.8216456100018337
            ]
        },
        {
            "positions": [
                2.05624009314636,
                -1.586416348579721,
                -1.3779452423981446,
                0.36923745922779094,
                -1.1550008190368701,
                -2.926484321471489
            ]
        },
        {
            "positions": [
                2.1987990214839472,
                -1.5920978002478063,
                -1.4613752493752177,
                0.4239560315342372,
                -1.151160452817301,
                -3.0313230329411445
            ]
        },
        {
            "positions": [
                2.341357949821534,
                -1.5977792519158915,
                -1.5448052563522903,
                0.4786746038406833,
                -1.147320086597732,
                -3.1361617444108
            ]
        },
        {
            "positions": [
                2.483916878159121,
                -1.6034607035839767,
                -1.6282352633293633,
                0.5333931761471296,
                -1.1434797203781628,
                -3.2410004558804553
            ]
        },
        {
            "positions": [
                2.6264758064967078,
                -1.609142155252062,
                -1.7116652703064363,
                0.5881117484535756,
                -1.1396393541585939,
                -3.345839167350111
            ]
        },
        {
            "positions": [
                2.514349311190942,
                -1.6358206102206785,
                -1.7374453211414742,
                0.6234219315023094,
                -1.0861550923184493,
                -3.2095238145958094
            ]
        },
        {
            "positions": [
                2.4022228158851764,
                -1.662499065189295,
                -1.763225371976512,
                0.6587321145510432,
                -1.0326708304783048,
                -3.0732084618415074
            ]
        },
        {
            "positions": [
                2.2900963205794107,
                -1.6891775201579116,
                -1.78900542281155,
                0.6940422975997771,
                -0.9791865686381601,
                -2.936893109087206
            ]
        },
        {
            "positions": [
                2.177969825273645,
                -1.7158559751265283,
                -1.8147854736465878,
                0.7293524806485109,
                -0.9257023067980156,
                -2.800577756332904
            ]
        },
        {
            "positions": [
                2.065843329967879,
                -1.7425344300951449,
                -1.8405655244816255,
                0.7646626636972447,
                -0.8722180449578709,
                -2.6642624035786024
            ]
        },
        {
            "positions": [
                1.9537168346621132,
                -1.7692128850637614,
                -1.8663455753166633,
                0.7999728467459785,
                -0.8187337831177264,
                -2.5279470508243005
            ]
        },
        {
            "positions": [
                1.8415903393563475,
                -1.795891340032378,
                -1.8921256261517012,
                0.8352830297947123,
                -0.7652495212775818,
                -2.391631698069999
            ]
        },
        {
            "positions": [
                1.7294638440505818,
                -1.8225697950009945,
                -1.917905676986739,
                0.8705932128434462,
                -0.7117652594374373,
                -2.2553163453156975
            ]
        },
        {
            "positions": [
                1.6173373487448162,
                -1.849248249969611,
                -1.943685727821777,
                0.9059033958921798,
                -0.6582809975972927,
                -2.1190009925613955
            ]
        },
        {
            "positions": [
                1.5052108534390503,
                -1.8759267049382276,
                -1.9694657786568148,
                0.9412135789409137,
                -0.6047967357571481,
                -1.9826856398070938
            ]
        },
        {
            "positions": [
                1.3930843581332846,
                -1.902605159906844,
                -1.9952458294918527,
                0.9765237619896475,
                -0.5513124739170036,
                -1.846370287052792
            ]
        },
        {
            "positions": [
                1.280957862827519,
                -1.9292836148754606,
                -2.0210258803268903,
                1.0118339450383813,
                -0.497828212076859,
                -1.7100549342984905
            ]
        },
        {
            "positions": [
                1.1688313675217532,
                -1.9559620698440772,
                -2.0468059311619284,
                1.0471441280871152,
                -0.44434395023671447,
                -1.5737395815441886
            ]
        },
        {
            "positions": [
                1.0567048722159873,
                -1.982640524812694,
                -2.072585981996966,
                1.082454311135849,
                -0.3908596883965698,
                -1.4374242287898868
            ]
        },
        {
            "positions": [
                0.9445783769102218,
                -2.0093189797813102,
                -2.098366032832004,
                1.1177644941845828,
                -0.3373754265564254,
                -1.3011088760355856
            ]
        },
        {
            "positions": [
                0.8324518816044559,
                -2.035997434749927,
                -2.124146083667042,
                1.1530746772333167,
                -0.28389116471628073,
                -1.1647935232812836
            ]
        },
        {
            "positions": [
                0.72032538629869,
                -2.0626758897185438,
                -2.1499261345020795,
                1.1883848602820506,
                -0.23040690287613608,
                -1.0284781705269816
            ]
        },
        {
            "positions": [
                0.6081988909929246,
                -2.08935434468716,
                -2.1757061853371176,
                1.223695043330784,
                -0.17692264103599165,
                -0.8921628177726801
            ]
        },
        {
            "positions": [
                0.4960723956871589,
                -2.116032799655777,
                -2.201486236172155,
                1.259005226379518,
                -0.1234383791958471,
                -0.7558474650183786
            ]
        },
        {
            "positions": [
                0.38394590038139276,
                -2.1427112546243934,
                -2.2272662870071933,
                1.2943154094282519,
                -0.06995411735570234,
                -0.6195321122640767
            ]
        },
        {
            "positions": [
                0.2718194050756275,
                -2.16938970959301,
                -2.253046337842231,
                1.3296255924769858,
                -0.01646985551555802,
                -0.48321675950977516
            ]
        },
        {
            "positions": [
                0.1596929097698614,
                -2.1960681645616265,
                -2.278826388677269,
                1.3649357755257194,
                0.037014406324586746,
                -0.3469014067554732
            ]
        },
        {
            "positions": [
                0.04756641446409571,
                -2.222746619530243,
                -2.3046064395123067,
                1.4002459585744533,
                0.09049866816473129,
                -0.2105860540011717
            ]
        },
        {
            "positions": [
                -0.06456008084166998,
                -2.2494250744988595,
                -2.330386490347345,
                1.435556141623187,
                0.14398293000487583,
                -0.07427070124687019
            ]
        },
        {
            "positions": [
                -0.17668657614743552,
                -2.276103529467476,
                -2.3561665411823824,
                1.470866324671921,
                0.19746719184502037,
                0.06204465150743178
            ]
        },
        {
            "positions": [
                -0.18715165902286007,
                -2.277317354586406,
                -2.3878761881577657,
                1.4738566870770888,
                0.18986392180099904,
                0.05603886732269167
            ]
        }
    ]
}