{
    "goal": {
        "global_pose": {
            "orientation": {
                "w": 0.7031023480610252,
                "x": -0.7110244013736278,
                "y": 0.0077485991402295624,
                "z": 0.005598929693374583
            },
            "position": {
                "x": -0.8841497679147869,
                "y": 0.44412534475326537,
                "z": 0.3711530566215515
            }
        },
        "name": "move_to_auspresseinheit_D"
    },
    "id": "ProjEST_move_to_auspresseinheit_D_7",
    "joint_names": [
        "shoulder_pan_joint",
        "shoulder_lift_joint",
        "elbow_joint",
        "wrist_1_joint",
        "wrist_2_joint",
        "wrist_3_joint"
    ],
    "metrics": {
        "cart_traj_len": 0.34376590973271837,
        "distance_elbow_joint": 0.6437684795406935,
        "distance_shoulder_lift_joint": 0.12401731040577202,
        "distance_shoulder_pan_joint": 0.1334220869494627,
        "distance_wrist_1_joint": 0.53295533116943,
        "distance_wrist_2_joint": 1.4489402538498686,
        "distance_wrist_3_joint": 0.00017208529486367752,
        "smoothness": 1.9737298371844314e-16,
        "time": 0.037443758,
        "traj_len": 1.698021067952365,
        "weighted_distance": 2.2057913098974518
    },
    "planner": "ProjEST",
    "start": {
        "state": {
            "elbow_joint": -1.8275484843655228,
            "shoulder_lift_joint": -2.1267897864000416,
            "shoulder_pan_joint": -0.035127520176001514,
            "wrist_1_joint": -2.3477863256791385,
            "wrist_2_joint": -1.605890476484521,
            "wrist_3_joint": -3.0880375317375353
        }
    },
    "waypoints": [
        {
            "positions": [
                -0.035127520176001514,
                -2.1267897864000416,
                -1.8275484843655228,
                -2.3477863256791385,
                -1.605890476484521,
                -3.0880375317375353
            ]
        },
        {
            "positions": [
                -0.05180528104468435,
                -2.142291950200763,
                -1.7470774244229361,
                -2.414405742075317,
                -1.4247729447532875,
                -3.088059042399393
            ]
        },
        {
            "positions": [
                -0.06848304191336718,
                -2.1577941140014847,
                -1.6666063644803493,
                -2.481025158471496,
                -1.2436554130220538,
                -3.088080553061251
            ]
        },
        {
            "positions": [
                -0.08516080278205003,
                -2.1732962778022062,
                -1.5861353045377626,
                -2.547644574867675,
                -1.0625378812908202,
                -3.088102063723109
            ]
        },
        {
            "positions": [
                -0.10183856365073286,
                -2.188798441602928,
                -1.505664244595176,
                -2.6142639912638534,
                -0.8814203495595867,
                -3.088123574384967
            ]
        },
        {
            "positions": [
                -0.1185163245194157,
                -2.204300605403649,
                -1.4251931846525894,
                -2.680883407660032,
                -0.7003028178283531,
                -3.088145085046825
            ]
        },
        {
            "positions": [
                -0.13519408538809854,
                -2.2198027692043705,
                -1.3447221247100027,
                -2.7475028240562107,
                -0.5191852860971196,
                -3.088166595708683
            ]
        },
        {
            "positions": [
                -0.15187184625678138,
                -2.235304933005092,
                -1.2642510647674159,
                -2.81412224045239,
                -0.3380677543658861,
                -3.088188106370541
            ]
        },
        {
            "positions": [
                -0.1685496071254642,
                -2.2508070968058136,
                -1.1837800048248293,
                -2.8807416568485684,
                -0.1569502226346523,
                -3.088209617032399
            ]
        }
    ]
}