{
    "goal": {
        "global_pose": {
            "orientation": {
                "w": 0.005598929693374612,
                "x": 0.007748599140229565,
                "y": 0.7110244013736278,
                "z": -0.7031023480610252
            },
            "position": {
                "x": 0.1141497679147869,
                "y": -0.7141253447532654,
                "z": 0.3711530566215515
            }
        },
        "name": "move_to_auspresseinheit_B"
    },
    "id": "ProjEST_move_to_auspresseinheit_B_112",
    "joint_names": [
        "shoulder_pan_joint",
        "shoulder_lift_joint",
        "elbow_joint",
        "wrist_1_joint",
        "wrist_2_joint",
        "wrist_3_joint"
    ],
    "metrics": {
        "cart_traj_len": 0.5648849933547175,
        "distance_elbow_joint": 0.06395929956819546,
        "distance_shoulder_lift_joint": 0.29486500395102677,
        "distance_shoulder_pan_joint": 0.5783349325321538,
        "distance_wrist_1_joint": 0.3347246865756508,
        "distance_wrist_2_joint": 0.9896440208512751,
        "distance_wrist_3_joint": 0.0018008306892123294,
        "smoothness": 5.075305255429287e-16,
        "time": 0.114772313,
        "traj_len": 1.5044363642798302,
        "weighted_distance": 1.895072331857775
    },
    "planner": "ProjEST",
    "start": {
        "state": {
            "elbow_joint": 2.0193061681459312,
            "shoulder_lift_joint": -1.1220205130644991,
            "shoulder_pan_joint": -1.0952072088045026,
            "wrist_1_joint": -0.8559671810662515,
            "wrist_2_joint": 0.4759638712940361,
            "wrist_3_joint": 3.159081874192446
        }
    },
    "waypoints": [
        {
            "positions": [
                -1.0952072088045026,
                -1.1220205130644991,
                2.0193061681459312,
                -0.8559671810662515,
                0.4759638712940361,
                3.159081874192446
            ]
        },
        {
            "positions": [
                -1.1915963642265281,
                -1.1711646803896703,
                2.0086462848845654,
                -0.800179733303643,
                0.6409045414359154,
                3.159382012640648
            ]
        },
        {
            "positions": [
                -1.287985519648554,
                -1.2203088477148414,
                1.9979864016231994,
                -0.7443922855410345,
                0.8058452115777945,
                3.15968215108885
            ]
        },
        {
            "positions": [
                -1.3843746750705797,
                -1.2694530150400125,
                1.9873265183618334,
                -0.6886048377784261,
                0.9707858817196737,
                3.1599822895370524
            ]
        },
        {
            "positions": [
                -1.4807638304926052,
                -1.3185971823651836,
                1.9766666351004676,
                -0.6328173900158176,
                1.135726551861553,
                3.1602824279852544
            ]
        },
        {
            "positions": [
                -1.5771529859146307,
                -1.3677413496903548,
                1.9660067518391018,
                -0.5770299422532091,
                1.300667222003432,
                3.1605825664334564
            ]
        },
        {
            "positions": [
                -1.6735421413366565,
                -1.416885517015526,
                1.9553468685777358,
                -0.5212424944906007,
                1.4656078921453113,
                3.1608827048816583
            ]
        }
    ]
}