{
    "goal": {
        "global_pose": {
            "orientation": {
                "w": -0.4816463035849501,
                "x": 0.5182115481033762,
                "y": 0.4908360881923453,
                "z": -0.5084816262002911
            },
            "position": {
                "x": -0.8240239810943604,
                "y": -0.300875300988555,
                "z": 0.16403168439865112
            }
        },
        "name": "move_to_storage_C"
    },
    "id": "ProjEST_move_to_storage_C_138",
    "joint_names": [
        "shoulder_pan_joint",
        "shoulder_lift_joint",
        "elbow_joint",
        "wrist_1_joint",
        "wrist_2_joint",
        "wrist_3_joint"
    ],
    "metrics": {
        "cart_traj_len": 0.5767587060452838,
        "distance_elbow_joint": 0.25688337683597595,
        "distance_shoulder_lift_joint": 0.18909940978962492,
        "distance_shoulder_pan_joint": 0.495698898856908,
        "distance_wrist_1_joint": 0.0734757545832242,
        "distance_wrist_2_joint": 1.0605322338278191,
        "distance_wrist_3_joint": 0.05676384142018742,
        "smoothness": 2.5376526478085547e-16,
        "time": 0.300529994,
        "traj_len": 1.4602922705108519,
        "weighted_distance": 1.8384746902160927
    },
    "planner": "ProjEST",
    "start": {
        "state": {
            "elbow_joint": 2.0108683149792914,
            "shoulder_lift_joint": -1.1634956873317392,
            "shoulder_pan_joint": -2.4736205022346,
            "wrist_1_joint": -0.8367026793690192,
            "wrist_2_joint": 0.6746043897045053,
            "wrist_3_joint": 3.133522094754363
        }
    },
    "waypoints": [
        {
            "positions": [
                -2.4736205022346,
                -1.1634956873317392,
                2.0108683149792914,
                -0.8367026793690192,
                0.6746043897045053,
                3.133522094754363
            ]
        },
        {
            "positions": [
                -2.556236985377418,
                -1.1319791190334685,
                1.968054418839962,
                -0.8244567202718152,
                0.8513597620091418,
                3.142982734991061
            ]
        },
        {
            "positions": [
                -2.638853468520236,
                -1.1004625507351977,
                1.9252405227006328,
                -0.8122107611746111,
                1.0281151343137784,
                3.152443375227759
            ]
        },
        {
            "positions": [
                -2.721469951663054,
                -1.0689459824369267,
                1.8824266265613034,
                -0.7999648020774071,
                1.2048705066184149,
                3.161904015464457
            ]
        },
        {
            "positions": [
                -2.804086434805872,
                -1.037429414138656,
                1.839612730421974,
                -0.7877188429802031,
                1.3816258789230513,
                3.1713646557011548
            ]
        },
        {
            "positions": [
                -2.88670291794869,
                -1.0059128458403852,
                1.7967988342826449,
                -0.7754728838829991,
                1.558381251227688,
                3.1808252959378525
            ]
        },
        {
            "positions": [
                -2.969319401091508,
                -0.9743962775421143,
                1.7539849381433155,
                -0.763226924785795,
                1.7351366235323245,
                3.1902859361745506
            ]
        }
    ]
}