{
    "goal": {
        "global_pose": {
            "orientation": {
                "w": 0.005598929693374612,
                "x": 0.007748599140229565,
                "y": 0.7110244013736278,
                "z": -0.7031023480610252
            },
            "position": {
                "x": -0.8858502320852131,
                "y": -0.7141253447532654,
                "z": 0.3711530566215515
            }
        },
        "name": "move_to_auspresseinheit_C"
    },
    "id": "ProjEST_move_to_auspresseinheit_C_87",
    "joint_names": [
        "shoulder_pan_joint",
        "shoulder_lift_joint",
        "elbow_joint",
        "wrist_1_joint",
        "wrist_2_joint",
        "wrist_3_joint"
    ],
    "metrics": {
        "cart_traj_len": 0.49443718593485897,
        "distance_elbow_joint": 1.0173144350083592,
        "distance_shoulder_lift_joint": 0.3325514974958852,
        "distance_shoulder_pan_joint": 0.25609268891220616,
        "distance_wrist_1_joint": 0.7115315147235597,
        "distance_wrist_2_joint": 1.3181846643550352,
        "distance_wrist_3_joint": 0.08080761320919905,
        "smoothness": 3.2297397080004555e-16,
        "time": 2.1043767509999998,
        "traj_len": 1.9278180447605124,
        "weighted_distance": 2.4305994773308988
    },
    "planner": "ProjEST",
    "start": {
        "state": {
            "elbow_joint": 1.7527959577730765,
            "shoulder_lift_joint": -0.9740617694224828,
            "shoulder_pan_joint": -2.967991417825869,
            "wrist_1_joint": -0.7595177689779385,
            "wrist_2_joint": 1.7443932448376545,
            "wrist_3_joint": 3.1991315425061013
        }
    },
    "waypoints": [
        {
            "positions": [
                -2.967991417825869,
                -0.9740617694224828,
                1.7527959577730765,
                -0.7595177689779385,
                1.7443932448376545,
                3.1991315425061013
            ]
        },
        {
            "positions": [
                -2.9423821489346484,
                -0.9408066196728943,
                1.6510645142722407,
                -0.6883646175055825,
                1.612574778402151,
                3.1910507811851816
            ]
        },
        {
            "positions": [
                -2.916772880043428,
                -0.9075514699233057,
                1.5493330707714046,
                -0.6172114660332266,
                1.4807563119666474,
                3.1829700198642614
            ]
        },
        {
            "positions": [
                -2.891163611152207,
                -0.8742963201737173,
                1.4476016272705687,
                -0.5460583145608706,
                1.3489378455311438,
                3.1748892585433417
            ]
        },
        {
            "positions": [
                -2.8655543422609866,
                -0.8410411704241287,
                1.3458701837697329,
                -0.47490516308851466,
                1.2171193790956405,
                3.1668084972224215
            ]
        },
        {
            "positions": [
                -2.839945073369766,
                -0.8077860206745402,
                1.2441387402688968,
                -0.4037520116161587,
                1.085300912660137,
                3.158727735901502
            ]
        },
        {
            "positions": [
                -2.8143358044785454,
                -0.7745308709249517,
                1.1424072967680612,
                -0.33259886014380274,
                0.9534824462246333,
                3.150646974580582
            ]
        },
        {
            "positions": [
                -2.7887265355873248,
                -0.7412757211753631,
                1.0406758532672251,
                -0.2614457086714468,
                0.8216639797891299,
                3.142566213259662
            ]
        },
        {
            "positions": [
                -2.763117266696104,
                -0.7080205714257746,
                0.9389444097663892,
                -0.19029255719909077,
                0.6898455133536263,
                3.134485451938742
            ]
        },
        {
            "positions": [
                -2.7375079978048835,
                -0.674765421676186,
                0.8372129662655532,
                -0.11913940572673476,
                0.5580270469181228,
                3.126404690617822
            ]
        },
        {
            "positions": [
                -2.711898728913663,
                -0.6415102719265976,
                0.7354815227647173,
                -0.04798625425437881,
                0.4262085804826193,
                3.1183239292969023
            ]
        }
    ]
}