{
    "goal": {
        "global_pose": {
            "orientation": {
                "w": 0.5084816262002911,
                "x": -0.4908360881923452,
                "y": 0.5182115481033761,
                "z": -0.48164630358495003
            },
            "position": {
                "x": 0.5540239810943604,
                "y": -0.46912469901144505,
                "z": 0.16403168439865112
            }
        },
        "name": "move_to_storage_B"
    },
    "id": "ProjEST_move_to_storage_B_73",
    "joint_names": [
        "shoulder_pan_joint",
        "shoulder_lift_joint",
        "elbow_joint",
        "wrist_1_joint",
        "wrist_2_joint",
        "wrist_3_joint"
    ],
    "metrics": {
        "cart_traj_len": 1.9297826851996012,
        "distance_elbow_joint": 1.424163724533628,
        "distance_shoulder_lift_joint": 0.46034877165934596,
        "distance_shoulder_pan_joint": 1.756744739105434,
        "distance_wrist_1_joint": 3.014126836139306,
        "distance_wrist_2_joint": 2.699719682897112,
        "distance_wrist_3_joint": 3.6264213463744226,
        "smoothness": 0.2662890675956504,
        "time": 0.09349109,
        "traj_len": 3.6029883570043975,
        "weighted_distance": 5.093938978089011
    },
    "planner": "ProjEST",
    "start": {
        "state": {
            "elbow_joint": 1.6649325340416963,
            "shoulder_lift_joint": -0.6616387945129425,
            "shoulder_pan_joint": -0.9139837929255878,
            "wrist_1_joint": 2.1467571094334352,
            "wrist_2_joint": -2.234195976750228,
            "wrist_3_joint": 0.005470921511140723
        }
    },
    "waypoints": [
        {
            "positions": [
                -0.9139837929255878,
                -0.6616387945129425,
                1.6649325340416963,
                2.1467571094334352,
                -2.234195976750228,
                0.005470921511140723
            ]
        },
        {
            "positions": [
                -0.8424438618468132,
                -0.6961397858815865,
                1.6163351130668309,
                2.075156426832766,
                -2.1224747441437115,
                0.028854857037215232
            ]
        },
        {
            "positions": [
                -0.7709039307680385,
                -0.7306407772502307,
                1.5677376920919655,
                2.003555744232097,
                -2.010753511537195,
                0.05223879256328974
            ]
        },
        {
            "positions": [
                -0.699363999689264,
                -0.7651417686188747,
                1.5191402711171,
                1.9319550616314274,
                -1.8990322789306788,
                0.07562272808936424
            ]
        },
        {
            "positions": [
                -0.6278240686104892,
                -0.7996427599875189,
                1.4705428501422346,
                1.860354379030758,
                -1.7873110463241626,
                0.09900666361543875
            ]
        },
        {
            "positions": [
                -0.5562841375317147,
                -0.8341437513561629,
                1.4219454291673692,
                1.7887536964300887,
                -1.6755898137176461,
                0.12239059914151326
            ]
        },
        {
            "positions": [
                -0.48474420645294003,
                -0.868644742724807,
                1.3733480081925036,
                1.7171530138294195,
                -1.5638685811111297,
                0.14577453466758777
            ]
        },
        {
            "positions": [
                -0.4132042753741654,
                -0.903145734093451,
                1.3247505872176384,
                1.64555233122875,
                -1.4521473485046132,
                0.16915847019366229
            ]
        },
        {
            "positions": [
                -0.3416643442953907,
                -0.9376467254620952,
                1.2761531662427728,
                1.5739516486280807,
                -1.340426115898097,
                0.1925424057197368
            ]
        },
        {
            "positions": [
                -0.27012441321661596,
                -0.9721477168307393,
                1.2275557452679073,
                1.5023509660274112,
                -1.2287048832915806,
                0.21592634124581134
            ]
        },
        {
            "positions": [
                -0.1985844821378414,
                -1.0066487081993833,
                1.178958324293042,
                1.4307502834267423,
                -1.1169836506850643,
                0.23931027677188582
            ]
        },
        {
            "positions": [
                -0.1270445510590668,
                -1.0411496995680274,
                1.1303609033181765,
                1.3591496008260728,
                -1.0052624180785479,
                0.2626942122979603
            ]
        },
        {
            "positions": [
                -0.16921000746075868,
                -1.0446643894203866,
                1.1690388204403552,
                1.26234441267251,
                -0.9413151952861377,
                0.11620734031589061
            ]
        },
        {
            "positions": [
                -0.21137546386245054,
                -1.0481790792727457,
                1.2077167375625337,
                1.1655392245189473,
                -0.8773679724937276,
                -0.030279531666179083
            ]
        },
        {
            "positions": [
                -0.25354092026414243,
                -1.051693769125105,
                1.2463946546847124,
                1.0687340363653846,
                -0.8134207497013175,
                -0.17676640364824875
            ]
        },
        {
            "positions": [
                -0.29570637666583427,
                -1.0552084589774642,
                1.285072571806891,
                0.9719288482118218,
                -0.7494735269089072,
                -0.32325327563031847
            ]
        },
        {
            "positions": [
                -0.3378718330675261,
                -1.0587231488298232,
                1.3237504889290697,
                0.875123660058259,
                -0.6855263041164972,
                -0.46974014761238814
            ]
        },
        {
            "positions": [
                -0.380037289469218,
                -1.0622378386821825,
                1.3624284060512482,
                0.7783184719046963,
                -0.621579081324087,
                -0.6162270195944578
            ]
        },
        {
            "positions": [
                -0.4222027458709099,
                -1.0657525285345417,
                1.4011063231734269,
                0.6815132837511335,
                -0.5576318585316768,
                -0.7627138915765277
            ]
        },
        {
            "positions": [
                -0.4643682022726017,
                -1.0692672183869008,
                1.4397842402956056,
                0.5847080955975708,
                -0.4936846357392667,
                -0.9092007635585972
            ]
        },
        {
            "positions": [
                -0.5065336586742937,
                -1.07278190823926,
                1.478462157417784,
                0.487902907444008,
                -0.4297374129468565,
                -1.055687635540667
            ]
        },
        {
            "positions": [
                -0.5486991150759855,
                -1.0762965980916193,
                1.5171400745399626,
                0.39109771929044523,
                -0.36579019015444636,
                -1.2021745075227366
            ]
        },
        {
            "positions": [
                -0.5908645714776773,
                -1.0798112879439783,
                1.5558179916621413,
                0.2942925311368825,
                -0.3018429673620362,
                -1.3486613795048064
            ]
        },
        {
            "positions": [
                -0.6330300278793692,
                -1.0833259777963375,
                1.59449590878432,
                0.1974873429833197,
                -0.23789574456962614,
                -1.495148251486876
            ]
        },
        {
            "positions": [
                -0.675195484281061,
                -1.0868406676486966,
                1.6331738259064985,
                0.10068215482975695,
                -0.17394852177721598,
                -1.6416351234689455
            ]
        },
        {
            "positions": [
                -0.717360940682753,
                -1.0903553575010558,
                1.6718517430286772,
                0.0038769666761941934,
                -0.1100012989848057,
                -1.7881219954510157
            ]
        },
        {
            "positions": [
                -0.7595263970844448,
                -1.093870047353415,
                1.710529660150856,
                -0.09292822147736857,
                -0.046054076192395654,
                -1.9346088674330852
            ]
        },
        {
            "positions": [
                -0.8016918534861366,
                -1.0973847372057741,
                1.7492075772730344,
                -0.18973340963093133,
                0.01789314660001451,
                -2.081095739415155
            ]
        },
        {
            "positions": [
                -0.8438573098878286,
                -1.1008994270581334,
                1.787885494395213,
                -0.2865385977844941,
                0.08184036939242456,
                -2.2275826113972244
            ]
        },
        {
            "positions": [
                -0.8860227662895204,
                -1.1044141169104926,
                1.8265634115173919,
                -0.38334378593805685,
                0.14578759218483484,
                -2.3740694833792944
            ]
        },
        {
            "positions": [
                -0.9281882226912124,
                -1.1079288067628517,
                1.8652413286395704,
                -0.4801489740916196,
                0.2097348149772449,
                -2.520556355361364
            ]
        },
        {
            "positions": [
                -0.9703536790929042,
                -1.111443496615211,
                1.9039192457617489,
                -0.5769541622451824,
                0.27368203776965516,
                -2.6670432273434335
            ]
        },
        {
            "positions": [
                -1.012519135494596,
                -1.1149581864675702,
                1.9425971628839274,
                -0.6737593503987451,
                0.3376292605620652,
                -2.813530099325503
            ]
        },
        {
            "positions": [
                -1.054684591896288,
                -1.1184728763199292,
                1.9812750800061063,
                -0.7705645385523079,
                0.4015764833544755,
                -2.960016971307573
            ]
        },
        {
            "positions": [
                -1.0968500482979797,
                -1.1219875661722885,
                2.019952997128285,
                -0.8673697267058706,
                0.46552370614688565,
                -3.1065038432896426
            ]
        }
    ]
}