{
    "goal": {
        "global_pose": {
            "orientation": {
                "w": -0.00223480608172531,
                "x": 0.0024358444001904467,
                "y": 0.7094548369677653,
                "z": -0.704743149386269
            },
            "position": {
                "x": -0.37947507619857795,
                "y": -0.6371506643295288,
                "z": 0.19426114857196808
            }
        },
        "name": "move_to_magneteinheit_C"
    },
    "id": "ProjEST_move_to_magneteinheit_C_24",
    "joint_names": [
        "shoulder_pan_joint",
        "shoulder_lift_joint",
        "elbow_joint",
        "wrist_1_joint",
        "wrist_2_joint",
        "wrist_3_joint"
    ],
    "metrics": {
        "cart_traj_len": 2.2468261281482715,
        "distance_elbow_joint": 2.9612938076679693,
        "distance_shoulder_lift_joint": 0.7846353400071027,
        "distance_shoulder_pan_joint": 2.088781267428012,
        "distance_wrist_1_joint": 2.18255430877001,
        "distance_wrist_2_joint": 4.967030485293341,
        "distance_wrist_3_joint": 6.80889791221389,
        "smoothness": 0.7247373120032145,
        "time": 2.184073475,
        "traj_len": 4.448954160404479,
        "weighted_distance": 6.368718374984992
    },
    "planner": "ProjEST",
    "start": {
        "state": {
            "elbow_joint": 1.9565354006593851,
            "shoulder_lift_joint": -1.4165861576512813,
            "shoulder_pan_joint": -1.6717766223278752,
            "wrist_1_joint": -0.528663328821883,
            "wrist_2_joint": 1.472756589259273,
            "wrist_3_joint": 3.159348288315503
        }
    },
    "waypoints": [
        {
            "positions": [
                -1.6717766223278752,
                -1.4165861576512813,
                1.9565354006593851,
                -0.528663328821883,
                1.472756589259273,
                3.159348288315503
            ]
        },
        {
            "positions": [
                -1.5851905576677487,
                -1.4470296975223444,
                1.963003608742583,
                -0.4660974266087458,
                1.505198987827285,
                3.00042129558552
            ]
        },
        {
            "positions": [
                -1.528905293895624,
                -1.4640010108321129,
                1.9017769424010487,
                -0.4706840964384267,
                1.4658831528930711,
                2.8064564139801593
            ]
        },
        {
            "positions": [
                -1.4726200301234995,
                -1.4809723241418815,
                1.8405502760595145,
                -0.47527076626810755,
                1.4265673179588576,
                2.6124915323747993
            ]
        },
        {
            "positions": [
                -1.4163347663513748,
                -1.49794363745165,
                1.77932360971798,
                -0.4798574360977884,
                1.3872514830246438,
                2.418526650769439
            ]
        },
        {
            "positions": [
                -1.3600495025792503,
                -1.5149149507614184,
                1.718096943376446,
                -0.4844441059274693,
                1.34793564809043,
                2.2245617691640787
            ]
        },
        {
            "positions": [
                -1.3037642388071256,
                -1.5318862640711868,
                1.6568702770349115,
                -0.48903077575715015,
                1.3086198131562163,
                2.030596887558718
            ]
        },
        {
            "positions": [
                -1.247478975035001,
                -1.5488575773809554,
                1.5956436106933773,
                -0.493617445586831,
                1.2693039782220028,
                1.836632005953358
            ]
        },
        {
            "positions": [
                -1.1911937112628763,
                -1.5658288906907238,
                1.534416944351843,
                -0.4982041154165119,
                1.229988143287789,
                1.6426671243479978
            ]
        },
        {
            "positions": [
                -1.2476469088436062,
                -1.5394579767283385,
                1.4803559390564909,
                -0.48671213037323935,
                1.092570867057175,
                1.542243023810106
            ]
        },
        {
            "positions": [
                -1.3041001064243358,
                -1.5130870627659532,
                1.4262949337611388,
                -0.4752201453299668,
                0.9551535908265608,
                1.441818923272214
            ]
        },
        {
            "positions": [
                -1.3605533040050657,
                -1.4867161488035678,
                1.3722339284657867,
                -0.4637281602866942,
                0.8177363145959466,
                1.3413948227343222
            ]
        },
        {
            "positions": [
                -1.4170065015857956,
                -1.4603452348411823,
                1.3181729231704347,
                -0.4522361752434217,
                0.6803190383653326,
                1.2409707221964303
            ]
        },
        {
            "positions": [
                -1.4734596991665252,
                -1.433974320878797,
                1.2641119178750826,
                -0.44074419020014916,
                0.5429017621347184,
                1.1405466216585385
            ]
        },
        {
            "positions": [
                -1.529912896747255,
                -1.4076034069164116,
                1.2100509125797307,
                -0.42925220515687657,
                0.40548448590410435,
                1.0401225211206464
            ]
        },
        {
            "positions": [
                -1.586366094327985,
                -1.3812324929540263,
                1.1559899072843787,
                -0.41776022011360403,
                0.2680672096734902,
                0.9396984205827547
            ]
        },
        {
            "positions": [
                -1.6428192919087146,
                -1.354861578991641,
                1.1019289019890266,
                -0.4062682350703315,
                0.13064993344287612,
                0.8392743200448628
            ]
        },
        {
            "positions": [
                -1.6992724894894444,
                -1.3284906650292556,
                1.0478678966936745,
                -0.39477625002705896,
                -0.006767342787738162,
                0.7388502195069709
            ]
        },
        {
            "positions": [
                -1.755725687070174,
                -1.3021197510668703,
                0.9938068913983223,
                -0.3832842649837864,
                -0.14418461901835222,
                0.638426118969079
            ]
        },
        {
            "positions": [
                -1.812178884650904,
                -1.2757488371044847,
                0.9397458861029703,
                -0.37179227994051384,
                -0.2816018952489665,
                0.5380020184311871
            ]
        },
        {
            "positions": [
                -1.8686320822316338,
                -1.2493779231420994,
                0.8856848808076183,
                -0.3603002948972413,
                -0.41901917147958034,
                0.43757791789329525
            ]
        },
        {
            "positions": [
                -1.9250852798123637,
                -1.223007009179714,
                0.8316238755122661,
                -0.3488083098539687,
                -0.5564364477101946,
                0.3371538173554032
            ]
        },
        {
            "positions": [
                -1.9815384773930935,
                -1.1966360952173287,
                0.7775628702169142,
                -0.3373163248106962,
                -0.6938537239408087,
                0.23672971681751154
            ]
        },
        {
            "positions": [
                -2.0379916749738234,
                -1.1702651812549432,
                0.723501864921562,
                -0.32582433976742364,
                -0.8312710001714227,
                0.13630561627961946
            ]
        },
        {
            "positions": [
                -2.094444872554553,
                -1.1438942672925578,
                0.66944085962621,
                -0.3143323547241511,
                -0.9686882764020368,
                0.03588151574172782
            ]
        },
        {
            "positions": [
                -2.1508980701352827,
                -1.1175233533301725,
                0.615379854330858,
                -0.3028403696808786,
                -1.1061055526326513,
                -0.06454258479616426
            ]
        },
        {
            "positions": [
                -2.2073512677160125,
                -1.0911524393677872,
                0.5613188490355059,
                -0.29134838463760604,
                -1.2435228288632654,
                -0.1649666853340559
            ]
        },
        {
            "positions": [
                -2.2638044652967424,
                -1.0647815254054018,
                0.5072578437401538,
                -0.27985639959433345,
                -1.3809401050938797,
                -0.265390785871948
            ]
        },
        {
            "positions": [
                -2.298642149270004,
                -1.0617732716097181,
                0.5967350530493313,
                -0.23011321761437398,
                -1.295814607486116,
                -0.16080690734172517
            ]
        },
        {
            "positions": [
                -2.333479833243265,
                -1.0587650178140342,
                0.6862122623585087,
                -0.1803700356344145,
                -1.2106891098783523,
                -0.056223028811502374
            ]
        },
        {
            "positions": [
                -2.3683175172165267,
                -1.0557567640183505,
                0.7756894716676862,
                -0.13062685365445503,
                -1.1255636122705888,
                0.048360849718720456
            ]
        },
        {
            "positions": [
                -2.3927371591073854,
                -1.0548566733175642,
                0.8620057612714477,
                -0.08410344242152472,
                -1.0277479429988634,
                0.154466995091438
            ]
        },
        {
            "positions": [
                -2.4171568009982436,
                -1.0539565826167776,
                0.9483220508752093,
                -0.037580031188594404,
                -0.929932273727138,
                0.26057314046415553
            ]
        },
        {
            "positions": [
                -2.4415764428891022,
                -1.0530564919159913,
                1.0346383404789707,
                0.008943380044335897,
                -0.8321166044554127,
                0.36667928583687304
            ]
        },
        {
            "positions": [
                -2.465996084779961,
                -1.052156401215205,
                1.1209546300827322,
                0.055466791277266225,
                -0.7343009351836872,
                0.4727854312095906
            ]
        },
        {
            "positions": [
                -2.490415726670819,
                -1.0512563105144184,
                1.2072709196864937,
                0.10199020251019653,
                -0.6364852659119619,
                0.578891576582308
            ]
        },
        {
            "positions": [
                -2.5148353685616778,
                -1.050356219813632,
                1.2935872092902552,
                0.14851361374312683,
                -0.5386695966402365,
                0.6849977219550256
            ]
        },
        {
            "positions": [
                -2.539255010452536,
                -1.0494561291128455,
                1.3799034988940169,
                0.19503702497605718,
                -0.44085392736851114,
                0.7911038673277432
            ]
        },
        {
            "positions": [
                -2.5636746523433946,
                -1.0485560384120591,
                1.4662197884977783,
                0.24156043620898748,
                -0.3430382580967857,
                0.8972100127004607
            ]
        },
        {
            "positions": [
                -2.5880942942342533,
                -1.0476559477112728,
                1.5525360781015398,
                0.28808384744191784,
                -0.24522258882506032,
                1.0033161580731784
            ]
        },
        {
            "positions": [
                -2.6125139361251115,
                -1.0467558570104862,
                1.6388523677053013,
                0.3346072586748481,
                -0.14740691955333496,
                1.1094223034458957
            ]
        },
        {
            "positions": [
                -2.63693357801597,
                -1.0458557663097,
                1.7251686573090628,
                0.38113066990777844,
                -0.0495912502816096,
                1.2155284488186133
            ]
        },
        {
            "positions": [
                -2.6233953705484767,
                -1.055474056525253,
                1.7485994090601822,
                0.2804184255390438,
                0.01016709463438184,
                1.374131749096603
            ]
        },
        {
            "positions": [
                -2.6098571630809837,
                -1.065092346740806,
                1.7720301608113016,
                0.1797061811703091,
                0.06992543955037328,
                1.5327350493745926
            ]
        },
        {
            "positions": [
                -2.5963189556134902,
                -1.0747106369563588,
                1.795460912562421,
                0.0789939368015744,
                0.12968378446636472,
                1.6913383496525825
            ]
        },
        {
            "positions": [
                -2.582780748145997,
                -1.0843289271719119,
                1.8188916643135402,
                -0.021718307567160255,
                0.18944212938235616,
                1.849941649930572
            ]
        },
        {
            "positions": [
                -2.5692425406785038,
                -1.093947217387465,
                1.8423224160646596,
                -0.12243055193589503,
                0.24920047429834763,
                2.008544950208562
            ]
        },
        {
            "positions": [
                -2.5557043332110103,
                -1.103565507603018,
                1.865753167815779,
                -0.22314279630462963,
                0.30895881921433904,
                2.1671482504865516
            ]
        },
        {
            "positions": [
                -2.542166125743517,
                -1.113183797818571,
                1.8891839195668985,
                -0.32385504067336435,
                0.3687171641303305,
                2.3257515507645414
            ]
        },
        {
            "positions": [
                -2.528627918276024,
                -1.122802088034124,
                1.9126146713180179,
                -0.42456728504209895,
                0.4284755090463219,
                2.484354851042531
            ]
        },
        {
            "positions": [
                -2.5150897108085304,
                -1.1324203782496771,
                1.936045423069137,
                -0.5252795294108337,
                0.48823385396231334,
                2.6429581513205207
            ]
        },
        {
            "positions": [
                -2.501551503341037,
                -1.14203866846523,
                1.9594761748202565,
                -0.6259917737795685,
                0.5479921988783049,
                2.8015614515985106
            ]
        },
        {
            "positions": [
                -2.488013295873544,
                -1.151656958680783,
                1.982906926571376,
                -0.726704018148303,
                0.6077505437942963,
                2.9601647518765
            ]
        },
        {
            "positions": [
                -2.4744750884060505,
                -1.161275248896336,
                2.0063376783224953,
                -0.8274162625170376,
                0.6675088887102877,
                3.11876805215449
            ]
        }
    ]
}