{
    "goal": {
        "global_pose": {
            "orientation": {
                "w": 0.7047431468963623,
                "x": -0.7094548344612122,
                "y": 0.0024358443915843964,
                "z": -0.0022348060738295317
            },
            "position": {
                "x": 0.6094750761985779,
                "y": 0.3671506643295288,
                "z": 0.19426114857196808
            }
        },
        "name": "move_to_magneteinheit_A"
    },
    "id": "ProjEST_move_to_magneteinheit_A_53",
    "joint_names": [
        "shoulder_pan_joint",
        "shoulder_lift_joint",
        "elbow_joint",
        "wrist_1_joint",
        "wrist_2_joint",
        "wrist_3_joint"
    ],
    "metrics": {
        "cart_traj_len": 1.9614169891664772,
        "distance_elbow_joint": 3.564736008305677,
        "distance_shoulder_lift_joint": 0.7824320373607765,
        "distance_shoulder_pan_joint": 1.242587080951439,
        "distance_wrist_1_joint": 1.2264841854772055,
        "distance_wrist_2_joint": 1.4335013914005874,
        "distance_wrist_3_joint": 2.0369273058361235,
        "smoothness": 4.934324565125532e-16,
        "time": 0.192298365,
        "traj_len": 3.207283587294988,
        "weighted_distance": 4.125591860313118
    },
    "planner": "ProjEST",
    "start": {
        "state": {
            "elbow_joint": -1.5739458827952972,
            "shoulder_lift_joint": 0.006533473998580023,
            "shoulder_pan_joint": -1.1188671628667068,
            "wrist_1_joint": 3.138208179676308,
            "wrist_2_joint": -1.5706037135050406,
            "wrist_3_joint": -2.0226958329764257
        }
    },
    "waypoints": [
        {
            "positions": [
                -1.1188671628667068,
                0.006533473998580023,
                -1.5739458827952972,
                3.138208179676308,
                -1.5706037135050406,
                -2.0226958329764257
            ]
        },
        {
            "positions": [
                -1.0710753520608822,
                -0.023560065899911383,
                -1.4368406517066172,
                3.091035711004108,
                -1.515469044605018,
                -1.9443524750596517
            ]
        },
        {
            "positions": [
                -1.0232835412550576,
                -0.05365360579840279,
                -1.2997354206179375,
                3.043863242331908,
                -1.4603343757049954,
                -1.8660091171428779
            ]
        },
        {
            "positions": [
                -0.9754917304492331,
                -0.08374714569689419,
                -1.1626301895292577,
                2.9966907736597075,
                -1.4051997068049729,
                -1.7876657592261038
            ]
        },
        {
            "positions": [
                -0.9276999196434086,
                -0.1138406855953856,
                -1.0255249584405777,
                2.949518304987507,
                -1.3500650379049501,
                -1.7093224013093298
            ]
        },
        {
            "positions": [
                -0.879908108837584,
                -0.143934225493877,
                -0.8884197273518978,
                2.902345836315307,
                -1.2949303690049276,
                -1.6309790433925557
            ]
        },
        {
            "positions": [
                -0.8321162980317593,
                -0.1740277653923684,
                -0.7513144962632179,
                2.855173367643107,
                -1.2397957001049051,
                -1.552635685475782
            ]
        },
        {
            "positions": [
                -0.7843244872259348,
                -0.20412130529085978,
                -0.6142092651745381,
                2.808000898970907,
                -1.1846610312048824,
                -1.474292327559008
            ]
        },
        {
            "positions": [
                -0.7365326764201102,
                -0.2342148451893512,
                -0.4771040340858581,
                2.7608284302987065,
                -1.1295263623048597,
                -1.3959489696422338
            ]
        },
        {
            "positions": [
                -0.6887408656142857,
                -0.2643083850878426,
                -0.33999880299717833,
                2.713655961626506,
                -1.0743916934048372,
                -1.31760561172546
            ]
        },
        {
            "positions": [
                -0.6409490548084611,
                -0.29440192498633405,
                -0.20289357190849833,
                2.666483492954306,
                -1.0192570245048147,
                -1.239262253808686
            ]
        },
        {
            "positions": [
                -0.5931572440026365,
                -0.32449546488482545,
                -0.06578834081981855,
                2.619311024282106,
                -0.9641223556047921,
                -1.1609188958919119
            ]
        },
        {
            "positions": [
                -0.5453654331968119,
                -0.35458900478331684,
                0.07131689026886145,
                2.5721385556099055,
                -0.9089876867047695,
                -1.082575537975138
            ]
        },
        {
            "positions": [
                -0.49757362239098735,
                -0.38468254468180824,
                0.20842212135754123,
                2.5249660869377055,
                -0.8538530178047469,
                -1.004232180058364
            ]
        },
        {
            "positions": [
                -0.44978181158516284,
                -0.41477608458029963,
                0.345527352446221,
                2.477793618265505,
                -0.7987183489047243,
                -0.9258888221415902
            ]
        },
        {
            "positions": [
                -0.4019900007793382,
                -0.444869624478791,
                0.4826325835349008,
                2.430621149593305,
                -0.7435836800047018,
                -0.8475454642248161
            ]
        },
        {
            "positions": [
                -0.3541981899735136,
                -0.4749631643772825,
                0.619737814623581,
                2.383448680921105,
                -0.688449011104679,
                -0.7692021063080421
            ]
        },
        {
            "positions": [
                -0.306406379167689,
                -0.5050567042757738,
                0.7568430457122608,
                2.3362762122489045,
                -0.6333143422046565,
                -0.690858748391268
            ]
        },
        {
            "positions": [
                -0.25861456836186447,
                -0.5351502441742652,
                0.8939482768009406,
                2.289103743576704,
                -0.5781796733046339,
                -0.6125153904744942
            ]
        },
        {
            "positions": [
                -0.21082275755603996,
                -0.5652437840727565,
                1.0310535078896204,
                2.241931274904504,
                -0.5230450044046113,
                -0.5341720325577202
            ]
        },
        {
            "positions": [
                -0.16303094675021523,
                -0.5953373239712481,
                1.1681587389783006,
                2.194758806232304,
                -0.4679103355045886,
                -0.4558286746409461
            ]
        },
        {
            "positions": [
                -0.11523913594439072,
                -0.6254308638697395,
                1.3052639700669804,
                2.147586337560104,
                -0.4127756666045661,
                -0.37748531672417207
            ]
        },
        {
            "positions": [
                -0.0674473251385661,
                -0.6555244037682308,
                1.4423692011556601,
                2.1004138688879035,
                -0.3576409977045436,
                -0.29914195880739824
            ]
        },
        {
            "positions": [
                -0.019655514332741708,
                -0.6856179436667222,
                1.57947443224434,
                2.053241400215703,
                -0.3025063288045209,
                -0.2207986008906242
            ]
        },
        {
            "positions": [
                0.028136296473083133,
                -0.7157114835652136,
                1.7165796633330201,
                2.0060689315435027,
                -0.2473716599044984,
                -0.14245524297385015
            ]
        },
        {
            "positions": [
                0.07592810727890753,
                -0.745805023463705,
                1.8536848944217,
                1.9588964628713028,
                -0.19223699100447567,
                -0.0641118850570761
            ]
        },
        {
            "positions": [
                0.12371991808473218,
                -0.7758985633621964,
                1.9907901255103795,
                1.9117239941991027,
                -0.13710232210445314,
                0.014231472859697562
            ]
        }
    ]
}