{
    "goal": {
        "global_pose": {
            "orientation": {
                "w": -0.00223480608172531,
                "x": 0.0024358444001904467,
                "y": 0.7094548369677653,
                "z": -0.704743149386269
            },
            "position": {
                "x": 0.6205249238014221,
                "y": -0.6371506643295288,
                "z": 0.19426114857196808
            }
        },
        "name": "move_to_magneteinheit_B"
    },
    "id": "ProjEST_move_to_magneteinheit_B_16",
    "joint_names": [
        "shoulder_pan_joint",
        "shoulder_lift_joint",
        "elbow_joint",
        "wrist_1_joint",
        "wrist_2_joint",
        "wrist_3_joint"
    ],
    "metrics": {
        "cart_traj_len": 1.4527721517040664,
        "distance_elbow_joint": 0.72956998996346,
        "distance_shoulder_lift_joint": 1.2479540153971205,
        "distance_shoulder_pan_joint": 1.6215044247172612,
        "distance_wrist_1_joint": 2.6061227751480236,
        "distance_wrist_2_joint": 2.9391985550839133,
        "distance_wrist_3_joint": 3.151953228792749,
        "smoothness": 1.076579911191508e-16,
        "time": 0.24691760799999998,
        "traj_len": 3.5066084738822108,
        "weighted_distance": 4.913810209696743
    },
    "planner": "ProjEST",
    "start": {
        "state": {
            "elbow_joint": 2.393587130804639,
            "shoulder_lift_joint": -1.9085141043513325,
            "shoulder_pan_joint": 0.7066247066698809,
            "wrist_1_joint": -0.4678290934590222,
            "wrist_2_joint": 0.7096259084215963,
            "wrist_3_joint": 3.147370379541726
        }
    },
    "waypoints": [
        {
            "positions": [
                0.7066247066698809,
                -1.9085141043513325,
                2.393587130804639,
                -0.4678290934590222,
                0.7096259084215963,
                3.147370379541726
            ]
        },
        {
            "positions": [
                0.6559526933974664,
                -1.8695155413701725,
                2.3707880686182805,
                -0.3863877567356464,
                0.6177759535752241,
                3.0488718411419526
            ]
        },
        {
            "positions": [
                0.6052806801250521,
                -1.8305169783890125,
                2.3479890064319227,
                -0.3049464200122707,
                0.5259259987288518,
                2.9503733027421792
            ]
        },
        {
            "positions": [
                0.5546086668526377,
                -1.7915184154078525,
                2.3251899442455644,
                -0.22350508328889493,
                0.43407604388247945,
                2.851874764342406
            ]
        },
        {
            "positions": [
                0.5039366535802232,
                -1.7525198524266925,
                2.3023908820592065,
                -0.14206374656551918,
                0.3422260890361072,
                2.7533762259426324
            ]
        },
        {
            "positions": [
                0.4532646403078088,
                -1.7135212894455325,
                2.279591819872848,
                -0.060622409842143454,
                0.2503761341897349,
                2.654877687542859
            ]
        },
        {
            "positions": [
                0.4025926270353944,
                -1.6745227264643725,
                2.25679275768649,
                0.020818926881232325,
                0.15852617934336255,
                2.5563791491430856
            ]
        },
        {
            "positions": [
                0.35192061376298,
                -1.6355241634832125,
                2.233993695500132,
                0.1022602636046081,
                0.06667622449699029,
                2.457880610743312
            ]
        },
        {
            "positions": [
                0.30124860049056557,
                -1.5965256005020523,
                2.2111946333137737,
                0.18370160032798383,
                -0.025173730349381973,
                2.359382072343539
            ]
        },
        {
            "positions": [
                0.2505765872181511,
                -1.5575270375208925,
                2.1883955711274155,
                0.26514293705135955,
                -0.11702368519575423,
                2.2608835339437654
            ]
        },
        {
            "positions": [
                0.19990457394573669,
                -1.5185284745397323,
                2.1655965089410576,
                0.3465842737747353,
                -0.2088736400421265,
                2.162384995543992
            ]
        },
        {
            "positions": [
                0.14923256067332236,
                -1.4795299115585723,
                2.1427974467546993,
                0.4280256104981111,
                -0.30072359488849876,
                2.0638864571442186
            ]
        },
        {
            "positions": [
                0.09856054740090792,
                -1.4405313485774123,
                2.1199983845683414,
                0.5094669472214868,
                -0.39257354973487124,
                1.9653879187444452
            ]
        },
        {
            "positions": [
                0.047888534128493476,
                -1.4015327855962523,
                2.097199322381983,
                0.5909082839448627,
                -0.4844235045812435,
                1.8668893803446718
            ]
        },
        {
            "positions": [
                -0.002783479143920853,
                -1.3625342226150923,
                2.074400260195625,
                0.6723496206682384,
                -0.5762734594276158,
                1.7683908419448984
            ]
        },
        {
            "positions": [
                -0.05345549241633529,
                -1.3235356596339323,
                2.051601198009267,
                0.7537909573916142,
                -0.668123414273988,
                1.669892303545125
            ]
        },
        {
            "positions": [
                -0.10412750568874973,
                -1.2845370966527723,
                2.0288021358229087,
                0.8352322941149899,
                -0.7599733691203603,
                1.5713937651453516
            ]
        },
        {
            "positions": [
                -0.15479951896116417,
                -1.2455385336716123,
                2.006003073636551,
                0.9166736308383656,
                -0.8518233239667325,
                1.4728952267455782
            ]
        },
        {
            "positions": [
                -0.2054715322335786,
                -1.2065399706904523,
                1.9832040114501925,
                0.9981149675617413,
                -0.9436732788131048,
                1.3743966883458048
            ]
        },
        {
            "positions": [
                -0.25614354550599294,
                -1.1675414077092923,
                1.9604049492638345,
                1.079556304285117,
                -1.035523233659477,
                1.2758981499460313
            ]
        },
        {
            "positions": [
                -0.3068155587784075,
                -1.1285428447281323,
                1.9376058870774764,
                1.1609976410084928,
                -1.1273731885058493,
                1.177399611546258
            ]
        },
        {
            "positions": [
                -0.3574875720508218,
                -1.089544281746972,
                1.914806824891118,
                1.2424389777318687,
                -1.2192231433522218,
                1.0789010731464845
            ]
        },
        {
            "positions": [
                -0.40815958532323615,
                -1.0505457187658123,
                1.89200776270476,
                1.3238803144552445,
                -1.3110730981985939,
                0.9804025347467111
            ]
        },
        {
            "positions": [
                -0.4588315985956507,
                -1.011547155784652,
                1.869208700518402,
                1.4053216511786202,
                -1.4029230530449663,
                0.8819039963469377
            ]
        },
        {
            "positions": [
                -0.509503611868065,
                -0.9725485928034922,
                1.8464096383320439,
                1.486762987901996,
                -1.4947730078913388,
                0.7834054579471643
            ]
        },
        {
            "positions": [
                -0.5601756251404794,
                -0.9335500298223322,
                1.8236105761456858,
                1.5682043246253718,
                -1.5866229627377109,
                0.6849069195473909
            ]
        },
        {
            "positions": [
                -0.6108476384128939,
                -0.894551466841172,
                1.8008115139593275,
                1.6496456613487476,
                -1.6784729175840833,
                0.5864083811476175
            ]
        },
        {
            "positions": [
                -0.6615196516853082,
                -0.855552903860012,
                1.7780124517729694,
                1.7310869980721233,
                -1.7703228724304554,
                0.4879098427478441
            ]
        },
        {
            "positions": [
                -0.7121916649577226,
                -0.816554340878852,
                1.7552133895866113,
                1.812528334795499,
                -1.8621728272768279,
                0.3894113043480707
            ]
        },
        {
            "positions": [
                -0.7628636782301371,
                -0.777555777897692,
                1.732414327400253,
                1.8939696715188747,
                -1.9540227821232,
                0.2909127659482973
            ]
        },
        {
            "positions": [
                -0.8135356915025515,
                -0.738557214916532,
                1.7096152652138952,
                1.9754110082422505,
                -2.0458727369695726,
                0.1924142275485239
            ]
        },
        {
            "positions": [
                -0.864207704774966,
                -0.699558651935372,
                1.6868162030275369,
                2.056852344965626,
                -2.137722691815944,
                0.09391568914875048
            ]
        },
        {
            "positions": [
                -0.9148797180473804,
                -0.6605600889542119,
                1.6640171408411788,
                2.1382936816890017,
                -2.2295726466623167,
                -0.004582849251022946
            ]
        }
    ]
}