{
    "goal": {
        "global_pose": {
            "orientation": {
                "w": 0.7047431493862688,
                "x": -0.7094548369677653,
                "y": 0.0024358444001904,
                "z": -0.0022348060817251984
            },
            "position": {
                "x": -0.39052492380142206,
                "y": 0.3671506643295288,
                "z": 0.19426114857196808
            }
        },
        "name": "move_to_magneteinheit_D"
    },
    "id": "ProjEST_move_to_magneteinheit_D_95",
    "joint_names": [
        "shoulder_pan_joint",
        "shoulder_lift_joint",
        "elbow_joint",
        "wrist_1_joint",
        "wrist_2_joint",
        "wrist_3_joint"
    ],
    "metrics": {
        "cart_traj_len": 4.592974903481407,
        "distance_elbow_joint": 3.9269891530242025,
        "distance_shoulder_lift_joint": 2.2153637328302476,
        "distance_shoulder_pan_joint": 4.147640111508297,
        "distance_wrist_1_joint": 6.187354115740169,
        "distance_wrist_2_joint": 4.258818435196236,
        "distance_wrist_3_joint": 9.160197406319725,
        "smoothness": 0.27021031982239474,
        "time": 0.46321548599999995,
        "traj_len": 5.4677566656370935,
        "weighted_distance": 7.6591729526231935
    },
    "planner": "ProjEST",
    "start": {
        "state": {
            "elbow_joint": 0.7495348899011911,
            "shoulder_lift_joint": -0.6476975780737668,
            "shoulder_pan_joint": -2.711696901376276,
            "wrist_1_joint": -0.0750647808097303,
            "wrist_2_joint": 0.43296659715458535,
            "wrist_3_joint": 3.1361499051832418
        }
    },
    "waypoints": [
        {
            "positions": [
                -2.711696901376276,
                -0.6476975780737668,
                0.7495348899011911,
                -0.0750647808097303,
                0.43296659715458535,
                3.1361499051832418
            ]
        },
        {
            "positions": [
                -2.7368137857202535,
                -0.6075574593758847,
                0.6653746899942663,
                -0.28977122882943995,
                0.4446534626861967,
                3.117492542090232
            ]
        },
        {
            "positions": [
                -2.761930670064231,
                -0.5674173406780026,
                0.5812144900873416,
                -0.5044776768491497,
                0.456340328217808,
                3.0988351789972226
            ]
        },
        {
            "positions": [
                -2.7870475544082085,
                -0.5272772219801205,
                0.4970542901804168,
                -0.7191841248688594,
                0.46802719374941937,
                3.080177815904213
            ]
        },
        {
            "positions": [
                -2.790556301081509,
                -0.498610792354662,
                0.4176546029351954,
                -0.9171991186556121,
                0.4698560317583664,
                3.051531689502439
            ]
        },
        {
            "positions": [
                -2.7940650477548092,
                -0.46994436272920354,
                0.33825491568997396,
                -1.1152141124423647,
                0.4716848697673134,
                3.0228855631006644
            ]
        },
        {
            "positions": [
                -2.79757379442811,
                -0.441277933103745,
                0.2588552284447525,
                -1.3132291062291173,
                0.4735137077762604,
                2.99423943669889
            ]
        },
        {
            "positions": [
                -2.8010825411014104,
                -0.41261150347828657,
                0.1794555411995311,
                -1.5112441000158698,
                0.4753425457852074,
                2.9655933102971157
            ]
        },
        {
            "positions": [
                -2.8045912877747106,
                -0.38394507385282806,
                0.10005585395430966,
                -1.7092590938026229,
                0.4771713837941544,
                2.9369471838953416
            ]
        },
        {
            "positions": [
                -2.808100034448011,
                -0.35527864422736954,
                0.02065616670908825,
                -1.9072740875893752,
                0.4790002218031014,
                2.908301057493567
            ]
        },
        {
            "positions": [
                -2.722532995509931,
                -0.3709060363761328,
                -0.05117438802187506,
                -1.9195040821707121,
                0.42120424088274855,
                2.7568923998568042
            ]
        },
        {
            "positions": [
                -2.636965956571851,
                -0.38653342852489597,
                -0.12300494275283837,
                -1.9317340767520488,
                0.3634082599623957,
                2.6054837422200414
            ]
        },
        {
            "positions": [
                -2.5513989176337706,
                -0.4021608206736592,
                -0.1948354974838017,
                -1.9439640713333857,
                0.3056122790420428,
                2.454075084583278
            ]
        },
        {
            "positions": [
                -2.4658318786956905,
                -0.4177882128224224,
                -0.26666605221476497,
                -1.9561940659147223,
                0.2478162981216899,
                2.3026664269465154
            ]
        },
        {
            "positions": [
                -2.3802648397576105,
                -0.43341560497118564,
                -0.3384966069457283,
                -1.9684240604960592,
                0.19002031720133705,
                2.1512577693097525
            ]
        },
        {
            "positions": [
                -2.29469780081953,
                -0.4490429971199489,
                -0.41032716167669164,
                -1.980654055077396,
                0.13222433628098412,
                1.9998491116729897
            ]
        },
        {
            "positions": [
                -2.20913076188145,
                -0.46467038926871207,
                -0.482157716407655,
                -1.9928840496587328,
                0.07442835536063125,
                1.8484404540362267
            ]
        },
        {
            "positions": [
                -2.12356372294337,
                -0.4802977814174753,
                -0.5539882711386183,
                -2.0051140442400697,
                0.016632374440278375,
                1.6970317963994639
            ]
        },
        {
            "positions": [
                -2.0379966840052894,
                -0.49592517356623855,
                -0.6258188258695817,
                -2.017344038821406,
                -0.041163606480074555,
                1.5456231387627009
            ]
        },
        {
            "positions": [
                -1.9524296450672096,
                -0.5115525657150017,
                -0.6976493806005449,
                -2.029574033402743,
                -0.09895958740042732,
                1.3942144811259383
            ]
        },
        {
            "positions": [
                -1.8668626061291294,
                -0.5271799578637649,
                -0.7694799353315083,
                -2.04180402798408,
                -0.1567555683207803,
                1.2428058234891752
            ]
        },
        {
            "positions": [
                -1.7812955671910493,
                -0.5428073500125282,
                -0.8413104900624716,
                -2.054034022565417,
                -0.21455154924113318,
                1.0913971658524122
            ]
        },
        {
            "positions": [
                -1.6957285282529693,
                -0.5584347421612914,
                -0.9131410447934348,
                -2.0662640171467532,
                -0.27234753016148605,
                0.9399885082156494
            ]
        },
        {
            "positions": [
                -1.610161489314889,
                -0.5740621343100546,
                -0.9849715995243983,
                -2.07849401172809,
                -0.3301435110818389,
                0.7885798505788864
            ]
        },
        {
            "positions": [
                -1.5245944503768087,
                -0.5896895264588179,
                -1.0568021542553614,
                -2.090724006309427,
                -0.3879394920021919,
                0.6371711929421235
            ]
        },
        {
            "positions": [
                -1.4390274114387287,
                -0.6053169186075811,
                -1.1286327089863246,
                -2.102954000890764,
                -0.4457354729225447,
                0.48576253530536073
            ]
        },
        {
            "positions": [
                -1.3534603725006484,
                -0.6209443107563444,
                -1.200463263717288,
                -2.1151839954721003,
                -0.5035314538428975,
                0.3343538776685975
            ]
        },
        {
            "positions": [
                -1.2678933335625682,
                -0.6365717029051075,
                -1.2722938184482515,
                -2.1274139900534372,
                -0.5613274347632505,
                0.18294522003183467
            ]
        },
        {
            "positions": [
                -1.1823262946244881,
                -0.6521990950538707,
                -1.3441243731792147,
                -2.139643984634774,
                -0.6191234156836033,
                0.031536562395071854
            ]
        },
        {
            "positions": [
                -1.096759255686408,
                -0.6678264872026339,
                -1.415954927910178,
                -2.151873979216111,
                -0.6769193966039561,
                -0.11987209524169051
            ]
        },
        {
            "positions": [
                -1.011192216748328,
                -0.6834538793513971,
                -1.4877854826411412,
                -2.1641039737974475,
                -0.734715377524309,
                -0.27128075287845377
            ]
        },
        {
            "positions": [
                -0.9256251778102478,
                -0.6990812715001604,
                -1.5596160373721046,
                -2.1763339683787843,
                -0.792511358444662,
                -0.4226894105152166
            ]
        },
        {
            "positions": [
                -0.8400581388721675,
                -0.7147086636489236,
                -1.631446592103068,
                -2.1885639629601212,
                -0.850307339365015,
                -0.5740980681519798
            ]
        },
        {
            "positions": [
                -0.7544910999340875,
                -0.7303360557976868,
                -1.7032771468340313,
                -2.200793957541458,
                -0.9081033202853678,
                -0.7255067257887426
            ]
        },
        {
            "positions": [
                -0.668924060996007,
                -0.7459634479464501,
                -1.7751077015649948,
                -2.2130239521227946,
                -0.9658993012057208,
                -0.8769153834255059
            ]
        },
        {
            "positions": [
                -0.5833570220579274,
                -0.7615908400952133,
                -1.8469382562959578,
                -2.2252539467041315,
                -1.0236952821260736,
                -1.0283240410622683
            ]
        },
        {
            "positions": [
                -0.4977899831198469,
                -0.7772182322439765,
                -1.9187688110269212,
                -2.2374839412854683,
                -1.0814912630464262,
                -1.1797326986990315
            ]
        },
        {
            "positions": [
                -0.41222294418176686,
                -0.7928456243927398,
                -1.9905993657578847,
                -2.2497139358668052,
                -1.1392872439667792,
                -1.3311413563357943
            ]
        },
        {
            "positions": [
                -0.3266559052436864,
                -0.8084730165415029,
                -2.062429920488848,
                -2.261943930448142,
                -1.1970832248871321,
                -1.4825500139725571
            ]
        },
        {
            "positions": [
                -0.24108886630560633,
                -0.8241004086902661,
                -2.1342604752198113,
                -2.2741739250294786,
                -1.2548792058074851,
                -1.63395867160932
            ]
        },
        {
            "positions": [
                -0.1555218273675263,
                -0.8397278008390294,
                -2.2060910299507746,
                -2.2864039196108155,
                -1.3126751867278377,
                -1.7853673292460828
            ]
        },
        {
            "positions": [
                -0.06995478842944625,
                -0.8553551929877926,
                -2.2779215846817378,
                -2.2986339141921523,
                -1.3704711676481907,
                -1.9367759868828456
            ]
        },
        {
            "positions": [
                0.015612250508633796,
                -0.8709825851365558,
                -2.3497521394127014,
                -2.310863908773489,
                -1.4282671485685436,
                -2.0881846445196084
            ]
        },
        {
            "positions": [
                0.10117928944671428,
                -0.8866099772853191,
                -2.4215826941436647,
                -2.3230939033548257,
                -1.4860631294888966,
                -2.239593302156372
            ]
        },
        {
            "positions": [
                0.18674632838479432,
                -0.9022373694340823,
                -2.493413248874628,
                -2.3353238979361626,
                -1.5438591104092496,
                -2.391001959793135
            ]
        },
        {
            "positions": [
                0.2723133673228748,
                -0.9178647615828455,
                -2.5652438036055916,
                -2.3475538925174995,
                -1.6016550913296026,
                -2.5424106174298977
            ]
        },
        {
            "positions": [
                0.3578804062609544,
                -0.9334921537316087,
                -2.6370743583365543,
                -2.3597838870988364,
                -1.6594510722499551,
                -2.6938192750666605
            ]
        },
        {
            "positions": [
                0.4434474451990349,
                -0.949119545880372,
                -2.708904913067518,
                -2.372013881680173,
                -1.7172470531703081,
                -2.8452279327034233
            ]
        },
        {
            "positions": [
                0.5290144841371149,
                -0.9647469380291351,
                -2.7807354677984812,
                -2.3842438762615097,
                -1.7750430340906609,
                -2.9966365903401866
            ]
        },
        {
            "positions": [
                0.5043895717284447,
                -1.010039231311276,
                -2.7670555093390146,
                -2.250513703148117,
                -1.707500221861214,
                -2.892243110657556
            ]
        },
        {
            "positions": [
                0.47976465931977447,
                -1.055331524593417,
                -2.7533755508795483,
                -2.1167835300347244,
                -1.639957409631767,
                -2.787849630974925
            ]
        },
        {
            "positions": [
                0.4551397469111042,
                -1.1006238178755576,
                -2.7396955924200816,
                -1.9830533569213316,
                -1.5724145974023203,
                -2.6834561512922948
            ]
        },
        {
            "positions": [
                0.430514834502434,
                -1.1459161111576985,
                -2.726015633960615,
                -1.8493231838079391,
                -1.5048717851728735,
                -2.579062671609664
            ]
        },
        {
            "positions": [
                0.40588992209376373,
                -1.1912084044398394,
                -2.7123356755011483,
                -1.7155930106945463,
                -1.4373289729434264,
                -2.474669191927033
            ]
        },
        {
            "positions": [
                0.38126500968509347,
                -1.2365006977219801,
                -2.698655717041682,
                -1.5818628375811536,
                -1.3697861607139796,
                -2.3702757122444025
            ]
        },
        {
            "positions": [
                0.3566400972764232,
                -1.281792991004121,
                -2.6849757585822154,
                -1.448132664467761,
                -1.3022433484845326,
                -2.265882232561772
            ]
        },
        {
            "positions": [
                0.332015184867753,
                -1.327085284286262,
                -2.6712958001227487,
                -1.3144024913543684,
                -1.2347005362550858,
                -2.161488752879141
            ]
        },
        {
            "positions": [
                0.30739027245908274,
                -1.3723775775684028,
                -2.657615841663282,
                -1.1806723182409755,
                -1.167157724025639,
                -2.05709527319651
            ]
        },
        {
            "positions": [
                0.2827653600504125,
                -1.4176698708505437,
                -2.643935883203816,
                -1.0469421451275829,
                -1.099614911796192,
                -1.9527017935138797
            ]
        },
        {
            "positions": [
                0.25814044764174227,
                -1.4629621641326844,
                -2.630255924744349,
                -0.9132119720141902,
                -1.0320720995667452,
                -1.8483083138312493
            ]
        },
        {
            "positions": [
                0.233515535233072,
                -1.5082544574148253,
                -2.6165759662848824,
                -0.7794817989007976,
                -0.9645292873372983,
                -1.7439148341486184
            ]
        },
        {
            "positions": [
                0.20889062282440174,
                -1.5535467506969662,
                -2.602896007825416,
                -0.645751625787405,
                -0.8969864751078513,
                -1.6395213544659877
            ]
        },
        {
            "positions": [
                0.18426571041573153,
                -1.598839043979107,
                -2.5892160493659495,
                -0.5120214526740121,
                -0.8294436628784044,
                -1.535127874783357
            ]
        },
        {
            "positions": [
                0.15964079800706127,
                -1.644131337261248,
                -2.575536090906483,
                -0.3782912795606195,
                -0.7619008506489575,
                -1.4307343951007263
            ]
        },
        {
            "positions": [
                0.13501588559839106,
                -1.6894236305433887,
                -2.561856132447016,
                -0.24456110644722706,
                -0.6943580384195107,
                -1.3263409154180958
            ]
        },
        {
            "positions": [
                0.11039097318972085,
                -1.7347159238255294,
                -2.54817617398755,
                -0.1108309333338342,
                -0.6268152261900639,
                -1.2219474357354652
            ]
        },
        {
            "positions": [
                0.08576606078105053,
                -1.7800082171076705,
                -2.5344962155280832,
                0.022899239779558656,
                -0.5592724139606169,
                -1.1175539560528343
            ]
        },
        {
            "positions": [
                0.06114114837238033,
                -1.8253005103898112,
                -2.5208162570686166,
                0.15662941289295107,
                -0.4917296017311701,
                -1.0131604763702038
            ]
        },
        {
            "positions": [
                0.03651623596371001,
                -1.8705928036719524,
                -2.50713629860915,
                0.29035958600634393,
                -0.42418678950172306,
                -0.9087669966875729
            ]
        },
        {
            "positions": [
                0.011891323555039857,
                -1.915885096954093,
                -2.4934563401496836,
                0.42408975911973634,
                -0.35664397727227626,
                -0.8043735170049424
            ]
        },
        {
            "positions": [
                -0.012733588853630406,
                -1.9611773902362337,
                -2.479776381690217,
                0.5578199322331292,
                -0.28910116504282946,
                -0.699980037322312
            ]
        },
        {
            "positions": [
                -0.03735850126230067,
                -2.006469683518375,
                -2.4660964232307503,
                0.6915501053465221,
                -0.22155835281338243,
                -0.595586557639681
            ]
        },
        {
            "positions": [
                -0.06198341367097093,
                -2.0517619768005155,
                -2.452416464771284,
                0.8252802784599145,
                -0.15401554058393563,
                -0.49119307795705014
            ]
        },
        {
            "positions": [
                -0.08660832607964108,
                -2.0970542700826567,
                -2.4387365063118174,
                0.9590104515733069,
                -0.08647272835448883,
                -0.3867995982744197
            ]
        },
        {
            "positions": [
                -0.11123323848831146,
                -2.1423465633647973,
                -2.4250565478523507,
                1.0927406246866997,
                -0.0189299161250418,
                -0.28240611859178877
            ]
        },
        {
            "positions": [
                -0.1358581508969816,
                -2.187638856646938,
                -2.4113765893928845,
                1.2264707978000926,
                0.048612896104405,
                -0.1780126389091583
            ]
        },
        {
            "positions": [
                -0.16048306330565187,
                -2.2329311499290787,
                -2.397696630933418,
                1.3602009709134855,
                0.11615570833385203,
                -0.0736191592265274
            ]
        },
        {
            "positions": [
                -0.18510797571432208,
                -2.27822344321122,
                -2.384016672473951,
                1.4939311440268779,
                0.18369852056329875,
                0.030774320456103118
            ]
        }
    ]
}