{
    "goal": {
        "global_pose": {
            "orientation": {
                "w": 0.7031023480610252,
                "x": -0.7110244013736278,
                "y": 0.0077485991402295624,
                "z": 0.005598929693374583
            },
            "position": {
                "x": -0.8841497679147869,
                "y": 0.44412534475326537,
                "z": 0.3711530566215515
            }
        },
        "name": "move_to_auspresseinheit_D"
    },
    "id": "ProjEST_move_to_auspresseinheit_D_104",
    "joint_names": [
        "shoulder_pan_joint",
        "shoulder_lift_joint",
        "elbow_joint",
        "wrist_1_joint",
        "wrist_2_joint",
        "wrist_3_joint"
    ],
    "metrics": {
        "cart_traj_len": 0.3431171878971805,
        "distance_elbow_joint": 0.6395796443877868,
        "distance_shoulder_lift_joint": 0.12126603161548033,
        "distance_shoulder_pan_joint": 0.1335942642837697,
        "distance_wrist_1_joint": 0.544186891596429,
        "distance_wrist_2_joint": 1.4312028292963734,
        "distance_wrist_3_joint": 0.01836074065013582,
        "smoothness": 0.0,
        "time": 0.152894636,
        "traj_len": 1.6994676819021817,
        "weighted_distance": 2.21366248647418
    },
    "planner": "ProjEST",
    "start": {
        "state": {
            "elbow_joint": -1.8275484843655228,
            "shoulder_lift_joint": -2.1267897864000416,
            "shoulder_pan_joint": -0.035127520176001514,
            "wrist_1_joint": -2.3477863256791385,
            "wrist_2_joint": -1.605890476484521,
            "wrist_3_joint": -3.0880375317375353
        }
    },
    "waypoints": [
        {
            "positions": [
                -0.035127520176001514,
                -2.1267897864000416,
                -1.8275484843655228,
                -2.3477863256791385,
                -1.605890476484521,
                -3.0880375317375353
            ]
        },
        {
            "positions": [
                -0.051826803211472726,
                -2.1419480403519766,
                -1.7476010288170494,
                -2.415809687128692,
                -1.4269901228224744,
                -3.0857424391562684
            ]
        },
        {
            "positions": [
                -0.06852608624694394,
                -2.1571062943039117,
                -1.667653573268576,
                -2.4838330485782456,
                -1.2480897691604276,
                -3.083447346575001
            ]
        },
        {
            "positions": [
                -0.08522536928241514,
                -2.1722645482558467,
                -1.5877061177201026,
                -2.551856410027799,
                -1.069189415498381,
                -3.0811522539937344
            ]
        },
        {
            "positions": [
                -0.10192465231788636,
                -2.1874228022077817,
                -1.5077586621716295,
                -2.619879771477353,
                -0.8902890618363343,
                -3.0788571614124676
            ]
        },
        {
            "positions": [
                -0.11862393535335758,
                -2.2025810561597168,
                -1.427811206623156,
                -2.6879031329269067,
                -0.7113887081742876,
                -3.0765620688312003
            ]
        },
        {
            "positions": [
                -0.13532321838882877,
                -2.217739310111652,
                -1.3478637510746827,
                -2.7559264943764603,
                -0.532488354512241,
                -3.0742669762499335
            ]
        },
        {
            "positions": [
                -0.1520225014243,
                -2.232897564063587,
                -1.2679162955262093,
                -2.823949855826014,
                -0.35358800085019415,
                -3.0719718836686662
            ]
        },
        {
            "positions": [
                -0.1687217844597712,
                -2.248055818015522,
                -1.187968839977736,
                -2.8919732172755674,
                -0.17468764718814758,
                -3.0696767910873994
            ]
        }
    ]
}