{
    "goal": {
        "global_pose": {
            "orientation": {
                "w": 0.5084816262002911,
                "x": -0.4908360881923452,
                "y": 0.5182115481033761,
                "z": -0.48164630358495003
            },
            "position": {
                "x": 0.5540239810943604,
                "y": -0.46912469901144505,
                "z": 0.16403168439865112
            }
        },
        "name": "move_to_storage_B"
    },
    "id": "ProjEST_move_to_storage_B_110",
    "joint_names": [
        "shoulder_pan_joint",
        "shoulder_lift_joint",
        "elbow_joint",
        "wrist_1_joint",
        "wrist_2_joint",
        "wrist_3_joint"
    ],
    "metrics": {
        "cart_traj_len": 0.595701139089289,
        "distance_elbow_joint": 0.35696691179708906,
        "distance_shoulder_lift_joint": 0.4606968898940269,
        "distance_shoulder_pan_joint": 0.1804805076866307,
        "distance_wrist_1_joint": 3.021205691665015,
        "distance_wrist_2_joint": 2.7017770319706003,
        "distance_wrist_3_joint": 3.1178214401964413,
        "smoothness": 1.9737298371844314e-16,
        "time": 0.09358401599999999,
        "traj_len": 3.136709816545006,
        "weighted_distance": 4.668787216958844
    },
    "planner": "ProjEST",
    "start": {
        "state": {
            "elbow_joint": 1.6649325340416963,
            "shoulder_lift_joint": -0.6616387945129425,
            "shoulder_pan_joint": -0.9139837929255878,
            "wrist_1_joint": 2.1467571094334352,
            "wrist_2_joint": -2.234195976750228,
            "wrist_3_joint": 0.005470921511140723
        }
    },
    "waypoints": [
        {
            "positions": [
                -0.9139837929255878,
                -0.6616387945129425,
                1.6649325340416963,
                2.1467571094334352,
                -2.234195976750228,
                0.005470921511140723
            ]
        },
        {
            "positions": [
                -0.9207652154508698,
                -0.6814995208331533,
                1.6661264835840002,
                2.006664130901972,
                -2.156576708690313,
                -0.07114269726566388
            ]
        },
        {
            "positions": [
                -0.9275466379761518,
                -0.7013602471533642,
                1.6673204331263038,
                1.866571152370509,
                -2.0789574406303974,
                -0.14775631604246847
            ]
        },
        {
            "positions": [
                -0.9343280605014337,
                -0.7212209734735751,
                1.6685143826686077,
                1.726478173839046,
                -2.0013381725704824,
                -0.2243699348192731
            ]
        },
        {
            "positions": [
                -0.9412905057236417,
                -0.7386607435141574,
                1.6838789506325285,
                1.6133944018359754,
                -1.8939938583187061,
                -0.34993430803083947
            ]
        },
        {
            "positions": [
                -0.9482529509458497,
                -0.7561005135547398,
                1.6992435185964492,
                1.5003106298329048,
                -1.7866495440669299,
                -0.4754986812424059
            ]
        },
        {
            "positions": [
                -0.9552153961680578,
                -0.7735402835953221,
                1.7146080865603701,
                1.387226857829834,
                -1.6793052298151536,
                -0.6010630544539723
            ]
        },
        {
            "positions": [
                -0.9621778413902659,
                -0.7909800536359045,
                1.7299726545242908,
                1.2741430858267633,
                -1.5719609155633774,
                -0.7266274276655387
            ]
        },
        {
            "positions": [
                -0.9691402866124739,
                -0.8084198236764869,
                1.7453372224882115,
                1.1610593138236927,
                -1.464616601311601,
                -0.8521918008771052
            ]
        },
        {
            "positions": [
                -0.9761027318346819,
                -0.8258595937170692,
                1.7607017904521323,
                1.047975541820622,
                -1.3572722870598248,
                -0.9777561740886715
            ]
        },
        {
            "positions": [
                -0.98306517705689,
                -0.8432993637576516,
                1.7760663584160532,
                0.9348917698175513,
                -1.2499279728080483,
                -1.103320547300238
            ]
        },
        {
            "positions": [
                -0.990027622279098,
                -0.860739133798234,
                1.791430926379974,
                0.8218079978144807,
                -1.1425836585562723,
                -1.2288849205118044
            ]
        },
        {
            "positions": [
                -0.996990067501306,
                -0.8781789038388164,
                1.8067954943438946,
                0.7087242258114099,
                -1.0352393443044958,
                -1.354449293723371
            ]
        },
        {
            "positions": [
                -1.003952512723514,
                -0.8956186738793986,
                1.8221600623078154,
                0.5956404538083393,
                -0.9278950300527198,
                -1.4800136669349373
            ]
        },
        {
            "positions": [
                -1.0109149579457222,
                -0.913058443919981,
                1.837524630271736,
                0.48255668180526845,
                -0.8205507158009433,
                -1.6055780401465038
            ]
        },
        {
            "positions": [
                -1.01787740316793,
                -0.9304982139605634,
                1.852889198235657,
                0.36947290980219805,
                -0.7132064015491673,
                -1.7311424133580702
            ]
        },
        {
            "positions": [
                -1.0248398483901382,
                -0.9479379840011457,
                1.8682537661995777,
                0.2563891377991274,
                -0.605862087297391,
                -1.8567067865696365
            ]
        },
        {
            "positions": [
                -1.0318022936123463,
                -0.9653777540417281,
                1.8836183341634984,
                0.14330536579605657,
                -0.4985177730456145,
                -1.9822711597812033
            ]
        },
        {
            "positions": [
                -1.0387647388345542,
                -0.9828175240823105,
                1.8989829021274192,
                0.030221593792985946,
                -0.39117345879383825,
                -2.1078355329927696
            ]
        },
        {
            "positions": [
                -1.0457271840567623,
                -1.0002572941228929,
                1.9143474700913399,
                -0.08286217821008468,
                -0.2838291445420622,
                -2.2333999062043355
            ]
        },
        {
            "positions": [
                -1.0526896292789703,
                -1.0176970641634753,
                1.9297120380552606,
                -0.1959459502131553,
                -0.17648483029028594,
                -2.358964279415902
            ]
        },
        {
            "positions": [
                -1.0596520745011784,
                -1.0351368342040577,
                1.9450766060191815,
                -0.30902972221622615,
                -0.06914051603850946,
                -2.4845286526274686
            ]
        },
        {
            "positions": [
                -1.0666145197233865,
                -1.0525766042446398,
                1.9604411739831022,
                -0.422113494219297,
                0.038203798213266804,
                -2.610093025839035
            ]
        },
        {
            "positions": [
                -1.0735769649455944,
                -1.0700163742852222,
                1.975805741947023,
                -0.5351972662223674,
                0.14554811246504284,
                -2.7356573990506012
            ]
        },
        {
            "positions": [
                -1.0805394101678025,
                -1.0874561443258046,
                1.991170309910944,
                -0.6482810382254378,
                0.25289242671681933,
                -2.8612217722621676
            ]
        },
        {
            "positions": [
                -1.0875018553900104,
                -1.104895914366387,
                2.0065348778748646,
                -0.7613648102285091,
                0.3602367409685958,
                -2.9867861454737343
            ]
        },
        {
            "positions": [
                -1.0944643006122186,
                -1.1223356844069694,
                2.0218994458387853,
                -0.8744485822315796,
                0.46758105522037186,
                -3.1123505186853007
            ]
        }
    ]
}