{
    "goal": {
        "global_pose": {
            "orientation": {
                "w": -0.4816463035849501,
                "x": 0.5182115481033762,
                "y": 0.4908360881923453,
                "z": -0.5084816262002911
            },
            "position": {
                "x": -0.8240239810943604,
                "y": -0.300875300988555,
                "z": 0.16403168439865112
            }
        },
        "name": "move_to_storage_C"
    },
    "id": "ProjEST_move_to_storage_C_84",
    "joint_names": [
        "shoulder_pan_joint",
        "shoulder_lift_joint",
        "elbow_joint",
        "wrist_1_joint",
        "wrist_2_joint",
        "wrist_3_joint"
    ],
    "metrics": {
        "cart_traj_len": 0.5762266219595485,
        "distance_elbow_joint": 0.2554415005983144,
        "distance_shoulder_lift_joint": 0.18813078534355476,
        "distance_shoulder_pan_joint": 0.49395130191743286,
        "distance_wrist_1_joint": 0.07208128367696898,
        "distance_wrist_2_joint": 1.0746952444146602,
        "distance_wrist_3_joint": 0.0648285333376446,
        "smoothness": 0.0,
        "time": 0.024477051,
        "traj_len": 1.4659906716239963,
        "weighted_distance": 1.8508274484822982
    },
    "planner": "ProjEST",
    "start": {
        "state": {
            "elbow_joint": 2.0108683149792914,
            "shoulder_lift_joint": -1.1634956873317392,
            "shoulder_pan_joint": -2.4736205022346,
            "wrist_1_joint": -0.8367026793690192,
            "wrist_2_joint": 0.6746043897045053,
            "wrist_3_joint": 3.133522094754363
        }
    },
    "waypoints": [
        {
            "positions": [
                -2.4736205022346,
                -1.1634956873317392,
                2.0108683149792914,
                -0.8367026793690192,
                0.6746043897045053,
                3.133522094754363
            ]
        },
        {
            "positions": [
                -2.555945719220839,
                -1.1321405564411469,
                1.968294731546239,
                -0.8246891320895244,
                0.8537202637736153,
                3.1443268503106374
            ]
        },
        {
            "positions": [
                -2.6382709362070775,
                -1.1007854255505543,
                1.9257211481131866,
                -0.8126755848100295,
                1.0328361378427253,
                3.155131605866911
            ]
        },
        {
            "positions": [
                -2.7205961531933163,
                -1.0694302946599619,
                1.8831475646801343,
                -0.8006620375305347,
                1.2119520119118354,
                3.1659363614231855
            ]
        },
        {
            "positions": [
                -2.8029213701795554,
                -1.0380751637693695,
                1.8405739812470818,
                -0.7886484902510399,
                1.3910678859809456,
                3.1767411169794597
            ]
        },
        {
            "positions": [
                -2.885246587165794,
                -1.0067200328787769,
                1.7980003978140293,
                -0.7766349429715451,
                1.5701837600500554,
                3.1875458725357335
            ]
        },
        {
            "positions": [
                -2.967571804152033,
                -0.9753649019881845,
                1.755426814380977,
                -0.7646213956920502,
                1.7492996341191656,
                3.1983506280920078
            ]
        }
    ]
}