{
    "goal": {
        "global_pose": {
            "orientation": {
                "w": 0.7031023502349854,
                "x": -0.7110244035720825,
                "y": 0.007748599164187908,
                "z": 0.005598929710686207
            },
            "position": {
                "x": 0.11585023208521307,
                "y": 0.44412534475326537,
                "z": 0.3711530566215515
            }
        },
        "name": "move_to_auspresseinheit_A"
    },
    "id": "ProjEST_move_to_auspresseinheit_A_69",
    "joint_names": [
        "shoulder_pan_joint",
        "shoulder_lift_joint",
        "elbow_joint",
        "wrist_1_joint",
        "wrist_2_joint",
        "wrist_3_joint"
    ],
    "metrics": {
        "cart_traj_len": 0.7733711423600573,
        "distance_elbow_joint": 0.46323659037753595,
        "distance_shoulder_lift_joint": 0.5317422703955617,
        "distance_shoulder_pan_joint": 1.0429244553727668,
        "distance_wrist_1_joint": 1.4366295611693354,
        "distance_wrist_2_joint": 0.8718801159821884,
        "distance_wrist_3_joint": 3.442081284505893,
        "smoothness": 1.0387670513459057,
        "time": 0.723976829,
        "traj_len": 2.790787393873507,
        "weighted_distance": 4.120821098272357
    },
    "planner": "ProjEST",
    "start": {
        "state": {
            "elbow_joint": 2.4225746994637096,
            "shoulder_lift_joint": -1.373653595662188,
            "shoulder_pan_joint": -0.3378633848294565,
            "wrist_1_joint": -1.0288595594406726,
            "wrist_2_joint": 1.2330228066703421,
            "wrist_3_joint": 3.189163495502006
        }
    },
    "waypoints": [
        {
            "positions": [
                -0.3378633848294565,
                -1.373653595662188,
                2.4225746994637096,
                -1.0288595594406726,
                1.2330228066703421,
                3.189163495502006
            ]
        },
        {
            "positions": [
                -0.30764578676520155,
                -1.4151391082184486,
                2.401959561734252,
                -0.9452425214338505,
                1.174535380099739,
                3.0433679054743865
            ]
        },
        {
            "positions": [
                -0.2774281887009466,
                -1.4566246207747091,
                2.3813444240047947,
                -0.8616254834270284,
                1.1160479535291354,
                2.8975723154467667
            ]
        },
        {
            "positions": [
                -0.24721059063669165,
                -1.4981101333309697,
                2.3607292862753373,
                -0.7780084454202063,
                1.057560526958532,
                2.7517767254191474
            ]
        },
        {
            "positions": [
                -0.2169929925724367,
                -1.5395956458872302,
                2.34011414854588,
                -0.6943914074133841,
                0.9990731003879287,
                2.605981135391528
            ]
        },
        {
            "positions": [
                -0.18677539450818173,
                -1.5810811584434907,
                2.3194990108164224,
                -0.6107743694065619,
                0.9405856738173254,
                2.4601855453639083
            ]
        },
        {
            "positions": [
                -0.15655779644392678,
                -1.6225666709997513,
                2.2988838730869654,
                -0.5271573313997399,
                0.882098247246722,
                2.314389955336289
            ]
        },
        {
            "positions": [
                -0.1263401983796718,
                -1.6640521835560118,
                2.278268735357508,
                -0.4435402933929177,
                0.8236108206761187,
                2.1685943653086692
            ]
        },
        {
            "positions": [
                -0.09612260031541689,
                -1.7055376961122724,
                2.2576535976280505,
                -0.3599232553860956,
                0.7651233941055153,
                2.02279877528105
            ]
        },
        {
            "positions": [
                -0.06590500225116191,
                -1.747023208668533,
                2.237038459898593,
                -0.2763062173792734,
                0.706635967534912,
                1.8770031852534306
            ]
        },
        {
            "positions": [
                -0.03568740418690697,
                -1.7885087212247934,
                2.2164233221691356,
                -0.19268917937245134,
                0.6481485409643086,
                1.731207595225811
            ]
        },
        {
            "positions": [
                -0.005469806122652021,
                -1.829994233781054,
                2.195808184439678,
                -0.10907214136562926,
                0.5896611143937053,
                1.5854120051981917
            ]
        },
        {
            "positions": [
                0.024747791941602947,
                -1.8714797463373145,
                2.1751930467102207,
                -0.02545510335880697,
                0.5311736878231019,
                1.4396164151705722
            ]
        },
        {
            "positions": [
                0.10033815623068157,
                -1.8752482040840295,
                2.1991769286684484,
                -0.07359122614630365,
                0.5500660208380962,
                1.6276757711899565
            ]
        },
        {
            "positions": [
                0.17592852051976018,
                -1.8790166618307445,
                2.2231608106266756,
                -0.1217273489338003,
                0.5689583538530905,
                1.815735127209341
            ]
        },
        {
            "positions": [
                0.25151888480883877,
                -1.8827851195774596,
                2.2471446925849032,
                -0.16986347172129695,
                0.5878506868680846,
                2.003794483228725
            ]
        },
        {
            "positions": [
                0.3271092490979174,
                -1.8865535773241746,
                2.2711285745431304,
                -0.21799959450879364,
                0.6067430198830789,
                2.1918538392481097
            ]
        },
        {
            "positions": [
                0.402699613386996,
                -1.8903220350708896,
                2.295112456501358,
                -0.2661357172962903,
                0.6256353528980731,
                2.379913195267494
            ]
        },
        {
            "positions": [
                0.4782899776760746,
                -1.8940904928176046,
                2.3190963384595853,
                -0.31427184008378695,
                0.6445276859130674,
                2.5679725512868785
            ]
        },
        {
            "positions": [
                0.5538803419651532,
                -1.8978589505643197,
                2.343080220417813,
                -0.3624079628712837,
                0.6634200189280617,
                2.7560319073062627
            ]
        },
        {
            "positions": [
                0.6294707062542318,
                -1.9016274083110347,
                2.36706410237604,
                -0.4105440856587803,
                0.6823123519430558,
                2.944091263325647
            ]
        },
        {
            "positions": [
                0.7050610705433105,
                -1.9053958660577497,
                2.391047984334268,
                -0.458680208446277,
                0.7012046849580501,
                3.1321506193450315
            ]
        }
    ]
}