{
    "goal": {
        "global_pose": {
            "orientation": {
                "w": -0.00223480608172531,
                "x": 0.0024358444001904467,
                "y": 0.7094548369677653,
                "z": -0.704743149386269
            },
            "position": {
                "x": 0.6205249238014221,
                "y": -0.6371506643295288,
                "z": 0.19426114857196808
            }
        },
        "name": "move_to_magneteinheit_B"
    },
    "id": "ProjEST_move_to_magneteinheit_B_124",
    "joint_names": [
        "shoulder_pan_joint",
        "shoulder_lift_joint",
        "elbow_joint",
        "wrist_1_joint",
        "wrist_2_joint",
        "wrist_3_joint"
    ],
    "metrics": {
        "cart_traj_len": 4.789761262738481,
        "distance_elbow_joint": 4.898606053470244,
        "distance_shoulder_lift_joint": 2.0835479795347744,
        "distance_shoulder_pan_joint": 3.3422596243350893,
        "distance_wrist_1_joint": 1.942219040868614,
        "distance_wrist_2_joint": 1.8820502279371771,
        "distance_wrist_3_joint": 4.034158770155343,
        "smoothness": 0.7702083614982191,
        "time": 1.3981289239999999,
        "traj_len": 4.264134343134753,
        "weighted_distance": 5.484106901348452
    },
    "planner": "ProjEST",
    "start": {
        "state": {
            "elbow_joint": 2.393587130804639,
            "shoulder_lift_joint": -1.9085141043513325,
            "shoulder_pan_joint": 0.7066247066698809,
            "wrist_1_joint": -0.4678290934590222,
            "wrist_2_joint": 0.7096259084215963,
            "wrist_3_joint": 3.147370379541726
        }
    },
    "waypoints": [
        {
            "positions": [
                0.7066247066698809,
                -1.9085141043513325,
                2.393587130804639,
                -0.4678290934590222,
                0.7096259084215963,
                3.147370379541726
            ]
        },
        {
            "positions": [
                0.6709058294525367,
                -2.002782062892935,
                2.4206227022632616,
                -0.5528088610463258,
                0.6666570125374689,
                3.224852431922404
            ]
        },
        {
            "positions": [
                0.6351869522351927,
                -2.0970500214345376,
                2.447658273721884,
                -0.6377886286336293,
                0.6236881166533416,
                3.3023344843030813
            ]
        },
        {
            "positions": [
                0.5671741775787367,
                -1.9953111684987181,
                2.4406586886707955,
                -0.5968684557207496,
                0.5727100505384781,
                3.2162435043463464
            ]
        },
        {
            "positions": [
                0.49916140292228073,
                -1.8935723155628987,
                2.4336591036197075,
                -0.5559482828078701,
                0.5217319844236148,
                3.1301525243896116
            ]
        },
        {
            "positions": [
                0.4311486282658247,
                -1.7918334626270793,
                2.426659518568619,
                -0.5150281098949905,
                0.47075391830875135,
                3.0440615444328767
            ]
        },
        {
            "positions": [
                0.29801439966884713,
                -1.7346560220433243,
                2.4345806237765513,
                -0.5338685921357454,
                0.3564380834085647,
                2.987317700217457
            ]
        },
        {
            "positions": [
                0.16488017107186959,
                -1.6774785814595694,
                2.4425017289844835,
                -0.5527090743765005,
                0.24212224850837802,
                2.9305738560020376
            ]
        },
        {
            "positions": [
                0.031745942474892,
                -1.6203011408758143,
                2.4504228341924157,
                -0.5715495566172555,
                0.12780641360819134,
                2.873830011786618
            ]
        },
        {
            "positions": [
                0.029032464744369327,
                -1.5800859603345376,
                2.2667275221420087,
                -0.5630087070703373,
                0.11919634389656394,
                2.735128941651942
            ]
        },
        {
            "positions": [
                0.026318987013846655,
                -1.5398707797932611,
                2.0830322100916012,
                -0.5544678575234193,
                0.11058627418493655,
                2.596427871517266
            ]
        },
        {
            "positions": [
                0.023605509283323986,
                -1.4996555992519844,
                1.8993368980411942,
                -0.5459270079765012,
                0.10197620447330914,
                2.4577268013825906
            ]
        },
        {
            "positions": [
                0.02089203155280131,
                -1.4594404187107077,
                1.715641585990787,
                -0.5373861584295831,
                0.09336613476168175,
                2.319025731247915
            ]
        },
        {
            "positions": [
                0.01817855382227864,
                -1.419225238169431,
                1.5319462739403797,
                -0.528845308882665,
                0.08475606505005434,
                2.180324661113239
            ]
        },
        {
            "positions": [
                0.015465076091755969,
                -1.3790100576281545,
                1.3482509618899725,
                -0.520304459335747,
                0.07614599533842695,
                2.0416235909785634
            ]
        },
        {
            "positions": [
                0.012751598361233296,
                -1.3387948770868778,
                1.1645556498395653,
                -0.5117636097888288,
                0.06753592562679955,
                1.9029225208438876
            ]
        },
        {
            "positions": [
                0.10816899345114354,
                -1.3602400329578077,
                1.0178474995108178,
                -0.5119821970001096,
                0.05024535733732445,
                1.8020320568500756
            ]
        },
        {
            "positions": [
                0.2035863885410538,
                -1.3816851888287376,
                0.8711393491820703,
                -0.5122007842113904,
                0.03295478904784934,
                1.7011415928562637
            ]
        },
        {
            "positions": [
                0.2990037836309641,
                -1.4031303446996675,
                0.7244311988533227,
                -0.5124193714226711,
                0.01566422075837423,
                1.600251128862452
            ]
        },
        {
            "positions": [
                0.3944211787208743,
                -1.4245755005705973,
                0.5777230485245752,
                -0.5126379586339519,
                -0.0016263475311008718,
                1.49936066486864
            ]
        },
        {
            "positions": [
                0.48983857381078455,
                -1.4460206564415272,
                0.4310148981958277,
                -0.5128565458452327,
                -0.01891691582057599,
                1.398470200874828
            ]
        },
        {
            "positions": [
                0.5852559689006949,
                -1.467465812312457,
                0.2843067478670802,
                -0.5130751330565134,
                -0.03620748411005109,
                1.297579736881016
            ]
        },
        {
            "positions": [
                0.6806733639906051,
                -1.488910968183387,
                0.1375985975383327,
                -0.5132937202677942,
                -0.05349805239952621,
                1.196689272887204
            ]
        },
        {
            "positions": [
                0.7760907590805153,
                -1.5103561240543169,
                -0.00910955279041481,
                -0.513512307479075,
                -0.0707886206890013,
                1.095798808893392
            ]
        },
        {
            "positions": [
                0.8715081541704256,
                -1.5318012799252467,
                -0.15581770311916232,
                -0.5137308946903557,
                -0.08807918897847641,
                0.9949083448995804
            ]
        },
        {
            "positions": [
                0.9669255492603358,
                -1.5532464357961766,
                -0.30252585344790983,
                -0.5139494819016365,
                -0.10536975726795153,
                0.8940178809057684
            ]
        },
        {
            "positions": [
                1.0623429443502461,
                -1.5746915916671065,
                -0.44923400377665734,
                -0.5141680691129173,
                -0.12266032555742665,
                0.7931274169119564
            ]
        },
        {
            "positions": [
                1.1577603394401565,
                -1.5961367475380364,
                -0.5959421541054049,
                -0.5143866563241981,
                -0.13995089384690174,
                0.6922369529181447
            ]
        },
        {
            "positions": [
                1.2531777345300665,
                -1.6175819034089662,
                -0.7426503044341524,
                -0.5146052435354789,
                -0.15724146213637688,
                0.5913464889243325
            ]
        },
        {
            "positions": [
                1.348595129619977,
                -1.6390270592798961,
                -0.8893584547628999,
                -0.5148238307467596,
                -0.17453203042585197,
                0.49045602493052076
            ]
        },
        {
            "positions": [
                1.4440125247098874,
                -1.660472215150826,
                -1.0360666050916474,
                -0.5150424179580404,
                -0.1918225987153271,
                0.3895655609367088
            ]
        },
        {
            "positions": [
                1.5394299197997974,
                -1.6819173710217559,
                -1.182774755420395,
                -0.5152610051693212,
                -0.20911316700480215,
                0.28867509694289684
            ]
        },
        {
            "positions": [
                1.6348473148897078,
                -1.7033625268926857,
                -1.3294829057491424,
                -0.5154795923806019,
                -0.22640373529427732,
                0.18778463294908487
            ]
        },
        {
            "positions": [
                1.7302647099796178,
                -1.7248076827636156,
                -1.47619105607789,
                -0.5156981795918827,
                -0.24369430358375238,
                0.08689416895527313
            ]
        },
        {
            "positions": [
                1.8256821050695282,
                -1.7462528386345455,
                -1.6228992064066374,
                -0.5159167668031635,
                -0.2609848718732275,
                -0.01399629503853883
            ]
        },
        {
            "positions": [
                1.9210995001594382,
                -1.7676979945054754,
                -1.769607356735385,
                -0.5161353540144442,
                -0.2782754401627026,
                -0.1148867590323508
            ]
        },
        {
            "positions": [
                2.0165168952493486,
                -1.7891431503764053,
                -1.9163155070641325,
                -0.516353941225725,
                -0.29556600845217773,
                -0.21577722302616273
            ]
        },
        {
            "positions": [
                2.0997353861319277,
                -1.8366096778982706,
                -1.963538885688331,
                -0.5245405006543825,
                -0.322017029455053,
                -0.24850762734874965
            ]
        },
        {
            "positions": [
                2.1829538770145067,
                -1.884076205420136,
                -2.0107622643125294,
                -0.53272706008304,
                -0.3484680504579283,
                -0.28123803167133654
            ]
        },
        {
            "positions": [
                2.2296808340440792,
                -1.9413134239084497,
                -1.9787485252877794,
                -0.38769695099091117,
                -0.26966872182111185,
                -0.25320085980099993
            ]
        },
        {
            "positions": [
                2.2764077910736518,
                -1.9985506423967634,
                -1.9467347862630295,
                -0.24266684189878224,
                -0.1908693931842954,
                -0.22516368793066338
            ]
        },
        {
            "positions": [
                2.3231347481032243,
                -2.055787860885077,
                -1.9147210472382798,
                -0.09763673280665336,
                -0.11207006454747898,
                -0.1971265160603268
            ]
        },
        {
            "positions": [
                2.369861705132797,
                -2.113025079373391,
                -1.88270730821353,
                0.047393376285475575,
                -0.03327073591066254,
                -0.16908934418999022
            ]
        },
        {
            "positions": [
                2.4165886621623693,
                -2.1702622978617048,
                -1.85069356918878,
                0.19242348537760445,
                0.04552859272615395,
                -0.1410521723196536
            ]
        },
        {
            "positions": [
                2.463315619191942,
                -2.227499516350018,
                -1.8186798301640301,
                0.33745359446973333,
                0.12432792136297033,
                -0.11301500044931706
            ]
        },
        {
            "positions": [
                2.5100425762215144,
                -2.284736734838332,
                -1.7866660911392804,
                0.4824837035618623,
                0.20312724999978682,
                -0.08497782857898045
            ]
        },
        {
            "positions": [
                2.556769533251087,
                -2.3419739533266455,
                -1.7546523521145305,
                0.6275138126539912,
                0.2819265786366032,
                -0.0569406567086439
            ]
        },
        {
            "positions": [
                2.6034964902806594,
                -2.3992111718149594,
                -1.7226386130897806,
                0.7725439217461201,
                0.36072590727341963,
                -0.028903484838307264
            ]
        },
        {
            "positions": [
                2.632317302334167,
                -2.4373814835028735,
                -1.6974065680656585,
                0.8760225023867727,
                0.41810706293657207,
                -0.007259683545037227
            ]
        },
        {
            "positions": [
                2.661138114387675,
                -2.4755517951907877,
                -1.6721745230415361,
                0.9795010830274252,
                0.47548821859972457,
                0.014384117748232813
            ]
        }
    ]
}