{
    "goal": {
        "global_pose": {
            "orientation": {
                "w": -0.00223480608172531,
                "x": 0.0024358444001904467,
                "y": 0.7094548369677653,
                "z": -0.704743149386269
            },
            "position": {
                "x": -0.37947507619857795,
                "y": -0.6371506643295288,
                "z": 0.19426114857196808
            }
        },
        "name": "move_to_magneteinheit_C"
    },
    "id": "ProjEST_move_to_magneteinheit_C_79",
    "joint_names": [
        "shoulder_pan_joint",
        "shoulder_lift_joint",
        "elbow_joint",
        "wrist_1_joint",
        "wrist_2_joint",
        "wrist_3_joint"
    ],
    "metrics": {
        "cart_traj_len": 0.6195516037023354,
        "distance_elbow_joint": 0.10333465782486351,
        "distance_shoulder_lift_joint": 0.3818015792503531,
        "distance_shoulder_pan_joint": 0.8004197030693996,
        "distance_wrist_1_joint": 0.3001532125992985,
        "distance_wrist_2_joint": 0.7920528162112455,
        "distance_wrist_3_joint": 0.2882640834353061,
        "smoothness": 0.6541634945133132,
        "time": 2.298413485,
        "traj_len": 1.632797002811576,
        "weighted_distance": 2.08200870509026
    },
    "planner": "ProjEST",
    "start": {
        "state": {
            "elbow_joint": 1.9565354006593851,
            "shoulder_lift_joint": -1.4165861576512813,
            "shoulder_pan_joint": -1.6717766223278752,
            "wrist_1_joint": -0.528663328821883,
            "wrist_2_joint": 1.472756589259273,
            "wrist_3_joint": 3.159348288315503
        }
    },
    "waypoints": [
        {
            "positions": [
                -1.6717766223278752,
                -1.4165861576512813,
                1.9565354006593851,
                -0.528663328821883,
                1.472756589259273,
                3.159348288315503
            ]
        },
        {
            "positions": [
                -1.7031575341784566,
                -1.4382299109116112,
                1.9826266306443983,
                -0.5285887456558103,
                1.2298785359717774,
                3.106581359126325
            ]
        },
        {
            "positions": [
                -1.7345384460290383,
                -1.459873664171941,
                2.008717860629411,
                -0.5285141624897375,
                0.9870004826842818,
                3.053814429937147
            ]
        },
        {
            "positions": [
                -1.7659193578796197,
                -1.481517417432271,
                2.0348090906144245,
                -0.5284395793236647,
                0.744122429396786,
                3.0010475007479687
            ]
        },
        {
            "positions": [
                -1.9424885997590335,
                -1.40229983756493,
                2.0285438486469687,
                -0.6034219450989348,
                0.7282677653095964,
                3.0335383247149115
            ]
        },
        {
            "positions": [
                -2.119057841638447,
                -1.3230822576975894,
                2.0222786066795124,
                -0.6784043108742048,
                0.7124131012224069,
                3.0660291486818547
            ]
        },
        {
            "positions": [
                -2.2956270835178607,
                -1.2438646778302485,
                2.016013364712056,
                -0.7533866766494748,
                0.6965584371352173,
                3.0985199726487975
            ]
        },
        {
            "positions": [
                -2.4721963253972747,
                -1.1646470979629076,
                2.0097481227446004,
                -0.8283690424247449,
                0.6807037730480276,
                3.1310107966157403
            ]
        }
    ]
}