{
    "goal": {
        "global_pose": {
            "orientation": {
                "w": 0.005598929693374612,
                "x": 0.007748599140229565,
                "y": 0.7110244013736278,
                "z": -0.7031023480610252
            },
            "position": {
                "x": -0.8858502320852131,
                "y": -0.7141253447532654,
                "z": 0.3711530566215515
            }
        },
        "name": "move_to_auspresseinheit_C"
    },
    "id": "ProjEST_move_to_auspresseinheit_C_129",
    "joint_names": [
        "shoulder_pan_joint",
        "shoulder_lift_joint",
        "elbow_joint",
        "wrist_1_joint",
        "wrist_2_joint",
        "wrist_3_joint"
    ],
    "metrics": {
        "cart_traj_len": 0.493044000924608,
        "distance_elbow_joint": 1.0019687243089759,
        "distance_shoulder_lift_joint": 0.32621105814529583,
        "distance_shoulder_pan_joint": 0.2565091002019617,
        "distance_wrist_1_joint": 0.6846601956440822,
        "distance_wrist_2_joint": 1.3125747381300634,
        "distance_wrist_3_joint": 0.06941522119098842,
        "smoothness": 1.6148698667872622e-16,
        "time": 0.040476797,
        "traj_len": 1.9108477274815405,
        "weighted_distance": 2.405702478233227
    },
    "planner": "ProjEST",
    "start": {
        "state": {
            "elbow_joint": 1.7527959577730765,
            "shoulder_lift_joint": -0.9740617694224828,
            "shoulder_pan_joint": -2.967991417825869,
            "wrist_1_joint": -0.7595177689779385,
            "wrist_2_joint": 1.7443932448376545,
            "wrist_3_joint": 3.1991315425061013
        }
    },
    "waypoints": [
        {
            "positions": [
                -2.967991417825869,
                -0.9740617694224828,
                1.7527959577730765,
                -0.7595177689779385,
                1.7443932448376545,
                3.1991315425061013
            ]
        },
        {
            "positions": [
                -2.942340507805673,
                -0.9414406636079532,
                1.652599085342179,
                -0.6910517494135303,
                1.6131357710246481,
                3.1921900203870024
            ]
        },
        {
            "positions": [
                -2.9166895977854765,
                -0.9088195577934236,
                1.5524022129112813,
                -0.6225857298491221,
                1.4818782972116418,
                3.1852484982679035
            ]
        },
        {
            "positions": [
                -2.8910386877652807,
                -0.876198451978894,
                1.4522053404803836,
                -0.5541197102847139,
                1.3506208233986354,
                3.178306976148805
            ]
        },
        {
            "positions": [
                -2.8653877777450845,
                -0.8435773461643644,
                1.3520084680494862,
                -0.4856536907203057,
                1.219363349585629,
                3.171365454029706
            ]
        },
        {
            "positions": [
                -2.839736867724888,
                -0.8109562403498349,
                1.2518115956185887,
                -0.41718767115589744,
                1.0881058757726227,
                3.164423931910607
            ]
        },
        {
            "positions": [
                -2.814085957704692,
                -0.7783351345353053,
                1.151614723187691,
                -0.3487216515914892,
                0.9568484019596164,
                3.157482409791508
            ]
        },
        {
            "positions": [
                -2.7884350476844957,
                -0.7457140287207757,
                1.0514178507567933,
                -0.28025563202708104,
                0.8255909281466102,
                3.1505408876724093
            ]
        },
        {
            "positions": [
                -2.7627841376643,
                -0.7130929229062462,
                0.9512209783258958,
                -0.2117896124626728,
                0.6943334543336037,
                3.1435993655533108
            ]
        },
        {
            "positions": [
                -2.7371332276441036,
                -0.6804718170917166,
                0.8510241058949982,
                -0.14332359289826457,
                0.5630759805205974,
                3.136657843434212
            ]
        },
        {
            "positions": [
                -2.7114823176239073,
                -0.647850711277187,
                0.7508272334641006,
                -0.0748575733338563,
                0.431818506707591,
                3.129716321315113
            ]
        }
    ]
}