{
    "goal": {
        "global_pose": {
            "orientation": {
                "w": 0.005598929693374612,
                "x": 0.007748599140229565,
                "y": 0.7110244013736278,
                "z": -0.7031023480610252
            },
            "position": {
                "x": 0.1141497679147869,
                "y": -0.7141253447532654,
                "z": 0.3711530566215515
            }
        },
        "name": "move_to_auspresseinheit_B"
    },
    "id": "ProjEST_move_to_auspresseinheit_B_5",
    "joint_names": [
        "shoulder_pan_joint",
        "shoulder_lift_joint",
        "elbow_joint",
        "wrist_1_joint",
        "wrist_2_joint",
        "wrist_3_joint"
    ],
    "metrics": {
        "cart_traj_len": 0.564655518991871,
        "distance_elbow_joint": 0.059706706402583354,
        "distance_shoulder_lift_joint": 0.29451885382976073,
        "distance_shoulder_pan_joint": 0.578369736213538,
        "distance_wrist_1_joint": 0.3153299128754713,
        "distance_wrist_2_joint": 0.9872023650104325,
        "distance_wrist_3_joint": 0.007749560524433985,
        "smoothness": 2.5376526478085547e-16,
        "time": 0.079795136,
        "traj_len": 1.497623829556748,
        "weighted_distance": 1.8870369720254534
    },
    "planner": "ProjEST",
    "start": {
        "state": {
            "elbow_joint": 2.0193061681459312,
            "shoulder_lift_joint": -1.1220205130644991,
            "shoulder_pan_joint": -1.0952072088045026,
            "wrist_1_joint": -0.8559671810662515,
            "wrist_2_joint": 0.4759638712940361,
            "wrist_3_joint": 3.159081874192446
        }
    },
    "waypoints": [
        {
            "positions": [
                -1.0952072088045026,
                -1.1220205130644991,
                2.0193061681459312,
                -0.8559671810662515,
                0.4759638712940361,
                3.159081874192446
            ]
        },
        {
            "positions": [
                -1.1916021648400923,
                -1.1711069887027925,
                2.009355050412167,
                -0.8034121955870063,
                0.6404975987957748,
                3.157790280771707
            ]
        },
        {
            "positions": [
                -1.287997120875682,
                -1.220193464341086,
                1.9994039326784034,
                -0.7508572101077611,
                0.8050313262975135,
                3.156498687350968
            ]
        },
        {
            "positions": [
                -1.3843920769112716,
                -1.2692799399793795,
                1.9894528149446395,
                -0.6983022246285158,
                0.9695650537992524,
                3.155207093930229
            ]
        },
        {
            "positions": [
                -1.4807870329468613,
                -1.3183664156176729,
                1.9795016972108757,
                -0.6457472391492707,
                1.134098781300991,
                3.15391550050949
            ]
        },
        {
            "positions": [
                -1.577181988982451,
                -1.3674528912559665,
                1.9695505794771118,
                -0.5931922536700254,
                1.29863250880273,
                3.152623907088751
            ]
        },
        {
            "positions": [
                -1.6735769450180407,
                -1.4165393668942599,
                1.9595994617433479,
                -0.5406372681907802,
                1.4631662363044686,
                3.151332313668012
            ]
        }
    ]
}