{
    "goal": {
        "global_pose": {
            "orientation": {
                "w": 0.5084816262002911,
                "x": -0.4908360881923452,
                "y": 0.5182115481033761,
                "z": -0.48164630358495003
            },
            "position": {
                "x": 0.5540239810943604,
                "y": -0.46912469901144505,
                "z": 0.16403168439865112
            }
        },
        "name": "move_to_storage_B"
    },
    "id": "ProjEST_move_to_storage_B_54",
    "joint_names": [
        "shoulder_pan_joint",
        "shoulder_lift_joint",
        "elbow_joint",
        "wrist_1_joint",
        "wrist_2_joint",
        "wrist_3_joint"
    ],
    "metrics": {
        "cart_traj_len": 1.0795680177959035,
        "distance_elbow_joint": 0.35663576940721486,
        "distance_shoulder_lift_joint": 0.4609741527610014,
        "distance_shoulder_pan_joint": 1.0791499057371479,
        "distance_wrist_1_joint": 3.6362512649728895,
        "distance_wrist_2_joint": 2.9485364501057525,
        "distance_wrist_3_joint": 3.2595065288608893,
        "smoothness": 0.4383934924487129,
        "time": 0.097490486,
        "traj_len": 3.426522153998847,
        "weighted_distance": 4.984461339467417
    },
    "planner": "ProjEST",
    "start": {
        "state": {
            "elbow_joint": 1.6649325340416963,
            "shoulder_lift_joint": -0.6616387945129425,
            "shoulder_pan_joint": -0.9139837929255878,
            "wrist_1_joint": 2.1467571094334352,
            "wrist_2_joint": -2.234195976750228,
            "wrist_3_joint": 0.005470921511140723
        }
    },
    "waypoints": [
        {
            "positions": [
                -0.9139837929255878,
                -0.6616387945129425,
                1.6649325340416963,
                2.1467571094334352,
                -2.234195976750228,
                0.005470921511140723
            ]
        },
        {
            "positions": [
                -0.801746810927508,
                -0.6891787253139119,
                1.7495424846978171,
                2.2248479522294056,
                -2.2639773444965745,
                0.023098728602816938
            ]
        },
        {
            "positions": [
                -0.6895098289294281,
                -0.7167186561148812,
                1.8341524353539382,
                2.3029387950253764,
                -2.293758712242921,
                0.04072653569449315
            ]
        },
        {
            "positions": [
                -0.5772728469313483,
                -0.7442585869158505,
                1.918762386010059,
                2.3810296378213467,
                -2.323540079989268,
                0.05835434278616936
            ]
        },
        {
            "positions": [
                -0.46503586493326843,
                -0.7717985177168198,
                2.00337233666618,
                2.459120480617317,
                -2.3533214477356146,
                0.07598214987784557
            ]
        },
        {
            "positions": [
                -0.48837667892381764,
                -0.7847916447374541,
                2.004046261361837,
                2.3360135215880944,
                -2.2485284485089343,
                -0.04212878717749459
            ]
        },
        {
            "positions": [
                -0.5117174929143669,
                -0.7977847717580883,
                2.0047201860574932,
                2.212906562558872,
                -2.143735449282254,
                -0.16023972423283475
            ]
        },
        {
            "positions": [
                -0.5350583069049161,
                -0.8107778987787225,
                2.00539411075315,
                2.0897996035296496,
                -2.0389424500555737,
                -0.2783506612881749
            ]
        },
        {
            "positions": [
                -0.5583991208954653,
                -0.8237710257993567,
                2.006068035448807,
                1.9666926445004271,
                -1.9341494508288937,
                -0.3964615983435151
            ]
        },
        {
            "positions": [
                -0.5817399348860144,
                -0.836764152819991,
                2.0067419601444634,
                1.8435856854712047,
                -1.8293564516022136,
                -0.5145725353988552
            ]
        },
        {
            "positions": [
                -0.6050807488765636,
                -0.8497572798406252,
                2.0074158848401202,
                1.720478726441982,
                -1.7245634523755333,
                -0.6326834724541954
            ]
        },
        {
            "positions": [
                -0.6284215628671128,
                -0.8627504068612594,
                2.008089809535777,
                1.5973717674127597,
                -1.619770453148853,
                -0.7507944095095356
            ]
        },
        {
            "positions": [
                -0.651762376857662,
                -0.8757435338818936,
                2.0087637342314335,
                1.4742648083835372,
                -1.5149774539221728,
                -0.8689053465648757
            ]
        },
        {
            "positions": [
                -0.6751031908482112,
                -0.8887366609025279,
                2.0094376589270904,
                1.3511578493543146,
                -1.4101844546954927,
                -0.9870162836202158
            ]
        },
        {
            "positions": [
                -0.6984440048387605,
                -0.901729787923162,
                2.0101115836227472,
                1.2280508903250922,
                -1.3053914554688124,
                -1.105127220675556
            ]
        },
        {
            "positions": [
                -0.7217848188293097,
                -0.9147229149437963,
                2.0107855083184036,
                1.1049439312958698,
                -1.2005984562421324,
                -1.2232381577308962
            ]
        },
        {
            "positions": [
                -0.7451256328198588,
                -0.9277160419644306,
                2.0114594330140605,
                0.9818369722666471,
                -1.095805457015452,
                -1.3413490947862363
            ]
        },
        {
            "positions": [
                -0.7684664468104081,
                -0.9407091689850647,
                2.0121333577097174,
                0.8587300132374247,
                -0.9910124577887718,
                -1.4594600318415765
            ]
        },
        {
            "positions": [
                -0.7918072608009572,
                -0.953702296005699,
                2.0128072824053738,
                0.7356230542082023,
                -0.8862194585620917,
                -1.5775709688969166
            ]
        },
        {
            "positions": [
                -0.8151480747915065,
                -0.9666954230263332,
                2.0134812071010306,
                0.6125160951789796,
                -0.7814264593354112,
                -1.6956819059522568
            ]
        },
        {
            "positions": [
                -0.8384888887820556,
                -0.9796885500469674,
                2.0141551317966875,
                0.48940913614975723,
                -0.6766334601087312,
                -1.813792843007597
            ]
        },
        {
            "positions": [
                -0.8618297027726048,
                -0.9926816770676017,
                2.014829056492344,
                0.3663021771205348,
                -0.5718404608820509,
                -1.9319037800629375
            ]
        },
        {
            "positions": [
                -0.8851705167631541,
                -1.005674804088236,
                2.0155029811880008,
                0.24319521809131217,
                -0.4670474616553708,
                -2.050014717118277
            ]
        },
        {
            "positions": [
                -0.9085113307537033,
                -1.0186679311088702,
                2.0161769058836576,
                0.12008825906208953,
                -0.3622544624286903,
                -2.168125654173618
            ]
        },
        {
            "positions": [
                -0.9318521447442525,
                -1.0316610581295043,
                2.016850830579314,
                -0.0030186999671326653,
                -0.25746146320201024,
                -2.2862365912289575
            ]
        },
        {
            "positions": [
                -0.9551929587348016,
                -1.0446541851501385,
                2.017524755274971,
                -0.1261256589963553,
                -0.15266846397532996,
                -2.404347528284298
            ]
        },
        {
            "positions": [
                -0.9785337727253508,
                -1.0576473121707728,
                2.0181986799706277,
                -0.2492326180255775,
                -0.04787546474865012,
                -2.522458465339638
            ]
        },
        {
            "positions": [
                -1.0018745867159,
                -1.070640439191407,
                2.018872604666284,
                -0.37233957705480014,
                0.05691753447803061,
                -2.6405694023949784
            ]
        },
        {
            "positions": [
                -1.0252154007064491,
                -1.083633566212041,
                2.019546529361941,
                -0.4954465360840228,
                0.16171053370471045,
                -2.7586803394503185
            ]
        },
        {
            "positions": [
                -1.0485562146969984,
                -1.0966266932326754,
                2.020220454057598,
                -0.6185534951132454,
                0.26650353293139073,
                -2.8767912765056587
            ]
        },
        {
            "positions": [
                -1.0718970286875478,
                -1.1096198202533096,
                2.0208943787532543,
                -0.7416604541424676,
                0.371296532158071,
                -2.994902213560999
            ]
        },
        {
            "positions": [
                -1.0952378426780969,
                -1.122612947273944,
                2.021568303448911,
                -0.8647674131716905,
                0.4760895313847514,
                -3.113013150616339
            ]
        }
    ]
}