{
    "goal": {
        "global_pose": {
            "orientation": {
                "w": 0.7047431493862688,
                "x": -0.7094548369677653,
                "y": 0.0024358444001904,
                "z": -0.0022348060817251984
            },
            "position": {
                "x": -0.39052492380142206,
                "y": 0.3671506643295288,
                "z": 0.19426114857196808
            }
        },
        "name": "move_to_magneteinheit_D"
    },
    "id": "ProjEST_move_to_magneteinheit_D_147",
    "joint_names": [
        "shoulder_pan_joint",
        "shoulder_lift_joint",
        "elbow_joint",
        "wrist_1_joint",
        "wrist_2_joint",
        "wrist_3_joint"
    ],
    "metrics": {
        "cart_traj_len": 4.651245316547989,
        "distance_elbow_joint": 3.134408130381393,
        "distance_shoulder_lift_joint": 1.6300414183393015,
        "distance_shoulder_pan_joint": 3.841575744384298,
        "distance_wrist_1_joint": 1.8194049487296786,
        "distance_wrist_2_joint": 0.38976902771974453,
        "distance_wrist_3_joint": 3.2871060278600206,
        "smoothness": 0.4223369786286762,
        "time": 0.144225312,
        "traj_len": 3.7553036225336607,
        "weighted_distance": 4.783899176360629
    },
    "planner": "ProjEST",
    "start": {
        "state": {
            "elbow_joint": 0.7495348899011911,
            "shoulder_lift_joint": -0.6476975780737668,
            "shoulder_pan_joint": -2.711696901376276,
            "wrist_1_joint": -0.0750647808097303,
            "wrist_2_joint": 0.43296659715458535,
            "wrist_3_joint": 3.1361499051832418
        }
    },
    "waypoints": [
        {
            "positions": [
                -2.711696901376276,
                -0.6476975780737668,
                0.7495348899011911,
                -0.0750647808097303,
                0.43296659715458535,
                3.1361499051832418
            ]
        },
        {
            "positions": [
                -2.701275661338785,
                -0.7100932050628739,
                0.6029860220842544,
                -0.12097157721117531,
                0.422707814003993,
                3.024861403822825
            ]
        },
        {
            "positions": [
                -2.690854421301294,
                -0.772488832051981,
                0.4564371542673177,
                -0.1668783736126203,
                0.41244903085340057,
                2.9135729024624086
            ]
        },
        {
            "positions": [
                -2.680433181263803,
                -0.8348844590410881,
                0.3098882864503809,
                -0.21278517001406533,
                0.4021902477028082,
                2.802284401101992
            ]
        },
        {
            "positions": [
                -2.5678354436947552,
                -0.8749834734191168,
                0.23067783391970614,
                -0.16072786997719551,
                0.4044608212978232,
                2.7003742750481754
            ]
        },
        {
            "positions": [
                -2.4552377061257076,
                -0.9150824877971453,
                0.15146738138903137,
                -0.1086705699403257,
                0.4067313948928381,
                2.598464148994359
            ]
        },
        {
            "positions": [
                -2.3426399685566603,
                -0.955181502175174,
                0.0722569288583566,
                -0.05661326990345589,
                0.4090019684878531,
                2.496554022940542
            ]
        },
        {
            "positions": [
                -2.2300422309876127,
                -0.9952805165532025,
                -0.006953523672318163,
                -0.004555969866586074,
                0.41127254208286806,
                2.3946438968867256
            ]
        },
        {
            "positions": [
                -2.117444493418565,
                -1.0353795309312313,
                -0.08616397620299299,
                0.04750133017028374,
                0.413543115677883,
                2.292733770832909
            ]
        },
        {
            "positions": [
                -2.0048467558495173,
                -1.0754785453092597,
                -0.1653744287336677,
                0.09955863020715355,
                0.41581368927289797,
                2.1908236447790927
            ]
        },
        {
            "positions": [
                -1.8922490182804697,
                -1.1155775596872883,
                -0.24458488126434252,
                0.15161593024402337,
                0.4180842628679129,
                2.088913518725276
            ]
        },
        {
            "positions": [
                -1.7796512807114222,
                -1.155676574065317,
                -0.32379533379501724,
                0.20367323028089318,
                0.42035483646292787,
                1.9870033926714596
            ]
        },
        {
            "positions": [
                -1.6670535431423745,
                -1.1957755884433456,
                -0.4030057863256922,
                0.25573053031776305,
                0.42262541005794285,
                1.885093266617643
            ]
        },
        {
            "positions": [
                -1.5544558055733269,
                -1.235874602821374,
                -0.4822162388563669,
                0.3077878303546328,
                0.4248959836529578,
                1.7831831405638265
            ]
        },
        {
            "positions": [
                -1.4418580680042794,
                -1.2759736171994027,
                -0.5614266913870416,
                0.3598451303915026,
                0.42716655724797276,
                1.6812730145100099
            ]
        },
        {
            "positions": [
                -1.329260330435232,
                -1.3160726315774314,
                -0.6406371439177163,
                0.41190243042837243,
                0.42943713084298774,
                1.5793628884561934
            ]
        },
        {
            "positions": [
                -1.216662592866184,
                -1.35617164595546,
                -0.7198475964483912,
                0.46395973046524225,
                0.43170770443800266,
                1.4774527624023768
            ]
        },
        {
            "positions": [
                -1.1040648552971366,
                -1.3962706603334887,
                -0.799058048979066,
                0.5160170305021121,
                0.43397827803301764,
                1.3755426363485603
            ]
        },
        {
            "positions": [
                -0.9914671177280892,
                -1.436369674711517,
                -0.8782685015097407,
                0.5680743305389819,
                0.4362488516280326,
                1.273632510294744
            ]
        },
        {
            "positions": [
                -0.8788693801590415,
                -1.4764686890895458,
                -0.9574789540404154,
                0.6201316305758517,
                0.43851942522304754,
                1.1717223842409275
            ]
        },
        {
            "positions": [
                -0.766271642589994,
                -1.5165677034675742,
                -1.03668940657109,
                0.6721889306127213,
                0.4407899988180625,
                1.0698122581871108
            ]
        },
        {
            "positions": [
                -0.6536739050209461,
                -1.556666717845603,
                -1.1158998591017653,
                0.7242462306495914,
                0.4430605724130775,
                0.9679021321332941
            ]
        },
        {
            "positions": [
                -0.5410761674518985,
                -1.5967657322236315,
                -1.19511031163244,
                0.7763035306864612,
                0.4453311460080924,
                0.8659920060794775
            ]
        },
        {
            "positions": [
                -0.4284784298828508,
                -1.6368647466016601,
                -1.2743207641631147,
                0.828360830723331,
                0.4476017196031074,
                0.7640818800256612
            ]
        },
        {
            "positions": [
                -0.31588069231380356,
                -1.6769637609796888,
                -1.3535312166937894,
                0.8804181307602008,
                0.4498722931981224,
                0.6621717539718448
            ]
        },
        {
            "positions": [
                -0.20328295474475588,
                -1.7170627753577175,
                -1.432741669224464,
                0.9324754307970706,
                0.4521428667931373,
                0.5602616279180279
            ]
        },
        {
            "positions": [
                -0.09068521717570821,
                -1.757161789735746,
                -1.5119521217551388,
                0.9845327308339404,
                0.4544134403881523,
                0.4583515018642115
            ]
        },
        {
            "positions": [
                0.02191252039333902,
                -1.7972608041137745,
                -1.5911625742858135,
                1.0365900308708103,
                0.4566840139831672,
                0.35644137581039503
            ]
        },
        {
            "positions": [
                0.13451025796238714,
                -1.8373598184918034,
                -1.6703730268164887,
                1.08864733090768,
                0.4589545875781822,
                0.25453124975657815
            ]
        },
        {
            "positions": [
                0.2471079955314348,
                -1.877458832869832,
                -1.7495834793471634,
                1.1407046309445499,
                0.4612251611731972,
                0.1526211237027617
            ]
        },
        {
            "positions": [
                0.35970573310048204,
                -1.9175578472478603,
                -1.828793931877838,
                1.1927619309814197,
                0.4634957347682121,
                0.050710997648945266
            ]
        },
        {
            "positions": [
                0.4723034706695296,
                -1.957656861625889,
                -1.908004384408513,
                1.2448192310182895,
                0.4657663083632271,
                -0.0511991284048714
            ]
        },
        {
            "positions": [
                0.3627075752797808,
                -2.0110038840904187,
                -1.9874825270871277,
                1.2821659241004544,
                0.41653020542863567,
                -0.03457296269288661
            ]
        },
        {
            "positions": [
                0.25311167989003197,
                -2.0643509065549486,
                -2.0669606697657423,
                1.319512617182619,
                0.36729410249404426,
                -0.017946796980901812
            ]
        },
        {
            "positions": [
                0.14351578450028313,
                -2.117697929019479,
                -2.146438812444357,
                1.356859310264784,
                0.31805799955945285,
                -0.0013206312689170163
            ]
        },
        {
            "positions": [
                0.03391988911053434,
                -2.1710449514840087,
                -2.225916955122972,
                1.3942060033469488,
                0.26882189662486144,
                0.015305534443067773
            ]
        },
        {
            "positions": [
                -0.07567600627921456,
                -2.2243919739485385,
                -2.3053950978015867,
                1.4315526964291134,
                0.21958579369027004,
                0.031931700155052575
            ]
        },
        {
            "positions": [
                -0.18527190166896335,
                -2.2777389964130683,
                -2.3848732404802013,
                1.4688993895112783,
                0.1703496907556786,
                0.04855786586703736
            ]
        }
    ]
}