{
    "goal": {
        "global_pose": {
            "orientation": {
                "w": 0.5084816262002911,
                "x": -0.4908360881923452,
                "y": 0.5182115481033761,
                "z": -0.48164630358495003
            },
            "position": {
                "x": 0.5540239810943604,
                "y": -0.46912469901144505,
                "z": 0.16403168439865112
            }
        },
        "name": "move_to_storage_B"
    },
    "id": "ProjEST_move_to_storage_B_96",
    "joint_names": [
        "shoulder_pan_joint",
        "shoulder_lift_joint",
        "elbow_joint",
        "wrist_1_joint",
        "wrist_2_joint",
        "wrist_3_joint"
    ],
    "metrics": {
        "cart_traj_len": 0.7609799921643121,
        "distance_elbow_joint": 0.35533062749773037,
        "distance_shoulder_lift_joint": 0.4599992848300145,
        "distance_shoulder_pan_joint": 0.47622792368758704,
        "distance_wrist_1_joint": 3.239484715473517,
        "distance_wrist_2_joint": 2.706056881561334,
        "distance_wrist_3_joint": 3.116726973366363,
        "smoothness": 0.22512642046531722,
        "time": 0.127836204,
        "traj_len": 3.2177362238717686,
        "weighted_distance": 4.746874966773837
    },
    "planner": "ProjEST",
    "start": {
        "state": {
            "elbow_joint": 1.6649325340416963,
            "shoulder_lift_joint": -0.6616387945129425,
            "shoulder_pan_joint": -0.9139837929255878,
            "wrist_1_joint": 2.1467571094334352,
            "wrist_2_joint": -2.234195976750228,
            "wrist_3_joint": 0.005470921511140723
        }
    },
    "waypoints": [
        {
            "positions": [
                -0.9139837929255878,
                -0.6616387945129425,
                1.6649325340416963,
                2.1467571094334352,
                -2.234195976750228,
                0.005470921511140723
            ]
        },
        {
            "positions": [
                -0.8404011050988269,
                -0.722421295052535,
                1.7526464171213512,
                2.2038460854410333,
                -2.1774609816546944,
                -0.011505584383249102
            ]
        },
        {
            "positions": [
                -0.766818417272066,
                -0.7832037955921277,
                1.840360300201006,
                2.260935061448631,
                -2.120725986559161,
                -0.028482090277638927
            ]
        },
        {
            "positions": [
                -0.7799809191934286,
                -0.7967411669421609,
                1.847556414654543,
                2.135922790910298,
                -2.0170225109043503,
                -0.15179304874074226
            ]
        },
        {
            "positions": [
                -0.7931434211147912,
                -0.8102785382921941,
                1.8547525291080798,
                2.0109105203719655,
                -1.9133190352495395,
                -0.2751040072038456
            ]
        },
        {
            "positions": [
                -0.8063059230361538,
                -0.8238159096422273,
                1.8619486435616166,
                1.8858982498336325,
                -1.8096155595947288,
                -0.3984149656669489
            ]
        },
        {
            "positions": [
                -0.8194684249575165,
                -0.8373532809922604,
                1.8691447580151535,
                1.7608859792952996,
                -1.7059120839399182,
                -0.5217259241300523
            ]
        },
        {
            "positions": [
                -0.8326309268788791,
                -0.8508906523422936,
                1.87634087246869,
                1.6358737087569668,
                -1.6022086082851072,
                -0.6450368825931556
            ]
        },
        {
            "positions": [
                -0.8457934288002417,
                -0.8644280236923267,
                1.883536986922227,
                1.510861438218634,
                -1.4985051326302967,
                -0.7683478410562589
            ]
        },
        {
            "positions": [
                -0.8589559307216043,
                -0.8779653950423599,
                1.8907331013757638,
                1.385849167680301,
                -1.394801656975486,
                -0.8916587995193623
            ]
        },
        {
            "positions": [
                -0.8721184326429668,
                -0.8915027663923931,
                1.8979292158293006,
                1.2608368971419683,
                -1.2910981813206754,
                -1.0149697579824655
            ]
        },
        {
            "positions": [
                -0.8852809345643294,
                -0.9050401377424262,
                1.9051253302828375,
                1.1358246266036356,
                -1.1873947056658647,
                -1.138280716445569
            ]
        },
        {
            "positions": [
                -0.8984434364856921,
                -0.9185775090924595,
                1.9123214447363743,
                1.0108123560653026,
                -1.083691230011054,
                -1.2615916749086722
            ]
        },
        {
            "positions": [
                -0.9116059384070547,
                -0.9321148804424926,
                1.9195175591899112,
                0.8858000855269699,
                -0.9799877543562434,
                -1.3849026333717758
            ]
        },
        {
            "positions": [
                -0.9247684403284173,
                -0.9456522517925258,
                1.926713673643448,
                0.7607878149886371,
                -0.8762842787014329,
                -1.508213591834879
            ]
        },
        {
            "positions": [
                -0.9379309422497799,
                -0.959189623142559,
                1.9339097880969847,
                0.6357755444503042,
                -0.7725808030466219,
                -1.6315245502979825
            ]
        },
        {
            "positions": [
                -0.9510934441711425,
                -0.9727269944925921,
                1.9411059025505215,
                0.5107632739119712,
                -0.6688773273918112,
                -1.7548355087610856
            ]
        },
        {
            "positions": [
                -0.9642559460925051,
                -0.9862643658426253,
                1.9483020170040584,
                0.38575100337363866,
                -0.5651738517370009,
                -1.8781464672241888
            ]
        },
        {
            "positions": [
                -0.9774184480138677,
                -0.9998017371926584,
                1.9554981314575952,
                0.2607387328353057,
                -0.4614703760821901,
                -2.0014574256872923
            ]
        },
        {
            "positions": [
                -0.9905809499352304,
                -1.0133391085426917,
                1.962694245911132,
                0.13572646229697272,
                -0.35776690042737935,
                -2.124768384150396
            ]
        },
        {
            "positions": [
                -1.0037434518565929,
                -1.0268764798927248,
                1.969890360364669,
                0.01071419175864019,
                -0.2540634247725688,
                -2.248079342613499
            ]
        },
        {
            "positions": [
                -1.0169059537779557,
                -1.040413851242758,
                1.9770864748182058,
                -0.11429807877969278,
                -0.15035994911775807,
                -2.371390301076602
            ]
        },
        {
            "positions": [
                -1.0300684556993183,
                -1.0539512225927912,
                1.9842825892717426,
                -0.23931034931802575,
                -0.0466564734629471,
                -2.494701259539706
            ]
        },
        {
            "positions": [
                -1.0432309576206809,
                -1.0674885939428242,
                1.9914787037252792,
                -0.3643226198563583,
                0.05704700219186343,
                -2.618012218002809
            ]
        },
        {
            "positions": [
                -1.0563934595420434,
                -1.0810259652928575,
                1.998674818178816,
                -0.48933489039469125,
                0.16075047784667396,
                -2.7413231764659125
            ]
        },
        {
            "positions": [
                -1.069555961463406,
                -1.0945633366428906,
                2.005870932632353,
                -0.6143471609330242,
                0.26445395350148493,
                -2.8646341349290156
            ]
        },
        {
            "positions": [
                -1.0827184633847686,
                -1.1081007079929237,
                2.01306704708589,
                -0.7393594314713567,
                0.368157429156295,
                -2.9879450933921188
            ]
        },
        {
            "positions": [
                -1.0958809653061312,
                -1.121638079342957,
                2.0202631615394266,
                -0.8643717020096899,
                0.47186090481110593,
                -3.1112560518552224
            ]
        }
    ]
}