{
    "goal": {
        "global_pose": {
            "orientation": {
                "w": 0.5084816217422485,
                "x": -0.49083608388900757,
                "y": 0.5182115435600281,
                "z": -0.4816462993621826
            },
            "position": {
                "x": 0.5540239810943604,
                "y": 0.030875300988554955,
                "z": 0.16403168439865112
            }
        },
        "name": "move_to_storage_A"
    },
    "id": "ProjEST_move_to_storage_A_105",
    "joint_names": [
        "shoulder_pan_joint",
        "shoulder_lift_joint",
        "elbow_joint",
        "wrist_1_joint",
        "wrist_2_joint",
        "wrist_3_joint"
    ],
    "metrics": {
        "cart_traj_len": 0.35295330866707403,
        "distance_elbow_joint": 0.4500260922369941,
        "distance_shoulder_lift_joint": 0.23670492484199213,
        "distance_shoulder_pan_joint": 0.462750013340184,
        "distance_wrist_1_joint": 0.23704748526050157,
        "distance_wrist_2_joint": 1.094735018796912,
        "distance_wrist_3_joint": 0.10169264213021378,
        "smoothness": 4.440892098500626e-16,
        "time": 0.072972012,
        "traj_len": 1.6071577945574598,
        "weighted_distance": 2.029316132327499
    },
    "planner": "ProjEST",
    "start": {
        "state": {
            "elbow_joint": 1.971548880431181,
            "shoulder_lift_joint": -1.1394869514688781,
            "shoulder_pan_joint": 0.12281150262730567,
            "wrist_1_joint": -0.7804693444481463,
            "wrist_2_joint": 0.12958644648617612,
            "wrist_3_joint": 3.0906942077768043
        }
    },
    "waypoints": [
        {
            "positions": [
                0.12281150262730567,
                -1.1394869514688781,
                1.971548880431181,
                -0.7804693444481463,
                0.12958644648617612,
                3.0906942077768043
            ]
        },
        {
            "positions": [
                0.05670435786442224,
                -1.1733019407320198,
                2.035838322179323,
                -0.8143332709139323,
                0.2859771634571635,
                3.1052217280811205
            ]
        },
        {
            "positions": [
                -0.00940278689846119,
                -1.2071169299951616,
                2.100127763927465,
                -0.8481971973797182,
                0.44236788042815095,
                3.1197492483854368
            ]
        },
        {
            "positions": [
                -0.07550993166134462,
                -1.2409319192583033,
                2.164417205675607,
                -0.8820611238455041,
                0.5987585973991384,
                3.134276768689753
            ]
        },
        {
            "positions": [
                -0.14161707642422805,
                -1.2747469085214451,
                2.228706647423749,
                -0.91592505031129,
                0.7551493143701258,
                3.1488042889940693
            ]
        },
        {
            "positions": [
                -0.20772422118711148,
                -1.3085618977845868,
                2.292996089171891,
                -0.949788976777076,
                0.9115400313411133,
                3.1633318092983855
            ]
        },
        {
            "positions": [
                -0.2738313659499949,
                -1.3423768870477284,
                2.357285530920033,
                -0.9836529032428619,
                1.0679307483121008,
                3.177859329602702
            ]
        },
        {
            "positions": [
                -0.33993851071287834,
                -1.3761918763108703,
                2.421574972668175,
                -1.0175168297086479,
                1.2243214652830883,
                3.192386849907018
            ]
        }
    ]
}