{
    "goal": {
        "global_pose": {
            "orientation": {
                "w": 0.005598929693374612,
                "x": 0.007748599140229565,
                "y": 0.7110244013736278,
                "z": -0.7031023480610252
            },
            "position": {
                "x": -0.8858502320852131,
                "y": -0.7141253447532654,
                "z": 0.3711530566215515
            }
        },
        "name": "move_to_auspresseinheit_C"
    },
    "id": "ProjEST_move_to_auspresseinheit_C_63",
    "joint_names": [
        "shoulder_pan_joint",
        "shoulder_lift_joint",
        "elbow_joint",
        "wrist_1_joint",
        "wrist_2_joint",
        "wrist_3_joint"
    ],
    "metrics": {
        "cart_traj_len": 0.4933162679984352,
        "distance_elbow_joint": 0.9922350951404683,
        "distance_shoulder_lift_joint": 0.3206871132093021,
        "distance_shoulder_pan_joint": 0.256794760871458,
        "distance_wrist_1_joint": 0.6606562003552285,
        "distance_wrist_2_joint": 1.3081869920276814,
        "distance_wrist_3_joint": 0.05256199703479858,
        "smoothness": 6.459479416000911e-16,
        "time": 0.018296682999999998,
        "traj_len": 1.8950256353513892,
        "weighted_distance": 2.380144815991549
    },
    "planner": "ProjEST",
    "start": {
        "state": {
            "elbow_joint": 1.7527959577730765,
            "shoulder_lift_joint": -0.9740617694224828,
            "shoulder_pan_joint": -2.967991417825869,
            "wrist_1_joint": -0.7595177689779385,
            "wrist_2_joint": 1.7443932448376545,
            "wrist_3_joint": 3.1991315425061013
        }
    },
    "waypoints": [
        {
            "positions": [
                -2.967991417825869,
                -0.9740617694224828,
                1.7527959577730765,
                -0.7595177689779385,
                1.7443932448376545,
                3.1991315425061013
            ]
        },
        {
            "positions": [
                -2.942311941738723,
                -0.9419930581015525,
                1.6535724482590297,
                -0.6934521489424157,
                1.6135745456348862,
                3.1938753428026216
            ]
        },
        {
            "positions": [
                -2.9166324656515776,
                -0.9099243467806224,
                1.554348938744983,
                -0.6273865289068928,
                1.4827558464321182,
                3.1886191430991415
            ]
        },
        {
            "positions": [
                -2.8909529895644317,
                -0.8778556354596921,
                1.455125429230936,
                -0.56132090887137,
                1.35193714722935,
                3.183362943395662
            ]
        },
        {
            "positions": [
                -2.8652735134772858,
                -0.8457869241387619,
                1.3559019197168891,
                -0.49525528883584713,
                1.2211184480265818,
                3.1781067436921817
            ]
        },
        {
            "positions": [
                -2.83959403739014,
                -0.8137182128178317,
                1.2566784102028423,
                -0.4291896688003243,
                1.0902997488238138,
                3.172850543988702
            ]
        },
        {
            "positions": [
                -2.8139145613029943,
                -0.7816495014969016,
                1.1574549006887955,
                -0.3631240487648014,
                0.9594810496210456,
                3.1675943442852224
            ]
        },
        {
            "positions": [
                -2.7882350852158484,
                -0.7495807901759713,
                1.0582313911747487,
                -0.2970584287292786,
                0.8286623504182775,
                3.1623381445817422
            ]
        },
        {
            "positions": [
                -2.7625556091287025,
                -0.7175120788550411,
                0.9590078816607018,
                -0.2309928086937557,
                0.6978436512155093,
                3.1570819448782625
            ]
        },
        {
            "positions": [
                -2.736876133041557,
                -0.685443367534111,
                0.859784372146655,
                -0.16492718865823286,
                0.5670249520127411,
                3.1518257451747824
            ]
        },
        {
            "positions": [
                -2.711196656954411,
                -0.6533746562131807,
                0.7605608626326082,
                -0.09886156862270995,
                0.43620625280997305,
                3.1465695454713027
            ]
        }
    ]
}