{
    "goal": {
        "global_pose": {
            "orientation": {
                "w": 0.7047431493862688,
                "x": -0.7094548369677653,
                "y": 0.0024358444001904,
                "z": -0.0022348060817251984
            },
            "position": {
                "x": -0.39052492380142206,
                "y": 0.3671506643295288,
                "z": 0.19426114857196808
            }
        },
        "name": "move_to_magneteinheit_D"
    },
    "id": "ProjEST_move_to_magneteinheit_D_7",
    "joint_names": [
        "shoulder_pan_joint",
        "shoulder_lift_joint",
        "elbow_joint",
        "wrist_1_joint",
        "wrist_2_joint",
        "wrist_3_joint"
    ],
    "metrics": {
        "cart_traj_len": 3.9440295875635027,
        "distance_elbow_joint": 3.9589219358702192,
        "distance_shoulder_lift_joint": 1.629749059412071,
        "distance_shoulder_pan_joint": 3.2788670129981714,
        "distance_wrist_1_joint": 2.283809823197628,
        "distance_wrist_2_joint": 1.649658474230896,
        "distance_wrist_3_joint": 4.129749974878563,
        "smoothness": 0.5272570512917845,
        "time": 0.42720269499999997,
        "traj_len": 4.114700023159349,
        "weighted_distance": 5.396640114717044
    },
    "planner": "ProjEST",
    "start": {
        "state": {
            "elbow_joint": 0.7495348899011911,
            "shoulder_lift_joint": -0.6476975780737668,
            "shoulder_pan_joint": -2.711696901376276,
            "wrist_1_joint": -0.0750647808097303,
            "wrist_2_joint": 0.43296659715458535,
            "wrist_3_joint": 3.1361499051832418
        }
    },
    "waypoints": [
        {
            "positions": [
                -2.711696901376276,
                -0.6476975780737668,
                0.7495348899011911,
                -0.0750647808097303,
                0.43296659715458535,
                3.1361499051832418
            ]
        },
        {
            "positions": [
                -2.7090712236368817,
                -0.6819183817311103,
                0.793252494049859,
                -0.025886831939382404,
                0.37013250281627263,
                3.0231517533642425
            ]
        },
        {
            "positions": [
                -2.7064455458974876,
                -0.7161391853884537,
                0.8369700981985269,
                0.023291116930965486,
                0.3072984084779599,
                2.9101536015452436
            ]
        },
        {
            "positions": [
                -2.703819868158093,
                -0.750359989045797,
                0.8806877023471947,
                0.07246906580131339,
                0.2444643141396472,
                2.7971554497262447
            ]
        },
        {
            "positions": [
                -2.7011941904186987,
                -0.7845807927031405,
                0.9244053064958626,
                0.12164701467166128,
                0.18163021980133448,
                2.6841572979072454
            ]
        },
        {
            "positions": [
                -2.6919877220104467,
                -0.8309726457335063,
                0.902472123922141,
                0.18220057625401373,
                0.12400387776413156,
                2.5537827968678077
            ]
        },
        {
            "positions": [
                -2.6827812536021947,
                -0.877364498763872,
                0.8805389413484195,
                0.24275413783636618,
                0.06637753572692864,
                2.4234082958283705
            ]
        },
        {
            "positions": [
                -2.673574785193943,
                -0.9237563517942378,
                0.8586057587746979,
                0.3033076994187186,
                0.00875119368972574,
                2.2930337947889328
            ]
        },
        {
            "positions": [
                -2.664368316785691,
                -0.9701482048246035,
                0.8366725762009763,
                0.3638612610010711,
                -0.04887514834747719,
                2.1626592937494955
            ]
        },
        {
            "positions": [
                -2.655161848377439,
                -1.0165400578549693,
                0.8147393936272548,
                0.42441482258342356,
                -0.10650149038468013,
                2.032284792710058
            ]
        },
        {
            "positions": [
                -2.570168224006607,
                -1.0446311392089294,
                0.7125877096104524,
                0.4506116287040733,
                -0.11152260572113121,
                1.9120721488227996
            ]
        },
        {
            "positions": [
                -2.485174599635774,
                -1.0727222205628895,
                0.6104360255936501,
                0.47680843482472307,
                -0.1165437210575823,
                1.7918595049355415
            ]
        },
        {
            "positions": [
                -2.400180975264942,
                -1.1008133019168496,
                0.5082843415768477,
                0.5030052409453728,
                -0.12156483639403338,
                1.6716468610482833
            ]
        },
        {
            "positions": [
                -2.3151873508941097,
                -1.1289043832708097,
                0.4061326575600453,
                0.5292020470660226,
                -0.12658595173048448,
                1.5514342171610254
            ]
        },
        {
            "positions": [
                -2.230193726523277,
                -1.1569954646247698,
                0.3039809735432428,
                0.5553988531866723,
                -0.13160706706693556,
                1.431221573273767
            ]
        },
        {
            "positions": [
                -2.1452001021524447,
                -1.1850865459787299,
                0.20182928952644053,
                0.581595659307322,
                -0.13662818240338664,
                1.311008929386509
            ]
        },
        {
            "positions": [
                -2.026279799715792,
                -1.2092109521729113,
                0.08497357463784827,
                0.5954924697889608,
                -0.11802556481264265,
                1.212603841590526
            ]
        },
        {
            "positions": [
                -1.9073594972791392,
                -1.233335358367093,
                -0.031882140250743984,
                0.6093892802705995,
                -0.09942294722189866,
                1.1141987537945428
            ]
        },
        {
            "positions": [
                -1.7884391948424865,
                -1.2574597645612744,
                -0.14873785513933624,
                0.6232860907522382,
                -0.08082032963115468,
                1.0157936659985598
            ]
        },
        {
            "positions": [
                -1.6695188924058335,
                -1.281584170755456,
                -0.2655935700279285,
                0.6371829012338769,
                -0.06221771204041068,
                0.9173885782025768
            ]
        },
        {
            "positions": [
                -1.5505985899691808,
                -1.3057085769496375,
                -0.38244928491652075,
                0.6510797117155156,
                -0.043615094449666686,
                0.8189834904065937
            ]
        },
        {
            "positions": [
                -1.431678287532528,
                -1.329832983143819,
                -0.499304999805113,
                0.6649765221971543,
                -0.025012476858922703,
                0.7205784026106107
            ]
        },
        {
            "positions": [
                -1.312757985095875,
                -1.3539573893380006,
                -0.6161607146937053,
                0.678873332678793,
                -0.0064098592681786914,
                0.6221733148146276
            ]
        },
        {
            "positions": [
                -1.1938376826592223,
                -1.378081795532182,
                -0.7330164295822975,
                0.6927701431604316,
                0.012192758322565278,
                0.5237682270186446
            ]
        },
        {
            "positions": [
                -1.0749173802225696,
                -1.4022062017263637,
                -0.8498721444708898,
                0.7066669536420704,
                0.030795375913309275,
                0.42536313922266145
            ]
        },
        {
            "positions": [
                -0.9559970777859168,
                -1.4263306079205451,
                -0.966727859359482,
                0.720563764123709,
                0.04939799350405327,
                0.32695805142667833
            ]
        },
        {
            "positions": [
                -0.8370767753492638,
                -1.4504550141147265,
                -1.0835835742480744,
                0.7344605746053479,
                0.06800061109479727,
                0.22855296363069533
            ]
        },
        {
            "positions": [
                -0.7181564729126113,
                -1.474579420308908,
                -1.2004392891366664,
                0.7483573850869865,
                0.08660322868554124,
                0.13014787583471232
            ]
        },
        {
            "positions": [
                -0.5992361704759583,
                -1.4987038265030896,
                -1.317295004025259,
                0.7622541955686252,
                0.10520584627628524,
                0.0317427880387291
            ]
        },
        {
            "positions": [
                -0.4803158680393056,
                -1.5228282326972713,
                -1.434150718913851,
                0.7761510060502639,
                0.12380846386702926,
                -0.0666622997572539
            ]
        },
        {
            "positions": [
                -0.3613955656026526,
                -1.5469526388914527,
                -1.5510064338024434,
                0.7900478165319026,
                0.14241108145777326,
                -0.1650673875532369
            ]
        },
        {
            "positions": [
                -0.2424752631660001,
                -1.5710770450856342,
                -1.6678621486910354,
                0.8039446270135413,
                0.1610136990485172,
                -0.2634724753492199
            ]
        },
        {
            "positions": [
                -0.12355496072934713,
                -1.5952014512798156,
                -1.784717863579628,
                0.81784143749518,
                0.1796163166392612,
                -0.36187756314520314
            ]
        },
        {
            "positions": [
                -0.004634658292694313,
                -1.6193258574739973,
                -1.90157357846822,
                0.8317382479768187,
                0.1982189342300052,
                -0.46028265094118614
            ]
        },
        {
            "positions": [
                0.019767883497879397,
                -1.6223565578093235,
                -1.9922631603418175,
                0.95674814530113,
                0.24383865012538294,
                -0.4018425568175367
            ]
        },
        {
            "positions": [
                0.04417042528845311,
                -1.62538725814465,
                -2.082952742215415,
                1.0817580426254412,
                0.2894583660207607,
                -0.3434024626938873
            ]
        },
        {
            "positions": [
                0.06857296707902681,
                -1.6284179584799765,
                -2.1736423240890126,
                1.2067679399497524,
                0.3350780819161384,
                -0.28496236857023793
            ]
        },
        {
            "positions": [
                0.09297550886960053,
                -1.6314486588153028,
                -2.26433190596261,
                1.3317778372740636,
                0.38069779781151614,
                -0.2265222744465885
            ]
        },
        {
            "positions": [
                0.11737805066017425,
                -1.634479359150629,
                -2.355021487836208,
                1.4567877345983749,
                0.4263175137068939,
                -0.1680821803229391
            ]
        },
        {
            "positions": [
                0.14178059245074792,
                -1.6375100594859555,
                -2.4457110697098057,
                1.581797631922686,
                0.47193722960227164,
                -0.10964208619928972
            ]
        },
        {
            "positions": [
                0.16618313424132164,
                -1.640540759821282,
                -2.536400651583403,
                1.7068075292469973,
                0.5175569454976494,
                -0.0512019920756403
            ]
        },
        {
            "positions": [
                0.19058567603189536,
                -1.6435714601566083,
                -2.6270902334570008,
                1.8318174265713085,
                0.5631766613930271,
                0.007238102048009121
            ]
        },
        {
            "positions": [
                0.12782160343356183,
                -1.7492173230448131,
                -2.588330903569887,
                1.7689961572685435,
                0.4998001862469421,
                0.018204213008832203
            ]
        },
        {
            "positions": [
                0.0650575308352283,
                -1.854863185933018,
                -2.5495715736827727,
                1.7061748879657788,
                0.43642371110085704,
                0.029170323969655285
            ]
        },
        {
            "positions": [
                0.002293458236894752,
                -1.9605090488212231,
                -2.510812243795659,
                1.643353618663014,
                0.37304723595477196,
                0.04013643493047837
            ]
        },
        {
            "positions": [
                -0.060470614361438746,
                -2.066154911709428,
                -2.472052913908545,
                1.580532349360249,
                0.30967076080868694,
                0.05110254589130145
            ]
        },
        {
            "positions": [
                -0.12323468695977235,
                -2.171800774597633,
                -2.4332935840214307,
                1.517711080057484,
                0.2462942856626018,
                0.06206865685212453
            ]
        },
        {
            "positions": [
                -0.18599875955810583,
                -2.2774466374858378,
                -2.394534254134317,
                1.4548898107547192,
                0.18291781051651682,
                0.07303476781294761
            ]
        }
    ]
}