{
    "goal": {
        "global_pose": {
            "orientation": {
                "w": 0.7031023502349854,
                "x": -0.7110244035720825,
                "y": 0.007748599164187908,
                "z": 0.005598929710686207
            },
            "position": {
                "x": 0.11585023208521307,
                "y": 0.44412534475326537,
                "z": 0.3711530566215515
            }
        },
        "name": "move_to_auspresseinheit_A"
    },
    "id": "ProjEST_move_to_auspresseinheit_A_80",
    "joint_names": [
        "shoulder_pan_joint",
        "shoulder_lift_joint",
        "elbow_joint",
        "wrist_1_joint",
        "wrist_2_joint",
        "wrist_3_joint"
    ],
    "metrics": {
        "cart_traj_len": 0.7010462371788572,
        "distance_elbow_joint": 0.04080078224342909,
        "distance_shoulder_lift_joint": 0.5361677411247752,
        "distance_shoulder_pan_joint": 1.066883093631795,
        "distance_wrist_1_joint": 0.6115506694213039,
        "distance_wrist_2_joint": 0.5290700025844027,
        "distance_wrist_3_joint": 0.13259151448561424,
        "smoothness": 1.603018028014688,
        "time": 0.261611079,
        "traj_len": 1.7079413934591903,
        "weighted_distance": 2.0791506690156574
    },
    "planner": "ProjEST",
    "start": {
        "state": {
            "elbow_joint": 2.4225746994637096,
            "shoulder_lift_joint": -1.373653595662188,
            "shoulder_pan_joint": -0.3378633848294565,
            "wrist_1_joint": -1.0288595594406726,
            "wrist_2_joint": 1.2330228066703421,
            "wrist_3_joint": 3.189163495502006
        }
    },
    "waypoints": [
        {
            "positions": [
                -0.3378633848294565,
                -1.373653595662188,
                2.4225746994637096,
                -1.0288595594406726,
                1.2330228066703421,
                3.189163495502006
            ]
        },
        {
            "positions": [
                -0.20591330631990742,
                -1.4404135466906824,
                2.4180919904750287,
                -0.9550494730668118,
                1.1669411850332858,
                3.177240891311805
            ]
        },
        {
            "positions": [
                -0.07396322781035836,
                -1.5071734977191769,
                2.4136092814863477,
                -0.8812393866929508,
                1.1008595633962295,
                3.165318287121605
            ]
        },
        {
            "positions": [
                0.057986850699190684,
                -1.5739334487476715,
                2.4091265724976667,
                -0.8074293003190898,
                1.034777941759173,
                3.153395682931404
            ]
        },
        {
            "positions": [
                0.18993692920873978,
                -1.640693399776166,
                2.4046438635089857,
                -0.7336192139452289,
                0.9686963201221166,
                3.1414730787412033
            ]
        },
        {
            "positions": [
                0.3218870077182889,
                -1.7074533508046603,
                2.4001611545203048,
                -0.659809127571368,
                0.9026146984850603,
                3.129550474551003
            ]
        },
        {
            "positions": [
                0.45383708622783786,
                -1.774213301833155,
                2.395678445531624,
                -0.585999041197507,
                0.8365330768480039,
                3.1176278703608022
            ]
        },
        {
            "positions": [
                0.5857871647373869,
                -1.8409732528616494,
                2.391195736542943,
                -0.512188954823646,
                0.7704514552109476,
                3.105705266170602
            ]
        },
        {
            "positions": [
                0.7177372432469361,
                -1.9077332038901438,
                2.386713027554262,
                -0.43837886844978513,
                0.7043698335738912,
                3.093782661980401
            ]
        },
        {
            "positions": [
                0.7064547776915339,
                -1.9056450709933244,
                2.391652137888243,
                -0.4594488468802015,
                0.7039528040859394,
                3.130993342944411
            ]
        }
    ]
}