{
    "goal": {
        "global_pose": {
            "orientation": {
                "w": -0.00223480608172531,
                "x": 0.0024358444001904467,
                "y": 0.7094548369677653,
                "z": -0.704743149386269
            },
            "position": {
                "x": 0.6205249238014221,
                "y": -0.6371506643295288,
                "z": 0.19426114857196808
            }
        },
        "name": "move_to_magneteinheit_B"
    },
    "id": "ProjEST_move_to_magneteinheit_B_33",
    "joint_names": [
        "shoulder_pan_joint",
        "shoulder_lift_joint",
        "elbow_joint",
        "wrist_1_joint",
        "wrist_2_joint",
        "wrist_3_joint"
    ],
    "metrics": {
        "cart_traj_len": 1.4540422290176516,
        "distance_elbow_joint": 0.7309030254835553,
        "distance_shoulder_lift_joint": 1.2479744702970992,
        "distance_shoulder_pan_joint": 1.6217510359081695,
        "distance_wrist_1_joint": 2.6092535575942084,
        "distance_wrist_2_joint": 2.9401887345618194,
        "distance_wrist_3_joint": 3.1524751261197586,
        "smoothness": 0.0,
        "time": 0.369834033,
        "traj_len": 3.507498531712396,
        "weighted_distance": 4.9149708538668015
    },
    "planner": "ProjEST",
    "start": {
        "state": {
            "elbow_joint": 2.393587130804639,
            "shoulder_lift_joint": -1.9085141043513325,
            "shoulder_pan_joint": 0.7066247066698809,
            "wrist_1_joint": -0.4678290934590222,
            "wrist_2_joint": 0.7096259084215963,
            "wrist_3_joint": 3.147370379541726
        }
    },
    "waypoints": [
        {
            "positions": [
                0.7066247066698809,
                -1.9085141043513325,
                2.393587130804639,
                -0.4678290934590222,
                0.7096259084215963,
                3.147370379541726
            ]
        },
        {
            "positions": [
                0.6559449867977506,
                -1.869514902154548,
                2.3707464112582777,
                -0.38628991978420313,
                0.6177450104665395,
                3.0488555318504837
            ]
        },
        {
            "positions": [
                0.6052652669256202,
                -1.8305156999577639,
                2.3479056917119165,
                -0.30475074610938413,
                0.5258641125114827,
                2.950340684159241
            ]
        },
        {
            "positions": [
                0.55458554705349,
                -1.7915164977609794,
                2.3250649721655554,
                -0.2232115724345651,
                0.43398321455642574,
                2.8518258364679987
            ]
        },
        {
            "positions": [
                0.5039058271813597,
                -1.752517295564195,
                2.3022242526191943,
                -0.14167239875974608,
                0.3421023166013689,
                2.7533109887767564
            ]
        },
        {
            "positions": [
                0.4532261073092294,
                -1.7135180933674108,
                2.279383533072833,
                -0.06013322508492708,
                0.2502214186463121,
                2.6547961410855136
            ]
        },
        {
            "positions": [
                0.4025463874370991,
                -1.6745188911706264,
                2.256542813526472,
                0.021405948589891977,
                0.15834052069125515,
                2.5562812933942713
            ]
        },
        {
            "positions": [
                0.35186666756496876,
                -1.635519688973842,
                2.233702093980111,
                0.10294512226471103,
                0.06645962273619832,
                2.4577664457030286
            ]
        },
        {
            "positions": [
                0.3011869476928385,
                -1.5965204867770577,
                2.21086137443375,
                0.18448429593953003,
                -0.025421275218858508,
                2.3592515980117863
            ]
        },
        {
            "positions": [
                0.2505072278207082,
                -1.5575212845802735,
                2.188020654887389,
                0.26602346961434903,
                -0.11730217317391534,
                2.260736750320544
            ]
        },
        {
            "positions": [
                0.19982750794857795,
                -1.518522082383489,
                2.165179935341028,
                0.347562643289168,
                -0.20918307112897216,
                2.1622219026293017
            ]
        },
        {
            "positions": [
                0.14914778807644757,
                -1.4795228801867046,
                2.142339215794667,
                0.42910181696398714,
                -0.3010639690840291,
                2.063707054938059
            ]
        },
        {
            "positions": [
                0.0984680682043173,
                -1.4405236779899204,
                2.1194984962483057,
                0.5106409906388061,
                -0.39294486703908604,
                1.9651922072468166
            ]
        },
        {
            "positions": [
                0.047788348332187036,
                -1.401524475793136,
                2.0966577767019445,
                0.5921801643136253,
                -0.48482576499414276,
                1.8666773595555741
            ]
        },
        {
            "positions": [
                -0.0028913715399433437,
                -1.3625252735963516,
                2.0738170571555834,
                0.6737193379884443,
                -0.5767066629491997,
                1.7681625118643316
            ]
        },
        {
            "positions": [
                -0.05357109141207361,
                -1.3235260713995673,
                2.0509763376092223,
                0.7552585116632633,
                -0.6685875609042564,
                1.6696476641730893
            ]
        },
        {
            "positions": [
                -0.10425081128420388,
                -1.284526869202783,
                2.028135618062861,
                0.8367976853380823,
                -0.7604684588593134,
                1.5711328164818468
            ]
        },
        {
            "positions": [
                -0.15493053115633415,
                -1.2455276670059985,
                2.0052948985165,
                0.9183368590129013,
                -0.8523493568143703,
                1.4726179687906042
            ]
        },
        {
            "positions": [
                -0.20561025102846442,
                -1.2065284648092143,
                1.9824541789701389,
                0.9998760326877203,
                -0.944230254769427,
                1.374103121099362
            ]
        },
        {
            "positions": [
                -0.2562899709005948,
                -1.1675292626124298,
                1.9596134594237777,
                1.0814152063625393,
                -1.036111152724484,
                1.2755882734081194
            ]
        },
        {
            "positions": [
                -0.30696969077272496,
                -1.1285300604156454,
                1.9367727398774166,
                1.1629543800373583,
                -1.1279920506795407,
                1.177073425716877
            ]
        },
        {
            "positions": [
                -0.35764941064485545,
                -1.0895308582188612,
                1.9139320203310555,
                1.2444935537121775,
                -1.2198729486345976,
                1.0785585780256346
            ]
        },
        {
            "positions": [
                -0.4083291305169857,
                -1.0505316560220768,
                1.8910913007846946,
                1.3260327273869965,
                -1.3117538465896545,
                0.9800437303343918
            ]
        },
        {
            "positions": [
                -0.459008850389116,
                -1.0115324538252923,
                1.8682505812383334,
                1.4075719010618155,
                -1.4036347445447113,
                0.8815288826431495
            ]
        },
        {
            "positions": [
                -0.5096885702612463,
                -0.9725332516285081,
                1.8454098616919723,
                1.4891110747366345,
                -1.4955156424997684,
                0.7830140349519072
            ]
        },
        {
            "positions": [
                -0.5603682901333765,
                -0.9335340494317238,
                1.8225691421456112,
                1.5706502484114535,
                -1.5873965404548251,
                0.6844991872606645
            ]
        },
        {
            "positions": [
                -0.6110480100055068,
                -0.8945348472349395,
                1.79972842259925,
                1.6521894220862727,
                -1.6792774384098819,
                0.5859843395694222
            ]
        },
        {
            "positions": [
                -0.6617277298776371,
                -0.855535645038155,
                1.7768877030528891,
                1.7337285957610915,
                -1.7711583363649386,
                0.4874694918781799
            ]
        },
        {
            "positions": [
                -0.7124074497497676,
                -0.8165364428413706,
                1.754046983506528,
                1.8152677694359107,
                -1.8630392343199957,
                0.38895464418693715
            ]
        },
        {
            "positions": [
                -0.7630871696218978,
                -0.7775372406445864,
                1.7312062639601669,
                1.8968069431107295,
                -1.9549201322750525,
                0.29043979649569485
            ]
        },
        {
            "positions": [
                -0.8137668894940281,
                -0.738538038447802,
                1.7083655444138057,
                1.9783461167855487,
                -2.0468010302301094,
                0.19192494880445254
            ]
        },
        {
            "positions": [
                -0.8644466093661584,
                -0.6995388362510178,
                1.6855248248674446,
                2.0598852904603673,
                -2.138681928185166,
                0.0934101011132098
            ]
        },
        {
            "positions": [
                -0.9151263292382885,
                -0.6605396340542333,
                1.6626841053210835,
                2.1414244641351865,
                -2.230562826140223,
                -0.005104746578032551
            ]
        }
    ]
}