{
    "goal": {
        "global_pose": {
            "orientation": {
                "w": 0.7047431468963623,
                "x": -0.7094548344612122,
                "y": 0.0024358443915843964,
                "z": -0.0022348060738295317
            },
            "position": {
                "x": 0.6094750761985779,
                "y": 0.3671506643295288,
                "z": 0.19426114857196808
            }
        },
        "name": "move_to_magneteinheit_A"
    },
    "id": "ProjEST_move_to_magneteinheit_A_13",
    "joint_names": [
        "shoulder_pan_joint",
        "shoulder_lift_joint",
        "elbow_joint",
        "wrist_1_joint",
        "wrist_2_joint",
        "wrist_3_joint"
    ],
    "metrics": {
        "cart_traj_len": 1.9675468913507972,
        "distance_elbow_joint": 3.577732354669582,
        "distance_shoulder_lift_joint": 0.7871575036921576,
        "distance_shoulder_pan_joint": 1.2412878705127248,
        "distance_wrist_1_joint": 1.197051372474745,
        "distance_wrist_2_joint": 1.4315603351464572,
        "distance_wrist_3_joint": 1.9906024897699703,
        "smoothness": 8.552829258061205e-16,
        "time": 0.057914738,
        "traj_len": 3.1977166738574008,
        "weighted_distance": 4.103073069472049
    },
    "planner": "ProjEST",
    "start": {
        "state": {
            "elbow_joint": -1.5739458827952972,
            "shoulder_lift_joint": 0.006533473998580023,
            "shoulder_pan_joint": -1.1188671628667068,
            "wrist_1_joint": 3.138208179676308,
            "wrist_2_joint": -1.5706037135050406,
            "wrist_3_joint": -2.0226958329764257
        }
    },
    "waypoints": [
        {
            "positions": [
                -1.1188671628667068,
                0.006533473998580023,
                -1.5739458827952972,
                3.138208179676308,
                -1.5706037135050406,
                -2.0226958329764257
            ]
        },
        {
            "positions": [
                -1.0711253216931405,
                -0.023741814604964506,
                -1.4363407922310825,
                3.0921677422734333,
                -1.5155437006147923,
                -1.9461341987545038
            ]
        },
        {
            "positions": [
                -1.023383480519574,
                -0.05401710320850903,
                -1.298735701666868,
                3.0461273048705584,
                -1.460483687724544,
                -1.8695725645325818
            ]
        },
        {
            "positions": [
                -0.9756416393460078,
                -0.08429239181205356,
                -1.1611306111026531,
                3.000086867467684,
                -1.4054236748342954,
                -1.7930109303106598
            ]
        },
        {
            "positions": [
                -0.9278997981724415,
                -0.11456768041559809,
                -1.0235255205384384,
                2.954046430064809,
                -1.3503636619440471,
                -1.7164492960887379
            ]
        },
        {
            "positions": [
                -0.8801579569988751,
                -0.1448429690191426,
                -0.8859204299742238,
                2.908005992661934,
                -1.2953036490537988,
                -1.6398876618668161
            ]
        },
        {
            "positions": [
                -0.8324161158253087,
                -0.17511825762268712,
                -0.748315339410009,
                2.8619655552590593,
                -1.2402436361635505,
                -1.5633260276448941
            ]
        },
        {
            "positions": [
                -0.7846742746517426,
                -0.20539354622623163,
                -0.6107102488457945,
                2.8159251178561844,
                -1.1851836232733022,
                -1.4867643934229722
            ]
        },
        {
            "positions": [
                -0.7369324334781762,
                -0.23566883482977619,
                -0.47310515828157973,
                2.76988468045331,
                -1.1301236103830536,
                -1.4102027592010502
            ]
        },
        {
            "positions": [
                -0.6891905923046098,
                -0.2659441234333207,
                -0.3355000677173652,
                2.723844243050435,
                -1.0750635974928053,
                -1.3336411249791285
            ]
        },
        {
            "positions": [
                -0.6414487511310434,
                -0.29621941203686525,
                -0.1978949771531504,
                2.67780380564756,
                -1.020003584602557,
                -1.2570794907572065
            ]
        },
        {
            "positions": [
                -0.5937069099574771,
                -0.32649470064040975,
                -0.06028988658893564,
                2.6317633682446853,
                -0.9649435717123087,
                -1.1805178565352845
            ]
        },
        {
            "positions": [
                -0.5459650687839107,
                -0.3567699892439543,
                0.07731520397527913,
                2.5857229308418104,
                -0.9098835588220603,
                -1.1039562223133625
            ]
        },
        {
            "positions": [
                -0.49822322761034443,
                -0.3870452778474988,
                0.21492029453949368,
                2.539682493438936,
                -0.854823545931812,
                -1.0273945880914406
            ]
        },
        {
            "positions": [
                -0.45048138643677815,
                -0.4173205664510433,
                0.35252538510370823,
                2.493642056036061,
                -0.7997635330415637,
                -0.9508329538695186
            ]
        },
        {
            "positions": [
                -0.40273954526321176,
                -0.4475958550545878,
                0.4901304756679228,
                2.447601618633186,
                -0.7447035201513154,
                -0.8742713196475969
            ]
        },
        {
            "positions": [
                -0.35499770408964537,
                -0.47787114365813244,
                0.6277355662321378,
                2.4015611812303113,
                -0.6896435072610668,
                -0.7977096854256747
            ]
        },
        {
            "positions": [
                -0.3072558629160791,
                -0.5081464322616769,
                0.7653406567963523,
                2.3555207438274364,
                -0.6345834943708185,
                -0.7211480512037529
            ]
        },
        {
            "positions": [
                -0.2595140217425127,
                -0.5384217208652213,
                0.9029457473605669,
                2.309480306424562,
                -0.5795234814805702,
                -0.644586416981831
            ]
        },
        {
            "positions": [
                -0.21177218056894642,
                -0.5686970094687659,
                1.0405508379247819,
                2.263439869021687,
                -0.524463468590322,
                -0.568024782759909
            ]
        },
        {
            "positions": [
                -0.16403033939538003,
                -0.5989722980723104,
                1.1781559284889964,
                2.217399431618812,
                -0.46940345570007347,
                -0.491463148537987
            ]
        },
        {
            "positions": [
                -0.11628849822181375,
                -0.629247586675855,
                1.3157610190532114,
                2.1713589942159373,
                -0.41434344280982516,
                -0.41490151431606503
            ]
        },
        {
            "positions": [
                -0.06854665704824736,
                -0.6595228752793995,
                1.453366109617426,
                2.1253185568130624,
                -0.35928342991957685,
                -0.33833988009414306
            ]
        },
        {
            "positions": [
                -0.02080481587468097,
                -0.689798163882944,
                1.5909712001816405,
                2.079278119410188,
                -0.30422341702932854,
                -0.2617782458722213
            ]
        },
        {
            "positions": [
                0.02693702529888542,
                -0.7200734524864886,
                1.7285762907458555,
                2.0332376820073126,
                -0.24916340413908,
                -0.18521661165029912
            ]
        },
        {
            "positions": [
                0.07467886647245159,
                -0.750348741090033,
                1.86618138131007,
                1.987197244604438,
                -0.1941033912488317,
                -0.10865497742837738
            ]
        },
        {
            "positions": [
                0.12242070764601802,
                -0.7806240296935776,
                2.0037864718742844,
                1.9411568072015633,
                -0.13904337835858338,
                -0.0320933432064554
            ]
        }
    ]
}