{
    "goal": {
        "global_pose": {
            "orientation": {
                "w": 0.5084816217422485,
                "x": -0.49083608388900757,
                "y": 0.5182115435600281,
                "z": -0.4816462993621826
            },
            "position": {
                "x": 0.5540239810943604,
                "y": 0.030875300988554955,
                "z": 0.16403168439865112
            }
        },
        "name": "move_to_storage_A"
    },
    "id": "ProjEST_move_to_storage_A_80",
    "joint_names": [
        "shoulder_pan_joint",
        "shoulder_lift_joint",
        "elbow_joint",
        "wrist_1_joint",
        "wrist_2_joint",
        "wrist_3_joint"
    ],
    "metrics": {
        "cart_traj_len": 0.3536597344754121,
        "distance_elbow_joint": 0.45042385058835177,
        "distance_shoulder_lift_joint": 0.23514770488040226,
        "distance_shoulder_pan_joint": 0.46401275887803706,
        "distance_wrist_1_joint": 0.23852286397826727,
        "distance_wrist_2_joint": 1.0941347414499405,
        "distance_wrist_3_joint": 0.0890660416303275,
        "smoothness": 2.2204460668324854e-16,
        "time": 0.14553749300000002,
        "traj_len": 1.6035298442515271,
        "weighted_distance": 2.020420166721316
    },
    "planner": "ProjEST",
    "start": {
        "state": {
            "elbow_joint": 1.971548880431181,
            "shoulder_lift_joint": -1.1394869514688781,
            "shoulder_pan_joint": 0.12281150262730567,
            "wrist_1_joint": -0.7804693444481463,
            "wrist_2_joint": 0.12958644648617612,
            "wrist_3_joint": 3.0906942077768043
        }
    },
    "waypoints": [
        {
            "positions": [
                0.12281150262730567,
                -1.1394869514688781,
                1.971548880431181,
                -0.7804693444481463,
                0.12958644648617612,
                3.0906942077768043
            ]
        },
        {
            "positions": [
                0.056523965644728946,
                -1.1730794807375071,
                2.0358951448009455,
                -0.8145440393021844,
                0.28589140955045333,
                3.103417928009708
            ]
        },
        {
            "positions": [
                -0.009763571337847776,
                -1.2066720100061359,
                2.1002414091707102,
                -0.8486187341562227,
                0.44219637261473055,
                3.1161416482426123
            ]
        },
        {
            "positions": [
                -0.0760511083204245,
                -1.2402645392747649,
                2.1645876735404745,
                -0.8826934290102608,
                0.5985013356790078,
                3.128865368475516
            ]
        },
        {
            "positions": [
                -0.14233864530300122,
                -1.2738570685433936,
                2.228933937910239,
                -0.9167681238642991,
                0.754806298743285,
                3.14158908870842
            ]
        },
        {
            "positions": [
                -0.20862618228557794,
                -1.3074495978120226,
                2.2932802022800036,
                -0.9508428187183372,
                0.9111112618075622,
                3.1543128089413237
            ]
        },
        {
            "positions": [
                -0.27491371926815467,
                -1.3410421270806514,
                2.3576264666497684,
                -0.9849175135723753,
                1.0674162248718395,
                3.167036529174228
            ]
        },
        {
            "positions": [
                -0.3412012562507314,
                -1.3746346563492804,
                2.4219727310195327,
                -1.0189922084264136,
                1.2237211879361167,
                3.1797602494071318
            ]
        }
    ]
}