{
    "goal": {
        "global_pose": {
            "orientation": {
                "w": 0.7031023502349854,
                "x": -0.7110244035720825,
                "y": 0.007748599164187908,
                "z": 0.005598929710686207
            },
            "position": {
                "x": 0.11585023208521307,
                "y": 0.44412534475326537,
                "z": 0.3711530566215515
            }
        },
        "name": "move_to_auspresseinheit_A"
    },
    "id": "ProjEST_move_to_auspresseinheit_A_96",
    "joint_names": [
        "shoulder_pan_joint",
        "shoulder_lift_joint",
        "elbow_joint",
        "wrist_1_joint",
        "wrist_2_joint",
        "wrist_3_joint"
    ],
    "metrics": {
        "cart_traj_len": 0.7101186309120234,
        "distance_elbow_joint": 0.1038458188671516,
        "distance_shoulder_lift_joint": 0.5354740390456079,
        "distance_shoulder_pan_joint": 1.0421356157707273,
        "distance_wrist_1_joint": 0.5631655884360143,
        "distance_wrist_2_joint": 0.545223769827271,
        "distance_wrist_3_joint": 0.3427105553451959,
        "smoothness": 0.5126036007687744,
        "time": 0.136361395,
        "traj_len": 1.7699026491002174,
        "weighted_distance": 2.2195418122318946
    },
    "planner": "ProjEST",
    "start": {
        "state": {
            "elbow_joint": 2.4225746994637096,
            "shoulder_lift_joint": -1.373653595662188,
            "shoulder_pan_joint": -0.3378633848294565,
            "wrist_1_joint": -1.0288595594406726,
            "wrist_2_joint": 1.2330228066703421,
            "wrist_3_joint": 3.189163495502006
        }
    },
    "waypoints": [
        {
            "positions": [
                -0.3378633848294565,
                -1.373653595662188,
                2.4225746994637096,
                -1.0288595594406726,
                1.2330228066703421,
                3.189163495502006
            ]
        },
        {
            "positions": [
                -0.21146734577806547,
                -1.4500527524799776,
                2.4130641490750175,
                -0.9588450174092175,
                1.1566072711426933,
                3.1612981674474163
            ]
        },
        {
            "positions": [
                -0.08507130672667446,
                -1.5264519092977673,
                2.403553598686325,
                -0.8888304753777623,
                1.0801917356150446,
                3.133432839392827
            ]
        },
        {
            "positions": [
                0.04132473232471656,
                -1.6028510661155568,
                2.394043048297633,
                -0.8188159333463071,
                1.0037762000873955,
                3.1055675113382373
            ]
        },
        {
            "positions": [
                0.16772077137610758,
                -1.6792502229333466,
                2.3845324979089404,
                -0.7488013913148519,
                0.9273606645597468,
                3.077702183283648
            ]
        },
        {
            "positions": [
                0.29411681042749865,
                -1.755649379751136,
                2.3750219475202483,
                -0.6787868492833966,
                0.8509451290320978,
                3.0498368552290587
            ]
        },
        {
            "positions": [
                0.4205128494788896,
                -1.8320485365689256,
                2.365511397131556,
                -0.6087723072519415,
                0.774529593504449,
                3.021971527174469
            ]
        },
        {
            "positions": [
                0.5469088885302806,
                -1.9084476933867154,
                2.3560008467428637,
                -0.5387577652204862,
                0.6981140579768002,
                2.9941061991198796
            ]
        },
        {
            "positions": [
                0.6255905597357757,
                -1.9087876640472556,
                2.3746368298160165,
                -0.5022258681125723,
                0.7032715685436647,
                3.0679328286014145
            ]
        },
        {
            "positions": [
                0.7042722309412708,
                -1.909127634707796,
                2.3932728128891694,
                -0.4656939710046584,
                0.7084290791105292,
                3.1417594580829493
            ]
        }
    ]
}