{
    "goal": {
        "global_pose": {
            "orientation": {
                "w": 0.005598929693374612,
                "x": 0.007748599140229565,
                "y": 0.7110244013736278,
                "z": -0.7031023480610252
            },
            "position": {
                "x": 0.1141497679147869,
                "y": -0.7141253447532654,
                "z": 0.3711530566215515
            }
        },
        "name": "move_to_auspresseinheit_B"
    },
    "id": "ProjEST_move_to_auspresseinheit_B_3",
    "joint_names": [
        "shoulder_pan_joint",
        "shoulder_lift_joint",
        "elbow_joint",
        "wrist_1_joint",
        "wrist_2_joint",
        "wrist_3_joint"
    ],
    "metrics": {
        "cart_traj_len": 0.5642474993848942,
        "distance_elbow_joint": 0.05925633844212763,
        "distance_shoulder_lift_joint": 0.2969648734740502,
        "distance_shoulder_pan_joint": 0.5776540682265736,
        "distance_wrist_1_joint": 0.3173371560071133,
        "distance_wrist_2_joint": 0.9877903682963316,
        "distance_wrist_3_joint": 0.007520953630668181,
        "smoothness": 1.0150610551046396e-15,
        "time": 0.063603925,
        "traj_len": 1.498840804781103,
        "weighted_distance": 1.8885690852181305
    },
    "planner": "ProjEST",
    "start": {
        "state": {
            "elbow_joint": 2.0193061681459312,
            "shoulder_lift_joint": -1.1220205130644991,
            "shoulder_pan_joint": -1.0952072088045026,
            "wrist_1_joint": -0.8559671810662515,
            "wrist_2_joint": 0.4759638712940361,
            "wrist_3_joint": 3.159081874192446
        }
    },
    "waypoints": [
        {
            "positions": [
                -1.0952072088045026,
                -1.1220205130644991,
                2.0193061681459312,
                -0.8559671810662515,
                0.4759638712940361,
                3.159081874192446
            ]
        },
        {
            "positions": [
                -1.1914828868422649,
                -1.1715146586435075,
                2.0094301117389097,
                -0.8030776550650659,
                0.6405955993434247,
                3.160335366464224
            ]
        },
        {
            "positions": [
                -1.2877585648800272,
                -1.2210088042225158,
                1.9995540553318887,
                -0.7501881290638803,
                0.8052273273928132,
                3.161588858736002
            ]
        },
        {
            "positions": [
                -1.3840342429177894,
                -1.2705029498015241,
                1.9896779989248674,
                -0.6972986030626949,
                0.969859055442202,
                3.16284235100778
            ]
        },
        {
            "positions": [
                -1.4803099209555517,
                -1.3199970953805327,
                1.9798019425178461,
                -0.6444090770615093,
                1.1344907834915905,
                3.1640958432795583
            ]
        },
        {
            "positions": [
                -1.576585598993314,
                -1.369491240959541,
                1.9699258861108249,
                -0.5915195510603237,
                1.2991225115409792,
                3.165349335551336
            ]
        },
        {
            "positions": [
                -1.6728612770310762,
                -1.4189853865385493,
                1.9600498297038036,
                -0.5386300250591382,
                1.4637542395903678,
                3.166602827823114
            ]
        }
    ]
}