{
    "goal": {
        "global_pose": {
            "orientation": {
                "w": 0.7031023480610252,
                "x": -0.7110244013736278,
                "y": 0.0077485991402295624,
                "z": 0.005598929693374583
            },
            "position": {
                "x": -0.8841497679147869,
                "y": 0.44412534475326537,
                "z": 0.3711530566215515
            }
        },
        "name": "move_to_auspresseinheit_D"
    },
    "id": "ProjEST_move_to_auspresseinheit_D_125",
    "joint_names": [
        "shoulder_pan_joint",
        "shoulder_lift_joint",
        "elbow_joint",
        "wrist_1_joint",
        "wrist_2_joint",
        "wrist_3_joint"
    ],
    "metrics": {
        "cart_traj_len": 0.34515317050127403,
        "distance_elbow_joint": 0.6647610950377434,
        "distance_shoulder_lift_joint": 0.1360961790537023,
        "distance_shoulder_pan_joint": 0.13429528311293912,
        "distance_wrist_1_joint": 0.6003793538714186,
        "distance_wrist_2_joint": 1.4480321456361978,
        "distance_wrist_3_joint": 0.05432750952136889,
        "smoothness": 2.9605947279411004e-16,
        "time": 0.049051472,
        "traj_len": 1.742954837691835,
        "weighted_distance": 2.2792450690489
    },
    "planner": "ProjEST",
    "start": {
        "state": {
            "elbow_joint": -1.8275484843655228,
            "shoulder_lift_joint": -2.1267897864000416,
            "shoulder_pan_joint": -0.035127520176001514,
            "wrist_1_joint": -2.3477863256791385,
            "wrist_2_joint": -1.605890476484521,
            "wrist_3_joint": -3.0880375317375353
        }
    },
    "waypoints": [
        {
            "positions": [
                -0.035127520176001514,
                -2.1267897864000416,
                -1.8275484843655228,
                -2.3477863256791385,
                -1.605890476484521,
                -3.0880375317375353
            ]
        },
        {
            "positions": [
                -0.05191443056511891,
                -2.1438018087817543,
                -1.7444533474858048,
                -2.4228337449130657,
                -1.4248864582799963,
                -3.0812465930473643
            ]
        },
        {
            "positions": [
                -0.0687013409542363,
                -2.160813831163467,
                -1.661358210606087,
                -2.4978811641469933,
                -1.2438824400754716,
                -3.074455654357193
            ]
        },
        {
            "positions": [
                -0.08548825134335368,
                -2.1778258535451798,
                -1.578263073726369,
                -2.5729285833809206,
                -1.0628784218709468,
                -3.067664715667022
            ]
        },
        {
            "positions": [
                -0.10227516173247107,
                -2.1948378759268925,
                -1.495167936846651,
                -2.647976002614848,
                -0.8818744036664221,
                -3.060873776976851
            ]
        },
        {
            "positions": [
                -0.11906207212158847,
                -2.2118498983086057,
                -1.4120727999669331,
                -2.723023421848775,
                -0.7008703854618974,
                -3.05408283828668
            ]
        },
        {
            "positions": [
                -0.13584898251070585,
                -2.2288619206903184,
                -1.3289776630872152,
                -2.798070841082702,
                -0.5198663672573727,
                -3.047291899596509
            ]
        },
        {
            "positions": [
                -0.15263589289982324,
                -2.245873943072031,
                -1.2458825262074973,
                -2.87311826031663,
                -0.33886234905284796,
                -3.0405009609063374
            ]
        },
        {
            "positions": [
                -0.16942280328894063,
                -2.262885965453744,
                -1.1627873893277794,
                -2.948165679550557,
                -0.15785833084832318,
                -3.0337100222161664
            ]
        }
    ]
}