{
    "goal": {
        "global_pose": {
            "orientation": {
                "w": 0.5084816217422485,
                "x": -0.49083608388900757,
                "y": 0.5182115435600281,
                "z": -0.4816462993621826
            },
            "position": {
                "x": 0.5540239810943604,
                "y": 0.030875300988554955,
                "z": 0.16403168439865112
            }
        },
        "name": "move_to_storage_A"
    },
    "id": "ProjEST_move_to_storage_A_118",
    "joint_names": [
        "shoulder_pan_joint",
        "shoulder_lift_joint",
        "elbow_joint",
        "wrist_1_joint",
        "wrist_2_joint",
        "wrist_3_joint"
    ],
    "metrics": {
        "cart_traj_len": 0.35362757256783955,
        "distance_elbow_joint": 0.4508306986326154,
        "distance_shoulder_lift_joint": 0.2348121540353545,
        "distance_shoulder_pan_joint": 0.46509050070694574,
        "distance_wrist_1_joint": 0.24161673015489082,
        "distance_wrist_2_joint": 1.0890164141039298,
        "distance_wrist_3_joint": 0.09737201045433297,
        "smoothness": 0.0,
        "time": 0.067800136,
        "traj_len": 1.6058451071283524,
        "weighted_distance": 2.025861711286226
    },
    "planner": "ProjEST",
    "start": {
        "state": {
            "elbow_joint": 1.971548880431181,
            "shoulder_lift_joint": -1.1394869514688781,
            "shoulder_pan_joint": 0.12281150262730567,
            "wrist_1_joint": -0.7804693444481463,
            "wrist_2_joint": 0.12958644648617612,
            "wrist_3_joint": 3.0906942077768043
        }
    },
    "waypoints": [
        {
            "positions": [
                0.12281150262730567,
                -1.1394869514688781,
                1.971548880431181,
                -0.7804693444481463,
                0.12958644648617612,
                3.0906942077768043
            ]
        },
        {
            "positions": [
                0.056370002526313426,
                -1.1730315449025002,
                2.035953265950126,
                -0.8149860201845592,
                0.2851602199295946,
                3.104604494984566
            ]
        },
        {
            "positions": [
                -0.010071497574678817,
                -1.2065761383361222,
                2.100357651469071,
                -0.8495026959209723,
                0.44073399337301317,
                3.118514782192328
            ]
        },
        {
            "positions": [
                -0.07651299767567107,
                -1.2401207317697442,
                2.1647620369880163,
                -0.8840193716573852,
                0.5963077668164317,
                3.1324250694000897
            ]
        },
        {
            "positions": [
                -0.1429544977766633,
                -1.2736653252033663,
                2.229166422506961,
                -0.9185360473937982,
                0.7518815402598502,
                3.146335356607852
            ]
        },
        {
            "positions": [
                -0.20939599787765556,
                -1.3072099186369885,
                2.293570808025906,
                -0.9530527231302112,
                0.9074553137032688,
                3.1602456438156135
            ]
        },
        {
            "positions": [
                -0.2758374979786478,
                -1.3407545120706106,
                2.3579751935448514,
                -0.9875693988666241,
                1.0630290871466874,
                3.1741559310233756
            ]
        },
        {
            "positions": [
                -0.3422789980796401,
                -1.3742991055042326,
                2.4223795790637963,
                -1.0220860746030371,
                1.2186028605901058,
                3.1880662182311372
            ]
        }
    ]
}