{
    "goal": {
        "global_pose": {
            "orientation": {
                "w": -0.4816463035849501,
                "x": 0.5182115481033762,
                "y": 0.4908360881923453,
                "z": -0.5084816262002911
            },
            "position": {
                "x": -0.8240239810943604,
                "y": 0.19912469901144506,
                "z": 0.16403168439865112
            }
        },
        "name": "move_to_storage_D"
    },
    "id": "ProjEST_move_to_storage_D_22",
    "joint_names": [
        "shoulder_pan_joint",
        "shoulder_lift_joint",
        "elbow_joint",
        "wrist_1_joint",
        "wrist_2_joint",
        "wrist_3_joint"
    ],
    "metrics": {
        "cart_traj_len": 3.7026082592732106,
        "distance_elbow_joint": 4.208232657713807,
        "distance_shoulder_lift_joint": 1.2648358842109335,
        "distance_shoulder_pan_joint": 2.8119011465795234,
        "distance_wrist_1_joint": 2.2622284439011766,
        "distance_wrist_2_joint": 0.8673221815374748,
        "distance_wrist_3_joint": 3.146782114278006,
        "smoothness": 4.9083544442506e-16,
        "time": 0.242900641,
        "traj_len": 3.8159274663207277,
        "weighted_distance": 4.89738882285403
    },
    "planner": "ProjEST",
    "start": {
        "state": {
            "elbow_joint": -2.384821990628643,
            "shoulder_lift_joint": -2.278805467437664,
            "shoulder_pan_joint": -0.18546946439364564,
            "wrist_1_joint": 1.4845938187801415,
            "wrist_2_joint": 0.178987772454074,
            "wrist_3_joint": 0.03710569632802521
        }
    },
    "waypoints": [
        {
            "positions": [
                -0.18546946439364564,
                -2.278805467437664,
                -2.384821990628643,
                1.4845938187801415,
                0.178987772454074,
                0.03710569632802521
            ]
        },
        {
            "positions": [
                -0.09995606290447082,
                -2.246925034243966,
                -2.2592463194060324,
                1.4277495006887526,
                0.20092995563017724,
                -0.03560668771809833
            ]
        },
        {
            "positions": [
                -0.014442661415295988,
                -2.2150446010502685,
                -2.1336706481834216,
                1.3709051825973635,
                0.22287213880628048,
                -0.10831907176422187
            ]
        },
        {
            "positions": [
                0.07107074007387881,
                -2.1831641678565705,
                -2.0080949769608107,
                1.3140608645059746,
                0.24481432198238376,
                -0.1810314558103454
            ]
        },
        {
            "positions": [
                0.15658414156305367,
                -2.151283734662873,
                -1.8825193057381995,
                1.2572165464145857,
                0.26675650515848703,
                -0.253743839856469
            ]
        },
        {
            "positions": [
                0.24209754305222853,
                -2.119403301469175,
                -1.7569436345155887,
                1.2003722283231968,
                0.2886986883345902,
                -0.32645622390259255
            ]
        },
        {
            "positions": [
                0.32761094454140327,
                -2.0875228682754776,
                -1.6313679632929778,
                1.1435279102318079,
                0.31064087151069353,
                -0.399168607948716
            ]
        },
        {
            "positions": [
                0.4131243460305781,
                -2.0556424350817797,
                -1.505792292070367,
                1.0866835921404188,
                0.3325830546867968,
                -0.47188099199483957
            ]
        },
        {
            "positions": [
                0.498637747519753,
                -2.023762001888082,
                -1.380216620847756,
                1.0298392740490299,
                0.3545252378629,
                -0.5445933760409631
            ]
        },
        {
            "positions": [
                0.5841511490089278,
                -1.9918815686943843,
                -1.2546409496251452,
                0.972994955957641,
                0.37646742103900327,
                -0.6173057600870867
            ]
        },
        {
            "positions": [
                0.6696645504981027,
                -1.9600011355006866,
                -1.1290652784025341,
                0.916150637866252,
                0.3984096042151065,
                -0.6900181441332103
            ]
        },
        {
            "positions": [
                0.7551779519872774,
                -1.9281207023069888,
                -1.0034896071799233,
                0.8593063197748629,
                0.4203517873912098,
                -0.7627305281793337
            ]
        },
        {
            "positions": [
                0.8406913534764522,
                -1.896240269113291,
                -0.8779139359573125,
                0.802462001683474,
                0.44229397056731307,
                -0.8354429122254573
            ]
        },
        {
            "positions": [
                0.9262047549656272,
                -1.8643598359195934,
                -0.7523382647347014,
                0.7456176835920851,
                0.4642361537434163,
                -0.9081552962715809
            ]
        },
        {
            "positions": [
                1.011718156454802,
                -1.8324794027258955,
                -0.6267625935120906,
                0.6887733655006961,
                0.48617833691951956,
                -0.9808676803177043
            ]
        },
        {
            "positions": [
                1.0972315579439769,
                -1.8005989695321978,
                -0.5011869222894796,
                0.6319290474093071,
                0.5081205200956228,
                -1.053580064363828
            ]
        },
        {
            "positions": [
                1.1827449594331516,
                -1.7687185363385,
                -0.37561125106686877,
                0.5750847293179182,
                0.530062703271726,
                -1.1262924484099515
            ]
        },
        {
            "positions": [
                1.2682583609223264,
                -1.7368381031448024,
                -0.25003557984425795,
                0.5182404112265293,
                0.5520048864478293,
                -1.199004832456075
            ]
        },
        {
            "positions": [
                1.3537717624115013,
                -1.7049576699511046,
                -0.12445990862164713,
                0.4613960931351404,
                0.5739470696239326,
                -1.2717172165021986
            ]
        },
        {
            "positions": [
                1.439285163900676,
                -1.6730772367574067,
                0.001115762600964132,
                0.4045517750437513,
                0.5958892528000358,
                -1.344429600548322
            ]
        },
        {
            "positions": [
                1.524798565389851,
                -1.6411968035637092,
                0.12669143382357495,
                0.3477074569523624,
                0.617831435976139,
                -1.4171419845944457
            ]
        },
        {
            "positions": [
                1.6103119668790258,
                -1.6093163703700113,
                0.25226710504618577,
                0.2908631388609735,
                0.6397736191522423,
                -1.4898543686405692
            ]
        },
        {
            "positions": [
                1.6958253683682005,
                -1.5774359371763136,
                0.3778427762687966,
                0.23401882076958436,
                0.6617158023283456,
                -1.5625667526866927
            ]
        },
        {
            "positions": [
                1.7813387698573755,
                -1.5455555039826159,
                0.5034184474914074,
                0.17717450267819546,
                0.6836579855044489,
                -1.6352791367328163
            ]
        },
        {
            "positions": [
                1.86685217134655,
                -1.5136750707889182,
                0.6289941187140182,
                0.12033018458680655,
                0.7056001686805522,
                -1.7079915207789398
            ]
        },
        {
            "positions": [
                1.952365572835725,
                -1.4817946375952205,
                0.7545697899366295,
                0.06348586649541765,
                0.7275423518566553,
                -1.7807039048250632
            ]
        },
        {
            "positions": [
                2.0378789743249,
                -1.4499142044015227,
                0.8801454611592403,
                0.006641548404028752,
                0.7494845350327586,
                -1.853416288871187
            ]
        },
        {
            "positions": [
                2.123392375814075,
                -1.418033771207825,
                1.0057211323818511,
                -0.05020276968736037,
                0.7714267182088619,
                -1.9261286729173104
            ]
        },
        {
            "positions": [
                2.2089057773032494,
                -1.386153338014127,
                1.131296803604462,
                -0.10704708777874927,
                0.7933689013849652,
                -1.9988410569634338
            ]
        },
        {
            "positions": [
                2.2944191787924244,
                -1.3542729048204296,
                1.2568724748270728,
                -0.16389140587013817,
                0.8153110845610683,
                -2.071553441009557
            ]
        },
        {
            "positions": [
                2.3799325802815994,
                -1.3223924716267317,
                1.382448146049684,
                -0.2207357239615273,
                0.8372532677371716,
                -2.144265825055681
            ]
        },
        {
            "positions": [
                2.465445981770774,
                -1.290512038433034,
                1.5080238172722948,
                -0.2775800420529162,
                0.8591954509132749,
                -2.2169782091018044
            ]
        },
        {
            "positions": [
                2.550959383259949,
                -1.2586316052393363,
                1.6335994884949057,
                -0.3344243601443051,
                0.8811376340893782,
                -2.289690593147928
            ]
        },
        {
            "positions": [
                2.5660538430451347,
                -1.209699200836815,
                1.6715617242129575,
                -0.42306641313965115,
                0.9141720980698123,
                -2.4536877581083383
            ]
        },
        {
            "positions": [
                2.5811483028303206,
                -1.1607667964342938,
                1.709523959931009,
                -0.5117084661349972,
                0.9472065620502464,
                -2.617684923068749
            ]
        },
        {
            "positions": [
                2.596242762615506,
                -1.1118343920317728,
                1.7474861956490608,
                -0.6003505191303432,
                0.9802410260306805,
                -2.7816820880291595
            ]
        },
        {
            "positions": [
                2.611337222400692,
                -1.0629019876292516,
                1.7854484313671124,
                -0.6889925721256893,
                1.0132754900111147,
                -2.9456792529895703
            ]
        },
        {
            "positions": [
                2.6264316821858777,
                -1.0139695832267304,
                1.8234106670851642,
                -0.7776346251210353,
                1.0463099539915488,
                -3.1096764179499807
            ]
        }
    ]
}