{
    "goal": {
        "global_pose": {
            "orientation": {
                "w": 0.7047431468963623,
                "x": -0.7094548344612122,
                "y": 0.0024358443915843964,
                "z": -0.0022348060738295317
            },
            "position": {
                "x": 0.6094750761985779,
                "y": 0.3671506643295288,
                "z": 0.19426114857196808
            }
        },
        "name": "move_to_magneteinheit_A"
    },
    "id": "ProjEST_move_to_magneteinheit_A_19",
    "joint_names": [
        "shoulder_pan_joint",
        "shoulder_lift_joint",
        "elbow_joint",
        "wrist_1_joint",
        "wrist_2_joint",
        "wrist_3_joint"
    ],
    "metrics": {
        "cart_traj_len": 1.5938397034195393,
        "distance_elbow_joint": 3.525127750930947,
        "distance_shoulder_lift_joint": 1.1336597944553388,
        "distance_shoulder_pan_joint": 1.242285617759519,
        "distance_wrist_1_joint": 3.832050169911763,
        "distance_wrist_2_joint": 1.6958933386055492,
        "distance_wrist_3_joint": 5.03050570780402,
        "smoothness": 2.272084341630452e-16,
        "time": 0.102786244,
        "traj_len": 4.057033692177961,
        "weighted_distance": 5.6611374566947665
    },
    "planner": "ProjEST",
    "start": {
        "state": {
            "elbow_joint": -1.5739458827952972,
            "shoulder_lift_joint": 0.006533473998580023,
            "shoulder_pan_joint": -1.1188671628667068,
            "wrist_1_joint": 3.138208179676308,
            "wrist_2_joint": -1.5706037135050406,
            "wrist_3_joint": -2.0226958329764257
        }
    },
    "waypoints": [
        {
            "positions": [
                -1.1188671628667068,
                0.006533473998580023,
                -1.5739458827952972,
                3.138208179676308,
                -1.5706037135050406,
                -2.0226958329764257
            ]
        },
        {
            "positions": [
                -1.0892889338724325,
                -0.02045842586940424,
                -1.4900142696778937,
                3.046968889916504,
                -1.5302253006810989,
                -1.9029218875525205
            ]
        },
        {
            "positions": [
                -1.0597107048781584,
                -0.0474503257373885,
                -1.4060826565604903,
                2.9557296001567006,
                -1.4898468878571574,
                -1.7831479421286154
            ]
        },
        {
            "positions": [
                -1.0301324758838841,
                -0.07444222560537277,
                -1.3221510434430868,
                2.8644903103968966,
                -1.4494684750332156,
                -1.66337399670471
            ]
        },
        {
            "positions": [
                -1.0005542468896098,
                -0.10143412547335702,
                -1.2382194303256833,
                2.7732510206370926,
                -1.409090062209274,
                -1.5436000512808048
            ]
        },
        {
            "positions": [
                -0.9709760178953355,
                -0.12842602534134126,
                -1.1542878172082798,
                2.6820117308772886,
                -1.3687116493853324,
                -1.4238261058568997
            ]
        },
        {
            "positions": [
                -0.9413977889010613,
                -0.15541792520932554,
                -1.0703562040908763,
                2.590772441117485,
                -1.3283332365613907,
                -1.3040521604329944
            ]
        },
        {
            "positions": [
                -0.9118195599067871,
                -0.1824098250773098,
                -0.9864245909734728,
                2.499533151357681,
                -1.287954823737449,
                -1.1842782150090891
            ]
        },
        {
            "positions": [
                -0.8822413309125128,
                -0.20940172494529405,
                -0.9024929778560693,
                2.408293861597877,
                -1.2475764109135075,
                -1.0645042695851838
            ]
        },
        {
            "positions": [
                -0.8526631019182385,
                -0.23639362481327833,
                -0.8185613647386658,
                2.3170545718380735,
                -1.2071979980895657,
                -0.9447303241612788
            ]
        },
        {
            "positions": [
                -0.8230848729239643,
                -0.2633855246812626,
                -0.7346297516212622,
                2.2258152820782695,
                -1.1668195852656242,
                -0.8249563787373735
            ]
        },
        {
            "positions": [
                -0.79350664392969,
                -0.2903774245492469,
                -0.6506981385038587,
                2.1345759923184655,
                -1.1264411724416825,
                -0.7051824333134682
            ]
        },
        {
            "positions": [
                -0.7639284149354157,
                -0.31736932441723115,
                -0.5667665253864553,
                2.043336702558662,
                -1.0860627596177408,
                -0.5854084878895631
            ]
        },
        {
            "positions": [
                -0.7343501859411414,
                -0.34436122428521543,
                -0.4828349122690516,
                1.9520974127988577,
                -1.045684346793799,
                -0.4656345424656576
            ]
        },
        {
            "positions": [
                -0.7047719569468672,
                -0.37135312415319965,
                -0.39890329915164835,
                1.860858123039054,
                -1.0053059339698576,
                -0.34586059704175254
            ]
        },
        {
            "positions": [
                -0.6751937279525929,
                -0.39834502402118394,
                -0.31497168603424464,
                1.76961883327925,
                -0.9649275211459158,
                -0.22608665161784725
            ]
        },
        {
            "positions": [
                -0.6456154989583187,
                -0.42533692388916816,
                -0.23104007291684137,
                1.6783795435194462,
                -0.9245491083219742,
                -0.10631270619394217
            ]
        },
        {
            "positions": [
                -0.6160372699640444,
                -0.45232882375715244,
                -0.14710845979943765,
                1.5871402537596422,
                -0.8841706954980325,
                0.01346123922996334
            ]
        },
        {
            "positions": [
                -0.5864590409697702,
                -0.4793207236251367,
                -0.06317684668203438,
                1.4959009639998384,
                -0.8437922826740909,
                0.1332351846538682
            ]
        },
        {
            "positions": [
                -0.5568808119754959,
                -0.5063126234931209,
                0.020754766435369332,
                1.4046616742400344,
                -0.8034138698501493,
                0.2530091300777735
            ]
        },
        {
            "positions": [
                -0.5273025829812217,
                -0.5333045233611051,
                0.10468637955277282,
                1.3134223844802306,
                -0.7630354570262077,
                0.3727830755016788
            ]
        },
        {
            "positions": [
                -0.49772435398694737,
                -0.5602964232290895,
                0.18861799267017632,
                1.2221830947204266,
                -0.722657044202266,
                0.49255702092558407
            ]
        },
        {
            "positions": [
                -0.46814612499267305,
                -0.5872883230970738,
                0.2725496057875798,
                1.1309438049606229,
                -0.6822786313783242,
                0.6123309663494894
            ]
        },
        {
            "positions": [
                -0.43856789599839874,
                -0.614280222965058,
                0.3564812189049835,
                1.0397045152008189,
                -0.6419002185543826,
                0.7321049117733947
            ]
        },
        {
            "positions": [
                -0.40898966700412465,
                -0.6412721228330422,
                0.44041283202238657,
                0.9484652254410153,
                -0.601521805730441,
                0.8518788571972995
            ]
        },
        {
            "positions": [
                -0.37941143800985033,
                -0.6682640227010265,
                0.5243444451397903,
                0.8572259356812113,
                -0.5611433929064993,
                0.9716528026212048
            ]
        },
        {
            "positions": [
                -0.349833209015576,
                -0.6952559225690108,
                0.608276058257194,
                0.7659866459214073,
                -0.5207649800825578,
                1.0914267480451105
            ]
        },
        {
            "positions": [
                -0.3202549800213017,
                -0.722247822436995,
                0.6922076713745977,
                0.6747473561616033,
                -0.48038656725861606,
                1.2112006934690158
            ]
        },
        {
            "positions": [
                -0.2906767510270276,
                -0.7492397223049793,
                0.7761392844920005,
                0.5835080664017998,
                -0.44000815443467456,
                1.3309746388929207
            ]
        },
        {
            "positions": [
                -0.2610985220327533,
                -0.7762316221729636,
                0.8600708976094043,
                0.49226877664199575,
                -0.39962974161073284,
                1.450748584316826
            ]
        },
        {
            "positions": [
                -0.23152029303847899,
                -0.8032235220409478,
                0.944002510726808,
                0.40102948688219175,
                -0.3592513287867911,
                1.5705225297407313
            ]
        },
        {
            "positions": [
                -0.20194206404420467,
                -0.8302154219089322,
                1.0279341238442117,
                0.30979019712238776,
                -0.3188729159628494,
                1.6902964751646365
            ]
        },
        {
            "positions": [
                -0.17236383504993058,
                -0.8572073217769163,
                1.1118657369616145,
                0.2185509073625842,
                -0.2784945031389079,
                1.8100704205885414
            ]
        },
        {
            "positions": [
                -0.14278560605565627,
                -0.8841992216449006,
                1.1957973500790182,
                0.1273116176027802,
                -0.23811609031496617,
                1.9298443660124467
            ]
        },
        {
            "positions": [
                -0.11320737706138195,
                -0.9111911215128848,
                1.279728963196422,
                0.036072327842976204,
                -0.19773767749102444,
                2.0496183114363524
            ]
        },
        {
            "positions": [
                -0.08362914806710764,
                -0.9381830213808692,
                1.3636605763138256,
                -0.055166961916827795,
                -0.15735926466708272,
                2.1693922568602573
            ]
        },
        {
            "positions": [
                -0.05405091907283355,
                -0.9651749212488534,
                1.4475921894312285,
                -0.14640625167663135,
                -0.11698085184314122,
                2.289166202284162
            ]
        },
        {
            "positions": [
                -0.024472690078559234,
                -0.9921668211168376,
                1.5315238025486322,
                -0.23764554143643535,
                -0.0766024390191995,
                2.408940147708068
            ]
        },
        {
            "positions": [
                0.00510553891571508,
                -1.0191587209848219,
                1.615455415666036,
                -0.32888483119623935,
                -0.036224026195258,
                2.5287140931319727
            ]
        },
        {
            "positions": [
                0.034683767909989394,
                -1.0461506208528062,
                1.6993870287834396,
                -0.42012412095604335,
                0.004154386628683726,
                2.6484880385558784
            ]
        },
        {
            "positions": [
                0.06426199690426349,
                -1.0731425207207903,
                1.7833186419008429,
                -0.5113634107158469,
                0.04453279945262523,
                2.7682619839797833
            ]
        },
        {
            "positions": [
                0.0938402258985378,
                -1.1001344205887746,
                1.8672502550182462,
                -0.6026027004756509,
                0.08491121227656695,
                2.888035929403688
            ]
        },
        {
            "positions": [
                0.12341845489281222,
                -1.127126320456759,
                1.9511818681356499,
                -0.6938419902354548,
                0.12528962510050864,
                3.007809874827594
            ]
        }
    ]
}