{
    "goal": {
        "global_pose": {
            "orientation": {
                "w": 0.5084816262002911,
                "x": -0.4908360881923452,
                "y": 0.5182115481033761,
                "z": -0.48164630358495003
            },
            "position": {
                "x": 0.5540239810943604,
                "y": -0.46912469901144505,
                "z": 0.16403168439865112
            }
        },
        "name": "move_to_storage_B"
    },
    "id": "ProjEST_move_to_storage_B_92",
    "joint_names": [
        "shoulder_pan_joint",
        "shoulder_lift_joint",
        "elbow_joint",
        "wrist_1_joint",
        "wrist_2_joint",
        "wrist_3_joint"
    ],
    "metrics": {
        "cart_traj_len": 0.6570048209200743,
        "distance_elbow_joint": 0.3500388485002788,
        "distance_shoulder_lift_joint": 0.4578098905471544,
        "distance_shoulder_pan_joint": 0.3282125690100901,
        "distance_wrist_1_joint": 2.9760670172738144,
        "distance_wrist_2_joint": 2.699844427766675,
        "distance_wrist_3_joint": 3.502280482408396,
        "smoothness": 0.4824308314149253,
        "time": 0.213750447,
        "traj_len": 3.2115811114630763,
        "weighted_distance": 4.795281602300713
    },
    "planner": "ProjEST",
    "start": {
        "state": {
            "elbow_joint": 1.6649325340416963,
            "shoulder_lift_joint": -0.6616387945129425,
            "shoulder_pan_joint": -0.9139837929255878,
            "wrist_1_joint": 2.1467571094334352,
            "wrist_2_joint": -2.234195976750228,
            "wrist_3_joint": 0.005470921511140723
        }
    },
    "waypoints": [
        {
            "positions": [
                -0.9139837929255878,
                -0.6616387945129425,
                1.6649325340416963,
                2.1467571094334352,
                -2.234195976750228,
                0.005470921511140723
            ]
        },
        {
            "positions": [
                -0.9056199460279543,
                -0.6678125833370439,
                1.6752195730672002,
                2.1461966416675056,
                -2.214963069992333,
                0.03195201463657092
            ]
        },
        {
            "positions": [
                -0.8409881588221931,
                -0.6935379044396399,
                1.673692353758783,
                2.1397199822914774,
                -2.100840244836849,
                0.1834772079335948
            ]
        },
        {
            "positions": [
                -0.851196836218461,
                -0.7105743356644582,
                1.6872213373654372,
                2.020958786686203,
                -1.998180697002717,
                0.05050624009415711
            ]
        },
        {
            "positions": [
                -0.8614055136147287,
                -0.7276107668892765,
                1.7007503209720916,
                1.9021975910809288,
                -1.895521149168585,
                -0.08246472774528057
            ]
        },
        {
            "positions": [
                -0.8716141910109966,
                -0.7446471981140947,
                1.7142793045787459,
                1.7834363954756547,
                -1.7928616013344534,
                -0.21543569558471826
            ]
        },
        {
            "positions": [
                -0.8818228684072644,
                -0.7616836293389131,
                1.7278082881854002,
                1.6646751998703804,
                -1.6902020535003215,
                -0.34840666342415594
            ]
        },
        {
            "positions": [
                -0.8920315458035322,
                -0.7787200605637313,
                1.7413372717920543,
                1.545914004265106,
                -1.5875425056661896,
                -0.4813776312635937
            ]
        },
        {
            "positions": [
                -0.9022402231998,
                -0.7957564917885496,
                1.7548662553987087,
                1.427152808659832,
                -1.484882957832058,
                -0.6143485991030313
            ]
        },
        {
            "positions": [
                -0.9124489005960679,
                -0.8127929230133679,
                1.768395239005363,
                1.3083916130545576,
                -1.382223409997926,
                -0.747319566942469
            ]
        },
        {
            "positions": [
                -0.9226575779923356,
                -0.8298293542381862,
                1.7819242226120173,
                1.1896304174492833,
                -1.2795638621637941,
                -0.8802905347819067
            ]
        },
        {
            "positions": [
                -0.9328662553886035,
                -0.8468657854630044,
                1.7954532062186717,
                1.070869221844009,
                -1.1769043143296622,
                -1.0132615026213445
            ]
        },
        {
            "positions": [
                -0.9430749327848713,
                -0.8639022166878227,
                1.808982189825326,
                0.9521080262387347,
                -1.0742447664955304,
                -1.1462324704607822
            ]
        },
        {
            "positions": [
                -0.953283610181139,
                -0.880938647912641,
                1.8225111734319803,
                0.8333468306334606,
                -0.9715852186613987,
                -1.2792034383002195
            ]
        },
        {
            "positions": [
                -0.9634922875774069,
                -0.8979750791374592,
                1.8360401570386347,
                0.7145856350281863,
                -0.8689256708272668,
                -1.4121744061396573
            ]
        },
        {
            "positions": [
                -0.9737009649736748,
                -0.9150115103622776,
                1.849569140645289,
                0.595824439422912,
                -0.7662661229931349,
                -1.545145373979095
            ]
        },
        {
            "positions": [
                -0.9839096423699426,
                -0.9320479415870958,
                1.863098124251943,
                0.47706324381763765,
                -0.663606575159003,
                -1.6781163418185328
            ]
        },
        {
            "positions": [
                -0.9941183197662103,
                -0.949084372811914,
                1.8766271078585974,
                0.35830204821236356,
                -0.5609470273248713,
                -1.8110873096579705
            ]
        },
        {
            "positions": [
                -1.0043269971624782,
                -0.9661208040367324,
                1.8901560914652518,
                0.23954085260708924,
                -0.45828747949073945,
                -1.9440582774974082
            ]
        },
        {
            "positions": [
                -1.014535674558746,
                -0.9831572352615507,
                1.903685075071906,
                0.12077965700181492,
                -0.35562793165660755,
                -2.077029245336846
            ]
        },
        {
            "positions": [
                -1.024744351955014,
                -1.0001936664863689,
                1.9172140586785604,
                0.002018461396540605,
                -0.2529683838224759,
                -2.2100002131762837
            ]
        },
        {
            "positions": [
                -1.0349530293512816,
                -1.0172300977111872,
                1.9307430422852148,
                -0.11674273420873371,
                -0.15030883598834377,
                -2.3429711810157214
            ]
        },
        {
            "positions": [
                -1.0451617067475494,
                -1.0342665289360056,
                1.944272025891869,
                -0.23550392981400803,
                -0.04764928815421188,
                -2.475942148855159
            ]
        },
        {
            "positions": [
                -1.0553703841438173,
                -1.0513029601608237,
                1.9578010094985232,
                -0.3542651254192819,
                0.05501025967991957,
                -2.6089131166945965
            ]
        },
        {
            "positions": [
                -1.065579061540085,
                -1.068339391385642,
                1.9713299931051775,
                -0.4730263210245562,
                0.15766980751405146,
                -2.741884084534034
            ]
        },
        {
            "positions": [
                -1.0757877389363528,
                -1.0853758226104604,
                1.9848589767118319,
                -0.591787516629831,
                0.26032935534818336,
                -2.8748550523734724
            ]
        },
        {
            "positions": [
                -1.0859964163326208,
                -1.1024122538352785,
                1.9983879603184862,
                -0.7105487122351049,
                0.36298890318231525,
                -3.0078260202129097
            ]
        },
        {
            "positions": [
                -1.0962050937288885,
                -1.1194486850600969,
                2.0119169439251405,
                -0.8293099078403791,
                0.465648451016447,
                -3.1407969880523474
            ]
        }
    ]
}