{
    "goal": {
        "global_pose": {
            "orientation": {
                "w": 0.7031023502349854,
                "x": -0.7110244035720825,
                "y": 0.007748599164187908,
                "z": 0.005598929710686207
            },
            "position": {
                "x": 0.11585023208521307,
                "y": 0.44412534475326537,
                "z": 0.3711530566215515
            }
        },
        "name": "move_to_auspresseinheit_A"
    },
    "id": "ProjEST_move_to_auspresseinheit_A_88",
    "joint_names": [
        "shoulder_pan_joint",
        "shoulder_lift_joint",
        "elbow_joint",
        "wrist_1_joint",
        "wrist_2_joint",
        "wrist_3_joint"
    ],
    "metrics": {
        "cart_traj_len": 1.2245949563659133,
        "distance_elbow_joint": 0.7152460618332435,
        "distance_shoulder_lift_joint": 0.5313742426960268,
        "distance_shoulder_pan_joint": 1.9371083700062766,
        "distance_wrist_1_joint": 1.4380139033571213,
        "distance_wrist_2_joint": 0.5257508634077719,
        "distance_wrist_3_joint": 1.5320748959191093,
        "smoothness": 1.043553518547207,
        "time": 0.31680345,
        "traj_len": 2.5844860876428704,
        "weighted_distance": 3.4216199227591986
    },
    "planner": "ProjEST",
    "start": {
        "state": {
            "elbow_joint": 2.4225746994637096,
            "shoulder_lift_joint": -1.373653595662188,
            "shoulder_pan_joint": -0.3378633848294565,
            "wrist_1_joint": -1.0288595594406726,
            "wrist_2_joint": 1.2330228066703421,
            "wrist_3_joint": 3.189163495502006
        }
    },
    "waypoints": [
        {
            "positions": [
                -0.3378633848294565,
                -1.373653595662188,
                2.4225746994637096,
                -1.0288595594406726,
                1.2330228066703421,
                3.189163495502006
            ]
        },
        {
            "positions": [
                -0.39363931144878556,
                -1.3994333584895733,
                2.375902255743756,
                -0.9036188115149425,
                1.1981268889147647,
                3.090100799586646
            ]
        },
        {
            "positions": [
                -0.4494152380681146,
                -1.4252131213169583,
                2.3292298120238026,
                -0.7783780635892124,
                1.163230971159187,
                2.991038103671286
            ]
        },
        {
            "positions": [
                -0.5051911646874437,
                -1.4509928841443434,
                2.282557368303849,
                -0.6531373156634823,
                1.1283350534036094,
                2.891975407755926
            ]
        },
        {
            "positions": [
                -0.5609670913067728,
                -1.4767726469717286,
                2.235884924583895,
                -0.5278965677377522,
                1.093439135648032,
                2.7929127118405663
            ]
        },
        {
            "positions": [
                -0.6167430179261019,
                -1.5025524097991139,
                2.189212480863942,
                -0.40265581981202203,
                1.0585432178924545,
                2.6938500159252063
            ]
        },
        {
            "positions": [
                -0.6725189445454309,
                -1.528332172626499,
                2.142540037143988,
                -0.277415071886292,
                1.0236473001368769,
                2.5947873200098464
            ]
        },
        {
            "positions": [
                -0.72829487116476,
                -1.554111935453884,
                2.095867593424035,
                -0.15217432396056185,
                0.9887513823812993,
                2.4957246240944864
            ]
        },
        {
            "positions": [
                -0.7840707977840891,
                -1.5798916982812692,
                2.0491951497040812,
                -0.026933576034831617,
                0.9538554646257218,
                2.3966619281791264
            ]
        },
        {
            "positions": [
                -0.6349807020789247,
                -1.6124053122889637,
                2.0833818009114426,
                -0.0705423680299597,
                0.9291971124894066,
                2.4706192610387494
            ]
        },
        {
            "positions": [
                -0.4858906063737603,
                -1.6449189262966584,
                2.117568452118804,
                -0.1141511600250878,
                0.9045387603530914,
                2.5445765938983724
            ]
        },
        {
            "positions": [
                -0.336800510668596,
                -1.6774325403043528,
                2.151755103326166,
                -0.15775995202021587,
                0.8798804082167764,
                2.6185339267579955
            ]
        },
        {
            "positions": [
                -0.18771041496343155,
                -1.7099461543120476,
                2.1859417545335273,
                -0.20136874401534396,
                0.8552220560804612,
                2.6924912596176185
            ]
        },
        {
            "positions": [
                -0.038620319258267255,
                -1.742459768319742,
                2.2201284057408888,
                -0.24497753601047204,
                0.830563703944146,
                2.766448592477241
            ]
        },
        {
            "positions": [
                0.11046977644689704,
                -1.7749733823274365,
                2.25431505694825,
                -0.2885863280056001,
                0.8059053518078308,
                2.840405925336864
            ]
        },
        {
            "positions": [
                0.25955987215206133,
                -1.8074869963351312,
                2.2885017081556116,
                -0.33219512000072815,
                0.7812469996715157,
                2.914363258196487
            ]
        },
        {
            "positions": [
                0.40864996785722596,
                -1.8400006103428257,
                2.3226883593629735,
                -0.3758039119958563,
                0.7565886475352006,
                2.98832059105611
            ]
        },
        {
            "positions": [
                0.5577400635623901,
                -1.8725142243505204,
                2.356875010570335,
                -0.41941270399098435,
                0.7319302953988854,
                3.062277923915733
            ]
        },
        {
            "positions": [
                0.7068301592675544,
                -1.9050278383582149,
                2.3910616617776963,
                -0.4630214959861124,
                0.7072719432625703,
                3.136235256775356
            ]
        }
    ]
}