{
    "goal": {
        "global_pose": {
            "orientation": {
                "w": 0.7031023480610252,
                "x": -0.7110244013736278,
                "y": 0.0077485991402295624,
                "z": 0.005598929693374583
            },
            "position": {
                "x": -0.8841497679147869,
                "y": 0.44412534475326537,
                "z": 0.3711530566215515
            }
        },
        "name": "move_to_auspresseinheit_D"
    },
    "id": "ProjEST_move_to_auspresseinheit_D_141",
    "joint_names": [
        "shoulder_pan_joint",
        "shoulder_lift_joint",
        "elbow_joint",
        "wrist_1_joint",
        "wrist_2_joint",
        "wrist_3_joint"
    ],
    "metrics": {
        "cart_traj_len": 0.34425326120384214,
        "distance_elbow_joint": 0.6508206612919747,
        "distance_shoulder_lift_joint": 0.12791091951687283,
        "distance_shoulder_pan_joint": 0.13378278457221945,
        "distance_wrist_1_joint": 0.5586883560318276,
        "distance_wrist_2_joint": 1.4491932773516996,
        "distance_wrist_3_joint": 0.019719914671740835,
        "smoothness": 0.0,
        "time": 0.08493650999999999,
        "traj_len": 1.7146766206595152,
        "weighted_distance": 2.233257122716357
    },
    "planner": "ProjEST",
    "start": {
        "state": {
            "elbow_joint": -1.8275484843655228,
            "shoulder_lift_joint": -2.1267897864000416,
            "shoulder_pan_joint": -0.035127520176001514,
            "wrist_1_joint": -2.3477863256791385,
            "wrist_2_joint": -1.605890476484521,
            "wrist_3_joint": -3.0880375317375353
        }
    },
    "waypoints": [
        {
            "positions": [
                -0.035127520176001514,
                -2.1267897864000416,
                -1.8275484843655228,
                -2.3477863256791385,
                -1.605890476484521,
                -3.0880375317375353
            ]
        },
        {
            "positions": [
                -0.05185036824752895,
                -2.1427786513396505,
                -1.7461959017040258,
                -2.4176223701831168,
                -1.4247413168155585,
                -3.085572542403568
            ]
        },
        {
            "positions": [
                -0.06857321631905638,
                -2.15876751627926,
                -1.6648433190425291,
                -2.4874584146870955,
                -1.2435921571465962,
                -3.0831075530696
            ]
        },
        {
            "positions": [
                -0.0852960643905838,
                -2.174756381218869,
                -1.5834907363810322,
                -2.557294459191074,
                -1.0624429974776337,
                -3.0806425637356325
            ]
        },
        {
            "positions": [
                -0.10201891246211124,
                -2.190745246158478,
                -1.5021381537195353,
                -2.627130503695052,
                -0.8812938378086712,
                -3.078177574401665
            ]
        },
        {
            "positions": [
                -0.11874176053363868,
                -2.206734111098087,
                -1.4207855710580386,
                -2.696966548199031,
                -0.7001446781397087,
                -3.075712585067697
            ]
        },
        {
            "positions": [
                -0.1354646086051661,
                -2.222722976037696,
                -1.3394329883965417,
                -2.766802592703009,
                -0.5189955184707464,
                -3.0732475957337297
            ]
        },
        {
            "positions": [
                -0.15218745667669353,
                -2.2387118409773055,
                -1.2580804057350448,
                -2.836638637206988,
                -0.33784635880178393,
                -3.070782606399762
            ]
        },
        {
            "positions": [
                -0.16891030474822097,
                -2.2547007059169144,
                -1.176727823073548,
                -2.906474681710966,
                -0.15669719913282146,
                -3.0683176170657944
            ]
        }
    ]
}