{
    "goal": {
        "global_pose": {
            "orientation": {
                "w": 0.005598929693374612,
                "x": 0.007748599140229565,
                "y": 0.7110244013736278,
                "z": -0.7031023480610252
            },
            "position": {
                "x": -0.8858502320852131,
                "y": -0.7141253447532654,
                "z": 0.3711530566215515
            }
        },
        "name": "move_to_auspresseinheit_C"
    },
    "id": "ProjEST_move_to_auspresseinheit_C_52",
    "joint_names": [
        "shoulder_pan_joint",
        "shoulder_lift_joint",
        "elbow_joint",
        "wrist_1_joint",
        "wrist_2_joint",
        "wrist_3_joint"
    ],
    "metrics": {
        "cart_traj_len": 0.49367062745498635,
        "distance_elbow_joint": 1.0151542741099617,
        "distance_shoulder_lift_joint": 0.33205753046491815,
        "distance_shoulder_pan_joint": 0.2560444387808616,
        "distance_wrist_1_joint": 0.712251023131005,
        "distance_wrist_2_joint": 1.3152288810053965,
        "distance_wrist_3_joint": 0.0925050989089038,
        "smoothness": 3.2297397080004555e-16,
        "time": 0.9995441190000001,
        "traj_len": 1.9295702232365235,
        "weighted_distance": 2.436335639511776
    },
    "planner": "ProjEST",
    "start": {
        "state": {
            "elbow_joint": 1.7527959577730765,
            "shoulder_lift_joint": -0.9740617694224828,
            "shoulder_pan_joint": -2.967991417825869,
            "wrist_1_joint": -0.7595177689779385,
            "wrist_2_joint": 1.7443932448376545,
            "wrist_3_joint": 3.1991315425061013
        }
    },
    "waypoints": [
        {
            "positions": [
                -2.967991417825869,
                -0.9740617694224828,
                1.7527959577730765,
                -0.7595177689779385,
                1.7443932448376545,
                3.1991315425061013
            ]
        },
        {
            "positions": [
                -2.942386973947783,
                -0.9408560163759909,
                1.6512805303620803,
                -0.688292666664838,
                1.6128703567371148,
                3.1898810326152107
            ]
        },
        {
            "positions": [
                -2.9167825300696966,
                -0.9076502633294992,
                1.5497651029510842,
                -0.6170675643517376,
                1.481347468636575,
                3.1806305227243206
            ]
        },
        {
            "positions": [
                -2.8911780861916108,
                -0.8744445102830074,
                1.448249675540088,
                -0.5458424620386371,
                1.3498245805360356,
                3.1713800128334304
            ]
        },
        {
            "positions": [
                -2.8655736423135245,
                -0.8412387572365155,
                1.3467342481290918,
                -0.47461735972553654,
                1.218301692435496,
                3.16212950294254
            ]
        },
        {
            "positions": [
                -2.8399691984354383,
                -0.8080330041900237,
                1.2452188207180956,
                -0.40339225741243606,
                1.0867788043349562,
                3.152878993051649
            ]
        },
        {
            "positions": [
                -2.814364754557352,
                -0.7748272511435319,
                1.1437033933070995,
                -0.3321671550993356,
                0.9552559162344166,
                3.143628483160759
            ]
        },
        {
            "positions": [
                -2.7887603106792658,
                -0.7416214980970401,
                1.0421879658961033,
                -0.2609420527862351,
                0.8237330281338769,
                3.134377973269869
            ]
        },
        {
            "positions": [
                -2.76315586680118,
                -0.7084157450505483,
                0.9406725384851071,
                -0.18971695047313453,
                0.6922101400333371,
                3.1251274633789783
            ]
        },
        {
            "positions": [
                -2.7375514229230937,
                -0.6752099920040564,
                0.839157111074111,
                -0.11849184816003411,
                0.5606872519327977,
                3.1158769534880877
            ]
        },
        {
            "positions": [
                -2.7119469790450075,
                -0.6420042389575646,
                0.7376416836631149,
                -0.04726674584693356,
                0.4291643638322579,
                3.1066264435971975
            ]
        }
    ]
}