{
    "goal": {
        "global_pose": {
            "orientation": {
                "w": -0.4816463035849501,
                "x": 0.5182115481033762,
                "y": 0.4908360881923453,
                "z": -0.5084816262002911
            },
            "position": {
                "x": -0.8240239810943604,
                "y": 0.19912469901144506,
                "z": 0.16403168439865112
            }
        },
        "name": "move_to_storage_D"
    },
    "id": "ProjEST_move_to_storage_D_12",
    "joint_names": [
        "shoulder_pan_joint",
        "shoulder_lift_joint",
        "elbow_joint",
        "wrist_1_joint",
        "wrist_2_joint",
        "wrist_3_joint"
    ],
    "metrics": {
        "cart_traj_len": 3.5867616865146834,
        "distance_elbow_joint": 4.208071756387321,
        "distance_shoulder_lift_joint": 1.2655111373366108,
        "distance_shoulder_pan_joint": 2.8120806585799643,
        "distance_wrist_1_joint": 2.26208553056276,
        "distance_wrist_2_joint": 0.8729659211703886,
        "distance_wrist_3_joint": 3.131109041574498,
        "smoothness": 7.479397226786976e-16,
        "time": 0.135905904,
        "traj_len": 3.8146853141001738,
        "weighted_distance": 4.893781112850644
    },
    "planner": "ProjEST",
    "start": {
        "state": {
            "elbow_joint": -2.384821990628643,
            "shoulder_lift_joint": -2.278805467437664,
            "shoulder_pan_joint": -0.18546946439364564,
            "wrist_1_joint": 1.4845938187801415,
            "wrist_2_joint": 0.178987772454074,
            "wrist_3_joint": 0.03710569632802521
        }
    },
    "waypoints": [
        {
            "positions": [
                -0.18546946439364564,
                -2.278805467437664,
                -2.384821990628643,
                1.4845938187801415,
                0.178987772454074,
                0.03710569632802521
            ]
        },
        {
            "positions": [
                -0.093866143879522,
                -2.2415989653598625,
                -2.24869416854429,
                1.4357181358906057,
                0.19898156142878695,
                -0.022973239983486014
            ]
        },
        {
            "positions": [
                -0.0022628233653983476,
                -2.2043924632820615,
                -2.1125663464599365,
                1.38684245300107,
                0.2189753504034999,
                -0.08305217629499724
            ]
        },
        {
            "positions": [
                0.08934049714872533,
                -2.16718596120426,
                -1.9764385243755833,
                1.337966770111534,
                0.2389691393782129,
                -0.14313111260650846
            ]
        },
        {
            "positions": [
                0.18094381766284895,
                -2.1299794591264587,
                -1.84031070229123,
                1.2890910872219983,
                0.2589629283529259,
                -0.2032100489180197
            ]
        },
        {
            "positions": [
                0.2725471381769726,
                -2.0927729570486573,
                -1.7041828802068766,
                1.2402154043324622,
                0.2789567173276388,
                -0.2632889852295309
            ]
        },
        {
            "positions": [
                0.3641504586910963,
                -2.0555664549708563,
                -1.5680550581225234,
                1.1913397214429264,
                0.2989505063023518,
                -0.3233679215410421
            ]
        },
        {
            "positions": [
                0.45575377920521987,
                -2.018359952893055,
                -1.43192723603817,
                1.1424640385533906,
                0.3189442952770648,
                -0.3834468578525534
            ]
        },
        {
            "positions": [
                0.5473570997193435,
                -1.9811534508152535,
                -1.2957994139538167,
                1.0935883556638548,
                0.33893808425177774,
                -0.44352579416406457
            ]
        },
        {
            "positions": [
                0.6389604202334672,
                -1.9439469487374523,
                -1.1596715918694636,
                1.044712672774319,
                0.3589318732264907,
                -0.5036047304755759
            ]
        },
        {
            "positions": [
                0.7305637407475909,
                -1.906740446659651,
                -1.0235437697851102,
                0.9958369898847832,
                0.3789256622012037,
                -0.5636836667870871
            ]
        },
        {
            "positions": [
                0.8221670612617145,
                -1.8695339445818497,
                -0.8874159477007568,
                0.9469613069952474,
                0.39891945117591665,
                -0.6237626030985983
            ]
        },
        {
            "positions": [
                0.9137703817758382,
                -1.8323274425040483,
                -0.7512881256164037,
                0.8980856241057116,
                0.41891324015062964,
                -0.6838415394101095
            ]
        },
        {
            "positions": [
                1.0053737022899618,
                -1.7951209404262471,
                -0.6151603035320503,
                0.8492099412161757,
                0.4389070291253426,
                -0.7439204757216208
            ]
        },
        {
            "positions": [
                1.0969770228040854,
                -1.757914438348446,
                -0.47903248144769695,
                0.8003342583266398,
                0.45890081810005556,
                -0.803999412033132
            ]
        },
        {
            "positions": [
                1.1885803433182092,
                -1.7207079362706446,
                -0.34290465936334336,
                0.7514585754371039,
                0.47889460707476855,
                -0.8640783483446434
            ]
        },
        {
            "positions": [
                1.2801836638323327,
                -1.6835014341928431,
                -0.2067768372789902,
                0.7025828925475682,
                0.4988883960494815,
                -0.9241572846561544
            ]
        },
        {
            "positions": [
                1.3717869843464565,
                -1.6462949321150417,
                -0.07064901519463707,
                0.6537072096580323,
                0.5188821850241945,
                -0.9842362209676658
            ]
        },
        {
            "positions": [
                1.46339030486058,
                -1.6090884300372408,
                0.06547880688971608,
                0.6048315267684965,
                0.5388759739989075,
                -1.044315157279177
            ]
        },
        {
            "positions": [
                1.5549936253747039,
                -1.5718819279594394,
                0.20160662897406967,
                0.5559558438789607,
                0.5588697629736205,
                -1.1043940935906882
            ]
        },
        {
            "positions": [
                1.6465969458888274,
                -1.534675425881638,
                0.3377344510584228,
                0.5070801609894249,
                0.5788635519483334,
                -1.1644730299021995
            ]
        },
        {
            "positions": [
                1.7382002664029512,
                -1.4974689238038368,
                0.4738622731427764,
                0.45820447809988907,
                0.5988573409230464,
                -1.2245519662137108
            ]
        },
        {
            "positions": [
                1.8298035869170746,
                -1.4602624217260356,
                0.6099900952271295,
                0.40932879521035326,
                0.6188511298977593,
                -1.2846309025252218
            ]
        },
        {
            "positions": [
                1.9214069074311984,
                -1.4230559196482342,
                0.7461179173114831,
                0.3604531123208172,
                0.6388449188724723,
                -1.3447098388367331
            ]
        },
        {
            "positions": [
                2.013010227945322,
                -1.3858494175704328,
                0.8822457393958358,
                0.31157742943128164,
                0.6588387078471853,
                -1.4047887751482442
            ]
        },
        {
            "positions": [
                2.104613548459446,
                -1.3486429154926316,
                1.0183735614801894,
                0.2627017465417456,
                0.6788324968218983,
                -1.4648677114597557
            ]
        },
        {
            "positions": [
                2.1962168689735693,
                -1.3114364134148304,
                1.1545013835645426,
                0.2138260636522098,
                0.6988262857966112,
                -1.5249466477712668
            ]
        },
        {
            "positions": [
                2.287820189487693,
                -1.274229911337029,
                1.2906292056488962,
                0.164950380762674,
                0.7188200747713241,
                -1.585025584082778
            ]
        },
        {
            "positions": [
                2.3216992899575555,
                -1.2481363532134315,
                1.3438912616598744,
                0.07070617150814468,
                0.752133436656638,
                -1.7359233601991475
            ]
        },
        {
            "positions": [
                2.3555783904274183,
                -1.2220427950898338,
                1.3971533176708524,
                -0.023538037746384632,
                0.7854467985419519,
                -1.886821136315517
            ]
        },
        {
            "positions": [
                2.3894574908972808,
                -1.1959492369662361,
                1.4504153736818304,
                -0.11778224700091389,
                0.8187601604272657,
                -2.0377189124318864
            ]
        },
        {
            "positions": [
                2.423336591367143,
                -1.1698556788426386,
                1.5036774296928086,
                -0.21202645625544325,
                0.8520735223125796,
                -2.1886166885482563
            ]
        },
        {
            "positions": [
                2.457215691837006,
                -1.1437621207190412,
                1.5569394857037868,
                -0.3062706655099725,
                0.8853868841978934,
                -2.3395144646646253
            ]
        },
        {
            "positions": [
                2.4910947923068685,
                -1.1176685625954434,
                1.6102015417147648,
                -0.40051487476450176,
                0.9187002460832072,
                -2.490412240780995
            ]
        },
        {
            "positions": [
                2.524973892776731,
                -1.0915750044718457,
                1.6634635977257428,
                -0.494759084019031,
                0.9520136079685211,
                -2.641310016897364
            ]
        },
        {
            "positions": [
                2.5588529932465933,
                -1.0654814463482483,
                1.716725653736721,
                -0.5890032932735605,
                0.9853269698538349,
                -2.792207793013734
            ]
        },
        {
            "positions": [
                2.592732093716456,
                -1.0393878882246508,
                1.7699877097476993,
                -0.6832475025280897,
                1.0186403317391488,
                -2.9431055691301036
            ]
        },
        {
            "positions": [
                2.6266111941863186,
                -1.013294330101053,
                1.8232497657586773,
                -0.777491711782619,
                1.0519536936244627,
                -3.094003345246473
            ]
        }
    ]
}