{
    "goal": {
        "global_pose": {
            "orientation": {
                "w": -0.00223480608172531,
                "x": 0.0024358444001904467,
                "y": 0.7094548369677653,
                "z": -0.704743149386269
            },
            "position": {
                "x": 0.6205249238014221,
                "y": -0.6371506643295288,
                "z": 0.19426114857196808
            }
        },
        "name": "move_to_magneteinheit_B"
    },
    "id": "ProjEST_move_to_magneteinheit_B_101",
    "joint_names": [
        "shoulder_pan_joint",
        "shoulder_lift_joint",
        "elbow_joint",
        "wrist_1_joint",
        "wrist_2_joint",
        "wrist_3_joint"
    ],
    "metrics": {
        "cart_traj_len": 1.453543585341544,
        "distance_elbow_joint": 0.7311530043595675,
        "distance_shoulder_lift_joint": 1.248954666341089,
        "distance_shoulder_pan_joint": 1.6216215626930497,
        "distance_wrist_1_joint": 2.6054871595481335,
        "distance_wrist_2_joint": 2.9354907952522393,
        "distance_wrist_3_joint": 3.1490133594635044,
        "smoothness": 5.38289955595754e-17,
        "time": 0.090768184,
        "traj_len": 3.505955012212447,
        "weighted_distance": 4.912303453715474
    },
    "planner": "ProjEST",
    "start": {
        "state": {
            "elbow_joint": 2.393587130804639,
            "shoulder_lift_joint": -1.9085141043513325,
            "shoulder_pan_joint": 0.7066247066698809,
            "wrist_1_joint": -0.4678290934590222,
            "wrist_2_joint": 0.7096259084215963,
            "wrist_3_joint": 3.147370379541726
        }
    },
    "waypoints": [
        {
            "positions": [
                0.7066247066698809,
                -1.9085141043513325,
                2.393587130804639,
                -0.4678290934590222,
                0.7096259084215963,
                3.147370379541726
            ]
        },
        {
            "positions": [
                0.655949032835723,
                -1.8694842710281734,
                2.3707385994184023,
                -0.38640761972314297,
                0.6178918210699639,
                3.0489637120584914
            ]
        },
        {
            "positions": [
                0.6052733590015653,
                -1.8304544377050145,
                2.3478900680321657,
                -0.3049861459872638,
                0.5261577337183314,
                2.950557044575257
            ]
        },
        {
            "positions": [
                0.5545976851674075,
                -1.7914246043818554,
                2.325041536645929,
                -0.22356467225138463,
                0.43442364636669895,
                2.8521503770920225
            ]
        },
        {
            "positions": [
                0.5039220113332497,
                -1.7523947710586965,
                2.302193005259693,
                -0.14214319851550544,
                0.3426895590150665,
                2.753743709608788
            ]
        },
        {
            "positions": [
                0.4532463374990918,
                -1.7133649377355373,
                2.2793444738734565,
                -0.060721724779626285,
                0.250955471663434,
                2.6553370421255535
            ]
        },
        {
            "positions": [
                0.40257066366493405,
                -1.6743351044123784,
                2.25649594248722,
                0.020699748956252928,
                0.15922138431180155,
                2.556930374642319
            ]
        },
        {
            "positions": [
                0.3518949898307763,
                -1.6353052710892193,
                2.2336474111009834,
                0.10212122269213214,
                0.06748729696016909,
                2.4585237071590846
            ]
        },
        {
            "positions": [
                0.30121931599661844,
                -1.5962754377660602,
                2.210798879714747,
                0.1835426964280113,
                -0.02424679039146338,
                2.36011703967585
            ]
        },
        {
            "positions": [
                0.2505436421624606,
                -1.5572456044429013,
                2.1879503483285103,
                0.26496417016389046,
                -0.11598087774309584,
                2.2617103721926153
            ]
        },
        {
            "positions": [
                0.19986796832830278,
                -1.5182157711197422,
                2.1651018169422738,
                0.3463856438997696,
                -0.2077149650947283,
                2.163303704709381
            ]
        },
        {
            "positions": [
                0.14919229449414506,
                -1.4791859377965833,
                2.1422532855560377,
                0.4278071176356489,
                -0.2994490524463609,
                2.0648970372261464
            ]
        },
        {
            "positions": [
                0.09851662065998723,
                -1.4401561044734241,
                2.119404754169801,
                0.509228591371528,
                -0.39118313979799324,
                1.966490369742912
            ]
        },
        {
            "positions": [
                0.0478409468258294,
                -1.401126271150265,
                2.0965562227835646,
                0.5906500651074074,
                -0.4829172271496256,
                1.8680837022596775
            ]
        },
        {
            "positions": [
                -0.0028347270083283194,
                -1.3620964378271059,
                2.073707691397328,
                0.6720715388432865,
                -0.5746513145012582,
                1.7696770347764428
            ]
        },
        {
            "positions": [
                -0.05351040084248615,
                -1.323066604503947,
                2.0508591600110915,
                0.7534930125791657,
                -0.6663854018528907,
                1.6712703672932083
            ]
        },
        {
            "positions": [
                -0.10418607467664398,
                -1.284036771180788,
                2.028010628624855,
                0.8349144863150448,
                -0.7581194892045231,
                1.5728636998099739
            ]
        },
        {
            "positions": [
                -0.1548617485108018,
                -1.245006937857629,
                2.0051620972386184,
                0.916335960050924,
                -0.8498535765561555,
                1.4744570323267394
            ]
        },
        {
            "positions": [
                -0.20553742234495964,
                -1.2059771045344698,
                1.982313565852382,
                0.9977574337868031,
                -0.941587663907788,
                1.376050364843505
            ]
        },
        {
            "positions": [
                -0.25621309617911736,
                -1.1669472712113107,
                1.9594650344661455,
                1.0791789075226823,
                -1.0333217512594206,
                1.2776436973602703
            ]
        },
        {
            "positions": [
                -0.3068887700132753,
                -1.1279174378881518,
                1.9366165030799092,
                1.1606003812585615,
                -1.125055838611053,
                1.1792370298770358
            ]
        },
        {
            "positions": [
                -0.3575644438474329,
                -1.088887604564993,
                1.9137679716936726,
                1.2420218549944408,
                -1.2167899259626853,
                1.0808303623938014
            ]
        },
        {
            "positions": [
                -0.40824011768159074,
                -1.0498577712418338,
                1.890919440307436,
                1.32344332873032,
                -1.3085240133143181,
                0.9824236949105667
            ]
        },
        {
            "positions": [
                -0.4589157915157486,
                -1.0108279379186746,
                1.8680709089211995,
                1.4048648024661992,
                -1.4002581006659505,
                0.8840170274273325
            ]
        },
        {
            "positions": [
                -0.5095914653499064,
                -0.9717981045955157,
                1.8452223775349632,
                1.4862862762020783,
                -1.4919921880175828,
                0.7856103599440978
            ]
        },
        {
            "positions": [
                -0.5602671391840642,
                -0.9327682712723566,
                1.8223738461487267,
                1.5677077499379577,
                -1.5837262753692152,
                0.6872036924608631
            ]
        },
        {
            "positions": [
                -0.6109428130182221,
                -0.8937384379491977,
                1.7995253147624903,
                1.6491292236738369,
                -1.6754603627208475,
                0.5887970249776289
            ]
        },
        {
            "positions": [
                -0.6616184868523799,
                -0.8547086046260386,
                1.7766767833762538,
                1.730550697409716,
                -1.7671944500724803,
                0.4903903574943942
            ]
        },
        {
            "positions": [
                -0.7122941606865375,
                -0.8156787713028795,
                1.7538282519900172,
                1.8119721711455952,
                -1.8589285374241127,
                0.3919836900111595
            ]
        },
        {
            "positions": [
                -0.7629698345206953,
                -0.7766489379797206,
                1.7309797206037807,
                1.8933936448814743,
                -1.950662624775745,
                0.2935770225279253
            ]
        },
        {
            "positions": [
                -0.8136455083548532,
                -0.7376191046565614,
                1.7081311892175441,
                1.9748151186173535,
                -2.0423967121273776,
                0.1951703550446906
            ]
        },
        {
            "positions": [
                -0.864321182189011,
                -0.6985892713334025,
                1.6852826578313076,
                2.0562365923532324,
                -2.13413079947901,
                0.09676368756145637
            ]
        },
        {
            "positions": [
                -0.9149968560231687,
                -0.6595594380102434,
                1.6624341264450713,
                2.1376580660891116,
                -2.2258648868306428,
                -0.001642979921778376
            ]
        }
    ]
}