{
    "goal": {
        "global_pose": {
            "orientation": {
                "w": 0.005598929693374612,
                "x": 0.007748599140229565,
                "y": 0.7110244013736278,
                "z": -0.7031023480610252
            },
            "position": {
                "x": -0.8858502320852131,
                "y": -0.7141253447532654,
                "z": 0.3711530566215515
            }
        },
        "name": "move_to_auspresseinheit_C"
    },
    "id": "ProjEST_move_to_auspresseinheit_C_137",
    "joint_names": [
        "shoulder_pan_joint",
        "shoulder_lift_joint",
        "elbow_joint",
        "wrist_1_joint",
        "wrist_2_joint",
        "wrist_3_joint"
    ],
    "metrics": {
        "cart_traj_len": 0.4942926924067661,
        "distance_elbow_joint": 1.0108319856240167,
        "distance_shoulder_lift_joint": 0.32934301420608014,
        "distance_shoulder_pan_joint": 0.25651888909131104,
        "distance_wrist_1_joint": 0.6997673101257076,
        "distance_wrist_2_joint": 1.3161901553263036,
        "distance_wrist_3_joint": 0.06803237144796936,
        "smoothness": 1.6148698667872622e-16,
        "time": 2.450187083,
        "traj_len": 1.9185108094095764,
        "weighted_distance": 2.4150995702391524
    },
    "planner": "ProjEST",
    "start": {
        "state": {
            "elbow_joint": 1.7527959577730765,
            "shoulder_lift_joint": -0.9740617694224828,
            "shoulder_pan_joint": -2.967991417825869,
            "wrist_1_joint": -0.7595177689779385,
            "wrist_2_joint": 1.7443932448376545,
            "wrist_3_joint": 3.1991315425061013
        }
    },
    "waypoints": [
        {
            "positions": [
                -2.967991417825869,
                -0.9740617694224828,
                1.7527959577730765,
                -0.7595177689779385,
                1.7443932448376545,
                3.1991315425061013
            ]
        },
        {
            "positions": [
                -2.942339528916738,
                -0.9411274680018747,
                1.6517127592106748,
                -0.6895410379653678,
                1.612774229305024,
                3.1923283053613045
            ]
        },
        {
            "positions": [
                -2.916687640007607,
                -0.9081931665812668,
                1.5506295606482732,
                -0.619564306952797,
                1.4811552137723938,
                3.1855250682165073
            ]
        },
        {
            "positions": [
                -2.891035751098476,
                -0.8752588651606588,
                1.4495463620858715,
                -0.5495875759402262,
                1.3495361982397633,
                3.1787218310717105
            ]
        },
        {
            "positions": [
                -2.865383862189345,
                -0.8423245637400507,
                1.3484631635234698,
                -0.4796108449276555,
                1.217917182707133,
                3.1719185939269137
            ]
        },
        {
            "positions": [
                -2.8397319732802133,
                -0.8093902623194427,
                1.2473799649610682,
                -0.40963411391508475,
                1.0862981671745027,
                3.165115356782117
            ]
        },
        {
            "positions": [
                -2.8140800843710823,
                -0.7764559608988347,
                1.1462967663986665,
                -0.339657382902514,
                0.9546791516418723,
                3.1583121196373196
            ]
        },
        {
            "positions": [
                -2.788428195461951,
                -0.7435216594782267,
                1.0452135678362648,
                -0.2696806518899433,
                0.823060136109242,
                3.151508882492523
            ]
        },
        {
            "positions": [
                -2.76277630655282,
                -0.7105873580576187,
                0.9441303692738632,
                -0.19970392087737243,
                0.6914411205766116,
                3.144705645347726
            ]
        },
        {
            "positions": [
                -2.737124417643689,
                -0.6776530566370107,
                0.8430471707114615,
                -0.1297271898648017,
                0.5598221050439811,
                3.1379024082029288
            ]
        },
        {
            "positions": [
                -2.711472528734558,
                -0.6447187552164027,
                0.74196397214906,
                -0.05975045885223098,
                0.428203089511351,
                3.131099171058132
            ]
        }
    ]
}