{
    "goal": {
        "global_pose": {
            "orientation": {
                "w": -0.4816463035849501,
                "x": 0.5182115481033762,
                "y": 0.4908360881923453,
                "z": -0.5084816262002911
            },
            "position": {
                "x": -0.8240239810943604,
                "y": -0.300875300988555,
                "z": 0.16403168439865112
            }
        },
        "name": "move_to_storage_C"
    },
    "id": "ProjEST_move_to_storage_C_47",
    "joint_names": [
        "shoulder_pan_joint",
        "shoulder_lift_joint",
        "elbow_joint",
        "wrist_1_joint",
        "wrist_2_joint",
        "wrist_3_joint"
    ],
    "metrics": {
        "cart_traj_len": 0.5764321325187185,
        "distance_elbow_joint": 0.2583372414327263,
        "distance_shoulder_lift_joint": 0.19070012917506785,
        "distance_shoulder_pan_joint": 0.4928835302127532,
        "distance_wrist_1_joint": 0.0761852313784841,
        "distance_wrist_2_joint": 1.0778780880942895,
        "distance_wrist_3_joint": 0.05626793504019867,
        "smoothness": 5.075305295617109e-16,
        "time": 0.010553912,
        "traj_len": 1.4670556074442167,
        "weighted_distance": 1.849013614034978
    },
    "planner": "ProjEST",
    "start": {
        "state": {
            "elbow_joint": 2.0108683149792914,
            "shoulder_lift_joint": -1.1634956873317392,
            "shoulder_pan_joint": -2.4736205022346,
            "wrist_1_joint": -0.8367026793690192,
            "wrist_2_joint": 0.6746043897045053,
            "wrist_3_joint": 3.133522094754363
        }
    },
    "waypoints": [
        {
            "positions": [
                -2.4736205022346,
                -1.1634956873317392,
                2.0108683149792914,
                -0.8367026793690192,
                0.6746043897045053,
                3.133522094754363
            ]
        },
        {
            "positions": [
                -2.555767757270059,
                -1.131712332469228,
                1.967812108073837,
                -0.8240051408059386,
                0.8542507377202202,
                3.1429000839277297
            ]
        },
        {
            "positions": [
                -2.637915012305518,
                -1.0999289776067167,
                1.9247559011683826,
                -0.8113076022428578,
                1.033897085735935,
                3.152278073101096
            ]
        },
        {
            "positions": [
                -2.7200622673409764,
                -1.0681456227442054,
                1.8816996942629283,
                -0.7986100636797772,
                1.2135434337516502,
                3.1616560622744627
            ]
        },
        {
            "positions": [
                -2.8022095223764354,
                -1.036362267881694,
                1.838643487357474,
                -0.7859125251166965,
                1.393189781767365,
                3.171034051447829
            ]
        },
        {
            "positions": [
                -2.8843567774118943,
                -1.0045789130191827,
                1.7955872804520194,
                -0.7732149865536158,
                1.57283612978308,
                3.1804120406211953
            ]
        },
        {
            "positions": [
                -2.9665040324473533,
                -0.9727955581566714,
                1.7525310735465651,
                -0.7605174479905351,
                1.7524824777987948,
                3.189790029794562
            ]
        }
    ]
}