{
    "goal": {
        "global_pose": {
            "orientation": {
                "w": 0.5084816262002911,
                "x": -0.4908360881923452,
                "y": 0.5182115481033761,
                "z": -0.48164630358495003
            },
            "position": {
                "x": 0.5540239810943604,
                "y": -0.46912469901144505,
                "z": 0.16403168439865112
            }
        },
        "name": "move_to_storage_B"
    },
    "id": "ProjEST_move_to_storage_B_150",
    "joint_names": [
        "shoulder_pan_joint",
        "shoulder_lift_joint",
        "elbow_joint",
        "wrist_1_joint",
        "wrist_2_joint",
        "wrist_3_joint"
    ],
    "metrics": {
        "cart_traj_len": 0.8434937893784937,
        "distance_elbow_joint": 0.35576427300296953,
        "distance_shoulder_lift_joint": 0.4600799428771445,
        "distance_shoulder_pan_joint": 0.6592672163374655,
        "distance_wrist_1_joint": 3.2288874399097796,
        "distance_wrist_2_joint": 2.709988602689627,
        "distance_wrist_3_joint": 3.177468497350478,
        "smoothness": 0.2945216567909395,
        "time": 0.095039238,
        "traj_len": 3.254451716060244,
        "weighted_distance": 4.783855036418624
    },
    "planner": "ProjEST",
    "start": {
        "state": {
            "elbow_joint": 1.6649325340416963,
            "shoulder_lift_joint": -0.6616387945129425,
            "shoulder_pan_joint": -0.9139837929255878,
            "wrist_1_joint": 2.1467571094334352,
            "wrist_2_joint": -2.234195976750228,
            "wrist_3_joint": 0.005470921511140723
        }
    },
    "waypoints": [
        {
            "positions": [
                -0.9139837929255878,
                -0.6616387945129425,
                1.6649325340416963,
                2.1467571094334352,
                -2.234195976750228,
                0.005470921511140723
            ]
        },
        {
            "positions": [
                -0.7945716056405401,
                -0.7148682459000117,
                1.6741949437341308,
                2.2009019462258737,
                -2.1921173918367414,
                0.019703665476878237
            ]
        },
        {
            "positions": [
                -0.6751594183554924,
                -0.768097697287081,
                1.683457353426565,
                2.2550467830183116,
                -2.1500388069232543,
                0.03393640944261575
            ]
        },
        {
            "positions": [
                -0.6913302968850067,
                -0.7816985065218119,
                1.696428101642646,
                2.1350237920058155,
                -2.0490452902746905,
                -0.0871790909196536
            ]
        },
        {
            "positions": [
                -0.7075011754145208,
                -0.795299315756543,
                1.7093988498587267,
                2.015000800993319,
                -1.9480517736261271,
                -0.20829459128192296
            ]
        },
        {
            "positions": [
                -0.7236720539440351,
                -0.808900124991274,
                1.7223695980748075,
                1.8949778099808228,
                -1.8470582569775635,
                -0.3294100916441923
            ]
        },
        {
            "positions": [
                -0.7398429324735494,
                -0.822500934226005,
                1.7353403462908883,
                1.7749548189683266,
                -1.746064740329,
                -0.4505255920064617
            ]
        },
        {
            "positions": [
                -0.7560138110030636,
                -0.836101743460736,
                1.748311094506969,
                1.6549318279558303,
                -1.6450712236804361,
                -0.571641092368731
            ]
        },
        {
            "positions": [
                -0.7721846895325778,
                -0.849702552695467,
                1.7612818427230499,
                1.534908836943334,
                -1.5440777070318727,
                -0.6927565927310003
            ]
        },
        {
            "positions": [
                -0.7883555680620921,
                -0.863303361930198,
                1.7742525909391307,
                1.4148858459308378,
                -1.443084190383309,
                -0.8138720930932696
            ]
        },
        {
            "positions": [
                -0.8045264465916063,
                -0.876904171164929,
                1.7872233391552115,
                1.2948628549183414,
                -1.3420906737347453,
                -0.9349875934555391
            ]
        },
        {
            "positions": [
                -0.8206973251211205,
                -0.89050498039966,
                1.8001940873712923,
                1.1748398639058453,
                -1.2410971570861817,
                -1.0561030938178082
            ]
        },
        {
            "positions": [
                -0.8368682036506347,
                -0.904105789634391,
                1.813164835587373,
                1.054816872893349,
                -1.1401036404376181,
                -1.1772185941800777
            ]
        },
        {
            "positions": [
                -0.853039082180149,
                -0.917706598869122,
                1.8261355838034539,
                0.9347938818808526,
                -1.0391101237890545,
                -1.298334094542347
            ]
        },
        {
            "positions": [
                -0.8692099607096633,
                -0.931307408103853,
                1.8391063320195347,
                0.8147708908683562,
                -0.9381166071404909,
                -1.4194495949046164
            ]
        },
        {
            "positions": [
                -0.8853808392391775,
                -0.944908217338584,
                1.8520770802356155,
                0.69474789985586,
                -0.8371230904919273,
                -1.5405650952668857
            ]
        },
        {
            "positions": [
                -0.9015517177686917,
                -0.9585090265733149,
                1.8650478284516963,
                0.5747249088433639,
                -0.7361295738433637,
                -1.661680595629155
            ]
        },
        {
            "positions": [
                -0.917722596298206,
                -0.972109835808046,
                1.878018576667777,
                0.45470191783086755,
                -0.6351360571948002,
                -1.7827960959914242
            ]
        },
        {
            "positions": [
                -0.9338934748277202,
                -0.9857106450427771,
                1.8909893248838578,
                0.3346789268183712,
                -0.5341425405462363,
                -1.903911596353694
            ]
        },
        {
            "positions": [
                -0.9500643533572344,
                -0.999311454277508,
                1.9039600730999386,
                0.21465593580587505,
                -0.43314902389767296,
                -2.0250270967159634
            ]
        },
        {
            "positions": [
                -0.9662352318867486,
                -1.012912263512239,
                1.9169308213160194,
                0.09463294479337891,
                -0.33215550724910936,
                -2.1461425970782324
            ]
        },
        {
            "positions": [
                -0.9824061104162629,
                -1.02651307274697,
                1.9299015695321002,
                -0.025390046219117668,
                -0.23116199060054576,
                -2.267258097440502
            ]
        },
        {
            "positions": [
                -0.9985769889457772,
                -1.040113881981701,
                1.942872317748181,
                -0.1454130372316138,
                -0.13016847395198194,
                -2.3883735978027714
            ]
        },
        {
            "positions": [
                -1.0147478674752914,
                -1.053714691216432,
                1.9558430659642618,
                -0.2654360282441104,
                -0.02917495730341857,
                -2.509489098165041
            ]
        },
        {
            "positions": [
                -1.0309187460048057,
                -1.067315500451163,
                1.9688138141803426,
                -0.3854590192566065,
                0.07181855934514525,
                -2.63060459852731
            ]
        },
        {
            "positions": [
                -1.0470896245343198,
                -1.080916309685894,
                1.9817845623964234,
                -0.5054820102691027,
                0.17281207599370862,
                -2.7517200988895794
            ]
        },
        {
            "positions": [
                -1.063260503063834,
                -1.094517118920625,
                1.9947553106125042,
                -0.6255050012815992,
                0.27380559264227244,
                -2.872835599251849
            ]
        },
        {
            "positions": [
                -1.0794313815933483,
                -1.108117928155356,
                2.007726058828585,
                -0.7455279922940954,
                0.37479910929083626,
                -2.993951099614118
            ]
        },
        {
            "positions": [
                -1.0956022601228625,
                -1.121718737390087,
                2.020696807044666,
                -0.8655509833065916,
                0.4757926259393994,
                -3.1150665999763874
            ]
        }
    ]
}