{
    "goal": {
        "global_pose": {
            "orientation": {
                "w": 0.7047431468963623,
                "x": -0.7094548344612122,
                "y": 0.0024358443915843964,
                "z": -0.0022348060738295317
            },
            "position": {
                "x": 0.6094750761985779,
                "y": 0.3671506643295288,
                "z": 0.19426114857196808
            }
        },
        "name": "move_to_magneteinheit_A"
    },
    "id": "ProjEST_move_to_magneteinheit_A_135",
    "joint_names": [
        "shoulder_pan_joint",
        "shoulder_lift_joint",
        "elbow_joint",
        "wrist_1_joint",
        "wrist_2_joint",
        "wrist_3_joint"
    ],
    "metrics": {
        "cart_traj_len": 1.9737943230408483,
        "distance_elbow_joint": 3.583116688514269,
        "distance_shoulder_lift_joint": 0.7905521707065513,
        "distance_shoulder_pan_joint": 1.2418841192357815,
        "distance_wrist_1_joint": 1.1475421376891235,
        "distance_wrist_2_joint": 1.4495503216056975,
        "distance_wrist_3_joint": 1.9441648294427332,
        "smoothness": 7.894919279011974e-16,
        "time": 0.214198854,
        "traj_len": 3.1869750967326613,
        "weighted_distance": 4.07948923094233
    },
    "planner": "ProjEST",
    "start": {
        "state": {
            "elbow_joint": -1.5739458827952972,
            "shoulder_lift_joint": 0.006533473998580023,
            "shoulder_pan_joint": -1.1188671628667068,
            "wrist_1_joint": 3.138208179676308,
            "wrist_2_joint": -1.5706037135050406,
            "wrist_3_joint": -2.0226958329764257
        }
    },
    "waypoints": [
        {
            "positions": [
                -1.1188671628667068,
                0.006533473998580023,
                -1.5739458827952972,
                3.138208179676308,
                -1.5706037135050406,
                -2.0226958329764257
            ]
        },
        {
            "positions": [
                -1.071102389049946,
                -0.023872378720902726,
                -1.4361337024678253,
                3.094071943611342,
                -1.5148517780586677,
                -1.9479202626132437
            ]
        },
        {
            "positions": [
                -1.0233376152331852,
                -0.054278231440385474,
                -1.2983215221403535,
                3.0499357075463758,
                -1.4590998426122945,
                -1.8731446922500616
            ]
        },
        {
            "positions": [
                -0.9755728414164244,
                -0.08468408415986822,
                -1.1605093418128816,
                3.005799471481409,
                -1.4033479071659216,
                -1.7983691218868796
            ]
        },
        {
            "positions": [
                -0.9278080675996635,
                -0.11508993687935097,
                -1.0226971614854097,
                2.961663235416443,
                -1.3475959717195487,
                -1.7235935515236975
            ]
        },
        {
            "positions": [
                -0.8800432937829027,
                -0.1454957895988337,
                -0.8848849811579378,
                2.9175269993514767,
                -1.2918440362731758,
                -1.6488179811605155
            ]
        },
        {
            "positions": [
                -0.8322785199661419,
                -0.17590164231831645,
                -0.7470728008304659,
                2.8733907632865106,
                -1.2360921008268027,
                -1.5740424107973334
            ]
        },
        {
            "positions": [
                -0.7845137461493811,
                -0.20630749503779916,
                -0.609260620502994,
                2.8292545272215444,
                -1.1803401653804297,
                -1.4992668404341516
            ]
        },
        {
            "positions": [
                -0.7367489723326202,
                -0.23671334775728195,
                -0.4714484401755221,
                2.7851182911565777,
                -1.1245882299340568,
                -1.4244912700709693
            ]
        },
        {
            "positions": [
                -0.6889841985158593,
                -0.2671192004767647,
                -0.33363625984805023,
                2.7409820550916115,
                -1.0688362944876837,
                -1.3497156997077875
            ]
        },
        {
            "positions": [
                -0.6412194246990985,
                -0.29752505319624745,
                -0.19582407952057834,
                2.6968458190266453,
                -1.0130843590413108,
                -1.2749401293446052
            ]
        },
        {
            "positions": [
                -0.5934546508823377,
                -0.3279309059157302,
                -0.05801189919310645,
                2.652709582961679,
                -0.9573324235949378,
                -1.2001645589814234
            ]
        },
        {
            "positions": [
                -0.5456898770655769,
                -0.35833675863521297,
                0.07980028113436544,
                2.608573346896713,
                -0.9015804881485647,
                -1.125388988618241
            ]
        },
        {
            "positions": [
                -0.4979251032488161,
                -0.3887426113546957,
                0.21761246146183733,
                2.5644371108317463,
                -0.8458285527021918,
                -1.0506134182550593
            ]
        },
        {
            "positions": [
                -0.4501603294320553,
                -0.4191484640741784,
                0.3554246417893092,
                2.52030087476678,
                -0.7900766172558189,
                -0.9758378478918772
            ]
        },
        {
            "positions": [
                -0.4023955556152945,
                -0.44955431679366115,
                0.4932368221167811,
                2.476164638701814,
                -0.7343246818094459,
                -0.9010622775286952
            ]
        },
        {
            "positions": [
                -0.3546307817985336,
                -0.47996016951314396,
                0.631049002444253,
                2.4320284026368473,
                -0.6785727463630729,
                -0.8262867071655129
            ]
        },
        {
            "positions": [
                -0.30686600798177277,
                -0.5103660222326266,
                0.7688611827717249,
                2.3878921665718815,
                -0.6228208109166998,
                -0.7515111368023311
            ]
        },
        {
            "positions": [
                -0.25910123416501196,
                -0.5407718749521093,
                0.9066733630991968,
                2.343755930506915,
                -0.567068875470327,
                -0.676735566439149
            ]
        },
        {
            "positions": [
                -0.21133646034825126,
                -0.571177727671592,
                1.0444855434266687,
                2.2996196944419487,
                -0.5113169400239539,
                -0.601959996075967
            ]
        },
        {
            "positions": [
                -0.16357168653149023,
                -0.6015835803910748,
                1.1822977237541406,
                2.2554834583769825,
                -0.455565004577581,
                -0.5271844257127847
            ]
        },
        {
            "positions": [
                -0.11580691271472943,
                -0.6319894331105576,
                1.3201099040816124,
                2.211347222312016,
                -0.39981306913120784,
                -0.45240885534960285
            ]
        },
        {
            "positions": [
                -0.06804213889796862,
                -0.6623952858300404,
                1.4579220844090843,
                2.1672109862470497,
                -0.34406113368483493,
                -0.3776332849864208
            ]
        },
        {
            "positions": [
                -0.02027736508120781,
                -0.6928011385495231,
                1.5957342647365562,
                2.1230747501820835,
                -0.288309198238462,
                -0.30285771462323874
            ]
        },
        {
            "positions": [
                0.027487408735553,
                -0.7232069912690059,
                1.733546445064028,
                2.0789385141171173,
                -0.23255726279208888,
                -0.22808214426005646
            ]
        },
        {
            "positions": [
                0.0752521825523138,
                -0.7536128439884886,
                1.8713586253915,
                2.034802278052151,
                -0.17680532734571597,
                -0.15330657389687463
            ]
        },
        {
            "positions": [
                0.12301695636907452,
                -0.7840186967079713,
                2.009170805718972,
                1.9906660419871847,
                -0.12105339189934311,
                -0.07853100353369254
            ]
        }
    ]
}