{
    "goal": {
        "global_pose": {
            "orientation": {
                "w": 0.7031023480610252,
                "x": -0.7110244013736278,
                "y": 0.0077485991402295624,
                "z": 0.005598929693374583
            },
            "position": {
                "x": -0.8841497679147869,
                "y": 0.44412534475326537,
                "z": 0.3711530566215515
            }
        },
        "name": "move_to_auspresseinheit_D"
    },
    "id": "ProjEST_move_to_auspresseinheit_D_120",
    "joint_names": [
        "shoulder_pan_joint",
        "shoulder_lift_joint",
        "elbow_joint",
        "wrist_1_joint",
        "wrist_2_joint",
        "wrist_3_joint"
    ],
    "metrics": {
        "cart_traj_len": 0.3441705613037902,
        "distance_elbow_joint": 0.6423589328727615,
        "distance_shoulder_lift_joint": 0.12281197179609338,
        "distance_shoulder_pan_joint": 0.1341237470843544,
        "distance_wrist_1_joint": 0.5345510096008961,
        "distance_wrist_2_joint": 1.4474299593455198,
        "distance_wrist_3_joint": 0.001490183316026794,
        "smoothness": 3.9474596431116675e-16,
        "time": 0.095066133,
        "traj_len": 1.6978709621215777,
        "weighted_distance": 2.206292623292323
    },
    "planner": "ProjEST",
    "start": {
        "state": {
            "elbow_joint": -1.8275484843655228,
            "shoulder_lift_joint": -2.1267897864000416,
            "shoulder_pan_joint": -0.035127520176001514,
            "wrist_1_joint": -2.3477863256791385,
            "wrist_2_joint": -1.605890476484521,
            "wrist_3_joint": -3.0880375317375353
        }
    },
    "waypoints": [
        {
            "positions": [
                -0.035127520176001514,
                -2.1267897864000416,
                -1.8275484843655228,
                -2.3477863256791385,
                -1.605890476484521,
                -3.0880375317375353
            ]
        },
        {
            "positions": [
                -0.05189298856154581,
                -2.142141282874553,
                -1.7472536177564275,
                -2.4146052018792505,
                -1.424961731566331,
                -3.087851258823032
            ]
        },
        {
            "positions": [
                -0.06865845694709011,
                -2.157492779349065,
                -1.6669587511473325,
                -2.4814240780793626,
                -1.244032986648141,
                -3.0876649859085283
            ]
        },
        {
            "positions": [
                -0.08542392533263442,
                -2.1728442758235764,
                -1.5866638845382373,
                -2.5482429542794747,
                -1.0631042417299512,
                -3.087478712994025
            ]
        },
        {
            "positions": [
                -0.10218939371817871,
                -2.188195772298088,
                -1.506369017929142,
                -2.6150618304795863,
                -0.8821754968117611,
                -3.087292440079522
            ]
        },
        {
            "positions": [
                -0.11895486210372301,
                -2.2035472687726,
                -1.4260741513200468,
                -2.6818807066796984,
                -0.7012467518935711,
                -3.0871061671650186
            ]
        },
        {
            "positions": [
                -0.13572033048926732,
                -2.2188987652471117,
                -1.3457792847109515,
                -2.7486995828798104,
                -0.5203180069753812,
                -3.0869198942505154
            ]
        },
        {
            "positions": [
                -0.15248579887481162,
                -2.2342502617216233,
                -1.2654844181018565,
                -2.8155184590799225,
                -0.3393892620571912,
                -3.0867336213360117
            ]
        },
        {
            "positions": [
                -0.16925126726035591,
                -2.249601758196135,
                -1.1851895514927613,
                -2.8823373352800346,
                -0.1584605171390013,
                -3.0865473484215085
            ]
        }
    ]
}