{
    "goal": {
        "global_pose": {
            "orientation": {
                "w": 0.7031023502349854,
                "x": -0.7110244035720825,
                "y": 0.007748599164187908,
                "z": 0.005598929710686207
            },
            "position": {
                "x": 0.11585023208521307,
                "y": 0.44412534475326537,
                "z": 0.3711530566215515
            }
        },
        "name": "move_to_auspresseinheit_A"
    },
    "id": "ProjEST_move_to_auspresseinheit_A_49",
    "joint_names": [
        "shoulder_pan_joint",
        "shoulder_lift_joint",
        "elbow_joint",
        "wrist_1_joint",
        "wrist_2_joint",
        "wrist_3_joint"
    ],
    "metrics": {
        "cart_traj_len": 0.6671869082325549,
        "distance_elbow_joint": 0.02992154992001872,
        "distance_shoulder_lift_joint": 0.5337572537895108,
        "distance_shoulder_pan_joint": 1.0458281714107882,
        "distance_wrist_1_joint": 1.0956210756858733,
        "distance_wrist_2_joint": 1.3573802501606025,
        "distance_wrist_3_joint": 0.3660513150144018,
        "smoothness": 1.4616698928947636,
        "time": 0.5923204860000001,
        "traj_len": 2.1044143166166673,
        "weighted_distance": 2.75928678680859
    },
    "planner": "ProjEST",
    "start": {
        "state": {
            "elbow_joint": 2.4225746994637096,
            "shoulder_lift_joint": -1.373653595662188,
            "shoulder_pan_joint": -0.3378633848294565,
            "wrist_1_joint": -1.0288595594406726,
            "wrist_2_joint": 1.2330228066703421,
            "wrist_3_joint": 3.189163495502006
        }
    },
    "waypoints": [
        {
            "positions": [
                -0.3378633848294565,
                -1.373653595662188,
                2.4225746994637096,
                -1.0288595594406726,
                1.2330228066703421,
                3.189163495502006
            ]
        },
        {
            "positions": [
                -0.25921580624555873,
                -1.419192219802377,
                2.4194761855595153,
                -0.9252830284490372,
                1.1155844335302225,
                3.163527946136639
            ]
        },
        {
            "positions": [
                -0.18056822766166103,
                -1.4647308439425657,
                2.416377671655321,
                -0.8217064974574018,
                0.9981460603901029,
                3.137892396771272
            ]
        },
        {
            "positions": [
                -0.1019206490777633,
                -1.5102694680827546,
                2.4132791577511266,
                -0.7181299664657662,
                0.8807076872499833,
                3.1122568474059054
            ]
        },
        {
            "positions": [
                -0.023273070493865566,
                -1.5558080922229434,
                2.4101806438469318,
                -0.6145534354741308,
                0.7632693141098637,
                3.086621298040539
            ]
        },
        {
            "positions": [
                0.05537450809003214,
                -1.6013467163631323,
                2.4070821299427374,
                -0.5109769044824953,
                0.645830940969744,
                3.060985748675172
            ]
        },
        {
            "positions": [
                0.1340220866739299,
                -1.6468853405033212,
                2.403983616038543,
                -0.4074003734908598,
                0.5283925678296244,
                3.0353501993098053
            ]
        },
        {
            "positions": [
                0.21266966525782766,
                -1.6924239646435102,
                2.4008851021343487,
                -0.30382384249922434,
                0.4109541946895048,
                3.0097146499444385
            ]
        },
        {
            "positions": [
                0.2913172438417253,
                -1.737962588783699,
                2.3977865882301543,
                -0.20024731150758895,
                0.29351582154938516,
                2.9840791005790717
            ]
        },
        {
            "positions": [
                0.3954791295266269,
                -1.780324653950699,
                2.3965032285585384,
                -0.26699951844578634,
                0.39798413780929653,
                3.0243208306019387
            ]
        },
        {
            "positions": [
                0.4996410152115285,
                -1.8226867191176988,
                2.3952198688869224,
                -0.3337517253839837,
                0.5024524540692079,
                3.0645625606248057
            ]
        },
        {
            "positions": [
                0.6038029008964301,
                -1.8650487842846988,
                2.393936509215307,
                -0.40050393232218107,
                0.6069207703291194,
                3.1048042906476723
            ]
        },
        {
            "positions": [
                0.7079647865813317,
                -1.9074108494516988,
                2.392653149543691,
                -0.46725613926037846,
                0.7113890865890308,
                3.1450460206705393
            ]
        }
    ]
}