{
    "goal": {
        "global_pose": {
            "orientation": {
                "w": -0.00223480608172531,
                "x": 0.0024358444001904467,
                "y": 0.7094548369677653,
                "z": -0.704743149386269
            },
            "position": {
                "x": -0.37947507619857795,
                "y": -0.6371506643295288,
                "z": 0.19426114857196808
            }
        },
        "name": "move_to_magneteinheit_C"
    },
    "id": "ProjEST_move_to_magneteinheit_C_142",
    "joint_names": [
        "shoulder_pan_joint",
        "shoulder_lift_joint",
        "elbow_joint",
        "wrist_1_joint",
        "wrist_2_joint",
        "wrist_3_joint"
    ],
    "metrics": {
        "cart_traj_len": 4.545794247883749,
        "distance_elbow_joint": 3.373817211412249,
        "distance_shoulder_lift_joint": 1.7739138325088857,
        "distance_shoulder_pan_joint": 4.37692301008554,
        "distance_wrist_1_joint": 4.850812742874225,
        "distance_wrist_2_joint": 2.315237478738613,
        "distance_wrist_3_joint": 7.013049062541532,
        "smoothness": 0.3007066334979673,
        "time": 0.348998183,
        "traj_len": 4.8686500529572925,
        "weighted_distance": 6.700440409768372
    },
    "planner": "ProjEST",
    "start": {
        "state": {
            "elbow_joint": 1.9565354006593851,
            "shoulder_lift_joint": -1.4165861576512813,
            "shoulder_pan_joint": -1.6717766223278752,
            "wrist_1_joint": -0.528663328821883,
            "wrist_2_joint": 1.472756589259273,
            "wrist_3_joint": 3.159348288315503
        }
    },
    "waypoints": [
        {
            "positions": [
                -1.6717766223278752,
                -1.4165861576512813,
                1.9565354006593851,
                -0.528663328821883,
                1.472756589259273,
                3.159348288315503
            ]
        },
        {
            "positions": [
                -1.5610088333199303,
                -1.4600746988253621,
                1.9591473088105622,
                -0.5177034229087005,
                1.4077341956294567,
                3.0589245087004544
            ]
        },
        {
            "positions": [
                -1.4502410443119855,
                -1.503563239999443,
                1.961759216961739,
                -0.506743516995518,
                1.34271180199964,
                2.958500729085406
            ]
        },
        {
            "positions": [
                -1.3951667997348598,
                -1.5104567154991202,
                1.895534307449425,
                -0.4614869781212828,
                1.2777031224151245,
                2.8076904831150515
            ]
        },
        {
            "positions": [
                -1.3400925551577338,
                -1.5173501909987976,
                1.8293093979371111,
                -0.41623043924704767,
                1.2126944428306092,
                2.6568802371446973
            ]
        },
        {
            "positions": [
                -1.2850183105806081,
                -1.5242436664984749,
                1.7630844884247974,
                -0.3709739003728125,
                1.1476857632460937,
                2.5060699911743427
            ]
        },
        {
            "positions": [
                -1.2299440660034824,
                -1.531137141998152,
                1.6968595789124834,
                -0.32571736149857733,
                1.0826770836615784,
                2.3552597452039885
            ]
        },
        {
            "positions": [
                -1.1748698214263564,
                -1.5380306174978293,
                1.6306346694001694,
                -0.28046082262434213,
                1.017668404077063,
                2.204449499233634
            ]
        },
        {
            "positions": [
                -1.1197955768492307,
                -1.5449240929975068,
                1.5644097598878555,
                -0.235204283750107,
                0.9526597244925475,
                2.0536392532632792
            ]
        },
        {
            "positions": [
                -1.064721332272105,
                -1.551817568497184,
                1.4981848503755415,
                -0.1899477448758718,
                0.8876510449080321,
                1.9028290072929248
            ]
        },
        {
            "positions": [
                -1.009647087694979,
                -1.5587110439968612,
                1.4319599408632278,
                -0.1446912060016366,
                0.8226423653235166,
                1.7520187613225704
            ]
        },
        {
            "positions": [
                -0.9545728431178532,
                -1.5656045194965384,
                1.3657350313509138,
                -0.09943466712740145,
                0.7576336857390013,
                1.6012085153522158
            ]
        },
        {
            "positions": [
                -0.8994985985407274,
                -1.572497994996216,
                1.2995101218385998,
                -0.05417812825316631,
                0.6926250061544859,
                1.4503982693818613
            ]
        },
        {
            "positions": [
                -0.8444243539636016,
                -1.5793914704958931,
                1.2332852123262859,
                -0.008921589378931116,
                0.6276163265699705,
                1.299588023411507
            ]
        },
        {
            "positions": [
                -0.7893501093864759,
                -1.5862849459955704,
                1.1670603028139719,
                0.036334949495304025,
                0.5626076469854551,
                1.1487777774411525
            ]
        },
        {
            "positions": [
                -0.7342758648093499,
                -1.5931784214952478,
                1.100835393301658,
                0.08159148836953922,
                0.49759896740093956,
                0.9979675314707979
            ]
        },
        {
            "positions": [
                -0.6792016202322242,
                -1.600071896994925,
                1.034610483789344,
                0.12684802724377442,
                0.4325902878164243,
                0.8471572855004434
            ]
        },
        {
            "positions": [
                -0.6241273756550985,
                -1.6069653724946023,
                0.9683855742770302,
                0.1721045661180095,
                0.3675816082319089,
                0.6963470395300893
            ]
        },
        {
            "positions": [
                -0.5690531310779725,
                -1.6138588479942795,
                0.9021606647647162,
                0.2173611049922448,
                0.30257292864739327,
                0.5455367935597346
            ]
        },
        {
            "positions": [
                -0.5139788865008468,
                -1.620752323493957,
                0.8359357552524023,
                0.2626176438664799,
                0.23756424906287799,
                0.39472654758938
            ]
        },
        {
            "positions": [
                -0.4589046419237208,
                -1.6276457989936342,
                0.7697108457400883,
                0.3078741827407151,
                0.17255556947836248,
                0.24391630161902533
            ]
        },
        {
            "positions": [
                -0.4038303973465951,
                -1.6345392744933114,
                0.7034859362277743,
                0.3531307216149503,
                0.1075468898938472,
                0.09310605564867114
            ]
        },
        {
            "positions": [
                -0.34875615276946936,
                -1.6414327499929886,
                0.6372610267154606,
                0.3983872604891854,
                0.04253821030933169,
                -0.0577041903216835
            ]
        },
        {
            "positions": [
                -0.2936819081923434,
                -1.648326225492666,
                0.5710361172031466,
                0.4436437993634207,
                -0.022470469275183813,
                -0.20851443629203814
            ]
        },
        {
            "positions": [
                -0.2386076636152178,
                -1.6552197009923433,
                0.5048112076908327,
                0.4889003382376558,
                -0.08747914885969915,
                -0.35932468226239234
            ]
        },
        {
            "positions": [
                -0.437801819736208,
                -1.5771809039942681,
                0.4889918800843311,
                0.5859424456195323,
                -0.08646616493110088,
                -0.3595407401900209
            ]
        },
        {
            "positions": [
                -0.6369959758571982,
                -1.4991421069961928,
                0.4731725524778295,
                0.6829845530014089,
                -0.0854531810025026,
                -0.35975679811764943
            ]
        },
        {
            "positions": [
                -0.8361901319781885,
                -1.4211033099981176,
                0.4573532248713279,
                0.7800266603832855,
                -0.08444019707390432,
                -0.359972856045278
            ]
        },
        {
            "positions": [
                -1.0353842880991788,
                -1.3430645130000425,
                0.44153389726482634,
                0.8770687677651622,
                -0.08342721314530606,
                -0.36018891397290653
            ]
        },
        {
            "positions": [
                -1.234578444220169,
                -1.2650257160019671,
                0.42571456965832477,
                0.9741108751470388,
                -0.08241422921670778,
                -0.3604049719005351
            ]
        },
        {
            "positions": [
                -1.4337726003411593,
                -1.1869869190038917,
                0.4098952420518232,
                1.0711529825289152,
                -0.0814012452881095,
                -0.36062102982816363
            ]
        },
        {
            "positions": [
                -1.6329667564621495,
                -1.1089481220058168,
                0.39407591444532164,
                1.168195089910792,
                -0.08038826135951123,
                -0.3608370877557922
            ]
        },
        {
            "positions": [
                -1.8321609125831397,
                -1.0309093250077415,
                0.37825658683882,
                1.2652371972926686,
                -0.07937527743091295,
                -0.36105314568342073
            ]
        },
        {
            "positions": [
                -2.03135506870413,
                -0.9528705280096662,
                0.3624372592323185,
                1.3622793046745452,
                -0.07836229350231468,
                -0.3612692036110493
            ]
        },
        {
            "positions": [
                -2.23054922482512,
                -0.874831731011591,
                0.3466179316258169,
                1.4593214120564217,
                -0.07734930957371641,
                -0.3614852615386778
            ]
        },
        {
            "positions": [
                -2.4297433809461104,
                -0.7967929340135158,
                0.3307986040193154,
                1.5563635194382983,
                -0.07633632564511814,
                -0.3617013194663064
            ]
        },
        {
            "positions": [
                -2.6289375370671006,
                -0.7187541370154404,
                0.31497927641281376,
                1.653405626820175,
                -0.07532334171651986,
                -0.3619173773939349
            ]
        },
        {
            "positions": [
                -2.828131693188091,
                -0.6407153400173653,
                0.2991599488063122,
                1.7504477342020515,
                -0.07431035778792158,
                -0.3621334353215635
            ]
        },
        {
            "positions": [
                -2.8133721089464236,
                -0.6624143370254005,
                0.37024303742941506,
                1.6432934975416227,
                -0.0434006515567607,
                -0.21665146286721076
            ]
        },
        {
            "positions": [
                -2.798612524704757,
                -0.6841133340334358,
                0.4413261260525179,
                1.536139260881194,
                -0.012490945325599814,
                -0.07116949041285803
            ]
        },
        {
            "positions": [
                -2.7838529404630896,
                -0.705812331041471,
                0.5124092146756207,
                1.4289850242207653,
                0.018418760905561077,
                0.07431248204149477
            ]
        },
        {
            "positions": [
                -2.769093356221423,
                -0.7275113280495061,
                0.5834923032987236,
                1.3218307875603366,
                0.049328467136721954,
                0.21979445449584745
            ]
        },
        {
            "positions": [
                -2.7543337719797556,
                -0.7492103250575414,
                0.6545753919218265,
                1.2146765508999078,
                0.08023817336788286,
                0.36527642695020035
            ]
        },
        {
            "positions": [
                -2.7395741877380884,
                -0.7709093220655766,
                0.7256584805449293,
                1.107522314239479,
                0.11114787959904374,
                0.510758399404553
            ]
        },
        {
            "positions": [
                -2.7248146034964216,
                -0.7926083190736118,
                0.7967415691680323,
                1.0003680775790502,
                0.14205758583020464,
                0.6562403718589058
            ]
        },
        {
            "positions": [
                -2.7100550192547543,
                -0.814307316081647,
                0.867824657791135,
                0.8932138409186215,
                0.1729672920613655,
                0.8017223443132584
            ]
        },
        {
            "positions": [
                -2.695295435013087,
                -0.8360063130896822,
                0.9389077464142379,
                0.7860596042581928,
                0.2038769982925264,
                0.9472043167676112
            ]
        },
        {
            "positions": [
                -2.6805358507714203,
                -0.8577053100977174,
                1.0099908350373408,
                0.6789053675977639,
                0.2347867045236873,
                1.0926862892219642
            ]
        },
        {
            "positions": [
                -2.665776266529753,
                -0.8794043071057527,
                1.0810739236604436,
                0.5717511309373353,
                0.2656964107548482,
                1.2381682616763168
            ]
        },
        {
            "positions": [
                -2.651016682288086,
                -0.9011033041137879,
                1.1521570122835465,
                0.46459689427690654,
                0.296606116986009,
                1.3836502341306696
            ]
        },
        {
            "positions": [
                -2.636257098046419,
                -0.9228023011218232,
                1.2232401009066494,
                0.357442657616478,
                0.3275158232171699,
                1.5291322065850221
            ]
        },
        {
            "positions": [
                -2.621497513804752,
                -0.9445012981298584,
                1.2943231895297524,
                0.250288420956049,
                0.35842552944833084,
                1.6746141790393752
            ]
        },
        {
            "positions": [
                -2.606737929563085,
                -0.9662002951378936,
                1.365406278152855,
                0.14313418429562041,
                0.3893352356794917,
                1.820096151493728
            ]
        },
        {
            "positions": [
                -2.591978345321418,
                -0.9878992921459288,
                1.436489366775958,
                0.035979947635191634,
                0.42024494191065254,
                1.9655781239480803
            ]
        },
        {
            "positions": [
                -2.5772187610797506,
                -1.009598289153964,
                1.5075724553990608,
                -0.07117428902523737,
                0.4511546481418135,
                2.1110600964024338
            ]
        },
        {
            "positions": [
                -2.5624591768380838,
                -1.0312972861619993,
                1.5786555440221637,
                -0.17832852568566593,
                0.48206435437297435,
                2.2565420688567857
            ]
        },
        {
            "positions": [
                -2.5476995925964165,
                -1.0529962831700344,
                1.6497386326452665,
                -0.2854827623460947,
                0.5129740606041352,
                2.4020240413111384
            ]
        },
        {
            "positions": [
                -2.5329400083547498,
                -1.0746952801780698,
                1.7208217212683694,
                -0.3926369990065237,
                0.5438837668352962,
                2.547506013765492
            ]
        },
        {
            "positions": [
                -2.5181804241130825,
                -1.0963942771861048,
                1.7919048098914723,
                -0.49979123566695227,
                0.574793473066457,
                2.692987986219844
            ]
        },
        {
            "positions": [
                -2.5034208398714153,
                -1.11809327419414,
                1.8629878985145751,
                -0.6069454723273808,
                0.6057031792976179,
                2.838469958674197
            ]
        },
        {
            "positions": [
                -2.4886612556297485,
                -1.1397922712021753,
                1.934070987137678,
                -0.7140997089878098,
                0.6366128855287788,
                2.9839519311285496
            ]
        },
        {
            "positions": [
                -2.4739016713880813,
                -1.1614912682102105,
                2.005154075760781,
                -0.8212539456482384,
                0.6675225917599397,
                3.1294339035829024
            ]
        }
    ]
}