{
    "goal": {
        "global_pose": {
            "orientation": {
                "w": 0.5084816262002911,
                "x": -0.4908360881923452,
                "y": 0.5182115481033761,
                "z": -0.48164630358495003
            },
            "position": {
                "x": 0.5540239810943604,
                "y": -0.46912469901144505,
                "z": 0.16403168439865112
            }
        },
        "name": "move_to_storage_B"
    },
    "id": "ProjEST_move_to_storage_B_21",
    "joint_names": [
        "shoulder_pan_joint",
        "shoulder_lift_joint",
        "elbow_joint",
        "wrist_1_joint",
        "wrist_2_joint",
        "wrist_3_joint"
    ],
    "metrics": {
        "cart_traj_len": 0.8702086929490708,
        "distance_elbow_joint": 0.35372572992303897,
        "distance_shoulder_lift_joint": 0.4608498413705111,
        "distance_shoulder_pan_joint": 0.7142956998272338,
        "distance_wrist_1_joint": 3.0900112961049517,
        "distance_wrist_2_joint": 2.8914730335354712,
        "distance_wrist_3_joint": 3.424522620295041,
        "smoothness": 0.3835708142279423,
        "time": 0.12359367800000001,
        "traj_len": 3.306792739355802,
        "weighted_distance": 4.874977722132354
    },
    "planner": "ProjEST",
    "start": {
        "state": {
            "elbow_joint": 1.6649325340416963,
            "shoulder_lift_joint": -0.6616387945129425,
            "shoulder_pan_joint": -0.9139837929255878,
            "wrist_1_joint": 2.1467571094334352,
            "wrist_2_joint": -2.234195976750228,
            "wrist_3_joint": 0.005470921511140723
        }
    },
    "waypoints": [
        {
            "positions": [
                -0.9139837929255878,
                -0.6616387945129425,
                1.6649325340416963,
                2.1467571094334352,
                -2.234195976750228,
                0.005470921511140723
            ]
        },
        {
            "positions": [
                -0.8249982932525768,
                -0.7306992531947581,
                1.6940320787513312,
                2.161993592919424,
                -2.2636227153431254,
                0.052836449295631034
            ]
        },
        {
            "positions": [
                -0.7360127935795657,
                -0.7997597118765738,
                1.7231316234609662,
                2.1772300764054133,
                -2.293049453936023,
                0.10020197708012134
            ]
        },
        {
            "positions": [
                -0.6470272939065547,
                -0.8688201705583894,
                1.752231168170601,
                2.192466559891402,
                -2.3224761925289203,
                0.14756750486461168
            ]
        },
        {
            "positions": [
                -0.6642326477837932,
                -0.8785766499939689,
                1.762478364162683,
                2.075378027366518,
                -2.2146610841536596,
                0.021320349597628213
            ]
        },
        {
            "positions": [
                -0.6814380016610316,
                -0.8883331294295482,
                1.7727255601547653,
                1.958289494841634,
                -2.106845975778399,
                -0.10492680566935525
            ]
        },
        {
            "positions": [
                -0.6986433555382702,
                -0.8980896088651276,
                1.7829727561468474,
                1.84120096231675,
                -1.999030867403138,
                -0.23117396093633874
            ]
        },
        {
            "positions": [
                -0.7158487094155086,
                -0.907846088300707,
                1.7932199521389294,
                1.724112429791866,
                -1.8912157590278773,
                -0.3574211162033222
            ]
        },
        {
            "positions": [
                -0.7330540632927471,
                -0.9176025677362865,
                1.8034671481310116,
                1.607023897266982,
                -1.7834006506526165,
                -0.48366827147030567
            ]
        },
        {
            "positions": [
                -0.7502594171699856,
                -0.9273590471718658,
                1.8137143441230936,
                1.4899353647420979,
                -1.675585542277356,
                -0.6099154267372892
            ]
        },
        {
            "positions": [
                -0.7674647710472241,
                -0.9371155266074451,
                1.8239615401151756,
                1.3728468322172138,
                -1.5677704339020953,
                -0.7361625820042724
            ]
        },
        {
            "positions": [
                -0.7846701249244625,
                -0.9468720060430246,
                1.8342087361072577,
                1.2557582996923298,
                -1.4599553255268345,
                -0.862409737271256
            ]
        },
        {
            "positions": [
                -0.8018754788017011,
                -0.956628485478604,
                1.84445593209934,
                1.138669767167446,
                -1.352140217151574,
                -0.9886568925382393
            ]
        },
        {
            "positions": [
                -0.8190808326789396,
                -0.9663849649141834,
                1.854703128091422,
                1.0215812346425617,
                -1.244325108776313,
                -1.114904047805223
            ]
        },
        {
            "positions": [
                -0.836286186556178,
                -0.9761414443497627,
                1.864950324083504,
                0.9044927021176778,
                -1.1365100004010524,
                -1.2411512030722063
            ]
        },
        {
            "positions": [
                -0.8534915404334165,
                -0.9858979237853421,
                1.8751975200755862,
                0.7874041695927938,
                -1.0286948920257917,
                -1.36739835833919
            ]
        },
        {
            "positions": [
                -0.870696894310655,
                -0.9956544032209216,
                1.8854447160676682,
                0.6703156370679098,
                -0.9208797836505309,
                -1.4936455136061733
            ]
        },
        {
            "positions": [
                -0.8879022481878935,
                -1.005410882656501,
                1.8956919120597502,
                0.5532271045430257,
                -0.8130646752752702,
                -1.6198926688731565
            ]
        },
        {
            "positions": [
                -0.905107602065132,
                -1.0151673620920802,
                1.9059391080518324,
                0.4361385720181419,
                -0.7052495669000096,
                -1.74613982414014
            ]
        },
        {
            "positions": [
                -0.9223129559423705,
                -1.0249238415276598,
                1.9161863040439144,
                0.3190500394932576,
                -0.5974344585247486,
                -1.8723869794071237
            ]
        },
        {
            "positions": [
                -0.9395183098196089,
                -1.0346803209632391,
                1.9264335000359964,
                0.20196150696837356,
                -0.4896193501494881,
                -1.9986341346741072
            ]
        },
        {
            "positions": [
                -0.9567236636968475,
                -1.0444368003988185,
                1.9366806960280787,
                0.08487297444348973,
                -0.38180424177422734,
                -2.12488128994109
            ]
        },
        {
            "positions": [
                -0.9739290175740859,
                -1.0541932798343978,
                1.9469278920201607,
                -0.03221555808139431,
                -0.2739891333989668,
                -2.2511284452080735
            ]
        },
        {
            "positions": [
                -0.9911343714513244,
                -1.0639497592699771,
                1.9571750880122427,
                -0.1493040906062788,
                -0.1661740250237056,
                -2.377375600475058
            ]
        },
        {
            "positions": [
                -1.0083397253285629,
                -1.0737062387055567,
                1.967422284004325,
                -0.2663926231311624,
                -0.05835891664844528,
                -2.5036227557420414
            ]
        },
        {
            "positions": [
                -1.0255450792058014,
                -1.083462718141136,
                1.977669479996407,
                -0.38348115565604646,
                0.04945619172681548,
                -2.629869911009024
            ]
        },
        {
            "positions": [
                -1.04275043308304,
                -1.0932191975767154,
                1.987916675988489,
                -0.5005696881809305,
                0.15727130010207624,
                -2.7561170662760075
            ]
        },
        {
            "positions": [
                -1.0599557869602783,
                -1.102975677012295,
                1.9981638719805712,
                -0.6176582207058146,
                0.265086408477337,
                -2.882364221542992
            ]
        },
        {
            "positions": [
                -1.0771611408375168,
                -1.1127321564478743,
                2.008411067972653,
                -0.7347467532306986,
                0.37290151685259776,
                -3.0086113768099745
            ]
        },
        {
            "positions": [
                -1.0943664947147553,
                -1.1224886358834536,
                2.0186582639647352,
                -0.8518352857555828,
                0.4807166252278585,
                -3.1348585320769584
            ]
        }
    ]
}