{
    "goal": {
        "global_pose": {
            "orientation": {
                "w": -0.4816463035849501,
                "x": 0.5182115481033762,
                "y": 0.4908360881923453,
                "z": -0.5084816262002911
            },
            "position": {
                "x": -0.8240239810943604,
                "y": 0.19912469901144506,
                "z": 0.16403168439865112
            }
        },
        "name": "move_to_storage_D"
    },
    "id": "ProjEST_move_to_storage_D_57",
    "joint_names": [
        "shoulder_pan_joint",
        "shoulder_lift_joint",
        "elbow_joint",
        "wrist_1_joint",
        "wrist_2_joint",
        "wrist_3_joint"
    ],
    "metrics": {
        "cart_traj_len": 4.423141934081978,
        "distance_elbow_joint": 2.392255105287367,
        "distance_shoulder_lift_joint": 0.5888527693419467,
        "distance_shoulder_pan_joint": 4.556946518891333,
        "distance_wrist_1_joint": 3.9836791264042573,
        "distance_wrist_2_joint": 3.2292018351858216,
        "distance_wrist_3_joint": 6.480177324505515,
        "smoothness": 0.4582620544987075,
        "time": 0.081317784,
        "traj_len": 4.60772315570459,
        "weighted_distance": 6.434621068114064
    },
    "planner": "ProjEST",
    "start": {
        "state": {
            "elbow_joint": -2.384821990628643,
            "shoulder_lift_joint": -2.278805467437664,
            "shoulder_pan_joint": -0.18546946439364564,
            "wrist_1_joint": 1.4845938187801415,
            "wrist_2_joint": 0.178987772454074,
            "wrist_3_joint": 0.03710569632802521
        }
    },
    "waypoints": [
        {
            "positions": [
                -0.18546946439364564,
                -2.278805467437664,
                -2.384821990628643,
                1.4845938187801415,
                0.178987772454074,
                0.03710569632802521
            ]
        },
        {
            "positions": [
                -0.08910510855836351,
                -2.2633633168761667,
                -2.3840606637365993,
                1.376961578979353,
                0.09317783619412821,
                0.11144150196376876
            ]
        },
        {
            "positions": [
                0.007259247276918623,
                -2.2479211663146694,
                -2.3832993368445554,
                1.2693293391785643,
                0.007367899934182437,
                0.1857773075995123
            ]
        },
        {
            "positions": [
                0.10362360311220076,
                -2.2324790157531718,
                -2.3825380099525115,
                1.1616970993777758,
                -0.07844203632576335,
                0.2601131132352559
            ]
        },
        {
            "positions": [
                0.1999879589474829,
                -2.2170368651916745,
                -2.3817766830604676,
                1.0540648595769873,
                -0.16425197258570912,
                0.33444891887099937
            ]
        },
        {
            "positions": [
                0.296352314782765,
                -2.2015947146301773,
                -2.3810153561684237,
                0.9464326197761985,
                -0.25006190884565493,
                0.40878472450674297
            ]
        },
        {
            "positions": [
                0.39271667061804716,
                -2.18615256406868,
                -2.38025402927638,
                0.83880037997541,
                -0.3358718451056007,
                0.48312053014248646
            ]
        },
        {
            "positions": [
                0.4913781593573203,
                -2.17143126593073,
                -2.3578635190364734,
                0.7358302309410863,
                -0.4031342961172294,
                0.5517981477510051
            ]
        },
        {
            "positions": [
                0.5900396480965935,
                -2.1567099677927795,
                -2.3354730087965674,
                0.6328600819067627,
                -0.47039674712885804,
                0.6204757653595239
            ]
        },
        {
            "positions": [
                0.6887011368358666,
                -2.1419886696548294,
                -2.3130824985566614,
                0.529889932872439,
                -0.5376591981404867,
                0.6891533829680425
            ]
        },
        {
            "positions": [
                0.7873626255751398,
                -2.1272673715168793,
                -2.290691988316755,
                0.42691978383811535,
                -0.6049216491521154,
                0.7578310005765612
            ]
        },
        {
            "positions": [
                0.8860241143144131,
                -2.1125460733789287,
                -2.2683014780768485,
                0.3239496348037916,
                -0.6721841001637441,
                0.82650861818508
            ]
        },
        {
            "positions": [
                0.9846856030536861,
                -2.0978247752409787,
                -2.2459109678369424,
                0.22097948576946802,
                -0.7394465511753727,
                0.8951862357935987
            ]
        },
        {
            "positions": [
                1.0833470917929593,
                -2.0831034771030286,
                -2.2235204575970364,
                0.11800933673514424,
                -0.8067090021870014,
                0.9638638534021173
            ]
        },
        {
            "positions": [
                1.1820085805322325,
                -2.068382178965078,
                -2.20112994735713,
                0.015039187700820689,
                -0.87397145319863,
                1.032541471010636
            ]
        },
        {
            "positions": [
                1.2806700692715056,
                -2.053660880827128,
                -2.1787394371172235,
                -0.08793096133350309,
                -0.9412339042102587,
                1.1012190886191546
            ]
        },
        {
            "positions": [
                1.379331558010779,
                -2.038939582689178,
                -2.1563489268773175,
                -0.19090111036782687,
                -1.0084963552218873,
                1.1698967062276735
            ]
        },
        {
            "positions": [
                1.4779930467500522,
                -2.0242182845512273,
                -2.133958416637411,
                -0.29387125940215064,
                -1.0757588062335162,
                1.2385743238361921
            ]
        },
        {
            "positions": [
                1.576654535489325,
                -2.0094969864132772,
                -2.111567906397505,
                -0.396841408436474,
                -1.1430212572451446,
                1.3072519414447108
            ]
        },
        {
            "positions": [
                1.6753160242285985,
                -1.994775688275327,
                -2.0891773961575986,
                -0.49981155747079775,
                -1.2102837082567734,
                1.3759295590532297
            ]
        },
        {
            "positions": [
                1.7739775129678717,
                -1.9800543901373768,
                -2.0667868859176926,
                -0.6027817065051215,
                -1.277546159268402,
                1.4446071766617483
            ]
        },
        {
            "positions": [
                1.8726390017071448,
                -1.9653330919994265,
                -2.0443963756777865,
                -0.7057518555394453,
                -1.3448086102800307,
                1.513284794270267
            ]
        },
        {
            "positions": [
                1.9713004904464178,
                -1.9506117938614762,
                -2.02200586543788,
                -0.8087220045737686,
                -1.4120710612916594,
                1.5819624118787856
            ]
        },
        {
            "positions": [
                2.069961979185691,
                -1.9358904957235261,
                -1.9996153551979738,
                -0.9116921536080924,
                -1.479333512303288,
                1.6506400294873043
            ]
        },
        {
            "positions": [
                2.1686234679249643,
                -1.9211691975855758,
                -1.9772248449580676,
                -1.0146623026424162,
                -1.5465959633149167,
                1.7193176470958231
            ]
        },
        {
            "positions": [
                2.1316308841348794,
                -1.922081429469215,
                -1.8320394488855978,
                -1.0020441369530615,
                -1.4393935264137352,
                1.6427742349076186
            ]
        },
        {
            "positions": [
                2.094638300344795,
                -1.9229936613528542,
                -1.686854052813128,
                -0.9894259712637069,
                -1.3321910895125537,
                1.5662308227194142
            ]
        },
        {
            "positions": [
                2.0576457165547106,
                -1.9239058932364934,
                -1.541668656740658,
                -0.9768078055743522,
                -1.2249886526113722,
                1.48968741053121
            ]
        },
        {
            "positions": [
                2.0206531327646258,
                -1.9248181251201326,
                -1.3964832606681883,
                -0.9641896398849975,
                -1.1177862157101908,
                1.4131439983430054
            ]
        },
        {
            "positions": [
                1.9836605489745411,
                -1.9257303570037718,
                -1.2512978645957182,
                -0.9515714741956429,
                -1.0105837788090093,
                1.336600586154801
            ]
        },
        {
            "positions": [
                1.9466679651844565,
                -1.926642588887411,
                -1.1061124685232484,
                -0.9389533085062882,
                -0.9033813419078278,
                1.2600571739665964
            ]
        },
        {
            "positions": [
                1.8674607157783898,
                -1.9223661447382359,
                -1.040786582534995,
                -0.9555687248100785,
                -0.8757928265176439,
                1.1795852944350322
            ]
        },
        {
            "positions": [
                1.7882534663723233,
                -1.9180897005890607,
                -0.9754606965467414,
                -0.9721841411138686,
                -0.8482043111274601,
                1.099113414903468
            ]
        },
        {
            "positions": [
                1.7090462169662566,
                -1.9138132564398855,
                -0.9101348105584878,
                -0.9887995574176589,
                -0.8206157957372762,
                1.0186415353719038
            ]
        },
        {
            "positions": [
                1.6332515936786907,
                -1.923070377124255,
                -0.9500290681766275,
                -1.0478807644582764,
                -0.8544261405998497,
                0.8404985239799996
            ]
        },
        {
            "positions": [
                1.5574569703911245,
                -1.9323274978086245,
                -0.9899233257947672,
                -1.1069619714988939,
                -0.8882364854624232,
                0.6623555125880953
            ]
        },
        {
            "positions": [
                1.4816623471035586,
                -1.941584618492994,
                -1.0298175834129069,
                -1.1660431785395113,
                -0.9220468303249967,
                0.4842125011961912
            ]
        },
        {
            "positions": [
                1.4058677238159927,
                -1.9508417391773634,
                -1.0697118410310464,
                -1.225124385580129,
                -0.9558571751875702,
                0.30606948980428694
            ]
        },
        {
            "positions": [
                1.3300731005284268,
                -1.9600988598617328,
                -1.1096060986491862,
                -1.2842055926207465,
                -0.9896675200501437,
                0.1279264784123827
            ]
        },
        {
            "positions": [
                1.2542784772408608,
                -1.9693559805461023,
                -1.1495003562673258,
                -1.343286799661364,
                -1.0234778649127172,
                -0.050216532979521444
            ]
        },
        {
            "positions": [
                1.1784838539532947,
                -1.978613101230472,
                -1.1893946138854656,
                -1.4023680067019815,
                -1.0572882097752907,
                -0.22835954437142592
            ]
        },
        {
            "positions": [
                1.1026892306657288,
                -1.9878702219148414,
                -1.2292888715036052,
                -1.461449213742599,
                -1.0910985546378642,
                -0.40650255576332994
            ]
        },
        {
            "positions": [
                1.0268946073781628,
                -1.9971273425992109,
                -1.269183129121745,
                -1.5205304207832167,
                -1.1249088995004377,
                -0.5846455671552344
            ]
        },
        {
            "positions": [
                0.9510999840905968,
                -2.00638446328358,
                -1.3090773867398846,
                -1.5796116278238341,
                -1.1587192443630112,
                -0.7627885785471384
            ]
        },
        {
            "positions": [
                0.8753053608030308,
                -2.01564158396795,
                -1.3489716443580244,
                -1.6386928348644516,
                -1.1925295892255847,
                -0.9409315899390427
            ]
        },
        {
            "positions": [
                0.7995107375154649,
                -2.024898704652319,
                -1.388865901976164,
                -1.697774041905069,
                -1.2263399340881582,
                -1.1190746013309467
            ]
        },
        {
            "positions": [
                0.7237161142278989,
                -2.034155825336689,
                -1.4287601595943036,
                -1.7568552489456866,
                -1.2601502789507317,
                -1.297217612722851
            ]
        },
        {
            "positions": [
                0.6479214909403328,
                -2.0434129460210584,
                -1.4686544172124434,
                -1.815936455986304,
                -1.2939606238133052,
                -1.4753606241147557
            ]
        },
        {
            "positions": [
                0.5721268676527669,
                -2.052670066705428,
                -1.5085486748305832,
                -1.8750176630269215,
                -1.3277709686758787,
                -1.6535036355066595
            ]
        },
        {
            "positions": [
                0.49633224436520096,
                -2.0619271873897973,
                -1.5484429324487228,
                -1.934098870067539,
                -1.3615813135384522,
                -1.8316466468985637
            ]
        },
        {
            "positions": [
                0.42053762107763504,
                -2.0711843080741668,
                -1.5883371900668624,
                -1.9931800771081567,
                -1.3953916584010257,
                -2.009789658290468
            ]
        },
        {
            "positions": [
                0.3447429977900689,
                -2.080441428758536,
                -1.6282314476850022,
                -2.0522612841487744,
                -1.4292020032635993,
                -2.1879326696823727
            ]
        },
        {
            "positions": [
                0.268948374502503,
                -2.0896985494429057,
                -1.6681257053031417,
                -2.111342491189392,
                -1.4630123481261728,
                -2.3660756810742765
            ]
        },
        {
            "positions": [
                0.19315375121493705,
                -2.098955670127275,
                -1.7080199629212816,
                -2.1704236982300094,
                -1.4968226929887463,
                -2.5442186924661807
            ]
        },
        {
            "positions": [
                0.11735912792737113,
                -2.1082127908116446,
                -1.7479142205394211,
                -2.229504905270627,
                -1.5306330378513198,
                -2.722361703858085
            ]
        },
        {
            "positions": [
                0.04156450463980499,
                -2.117469911496014,
                -1.7878084781575607,
                -2.2885861123112443,
                -1.5644433827138933,
                -2.900504715249989
            ]
        },
        {
            "positions": [
                -0.03423011864776093,
                -2.1267270321803835,
                -1.8277027357757005,
                -2.347667319351862,
                -1.5982537275764668,
                -3.078647726641894
            ]
        }
    ]
}