{
    "goal": {
        "global_pose": {
            "orientation": {
                "w": 0.5084816217422485,
                "x": -0.49083608388900757,
                "y": 0.5182115435600281,
                "z": -0.4816462993621826
            },
            "position": {
                "x": 0.5540239810943604,
                "y": 0.030875300988554955,
                "z": 0.16403168439865112
            }
        },
        "name": "move_to_storage_A"
    },
    "id": "ProjEST_move_to_storage_A_84",
    "joint_names": [
        "shoulder_pan_joint",
        "shoulder_lift_joint",
        "elbow_joint",
        "wrist_1_joint",
        "wrist_2_joint",
        "wrist_3_joint"
    ],
    "metrics": {
        "cart_traj_len": 0.3535562941416031,
        "distance_elbow_joint": 0.45014411032771373,
        "distance_shoulder_lift_joint": 0.23453207328243497,
        "distance_shoulder_pan_joint": 0.464847575207709,
        "distance_wrist_1_joint": 0.23767189809137257,
        "distance_wrist_2_joint": 1.0894686171326566,
        "distance_wrist_3_joint": 0.09548519950992729,
        "smoothness": 2.2204460668324854e-16,
        "time": 0.145468297,
        "traj_len": 1.6037922164519363,
        "weighted_distance": 2.022439217330325
    },
    "planner": "ProjEST",
    "start": {
        "state": {
            "elbow_joint": 1.971548880431181,
            "shoulder_lift_joint": -1.1394869514688781,
            "shoulder_pan_joint": 0.12281150262730567,
            "wrist_1_joint": -0.7804693444481463,
            "wrist_2_joint": 0.12958644648617612,
            "wrist_3_joint": 3.0906942077768043
        }
    },
    "waypoints": [
        {
            "positions": [
                0.12281150262730567,
                -1.1394869514688781,
                1.971548880431181,
                -0.7804693444481463,
                0.12958644648617612,
                3.0906942077768043
            ]
        },
        {
            "positions": [
                0.05640470616906153,
                -1.1729915333663687,
                2.0358551819065687,
                -0.8144224727469138,
                0.2852248203622699,
                3.1043349505639366
            ]
        },
        {
            "positions": [
                -0.010002090289182614,
                -1.2064961152638596,
                2.100161483381956,
                -0.8483756010456813,
                0.44086319423836373,
                3.1179756933510694
            ]
        },
        {
            "positions": [
                -0.07640888674742674,
                -1.2400006971613502,
                2.164467784857344,
                -0.8823287293444488,
                0.5965015681144575,
                3.1316164361382017
            ]
        },
        {
            "positions": [
                -0.1428156832056709,
                -1.273505279058841,
                2.2287740863327317,
                -0.9162818576432163,
                0.7521399419905513,
                3.145257178925334
            ]
        },
        {
            "positions": [
                -0.20922247966391505,
                -1.3070098609563316,
                2.293080387808119,
                -0.9502349859419839,
                0.9077783158666451,
                3.1588979217124664
            ]
        },
        {
            "positions": [
                -0.27562927612215915,
                -1.3405144428538223,
                2.357386689283507,
                -0.9841881142407514,
                1.063416689742739,
                3.172538664499599
            ]
        },
        {
            "positions": [
                -0.3420360725804033,
                -1.374019024751313,
                2.4216929907588947,
                -1.0181412425395189,
                1.2190550636188329,
                3.1861794072867315
            ]
        }
    ]
}