{
    "goal": {
        "global_pose": {
            "orientation": {
                "w": -0.4816463035849501,
                "x": 0.5182115481033762,
                "y": 0.4908360881923453,
                "z": -0.5084816262002911
            },
            "position": {
                "x": -0.8240239810943604,
                "y": -0.300875300988555,
                "z": 0.16403168439865112
            }
        },
        "name": "move_to_storage_C"
    },
    "id": "ProjEST_move_to_storage_C_139",
    "joint_names": [
        "shoulder_pan_joint",
        "shoulder_lift_joint",
        "elbow_joint",
        "wrist_1_joint",
        "wrist_2_joint",
        "wrist_3_joint"
    ],
    "metrics": {
        "cart_traj_len": 0.5762839120116602,
        "distance_elbow_joint": 0.2595221857166521,
        "distance_shoulder_lift_joint": 0.19002614960162756,
        "distance_shoulder_pan_joint": 0.4953037644991043,
        "distance_wrist_1_joint": 0.08666983376324355,
        "distance_wrist_2_joint": 1.0599606869606437,
        "distance_wrist_3_joint": 0.06701215199593324,
        "smoothness": 2.5376526478085547e-16,
        "time": 0.027126420000000002,
        "traj_len": 1.4691816676426386,
        "weighted_distance": 1.8544944317125782
    },
    "planner": "ProjEST",
    "start": {
        "state": {
            "elbow_joint": 2.0108683149792914,
            "shoulder_lift_joint": -1.1634956873317392,
            "shoulder_pan_joint": -2.4736205022346,
            "wrist_1_joint": -0.8367026793690192,
            "wrist_2_joint": 0.6746043897045053,
            "wrist_3_joint": 3.133522094754363
        }
    },
    "waypoints": [
        {
            "positions": [
                -2.4736205022346,
                -1.1634956873317392,
                2.0108683149792914,
                -0.8367026793690192,
                0.6746043897045053,
                3.133522094754363
            ]
        },
        {
            "positions": [
                -2.5561711296511174,
                -1.1318246623981347,
                1.9676146173598494,
                -0.8222577070751453,
                0.8512645041979459,
                3.1446907867536855
            ]
        },
        {
            "positions": [
                -2.6387217570676347,
                -1.10015363746453,
                1.9243609197404075,
                -0.8078127347812714,
                1.0279246186913866,
                3.1558594787530074
            ]
        },
        {
            "positions": [
                -2.721272384484152,
                -1.0684826125309255,
                1.8811072221209653,
                -0.7933677624873974,
                1.2045847331848272,
                3.16702817075233
            ]
        },
        {
            "positions": [
                -2.8038230119006697,
                -1.036811587597321,
                1.8378535245015233,
                -0.7789227901935235,
                1.3812448476782677,
                3.178196862751652
            ]
        },
        {
            "positions": [
                -2.886373639317187,
                -1.0051405626637162,
                1.7945998268820813,
                -0.7644778178996496,
                1.5579049621717085,
                3.189365554750974
            ]
        },
        {
            "positions": [
                -2.9689242667337044,
                -0.9734695377301117,
                1.7513461292626393,
                -0.7500328456057757,
                1.734565076665149,
                3.2005342467502964
            ]
        }
    ]
}