{
    "goal": {
        "global_pose": {
            "orientation": {
                "w": 0.005598929693374612,
                "x": 0.007748599140229565,
                "y": 0.7110244013736278,
                "z": -0.7031023480610252
            },
            "position": {
                "x": 0.1141497679147869,
                "y": -0.7141253447532654,
                "z": 0.3711530566215515
            }
        },
        "name": "move_to_auspresseinheit_B"
    },
    "id": "ProjEST_move_to_auspresseinheit_B_55",
    "joint_names": [
        "shoulder_pan_joint",
        "shoulder_lift_joint",
        "elbow_joint",
        "wrist_1_joint",
        "wrist_2_joint",
        "wrist_3_joint"
    ],
    "metrics": {
        "cart_traj_len": 0.5651039369156031,
        "distance_elbow_joint": 0.06627985392580338,
        "distance_shoulder_lift_joint": 0.2930797251505839,
        "distance_shoulder_pan_joint": 0.5758911405209728,
        "distance_wrist_1_joint": 0.3384073420763394,
        "distance_wrist_2_joint": 1.0024913983191797,
        "distance_wrist_3_joint": 0.0028629898255250197,
        "smoothness": 2.5376526478085547e-16,
        "time": 0.16855071,
        "traj_len": 1.5096398410940288,
        "weighted_distance": 1.9041105981179174
    },
    "planner": "ProjEST",
    "start": {
        "state": {
            "elbow_joint": 2.0193061681459312,
            "shoulder_lift_joint": -1.1220205130644991,
            "shoulder_pan_joint": -1.0952072088045026,
            "wrist_1_joint": -0.8559671810662515,
            "wrist_2_joint": 0.4759638712940361,
            "wrist_3_joint": 3.159081874192446
        }
    },
    "waypoints": [
        {
            "positions": [
                -1.0952072088045026,
                -1.1220205130644991,
                2.0193061681459312,
                -0.8559671810662515,
                0.4759638712940361,
                3.159081874192446
            ]
        },
        {
            "positions": [
                -1.1911890655579982,
                -1.1708671339229297,
                2.008259525824964,
                -0.7995659573868615,
                0.6430457710138994,
                3.158604709221525
            ]
        },
        {
            "positions": [
                -1.2871709223114935,
                -1.2197137547813603,
                1.9972128835039968,
                -0.7431647337074717,
                0.8101276707337626,
                3.1581275442506045
            ]
        },
        {
            "positions": [
                -1.383152779064989,
                -1.2685603756397912,
                1.9861662411830294,
                -0.6867635100280818,
                0.9772095704536259,
                3.1576503792796835
            ]
        },
        {
            "positions": [
                -1.4791346358184845,
                -1.3174069964982218,
                1.9751195988620622,
                -0.630362286348692,
                1.1442914701734892,
                3.1571732143087625
            ]
        },
        {
            "positions": [
                -1.57511649257198,
                -1.3662536173566524,
                1.964072956541095,
                -0.5739610626693019,
                1.3113733698933525,
                3.156696049337842
            ]
        },
        {
            "positions": [
                -1.6710983493254754,
                -1.415100238215083,
                1.9530263142201278,
                -0.5175598389899121,
                1.4784552696132158,
                3.156218884366921
            ]
        }
    ]
}