{
    "goal": {
        "global_pose": {
            "orientation": {
                "w": -0.00223480608172531,
                "x": 0.0024358444001904467,
                "y": 0.7094548369677653,
                "z": -0.704743149386269
            },
            "position": {
                "x": 0.6205249238014221,
                "y": -0.6371506643295288,
                "z": 0.19426114857196808
            }
        },
        "name": "move_to_magneteinheit_B"
    },
    "id": "ProjEST_move_to_magneteinheit_B_145",
    "joint_names": [
        "shoulder_pan_joint",
        "shoulder_lift_joint",
        "elbow_joint",
        "wrist_1_joint",
        "wrist_2_joint",
        "wrist_3_joint"
    ],
    "metrics": {
        "cart_traj_len": 3.7733967710290144,
        "distance_elbow_joint": 4.356012354396119,
        "distance_shoulder_lift_joint": 1.3802099193634565,
        "distance_shoulder_pan_joint": 2.7301007375787045,
        "distance_wrist_1_joint": 2.4594060562274698,
        "distance_wrist_2_joint": 1.2174721234677293,
        "distance_wrist_3_joint": 6.2692988215815255,
        "smoothness": 0.3022959604425213,
        "time": 1.908036626,
        "traj_len": 4.290978910763255,
        "weighted_distance": 5.884554004805569
    },
    "planner": "ProjEST",
    "start": {
        "state": {
            "elbow_joint": 2.393587130804639,
            "shoulder_lift_joint": -1.9085141043513325,
            "shoulder_pan_joint": 0.7066247066698809,
            "wrist_1_joint": -0.4678290934590222,
            "wrist_2_joint": 0.7096259084215963,
            "wrist_3_joint": 3.147370379541726
        }
    },
    "waypoints": [
        {
            "positions": [
                0.7066247066698809,
                -1.9085141043513325,
                2.393587130804639,
                -0.4678290934590222,
                0.7096259084215963,
                3.147370379541726
            ]
        },
        {
            "positions": [
                0.6282010336469314,
                -1.8663601368252722,
                2.349131582522763,
                -0.46207124173162584,
                0.7188932621098035,
                3.059261670468758
            ]
        },
        {
            "positions": [
                0.5497773606239819,
                -1.8242061692992122,
                2.304676034240888,
                -0.45631339000422944,
                0.7281606157980107,
                2.9711529613957905
            ]
        },
        {
            "positions": [
                0.5171432008856095,
                -1.843766626427418,
                2.2178457001412526,
                -0.411505578841642,
                0.7252879482377247,
                2.8202837031876062
            ]
        },
        {
            "positions": [
                0.48450904114723725,
                -1.8633270835556235,
                2.1310153660416167,
                -0.3666977676790546,
                0.7224152806774387,
                2.669414444979422
            ]
        },
        {
            "positions": [
                0.4518748814088649,
                -1.8828875406838292,
                2.044185031941981,
                -0.3218899565164671,
                0.7195426131171525,
                2.518545186771238
            ]
        },
        {
            "positions": [
                0.4192407216704926,
                -1.9024479978120348,
                1.9573546978423457,
                -0.2770821453538797,
                0.7166699455568665,
                2.3676759285630538
            ]
        },
        {
            "positions": [
                0.3866065619321203,
                -1.9220084549402405,
                1.87052436374271,
                -0.2322743341912923,
                0.7137972779965804,
                2.2168066703548694
            ]
        },
        {
            "positions": [
                0.44827165979057965,
                -1.9082873077282658,
                1.7641806059021112,
                -0.2783295760266295,
                0.6929863357574463,
                2.0769758618880285
            ]
        },
        {
            "positions": [
                0.509936757649039,
                -1.8945661605162913,
                1.6578368480615122,
                -0.3243848178619667,
                0.6721753935183121,
                1.937145053421188
            ]
        },
        {
            "positions": [
                0.5716018555074984,
                -1.8808450133043166,
                1.5514930902209134,
                -0.370440059697304,
                0.6513644512791781,
                1.797314244954347
            ]
        },
        {
            "positions": [
                0.6332669533659577,
                -1.8671238660923422,
                1.4451493323803146,
                -0.41649530153264114,
                0.6305535090400439,
                1.6574834364875066
            ]
        },
        {
            "positions": [
                0.694932051224417,
                -1.8534027188803675,
                1.3388055745397156,
                -0.4625505433679784,
                0.6097425668009098,
                1.5176526280206657
            ]
        },
        {
            "positions": [
                0.7565971490828765,
                -1.839681571668393,
                1.2324618166991166,
                -0.5086057852033157,
                0.5889316245617756,
                1.3778218195538248
            ]
        },
        {
            "positions": [
                0.8182622469413359,
                -1.8259604244564183,
                1.126118058858518,
                -0.5546610270386528,
                0.5681206823226416,
                1.2379910110869843
            ]
        },
        {
            "positions": [
                0.8799273447997952,
                -1.8122392772444438,
                1.019774301017919,
                -0.60071626887399,
                0.5473097400835074,
                1.0981602026201436
            ]
        },
        {
            "positions": [
                0.9415924426582546,
                -1.798518130032469,
                0.91343054317732,
                -0.6467715107093273,
                0.5264987978443733,
                0.9583293941533026
            ]
        },
        {
            "positions": [
                1.003257540516714,
                -1.7847969828204944,
                0.8070867853367212,
                -0.6928267525446645,
                0.5056878556052391,
                0.8184985856864619
            ]
        },
        {
            "positions": [
                1.0649226383751733,
                -1.7710758356085199,
                0.7007430274961222,
                -0.7388819943800018,
                0.484876913366105,
                0.6786677772196212
            ]
        },
        {
            "positions": [
                1.1265877362336327,
                -1.7573546883965452,
                0.5943992696555234,
                -0.784937236215339,
                0.4640659711269709,
                0.5388369687527803
            ]
        },
        {
            "positions": [
                1.188252834092092,
                -1.7436335411845707,
                0.48805551181492457,
                -0.8309924780506761,
                0.44325502888783674,
                0.3990061602859398
            ]
        },
        {
            "positions": [
                1.2499179319505513,
                -1.729912393972596,
                0.3817117539743258,
                -0.8770477198860134,
                0.42244408664870264,
                0.2591753518190991
            ]
        },
        {
            "positions": [
                1.3115830298090108,
                -1.7161912467606215,
                0.27536799613372676,
                -0.9231029617213506,
                0.4016331444095685,
                0.11934454335225819
            ]
        },
        {
            "positions": [
                1.3732481276674702,
                -1.7024700995486468,
                0.16902423829312796,
                -0.9691582035566878,
                0.3808222021704344,
                -0.02048626511458229
            ]
        },
        {
            "positions": [
                1.4349132255259294,
                -1.688748952336672,
                0.06268048045252894,
                -1.0152134453920252,
                0.36001125993130023,
                -0.16031707358142322
            ]
        },
        {
            "positions": [
                1.496578323384389,
                -1.6750278051246976,
                -0.043663277388070076,
                -1.0612686872273622,
                0.3392003176921661,
                -0.30014788204826415
            ]
        },
        {
            "positions": [
                1.5582434212428482,
                -1.661306657912723,
                -0.1500070352286691,
                -1.1073239290626995,
                0.318389375453032,
                -0.43997869051510463
            ]
        },
        {
            "positions": [
                1.6199085191013074,
                -1.6475855107007484,
                -0.25635079306926767,
                -1.1533791708980368,
                0.2975784332138978,
                -0.5798094989819456
            ]
        },
        {
            "positions": [
                1.681573616959767,
                -1.6338643634887737,
                -0.3626945509098667,
                -1.199434412733374,
                0.2767674909747637,
                -0.7196403074487865
            ]
        },
        {
            "positions": [
                1.7432387148182262,
                -1.6201432162767992,
                -0.4690383087504657,
                -1.2454896545687113,
                0.25595654873562956,
                -0.859471115915627
            ]
        },
        {
            "positions": [
                1.8049038126766859,
                -1.6064220690648245,
                -0.5753820665910647,
                -1.2915448964040486,
                0.2351456064964954,
                -0.9993019243824679
            ]
        },
        {
            "positions": [
                1.866568910535145,
                -1.5927009218528498,
                -0.6817258244316633,
                -1.3376001382393856,
                0.2143346642573613,
                -1.1391327328493088
            ]
        },
        {
            "positions": [
                1.9282340083936047,
                -1.5789797746408754,
                -0.7880695822722623,
                -1.3836553800747229,
                0.1935237220182272,
                -1.2789635413161493
            ]
        },
        {
            "positions": [
                1.9898991062520635,
                -1.5652586274289009,
                -0.8944133401128609,
                -1.42971062191006,
                0.17271277977909305,
                -1.4187943497829898
            ]
        },
        {
            "positions": [
                2.051564204110523,
                -1.5515374802169262,
                -1.00075709795346,
                -1.4757658637453972,
                0.151901837539959,
                -1.5586251582498303
            ]
        },
        {
            "positions": [
                2.1132293019689823,
                -1.5378163330049515,
                -1.1071008557940585,
                -1.5218211055807345,
                0.13109089530082485,
                -1.6984559667166712
            ]
        },
        {
            "positions": [
                2.174894399827442,
                -1.524095185792977,
                -1.2134446136346575,
                -1.5678763474160717,
                0.1102799530616907,
                -1.8382867751835121
            ]
        },
        {
            "positions": [
                2.236559497685901,
                -1.5103740385810023,
                -1.3197883714752565,
                -1.613931589251409,
                0.08946901082255654,
                -1.978117583650353
            ]
        },
        {
            "positions": [
                2.2982245955443608,
                -1.4966528913690278,
                -1.4261321293158555,
                -1.659986831086746,
                0.06865806858342238,
                -2.117948392117194
            ]
        },
        {
            "positions": [
                2.35988969340282,
                -1.482931744157053,
                -1.532475887156454,
                -1.7060420729220833,
                0.04784712634428834,
                -2.257779200584034
            ]
        },
        {
            "positions": [
                2.4215547912612796,
                -1.4692105969450786,
                -1.6388196449970531,
                -1.7520973147574206,
                0.027036184105154182,
                -2.397610009050875
            ]
        },
        {
            "positions": [
                2.483219889119739,
                -1.455489449733104,
                -1.7451634028376521,
                -1.7981525565927579,
                0.006225241866020026,
                -2.537440817517716
            ]
        },
        {
            "positions": [
                2.5241588184994974,
                -1.518134587727562,
                -1.7554015173467004,
                -1.8821305823436187,
                -0.055865031335840504,
                -2.625332637457037
            ]
        },
        {
            "positions": [
                2.565097747879256,
                -1.5807797257220204,
                -1.7656396318557486,
                -1.9661086080944794,
                -0.11795530453770103,
                -2.713224457396359
            ]
        },
        {
            "positions": [
                2.6060366772590147,
                -1.6434248637164788,
                -1.775877746364797,
                -2.05008663384534,
                -0.18004557773956156,
                -2.80111627733568
            ]
        },
        {
            "positions": [
                2.646975606638773,
                -1.706070001710937,
                -1.7861158608738452,
                -2.134064659596201,
                -0.2421358509414221,
                -2.8890080972750014
            ]
        },
        {
            "positions": [
                2.6879145360185315,
                -1.768715139705395,
                -1.7963539753828934,
                -2.218042685347062,
                -0.30422612414328265,
                -2.976899917214323
            ]
        },
        {
            "positions": [
                2.72885346539829,
                -1.8313602776998534,
                -1.8065920898919416,
                -2.3020207110979225,
                -0.36631639734514315,
                -3.0647917371536444
            ]
        },
        {
            "positions": [
                2.706241568940032,
                -1.9499302328653274,
                -1.7546477119920958,
                -2.3533890177822925,
                -0.40113653166119695,
                -3.08383730544903
            ]
        },
        {
            "positions": [
                2.683629672481774,
                -2.0685001880308014,
                -1.7027033340922497,
                -2.4047573244666625,
                -0.4359566659772507,
                -3.102882873744415
            ]
        },
        {
            "positions": [
                2.661017776023516,
                -2.187070143196275,
                -1.6507589561924039,
                -2.4561256311510324,
                -0.4707768002933045,
                -3.121928442039801
            ]
        }
    ]
}