{
    "goal": {
        "global_pose": {
            "orientation": {
                "w": 0.5084816217422485,
                "x": -0.49083608388900757,
                "y": 0.5182115435600281,
                "z": -0.4816462993621826
            },
            "position": {
                "x": 0.5540239810943604,
                "y": 0.030875300988554955,
                "z": 0.16403168439865112
            }
        },
        "name": "move_to_storage_A"
    },
    "id": "ProjEST_move_to_storage_A_33",
    "joint_names": [
        "shoulder_pan_joint",
        "shoulder_lift_joint",
        "elbow_joint",
        "wrist_1_joint",
        "wrist_2_joint",
        "wrist_3_joint"
    ],
    "metrics": {
        "cart_traj_len": 0.3526905087915436,
        "distance_elbow_joint": 0.4537510062831889,
        "distance_shoulder_lift_joint": 0.23338121717790705,
        "distance_shoulder_pan_joint": 0.4596432136637707,
        "distance_wrist_1_joint": 0.2583061210900186,
        "distance_wrist_2_joint": 1.104860414910282,
        "distance_wrist_3_joint": 0.09246360214736615,
        "smoothness": 6.661338200497456e-16,
        "time": 0.014817279000000001,
        "traj_len": 1.6131973144263951,
        "weighted_distance": 2.0372774272463645
    },
    "planner": "ProjEST",
    "start": {
        "state": {
            "elbow_joint": 1.971548880431181,
            "shoulder_lift_joint": -1.1394869514688781,
            "shoulder_pan_joint": 0.12281150262730567,
            "wrist_1_joint": -0.7804693444481463,
            "wrist_2_joint": 0.12958644648617612,
            "wrist_3_joint": 3.0906942077768043
        }
    },
    "waypoints": [
        {
            "positions": [
                0.12281150262730567,
                -1.1394869514688781,
                1.971548880431181,
                -0.7804693444481463,
                0.12958644648617612,
                3.0906942077768043
            ]
        },
        {
            "positions": [
                0.05714818638962414,
                -1.1728271253514362,
                2.036370452757351,
                -0.8173702188895775,
                0.2874236486162164,
                3.1039032937978566
            ]
        },
        {
            "positions": [
                -0.008515129848057384,
                -1.2061672992339945,
                2.1011920250835208,
                -0.8542710933310087,
                0.4452608507462567,
                3.117112379818909
            ]
        },
        {
            "positions": [
                -0.0741784460857389,
                -1.2395074731165525,
                2.1660135974096906,
                -0.89117196777244,
                0.603098052876297,
                3.130321465839961
            ]
        },
        {
            "positions": [
                -0.13984176232342044,
                -1.2728476469991108,
                2.2308351697358604,
                -0.9280728422138712,
                0.7609352550063373,
                3.1435305518610135
            ]
        },
        {
            "positions": [
                -0.205505078561102,
                -1.3061878208816688,
                2.29565674206203,
                -0.9649737166553025,
                0.9187724571363777,
                3.156739637882066
            ]
        },
        {
            "positions": [
                -0.27116839479878346,
                -1.339527994764227,
                2.3604783143882,
                -1.0018745910967337,
                1.0766096592664178,
                3.169948723903118
            ]
        },
        {
            "positions": [
                -0.33683171103646503,
                -1.3728681686467852,
                2.42529988671437,
                -1.038775465538165,
                1.234446861396458,
                3.1831578099241704
            ]
        }
    ]
}