{
    "goal": {
        "global_pose": {
            "orientation": {
                "w": 0.005598929693374612,
                "x": 0.007748599140229565,
                "y": 0.7110244013736278,
                "z": -0.7031023480610252
            },
            "position": {
                "x": 0.1141497679147869,
                "y": -0.7141253447532654,
                "z": 0.3711530566215515
            }
        },
        "name": "move_to_auspresseinheit_B"
    },
    "id": "ProjEST_move_to_auspresseinheit_B_46",
    "joint_names": [
        "shoulder_pan_joint",
        "shoulder_lift_joint",
        "elbow_joint",
        "wrist_1_joint",
        "wrist_2_joint",
        "wrist_3_joint"
    ],
    "metrics": {
        "cart_traj_len": 0.565659222982352,
        "distance_elbow_joint": 0.0655939053357728,
        "distance_shoulder_lift_joint": 0.29309666030607007,
        "distance_shoulder_pan_joint": 0.5751944285743413,
        "distance_wrist_1_joint": 0.3304064325740269,
        "distance_wrist_2_joint": 1.0065882491759417,
        "distance_wrist_3_joint": 0.004741830264805014,
        "smoothness": 5.075305295617109e-16,
        "time": 0.054395806,
        "traj_len": 1.5085163261400116,
        "weighted_distance": 1.9031815069799665
    },
    "planner": "ProjEST",
    "start": {
        "state": {
            "elbow_joint": 2.0193061681459312,
            "shoulder_lift_joint": -1.1220205130644991,
            "shoulder_pan_joint": -1.0952072088045026,
            "wrist_1_joint": -0.8559671810662515,
            "wrist_2_joint": 0.4759638712940361,
            "wrist_3_joint": 3.159081874192446
        }
    },
    "waypoints": [
        {
            "positions": [
                -1.0952072088045026,
                -1.1220205130644991,
                2.0193061681459312,
                -0.8559671810662515,
                0.4759638712940361,
                3.159081874192446
            ]
        },
        {
            "positions": [
                -1.1910729469002261,
                -1.170869956448844,
                2.008373850589969,
                -0.8008994423039136,
                0.6437285794900264,
                3.1598721792365803
            ]
        },
        {
            "positions": [
                -1.2869386849959497,
                -1.2197193998331892,
                1.997441533034007,
                -0.7458317035415758,
                0.8114932876860166,
                3.1606624842807145
            ]
        },
        {
            "positions": [
                -1.3828044230916734,
                -1.2685688432175342,
                1.9865092154780448,
                -0.6907639647792381,
                0.9792579958820069,
                3.1614527893248487
            ]
        },
        {
            "positions": [
                -1.478670161187397,
                -1.317418286601879,
                1.9755768979220827,
                -0.6356962260169002,
                1.1470227040779972,
                3.1622430943689825
            ]
        },
        {
            "positions": [
                -1.5745358992831204,
                -1.3662677299862243,
                1.9646445803661206,
                -0.5806284872545624,
                1.3147874122739875,
                3.163033399413117
            ]
        },
        {
            "positions": [
                -1.670401637378844,
                -1.4151171733705692,
                1.9537122628101584,
                -0.5255607484922246,
                1.4825521204699779,
                3.163823704457251
            ]
        }
    ]
}