{
    "goal": {
        "global_pose": {
            "orientation": {
                "w": 0.5084816262002911,
                "x": -0.4908360881923452,
                "y": 0.5182115481033761,
                "z": -0.48164630358495003
            },
            "position": {
                "x": 0.5540239810943604,
                "y": -0.46912469901144505,
                "z": 0.16403168439865112
            }
        },
        "name": "move_to_storage_B"
    },
    "id": "ProjEST_move_to_storage_B_38",
    "joint_names": [
        "shoulder_pan_joint",
        "shoulder_lift_joint",
        "elbow_joint",
        "wrist_1_joint",
        "wrist_2_joint",
        "wrist_3_joint"
    ],
    "metrics": {
        "cart_traj_len": 2.5029120278184,
        "distance_elbow_joint": 0.8396148757246589,
        "distance_shoulder_lift_joint": 1.575923981737761,
        "distance_shoulder_pan_joint": 2.2889972966590575,
        "distance_wrist_1_joint": 3.007724598286339,
        "distance_wrist_2_joint": 2.714616941038159,
        "distance_wrist_3_joint": 3.119317563129222,
        "smoothness": 0.24811436586482646,
        "time": 0.173730408,
        "traj_len": 3.6805156237374126,
        "weighted_distance": 5.050462545367318
    },
    "planner": "ProjEST",
    "start": {
        "state": {
            "elbow_joint": 1.6649325340416963,
            "shoulder_lift_joint": -0.6616387945129425,
            "shoulder_pan_joint": -0.9139837929255878,
            "wrist_1_joint": 2.1467571094334352,
            "wrist_2_joint": -2.234195976750228,
            "wrist_3_joint": 0.005470921511140723
        }
    },
    "waypoints": [
        {
            "positions": [
                -0.9139837929255878,
                -0.6616387945129425,
                1.6649325340416963,
                2.1467571094334352,
                -2.234195976750228,
                0.005470921511140723
            ]
        },
        {
            "positions": [
                -0.8584964722868845,
                -0.7152018650329975,
                1.6521609371238806,
                2.061283241809194,
                -2.1107097840276885,
                -0.04864460661932672
            ]
        },
        {
            "positions": [
                -0.8030091516481812,
                -0.7687649355530526,
                1.6393893402060646,
                1.975809374184953,
                -1.9872235913051488,
                -0.10276013474979417
            ]
        },
        {
            "positions": [
                -0.747521831009478,
                -0.8223280060731075,
                1.626617743288249,
                1.8903355065607117,
                -1.8637373985826091,
                -0.1568756628802616
            ]
        },
        {
            "positions": [
                -0.6920345103707747,
                -0.8758910765931626,
                1.613846146370433,
                1.8048616389364707,
                -1.7402512058600694,
                -0.21099119101072905
            ]
        },
        {
            "positions": [
                -0.6365471897320714,
                -0.9294541471132176,
                1.6010745494526173,
                1.7193877713122294,
                -1.6167650131375297,
                -0.26510671914119655
            ]
        },
        {
            "positions": [
                -0.581059869093368,
                -0.9830172176332727,
                1.5883029525348014,
                1.6339139036879882,
                -1.4932788204149903,
                -0.319222247271664
            ]
        },
        {
            "positions": [
                -0.5255725484546647,
                -1.0365802881533277,
                1.5755313556169857,
                1.5484400360637471,
                -1.3697926276924506,
                -0.3733377754021314
            ]
        },
        {
            "positions": [
                -0.47008522781596146,
                -1.0901433586733826,
                1.56275975869917,
                1.462966168439506,
                -1.246306434969911,
                -0.42745330353259886
            ]
        },
        {
            "positions": [
                -0.41459790717725814,
                -1.1437064291934378,
                1.549988161781354,
                1.3774923008152649,
                -1.1228202422473714,
                -0.4815688316630663
            ]
        },
        {
            "positions": [
                -0.3591105865385549,
                -1.1972694997134927,
                1.5372165648635383,
                1.2920184331910236,
                -0.9993340495248317,
                -0.5356843597935338
            ]
        },
        {
            "positions": [
                -0.30362326589985156,
                -1.2508325702335479,
                1.5244449679457224,
                1.2065445655667824,
                -0.875847856802292,
                -0.5897998879240013
            ]
        },
        {
            "positions": [
                -0.24813594526114824,
                -1.3043956407536028,
                1.5116733710279067,
                1.1210706979425413,
                -0.7523616640797526,
                -0.6439154160544687
            ]
        },
        {
            "positions": [
                -0.19264862462244492,
                -1.3579587112736577,
                1.4989017741100907,
                1.0355968303183,
                -0.6288754713572127,
                -0.6980309441849362
            ]
        },
        {
            "positions": [
                -0.1371613039837417,
                -1.411521781793713,
                1.486130177192275,
                0.950122962694059,
                -0.5053892786346732,
                -0.7521464723154035
            ]
        },
        {
            "positions": [
                -0.08167398334503828,
                -1.465084852313768,
                1.4733585802744593,
                0.8646490950698178,
                -0.3819030859121335,
                -0.806262000445871
            ]
        },
        {
            "positions": [
                -0.026186662706335073,
                -1.5186479228338228,
                1.4605869833566434,
                0.7791752274455768,
                -0.25841689318959404,
                -0.8603775285763384
            ]
        },
        {
            "positions": [
                0.029300657932368246,
                -1.572210993353878,
                1.4478153864388277,
                0.6937013598213355,
                -0.13493070046705435,
                -0.9144930567068059
            ]
        },
        {
            "positions": [
                0.08478797857107156,
                -1.625774063873933,
                1.435043789521012,
                0.6082274921970945,
                -0.011444507744514887,
                -0.9686085848372733
            ]
        },
        {
            "positions": [
                0.14027529920977488,
                -1.679337134393988,
                1.422272192603196,
                0.5227536245728532,
                0.11204168497802483,
                -1.0227241129677407
            ]
        },
        {
            "positions": [
                0.06310416142704389,
                -1.6444480317779433,
                1.459581850996081,
                0.4362710549837434,
                0.13506538993489384,
                -1.153419271008387
            ]
        },
        {
            "positions": [
                -0.0140669763556871,
                -1.6095589291618986,
                1.4968915093889659,
                0.3497884853946336,
                0.15808909489176284,
                -1.2841144290490334
            ]
        },
        {
            "positions": [
                -0.09123811413841809,
                -1.5746698265458539,
                1.5342011677818508,
                0.2633059158055237,
                0.18111279984863185,
                -1.4148095870896795
            ]
        },
        {
            "positions": [
                -0.16840925192114908,
                -1.5397807239298091,
                1.5715108261747357,
                0.17682334621641388,
                0.20413650480550086,
                -1.5455047451303259
            ]
        },
        {
            "positions": [
                -0.24558038970388008,
                -1.5048916213137644,
                1.6088204845676206,
                0.09034077662730405,
                0.22716020976236986,
                -1.6761999031709722
            ]
        },
        {
            "positions": [
                -0.32275152748661107,
                -1.4700025186977197,
                1.6461301429605055,
                0.0038582070381941724,
                0.25018391471923884,
                -1.8068950612116184
            ]
        },
        {
            "positions": [
                -0.39992266526934206,
                -1.435113416081675,
                1.6834398013533904,
                -0.08262436255091565,
                0.27320761967610785,
                -1.9375902192522647
            ]
        },
        {
            "positions": [
                -0.47709380305207305,
                -1.4002243134656303,
                1.7207494597462754,
                -0.16910693214002548,
                0.29623132463297686,
                -2.068285377292911
            ]
        },
        {
            "positions": [
                -0.554264940834804,
                -1.3653352108495855,
                1.7580591181391603,
                -0.2555895017291353,
                0.31925502958984586,
                -2.1989805353335576
            ]
        },
        {
            "positions": [
                -0.631436078617535,
                -1.3304461082335408,
                1.7953687765320452,
                -0.34207207131824513,
                0.34227873454671487,
                -2.3296756933742038
            ]
        },
        {
            "positions": [
                -0.708607216400266,
                -1.295557005617496,
                1.83267843492493,
                -0.42855464090735496,
                0.3653024395035839,
                -2.46037085141485
            ]
        },
        {
            "positions": [
                -0.785778354182997,
                -1.2606679030014514,
                1.869988093317815,
                -0.5150372104964649,
                0.3883261444604529,
                -2.5910660094554965
            ]
        },
        {
            "positions": [
                -0.8629494919657279,
                -1.2257788003854067,
                1.9072977517107,
                -0.6015197800855747,
                0.4113498494173219,
                -2.7217611674961426
            ]
        },
        {
            "positions": [
                -0.940120629748459,
                -1.190889697769362,
                1.9446074101035848,
                -0.6880023496746845,
                0.4343735543741909,
                -2.8524563255367887
            ]
        },
        {
            "positions": [
                -1.01729176753119,
                -1.1560005951533172,
                1.9819170684964698,
                -0.7744849192637944,
                0.4573972593310599,
                -2.9831514835774353
            ]
        },
        {
            "positions": [
                -1.094462905313921,
                -1.1211114925372725,
                2.0192267268893547,
                -0.8609674888529042,
                0.48042096428792896,
                -3.1138466416180814
            ]
        }
    ]
}