{
    "goal": {
        "global_pose": {
            "orientation": {
                "w": 0.7031023480610252,
                "x": -0.7110244013736278,
                "y": 0.0077485991402295624,
                "z": 0.005598929693374583
            },
            "position": {
                "x": -0.8841497679147869,
                "y": 0.44412534475326537,
                "z": 0.3711530566215515
            }
        },
        "name": "move_to_auspresseinheit_D"
    },
    "id": "ProjEST_move_to_auspresseinheit_D_34",
    "joint_names": [
        "shoulder_pan_joint",
        "shoulder_lift_joint",
        "elbow_joint",
        "wrist_1_joint",
        "wrist_2_joint",
        "wrist_3_joint"
    ],
    "metrics": {
        "cart_traj_len": 0.3426259082008445,
        "distance_elbow_joint": 0.6391989483578597,
        "distance_shoulder_lift_joint": 0.12294053868225019,
        "distance_shoulder_pan_joint": 0.13361575271020776,
        "distance_wrist_1_joint": 0.5249549631450909,
        "distance_wrist_2_joint": 1.4496704147179111,
        "distance_wrist_3_joint": 0.007342174471809404,
        "smoothness": 1.9737298371844314e-16,
        "time": 0.091840846,
        "traj_len": 1.6963852133537152,
        "weighted_distance": 2.2061351995949274
    },
    "planner": "ProjEST",
    "start": {
        "state": {
            "elbow_joint": -1.8275484843655228,
            "shoulder_lift_joint": -2.1267897864000416,
            "shoulder_pan_joint": -0.035127520176001514,
            "wrist_1_joint": -2.3477863256791385,
            "wrist_2_joint": -1.605890476484521,
            "wrist_3_joint": -3.0880375317375353
        }
    },
    "waypoints": [
        {
            "positions": [
                -0.035127520176001514,
                -2.1267897864000416,
                -1.8275484843655228,
                -2.3477863256791385,
                -1.605890476484521,
                -3.0880375317375353
            ]
        },
        {
            "positions": [
                -0.051829489264777484,
                -2.142157353735323,
                -1.7476486158207902,
                -2.413405696072275,
                -1.4246816746447821,
                -3.0889553035465114
            ]
        },
        {
            "positions": [
                -0.06853145835355345,
                -2.1575249210706042,
                -1.667748747276058,
                -2.479025066465411,
                -1.2434728728050433,
                -3.0898730753554875
            ]
        },
        {
            "positions": [
                -0.08523342744232942,
                -2.1728924884058856,
                -1.5878488787313254,
                -2.5446444368585475,
                -1.0622640709653042,
                -3.0907908471644636
            ]
        },
        {
            "positions": [
                -0.1019353965311054,
                -2.188260055741167,
                -1.5079490101865929,
                -2.610263807251684,
                -0.8810552691255654,
                -3.09170861897344
            ]
        },
        {
            "positions": [
                -0.11863736561988136,
                -2.2036276230764478,
                -1.4280491416418604,
                -2.6758831776448204,
                -0.6998464672858266,
                -3.0926263907824163
            ]
        },
        {
            "positions": [
                -0.13533933470865733,
                -2.218995190411729,
                -1.3481492730971278,
                -2.741502548037957,
                -0.5186376654460876,
                -3.0935441625913924
            ]
        },
        {
            "positions": [
                -0.1520413037974333,
                -2.2343627577470104,
                -1.2682494045523955,
                -2.807121918431093,
                -0.3374288636063487,
                -3.0944619344003685
            ]
        },
        {
            "positions": [
                -0.16874327288620927,
                -2.2497303250822918,
                -1.188349536007663,
                -2.8727412888242294,
                -0.15622006176660977,
                -3.0953797062093447
            ]
        }
    ]
}