{
    "goal": {
        "global_pose": {
            "orientation": {
                "w": -0.4816463035849501,
                "x": 0.5182115481033762,
                "y": 0.4908360881923453,
                "z": -0.5084816262002911
            },
            "position": {
                "x": -0.8240239810943604,
                "y": 0.19912469901144506,
                "z": 0.16403168439865112
            }
        },
        "name": "move_to_storage_D"
    },
    "id": "ProjEST_move_to_storage_D_8",
    "joint_names": [
        "shoulder_pan_joint",
        "shoulder_lift_joint",
        "elbow_joint",
        "wrist_1_joint",
        "wrist_2_joint",
        "wrist_3_joint"
    ],
    "metrics": {
        "cart_traj_len": 0.6014628244133435,
        "distance_elbow_joint": 0.5563326798893402,
        "distance_shoulder_lift_joint": 0.23837348603673325,
        "distance_shoulder_pan_joint": 0.5000738167987955,
        "distance_wrist_1_joint": 4.044959819338603,
        "distance_wrist_2_joint": 1.990914972709666,
        "distance_wrist_3_joint": 3.6677228487843268,
        "smoothness": 0.5461677910459825,
        "time": 0.188922647,
        "traj_len": 3.3163801988851436,
        "weighted_distance": 4.936567442380828
    },
    "planner": "ProjEST",
    "start": {
        "state": {
            "elbow_joint": -2.384821990628643,
            "shoulder_lift_joint": -2.278805467437664,
            "shoulder_pan_joint": -0.18546946439364564,
            "wrist_1_joint": 1.4845938187801415,
            "wrist_2_joint": 0.178987772454074,
            "wrist_3_joint": 0.03710569632802521
        }
    },
    "waypoints": [
        {
            "positions": [
                -0.18546946439364564,
                -2.278805467437664,
                -2.384821990628643,
                1.4845938187801415,
                0.178987772454074,
                0.03710569632802521
            ]
        },
        {
            "positions": [
                -0.07694824073888355,
                -2.2931393384872933,
                -2.313694479657266,
                1.5205621743725337,
                0.21426795608013038,
                -0.049453959143141185
            ]
        },
        {
            "positions": [
                0.03157298291587854,
                -2.3074732095369233,
                -2.2425669686858885,
                1.5565305299649257,
                0.24954813970618678,
                -0.13601361461430758
            ]
        },
        {
            "positions": [
                0.14009420657064064,
                -2.3218070805865527,
                -2.171439457714511,
                1.592498885557318,
                0.28482832333224317,
                -0.222573270085474
            ]
        },
        {
            "positions": [
                0.133382277884698,
                -2.314292777783174,
                -2.158249067446234,
                1.4410737027664937,
                0.21232546095410867,
                -0.09149465922505756
            ]
        },
        {
            "positions": [
                0.12667034919875533,
                -2.3067784749797955,
                -2.1450586771779565,
                1.2896485199756698,
                0.13982259857597418,
                0.03958395163535888
            ]
        },
        {
            "positions": [
                0.11995842051281268,
                -2.2992641721764167,
                -2.1318682869096794,
                1.1382233371848456,
                0.06731973619783968,
                0.17066256249577538
            ]
        },
        {
            "positions": [
                0.11324649182687002,
                -2.2917498693730383,
                -2.118677896641402,
                0.9867981543940215,
                -0.005183126180294817,
                0.30174117335619177
            ]
        },
        {
            "positions": [
                0.10653456314092738,
                -2.2842355665696594,
                -2.105487506373125,
                0.8353729716031973,
                -0.07768598855842929,
                0.43281978421660827
            ]
        },
        {
            "positions": [
                0.09982263445498471,
                -2.276721263766281,
                -2.092297116104848,
                0.6839477888123733,
                -0.1501888509365638,
                0.5638983950770248
            ]
        },
        {
            "positions": [
                0.09311070576904207,
                -2.269206960962902,
                -2.0791067258365703,
                0.5325226060215493,
                -0.22269171331469828,
                0.694977005937441
            ]
        },
        {
            "positions": [
                0.0863987770830994,
                -2.261692658159524,
                -2.0659163355682932,
                0.38109742323072515,
                -0.2951945756928328,
                0.8260556167978576
            ]
        },
        {
            "positions": [
                0.07968684839715676,
                -2.254178355356145,
                -2.052725945300016,
                0.2296722404399012,
                -0.3676974380709672,
                0.957134227658274
            ]
        },
        {
            "positions": [
                0.0729749197112141,
                -2.2466640525527666,
                -2.0395355550317387,
                0.0782470576490768,
                -0.44020030044910174,
                1.0882128385186904
            ]
        },
        {
            "positions": [
                0.06626299102527144,
                -2.2391497497493877,
                -2.0263451647634616,
                -0.07317812514174715,
                -0.5127031628272363,
                1.219291449379107
            ]
        },
        {
            "positions": [
                0.05955106233932879,
                -2.2316354469460093,
                -2.013154774495184,
                -0.22460330793257133,
                -0.5852060252053708,
                1.3503700602395234
            ]
        },
        {
            "positions": [
                0.05283913365338613,
                -2.2241211441426305,
                -1.999964384226907,
                -0.3760284907233953,
                -0.6577088875835052,
                1.48144867109994
            ]
        },
        {
            "positions": [
                0.04612720496744348,
                -2.2166068413392517,
                -1.9867739939586297,
                -0.5274536735142192,
                -0.7302117499616397,
                1.612527281960356
            ]
        },
        {
            "positions": [
                0.039415276281500836,
                -2.2090925385358733,
                -1.9735836036903525,
                -0.6788788563050432,
                -0.802714612339774,
                1.7436058928207725
            ]
        },
        {
            "positions": [
                0.032703347595558166,
                -2.2015782357324944,
                -1.9603932134220754,
                -0.8303040390958676,
                -0.8752174747179088,
                1.874684503681189
            ]
        },
        {
            "positions": [
                0.02599141890961551,
                -2.194063932929116,
                -1.9472028231537981,
                -0.9817292218866915,
                -0.9477203370960431,
                2.0057631145416055
            ]
        },
        {
            "positions": [
                0.019279490223672868,
                -2.186549630125737,
                -1.9340124328855208,
                -1.1331544046775155,
                -1.0202231994741777,
                2.136841725402022
            ]
        },
        {
            "positions": [
                0.012567561537730199,
                -2.179035327322359,
                -1.9208220426172438,
                -1.2845795874683394,
                -1.092726061852312,
                2.267920336262438
            ]
        },
        {
            "positions": [
                0.005855632851787557,
                -2.17152102451898,
                -1.9076316523489663,
                -1.4360047702591643,
                -1.1652289242304468,
                2.398998947122855
            ]
        },
        {
            "positions": [
                -0.000856295834155113,
                -2.1640067217156016,
                -1.8944412620806892,
                -1.5874299530499882,
                -1.237731786608581,
                2.5300775579832715
            ]
        },
        {
            "positions": [
                -0.007568224520097755,
                -2.1564924189122228,
                -1.881250871812412,
                -1.7388551358408122,
                -1.3102346489867158,
                2.6611561688436876
            ]
        },
        {
            "positions": [
                -0.014280153206040397,
                -2.1489781161088444,
                -1.8680604815441346,
                -1.8902803186316361,
                -1.3827375113648501,
                2.792234779704104
            ]
        },
        {
            "positions": [
                -0.020992081891983067,
                -2.1414638133054655,
                -1.8548700912758576,
                -2.0417055014224603,
                -1.4552403737429849,
                2.923313390564521
            ]
        },
        {
            "positions": [
                -0.027704010577925736,
                -2.133949510502087,
                -1.8416797010075803,
                -2.1931306842132843,
                -1.5277432361211192,
                3.054392001424937
            ]
        },
        {
            "positions": [
                -0.034415939263868385,
                -2.1264352076987083,
                -1.828489310739303,
                -2.3445558670041082,
                -1.6002460984992537,
                3.1854706122853536
            ]
        }
    ]
}