{
    "goal": {
        "global_pose": {
            "orientation": {
                "w": 0.7047431468963623,
                "x": -0.7094548344612122,
                "y": 0.0024358443915843964,
                "z": -0.0022348060738295317
            },
            "position": {
                "x": 0.6094750761985779,
                "y": 0.3671506643295288,
                "z": 0.19426114857196808
            }
        },
        "name": "move_to_magneteinheit_A"
    },
    "id": "ProjEST_move_to_magneteinheit_A_128",
    "joint_names": [
        "shoulder_pan_joint",
        "shoulder_lift_joint",
        "elbow_joint",
        "wrist_1_joint",
        "wrist_2_joint",
        "wrist_3_joint"
    ],
    "metrics": {
        "cart_traj_len": 1.5929784046279036,
        "distance_elbow_joint": 3.557342848117367,
        "distance_shoulder_lift_joint": 1.152094695672692,
        "distance_shoulder_pan_joint": 1.240940857623326,
        "distance_wrist_1_joint": 3.964258137935894,
        "distance_wrist_2_joint": 1.7092844461120826,
        "distance_wrist_3_joint": 5.161450610660252,
        "smoothness": 2.0185873220968087e-16,
        "time": 0.019338924,
        "traj_len": 4.096995435208784,
        "weighted_distance": 5.725540620892502
    },
    "planner": "ProjEST",
    "start": {
        "state": {
            "elbow_joint": -1.5739458827952972,
            "shoulder_lift_joint": 0.006533473998580023,
            "shoulder_pan_joint": -1.1188671628667068,
            "wrist_1_joint": 3.138208179676308,
            "wrist_2_joint": -1.5706037135050406,
            "wrist_3_joint": -2.0226958329764257
        }
    },
    "waypoints": [
        {
            "positions": [
                -1.1188671628667068,
                0.006533473998580023,
                -1.5739458827952972,
                3.138208179676308,
                -1.5706037135050406,
                -2.0226958329764257
            ]
        },
        {
            "positions": [
                -1.0900080731545365,
                -0.020259425900784913,
                -1.4912169793507073,
                3.0460161299568687,
                -1.5308529124326666,
                -1.902662097844792
            ]
        },
        {
            "positions": [
                -1.0611489834423662,
                -0.04705232580014985,
                -1.4084880759061174,
                2.953824080237429,
                -1.4911021113602925,
                -1.7826283627131583
            ]
        },
        {
            "positions": [
                -1.0322898937301956,
                -0.0738452256995148,
                -1.3257591724615274,
                2.86163203051799,
                -1.4513513102879185,
                -1.6625946275815244
            ]
        },
        {
            "positions": [
                -1.0034308040180253,
                -0.10063812559887972,
                -1.2430302690169375,
                2.7694399807985506,
                -1.4116005092155446,
                -1.5425608924498908
            ]
        },
        {
            "positions": [
                -0.974571714305855,
                -0.12743102549824464,
                -1.1603013655723475,
                2.677247931079111,
                -1.3718497081431704,
                -1.422527157318257
            ]
        },
        {
            "positions": [
                -0.9457126245936847,
                -0.1542239253976096,
                -1.0775724621277578,
                2.585055881359672,
                -1.3320989070707965,
                -1.3024934221866231
            ]
        },
        {
            "positions": [
                -0.9168535348815142,
                -0.18101682529697455,
                -0.9948435586831678,
                2.4928638316402325,
                -1.2923481059984225,
                -1.1824596870549895
            ]
        },
        {
            "positions": [
                -0.8879944451693439,
                -0.20780972519633945,
                -0.9121146552385778,
                2.400671781920793,
                -1.2525973049260486,
                -1.0624259519233556
            ]
        },
        {
            "positions": [
                -0.8591353554571735,
                -0.2346026250957044,
                -0.8293857517939879,
                2.3084797322013535,
                -1.2128465038536744,
                -0.9423922167917218
            ]
        },
        {
            "positions": [
                -0.8302762657450031,
                -0.26139552499506935,
                -0.7466568483493979,
                2.216287682481914,
                -1.1730957027813005,
                -0.8223584816600882
            ]
        },
        {
            "positions": [
                -0.8014171760328328,
                -0.2881884248944343,
                -0.663927944904808,
                2.124095632762475,
                -1.1333449017089263,
                -0.7023247465284543
            ]
        },
        {
            "positions": [
                -0.7725580863206624,
                -0.31498132479379926,
                -0.5811990414602182,
                2.0319035830430354,
                -1.0935941006365524,
                -0.5822910113968207
            ]
        },
        {
            "positions": [
                -0.743698996608492,
                -0.34177422469316415,
                -0.49847013801562823,
                1.9397115333235961,
                -1.0538432995641784,
                -0.4622572762651871
            ]
        },
        {
            "positions": [
                -0.7148399068963216,
                -0.36856712459252916,
                -0.4157412345710383,
                1.8475194836041566,
                -1.0140924984918045,
                -0.342223541133553
            ]
        },
        {
            "positions": [
                -0.6859808171841513,
                -0.39536002449189406,
                -0.33301233112644835,
                1.7553274338847173,
                -0.9743416974194303,
                -0.2221898060019194
            ]
        },
        {
            "positions": [
                -0.6571217274719809,
                -0.42215292439125895,
                -0.2502834276818584,
                1.6631353841652778,
                -0.9345908963470564,
                -0.10215607087028555
            ]
        },
        {
            "positions": [
                -0.6282626377598105,
                -0.4489458242906239,
                -0.16755452423726847,
                1.5709433344458386,
                -0.8948400952746823,
                0.01787766426134807
            ]
        },
        {
            "positions": [
                -0.5994035480476401,
                -0.47573872418998886,
                -0.08482562079267852,
                1.478751284726399,
                -0.8550892942023083,
                0.13791139939298214
            ]
        },
        {
            "positions": [
                -0.5705444583354697,
                -0.5025316240893537,
                -0.0020967173480885837,
                1.3865592350069598,
                -0.8153384931299343,
                0.25794513452461576
            ]
        },
        {
            "positions": [
                -0.5416853686232994,
                -0.5293245239887187,
                0.08063218609650136,
                1.2943671852875203,
                -0.7755876920575603,
                0.3779788696562494
            ]
        },
        {
            "positions": [
                -0.512826278911129,
                -0.5561174238880836,
                0.16336108954109108,
                1.202175135568081,
                -0.7358368909851863,
                0.498012604787883
            ]
        },
        {
            "positions": [
                -0.48396718919895865,
                -0.5829103237874486,
                0.24608999298568124,
                1.1099830858486412,
                -0.6960860899128122,
                0.6180463399195171
            ]
        },
        {
            "positions": [
                -0.4551080994867883,
                -0.6097032236868134,
                0.32881889643027096,
                1.0177910361292022,
                -0.6563352888404383,
                0.7380800750511503
            ]
        },
        {
            "positions": [
                -0.4262490097746179,
                -0.6364961235861785,
                0.4115477998748609,
                0.9255989864097627,
                -0.6165844877680642,
                0.8581138101827843
            ]
        },
        {
            "positions": [
                -0.39738992006244744,
                -0.6632890234855434,
                0.49427670331945106,
                0.8334069366903232,
                -0.5768336866956901,
                0.9781475453144184
            ]
        },
        {
            "positions": [
                -0.3685308303502772,
                -0.6900819233849083,
                0.5770056067640408,
                0.7412148869708841,
                -0.5370828856233163,
                1.0981812804460516
            ]
        },
        {
            "positions": [
                -0.3396717406381068,
                -0.7168748232842732,
                0.6597345102086309,
                0.6490228372514446,
                -0.49733208455094213,
                1.2182150155776856
            ]
        },
        {
            "positions": [
                -0.31081265092593635,
                -0.7436677231836383,
                0.7424634136532207,
                0.5568307875320051,
                -0.4575812834785682,
                1.3382487507093197
            ]
        },
        {
            "positions": [
                -0.281953561213766,
                -0.7704606230830031,
                0.8251923170978104,
                0.46463873781256604,
                -0.41783048240619425,
                1.4582824858409529
            ]
        },
        {
            "positions": [
                -0.2530944715015956,
                -0.7972535229823681,
                0.9079212205424005,
                0.37244668809312653,
                -0.3780796813338201,
                1.578316220972587
            ]
        },
        {
            "positions": [
                -0.22423538178942537,
                -0.8240464228817329,
                0.9906501239869903,
                0.280254638373687,
                -0.33832888026144614,
                1.6983499561042206
            ]
        },
        {
            "positions": [
                -0.19537629207725493,
                -0.8508393227810979,
                1.0733790274315804,
                0.18806258865424752,
                -0.2985780791890722,
                1.8183836912358546
            ]
        },
        {
            "positions": [
                -0.1665172023650845,
                -0.8776322226804629,
                1.1561079308761706,
                0.09587053893480801,
                -0.25882727811669803,
                1.9384174263674883
            ]
        },
        {
            "positions": [
                -0.13765811265291417,
                -0.9044251225798278,
                1.2388368343207603,
                0.003678489215368952,
                -0.2190764770443241,
                2.058451161499122
            ]
        },
        {
            "positions": [
                -0.10879902294074384,
                -0.9312180224791927,
                1.32156573776535,
                -0.08851356050407055,
                -0.17932567597195015,
                2.178484896630756
            ]
        },
        {
            "positions": [
                -0.07993993322857329,
                -0.9580109223785577,
                1.4042946412099402,
                -0.18070561022351006,
                -0.13957487489957598,
                2.29851863176239
            ]
        },
        {
            "positions": [
                -0.05108084351640296,
                -0.9848038222779226,
                1.48702354465453,
                -0.2728976599429491,
                -0.09982407382720204,
                2.418552366894023
            ]
        },
        {
            "positions": [
                -0.022221753804232636,
                -1.0115967221772875,
                1.56975244809912,
                -0.36508970966238863,
                -0.0600732727548281,
                2.5385861020256573
            ]
        },
        {
            "positions": [
                0.0066373359079376915,
                -1.0383896220766524,
                1.6524813515437098,
                -0.45728175938182813,
                -0.020322471682454157,
                2.6586198371572904
            ]
        },
        {
            "positions": [
                0.03549642562010802,
                -1.0651825219760174,
                1.7352102549883,
                -0.5494738091012676,
                0.019428329389920007,
                2.7786535722889245
            ]
        },
        {
            "positions": [
                0.06435551533227857,
                -1.0919754218753823,
                1.8179391584328897,
                -0.6416658588207071,
                0.05917913046229417,
                2.8986873074205586
            ]
        },
        {
            "positions": [
                0.0932146050444489,
                -1.1187683217747473,
                1.9006680618774794,
                -0.7338579085401462,
                0.09892993153466789,
                3.0187210425521918
            ]
        },
        {
            "positions": [
                0.12207369475661912,
                -1.1455612216741122,
                1.9833969653220695,
                -0.8260499582595857,
                0.138680732607042,
                3.1387547776838263
            ]
        }
    ]
}