{
    "goal": {
        "global_pose": {
            "orientation": {
                "w": -0.00223480608172531,
                "x": 0.0024358444001904467,
                "y": 0.7094548369677653,
                "z": -0.704743149386269
            },
            "position": {
                "x": 0.6205249238014221,
                "y": -0.6371506643295288,
                "z": 0.19426114857196808
            }
        },
        "name": "move_to_magneteinheit_B"
    },
    "id": "ProjEST_move_to_magneteinheit_B_114",
    "joint_names": [
        "shoulder_pan_joint",
        "shoulder_lift_joint",
        "elbow_joint",
        "wrist_1_joint",
        "wrist_2_joint",
        "wrist_3_joint"
    ],
    "metrics": {
        "cart_traj_len": 1.4548632560366717,
        "distance_elbow_joint": 0.7302541328924572,
        "distance_shoulder_lift_joint": 1.247572598654653,
        "distance_shoulder_pan_joint": 1.6204295267471525,
        "distance_wrist_1_joint": 2.617820852243099,
        "distance_wrist_2_joint": 2.9441362242417637,
        "distance_wrist_3_joint": 3.133335229067246,
        "smoothness": 5.382899525591488e-16,
        "time": 0.21519636,
        "traj_len": 3.506215704124087,
        "weighted_distance": 4.911433202077142
    },
    "planner": "ProjEST",
    "start": {
        "state": {
            "elbow_joint": 2.393587130804639,
            "shoulder_lift_joint": -1.9085141043513325,
            "shoulder_pan_joint": 0.7066247066698809,
            "wrist_1_joint": -0.4678290934590222,
            "wrist_2_joint": 0.7096259084215963,
            "wrist_3_joint": 3.147370379541726
        }
    },
    "waypoints": [
        {
            "positions": [
                0.7066247066698809,
                -1.9085141043513325,
                2.393587130804639,
                -0.4678290934590222,
                0.7096259084215963,
                3.147370379541726
            ]
        },
        {
            "positions": [
                0.6559862839590324,
                -1.8695274606433745,
                2.3707666891517496,
                -0.38602219182642533,
                0.6176216514140412,
                3.0494536536333747
            ]
        },
        {
            "positions": [
                0.6053478612481838,
                -1.8305408169354167,
                2.3479462474988604,
                -0.3042152901938285,
                0.5256173944064861,
                2.951536927725023
            ]
        },
        {
            "positions": [
                0.5547094385373353,
                -1.7915541732274587,
                2.325125805845971,
                -0.22240838856123163,
                0.43361313739893104,
                2.8536202018166716
            ]
        },
        {
            "positions": [
                0.5040710158264868,
                -1.752567529519501,
                2.3023053641930815,
                -0.14060148692863478,
                0.34160888039137594,
                2.7557034759083203
            ]
        },
        {
            "positions": [
                0.45343259311563827,
                -1.7135808858115429,
                2.2794849225401923,
                -0.05879458529603793,
                0.24960462338382083,
                2.657786749999969
            ]
        },
        {
            "positions": [
                0.40279417040478976,
                -1.674594242103585,
                2.256664480887303,
                0.023012316336558925,
                0.15760036637626573,
                2.5598700240916177
            ]
        },
        {
            "positions": [
                0.35215574769394126,
                -1.635607598395627,
                2.233844039234414,
                0.10481921796915578,
                0.06559610936871063,
                2.461953298183266
            ]
        },
        {
            "positions": [
                0.30151732498309275,
                -1.5966209546876693,
                2.2110235975815247,
                0.18662611960175263,
                -0.02640814763884447,
                2.3640365722749146
            ]
        },
        {
            "positions": [
                0.25087890227224424,
                -1.5576343109797113,
                2.188203155928635,
                0.2684330212343495,
                -0.11841240464639957,
                2.2661198463665633
            ]
        },
        {
            "positions": [
                0.20024047956139568,
                -1.5186476672717535,
                2.165382714275746,
                0.35023992286694633,
                -0.21041666165395467,
                2.1682031204582115
            ]
        },
        {
            "positions": [
                0.14960205685054717,
                -1.4796610235637955,
                2.1425622726228566,
                0.4320468244995432,
                -0.3024209186615099,
                2.07028639454986
            ]
        },
        {
            "positions": [
                0.09896363413969866,
                -1.4406743798558375,
                2.1197418309699674,
                0.5138537261321401,
                -0.3944251756690649,
                1.9723696686415089
            ]
        },
        {
            "positions": [
                0.04832521142885016,
                -1.4016877361478797,
                2.096921389317078,
                0.5956606277647369,
                -0.48642943267661987,
                1.8744529427331575
            ]
        },
        {
            "positions": [
                -0.002313211281998351,
                -1.3627010924399219,
                2.074100947664189,
                0.6774675293973338,
                -0.5784336896841751,
                1.776536216824806
            ]
        },
        {
            "positions": [
                -0.05295163399284686,
                -1.3237144487319639,
                2.0512805060112993,
                0.7592744310299306,
                -0.6704379466917303,
                1.6786194909164545
            ]
        },
        {
            "positions": [
                -0.10359005670369537,
                -1.2847278050240059,
                2.02846006435841,
                0.8410813326625275,
                -0.7624422036992853,
                1.5807027650081031
            ]
        },
        {
            "positions": [
                -0.15422847941454387,
                -1.245741161316048,
                2.005639622705521,
                0.9228882342951243,
                -0.8544464607068403,
                1.4827860390997518
            ]
        },
        {
            "positions": [
                -0.20486690212539238,
                -1.2067545176080903,
                1.9828191810526317,
                1.0046951359277212,
                -0.9464507177143955,
                1.3848693131914003
            ]
        },
        {
            "positions": [
                -0.2555053248362409,
                -1.1677678739001323,
                1.9599987393997425,
                1.086502037560318,
                -1.0384549747219507,
                1.2869525872830487
            ]
        },
        {
            "positions": [
                -0.3061437475470895,
                -1.1287812301921742,
                1.937178297746853,
                1.168308939192915,
                -1.1304592317295057,
                1.1890358613746974
            ]
        },
        {
            "positions": [
                -0.356782170257938,
                -1.0897945864842165,
                1.9143578560939638,
                1.2501158408255117,
                -1.2224634887370607,
                1.091119135466346
            ]
        },
        {
            "positions": [
                -0.4074205929687865,
                -1.0508079427762587,
                1.8915374144410744,
                1.3319227424581086,
                -1.3144677457446161,
                0.9932024095579943
            ]
        },
        {
            "positions": [
                -0.45805901567963503,
                -1.0118212990683007,
                1.8687169727881852,
                1.4137296440907055,
                -1.406472002752171,
                0.895285683649643
            ]
        },
        {
            "positions": [
                -0.5086974383904835,
                -0.9728346553603426,
                1.845896531135296,
                1.4955365457233023,
                -1.498476259759726,
                0.7973689577412917
            ]
        },
        {
            "positions": [
                -0.559335861101332,
                -0.9338480116523847,
                1.8230760894824067,
                1.5773434473558992,
                -1.590480516767281,
                0.6994522318329404
            ]
        },
        {
            "positions": [
                -0.6099742838121806,
                -0.8948613679444268,
                1.8002556478295173,
                1.659150348988496,
                -1.682484773774836,
                0.601535505924589
            ]
        },
        {
            "positions": [
                -0.6606127065230291,
                -0.855874724236469,
                1.7774352061766279,
                1.7409572506210929,
                -1.7744890307823915,
                0.5036187800162373
            ]
        },
        {
            "positions": [
                -0.7112511292338776,
                -0.816888080528511,
                1.7546147645237387,
                1.8227641522536897,
                -1.8664932877899465,
                0.40570205410788596
            ]
        },
        {
            "positions": [
                -0.7618895519447261,
                -0.7779014368205532,
                1.7317943228708494,
                1.9045710538862866,
                -1.9584975447975015,
                0.30778532819953464
            ]
        },
        {
            "positions": [
                -0.8125279746555746,
                -0.7389147931125952,
                1.7089738812179602,
                1.9863779555188834,
                -2.0505018018050567,
                0.20986860229118287
            ]
        },
        {
            "positions": [
                -0.8631663973664231,
                -0.6999281494046374,
                1.686153439565071,
                2.06818485715148,
                -2.1425060588126117,
                0.11195187638283155
            ]
        },
        {
            "positions": [
                -0.9138048200772716,
                -0.6609415056966794,
                1.6633329979121816,
                2.149991758784077,
                -2.234510315820167,
                0.014035150474480042
            ]
        }
    ]
}