{
    "goal": {
        "global_pose": {
            "orientation": {
                "w": -0.00223480608172531,
                "x": 0.0024358444001904467,
                "y": 0.7094548369677653,
                "z": -0.704743149386269
            },
            "position": {
                "x": 0.6205249238014221,
                "y": -0.6371506643295288,
                "z": 0.19426114857196808
            }
        },
        "name": "move_to_magneteinheit_B"
    },
    "id": "ProjEST_move_to_magneteinheit_B_35",
    "joint_names": [
        "shoulder_pan_joint",
        "shoulder_lift_joint",
        "elbow_joint",
        "wrist_1_joint",
        "wrist_2_joint",
        "wrist_3_joint"
    ],
    "metrics": {
        "cart_traj_len": 1.4533699407374066,
        "distance_elbow_joint": 0.7322402545606885,
        "distance_shoulder_lift_joint": 1.2497332423221545,
        "distance_shoulder_pan_joint": 1.6212543205307277,
        "distance_wrist_1_joint": 2.602876652409514,
        "distance_wrist_2_joint": 2.935693106858164,
        "distance_wrist_3_joint": 3.14413225269752,
        "smoothness": 2.69144977797877e-16,
        "time": 0.21010145000000002,
        "traj_len": 3.50512907456755,
        "weighted_distance": 4.910474935690181
    },
    "planner": "ProjEST",
    "start": {
        "state": {
            "elbow_joint": 2.393587130804639,
            "shoulder_lift_joint": -1.9085141043513325,
            "shoulder_pan_joint": 0.7066247066698809,
            "wrist_1_joint": -0.4678290934590222,
            "wrist_2_joint": 0.7096259084215963,
            "wrist_3_joint": 3.147370379541726
        }
    },
    "waypoints": [
        {
            "positions": [
                0.7066247066698809,
                -1.9085141043513325,
                2.393587130804639,
                -0.4678290934590222,
                0.7096259084215963,
                3.147370379541726
            ]
        },
        {
            "positions": [
                0.6559605091532956,
                -1.869459940528765,
                2.370704622849617,
                -0.38648919807122484,
                0.6178854988322787,
                3.0491162466449286
            ]
        },
        {
            "positions": [
                0.6052963116367104,
                -1.8304057767061979,
                2.347822114894596,
                -0.30514930268342755,
                0.5261450892429611,
                2.9508621137481312
            ]
        },
        {
            "positions": [
                0.5546321141201251,
                -1.7913516128836304,
                2.3249396069395742,
                -0.2238094072956302,
                0.4344046796536435,
                2.8526079808513334
            ]
        },
        {
            "positions": [
                0.5039679166035399,
                -1.7522974490610632,
                2.3020570989845526,
                -0.14246951190783286,
                0.34266427006432587,
                2.754353847954536
            ]
        },
        {
            "positions": [
                0.45330371908695466,
                -1.7132432852384958,
                2.2791745910295313,
                -0.06112961652003551,
                0.25092386047500825,
                2.6560997150577386
            ]
        },
        {
            "positions": [
                0.4026395215703694,
                -1.6741891214159286,
                2.2562920830745097,
                0.020210278867761777,
                0.15918345088569064,
                2.557845582160941
            ]
        },
        {
            "positions": [
                0.3519753240537842,
                -1.6351349575933611,
                2.233409575119488,
                0.10155017425555918,
                0.06744304129637302,
                2.4595914492641437
            ]
        },
        {
            "positions": [
                0.30131112653719894,
                -1.596080793770794,
                2.210527067164467,
                0.18289006964335647,
                -0.0242973682929446,
                2.361337316367346
            ]
        },
        {
            "positions": [
                0.2506469290206137,
                -1.5570266299482265,
                2.187644559209445,
                0.26422996503115376,
                -0.11603777788226222,
                2.2630831834705485
            ]
        },
        {
            "positions": [
                0.19998273150402845,
                -1.5179724661256593,
                2.1647620512544234,
                0.34556986041895116,
                -0.20777818747157983,
                2.164829050573751
            ]
        },
        {
            "positions": [
                0.1493185339874432,
                -1.4789183023030918,
                2.1418795432994022,
                0.42690975580674845,
                -0.29951859706089734,
                2.0665749176769532
            ]
        },
        {
            "positions": [
                0.09865433647085797,
                -1.4398641384805244,
                2.1189970353443806,
                0.5082496511945458,
                -0.39125900665021507,
                1.968320784780156
            ]
        },
        {
            "positions": [
                0.04799013895427273,
                -1.4008099746579572,
                2.096114527389359,
                0.5895895465823431,
                -0.4829994162395328,
                1.8700666518833584
            ]
        },
        {
            "positions": [
                -0.002674058562312509,
                -1.36175581083539,
                2.0732320194343377,
                0.6709294419701406,
                -0.5747398258288503,
                1.771812518986561
            ]
        },
        {
            "positions": [
                -0.05333825607889775,
                -1.3227016470128226,
                2.050349511479316,
                0.7522693373579379,
                -0.6664802354181678,
                1.6735583860897634
            ]
        },
        {
            "positions": [
                -0.10400245359548299,
                -1.2836474831902551,
                2.0274670035242943,
                0.8336092327457352,
                -0.7582206450074855,
                1.575304253192966
            ]
        },
        {
            "positions": [
                -0.15466665111206823,
                -1.244593319367688,
                2.004584495569273,
                0.9149491281335325,
                -0.8499610545968033,
                1.4770501202961686
            ]
        },
        {
            "positions": [
                -0.20533084862865347,
                -1.2055391555451207,
                1.9817019876142514,
                0.9962890235213298,
                -0.9417014641861208,
                1.378795987399371
            ]
        },
        {
            "positions": [
                -0.2559950461452387,
                -1.1664849917225533,
                1.95881947965923,
                1.0776289189091273,
                -1.0334418737754383,
                1.2805418545025735
            ]
        },
        {
            "positions": [
                -0.30665924366182395,
                -1.1274308278999858,
                1.9359369717042085,
                1.1589688142969246,
                -1.125182283364756,
                1.1822877216057759
            ]
        },
        {
            "positions": [
                -0.3573234411784091,
                -1.0883766640774186,
                1.9130544637491869,
                1.2403087096847218,
                -1.2169226929540737,
                1.0840335887089783
            ]
        },
        {
            "positions": [
                -0.40798763869499444,
                -1.0493225002548514,
                1.8901719557941654,
                1.3216486050725191,
                -1.308663102543391,
                0.9857794558121808
            ]
        },
        {
            "positions": [
                -0.4586518362115798,
                -1.010268336432284,
                1.867289447839144,
                1.4029885004603164,
                -1.4004035121327087,
                0.8875253229153834
            ]
        },
        {
            "positions": [
                -0.5093160337281649,
                -0.9712141726097165,
                1.8444069398841223,
                1.4843283958481137,
                -1.4921439217220265,
                0.789271190018586
            ]
        },
        {
            "positions": [
                -0.55998023124475,
                -0.9321600087871492,
                1.8215244319291009,
                1.5656682912359112,
                -1.5838843313113442,
                0.6910170571217886
            ]
        },
        {
            "positions": [
                -0.6106444287613354,
                -0.8931058449645819,
                1.7986419239740794,
                1.6470081866237083,
                -1.675624740900662,
                0.5927629242249908
            ]
        },
        {
            "positions": [
                -0.6613086262779208,
                -0.8540516811420147,
                1.7757594160190577,
                1.7283480820115058,
                -1.7673651504899792,
                0.49450879132819336
            ]
        },
        {
            "positions": [
                -0.7119728237945059,
                -0.8149975173194473,
                1.7528769080640363,
                1.8096879773993033,
                -1.859105560079297,
                0.39625465843139596
            ]
        },
        {
            "positions": [
                -0.762637021311091,
                -0.77594335349688,
                1.7299944001090148,
                1.8910278727871004,
                -1.9508459696686147,
                0.29800052553459855
            ]
        },
        {
            "positions": [
                -0.8133012188276764,
                -0.7368891896743126,
                1.7071118921539932,
                1.972367768174898,
                -2.0425863792579317,
                0.1997463926378007
            ]
        },
        {
            "positions": [
                -0.8639654163442617,
                -0.6978350258517454,
                1.684229384198972,
                2.0537076635626947,
                -2.1343267888472495,
                0.10149225974100329
            ]
        },
        {
            "positions": [
                -0.914629613860847,
                -0.658780862029178,
                1.6613468762439503,
                2.1350475589504923,
                -2.2260671984365676,
                0.0032381268442059647
            ]
        }
    ]
}