{
    "goal": {
        "global_pose": {
            "orientation": {
                "w": 0.7047431468963623,
                "x": -0.7094548344612122,
                "y": 0.0024358443915843964,
                "z": -0.0022348060738295317
            },
            "position": {
                "x": 0.6094750761985779,
                "y": 0.3671506643295288,
                "z": 0.19426114857196808
            }
        },
        "name": "move_to_magneteinheit_A"
    },
    "id": "ProjEST_move_to_magneteinheit_A_78",
    "joint_names": [
        "shoulder_pan_joint",
        "shoulder_lift_joint",
        "elbow_joint",
        "wrist_1_joint",
        "wrist_2_joint",
        "wrist_3_joint"
    ],
    "metrics": {
        "cart_traj_len": 1.968724587169286,
        "distance_elbow_joint": 3.5750770707241335,
        "distance_shoulder_lift_joint": 0.7864614741022707,
        "distance_shoulder_pan_joint": 1.2414910728459416,
        "distance_wrist_1_joint": 1.180105705351827,
        "distance_wrist_2_joint": 1.4507144648920798,
        "distance_wrist_3_joint": 1.975718665398784,
        "smoothness": 3.6185046736692446e-16,
        "time": 0.338949503,
        "traj_len": 3.195241532860237,
        "weighted_distance": 4.0977830535981905
    },
    "planner": "ProjEST",
    "start": {
        "state": {
            "elbow_joint": -1.5739458827952972,
            "shoulder_lift_joint": 0.006533473998580023,
            "shoulder_pan_joint": -1.1188671628667068,
            "wrist_1_joint": 3.138208179676308,
            "wrist_2_joint": -1.5706037135050406,
            "wrist_3_joint": -2.0226958329764257
        }
    },
    "waypoints": [
        {
            "positions": [
                -1.1188671628667068,
                0.006533473998580023,
                -1.5739458827952972,
                3.138208179676308,
                -1.5706037135050406,
                -2.0226958329764257
            ]
        },
        {
            "positions": [
                -1.071117506218786,
                -0.023715044236122706,
                -1.4364429185366767,
                3.092819498701238,
                -1.5148070033168837,
                -1.946706653538011
            ]
        },
        {
            "positions": [
                -1.0233678495708651,
                -0.053963562470825434,
                -1.2989399542780562,
                3.0474308177261675,
                -1.4590102931287268,
                -1.8707174740995962
            ]
        },
        {
            "positions": [
                -0.9756181929229444,
                -0.08421208070552816,
                -1.1614369900194357,
                3.0020421367510974,
                -1.4032135829405699,
                -1.7947282946611813
            ]
        },
        {
            "positions": [
                -0.9278685362750235,
                -0.11446059894023089,
                -1.0239340257608152,
                2.956653455776027,
                -1.347416872752413,
                -1.7187391152227667
            ]
        },
        {
            "positions": [
                -0.8801188796271027,
                -0.1447091171749336,
                -0.8864310615021946,
                2.911264774800957,
                -1.291620162564256,
                -1.642749935784352
            ]
        },
        {
            "positions": [
                -0.8323692229791818,
                -0.17495763540963633,
                -0.7489280972435741,
                2.8658760938258867,
                -1.2358234523760991,
                -1.5667607563459371
            ]
        },
        {
            "positions": [
                -0.7846195663312611,
                -0.20520615364433903,
                -0.6114251329849536,
                2.820487412850816,
                -1.1800267421879422,
                -1.4907715769075223
            ]
        },
        {
            "positions": [
                -0.7368699096833402,
                -0.2354546718790418,
                -0.4739221687263331,
                2.775098731875746,
                -1.1242300319997853,
                -1.4147823974691076
            ]
        },
        {
            "positions": [
                -0.6891202530354194,
                -0.2657031901137445,
                -0.33641920446771256,
                2.7297100509006755,
                -1.0684333218116282,
                -1.338793218030693
            ]
        },
        {
            "positions": [
                -0.6413705963874985,
                -0.29595170834844725,
                -0.19891624020909204,
                2.6843213699256054,
                -1.0126366116234715,
                -1.262804038592278
            ]
        },
        {
            "positions": [
                -0.5936209397395777,
                -0.32620022658314995,
                -0.061413275950471524,
                2.6389326889505353,
                -0.9568399014353145,
                -1.1868148591538632
            ]
        },
        {
            "positions": [
                -0.5458712830916568,
                -0.3564487448178527,
                0.076089688308149,
                2.593544007975465,
                -0.9010431912471576,
                -1.1108256797154485
            ]
        },
        {
            "positions": [
                -0.49812162644373603,
                -0.3866972630525554,
                0.21359265256676951,
                2.5481553270003947,
                -0.8452464810590007,
                -1.0348365002770339
            ]
        },
        {
            "positions": [
                -0.4503719697958153,
                -0.4169457812872581,
                0.35109561682539003,
                2.5027666460253246,
                -0.7894497708708438,
                -0.958847320838619
            ]
        },
        {
            "positions": [
                -0.40262231314789443,
                -0.4471942995219608,
                0.48859858108401055,
                2.457377965050254,
                -0.733653060682687,
                -0.8828581414002044
            ]
        },
        {
            "positions": [
                -0.35487265649997346,
                -0.47744281775666364,
                0.6261015453426311,
                2.411989284075184,
                -0.6778563504945299,
                -0.8068689619617895
            ]
        },
        {
            "positions": [
                -0.3071229998520527,
                -0.5076913359913663,
                0.7636045096012516,
                2.366600603100114,
                -0.6220596403063731,
                -0.7308797825233746
            ]
        },
        {
            "positions": [
                -0.25937334320413186,
                -0.5379398542260689,
                0.9011074738598721,
                2.3212119221250433,
                -0.566262930118216,
                -0.6548906030849599
            ]
        },
        {
            "positions": [
                -0.2116236865562111,
                -0.5681883724607717,
                1.0386104381184926,
                2.2758232411499733,
                -0.5104662199300594,
                -0.5789014236465453
            ]
        },
        {
            "positions": [
                -0.16387402990829014,
                -0.5984368906954745,
                1.1761134023771131,
                2.2304345601749027,
                -0.45466950974190223,
                -0.5029122442081304
            ]
        },
        {
            "positions": [
                -0.1161243732603694,
                -0.6286854089301772,
                1.3136163666357337,
                2.1850458791998326,
                -0.3988727995537453,
                -0.42692306476971553
            ]
        },
        {
            "positions": [
                -0.06837471661244865,
                -0.6589339271648799,
                1.4511193308943542,
                2.1396571982247625,
                -0.3430760893655884,
                -0.3509338853313009
            ]
        },
        {
            "positions": [
                -0.02062505996452768,
                -0.6891824453995826,
                1.5886222951529747,
                2.094268517249692,
                -0.2872793791774315,
                -0.2749447058928862
            ]
        },
        {
            "positions": [
                0.027124596683393287,
                -0.7194309636342854,
                1.7261252594115952,
                2.0488798362746214,
                -0.2314826689892746,
                -0.19895552645447134
            ]
        },
        {
            "positions": [
                0.07487425333131403,
                -0.749679481868988,
                1.8636282236702157,
                2.0034911552995514,
                -0.1756859588011177,
                -0.12296634701605647
            ]
        },
        {
            "positions": [
                0.12262390997923482,
                -0.7799280001036908,
                2.001131187928836,
                1.9581024743244813,
                -0.11988924861296084,
                -0.04697716757764188
            ]
        }
    ]
}