{
    "goal": {
        "global_pose": {
            "orientation": {
                "w": -0.00223480608172531,
                "x": 0.0024358444001904467,
                "y": 0.7094548369677653,
                "z": -0.704743149386269
            },
            "position": {
                "x": 0.6205249238014221,
                "y": -0.6371506643295288,
                "z": 0.19426114857196808
            }
        },
        "name": "move_to_magneteinheit_B"
    },
    "id": "ProjEST_move_to_magneteinheit_B_112",
    "joint_names": [
        "shoulder_pan_joint",
        "shoulder_lift_joint",
        "elbow_joint",
        "wrist_1_joint",
        "wrist_2_joint",
        "wrist_3_joint"
    ],
    "metrics": {
        "cart_traj_len": 1.4530314971194858,
        "distance_elbow_joint": 0.7235391213440161,
        "distance_shoulder_lift_joint": 1.2444333669418333,
        "distance_shoulder_pan_joint": 1.62211747738775,
        "distance_wrist_1_joint": 2.619915697402959,
        "distance_wrist_2_joint": 2.9363504588034917,
        "distance_wrist_3_joint": 3.1325615802667643,
        "smoothness": 2.775557567883112e-16,
        "time": 0.205069204,
        "traj_len": 3.5041286651815193,
        "weighted_distance": 4.909206353259842
    },
    "planner": "ProjEST",
    "start": {
        "state": {
            "elbow_joint": 2.393587130804639,
            "shoulder_lift_joint": -1.9085141043513325,
            "shoulder_pan_joint": 0.7066247066698809,
            "wrist_1_joint": -0.4678290934590222,
            "wrist_2_joint": 0.7096259084215963,
            "wrist_3_joint": 3.147370379541726
        }
    },
    "waypoints": [
        {
            "positions": [
                0.7066247066698809,
                -1.9085141043513325,
                2.393587130804639,
                -0.4678290934590222,
                0.7096259084215963,
                3.147370379541726
            ]
        },
        {
            "positions": [
                0.6542983364315663,
                -1.8683710925144992,
                2.3702471591483802,
                -0.38331568386537834,
                0.6149049258795483,
                3.0463200059847337
            ]
        },
        {
            "positions": [
                0.6019719661932519,
                -1.8282280806776658,
                2.3469071874921217,
                -0.2988022742717345,
                0.5201839433375002,
                2.9452696324277414
            ]
        },
        {
            "positions": [
                0.5496455959549373,
                -1.7880850688408325,
                2.323567215835863,
                -0.21428886467809066,
                0.42546296079545204,
                2.8442192588707487
            ]
        },
        {
            "positions": [
                0.4973192257166228,
                -1.7479420570039992,
                2.3002272441796046,
                -0.12977545508444682,
                0.33074197825340396,
                2.7431688853137564
            ]
        },
        {
            "positions": [
                0.4449928554783083,
                -1.7077990451671659,
                2.276887272523346,
                -0.04526204549080298,
                0.23602099571135582,
                2.642118511756764
            ]
        },
        {
            "positions": [
                0.39266648523999376,
                -1.6676560333303325,
                2.2535473008670874,
                0.03925136410284086,
                0.14130001316930774,
                2.5410681381997717
            ]
        },
        {
            "positions": [
                0.34034011500167927,
                -1.6275130214934992,
                2.230207329210829,
                0.1237647736964847,
                0.046579030627259654,
                2.4400177646427794
            ]
        },
        {
            "positions": [
                0.2880137447633647,
                -1.5873700096566659,
                2.2068673575545703,
                0.20827818329012854,
                -0.04814195191478843,
                2.338967391085787
            ]
        },
        {
            "positions": [
                0.23568737452505018,
                -1.5472269978198325,
                2.1835273858983117,
                0.2927915928837725,
                -0.14286293445683662,
                2.2379170175287944
            ]
        },
        {
            "positions": [
                0.18336100428673574,
                -1.5070839859829992,
                2.1601874142420527,
                0.3773050024774162,
                -0.2375839169988847,
                2.136866643971802
            ]
        },
        {
            "positions": [
                0.1310346340484212,
                -1.4669409741461659,
                2.136847442585794,
                0.46181841207106017,
                -0.3323048995409328,
                2.0358162704148093
            ]
        },
        {
            "positions": [
                0.07870826381010665,
                -1.4267979623093325,
                2.1135074709295356,
                0.546331821664704,
                -0.42702588208298087,
                1.9347658968578174
            ]
        },
        {
            "positions": [
                0.026381893571792103,
                -1.3866549504724992,
                2.090167499273277,
                0.6308452312583479,
                -0.521746864625029,
                1.8337155233008249
            ]
        },
        {
            "positions": [
                -0.02594447666652233,
                -1.3465119386356659,
                2.0668275276170185,
                0.7153586408519916,
                -0.616467847167077,
                1.7326651497438326
            ]
        },
        {
            "positions": [
                -0.07827084690483688,
                -1.3063689267988325,
                2.04348755596076,
                0.7998720504456356,
                -0.7111888297091253,
                1.63161477618684
            ]
        },
        {
            "positions": [
                -0.13059721714315142,
                -1.2662259149619992,
                2.0201475843045014,
                0.8843854600392793,
                -0.8059098122511732,
                1.5305644026298477
            ]
        },
        {
            "positions": [
                -0.18292358738146586,
                -1.2260829031251659,
                1.9968076126482428,
                0.968898869632923,
                -0.9006307947932213,
                1.4295140290728554
            ]
        },
        {
            "positions": [
                -0.23524995761978051,
                -1.1859398912883325,
                1.9734676409919842,
                1.0534122792265672,
                -0.9953517773352696,
                1.3284636555158627
            ]
        },
        {
            "positions": [
                -0.28757632785809495,
                -1.1457968794514992,
                1.9501276693357257,
                1.137925688820211,
                -1.0900727598773177,
                1.2274132819588703
            ]
        },
        {
            "positions": [
                -0.3399026980964094,
                -1.1056538676146659,
                1.9267876976794671,
                1.2224390984138547,
                -1.1847937424193657,
                1.126362908401878
            ]
        },
        {
            "positions": [
                -0.39222906833472393,
                -1.0655108557778328,
                1.9034477260232086,
                1.3069525080074984,
                -1.2795147249614136,
                1.0253125348448857
            ]
        },
        {
            "positions": [
                -0.4445554385730385,
                -1.0253678439409992,
                1.88010775436695,
                1.3914659176011426,
                -1.374235707503462,
                0.924262161287893
            ]
        },
        {
            "positions": [
                -0.496881808811353,
                -0.9852248321041659,
                1.8567677827106914,
                1.4759793271947863,
                -1.4689566900455102,
                0.8232117877309006
            ]
        },
        {
            "positions": [
                -0.5492081790496676,
                -0.9450818202673326,
                1.8334278110544329,
                1.56049273678843,
                -1.563677672587558,
                0.7221614141739088
            ]
        },
        {
            "positions": [
                -0.6015345492879819,
                -0.9049388084304992,
                1.8100878393981743,
                1.6450061463820738,
                -1.658398655129606,
                0.6211110406169165
            ]
        },
        {
            "positions": [
                -0.6538609195262967,
                -0.8647957965936659,
                1.7867478677419157,
                1.729519555975718,
                -1.7531196376716542,
                0.5200606670599237
            ]
        },
        {
            "positions": [
                -0.7061872897646112,
                -0.8246527847568326,
                1.7634078960856572,
                1.8140329655693617,
                -1.8478406202137025,
                0.4190102935029314
            ]
        },
        {
            "positions": [
                -0.7585136600029255,
                -0.7845097729199992,
                1.7400679244293986,
                1.8985463751630054,
                -1.9425616027557504,
                0.3179599199459391
            ]
        },
        {
            "positions": [
                -0.8108400302412401,
                -0.7443667610831659,
                1.71672795277314,
                1.9830597847566491,
                -2.037282585297799,
                0.21690954638894677
            ]
        },
        {
            "positions": [
                -0.8631664004795546,
                -0.7042237492463326,
                1.6933879811168813,
                2.067573194350293,
                -2.1320035678398472,
                0.11585917283195402
            ]
        },
        {
            "positions": [
                -0.9154927707178693,
                -0.6640807374094991,
                1.6700480094606227,
                2.152086603943937,
                -2.226724550381895,
                0.014808799274961676
            ]
        }
    ]
}