{
    "goal": {
        "global_pose": {
            "orientation": {
                "w": -0.4816463035849501,
                "x": 0.5182115481033762,
                "y": 0.4908360881923453,
                "z": -0.5084816262002911
            },
            "position": {
                "x": -0.8240239810943604,
                "y": -0.300875300988555,
                "z": 0.16403168439865112
            }
        },
        "name": "move_to_storage_C"
    },
    "id": "ProjEST_move_to_storage_C_7",
    "joint_names": [
        "shoulder_pan_joint",
        "shoulder_lift_joint",
        "elbow_joint",
        "wrist_1_joint",
        "wrist_2_joint",
        "wrist_3_joint"
    ],
    "metrics": {
        "cart_traj_len": 0.5767463984541991,
        "distance_elbow_joint": 0.2573324398608854,
        "distance_shoulder_lift_joint": 0.1901848028482096,
        "distance_shoulder_pan_joint": 0.4945028595196481,
        "distance_wrist_1_joint": 0.07341030439934448,
        "distance_wrist_2_joint": 1.0686746523491415,
        "distance_wrist_3_joint": 0.07291637285573627,
        "smoothness": 0.0,
        "time": 0.011961759,
        "traj_len": 1.4686801666234093,
        "weighted_distance": 1.8560547228713176
    },
    "planner": "ProjEST",
    "start": {
        "state": {
            "elbow_joint": 2.0108683149792914,
            "shoulder_lift_joint": -1.1634956873317392,
            "shoulder_pan_joint": -2.4736205022346,
            "wrist_1_joint": -0.8367026793690192,
            "wrist_2_joint": 0.6746043897045053,
            "wrist_3_joint": 3.133522094754363
        }
    },
    "waypoints": [
        {
            "positions": [
                -2.4736205022346,
                -1.1634956873317392,
                2.0108683149792914,
                -0.8367026793690192,
                0.6746043897045053,
                3.133522094754363
            ]
        },
        {
            "positions": [
                -2.5560376454878746,
                -1.131798220190371,
                1.967979575002477,
                -0.8244676286357951,
                0.8527168317626955,
                3.1456748235636525
            ]
        },
        {
            "positions": [
                -2.6384547887411496,
                -1.1001007530490028,
                1.925090835025663,
                -0.8122325779025711,
                1.0308292738208857,
                3.1578275523729418
            ]
        },
        {
            "positions": [
                -2.720871931994424,
                -1.0684032859076344,
                1.8822020950488487,
                -0.7999975271693469,
                1.208941715879076,
                3.169980281182231
            ]
        },
        {
            "positions": [
                -2.8032890752476987,
                -1.036705818766266,
                1.8393133550720344,
                -0.7877624764361228,
                1.3870541579372664,
                3.182133009991521
            ]
        },
        {
            "positions": [
                -2.8857062185009736,
                -1.005008351624898,
                1.7964246150952203,
                -0.7755274257028988,
                1.5651665999954565,
                3.19428573880081
            ]
        },
        {
            "positions": [
                -2.968123361754248,
                -0.9733108844835296,
                1.753535875118406,
                -0.7632923749696747,
                1.7432790420536468,
                3.2064384676100994
            ]
        }
    ]
}