{
    "goal": {
        "global_pose": {
            "orientation": {
                "w": -0.4816463035849501,
                "x": 0.5182115481033762,
                "y": 0.4908360881923453,
                "z": -0.5084816262002911
            },
            "position": {
                "x": -0.8240239810943604,
                "y": -0.300875300988555,
                "z": 0.16403168439865112
            }
        },
        "name": "move_to_storage_C"
    },
    "id": "ProjEST_move_to_storage_C_22",
    "joint_names": [
        "shoulder_pan_joint",
        "shoulder_lift_joint",
        "elbow_joint",
        "wrist_1_joint",
        "wrist_2_joint",
        "wrist_3_joint"
    ],
    "metrics": {
        "cart_traj_len": 0.5759481300824421,
        "distance_elbow_joint": 0.2591056284345079,
        "distance_shoulder_lift_joint": 0.18838838353355736,
        "distance_shoulder_pan_joint": 0.4947013013143704,
        "distance_wrist_1_joint": 0.08500929784479871,
        "distance_wrist_2_joint": 1.062335289323778,
        "distance_wrist_3_joint": 0.057974153903628256,
        "smoothness": 2.5376526478085547e-16,
        "time": 0.068543285,
        "traj_len": 1.4654398842513603,
        "weighted_distance": 1.846837012118415
    },
    "planner": "ProjEST",
    "start": {
        "state": {
            "elbow_joint": 2.0108683149792914,
            "shoulder_lift_joint": -1.1634956873317392,
            "shoulder_pan_joint": -2.4736205022346,
            "wrist_1_joint": -0.8367026793690192,
            "wrist_2_joint": 0.6746043897045053,
            "wrist_3_joint": 3.133522094754363
        }
    },
    "waypoints": [
        {
            "positions": [
                -2.4736205022346,
                -1.1634956873317392,
                2.0108683149792914,
                -0.8367026793690192,
                0.6746043897045053,
                3.133522094754363
            ]
        },
        {
            "positions": [
                -2.5560707191203287,
                -1.1320976234094797,
                1.96768404357354,
                -0.8225344630615528,
                0.8516602712584683,
                3.1431844537383014
            ]
        },
        {
            "positions": [
                -2.638520936006057,
                -1.1006995594872202,
                1.9244997721677888,
                -0.8083662467540863,
                1.0287161528124313,
                3.152846812722239
            ]
        },
        {
            "positions": [
                -2.720971152891785,
                -1.0693014955649605,
                1.8813155007620375,
                -0.7941980304466199,
                1.2057720343663942,
                3.1625091717061773
            ]
        },
        {
            "positions": [
                -2.8034213697775137,
                -1.037903431642701,
                1.8381312293562861,
                -0.7800298141391534,
                1.3828279159203574,
                3.1721715306901155
            ]
        },
        {
            "positions": [
                -2.8858715866632423,
                -1.0065053677204414,
                1.7949469579505348,
                -0.765861597831687,
                1.5598837974743205,
                3.1818338896740532
            ]
        },
        {
            "positions": [
                -2.9683218035489705,
                -0.9751073037981819,
                1.7517626865447835,
                -0.7516933815242205,
                1.7369396790282834,
                3.1914962486579914
            ]
        }
    ]
}