{
    "goal": {
        "global_pose": {
            "orientation": {
                "w": -0.00223480608172531,
                "x": 0.0024358444001904467,
                "y": 0.7094548369677653,
                "z": -0.704743149386269
            },
            "position": {
                "x": -0.37947507619857795,
                "y": -0.6371506643295288,
                "z": 0.19426114857196808
            }
        },
        "name": "move_to_magneteinheit_C"
    },
    "id": "ProjEST_move_to_magneteinheit_C_120",
    "joint_names": [
        "shoulder_pan_joint",
        "shoulder_lift_joint",
        "elbow_joint",
        "wrist_1_joint",
        "wrist_2_joint",
        "wrist_3_joint"
    ],
    "metrics": {
        "cart_traj_len": 1.5552893973368531,
        "distance_elbow_joint": 0.42970274351241966,
        "distance_shoulder_lift_joint": 1.042168511044947,
        "distance_shoulder_pan_joint": 1.9144103172451807,
        "distance_wrist_1_joint": 0.6847041002432032,
        "distance_wrist_2_joint": 0.9413529083630674,
        "distance_wrist_3_joint": 8.568602048980505,
        "smoothness": 0.7289279025540085,
        "time": 0.213380595,
        "traj_len": 3.6852327781823124,
        "weighted_distance": 5.687196298349179
    },
    "planner": "ProjEST",
    "start": {
        "state": {
            "elbow_joint": 1.9565354006593851,
            "shoulder_lift_joint": -1.4165861576512813,
            "shoulder_pan_joint": -1.6717766223278752,
            "wrist_1_joint": -0.528663328821883,
            "wrist_2_joint": 1.472756589259273,
            "wrist_3_joint": 3.159348288315503
        }
    },
    "waypoints": [
        {
            "positions": [
                -1.6717766223278752,
                -1.4165861576512813,
                1.9565354006593851,
                -0.528663328821883,
                1.472756589259273,
                3.159348288315503
            ]
        },
        {
            "positions": [
                -1.6368548689016074,
                -1.4100295198748567,
                1.950183923030201,
                -0.4937098593296009,
                1.4714373375529464,
                3.1031552937787126
            ]
        },
        {
            "positions": [
                -1.605658550945554,
                -1.4347304456739918,
                1.9626099647557445,
                -0.5091606783754113,
                1.425873805672136,
                2.837999282964291
            ]
        },
        {
            "positions": [
                -1.5744622329895006,
                -1.4594313714731268,
                1.975036006481288,
                -0.5246114974212218,
                1.3803102737913258,
                2.5728432721498695
            ]
        },
        {
            "positions": [
                -1.5432659150334473,
                -1.484132297272262,
                1.9874620482068315,
                -0.5400623164670322,
                1.3347467419105155,
                2.307687261335448
            ]
        },
        {
            "positions": [
                -1.512069597077394,
                -1.508833223071397,
                1.999888089932375,
                -0.5555131355128426,
                1.2891832100297052,
                2.0425312505210265
            ]
        },
        {
            "positions": [
                -1.4808732791213406,
                -1.533534148870532,
                2.0123141316579183,
                -0.5709639545586531,
                1.2436196781488948,
                1.7773752397066047
            ]
        },
        {
            "positions": [
                -1.4496769611652873,
                -1.5582350746696672,
                2.024740173383462,
                -0.5864147736044636,
                1.1980561462680845,
                1.512219228892183
            ]
        },
        {
            "positions": [
                -1.418480643209234,
                -1.5829360004688022,
                2.0371662151090053,
                -0.6018655926502741,
                1.1524926143872742,
                1.2470632180777614
            ]
        },
        {
            "positions": [
                -1.3872843252531806,
                -1.6076369262679373,
                2.049592256834549,
                -0.6173164116960845,
                1.106929082506464,
                0.9819072072633399
            ]
        },
        {
            "positions": [
                -1.3560880072971273,
                -1.6323378520670724,
                2.0620182985600923,
                -0.6327672307418949,
                1.0613655506256536,
                0.7167511964489184
            ]
        },
        {
            "positions": [
                -1.324891689341074,
                -1.6570387778662075,
                2.074444340285636,
                -0.6482180497877054,
                1.0158020187448433,
                0.45159518563449685
            ]
        },
        {
            "positions": [
                -1.2936953713850206,
                -1.6817397036653425,
                2.0868703820111794,
                -0.6636688688335158,
                0.970238486864033,
                0.18643917482007533
            ]
        },
        {
            "positions": [
                -1.2624990534289673,
                -1.7064406294644776,
                2.099296423736723,
                -0.6791196878793263,
                0.9246749549832227,
                -0.07871683599434665
            ]
        },
        {
            "positions": [
                -1.231302735472914,
                -1.7311415552636127,
                2.1117224654622664,
                -0.6945705069251367,
                0.8791114231024124,
                -0.3438728468087682
            ]
        },
        {
            "positions": [
                -1.2001064175168605,
                -1.7558424810627478,
                2.12414850718781,
                -0.7100213259709471,
                0.8335478912216021,
                -0.6090288576231897
            ]
        },
        {
            "positions": [
                -1.1689100995608073,
                -1.7805434068618828,
                2.1365745489133534,
                -0.7254721450167576,
                0.7879843593407918,
                -0.8741848684376112
            ]
        },
        {
            "positions": [
                -1.137713781604754,
                -1.805244332661018,
                2.149000590638897,
                -0.7409229640625681,
                0.7424208274599815,
                -1.1393408792520328
            ]
        },
        {
            "positions": [
                -1.3022095362686068,
                -1.770663487930167,
                2.1544196717267248,
                -0.7211093656832689,
                0.7518585826088016,
                -1.0120915028327624
            ]
        },
        {
            "positions": [
                -1.4667052909324596,
                -1.7360826431993162,
                2.1598387528145526,
                -0.7012957673039697,
                0.7612963377576215,
                -0.884842126413492
            ]
        },
        {
            "positions": [
                -1.6312010455963124,
                -1.7015017984684653,
                2.1652578339023805,
                -0.6814821689246706,
                0.7707340929064416,
                -0.7575927499942217
            ]
        },
        {
            "positions": [
                -1.7956968002601652,
                -1.6669209537376144,
                2.1706769149902083,
                -0.6616685705453714,
                0.7801718480552615,
                -0.6303433735749513
            ]
        },
        {
            "positions": [
                -1.960192554924018,
                -1.6323401090067633,
                2.1760959960780366,
                -0.6418549721660722,
                0.7896096032040816,
                -0.5030939971556809
            ]
        },
        {
            "positions": [
                -2.124688309587871,
                -1.5977592642759124,
                2.1815150771658645,
                -0.6220413737867732,
                0.7990473583529016,
                -0.37584462073641056
            ]
        },
        {
            "positions": [
                -2.2891840642517236,
                -1.5631784195450615,
                2.1869341582536923,
                -0.602227775407474,
                0.8084851135017216,
                -0.2485952443171402
            ]
        },
        {
            "positions": [
                -2.4536798189155764,
                -1.5285975748142107,
                2.19235323934152,
                -0.5824141770281748,
                0.8179228686505416,
                -0.12134586789786972
            ]
        },
        {
            "positions": [
                -2.4578855573700826,
                -1.4973579801773247,
                2.1770619432142406,
                -0.6025960495460057,
                0.805803883797811,
                0.15448547800797202
            ]
        },
        {
            "positions": [
                -2.462091295824589,
                -1.4661183855404387,
                2.161770647086961,
                -0.6227779220638365,
                0.7936848989450802,
                0.43031682391381376
            ]
        },
        {
            "positions": [
                -2.466297034279095,
                -1.4348787909035527,
                2.1464793509596816,
                -0.6429597945816674,
                0.7815659140923494,
                0.7061481698196554
            ]
        },
        {
            "positions": [
                -2.4705027727336013,
                -1.4036391962666668,
                2.131188054832402,
                -0.6631416670994983,
                0.7694469292396188,
                0.9819795157254972
            ]
        },
        {
            "positions": [
                -2.4747085111881075,
                -1.3723996016297808,
                2.115896758705123,
                -0.6833235396173292,
                0.7573279443868881,
                1.2578108616313388
            ]
        },
        {
            "positions": [
                -2.478914249642614,
                -1.3411600069928946,
                2.1006054625778434,
                -0.70350541213516,
                0.7452089595341573,
                1.5336422075371807
            ]
        },
        {
            "positions": [
                -2.4831199880971204,
                -1.3099204123560086,
                2.085314166450564,
                -0.7236872846529909,
                0.7330899746814266,
                1.8094735534430222
            ]
        },
        {
            "positions": [
                -2.4873257265516266,
                -1.2786808177191227,
                2.0700228703232844,
                -0.7438691571708218,
                0.7209709898286959,
                2.085304899348864
            ]
        },
        {
            "positions": [
                -2.491531465006133,
                -1.2474412230822367,
                2.054731574196005,
                -0.7640510296886527,
                0.7088520049759652,
                2.361136245254706
            ]
        },
        {
            "positions": [
                -2.495737203460639,
                -1.2162016284453507,
                2.0394402780687253,
                -0.7842329022064836,
                0.6967330201232345,
                2.6369675911605475
            ]
        },
        {
            "positions": [
                -2.484575176127552,
                -1.1905244503120036,
                2.0253057839191646,
                -0.8053379091091094,
                0.6895703917002802,
                2.8837697966607427
            ]
        },
        {
            "positions": [
                -2.4734131487944646,
                -1.1648472721786567,
                2.011171289769604,
                -0.8264429160117353,
                0.682407763277326,
                3.1305720021609384
            ]
        }
    ]
}