{
    "goal": {
        "global_pose": {
            "orientation": {
                "w": -0.4816463035849501,
                "x": 0.5182115481033762,
                "y": 0.4908360881923453,
                "z": -0.5084816262002911
            },
            "position": {
                "x": -0.8240239810943604,
                "y": -0.300875300988555,
                "z": 0.16403168439865112
            }
        },
        "name": "move_to_storage_C"
    },
    "id": "ProjEST_move_to_storage_C_83",
    "joint_names": [
        "shoulder_pan_joint",
        "shoulder_lift_joint",
        "elbow_joint",
        "wrist_1_joint",
        "wrist_2_joint",
        "wrist_3_joint"
    ],
    "metrics": {
        "cart_traj_len": 0.5764710536536705,
        "distance_elbow_joint": 0.2544750223819514,
        "distance_shoulder_lift_joint": 0.18817110024320172,
        "distance_shoulder_pan_joint": 0.49372600638634534,
        "distance_wrist_1_joint": 0.0651376620709212,
        "distance_wrist_2_joint": 1.0769769963274856,
        "distance_wrist_3_joint": 0.05622326626734253,
        "smoothness": 5.075305295617109e-16,
        "time": 0.020428844,
        "traj_len": 1.4610646986623308,
        "weighted_distance": 1.8409973505169255
    },
    "planner": "ProjEST",
    "start": {
        "state": {
            "elbow_joint": 2.0108683149792914,
            "shoulder_lift_joint": -1.1634956873317392,
            "shoulder_pan_joint": -2.4736205022346,
            "wrist_1_joint": -0.8367026793690192,
            "wrist_2_joint": 0.6746043897045053,
            "wrist_3_joint": 3.133522094754363
        }
    },
    "waypoints": [
        {
            "positions": [
                -2.4736205022346,
                -1.1634956873317392,
                2.0108683149792914,
                -0.8367026793690192,
                0.6746043897045053,
                3.133522094754363
            ]
        },
        {
            "positions": [
                -2.5559081699656576,
                -1.1321338372912055,
                1.9684558112489663,
                -0.825846402357199,
                0.8541005557590862,
                3.1428926391322536
            ]
        },
        {
            "positions": [
                -2.638195837696715,
                -1.100771987250672,
                1.926043307518641,
                -0.8149901253453788,
                1.0335967218136672,
                3.152263183510144
            ]
        },
        {
            "positions": [
                -2.7204835054277727,
                -1.0694101372101383,
                1.8836308037883156,
                -0.8041338483335586,
                1.213092887868248,
                3.1616337278880344
            ]
        },
        {
            "positions": [
                -2.8027711731588303,
                -1.0380482871696048,
                1.8412183000579905,
                -0.7932775713217384,
                1.392589053922829,
                3.171004272265925
            ]
        },
        {
            "positions": [
                -2.885058840889888,
                -1.0066864371290711,
                1.7988057963276654,
                -0.7824212943099182,
                1.57208521997741,
                3.1803748166438153
            ]
        },
        {
            "positions": [
                -2.9673465086209454,
                -0.9753245870885375,
                1.75639329259734,
                -0.771565017298098,
                1.7515813860319909,
                3.1897453610217057
            ]
        }
    ]
}