{
    "goal": {
        "global_pose": {
            "orientation": {
                "w": 0.7047431493862688,
                "x": -0.7094548369677653,
                "y": 0.0024358444001904,
                "z": -0.0022348060817251984
            },
            "position": {
                "x": -0.39052492380142206,
                "y": 0.3671506643295288,
                "z": 0.19426114857196808
            }
        },
        "name": "move_to_magneteinheit_D"
    },
    "id": "ProjEST_move_to_magneteinheit_D_105",
    "joint_names": [
        "shoulder_pan_joint",
        "shoulder_lift_joint",
        "elbow_joint",
        "wrist_1_joint",
        "wrist_2_joint",
        "wrist_3_joint"
    ],
    "metrics": {
        "cart_traj_len": 4.009976462349769,
        "distance_elbow_joint": 3.6701138305118675,
        "distance_shoulder_lift_joint": 1.6320137262418017,
        "distance_shoulder_pan_joint": 3.836997466265202,
        "distance_wrist_1_joint": 1.7171889719587428,
        "distance_wrist_2_joint": 0.4499309502404684,
        "distance_wrist_3_joint": 3.366916064078447,
        "smoothness": 0.3523913021028261,
        "time": 0.11975641100000001,
        "traj_len": 3.830556227142022,
        "weighted_distance": 4.855318018384856
    },
    "planner": "ProjEST",
    "start": {
        "state": {
            "elbow_joint": 0.7495348899011911,
            "shoulder_lift_joint": -0.6476975780737668,
            "shoulder_pan_joint": -2.711696901376276,
            "wrist_1_joint": -0.0750647808097303,
            "wrist_2_joint": 0.43296659715458535,
            "wrist_3_joint": 3.1361499051832418
        }
    },
    "waypoints": [
        {
            "positions": [
                -2.711696901376276,
                -0.6476975780737668,
                0.7495348899011911,
                -0.0750647808097303,
                0.43296659715458535,
                3.1361499051832418
            ]
        },
        {
            "positions": [
                -2.718011329664992,
                -0.6739027482957771,
                0.6771963177132063,
                -0.0024400726170070303,
                0.4207531411343347,
                3.135334539949988
            ]
        },
        {
            "positions": [
                -2.7306401862424226,
                -0.7263130887397977,
                0.5325191733372365,
                0.1428093437684395,
                0.3963262290938333,
                3.133703809483481
            ]
        },
        {
            "positions": [
                -2.6948372873737125,
                -0.7623704871430944,
                0.4577733337973571,
                0.20470299029085237,
                0.4012542107870605,
                3.104110894992179
            ]
        },
        {
            "positions": [
                -2.6590343885050025,
                -0.7984278855463911,
                0.3830274942574776,
                0.26659663681326523,
                0.40618219248028764,
                3.074517980500877
            ]
        },
        {
            "positions": [
                -2.539382919117614,
                -0.8210122970441798,
                0.2662959656067623,
                0.2637444119078556,
                0.393983908683464,
                2.952476365099706
            ]
        },
        {
            "positions": [
                -2.4197314497302256,
                -0.8435967085419684,
                0.14956443695604693,
                0.260892187002446,
                0.38178562488664036,
                2.8304347496985343
            ]
        },
        {
            "positions": [
                -2.300079980342837,
                -0.866181120039757,
                0.03283290830533159,
                0.25803996209703634,
                0.36958734108981667,
                2.708393134297363
            ]
        },
        {
            "positions": [
                -2.1804285109554487,
                -0.8887655315375457,
                -0.08389862034538376,
                0.25518773719162674,
                0.35738905729299303,
                2.586351518896192
            ]
        },
        {
            "positions": [
                -2.06077704156806,
                -0.9113499430353343,
                -0.2006301489960991,
                0.2523355122862171,
                0.3451907734961694,
                2.46430990349502
            ]
        },
        {
            "positions": [
                -1.9411255721806713,
                -0.933934354533123,
                -0.31736167764681444,
                0.24948328738080747,
                0.3329924896993457,
                2.342268288093849
            ]
        },
        {
            "positions": [
                -1.821474102793283,
                -0.9565187660309116,
                -0.4340932062975298,
                0.24663106247539782,
                0.32079420590252206,
                2.220226672692678
            ]
        },
        {
            "positions": [
                -1.7018226334058943,
                -0.9791031775287002,
                -0.5508247349482451,
                0.2437788375699882,
                0.3085959221056984,
                2.0981850572915066
            ]
        },
        {
            "positions": [
                -1.5821711640185059,
                -1.001687589026489,
                -0.6675562635989605,
                0.24092661266457857,
                0.2963976383088748,
                1.9761434418903352
            ]
        },
        {
            "positions": [
                -1.4625196946311172,
                -1.0242720005242776,
                -0.7842877922496758,
                0.23807438775916895,
                0.28419935451205114,
                1.8541018264891638
            ]
        },
        {
            "positions": [
                -1.342868225243729,
                -1.0468564120220663,
                -0.9010193209003912,
                0.2352221628537593,
                0.2720010707152275,
                1.7320602110879924
            ]
        },
        {
            "positions": [
                -1.2232167558563403,
                -1.069440823519855,
                -1.0177508495511065,
                0.23236993794834968,
                0.2598027869184038,
                1.610018595686821
            ]
        },
        {
            "positions": [
                -1.1035652864689518,
                -1.0920252350176436,
                -1.1344823782018219,
                0.22951771304294005,
                0.24760450312158017,
                1.4879769802856497
            ]
        },
        {
            "positions": [
                -0.9839138170815633,
                -1.114609646515432,
                -1.2512139068525372,
                0.22666548813753043,
                0.23540621932475653,
                1.3659353648844785
            ]
        },
        {
            "positions": [
                -0.8642623476941749,
                -1.1371940580132207,
                -1.3679454355032523,
                0.2238132632321208,
                0.2232079355279329,
                1.2438937494833073
            ]
        },
        {
            "positions": [
                -0.7446108783067862,
                -1.1597784695110094,
                -1.4846769641539679,
                0.22096103832671116,
                0.2110096517311092,
                1.1218521340821357
            ]
        },
        {
            "positions": [
                -0.6249594089193975,
                -1.182362881008798,
                -1.6014084928046832,
                0.21810881342130153,
                0.19881136793428555,
                0.9998105186809645
            ]
        },
        {
            "positions": [
                -0.5053079395320093,
                -1.2049472925065867,
                -1.7181400214553986,
                0.2152565885158919,
                0.18661308413746192,
                0.8777689032797933
            ]
        },
        {
            "positions": [
                -0.385656470144621,
                -1.2275317040043754,
                -1.834871550106114,
                0.2124043636104823,
                0.17441480034063828,
                0.7557272878786216
            ]
        },
        {
            "positions": [
                -0.2660050007572319,
                -1.250116115502164,
                -1.9516030787568293,
                0.20955213870507264,
                0.16221651654381458,
                0.6336856724774504
            ]
        },
        {
            "positions": [
                -0.14635353136984364,
                -1.2727005269999525,
                -2.068334607407545,
                0.20669991379966302,
                0.15001823274699094,
                0.5116440570762788
            ]
        },
        {
            "positions": [
                -0.026702061982455394,
                -1.2952849384977414,
                -2.1850661360582597,
                0.2038476888942534,
                0.1378199489501673,
                0.3896024416751076
            ]
        },
        {
            "positions": [
                0.09294940740493329,
                -1.3178693499955298,
                -2.3017976647089755,
                0.20099546398884377,
                0.12562166515334366,
                0.2675608262739364
            ]
        },
        {
            "positions": [
                0.21260087679232198,
                -1.3404537614933187,
                -2.4185291933596904,
                0.19814323908343412,
                0.11342338135651997,
                0.14551921087276476
            ]
        },
        {
            "positions": [
                0.33225234617971067,
                -1.3630381729911072,
                -2.535260722010406,
                0.1952910141780245,
                0.10122509755969633,
                0.02347759547159356
            ]
        },
        {
            "positions": [
                0.45190381556709913,
                -1.3856225844888959,
                -2.651992250661121,
                0.19243878927261487,
                0.08902681376287269,
                -0.09856401992957786
            ]
        },
        {
            "positions": [
                0.38129157339048436,
                -1.4849657755807484,
                -2.6221492851111705,
                0.33703542336095893,
                0.09861339599352237,
                -0.08387489337784138
            ]
        },
        {
            "positions": [
                0.3106793312138696,
                -1.584308966672601,
                -2.59230631956122,
                0.48163205744930304,
                0.10819997822417204,
                -0.0691857668261049
            ]
        },
        {
            "positions": [
                0.24006708903725488,
                -1.6836521577644534,
                -2.5624633540112693,
                0.6262286915376472,
                0.11778656045482172,
                -0.05449664027436842
            ]
        },
        {
            "positions": [
                0.1694548468606401,
                -1.782995348856306,
                -2.5326203884613188,
                0.7708253256259912,
                0.1273731426854714,
                -0.03980751372263194
            ]
        },
        {
            "positions": [
                0.09884260468402534,
                -1.8823385399481585,
                -2.5027774229113686,
                0.9154219597143354,
                0.13695972491612107,
                -0.025118387170895456
            ]
        },
        {
            "positions": [
                0.028230362507410622,
                -1.981681731040011,
                -2.472934457361418,
                1.0600185938026794,
                0.14654630714677075,
                -0.010429260619158984
            ]
        },
        {
            "positions": [
                -0.0423818796692042,
                -2.0810249221318635,
                -2.4430914918114675,
                1.2046152278910236,
                0.15613288937742043,
                0.004259865932577503
            ]
        },
        {
            "positions": [
                -0.11299412184581892,
                -2.1803681132237163,
                -2.413248526261517,
                1.3492118619793676,
                0.1657194716080701,
                0.018948992484313976
            ]
        },
        {
            "positions": [
                -0.18360636402243366,
                -2.2797113043155686,
                -2.3834055607115663,
                1.4938084960677118,
                0.17530605383871978,
                0.03363811903605045
            ]
        }
    ]
}