{
    "goal": {
        "global_pose": {
            "orientation": {
                "w": 0.7031023480610252,
                "x": -0.7110244013736278,
                "y": 0.0077485991402295624,
                "z": 0.005598929693374583
            },
            "position": {
                "x": -0.8841497679147869,
                "y": 0.44412534475326537,
                "z": 0.3711530566215515
            }
        },
        "name": "move_to_auspresseinheit_D"
    },
    "id": "ProjEST_move_to_auspresseinheit_D_72",
    "joint_names": [
        "shoulder_pan_joint",
        "shoulder_lift_joint",
        "elbow_joint",
        "wrist_1_joint",
        "wrist_2_joint",
        "wrist_3_joint"
    ],
    "metrics": {
        "cart_traj_len": 0.343451068706888,
        "distance_elbow_joint": 0.6595341204586933,
        "distance_shoulder_lift_joint": 0.13314685737474408,
        "distance_shoulder_pan_joint": 0.13333636491394282,
        "distance_wrist_1_joint": 0.6109029968603168,
        "distance_wrist_2_joint": 1.4295708762295118,
        "distance_wrist_3_joint": 0.061657640613633546,
        "smoothness": 1.9737298371844314e-16,
        "time": 0.039497384999999996,
        "traj_len": 1.7401577102236574,
        "weighted_distance": 2.2785824564338104
    },
    "planner": "ProjEST",
    "start": {
        "state": {
            "elbow_joint": -1.8275484843655228,
            "shoulder_lift_joint": -2.1267897864000416,
            "shoulder_pan_joint": -0.035127520176001514,
            "wrist_1_joint": -2.3477863256791385,
            "wrist_2_joint": -1.605890476484521,
            "wrist_3_joint": -3.0880375317375353
        }
    },
    "waypoints": [
        {
            "positions": [
                -0.035127520176001514,
                -2.1267897864000416,
                -1.8275484843655228,
                -2.3477863256791385,
                -1.605890476484521,
                -3.0880375317375353
            ]
        },
        {
            "positions": [
                -0.05179456579024437,
                -2.1434331435718845,
                -1.7451067193081862,
                -2.4241492002866782,
                -1.427194116955832,
                -3.080330326660831
            ]
        },
        {
            "positions": [
                -0.06846161140448723,
                -2.1600765007437275,
                -1.6626649542508494,
                -2.5005120748942176,
                -1.248497757427143,
                -3.072623121584127
            ]
        },
        {
            "positions": [
                -0.08512865701873007,
                -2.1767198579155704,
                -1.5802231891935128,
                -2.5768749495017573,
                -1.0698013978984542,
                -3.064915916507423
            ]
        },
        {
            "positions": [
                -0.10179570263297293,
                -2.1933632150874134,
                -1.4977814241361762,
                -2.653237824109297,
                -0.8911050383697651,
                -3.0572087114307185
            ]
        },
        {
            "positions": [
                -0.11846274824721578,
                -2.210006572259257,
                -1.4153396590788394,
                -2.7296006987168364,
                -0.7124086788410761,
                -3.049501506354014
            ]
        },
        {
            "positions": [
                -0.13512979386145862,
                -2.2266499294310997,
                -1.3328978940215028,
                -2.805963573324376,
                -0.5337123193123872,
                -3.04179430127731
            ]
        },
        {
            "positions": [
                -0.1517968394757015,
                -2.2432932866029427,
                -1.2504561289641662,
                -2.8823264479319155,
                -0.35501595978369815,
                -3.034087096200606
            ]
        },
        {
            "positions": [
                -0.16846388508994434,
                -2.2599366437747856,
                -1.1680143639068294,
                -2.9586893225394553,
                -0.1763196002550091,
                -3.0263798911239017
            ]
        }
    ]
}