{
    "goal": {
        "global_pose": {
            "orientation": {
                "w": 0.5084816262002911,
                "x": -0.4908360881923452,
                "y": 0.5182115481033761,
                "z": -0.48164630358495003
            },
            "position": {
                "x": 0.5540239810943604,
                "y": -0.46912469901144505,
                "z": 0.16403168439865112
            }
        },
        "name": "move_to_storage_B"
    },
    "id": "ProjEST_move_to_storage_B_141",
    "joint_names": [
        "shoulder_pan_joint",
        "shoulder_lift_joint",
        "elbow_joint",
        "wrist_1_joint",
        "wrist_2_joint",
        "wrist_3_joint"
    ],
    "metrics": {
        "cart_traj_len": 0.6495043929680924,
        "distance_elbow_joint": 0.3523070440675087,
        "distance_shoulder_lift_joint": 0.4599939496683132,
        "distance_shoulder_pan_joint": 0.30191479552776923,
        "distance_wrist_1_joint": 2.988223680358524,
        "distance_wrist_2_joint": 2.7100703265185153,
        "distance_wrist_3_joint": 3.1365745579218682,
        "smoothness": 0.035562351123609566,
        "time": 0.134940387,
        "traj_len": 3.154216916139805,
        "weighted_distance": 4.681936295677598
    },
    "planner": "ProjEST",
    "start": {
        "state": {
            "elbow_joint": 1.6649325340416963,
            "shoulder_lift_joint": -0.6616387945129425,
            "shoulder_pan_joint": -0.9139837929255878,
            "wrist_1_joint": 2.1467571094334352,
            "wrist_2_joint": -2.234195976750228,
            "wrist_3_joint": 0.005470921511140723
        }
    },
    "waypoints": [
        {
            "positions": [
                -0.9139837929255878,
                -0.6616387945129425,
                1.6649325340416963,
                2.1467571094334352,
                -2.234195976750228,
                0.005470921511140723
            ]
        },
        {
            "positions": [
                -0.8539003422636064,
                -0.707580579463124,
                1.6648438791651305,
                2.1187748801244473,
                -2.15102315480062,
                -0.060697082044484915
            ]
        },
        {
            "positions": [
                -0.8635735960582379,
                -0.7241426660518493,
                1.6789326147327683,
                2.0003652220824657,
                -2.0459472546178636,
                -0.18351334421913462
            ]
        },
        {
            "positions": [
                -0.8732468498528695,
                -0.7407047526405746,
                1.693021350300406,
                1.8819555640404844,
                -1.9408713544351073,
                -0.3063296063937843
            ]
        },
        {
            "positions": [
                -0.882920103647501,
                -0.7572668392292998,
                1.7071100858680437,
                1.763545905998503,
                -1.835795454252351,
                -0.429145868568434
            ]
        },
        {
            "positions": [
                -0.8925933574421325,
                -0.7738289258180251,
                1.7211988214356815,
                1.6451362479565215,
                -1.7307195540695948,
                -0.5519621307430838
            ]
        },
        {
            "positions": [
                -0.902266611236764,
                -0.7903910124067504,
                1.735287557003319,
                1.52672658991454,
                -1.6256436538868382,
                -0.6747783929177334
            ]
        },
        {
            "positions": [
                -0.9119398650313956,
                -0.8069530989954756,
                1.7493762925709568,
                1.4083169318725586,
                -1.520567753704082,
                -0.797594655092383
            ]
        },
        {
            "positions": [
                -0.921613118826027,
                -0.8235151855842009,
                1.7634650281385946,
                1.289907273830577,
                -1.4154918535213257,
                -0.9204109172670328
            ]
        },
        {
            "positions": [
                -0.9312863726206586,
                -0.8400772721729262,
                1.7775537637062322,
                1.1714976157885957,
                -1.3104159533385695,
                -1.0432271794416825
            ]
        },
        {
            "positions": [
                -0.9409596264152901,
                -0.8566393587616514,
                1.79164249927387,
                1.0530879577466141,
                -1.2053400531558132,
                -1.166043441616332
            ]
        },
        {
            "positions": [
                -0.9506328802099215,
                -0.8732014453503767,
                1.8057312348415078,
                0.9346782997046328,
                -1.1002641529730568,
                -1.2888597037909821
            ]
        },
        {
            "positions": [
                -0.9603061340045531,
                -0.889763531939102,
                1.8198199704091453,
                0.8162686416626512,
                -0.9951882527903007,
                -1.4116759659656317
            ]
        },
        {
            "positions": [
                -0.9699793877991846,
                -0.9063256185278272,
                1.8339087059767831,
                0.6978589836206699,
                -0.8901123526075445,
                -1.5344922281402813
            ]
        },
        {
            "positions": [
                -0.9796526415938162,
                -0.9228877051165525,
                1.847997441544421,
                0.5794493255786883,
                -0.7850364524247879,
                -1.657308490314931
            ]
        },
        {
            "positions": [
                -0.9893258953884476,
                -0.9394497917052778,
                1.8620861771120587,
                0.4610396675367068,
                -0.6799605522420316,
                -1.780124752489581
            ]
        },
        {
            "positions": [
                -0.9989991491830792,
                -0.956011878294003,
                1.8761749126796963,
                0.34263000949472544,
                -0.5748846520592756,
                -1.9029410146642303
            ]
        },
        {
            "positions": [
                -1.0086724029777105,
                -0.9725739648827283,
                1.890263648247334,
                0.2242203514527441,
                -0.46980875187651927,
                -2.0257572768388803
            ]
        },
        {
            "positions": [
                -1.0183456567723421,
                -0.9891360514714536,
                1.9043523838149718,
                0.10581069341076255,
                -0.3647328516937629,
                -2.1485735390135297
            ]
        },
        {
            "positions": [
                -1.0280189105669737,
                -1.0056981380601788,
                1.9184411193826094,
                -0.012598964631219012,
                -0.25965695151100676,
                -2.271389801188179
            ]
        },
        {
            "positions": [
                -1.0376921643616053,
                -1.022260224648904,
                1.9325298549502472,
                -0.13100862267320013,
                -0.1545810513282504,
                -2.3942060633628293
            ]
        },
        {
            "positions": [
                -1.0473654181562368,
                -1.0388223112376294,
                1.946618590517885,
                -0.24941828071518168,
                -0.04950515114549381,
                -2.517022325537479
            ]
        },
        {
            "positions": [
                -1.0570386719508682,
                -1.0553843978263546,
                1.9607073260855226,
                -0.36782793875716324,
                0.055570749037262335,
                -2.6398385877121284
            ]
        },
        {
            "positions": [
                -1.0667119257454998,
                -1.07194648441508,
                1.9747960616531604,
                -0.4862375967991448,
                0.16064664922001848,
                -2.7626548498867782
            ]
        },
        {
            "positions": [
                -1.0763851795401314,
                -1.0885085710038052,
                1.9888847972207981,
                -0.6046472548411264,
                0.26572254940277507,
                -2.885471112061428
            ]
        },
        {
            "positions": [
                -1.0860584333347627,
                -1.1050706575925304,
                2.002973532788436,
                -0.7230569128831075,
                0.37079844958553076,
                -3.0082873742360774
            ]
        },
        {
            "positions": [
                -1.0957316871293943,
                -1.1216327441812557,
                2.0170622683560735,
                -0.8414665709250888,
                0.47587434976828746,
                -3.131103636410727
            ]
        }
    ]
}