{
    "goal": {
        "global_pose": {
            "orientation": {
                "w": 0.7047431468963623,
                "x": -0.7094548344612122,
                "y": 0.0024358443915843964,
                "z": -0.0022348060738295317
            },
            "position": {
                "x": 0.6094750761985779,
                "y": 0.3671506643295288,
                "z": 0.19426114857196808
            }
        },
        "name": "move_to_magneteinheit_A"
    },
    "id": "ProjEST_move_to_magneteinheit_A_8",
    "joint_names": [
        "shoulder_pan_joint",
        "shoulder_lift_joint",
        "elbow_joint",
        "wrist_1_joint",
        "wrist_2_joint",
        "wrist_3_joint"
    ],
    "metrics": {
        "cart_traj_len": 1.593037402918257,
        "distance_elbow_joint": 3.5545928302580663,
        "distance_shoulder_lift_joint": 1.1502372695485814,
        "distance_shoulder_pan_joint": 1.2411901951087012,
        "distance_wrist_1_joint": 3.958513739592831,
        "distance_wrist_2_joint": 1.7012885628952878,
        "distance_wrist_3_joint": 5.154461262397685,
        "smoothness": 3.63345718888407e-16,
        "time": 0.055750025,
        "traj_len": 4.093932566591828,
        "weighted_distance": 5.7209272576291905
    },
    "planner": "ProjEST",
    "start": {
        "state": {
            "elbow_joint": -1.5739458827952972,
            "shoulder_lift_joint": 0.006533473998580023,
            "shoulder_pan_joint": -1.1188671628667068,
            "wrist_1_joint": 3.138208179676308,
            "wrist_2_joint": -1.5706037135050406,
            "wrist_3_joint": -2.0226958329764257
        }
    },
    "waypoints": [
        {
            "positions": [
                -1.1188671628667068,
                0.006533473998580023,
                -1.5739458827952972,
                3.138208179676308,
                -1.5706037135050406,
                -2.0226958329764257
            ]
        },
        {
            "positions": [
                -1.0900022746083649,
                -0.020216229944410247,
                -1.491280933254412,
                3.0461497206160097,
                -1.5310388632051501,
                -1.9028246408276424
            ]
        },
        {
            "positions": [
                -1.061137386350023,
                -0.046965933887400516,
                -1.4086159837135268,
                2.9540912615557113,
                -1.4914740129052597,
                -1.782953448678859
            ]
        },
        {
            "positions": [
                -1.032272498091681,
                -0.07371563783039078,
                -1.3259510341726415,
                2.862032802495413,
                -1.4519091626053693,
                -1.6630822565300756
            ]
        },
        {
            "positions": [
                -1.0034076098333393,
                -0.10046534177338105,
                -1.2432860846317562,
                2.7699743434351145,
                -1.4123443123054789,
                -1.5432110643812922
            ]
        },
        {
            "positions": [
                -0.9745427215749974,
                -0.12721504571637132,
                -1.1606211350908708,
                2.677915884374816,
                -1.3727794620055884,
                -1.4233398722325088
            ]
        },
        {
            "positions": [
                -0.9456778333166556,
                -0.15396474965936158,
                -1.0779561855499857,
                2.5858574253145177,
                -1.333214611705698,
                -1.3034686800837254
            ]
        },
        {
            "positions": [
                -0.9168129450583136,
                -0.18071445360235186,
                -0.9952912360091004,
                2.4937989662542193,
                -1.2936497614058076,
                -1.183597487934942
            ]
        },
        {
            "positions": [
                -0.8879480567999718,
                -0.20746415754534211,
                -0.9126262864682152,
                2.401740507193921,
                -1.2540849111059171,
                -1.0637262957861586
            ]
        },
        {
            "positions": [
                -0.8590831685416298,
                -0.2342138614883324,
                -0.8299613369273299,
                2.3096820481336224,
                -1.2145200608060267,
                -0.9438551036373752
            ]
        },
        {
            "positions": [
                -0.830218280283288,
                -0.2609635654313227,
                -0.7472963873864447,
                2.217623589073324,
                -1.1749552105061365,
                -0.8239839114885921
            ]
        },
        {
            "positions": [
                -0.801353392024946,
                -0.28771326937431296,
                -0.6646314378455593,
                2.125565130013026,
                -1.135390360206246,
                -0.7041127193398085
            ]
        },
        {
            "positions": [
                -0.7724885037666042,
                -0.3144629733173032,
                -0.5819664883046741,
                2.033506670952727,
                -1.0958255099063556,
                -0.5842415271910253
            ]
        },
        {
            "positions": [
                -0.7436236155082623,
                -0.3412126772602935,
                -0.4993015387637889,
                1.9414482118924292,
                -1.0562606596064652,
                -0.4643703350422419
            ]
        },
        {
            "positions": [
                -0.7147587272499204,
                -0.3679623812032838,
                -0.4166365892229036,
                1.8493897528321306,
                -1.0166958093065748,
                -0.3444991428934583
            ]
        },
        {
            "positions": [
                -0.6858938389915785,
                -0.39471208514627404,
                -0.33397163968201826,
                1.7573312937718322,
                -0.9771309590066843,
                -0.2246279507446749
            ]
        },
        {
            "positions": [
                -0.6570289507332366,
                -0.4214617890892643,
                -0.25130669014113316,
                1.665272834711534,
                -0.9375661087067939,
                -0.10475675859589173
            ]
        },
        {
            "positions": [
                -0.6281640624748948,
                -0.44821149303225455,
                -0.16864174060024784,
                1.5732143756512356,
                -0.8980012584069036,
                0.015114433552891438
            ]
        },
        {
            "positions": [
                -0.5992991742165528,
                -0.47496119697524486,
                -0.08597679105936251,
                1.481155916590937,
                -0.858436408107013,
                0.13498562570167527
            ]
        },
        {
            "positions": [
                -0.570434285958211,
                -0.5017109009182351,
                -0.0033118415184771877,
                1.3890974575306387,
                -0.8188715578071227,
                0.25485681785045866
            ]
        },
        {
            "positions": [
                -0.5415693976998691,
                -0.5284606048612254,
                0.07935310802240791,
                1.2970389984703403,
                -0.7793067075072323,
                0.3747280099992416
            ]
        },
        {
            "positions": [
                -0.5127045094415272,
                -0.5552103088042156,
                0.16201805756329324,
                1.204980539410042,
                -0.7397418572073419,
                0.494599202148025
            ]
        },
        {
            "positions": [
                -0.48383962118318524,
                -0.5819600127472059,
                0.24468300710417856,
                1.1129220803497435,
                -0.7001770069074514,
                0.6144703942968088
            ]
        },
        {
            "positions": [
                -0.4549747329248435,
                -0.6087097166901961,
                0.32734795664506366,
                1.0208636212894455,
                -0.6606121566075611,
                0.7343415864455918
            ]
        },
        {
            "positions": [
                -0.4261098446665015,
                -0.6354594206331864,
                0.410012906185949,
                0.9288051622291467,
                -0.6210473063076706,
                0.8542127785943752
            ]
        },
        {
            "positions": [
                -0.3972449564081596,
                -0.6622091245761768,
                0.49267785572683453,
                0.8367467031688482,
                -0.5814824560077801,
                0.974083970743159
            ]
        },
        {
            "positions": [
                -0.36838006814981783,
                -0.6889588285191669,
                0.5753428052677194,
                0.7446882441085503,
                -0.5419176057078898,
                1.093955162891942
            ]
        },
        {
            "positions": [
                -0.33951517989147584,
                -0.7157085324621573,
                0.6580077548086047,
                0.6526297850482514,
                -0.5023527554079994,
                1.2138263550407253
            ]
        },
        {
            "positions": [
                -0.31065029163313396,
                -0.7424582364051475,
                0.7406727043494901,
                0.560571325987953,
                -0.46278790510810897,
                1.3336975471895092
            ]
        },
        {
            "positions": [
                -0.2817854033747921,
                -0.7692079403481378,
                0.8233376538903754,
                0.46851286692765504,
                -0.42322305480821854,
                1.4535687393382921
            ]
        },
        {
            "positions": [
                -0.2529205151164502,
                -0.795957644291128,
                0.9060026034312607,
                0.3764544078673562,
                -0.3836582045083281,
                1.573439931487076
            ]
        },
        {
            "positions": [
                -0.22405562685810831,
                -0.8227073482341183,
                0.9886675529721456,
                0.2843959488070582,
                -0.3440933542084379,
                1.693311123635859
            ]
        },
        {
            "positions": [
                -0.19519073859976643,
                -0.8494570521771085,
                1.071332502513031,
                0.1923374897467598,
                -0.30452850390854724,
                1.8131823157846423
            ]
        },
        {
            "positions": [
                -0.16632585034142444,
                -0.8762067561200989,
                1.1539974520539167,
                0.10027903068646093,
                -0.2649636536086568,
                1.9330535079334261
            ]
        },
        {
            "positions": [
                -0.13746096208308267,
                -0.902956460063089,
                1.2366624015948016,
                0.008220571626162965,
                -0.2253988033087666,
                2.0529247000822086
            ]
        },
        {
            "positions": [
                -0.10859607382474068,
                -0.9297061640060794,
                1.3193273511356869,
                -0.08383788743413545,
                -0.18583395300887595,
                2.1727958922309925
            ]
        },
        {
            "positions": [
                -0.07973118556639869,
                -0.9564558679490697,
                1.4019923006765722,
                -0.1758963464944343,
                -0.14626910270898552,
                2.2926670843797763
            ]
        },
        {
            "positions": [
                -0.05086629730805692,
                -0.9832055718920599,
                1.4846572502174575,
                -0.2679548055547323,
                -0.10670425240909531,
                2.4125382765285592
            ]
        },
        {
            "positions": [
                -0.022001409049715148,
                -1.0099552758350503,
                1.5673221997583429,
                -0.3600132646150307,
                -0.06713940210920488,
                2.532409468677343
            ]
        },
        {
            "positions": [
                0.006863479208626844,
                -1.0367049797780403,
                1.6499871492992277,
                -0.4520717236753291,
                -0.02757455180931445,
                2.652280660826126
            ]
        },
        {
            "positions": [
                0.035728367466968614,
                -1.0634546837210308,
                1.732652098840113,
                -0.5441301827356275,
                0.011990298490575979,
                2.772151852974909
            ]
        },
        {
            "positions": [
                0.0645932557253106,
                -1.090204387664021,
                1.8153170483809988,
                -0.6361886417959259,
                0.05155514879046641,
                2.892023045123693
            ]
        },
        {
            "positions": [
                0.09345814398365238,
                -1.1169540916070113,
                1.8979819979218837,
                -0.7282471008562243,
                0.09111999909035684,
                3.0118942372724757
            ]
        },
        {
            "positions": [
                0.12232303224199426,
                -1.1437037955500016,
                1.9806469474627688,
                -0.8203055599165227,
                0.13068484939024724,
                3.13176542942126
            ]
        }
    ]
}