{
    "goal": {
        "global_pose": {
            "orientation": {
                "w": 0.7047431468963623,
                "x": -0.7094548344612122,
                "y": 0.0024358443915843964,
                "z": -0.0022348060738295317
            },
            "position": {
                "x": 0.6094750761985779,
                "y": 0.3671506643295288,
                "z": 0.19426114857196808
            }
        },
        "name": "move_to_magneteinheit_A"
    },
    "id": "ProjEST_move_to_magneteinheit_A_73",
    "joint_names": [
        "shoulder_pan_joint",
        "shoulder_lift_joint",
        "elbow_joint",
        "wrist_1_joint",
        "wrist_2_joint",
        "wrist_3_joint"
    ],
    "metrics": {
        "cart_traj_len": 1.9772567151547578,
        "distance_elbow_joint": 3.5920081843085523,
        "distance_shoulder_lift_joint": 0.7937753319824092,
        "distance_shoulder_pan_joint": 1.2404563680010054,
        "distance_wrist_1_joint": 1.1308994096830847,
        "distance_wrist_2_joint": 1.441454788209476,
        "distance_wrist_3_joint": 1.9289541067379292,
        "smoothness": 5.592234510853675e-16,
        "time": 0.075521357,
        "traj_len": 3.182380899408878,
        "weighted_distance": 4.069128973169918
    },
    "planner": "ProjEST",
    "start": {
        "state": {
            "elbow_joint": -1.5739458827952972,
            "shoulder_lift_joint": 0.006533473998580023,
            "shoulder_pan_joint": -1.1188671628667068,
            "wrist_1_joint": 3.138208179676308,
            "wrist_2_joint": -1.5706037135050406,
            "wrist_3_joint": -2.0226958329764257
        }
    },
    "waypoints": [
        {
            "positions": [
                -1.1188671628667068,
                0.006533473998580023,
                -1.5739458827952972,
                3.138208179676308,
                -1.5706037135050406,
                -2.0226958329764257
            ]
        },
        {
            "positions": [
                -1.0711573025589758,
                -0.023996346462281878,
                -1.4357917218603529,
                3.094712048534651,
                -1.5151631447277532,
                -1.9485052904095823
            ]
        },
        {
            "positions": [
                -1.023447442251245,
                -0.05452616692314378,
                -1.2976375609254087,
                3.051215917392994,
                -1.4597225759504655,
                -1.8743147478427389
            ]
        },
        {
            "positions": [
                -0.9757375819435139,
                -0.08505598738400567,
                -1.1594833999904641,
                3.0077197862513367,
                -1.4042820071731779,
                -1.8001242052758955
            ]
        },
        {
            "positions": [
                -0.928027721635783,
                -0.11558580784486758,
                -1.02132923905552,
                2.96422365510968,
                -1.3488414383958904,
                -1.725933662709052
            ]
        },
        {
            "positions": [
                -0.8803178613280519,
                -0.14611562830572947,
                -0.8831750781205756,
                2.9207275239680226,
                -1.293400869618603,
                -1.6517431201422086
            ]
        },
        {
            "positions": [
                -0.832608001020321,
                -0.17664544876659136,
                -0.7450209171856312,
                2.8772313928263653,
                -1.2379603008413154,
                -1.5775525775753652
            ]
        },
        {
            "positions": [
                -0.78489814071259,
                -0.20717526922745325,
                -0.6068667562506871,
                2.8337352616847085,
                -1.1825197320640277,
                -1.5033620350085217
            ]
        },
        {
            "positions": [
                -0.7371882804048591,
                -0.23770508968831516,
                -0.4687125953157427,
                2.790239130543051,
                -1.1270791632867403,
                -1.4291714924416783
            ]
        },
        {
            "positions": [
                -0.689478420097128,
                -0.26823491014917705,
                -0.33055843438079835,
                2.7467429994013943,
                -1.0716385945094529,
                -1.3549809498748349
            ]
        },
        {
            "positions": [
                -0.641768559789397,
                -0.298764730610039,
                -0.19240427344585398,
                2.703246868259737,
                -1.0161980257321652,
                -1.2807904073079914
            ]
        },
        {
            "positions": [
                -0.5940586994816661,
                -0.3292945510709009,
                -0.05425011251090983,
                2.65975073711808,
                -0.9607574569548777,
                -1.206599864741148
            ]
        },
        {
            "positions": [
                -0.5463488391739351,
                -0.3598243715317628,
                0.08390404842403476,
                2.616254605976423,
                -0.9053168881775902,
                -1.1324093221743046
            ]
        },
        {
            "positions": [
                -0.4986389788662041,
                -0.39035419199262467,
                0.2220582093589789,
                2.5727584748347656,
                -0.8498763194003026,
                -1.0582187796074611
            ]
        },
        {
            "positions": [
                -0.4509291185584732,
                -0.42088401245348656,
                0.36021237029392306,
                2.5292623436931088,
                -0.7944357506230151,
                -0.9840282370406177
            ]
        },
        {
            "positions": [
                -0.40321925825074223,
                -0.45141383291434845,
                0.4983665312288672,
                2.485766212551452,
                -0.7389951818457277,
                -0.9098376944737743
            ]
        },
        {
            "positions": [
                -0.3555093979430112,
                -0.4819436533752104,
                0.6365206921638118,
                2.4422700814097946,
                -0.68355461306844,
                -0.8356471519069308
            ]
        },
        {
            "positions": [
                -0.30779953763528023,
                -0.5124734738360722,
                0.7746748530987564,
                2.3987739502681373,
                -0.6281140442911525,
                -0.7614566093400874
            ]
        },
        {
            "positions": [
                -0.2600896773275493,
                -0.5430032942969341,
                0.9128290140337005,
                2.3552778191264805,
                -0.5726734755138649,
                -0.687266066773244
            ]
        },
        {
            "positions": [
                -0.21237981701981834,
                -0.573533114757796,
                1.0509831749686447,
                2.311781687984823,
                -0.5172329067365775,
                -0.6130755242064005
            ]
        },
        {
            "positions": [
                -0.16466995671208717,
                -0.604062935218658,
                1.1891373359035893,
                2.268285556843166,
                -0.46179233795928987,
                -0.5388849816395571
            ]
        },
        {
            "positions": [
                -0.11696009640435623,
                -0.6345927556795198,
                1.3272914968385334,
                2.224789425701509,
                -0.4063517691820022,
                -0.4646944390727137
            ]
        },
        {
            "positions": [
                -0.0692502360966254,
                -0.6651225761403817,
                1.4654456577734776,
                2.1812932945598518,
                -0.3509112004047148,
                -0.39050389650587025
            ]
        },
        {
            "positions": [
                -0.02154037578889434,
                -0.6956523966012436,
                1.6035998187084222,
                2.137797163418195,
                -0.29547063162742737,
                -0.3163133539390268
            ]
        },
        {
            "positions": [
                0.026169484518836716,
                -0.7261822170621055,
                1.7417539796433668,
                2.0943010322765376,
                -0.24003006285013972,
                -0.2421228113721834
            ]
        },
        {
            "positions": [
                0.07387934482656755,
                -0.7567120375229675,
                1.879908140578311,
                2.050804901134881,
                -0.18458949407285208,
                -0.16793226880533996
            ]
        },
        {
            "positions": [
                0.1215892051342987,
                -0.7872418579838293,
                2.018062301513255,
                2.0073087699932235,
                -0.12914892529556463,
                -0.09374172623849655
            ]
        }
    ]
}