{
    "goal": {
        "global_pose": {
            "orientation": {
                "w": -0.4816463035849501,
                "x": 0.5182115481033762,
                "y": 0.4908360881923453,
                "z": -0.5084816262002911
            },
            "position": {
                "x": -0.8240239810943604,
                "y": 0.19912469901144506,
                "z": 0.16403168439865112
            }
        },
        "name": "move_to_storage_D"
    },
    "id": "ProjEST_move_to_storage_D_18",
    "joint_names": [
        "shoulder_pan_joint",
        "shoulder_lift_joint",
        "elbow_joint",
        "wrist_1_joint",
        "wrist_2_joint",
        "wrist_3_joint"
    ],
    "metrics": {
        "cart_traj_len": 4.136401829757691,
        "distance_elbow_joint": 4.215177689312768,
        "distance_shoulder_lift_joint": 1.3238201089507993,
        "distance_shoulder_pan_joint": 2.8153543003276376,
        "distance_wrist_1_joint": 2.559939867787088,
        "distance_wrist_2_joint": 1.2817308116556196,
        "distance_wrist_3_joint": 3.1490509593138056,
        "smoothness": 0.08236421249320529,
        "time": 0.09803306,
        "traj_len": 3.917278868978786,
        "weighted_distance": 5.04825180982665
    },
    "planner": "ProjEST",
    "start": {
        "state": {
            "elbow_joint": -2.384821990628643,
            "shoulder_lift_joint": -2.278805467437664,
            "shoulder_pan_joint": -0.18546946439364564,
            "wrist_1_joint": 1.4845938187801415,
            "wrist_2_joint": 0.178987772454074,
            "wrist_3_joint": 0.03710569632802521
        }
    },
    "waypoints": [
        {
            "positions": [
                -0.18546946439364564,
                -2.278805467437664,
                -2.384821990628643,
                1.4845938187801415,
                0.178987772454074,
                0.03710569632802521
            ]
        },
        {
            "positions": [
                -0.12107325449499565,
                -2.293880121461057,
                -2.183775914564409,
                1.4212339624947063,
                0.17874542263671514,
                0.04395762765641438
            ]
        },
        {
            "positions": [
                -0.05667704459634564,
                -2.30895477548445,
                -1.9827298385001748,
                1.3578741062092712,
                0.1785030728193563,
                0.050809558984803556
            ]
        },
        {
            "positions": [
                0.03202251084249604,
                -2.2767207837523564,
                -1.8917656188825451,
                1.248477383812579,
                0.16909477959285096,
                -0.008441237258630614
            ]
        },
        {
            "positions": [
                0.12072206628133772,
                -2.2444867920202634,
                -1.8008013992649157,
                1.1390806614158868,
                0.15968648636634564,
                -0.06769203350206479
            ]
        },
        {
            "positions": [
                0.20942162172017942,
                -2.21225280028817,
                -1.709837179647286,
                1.0296839390191945,
                0.1502781931398403,
                -0.12694282974549898
            ]
        },
        {
            "positions": [
                0.2981211771590211,
                -2.1800188085560768,
                -1.6188729600296563,
                0.9202872166225022,
                0.14086989991333498,
                -0.18619362598893313
            ]
        },
        {
            "positions": [
                0.38682073259786276,
                -2.1477848168239833,
                -1.5279087404120266,
                0.81089049422581,
                0.13146160668682966,
                -0.2454444222323673
            ]
        },
        {
            "positions": [
                0.4755202880367045,
                -2.1155508250918897,
                -1.436944520794397,
                0.7014937718291178,
                0.12205331346032433,
                -0.3046952184758015
            ]
        },
        {
            "positions": [
                0.5642198434755462,
                -2.0833168333597967,
                -1.3459803011767675,
                0.5920970494324256,
                0.112645020233819,
                -0.36394601471923566
            ]
        },
        {
            "positions": [
                0.6529193989143879,
                -2.051082841627703,
                -1.2550160815591378,
                0.4827003270357333,
                0.10323672700731368,
                -0.4231968109626698
            ]
        },
        {
            "positions": [
                0.7416189543532296,
                -2.01884884989561,
                -1.1640518619415081,
                0.3733036046390411,
                0.09382843378080835,
                -0.482447607206104
            ]
        },
        {
            "positions": [
                0.8303185097920712,
                -1.9866148581635166,
                -1.0730876423238787,
                0.26390688224234893,
                0.08442014055430302,
                -0.5416984034495381
            ]
        },
        {
            "positions": [
                0.9190180652309131,
                -1.9543808664314233,
                -0.9821234227062487,
                0.15451015984565641,
                0.0750118473277977,
                -0.6009491996929724
            ]
        },
        {
            "positions": [
                1.0077176206697547,
                -1.92214687469933,
                -0.8911592030886193,
                0.045113437448964344,
                0.06560355410129237,
                -0.6601999959364065
            ]
        },
        {
            "positions": [
                1.0964171761085963,
                -1.8899128829672365,
                -0.8001949834709896,
                -0.06428328494772795,
                0.056195260874787045,
                -0.7194507921798408
            ]
        },
        {
            "positions": [
                1.185116731547438,
                -1.8576788912351434,
                -0.7092307638533601,
                -0.17368000734442002,
                0.04678696764828172,
                -0.7787015884232749
            ]
        },
        {
            "positions": [
                1.27381628698628,
                -1.82544489950305,
                -0.6182665442357302,
                -0.28307672974111253,
                0.03737867442177639,
                -0.8379523846667091
            ]
        },
        {
            "positions": [
                1.3625158424251214,
                -1.7932109077709566,
                -0.5273023246181008,
                -0.3924734521378046,
                0.027970381195271066,
                -0.8972031809101432
            ]
        },
        {
            "positions": [
                1.4512153978639633,
                -1.7609769160388633,
                -0.4363381050004711,
                -0.5018701745344969,
                0.01856208796876574,
                -0.9564539771535775
            ]
        },
        {
            "positions": [
                1.5399149533028047,
                -1.7287429243067698,
                -0.34537388538284164,
                -0.611266896931189,
                0.009153794742260413,
                -1.0157047733970115
            ]
        },
        {
            "positions": [
                1.6286145087416466,
                -1.6965089325746767,
                -0.25440966576521173,
                -0.7206636193278813,
                -0.00025449848424491384,
                -1.0749555696404456
            ]
        },
        {
            "positions": [
                1.717314064180488,
                -1.6642749408425832,
                -0.16344544614758227,
                -0.8300603417245733,
                -0.00966279171075024,
                -1.1342063658838797
            ]
        },
        {
            "positions": [
                1.80601361961933,
                -1.63204094911049,
                -0.07248122652995248,
                -0.9394570641212658,
                -0.019071084937255567,
                -1.193457162127314
            ]
        },
        {
            "positions": [
                1.8544766323437218,
                -1.5957611270793104,
                0.03945035730616972,
                -0.9314635944221081,
                0.04467432413711443,
                -1.3046971842181911
            ]
        },
        {
            "positions": [
                1.9029396450681135,
                -1.5594813050481307,
                0.15138194114229192,
                -0.9234701247229504,
                0.10841973321148443,
                -1.415937206309068
            ]
        },
        {
            "positions": [
                1.9514026577925054,
                -1.5232014830169511,
                0.26331352497841415,
                -0.9154766550237927,
                0.17216514228585447,
                -1.5271772283999452
            ]
        },
        {
            "positions": [
                1.9998656705168973,
                -1.4869216609857716,
                0.3752451088145363,
                -0.907483185324635,
                0.23591055136022443,
                -1.6384172504908223
            ]
        },
        {
            "positions": [
                2.048328683241289,
                -1.4506418389545919,
                0.48717669265065855,
                -0.8994897156254774,
                0.29965596043459447,
                -1.7496572725816995
            ]
        },
        {
            "positions": [
                2.096791695965681,
                -1.4143620169234123,
                0.5991082764867808,
                -0.8914962459263197,
                0.3634013695089645,
                -1.8608972946725766
            ]
        },
        {
            "positions": [
                2.145254708690073,
                -1.3780821948922326,
                0.7110398603229029,
                -0.883502776227162,
                0.42714677858333444,
                -1.9721373167634535
            ]
        },
        {
            "positions": [
                2.1937177214144645,
                -1.341802372861053,
                0.8229714441590251,
                -0.8755093065280043,
                0.4908921876577044,
                -2.0833773388543304
            ]
        },
        {
            "positions": [
                2.2421807341388567,
                -1.3055225508298736,
                0.9349030279951475,
                -0.8675158368288466,
                0.5546375967320745,
                -2.1946173609452075
            ]
        },
        {
            "positions": [
                2.2906437468632483,
                -1.269242728798694,
                1.0468346118312697,
                -0.8595223671296889,
                0.6183830058064446,
                -2.3058573830360847
            ]
        },
        {
            "positions": [
                2.3391067595876405,
                -1.2329629067675143,
                1.158766195667392,
                -0.8515288974305312,
                0.6821284148808144,
                -2.417097405126962
            ]
        },
        {
            "positions": [
                2.387569772312032,
                -1.1966830847363348,
                1.270697779503514,
                -0.8435354277313735,
                0.7458738239551845,
                -2.528337427217839
            ]
        },
        {
            "positions": [
                2.436032785036424,
                -1.160403262705155,
                1.3826293633396363,
                -0.8355419580322159,
                0.8096192330295544,
                -2.6395774493087156
            ]
        },
        {
            "positions": [
                2.484495797760816,
                -1.1241234406739755,
                1.4945609471757582,
                -0.8275484883330582,
                0.8733646421039245,
                -2.7508174713995928
            ]
        },
        {
            "positions": [
                2.5329588104852077,
                -1.087843618642796,
                1.6064925310118805,
                -0.8195550186339005,
                0.9371100511782944,
                -2.86205749349047
            ]
        },
        {
            "positions": [
                2.5814218232096,
                -1.0515637966116165,
                1.7184241148480028,
                -0.8115615489347427,
                1.0008554602526645,
                -2.973297515581347
            ]
        },
        {
            "positions": [
                2.6298848359339915,
                -1.0152839745804367,
                1.830355698684125,
                -0.803568079235585,
                1.0646008693270346,
                -3.084537537672224
            ]
        }
    ]
}