{
    "goal": {
        "global_pose": {
            "orientation": {
                "w": 0.5084816217422485,
                "x": -0.49083608388900757,
                "y": 0.5182115435600281,
                "z": -0.4816462993621826
            },
            "position": {
                "x": 0.5540239810943604,
                "y": 0.030875300988554955,
                "z": 0.16403168439865112
            }
        },
        "name": "move_to_storage_A"
    },
    "id": "ProjEST_move_to_storage_A_68",
    "joint_names": [
        "shoulder_pan_joint",
        "shoulder_lift_joint",
        "elbow_joint",
        "wrist_1_joint",
        "wrist_2_joint",
        "wrist_3_joint"
    ],
    "metrics": {
        "cart_traj_len": 0.3530170686848067,
        "distance_elbow_joint": 0.45194479064293236,
        "distance_shoulder_lift_joint": 0.23513779240018517,
        "distance_shoulder_pan_joint": 0.4598980763491375,
        "distance_wrist_1_joint": 0.24933665973008656,
        "distance_wrist_2_joint": 1.1067721196079447,
        "distance_wrist_3_joint": 0.102036615113136,
        "smoothness": 6.661338165333112e-16,
        "time": 0.043791876,
        "traj_len": 1.6140402887918945,
        "weighted_distance": 2.0409086367125124
    },
    "planner": "ProjEST",
    "start": {
        "state": {
            "elbow_joint": 1.971548880431181,
            "shoulder_lift_joint": -1.1394869514688781,
            "shoulder_pan_joint": 0.12281150262730567,
            "wrist_1_joint": -0.7804693444481463,
            "wrist_2_joint": 0.12958644648617612,
            "wrist_3_joint": 3.0906942077768043
        }
    },
    "waypoints": [
        {
            "positions": [
                0.12281150262730567,
                -1.1394869514688781,
                1.971548880431181,
                -0.7804693444481463,
                0.12958644648617612,
                3.0906942077768043
            ]
        },
        {
            "positions": [
                0.05711177743457174,
                -1.1730780646689045,
                2.0361124219516,
                -0.8160888672667301,
                0.28769674928731104,
                3.105270867078681
            ]
        },
        {
            "positions": [
                -0.008587947758162184,
                -1.2066691778689311,
                2.100675963472019,
                -0.8517083900853138,
                0.445807052088446,
                3.1198475263805574
            ]
        },
        {
            "positions": [
                -0.07428767295089611,
                -1.2402602910689575,
                2.165239504992438,
                -0.8873279129038977,
                0.603917354889581,
                3.134424185682434
            ]
        },
        {
            "positions": [
                -0.13998739814363004,
                -1.273851404268984,
                2.2298030465128567,
                -0.9229474357224815,
                0.7620276576907159,
                3.1490008449843105
            ]
        },
        {
            "positions": [
                -0.20568712333636396,
                -1.3074425174690103,
                2.2943665880332755,
                -0.9585669585410652,
                0.9201379604918509,
                3.163577504286187
            ]
        },
        {
            "positions": [
                -0.2713868485290979,
                -1.341033630669037,
                2.3589301295536944,
                -0.994186481359649,
                1.078248263292986,
                3.1781541635880637
            ]
        },
        {
            "positions": [
                -0.3370865737218318,
                -1.3746247438690633,
                2.4234936710741133,
                -1.0298060041782329,
                1.236358566094121,
                3.1927308228899403
            ]
        }
    ]
}