{
    "goal": {
        "global_pose": {
            "orientation": {
                "w": 0.7047431493862688,
                "x": -0.7094548369677653,
                "y": 0.0024358444001904,
                "z": -0.0022348060817251984
            },
            "position": {
                "x": -0.39052492380142206,
                "y": 0.3671506643295288,
                "z": 0.19426114857196808
            }
        },
        "name": "move_to_magneteinheit_D"
    },
    "id": "ProjEST_move_to_magneteinheit_D_140",
    "joint_names": [
        "shoulder_pan_joint",
        "shoulder_lift_joint",
        "elbow_joint",
        "wrist_1_joint",
        "wrist_2_joint",
        "wrist_3_joint"
    ],
    "metrics": {
        "cart_traj_len": 4.485888593419964,
        "distance_elbow_joint": 5.532662852532944,
        "distance_shoulder_lift_joint": 1.627943656247978,
        "distance_shoulder_pan_joint": 3.2780872833506347,
        "distance_wrist_1_joint": 1.835789255794113,
        "distance_wrist_2_joint": 1.3282122458178685,
        "distance_wrist_3_joint": 3.72621389921235,
        "smoothness": 0.6422328907429266,
        "time": 0.153265021,
        "traj_len": 4.162800642951316,
        "weighted_distance": 5.286335071956048
    },
    "planner": "ProjEST",
    "start": {
        "state": {
            "elbow_joint": 0.7495348899011911,
            "shoulder_lift_joint": -0.6476975780737668,
            "shoulder_pan_joint": -2.711696901376276,
            "wrist_1_joint": -0.0750647808097303,
            "wrist_2_joint": 0.43296659715458535,
            "wrist_3_joint": 3.1361499051832418
        }
    },
    "waypoints": [
        {
            "positions": [
                -2.711696901376276,
                -0.6476975780737668,
                0.7495348899011911,
                -0.0750647808097303,
                0.43296659715458535,
                3.1361499051832418
            ]
        },
        {
            "positions": [
                -2.7059394058094473,
                -0.6814879201421298,
                0.828339460192504,
                -0.057494159493454336,
                0.3940998289406548,
                2.937153063033217
            ]
        },
        {
            "positions": [
                -2.7001819102426183,
                -0.7152782622104928,
                0.9071440304838169,
                -0.03992353817717838,
                0.3552330607267243,
                2.7381562208831927
            ]
        },
        {
            "positions": [
                -2.6944244146757894,
                -0.7490686042788559,
                0.9859486007751298,
                -0.02235291686090242,
                0.3163662925127937,
                2.539159378733168
            ]
        },
        {
            "positions": [
                -2.688666919108961,
                -0.7828589463472189,
                1.0647531710664426,
                -0.004782295544626461,
                0.27749952429886315,
                2.3401625365831435
            ]
        },
        {
            "positions": [
                -2.682909423542132,
                -0.8166492884155818,
                1.1435577413577556,
                0.012788325771649497,
                0.23863275608493262,
                2.141165694433119
            ]
        },
        {
            "positions": [
                -2.677151927975303,
                -0.8504396304839449,
                1.2223623116490685,
                0.030358947087925456,
                0.19976598787100208,
                1.9421688522830942
            ]
        },
        {
            "positions": [
                -2.671394432408474,
                -0.884229972552308,
                1.3011668819403814,
                0.04792956840420143,
                0.16089921965707155,
                1.7431720101330694
            ]
        },
        {
            "positions": [
                -2.6656369368416453,
                -0.9180203146206709,
                1.3799714522316942,
                0.06550018972047737,
                0.12203245144314101,
                1.544175167983045
            ]
        },
        {
            "positions": [
                -2.659879441274817,
                -0.9518106566890339,
                1.4587760225230073,
                0.08307081103675333,
                0.08316568322921042,
                1.3451783258330203
            ]
        },
        {
            "positions": [
                -2.654121945707988,
                -0.9856009987573969,
                1.53758059281432,
                0.10064143235302929,
                0.04429891501527988,
                1.1461814836829958
            ]
        },
        {
            "positions": [
                -2.648364450141159,
                -1.01939134082576,
                1.616385163105633,
                0.11821205366930525,
                0.005432146801349347,
                0.9471846415329712
            ]
        },
        {
            "positions": [
                -2.64260695457433,
                -1.053181682894123,
                1.695189733396946,
                0.13578267498558122,
                -0.03343462141258121,
                0.7481877993829468
            ]
        },
        {
            "positions": [
                -2.5769942180547014,
                -1.0983929629522924,
                1.7307588345244376,
                0.1164382634274453,
                -0.048347943902277396,
                0.611640193560778
            ]
        },
        {
            "positions": [
                -2.5113814815350732,
                -1.1436042430104616,
                1.7663279356519295,
                0.09709385186930938,
                -0.06326126639197359,
                0.4750925877386094
            ]
        },
        {
            "positions": [
                -2.4457687450154446,
                -1.188815523068631,
                1.8018970367794211,
                0.07774944031117345,
                -0.07817458888166978,
                0.33854498191644067
            ]
        },
        {
            "positions": [
                -2.311811988830629,
                -1.2426606227318913,
                1.770797334315243,
                0.028786600798862874,
                -0.06450080861896954,
                0.2787375733527474
            ]
        },
        {
            "positions": [
                -2.1778552326458134,
                -1.2965057223951515,
                1.7396976318510649,
                -0.02017623871344771,
                -0.050827028356269295,
                0.21893016478905408
            ]
        },
        {
            "positions": [
                -2.0581527211713375,
                -1.3240523969920281,
                1.575266689118834,
                0.005540748856195505,
                -0.034473362097086145,
                0.24160796351098457
            ]
        },
        {
            "positions": [
                -1.938450209696862,
                -1.3515990715889046,
                1.4108357463866033,
                0.03125773642583872,
                -0.018119695837902995,
                0.26428576223291506
            ]
        },
        {
            "positions": [
                -1.8187476982223865,
                -1.3791457461857812,
                1.2464048036543725,
                0.05697472399548193,
                -0.0017660295787198452,
                0.28696356095484554
            ]
        },
        {
            "positions": [
                -1.6990451867479108,
                -1.4066924207826577,
                1.0819738609221414,
                0.08269171156512514,
                0.014587636680463305,
                0.30964135967677603
            ]
        },
        {
            "positions": [
                -1.579342675273435,
                -1.4342390953795343,
                0.9175429181899106,
                0.10840869913476836,
                0.030941302939646455,
                0.3323191583987065
            ]
        },
        {
            "positions": [
                -1.4596401637989596,
                -1.4617857699764107,
                0.7531119754576798,
                0.13412568670441158,
                0.047294969198829605,
                0.354996957120637
            ]
        },
        {
            "positions": [
                -1.3399376523244837,
                -1.4893324445732874,
                0.588681032725449,
                0.15984267427405477,
                0.06364863545801275,
                0.3776747558425675
            ]
        },
        {
            "positions": [
                -1.220235140850008,
                -1.5168791191701638,
                0.424250089993218,
                0.18555966184369801,
                0.08000230171719591,
                0.400352554564498
            ]
        },
        {
            "positions": [
                -1.1005326293755324,
                -1.5444257937670405,
                0.2598191472609874,
                0.2112766494133412,
                0.09635596797637905,
                0.42303035328642846
            ]
        },
        {
            "positions": [
                -0.9808301179010568,
                -1.5719724683639171,
                0.0953882045287564,
                0.23699363698298442,
                0.11270963423556221,
                0.44570815200835895
            ]
        },
        {
            "positions": [
                -0.8611276064265811,
                -1.5995191429607936,
                -0.0690427382034744,
                0.2627106245526276,
                0.12906330049474535,
                0.46838595073028944
            ]
        },
        {
            "positions": [
                -0.7414250949521055,
                -1.62706581755767,
                -0.2334736809357052,
                0.28842761212227086,
                0.1454169667539285,
                0.4910637494522199
            ]
        },
        {
            "positions": [
                -0.6217225834776298,
                -1.6546124921545466,
                -0.39790462366793616,
                0.31414459969191405,
                0.16177063301311165,
                0.5137415481741504
            ]
        },
        {
            "positions": [
                -0.5592617364324302,
                -1.6738518887078788,
                -0.561749629336915,
                0.3792690759504825,
                0.18226371892942908,
                0.4778027480148427
            ]
        },
        {
            "positions": [
                -0.49680088938723066,
                -1.693091285261211,
                -0.7255946350058937,
                0.44439355220905097,
                0.2027568048457465,
                0.4418639478555349
            ]
        },
        {
            "positions": [
                -0.43434004234203105,
                -1.7123306818145432,
                -0.8894396406748726,
                0.5095180284676194,
                0.22324989076206395,
                0.4059251476962271
            ]
        },
        {
            "positions": [
                -0.3718791952968315,
                -1.7315700783678751,
                -1.0532846463438514,
                0.5746425047261878,
                0.24374297667838135,
                0.3699863475369194
            ]
        },
        {
            "positions": [
                -0.30941834825163195,
                -1.7508094749212073,
                -1.21712965201283,
                0.6397669809847563,
                0.2642360625946988,
                0.33404754737761166
            ]
        },
        {
            "positions": [
                -0.24695750120643234,
                -1.7700488714745395,
                -1.380974657681809,
                0.7048914572433247,
                0.2847291485110162,
                0.2981087472183039
            ]
        },
        {
            "positions": [
                -0.18449665416123284,
                -1.7892882680278717,
                -1.5448196633507878,
                0.7700159335018931,
                0.30522223442733365,
                0.26216994705899616
            ]
        },
        {
            "positions": [
                -0.12203580711603323,
                -1.8085276645812038,
                -1.7086646690197667,
                0.8351404097604616,
                0.3257153203436511,
                0.22623114689968837
            ]
        },
        {
            "positions": [
                -0.05957496007083374,
                -1.827767061134536,
                -1.8725096746887453,
                0.9002648860190301,
                0.3462084062599685,
                0.19029234674038065
            ]
        },
        {
            "positions": [
                0.00288588697436587,
                -1.847006457687868,
                -2.036354680357724,
                0.9653893622775984,
                0.36670149217628595,
                0.15435354658107286
            ]
        },
        {
            "positions": [
                0.06534673401956548,
                -1.8662458542412002,
                -2.200199686026703,
                1.030513838536167,
                0.3871945780926034,
                0.11841474642176514
            ]
        },
        {
            "positions": [
                0.12780758106476509,
                -1.8854852507945323,
                -2.364044691695682,
                1.0956383147947353,
                0.4076876640089208,
                0.08247594626245736
            ]
        },
        {
            "positions": [
                0.19026842810996464,
                -1.9047246473478645,
                -2.5278896973646603,
                1.1607627910533038,
                0.42818074992523825,
                0.04653714610314963
            ]
        },
        {
            "positions": [
                0.10559460851338184,
                -1.9912882902234097,
                -2.4921302637944294,
                1.2238073354650851,
                0.35737973743064116,
                0.05740073967676951
            ]
        },
        {
            "positions": [
                0.02092078891679905,
                -2.077851933098955,
                -2.456370830224198,
                1.2868518798768664,
                0.2865787249360441,
                0.06826433325038939
            ]
        },
        {
            "positions": [
                -0.06375303067978372,
                -2.1644155759745,
                -2.4206113966539666,
                1.3498964242886478,
                0.21577771244144706,
                0.07912792682400925
            ]
        },
        {
            "positions": [
                -0.1484268502763665,
                -2.2509792188500453,
                -2.3848519630837357,
                1.412940968700429,
                0.14497669994684997,
                0.08999152039762913
            ]
        },
        {
            "positions": [
                -0.18585352575443123,
                -2.275641234321745,
                -2.3923282003134476,
                1.4488066475863242,
                0.17248837094316713,
                0.08646752133004676
            ]
        }
    ]
}