{
    "goal": {
        "global_pose": {
            "orientation": {
                "w": 0.7047431468963623,
                "x": -0.7094548344612122,
                "y": 0.0024358443915843964,
                "z": -0.0022348060738295317
            },
            "position": {
                "x": 0.6094750761985779,
                "y": 0.3671506643295288,
                "z": 0.19426114857196808
            }
        },
        "name": "move_to_magneteinheit_A"
    },
    "id": "ProjEST_move_to_magneteinheit_A_52",
    "joint_names": [
        "shoulder_pan_joint",
        "shoulder_lift_joint",
        "elbow_joint",
        "wrist_1_joint",
        "wrist_2_joint",
        "wrist_3_joint"
    ],
    "metrics": {
        "cart_traj_len": 1.9650584471544221,
        "distance_elbow_joint": 3.572373213292355,
        "distance_shoulder_lift_joint": 0.7863244032025322,
        "distance_shoulder_pan_joint": 1.2420586372461806,
        "distance_wrist_1_joint": 1.2018849386170745,
        "distance_wrist_2_joint": 1.4335589892110399,
        "distance_wrist_3_joint": 2.0152027498174117,
        "smoothness": 4.2764146379544185e-16,
        "time": 0.15365162300000001,
        "traj_len": 3.2017812122920883,
        "weighted_distance": 4.113058759469591
    },
    "planner": "ProjEST",
    "start": {
        "state": {
            "elbow_joint": -1.5739458827952972,
            "shoulder_lift_joint": 0.006533473998580023,
            "shoulder_pan_joint": -1.1188671628667068,
            "wrist_1_joint": 3.138208179676308,
            "wrist_2_joint": -1.5706037135050406,
            "wrist_3_joint": -2.0226958329764257
        }
    },
    "waypoints": [
        {
            "positions": [
                -1.1188671628667068,
                0.006533473998580023,
                -1.5739458827952972,
                3.138208179676308,
                -1.5706037135050406,
                -2.0226958329764257
            ]
        },
        {
            "positions": [
                -1.0710956768187767,
                -0.023709772278440448,
                -1.4365469130532835,
                3.091981835883344,
                -1.515466829304616,
                -1.9451880349065254
            ]
        },
        {
            "positions": [
                -1.0233241907708468,
                -0.05395301855546092,
                -1.29914794331127,
                3.0457554920903793,
                -1.4603299451041913,
                -1.8676802368366248
            ]
        },
        {
            "positions": [
                -0.9755527047229168,
                -0.08419626483248138,
                -1.161748973569256,
                2.999529148297415,
                -1.4051930609037668,
                -1.7901724387667244
            ]
        },
        {
            "positions": [
                -0.9277812186749868,
                -0.11443951110950186,
                -1.0243500038272426,
                2.9533028045044505,
                -1.350056176703342,
                -1.712664640696824
            ]
        },
        {
            "positions": [
                -0.8800097326270567,
                -0.1446827573865223,
                -0.8869510340852289,
                2.9070764607114863,
                -1.2949192925029176,
                -1.6351568426269234
            ]
        },
        {
            "positions": [
                -0.8322382465791267,
                -0.17492600366354277,
                -0.7495520643432152,
                2.8608501169185216,
                -1.2397824083024929,
                -1.557649044557023
            ]
        },
        {
            "positions": [
                -0.7844667605311967,
                -0.20516924994056324,
                -0.6121530946012017,
                2.8146237731255574,
                -1.1846455241020684,
                -1.4801412464871226
            ]
        },
        {
            "positions": [
                -0.7366952744832667,
                -0.23541249621758373,
                -0.474754124859188,
                2.768397429332593,
                -1.1295086399016436,
                -1.4026334484172223
            ]
        },
        {
            "positions": [
                -0.6889237884353366,
                -0.2656557424946042,
                -0.3373551551171743,
                2.7221710855396286,
                -1.0743717557012191,
                -1.3251256503473217
            ]
        },
        {
            "positions": [
                -0.6411523023874066,
                -0.2958989887716247,
                -0.19995618537516058,
                2.675944741746664,
                -1.0192348715007944,
                -1.247617852277421
            ]
        },
        {
            "positions": [
                -0.5933808163394766,
                -0.32614223504864515,
                -0.06255721563314709,
                2.6297183979536998,
                -0.9640979873003699,
                -1.170110054207521
            ]
        },
        {
            "positions": [
                -0.5456093302915466,
                -0.3563854813256656,
                0.07484175410886684,
                2.583492054160735,
                -0.9089611030999453,
                -1.0926022561376203
            ]
        },
        {
            "positions": [
                -0.49783784424361655,
                -0.3866287276026861,
                0.21224072385088033,
                2.537265710367771,
                -0.8538242188995206,
                -1.01509445806772
            ]
        },
        {
            "positions": [
                -0.4500663581956865,
                -0.41687197387970654,
                0.3496396935928938,
                2.4910393665748067,
                -0.798687334699096,
                -0.9375866599978195
            ]
        },
        {
            "positions": [
                -0.4022948721477566,
                -0.44711522015672694,
                0.4870386633349073,
                2.444813022781842,
                -0.7435504504986715,
                -0.8600788619279192
            ]
        },
        {
            "positions": [
                -0.3545233860998265,
                -0.4773584664337475,
                0.6244376330769212,
                2.3985866789888775,
                -0.6884135662982468,
                -0.7825710638580186
            ]
        },
        {
            "positions": [
                -0.30675190005189645,
                -0.5076017127107679,
                0.7618366028189352,
                2.3523603351959133,
                -0.6332766820978222,
                -0.7050632657881182
            ]
        },
        {
            "positions": [
                -0.25898041400396643,
                -0.5378449589877884,
                0.8992355725609487,
                2.306133991402949,
                -0.5781397978973977,
                -0.6275554677182178
            ]
        },
        {
            "positions": [
                -0.2112089279560364,
                -0.5680882052648087,
                1.0366345423029621,
                2.2599076476099844,
                -0.5230029136969732,
                -0.5500476696483174
            ]
        },
        {
            "positions": [
                -0.16343744190810638,
                -0.5983314515418293,
                1.174033512044976,
                2.21368130381702,
                -0.4678660294965482,
                -0.4725398715784166
            ]
        },
        {
            "positions": [
                -0.11566595586017625,
                -0.6285746978188498,
                1.3114324817869896,
                2.1674549600240556,
                -0.4127291452961237,
                -0.3950320735085162
            ]
        },
        {
            "positions": [
                -0.06789446981224634,
                -0.6588179440958702,
                1.448831451529003,
                2.1212286162310914,
                -0.3575922610956992,
                -0.31752427543861583
            ]
        },
        {
            "positions": [
                -0.020122983764316427,
                -0.6890611903728907,
                1.586230421271017,
                2.0750022724381267,
                -0.3024553768952747,
                -0.24001647736871545
            ]
        },
        {
            "positions": [
                0.027648502283613707,
                -0.7193044366499112,
                1.723629391013031,
                2.0287759286451625,
                -0.24731849269484996,
                -0.16250867929881485
            ]
        },
        {
            "positions": [
                0.07541998833154384,
                -0.7495476829269316,
                1.8610283607550444,
                1.9825495848521981,
                -0.19218160849442523,
                -0.08500088122891447
            ]
        },
        {
            "positions": [
                0.12319147437947382,
                -0.7797909292039521,
                1.9984273304970581,
                1.9363232410592337,
                -0.13704472429400077,
                -0.007493083159014005
            ]
        }
    ]
}