{
    "goal": {
        "global_pose": {
            "orientation": {
                "w": 0.005598929693374612,
                "x": 0.007748599140229565,
                "y": 0.7110244013736278,
                "z": -0.7031023480610252
            },
            "position": {
                "x": 0.1141497679147869,
                "y": -0.7141253447532654,
                "z": 0.3711530566215515
            }
        },
        "name": "move_to_auspresseinheit_B"
    },
    "id": "ProjEST_move_to_auspresseinheit_B_24",
    "joint_names": [
        "shoulder_pan_joint",
        "shoulder_lift_joint",
        "elbow_joint",
        "wrist_1_joint",
        "wrist_2_joint",
        "wrist_3_joint"
    ],
    "metrics": {
        "cart_traj_len": 0.5647141989102674,
        "distance_elbow_joint": 0.06483523756282494,
        "distance_shoulder_lift_joint": 0.29528840926634015,
        "distance_shoulder_pan_joint": 0.5781968129935207,
        "distance_wrist_1_joint": 0.3394955248964161,
        "distance_wrist_2_joint": 0.9892300691087232,
        "distance_wrist_3_joint": 0.0015592438438618572,
        "smoothness": 3.806478935924272e-16,
        "time": 0.177875963,
        "traj_len": 1.506188997991848,
        "weighted_distance": 1.8974850142661337
    },
    "planner": "ProjEST",
    "start": {
        "state": {
            "elbow_joint": 2.0193061681459312,
            "shoulder_lift_joint": -1.1220205130644991,
            "shoulder_pan_joint": -1.0952072088045026,
            "wrist_1_joint": -0.8559671810662515,
            "wrist_2_joint": 0.4759638712940361,
            "wrist_3_joint": 3.159081874192446
        }
    },
    "waypoints": [
        {
            "positions": [
                -1.0952072088045026,
                -1.1220205130644991,
                2.0193061681459312,
                -0.8559671810662515,
                0.4759638712940361,
                3.159081874192446
            ]
        },
        {
            "positions": [
                -1.1915733443034227,
                -1.1712352479422226,
                2.0085002952187936,
                -0.7993845935835154,
                0.6408355494788234,
                3.158822000218469
            ]
        },
        {
            "positions": [
                -1.287939479802343,
                -1.2204499828199458,
                1.9976944222916562,
                -0.7428020061007794,
                0.8057072276636106,
                3.158562126244492
            ]
        },
        {
            "positions": [
                -1.384305615301263,
                -1.2696647176976692,
                1.9868885493645188,
                -0.6862194186180435,
                0.9705789058483978,
                3.158302252270515
            ]
        },
        {
            "positions": [
                -1.480671750800183,
                -1.3188794525753926,
                1.9760826764373813,
                -0.6296368311353074,
                1.135450584033185,
                3.158042378296538
            ]
        },
        {
            "positions": [
                -1.5770378862991032,
                -1.3680941874531158,
                1.9652768035102437,
                -0.5730542436525714,
                1.3003222622179722,
                3.157782504322561
            ]
        },
        {
            "positions": [
                -1.6734040217980233,
                -1.4173089223308393,
                1.9544709305831063,
                -0.5164716561698354,
                1.4651939404027594,
                3.157522630348584
            ]
        }
    ]
}