{
    "goal": {
        "global_pose": {
            "orientation": {
                "w": -0.4816463035849501,
                "x": 0.5182115481033762,
                "y": 0.4908360881923453,
                "z": -0.5084816262002911
            },
            "position": {
                "x": -0.8240239810943604,
                "y": -0.300875300988555,
                "z": 0.16403168439865112
            }
        },
        "name": "move_to_storage_C"
    },
    "id": "ProjEST_move_to_storage_C_71",
    "joint_names": [
        "shoulder_pan_joint",
        "shoulder_lift_joint",
        "elbow_joint",
        "wrist_1_joint",
        "wrist_2_joint",
        "wrist_3_joint"
    ],
    "metrics": {
        "cart_traj_len": 0.5774366761841612,
        "distance_elbow_joint": 0.25629884087731947,
        "distance_shoulder_lift_joint": 0.19020964475320978,
        "distance_shoulder_pan_joint": 0.4960101322714361,
        "distance_wrist_1_joint": 0.06773883600594643,
        "distance_wrist_2_joint": 1.0620216482301474,
        "distance_wrist_3_joint": 0.07112746472595832,
        "smoothness": 0.0,
        "time": 0.011077169,
        "traj_len": 1.4640377614201137,
        "weighted_distance": 1.8480860316965844
    },
    "planner": "ProjEST",
    "start": {
        "state": {
            "elbow_joint": 2.0108683149792914,
            "shoulder_lift_joint": -1.1634956873317392,
            "shoulder_pan_joint": -2.4736205022346,
            "wrist_1_joint": -0.8367026793690192,
            "wrist_2_joint": 0.6746043897045053,
            "wrist_3_joint": 3.133522094754363
        }
    },
    "waypoints": [
        {
            "positions": [
                -2.4736205022346,
                -1.1634956873317392,
                2.0108683149792914,
                -0.8367026793690192,
                0.6746043897045053,
                3.133522094754363
            ]
        },
        {
            "positions": [
                -2.556288857613173,
                -1.131794079872871,
                1.968151841499738,
                -0.8254128733680282,
                0.8516079977428632,
                3.1453766722086893
            ]
        },
        {
            "positions": [
                -2.6389572129917456,
                -1.1000924724140027,
                1.925435368020185,
                -0.8141230673670371,
                1.0286116057812211,
                3.157231249663016
            ]
        },
        {
            "positions": [
                -2.7216255683703183,
                -1.0683908649551344,
                1.8827188945406317,
                -0.802833261366046,
                1.205615213819579,
                3.1690858271173425
            ]
        },
        {
            "positions": [
                -2.8042939237488906,
                -1.036689257496266,
                1.8400024210610784,
                -0.7915434553650549,
                1.382618821857937,
                3.1809404045716687
            ]
        },
        {
            "positions": [
                -2.8869622791274634,
                -1.0049876500373978,
                1.7972859475815253,
                -0.7802536493640638,
                1.5596224298962948,
                3.192794982025995
            ]
        },
        {
            "positions": [
                -2.969630634506036,
                -0.9732860425785295,
                1.754569474101972,
                -0.7689638433630728,
                1.7366260379346528,
                3.2046495594803215
            ]
        }
    ]
}