{
    "goal": {
        "global_pose": {
            "orientation": {
                "w": 0.7031023502349854,
                "x": -0.7110244035720825,
                "y": 0.007748599164187908,
                "z": 0.005598929710686207
            },
            "position": {
                "x": 0.11585023208521307,
                "y": 0.44412534475326537,
                "z": 0.3711530566215515
            }
        },
        "name": "move_to_auspresseinheit_A"
    },
    "id": "ProjEST_move_to_auspresseinheit_A_120",
    "joint_names": [
        "shoulder_pan_joint",
        "shoulder_lift_joint",
        "elbow_joint",
        "wrist_1_joint",
        "wrist_2_joint",
        "wrist_3_joint"
    ],
    "metrics": {
        "cart_traj_len": 1.5261703006876504,
        "distance_elbow_joint": 1.8445591498296587,
        "distance_shoulder_lift_joint": 0.8088094770896104,
        "distance_shoulder_pan_joint": 1.0449733131394034,
        "distance_wrist_1_joint": 1.3221671472540693,
        "distance_wrist_2_joint": 1.0018658053660345,
        "distance_wrist_3_joint": 3.4249586786924198,
        "smoothness": 0.6885028622799673,
        "time": 0.9911502409999999,
        "traj_len": 3.0736515045416573,
        "weighted_distance": 4.315238565986374
    },
    "planner": "ProjEST",
    "start": {
        "state": {
            "elbow_joint": 2.4225746994637096,
            "shoulder_lift_joint": -1.373653595662188,
            "shoulder_pan_joint": -0.3378633848294565,
            "wrist_1_joint": -1.0288595594406726,
            "wrist_2_joint": 1.2330228066703421,
            "wrist_3_joint": 3.189163495502006
        }
    },
    "waypoints": [
        {
            "positions": [
                -0.3378633848294565,
                -1.373653595662188,
                2.4225746994637096,
                -1.0288595594406726,
                1.2330228066703421,
                3.189163495502006
            ]
        },
        {
            "positions": [
                -0.306723693755494,
                -1.401985806401774,
                2.3444697224514863,
                -0.9675636448553233,
                1.212187085940124,
                3.0443587142288324
            ]
        },
        {
            "positions": [
                -0.2755840026815316,
                -1.4303180171413599,
                2.2663647454392626,
                -0.9062677302699741,
                1.1913513652099057,
                2.899553932955659
            ]
        },
        {
            "positions": [
                -0.24444431160756916,
                -1.458650227880946,
                2.1882597684270393,
                -0.8449718156846249,
                1.1705156444796876,
                2.7547491516824856
            ]
        },
        {
            "positions": [
                -0.21330462053360671,
                -1.4869824386205317,
                2.1101547914148155,
                -0.7836759010992755,
                1.1496799237494693,
                2.6099443704093126
            ]
        },
        {
            "positions": [
                -0.18216492945964427,
                -1.5153146493601177,
                2.0320498144025922,
                -0.7223799865139262,
                1.1288442030192511,
                2.4651395891361387
            ]
        },
        {
            "positions": [
                -0.15102523838568183,
                -1.5436468600997038,
                1.9539448373903685,
                -0.661084071928577,
                1.108008482289033,
                2.3203348078629658
            ]
        },
        {
            "positions": [
                -0.11988554731171938,
                -1.5719790708392896,
                1.8758398603781452,
                -0.5997881573432278,
                1.0871727615588147,
                2.175530026589792
            ]
        },
        {
            "positions": [
                -0.08874585623775694,
                -1.6003112815788756,
                1.7977348833659217,
                -0.5384922427578784,
                1.0663370408285966,
                2.030725245316619
            ]
        },
        {
            "positions": [
                -0.05760616516379452,
                -1.6286434923184614,
                1.7196299063536982,
                -0.4771963281725291,
                1.0455013200983785,
                1.8859204640434455
            ]
        },
        {
            "positions": [
                -0.02646647408983205,
                -1.6569757030580474,
                1.6415249293414744,
                -0.4159004135871799,
                1.0246655993681602,
                1.7411156827702718
            ]
        },
        {
            "positions": [
                0.004673216984130368,
                -1.6853079137976332,
                1.5634199523292511,
                -0.35460449900183066,
                1.003829878637942,
                1.5963109014970986
            ]
        },
        {
            "positions": [
                0.03581290805809286,
                -1.7136401245372193,
                1.4853149753170276,
                -0.29330858441648133,
                0.9829941579077238,
                1.4515061202239252
            ]
        },
        {
            "positions": [
                0.09116557258481638,
                -1.7609027707192604,
                1.5929780381972716,
                -0.26367737196166247,
                0.9092464344076502,
                1.4890004052570167
            ]
        },
        {
            "positions": [
                0.14651823711153988,
                -1.8081654169013015,
                1.7006411010775158,
                -0.2340461595068436,
                0.8354987109075765,
                1.5264946902901082
            ]
        },
        {
            "positions": [
                0.2018709016382634,
                -1.8554280630833426,
                1.8083041639577597,
                -0.20441494705202473,
                0.7617509874075029,
                1.5639889753231997
            ]
        },
        {
            "positions": [
                0.2572235661649869,
                -1.902690709265384,
                1.9159672268380037,
                -0.17478373459720584,
                0.6880032639074292,
                1.6014832603562912
            ]
        },
        {
            "positions": [
                0.3125762306917104,
                -1.949953355447425,
                2.023630289718248,
                -0.14515252214238694,
                0.6142555404073555,
                1.6389775453893827
            ]
        },
        {
            "positions": [
                0.3679288952184339,
                -1.9972160016294662,
                2.1312933525984916,
                -0.1155213096875681,
                0.5405078169072819,
                1.6764718304224742
            ]
        },
        {
            "positions": [
                0.42328155974515747,
                -2.0444786478115073,
                2.238956415478736,
                -0.08589009723274921,
                0.46676009340720825,
                1.7139661154555657
            ]
        },
        {
            "positions": [
                0.4638284695401274,
                -2.0247665871057516,
                2.2609075562674885,
                -0.14006119509648435,
                0.5004176779933369,
                1.9175148737673797
            ]
        },
        {
            "positions": [
                0.5043753793350974,
                -2.0050545263999955,
                2.2828586970562412,
                -0.19423229296021952,
                0.5340752625794656,
                2.121063632079194
            ]
        },
        {
            "positions": [
                0.5449222891300672,
                -1.9853424656942398,
                2.304809837844994,
                -0.24840339082395466,
                0.5677328471655942,
                2.324612390391008
            ]
        },
        {
            "positions": [
                0.5854691989250372,
                -1.9656304049884838,
                2.326760978633746,
                -0.3025744886876898,
                0.6013904317517229,
                2.5281611487028224
            ]
        },
        {
            "positions": [
                0.6260161087200071,
                -1.945918344282728,
                2.348712119422499,
                -0.356745586551425,
                0.6350480163378516,
                2.7317099070146362
            ]
        },
        {
            "positions": [
                0.6665630185149771,
                -1.9262062835769722,
                2.3706632602112516,
                -0.4109166844151601,
                0.6687056009239802,
                2.9352586653264505
            ]
        },
        {
            "positions": [
                0.707109928309947,
                -1.9064942228712163,
                2.3926144010000043,
                -0.4650877822788953,
                0.7023631855101089,
                3.138807423638265
            ]
        }
    ]
}