{
    "goal": {
        "global_pose": {
            "orientation": {
                "w": -0.00223480608172531,
                "x": 0.0024358444001904467,
                "y": 0.7094548369677653,
                "z": -0.704743149386269
            },
            "position": {
                "x": -0.37947507619857795,
                "y": -0.6371506643295288,
                "z": 0.19426114857196808
            }
        },
        "name": "move_to_magneteinheit_C"
    },
    "id": "ProjEST_move_to_magneteinheit_C_29",
    "joint_names": [
        "shoulder_pan_joint",
        "shoulder_lift_joint",
        "elbow_joint",
        "wrist_1_joint",
        "wrist_2_joint",
        "wrist_3_joint"
    ],
    "metrics": {
        "cart_traj_len": 7.22183976198342,
        "distance_elbow_joint": 0.3634622059527459,
        "distance_shoulder_lift_joint": 3.3670428008616815,
        "distance_shoulder_pan_joint": 10.400822226666417,
        "distance_wrist_1_joint": 4.190459723556122,
        "distance_wrist_2_joint": 3.705701253428193,
        "distance_wrist_3_joint": 4.022777289998281,
        "smoothness": 0.5259079188442602,
        "time": 0.6650820510000001,
        "traj_len": 5.103946071468959,
        "weighted_distance": 6.480121994024826
    },
    "planner": "ProjEST",
    "start": {
        "state": {
            "elbow_joint": 1.9565354006593851,
            "shoulder_lift_joint": -1.4165861576512813,
            "shoulder_pan_joint": -1.6717766223278752,
            "wrist_1_joint": -0.528663328821883,
            "wrist_2_joint": 1.472756589259273,
            "wrist_3_joint": 3.159348288315503
        }
    },
    "waypoints": [
        {
            "positions": [
                -1.6717766223278752,
                -1.4165861576512813,
                1.9565354006593851,
                -0.528663328821883,
                1.472756589259273,
                3.159348288315503
            ]
        },
        {
            "positions": [
                -1.526335191806429,
                -1.463758454201153,
                1.9518930329303288,
                -0.5970279870665572,
                1.4045258302549508,
                3.097987062645753
            ]
        },
        {
            "positions": [
                -1.3808937612849828,
                -1.510930750751025,
                1.9472506652012724,
                -0.6653926453112314,
                1.3362950712506283,
                3.036625836976002
            ]
        },
        {
            "positions": [
                -1.2354523307635366,
                -1.5581030473008968,
                1.9426082974722163,
                -0.7337573035559056,
                1.268064312246306,
                2.975264611306252
            ]
        },
        {
            "positions": [
                -1.0900109002420904,
                -1.6052753438507685,
                1.93796592974316,
                -0.8021219618005798,
                1.1998335532419837,
                2.9139033856365018
            ]
        },
        {
            "positions": [
                -0.9445694697206442,
                -1.6524476404006405,
                1.9333235620141036,
                -0.870486620045254,
                1.1316027942376612,
                2.852542159966751
            ]
        },
        {
            "positions": [
                -0.799128039199198,
                -1.6996199369505123,
                1.9286811942850473,
                -0.9388512782899282,
                1.063372035233339,
                2.791180934297001
            ]
        },
        {
            "positions": [
                -0.6536866086777517,
                -1.746792233500384,
                1.9240388265559911,
                -1.0072159365346023,
                0.9951412762290165,
                2.72981970862725
            ]
        },
        {
            "positions": [
                -0.5082451781563055,
                -1.793964530050256,
                1.9193964588269348,
                -1.0755805947792765,
                0.9269105172246941,
                2.6684584829575
            ]
        },
        {
            "positions": [
                -0.36280374763485956,
                -1.8411368266001278,
                1.9147540910978784,
                -1.1439452530239507,
                0.8586797582203718,
                2.6070972572877498
            ]
        },
        {
            "positions": [
                -0.21736231711341314,
                -1.8883091231499998,
                1.910111723368822,
                -1.2123099112686249,
                0.7904489992160494,
                2.545736031617999
            ]
        },
        {
            "positions": [
                -0.07192088659196716,
                -1.9354814196998715,
                1.905469355639766,
                -1.280674569513299,
                0.722218240211727,
                2.484374805948249
            ]
        },
        {
            "positions": [
                0.07352054392947927,
                -1.9826537162497435,
                1.9008269879107096,
                -1.3490392277579732,
                0.6539874812074046,
                2.4230135802784982
            ]
        },
        {
            "positions": [
                0.21896197445092525,
                -2.029826012799615,
                1.8961846201816532,
                -1.4174038860026474,
                0.5857567222030823,
                2.361652354608748
            ]
        },
        {
            "positions": [
                0.36440340497237167,
                -2.076998309349487,
                1.8915422524525969,
                -1.4857685442473216,
                0.5175259631987599,
                2.300291128938998
            ]
        },
        {
            "positions": [
                0.5098448354938176,
                -2.124170605899359,
                1.8868998847235408,
                -1.5541332024919958,
                0.4492952041944376,
                2.2389299032692476
            ]
        },
        {
            "positions": [
                0.6552862660152641,
                -2.171342902449231,
                1.8822575169944844,
                -1.62249786073667,
                0.38106444519011506,
                2.177568677599497
            ]
        },
        {
            "positions": [
                0.80072769653671,
                -2.2185151989991025,
                1.877615149265428,
                -1.6908625189813442,
                0.31283368618579277,
                2.1162074519297467
            ]
        },
        {
            "positions": [
                0.946169127058156,
                -2.2656874955489745,
                1.8729727815363717,
                -1.7592271772260184,
                0.24460292718147048,
                2.054846226259996
            ]
        },
        {
            "positions": [
                1.091610557579603,
                -2.3128597920988465,
                1.8683304138073156,
                -1.8275918354706926,
                0.17637216817714796,
                1.9934850005902458
            ]
        },
        {
            "positions": [
                1.2370519881010489,
                -2.360032088648718,
                1.8636880460782592,
                -1.8959564937153668,
                0.10814140917282566,
                1.9321237749204954
            ]
        },
        {
            "positions": [
                1.3824934186224949,
                -2.40720438519859,
                1.8590456783492029,
                -1.964321151960041,
                0.03991065016850315,
                1.8707625492507451
            ]
        },
        {
            "positions": [
                1.5279348491439408,
                -2.454376681748462,
                1.8544033106201465,
                -2.032685810204715,
                -0.028320108835819147,
                1.8094013235809947
            ]
        },
        {
            "positions": [
                1.6733762796653877,
                -2.5015489782983336,
                1.8497609428910904,
                -2.1010504684493894,
                -0.09655086784014166,
                1.7480400979112443
            ]
        },
        {
            "positions": [
                1.8188177101868337,
                -2.5487212748482055,
                1.845118575162034,
                -2.1694151266940636,
                -0.16478162684446396,
                1.6866788722414938
            ]
        },
        {
            "positions": [
                1.9642591407082797,
                -2.5958935713980775,
                1.8404762074329777,
                -2.2377797849387377,
                -0.23301238584878625,
                1.6253176465717436
            ]
        },
        {
            "positions": [
                2.109700571229726,
                -2.643065867947949,
                1.8358338397039213,
                -2.306144443183412,
                -0.30124314485310855,
                1.5639564209019932
            ]
        },
        {
            "positions": [
                2.2551420017511727,
                -2.690238164497821,
                1.831191471974865,
                -2.3745091014280866,
                -0.36947390385743106,
                1.5025951952322427
            ]
        },
        {
            "positions": [
                2.4005834322726187,
                -2.737410461047693,
                1.8265491042458089,
                -2.4428737596727603,
                -0.43770466286175336,
                1.4412339695624923
            ]
        },
        {
            "positions": [
                2.5460248627940647,
                -2.7845827575975646,
                1.8219067365167525,
                -2.5112384179174345,
                -0.5059354218660759,
                1.379872743892742
            ]
        },
        {
            "positions": [
                2.6914662933155107,
                -2.8317550541474366,
                1.8172643687876961,
                -2.5796030761621087,
                -0.574166180870398,
                1.3185115182229916
            ]
        },
        {
            "positions": [
                2.8369077238369576,
                -2.8789273506973085,
                1.81262200105864,
                -2.647967734406783,
                -0.6423969398747207,
                1.2571502925532412
            ]
        },
        {
            "positions": [
                2.9823491543584035,
                -2.92609964724718,
                1.8079796333295837,
                -2.716332392651457,
                -0.710627698879043,
                1.1957890668834907
            ]
        },
        {
            "positions": [
                3.1277905848798495,
                -2.973271943797052,
                1.8033372656005273,
                -2.7846970508961313,
                -0.778858457883365,
                1.1344278412137405
            ]
        },
        {
            "positions": [
                2.9580555842901926,
                -2.9184126403208124,
                1.8097089041124632,
                -2.7260780811542564,
                -0.7347952395110756,
                1.19496895766515
            ]
        },
        {
            "positions": [
                2.788320583700535,
                -2.8635533368445727,
                1.8160805426243993,
                -2.6674591114123816,
                -0.6907320211387862,
                1.25551007411656
            ]
        },
        {
            "positions": [
                2.618585583110878,
                -2.808694033368333,
                1.8224521811363352,
                -2.6088401416705063,
                -0.6466688027664967,
                1.3160511905679695
            ]
        },
        {
            "positions": [
                2.448850582521221,
                -2.7538347298920933,
                1.8288238196482713,
                -2.5502211719286314,
                -0.6026055843942073,
                1.3765923070193793
            ]
        },
        {
            "positions": [
                2.279115581931564,
                -2.6989754264158536,
                1.8351954581602072,
                -2.4916022021867565,
                -0.5585423660219179,
                1.4371334234707889
            ]
        },
        {
            "positions": [
                2.1093805813419064,
                -2.644116122939614,
                1.8415670966721434,
                -2.4329832324448817,
                -0.5144791476496284,
                1.4976745399221985
            ]
        },
        {
            "positions": [
                1.9396455807522492,
                -2.5892568194633743,
                1.8479387351840793,
                -2.374364262703007,
                -0.47041592927733894,
                1.558215656373608
            ]
        },
        {
            "positions": [
                1.7699105801625923,
                -2.5343975159871346,
                1.8543103736960154,
                -2.315745292961132,
                -0.4263527109050495,
                1.6187567728250178
            ]
        },
        {
            "positions": [
                1.600175579572935,
                -2.479538212510895,
                1.8606820122079513,
                -2.257126323219257,
                -0.3822894925327601,
                1.6792978892764274
            ]
        },
        {
            "positions": [
                1.430440578983278,
                -2.424678909034655,
                1.8670536507198874,
                -2.198507353477382,
                -0.33822627416047063,
                1.7398390057278372
            ]
        },
        {
            "positions": [
                1.2607055783936207,
                -2.3698196055584155,
                1.8734252892318233,
                -2.139888383735507,
                -0.29416305578818125,
                1.8003801221792468
            ]
        },
        {
            "positions": [
                1.0909705778039633,
                -2.3149603020821754,
                1.8797969277437594,
                -2.081269413993632,
                -0.2500998374158918,
                1.8609212386306564
            ]
        },
        {
            "positions": [
                0.9212355772143064,
                -2.260100998605936,
                1.8861685662556953,
                -2.022650444251757,
                -0.20603661904360238,
                1.921462355082066
            ]
        },
        {
            "positions": [
                0.751500576624649,
                -2.205241695129696,
                1.8925402047676314,
                -1.9640314745098821,
                -0.16197340067131283,
                1.9820034715334758
            ]
        },
        {
            "positions": [
                0.581765576034992,
                -2.150382391653457,
                1.8989118432795673,
                -1.9054125047680073,
                -0.1179101822990235,
                2.0425445879848856
            ]
        },
        {
            "positions": [
                0.41203057544533506,
                -2.0955230881772167,
                1.9052834817915034,
                -1.8467935350261322,
                -0.07384696392673396,
                2.103085704436295
            ]
        },
        {
            "positions": [
                0.24229557485567765,
                -2.0406637847009774,
                1.9116551203034393,
                -1.7881745652842573,
                -0.02978374555444463,
                2.1636268208877047
            ]
        },
        {
            "positions": [
                0.0725605742660207,
                -1.9858044812247375,
                1.9180267588153754,
                -1.7295555955423825,
                0.014279472817844807,
                2.2241679373391143
            ]
        },
        {
            "positions": [
                -0.09717442632363671,
                -1.9309451777484976,
                1.9243983973273113,
                -1.6709366258005074,
                0.058342691190134355,
                2.2847090537905244
            ]
        },
        {
            "positions": [
                -0.26690942691329367,
                -1.8760858742722581,
                1.9307700358392474,
                -1.6123176560586325,
                0.10240590956242379,
                2.3452501702419335
            ]
        },
        {
            "positions": [
                -0.4366444275029506,
                -1.8212265707960185,
                1.9371416743511833,
                -1.5536986863167577,
                0.14646912793471323,
                2.4057912866933435
            ]
        },
        {
            "positions": [
                -0.606379428092608,
                -1.7663672673197788,
                1.9435133128631195,
                -1.4950797165748828,
                0.19053234630700255,
                2.466332403144753
            ]
        },
        {
            "positions": [
                -0.7761144286822654,
                -1.7115079638435389,
                1.9498849513750554,
                -1.4364607468330077,
                0.2345955646792921,
                2.5268735195961627
            ]
        },
        {
            "positions": [
                -0.9458494292719228,
                -1.6566486603672992,
                1.9562565898869915,
                -1.3778417770911329,
                0.2786587830515814,
                2.5874146360475727
            ]
        },
        {
            "positions": [
                -1.1155844298615794,
                -1.6017893568910597,
                1.9626282283989274,
                -1.319222807349258,
                0.322722001423871,
                2.647955752498982
            ]
        },
        {
            "positions": [
                -1.2853194304512368,
                -1.54693005341482,
                1.9689998669108635,
                -1.2606038376073831,
                0.3667852197961603,
                2.708496868950392
            ]
        },
        {
            "positions": [
                -1.4550544310408942,
                -1.4920707499385801,
                1.9753715054227994,
                -1.201984867865508,
                0.41084843816844985,
                2.7690379854018015
            ]
        },
        {
            "positions": [
                -1.6247894316305516,
                -1.4372114464623404,
                1.9817431439347355,
                -1.143365898123633,
                0.4549116565407394,
                2.829579101853211
            ]
        },
        {
            "positions": [
                -1.794524432220208,
                -1.3823521429861008,
                1.9881147824466714,
                -1.0847469283817581,
                0.4989748749130287,
                2.890120218304621
            ]
        },
        {
            "positions": [
                -1.9642594328098655,
                -1.327492839509861,
                1.9944864209586073,
                -1.0261279586398833,
                0.543038093285318,
                2.95066133475603
            ]
        },
        {
            "positions": [
                -2.133994433399523,
                -1.2726335360336214,
                2.0008580594705436,
                -0.9675089888980082,
                0.5871013116576076,
                3.0112024512074402
            ]
        },
        {
            "positions": [
                -2.3037294339891794,
                -1.2177742325573817,
                2.0072296979824795,
                -0.9088900191561333,
                0.6311645300298971,
                3.07174356765885
            ]
        },
        {
            "positions": [
                -2.473464434578837,
                -1.162914929081142,
                2.0136013364944154,
                -0.8502710494142585,
                0.6752277484021864,
                3.1322846841102594
            ]
        }
    ]
}