{
    "goal": {
        "global_pose": {
            "orientation": {
                "w": 0.7047431468963623,
                "x": -0.7094548344612122,
                "y": 0.0024358443915843964,
                "z": -0.0022348060738295317
            },
            "position": {
                "x": 0.6094750761985779,
                "y": 0.3671506643295288,
                "z": 0.19426114857196808
            }
        },
        "name": "move_to_magneteinheit_A"
    },
    "id": "ProjEST_move_to_magneteinheit_A_6",
    "joint_names": [
        "shoulder_pan_joint",
        "shoulder_lift_joint",
        "elbow_joint",
        "wrist_1_joint",
        "wrist_2_joint",
        "wrist_3_joint"
    ],
    "metrics": {
        "cart_traj_len": 1.5920464207410492,
        "distance_elbow_joint": 3.562916146954468,
        "distance_shoulder_lift_joint": 1.154886320976401,
        "distance_shoulder_pan_joint": 1.240280825881814,
        "distance_wrist_1_joint": 3.9987438692047252,
        "distance_wrist_2_joint": 1.6926039482396766,
        "distance_wrist_3_joint": 1.0949287834971622,
        "smoothness": 7.314410543622312e-16,
        "time": 0.059936995,
        "traj_len": 3.569924354206157,
        "weighted_distance": 4.54153776591068
    },
    "planner": "ProjEST",
    "start": {
        "state": {
            "elbow_joint": -1.5739458827952972,
            "shoulder_lift_joint": 0.006533473998580023,
            "shoulder_pan_joint": -1.1188671628667068,
            "wrist_1_joint": 3.138208179676308,
            "wrist_2_joint": -1.5706037135050406,
            "wrist_3_joint": -2.0226958329764257
        }
    },
    "waypoints": [
        {
            "positions": [
                -1.1188671628667068,
                0.006533473998580023,
                -1.5739458827952972,
                3.138208179676308,
                -1.5706037135050406,
                -2.0226958329764257
            ]
        },
        {
            "positions": [
                -1.0812828954157427,
                -0.028463081182523046,
                -1.46597872682698,
                3.0170341230337407,
                -1.519312684770505,
                -2.0558754930824
            ]
        },
        {
            "positions": [
                -1.0436986279647786,
                -0.06345963636362612,
                -1.3580115708586629,
                2.8958600663911733,
                -1.4680216560359693,
                -2.089055153188375
            ]
        },
        {
            "positions": [
                -1.0061143605138148,
                -0.09845619154472919,
                -1.2500444148903456,
                2.774686009748606,
                -1.4167306273014335,
                -2.1222348132943494
            ]
        },
        {
            "positions": [
                -0.9685300930628506,
                -0.13345274672583224,
                -1.1420772589220283,
                2.6535119531060385,
                -1.365439598566898,
                -2.155414473400324
            ]
        },
        {
            "positions": [
                -0.9309458256118865,
                -0.16844930190693533,
                -1.0341101029537112,
                2.532337896463471,
                -1.3141485698323623,
                -2.1885941335062986
            ]
        },
        {
            "positions": [
                -0.8933615581609224,
                -0.2034458570880384,
                -0.9261429469853939,
                2.4111638398209037,
                -1.2628575410978267,
                -2.2217737936122735
            ]
        },
        {
            "positions": [
                -0.8557772907099583,
                -0.23844241226914145,
                -0.8181757910170767,
                2.2899897831783362,
                -1.211566512363291,
                -2.254953453718248
            ]
        },
        {
            "positions": [
                -0.8181930232589943,
                -0.27343896745024454,
                -0.7102086350487595,
                2.168815726535769,
                -1.1602754836287552,
                -2.2881331138242227
            ]
        },
        {
            "positions": [
                -0.7806087558080304,
                -0.3084355226313476,
                -0.6022414790804423,
                2.0476416698932014,
                -1.1089844548942196,
                -2.321312773930197
            ]
        },
        {
            "positions": [
                -0.7430244883570662,
                -0.3434320778124507,
                -0.49427432311212516,
                1.9264676132506338,
                -1.057693426159684,
                -2.354492434036172
            ]
        },
        {
            "positions": [
                -0.7054402209061021,
                -0.3784286329935537,
                -0.38630716714380786,
                1.8052935566080666,
                -1.0064023974251484,
                -2.3876720941421463
            ]
        },
        {
            "positions": [
                -0.667855953455138,
                -0.41342518817465684,
                -0.27834001117549056,
                1.684119499965499,
                -0.9551113686906126,
                -2.420851754248121
            ]
        },
        {
            "positions": [
                -0.630271686004174,
                -0.4484217433557599,
                -0.1703728552071735,
                1.5629454433229317,
                -0.9038203399560771,
                -2.4540314143540956
            ]
        },
        {
            "positions": [
                -0.5926874185532099,
                -0.48341829853686297,
                -0.062405699238856194,
                1.441771386680364,
                -0.8525293112215414,
                -2.4872110744600704
            ]
        },
        {
            "positions": [
                -0.555103151102246,
                -0.5184148537179659,
                0.04556145672946088,
                1.3205973300377967,
                -0.8012382824870058,
                -2.520390734566045
            ]
        },
        {
            "positions": [
                -0.5175188836512818,
                -0.553411408899069,
                0.15352861269777818,
                1.1994232733952293,
                -0.7499472537524701,
                -2.5535703946720196
            ]
        },
        {
            "positions": [
                -0.47993461620031774,
                -0.5884079640801722,
                0.2614957686660955,
                1.078249216752662,
                -0.6986562250179345,
                -2.586750054777994
            ]
        },
        {
            "positions": [
                -0.44235034874935375,
                -0.6234045192612752,
                0.36946292463441255,
                0.9570751601100946,
                -0.6473651962833988,
                -2.619929714883969
            ]
        },
        {
            "positions": [
                -0.40476608129838954,
                -0.6584010744423783,
                0.47743008060273007,
                0.8359011034675268,
                -0.596074167548863,
                -2.6531093749899433
            ]
        },
        {
            "positions": [
                -0.36718181384742554,
                -0.6933976296234814,
                0.5853972365710469,
                0.7147270468249594,
                -0.5447831388143274,
                -2.686289035095918
            ]
        },
        {
            "positions": [
                -0.32959754639646155,
                -0.7283941848045844,
                0.6933643925393642,
                0.5935529901823919,
                -0.49349211007979177,
                -2.7194686952018925
            ]
        },
        {
            "positions": [
                -0.29201327894549745,
                -0.7633907399856874,
                0.8013315485076815,
                0.47237893353982496,
                -0.44220108134525615,
                -2.7526483553078673
            ]
        },
        {
            "positions": [
                -0.25442901149453334,
                -0.7983872951667906,
                0.9092987044759988,
                0.3512048768972571,
                -0.3909100526107203,
                -2.7858280154138417
            ]
        },
        {
            "positions": [
                -0.21684474404356935,
                -0.8333838503478936,
                1.017265860444316,
                0.23003082025468968,
                -0.3396190238761847,
                -2.8190076755198166
            ]
        },
        {
            "positions": [
                -0.17926047659260524,
                -0.8683804055289966,
                1.125233016412633,
                0.10885676361212226,
                -0.2883279951416493,
                -2.852187335625791
            ]
        },
        {
            "positions": [
                -0.14167620914164125,
                -0.9033769607100998,
                1.2332001723809503,
                -0.01231729303044471,
                -0.2370369664071137,
                -2.885366995731766
            ]
        },
        {
            "positions": [
                -0.10409194169067715,
                -0.9383735158912029,
                1.3411673283492676,
                -0.13349134967301257,
                -0.18574593767257785,
                -2.91854665583774
            ]
        },
        {
            "positions": [
                -0.06650767423971304,
                -0.9733700710723059,
                1.4491344843175848,
                -0.25466540631558,
                -0.13445490893804224,
                -2.951726315943715
            ]
        },
        {
            "positions": [
                -0.02892340678874894,
                -1.008366626253409,
                1.5571016402859021,
                -0.3758394629581474,
                -0.08316388020350662,
                -2.9849059760496894
            ]
        },
        {
            "positions": [
                0.008660860662214942,
                -1.043363181434512,
                1.665068796254219,
                -0.4970135196007148,
                -0.03187285146897101,
                -3.0180856361556643
            ]
        },
        {
            "positions": [
                0.04624512811317927,
                -1.0783597366156152,
                1.7730359522225367,
                -0.6181875762432822,
                0.01941817726556483,
                -3.0512652962616387
            ]
        },
        {
            "positions": [
                0.08382939556414315,
                -1.1133562917967181,
                1.8810031081908536,
                -0.7393616328858497,
                0.07070920600010044,
                -3.084444956367613
            ]
        },
        {
            "positions": [
                0.1214136630151072,
                -1.1483528469778213,
                1.9889702641591709,
                -0.8605356895284169,
                0.12200023473463598,
                -3.117624616473588
            ]
        }
    ]
}