{
    "goal": {
        "global_pose": {
            "orientation": {
                "w": 0.5084816217422485,
                "x": -0.49083608388900757,
                "y": 0.5182115435600281,
                "z": -0.4816462993621826
            },
            "position": {
                "x": 0.5540239810943604,
                "y": 0.030875300988554955,
                "z": 0.16403168439865112
            }
        },
        "name": "move_to_storage_A"
    },
    "id": "ProjEST_move_to_storage_A_130",
    "joint_names": [
        "shoulder_pan_joint",
        "shoulder_lift_joint",
        "elbow_joint",
        "wrist_1_joint",
        "wrist_2_joint",
        "wrist_3_joint"
    ],
    "metrics": {
        "cart_traj_len": 0.35299876955723025,
        "distance_elbow_joint": 0.45376255421980116,
        "distance_shoulder_lift_joint": 0.233950594110371,
        "distance_shoulder_pan_joint": 0.46218285048010227,
        "distance_wrist_1_joint": 0.2613060160043983,
        "distance_wrist_2_joint": 1.0961189991867628,
        "distance_wrist_3_joint": 0.09586239058249735,
        "smoothness": 8.881784197001252e-16,
        "time": 0.022526631,
        "traj_len": 1.613438379543493,
        "weighted_distance": 2.0377274599268884
    },
    "planner": "ProjEST",
    "start": {
        "state": {
            "elbow_joint": 1.971548880431181,
            "shoulder_lift_joint": -1.1394869514688781,
            "shoulder_pan_joint": 0.12281150262730567,
            "wrist_1_joint": -0.7804693444481463,
            "wrist_2_joint": 0.12958644648617612,
            "wrist_3_joint": 3.0906942077768043
        }
    },
    "waypoints": [
        {
            "positions": [
                0.12281150262730567,
                -1.1394869514688781,
                1.971548880431181,
                -0.7804693444481463,
                0.12958644648617612,
                3.0906942077768043
            ]
        },
        {
            "positions": [
                0.05678538113014821,
                -1.1729084649132169,
                2.036372102462581,
                -0.8177987753059175,
                0.2861748749414279,
                3.1043888350028754
            ]
        },
        {
            "positions": [
                -0.009240740367009254,
                -1.2063299783575556,
                2.101195324493981,
                -0.8551282061636887,
                0.44276330339667974,
                3.118083462228946
            ]
        },
        {
            "positions": [
                -0.07526686186416673,
                -1.2397514918018944,
                2.1660185465253816,
                -0.8924576370214599,
                0.5993517318519316,
                3.1317780894550173
            ]
        },
        {
            "positions": [
                -0.14129298336132418,
                -1.273173005246233,
                2.2308417685567816,
                -0.929787067879231,
                0.7559401603071834,
                3.1454727166810885
            ]
        },
        {
            "positions": [
                -0.20731910485848165,
                -1.3065945186905716,
                2.2956649905881816,
                -0.9671164987370022,
                0.9125285887624353,
                3.1591673439071597
            ]
        },
        {
            "positions": [
                -0.2733452263556391,
                -1.3400160321349104,
                2.360488212619582,
                -1.0044459295947734,
                1.0691170172176871,
                3.1728619711332304
            ]
        },
        {
            "positions": [
                -0.3393713478527966,
                -1.3734375455792491,
                2.425311434650982,
                -1.0417753604525446,
                1.2257054456729388,
                3.1865565983593016
            ]
        }
    ]
}