{
    "goal": {
        "global_pose": {
            "orientation": {
                "w": -0.4816463035849501,
                "x": 0.5182115481033762,
                "y": 0.4908360881923453,
                "z": -0.5084816262002911
            },
            "position": {
                "x": -0.8240239810943604,
                "y": -0.300875300988555,
                "z": 0.16403168439865112
            }
        },
        "name": "move_to_storage_C"
    },
    "id": "ProjEST_move_to_storage_C_43",
    "joint_names": [
        "shoulder_pan_joint",
        "shoulder_lift_joint",
        "elbow_joint",
        "wrist_1_joint",
        "wrist_2_joint",
        "wrist_3_joint"
    ],
    "metrics": {
        "cart_traj_len": 0.5766731229686384,
        "distance_elbow_joint": 0.25631957525445537,
        "distance_shoulder_lift_joint": 0.18821254289026967,
        "distance_shoulder_pan_joint": 0.49609586327140054,
        "distance_wrist_1_joint": 0.0745370704568521,
        "distance_wrist_2_joint": 1.0595652215909543,
        "distance_wrist_3_joint": 0.05712246619785155,
        "smoothness": 0.0,
        "time": 0.154220268,
        "traj_len": 1.46008655211319,
        "weighted_distance": 1.8385320133479572
    },
    "planner": "ProjEST",
    "start": {
        "state": {
            "elbow_joint": 2.0108683149792914,
            "shoulder_lift_joint": -1.1634956873317392,
            "shoulder_pan_joint": -2.4736205022346,
            "wrist_1_joint": -0.8367026793690192,
            "wrist_2_joint": 0.6746043897045053,
            "wrist_3_joint": 3.133522094754363
        }
    },
    "waypoints": [
        {
            "positions": [
                -2.4736205022346,
                -1.1634956873317392,
                2.0108683149792914,
                -0.8367026793690192,
                0.6746043897045053,
                3.133522094754363
            ]
        },
        {
            "positions": [
                -2.5563031461131667,
                -1.132126930183361,
                1.9681483857702156,
                -0.8242798342928772,
                0.8511985933029977,
                3.1430425057873386
            ]
        },
        {
            "positions": [
                -2.6389857899917337,
                -1.1007581730349827,
                1.9254284565611397,
                -0.8118569892167352,
                1.02779279690149,
                3.1525629168203135
            ]
        },
        {
            "positions": [
                -2.7216684338703003,
                -1.0693894158866044,
                1.8827085273520638,
                -0.7994341441405932,
                1.2043870004999824,
                3.162083327853289
            ]
        },
        {
            "positions": [
                -2.804351077748867,
                -1.0380206587382261,
                1.8399885981429878,
                -0.7870112990644511,
                1.3809812040984748,
                3.1716037388862643
            ]
        },
        {
            "positions": [
                -2.887033721627434,
                -1.0066519015898479,
                1.797268668933912,
                -0.7745884539883091,
                1.5575754076969672,
                3.1811241499192393
            ]
        },
        {
            "positions": [
                -2.9697163655060006,
                -0.9752831444414696,
                1.754548739724836,
                -0.7621656089121671,
                1.7341696112954597,
                3.1906445609522147
            ]
        }
    ]
}