{
    "goal": {
        "global_pose": {
            "orientation": {
                "w": 0.5084816262002911,
                "x": -0.4908360881923452,
                "y": 0.5182115481033761,
                "z": -0.48164630358495003
            },
            "position": {
                "x": 0.5540239810943604,
                "y": -0.46912469901144505,
                "z": 0.16403168439865112
            }
        },
        "name": "move_to_storage_B"
    },
    "id": "ProjEST_move_to_storage_B_9",
    "joint_names": [
        "shoulder_pan_joint",
        "shoulder_lift_joint",
        "elbow_joint",
        "wrist_1_joint",
        "wrist_2_joint",
        "wrist_3_joint"
    ],
    "metrics": {
        "cart_traj_len": 1.221314906841767,
        "distance_elbow_joint": 0.7095121656184402,
        "distance_shoulder_lift_joint": 0.46059217284272513,
        "distance_shoulder_pan_joint": 1.1027448033691936,
        "distance_wrist_1_joint": 3.0185866579815674,
        "distance_wrist_2_joint": 2.7022519475357663,
        "distance_wrist_3_joint": 3.1079410858569045,
        "smoothness": 0.15680852599064815,
        "time": 0.058395442,
        "traj_len": 3.33191068805942,
        "weighted_distance": 4.799828081341636
    },
    "planner": "ProjEST",
    "start": {
        "state": {
            "elbow_joint": 1.6649325340416963,
            "shoulder_lift_joint": -0.6616387945129425,
            "shoulder_pan_joint": -0.9139837929255878,
            "wrist_1_joint": 2.1467571094334352,
            "wrist_2_joint": -2.234195976750228,
            "wrist_3_joint": 0.005470921511140723
        }
    },
    "waypoints": [
        {
            "positions": [
                -0.9139837929255878,
                -0.6616387945129425,
                1.6649325340416963,
                2.1467571094334352,
                -2.234195976750228,
                0.005470921511140723
            ]
        },
        {
            "positions": [
                -0.8481050024380677,
                -0.7045465393917008,
                1.6397126332103629,
                2.060343640104159,
                -2.147201424857193,
                -0.041742972295001325
            ]
        },
        {
            "positions": [
                -0.7822262119505476,
                -0.7474542842704589,
                1.6144927323790295,
                1.9739301707748829,
                -2.0602068729641574,
                -0.08895686610114338
            ]
        },
        {
            "positions": [
                -0.7163474214630275,
                -0.7903620291492172,
                1.589272831547696,
                1.8875167014456067,
                -1.9732123210711223,
                -0.13617075990728542
            ]
        },
        {
            "positions": [
                -0.6504686309755074,
                -0.8332697740279754,
                1.5640529307163624,
                1.8011032321163305,
                -1.886217769178087,
                -0.18338465371342746
            ]
        },
        {
            "positions": [
                -0.5845898404879872,
                -0.8761775189067336,
                1.538833029885029,
                1.7146897627870543,
                -1.7992232172850517,
                -0.2305985475195695
            ]
        },
        {
            "positions": [
                -0.5187110500004672,
                -0.9190852637854918,
                1.5136131290536956,
                1.6282762934577781,
                -1.7122286653920165,
                -0.2778124413257116
            ]
        },
        {
            "positions": [
                -0.45283225951294703,
                -0.9619930086642501,
                1.4883932282223622,
                1.541862824128502,
                -1.6252341134989812,
                -0.32502633513185364
            ]
        },
        {
            "positions": [
                -0.4819955899655176,
                -0.9692765522411327,
                1.5126192673041396,
                1.4321495344613822,
                -1.5300845642133212,
                -0.4512737819143041
            ]
        },
        {
            "positions": [
                -0.5111589204180882,
                -0.9765600958180153,
                1.5368453063859173,
                1.3224362447942626,
                -1.4349350149276612,
                -0.5775212286967546
            ]
        },
        {
            "positions": [
                -0.5403222508706588,
                -0.9838436393948979,
                1.5610713454676948,
                1.2127229551271428,
                -1.3397854656420012,
                -0.703768675479205
            ]
        },
        {
            "positions": [
                -0.5694855813232294,
                -0.9911271829717806,
                1.5852973845494724,
                1.1030096654600232,
                -1.2446359163563412,
                -0.8300161222616556
            ]
        },
        {
            "positions": [
                -0.5986489117757999,
                -0.9984107265486631,
                1.60952342363125,
                0.9932963757929034,
                -1.1494863670706814,
                -0.9562635690441059
            ]
        },
        {
            "positions": [
                -0.6278122422283705,
                -1.0056942701255458,
                1.6337494627130276,
                0.8835830861257837,
                -1.0543368177850212,
                -1.0825110158265563
            ]
        },
        {
            "positions": [
                -0.6569755726809411,
                -1.0129778137024283,
                1.657975501794805,
                0.7738697964586639,
                -0.9591872684993613,
                -1.2087584626090069
            ]
        },
        {
            "positions": [
                -0.6861389031335117,
                -1.020261357279311,
                1.6822015408765827,
                0.6641565067915443,
                -0.8640377192137013,
                -1.3350059093914575
            ]
        },
        {
            "positions": [
                -0.7153022335860822,
                -1.0275449008561937,
                1.7064275799583601,
                0.5544432171244245,
                -0.7688881699280413,
                -1.4612533561739078
            ]
        },
        {
            "positions": [
                -0.7444655640386528,
                -1.0348284444330762,
                1.7306536190401376,
                0.4447299274573049,
                -0.6737386206423814,
                -1.5875008029563582
            ]
        },
        {
            "positions": [
                -0.7736288944912234,
                -1.042111988009959,
                1.7548796581219153,
                0.3350166377901851,
                -0.5785890713567214,
                -1.7137482497388088
            ]
        },
        {
            "positions": [
                -0.802792224943794,
                -1.0493955315868415,
                1.7791056972036927,
                0.22530334812306552,
                -0.48343952207106144,
                -1.8399956965212592
            ]
        },
        {
            "positions": [
                -0.8319555553963646,
                -1.056679075163724,
                1.8033317362854704,
                0.1155900584559455,
                -0.38828997278540145,
                -1.9662431433037098
            ]
        },
        {
            "positions": [
                -0.8611188858489351,
                -1.0639626187406066,
                1.8275577753672478,
                0.005876768788825926,
                -0.29314042349974145,
                -2.09249059008616
            ]
        },
        {
            "positions": [
                -0.8902822163015056,
                -1.0712461623174894,
                1.8517838144490255,
                -0.10383652087829365,
                -0.19799087421408168,
                -2.2187380368686105
            ]
        },
        {
            "positions": [
                -0.9194455467540763,
                -1.078529705894372,
                1.876009853530803,
                -0.21354981054541344,
                -0.10284132492842146,
                -2.3449854836510613
            ]
        },
        {
            "positions": [
                -0.9486088772066469,
                -1.0858132494712545,
                1.9002358926125806,
                -0.32326310021253324,
                -0.007691775642761689,
                -2.4712329304335117
            ]
        },
        {
            "positions": [
                -0.9777722076592175,
                -1.0930967930481372,
                1.924461931694358,
                -0.43297638987965303,
                0.08745777364289853,
                -2.597480377215962
            ]
        },
        {
            "positions": [
                -1.006935538111788,
                -1.1003803366250198,
                1.9486879707761358,
                -0.5426896795467728,
                0.1826073229285583,
                -2.7237278239984124
            ]
        },
        {
            "positions": [
                -1.0360988685643586,
                -1.1076638802019023,
                1.9729140098579132,
                -0.6524029692138922,
                0.2777568722142183,
                -2.8499752707808628
            ]
        },
        {
            "positions": [
                -1.0652621990169293,
                -1.114947423778785,
                1.9971400489396909,
                -0.762116258881012,
                0.3729064214998783,
                -2.9762227175633136
            ]
        },
        {
            "positions": [
                -1.0944255294694998,
                -1.1222309673556676,
                2.0213660880214683,
                -0.8718295485481318,
                0.4680559707855385,
                -3.102470164345764
            ]
        }
    ]
}