{
    "goal": {
        "global_pose": {
            "orientation": {
                "w": 0.5084816217422485,
                "x": -0.49083608388900757,
                "y": 0.5182115435600281,
                "z": -0.4816462993621826
            },
            "position": {
                "x": 0.5540239810943604,
                "y": 0.030875300988554955,
                "z": 0.16403168439865112
            }
        },
        "name": "move_to_storage_A"
    },
    "id": "ProjEST_move_to_storage_A_46",
    "joint_names": [
        "shoulder_pan_joint",
        "shoulder_lift_joint",
        "elbow_joint",
        "wrist_1_joint",
        "wrist_2_joint",
        "wrist_3_joint"
    ],
    "metrics": {
        "cart_traj_len": 0.3524015560960144,
        "distance_elbow_joint": 0.453427862356502,
        "distance_shoulder_lift_joint": 0.2345936448754402,
        "distance_shoulder_pan_joint": 0.46075994875362514,
        "distance_wrist_1_joint": 0.2572954969961052,
        "distance_wrist_2_joint": 1.0982151042386237,
        "distance_wrist_3_joint": 0.09562222086746752,
        "smoothness": 1.2212453191034883e-15,
        "time": 0.044300677999999996,
        "traj_len": 1.6124249682040288,
        "weighted_distance": 2.036337231663122
    },
    "planner": "ProjEST",
    "start": {
        "state": {
            "elbow_joint": 1.971548880431181,
            "shoulder_lift_joint": -1.1394869514688781,
            "shoulder_pan_joint": 0.12281150262730567,
            "wrist_1_joint": -0.7804693444481463,
            "wrist_2_joint": 0.12958644648617612,
            "wrist_3_joint": 3.0906942077768043
        }
    },
    "waypoints": [
        {
            "positions": [
                0.12281150262730567,
                -1.1394869514688781,
                1.971548880431181,
                -0.7804693444481463,
                0.12958644648617612,
                3.0906942077768043
            ]
        },
        {
            "positions": [
                0.056988652805359225,
                -1.1730003293082267,
                2.0363242893392526,
                -0.8172258440190184,
                0.28647431852026517,
                3.1043545250435853
            ]
        },
        {
            "positions": [
                -0.00883419701658722,
                -1.2065137071475753,
                2.1010996982473245,
                -0.8539823435898907,
                0.4433621905543543,
                3.1180148423103664
            ]
        },
        {
            "positions": [
                -0.07465704683853366,
                -1.240027084986924,
                2.165875107155396,
                -0.8907388431607628,
                0.6002500625884434,
                3.1316751595771475
            ]
        },
        {
            "positions": [
                -0.1404798966604801,
                -1.2735404628262725,
                2.2306505160634678,
                -0.927495342731635,
                0.7571379346225324,
                3.1453354768439286
            ]
        },
        {
            "positions": [
                -0.20630274648242658,
                -1.3070538406656211,
                2.2954259249715396,
                -0.9642518423025072,
                0.9140258066566216,
                3.1589957941107096
            ]
        },
        {
            "positions": [
                -0.272125596304373,
                -1.3405672185049697,
                2.360201333879611,
                -1.0010083418733793,
                1.0709136786907107,
                3.1726561113774907
            ]
        },
        {
            "positions": [
                -0.33794844612631947,
                -1.3740805963443183,
                2.424976742787683,
                -1.0377648414442515,
                1.2278015507247997,
                3.186316428644272
            ]
        }
    ]
}