{
    "goal": {
        "global_pose": {
            "orientation": {
                "w": 0.7031023480610252,
                "x": -0.7110244013736278,
                "y": 0.0077485991402295624,
                "z": 0.005598929693374583
            },
            "position": {
                "x": -0.8841497679147869,
                "y": 0.44412534475326537,
                "z": 0.3711530566215515
            }
        },
        "name": "move_to_auspresseinheit_D"
    },
    "id": "ProjEST_move_to_auspresseinheit_D_140",
    "joint_names": [
        "shoulder_pan_joint",
        "shoulder_lift_joint",
        "elbow_joint",
        "wrist_1_joint",
        "wrist_2_joint",
        "wrist_3_joint"
    ],
    "metrics": {
        "cart_traj_len": 0.34385355115737853,
        "distance_elbow_joint": 0.6534283796395879,
        "distance_shoulder_lift_joint": 0.12994477469150434,
        "distance_shoulder_pan_joint": 0.13333774917348673,
        "distance_wrist_1_joint": 0.5648770485250854,
        "distance_wrist_2_joint": 1.4495141243657887,
        "distance_wrist_3_joint": 0.030592189055100416,
        "smoothness": 1.9737298371844314e-16,
        "time": 0.176211384,
        "traj_len": 1.7209573688649449,
        "weighted_distance": 2.244386289490209
    },
    "planner": "ProjEST",
    "start": {
        "state": {
            "elbow_joint": -1.8275484843655228,
            "shoulder_lift_joint": -2.1267897864000416,
            "shoulder_pan_joint": -0.035127520176001514,
            "wrist_1_joint": -2.3477863256791385,
            "wrist_2_joint": -1.605890476484521,
            "wrist_3_joint": -3.0880375317375353
        }
    },
    "waypoints": [
        {
            "positions": [
                -0.035127520176001514,
                -2.1267897864000416,
                -1.8275484843655228,
                -2.3477863256791385,
                -1.605890476484521,
                -3.0880375317375353
            ]
        },
        {
            "positions": [
                -0.051794738822687356,
                -2.14303288323648,
                -1.7458699369105743,
                -2.4183959567447744,
                -1.4247012109387973,
                -3.084213508105648
            ]
        },
        {
            "positions": [
                -0.0684619574693732,
                -2.1592759800729175,
                -1.6641913894556257,
                -2.48900558781041,
                -1.2435119453930739,
                -3.08038948447376
            ]
        },
        {
            "positions": [
                -0.08512917611605904,
                -2.1755190769093558,
                -1.5825128420006773,
                -2.5596152188760453,
                -1.0623226798473502,
                -3.0765654608418727
            ]
        },
        {
            "positions": [
                -0.10179639476274488,
                -2.1917621737457935,
                -1.500834294545729,
                -2.630224849941681,
                -0.8811334143016266,
                -3.0727414372099853
            ]
        },
        {
            "positions": [
                -0.11846361340943072,
                -2.2080052705822317,
                -1.4191557470907803,
                -2.700834481007317,
                -0.699944148755903,
                -3.0689174135780974
            ]
        },
        {
            "positions": [
                -0.13513083205611656,
                -2.22424836741867,
                -1.337477199635832,
                -2.7714441120729525,
                -0.5187548832101794,
                -3.06509338994621
            ]
        },
        {
            "positions": [
                -0.1517980507028024,
                -2.2404914642551077,
                -1.2557986521808835,
                -2.842053743138588,
                -0.3375656176644559,
                -3.0612693663143222
            ]
        },
        {
            "positions": [
                -0.16846526934948824,
                -2.256734561091546,
                -1.1741201047259349,
                -2.912663374204224,
                -0.15637635211873233,
                -3.057445342682435
            ]
        }
    ]
}