{
    "goal": {
        "global_pose": {
            "orientation": {
                "w": 0.005598929693374612,
                "x": 0.007748599140229565,
                "y": 0.7110244013736278,
                "z": -0.7031023480610252
            },
            "position": {
                "x": -0.8858502320852131,
                "y": -0.7141253447532654,
                "z": 0.3711530566215515
            }
        },
        "name": "move_to_auspresseinheit_C"
    },
    "id": "ProjEST_move_to_auspresseinheit_C_30",
    "joint_names": [
        "shoulder_pan_joint",
        "shoulder_lift_joint",
        "elbow_joint",
        "wrist_1_joint",
        "wrist_2_joint",
        "wrist_3_joint"
    ],
    "metrics": {
        "cart_traj_len": 0.49468159151153085,
        "distance_elbow_joint": 1.0155225253890818,
        "distance_shoulder_lift_joint": 0.33127708145121226,
        "distance_shoulder_pan_joint": 0.25701412375968724,
        "distance_wrist_1_joint": 0.7139483812492875,
        "distance_wrist_2_joint": 1.3012098575288253,
        "distance_wrist_3_joint": 0.08715977284522403,
        "smoothness": 8.074349282788172e-16,
        "time": 0.939217063,
        "traj_len": 1.9251316168572263,
        "weighted_distance": 2.4280876274739094
    },
    "planner": "ProjEST",
    "start": {
        "state": {
            "elbow_joint": 1.7527959577730765,
            "shoulder_lift_joint": -0.9740617694224828,
            "shoulder_pan_joint": -2.967991417825869,
            "wrist_1_joint": -0.7595177689779385,
            "wrist_2_joint": 1.7443932448376545,
            "wrist_3_joint": 3.1991315425061013
        }
    },
    "waypoints": [
        {
            "positions": [
                -2.967991417825869,
                -0.9740617694224828,
                1.7527959577730765,
                -0.7595177689779385,
                1.7443932448376545,
                3.1991315425061013
            ]
        },
        {
            "positions": [
                -2.9422900054499004,
                -0.9409340612773616,
                1.6512437052341684,
                -0.6881229308530098,
                1.614272259084772,
                3.190415565221579
            ]
        },
        {
            "positions": [
                -2.9165885930739317,
                -0.9078063531322403,
                1.54969145269526,
                -0.616728092728081,
                1.4841512733318893,
                3.1816995879370564
            ]
        },
        {
            "positions": [
                -2.890887180697963,
                -0.8746786449871191,
                1.448139200156352,
                -0.5453332546031523,
                1.354030287579007,
                3.172983610652534
            ]
        },
        {
            "positions": [
                -2.8651857683219943,
                -0.8415509368419979,
                1.3465869476174437,
                -0.47393841647822355,
                1.2239093018261245,
                3.1642676333680115
            ]
        },
        {
            "positions": [
                -2.839484355946025,
                -0.8084232286968767,
                1.2450346950785356,
                -0.4025435783532948,
                1.0937883160732418,
                3.1555516560834893
            ]
        },
        {
            "positions": [
                -2.8137829435700565,
                -0.7752955205517554,
                1.1434824425396273,
                -0.33114874022836605,
                0.9636673303203592,
                3.146835678798967
            ]
        },
        {
            "positions": [
                -2.788081531194088,
                -0.7421678124066342,
                1.0419301900007194,
                -0.25975390210343735,
                0.8335463445674768,
                3.1381197015144444
            ]
        },
        {
            "positions": [
                -2.762380118818119,
                -0.709040104261513,
                0.940377937461811,
                -0.18835906397850855,
                0.7034253588145942,
                3.129403724229922
            ]
        },
        {
            "positions": [
                -2.7366787064421505,
                -0.6759123961163918,
                0.8388256849229029,
                -0.1169642258535798,
                0.5733043730617116,
                3.1206877469453995
            ]
        },
        {
            "positions": [
                -2.710977294066182,
                -0.6427846879712705,
                0.7372734323839947,
                -0.04556938772865106,
                0.44318338730882917,
                3.1119717696608773
            ]
        }
    ]
}