{
    "goal": {
        "global_pose": {
            "orientation": {
                "w": 0.5084816262002911,
                "x": -0.4908360881923452,
                "y": 0.5182115481033761,
                "z": -0.48164630358495003
            },
            "position": {
                "x": 0.5540239810943604,
                "y": -0.46912469901144505,
                "z": 0.16403168439865112
            }
        },
        "name": "move_to_storage_B"
    },
    "id": "ProjEST_move_to_storage_B_124",
    "joint_names": [
        "shoulder_pan_joint",
        "shoulder_lift_joint",
        "elbow_joint",
        "wrist_1_joint",
        "wrist_2_joint",
        "wrist_3_joint"
    ],
    "metrics": {
        "cart_traj_len": 1.0719842218481759,
        "distance_elbow_joint": 0.5707985051468205,
        "distance_shoulder_lift_joint": 0.8617606653277676,
        "distance_shoulder_pan_joint": 0.6626419679468116,
        "distance_wrist_1_joint": 3.004706205006552,
        "distance_wrist_2_joint": 2.969433642074335,
        "distance_wrist_3_joint": 3.1637460376065585,
        "smoothness": 0.276859073389053,
        "time": 0.111394843,
        "traj_len": 3.3515797802094527,
        "weighted_distance": 4.85125952154725
    },
    "planner": "ProjEST",
    "start": {
        "state": {
            "elbow_joint": 1.6649325340416963,
            "shoulder_lift_joint": -0.6616387945129425,
            "shoulder_pan_joint": -0.9139837929255878,
            "wrist_1_joint": 2.1467571094334352,
            "wrist_2_joint": -2.234195976750228,
            "wrist_3_joint": 0.005470921511140723
        }
    },
    "waypoints": [
        {
            "positions": [
                -0.9139837929255878,
                -0.6616387945129425,
                1.6649325340416963,
                2.1467571094334352,
                -2.234195976750228,
                0.005470921511140723
            ]
        },
        {
            "positions": [
                -0.8337976120090917,
                -0.7180900378784287,
                1.6300956587395559,
                2.1149225673837417,
                -2.123850617687574,
                0.05528387857844122
            ]
        },
        {
            "positions": [
                -0.7536114310925958,
                -0.774541281243915,
                1.5952587834374152,
                2.0830880253340482,
                -2.0135052586249196,
                0.10509683564574171
            ]
        },
        {
            "positions": [
                -0.6734252501760997,
                -0.8309925246094012,
                1.5604219081352748,
                2.0512534832843548,
                -1.9031598995622656,
                0.15490979271304223
            ]
        },
        {
            "positions": [
                -0.6828902341936187,
                -0.8523573754610279,
                1.580508291327588,
                1.9300290312501225,
                -1.794304728909798,
                0.2647750512087605
            ]
        },
        {
            "positions": [
                -0.6923552182111377,
                -0.8737222263126545,
                1.6005946745199013,
                1.8088045792158904,
                -1.6854495582573303,
                0.3746403097044788
            ]
        },
        {
            "positions": [
                -0.7018202022286567,
                -0.8950870771642812,
                1.6206810577122146,
                1.6875801271816582,
                -1.5765943876048627,
                0.4845055682001971
            ]
        },
        {
            "positions": [
                -0.7112851862461756,
                -0.9164519280159077,
                1.6407674409045279,
                1.566355675147426,
                -1.467739216952395,
                0.5943708266959153
            ]
        },
        {
            "positions": [
                -0.7207501702636947,
                -0.9378167788675343,
                1.6608538240968411,
                1.4451312231131936,
                -1.3588840462999274,
                0.7042360851916336
            ]
        },
        {
            "positions": [
                -0.7302151542812136,
                -0.959181629719161,
                1.6809402072891544,
                1.3239067710789616,
                -1.2500288756474598,
                0.8141013436873519
            ]
        },
        {
            "positions": [
                -0.7396801382987327,
                -0.9805464805707876,
                1.7010265904814676,
                1.2026823190447293,
                -1.141173704994992,
                0.9239666021830704
            ]
        },
        {
            "positions": [
                -0.7491451223162517,
                -1.0019113314224142,
                1.721112973673781,
                1.081457867010497,
                -1.0323185343425245,
                1.0338318606787884
            ]
        },
        {
            "positions": [
                -0.7586101063337707,
                -1.0232761822740408,
                1.7411993568660942,
                0.960233414976265,
                -0.9234633636900568,
                1.143697119174507
            ]
        },
        {
            "positions": [
                -0.7680750903512897,
                -1.0446410331256675,
                1.7612857400584074,
                0.8390089629420328,
                -0.8146081930375892,
                1.2535623776702252
            ]
        },
        {
            "positions": [
                -0.7775400743688087,
                -1.0660058839772941,
                1.781372123250721,
                0.7177845109078005,
                -0.7057530223851214,
                1.3634276361659434
            ]
        },
        {
            "positions": [
                -0.7870050583863277,
                -1.0873707348289208,
                1.801458506443034,
                0.5965600588735684,
                -0.596897851732654,
                1.4732928946616617
            ]
        },
        {
            "positions": [
                -0.7964700424038467,
                -1.1087355856805474,
                1.8215448896353474,
                0.4753356068393364,
                -0.48804268108018634,
                1.58315815315738
            ]
        },
        {
            "positions": [
                -0.8059350264213657,
                -1.130100436532174,
                1.8416312728276607,
                0.3541111548051039,
                -0.3791875104277185,
                1.6930234116530984
            ]
        },
        {
            "positions": [
                -0.8154000104388848,
                -1.1514652873838007,
                1.861717656019974,
                0.23288670277087165,
                -0.27033233977525084,
                1.8028886701488165
            ]
        },
        {
            "positions": [
                -0.8248649944564037,
                -1.1728301382354274,
                1.8818040392122872,
                0.1116622507366396,
                -0.16147716912278343,
                1.9127539286445348
            ]
        },
        {
            "positions": [
                -0.8343299784739227,
                -1.194194989087054,
                1.9018904224046005,
                -0.009562201297592665,
                -0.05262199847031579,
                2.022619187140253
            ]
        },
        {
            "positions": [
                -0.8437949624914417,
                -1.2155598399386807,
                1.9219768055969138,
                -0.1307866533318247,
                0.05623317218215207,
                2.1324844456359715
            ]
        },
        {
            "positions": [
                -0.8532599465089608,
                -1.236924690790307,
                1.942063188789227,
                -0.2520111053660572,
                0.1650883428346197,
                2.2423497041316898
            ]
        },
        {
            "positions": [
                -0.8627249305264797,
                -1.2582895416419337,
                1.9621495719815403,
                -0.37323555740028924,
                0.2739435134870871,
                2.352214962627408
            ]
        },
        {
            "positions": [
                -0.8721899145439987,
                -1.2796543924935604,
                1.9822359551738535,
                -0.4944600094345213,
                0.382798684139555,
                2.4620802211231263
            ]
        },
        {
            "positions": [
                -0.8816548985615178,
                -1.301019243345187,
                2.0023223383661666,
                -0.6156844614687538,
                0.49165385479202284,
                2.5719454796188446
            ]
        },
        {
            "positions": [
                -0.8911198825790367,
                -1.3223840941968137,
                2.02240872155848,
                -0.7369089135029856,
                0.6005090254444901,
                2.681810738114563
            ]
        },
        {
            "positions": [
                -0.9592494801771655,
                -1.2553789723155149,
                2.020975032952749,
                -0.7772556408596959,
                0.5555994788179512,
                2.8442794784489416
            ]
        },
        {
            "positions": [
                -1.0273790777752942,
                -1.188373850434216,
                2.0195413443470174,
                -0.8176023682164061,
                0.5106899321914122,
                3.0067482187833203
            ]
        },
        {
            "positions": [
                -1.0955086753734231,
                -1.1213687285529172,
                2.0181076557412863,
                -0.8579490955731164,
                0.4657803855648733,
                3.169216959117699
            ]
        }
    ]
}