{
    "goal": {
        "global_pose": {
            "orientation": {
                "w": 0.7047431493862688,
                "x": -0.7094548369677653,
                "y": 0.0024358444001904,
                "z": -0.0022348060817251984
            },
            "position": {
                "x": -0.39052492380142206,
                "y": 0.3671506643295288,
                "z": 0.19426114857196808
            }
        },
        "name": "move_to_magneteinheit_D"
    },
    "id": "ProjEST_move_to_magneteinheit_D_107",
    "joint_names": [
        "shoulder_pan_joint",
        "shoulder_lift_joint",
        "elbow_joint",
        "wrist_1_joint",
        "wrist_2_joint",
        "wrist_3_joint"
    ],
    "metrics": {
        "cart_traj_len": 4.407466551804537,
        "distance_elbow_joint": 4.476171732477598,
        "distance_shoulder_lift_joint": 1.3008318836220178,
        "distance_shoulder_pan_joint": 2.9448454307558474,
        "distance_wrist_1_joint": 3.531422344628059,
        "distance_wrist_2_joint": 0.895330046299442,
        "distance_wrist_3_joint": 2.665881226566506,
        "smoothness": 0.47458826835323026,
        "time": 0.176697795,
        "traj_len": 3.9767427204119543,
        "weighted_distance": 5.056975134248733
    },
    "planner": "ProjEST",
    "start": {
        "state": {
            "elbow_joint": 0.7495348899011911,
            "shoulder_lift_joint": -0.6476975780737668,
            "shoulder_pan_joint": -2.711696901376276,
            "wrist_1_joint": -0.0750647808097303,
            "wrist_2_joint": 0.43296659715458535,
            "wrist_3_joint": 3.1361499051832418
        }
    },
    "waypoints": [
        {
            "positions": [
                -2.711696901376276,
                -0.6476975780737668,
                0.7495348899011911,
                -0.0750647808097303,
                0.43296659715458535,
                3.1361499051832418
            ]
        },
        {
            "positions": [
                -2.7056076777233056,
                -0.7279245636199567,
                0.8348118308011523,
                0.014500897338335372,
                0.38366465603907535,
                3.0654565225506674
            ]
        },
        {
            "positions": [
                -2.699518454070335,
                -0.8081515491661466,
                0.9200887717011135,
                0.10406657548640104,
                0.3343627149235653,
                2.994763139918093
            ]
        },
        {
            "positions": [
                -2.6934292304173644,
                -0.8883785347123366,
                1.0053657126010747,
                0.19363225363446673,
                0.2850607738080553,
                2.9240697572855185
            ]
        },
        {
            "positions": [
                -2.6873400067643933,
                -0.9686055202585265,
                1.0906426535010358,
                0.2831979317825324,
                0.23575883269254524,
                2.853376374652944
            ]
        },
        {
            "positions": [
                -2.6812507831114227,
                -1.0488325058047163,
                1.175919594400997,
                0.37276360993059804,
                0.1864568915770352,
                2.7826829920203693
            ]
        },
        {
            "positions": [
                -2.675161559458452,
                -1.1290594913509064,
                1.2611965353009582,
                0.46232928807866375,
                0.1371549504615252,
                2.711989609387795
            ]
        },
        {
            "positions": [
                -2.6690723358054815,
                -1.2092864768970963,
                1.3464734762009194,
                0.5518949662267293,
                0.08785300934601514,
                2.6412962267552205
            ]
        },
        {
            "positions": [
                -2.662983112152511,
                -1.2895134624432862,
                1.4317504171008806,
                0.641460644374795,
                0.03855106823050514,
                2.570602844122646
            ]
        },
        {
            "positions": [
                -2.5419374314883316,
                -1.3453242641262728,
                1.3828599708690725,
                0.6005103636959208,
                0.05307426323645084,
                2.494311974489164
            ]
        },
        {
            "positions": [
                -2.4208917508241523,
                -1.4011350658092592,
                1.3339695246372647,
                0.5595600830170466,
                0.06759745824239655,
                2.418021104855683
            ]
        },
        {
            "positions": [
                -2.299846070159973,
                -1.4569458674922457,
                1.2850790784054567,
                0.5186098023381724,
                0.08212065324834225,
                2.341730235222201
            ]
        },
        {
            "positions": [
                -2.1788003894957937,
                -1.512756669175232,
                1.2361886321736488,
                0.4776595216592983,
                0.09664384825428796,
                2.265439365588719
            ]
        },
        {
            "positions": [
                -2.0577547088316144,
                -1.5685674708582187,
                1.1872981859418408,
                0.4367092409804242,
                0.11116704326023366,
                2.189148495955237
            ]
        },
        {
            "positions": [
                -1.936709028167435,
                -1.6243782725412053,
                1.1384077397100327,
                0.39575896030155,
                0.12569023826617937,
                2.1128576263217558
            ]
        },
        {
            "positions": [
                -1.8156633475032558,
                -1.6801890742241916,
                1.089517293478225,
                0.3548086796226758,
                0.14021343327212507,
                2.036566756688274
            ]
        },
        {
            "positions": [
                -1.6946176668390764,
                -1.7359998759071782,
                1.0406268472464169,
                0.31385839894380163,
                0.15473662827807078,
                1.960275887054792
            ]
        },
        {
            "positions": [
                -1.5735719861748971,
                -1.7918106775901648,
                0.9917364010146089,
                0.2729081182649275,
                0.16925982328401648,
                1.8839850174213106
            ]
        },
        {
            "positions": [
                -1.4525263055107178,
                -1.8476214792731511,
                0.942845954782801,
                0.23195783758605332,
                0.18378301828996219,
                1.8076941477878288
            ]
        },
        {
            "positions": [
                -1.3822214751423911,
                -1.8459843152843671,
                0.8001009861306161,
                0.12560942955585944,
                0.17174521053638106,
                1.8632997461005216
            ]
        },
        {
            "positions": [
                -1.3119166447740642,
                -1.844347151295583,
                0.6573560174784312,
                0.019261021525665556,
                0.15970740278279993,
                1.9189053444132143
            ]
        },
        {
            "positions": [
                -1.2416118144057373,
                -1.842709987306799,
                0.5146110488262463,
                -0.08708738650452835,
                0.1476695950292188,
                1.974510942725907
            ]
        },
        {
            "positions": [
                -1.1713069840374106,
                -1.841072823318015,
                0.3718660801740614,
                -0.1934357945347222,
                0.13563178727563768,
                2.0301165410385997
            ]
        },
        {
            "positions": [
                -1.101002153669084,
                -1.839435659329231,
                0.22912111152187653,
                -0.29978420256491606,
                0.12359397952205654,
                2.0857221393512924
            ]
        },
        {
            "positions": [
                -1.030697323300757,
                -1.8377984953404467,
                0.08637614286969164,
                -0.40613261059511,
                0.11155617176847542,
                2.1413277376639854
            ]
        },
        {
            "positions": [
                -0.9603924929324302,
                -1.8361613313516627,
                -0.05636882578249325,
                -0.5124810186253039,
                0.09951836401489428,
                2.196933335976678
            ]
        },
        {
            "positions": [
                -0.8900876625641034,
                -1.8345241673628787,
                -0.19911379443467814,
                -0.6188294266554977,
                0.08748055626131315,
                2.2525389342893707
            ]
        },
        {
            "positions": [
                -0.8197828321957766,
                -1.8328870033740945,
                -0.341858763086863,
                -0.7251778346856916,
                0.07544274850773203,
                2.3081445326020633
            ]
        },
        {
            "positions": [
                -0.7494780018274498,
                -1.8312498393853105,
                -0.4846037317390479,
                -0.8315262427158854,
                0.0634049407541509,
                2.3637501309147564
            ]
        },
        {
            "positions": [
                -0.6791731714591229,
                -1.8296126753965265,
                -0.627348700391233,
                -0.9378746507460796,
                0.05136713300056975,
                2.419355729227449
            ]
        },
        {
            "positions": [
                -0.6088683410907962,
                -1.8279755114077425,
                -0.7700936690434177,
                -1.0442230587762733,
                0.03932932524698865,
                2.4749613275401416
            ]
        },
        {
            "positions": [
                -0.5385635107224693,
                -1.8263383474189583,
                -0.9128386376956028,
                -1.1505714668064673,
                0.027291517493407497,
                2.5305669258528347
            ]
        },
        {
            "positions": [
                -0.46825868035414264,
                -1.8247011834301743,
                -1.0555836063477875,
                -1.256919874836661,
                0.015253709739826371,
                2.5861725241655273
            ]
        },
        {
            "positions": [
                -0.39795384998581573,
                -1.8230640194413903,
                -1.1983285749999726,
                -1.363268282866855,
                0.0032159019862452454,
                2.64177812247822
            ]
        },
        {
            "positions": [
                -0.32764901961748905,
                -1.821426855452606,
                -1.3410735436521573,
                -1.4696166908970487,
                -0.00882190576733588,
                2.6973837207909126
            ]
        },
        {
            "positions": [
                -0.25734418924916214,
                -1.819789691463822,
                -1.4838185123043424,
                -1.5759650989272427,
                -0.020859713520917034,
                2.7529893191036057
            ]
        },
        {
            "positions": [
                -0.18703935888083545,
                -1.818152527475038,
                -1.626563480956527,
                -1.6823135069574366,
                -0.03289752127449813,
                2.8085949174162983
            ]
        },
        {
            "positions": [
                -0.11673452851250854,
                -1.816515363486254,
                -1.7693084496087121,
                -1.7886619149876304,
                -0.044935329028079285,
                2.8642005157289914
            ]
        },
        {
            "positions": [
                -0.04642969814418185,
                -1.8148781994974699,
                -1.9120534182608968,
                -1.8950103230178241,
                -0.05697313678166038,
                2.919806114041684
            ]
        },
        {
            "positions": [
                0.0238751322241451,
                -1.8132410355086859,
                -2.054798386913082,
                -2.0013587310480183,
                -0.06901094453524155,
                2.9754117123543766
            ]
        },
        {
            "positions": [
                -0.026502207043862462,
                -1.7941236058425616,
                -2.150506414116263,
                -2.0569152368571073,
                -0.10162753518764137,
                3.038199751092252
            ]
        },
        {
            "positions": [
                -0.07687954631187002,
                -1.7750061761764373,
                -2.2462144413194447,
                -2.1124717426661968,
                -0.1342441258400412,
                3.100987789830127
            ]
        },
        {
            "positions": [
                -0.18539826493128195,
                -1.7467134968505176,
                -2.362205788177029,
                -2.1734362750687386,
                -0.17189954902594312,
                3.145119616958922
            ]
        }
    ]
}