{
    "goal": {
        "global_pose": {
            "orientation": {
                "w": -0.4816463035849501,
                "x": 0.5182115481033762,
                "y": 0.4908360881923453,
                "z": -0.5084816262002911
            },
            "position": {
                "x": -0.8240239810943604,
                "y": -0.300875300988555,
                "z": 0.16403168439865112
            }
        },
        "name": "move_to_storage_C"
    },
    "id": "ProjEST_move_to_storage_C_93",
    "joint_names": [
        "shoulder_pan_joint",
        "shoulder_lift_joint",
        "elbow_joint",
        "wrist_1_joint",
        "wrist_2_joint",
        "wrist_3_joint"
    ],
    "metrics": {
        "cart_traj_len": 0.5771924877692457,
        "distance_elbow_joint": 0.25700408707904043,
        "distance_shoulder_lift_joint": 0.19011424341465855,
        "distance_shoulder_pan_joint": 0.4961467109261921,
        "distance_wrist_1_joint": 0.07130341024209963,
        "distance_wrist_2_joint": 1.0586041463002864,
        "distance_wrist_3_joint": 0.06189814885514355,
        "smoothness": 0.0,
        "time": 0.094848182,
        "traj_len": 1.4611881284822363,
        "weighted_distance": 1.8408624612040123
    },
    "planner": "ProjEST",
    "start": {
        "state": {
            "elbow_joint": 2.0108683149792914,
            "shoulder_lift_joint": -1.1634956873317392,
            "shoulder_pan_joint": -2.4736205022346,
            "wrist_1_joint": -0.8367026793690192,
            "wrist_2_joint": 0.6746043897045053,
            "wrist_3_joint": 3.133522094754363
        }
    },
    "waypoints": [
        {
            "positions": [
                -2.4736205022346,
                -1.1634956873317392,
                2.0108683149792914,
                -0.8367026793690192,
                0.6746043897045053,
                3.133522094754363
            ]
        },
        {
            "positions": [
                -2.556311620722299,
                -1.131809980095963,
                1.968034300466118,
                -0.8248187776620026,
                0.8510384140878864,
                3.1438384528968872
            ]
        },
        {
            "positions": [
                -2.6390027392099973,
                -1.1001242728601863,
                1.9252002859529447,
                -0.812934875954986,
                1.0274724384712675,
                3.154154811039411
            ]
        },
        {
            "positions": [
                -2.721693857697696,
                -1.06843856562441,
                1.8823662714397713,
                -0.8010509742479694,
                1.2039064628546485,
                3.164471169181935
            ]
        },
        {
            "positions": [
                -2.804384976185395,
                -1.0367528583886336,
                1.8395322569265977,
                -0.7891670725409528,
                1.3803404872380296,
                3.174787527324459
            ]
        },
        {
            "positions": [
                -2.8870760946730933,
                -1.005067151152857,
                1.7966982424134244,
                -0.7772831708339362,
                1.5567745116214107,
                3.1851038854669826
            ]
        },
        {
            "positions": [
                -2.969767213160792,
                -0.9733814439170807,
                1.753864227900251,
                -0.7653992691269196,
                1.7332085360047917,
                3.1954202436095067
            ]
        }
    ]
}