{
    "goal": {
        "global_pose": {
            "orientation": {
                "w": 0.7047431493862688,
                "x": -0.7094548369677653,
                "y": 0.0024358444001904,
                "z": -0.0022348060817251984
            },
            "position": {
                "x": -0.39052492380142206,
                "y": 0.3671506643295288,
                "z": 0.19426114857196808
            }
        },
        "name": "move_to_magneteinheit_D"
    },
    "id": "ProjEST_move_to_magneteinheit_D_45",
    "joint_names": [
        "shoulder_pan_joint",
        "shoulder_lift_joint",
        "elbow_joint",
        "wrist_1_joint",
        "wrist_2_joint",
        "wrist_3_joint"
    ],
    "metrics": {
        "cart_traj_len": 4.041549538525594,
        "distance_elbow_joint": 3.1446934380958207,
        "distance_shoulder_lift_joint": 1.8212090327902475,
        "distance_shoulder_pan_joint": 3.10611027363035,
        "distance_wrist_1_joint": 2.5474420738445893,
        "distance_wrist_2_joint": 2.1715744478809746,
        "distance_wrist_3_joint": 3.0482714647421325,
        "smoothness": 0.4057811375919786,
        "time": 0.17214517000000001,
        "traj_len": 3.9798618984814182,
        "weighted_distance": 5.16283451044036
    },
    "planner": "ProjEST",
    "start": {
        "state": {
            "elbow_joint": 0.7495348899011911,
            "shoulder_lift_joint": -0.6476975780737668,
            "shoulder_pan_joint": -2.711696901376276,
            "wrist_1_joint": -0.0750647808097303,
            "wrist_2_joint": 0.43296659715458535,
            "wrist_3_joint": 3.1361499051832418
        }
    },
    "waypoints": [
        {
            "positions": [
                -2.711696901376276,
                -0.6476975780737668,
                0.7495348899011911,
                -0.0750647808097303,
                0.43296659715458535,
                3.1361499051832418
            ]
        },
        {
            "positions": [
                -2.7286673183609502,
                -0.6352022840307279,
                0.6871716067862131,
                -0.11250652574541822,
                0.5290001109353302,
                3.0598108810368565
            ]
        },
        {
            "positions": [
                -2.745637735345624,
                -0.622706989987689,
                0.6248083236712352,
                -0.14994827068110617,
                0.6250336247160749,
                2.9834718568904712
            ]
        },
        {
            "positions": [
                -2.762608152330298,
                -0.6102116959446502,
                0.5624450405562571,
                -0.18739001561679408,
                0.7210671384968197,
                2.9071328327440855
            ]
        },
        {
            "positions": [
                -2.779578569314972,
                -0.5977164019016112,
                0.5000817574412791,
                -0.224831760552482,
                0.8171006522775645,
                2.8307938085977002
            ]
        },
        {
            "positions": [
                -2.736528694606784,
                -0.5819458240641802,
                0.3505201594021485,
                -0.2981012773087509,
                0.8166238093391398,
                2.7567707080244332
            ]
        },
        {
            "positions": [
                -2.6934788198985955,
                -0.566175246226749,
                0.20095856136301782,
                -0.3713707940650199,
                0.816146966400715,
                2.6827476074511662
            ]
        },
        {
            "positions": [
                -2.6504289451904075,
                -0.5504046683893179,
                0.051396963323887074,
                -0.44464031082128885,
                0.8156701234622904,
                2.6087245068778993
            ]
        },
        {
            "positions": [
                -2.552842394960208,
                -0.5868777607629657,
                -0.023800853221756513,
                -0.375191269846032,
                0.7707949470914903,
                2.5451652979249726
            ]
        },
        {
            "positions": [
                -2.455255844730009,
                -0.6233508531366136,
                -0.0989986697674001,
                -0.3057422288707752,
                0.7259197707206901,
                2.4816060889720464
            ]
        },
        {
            "positions": [
                -2.3576692944998094,
                -0.6598239455102615,
                -0.17419648631304369,
                -0.23629318789551837,
                0.6810445943498901,
                2.4180468800191197
            ]
        },
        {
            "positions": [
                -2.26008274426961,
                -0.6962970378839093,
                -0.24939430285868727,
                -0.16684414692026156,
                0.63616941797909,
                2.3544876710661935
            ]
        },
        {
            "positions": [
                -2.1624961940394107,
                -0.7327701302575571,
                -0.32459211940433086,
                -0.09739510594500472,
                0.5912942416082898,
                2.290928462113267
            ]
        },
        {
            "positions": [
                -2.0649096438092114,
                -0.769243222631205,
                -0.3997899359499745,
                -0.027946064969747886,
                0.5464190652374897,
                2.2273692531603406
            ]
        },
        {
            "positions": [
                -1.9673230935790122,
                -0.8057163150048529,
                -0.474987752495618,
                0.041502976005508896,
                0.5015438888666897,
                2.163810044207414
            ]
        },
        {
            "positions": [
                -1.8697365433488131,
                -0.8421894073785008,
                -0.5501855690412616,
                0.11095201698076573,
                0.45666871249588953,
                2.1002508352544877
            ]
        },
        {
            "positions": [
                -1.7721499931186138,
                -0.8786624997521486,
                -0.6253833855869052,
                0.18040105795602257,
                0.4117935361250894,
                2.036691626301561
            ]
        },
        {
            "positions": [
                -1.6745634428884144,
                -0.9151355921257964,
                -0.7005812021325488,
                0.2498500989312794,
                0.3669183597542893,
                1.9731324173486346
            ]
        },
        {
            "positions": [
                -1.576976892658215,
                -0.9516086844994442,
                -0.7757790186781924,
                0.31929913990653624,
                0.3220431833834892,
                1.9095732083957082
            ]
        },
        {
            "positions": [
                -1.4793903424280157,
                -0.9880817768730922,
                -0.8509768352238359,
                0.3887481808817931,
                0.27716800701268907,
                1.8460139994427818
            ]
        },
        {
            "positions": [
                -1.3818037921978163,
                -1.02455486924674,
                -0.9261746517694796,
                0.4581972218570499,
                0.232292830641889,
                1.7824547904898553
            ]
        },
        {
            "positions": [
                -1.284217241967617,
                -1.061027961620388,
                -1.001372468315123,
                0.5276462628323066,
                0.18741765427108892,
                1.7188955815369287
            ]
        },
        {
            "positions": [
                -1.1866306917374176,
                -1.0975010539940357,
                -1.0765702848607668,
                0.5970953038075637,
                0.14254247790028873,
                1.6553363725840022
            ]
        },
        {
            "positions": [
                -1.0890441415072185,
                -1.1339741463676836,
                -1.1517681014064103,
                0.6665443447828203,
                0.09766730152948866,
                1.5917771636310758
            ]
        },
        {
            "positions": [
                -0.9914575912770189,
                -1.1704472387413314,
                -1.226965917952054,
                0.7359933857580774,
                0.052792125158688474,
                1.5282179546781494
            ]
        },
        {
            "positions": [
                -0.8938710410468198,
                -1.2069203311149792,
                -1.3021637344976975,
                0.805442426733334,
                0.0079169487878884,
                1.464658745725223
            ]
        },
        {
            "positions": [
                -0.7962844908166204,
                -1.243393423488627,
                -1.3773615510433412,
                0.8748914677085908,
                -0.036958227582911785,
                1.4010995367722965
            ]
        },
        {
            "positions": [
                -0.6986979405864211,
                -1.2798665158622748,
                -1.4525593675889847,
                0.9443405086838477,
                -0.08183340395371175,
                1.33754032781937
            ]
        },
        {
            "positions": [
                -0.6011113903562215,
                -1.3163396082359229,
                -1.5277571841346285,
                1.0137895496591045,
                -0.12670858032451193,
                1.2739811188664436
            ]
        },
        {
            "positions": [
                -0.5035248401260226,
                -1.3528127006095707,
                -1.602955000680272,
                1.0832385906343613,
                -0.171583756695312,
                1.2104219099135172
            ]
        },
        {
            "positions": [
                -0.40593828989582326,
                -1.3892857929832187,
                -1.6781528172259155,
                1.1526876316096182,
                -0.21645893306611208,
                1.1468627009605905
            ]
        },
        {
            "positions": [
                -0.3083517396656239,
                -1.4257588853568666,
                -1.753350633771559,
                1.222136672584875,
                -0.26133410943691227,
                1.0833034920076643
            ]
        },
        {
            "positions": [
                -0.21076518943542455,
                -1.4622319777305144,
                -1.8285484503172027,
                1.2915857135601319,
                -0.30620928580771245,
                1.0197442830547376
            ]
        },
        {
            "positions": [
                -0.1131786392052252,
                -1.4987050701041622,
                -1.9037462668628462,
                1.3610347545353887,
                -0.3510844621785124,
                0.9561850741018114
            ]
        },
        {
            "positions": [
                -0.015592088975026008,
                -1.53517816247781,
                -1.97894408340849,
                1.4304837955106455,
                -0.39595963854931265,
                0.8926258651488848
            ]
        },
        {
            "positions": [
                0.01068888493954315,
                -1.635512498114048,
                -2.013324108550438,
                1.508240218338652,
                -0.34594762151555974,
                0.7948619461812361
            ]
        },
        {
            "positions": [
                0.03696985885411231,
                -1.7358468337502864,
                -2.0477041336923856,
                1.5859966411666586,
                -0.29593560448180684,
                0.6970980272135874
            ]
        },
        {
            "positions": [
                2.316260035069989e-05,
                -1.8255924933744248,
                -2.1056132027760928,
                1.5614583758591447,
                -0.2168762598378714,
                0.5955614294181742
            ]
        },
        {
            "positions": [
                -0.03692353365341091,
                -1.9153381529985631,
                -2.1635222718598,
                1.5369201105516306,
                -0.13781691519393596,
                0.4940248316227612
            ]
        },
        {
            "positions": [
                -0.07387022990717254,
                -2.0050838126227015,
                -2.221431340943507,
                1.5123818452441165,
                -0.058757570550000526,
                0.39248823382734804
            ]
        },
        {
            "positions": [
                -0.11081692616093414,
                -2.0948294722468397,
                -2.279340410027214,
                1.4878435799366025,
                0.02030177409393491,
                0.29095163603193497
            ]
        },
        {
            "positions": [
                -0.1477636224146958,
                -2.1845751318709783,
                -2.337249479110921,
                1.4633053146290886,
                0.09936111873787035,
                0.18941503823652184
            ]
        },
        {
            "positions": [
                -0.18471031866845739,
                -2.2743207914951165,
                -2.3951585481946283,
                1.4387670493215745,
                0.17842046338180576,
                0.0878784404411087
            ]
        }
    ]
}