{
    "goal": {
        "global_pose": {
            "orientation": {
                "w": 0.5084816217422485,
                "x": -0.49083608388900757,
                "y": 0.5182115435600281,
                "z": -0.4816462993621826
            },
            "position": {
                "x": 0.5540239810943604,
                "y": 0.030875300988554955,
                "z": 0.16403168439865112
            }
        },
        "name": "move_to_storage_A"
    },
    "id": "ProjEST_move_to_storage_A_109",
    "joint_names": [
        "shoulder_pan_joint",
        "shoulder_lift_joint",
        "elbow_joint",
        "wrist_1_joint",
        "wrist_2_joint",
        "wrist_3_joint"
    ],
    "metrics": {
        "cart_traj_len": 0.35278441286152806,
        "distance_elbow_joint": 0.45454984884791183,
        "distance_shoulder_lift_joint": 0.23261672774333575,
        "distance_shoulder_pan_joint": 0.45871991287840425,
        "distance_wrist_1_joint": 0.26323361873364837,
        "distance_wrist_2_joint": 1.1092094556057006,
        "distance_wrist_3_joint": 0.09390567043558695,
        "smoothness": 8.881784197001252e-16,
        "time": 0.074888942,
        "traj_len": 1.6162410817215938,
        "weighted_distance": 2.042667287997512
    },
    "planner": "ProjEST",
    "start": {
        "state": {
            "elbow_joint": 1.971548880431181,
            "shoulder_lift_joint": -1.1394869514688781,
            "shoulder_pan_joint": 0.12281150262730567,
            "wrist_1_joint": -0.7804693444481463,
            "wrist_2_joint": 0.12958644648617612,
            "wrist_3_joint": 3.0906942077768043
        }
    },
    "waypoints": [
        {
            "positions": [
                0.12281150262730567,
                -1.1394869514688781,
                1.971548880431181,
                -0.7804693444481463,
                0.12958644648617612,
                3.0906942077768043
            ]
        },
        {
            "positions": [
                0.05728008650181936,
                -1.1727179125750689,
                2.0364845731237398,
                -0.8180741471243818,
                0.28804494014413334,
                3.1041093035533165
            ]
        },
        {
            "positions": [
                -0.008251329623666953,
                -1.2059488736812598,
                2.101420265816299,
                -0.8556789498006172,
                0.44650343380209057,
                3.117524399329829
            ]
        },
        {
            "positions": [
                -0.07378274574915328,
                -1.2391798347874505,
                2.1663559585088574,
                -0.8932837524768528,
                0.6049619274600477,
                3.1309394951063414
            ]
        },
        {
            "positions": [
                -0.13931416187463957,
                -1.2724107958936415,
                2.231291651201416,
                -0.9308885551530882,
                0.763420421118005,
                3.144354590882854
            ]
        },
        {
            "positions": [
                -0.20484557800012593,
                -1.3056417569998322,
                2.296227343893975,
                -0.9684933578293238,
                0.9218789147759623,
                3.1577696866593663
            ]
        },
        {
            "positions": [
                -0.2703769941256122,
                -1.338872718106023,
                2.361163036586534,
                -1.0060981605055592,
                1.0803374084339195,
                3.171184782435879
            ]
        },
        {
            "positions": [
                -0.3359084102510986,
                -1.3721036792122139,
                2.4260987292790928,
                -1.0437029631817947,
                1.2387959020918766,
                3.184599878212391
            ]
        }
    ]
}