{
    "goal": {
        "global_pose": {
            "orientation": {
                "w": 0.7031023480610252,
                "x": -0.7110244013736278,
                "y": 0.0077485991402295624,
                "z": 0.005598929693374583
            },
            "position": {
                "x": -0.8841497679147869,
                "y": 0.44412534475326537,
                "z": 0.3711530566215515
            }
        },
        "name": "move_to_auspresseinheit_D"
    },
    "id": "ProjEST_move_to_auspresseinheit_D_113",
    "joint_names": [
        "shoulder_pan_joint",
        "shoulder_lift_joint",
        "elbow_joint",
        "wrist_1_joint",
        "wrist_2_joint",
        "wrist_3_joint"
    ],
    "metrics": {
        "cart_traj_len": 0.3446781925897092,
        "distance_elbow_joint": 0.6681223387861175,
        "distance_shoulder_lift_joint": 0.13784893172392776,
        "distance_shoulder_pan_joint": 0.13409279086028458,
        "distance_wrist_1_joint": 0.6330800428922356,
        "distance_wrist_2_joint": 1.4385733234073008,
        "distance_wrist_3_joint": 0.09455423508996974,
        "smoothness": 1.9737298371844314e-16,
        "time": 0.055455863999999994,
        "traj_len": 1.7624618188090875,
        "weighted_distance": 2.3166858870462588
    },
    "planner": "ProjEST",
    "start": {
        "state": {
            "elbow_joint": -1.8275484843655228,
            "shoulder_lift_joint": -2.1267897864000416,
            "shoulder_pan_joint": -0.035127520176001514,
            "wrist_1_joint": -2.3477863256791385,
            "wrist_2_joint": -1.605890476484521,
            "wrist_3_joint": -3.0880375317375353
        }
    },
    "waypoints": [
        {
            "positions": [
                -0.035127520176001514,
                -2.1267897864000416,
                -1.8275484843655228,
                -2.3477863256791385,
                -1.605890476484521,
                -3.0880375317375353
            ]
        },
        {
            "positions": [
                -0.05188911903353709,
                -2.1440209028655324,
                -1.744033192017258,
                -2.426921331040668,
                -1.4260688110586084,
                -3.076218252351289
            ]
        },
        {
            "positions": [
                -0.06865071789107266,
                -2.1612520193310236,
                -1.6605178996689933,
                -2.5060563364021973,
                -1.2462471456326958,
                -3.064398972965043
            ]
        },
        {
            "positions": [
                -0.08541231674860823,
                -2.1784831357965144,
                -1.5770026073207286,
                -2.5851913417637267,
                -1.0664254802067832,
                -3.0525796935787968
            ]
        },
        {
            "positions": [
                -0.1021739156061438,
                -2.1957142522620057,
                -1.4934873149724641,
                -2.6643263471252565,
                -0.8866038147808706,
                -3.04076041419255
            ]
        },
        {
            "positions": [
                -0.11893551446367938,
                -2.2129453687274965,
                -1.4099720226241992,
                -2.743461352486786,
                -0.706782149354958,
                -3.028941134806304
            ]
        },
        {
            "positions": [
                -0.13569711332121495,
                -2.2301764851929873,
                -1.3264567302759347,
                -2.8225963578483153,
                -0.5269604839290454,
                -3.017121855420058
            ]
        },
        {
            "positions": [
                -0.1524587121787505,
                -2.2474076016584785,
                -1.24294143792767,
                -2.9017313632098447,
                -0.3471388185031328,
                -3.0053025760338117
            ]
        },
        {
            "positions": [
                -0.1692203110362861,
                -2.2646387181239693,
                -1.1594261455794053,
                -2.980866368571374,
                -0.16731715307722028,
                -2.9934832966475655
            ]
        }
    ]
}