{
    "goal": {
        "global_pose": {
            "orientation": {
                "w": -0.00223480608172531,
                "x": 0.0024358444001904467,
                "y": 0.7094548369677653,
                "z": -0.704743149386269
            },
            "position": {
                "x": -0.37947507619857795,
                "y": -0.6371506643295288,
                "z": 0.19426114857196808
            }
        },
        "name": "move_to_magneteinheit_C"
    },
    "id": "ProjEST_move_to_magneteinheit_C_46",
    "joint_names": [
        "shoulder_pan_joint",
        "shoulder_lift_joint",
        "elbow_joint",
        "wrist_1_joint",
        "wrist_2_joint",
        "wrist_3_joint"
    ],
    "metrics": {
        "cart_traj_len": 0.8361274292450268,
        "distance_elbow_joint": 0.27770745970334043,
        "distance_shoulder_lift_joint": 0.4819256290046299,
        "distance_shoulder_pan_joint": 0.8639548491889839,
        "distance_wrist_1_joint": 1.3636905526934529,
        "distance_wrist_2_joint": 1.4977421459384423,
        "distance_wrist_3_joint": 2.1308598157281895,
        "smoothness": 0.9408500843381267,
        "time": 0.8733180020000001,
        "traj_len": 2.5721353876219344,
        "weighted_distance": 3.706620129220866
    },
    "planner": "ProjEST",
    "start": {
        "state": {
            "elbow_joint": 1.9565354006593851,
            "shoulder_lift_joint": -1.4165861576512813,
            "shoulder_pan_joint": -1.6717766223278752,
            "wrist_1_joint": -0.528663328821883,
            "wrist_2_joint": 1.472756589259273,
            "wrist_3_joint": 3.159348288315503
        }
    },
    "waypoints": [
        {
            "positions": [
                -1.6717766223278752,
                -1.4165861576512813,
                1.9565354006593851,
                -0.528663328821883,
                1.472756589259273,
                3.159348288315503
            ]
        },
        {
            "positions": [
                -1.6724573774789404,
                -1.4327851655042596,
                1.9495507203817621,
                -0.45201691597362076,
                1.3598424655327903,
                3.0039060081732383
            ]
        },
        {
            "positions": [
                -1.6731381326300057,
                -1.4489841733572377,
                1.942566040104139,
                -0.37537050312535847,
                1.2469283418063073,
                2.8484637280309735
            ]
        },
        {
            "positions": [
                -1.673818887781071,
                -1.465183181210216,
                1.935581359826516,
                -0.29872409027709623,
                1.1340142180798245,
                2.6930214478887087
            ]
        },
        {
            "positions": [
                -1.6744996429321362,
                -1.4813821890631944,
                1.9285966795488927,
                -0.22207767742883394,
                1.0211000943533417,
                2.5375791677464434
            ]
        },
        {
            "positions": [
                -1.6751803980832014,
                -1.4975811969161728,
                1.9216119992712697,
                -0.14543126458057165,
                0.9081859706268587,
                2.3821368876041786
            ]
        },
        {
            "positions": [
                -1.6758611532342667,
                -1.5137802047691509,
                1.9146273189936465,
                -0.06878485173230936,
                0.7952718469003758,
                2.226694607461914
            ]
        },
        {
            "positions": [
                -1.676541908385332,
                -1.5299792126221292,
                1.9076426387160235,
                0.00786156111595293,
                0.6823577231738929,
                2.071252327319649
            ]
        },
        {
            "positions": [
                -1.8037482307934436,
                -1.5060494358353642,
                1.9332820386522114,
                -0.05011572423902081,
                0.6217763017948827,
                2.1268786137604514
            ]
        },
        {
            "positions": [
                -1.930954553201555,
                -1.4821196590485992,
                1.958921438588399,
                -0.10809300959399455,
                0.5611948804158725,
                2.1825049002012533
            ]
        },
        {
            "positions": [
                -2.0581608756096665,
                -1.4581898822618342,
                1.9845608385245868,
                -0.1660702949489683,
                0.5006134590368623,
                2.2381311866420557
            ]
        },
        {
            "positions": [
                -2.1853671980177785,
                -1.4342601054750692,
                2.010200238460775,
                -0.22404758030394203,
                0.44003203765785215,
                2.293757473082858
            ]
        },
        {
            "positions": [
                -2.31257352042589,
                -1.4103303286883042,
                2.0358396383969626,
                -0.2820248656589158,
                0.37945061627884197,
                2.34938375952366
            ]
        },
        {
            "positions": [
                -2.4397798428340014,
                -1.3864005519015392,
                2.0614790383331503,
                -0.34000215101388953,
                0.3188691948998318,
                2.4050100459644623
            ]
        },
        {
            "positions": [
                -2.467104184596621,
                -1.3556068020008372,
                2.0661375292495414,
                -0.39272797268198867,
                0.3714402846890263,
                2.502809514681356
            ]
        },
        {
            "positions": [
                -2.4944285263592407,
                -1.324813052100135,
                2.0707960201659326,
                -0.44545379435008786,
                0.4240113744782208,
                2.6006089833982493
            ]
        },
        {
            "positions": [
                -2.498220445274707,
                -1.290491027251721,
                2.0619180543751776,
                -0.5178263050364346,
                0.47716493473330074,
                2.707607231294802
            ]
        },
        {
            "positions": [
                -2.502012364190174,
                -1.256169002403307,
                2.053040088584423,
                -0.5901988157227813,
                0.5303184949883807,
                2.814605479191354
            ]
        },
        {
            "positions": [
                -2.5058042831056406,
                -1.221846977554893,
                2.044162122793668,
                -0.662571326409128,
                0.5834720552434607,
                2.9216037270879065
            ]
        },
        {
            "positions": [
                -2.4908406889000316,
                -1.1916468080716203,
                2.0246484133247655,
                -0.740937714024396,
                0.6230980008611469,
                3.0178099545699455
            ]
        },
        {
            "positions": [
                -2.475877094694422,
                -1.1614466385883473,
                2.005134703855863,
                -0.8193041016396639,
                0.662723946478833,
                3.1140161820519845
            ]
        }
    ]
}