{
    "goal": {
        "global_pose": {
            "orientation": {
                "w": -0.4816463035849501,
                "x": 0.5182115481033762,
                "y": 0.4908360881923453,
                "z": -0.5084816262002911
            },
            "position": {
                "x": -0.8240239810943604,
                "y": 0.19912469901144506,
                "z": 0.16403168439865112
            }
        },
        "name": "move_to_storage_D"
    },
    "id": "ProjEST_move_to_storage_D_60",
    "joint_names": [
        "shoulder_pan_joint",
        "shoulder_lift_joint",
        "elbow_joint",
        "wrist_1_joint",
        "wrist_2_joint",
        "wrist_3_joint"
    ],
    "metrics": {
        "cart_traj_len": 4.06767847153165,
        "distance_elbow_joint": 4.392934231798584,
        "distance_shoulder_lift_joint": 1.2632545840628644,
        "distance_shoulder_pan_joint": 2.8126956308244186,
        "distance_wrist_1_joint": 2.9018913652192664,
        "distance_wrist_2_joint": 2.7192151616753177,
        "distance_wrist_3_joint": 3.513206273800036,
        "smoothness": 0.3299115353035189,
        "time": 0.058803536000000003,
        "traj_len": 4.1956164323470375,
        "weighted_distance": 5.500065119784959
    },
    "planner": "ProjEST",
    "start": {
        "state": {
            "elbow_joint": -2.384821990628643,
            "shoulder_lift_joint": -2.278805467437664,
            "shoulder_pan_joint": -0.18546946439364564,
            "wrist_1_joint": 1.4845938187801415,
            "wrist_2_joint": 0.178987772454074,
            "wrist_3_joint": 0.03710569632802521
        }
    },
    "waypoints": [
        {
            "positions": [
                -0.18546946439364564,
                -2.278805467437664,
                -2.384821990628643,
                1.4845938187801415,
                0.178987772454074,
                0.03710569632802521
            ]
        },
        {
            "positions": [
                -0.11717664693007994,
                -2.261513652088218,
                -2.397852169203517,
                1.3618319357327684,
                0.08077415224003642,
                0.06392723177896117
            ]
        },
        {
            "positions": [
                -0.048883829466514234,
                -2.244221836738772,
                -2.410882347778391,
                1.2390700526853955,
                -0.017439467974001144,
                0.09074876722989714
            ]
        },
        {
            "positions": [
                0.019408987997051486,
                -2.226930021389326,
                -2.4239125263532646,
                1.1163081696380224,
                -0.11565308818803871,
                0.11757030268083311
            ]
        },
        {
            "positions": [
                0.08770180546061718,
                -2.2096382060398803,
                -2.4369427049281382,
                0.9935462865906494,
                -0.21386670840207628,
                0.1443918381317691
            ]
        },
        {
            "positions": [
                0.15599462292418292,
                -2.1923463906904344,
                -2.449972883503012,
                0.8707844035432762,
                -0.31208032861611384,
                0.17121337358270505
            ]
        },
        {
            "positions": [
                0.22428744038774862,
                -2.1750545753409884,
                -2.463003062077886,
                0.7480225204959033,
                -0.4102939488301514,
                0.19803490903364102
            ]
        },
        {
            "positions": [
                0.29258025785131436,
                -2.1577627599915425,
                -2.4760332406527596,
                0.6252606374485302,
                -0.5085075690441889,
                0.22485644448457698
            ]
        },
        {
            "positions": [
                0.3567950192224392,
                -2.131736252685724,
                -2.3533193280666334,
                0.5729934643648873,
                -0.4540600435013973,
                0.15787756918954676
            ]
        },
        {
            "positions": [
                0.4210097805935641,
                -2.105709745379905,
                -2.2306054154805066,
                0.5207262912812445,
                -0.39961251795860564,
                0.09089869389451657
            ]
        },
        {
            "positions": [
                0.485224541964689,
                -2.0796832380740864,
                -2.1078915028943803,
                0.46845911819760155,
                -0.345164992415814,
                0.023919818599486387
            ]
        },
        {
            "positions": [
                0.5494393033358138,
                -2.0536567307682674,
                -1.9851775903082538,
                0.41619194511395874,
                -0.29071746687302236,
                -0.04305905669554383
            ]
        },
        {
            "positions": [
                0.6136540647069387,
                -2.027630223462449,
                -1.8624636777221273,
                0.3639247720303158,
                -0.23626994133023066,
                -0.11003793199057399
            ]
        },
        {
            "positions": [
                0.6778688260780636,
                -2.0016037161566302,
                -1.7397497651360008,
                0.31165759894667294,
                -0.18182241578743902,
                -0.1770168072856042
            ]
        },
        {
            "positions": [
                0.7420835874491885,
                -1.9755772088508112,
                -1.6170358525498743,
                0.25939042586303007,
                -0.12737489024464738,
                -0.24399568258063442
            ]
        },
        {
            "positions": [
                0.8062983488203133,
                -1.9495507015449927,
                -1.494321939963748,
                0.2071232527793872,
                -0.07292736470185573,
                -0.31097455787566464
            ]
        },
        {
            "positions": [
                0.8705131101914382,
                -1.9235241942391739,
                -1.3716080273776214,
                0.1548560796957444,
                -0.01847983915906415,
                -0.37795343317069474
            ]
        },
        {
            "positions": [
                0.9347278715625631,
                -1.897497686933355,
                -1.248894114791495,
                0.1025889066121014,
                0.035967686383727604,
                -0.44493230846572496
            ]
        },
        {
            "positions": [
                0.9989426329336879,
                -1.8714711796275365,
                -1.1261802022053686,
                0.05032173352845859,
                0.09041521192651913,
                -0.5119111837607552
            ]
        },
        {
            "positions": [
                1.0631573943048127,
                -1.8454446723217175,
                -1.003466289619242,
                -0.0019454395551843362,
                0.1448627374693109,
                -0.5788900590557854
            ]
        },
        {
            "positions": [
                1.1273721556759377,
                -1.819418165015899,
                -0.8807523770331156,
                -0.05421261263882715,
                0.19931026301210253,
                -0.6458689343508155
            ]
        },
        {
            "positions": [
                1.1915869170470625,
                -1.7933916577100801,
                -0.7580384644469891,
                -0.10647978572247008,
                0.25375778855489417,
                -0.7128478096458458
            ]
        },
        {
            "positions": [
                1.2558016784181874,
                -1.7673651504042613,
                -0.6353245518608626,
                -0.1587469588061129,
                0.3082053140976858,
                -0.7798266849408758
            ]
        },
        {
            "positions": [
                1.3200164397893122,
                -1.7413386430984426,
                -0.512610639274736,
                -0.21101413188975582,
                0.36265283964047745,
                -0.8468055602359063
            ]
        },
        {
            "positions": [
                1.3842312011604372,
                -1.715312135792624,
                -0.38989672668860953,
                -0.26328130497339863,
                0.4171003651832691,
                -0.9137844355309362
            ]
        },
        {
            "positions": [
                1.448445962531562,
                -1.6892856284868052,
                -0.26718281410248323,
                -0.31554847805704145,
                0.4715478907260606,
                -0.9807633108259665
            ]
        },
        {
            "positions": [
                1.512660723902687,
                -1.6632591211809864,
                -0.1444689015163565,
                -0.3678156511406845,
                0.5259954162688525,
                -1.0477421861209968
            ]
        },
        {
            "positions": [
                1.5768754852738118,
                -1.6372326138751676,
                -0.0217549889302302,
                -0.4200828242243274,
                0.5804429418116441,
                -1.1147210614160268
            ]
        },
        {
            "positions": [
                1.6410902466449366,
                -1.611206106569349,
                0.1009589236558961,
                -0.4723499973079702,
                0.6348904673544358,
                -1.1816999367110572
            ]
        },
        {
            "positions": [
                1.7053050080160614,
                -1.5851795992635302,
                0.2236728362420224,
                -0.524617170391613,
                0.6893379928972272,
                -1.2486788120060872
            ]
        },
        {
            "positions": [
                1.7695197693871865,
                -1.5591530919577115,
                0.3463867488281491,
                -0.5768843434752561,
                0.7437855184400191,
                -1.3156576873011177
            ]
        },
        {
            "positions": [
                1.8337345307583113,
                -1.5331265846518927,
                0.46910066141427587,
                -0.6291515165588989,
                0.7982330439828107,
                -1.3826365625961476
            ]
        },
        {
            "positions": [
                1.897949292129436,
                -1.5071000773460739,
                0.5918145740004022,
                -0.6814186896425417,
                0.8526805695256023,
                -1.449615437891178
            ]
        },
        {
            "positions": [
                1.962164053500561,
                -1.4810735700402553,
                0.7145284865865285,
                -0.7336858627261845,
                0.907128095068394,
                -1.516594313186208
            ]
        },
        {
            "positions": [
                2.026378814871686,
                -1.4550470627344363,
                0.8372423991726552,
                -0.7859530358098276,
                0.9615756206111856,
                -1.5835731884812385
            ]
        },
        {
            "positions": [
                2.090593576242811,
                -1.4290205554286177,
                0.9599563117587815,
                -0.8382202088934704,
                1.0160231461539773,
                -1.6505520637762685
            ]
        },
        {
            "positions": [
                2.1548083376139355,
                -1.402994048122799,
                1.0826702243449078,
                -0.8904873819771132,
                1.070470671696769,
                -1.7175309390712985
            ]
        },
        {
            "positions": [
                2.21902309898506,
                -1.3769675408169801,
                1.2053841369310345,
                -0.942754555060756,
                1.1249181972395605,
                -1.7845098143663285
            ]
        },
        {
            "positions": [
                2.283237860356185,
                -1.3509410335111616,
                1.3280980495171613,
                -0.995021728144399,
                1.1793657227823522,
                -1.851488689661359
            ]
        },
        {
            "positions": [
                2.34745262172731,
                -1.3249145262053426,
                1.4508119621032876,
                -1.047288901228042,
                1.2338132483251438,
                -1.9184675649563894
            ]
        },
        {
            "positions": [
                2.411667383098435,
                -1.298888018899524,
                1.5735258746894139,
                -1.0995560743116846,
                1.2882607738679355,
                -1.9854464402514194
            ]
        },
        {
            "positions": [
                2.4424614950030548,
                -1.2584112852531348,
                1.6095492841797414,
                -1.054164435436336,
                1.2546962771158026,
                -2.1447539603810606
            ]
        },
        {
            "positions": [
                2.4732556069076748,
                -1.2179345516067455,
                1.645572693670069,
                -1.0087727965609876,
                1.2211317803636696,
                -2.3040614805107014
            ]
        },
        {
            "positions": [
                2.5040497188122943,
                -1.1774578179603563,
                1.6815961031603965,
                -0.9633811576856391,
                1.1875672836115367,
                -2.4633690006403426
            ]
        },
        {
            "positions": [
                2.534843830716914,
                -1.1369810843139672,
                1.7176195126507239,
                -0.9179895188102907,
                1.1540027868594038,
                -2.622676520769984
            ]
        },
        {
            "positions": [
                2.5656379426215334,
                -1.096504350667578,
                1.7536429221410514,
                -0.8725978799349421,
                1.120438290107271,
                -2.7819840408996246
            ]
        },
        {
            "positions": [
                2.5964320545261534,
                -1.0560276170211886,
                1.789666331631379,
                -0.8272062410595937,
                1.086873793355138,
                -2.941291561029266
            ]
        },
        {
            "positions": [
                2.627226166430773,
                -1.0155508833747995,
                1.8256897411217066,
                -0.7818146021842451,
                1.053309296603005,
                -3.100599081158907
            ]
        }
    ]
}