{
    "goal": {
        "global_pose": {
            "orientation": {
                "w": 0.005598929693374612,
                "x": 0.007748599140229565,
                "y": 0.7110244013736278,
                "z": -0.7031023480610252
            },
            "position": {
                "x": 0.1141497679147869,
                "y": -0.7141253447532654,
                "z": 0.3711530566215515
            }
        },
        "name": "move_to_auspresseinheit_B"
    },
    "id": "ProjEST_move_to_auspresseinheit_B_114",
    "joint_names": [
        "shoulder_pan_joint",
        "shoulder_lift_joint",
        "elbow_joint",
        "wrist_1_joint",
        "wrist_2_joint",
        "wrist_3_joint"
    ],
    "metrics": {
        "cart_traj_len": 0.5651142073911635,
        "distance_elbow_joint": 0.0626474018905605,
        "distance_shoulder_lift_joint": 0.2941560235865963,
        "distance_shoulder_pan_joint": 0.5756063604653303,
        "distance_wrist_1_joint": 0.3198984585625443,
        "distance_wrist_2_joint": 1.0000563032034164,
        "distance_wrist_3_joint": 0.0014796765255744582,
        "smoothness": 5.075305295617109e-16,
        "time": 0.6066688579999999,
        "traj_len": 1.501280861209528,
        "weighted_distance": 1.8912319633115162
    },
    "planner": "ProjEST",
    "start": {
        "state": {
            "elbow_joint": 2.0193061681459312,
            "shoulder_lift_joint": -1.1220205130644991,
            "shoulder_pan_joint": -1.0952072088045026,
            "wrist_1_joint": -0.8559671810662515,
            "wrist_2_joint": 0.4759638712940361,
            "wrist_3_joint": 3.159081874192446
        }
    },
    "waypoints": [
        {
            "positions": [
                -1.0952072088045026,
                -1.1220205130644991,
                2.0193061681459312,
                -0.8559671810662515,
                0.4759638712940361,
                3.159081874192446
            ]
        },
        {
            "positions": [
                -1.191141602215391,
                -1.1710465169955986,
                2.0088649344975043,
                -0.8026507713058274,
                0.6426399218279388,
                3.158835261438184
            ]
        },
        {
            "positions": [
                -1.2870759956262794,
                -1.2200725209266978,
                1.9984237008490777,
                -0.7493343615454033,
                0.8093159723618415,
                3.158588648683921
            ]
        },
        {
            "positions": [
                -1.3830103890371679,
                -1.2690985248577973,
                1.987982467200651,
                -0.6960179517849794,
                0.9759920228957444,
                3.1583420359296586
            ]
        },
        {
            "positions": [
                -1.4789447824480562,
                -1.3181245287888967,
                1.9775412335522242,
                -0.6427015420245553,
                1.142668073429647,
                3.1580954231753964
            ]
        },
        {
            "positions": [
                -1.5748791758589444,
                -1.367150532719996,
                1.9670999999037975,
                -0.5893851322641313,
                1.30934412396355,
                3.157848810421134
            ]
        },
        {
            "positions": [
                -1.670813569269833,
                -1.4161765366510954,
                1.9566587662553707,
                -0.5360687225037072,
                1.4760201744974526,
                3.1576021976668716
            ]
        }
    ]
}