{
    "goal": {
        "global_pose": {
            "orientation": {
                "w": 0.5084816262002911,
                "x": -0.4908360881923452,
                "y": 0.5182115481033761,
                "z": -0.48164630358495003
            },
            "position": {
                "x": 0.5540239810943604,
                "y": -0.46912469901144505,
                "z": 0.16403168439865112
            }
        },
        "name": "move_to_storage_B"
    },
    "id": "ProjEST_move_to_storage_B_138",
    "joint_names": [
        "shoulder_pan_joint",
        "shoulder_lift_joint",
        "elbow_joint",
        "wrist_1_joint",
        "wrist_2_joint",
        "wrist_3_joint"
    ],
    "metrics": {
        "cart_traj_len": 0.7149156119373427,
        "distance_elbow_joint": 0.34776921561534224,
        "distance_shoulder_lift_joint": 0.45859818963662446,
        "distance_shoulder_pan_joint": 0.25738898710544333,
        "distance_wrist_1_joint": 3.217497563086479,
        "distance_wrist_2_joint": 2.730189069006313,
        "distance_wrist_3_joint": 3.142284676386443,
        "smoothness": 0.27947788605741086,
        "time": 0.11845202600000002,
        "traj_len": 3.1864914405716904,
        "weighted_distance": 4.731382851313379
    },
    "planner": "ProjEST",
    "start": {
        "state": {
            "elbow_joint": 1.6649325340416963,
            "shoulder_lift_joint": -0.6616387945129425,
            "shoulder_pan_joint": -0.9139837929255878,
            "wrist_1_joint": 2.1467571094334352,
            "wrist_2_joint": -2.234195976750228,
            "wrist_3_joint": 0.005470921511140723
        }
    },
    "waypoints": [
        {
            "positions": [
                -0.9139837929255878,
                -0.6616387945129425,
                1.6649325340416963,
                2.1467571094334352,
                -2.234195976750228,
                0.005470921511140723
            ]
        },
        {
            "positions": [
                -0.8950825338337441,
                -0.7543579377029536,
                1.7297571162748167,
                2.2064966720537695,
                -2.2396852520326993,
                -0.022165693520128555
            ]
        },
        {
            "positions": [
                -0.8761812747419004,
                -0.8470770808929646,
                1.7945816985079373,
                2.2662362346741043,
                -2.245174527315171,
                -0.049802308551397834
            ]
        },
        {
            "positions": [
                -0.8849647334987707,
                -0.8580034770232288,
                1.8033065005539013,
                2.142315497160272,
                -2.136406106577516,
                -0.173282766404354
            ]
        },
        {
            "positions": [
                -0.893748192255641,
                -0.8689298731534928,
                1.8120313025998653,
                2.0183947596464393,
                -2.0276376858398617,
                -0.29676322425731017
            ]
        },
        {
            "positions": [
                -0.9025316510125112,
                -0.8798562692837569,
                1.8207561046458294,
                1.894474022132607,
                -1.9188692651022068,
                -0.4202436821102663
            ]
        },
        {
            "positions": [
                -0.9113151097693813,
                -0.890782665414021,
                1.8294809066917934,
                1.7705532846187748,
                -1.8101008443645519,
                -0.5437241399632224
            ]
        },
        {
            "positions": [
                -0.9200985685262516,
                -0.9017090615442851,
                1.8382057087377575,
                1.6466325471049421,
                -1.701332423626897,
                -0.6672045978161787
            ]
        },
        {
            "positions": [
                -0.9288820272831219,
                -0.9126354576745492,
                1.8469305107837215,
                1.5227118095911099,
                -1.5925640028892425,
                -0.7906850556691347
            ]
        },
        {
            "positions": [
                -0.9376654860399921,
                -0.9235618538048133,
                1.8556553128296855,
                1.3987910720772774,
                -1.4837955821515876,
                -0.914165513522091
            ]
        },
        {
            "positions": [
                -0.9464489447968624,
                -0.9344882499350774,
                1.8643801148756496,
                1.2748703345634451,
                -1.3750271614139327,
                -1.0376459713750472
            ]
        },
        {
            "positions": [
                -0.9552324035537325,
                -0.9454146460653414,
                1.8731049169216136,
                1.1509495970496126,
                -1.266258740676278,
                -1.1611264292280032
            ]
        },
        {
            "positions": [
                -0.9640158623106028,
                -0.9563410421956056,
                1.8818297189675777,
                1.0270288595357802,
                -1.157490319938623,
                -1.2846068870809595
            ]
        },
        {
            "positions": [
                -0.972799321067473,
                -0.9672674383258697,
                1.8905545210135417,
                0.9031081220219479,
                -1.0487218992009684,
                -1.4080873449339157
            ]
        },
        {
            "positions": [
                -0.9815827798243433,
                -0.9781938344561337,
                1.8992793230595058,
                0.7791873845081156,
                -0.9399534784633137,
                -1.5315678027868718
            ]
        },
        {
            "positions": [
                -0.9903662385812135,
                -0.9891202305863979,
                1.90800412510547,
                0.6552666469942829,
                -0.8311850577256588,
                -1.655048260639828
            ]
        },
        {
            "positions": [
                -0.9991496973380838,
                -1.000046626716662,
                1.916728927151434,
                0.5313459094804505,
                -0.7224166369880038,
                -1.7785287184927843
            ]
        },
        {
            "positions": [
                -1.007933156094954,
                -1.010973022846926,
                1.925453729197398,
                0.4074251719666184,
                -0.6136482162503494,
                -1.9020091763457403
            ]
        },
        {
            "positions": [
                -1.0167166148518243,
                -1.0218994189771902,
                1.9341785312433621,
                0.28350443445278595,
                -0.5048797955126945,
                -2.0254896341986965
            ]
        },
        {
            "positions": [
                -1.0255000736086946,
                -1.0328258151074543,
                1.9429033332893262,
                0.15958369693895325,
                -0.39611137477503955,
                -2.148970092051653
            ]
        },
        {
            "positions": [
                -1.0342835323655648,
                -1.0437522112377182,
                1.9516281353352902,
                0.03566295942512099,
                -0.28734295403738486,
                -2.2724505499046086
            ]
        },
        {
            "positions": [
                -1.0430669911224348,
                -1.0546786073679824,
                1.9603529373812543,
                -0.08825777808871127,
                -0.17857453329972994,
                -2.395931007757565
            ]
        },
        {
            "positions": [
                -1.0518504498793053,
                -1.0656050034982465,
                1.9690777394272183,
                -0.21217851560254397,
                -0.06980611256207503,
                -2.519411465610521
            ]
        },
        {
            "positions": [
                -1.0606339086361753,
                -1.0765313996285106,
                1.9778025414731824,
                -0.33609925311637623,
                0.03896230817557944,
                -2.6428919234634773
            ]
        },
        {
            "positions": [
                -1.0694173673930456,
                -1.0874577957587748,
                1.9865273435191464,
                -0.4600199906302085,
                0.14773072891323435,
                -2.7663723813164336
            ]
        },
        {
            "positions": [
                -1.0782008261499159,
                -1.0983841918890387,
                1.9952521455651104,
                -0.5839407281440412,
                0.25649914965088927,
                -2.88985283916939
            ]
        },
        {
            "positions": [
                -1.0869842849067861,
                -1.1093105880193028,
                2.0039769476110743,
                -0.707861465657873,
                0.36526757038854374,
                -3.0133332970223456
            ]
        },
        {
            "positions": [
                -1.0957677436636564,
                -1.120236984149567,
                2.0127017496570385,
                -0.8317822031717056,
                0.4740359911261987,
                -3.136813754875302
            ]
        }
    ]
}