{
    "goal": {
        "global_pose": {
            "orientation": {
                "w": -0.4816463035849501,
                "x": 0.5182115481033762,
                "y": 0.4908360881923453,
                "z": -0.5084816262002911
            },
            "position": {
                "x": -0.8240239810943604,
                "y": -0.300875300988555,
                "z": 0.16403168439865112
            }
        },
        "name": "move_to_storage_C"
    },
    "id": "ProjEST_move_to_storage_C_75",
    "joint_names": [
        "shoulder_pan_joint",
        "shoulder_lift_joint",
        "elbow_joint",
        "wrist_1_joint",
        "wrist_2_joint",
        "wrist_3_joint"
    ],
    "metrics": {
        "cart_traj_len": 0.575706325069883,
        "distance_elbow_joint": 0.25496054762041287,
        "distance_shoulder_lift_joint": 0.18878303349279302,
        "distance_shoulder_pan_joint": 0.4947903073764164,
        "distance_wrist_1_joint": 0.06970013458070312,
        "distance_wrist_2_joint": 1.0609850616447833,
        "distance_wrist_3_joint": 0.05957419571172684,
        "smoothness": 2.5376526478085547e-16,
        "time": 0.035878376000000003,
        "traj_len": 1.4590384780487577,
        "weighted_distance": 1.8381041504974018
    },
    "planner": "ProjEST",
    "start": {
        "state": {
            "elbow_joint": 2.0108683149792914,
            "shoulder_lift_joint": -1.1634956873317392,
            "shoulder_pan_joint": -2.4736205022346,
            "wrist_1_joint": -0.8367026793690192,
            "wrist_2_joint": 0.6746043897045053,
            "wrist_3_joint": 3.133522094754363
        }
    },
    "waypoints": [
        {
            "positions": [
                -2.4736205022346,
                -1.1634956873317392,
                2.0108683149792914,
                -0.8367026793690192,
                0.6746043897045053,
                3.133522094754363
            ]
        },
        {
            "positions": [
                -2.556085553464003,
                -1.1320318484162737,
                1.9683748903758893,
                -0.8250859902722354,
                0.8514352333119692,
                3.1434511273729844
            ]
        },
        {
            "positions": [
                -2.6385506046934055,
                -1.1005680095008081,
                1.9258814657724872,
                -0.8134693011754515,
                1.028266076919433,
                3.1533801599916056
            ]
        },
        {
            "positions": [
                -2.721015655922808,
                -1.0691041705853428,
                1.883388041169085,
                -0.8018526120786676,
                1.205096920526897,
                3.1633091926102264
            ]
        },
        {
            "positions": [
                -2.803480707152211,
                -1.0376403316698772,
                1.8408946165656828,
                -0.7902359229818838,
                1.3819277641343608,
                3.1732382252288476
            ]
        },
        {
            "positions": [
                -2.885945758381614,
                -1.0061764927544117,
                1.7984011919622807,
                -0.7786192338850999,
                1.558758607741825,
                3.183167257847469
            ]
        },
        {
            "positions": [
                -2.9684108096110164,
                -0.9747126538389462,
                1.7559077673588785,
                -0.7670025447883161,
                1.7355894513492887,
                3.19309629046609
            ]
        }
    ]
}