{
    "goal": {
        "global_pose": {
            "orientation": {
                "w": -0.4816463035849501,
                "x": 0.5182115481033762,
                "y": 0.4908360881923453,
                "z": -0.5084816262002911
            },
            "position": {
                "x": -0.8240239810943604,
                "y": -0.300875300988555,
                "z": 0.16403168439865112
            }
        },
        "name": "move_to_storage_C"
    },
    "id": "ProjEST_move_to_storage_C_130",
    "joint_names": [
        "shoulder_pan_joint",
        "shoulder_lift_joint",
        "elbow_joint",
        "wrist_1_joint",
        "wrist_2_joint",
        "wrist_3_joint"
    ],
    "metrics": {
        "cart_traj_len": 0.5762355822018244,
        "distance_elbow_joint": 0.2618221731563053,
        "distance_shoulder_lift_joint": 0.18951403584695192,
        "distance_shoulder_pan_joint": 0.49244116546401306,
        "distance_wrist_1_joint": 0.08924961579212576,
        "distance_wrist_2_joint": 1.0784047157138668,
        "distance_wrist_3_joint": 0.06170438830391323,
        "smoothness": 0.0,
        "time": 0.013301567,
        "traj_len": 1.4741560617102845,
        "weighted_distance": 1.8612359341015836
    },
    "planner": "ProjEST",
    "start": {
        "state": {
            "elbow_joint": 2.0108683149792914,
            "shoulder_lift_joint": -1.1634956873317392,
            "shoulder_pan_joint": -2.4736205022346,
            "wrist_1_joint": -0.8367026793690192,
            "wrist_2_joint": 0.6746043897045053,
            "wrist_3_joint": 3.133522094754363
        }
    },
    "waypoints": [
        {
            "positions": [
                -2.4736205022346,
                -1.1634956873317392,
                2.0108683149792914,
                -0.8367026793690192,
                0.6746043897045053,
                3.133522094754363
            ]
        },
        {
            "positions": [
                -2.5556940298119355,
                -1.1319100146905805,
                1.9672312861199073,
                -0.8218277434036649,
                0.8543385089901497,
                3.143806159471682
            ]
        },
        {
            "positions": [
                -2.637767557389271,
                -1.100324342049422,
                1.923594257260523,
                -0.8069528074383107,
                1.0340726282757942,
                3.1540902241890008
            ]
        },
        {
            "positions": [
                -2.719841084966607,
                -1.0687386694082632,
                1.8799572284011388,
                -0.7920778714729564,
                1.2138067475614387,
                3.1643742889063198
            ]
        },
        {
            "positions": [
                -2.8019146125439423,
                -1.0371529967671047,
                1.8363201995417546,
                -0.777202935507602,
                1.3935408668470832,
                3.174658353623639
            ]
        },
        {
            "positions": [
                -2.8839881401212777,
                -1.005567324125946,
                1.7926831706823703,
                -0.7623279995422477,
                1.5732749861327275,
                3.1849424183409574
            ]
        },
        {
            "positions": [
                -2.966061667698613,
                -0.9739816514847873,
                1.7490461418229861,
                -0.7474530635768935,
                1.753009105418372,
                3.1952264830582764
            ]
        }
    ]
}