{
    "goal": {
        "global_pose": {
            "orientation": {
                "w": 0.7047431493862688,
                "x": -0.7094548369677653,
                "y": 0.0024358444001904,
                "z": -0.0022348060817251984
            },
            "position": {
                "x": -0.39052492380142206,
                "y": 0.3671506643295288,
                "z": 0.19426114857196808
            }
        },
        "name": "move_to_magneteinheit_D"
    },
    "id": "ProjEST_move_to_magneteinheit_D_59",
    "joint_names": [
        "shoulder_pan_joint",
        "shoulder_lift_joint",
        "elbow_joint",
        "wrist_1_joint",
        "wrist_2_joint",
        "wrist_3_joint"
    ],
    "metrics": {
        "cart_traj_len": 4.529353287906929,
        "distance_elbow_joint": 3.1265947090986512,
        "distance_shoulder_lift_joint": 1.394630793973404,
        "distance_shoulder_pan_joint": 3.553476488977715,
        "distance_wrist_1_joint": 2.3928815912117583,
        "distance_wrist_2_joint": 1.1235931523213318,
        "distance_wrist_3_joint": 6.2921148414817125,
        "smoothness": 0.18264513219364956,
        "time": 0.373296788,
        "traj_len": 4.2288641000940865,
        "weighted_distance": 5.829579401943258
    },
    "planner": "ProjEST",
    "start": {
        "state": {
            "elbow_joint": 0.7495348899011911,
            "shoulder_lift_joint": -0.6476975780737668,
            "shoulder_pan_joint": -2.711696901376276,
            "wrist_1_joint": -0.0750647808097303,
            "wrist_2_joint": 0.43296659715458535,
            "wrist_3_joint": 3.1361499051832418
        }
    },
    "waypoints": [
        {
            "positions": [
                -2.711696901376276,
                -0.6476975780737668,
                0.7495348899011911,
                -0.0750647808097303,
                0.43296659715458535,
                3.1361499051832418
            ]
        },
        {
            "positions": [
                -2.718866751019648,
                -0.6378003530979942,
                0.7299332793544222,
                -0.1891956156609193,
                0.447996969709159,
                2.927350759400629
            ]
        },
        {
            "positions": [
                -2.7260366006630194,
                -0.6279031281222215,
                0.7103316688076532,
                -0.30332645051210827,
                0.46302734226373266,
                2.7185516136180166
            ]
        },
        {
            "positions": [
                -2.7332064503063913,
                -0.6180059031464489,
                0.6907300582608843,
                -0.4174572853632973,
                0.4780577148183063,
                2.5097524678354044
            ]
        },
        {
            "positions": [
                -2.7403762999497627,
                -0.6081086781706762,
                0.6711284477141153,
                -0.5315881202144863,
                0.49308808737287996,
                2.300953322052792
            ]
        },
        {
            "positions": [
                -2.7475461495931346,
                -0.5982114531949035,
                0.6515268371673464,
                -0.6457189550656753,
                0.5081184599274536,
                2.0921541762701796
            ]
        },
        {
            "positions": [
                -2.754715999236506,
                -0.5883142282191308,
                0.6319252266205774,
                -0.7598497899168644,
                0.5231488324820273,
                1.8833550304875668
            ]
        },
        {
            "positions": [
                -2.761885848879878,
                -0.5784170032433582,
                0.6123236160738085,
                -0.8739806247680534,
                0.5381792050366009,
                1.6745558847049544
            ]
        },
        {
            "positions": [
                -2.7690556985232493,
                -0.5685197782675855,
                0.5927220055270395,
                -0.9881114596192423,
                0.5532095775911745,
                1.4657567389223418
            ]
        },
        {
            "positions": [
                -2.776225548166621,
                -0.5586225532918129,
                0.5731203949802706,
                -1.102242294470431,
                0.5682399501457482,
                1.2569575931397294
            ]
        },
        {
            "positions": [
                -2.7833953978099926,
                -0.5487253283160402,
                0.5535187844335017,
                -1.2163731293216202,
                0.5832703227003219,
                1.048158447357117
            ]
        },
        {
            "positions": [
                -2.7905652474533644,
                -0.5388281033402675,
                0.5339171738867327,
                -1.3305039641728091,
                0.5983006952548955,
                0.8393593015745044
            ]
        },
        {
            "positions": [
                -2.797735097096736,
                -0.5289308783644948,
                0.5143155633399638,
                -1.4446347990239983,
                0.6133310678094692,
                0.6305601557918918
            ]
        },
        {
            "positions": [
                -2.8049049467401077,
                -0.5190336533887222,
                0.4947139527931948,
                -1.5587656338751872,
                0.6283614403640427,
                0.42176101000927924
            ]
        },
        {
            "positions": [
                -2.812074796383479,
                -0.5091364284129496,
                0.47511234224642585,
                -1.6728964687263763,
                0.6433918129186165,
                0.21296186422666707
            ]
        },
        {
            "positions": [
                -2.819244646026851,
                -0.49923920343717687,
                0.4555107316996569,
                -1.7870273035775652,
                0.6584221854731901,
                0.0041627184440542475
            ]
        },
        {
            "positions": [
                -2.80565769094991,
                -0.49827853776437175,
                0.4340563999473209,
                -1.8464757108855419,
                0.6559135559786502,
                -0.09868922804739846
            ]
        },
        {
            "positions": [
                -2.7920707358729686,
                -0.49731787209156664,
                0.412602068194985,
                -1.9059241181935187,
                0.6534049264841102,
                -0.20154117453885118
            ]
        },
        {
            "positions": [
                -2.67159365894843,
                -0.5384669425339829,
                0.30608501238148467,
                -1.8997195780509128,
                0.618872705168608,
                -0.2870977121073721
            ]
        },
        {
            "positions": [
                -2.5511165820238917,
                -0.5796160129763991,
                0.19956795656798432,
                -1.893515037908307,
                0.5843404838531058,
                -0.37265424967589306
            ]
        },
        {
            "positions": [
                -2.4306395050993537,
                -0.6207650834188153,
                0.09305090075448397,
                -1.8873104977657011,
                0.5498082625376036,
                -0.45821078724441394
            ]
        },
        {
            "positions": [
                -2.310162428174815,
                -0.6619141538612315,
                -0.013466155059016383,
                -1.8811059576230953,
                0.5152760412221015,
                -0.5437673248129349
            ]
        },
        {
            "positions": [
                -2.1896853512502767,
                -0.7030632243036478,
                -0.11998321087251673,
                -1.8749014174804894,
                0.48074381990659926,
                -0.6293238623814559
            ]
        },
        {
            "positions": [
                -2.0692082743257383,
                -0.744212294746064,
                -0.22650026668601708,
                -1.8686968773378836,
                0.4462115985910971,
                -0.7148803999499767
            ]
        },
        {
            "positions": [
                -1.9487311974011998,
                -0.7853613651884802,
                -0.33301732249951743,
                -1.8624923371952777,
                0.4116793772755949,
                -0.8004369375184979
            ]
        },
        {
            "positions": [
                -1.8282541204766616,
                -0.8265104356308964,
                -0.4395343783130178,
                -1.8562877970526719,
                0.3771471559600927,
                -0.8859934750870186
            ]
        },
        {
            "positions": [
                -1.7077770435521233,
                -0.8676595060733127,
                -0.546051434126518,
                -1.850083256910066,
                0.34261493464459053,
                -0.9715500126555396
            ]
        },
        {
            "positions": [
                -1.5872999666275849,
                -0.9088085765157289,
                -0.6525684899400185,
                -1.8438787167674602,
                0.3080827133290883,
                -1.0571065502240606
            ]
        },
        {
            "positions": [
                -1.4668228897030464,
                -0.9499576469581451,
                -0.7590855457535187,
                -1.8376741766248543,
                0.27355049201358617,
                -1.1426630877925814
            ]
        },
        {
            "positions": [
                -1.3463458127785082,
                -0.9911067174005613,
                -0.8656026015670192,
                -1.8314696364822485,
                0.239018270698084,
                -1.2282196253611022
            ]
        },
        {
            "positions": [
                -1.2258687358539697,
                -1.0322557878429777,
                -0.9721196573805194,
                -1.8252650963396424,
                0.20448604938258175,
                -1.3137761629296234
            ]
        },
        {
            "positions": [
                -1.1053916589294313,
                -1.073404858285394,
                -1.0786367131940198,
                -1.8190605561970365,
                0.16995382806707954,
                -1.3993327004981444
            ]
        },
        {
            "positions": [
                -0.984914582004893,
                -1.1145539287278101,
                -1.18515376900752,
                -1.8128560160544307,
                0.13542160675157744,
                -1.4848892380666652
            ]
        },
        {
            "positions": [
                -0.8644375050803546,
                -1.1557029991702263,
                -1.2916708248210207,
                -1.8066514759118248,
                0.10088938543607517,
                -1.5704457756351862
            ]
        },
        {
            "positions": [
                -0.7439604281558161,
                -1.1968520696126426,
                -1.398187880634521,
                -1.800446935769219,
                0.06635716412057302,
                -1.6560023132037072
            ]
        },
        {
            "positions": [
                -0.6234833512312781,
                -1.2380011400550588,
                -1.5047049364480212,
                -1.7942423956266131,
                0.031824942805070866,
                -1.741558850772228
            ]
        },
        {
            "positions": [
                -0.5030062743067396,
                -1.279150210497475,
                -1.6112219922615219,
                -1.7880378554840073,
                -0.002707278510431288,
                -1.827115388340749
            ]
        },
        {
            "positions": [
                -0.38252919738220115,
                -1.3202992809398912,
                -1.717739048075022,
                -1.7818333153414014,
                -0.03723949982593355,
                -1.91267192590927
            ]
        },
        {
            "positions": [
                -0.2620521204576627,
                -1.3614483513823075,
                -1.8242561038885223,
                -1.7756287751987956,
                -0.07177172114143571,
                -1.9982284634777907
            ]
        },
        {
            "positions": [
                -0.14157504353312422,
                -1.4025974218247237,
                -1.9307731597020226,
                -1.7694242350561897,
                -0.10630394245693786,
                -2.0837850010463117
            ]
        },
        {
            "positions": [
                -0.02109796660858576,
                -1.44374649226714,
                -2.0372902155155233,
                -1.7632196949135839,
                -0.14083616377244013,
                -2.169341538614833
            ]
        },
        {
            "positions": [
                0.09937911031595226,
                -1.4848955627095561,
                -2.1438072713290235,
                -1.757015154770978,
                -0.17536838508794217,
                -2.2548980761833533
            ]
        },
        {
            "positions": [
                0.21985618724049094,
                -1.5260446331519724,
                -2.2503243271425237,
                -1.7508106146283722,
                -0.20990060640344446,
                -2.3404546137518745
            ]
        },
        {
            "positions": [
                0.16083778124844714,
                -1.5633672422862661,
                -2.2746232846277645,
                -1.8159331799261147,
                -0.2063162074280264,
                -2.4749096008953666
            ]
        },
        {
            "positions": [
                0.10181937525640333,
                -1.60068985142056,
                -2.2989222421130053,
                -1.8810557452238574,
                -0.20273180845260833,
                -2.6093645880388583
            ]
        },
        {
            "positions": [
                0.042800969264359556,
                -1.6380124605548538,
                -2.3232211995982457,
                -1.9461783105216,
                -0.19914740947719023,
                -2.7438195751823504
            ]
        },
        {
            "positions": [
                -0.016217436727684276,
                -1.6753350696891478,
                -2.3475201570834865,
                -2.0113008758193427,
                -0.19556301050177216,
                -2.878274562325842
            ]
        },
        {
            "positions": [
                -0.07523584271972808,
                -1.7126576788234416,
                -2.3718191145687273,
                -2.076423441117085,
                -0.1919786115263541,
                -3.0127295494693342
            ]
        },
        {
            "positions": [
                -0.18697172381930655,
                -1.7415689600827704,
                -2.3665784099399945,
                -2.157719364891196,
                -0.1800858342773518,
                -3.155964936298472
            ]
        }
    ]
}