{
    "goal": {
        "global_pose": {
            "orientation": {
                "w": 0.7031023502349854,
                "x": -0.7110244035720825,
                "y": 0.007748599164187908,
                "z": 0.005598929710686207
            },
            "position": {
                "x": 0.11585023208521307,
                "y": 0.44412534475326537,
                "z": 0.3711530566215515
            }
        },
        "name": "move_to_auspresseinheit_A"
    },
    "id": "ProjEST_move_to_auspresseinheit_A_146",
    "joint_names": [
        "shoulder_pan_joint",
        "shoulder_lift_joint",
        "elbow_joint",
        "wrist_1_joint",
        "wrist_2_joint",
        "wrist_3_joint"
    ],
    "metrics": {
        "cart_traj_len": 1.6932871891865708,
        "distance_elbow_joint": 0.7692341594541552,
        "distance_shoulder_lift_joint": 2.0725092449456826,
        "distance_shoulder_pan_joint": 5.585738537662903,
        "distance_wrist_1_joint": 5.7086167170722675,
        "distance_wrist_2_joint": 0.5346636034868696,
        "distance_wrist_3_joint": 0.31662039035563705,
        "smoothness": 0.7742724344353673,
        "time": 0.338808204,
        "traj_len": 3.8713541110285328,
        "weighted_distance": 4.675885344429217
    },
    "planner": "ProjEST",
    "start": {
        "state": {
            "elbow_joint": 2.4225746994637096,
            "shoulder_lift_joint": -1.373653595662188,
            "shoulder_pan_joint": -0.3378633848294565,
            "wrist_1_joint": -1.0288595594406726,
            "wrist_2_joint": 1.2330228066703421,
            "wrist_3_joint": 3.189163495502006
        }
    },
    "waypoints": [
        {
            "positions": [
                -0.3378633848294565,
                -1.373653595662188,
                2.4225746994637096,
                -1.0288595594406726,
                1.2330228066703421,
                3.189163495502006
            ]
        },
        {
            "positions": [
                -0.45150442445621436,
                -1.438772535741828,
                2.4025694412323872,
                -0.8718703117776083,
                1.206924204570883,
                3.19581490241793
            ]
        },
        {
            "positions": [
                -0.5651454640829723,
                -1.5038914758214676,
                2.3825641830010653,
                -0.7148810641145439,
                1.1808256024714237,
                3.202466309333854
            ]
        },
        {
            "positions": [
                -0.67878650370973,
                -1.5690104159011076,
                2.362558924769743,
                -0.5578918164514796,
                1.1547270003719645,
                3.209117716249778
            ]
        },
        {
            "positions": [
                -0.792427543336488,
                -1.6341293559807475,
                2.3425536665384206,
                -0.4009025687884151,
                1.1286283982725054,
                3.2157691231657024
            ]
        },
        {
            "positions": [
                -0.9060685829632458,
                -1.6992482960603872,
                2.3225484083070986,
                -0.2439133211253508,
                1.1025297961730463,
                3.222420530081626
            ]
        },
        {
            "positions": [
                -1.0197096225900038,
                -1.764367236140027,
                2.3025431500757763,
                -0.08692407346228648,
                1.076431194073587,
                3.2290719369975505
            ]
        },
        {
            "positions": [
                -1.1333506622167615,
                -1.829486176219667,
                2.282537891844454,
                0.07006517420077785,
                1.0503325919741278,
                3.2357233439134747
            ]
        },
        {
            "positions": [
                -1.2469917018435195,
                -1.894605116299307,
                2.2625326336131315,
                0.2270544218638424,
                1.0242339898746686,
                3.2423747508293985
            ]
        },
        {
            "positions": [
                -1.3606327414702775,
                -1.9597240563789469,
                2.2425273753818096,
                0.3840436695269067,
                0.9981353877752093,
                3.2490261577453228
            ]
        },
        {
            "positions": [
                -1.4742737810970352,
                -2.0248429964585863,
                2.222522117150487,
                0.541032917189971,
                0.9720367856757501,
                3.255677564661247
            ]
        },
        {
            "positions": [
                -1.5879148207237932,
                -2.0899619365382263,
                2.202516858919165,
                0.6980221648530356,
                0.9459381835762909,
                3.262328971577171
            ]
        },
        {
            "positions": [
                -1.701555860350551,
                -2.155080876617866,
                2.182511600687843,
                0.8550114125160997,
                0.9198395814768318,
                3.268980378493095
            ]
        },
        {
            "positions": [
                -1.815196899977309,
                -2.220199816697506,
                2.1625063424565205,
                1.0120006601791642,
                0.8937409793773725,
                3.275631785409019
            ]
        },
        {
            "positions": [
                -1.9288379396040667,
                -2.285318756777146,
                2.142501084225198,
                1.1689899078422283,
                0.8676423772779134,
                3.282283192324943
            ]
        },
        {
            "positions": [
                -2.0424789792308244,
                -2.350437696856786,
                2.1224958259938758,
                1.3259791555052929,
                0.8415437751784541,
                3.2889345992408674
            ]
        },
        {
            "positions": [
                -2.156120018857582,
                -2.415556636936426,
                2.102490567762554,
                1.4829684031683574,
                0.8154451730789949,
                3.295586006156791
            ]
        },
        {
            "positions": [
                -2.26976105848434,
                -2.480675577016066,
                2.0824853095312315,
                1.6399576508314215,
                0.7893465709795358,
                3.3022374130727155
            ]
        },
        {
            "positions": [
                -2.383402098111098,
                -2.5457945170957057,
                2.062480051299909,
                1.796946898494486,
                0.7632479688800765,
                3.3088888199886397
            ]
        },
        {
            "positions": [
                -2.497043137737856,
                -2.610913457175345,
                2.042474793068587,
                1.9539361461575502,
                0.7371493667806174,
                3.3155402269045635
            ]
        },
        {
            "positions": [
                -2.6106841773646137,
                -2.676032397254985,
                2.0224695348372648,
                2.1109253938206147,
                0.7110507646811581,
                3.3221916338204878
            ]
        },
        {
            "positions": [
                -2.436320085515785,
                -2.635499216025886,
                2.041897376670302,
                1.9757237220410895,
                0.7103827877602273,
                3.312528883713269
            ]
        },
        {
            "positions": [
                -2.261955993666956,
                -2.5949660347967867,
                2.0613252185033395,
                1.8405220502615642,
                0.7097148108392964,
                3.3028661336060505
            ]
        },
        {
            "positions": [
                -2.087591901818127,
                -2.5544328535676875,
                2.080753060336377,
                1.7053203784820388,
                0.7090468339183656,
                3.293203383498832
            ]
        },
        {
            "positions": [
                -1.9132278099692983,
                -2.5138996723385882,
                2.100180902169414,
                1.5701187067025135,
                0.7083788569974349,
                3.283540633391613
            ]
        },
        {
            "positions": [
                -1.7388637181204696,
                -2.473366491109489,
                2.1196087440024516,
                1.434917034922988,
                0.7077108800765041,
                3.273877883284394
            ]
        },
        {
            "positions": [
                -1.5644996262716406,
                -2.43283330988039,
                2.139036585835489,
                1.2997153631434628,
                0.7070429031555732,
                3.2642151331771756
            ]
        },
        {
            "positions": [
                -1.390135534422812,
                -2.3923001286512906,
                2.1584644276685263,
                1.1645136913639376,
                0.7063749262346424,
                3.254552383069957
            ]
        },
        {
            "positions": [
                -1.215771442573983,
                -2.3517669474221914,
                2.1778922695015637,
                1.0293120195844123,
                0.7057069493137116,
                3.2448896329627384
            ]
        },
        {
            "positions": [
                -1.0414073507251542,
                -2.311233766193092,
                2.197320111334601,
                0.8941103478048869,
                0.7050389723927808,
                3.2352268828555197
            ]
        },
        {
            "positions": [
                -0.8670432588763253,
                -2.2707005849639925,
                2.216747953167639,
                0.7589086760253616,
                0.7043709954718499,
                3.2255641327483007
            ]
        },
        {
            "positions": [
                -0.6926791670274963,
                -2.2301674037348933,
                2.236175795000676,
                0.6237070042458361,
                0.7037030185509191,
                3.215901382641082
            ]
        },
        {
            "positions": [
                -0.5183150751786676,
                -2.189634222505794,
                2.2556036368337136,
                0.4885053324663111,
                0.7030350416299883,
                3.2062386325338634
            ]
        },
        {
            "positions": [
                -0.3439509833298384,
                -2.149101041276695,
                2.275031478666751,
                0.35330366068678565,
                0.7023670647090575,
                3.196575882426645
            ]
        },
        {
            "positions": [
                -0.16958689148101014,
                -2.1085678600475957,
                2.2944593204997883,
                0.2181019889072604,
                0.7016990877881266,
                3.186913132319426
            ]
        },
        {
            "positions": [
                0.0047772003678190345,
                -2.0680346788184965,
                2.3138871623328257,
                0.08290031712773516,
                0.7010311108671958,
                3.1772503822122076
            ]
        },
        {
            "positions": [
                0.17914129221664776,
                -2.0275014975893972,
                2.333315004165863,
                -0.05230135465179009,
                0.700363133946265,
                3.167587632104989
            ]
        },
        {
            "positions": [
                0.35350538406547694,
                -1.986968316360298,
                2.3527428459989004,
                -0.18750302643131578,
                0.6996951570253342,
                3.15792488199777
            ]
        },
        {
            "positions": [
                0.5278694759143052,
                -1.9464351351311988,
                2.3721706878319377,
                -0.322704698210841,
                0.6990271801044033,
                3.1482621318905513
            ]
        },
        {
            "positions": [
                0.7022335677631343,
                -1.9059019539020996,
                2.391598529664975,
                -0.45790636999036616,
                0.6983592031834726,
                3.1385993817833326
            ]
        }
    ]
}