{
    "goal": {
        "global_pose": {
            "orientation": {
                "w": -0.4816463035849501,
                "x": 0.5182115481033762,
                "y": 0.4908360881923453,
                "z": -0.5084816262002911
            },
            "position": {
                "x": -0.8240239810943604,
                "y": -0.300875300988555,
                "z": 0.16403168439865112
            }
        },
        "name": "move_to_storage_C"
    },
    "id": "ProjEST_move_to_storage_C_2",
    "joint_names": [
        "shoulder_pan_joint",
        "shoulder_lift_joint",
        "elbow_joint",
        "wrist_1_joint",
        "wrist_2_joint",
        "wrist_3_joint"
    ],
    "metrics": {
        "cart_traj_len": 0.5761288163380296,
        "distance_elbow_joint": 0.25547835722356527,
        "distance_shoulder_lift_joint": 0.1887587831690869,
        "distance_shoulder_pan_joint": 0.4924942330452624,
        "distance_wrist_1_joint": 0.06585834216404451,
        "distance_wrist_2_joint": 1.080604646083851,
        "distance_wrist_3_joint": 0.06116527595384147,
        "smoothness": 0.0,
        "time": 0.016249952999999998,
        "traj_len": 1.4643632191637606,
        "weighted_distance": 1.8474721047407536
    },
    "planner": "ProjEST",
    "start": {
        "state": {
            "elbow_joint": 2.0108683149792914,
            "shoulder_lift_joint": -1.1634956873317392,
            "shoulder_pan_joint": -2.4736205022346,
            "wrist_1_joint": -0.8367026793690192,
            "wrist_2_joint": 0.6746043897045053,
            "wrist_3_joint": 3.133522094754363
        }
    },
    "waypoints": [
        {
            "positions": [
                -2.4736205022346,
                -1.1634956873317392,
                2.0108683149792914,
                -0.8367026793690192,
                0.6746043897045053,
                3.133522094754363
            ]
        },
        {
            "positions": [
                -2.5557028744088104,
                -1.1320358901368914,
                1.9682885887753638,
                -0.8257262890083451,
                0.8547051640518137,
                3.143716307413337
            ]
        },
        {
            "positions": [
                -2.6377852465830207,
                -1.1005760929420436,
                1.9257088625714363,
                -0.814749898647671,
                1.0348059383991224,
                3.1539105200723103
            ]
        },
        {
            "positions": [
                -2.719867618757231,
                -1.0691162957471958,
                1.8831291363675087,
                -0.803773508286997,
                1.2149067127464308,
                3.1641047327312837
            ]
        },
        {
            "positions": [
                -2.801949990931442,
                -1.037656498552348,
                1.8405494101635813,
                -0.7927971179263229,
                1.3950074870937392,
                3.1742989453902575
            ]
        },
        {
            "positions": [
                -2.884032363105652,
                -1.0061967013575002,
                1.7979696839596537,
                -0.7818207275656488,
                1.5751082614410479,
                3.1844931580492313
            ]
        },
        {
            "positions": [
                -2.9661147352798625,
                -0.9747369041626524,
                1.7553899577557261,
                -0.7708443372049747,
                1.7552090357883563,
                3.1946873707082046
            ]
        }
    ]
}