{
    "goal": {
        "global_pose": {
            "orientation": {
                "w": 0.005598929693374612,
                "x": 0.007748599140229565,
                "y": 0.7110244013736278,
                "z": -0.7031023480610252
            },
            "position": {
                "x": -0.8858502320852131,
                "y": -0.7141253447532654,
                "z": 0.3711530566215515
            }
        },
        "name": "move_to_auspresseinheit_C"
    },
    "id": "ProjEST_move_to_auspresseinheit_C_76",
    "joint_names": [
        "shoulder_pan_joint",
        "shoulder_lift_joint",
        "elbow_joint",
        "wrist_1_joint",
        "wrist_2_joint",
        "wrist_3_joint"
    ],
    "metrics": {
        "cart_traj_len": 0.49425142491436047,
        "distance_elbow_joint": 1.0165196698847256,
        "distance_shoulder_lift_joint": 0.33209025143918347,
        "distance_shoulder_pan_joint": 0.25643394047143087,
        "distance_wrist_1_joint": 0.7148588759033376,
        "distance_wrist_2_joint": 1.302546352626036,
        "distance_wrist_3_joint": 0.0888028329668038,
        "smoothness": 6.459479416000911e-16,
        "time": 1.2444989469999999,
        "traj_len": 1.9264609841082994,
        "weighted_distance": 2.4302803989981276
    },
    "planner": "ProjEST",
    "start": {
        "state": {
            "elbow_joint": 1.7527959577730765,
            "shoulder_lift_joint": -0.9740617694224828,
            "shoulder_pan_joint": -2.967991417825869,
            "wrist_1_joint": -0.7595177689779385,
            "wrist_2_joint": 1.7443932448376545,
            "wrist_3_joint": 3.1991315425061013
        }
    },
    "waypoints": [
        {
            "positions": [
                -2.967991417825869,
                -0.9740617694224828,
                1.7527959577730765,
                -0.7595177689779385,
                1.7443932448376545,
                3.1991315425061013
            ]
        },
        {
            "positions": [
                -2.942348023778726,
                -0.9408527442785645,
                1.651143990784604,
                -0.6880318813876047,
                1.614138609575051,
                3.190251259209421
            ]
        },
        {
            "positions": [
                -2.916704629731583,
                -0.9076437191346461,
                1.5494920237961314,
                -0.616545993797271,
                1.4838839743124472,
                3.1813709759127407
            ]
        },
        {
            "positions": [
                -2.8910612356844396,
                -0.8744346939907277,
                1.4478400568076588,
                -0.5450601062069372,
                1.3536293390498437,
                3.1724906926160603
            ]
        },
        {
            "positions": [
                -2.8654178416372966,
                -0.8412256688468094,
                1.3461880898191863,
                -0.4735742186166035,
                1.2233747037872402,
                3.16361040931938
            ]
        },
        {
            "positions": [
                -2.8397744475901536,
                -0.8080166437028911,
                1.2445361228307137,
                -0.40208833102626973,
                1.0931200685246365,
                3.1547301260226996
            ]
        },
        {
            "positions": [
                -2.8141310535430106,
                -0.7748076185589727,
                1.1428841558422411,
                -0.330602443435936,
                0.9628654332620329,
                3.145849842726019
            ]
        },
        {
            "positions": [
                -2.7884876594958676,
                -0.7415985934150544,
                1.0412321888537686,
                -0.2591165558456022,
                0.8326107979994294,
                3.1369695594293385
            ]
        },
        {
            "positions": [
                -2.762844265448724,
                -0.7083895682711361,
                0.939580221865296,
                -0.18763066825526842,
                0.7023561627368258,
                3.128089276132658
            ]
        },
        {
            "positions": [
                -2.737200871401581,
                -0.6751805431272176,
                0.8379282548768234,
                -0.11614478066493461,
                0.572101527474222,
                3.119208992835978
            ]
        },
        {
            "positions": [
                -2.711557477354438,
                -0.6419715179832993,
                0.7362762878883509,
                -0.04465889307460093,
                0.4418468922116186,
                3.1103287095392975
            ]
        }
    ]
}