{
    "goal": {
        "global_pose": {
            "orientation": {
                "w": 0.5084816262002911,
                "x": -0.4908360881923452,
                "y": 0.5182115481033761,
                "z": -0.48164630358495003
            },
            "position": {
                "x": 0.5540239810943604,
                "y": -0.46912469901144505,
                "z": 0.16403168439865112
            }
        },
        "name": "move_to_storage_B"
    },
    "id": "ProjEST_move_to_storage_B_70",
    "joint_names": [
        "shoulder_pan_joint",
        "shoulder_lift_joint",
        "elbow_joint",
        "wrist_1_joint",
        "wrist_2_joint",
        "wrist_3_joint"
    ],
    "metrics": {
        "cart_traj_len": 2.1267063243149766,
        "distance_elbow_joint": 1.193426712291694,
        "distance_shoulder_lift_joint": 2.8995004432567457,
        "distance_shoulder_pan_joint": 1.8849224441778645,
        "distance_wrist_1_joint": 2.9842268051972223,
        "distance_wrist_2_joint": 2.898720146542768,
        "distance_wrist_3_joint": 3.147092119727899,
        "smoothness": 0.3085600603934936,
        "time": 0.06587821199999999,
        "traj_len": 3.874001635414497,
        "weighted_distance": 5.2139255712361265
    },
    "planner": "ProjEST",
    "start": {
        "state": {
            "elbow_joint": 1.6649325340416963,
            "shoulder_lift_joint": -0.6616387945129425,
            "shoulder_pan_joint": -0.9139837929255878,
            "wrist_1_joint": 2.1467571094334352,
            "wrist_2_joint": -2.234195976750228,
            "wrist_3_joint": 0.005470921511140723
        }
    },
    "waypoints": [
        {
            "positions": [
                -0.9139837929255878,
                -0.6616387945129425,
                1.6649325340416963,
                2.1467571094334352,
                -2.234195976750228,
                0.005470921511140723
            ]
        },
        {
            "positions": [
                -0.8784860494769035,
                -0.7316010975122238,
                1.697114341230686,
                2.0415504846770776,
                -2.1171683685018667,
                -0.015378938870072422
            ]
        },
        {
            "positions": [
                -0.842988306028219,
                -0.8015634005115052,
                1.7292961484196758,
                1.93634385992072,
                -2.000140760253506,
                -0.03622879925128557
            ]
        },
        {
            "positions": [
                -0.8074905625795346,
                -0.8715257035107866,
                1.7614779556086655,
                1.831137235164362,
                -1.8831131520051447,
                -0.05707865963249872
            ]
        },
        {
            "positions": [
                -0.77199281913085,
                -0.9414880065100679,
                1.7936597627976552,
                1.7259306104080043,
                -1.766085543756784,
                -0.07792852001371187
            ]
        },
        {
            "positions": [
                -0.7364950756821657,
                -1.0114503095093492,
                1.825841569986645,
                1.6207239856516464,
                -1.6490579355084227,
                -0.09877838039492502
            ]
        },
        {
            "positions": [
                -0.7009973322334812,
                -1.0814126125086307,
                1.8580233771756347,
                1.5155173608952888,
                -1.5320303272600617,
                -0.11962824077613816
            ]
        },
        {
            "positions": [
                -0.6654995887847968,
                -1.151374915507912,
                1.8902051843646244,
                1.410310736138931,
                -1.4150027190117007,
                -0.14047810115735132
            ]
        },
        {
            "positions": [
                -0.6300018453361123,
                -1.2213372185071933,
                1.922386991553614,
                1.3051041113825734,
                -1.2979751107633397,
                -0.16132796153856443
            ]
        },
        {
            "positions": [
                -0.5945041018874279,
                -1.2912995215064746,
                1.9545687987426037,
                1.1998974866262158,
                -1.1809475025149787,
                -0.18217782191977758
            ]
        },
        {
            "positions": [
                -0.5590063584387435,
                -1.361261824505756,
                1.9867506059315936,
                1.0946908618698579,
                -1.0639198942666175,
                -0.20302768230099075
            ]
        },
        {
            "positions": [
                -0.523508614990059,
                -1.4312241275050375,
                2.0189324131205835,
                0.9894842371135002,
                -0.9468922860182565,
                -0.22387754268220386
            ]
        },
        {
            "positions": [
                -0.4880108715413745,
                -1.5011864305043188,
                2.051114220309573,
                0.8842776123571425,
                -0.8298646777698955,
                -0.24472740306341703
            ]
        },
        {
            "positions": [
                -0.4525131280926901,
                -1.5711487335036,
                2.083296027498563,
                0.7790709876007849,
                -0.7128370695215345,
                -0.2655772634446302
            ]
        },
        {
            "positions": [
                -0.4170153846440056,
                -1.6411110365028816,
                2.1154778346875527,
                0.673864362844427,
                -0.5958094612731732,
                -0.2864271238258434
            ]
        },
        {
            "positions": [
                -0.38151764119532117,
                -1.711073339502163,
                2.147659641876542,
                0.5686577380880693,
                -0.47878185302481224,
                -0.3072769842070565
            ]
        },
        {
            "positions": [
                -0.3460198977466368,
                -1.7810356425014442,
                2.179841449065532,
                0.46345111333171163,
                -0.36175424477645146,
                -0.32812684458826963
            ]
        },
        {
            "positions": [
                -0.31052215429795227,
                -1.8509979455007257,
                2.212023256254522,
                0.35824448857535374,
                -0.24472663652809024,
                -0.3489767049694828
            ]
        },
        {
            "positions": [
                -0.2750244108492679,
                -1.9209602485000068,
                2.2442050634435113,
                0.2530378638189963,
                -0.12769902827972945,
                -0.3698265653506959
            ]
        },
        {
            "positions": [
                -0.23952666740058348,
                -1.990922551499288,
                2.2763868706325012,
                0.14783123906263862,
                -0.010671420031368228,
                -0.3906764257319091
            ]
        },
        {
            "positions": [
                -0.20402892395189898,
                -2.0608848544985694,
                2.3085686778214907,
                0.042624614306280506,
                0.106356188216993,
                -0.41152628611312225
            ]
        },
        {
            "positions": [
                -0.16853118050321447,
                -2.130847157497851,
                2.3407504850104806,
                -0.06258201045007716,
                0.22338379646535378,
                -0.43237614649433537
            ]
        },
        {
            "positions": [
                -0.13303343705453008,
                -2.2008094604971324,
                2.3729322921994704,
                -0.16778863520643483,
                0.340411404713715,
                -0.4532260068755485
            ]
        },
        {
            "positions": [
                -0.09753569360584557,
                -2.2707717634964135,
                2.4051140993884603,
                -0.2729952599627925,
                0.45743901296207623,
                -0.4740758672567617
            ]
        },
        {
            "positions": [
                -0.06203795015716115,
                -2.340734066495695,
                2.4372959065774498,
                -0.3782018847191502,
                0.5744666212104372,
                -0.4949257276379748
            ]
        },
        {
            "positions": [
                -0.13090305691779036,
                -2.2593737217440957,
                2.409225017260387,
                -0.40881973878879263,
                0.5684627846382972,
                -0.671372092343227
            ]
        },
        {
            "positions": [
                -0.19976816367841957,
                -2.178013376992496,
                2.3811541279433244,
                -0.4394375928584351,
                0.5624589480661571,
                -0.8478184570484792
            ]
        },
        {
            "positions": [
                -0.2686332704390488,
                -2.0966530322408965,
                2.3530832386262617,
                -0.47005544692807755,
                0.556455111494017,
                -1.0242648217537313
            ]
        },
        {
            "positions": [
                -0.33749837719967796,
                -2.015292687489297,
                2.325012349309199,
                -0.50067330099772,
                0.5504512749218771,
                -1.2007111864589837
            ]
        },
        {
            "positions": [
                -0.40636348396030714,
                -1.9339323427376975,
                2.2969414599921363,
                -0.5312911550673624,
                0.5444474383497371,
                -1.377157551164236
            ]
        },
        {
            "positions": [
                -0.47522859072093643,
                -1.852571997986098,
                2.2688705706750736,
                -0.5619090091370048,
                0.538443601777597,
                -1.553603915869488
            ]
        },
        {
            "positions": [
                -0.5440936974815657,
                -1.7712116532344986,
                2.240799681358011,
                -0.5925268632066473,
                0.5324397652054569,
                -1.7300502805747404
            ]
        },
        {
            "positions": [
                -0.6129588042421948,
                -1.689851308482899,
                2.212728792040948,
                -0.6231447172762896,
                0.5264359286333169,
                -1.9064966452799925
            ]
        },
        {
            "positions": [
                -0.681823911002824,
                -1.6084909637312994,
                2.1846579027238855,
                -0.6537625713459321,
                0.5204320920611769,
                -2.082943009985245
            ]
        },
        {
            "positions": [
                -0.7506890177634532,
                -1.5271306189797,
                2.156587013406823,
                -0.6843804254155745,
                0.5144282554890368,
                -2.259389374690497
            ]
        },
        {
            "positions": [
                -0.8195541245240824,
                -1.4457702742281007,
                2.12851612408976,
                -0.714998279485217,
                0.5084244189168967,
                -2.435835739395749
            ]
        },
        {
            "positions": [
                -0.8884192312847118,
                -1.3644099294765009,
                2.1004452347726974,
                -0.7456161335548595,
                0.5024205823447567,
                -2.612282104101001
            ]
        },
        {
            "positions": [
                -0.957284338045341,
                -1.2830495847249015,
                2.0723743454556347,
                -0.7762339876245019,
                0.4964167457726167,
                -2.788728468806254
            ]
        },
        {
            "positions": [
                -1.02614944480597,
                -1.2016892399733021,
                2.044303456138572,
                -0.8068518416941444,
                0.49041290920047664,
                -2.9651748335115062
            ]
        },
        {
            "positions": [
                -1.0950145515665992,
                -1.1203288952217025,
                2.0162325668215093,
                -0.8374696957637867,
                0.4844090726283366,
                -3.141621198216758
            ]
        }
    ]
}