{
    "goal": {
        "global_pose": {
            "orientation": {
                "w": -0.4816463035849501,
                "x": 0.5182115481033762,
                "y": 0.4908360881923453,
                "z": -0.5084816262002911
            },
            "position": {
                "x": -0.8240239810943604,
                "y": 0.19912469901144506,
                "z": 0.16403168439865112
            }
        },
        "name": "move_to_storage_D"
    },
    "id": "ProjEST_move_to_storage_D_103",
    "joint_names": [
        "shoulder_pan_joint",
        "shoulder_lift_joint",
        "elbow_joint",
        "wrist_1_joint",
        "wrist_2_joint",
        "wrist_3_joint"
    ],
    "metrics": {
        "cart_traj_len": 4.221128386281143,
        "distance_elbow_joint": 4.208970625513654,
        "distance_shoulder_lift_joint": 1.2630776172587688,
        "distance_shoulder_pan_joint": 2.814214652384147,
        "distance_wrist_1_joint": 2.2605080319298367,
        "distance_wrist_2_joint": 0.8933734618828372,
        "distance_wrist_3_joint": 3.138028315489447,
        "smoothness": 0.005538517860100197,
        "time": 0.090628494,
        "traj_len": 3.818137334415656,
        "weighted_distance": 4.899807223682403
    },
    "planner": "ProjEST",
    "start": {
        "state": {
            "elbow_joint": -2.384821990628643,
            "shoulder_lift_joint": -2.278805467437664,
            "shoulder_pan_joint": -0.18546946439364564,
            "wrist_1_joint": 1.4845938187801415,
            "wrist_2_joint": 0.178987772454074,
            "wrist_3_joint": 0.03710569632802521
        }
    },
    "waypoints": [
        {
            "positions": [
                -0.18546946439364564,
                -2.278805467437664,
                -2.384821990628643,
                1.4845938187801415,
                0.178987772454074,
                0.03710569632802521
            ]
        },
        {
            "positions": [
                -0.08557228921685624,
                -2.2630789000061107,
                -2.2651254517604182,
                1.4213016149618902,
                0.22955253971285583,
                0.059400323184951524
            ]
        },
        {
            "positions": [
                0.01432488595993317,
                -2.247352332574557,
                -2.1454289128921937,
                1.358009411143639,
                0.28011730697163767,
                0.08169495004187784
            ]
        },
        {
            "positions": [
                0.11422206113672256,
                -2.231625765143004,
                -2.0257323740239688,
                1.2947172073253876,
                0.3306820742304195,
                0.10398957689880414
            ]
        },
        {
            "positions": [
                0.21411923631351198,
                -2.21589919771145,
                -1.906035835155744,
                1.2314250035071364,
                0.3812468414892013,
                0.12628420375573046
            ]
        },
        {
            "positions": [
                0.31401641149030135,
                -2.200172630279897,
                -1.7863392962875193,
                1.1681327996888853,
                0.43181160874798313,
                0.14857883061265675
            ]
        },
        {
            "positions": [
                0.41391358666709077,
                -2.1844460628483438,
                -1.6666427574192946,
                1.104840595870634,
                0.482376376006765,
                0.17087345746958307
            ]
        },
        {
            "positions": [
                0.5138107618438801,
                -2.16871949541679,
                -1.5469462185510698,
                1.0415483920523827,
                0.5329411432655468,
                0.1931680843265094
            ]
        },
        {
            "positions": [
                0.6137079370206696,
                -2.152992927985237,
                -1.4272496796828449,
                0.9782561882341313,
                0.5835059105243287,
                0.2154627111834357
            ]
        },
        {
            "positions": [
                0.7136051121974589,
                -2.1372663605536832,
                -1.3075531408146202,
                0.9149639844158801,
                0.6340706777831104,
                0.237757338040362
            ]
        },
        {
            "positions": [
                0.8135022873742483,
                -2.12153979312213,
                -1.1878566019463954,
                0.8516717805976288,
                0.6846354450418922,
                0.2600519648972883
            ]
        },
        {
            "positions": [
                0.8783585831086088,
                -2.0831211203371183,
                -1.0813415504739554,
                0.7941256611131442,
                0.6988335359895882,
                0.3608639794429722
            ]
        },
        {
            "positions": [
                0.9432148788429692,
                -2.0447024475521065,
                -0.9748264990015156,
                0.7365795416286596,
                0.7130316269372842,
                0.4616759939886561
            ]
        },
        {
            "positions": [
                1.0080711745773296,
                -2.0062837747670943,
                -0.8683114475290757,
                0.679033422144175,
                0.72722971788498,
                0.56248800853434
            ]
        },
        {
            "positions": [
                1.07292747031169,
                -1.9678651019820825,
                -0.7617963960566358,
                0.6214873026596903,
                0.741427808832676,
                0.6633000230800239
            ]
        },
        {
            "positions": [
                1.1377837660460504,
                -1.9294464291970708,
                -0.655281344584196,
                0.5639411831752057,
                0.755625899780372,
                0.7641120376257079
            ]
        },
        {
            "positions": [
                1.202640061780411,
                -1.8910277564120588,
                -0.5487662931117561,
                0.5063950636907211,
                0.769823990728068,
                0.8649240521713918
            ]
        },
        {
            "positions": [
                1.2674963575147713,
                -1.852609083627047,
                -0.4422512416393162,
                0.4488489442062364,
                0.7840220816757639,
                0.9657360667170757
            ]
        },
        {
            "positions": [
                1.3323526532491319,
                -1.814190410842035,
                -0.3357361901668763,
                0.39130282472175176,
                0.7982201726234599,
                1.0665480812627597
            ]
        },
        {
            "positions": [
                1.3972089489834922,
                -1.7757717380570233,
                -0.22922113869443628,
                0.3337567052372672,
                0.8124182635711558,
                1.1673600958084436
            ]
        },
        {
            "positions": [
                1.4620652447178526,
                -1.7373530652720115,
                -0.1227060872219965,
                0.27621058575278257,
                0.8266163545188517,
                1.2681721103541275
            ]
        },
        {
            "positions": [
                1.526921540452213,
                -1.6989343924869995,
                -0.016191035749556493,
                0.21866446626829794,
                0.8408144454665477,
                1.3689841248998114
            ]
        },
        {
            "positions": [
                1.5917778361865735,
                -1.6605157197019877,
                0.09032401572288329,
                0.1611183467838132,
                0.8550125364142437,
                1.4697961394454953
            ]
        },
        {
            "positions": [
                1.656634131920934,
                -1.6220970469169758,
                0.1968390671953233,
                0.10357222729932858,
                0.8692106273619395,
                1.5706081539911791
            ]
        },
        {
            "positions": [
                1.7214904276552945,
                -1.583678374131964,
                0.3033541186677631,
                0.04602610781484395,
                0.8834087183096355,
                1.671420168536863
            ]
        },
        {
            "positions": [
                1.7863467233896548,
                -1.545259701346952,
                0.4098691701402033,
                -0.011520011669640673,
                0.8976068092573315,
                1.7722321830825472
            ]
        },
        {
            "positions": [
                1.8512030191240152,
                -1.5068410285619402,
                0.5163842216126429,
                -0.0690661311541253,
                0.9118049002050275,
                1.8730441976282308
            ]
        },
        {
            "positions": [
                1.9160593148583758,
                -1.4684223557769283,
                0.6228992730850831,
                -0.12661225063861004,
                0.9260029911527234,
                1.973856212173915
            ]
        },
        {
            "positions": [
                1.9809156105927361,
                -1.4300036829919165,
                0.7294143245575229,
                -0.18415837012309444,
                0.9402010821004194,
                2.0746682267195986
            ]
        },
        {
            "positions": [
                2.0457719063270963,
                -1.3915850102069047,
                0.8359293760299629,
                -0.2417044896075793,
                0.9543991730481154,
                2.1754802412652827
            ]
        },
        {
            "positions": [
                2.1106282020614566,
                -1.353166337421893,
                0.9424444275024024,
                -0.2992506090920637,
                0.9685972639958113,
                2.276292255810967
            ]
        },
        {
            "positions": [
                2.1754844977958174,
                -1.3147476646368808,
                1.0489594789748424,
                -0.35679672857654854,
                0.9827953549435072,
                2.377104270356651
            ]
        },
        {
            "positions": [
                2.240340793530178,
                -1.276328991851869,
                1.1554745304472824,
                -0.41434284806103294,
                0.9969934458912032,
                2.477916284902334
            ]
        },
        {
            "positions": [
                2.3051970892645386,
                -1.2379103190668572,
                1.2619895819197224,
                -0.4718889675455178,
                1.0111915368388993,
                2.5787282994480183
            ]
        },
        {
            "positions": [
                2.370053384998899,
                -1.1994916462818455,
                1.368504633392162,
                -0.5294350870300024,
                1.025389627786595,
                2.6795403139937024
            ]
        },
        {
            "positions": [
                2.4349096807332593,
                -1.1610729734968335,
                1.475019684864602,
                -0.586981206514487,
                1.039587718734291,
                2.7803523285393865
            ]
        },
        {
            "positions": [
                2.4997659764676197,
                -1.1226543007118215,
                1.581534736337042,
                -0.6445273259989717,
                1.053785809681987,
                2.8811643430850697
            ]
        },
        {
            "positions": [
                2.56462227220198,
                -1.0842356279268097,
                1.688049787809482,
                -0.7020734454834562,
                1.067983900629683,
                2.9819763576307543
            ]
        },
        {
            "positions": [
                2.596683730096241,
                -1.0499817390528525,
                1.7560992113472462,
                -0.7389938293165756,
                1.0657952337760688,
                3.078555184724113
            ]
        },
        {
            "positions": [
                2.6287451879905013,
                -1.015727850178895,
                1.8241486348850104,
                -0.775914213149695,
                1.0636065669224548,
                3.175134011817472
            ]
        }
    ]
}