{
    "goal": {
        "global_pose": {
            "orientation": {
                "w": 0.5084816262002911,
                "x": -0.4908360881923452,
                "y": 0.5182115481033761,
                "z": -0.48164630358495003
            },
            "position": {
                "x": 0.5540239810943604,
                "y": -0.46912469901144505,
                "z": 0.16403168439865112
            }
        },
        "name": "move_to_storage_B"
    },
    "id": "ProjEST_move_to_storage_B_135",
    "joint_names": [
        "shoulder_pan_joint",
        "shoulder_lift_joint",
        "elbow_joint",
        "wrist_1_joint",
        "wrist_2_joint",
        "wrist_3_joint"
    ],
    "metrics": {
        "cart_traj_len": 6.110831869929547,
        "distance_elbow_joint": 4.614215011528215,
        "distance_shoulder_lift_joint": 0.9787491559472228,
        "distance_shoulder_pan_joint": 6.178114578334079,
        "distance_wrist_1_joint": 2.9766884340725794,
        "distance_wrist_2_joint": 3.900987086731317,
        "distance_wrist_3_joint": 3.1446223733769356,
        "smoothness": 0.324376905282659,
        "time": 0.122830337,
        "traj_len": 4.668337674160936,
        "weighted_distance": 5.912723307203552
    },
    "planner": "ProjEST",
    "start": {
        "state": {
            "elbow_joint": 1.6649325340416963,
            "shoulder_lift_joint": -0.6616387945129425,
            "shoulder_pan_joint": -0.9139837929255878,
            "wrist_1_joint": 2.1467571094334352,
            "wrist_2_joint": -2.234195976750228,
            "wrist_3_joint": 0.005470921511140723
        }
    },
    "waypoints": [
        {
            "positions": [
                -0.9139837929255878,
                -0.6616387945129425,
                1.6649325340416963,
                2.1467571094334352,
                -2.234195976750228,
                0.005470921511140723
            ]
        },
        {
            "positions": [
                -0.8140519798944607,
                -0.6855770469163598,
                1.59379926417911,
                2.1048953857298573,
                -2.1241650197663073,
                -0.031578779869103235
            ]
        },
        {
            "positions": [
                -0.7141201668633335,
                -0.709515299319777,
                1.522665994316524,
                2.0630336620262795,
                -2.014134062782387,
                -0.0686284812493472
            ]
        },
        {
            "positions": [
                -0.6141883538322062,
                -0.7334535517231943,
                1.4515327244539378,
                2.0211719383227016,
                -1.9041031057984665,
                -0.10567818262959115
            ]
        },
        {
            "positions": [
                -0.514256540801079,
                -0.7573918041266116,
                1.3803994545913516,
                1.9793102146191237,
                -1.7940721488145461,
                -0.1427278840098351
            ]
        },
        {
            "positions": [
                -0.4143247277699518,
                -0.7813300565300288,
                1.3092661847287654,
                1.9374484909155458,
                -1.6840411918306257,
                -0.17977758539007904
            ]
        },
        {
            "positions": [
                -0.3143929147388246,
                -0.805268308933446,
                1.238132914866179,
                1.895586767211968,
                -1.574010234846705,
                -0.216827286770323
            ]
        },
        {
            "positions": [
                -0.2144611017076974,
                -0.8292065613368633,
                1.1669996450035929,
                1.85372504350839,
                -1.4639792778627845,
                -0.253876988150567
            ]
        },
        {
            "positions": [
                -0.11452928867657008,
                -0.8531448137402806,
                1.0958663751410067,
                1.8118633198048122,
                -1.3539483208788643,
                -0.29092668953081097
            ]
        },
        {
            "positions": [
                -0.014597475645442892,
                -0.8770830661436979,
                1.0247331052784205,
                1.7700015961012345,
                -1.2439173638949437,
                -0.3279763909110549
            ]
        },
        {
            "positions": [
                0.0853343373856843,
                -0.9010213185471151,
                0.9535998354158345,
                1.7281398723976567,
                -1.1338864069110233,
                -0.36502609229129884
            ]
        },
        {
            "positions": [
                0.18526615041681138,
                -0.9249595709505324,
                0.8824665655532483,
                1.6862781486940788,
                -1.0238554499271029,
                -0.4020757936715428
            ]
        },
        {
            "positions": [
                0.2851979634479387,
                -0.9488978233539497,
                0.811333295690662,
                1.6444164249905007,
                -0.9138244929431822,
                -0.4391254950517868
            ]
        },
        {
            "positions": [
                0.385129776479066,
                -0.9728360757573669,
                0.7402000258280759,
                1.602554701286923,
                -0.8037935359592616,
                -0.47617519643203077
            ]
        },
        {
            "positions": [
                0.48506158951019307,
                -0.9967743281607842,
                0.6690667559654897,
                1.5606929775833451,
                -0.6937625789753412,
                -0.5132248978122746
            ]
        },
        {
            "positions": [
                0.5849934025413204,
                -1.0207125805642014,
                0.5979334861029035,
                1.5188312538797673,
                -0.5837316219914208,
                -0.5502745991925186
            ]
        },
        {
            "positions": [
                0.6849252155724477,
                -1.0446508329676187,
                0.5268002162403174,
                1.4769695301761894,
                -0.4737006650075004,
                -0.5873243005727626
            ]
        },
        {
            "positions": [
                0.7848570286035748,
                -1.068589085371036,
                0.4556669463777312,
                1.4351078064726115,
                -0.36366970802358,
                -0.6243740019530065
            ]
        },
        {
            "positions": [
                0.8847888416347021,
                -1.0925273377744533,
                0.38453367651514503,
                1.3932460827690338,
                -0.2536387510396594,
                -0.6614237033332505
            ]
        },
        {
            "positions": [
                0.9847206546658291,
                -1.1164655901778704,
                0.31340040665255886,
                1.351384359065456,
                -0.1436077940557392,
                -0.6984734047134944
            ]
        },
        {
            "positions": [
                1.0846524676969564,
                -1.1404038425812877,
                0.2422671367899727,
                1.309522635361878,
                -0.03357683707181858,
                -0.7355231060937384
            ]
        },
        {
            "positions": [
                1.1845842807280835,
                -1.164342094984705,
                0.17113386692738652,
                1.2676609116583002,
                0.07645411991210205,
                -0.7725728074739824
            ]
        },
        {
            "positions": [
                1.2845160937592106,
                -1.1882803473881223,
                0.10000059706480036,
                1.2257991879547223,
                0.18648507689602223,
                -0.8096225088542263
            ]
        },
        {
            "positions": [
                1.3844479067903381,
                -1.2122185997915396,
                0.028867327202213966,
                1.1839374642511442,
                0.2965160338799433,
                -0.8466722102344704
            ]
        },
        {
            "positions": [
                1.4843797198214652,
                -1.2361568521949569,
                -0.0422659426603722,
                1.1420757405475663,
                0.4065469908638635,
                -0.8837219116147143
            ]
        },
        {
            "positions": [
                1.5843115328525927,
                -1.2600951045983741,
                -0.11339921252295837,
                1.1002140168439885,
                0.5165779478477841,
                -0.9207716129949582
            ]
        },
        {
            "positions": [
                1.6842433458837198,
                -1.2840333570017912,
                -0.18453248238554454,
                1.0583522931404108,
                0.6266089048317047,
                -0.9578213143752022
            ]
        },
        {
            "positions": [
                1.784175158914847,
                -1.3079716094052087,
                -0.2556657522481307,
                1.016490569436833,
                0.7366398618156249,
                -0.9948710157554462
            ]
        },
        {
            "positions": [
                1.884106971945974,
                -1.3319098618086258,
                -0.3267990221107169,
                0.974628845733255,
                0.8466708187995455,
                -1.03192071713569
            ]
        },
        {
            "positions": [
                1.9840387849771015,
                -1.355848114212043,
                -0.39793229197330304,
                0.9327671220296772,
                0.9567017757834657,
                -1.0689704185159339
            ]
        },
        {
            "positions": [
                2.0839705980082286,
                -1.3797863666154604,
                -0.46906556183588916,
                0.8909053983260993,
                1.0667327327673863,
                -1.1060201198961779
            ]
        },
        {
            "positions": [
                1.9616567446466802,
                -1.3697632287752795,
                -0.3736726035416342,
                0.8247193705197438,
                1.0436535644130132,
                -1.1842174788180861
            ]
        },
        {
            "positions": [
                1.8393428912851317,
                -1.3597400909350985,
                -0.27827964524737925,
                0.7585333427133882,
                1.02057439605864,
                -1.2624148377399946
            ]
        },
        {
            "positions": [
                1.717029037923583,
                -1.3497169530949176,
                -0.18288668695312427,
                0.6923473149070327,
                0.9974952277042667,
                -1.340612196661903
            ]
        },
        {
            "positions": [
                1.5947151845620346,
                -1.3396938152547366,
                -0.08749372865886929,
                0.6261612871006772,
                0.9744160593498934,
                -1.4188095555838112
            ]
        },
        {
            "positions": [
                1.4724013312004862,
                -1.3296706774145557,
                0.007899229635385696,
                0.5599752592943217,
                0.9513368909955202,
                -1.4970069145057197
            ]
        },
        {
            "positions": [
                1.3500874778389376,
                -1.3196475395743748,
                0.10329218792964062,
                0.49378923148796616,
                0.928257722641147,
                -1.575204273427628
            ]
        },
        {
            "positions": [
                1.2277736244773894,
                -1.3096244017341938,
                0.1986851462238956,
                0.42760320368161064,
                0.9051785542867739,
                -1.6534016323495362
            ]
        },
        {
            "positions": [
                1.1054597711158407,
                -1.2996012638940126,
                0.2940781045181506,
                0.3614171758752551,
                0.8820993859324006,
                -1.7315989912714445
            ]
        },
        {
            "positions": [
                0.9831459177542923,
                -1.2895781260538317,
                0.38947106281240546,
                0.2952311480688996,
                0.8590202175780273,
                -1.809796350193353
            ]
        },
        {
            "positions": [
                0.8608320643927436,
                -1.2795549882136508,
                0.48486402110666055,
                0.2290451202625441,
                0.8359410492236541,
                -1.8879937091152614
            ]
        },
        {
            "positions": [
                0.7385182110311954,
                -1.2695318503734698,
                0.5802569794009154,
                0.16285909245618857,
                0.8128618808692809,
                -1.9661910680371695
            ]
        },
        {
            "positions": [
                0.6162043576696468,
                -1.2595087125332889,
                0.6756499376951703,
                0.09667306464983305,
                0.7897827125149076,
                -2.044388426959078
            ]
        },
        {
            "positions": [
                0.49389050430809833,
                -1.249485574693108,
                0.7710428959894253,
                0.030487036843477533,
                0.7667035441605344,
                -2.122585785880986
            ]
        },
        {
            "positions": [
                0.3715766509465499,
                -1.239462436852927,
                0.8664358542836803,
                -0.035698990962877986,
                0.7436243758061613,
                -2.2007831448028945
            ]
        },
        {
            "positions": [
                0.24926279758500147,
                -1.229439299012746,
                0.9618288125779351,
                -0.10188501876923339,
                0.720545207451788,
                -2.278980503724803
            ]
        },
        {
            "positions": [
                0.12694894422345282,
                -1.2194161611725651,
                1.0572217708721903,
                -0.16807104657558902,
                0.6974660390974148,
                -2.3571778626467115
            ]
        },
        {
            "positions": [
                0.0046350908619041675,
                -1.2093930233323842,
                1.1526147291664453,
                -0.23425707438194454,
                0.6743868707430416,
                -2.4353752215686195
            ]
        },
        {
            "positions": [
                -0.11767876249964404,
                -1.1993698854922032,
                1.2480076874607,
                -0.30044310218830006,
                0.6513077023886683,
                -2.5135725804905276
            ]
        },
        {
            "positions": [
                -0.23999261586119225,
                -1.1893467476520223,
                1.343400645754955,
                -0.3666291299946556,
                0.6282285340342951,
                -2.591769939412436
            ]
        },
        {
            "positions": [
                -0.36230646922274135,
                -1.1793236098118411,
                1.4387936040492102,
                -0.4328151578010111,
                0.6051493656799218,
                -2.6699672983343445
            ]
        },
        {
            "positions": [
                -0.48462032258428955,
                -1.1693004719716602,
                1.534186562343465,
                -0.4990011856073666,
                0.5820701973255487,
                -2.748164657256253
            ]
        },
        {
            "positions": [
                -0.6069341759458378,
                -1.1592773341314793,
                1.62957952063772,
                -0.5651872134137221,
                0.5589910289711755,
                -2.8263620161781615
            ]
        },
        {
            "positions": [
                -0.7292480293073864,
                -1.1492541962912983,
                1.724972478931975,
                -0.6313732412200777,
                0.5359118606168022,
                -2.9045593751000696
            ]
        },
        {
            "positions": [
                -0.8515618826689351,
                -1.1392310584511174,
                1.82036543722623,
                -0.6975592690264332,
                0.5128326922624289,
                -2.982756734021978
            ]
        },
        {
            "positions": [
                -0.9738757360304837,
                -1.1292079206109364,
                1.9157583955204849,
                -0.7637452968327887,
                0.4897535239080557,
                -3.060954092943886
            ]
        },
        {
            "positions": [
                -1.0961895893920317,
                -1.1191847827707555,
                2.01115135381474,
                -0.8299313246391443,
                0.4666743555536825,
                -3.1391514518657946
            ]
        }
    ]
}