{
    "goal": {
        "global_pose": {
            "orientation": {
                "w": 0.005598929693374612,
                "x": 0.007748599140229565,
                "y": 0.7110244013736278,
                "z": -0.7031023480610252
            },
            "position": {
                "x": 0.1141497679147869,
                "y": -0.7141253447532654,
                "z": 0.3711530566215515
            }
        },
        "name": "move_to_auspresseinheit_B"
    },
    "id": "ProjEST_move_to_auspresseinheit_B_147",
    "joint_names": [
        "shoulder_pan_joint",
        "shoulder_lift_joint",
        "elbow_joint",
        "wrist_1_joint",
        "wrist_2_joint",
        "wrist_3_joint"
    ],
    "metrics": {
        "cart_traj_len": 0.5649589091797846,
        "distance_elbow_joint": 0.05964428626058016,
        "distance_shoulder_lift_joint": 0.29553340386884686,
        "distance_shoulder_pan_joint": 0.5789698074185752,
        "distance_wrist_1_joint": 0.3172150327764124,
        "distance_wrist_2_joint": 0.9867413150126347,
        "distance_wrist_3_joint": 0.0007711205059854898,
        "smoothness": 2.5376526478085547e-16,
        "time": 0.043476395,
        "traj_len": 1.4962870599731306,
        "weighted_distance": 1.882650672494516
    },
    "planner": "ProjEST",
    "start": {
        "state": {
            "elbow_joint": 2.0193061681459312,
            "shoulder_lift_joint": -1.1220205130644991,
            "shoulder_pan_joint": -1.0952072088045026,
            "wrist_1_joint": -0.8559671810662515,
            "wrist_2_joint": 0.4759638712940361,
            "wrist_3_joint": 3.159081874192446
        }
    },
    "waypoints": [
        {
            "positions": [
                -1.0952072088045026,
                -1.1220205130644991,
                2.0193061681459312,
                -0.8559671810662515,
                0.4759638712940361,
                3.159081874192446
            ]
        },
        {
            "positions": [
                -1.1917021767075986,
                -1.1712760803759736,
                2.009365453769168,
                -0.8030980089368494,
                0.6404207571294752,
                3.159210394276777
            ]
        },
        {
            "positions": [
                -1.2881971446106943,
                -1.2205316476874482,
                1.9994247393924045,
                -0.7502288368074473,
                0.8048776429649143,
                3.1593389143611077
            ]
        },
        {
            "positions": [
                -1.38469211251379,
                -1.2697872149989227,
                1.9894840250156411,
                -0.6973596646780453,
                0.9693345288003534,
                3.159467434445439
            ]
        },
        {
            "positions": [
                -1.481187080416886,
                -1.319042782310397,
                1.9795433106388778,
                -0.6444904925486432,
                1.1337914146357926,
                3.15959595452977
            ]
        },
        {
            "positions": [
                -1.577682048319982,
                -1.3682983496218715,
                1.9696025962621144,
                -0.5916213204192411,
                1.2982483004712317,
                3.1597244746141007
            ]
        },
        {
            "positions": [
                -1.6741770162230778,
                -1.417553916933346,
                1.959661881885351,
                -0.5387521482898391,
                1.462705186306671,
                3.1598529946984315
            ]
        }
    ]
}