{
    "goal": {
        "global_pose": {
            "orientation": {
                "w": 0.7031023502349854,
                "x": -0.7110244035720825,
                "y": 0.007748599164187908,
                "z": 0.005598929710686207
            },
            "position": {
                "x": 0.11585023208521307,
                "y": 0.44412534475326537,
                "z": 0.3711530566215515
            }
        },
        "name": "move_to_auspresseinheit_A"
    },
    "id": "ProjEST_move_to_auspresseinheit_A_13",
    "joint_names": [
        "shoulder_pan_joint",
        "shoulder_lift_joint",
        "elbow_joint",
        "wrist_1_joint",
        "wrist_2_joint",
        "wrist_3_joint"
    ],
    "metrics": {
        "cart_traj_len": 1.4567908413000386,
        "distance_elbow_joint": 0.5729856875657133,
        "distance_shoulder_lift_joint": 1.9925351919308414,
        "distance_shoulder_pan_joint": 1.8735065701706257,
        "distance_wrist_1_joint": 6.502116864605952,
        "distance_wrist_2_joint": 3.2804861046890212,
        "distance_wrist_3_joint": 6.325220518438195,
        "smoothness": 0.39782274639866877,
        "time": 0.722121833,
        "traj_len": 4.532863436879644,
        "weighted_distance": 6.555905348887498
    },
    "planner": "ProjEST",
    "start": {
        "state": {
            "elbow_joint": 2.4225746994637096,
            "shoulder_lift_joint": -1.373653595662188,
            "shoulder_pan_joint": -0.3378633848294565,
            "wrist_1_joint": -1.0288595594406726,
            "wrist_2_joint": 1.2330228066703421,
            "wrist_3_joint": 3.189163495502006
        }
    },
    "waypoints": [
        {
            "positions": [
                -0.3378633848294565,
                -1.373653595662188,
                2.4225746994637096,
                -1.0288595594406726,
                1.2330228066703421,
                3.189163495502006
            ]
        },
        {
            "positions": [
                -0.35120431426964394,
                -1.4144147942914165,
                2.4128300322030873,
                -0.9148228238435532,
                1.1717218658241826,
                3.034813600349202
            ]
        },
        {
            "positions": [
                -0.3645452437098314,
                -1.4551759929206451,
                2.403085364942465,
                -0.8007860882464337,
                1.1104209249780232,
                2.880463705196399
            ]
        },
        {
            "positions": [
                -0.3778861731500188,
                -1.4959371915498736,
                2.3933406976818428,
                -0.6867493526493142,
                1.0491199841318637,
                2.7261138100435955
            ]
        },
        {
            "positions": [
                -0.39122710259020627,
                -1.5366983901791023,
                2.3835960304212205,
                -0.5727126170521948,
                0.9878190432857041,
                2.571763914890792
            ]
        },
        {
            "positions": [
                -0.4045680320303937,
                -1.5774595888083307,
                2.373851363160598,
                -0.4586758814550752,
                0.9265181024395447,
                2.417414019737988
            ]
        },
        {
            "positions": [
                -0.4179089614705811,
                -1.6182207874375594,
                2.3641066958999764,
                -0.34463914585795574,
                0.8652171615933852,
                2.263064124585185
            ]
        },
        {
            "positions": [
                -0.4312498909107686,
                -1.6589819860667878,
                2.354362028639354,
                -0.23060241026083628,
                0.8039162207472257,
                2.1087142294323815
            ]
        },
        {
            "positions": [
                -0.444590820350956,
                -1.6997431846960165,
                2.344617361378732,
                -0.11656567466371681,
                0.7426152799010662,
                1.9543643342795778
            ]
        },
        {
            "positions": [
                -0.4579317497911435,
                -1.740504383325245,
                2.3348726941181095,
                -0.0025289390665972356,
                0.6813143390549067,
                1.800014439126774
            ]
        },
        {
            "positions": [
                -0.47127267923133087,
                -1.7812655819544734,
                2.325128026857487,
                0.11150779653052223,
                0.6200133982087472,
                1.6456645439739708
            ]
        },
        {
            "positions": [
                -0.48461360867151837,
                -1.822026780583702,
                2.315383359596865,
                0.2255445321276417,
                0.5587124573625877,
                1.491314648821167
            ]
        },
        {
            "positions": [
                -0.49795453811170576,
                -1.8627879792129305,
                2.3056386923362426,
                0.33958126772476116,
                0.49741151651642823,
                1.3369647536683638
            ]
        },
        {
            "positions": [
                -0.5112954675518933,
                -1.9035491778421592,
                2.2958940250756203,
                0.45361800332188085,
                0.4361105756702687,
                1.18261485851556
            ]
        },
        {
            "positions": [
                -0.5246363969920806,
                -1.9443103764713876,
                2.286149357814998,
                0.5676547389190001,
                0.37480963482410923,
                1.0282649633627567
            ]
        },
        {
            "positions": [
                -0.537977326432268,
                -1.9850715751006163,
                2.2764046905543758,
                0.6816914745161198,
                0.31350869397794967,
                0.873915068209953
            ]
        },
        {
            "positions": [
                -0.5513182558724555,
                -2.025832773729845,
                2.266660023293754,
                0.795728210113239,
                0.25220775313179034,
                0.7195651730571497
            ]
        },
        {
            "positions": [
                -0.5646591853126429,
                -2.0665939723590734,
                2.2569153560331316,
                0.9097649457103585,
                0.19090681228563078,
                0.5652152779043464
            ]
        },
        {
            "positions": [
                -0.5780001147528304,
                -2.107355170988302,
                2.2471706887725094,
                1.0238016813074782,
                0.12960587143947122,
                0.4108653827515423
            ]
        },
        {
            "positions": [
                -0.5913410441930178,
                -2.1481163696175303,
                2.237426021511887,
                1.1378384169045979,
                0.06830493059331166,
                0.256515487598739
            ]
        },
        {
            "positions": [
                -0.6046819736332053,
                -2.1888775682467587,
                2.227681354251265,
                1.251875152501717,
                0.007003989747152328,
                0.1021655924459357
            ]
        },
        {
            "positions": [
                -0.6180229030733927,
                -2.229638766875987,
                2.2179366869906425,
                1.3659118880988363,
                -0.05429695109900723,
                -0.05218430270686758
            ]
        },
        {
            "positions": [
                -0.6313638325135802,
                -2.270399965505216,
                2.20819201973002,
                1.479948623695956,
                -0.11559789194516679,
                -0.20653419785967175
            ]
        },
        {
            "positions": [
                -0.6447047619537676,
                -2.3111611641344445,
                2.198447352469398,
                1.5939853592930757,
                -0.17689883279132612,
                -0.36088409301247504
            ]
        },
        {
            "positions": [
                -0.658045691393955,
                -2.351922362763673,
                2.1887026852087756,
                1.708022094890195,
                -0.23819977363748568,
                -0.5152339881652783
            ]
        },
        {
            "positions": [
                -0.6713866208341425,
                -2.392683561392902,
                2.1789580179481534,
                1.8220588304873142,
                -0.299500714483645,
                -0.6695838833180816
            ]
        },
        {
            "positions": [
                -0.68472755027433,
                -2.4334447600221303,
                2.1692133506875315,
                1.9360955660844343,
                -0.3608016553298048,
                -0.8239337784708858
            ]
        },
        {
            "positions": [
                -0.6980684797145174,
                -2.4742059586513587,
                2.1594686834269092,
                2.0501323016815536,
                -0.42210259617596413,
                -0.9782836736236891
            ]
        },
        {
            "positions": [
                -0.7114094091547047,
                -2.514967157280587,
                2.149724016166287,
                2.164169037278673,
                -0.4834035370221237,
                -1.1326335687764923
            ]
        },
        {
            "positions": [
                -0.7247503385948922,
                -2.5557283559098156,
                2.1399793489056647,
                2.278205772875792,
                -0.544704477868283,
                -1.2869834639292956
            ]
        },
        {
            "positions": [
                -0.7380912680350797,
                -2.5964895545390445,
                2.1302346816450424,
                2.392242508472912,
                -0.6060054187144428,
                -1.4413333590820998
            ]
        },
        {
            "positions": [
                -0.7514321974752671,
                -2.637250753168273,
                2.12049001438442,
                2.5062792440700314,
                -0.6673063595606021,
                -1.5956832542349029
            ]
        },
        {
            "positions": [
                -0.6850713903150483,
                -2.604117206148966,
                2.132803696315621,
                2.3714166049293386,
                -0.604571953267053,
                -1.6657002437213249
            ]
        },
        {
            "positions": [
                -0.6187105831548294,
                -2.570983659129659,
                2.1451173782468222,
                2.2365539657886453,
                -0.5418375469735041,
                -1.7357172332077466
            ]
        },
        {
            "positions": [
                -0.5523497759946105,
                -2.537850112110352,
                2.1574310601780233,
                2.1016913266479524,
                -0.4791031406799551,
                -1.8057342226941686
            ]
        },
        {
            "positions": [
                -0.4859889688343916,
                -2.5047165650910443,
                2.1697447421092244,
                1.9668286875072591,
                -0.416368734386406,
                -1.8757512121805906
            ]
        },
        {
            "positions": [
                -0.4196281616741727,
                -2.4715830180717373,
                2.1820584240404255,
                1.8319660483665663,
                -0.353634328092857,
                -1.9457682016670124
            ]
        },
        {
            "positions": [
                -0.35326735451395386,
                -2.4384494710524303,
                2.1943721059716266,
                1.6971034092258734,
                -0.29089992179930796,
                -2.0157851911534346
            ]
        },
        {
            "positions": [
                -0.286906547353735,
                -2.405315924033123,
                2.2066857879028277,
                1.5622407700851801,
                -0.22816551550575892,
                -2.085802180639856
            ]
        },
        {
            "positions": [
                -0.22054574019351603,
                -2.372182377013816,
                2.2189994698340287,
                1.427378130944487,
                -0.16543110921220983,
                -2.155819170126278
            ]
        },
        {
            "positions": [
                -0.15418493303329717,
                -2.3390488299945087,
                2.23131315176523,
                1.292515491803794,
                -0.10269670291866084,
                -2.2258361596127
            ]
        },
        {
            "positions": [
                -0.08782412587307831,
                -2.3059152829752017,
                2.243626833696431,
                1.1576528526631011,
                -0.03996229662511186,
                -2.295853149099122
            ]
        },
        {
            "positions": [
                -0.021463318712859447,
                -2.2727817359558946,
                2.255940515627632,
                1.022790213522408,
                0.022772109668437235,
                -2.365870138585544
            ]
        },
        {
            "positions": [
                0.04489748844735941,
                -2.2396481889365876,
                2.268254197558833,
                0.8879275743817152,
                0.08550651596198622,
                -2.4358871280719656
            ]
        },
        {
            "positions": [
                0.11125829560757838,
                -2.2065146419172805,
                2.280567879490034,
                0.7530649352410219,
                0.1482409222555353,
                -2.505904117558388
            ]
        },
        {
            "positions": [
                0.17761910276779713,
                -2.1733810948979735,
                2.2928815614212352,
                0.6182022961003291,
                0.2109753285490843,
                -2.5759211070448096
            ]
        },
        {
            "positions": [
                0.243979909928016,
                -2.1402475478786664,
                2.3051952433524363,
                0.483339656959636,
                0.2737097348426333,
                -2.6459380965312316
            ]
        },
        {
            "positions": [
                0.3103407170882351,
                -2.107114000859359,
                2.3175089252836374,
                0.3484770178189427,
                0.3364441411361825,
                -2.7159550860176536
            ]
        },
        {
            "positions": [
                0.3767015242484537,
                -2.073980453840052,
                2.3298226072148385,
                0.21361437867824984,
                0.39917854742973136,
                -2.785972075504075
            ]
        },
        {
            "positions": [
                0.4430623314086728,
                -2.040846906820745,
                2.3421362891460396,
                0.07875173953755654,
                0.46191295372328045,
                -2.8559890649904975
            ]
        },
        {
            "positions": [
                0.5094231385688917,
                -2.007713359801438,
                2.3544499710772406,
                -0.05611089960313631,
                0.5246473600168295,
                -2.926006054476919
            ]
        },
        {
            "positions": [
                0.5757839457291105,
                -1.9745798127821308,
                2.3667636530084417,
                -0.19097353874382916,
                0.5873817663103784,
                -2.996023043963341
            ]
        },
        {
            "positions": [
                0.6421447528893294,
                -1.9414462657628235,
                2.379077334939643,
                -0.32583617788452246,
                0.6501161726039277,
                -3.066040033449763
            ]
        },
        {
            "positions": [
                0.7085055600495481,
                -1.9083127187435165,
                2.391391016870844,
                -0.46069881702521537,
                0.7128505788974765,
                -3.136057022936185
            ]
        }
    ]
}