{
    "goal": {
        "global_pose": {
            "orientation": {
                "w": 0.005598929693374612,
                "x": 0.007748599140229565,
                "y": 0.7110244013736278,
                "z": -0.7031023480610252
            },
            "position": {
                "x": 0.1141497679147869,
                "y": -0.7141253447532654,
                "z": 0.3711530566215515
            }
        },
        "name": "move_to_auspresseinheit_B"
    },
    "id": "ProjEST_move_to_auspresseinheit_B_145",
    "joint_names": [
        "shoulder_pan_joint",
        "shoulder_lift_joint",
        "elbow_joint",
        "wrist_1_joint",
        "wrist_2_joint",
        "wrist_3_joint"
    ],
    "metrics": {
        "cart_traj_len": 0.5638840623188228,
        "distance_elbow_joint": 0.06291896988383194,
        "distance_shoulder_lift_joint": 0.29430628044489304,
        "distance_shoulder_pan_joint": 0.57386245531443,
        "distance_wrist_1_joint": 0.330703078538679,
        "distance_wrist_2_joint": 1.0084071888618296,
        "distance_wrist_3_joint": 0.008074580870869763,
        "smoothness": 5.075305295617109e-16,
        "time": 0.252698174,
        "traj_len": 1.5093947641073004,
        "weighted_distance": 1.9061825681336984
    },
    "planner": "ProjEST",
    "start": {
        "state": {
            "elbow_joint": 2.0193061681459312,
            "shoulder_lift_joint": -1.1220205130644991,
            "shoulder_pan_joint": -1.0952072088045026,
            "wrist_1_joint": -0.8559671810662515,
            "wrist_2_joint": 0.4759638712940361,
            "wrist_3_joint": 3.159081874192446
        }
    },
    "waypoints": [
        {
            "positions": [
                -1.0952072088045026,
                -1.1220205130644991,
                2.0193061681459312,
                -0.8559671810662515,
                0.4759638712940361,
                3.159081874192446
            ]
        },
        {
            "positions": [
                -1.1908509513569077,
                -1.1710715598053145,
                2.0088196731652928,
                -0.800850001309805,
                0.6440317361043411,
                3.1577361107139676
            ]
        },
        {
            "positions": [
                -1.2864946939093127,
                -1.2201226065461301,
                1.9983331781846538,
                -0.7457328215533585,
                0.812099600914646,
                3.1563903472354893
            ]
        },
        {
            "positions": [
                -1.3821384364617177,
                -1.2691736532869458,
                1.9878466832040154,
                -0.690615641796912,
                0.9801674657249508,
                3.155044583757011
            ]
        },
        {
            "positions": [
                -1.4777821790141226,
                -1.3182247000277612,
                1.9773601882233767,
                -0.6354984620404656,
                1.1482353305352557,
                3.153698820278533
            ]
        },
        {
            "positions": [
                -1.5734259215665276,
                -1.3672757467685765,
                1.966873693242738,
                -0.580381282284019,
                1.3163031953455608,
                3.1523530568000546
            ]
        },
        {
            "positions": [
                -1.6690696641189326,
                -1.4163267935093922,
                1.9563871982620993,
                -0.5252641025275725,
                1.4843710601558657,
                3.1510072933215763
            ]
        }
    ]
}