{
    "goal": {
        "global_pose": {
            "orientation": {
                "w": -0.4816463035849501,
                "x": 0.5182115481033762,
                "y": 0.4908360881923453,
                "z": -0.5084816262002911
            },
            "position": {
                "x": -0.8240239810943604,
                "y": -0.300875300988555,
                "z": 0.16403168439865112
            }
        },
        "name": "move_to_storage_C"
    },
    "id": "ProjEST_move_to_storage_C_63",
    "joint_names": [
        "shoulder_pan_joint",
        "shoulder_lift_joint",
        "elbow_joint",
        "wrist_1_joint",
        "wrist_2_joint",
        "wrist_3_joint"
    ],
    "metrics": {
        "cart_traj_len": 0.576296021017136,
        "distance_elbow_joint": 0.25974296016035514,
        "distance_shoulder_lift_joint": 0.1888214804434386,
        "distance_shoulder_pan_joint": 0.493816438182062,
        "distance_wrist_1_joint": 0.08956691787551796,
        "distance_wrist_2_joint": 1.0754523637463775,
        "distance_wrist_3_joint": 0.07091512421042445,
        "smoothness": 2.5376526478085547e-16,
        "time": 0.013159194,
        "traj_len": 1.4759116791387539,
        "weighted_distance": 1.8668596130027881
    },
    "planner": "ProjEST",
    "start": {
        "state": {
            "elbow_joint": 2.0108683149792914,
            "shoulder_lift_joint": -1.1634956873317392,
            "shoulder_pan_joint": -2.4736205022346,
            "wrist_1_joint": -0.8367026793690192,
            "wrist_2_joint": 0.6746043897045053,
            "wrist_3_joint": 3.133522094754363
        }
    },
    "waypoints": [
        {
            "positions": [
                -2.4736205022346,
                -1.1634956873317392,
                2.0108683149792914,
                -0.8367026793690192,
                0.6746043897045053,
                3.133522094754363
            ]
        },
        {
            "positions": [
                -2.5559232419316102,
                -1.132025440591166,
                1.9675778216192321,
                -0.8217748597230996,
                0.8538464503289016,
                3.145341282122767
            ]
        },
        {
            "positions": [
                -2.638225981628621,
                -1.100555193850593,
                1.924287328259173,
                -0.8068470400771799,
                1.0330885109532977,
                3.1571604694911715
            ]
        },
        {
            "positions": [
                -2.720528721325631,
                -1.06908494711002,
                1.880996834899114,
                -0.7919192204312602,
                1.2123305715776942,
                3.1689796568595754
            ]
        },
        {
            "positions": [
                -2.8028314610226412,
                -1.037614700369447,
                1.8377063415390547,
                -0.7769914007853406,
                1.3915726322020903,
                3.1807988442279793
            ]
        },
        {
            "positions": [
                -2.885134200719652,
                -1.0061444536288737,
                1.7944158481789954,
                -0.762063581139421,
                1.5708146928264868,
                3.1926180315963837
            ]
        },
        {
            "positions": [
                -2.967436940416662,
                -0.9746742068883006,
                1.7511253548189363,
                -0.7471357614935012,
                1.7500567534508829,
                3.2044372189647876
            ]
        }
    ]
}