{
    "goal": {
        "global_pose": {
            "orientation": {
                "w": 0.5084816217422485,
                "x": -0.49083608388900757,
                "y": 0.5182115435600281,
                "z": -0.4816462993621826
            },
            "position": {
                "x": 0.5540239810943604,
                "y": 0.030875300988554955,
                "z": 0.16403168439865112
            }
        },
        "name": "move_to_storage_A"
    },
    "id": "ProjEST_move_to_storage_A_49",
    "joint_names": [
        "shoulder_pan_joint",
        "shoulder_lift_joint",
        "elbow_joint",
        "wrist_1_joint",
        "wrist_2_joint",
        "wrist_3_joint"
    ],
    "metrics": {
        "cart_traj_len": 0.352703303430836,
        "distance_elbow_joint": 0.4490024795723244,
        "distance_shoulder_lift_joint": 0.23338527072314164,
        "distance_shoulder_pan_joint": 0.45760297977533015,
        "distance_wrist_1_joint": 0.24657679484864103,
        "distance_wrist_2_joint": 1.1124736823046146,
        "distance_wrist_3_joint": 0.09724440927637756,
        "smoothness": 8.881784232165597e-16,
        "time": 0.078773766,
        "traj_len": 1.6112993565754408,
        "weighted_distance": 2.0371119046842865
    },
    "planner": "ProjEST",
    "start": {
        "state": {
            "elbow_joint": 1.971548880431181,
            "shoulder_lift_joint": -1.1394869514688781,
            "shoulder_pan_joint": 0.12281150262730567,
            "wrist_1_joint": -0.7804693444481463,
            "wrist_2_joint": 0.12958644648617612,
            "wrist_3_joint": 3.0906942077768043
        }
    },
    "waypoints": [
        {
            "positions": [
                0.12281150262730567,
                -1.1394869514688781,
                1.971548880431181,
                -0.7804693444481463,
                0.12958644648617612,
                3.0906942077768043
            ]
        },
        {
            "positions": [
                0.05743964837368708,
                -1.172827704429327,
                2.035692091798656,
                -0.815694600855095,
                0.28851125824397816,
                3.104586266244858
            ]
        },
        {
            "positions": [
                -0.007932205879931514,
                -1.2061684573897757,
                2.099835303166131,
                -0.8509198572620438,
                0.44743607000178026,
                3.118478324712912
            ]
        },
        {
            "positions": [
                -0.07330406013355009,
                -1.2395092103502245,
                2.1639785145336057,
                -0.8861451136689924,
                0.6063608817595824,
                3.132370383180966
            ]
        },
        {
            "positions": [
                -0.1386759143871687,
                -1.2728499633106733,
                2.2281217259010804,
                -0.9213703700759411,
                0.7652856935173844,
                3.14626244164902
            ]
        },
        {
            "positions": [
                -0.20404776864078733,
                -1.3061907162711222,
                2.2922649372685555,
                -0.9565956264828899,
                0.9242105052751866,
                3.160154500117074
            ]
        },
        {
            "positions": [
                -0.26941962289440585,
                -1.339531469231571,
                2.3564081486360307,
                -0.9918208828898386,
                1.0831353170329887,
                3.174046558585128
            ]
        },
        {
            "positions": [
                -0.3347914771480245,
                -1.3728722221920198,
                2.4205513600035053,
                -1.0270461392967873,
                1.2420601287907909,
                3.187938617053182
            ]
        }
    ]
}