{
    "goal": {
        "global_pose": {
            "orientation": {
                "w": 0.5084816262002911,
                "x": -0.4908360881923452,
                "y": 0.5182115481033761,
                "z": -0.48164630358495003
            },
            "position": {
                "x": 0.5540239810943604,
                "y": -0.46912469901144505,
                "z": 0.16403168439865112
            }
        },
        "name": "move_to_storage_B"
    },
    "id": "ProjEST_move_to_storage_B_43",
    "joint_names": [
        "shoulder_pan_joint",
        "shoulder_lift_joint",
        "elbow_joint",
        "wrist_1_joint",
        "wrist_2_joint",
        "wrist_3_joint"
    ],
    "metrics": {
        "cart_traj_len": 1.3885983880910506,
        "distance_elbow_joint": 0.5739998771823578,
        "distance_shoulder_lift_joint": 0.4589649579615782,
        "distance_shoulder_pan_joint": 1.3273647090352556,
        "distance_wrist_1_joint": 3.0131209602524875,
        "distance_wrist_2_joint": 2.7037599074109804,
        "distance_wrist_3_joint": 3.1134118513229216,
        "smoothness": 0.1402117303997839,
        "time": 0.120759369,
        "traj_len": 3.345238745316331,
        "weighted_distance": 4.80981567562364
    },
    "planner": "ProjEST",
    "start": {
        "state": {
            "elbow_joint": 1.6649325340416963,
            "shoulder_lift_joint": -0.6616387945129425,
            "shoulder_pan_joint": -0.9139837929255878,
            "wrist_1_joint": 2.1467571094334352,
            "wrist_2_joint": -2.234195976750228,
            "wrist_3_joint": 0.005470921511140723
        }
    },
    "waypoints": [
        {
            "positions": [
                -0.9139837929255878,
                -0.6616387945129425,
                1.6649325340416963,
                2.1467571094334352,
                -2.234195976750228,
                0.005470921511140723
            ]
        },
        {
            "positions": [
                -0.8321760009081826,
                -0.7215196327180307,
                1.6492436782816318,
                2.063478798277733,
                -2.173725091528266,
                -0.04570106432429623
            ]
        },
        {
            "positions": [
                -0.7503682088907773,
                -0.7814004709231187,
                1.6335548225215675,
                1.9802004871220313,
                -2.113254206306304,
                -0.09687305015973319
            ]
        },
        {
            "positions": [
                -0.668560416873372,
                -0.8412813091282069,
                1.617865966761503,
                1.8969221759663293,
                -2.052783321084342,
                -0.14804503599517013
            ]
        },
        {
            "positions": [
                -0.5867526248559667,
                -0.901162147333295,
                1.6021771110014387,
                1.8136438648106272,
                -1.99231243586238,
                -0.19921702183060708
            ]
        },
        {
            "positions": [
                -0.5049448328385613,
                -0.9610429855383831,
                1.5864882552413742,
                1.7303655536549254,
                -1.9318415506404178,
                -0.2503890076660441
            ]
        },
        {
            "positions": [
                -0.42313704082115605,
                -1.0209238237434712,
                1.5707993994813099,
                1.6470872424992233,
                -1.8713706654184559,
                -0.301560993501481
            ]
        },
        {
            "positions": [
                -0.3413292488037507,
                -1.0808046619485594,
                1.5551105437212454,
                1.5638089313435213,
                -1.810899780196494,
                -0.352732979336918
            ]
        },
        {
            "positions": [
                -0.3741427342347689,
                -1.0825350571888186,
                1.5752921909761108,
                1.4581492451625397,
                -1.7117491840722658,
                -0.47252462935756423
            ]
        },
        {
            "positions": [
                -0.4069562196657871,
                -1.0842654524290778,
                1.5954738382309763,
                1.3524895589815584,
                -1.6125985879480376,
                -0.5923162793782104
            ]
        },
        {
            "positions": [
                -0.4397697050968053,
                -1.085995847669337,
                1.6156554854858418,
                1.2468298728005769,
                -1.5134479918238095,
                -0.7121079293988566
            ]
        },
        {
            "positions": [
                -0.4725831905278235,
                -1.0877262429095962,
                1.6358371327407073,
                1.1411701866195956,
                -1.4142973956995815,
                -0.8318995794195028
            ]
        },
        {
            "positions": [
                -0.5053966759588416,
                -1.0894566381498554,
                1.656018779995573,
                1.035510500438614,
                -1.3151467995753534,
                -0.951691229440149
            ]
        },
        {
            "positions": [
                -0.5382101613898599,
                -1.0911870333901146,
                1.6762004272504385,
                0.9298508142576326,
                -1.2159962034511254,
                -1.0714828794607951
            ]
        },
        {
            "positions": [
                -0.571023646820878,
                -1.0929174286303738,
                1.696382074505304,
                0.8241911280766512,
                -1.116845607326897,
                -1.1912745294814415
            ]
        },
        {
            "positions": [
                -0.6038371322518963,
                -1.094647823870633,
                1.7165637217601695,
                0.7185314418956698,
                -1.017695011202669,
                -1.3110661795020877
            ]
        },
        {
            "positions": [
                -0.6366506176829145,
                -1.0963782191108922,
                1.736745369015035,
                0.6128717557146882,
                -0.9185444150784409,
                -1.4308578295227339
            ]
        },
        {
            "positions": [
                -0.6694641031139326,
                -1.0981086143511514,
                1.7569270162699004,
                0.5072120695337068,
                -0.8193938189542128,
                -1.55064947954338
            ]
        },
        {
            "positions": [
                -0.7022775885449508,
                -1.0998390095914106,
                1.777108663524766,
                0.4015523833527255,
                -0.7202432228299847,
                -1.6704411295640265
            ]
        },
        {
            "positions": [
                -0.7350910739759691,
                -1.1015694048316695,
                1.7972903107796316,
                0.29589269717174393,
                -0.6210926267057566,
                -1.7902327795846724
            ]
        },
        {
            "positions": [
                -0.7679045594069872,
                -1.1032998000719287,
                1.817471958034497,
                0.19023301099076262,
                -0.5219420305815285,
                -1.9100244296053186
            ]
        },
        {
            "positions": [
                -0.8007180448380055,
                -1.105030195312188,
                1.8376536052893626,
                0.08457332480978108,
                -0.4227914344573003,
                -2.0298160796259648
            ]
        },
        {
            "positions": [
                -0.8335315302690236,
                -1.1067605905524471,
                1.857835252544228,
                -0.021086361371200457,
                -0.3236408383330722,
                -2.149607729646611
            ]
        },
        {
            "positions": [
                -0.8663450157000419,
                -1.1084909857927063,
                1.8780168997990936,
                -0.12674604755218177,
                -0.22449024220884417,
                -2.269399379667257
            ]
        },
        {
            "positions": [
                -0.89915850113106,
                -1.1102213810329655,
                1.898198547053959,
                -0.2324057337331631,
                -0.12533964608461612,
                -2.389191029687903
            ]
        },
        {
            "positions": [
                -0.9319719865620782,
                -1.1119517762732247,
                1.9183801943088246,
                -0.33806541991414485,
                -0.026189049960387845,
                -2.5089826797085495
            ]
        },
        {
            "positions": [
                -0.9647854719930964,
                -1.113682171513484,
                1.9385618415636903,
                -0.44372510609512616,
                0.07296154616384021,
                -2.628774329729196
            ]
        },
        {
            "positions": [
                -0.9975989574241145,
                -1.1154125667537431,
                1.9587434888185555,
                -0.5493847922761077,
                0.17211214228806826,
                -2.748565979749842
            ]
        },
        {
            "positions": [
                -1.0304124428551327,
                -1.1171429619940023,
                1.9789251360734212,
                -0.6550444784570888,
                0.2712627384122961,
                -2.8683576297704882
            ]
        },
        {
            "positions": [
                -1.0632259282861511,
                -1.1188733572342615,
                1.9991067833282867,
                -0.7607041646380703,
                0.3704133345365246,
                -2.9881492797911346
            ]
        },
        {
            "positions": [
                -1.0960394137171692,
                -1.1206037524745207,
                2.019288430583152,
                -0.8663638508190519,
                0.4695639306607525,
                -3.1079409298117806
            ]
        }
    ]
}