{
    "goal": {
        "global_pose": {
            "orientation": {
                "w": 0.5084816217422485,
                "x": -0.49083608388900757,
                "y": 0.5182115435600281,
                "z": -0.4816462993621826
            },
            "position": {
                "x": 0.5540239810943604,
                "y": 0.030875300988554955,
                "z": 0.16403168439865112
            }
        },
        "name": "move_to_storage_A"
    },
    "id": "ProjEST_move_to_storage_A_71",
    "joint_names": [
        "shoulder_pan_joint",
        "shoulder_lift_joint",
        "elbow_joint",
        "wrist_1_joint",
        "wrist_2_joint",
        "wrist_3_joint"
    ],
    "metrics": {
        "cart_traj_len": 0.3528764302424968,
        "distance_elbow_joint": 0.4516017197720108,
        "distance_shoulder_lift_joint": 0.23418549180298132,
        "distance_shoulder_pan_joint": 0.4630708449269363,
        "distance_wrist_1_joint": 0.24751374596968034,
        "distance_wrist_2_joint": 1.091683923691749,
        "distance_wrist_3_joint": 0.09410056913974252,
        "smoothness": 4.440892098500626e-16,
        "time": 0.110202634,
        "traj_len": 1.6069089256404983,
        "weighted_distance": 2.0272037646087813
    },
    "planner": "ProjEST",
    "start": {
        "state": {
            "elbow_joint": 1.971548880431181,
            "shoulder_lift_joint": -1.1394869514688781,
            "shoulder_pan_joint": 0.12281150262730567,
            "wrist_1_joint": -0.7804693444481463,
            "wrist_2_joint": 0.12958644648617612,
            "wrist_3_joint": 3.0906942077768043
        }
    },
    "waypoints": [
        {
            "positions": [
                0.12281150262730567,
                -1.1394869514688781,
                1.971548880431181,
                -0.7804693444481463,
                0.12958644648617612,
                3.0906942077768043
            ]
        },
        {
            "positions": [
                0.05665852478060049,
                -1.1729420217264468,
                2.0360634118271825,
                -0.8158284510152435,
                0.28554129272785456,
                3.104137146225339
            ]
        },
        {
            "positions": [
                -0.009494453066104691,
                -1.2063970919840157,
                2.100577943223184,
                -0.8511875575823407,
                0.441496138969533,
                3.1175800846738735
            ]
        },
        {
            "positions": [
                -0.07564743091280987,
                -1.2398521622415843,
                2.1650924746191857,
                -0.8865466641494378,
                0.5974509852112114,
                3.1310230231224083
            ]
        },
        {
            "positions": [
                -0.14180040875951505,
                -1.2733072324991532,
                2.229607006015187,
                -0.921905770716535,
                0.7534058314528899,
                3.1444659615709427
            ]
        },
        {
            "positions": [
                -0.20795338660622026,
                -1.306762302756722,
                2.2941215374111885,
                -0.9572648772836323,
                0.9093606776945683,
                3.1579089000194775
            ]
        },
        {
            "positions": [
                -0.2741063644529254,
                -1.3402173730142906,
                2.3586360688071903,
                -0.9926239838507295,
                1.0653155239362468,
                3.171351838468012
            ]
        },
        {
            "positions": [
                -0.3402593422996306,
                -1.3736724432718594,
                2.4231506002031917,
                -1.0279830904178267,
                1.221270370177925,
                3.1847947769165468
            ]
        }
    ]
}