{
    "goal": {
        "global_pose": {
            "orientation": {
                "w": 0.7047431493862688,
                "x": -0.7094548369677653,
                "y": 0.0024358444001904,
                "z": -0.0022348060817251984
            },
            "position": {
                "x": -0.39052492380142206,
                "y": 0.3671506643295288,
                "z": 0.19426114857196808
            }
        },
        "name": "move_to_magneteinheit_D"
    },
    "id": "ProjEST_move_to_magneteinheit_D_150",
    "joint_names": [
        "shoulder_pan_joint",
        "shoulder_lift_joint",
        "elbow_joint",
        "wrist_1_joint",
        "wrist_2_joint",
        "wrist_3_joint"
    ],
    "metrics": {
        "cart_traj_len": 4.7726561209284535,
        "distance_elbow_joint": 3.1395101213469343,
        "distance_shoulder_lift_joint": 1.6316355461245038,
        "distance_shoulder_pan_joint": 4.186899560377215,
        "distance_wrist_1_joint": 1.9097028100913758,
        "distance_wrist_2_joint": 0.6461094566440554,
        "distance_wrist_3_joint": 3.075960309911046,
        "smoothness": 0.36591555568423556,
        "time": 0.117103525,
        "traj_len": 3.81966200134189,
        "weighted_distance": 4.826753638943328
    },
    "planner": "ProjEST",
    "start": {
        "state": {
            "elbow_joint": 0.7495348899011911,
            "shoulder_lift_joint": -0.6476975780737668,
            "shoulder_pan_joint": -2.711696901376276,
            "wrist_1_joint": -0.0750647808097303,
            "wrist_2_joint": 0.43296659715458535,
            "wrist_3_joint": 3.1361499051832418
        }
    },
    "waypoints": [
        {
            "positions": [
                -2.711696901376276,
                -0.6476975780737668,
                0.7495348899011911,
                -0.0750647808097303,
                0.43296659715458535,
                3.1361499051832418
            ]
        },
        {
            "positions": [
                -2.7001263614176225,
                -0.7195126268840815,
                0.6537537239036703,
                -0.01775951065772064,
                0.5328826294069987,
                3.1083417348810025
            ]
        },
        {
            "positions": [
                -2.688555821458969,
                -0.7913276756943962,
                0.5579725579061494,
                0.03954575949428901,
                0.6327986616594121,
                3.0805335645787633
            ]
        },
        {
            "positions": [
                -2.5774488846872723,
                -0.8331747799443461,
                0.47902754857474095,
                0.09330565183921546,
                0.6226241454630757,
                2.981517620927173
            ]
        },
        {
            "positions": [
                -2.466341947915576,
                -0.8750218841942959,
                0.4000825392433324,
                0.14706554418414192,
                0.6124496292667392,
                2.8825016772755827
            ]
        },
        {
            "positions": [
                -2.3552350111438796,
                -0.9168689884442458,
                0.3211375299119239,
                0.20082543652906842,
                0.6022751130704027,
                2.7834857336239924
            ]
        },
        {
            "positions": [
                -2.244128074372183,
                -0.9587160926941956,
                0.24219252058051544,
                0.2545853288739949,
                0.5921005968740662,
                2.684469789972402
            ]
        },
        {
            "positions": [
                -2.133021137600487,
                -1.0005631969441455,
                0.16324751124910697,
                0.30834522121892133,
                0.5819260806777298,
                2.5854538463208114
            ]
        },
        {
            "positions": [
                -2.0219142008287903,
                -1.0424103011940953,
                0.08430250191769845,
                0.36210511356384784,
                0.5717515644813934,
                2.486437902669221
            ]
        },
        {
            "positions": [
                -1.9108072640570937,
                -1.084257405444045,
                0.005357492586290036,
                0.4158650059087743,
                0.561577048285057,
                2.387421959017631
            ]
        },
        {
            "positions": [
                -1.7997003272853973,
                -1.126104509693995,
                -0.07358751674511854,
                0.4696248982537007,
                0.5514025320887205,
                2.2884060153660406
            ]
        },
        {
            "positions": [
                -1.688593390513701,
                -1.1679516139439448,
                -0.152532526076527,
                0.5233847905986271,
                0.541228015892384,
                2.1893900717144503
            ]
        },
        {
            "positions": [
                -1.5774864537420044,
                -1.2097987181938947,
                -0.23147753540793548,
                0.5771446829435536,
                0.5310534996960475,
                2.09037412806286
            ]
        },
        {
            "positions": [
                -1.466379516970308,
                -1.2516458224438445,
                -0.31042254473934394,
                0.6309045752884801,
                0.5208789834997111,
                1.9913581844112695
            ]
        },
        {
            "positions": [
                -1.3552725801986114,
                -1.2934929266937942,
                -0.3893675540707525,
                0.6846644676334066,
                0.5107044673033746,
                1.8923422407596793
            ]
        },
        {
            "positions": [
                -1.244165643426915,
                -1.3353400309437442,
                -0.468312563402161,
                0.7384243599783331,
                0.5005299511070381,
                1.7933262971080888
            ]
        },
        {
            "positions": [
                -1.1330587066552185,
                -1.377187135193694,
                -0.5472575727335693,
                0.7921842523232596,
                0.4903554349107017,
                1.6943103534564985
            ]
        },
        {
            "positions": [
                -1.021951769883522,
                -1.419034239443644,
                -0.6262025820649779,
                0.8459441446681859,
                0.48018091871436525,
                1.5952944098049082
            ]
        },
        {
            "positions": [
                -0.9108448331118257,
                -1.4608813436935937,
                -0.7051475913963865,
                0.8997040370131124,
                0.4700064025180288,
                1.496278466153318
            ]
        },
        {
            "positions": [
                -0.7997378963401292,
                -1.5027284479435434,
                -0.7840926007277949,
                0.9534639293580389,
                0.45983188632169236,
                1.3972625225017277
            ]
        },
        {
            "positions": [
                -0.6886309595684328,
                -1.5445755521934932,
                -0.8630376100592034,
                1.0072238217029652,
                0.4496573701253559,
                1.2982465788501372
            ]
        },
        {
            "positions": [
                -0.5775240227967364,
                -1.5864226564434432,
                -0.9419826193906118,
                1.0609837140478917,
                0.4394828539290194,
                1.199230635198547
            ]
        },
        {
            "positions": [
                -0.46641708602503984,
                -1.6282697606933931,
                -1.0209276287220204,
                1.1147436063928182,
                0.42930833773268295,
                1.1002146915469566
            ]
        },
        {
            "positions": [
                -0.3553101492533437,
                -1.6701168649433429,
                -1.0998726380534287,
                1.1685034987377445,
                0.4191338215363465,
                1.0011987478953661
            ]
        },
        {
            "positions": [
                -0.24420321248164711,
                -1.7119639691932926,
                -1.1788176473848373,
                1.222263391082671,
                0.40895930534001,
                0.9021828042437758
            ]
        },
        {
            "positions": [
                -0.13309627570995053,
                -1.7538110734432426,
                -1.2577626567162459,
                1.2760232834275977,
                0.39878478914367355,
                0.8031668605921856
            ]
        },
        {
            "positions": [
                -0.021989338938253944,
                -1.7956581776931926,
                -1.3367076660476545,
                1.3297831757725243,
                0.3886102729473371,
                0.7041509169405953
            ]
        },
        {
            "positions": [
                0.08911759783344264,
                -1.8375052819431423,
                -1.4156526753790628,
                1.3835430681174505,
                0.37843575675100066,
                0.6051349732890046
            ]
        },
        {
            "positions": [
                0.20022453460513878,
                -1.879352386193092,
                -1.4945976847104714,
                1.437302960462377,
                0.3682612405546642,
                0.5061190296374143
            ]
        },
        {
            "positions": [
                0.31133147137683537,
                -1.9211994904430418,
                -1.57354269404188,
                1.4910628528073036,
                0.3580867243583277,
                0.407103085985824
            ]
        },
        {
            "positions": [
                0.42243840814853195,
                -1.9630465946929916,
                -1.652487703373288,
                1.54482274515223,
                0.3479122081619913,
                0.30808714233423373
            ]
        },
        {
            "positions": [
                0.5335453449202281,
                -2.004893698942942,
                -1.7314327127046967,
                1.5985826374971563,
                0.33773769196565484,
                0.20907119868264346
            ]
        },
        {
            "positions": [
                0.6446522816919246,
                -2.0467408031928915,
                -1.810377722036105,
                1.6523425298420829,
                0.32756317576931837,
                0.11005525503105318
            ]
        },
        {
            "positions": [
                0.506227218807089,
                -2.0855061900271212,
                -1.9069773069377114,
                1.6219599466021557,
                0.30405619139446255,
                0.10174431173791018
            ]
        },
        {
            "positions": [
                0.3678021559222534,
                -2.1242715768613514,
                -2.0035768918393178,
                1.5915773633622285,
                0.28054920701960673,
                0.09343336844476717
            ]
        },
        {
            "positions": [
                0.22937709303741782,
                -2.163036963695581,
                -2.100176476740924,
                1.5611947801223014,
                0.25704222264475096,
                0.08512242515162416
            ]
        },
        {
            "positions": [
                0.09095203015258224,
                -2.2018023505298108,
                -2.19677606164253,
                1.5308121968823745,
                0.23353523826989514,
                0.07681148185848116
            ]
        },
        {
            "positions": [
                -0.04747303273225334,
                -2.240567737364041,
                -2.2933756465441366,
                1.5004296136424473,
                0.21002825389503932,
                0.06850053856533815
            ]
        },
        {
            "positions": [
                -0.18589809561708895,
                -2.2793331241982706,
                -2.3899752314457428,
                1.4700470304025202,
                0.18652126952018352,
                0.06018959527219515
            ]
        }
    ]
}