{
    "goal": {
        "global_pose": {
            "orientation": {
                "w": -0.00223480608172531,
                "x": 0.0024358444001904467,
                "y": 0.7094548369677653,
                "z": -0.704743149386269
            },
            "position": {
                "x": -0.37947507619857795,
                "y": -0.6371506643295288,
                "z": 0.19426114857196808
            }
        },
        "name": "move_to_magneteinheit_C"
    },
    "id": "ProjEST_move_to_magneteinheit_C_19",
    "joint_names": [
        "shoulder_pan_joint",
        "shoulder_lift_joint",
        "elbow_joint",
        "wrist_1_joint",
        "wrist_2_joint",
        "wrist_3_joint"
    ],
    "metrics": {
        "cart_traj_len": 0.701590212748189,
        "distance_elbow_joint": 0.8142484937131267,
        "distance_shoulder_lift_joint": 0.6455167754253326,
        "distance_shoulder_pan_joint": 1.0974760231165874,
        "distance_wrist_1_joint": 0.8045562928754963,
        "distance_wrist_2_joint": 1.766831722533437,
        "distance_wrist_3_joint": 0.032497440569512204,
        "smoothness": 1.659198339129112,
        "time": 0.958973096,
        "traj_len": 2.2718113364083496,
        "weighted_distance": 2.79240212805775
    },
    "planner": "ProjEST",
    "start": {
        "state": {
            "elbow_joint": 1.9565354006593851,
            "shoulder_lift_joint": -1.4165861576512813,
            "shoulder_pan_joint": -1.6717766223278752,
            "wrist_1_joint": -0.528663328821883,
            "wrist_2_joint": 1.472756589259273,
            "wrist_3_joint": 3.159348288315503
        }
    },
    "waypoints": [
        {
            "positions": [
                -1.6717766223278752,
                -1.4165861576512813,
                1.9565354006593851,
                -0.528663328821883,
                1.472756589259273,
                3.159348288315503
            ]
        },
        {
            "positions": [
                -1.7773412027779225,
                -1.4383679231397135,
                2.0046309246486866,
                -0.5895653148007169,
                1.329822013882031,
                3.157248879666202
            ]
        },
        {
            "positions": [
                -1.8829057832279696,
                -1.4601496886281458,
                2.0527264486379884,
                -0.6504673007795508,
                1.186887438504789,
                3.1551494710169012
            ]
        },
        {
            "positions": [
                -1.988470363678017,
                -1.481931454116578,
                2.1008219726272896,
                -0.7113692867583847,
                1.0439528631275468,
                3.1530500623676003
            ]
        },
        {
            "positions": [
                -2.0940349441280643,
                -1.5037132196050103,
                2.1489174966165914,
                -0.7722712727372187,
                0.9010182877503047,
                3.1509506537182994
            ]
        },
        {
            "positions": [
                -2.1995995245781117,
                -1.5254949850934423,
                2.197013020605893,
                -0.8331732587160526,
                0.7580837123730625,
                3.148851245068998
            ]
        },
        {
            "positions": [
                -2.305164105028159,
                -1.5472767505818745,
                2.2451085445951944,
                -0.8940752446948865,
                0.6151491369958204,
                3.146751836419697
            ]
        },
        {
            "positions": [
                -2.410728685478206,
                -1.5690585160703068,
                2.293204068584496,
                -0.9549772306737205,
                0.4722145616185782,
                3.144652427770396
            ]
        },
        {
            "positions": [
                -2.5162932659282533,
                -1.590840281558739,
                2.3412995925737974,
                -1.0158792166525543,
                0.32927998624133625,
                3.1425530191210953
            ]
        },
        {
            "positions": [
                -2.6218578463783007,
                -1.6126220470471713,
                2.389395116563099,
                -1.0767812026313883,
                0.18634541086409406,
                3.1404536104717944
            ]
        },
        {
            "positions": [
                -2.592378886565068,
                -1.5227258698412827,
                2.3131173610012166,
                -1.0254935188181902,
                0.2824295196917456,
                3.1377330579266336
            ]
        },
        {
            "positions": [
                -2.562899926751836,
                -1.4328296926353943,
                2.236839605439334,
                -0.9742058350049919,
                0.3785136285193972,
                3.135012505381473
            ]
        },
        {
            "positions": [
                -2.5334209669386034,
                -1.3429335154295057,
                2.1605618498774515,
                -0.9229181511917937,
                0.4745977373470487,
                3.1322919528363125
            ]
        },
        {
            "positions": [
                -2.5039420071253713,
                -1.253037338223617,
                2.084284094315569,
                -0.8716304673785955,
                0.5706818461747003,
                3.1295714002911517
            ]
        },
        {
            "positions": [
                -2.4744630473121387,
                -1.1631411610177287,
                2.0080063387536864,
                -0.8203427835653972,
                0.6667659550023518,
                3.126850847745991
            ]
        }
    ]
}