{
    "goal": {
        "global_pose": {
            "orientation": {
                "w": 0.7047431468963623,
                "x": -0.7094548344612122,
                "y": 0.0024358443915843964,
                "z": -0.0022348060738295317
            },
            "position": {
                "x": 0.6094750761985779,
                "y": 0.3671506643295288,
                "z": 0.19426114857196808
            }
        },
        "name": "move_to_magneteinheit_A"
    },
    "id": "ProjEST_move_to_magneteinheit_A_50",
    "joint_names": [
        "shoulder_pan_joint",
        "shoulder_lift_joint",
        "elbow_joint",
        "wrist_1_joint",
        "wrist_2_joint",
        "wrist_3_joint"
    ],
    "metrics": {
        "cart_traj_len": 1.5933022024400354,
        "distance_elbow_joint": 3.5282627871477397,
        "distance_shoulder_lift_joint": 1.135564811669332,
        "distance_shoulder_pan_joint": 1.241187062270296,
        "distance_wrist_1_joint": 3.8413771482972185,
        "distance_wrist_2_joint": 1.6925000146896059,
        "distance_wrist_3_joint": 5.035358893860299,
        "smoothness": 3.7179561731123756e-16,
        "time": 0.16057365599999998,
        "traj_len": 4.058848447273499,
        "weighted_distance": 5.663819000342605
    },
    "planner": "ProjEST",
    "start": {
        "state": {
            "elbow_joint": -1.5739458827952972,
            "shoulder_lift_joint": 0.006533473998580023,
            "shoulder_pan_joint": -1.1188671628667068,
            "wrist_1_joint": 3.138208179676308,
            "wrist_2_joint": -1.5706037135050406,
            "wrist_3_joint": -2.0226958329764257
        }
    },
    "waypoints": [
        {
            "positions": [
                -1.1188671628667068,
                0.006533473998580023,
                -1.5739458827952972,
                3.138208179676308,
                -1.5706037135050406,
                -2.0226958329764257
            ]
        },
        {
            "positions": [
                -1.0893150899555093,
                -0.020503783422118355,
                -1.4899396259584463,
                3.046746819002565,
                -1.530306094107669,
                -1.9028063355035614
            ]
        },
        {
            "positions": [
                -1.0597630170443118,
                -0.04754104084281673,
                -1.4059333691215954,
                2.9552854583288215,
                -1.4900084747102975,
                -1.7829168380306972
            ]
        },
        {
            "positions": [
                -1.0302109441331142,
                -0.07457829826351511,
                -1.3219271122847445,
                2.8638240976550784,
                -1.4497108553129259,
                -1.663027340557833
            ]
        },
        {
            "positions": [
                -1.0006588712219167,
                -0.10161555568421349,
                -1.2379208554478935,
                2.772362736981335,
                -1.4094132359155542,
                -1.5431378430849687
            ]
        },
        {
            "positions": [
                -0.9711067983107192,
                -0.12865281310491186,
                -1.1539145986110426,
                2.6809013763075917,
                -1.3691156165181828,
                -1.4232483456121043
            ]
        },
        {
            "positions": [
                -0.9415547253995217,
                -0.15569007052561024,
                -1.0699083417741915,
                2.5894400156338486,
                -1.3288179971208112,
                -1.3033588481392402
            ]
        },
        {
            "positions": [
                -0.9120026524883242,
                -0.1827273279463086,
                -0.9859020849373407,
                2.497978654960105,
                -1.2885203777234397,
                -1.183469350666376
            ]
        },
        {
            "positions": [
                -0.8824505795771267,
                -0.20976458536700698,
                -0.9018958281004897,
                2.406517294286362,
                -1.248222758326068,
                -1.0635798531935117
            ]
        },
        {
            "positions": [
                -0.8528985066659291,
                -0.23680184278770539,
                -0.8178895712636388,
                2.3150559336126184,
                -1.2079251389286965,
                -0.9436903557206475
            ]
        },
        {
            "positions": [
                -0.8233464337547316,
                -0.2638391002084038,
                -0.7338833144267879,
                2.2235945729388753,
                -1.167627519531325,
                -0.8238008582477832
            ]
        },
        {
            "positions": [
                -0.793794360843534,
                -0.2908763576291022,
                -0.6498770575899367,
                2.1321332122651317,
                -1.1273299001339532,
                -0.7039113607749188
            ]
        },
        {
            "positions": [
                -0.7642422879323365,
                -0.31791361504980054,
                -0.5658708007530859,
                2.0406718515913886,
                -1.0870322807365818,
                -0.5840218633020546
            ]
        },
        {
            "positions": [
                -0.734690215021139,
                -0.34495087247049894,
                -0.481864543916235,
                1.9492104909176453,
                -1.0467346613392103,
                -0.46413236582919026
            ]
        },
        {
            "positions": [
                -0.7051381421099415,
                -0.3719881298911973,
                -0.3978582870793841,
                1.857749130243902,
                -1.0064370419418387,
                -0.3442428683563261
            ]
        },
        {
            "positions": [
                -0.675586069198744,
                -0.3990253873118957,
                -0.31385203024253294,
                1.7662877695701587,
                -0.966139422544467,
                -0.22435337088346174
            ]
        },
        {
            "positions": [
                -0.6460339962875465,
                -0.42606264473259403,
                -0.22984577340568224,
                1.6748264088964155,
                -0.9258418031470955,
                -0.1044638734105976
            ]
        },
        {
            "positions": [
                -0.6164819233763489,
                -0.4530999021532925,
                -0.1458395165688311,
                1.583365048222672,
                -0.8855441837497239,
                0.015425624062266774
            ]
        },
        {
            "positions": [
                -0.5869298504651514,
                -0.48013715957399083,
                -0.061833259731980394,
                1.4919036875489289,
                -0.8452465643523523,
                0.1353151215351307
            ]
        },
        {
            "positions": [
                -0.5573777775539539,
                -0.5071744169946891,
                0.02217299710487075,
                1.4004423268751856,
                -0.8049489449549808,
                0.2552046190079955
            ]
        },
        {
            "positions": [
                -0.5278257046427564,
                -0.5342116744153875,
                0.10617925394172145,
                1.3089809662014422,
                -0.7646513255576093,
                0.37509411648085944
            ]
        },
        {
            "positions": [
                -0.4982736317315588,
                -0.5612489318360859,
                0.1901855107785726,
                1.217519605527699,
                -0.7243537061602376,
                0.4949836139537238
            ]
        },
        {
            "positions": [
                -0.46872155882036126,
                -0.5882861892567843,
                0.27419176761542374,
                1.1260582448539553,
                -0.684056086762866,
                0.6148731114265882
            ]
        },
        {
            "positions": [
                -0.4391694859091637,
                -0.6153234466774827,
                0.35819802445227467,
                1.0345968841802122,
                -0.6437584673654945,
                0.7347626088994526
            ]
        },
        {
            "positions": [
                -0.4096174129979663,
                -0.642360704098181,
                0.44220428128912537,
                0.9431355235064691,
                -0.6034608479681229,
                0.8546521063723165
            ]
        },
        {
            "positions": [
                -0.38006534008676873,
                -0.6693979615188794,
                0.5262105381259763,
                0.8516741628327256,
                -0.5631632285707513,
                0.9745416038451808
            ]
        },
        {
            "positions": [
                -0.3505132671755712,
                -0.6964352189395778,
                0.6102167949628272,
                0.7602128021589825,
                -0.5228656091733799,
                1.0944311013180452
            ]
        },
        {
            "positions": [
                -0.32096119426437364,
                -0.7234724763602762,
                0.6942230517996786,
                0.6687514414852389,
                -0.48256798977600823,
                1.2143205987909096
            ]
        },
        {
            "positions": [
                -0.2914091213531762,
                -0.7505097337809745,
                0.7782293086365291,
                0.5772900808114958,
                -0.4422703703786368,
                1.3342100962637735
            ]
        },
        {
            "positions": [
                -0.26185704844197866,
                -0.7775469912016729,
                0.86223556547338,
                0.4858287201377527,
                -0.40197275098126517,
                1.4540995937366379
            ]
        },
        {
            "positions": [
                -0.2323049755307811,
                -0.8045842486223713,
                0.9462418223102314,
                0.39436735946400914,
                -0.3616751315838935,
                1.5739890912095023
            ]
        },
        {
            "positions": [
                -0.20275290261958345,
                -0.8316215060430698,
                1.0302480791470823,
                0.3029059987902656,
                -0.3213775121865219,
                1.6938785886823666
            ]
        },
        {
            "positions": [
                -0.17320082970838613,
                -0.858658763463768,
                1.1142543359839328,
                0.21144463811652292,
                -0.28107989278915047,
                1.8137680861552306
            ]
        },
        {
            "positions": [
                -0.14364875679718847,
                -0.8856960208844665,
                1.1982605928207837,
                0.11998327744277937,
                -0.24078227339177882,
                1.933657583628095
            ]
        },
        {
            "positions": [
                -0.11409668388599092,
                -0.9127332783051649,
                1.282266849657635,
                0.028521916769035816,
                -0.20048465399440718,
                2.0535470811009593
            ]
        },
        {
            "positions": [
                -0.08454461097479338,
                -0.9397705357258633,
                1.366273106494486,
                -0.06293944390470729,
                -0.16018703459703554,
                2.1734365785738237
            ]
        },
        {
            "positions": [
                -0.05499253806359605,
                -0.9668077931465616,
                1.4502793633313364,
                -0.1544008045784504,
                -0.11988941519966412,
                2.293326076046687
            ]
        },
        {
            "positions": [
                -0.025440465152398506,
                -0.99384505056726,
                1.5342856201681878,
                -0.24586216525219395,
                -0.07959179580229248,
                2.4132155735195515
            ]
        },
        {
            "positions": [
                0.004111607758799041,
                -1.0208823079879583,
                1.6182918770050387,
                -0.33732352592593706,
                -0.039294176404921055,
                2.5331050709924168
            ]
        },
        {
            "positions": [
                0.03366368066999659,
                -1.0479195654086568,
                1.7022981338418897,
                -0.4287848865996806,
                0.0010034429924505872,
                2.652994568465281
            ]
        },
        {
            "positions": [
                0.06321575358119413,
                -1.0749568228293551,
                1.7863043906787401,
                -0.5202462472734237,
                0.04130106238982201,
                2.7728840659381446
            ]
        },
        {
            "positions": [
                0.09276782649239168,
                -1.1019940802500534,
                1.8703106475155915,
                -0.6117076079471668,
                0.08159868178719365,
                2.892773563411009
            ]
        },
        {
            "positions": [
                0.12231989940358913,
                -1.129031337670752,
                1.9543169043524427,
                -0.7031689686209105,
                0.12189630118456526,
                3.0126630608838734
            ]
        }
    ]
}