{
    "goal": {
        "global_pose": {
            "orientation": {
                "w": 0.7047431493862688,
                "x": -0.7094548369677653,
                "y": 0.0024358444001904,
                "z": -0.0022348060817251984
            },
            "position": {
                "x": -0.39052492380142206,
                "y": 0.3671506643295288,
                "z": 0.19426114857196808
            }
        },
        "name": "move_to_magneteinheit_D"
    },
    "id": "ProjEST_move_to_magneteinheit_D_2",
    "joint_names": [
        "shoulder_pan_joint",
        "shoulder_lift_joint",
        "elbow_joint",
        "wrist_1_joint",
        "wrist_2_joint",
        "wrist_3_joint"
    ],
    "metrics": {
        "cart_traj_len": 5.674593151258395,
        "distance_elbow_joint": 3.11304516247673,
        "distance_shoulder_lift_joint": 1.6725737047664655,
        "distance_shoulder_pan_joint": 8.998537191166312,
        "distance_wrist_1_joint": 4.434995014262592,
        "distance_wrist_2_joint": 1.191254430340787,
        "distance_wrist_3_joint": 6.277903090431815,
        "smoothness": 0.31556172329514204,
        "time": 0.226091492,
        "traj_len": 5.068363502497103,
        "weighted_distance": 6.623470707937926
    },
    "planner": "ProjEST",
    "start": {
        "state": {
            "elbow_joint": 0.7495348899011911,
            "shoulder_lift_joint": -0.6476975780737668,
            "shoulder_pan_joint": -2.711696901376276,
            "wrist_1_joint": -0.0750647808097303,
            "wrist_2_joint": 0.43296659715458535,
            "wrist_3_joint": 3.1361499051832418
        }
    },
    "waypoints": [
        {
            "positions": [
                -2.711696901376276,
                -0.6476975780737668,
                0.7495348899011911,
                -0.0750647808097303,
                0.43296659715458535,
                3.1361499051832418
            ]
        },
        {
            "positions": [
                -2.7243974172382086,
                -0.6604826260220535,
                0.6516147675674374,
                0.023436203129890254,
                0.4048895947289243,
                3.065115555904677
            ]
        },
        {
            "positions": [
                -2.737097933100141,
                -0.6732676739703403,
                0.5536946452336837,
                0.1219371870695108,
                0.37681259230326314,
                2.994081206626112
            ]
        },
        {
            "positions": [
                -2.7497984489620735,
                -0.6860527219186271,
                0.4557745228999299,
                0.22043817100913138,
                0.348735589877602,
                2.923046857347547
            ]
        },
        {
            "positions": [
                -2.762498964824006,
                -0.6988377698669138,
                0.35785440056617623,
                0.3189391549487519,
                0.3206585874519409,
                2.852012508068982
            ]
        },
        {
            "positions": [
                -2.7590190581304337,
                -0.7179366889158904,
                0.24246016612215948,
                0.4297168264017739,
                0.28799430085403066,
                2.753372074898028
            ]
        },
        {
            "positions": [
                -2.755539151436862,
                -0.737035607964867,
                0.12706593167814273,
                0.5404944978547959,
                0.25533001425612045,
                2.6547316417270737
            ]
        },
        {
            "positions": [
                -2.7520592447432897,
                -0.7561345270138435,
                0.011671697234125977,
                0.6512721693078178,
                0.22266572765821022,
                2.5560912085561194
            ]
        },
        {
            "positions": [
                -2.7485793380497174,
                -0.7752334460628202,
                -0.10372253720989077,
                0.7620498407608399,
                0.19000144106029998,
                2.4574507753851647
            ]
        },
        {
            "positions": [
                -2.745099431356145,
                -0.7943323651117967,
                -0.21911677165390753,
                0.872827512213862,
                0.15733715446238974,
                2.3588103422142104
            ]
        },
        {
            "positions": [
                -2.7416195246625734,
                -0.8134312841607734,
                -0.3345110060979243,
                0.9836051836668839,
                0.12467286786447951,
                2.260169909043256
            ]
        },
        {
            "positions": [
                -2.738139617969001,
                -0.8325302032097499,
                -0.44990524054194103,
                1.094382855119906,
                0.09200858126656927,
                2.161529475872302
            ]
        },
        {
            "positions": [
                -2.60152734871451,
                -0.8256564423201843,
                -0.4863231621436677,
                1.0177156801480847,
                0.07869807850645849,
                2.0427777123429025
            ]
        },
        {
            "positions": [
                -2.4649150794600185,
                -0.8187826814306188,
                -0.5227410837453944,
                0.9410485051762633,
                0.06538757574634772,
                1.9240259488135032
            ]
        },
        {
            "positions": [
                -2.3283028102055274,
                -0.8119089205410532,
                -0.5591590053471212,
                0.864381330204442,
                0.05207707298623695,
                1.8052741852841039
            ]
        },
        {
            "positions": [
                -2.1916905409510363,
                -0.8050351596514878,
                -0.5955769269488478,
                0.7877141552326206,
                0.038766570226126174,
                1.6865224217547043
            ]
        },
        {
            "positions": [
                -2.0550782716965452,
                -0.7981613987619222,
                -0.6319948485505745,
                0.7110469802607993,
                0.025456067466015406,
                1.567770658225305
            ]
        },
        {
            "positions": [
                -1.918466002442054,
                -0.7912876378723566,
                -0.6684127701523013,
                0.634379805288978,
                0.012145564705904624,
                1.4490188946959057
            ]
        },
        {
            "positions": [
                -1.7818537331875626,
                -0.7844138769827911,
                -0.7048306917540279,
                0.5577126303171566,
                -0.0011649380542061438,
                1.3302671311665064
            ]
        },
        {
            "positions": [
                -1.6452414639330715,
                -0.7775401160932255,
                -0.7412486133557546,
                0.48104545534533516,
                -0.014475440814316926,
                1.2115153676371069
            ]
        },
        {
            "positions": [
                -1.5086291946785801,
                -0.7706663552036599,
                -0.7776665349574814,
                0.40437828037351387,
                -0.027785943574427693,
                1.0927636041077078
            ]
        },
        {
            "positions": [
                -1.372016925424089,
                -0.7637925943140944,
                -0.814084456559208,
                0.32771110540169257,
                -0.04109644633453846,
                0.9740118405783083
            ]
        },
        {
            "positions": [
                -1.2354046561695975,
                -0.7569188334245288,
                -0.8505023781609349,
                0.25104393042987105,
                -0.05440694909464927,
                0.8552600770489089
            ]
        },
        {
            "positions": [
                -1.0987923869151066,
                -0.7500450725349633,
                -0.8869202997626615,
                0.17437675545804987,
                -0.06771745185476002,
                0.7365083135195096
            ]
        },
        {
            "positions": [
                -0.9621801176606151,
                -0.7431713116453977,
                -0.9233382213643883,
                0.09770958048622846,
                -0.0810279546148708,
                0.6177565499901101
            ]
        },
        {
            "positions": [
                -0.825567848406124,
                -0.7362975507558321,
                -0.9597561429661149,
                0.02104240551440717,
                -0.09433845737498156,
                0.499004786460711
            ]
        },
        {
            "positions": [
                -0.6889555791516329,
                -0.7294237898662667,
                -0.9961740645678416,
                -0.05562476945741435,
                -0.10764896013509237,
                0.38025302293131147
            ]
        },
        {
            "positions": [
                -0.5523433098971418,
                -0.7225500289767011,
                -1.0325919861695683,
                -0.13229194442923564,
                -0.12095946289520312,
                0.26150125940191216
            ]
        },
        {
            "positions": [
                -0.4157310406426502,
                -0.7156762680871356,
                -1.069009907771295,
                -0.20895911940105694,
                -0.1342699656553139,
                0.14274949587251262
            ]
        },
        {
            "positions": [
                -0.2791187713881591,
                -0.70880250719757,
                -1.1054278293730218,
                -0.28562629437287823,
                -0.14758046841542466,
                0.023997732343113753
            ]
        },
        {
            "positions": [
                -0.142506502133668,
                -0.7019287463080044,
                -1.1418457509747486,
                -0.36229346934469975,
                -0.16089097117553544,
                -0.094754031186286
            ]
        },
        {
            "positions": [
                -0.005894232879176897,
                -0.6950549854184389,
                -1.1782636725764752,
                -0.4389606443165208,
                -0.1742014739356462,
                -0.21350579471568532
            ]
        },
        {
            "positions": [
                0.13071803637531465,
                -0.6881812245288733,
                -1.2146815941782019,
                -0.5156278192883423,
                -0.187511976695757,
                -0.3322575582450846
            ]
        },
        {
            "positions": [
                0.2673303056298062,
                -0.6813074636393077,
                -1.2510995157799285,
                -0.5922949942601639,
                -0.20082247945586781,
                -0.45100932177448394
            ]
        },
        {
            "positions": [
                0.4039425748842973,
                -0.6744337027497422,
                -1.2875174373816554,
                -0.6689621692319851,
                -0.21413298221597857,
                -0.5697610853038837
            ]
        },
        {
            "positions": [
                0.540554844138788,
                -0.6675599418601766,
                -1.323935358983382,
                -0.7456293442038062,
                -0.22744348497608932,
                -0.6885128488332826
            ]
        },
        {
            "positions": [
                0.6771671133932795,
                -0.660686180970611,
                -1.3603532805851088,
                -0.8222965191756277,
                -0.24075398773620008,
                -0.8072646123626819
            ]
        },
        {
            "positions": [
                0.813779382647771,
                -0.6538124200810456,
                -1.3967712021868355,
                -0.898963694147449,
                -0.25406449049631086,
                -0.9260163758920816
            ]
        },
        {
            "positions": [
                0.9503916519022622,
                -0.64693865919148,
                -1.4331891237885621,
                -0.9756308691192705,
                -0.26737499325642167,
                -1.044768139421481
            ]
        },
        {
            "positions": [
                1.0870039211567533,
                -0.6400648983019145,
                -1.4696070453902887,
                -1.0522980440910916,
                -0.28068549601653237,
                -1.1635199029508798
            ]
        },
        {
            "positions": [
                1.2236161904112444,
                -0.6331911374123489,
                -1.5060249669920156,
                -1.1289652190629131,
                -0.2939959987766432,
                -1.2822716664802796
            ]
        },
        {
            "positions": [
                1.3602284596657355,
                -0.6263173765227834,
                -1.5424428885937422,
                -1.2056323940347347,
                -0.307306501536754,
                -1.4010234300096789
            ]
        },
        {
            "positions": [
                1.4968407289202275,
                -0.6194436156332178,
                -1.578860810195469,
                -1.2822995690065557,
                -0.3206170042968648,
                -1.5197751935390782
            ]
        },
        {
            "positions": [
                1.6334529981747177,
                -0.6125698547436522,
                -1.6152787317971955,
                -1.3589667439783772,
                -0.3339275070569755,
                -1.6385269570684775
            ]
        },
        {
            "positions": [
                1.7700652674292097,
                -0.6056960938540867,
                -1.6516966533989224,
                -1.4356339189501983,
                -0.3472380098170863,
                -1.7572787205978768
            ]
        },
        {
            "positions": [
                1.9066775366837008,
                -0.5988223329645211,
                -1.688114575000649,
                -1.5123010939220198,
                -0.3605485125771971,
                -1.8760304841272766
            ]
        },
        {
            "positions": [
                2.043289805938192,
                -0.5919485720749555,
                -1.7245324966023758,
                -1.5889682688938414,
                -0.3738590153373079,
                -1.9947822476566759
            ]
        },
        {
            "positions": [
                2.179902075192683,
                -0.5850748111853901,
                -1.7609504182041025,
                -1.6656354438656624,
                -0.3871695180974186,
                -2.1135340111860743
            ]
        },
        {
            "positions": [
                2.316514344447174,
                -0.5782010502958245,
                -1.797368339805829,
                -1.742302618837484,
                -0.40048002085752943,
                -2.2322857747154745
            ]
        },
        {
            "positions": [
                2.453126613701665,
                -0.5713272894062589,
                -1.833786261407556,
                -1.8189697938093055,
                -0.4137905236176401,
                -2.351037538244874
            ]
        },
        {
            "positions": [
                2.589738882956157,
                -0.5644535285166934,
                -1.8702041830092826,
                -1.8956369687811265,
                -0.42710102637775094,
                -2.469789301774273
            ]
        },
        {
            "positions": [
                2.7263511522106474,
                -0.5575797676271279,
                -1.9066221046110092,
                -1.9723041437529476,
                -0.44041152913786163,
                -2.5885410653036725
            ]
        },
        {
            "positions": [
                2.8629634214651394,
                -0.5507060067375622,
                -1.9430400262127359,
                -2.048971318724769,
                -0.45372203189797244,
                -2.7072928288330718
            ]
        },
        {
            "positions": [
                2.999575690719631,
                -0.5438322458479967,
                -1.9794579478144627,
                -2.1256384936965906,
                -0.46703253465808325,
                -2.8260445923624706
            ]
        },
        {
            "positions": [
                2.772028514135706,
                -0.6294781831529059,
                -2.0068902567259683,
                -2.1288903529477663,
                -0.44622858476321764,
                -2.8485952061400495
            ]
        },
        {
            "positions": [
                2.544481337551782,
                -0.7151241204578151,
                -2.0343225656374737,
                -2.1321422121989424,
                -0.4254246348683521,
                -2.8711458199176283
            ]
        },
        {
            "positions": [
                2.316934160967857,
                -0.8007700577627244,
                -2.0617548745489795,
                -2.135394071450118,
                -0.40462068497348647,
                -2.893696433695207
            ]
        },
        {
            "positions": [
                2.0893869843839328,
                -0.8864159950676336,
                -2.089187183460485,
                -2.1386459307012937,
                -0.3838167350786209,
                -2.916247047472786
            ]
        },
        {
            "positions": [
                1.861839807800008,
                -0.9720619323725429,
                -2.1166194923719903,
                -2.1418977899524694,
                -0.3630127851837553,
                -2.938797661250365
            ]
        },
        {
            "positions": [
                1.6342926312160835,
                -1.057707869677452,
                -2.144051801283496,
                -2.1451496492036455,
                -0.34220883528888973,
                -2.9613482750279436
            ]
        },
        {
            "positions": [
                1.406745454632159,
                -1.1433538069823612,
                -2.1714841101950015,
                -2.148401508454821,
                -0.3214048853940241,
                -2.9838988888055225
            ]
        },
        {
            "positions": [
                1.1791982780482344,
                -1.2289997442872704,
                -2.1989164191065074,
                -2.151653367705997,
                -0.30060093549915856,
                -3.0064495025831013
            ]
        },
        {
            "positions": [
                0.9516511014643099,
                -1.3146456815921799,
                -2.2263487280180128,
                -2.154905226957173,
                -0.2797969856042929,
                -3.02900011636068
            ]
        },
        {
            "positions": [
                0.7241039248803851,
                -1.400291618897089,
                -2.253781036929518,
                -2.1581570862083486,
                -0.25899303570942733,
                -3.051550730138259
            ]
        },
        {
            "positions": [
                0.4965567482964608,
                -1.485937556201998,
                -2.281213345841024,
                -2.1614089454595242,
                -0.23818908581456177,
                -3.074101343915838
            ]
        },
        {
            "positions": [
                0.26900957171253603,
                -1.5715834935069075,
                -2.3086456547525294,
                -2.1646608047107,
                -0.2173851359196962,
                -3.0966519576934166
            ]
        },
        {
            "positions": [
                0.041462395128611274,
                -1.6572294308118167,
                -2.336077963664035,
                -2.167912663961876,
                -0.19658118602483055,
                -3.1192025714709954
            ]
        },
        {
            "positions": [
                -0.18608478145531293,
                -1.742875368116726,
                -2.3635102725755406,
                -2.1711645232130516,
                -0.175777236129965,
                -3.1417531852485743
            ]
        }
    ]
}