{
    "goal": {
        "global_pose": {
            "orientation": {
                "w": 0.7047431493862688,
                "x": -0.7094548369677653,
                "y": 0.0024358444001904,
                "z": -0.0022348060817251984
            },
            "position": {
                "x": -0.39052492380142206,
                "y": 0.3671506643295288,
                "z": 0.19426114857196808
            }
        },
        "name": "move_to_magneteinheit_D"
    },
    "id": "ProjEST_move_to_magneteinheit_D_83",
    "joint_names": [
        "shoulder_pan_joint",
        "shoulder_lift_joint",
        "elbow_joint",
        "wrist_1_joint",
        "wrist_2_joint",
        "wrist_3_joint"
    ],
    "metrics": {
        "cart_traj_len": 4.429379297169619,
        "distance_elbow_joint": 3.179453669350523,
        "distance_shoulder_lift_joint": 1.626924799011838,
        "distance_shoulder_pan_joint": 3.1101504296256293,
        "distance_wrist_1_joint": 1.524184885995031,
        "distance_wrist_2_joint": 0.8896098404374787,
        "distance_wrist_3_joint": 3.4148178730961085,
        "smoothness": 0.4908749930234366,
        "time": 0.185724375,
        "traj_len": 3.7074440653254106,
        "weighted_distance": 4.794639920801283
    },
    "planner": "ProjEST",
    "start": {
        "state": {
            "elbow_joint": 0.7495348899011911,
            "shoulder_lift_joint": -0.6476975780737668,
            "shoulder_pan_joint": -2.711696901376276,
            "wrist_1_joint": -0.0750647808097303,
            "wrist_2_joint": 0.43296659715458535,
            "wrist_3_joint": 3.1361499051832418
        }
    },
    "waypoints": [
        {
            "positions": [
                -2.711696901376276,
                -0.6476975780737668,
                0.7495348899011911,
                -0.0750647808097303,
                0.43296659715458535,
                3.1361499051832418
            ]
        },
        {
            "positions": [
                -2.73855083784763,
                -0.7428203314212007,
                0.7156708304273032,
                -0.02213474840386124,
                0.4642989837273644,
                3.2022457032040093
            ]
        },
        {
            "positions": [
                -2.765404774318984,
                -0.8379430847686347,
                0.6818067709534152,
                0.030795284002007817,
                0.4956313703001434,
                3.2683415012247763
            ]
        },
        {
            "positions": [
                -2.6642705666682778,
                -0.8827752542120811,
                0.5953703189206705,
                0.04130160788049412,
                0.4737662851997415,
                3.1401021660497515
            ]
        },
        {
            "positions": [
                -2.5631363590175718,
                -0.9276074236555276,
                0.5089338668879256,
                0.05180793175898042,
                0.4519012000993396,
                3.0118628308747266
            ]
        },
        {
            "positions": [
                -2.4620021513668657,
                -0.972439593098974,
                0.4224974148551809,
                0.062314255637466724,
                0.4300361149989377,
                2.8836234956997018
            ]
        },
        {
            "positions": [
                -2.36086794371616,
                -1.0172717625424206,
                0.3360609628224361,
                0.07282057951595303,
                0.40817102989853576,
                2.755384160524677
            ]
        },
        {
            "positions": [
                -2.2597337360654537,
                -1.062103931985867,
                0.24962451078969128,
                0.08332690339443934,
                0.38630594479813385,
                2.627144825349652
            ]
        },
        {
            "positions": [
                -2.158599528414748,
                -1.1069361014293135,
                0.16318805875694653,
                0.09383322727292563,
                0.364440859697732,
                2.4989054901746277
            ]
        },
        {
            "positions": [
                -2.057465320764042,
                -1.15176827087276,
                0.07675160672420167,
                0.10433955115141194,
                0.34257577459733,
                2.3706661549996024
            ]
        },
        {
            "positions": [
                -1.956331113113336,
                -1.1966004403162063,
                -0.009684845308543077,
                0.11484587502989825,
                0.32071068949692816,
                2.242426819824578
            ]
        },
        {
            "positions": [
                -1.85519690546263,
                -1.2414326097596529,
                -0.09612129734128783,
                0.12535219890838456,
                0.2988456043965262,
                2.114187484649553
            ]
        },
        {
            "positions": [
                -1.754062697811924,
                -1.2862647792030995,
                -0.18255774937403269,
                0.13585852278687086,
                0.2769805192961243,
                1.9859481494745281
            ]
        },
        {
            "positions": [
                -1.6529284901612182,
                -1.3310969486465458,
                -0.26899420140677743,
                0.14636484666535715,
                0.25511543419572236,
                1.8577088142995035
            ]
        },
        {
            "positions": [
                -1.5517942825105122,
                -1.3759291180899922,
                -0.3554306534395222,
                0.15687117054384345,
                0.2332503490953205,
                1.7294694791244787
            ]
        },
        {
            "positions": [
                -1.4506600748598062,
                -1.4207612875334388,
                -0.44186710547226715,
                0.16737749442232977,
                0.21138526399491853,
                1.6012301439494538
            ]
        },
        {
            "positions": [
                -1.3495258672091002,
                -1.4655934569768854,
                -0.5283035575050119,
                0.17788381830081607,
                0.1895201788945166,
                1.4729908087744288
            ]
        },
        {
            "positions": [
                -1.2483916595583944,
                -1.5104256264203317,
                -0.6147400095377566,
                0.18839014217930236,
                0.16765509379411475,
                1.3447514735994044
            ]
        },
        {
            "positions": [
                -1.1472574519076884,
                -1.555257795863778,
                -0.7011764615705014,
                0.19889646605778868,
                0.14579000869371284,
                1.2165121384243793
            ]
        },
        {
            "positions": [
                -1.0461232442569823,
                -1.6000899653072245,
                -0.7876129136032464,
                0.20940278993627498,
                0.12392492359331087,
                1.0882728032493545
            ]
        },
        {
            "positions": [
                -0.9449890366062765,
                -1.644922134750671,
                -0.8740493656359909,
                0.21990911381476128,
                0.102059838492909,
                0.9600334680743301
            ]
        },
        {
            "positions": [
                -0.8438548289555703,
                -1.6897543041941177,
                -0.9604858176687359,
                0.23041543769324757,
                0.08019475339250709,
                0.8317941328993048
            ]
        },
        {
            "positions": [
                -0.7427206213048643,
                -1.734586473637564,
                -1.0469222697014806,
                0.2409217615717339,
                0.05832966829210512,
                0.70355479772428
            ]
        },
        {
            "positions": [
                -0.6415864136541587,
                -1.7794186430810104,
                -1.1333587217342254,
                0.2514280854502202,
                0.03646458319170326,
                0.5753154625492556
            ]
        },
        {
            "positions": [
                -0.5404522060034527,
                -1.8242508125244568,
                -1.21979517376697,
                0.2619344093287065,
                0.014599498091301344,
                0.44707612737423075
            ]
        },
        {
            "positions": [
                -0.43931799835274665,
                -1.8690829819679033,
                -1.306231625799715,
                0.2724407332071928,
                -0.007265587009100571,
                0.3188367921992059
            ]
        },
        {
            "positions": [
                -0.33818379070204063,
                -1.9139151514113497,
                -1.3926680778324596,
                0.2829470570856791,
                -0.02913067210950243,
                0.19059745702418107
            ]
        },
        {
            "positions": [
                -0.2370495830513344,
                -1.9587473208547963,
                -1.4791045298652046,
                0.2934533809641654,
                -0.05099575720990435,
                0.06235812184915616
            ]
        },
        {
            "positions": [
                -0.1661482976930978,
                -1.9710236139032595,
                -1.6162011409467836,
                0.3919672115045083,
                -0.06554630137288685,
                0.08410599428912627
            ]
        },
        {
            "positions": [
                -0.09524701233486119,
                -1.983299906951723,
                -1.7532977520283626,
                0.4904810420448512,
                -0.08009684553586935,
                0.10585386672909639
            ]
        },
        {
            "positions": [
                -0.06547616725665638,
                -2.0189295463232164,
                -1.8849142349182126,
                0.647011333690289,
                -0.046912330611640525,
                0.10658471586135763
            ]
        },
        {
            "positions": [
                -0.03570532217845157,
                -2.0545591856947096,
                -2.0165307178080627,
                0.8035416253357268,
                -0.013727815687411701,
                0.10731556499361888
            ]
        },
        {
            "positions": [
                -0.005934477100246777,
                -2.090188825066203,
                -2.1481472006979123,
                0.9600719169811646,
                0.01945669923681713,
                0.10804641412588012
            ]
        },
        {
            "positions": [
                0.023836367977958045,
                -2.1258184644376965,
                -2.2797636835877624,
                1.1166022086266025,
                0.052641214161045946,
                0.10877726325814137
            ]
        },
        {
            "positions": [
                0.05360721305616284,
                -2.1614481038091897,
                -2.4113801664776124,
                1.2731325002720402,
                0.08582572908527478,
                0.10950811239040262
            ]
        },
        {
            "positions": [
                -0.06510807159772446,
                -2.2180352404473975,
                -2.402110859991753,
                1.3611263027286704,
                0.12847286750265674,
                0.09476165882154869
            ]
        },
        {
            "positions": [
                -0.18382335625161175,
                -2.274622377085605,
                -2.392841553505893,
                1.4491201051853007,
                0.17112000592003873,
                0.08001520525269476
            ]
        }
    ]
}