{
    "goal": {
        "global_pose": {
            "orientation": {
                "w": 0.7047431493862688,
                "x": -0.7094548369677653,
                "y": 0.0024358444001904,
                "z": -0.0022348060817251984
            },
            "position": {
                "x": -0.39052492380142206,
                "y": 0.3671506643295288,
                "z": 0.19426114857196808
            }
        },
        "name": "move_to_magneteinheit_D"
    },
    "id": "ProjEST_move_to_magneteinheit_D_72",
    "joint_names": [
        "shoulder_pan_joint",
        "shoulder_lift_joint",
        "elbow_joint",
        "wrist_1_joint",
        "wrist_2_joint",
        "wrist_3_joint"
    ],
    "metrics": {
        "cart_traj_len": 4.672159575455413,
        "distance_elbow_joint": 3.1456743980306072,
        "distance_shoulder_lift_joint": 1.6366519775584116,
        "distance_shoulder_pan_joint": 3.0297257932439794,
        "distance_wrist_1_joint": 1.7042391783657658,
        "distance_wrist_2_joint": 0.672152520815982,
        "distance_wrist_3_joint": 3.181010270321884,
        "smoothness": 0.8035855707591917,
        "time": 0.381745259,
        "traj_len": 3.6564264163711306,
        "weighted_distance": 4.701900294366326
    },
    "planner": "ProjEST",
    "start": {
        "state": {
            "elbow_joint": 0.7495348899011911,
            "shoulder_lift_joint": -0.6476975780737668,
            "shoulder_pan_joint": -2.711696901376276,
            "wrist_1_joint": -0.0750647808097303,
            "wrist_2_joint": 0.43296659715458535,
            "wrist_3_joint": 3.1361499051832418
        }
    },
    "waypoints": [
        {
            "positions": [
                -2.711696901376276,
                -0.6476975780737668,
                0.7495348899011911,
                -0.0750647808097303,
                0.43296659715458535,
                3.1361499051832418
            ]
        },
        {
            "positions": [
                -2.751890517898613,
                -0.6944981421774936,
                0.7256275030900828,
                -0.0075313562940328566,
                0.37433441538984835,
                3.0491535921107427
            ]
        },
        {
            "positions": [
                -2.7920841344209495,
                -0.7412987062812203,
                0.7017201162789746,
                0.060002068221664595,
                0.3157022336251113,
                2.9621572790382436
            ]
        },
        {
            "positions": [
                -2.753414913846038,
                -0.7387181894169403,
                0.6398793856019637,
                0.01203561070354691,
                0.38723323389232456,
                2.993392470502398
            ]
        },
        {
            "positions": [
                -2.7147456932711274,
                -0.7361376725526605,
                0.5780386549249528,
                -0.035930846814570774,
                0.4587642341595378,
                3.024627661966553
            ]
        },
        {
            "positions": [
                -2.6003243412071275,
                -0.787456852954438,
                0.508529816289082,
                -0.01766124908750409,
                0.46156194360284525,
                2.9002702924913146
            ]
        },
        {
            "positions": [
                -2.485902989143128,
                -0.8387760333562154,
                0.43902097765321124,
                0.000608348639562592,
                0.46435965304615273,
                2.775912923016076
            ]
        },
        {
            "positions": [
                -2.3714816370791283,
                -0.8900952137579929,
                0.3695121390173405,
                0.018877946366629275,
                0.46715736248946016,
                2.6515555535408373
            ]
        },
        {
            "positions": [
                -2.257060285015129,
                -0.9414143941597705,
                0.3000033003814697,
                0.03714754409369596,
                0.4699550719327676,
                2.527198184065599
            ]
        },
        {
            "positions": [
                -2.142638932951129,
                -0.992733574561548,
                0.230494461745599,
                0.05541714182076264,
                0.472752781376075,
                2.402840814590361
            ]
        },
        {
            "positions": [
                -2.0282175808871297,
                -1.0440527549633254,
                0.16098562310972825,
                0.07368673954782932,
                0.4755504908193825,
                2.278483445115122
            ]
        },
        {
            "positions": [
                -1.9137962288231298,
                -1.0953719353651028,
                0.09147678447385743,
                0.09195633727489604,
                0.4783482002626899,
                2.1541260756398835
            ]
        },
        {
            "positions": [
                -1.7993748767591302,
                -1.1466911157668804,
                0.02196794583798667,
                0.11022593500196269,
                0.48114590970599735,
                2.029768706164645
            ]
        },
        {
            "positions": [
                -1.6849535246951306,
                -1.1980102961686578,
                -0.04754089279788409,
                0.12849553272902942,
                0.48394361914930484,
                1.9054113366894065
            ]
        },
        {
            "positions": [
                -1.570532172631131,
                -1.2493294765704355,
                -0.11704973143375474,
                0.14676513045609607,
                0.48674132859261227,
                1.7810539672141683
            ]
        },
        {
            "positions": [
                -1.4561108205671311,
                -1.3006486569722129,
                -0.18655857006962562,
                0.16503472818316278,
                0.4895390380359197,
                1.6566965977389296
            ]
        },
        {
            "positions": [
                -1.3416894685031318,
                -1.3519678373739903,
                -0.25606740870549627,
                0.18330432591022944,
                0.4923367474792272,
                1.5323392282636914
            ]
        },
        {
            "positions": [
                -1.2272681164391321,
                -1.4032870177757677,
                -0.32557624734136703,
                0.2015739236372961,
                0.4951344569225346,
                1.407981858788453
            ]
        },
        {
            "positions": [
                -1.1128467643751323,
                -1.4546061981775453,
                -0.3950850859772379,
                0.21984352136436286,
                0.49793216636584203,
                1.2836244893132143
            ]
        },
        {
            "positions": [
                -0.9984254123111327,
                -1.505925378579323,
                -0.46459392461310856,
                0.23811311909142951,
                0.5007298758091495,
                1.1592671198379758
            ]
        },
        {
            "positions": [
                -0.8840040602471331,
                -1.5572445589811004,
                -0.5341027632489794,
                0.25638271681849617,
                0.5035275852524569,
                1.0349097503627376
            ]
        },
        {
            "positions": [
                -0.7695827081831335,
                -1.6085637393828778,
                -0.6036116018848501,
                0.2746523145455629,
                0.5063252946957644,
                0.9105523808874989
            ]
        },
        {
            "positions": [
                -0.6551613561191338,
                -1.6598829197846552,
                -0.673120440520721,
                0.2929219122726296,
                0.5091230041390719,
                0.7861950114122602
            ]
        },
        {
            "positions": [
                -0.540740004055134,
                -1.7112021001864326,
                -0.7426292791565916,
                0.31119150999969625,
                0.5119207135823792,
                0.661837641937022
            ]
        },
        {
            "positions": [
                -0.4263186519911346,
                -1.7625212805882102,
                -0.8121381177924623,
                0.3294611077267629,
                0.5147184230256867,
                0.5374802724617838
            ]
        },
        {
            "positions": [
                -0.3118972999271348,
                -1.8138404609899876,
                -0.8816469564283331,
                0.3477307054538296,
                0.5175161324689942,
                0.4131229029865451
            ]
        },
        {
            "positions": [
                -0.19747594786313494,
                -1.8651596413917653,
                -0.951155795064204,
                0.3660003031808963,
                0.5203138419123016,
                0.2887655335113064
            ]
        },
        {
            "positions": [
                -0.08305459579913572,
                -1.9164788217935427,
                -1.0206646337000747,
                0.384269900907963,
                0.523111551355609,
                0.16440816403606823
            ]
        },
        {
            "positions": [
                -0.07329579363485167,
                -1.953523227045666,
                -1.1593372910206234,
                0.5239223569824104,
                0.4767007295124298,
                0.15238952782066084
            ]
        },
        {
            "positions": [
                -0.06353699147056761,
                -1.9905676322977892,
                -1.2980099483411722,
                0.6635748130568578,
                0.43028990766925057,
                0.14037089160525346
            ]
        },
        {
            "positions": [
                -0.05377818930628356,
                -2.0276120375499125,
                -1.4366826056617212,
                0.8032272691313053,
                0.38387908582607133,
                0.12835225538984607
            ]
        },
        {
            "positions": [
                -0.044019387141999496,
                -2.0646564428020358,
                -1.57535526298227,
                0.9428797252057527,
                0.33746826398289204,
                0.11633361917443868
            ]
        },
        {
            "positions": [
                -0.03426058497771543,
                -2.101700848054159,
                -1.714027920302819,
                1.0825321812802002,
                0.29105744213971274,
                0.1043149829590313
            ]
        },
        {
            "positions": [
                -0.024501782813431384,
                -2.1387452533062823,
                -1.8527005776233678,
                1.2221846373546477,
                0.24464662029653356,
                0.09229634674362391
            ]
        },
        {
            "positions": [
                -0.014742980649147329,
                -2.1757896585584056,
                -1.9913732349439166,
                1.361837093429095,
                0.19823579845335426,
                0.08027771052821653
            ]
        },
        {
            "positions": [
                -0.10074168386289928,
                -2.224908573366732,
                -2.193756371536667,
                1.39957283045633,
                0.1869342551264765,
                0.08037636543333664
            ]
        },
        {
            "positions": [
                -0.18674038707665122,
                -2.274027488175059,
                -2.396139508129417,
                1.437308567483565,
                0.17563271179959872,
                0.08047502033845674
            ]
        }
    ]
}