{
    "goal": {
        "global_pose": {
            "orientation": {
                "w": -0.4816463035849501,
                "x": 0.5182115481033762,
                "y": 0.4908360881923453,
                "z": -0.5084816262002911
            },
            "position": {
                "x": -0.8240239810943604,
                "y": -0.300875300988555,
                "z": 0.16403168439865112
            }
        },
        "name": "move_to_storage_C"
    },
    "id": "ProjEST_move_to_storage_C_13",
    "joint_names": [
        "shoulder_pan_joint",
        "shoulder_lift_joint",
        "elbow_joint",
        "wrist_1_joint",
        "wrist_2_joint",
        "wrist_3_joint"
    ],
    "metrics": {
        "cart_traj_len": 0.5761916909864347,
        "distance_elbow_joint": 0.25421634414220184,
        "distance_shoulder_lift_joint": 0.18956789745480984,
        "distance_shoulder_pan_joint": 0.49421499407905056,
        "distance_wrist_1_joint": 0.0630478283854009,
        "distance_wrist_2_joint": 1.0680926873706325,
        "distance_wrist_3_joint": 0.05979372595296528,
        "smoothness": 0.0,
        "time": 0.376669118,
        "traj_len": 1.4590865215555455,
        "weighted_distance": 1.838385553970392
    },
    "planner": "ProjEST",
    "start": {
        "state": {
            "elbow_joint": 2.0108683149792914,
            "shoulder_lift_joint": -1.1634956873317392,
            "shoulder_pan_joint": -2.4736205022346,
            "wrist_1_joint": -0.8367026793690192,
            "wrist_2_joint": 0.6746043897045053,
            "wrist_3_joint": 3.133522094754363
        }
    },
    "waypoints": [
        {
            "positions": [
                -2.4736205022346,
                -1.1634956873317392,
                2.0108683149792914,
                -0.8367026793690192,
                0.6746043897045053,
                3.133522094754363
            ]
        },
        {
            "positions": [
                -2.555989667914442,
                -1.1319010377559375,
                1.9684989242889244,
                -0.8261947079714524,
                0.8526198375996107,
                3.143487715746524
            ]
        },
        {
            "positions": [
                -2.6383588335942836,
                -1.100306388180136,
                1.9261295335985575,
                -0.8156867365738856,
                1.030635285494716,
                3.1534533367386848
            ]
        },
        {
            "positions": [
                -2.7207279992741253,
                -1.0687117386043343,
                1.8837601429081905,
                -0.8051787651763187,
                1.2086507333898215,
                3.163418957730846
            ]
        },
        {
            "positions": [
                -2.803097164953967,
                -1.0371170890285326,
                1.8413907522178234,
                -0.7946707937787519,
                1.386666181284927,
                3.173384578723007
            ]
        },
        {
            "positions": [
                -2.885466330633809,
                -1.0055224394527311,
                1.7990213615274566,
                -0.7841628223811852,
                1.5646816291800323,
                3.1833501997151674
            ]
        },
        {
            "positions": [
                -2.9678354963136506,
                -0.9739277898769294,
                1.7566519708370896,
                -0.7736548509836183,
                1.7426970770751378,
                3.1933158207073284
            ]
        }
    ]
}