{
    "goal": {
        "global_pose": {
            "orientation": {
                "w": -0.4816463035849501,
                "x": 0.5182115481033762,
                "y": 0.4908360881923453,
                "z": -0.5084816262002911
            },
            "position": {
                "x": -0.8240239810943604,
                "y": 0.19912469901144506,
                "z": 0.16403168439865112
            }
        },
        "name": "move_to_storage_D"
    },
    "id": "ProjEST_move_to_storage_D_122",
    "joint_names": [
        "shoulder_pan_joint",
        "shoulder_lift_joint",
        "elbow_joint",
        "wrist_1_joint",
        "wrist_2_joint",
        "wrist_3_joint"
    ],
    "metrics": {
        "cart_traj_len": 1.4050910501577603,
        "distance_elbow_joint": 1.015302070515029,
        "distance_shoulder_lift_joint": 1.7583878981021779,
        "distance_shoulder_pan_joint": 1.118544316260032,
        "distance_wrist_1_joint": 5.244539970404885,
        "distance_wrist_2_joint": 2.5872476514689087,
        "distance_wrist_3_joint": 4.107384622606503,
        "smoothness": 0.6398799319676365,
        "time": 0.122347135,
        "traj_len": 3.978870006592015,
        "weighted_distance": 5.646057332018897
    },
    "planner": "ProjEST",
    "start": {
        "state": {
            "elbow_joint": -2.384821990628643,
            "shoulder_lift_joint": -2.278805467437664,
            "shoulder_pan_joint": -0.18546946439364564,
            "wrist_1_joint": 1.4845938187801415,
            "wrist_2_joint": 0.178987772454074,
            "wrist_3_joint": 0.03710569632802521
        }
    },
    "waypoints": [
        {
            "positions": [
                -0.18546946439364564,
                -2.278805467437664,
                -2.384821990628643,
                1.4845938187801415,
                0.178987772454074,
                0.03710569632802521
            ]
        },
        {
            "positions": [
                -0.2659401118219548,
                -2.249489198277331,
                -2.4304341810095473,
                1.5117232467437687,
                0.2594963485139955,
                -0.05870800045914629
            ]
        },
        {
            "positions": [
                -0.346410759250264,
                -2.220172929116998,
                -2.4760463713904515,
                1.5388526747073958,
                0.34000492457391696,
                -0.15452169724631779
            ]
        },
        {
            "positions": [
                -0.4268814066785731,
                -2.190856659956665,
                -2.521658561771355,
                1.5659821026710232,
                0.4205135006338384,
                -0.25033539403348926
            ]
        },
        {
            "positions": [
                -0.5073520541068823,
                -2.1615403907963318,
                -2.5672707521522593,
                1.5931115306346504,
                0.50102207669376,
                -0.3461490908206608
            ]
        },
        {
            "positions": [
                -0.5878227015351914,
                -2.132224121635999,
                -2.6128829425331634,
                1.6202409585982775,
                0.5815306527536814,
                -0.4419627876078322
            ]
        },
        {
            "positions": [
                -0.5243580080117645,
                -2.0513993415075142,
                -2.604454857732829,
                1.6770862524176855,
                0.5461894178841437,
                -0.2920211158701481
            ]
        },
        {
            "positions": [
                -0.4608933144883375,
                -1.97057456137903,
                -2.596026772932494,
                1.7339315462370937,
                0.510848183014606,
                -0.1420794441324641
            ]
        },
        {
            "positions": [
                -0.3974286209649105,
                -1.8897497812505453,
                -2.58759868813216,
                1.7907768400565016,
                0.4755069481450682,
                0.00786222760521993
            ]
        },
        {
            "positions": [
                -0.33396392744148357,
                -1.8089250011220608,
                -2.5791706033318254,
                1.8476221338759098,
                0.4401657132755305,
                0.157803899342904
            ]
        },
        {
            "positions": [
                -0.2704992339180566,
                -1.7281002209935763,
                -2.5707425185314907,
                1.9044674276953177,
                0.4048244784059928,
                0.30774557108058803
            ]
        },
        {
            "positions": [
                -0.2070345403946296,
                -1.6472754408650918,
                -2.562314433731156,
                1.9613127215147257,
                0.36948324353645506,
                0.45768724281827206
            ]
        },
        {
            "positions": [
                -0.14356984687120267,
                -1.5664506607366073,
                -2.5538863489308214,
                2.0181580153341336,
                0.33414200866691735,
                0.6076289145559559
            ]
        },
        {
            "positions": [
                -0.08010515334777568,
                -1.4856258806081226,
                -2.5454582641304873,
                2.075003309153542,
                0.29880077379737957,
                0.7575705862936402
            ]
        },
        {
            "positions": [
                -0.016640459824348697,
                -1.4048011004796381,
                -2.5370301793301526,
                2.13184860297295,
                0.26345953892784185,
                0.9075122580313242
            ]
        },
        {
            "positions": [
                0.04682423369907829,
                -1.3239763203511536,
                -2.528602094529818,
                2.188693896792358,
                0.22811830405830413,
                1.0574539297690082
            ]
        },
        {
            "positions": [
                0.04368792047276235,
                -1.3548824261594485,
                -2.501565161044927,
                2.0140615932387935,
                0.15768398011699933,
                1.1393346767418469
            ]
        },
        {
            "positions": [
                0.040551607246446415,
                -1.3857885319677434,
                -2.474528227560036,
                1.8394292896852293,
                0.08724965617569452,
                1.2212154237146855
            ]
        },
        {
            "positions": [
                0.037415294020130475,
                -1.4166946377760383,
                -2.4474912940751454,
                1.6647969861316652,
                0.016815332234389718,
                1.3030961706875241
            ]
        },
        {
            "positions": [
                0.03427898079381454,
                -1.4476007435843332,
                -2.4204543605902544,
                1.4901646825781008,
                -0.05361899170691509,
                1.384976917660363
            ]
        },
        {
            "positions": [
                0.031142667567498603,
                -1.478506849392628,
                -2.3934174271053634,
                1.3155323790245366,
                -0.12405331564821992,
                1.4668576646332017
            ]
        },
        {
            "positions": [
                0.028006354341182666,
                -1.509412955200923,
                -2.3663804936204724,
                1.1409000754709722,
                -0.1944876395895247,
                1.5487384116060403
            ]
        },
        {
            "positions": [
                0.024870041114866733,
                -1.540319061009218,
                -2.339343560135582,
                0.9662677719174082,
                -0.2649219635308295,
                1.630619158578879
            ]
        },
        {
            "positions": [
                0.021733727888550793,
                -1.571225166817513,
                -2.312306626650691,
                0.7916354683638438,
                -0.3353562874721343,
                1.7124999055517178
            ]
        },
        {
            "positions": [
                0.01859741466223486,
                -1.602131272625808,
                -2.2852696931658,
                0.6170031648102796,
                -0.4057906114134391,
                1.7943806525245565
            ]
        },
        {
            "positions": [
                0.015461101435918917,
                -1.6330373784341028,
                -2.258232759680909,
                0.4423708612567152,
                -0.476224935354744,
                1.8762613994973951
            ]
        },
        {
            "positions": [
                0.012324788209602984,
                -1.6639434842423977,
                -2.231195826196018,
                0.267738557703151,
                -0.5466592592960486,
                1.9581421464702338
            ]
        },
        {
            "positions": [
                0.009188474983287044,
                -1.6948495900506926,
                -2.2041588927111273,
                0.0931062541495864,
                -0.6170935832373535,
                2.0400228934430724
            ]
        },
        {
            "positions": [
                0.006052161756971111,
                -1.7257556958589875,
                -2.1771219592262363,
                -0.08152604940397756,
                -0.6875279071786583,
                2.121903640415911
            ]
        },
        {
            "positions": [
                0.002915848530655178,
                -1.7566618016672824,
                -2.1500850257413453,
                -0.2561583529575415,
                -0.7579622311199631,
                2.2037843873887497
            ]
        },
        {
            "positions": [
                -0.00022046469566075477,
                -1.7875679074755773,
                -2.1230480922564547,
                -0.43079065651110593,
                -0.8283965550612677,
                2.2856651343615884
            ]
        },
        {
            "positions": [
                -0.0033567779219767016,
                -1.8184740132838721,
                -2.0960111587715637,
                -0.6054229600646703,
                -0.8988308790025727,
                2.3675458813344274
            ]
        },
        {
            "positions": [
                -0.0064930911482926346,
                -1.8493801190921673,
                -2.0689742252866727,
                -0.7800552636182347,
                -0.9692652029438775,
                2.4494266283072657
            ]
        },
        {
            "positions": [
                -0.009629404374608568,
                -1.8802862249004622,
                -2.0419372918017817,
                -0.9546875671717987,
                -1.0396995268851823,
                2.5313073752801047
            ]
        },
        {
            "positions": [
                -0.012765717600924507,
                -1.911192330708757,
                -2.0149003583168907,
                -1.129319870725363,
                -1.110133850826487,
                2.613188122252943
            ]
        },
        {
            "positions": [
                -0.015902030827240454,
                -1.942098436517052,
                -1.987863424832,
                -1.3039521742789275,
                -1.180568174767792,
                2.695068869225782
            ]
        },
        {
            "positions": [
                -0.01903834405355638,
                -1.9730045423253468,
                -1.9608264913471092,
                -1.478584477832492,
                -1.2510024987090969,
                2.7769496161986202
            ]
        },
        {
            "positions": [
                -0.02217465727987232,
                -2.0039106481336417,
                -1.9337895578622182,
                -1.6532167813860559,
                -1.3214368226504014,
                2.8588303631714593
            ]
        },
        {
            "positions": [
                -0.025310970506188246,
                -2.0348167539419366,
                -1.9067526243773272,
                -1.8278490849396198,
                -1.3918711465917062,
                2.9407111101442975
            ]
        },
        {
            "positions": [
                -0.0284472837325042,
                -2.0657228597502315,
                -1.8797156908924364,
                -2.002481388493185,
                -1.4623054705330112,
                3.0225918571171366
            ]
        },
        {
            "positions": [
                -0.031583596958820126,
                -2.0966289655585264,
                -1.8526787574075456,
                -2.1771136920467486,
                -1.532739794474316,
                3.1044726040899753
            ]
        },
        {
            "positions": [
                -0.03471991018513607,
                -2.1275350713668213,
                -1.8256418239226546,
                -2.3517459956003126,
                -1.6031741184156207,
                3.186353351062814
            ]
        }
    ]
}