{
    "goal": {
        "global_pose": {
            "orientation": {
                "w": -0.00223480608172531,
                "x": 0.0024358444001904467,
                "y": 0.7094548369677653,
                "z": -0.704743149386269
            },
            "position": {
                "x": -0.37947507619857795,
                "y": -0.6371506643295288,
                "z": 0.19426114857196808
            }
        },
        "name": "move_to_magneteinheit_C"
    },
    "id": "ProjEST_move_to_magneteinheit_C_119",
    "joint_names": [
        "shoulder_pan_joint",
        "shoulder_lift_joint",
        "elbow_joint",
        "wrist_1_joint",
        "wrist_2_joint",
        "wrist_3_joint"
    ],
    "metrics": {
        "cart_traj_len": 2.3175926502996145,
        "distance_elbow_joint": 0.818104528864098,
        "distance_shoulder_lift_joint": 0.8891622737244089,
        "distance_shoulder_pan_joint": 2.8076012032362314,
        "distance_wrist_1_joint": 1.6518651684610295,
        "distance_wrist_2_joint": 2.3154365520232085,
        "distance_wrist_3_joint": 5.975920792939082,
        "smoothness": 0.5303189134864329,
        "time": 0.237505237,
        "traj_len": 3.8023795864232253,
        "weighted_distance": 5.511554574311176
    },
    "planner": "ProjEST",
    "start": {
        "state": {
            "elbow_joint": 1.9565354006593851,
            "shoulder_lift_joint": -1.4165861576512813,
            "shoulder_pan_joint": -1.6717766223278752,
            "wrist_1_joint": -0.528663328821883,
            "wrist_2_joint": 1.472756589259273,
            "wrist_3_joint": 3.159348288315503
        }
    },
    "waypoints": [
        {
            "positions": [
                -1.6717766223278752,
                -1.4165861576512813,
                1.9565354006593851,
                -0.528663328821883,
                1.472756589259273,
                3.159348288315503
            ]
        },
        {
            "positions": [
                -1.6235532806263344,
                -1.4305248680721583,
                1.9727825066405615,
                -0.5084343822446928,
                1.4170274452507785,
                3.0507115634819995
            ]
        },
        {
            "positions": [
                -1.5681509168539711,
                -1.4507487532576848,
                1.9472039458294839,
                -0.4644709192142454,
                1.3632465346354177,
                2.8587085691295755
            ]
        },
        {
            "positions": [
                -1.5127485530816078,
                -1.4709726384432114,
                1.9216253850184062,
                -0.4205074561837979,
                1.309465624020057,
                2.6667055747771515
            ]
        },
        {
            "positions": [
                -1.4573461893092445,
                -1.491196523628738,
                1.8960468242073283,
                -0.3765439931533504,
                1.2556847134046962,
                2.4747025804247276
            ]
        },
        {
            "positions": [
                -1.4019438255368812,
                -1.5114204088142644,
                1.8704682633962506,
                -0.332580530122903,
                1.2019038027893356,
                2.282699586072304
            ]
        },
        {
            "positions": [
                -1.346541461764518,
                -1.531644293999791,
                1.844889702585173,
                -0.28861706709245555,
                1.1481228921739748,
                2.09069659171988
            ]
        },
        {
            "positions": [
                -1.2911390979921544,
                -1.5518681791853175,
                1.8193111417740953,
                -0.24465360406200803,
                1.094341981558614,
                1.8986935973674561
            ]
        },
        {
            "positions": [
                -1.2357367342197911,
                -1.5720920643708438,
                1.7937325809630176,
                -0.20069014103156058,
                1.0405610709432533,
                1.7066906030150324
            ]
        },
        {
            "positions": [
                -1.1803343704474278,
                -1.5923159495563706,
                1.7681540201519397,
                -0.15672667800111317,
                0.9867801603278925,
                1.5146876086626084
            ]
        },
        {
            "positions": [
                -1.1249320066750645,
                -1.6125398347418969,
                1.742575459340862,
                -0.11276321497066571,
                0.9329992497125319,
                1.3226846143101847
            ]
        },
        {
            "positions": [
                -1.0695296429027012,
                -1.6327637199274234,
                1.7169968985297843,
                -0.06879975194021826,
                0.8792183390971711,
                1.1306816199577607
            ]
        },
        {
            "positions": [
                -1.014127279130338,
                -1.65298760511295,
                1.6914183377187066,
                -0.0248362889097708,
                0.8254374284818103,
                0.9386786256053372
            ]
        },
        {
            "positions": [
                -0.9587249153579745,
                -1.6732114902984765,
                1.665839776907629,
                0.01912717412067677,
                0.7716565178664495,
                0.7466756312529128
            ]
        },
        {
            "positions": [
                -0.9033225515856113,
                -1.693435375484003,
                1.640261216096551,
                0.06309063715112417,
                0.7178756072510888,
                0.5546726369004888
            ]
        },
        {
            "positions": [
                -0.847920187813248,
                -1.7136592606695296,
                1.6146826552854734,
                0.10705410018157169,
                0.6640946966357281,
                0.36266964254806533
            ]
        },
        {
            "positions": [
                -0.7925178240408847,
                -1.733883145855056,
                1.5891040944743957,
                0.1510175632120191,
                0.6103137860203673,
                0.1706666481956412
            ]
        },
        {
            "positions": [
                -0.9662570857907155,
                -1.6972159853244932,
                1.6170665537140148,
                0.08413774342136458,
                0.5409377820936477,
                0.16867117864816936
            ]
        },
        {
            "positions": [
                -1.1399963475405461,
                -1.6605488247939306,
                1.6450290129536338,
                0.017257923630710076,
                0.4715617781669281,
                0.16667570910069754
            ]
        },
        {
            "positions": [
                -1.313735609290377,
                -1.6238816642633678,
                1.6729914721932528,
                -0.04962189615994442,
                0.4021857742402085,
                0.1646802395532257
            ]
        },
        {
            "positions": [
                -1.4874748710402077,
                -1.5872145037328051,
                1.7009539314328719,
                -0.11650171595059894,
                0.33280977031348885,
                0.16268477000575388
            ]
        },
        {
            "positions": [
                -1.6612141327900383,
                -1.5505473432022423,
                1.728916390672491,
                -0.18338153574125343,
                0.26343376638676924,
                0.16068930045828203
            ]
        },
        {
            "positions": [
                -1.8349533945398693,
                -1.5138801826716795,
                1.75687884991211,
                -0.2502613555319079,
                0.19405776246004963,
                0.15869383091081019
            ]
        },
        {
            "positions": [
                -2.0086926562897,
                -1.4772130221411168,
                1.784841309151729,
                -0.3171411753225624,
                0.12468175853333002,
                0.15669836136333837
            ]
        },
        {
            "positions": [
                -2.182431918039531,
                -1.440545861610554,
                1.812803768391348,
                -0.38402099511321697,
                0.05530575460661036,
                0.15470289181586652
            ]
        },
        {
            "positions": [
                -2.3561711797893614,
                -1.4038787010799911,
                1.840766227630967,
                -0.45090081490387146,
                -0.014070249320109252,
                0.1527074222683947
            ]
        },
        {
            "positions": [
                -2.529910441539192,
                -1.3672115405494285,
                1.8687286868705861,
                -0.517780634694526,
                -0.08344625324682883,
                0.15071195272092286
            ]
        },
        {
            "positions": [
                -2.5394682727947067,
                -1.3470587320857328,
                1.884701478444283,
                -0.5493276384520175,
                -0.024339877097059176,
                0.40520104509633464
            ]
        },
        {
            "positions": [
                -2.549026104050221,
                -1.3269059236220373,
                1.9006742700179802,
                -0.5808746422095089,
                0.03476649905271048,
                0.6596901374717464
            ]
        },
        {
            "positions": [
                -2.5585839353057356,
                -1.3067531151583416,
                1.916647061591677,
                -0.6124216459670004,
                0.09387287520248014,
                0.9141792298471583
            ]
        },
        {
            "positions": [
                -2.56814176656125,
                -1.286600306694646,
                1.932619853165374,
                -0.643968649724492,
                0.1529792513522498,
                1.16866832222257
            ]
        },
        {
            "positions": [
                -2.5776995978167645,
                -1.2664474982309504,
                1.948592644739071,
                -0.6755156534819835,
                0.21208562750201945,
                1.423157414597982
            ]
        },
        {
            "positions": [
                -2.5872574290722787,
                -1.2462946897672549,
                1.964565436312768,
                -0.7070626572394749,
                0.2711920036517891,
                1.6776465069733937
            ]
        },
        {
            "positions": [
                -2.5968152603277934,
                -1.2261418813035592,
                1.980538227886465,
                -0.7386096609969665,
                0.33029837980155874,
                1.9321355993488056
            ]
        },
        {
            "positions": [
                -2.572006266595327,
                -1.2133170771097317,
                1.9858872033474022,
                -0.7551210714405949,
                0.3993961950953024,
                2.169307761492129
            ]
        },
        {
            "positions": [
                -2.5471972728628605,
                -1.2004922729159042,
                1.9912361788083395,
                -0.7716324818842234,
                0.46849401038904603,
                2.406479923635452
            ]
        },
        {
            "positions": [
                -2.522388279130394,
                -1.187667468722077,
                1.996585154269277,
                -0.7881438923278519,
                0.5375918256827897,
                2.6436520857787755
            ]
        },
        {
            "positions": [
                -2.4975792853979275,
                -1.1748426645282495,
                2.001934129730214,
                -0.8046553027714803,
                0.6066896409765334,
                2.880824247922099
            ]
        },
        {
            "positions": [
                -2.4727702916654613,
                -1.162017860334422,
                2.0072831051911515,
                -0.8211667132151088,
                0.675787456270277,
                3.1179964100654223
            ]
        }
    ]
}