{
    "goal": {
        "global_pose": {
            "orientation": {
                "w": 0.005598929693374612,
                "x": 0.007748599140229565,
                "y": 0.7110244013736278,
                "z": -0.7031023480610252
            },
            "position": {
                "x": 0.1141497679147869,
                "y": -0.7141253447532654,
                "z": 0.3711530566215515
            }
        },
        "name": "move_to_auspresseinheit_B"
    },
    "id": "ProjEST_move_to_auspresseinheit_B_74",
    "joint_names": [
        "shoulder_pan_joint",
        "shoulder_lift_joint",
        "elbow_joint",
        "wrist_1_joint",
        "wrist_2_joint",
        "wrist_3_joint"
    ],
    "metrics": {
        "cart_traj_len": 0.564748718192664,
        "distance_elbow_joint": 0.06577877339295846,
        "distance_shoulder_lift_joint": 0.29491336249596123,
        "distance_shoulder_pan_joint": 0.5777954010169408,
        "distance_wrist_1_joint": 0.3384184132241821,
        "distance_wrist_2_joint": 0.9876246674658935,
        "distance_wrist_3_joint": 0.00785381178926503,
        "smoothness": 2.5376526478085547e-16,
        "time": 0.168180523,
        "traj_len": 1.5074430103274885,
        "weighted_distance": 1.901087881622995
    },
    "planner": "ProjEST",
    "start": {
        "state": {
            "elbow_joint": 2.0193061681459312,
            "shoulder_lift_joint": -1.1220205130644991,
            "shoulder_pan_joint": -1.0952072088045026,
            "wrist_1_joint": -0.8559671810662515,
            "wrist_2_joint": 0.4759638712940361,
            "wrist_3_joint": 3.159081874192446
        }
    },
    "waypoints": [
        {
            "positions": [
                -1.0952072088045026,
                -1.1220205130644991,
                2.0193061681459312,
                -0.8559671810662515,
                0.4759638712940361,
                3.159081874192446
            ]
        },
        {
            "positions": [
                -1.191506442307326,
                -1.1711727401471594,
                2.0083430392471047,
                -0.7995641121955545,
                0.6405679825383517,
                3.157772905560902
            ]
        },
        {
            "positions": [
                -1.2878056758101495,
                -1.2203249672298195,
                1.9973799103482783,
                -0.7431610433248574,
                0.8051720937826672,
                3.1564639369293577
            ]
        },
        {
            "positions": [
                -1.3841049093129731,
                -1.2694771943124796,
                1.986416781449452,
                -0.6867579744541604,
                0.9697762050269829,
                3.1551549682978135
            ]
        },
        {
            "positions": [
                -1.4804041428157966,
                -1.31862942139514,
                1.9754536525506257,
                -0.6303549055834634,
                1.1343803162712984,
                3.1538459996662693
            ]
        },
        {
            "positions": [
                -1.57670337631862,
                -1.3677816484778003,
                1.964490523651799,
                -0.5739518367127664,
                1.2989844275156142,
                3.152537031034725
            ]
        },
        {
            "positions": [
                -1.6730026098214434,
                -1.4169338755604604,
                1.9535273947529728,
                -0.5175487678420694,
                1.4635885387599297,
                3.151228062403181
            ]
        }
    ]
}