{
    "goal": {
        "global_pose": {
            "orientation": {
                "w": 0.7047431468963623,
                "x": -0.7094548344612122,
                "y": 0.0024358443915843964,
                "z": -0.0022348060738295317
            },
            "position": {
                "x": 0.6094750761985779,
                "y": 0.3671506643295288,
                "z": 0.19426114857196808
            }
        },
        "name": "move_to_magneteinheit_A"
    },
    "id": "ProjEST_move_to_magneteinheit_A_2",
    "joint_names": [
        "shoulder_pan_joint",
        "shoulder_lift_joint",
        "elbow_joint",
        "wrist_1_joint",
        "wrist_2_joint",
        "wrist_3_joint"
    ],
    "metrics": {
        "cart_traj_len": 1.5929069779211555,
        "distance_elbow_joint": 3.5272721573473995,
        "distance_shoulder_lift_joint": 1.1357471642954737,
        "distance_shoulder_pan_joint": 1.2409553880923834,
        "distance_wrist_1_joint": 3.832961726563574,
        "distance_wrist_2_joint": 1.6965000072485847,
        "distance_wrist_3_joint": 5.039841760212733,
        "smoothness": 4.750721799930903e-16,
        "time": 0.197911957,
        "traj_len": 4.0587286437701335,
        "weighted_distance": 5.664134837554432
    },
    "planner": "ProjEST",
    "start": {
        "state": {
            "elbow_joint": -1.5739458827952972,
            "shoulder_lift_joint": 0.006533473998580023,
            "shoulder_pan_joint": -1.1188671628667068,
            "wrist_1_joint": 3.138208179676308,
            "wrist_2_joint": -1.5706037135050406,
            "wrist_3_joint": -2.0226958329764257
        }
    },
    "waypoints": [
        {
            "positions": [
                -1.1188671628667068,
                0.006533473998580023,
                -1.5739458827952972,
                3.138208179676308,
                -1.5706037135050406,
                -2.0226958329764257
            ]
        },
        {
            "positions": [
                -1.0893206060073644,
                -0.020508125151312208,
                -1.489963212382264,
                3.0469471861866992,
                -1.5302108561895982,
                -1.9026996005904082
            ]
        },
        {
            "positions": [
                -1.0597740491480219,
                -0.04754972430120444,
                -1.4059805419692306,
                2.9556861926970903,
                -1.4898179988741556,
                -1.782703368204391
            ]
        },
        {
            "positions": [
                -1.0302274922886794,
                -0.07459132345109667,
                -1.3219978715561973,
                2.8644251992074814,
                -1.4494251415587132,
                -1.6627071358183734
            ]
        },
        {
            "positions": [
                -1.0006809354293371,
                -0.1016329226009889,
                -1.238015201143164,
                2.7731642057178725,
                -1.4090322842432705,
                -1.542710903432356
            ]
        },
        {
            "positions": [
                -0.9711343785699945,
                -0.12867452175088112,
                -1.1540325307301307,
                2.6819032122282636,
                -1.3686394269278281,
                -1.4227146710463385
            ]
        },
        {
            "positions": [
                -0.9415878217106521,
                -0.15571612090077336,
                -1.0700498603170974,
                2.5906422187386546,
                -1.3282465696123857,
                -1.302718438660321
            ]
        },
        {
            "positions": [
                -0.9120412648513097,
                -0.18275772005066557,
                -0.9860671899040641,
                2.4993812252490457,
                -1.2878537122969431,
                -1.1827222062743037
            ]
        },
        {
            "positions": [
                -0.8824947079919672,
                -0.2097993192005578,
                -0.9020845194910307,
                2.408120231759437,
                -1.2474608549815007,
                -1.0627259738882864
            ]
        },
        {
            "positions": [
                -0.8529481511326247,
                -0.23684091835045004,
                -0.8181018490779974,
                2.316859238269828,
                -1.207067997666058,
                -0.9427297415022688
            ]
        },
        {
            "positions": [
                -0.8234015942732822,
                -0.2638825175003423,
                -0.734119178664964,
                2.225598244780219,
                -1.1666751403506157,
                -0.8227335091162513
            ]
        },
        {
            "positions": [
                -0.7938550374139397,
                -0.29092411665023454,
                -0.6501365082519307,
                2.13433725129061,
                -1.126282283035173,
                -0.7027372767302338
            ]
        },
        {
            "positions": [
                -0.7643084805545973,
                -0.3179657158001268,
                -0.5661538378388975,
                2.043076257801001,
                -1.0858894257197307,
                -0.5827410443442165
            ]
        },
        {
            "positions": [
                -0.7347619236952548,
                -0.345007314950019,
                -0.48217116742586397,
                1.9518152643113924,
                -1.045496568404288,
                -0.46274481195819894
            ]
        },
        {
            "positions": [
                -0.7052153668359125,
                -0.3720489140999112,
                -0.3981884970128309,
                1.8605542708217837,
                -1.0051037110888457,
                -0.34274857957218163
            ]
        },
        {
            "positions": [
                -0.67566880997657,
                -0.3990905132498035,
                -0.31420582659979734,
                1.7692932773321746,
                -0.9647108537734032,
                -0.2227523471861641
            ]
        },
        {
            "positions": [
                -0.6461222531172275,
                -0.4261321123996957,
                -0.23022315618676426,
                1.6780322838425659,
                -0.9243179964579608,
                -0.10275611480014679
            ]
        },
        {
            "positions": [
                -0.616575696257885,
                -0.4531737115495879,
                -0.14624048577373072,
                1.586771290352957,
                -0.8839251391425181,
                0.017240117585870962
            ]
        },
        {
            "positions": [
                -0.5870291393985426,
                -0.48021531069948015,
                -0.06225781536069763,
                1.495510296863348,
                -0.8435322818270757,
                0.13723634997188805
            ]
        },
        {
            "positions": [
                -0.5574825825392,
                -0.5072569098493723,
                0.0217248550523359,
                1.404249303373739,
                -0.8031394245116332,
                0.2572325823579056
            ]
        },
        {
            "positions": [
                -0.5279360256798576,
                -0.5342985089992646,
                0.10570752546536921,
                1.3129883098841302,
                -0.7627465671961907,
                0.3772288147439231
            ]
        },
        {
            "positions": [
                -0.49838946882051516,
                -0.5613401081491568,
                0.18969019587840252,
                1.2217273163945213,
                -0.7223537098807482,
                0.49722504712994064
            ]
        },
        {
            "positions": [
                -0.46884291196117267,
                -0.588381707299049,
                0.27367286629143583,
                1.1304663229049123,
                -0.6819608525653057,
                0.6172212795159582
            ]
        },
        {
            "positions": [
                -0.4392963551018302,
                -0.6154233064489413,
                0.35765553670446937,
                1.0392053294153034,
                -0.6415679952498631,
                0.7372175119019757
            ]
        },
        {
            "positions": [
                -0.4097497982424878,
                -0.6424649055988335,
                0.44163820711750224,
                0.9479443359256945,
                -0.6011751379344208,
                0.8572137442879928
            ]
        },
        {
            "positions": [
                -0.3802032413831453,
                -0.6695065047487258,
                0.525620877530536,
                0.8566833424360856,
                -0.5607822806189782,
                0.9772099766740103
            ]
        },
        {
            "positions": [
                -0.35065668452380283,
                -0.696548103898618,
                0.6096035479435693,
                0.7654223489464766,
                -0.5203894233035358,
                1.0972062090600279
            ]
        },
        {
            "positions": [
                -0.32111012766446034,
                -0.7235897030485102,
                0.6935862183566026,
                0.6741613554568677,
                -0.47999656598809315,
                1.2172024414460454
            ]
        },
        {
            "positions": [
                -0.29156357080511797,
                -0.7506313021984024,
                0.7775688887696355,
                0.5829003619672593,
                -0.43960370867265075,
                1.3371986738320625
            ]
        },
        {
            "positions": [
                -0.2620170139457755,
                -0.7776729013482947,
                0.8615515591826692,
                0.4916393684776499,
                -0.39921085135720835,
                1.45719490621808
            ]
        },
        {
            "positions": [
                -0.232470457086433,
                -0.8047145004981869,
                0.9455342295957025,
                0.40037837498804096,
                -0.35881799404176573,
                1.5771911386040975
            ]
        },
        {
            "positions": [
                -0.2029239002270905,
                -0.8317560996480792,
                1.0295169000087359,
                0.30911738149843204,
                -0.3184251367263231,
                1.6971873709901155
            ]
        },
        {
            "positions": [
                -0.17337734336774813,
                -0.8587976987979713,
                1.1134995704217687,
                0.21785638800882356,
                -0.27803227941088093,
                1.8171836033761322
            ]
        },
        {
            "positions": [
                -0.14383078650840564,
                -0.8858392979478635,
                1.1974822408348025,
                0.12659539451921464,
                -0.2376394220954383,
                1.9371798357621501
            ]
        },
        {
            "positions": [
                -0.11428422964906315,
                -0.9128808970977558,
                1.2814649112478358,
                0.03533440102960572,
                -0.1972465647799957,
                2.0571760681481677
            ]
        },
        {
            "positions": [
                -0.08473767278972066,
                -0.9399224962476481,
                1.365447581660869,
                -0.055926592460003643,
                -0.1568537074645533,
                2.177172300534185
            ]
        },
        {
            "positions": [
                -0.0551911159303784,
                -0.9669640953975402,
                1.449430252073902,
                -0.14718758594961212,
                -0.1164608501491109,
                2.297168532920202
            ]
        },
        {
            "positions": [
                -0.02564455907103591,
                -0.9940056945474325,
                1.5334129224869357,
                -0.23844857943922104,
                -0.07606799283366827,
                2.4171647653062194
            ]
        },
        {
            "positions": [
                0.003901997788306799,
                -1.0210472936973247,
                1.617395592899969,
                -0.32970957292882996,
                -0.035675135518225876,
                2.537160997692237
            ]
        },
        {
            "positions": [
                0.03344855464764929,
                -1.048088892847217,
                1.7013782633130023,
                -0.4209705664184389,
                0.004717721797216745,
                2.6571572300782544
            ]
        },
        {
            "positions": [
                0.06299511150699155,
                -1.0751304919971092,
                1.7853609337260357,
                -0.5122315599080478,
                0.045110579112659144,
                2.777153462464272
            ]
        },
        {
            "positions": [
                0.09254166836633404,
                -1.1021720911470014,
                1.869343604139069,
                -0.6034925533976567,
                0.08550343642810154,
                2.8971496948502895
            ]
        },
        {
            "positions": [
                0.12208822522567656,
                -1.1292136902968937,
                1.9533262745521023,
                -0.6947535468872655,
                0.12589629374354408,
                3.017145927236307
            ]
        }
    ]
}