{
    "goal": {
        "global_pose": {
            "orientation": {
                "w": 0.005598929693374612,
                "x": 0.007748599140229565,
                "y": 0.7110244013736278,
                "z": -0.7031023480610252
            },
            "position": {
                "x": -0.8858502320852131,
                "y": -0.7141253447532654,
                "z": 0.3711530566215515
            }
        },
        "name": "move_to_auspresseinheit_C"
    },
    "id": "ProjEST_move_to_auspresseinheit_C_122",
    "joint_names": [
        "shoulder_pan_joint",
        "shoulder_lift_joint",
        "elbow_joint",
        "wrist_1_joint",
        "wrist_2_joint",
        "wrist_3_joint"
    ],
    "metrics": {
        "cart_traj_len": 0.4931871977670979,
        "distance_elbow_joint": 0.995943161935061,
        "distance_shoulder_lift_joint": 0.32362317483006653,
        "distance_shoulder_pan_joint": 0.25685817355622875,
        "distance_wrist_1_joint": 0.6669327461357847,
        "distance_wrist_2_joint": 1.3116869601217596,
        "distance_wrist_3_joint": 0.05335823231941239,
        "smoothness": 9.689219149575433e-16,
        "time": 0.045156094,
        "traj_len": 1.8995795452937245,
        "weighted_distance": 2.3861556151673518
    },
    "planner": "ProjEST",
    "start": {
        "state": {
            "elbow_joint": 1.7527959577730765,
            "shoulder_lift_joint": -0.9740617694224828,
            "shoulder_pan_joint": -2.967991417825869,
            "wrist_1_joint": -0.7595177689779385,
            "wrist_2_joint": 1.7443932448376545,
            "wrist_3_joint": 3.1991315425061013
        }
    },
    "waypoints": [
        {
            "positions": [
                -2.967991417825869,
                -0.9740617694224828,
                1.7527959577730765,
                -0.7595177689779385,
                1.7443932448376545,
                3.1991315425061013
            ]
        },
        {
            "positions": [
                -2.942305600470246,
                -0.9416994519394761,
                1.6532016415795705,
                -0.6928244943643601,
                1.6132245488254786,
                3.19379571927416
            ]
        },
        {
            "positions": [
                -2.916619783114623,
                -0.9093371344564695,
                1.5536073253860643,
                -0.6261312197507816,
                1.4820558528133025,
                3.188459896042219
            ]
        },
        {
            "positions": [
                -2.8909339657590003,
                -0.8769748169734628,
                1.4540130091925583,
                -0.5594379451372031,
                1.3508871568011265,
                3.1831240728102776
            ]
        },
        {
            "positions": [
                -2.8652481484033774,
                -0.8446124994904561,
                1.354418692999052,
                -0.49274467052362464,
                1.2197184607889506,
                3.1777882495783363
            ]
        },
        {
            "positions": [
                -2.8395623310477545,
                -0.8122501820074495,
                1.254824376805546,
                -0.4260513959100462,
                1.0885497647767748,
                3.1724524263463953
            ]
        },
        {
            "positions": [
                -2.813876513692132,
                -0.7798878645244429,
                1.1552300606120398,
                -0.35935812129646777,
                0.9573810687645987,
                3.167116603114454
            ]
        },
        {
            "positions": [
                -2.788190696336509,
                -0.7475255470414363,
                1.0556357444185338,
                -0.2926648466828893,
                0.8262123727524229,
                3.1617807798825126
            ]
        },
        {
            "positions": [
                -2.762504878980886,
                -0.7151632295584296,
                0.9560414282250276,
                -0.22597157206931073,
                0.6950436767402468,
                3.1564449566505712
            ]
        },
        {
            "positions": [
                -2.7368190616252632,
                -0.6828009120754229,
                0.8564471120315216,
                -0.1592782974557323,
                0.5638749807280707,
                3.1511091334186303
            ]
        },
        {
            "positions": [
                -2.7111332442696403,
                -0.6504385945924163,
                0.7568527958380155,
                -0.09258502284215386,
                0.43270628471589484,
                3.145773310186689
            ]
        }
    ]
}