{
    "goal": {
        "global_pose": {
            "orientation": {
                "w": 0.005598929693374612,
                "x": 0.007748599140229565,
                "y": 0.7110244013736278,
                "z": -0.7031023480610252
            },
            "position": {
                "x": -0.8858502320852131,
                "y": -0.7141253447532654,
                "z": 0.3711530566215515
            }
        },
        "name": "move_to_auspresseinheit_C"
    },
    "id": "ProjEST_move_to_auspresseinheit_C_39",
    "joint_names": [
        "shoulder_pan_joint",
        "shoulder_lift_joint",
        "elbow_joint",
        "wrist_1_joint",
        "wrist_2_joint",
        "wrist_3_joint"
    ],
    "metrics": {
        "cart_traj_len": 0.4931698618662106,
        "distance_elbow_joint": 1.0127253077054506,
        "distance_shoulder_lift_joint": 0.33115055672500937,
        "distance_shoulder_pan_joint": 0.2552686456848101,
        "distance_wrist_1_joint": 0.7026630086361987,
        "distance_wrist_2_joint": 1.3195879935690644,
        "distance_wrist_3_joint": 0.07025741610069147,
        "smoothness": 1.6148698667872622e-16,
        "time": 0.423675227,
        "traj_len": 1.92136746314213,
        "weighted_distance": 2.4195906188501954
    },
    "planner": "ProjEST",
    "start": {
        "state": {
            "elbow_joint": 1.7527959577730765,
            "shoulder_lift_joint": -0.9740617694224828,
            "shoulder_pan_joint": -2.967991417825869,
            "wrist_1_joint": -0.7595177689779385,
            "wrist_2_joint": 1.7443932448376545,
            "wrist_3_joint": 3.1991315425061013
        }
    },
    "waypoints": [
        {
            "positions": [
                -2.967991417825869,
                -0.9740617694224828,
                1.7527959577730765,
                -0.7595177689779385,
                1.7443932448376545,
                3.1991315425061013
            ]
        },
        {
            "positions": [
                -2.942464553257388,
                -0.9409467137499818,
                1.6515234270025314,
                -0.6892514681143187,
                1.612434445480748,
                3.1921058008960324
            ]
        },
        {
            "positions": [
                -2.916937688688907,
                -0.9078316580774809,
                1.5502508962319863,
                -0.6189851672506987,
                1.4804756461238415,
                3.185080059285963
            ]
        },
        {
            "positions": [
                -2.891410824120426,
                -0.87471660240498,
                1.4489783654614414,
                -0.548718866387079,
                1.348516846766935,
                3.178054317675894
            ]
        },
        {
            "positions": [
                -2.865883959551945,
                -0.841601546732479,
                1.3477058346908963,
                -0.47845256552345905,
                1.2165580474100288,
                3.1710285760658246
            ]
        },
        {
            "positions": [
                -2.840357094983464,
                -0.808486491059978,
                1.2464333039203512,
                -0.4081862646598392,
                1.0845992480531224,
                3.1640028344557556
            ]
        },
        {
            "positions": [
                -2.814830230414983,
                -0.7753714353874772,
                1.1451607731498061,
                -0.33791996379621936,
                0.9526404486962158,
                3.1569770928456866
            ]
        },
        {
            "positions": [
                -2.789303365846502,
                -0.7422563797149763,
                1.043888242379261,
                -0.2676536629325995,
                0.8206816493393094,
                3.149951351235617
            ]
        },
        {
            "positions": [
                -2.763776501278021,
                -0.7091413240424753,
                0.942615711608716,
                -0.19738736206897955,
                0.688722849982403,
                3.1429256096255482
            ]
        },
        {
            "positions": [
                -2.73824963670954,
                -0.6760262683699744,
                0.841343180838171,
                -0.1271210612053597,
                0.5567640506254965,
                3.135899868015479
            ]
        },
        {
            "positions": [
                -2.712722772141059,
                -0.6429112126974734,
                0.740070650067626,
                -0.0568547603417399,
                0.4248052512685901,
                3.12887412640541
            ]
        }
    ]
}