{
    "goal": {
        "global_pose": {
            "orientation": {
                "w": -0.4816463035849501,
                "x": 0.5182115481033762,
                "y": 0.4908360881923453,
                "z": -0.5084816262002911
            },
            "position": {
                "x": -0.8240239810943604,
                "y": 0.19912469901144506,
                "z": 0.16403168439865112
            }
        },
        "name": "move_to_storage_D"
    },
    "id": "ProjEST_move_to_storage_D_88",
    "joint_names": [
        "shoulder_pan_joint",
        "shoulder_lift_joint",
        "elbow_joint",
        "wrist_1_joint",
        "wrist_2_joint",
        "wrist_3_joint"
    ],
    "metrics": {
        "cart_traj_len": 3.4614471089361523,
        "distance_elbow_joint": 4.437620549372691,
        "distance_shoulder_lift_joint": 1.2657202626879687,
        "distance_shoulder_pan_joint": 2.8126993622451506,
        "distance_wrist_1_joint": 2.593227330924937,
        "distance_wrist_2_joint": 1.167294694450134,
        "distance_wrist_3_joint": 3.4009244394318228,
        "smoothness": 0.36874020046918926,
        "time": 0.132664785,
        "traj_len": 3.9594806021892186,
        "weighted_distance": 5.122485484933209
    },
    "planner": "ProjEST",
    "start": {
        "state": {
            "elbow_joint": -2.384821990628643,
            "shoulder_lift_joint": -2.278805467437664,
            "shoulder_pan_joint": -0.18546946439364564,
            "wrist_1_joint": 1.4845938187801415,
            "wrist_2_joint": 0.178987772454074,
            "wrist_3_joint": 0.03710569632802521
        }
    },
    "waypoints": [
        {
            "positions": [
                -0.18546946439364564,
                -2.278805467437664,
                -2.384821990628643,
                1.4845938187801415,
                0.178987772454074,
                0.03710569632802521
            ]
        },
        {
            "positions": [
                -0.08688891625057493,
                -2.2379654169338465,
                -2.412172886504047,
                1.5668339464996672,
                0.2358713456148855,
                -0.029375622692752845
            ]
        },
        {
            "positions": [
                0.01169163189249578,
                -2.1971253664300288,
                -2.4395237823794513,
                1.649074074219193,
                0.29275491877569704,
                -0.09585694171353089
            ]
        },
        {
            "positions": [
                0.08235431034943282,
                -2.1734423371123497,
                -2.287541441381306,
                1.589853377847296,
                0.2874699542300248,
                -0.015961985898356415
            ]
        },
        {
            "positions": [
                0.15301698880636985,
                -2.14975930779467,
                -2.135559100383161,
                1.530632681475399,
                0.28218498968435257,
                0.06393296991681806
            ]
        },
        {
            "positions": [
                0.22367966726330687,
                -2.126076278476991,
                -1.983576759385016,
                1.4714119851035021,
                0.27690002513868034,
                0.14382792573199255
            ]
        },
        {
            "positions": [
                0.2943423457202439,
                -2.102393249159312,
                -1.8315944183868709,
                1.4121912887316053,
                0.2716150605930081,
                0.22372288154716702
            ]
        },
        {
            "positions": [
                0.365005024177181,
                -2.0787102198416325,
                -1.6796120773887255,
                1.3529705923597084,
                0.2663300960473359,
                0.3036178373623415
            ]
        },
        {
            "positions": [
                0.43566770263411797,
                -2.0550271905239534,
                -1.5276297363905806,
                1.2937498959878115,
                0.26104513150166364,
                0.38351279317751596
            ]
        },
        {
            "positions": [
                0.5063303810910551,
                -2.0313441612062744,
                -1.3756473953924353,
                1.2345291996159145,
                0.25576016695599146,
                0.46340774899269044
            ]
        },
        {
            "positions": [
                0.5769930595479921,
                -2.007661131888595,
                -1.2236650543942902,
                1.1753085032440176,
                0.25047520241031923,
                0.5433027048078649
            ]
        },
        {
            "positions": [
                0.6476557380049291,
                -1.9839781025709158,
                -1.0716827133961448,
                1.1160878068721205,
                0.24519023786464697,
                0.6231976606230394
            ]
        },
        {
            "positions": [
                0.7183184164618662,
                -1.9602950732532365,
                -0.9197003723979997,
                1.0568671105002236,
                0.23990527331897477,
                0.7030926164382139
            ]
        },
        {
            "positions": [
                0.7889810949188032,
                -1.9366120439355572,
                -0.7677180313998548,
                0.9976464141283269,
                0.23462030877330253,
                0.7829875722533883
            ]
        },
        {
            "positions": [
                0.8596437733757402,
                -1.9129290146178781,
                -0.6157356904017097,
                0.9384257177564299,
                0.2293353442276303,
                0.8628825280685628
            ]
        },
        {
            "positions": [
                0.9303064518326774,
                -1.8892459853001988,
                -0.4637533494035644,
                0.8792050213845329,
                0.22405037968195807,
                0.9427774838837373
            ]
        },
        {
            "positions": [
                1.0009691302896142,
                -1.8655629559825195,
                -0.31177100840541927,
                0.8199843250126361,
                0.21876541513628583,
                1.0226724396989118
            ]
        },
        {
            "positions": [
                1.0716318087465513,
                -1.8418799266648405,
                -0.15978866740727415,
                0.7607636286407392,
                0.2134804505906136,
                1.1025673955140862
            ]
        },
        {
            "positions": [
                1.1422944872034884,
                -1.8181968973471612,
                -0.0078063264091290385,
                0.7015429322688422,
                0.20819548604494137,
                1.1824623513292607
            ]
        },
        {
            "positions": [
                1.2129571656604254,
                -1.7945138680294819,
                0.14417601458901608,
                0.6423222358969454,
                0.20291052149926914,
                1.2623573071444352
            ]
        },
        {
            "positions": [
                1.2836198441173625,
                -1.7708308387118028,
                0.29615835558716164,
                0.5831015395250483,
                0.1976255569535969,
                1.3422522629596096
            ]
        },
        {
            "positions": [
                1.3542825225742996,
                -1.7471478093941235,
                0.44814069658530675,
                0.5238808431531514,
                0.19234059240792467,
                1.4221472187747841
            ]
        },
        {
            "positions": [
                1.4249452010312367,
                -1.7234647800764442,
                0.6001230375834519,
                0.46466014678125456,
                0.18705562786225247,
                1.5020421745899586
            ]
        },
        {
            "positions": [
                1.4956078794881735,
                -1.6997817507587651,
                0.7521053785815965,
                0.4054394504093577,
                0.18177066331658023,
                1.581937130405133
            ]
        },
        {
            "positions": [
                1.5662705579451106,
                -1.6760987214410858,
                0.9040877195797417,
                0.34621875403746083,
                0.176485698770908,
                1.6618320862203075
            ]
        },
        {
            "positions": [
                1.6369332364020477,
                -1.6524156921234066,
                1.0560700605778868,
                0.28699805766556374,
                0.1712007342252358,
                1.741727042035482
            ]
        },
        {
            "positions": [
                1.7075959148589845,
                -1.6287326628057275,
                1.2080524015760319,
                0.22777736129366688,
                0.16591576967956356,
                1.8216219978506565
            ]
        },
        {
            "positions": [
                1.7782585933159218,
                -1.6050496334880482,
                1.3600347425741774,
                0.1685566649217698,
                0.1606308051338913,
                1.901516953665831
            ]
        },
        {
            "positions": [
                1.848921271772859,
                -1.581366604170369,
                1.5120170835723226,
                0.10933596854987293,
                0.1553458405882191,
                1.9814119094810054
            ]
        },
        {
            "positions": [
                1.9195839502297958,
                -1.5576835748526898,
                1.6639994245704681,
                0.05011527217797607,
                0.15006087604254686,
                2.0613068652961797
            ]
        },
        {
            "positions": [
                1.9902466286867329,
                -1.5340005455350105,
                1.815981765568613,
                -0.009105424193920873,
                0.14477591149687463,
                2.141201821111354
            ]
        },
        {
            "positions": [
                2.0533619470364166,
                -1.5041869676442863,
                1.8498259351345376,
                -0.03355097407482742,
                0.207522277258874,
                2.2165156097003513
            ]
        },
        {
            "positions": [
                2.1164772653861004,
                -1.4743733897535618,
                1.8836701047004623,
                -0.05799652395573396,
                0.2702686430208734,
                2.2918293982893485
            ]
        },
        {
            "positions": [
                2.1732275578822566,
                -1.4231191469753544,
                1.877034007973577,
                -0.13818279921250698,
                0.3569415107237278,
                2.389637782887947
            ]
        },
        {
            "positions": [
                2.2299778503784125,
                -1.371864904197147,
                1.8703979112466917,
                -0.21836907446928003,
                0.44361437842658225,
                2.487446167486546
            ]
        },
        {
            "positions": [
                2.2867281428745687,
                -1.3206106614189397,
                1.8637618145198065,
                -0.298555349726053,
                0.5302872461294366,
                2.585254552085144
            ]
        },
        {
            "positions": [
                2.3434784353707245,
                -1.2693564186407322,
                1.8571257177929212,
                -0.3787416249828261,
                0.6169601138322911,
                2.6830629366837426
            ]
        },
        {
            "positions": [
                2.400228727866881,
                -1.2181021758625248,
                1.850489621066036,
                -0.4589279002395991,
                0.7036329815351454,
                2.7808713212823415
            ]
        },
        {
            "positions": [
                2.4569790203630366,
                -1.1668479330843176,
                1.8438535243391507,
                -0.5391141754963722,
                0.7903058492379998,
                2.87867970588094
            ]
        },
        {
            "positions": [
                2.513729312859193,
                -1.11559369030611,
                1.8372174276122655,
                -0.6193004507531452,
                0.8769787169408543,
                2.9764880904795383
            ]
        },
        {
            "positions": [
                2.5704796053553487,
                -1.0643394475279027,
                1.8305813308853802,
                -0.6994867260099182,
                0.9636515846437087,
                3.074296475078137
            ]
        },
        {
            "positions": [
                2.627229897851505,
                -1.0130852047496952,
                1.823945234158495,
                -0.7796730012666913,
                1.0503244523465631,
                3.1721048596767356
            ]
        }
    ]
}