{
    "goal": {
        "global_pose": {
            "orientation": {
                "w": -0.4816463035849501,
                "x": 0.5182115481033762,
                "y": 0.4908360881923453,
                "z": -0.5084816262002911
            },
            "position": {
                "x": -0.8240239810943604,
                "y": -0.300875300988555,
                "z": 0.16403168439865112
            }
        },
        "name": "move_to_storage_C"
    },
    "id": "ProjEST_move_to_storage_C_81",
    "joint_names": [
        "shoulder_pan_joint",
        "shoulder_lift_joint",
        "elbow_joint",
        "wrist_1_joint",
        "wrist_2_joint",
        "wrist_3_joint"
    ],
    "metrics": {
        "cart_traj_len": 0.5771561587050545,
        "distance_elbow_joint": 0.2591568092934593,
        "distance_shoulder_lift_joint": 0.18921992329330284,
        "distance_shoulder_pan_joint": 0.49555716487665213,
        "distance_wrist_1_joint": 0.08192381651940006,
        "distance_wrist_2_joint": 1.0649304367063233,
        "distance_wrist_3_joint": 0.05694491667223245,
        "smoothness": 2.5376526478085547e-16,
        "time": 0.087441041,
        "traj_len": 1.4655146083752868,
        "weighted_distance": 1.8462061515257604
    },
    "planner": "ProjEST",
    "start": {
        "state": {
            "elbow_joint": 2.0108683149792914,
            "shoulder_lift_joint": -1.1634956873317392,
            "shoulder_pan_joint": -2.4736205022346,
            "wrist_1_joint": -0.8367026793690192,
            "wrist_2_joint": 0.6746043897045053,
            "wrist_3_joint": 3.133522094754363
        }
    },
    "waypoints": [
        {
            "positions": [
                -2.4736205022346,
                -1.1634956873317392,
                2.0108683149792914,
                -0.8367026793690192,
                0.6746043897045053,
                3.133522094754363
            ]
        },
        {
            "positions": [
                -2.5562133630473753,
                -1.1319590334495222,
                1.9676755134303816,
                -0.8230487099491192,
                0.8520927958222259,
                3.143012914199735
            ]
        },
        {
            "positions": [
                -2.6388062238601506,
                -1.100422379567305,
                1.9244827118814716,
                -0.8093947405292192,
                1.0295812019399464,
                3.152503733645107
            ]
        },
        {
            "positions": [
                -2.7213990846729263,
                -1.0688857256850879,
                1.8812899103325618,
                -0.7957407711093192,
                1.207069608057667,
                3.161994553090479
            ]
        },
        {
            "positions": [
                -2.8039919454857016,
                -1.0373490718028706,
                1.838097108783652,
                -0.7820868016894191,
                1.3845580141753875,
                3.1714853725358516
            ]
        },
        {
            "positions": [
                -2.886584806298477,
                -1.0058124179206536,
                1.794904307234742,
                -0.7684328322695192,
                1.562046420293108,
                3.1809761919812236
            ]
        },
        {
            "positions": [
                -2.969177667111252,
                -0.9742757640384364,
                1.7517115056858321,
                -0.7547788628496191,
                1.7395348264108286,
                3.1904670114265956
            ]
        }
    ]
}