{
    "goal": {
        "global_pose": {
            "orientation": {
                "w": 0.7047431493862688,
                "x": -0.7094548369677653,
                "y": 0.0024358444001904,
                "z": -0.0022348060817251984
            },
            "position": {
                "x": -0.39052492380142206,
                "y": 0.3671506643295288,
                "z": 0.19426114857196808
            }
        },
        "name": "move_to_magneteinheit_D"
    },
    "id": "ProjEST_move_to_magneteinheit_D_75",
    "joint_names": [
        "shoulder_pan_joint",
        "shoulder_lift_joint",
        "elbow_joint",
        "wrist_1_joint",
        "wrist_2_joint",
        "wrist_3_joint"
    ],
    "metrics": {
        "cart_traj_len": 4.1872679886644155,
        "distance_elbow_joint": 4.3404886404783385,
        "distance_shoulder_lift_joint": 1.1965746013872876,
        "distance_shoulder_pan_joint": 2.785062312755358,
        "distance_wrist_1_joint": 3.7110960582592205,
        "distance_wrist_2_joint": 2.002589454000472,
        "distance_wrist_3_joint": 6.764963568051492,
        "smoothness": 0.19761307541944526,
        "time": 0.5842822830000001,
        "traj_len": 4.5607866245782835,
        "weighted_distance": 6.328063470232805
    },
    "planner": "ProjEST",
    "start": {
        "state": {
            "elbow_joint": 0.7495348899011911,
            "shoulder_lift_joint": -0.6476975780737668,
            "shoulder_pan_joint": -2.711696901376276,
            "wrist_1_joint": -0.0750647808097303,
            "wrist_2_joint": 0.43296659715458535,
            "wrist_3_joint": 3.1361499051832418
        }
    },
    "waypoints": [
        {
            "positions": [
                -2.711696901376276,
                -0.6476975780737668,
                0.7495348899011911,
                -0.0750647808097303,
                0.43296659715458535,
                3.1361499051832418
            ]
        },
        {
            "positions": [
                -2.70868242036562,
                -0.6830144959868002,
                0.800718054917998,
                -0.01070158113601731,
                0.38203141738175944,
                2.968028962231024
            ]
        },
        {
            "positions": [
                -2.7056679393549645,
                -0.7183314138998336,
                0.8519012199348048,
                0.053661618537695674,
                0.3310962376089335,
                2.7999080192788064
            ]
        },
        {
            "positions": [
                -2.702653458344309,
                -0.7536483318128668,
                0.9030843849516117,
                0.11802481821140866,
                0.28016105783610756,
                2.6317870763265887
            ]
        },
        {
            "positions": [
                -2.699638977333653,
                -0.7889652497259002,
                0.9542675499684186,
                0.18238801788512166,
                0.22922587806328165,
                2.463666133374371
            ]
        },
        {
            "positions": [
                -2.696624496322997,
                -0.8242821676389336,
                1.0054507149852254,
                0.24675121755883467,
                0.17829069829045568,
                2.2955451904221533
            ]
        },
        {
            "positions": [
                -2.6936100153123412,
                -0.859599085551967,
                1.0566338800020323,
                0.3111144172325476,
                0.12735551851762977,
                2.1274242474699356
            ]
        },
        {
            "positions": [
                -2.6905955343016856,
                -0.8949160034650003,
                1.1078170450188394,
                0.37547761690626064,
                0.0764203387448038,
                1.9593033045177175
            ]
        },
        {
            "positions": [
                -2.6875810532910296,
                -0.9302329213780336,
                1.159000210035646,
                0.4398408165799736,
                0.02548515897197795,
                1.7911823615655
            ]
        },
        {
            "positions": [
                -2.6845665722803735,
                -0.9655498392910671,
                1.210183375052453,
                0.5042040162536865,
                -0.025450020800848017,
                1.6230614186132821
            ]
        },
        {
            "positions": [
                -2.681552091269718,
                -1.0008667572041003,
                1.26136654006926,
                0.5685672159273996,
                -0.07638520057367398,
                1.4549404756610644
            ]
        },
        {
            "positions": [
                -2.6785376102590623,
                -1.0361836751171336,
                1.3125497050860668,
                0.6329304156011124,
                -0.1273203803464999,
                1.286819532708847
            ]
        },
        {
            "positions": [
                -2.6755231292484063,
                -1.071500593030167,
                1.3637328701028737,
                0.6972936152748255,
                -0.1782555601193258,
                1.118698589756629
            ]
        },
        {
            "positions": [
                -2.639494637132703,
                -1.116644183955553,
                1.3557948132816504,
                0.6864328128672027,
                -0.15708054681218347,
                0.8912086522492801
            ]
        },
        {
            "positions": [
                -2.6034661450170002,
                -1.161787774880939,
                1.3478567564604271,
                0.6755720104595799,
                -0.13590553350504114,
                0.6637187147419313
            ]
        },
        {
            "positions": [
                -2.5674376529012974,
                -1.206931365806325,
                1.3399186996392038,
                0.6647112080519572,
                -0.11473052019789881,
                0.4362287772345824
            ]
        },
        {
            "positions": [
                -2.531409160785594,
                -1.2520749567317109,
                1.3319806428179808,
                0.6538504056443344,
                -0.09355550689075648,
                0.20873883972723362
            ]
        },
        {
            "positions": [
                -2.495380668669891,
                -1.297218547657097,
                1.3240425859967575,
                0.6429896032367116,
                -0.07238049358361415,
                -0.0187510977801153
            ]
        },
        {
            "positions": [
                -2.459352176554188,
                -1.3423621385824829,
                1.3161045291755342,
                0.6321288008290888,
                -0.051205480276471815,
                -0.24624103528746416
            ]
        },
        {
            "positions": [
                -2.33934752940874,
                -1.3390833758877327,
                1.1716702834732562,
                0.5519199968949555,
                -0.013286325189522129,
                -0.24117760872329413
            ]
        },
        {
            "positions": [
                -2.2193428822632923,
                -1.3358046131929828,
                1.0272360377709782,
                0.47171119296082215,
                0.024632829897427558,
                -0.23611418215912408
            ]
        },
        {
            "positions": [
                -2.0993382351178442,
                -1.3325258504982327,
                0.8828017920687001,
                0.39150238902668877,
                0.06255198498437725,
                -0.23105075559495405
            ]
        },
        {
            "positions": [
                -1.9793335879723963,
                -1.3292470878034826,
                0.7383675463664221,
                0.31129358509255545,
                0.10047114007132693,
                -0.225987329030784
            ]
        },
        {
            "positions": [
                -1.8593289408269484,
                -1.3259683251087326,
                0.5939333006641441,
                0.23108478115842213,
                0.1383902951582766,
                -0.22092390246661398
            ]
        },
        {
            "positions": [
                -1.7393242936815003,
                -1.3226895624139825,
                0.44949905496186604,
                0.1508759772242887,
                0.17630945024522632,
                -0.21586047590244395
            ]
        },
        {
            "positions": [
                -1.6193196465360526,
                -1.3194107997192324,
                0.305064809259588,
                0.07066717329015537,
                0.21422860533217603,
                -0.2107970493382739
            ]
        },
        {
            "positions": [
                -1.4993149993906045,
                -1.3161320370244824,
                0.16063056355730998,
                -0.00954163064397795,
                0.2521477604191257,
                -0.20573362277410387
            ]
        },
        {
            "positions": [
                -1.3793103522451566,
                -1.3128532743297323,
                0.01619631785503195,
                -0.08975043457811127,
                0.2900669155060754,
                -0.20067019620993382
            ]
        },
        {
            "positions": [
                -1.2593057050997087,
                -1.3095745116349822,
                -0.12823792784724608,
                -0.1699592385122446,
                0.32798607059302504,
                -0.1956067696457638
            ]
        },
        {
            "positions": [
                -1.1393010579542608,
                -1.3062957489402323,
                -0.2726721735495239,
                -0.2501680424463779,
                0.36590522567997474,
                -0.19054334308159376
            ]
        },
        {
            "positions": [
                -1.0192964108088127,
                -1.3030169862454821,
                -0.41710641925180214,
                -0.33037684638051146,
                0.40382438076692445,
                -0.1854799165174237
            ]
        },
        {
            "positions": [
                -0.8992917636633648,
                -1.299738223550732,
                -0.5615406649540802,
                -0.4105856503146448,
                0.44174353585387416,
                -0.18041648995325366
            ]
        },
        {
            "positions": [
                -0.7792871165179169,
                -1.296459460855982,
                -0.7059749106563582,
                -0.4907944542487781,
                0.47966269094082387,
                -0.17535306338908363
            ]
        },
        {
            "positions": [
                -0.659282469372469,
                -1.293180698161232,
                -0.8504091563586362,
                -0.5710032581829113,
                0.5175818460277735,
                -0.1702896368249136
            ]
        },
        {
            "positions": [
                -0.6241926411628883,
                -1.3078069878834362,
                -0.920142274033149,
                -0.6496195745630747,
                0.48517203819518706,
                -0.011121448969676151
            ]
        },
        {
            "positions": [
                -0.5891028129533076,
                -1.3224332776056404,
                -0.9898753917076617,
                -0.7282358909432383,
                0.45276223036260066,
                0.1480467388855613
            ]
        },
        {
            "positions": [
                -0.5540129847437268,
                -1.3370595673278445,
                -1.0596085093821743,
                -0.8068522073234017,
                0.4203524225300142,
                0.30721492674079875
            ]
        },
        {
            "positions": [
                -0.5189231565341461,
                -1.3516858570500487,
                -1.1293416270566872,
                -0.8854685237035651,
                0.3879426146974278,
                0.4663831145960362
            ]
        },
        {
            "positions": [
                -0.4838333283245654,
                -1.366312146772253,
                -1.1990747447311998,
                -0.9640848400837285,
                0.3555328068648414,
                0.6255513024512737
            ]
        },
        {
            "positions": [
                -0.4487435001149847,
                -1.380938436494457,
                -1.2688078624057124,
                -1.042701156463892,
                0.32312299903225494,
                0.7847194903065111
            ]
        },
        {
            "positions": [
                -0.413653671905404,
                -1.3955647262166613,
                -1.338540980080225,
                -1.1213174728440554,
                0.29071319119966854,
                0.9438876781617487
            ]
        },
        {
            "positions": [
                -0.37856384369582324,
                -1.4101910159388655,
                -1.4082740977547379,
                -1.199933789224219,
                0.25830338336708214,
                1.103055866016986
            ]
        },
        {
            "positions": [
                -0.3434740154862425,
                -1.4248173056610698,
                -1.4780072154292507,
                -1.2785501056043822,
                0.22589357553449574,
                1.2622240538722234
            ]
        },
        {
            "positions": [
                -0.3083841872766618,
                -1.439443595383274,
                -1.5477403331037634,
                -1.3571664219845458,
                0.19348376770190934,
                1.421392241727461
            ]
        },
        {
            "positions": [
                -0.27329435906708105,
                -1.454069885105478,
                -1.617473450778276,
                -1.4357827383647093,
                0.16107395986932288,
                1.5805604295826985
            ]
        },
        {
            "positions": [
                -0.23820453085750037,
                -1.4686961748276823,
                -1.6872065684527886,
                -1.5143990547448727,
                0.12866415203673648,
                1.7397286174379358
            ]
        },
        {
            "positions": [
                -0.20311470264791964,
                -1.4833224645498866,
                -1.7569396861273014,
                -1.5930153711250363,
                0.09625434420415008,
                1.8988968052931732
            ]
        },
        {
            "positions": [
                -0.1680248744383389,
                -1.4979487542720906,
                -1.826672803801814,
                -1.6716316875051995,
                0.06384453637156362,
                2.058064993148411
            ]
        },
        {
            "positions": [
                -0.13293504622875818,
                -1.5125750439942949,
                -1.896405921476327,
                -1.7502480038853632,
                0.03143472853897722,
                2.2172331810036483
            ]
        },
        {
            "positions": [
                -0.09784521801917745,
                -1.5272013337164991,
                -1.9661390391508395,
                -1.8288643202655264,
                -0.0009750792936092378,
                2.3764013688588856
            ]
        },
        {
            "positions": [
                -0.08943138872216477,
                -1.5544819055494186,
                -2.0299405147006473,
                -1.904819197134984,
                -0.032009684233269234,
                2.5244960663577385
            ]
        },
        {
            "positions": [
                -0.0810175594251521,
                -1.5817624773823382,
                -2.093741990250455,
                -1.9807740740044415,
                -0.06304428917292923,
                2.6725907638565913
            ]
        },
        {
            "positions": [
                -0.07260373012813943,
                -1.6090430492152576,
                -2.1575434658002632,
                -2.0567289508738993,
                -0.09407889411258923,
                2.8206854613554446
            ]
        },
        {
            "positions": [
                -0.06418990083112674,
                -1.6363236210481773,
                -2.221344941350071,
                -2.1326838277433566,
                -0.12511349905224922,
                2.9687801588542975
            ]
        },
        {
            "positions": [
                -0.05577607153411408,
                -1.6636041928810967,
                -2.2851464168998787,
                -2.2086387046128144,
                -0.15614810399190923,
                3.1168748563531503
            ]
        },
        {
            "positions": [
                -0.1849175544473109,
                -1.7459092986185525,
                -2.3625577901737818,
                -2.175833362325788,
                -0.1779480445516866,
                3.1363315922933235
            ]
        }
    ]
}