{
    "goal": {
        "global_pose": {
            "orientation": {
                "w": 0.7031023480610252,
                "x": -0.7110244013736278,
                "y": 0.0077485991402295624,
                "z": 0.005598929693374583
            },
            "position": {
                "x": -0.8841497679147869,
                "y": 0.44412534475326537,
                "z": 0.3711530566215515
            }
        },
        "name": "move_to_auspresseinheit_D"
    },
    "id": "ProjEST_move_to_auspresseinheit_D_19",
    "joint_names": [
        "shoulder_pan_joint",
        "shoulder_lift_joint",
        "elbow_joint",
        "wrist_1_joint",
        "wrist_2_joint",
        "wrist_3_joint"
    ],
    "metrics": {
        "cart_traj_len": 0.34405026045265086,
        "distance_elbow_joint": 0.6457822769825259,
        "distance_shoulder_lift_joint": 0.12559493865078242,
        "distance_shoulder_pan_joint": 0.134618151221795,
        "distance_wrist_1_joint": 0.5480547277536401,
        "distance_wrist_2_joint": 1.4467583252673535,
        "distance_wrist_3_joint": 0.00719810385589259,
        "smoothness": 7.89491931748053e-16,
        "time": 0.122681134,
        "traj_len": 1.705287812579445,
        "weighted_distance": 2.21747960181481
    },
    "planner": "ProjEST",
    "start": {
        "state": {
            "elbow_joint": -1.8275484843655228,
            "shoulder_lift_joint": -2.1267897864000416,
            "shoulder_pan_joint": -0.035127520176001514,
            "wrist_1_joint": -2.3477863256791385,
            "wrist_2_joint": -1.605890476484521,
            "wrist_3_joint": -3.0880375317375353
        }
    },
    "waypoints": [
        {
            "positions": [
                -0.035127520176001514,
                -2.1267897864000416,
                -1.8275484843655228,
                -2.3477863256791385,
                -1.605890476484521,
                -3.0880375317375353
            ]
        },
        {
            "positions": [
                -0.05195478907872589,
                -2.1424891537313893,
                -1.746825699742707,
                -2.4162931666483436,
                -1.4250456858261018,
                -3.087137768755549
            ]
        },
        {
            "positions": [
                -0.06878205798145026,
                -2.158188521062737,
                -1.6661029151198914,
                -2.4848000076175483,
                -1.2442008951676826,
                -3.086238005773562
            ]
        },
        {
            "positions": [
                -0.08560932688417464,
                -2.173887888394085,
                -1.5853801304970756,
                -2.5533068485867534,
                -1.0633561045092634,
                -3.0853382427915754
            ]
        },
        {
            "positions": [
                -0.10243659578689901,
                -2.189587255725433,
                -1.5046573458742598,
                -2.6218136895559585,
                -0.8825113138508442,
                -3.084438479809589
            ]
        },
        {
            "positions": [
                -0.11926386468962338,
                -2.2052866230567805,
                -1.423934561251444,
                -2.6903205305251636,
                -0.7016665231924251,
                -3.0835387168276025
            ]
        },
        {
            "positions": [
                -0.13609113359234776,
                -2.2209859903881286,
                -1.3432117766286282,
                -2.7588273714943687,
                -0.5208217325340059,
                -3.082638953845616
            ]
        },
        {
            "positions": [
                -0.15291840249507213,
                -2.2366853577194763,
                -1.2624889920058127,
                -2.8273342124635734,
                -0.3399769418755867,
                -3.081739190863629
            ]
        },
        {
            "positions": [
                -0.1697456713977965,
                -2.252384725050824,
                -1.1817662073829969,
                -2.8958410534327785,
                -0.15913215121716748,
                -3.0808394278816427
            ]
        }
    ]
}