{
    "goal": {
        "global_pose": {
            "orientation": {
                "w": 0.7031023502349854,
                "x": -0.7110244035720825,
                "y": 0.007748599164187908,
                "z": 0.005598929710686207
            },
            "position": {
                "x": 0.11585023208521307,
                "y": 0.44412534475326537,
                "z": 0.3711530566215515
            }
        },
        "name": "move_to_auspresseinheit_A"
    },
    "id": "ProjEST_move_to_auspresseinheit_A_57",
    "joint_names": [
        "shoulder_pan_joint",
        "shoulder_lift_joint",
        "elbow_joint",
        "wrist_1_joint",
        "wrist_2_joint",
        "wrist_3_joint"
    ],
    "metrics": {
        "cart_traj_len": 0.7771575763017302,
        "distance_elbow_joint": 0.08140188645387836,
        "distance_shoulder_lift_joint": 0.7593834538820634,
        "distance_shoulder_pan_joint": 1.04328681268171,
        "distance_wrist_1_joint": 0.9843305680959538,
        "distance_wrist_2_joint": 1.1432568839322983,
        "distance_wrist_3_joint": 1.8138598403902821,
        "smoothness": 1.104964717046677,
        "time": 0.185940038,
        "traj_len": 2.413611287145506,
        "weighted_distance": 3.4030613538760957
    },
    "planner": "ProjEST",
    "start": {
        "state": {
            "elbow_joint": 2.4225746994637096,
            "shoulder_lift_joint": -1.373653595662188,
            "shoulder_pan_joint": -0.3378633848294565,
            "wrist_1_joint": -1.0288595594406726,
            "wrist_2_joint": 1.2330228066703421,
            "wrist_3_joint": 3.189163495502006
        }
    },
    "waypoints": [
        {
            "positions": [
                -0.3378633848294565,
                -1.373653595662188,
                2.4225746994637096,
                -1.0288595594406726,
                1.2330228066703421,
                3.189163495502006
            ]
        },
        {
            "positions": [
                -0.31968549905292526,
                -1.4545283595615763,
                2.4259781748116986,
                -1.055880961666039,
                1.1283042808434909,
                3.072959882811592
            ]
        },
        {
            "positions": [
                -0.301507613276394,
                -1.5354031234609644,
                2.429381650159687,
                -1.082902363891405,
                1.0235857550166398,
                2.9567562701211783
            ]
        },
        {
            "positions": [
                -0.2833297274998628,
                -1.6162778873603525,
                2.4327851255076762,
                -1.1099237661167711,
                0.9188672291897886,
                2.8405526574307642
            ]
        },
        {
            "positions": [
                -0.2651518417233316,
                -1.6971526512597408,
                2.4361886008556652,
                -1.1369451683421374,
                0.8141487033629375,
                2.7243490447403502
            ]
        },
        {
            "positions": [
                -0.24697395594680036,
                -1.778027415159129,
                2.439592076203654,
                -1.1639665705675037,
                0.7094301775360863,
                2.6081454320499367
            ]
        },
        {
            "positions": [
                -0.22879607017026915,
                -1.8589021790585172,
                2.442995551551643,
                -1.1909879727928698,
                0.6047116517092351,
                2.4919418193595226
            ]
        },
        {
            "positions": [
                -0.21061818439373792,
                -1.9397769429579053,
                2.4463990268996314,
                -1.218009375018236,
                0.499993125882384,
                2.3757382066691086
            ]
        },
        {
            "positions": [
                -0.19244029861720668,
                -2.0206517068572936,
                2.4498025022476204,
                -1.2450307772436022,
                0.39527460005553283,
                2.259534593978695
            ]
        },
        {
            "positions": [
                -0.08020733280852416,
                -2.0066035390214236,
                2.4430307417888746,
                -1.1490108584569743,
                0.433463184720219,
                2.3700634613370664
            ]
        },
        {
            "positions": [
                0.03202563300015837,
                -1.9925553711855541,
                2.4362589813301287,
                -1.0529909396703463,
                0.47165176938490516,
                2.4805923286954377
            ]
        },
        {
            "positions": [
                0.1442585988088409,
                -1.9785072033496844,
                2.4294872208713825,
                -0.9569710208837181,
                0.5098403540495913,
                2.5911211960538094
            ]
        },
        {
            "positions": [
                0.2564915646175234,
                -1.9644590355138147,
                2.4227154604126366,
                -0.8609511020970901,
                0.5480289387142774,
                2.7016500634121807
            ]
        },
        {
            "positions": [
                0.3687245304262059,
                -1.9504108676779448,
                2.415943699953891,
                -0.7649311833104622,
                0.5862175233789636,
                2.812178930770552
            ]
        },
        {
            "positions": [
                0.4809574962348885,
                -1.936362699842075,
                2.4091719394951445,
                -0.6689112645238341,
                0.6244061080436497,
                2.922707798128924
            ]
        },
        {
            "positions": [
                0.5931904620435711,
                -1.9223145320062054,
                2.4024001790363987,
                -0.572891345737206,
                0.6625946927083359,
                3.033236665487295
            ]
        },
        {
            "positions": [
                0.7054234278522535,
                -1.9082663641703357,
                2.395628418577653,
                -0.4768714269505781,
                0.700783277373022,
                3.1437655328456664
            ]
        }
    ]
}