{
    "goal": {
        "global_pose": {
            "orientation": {
                "w": 0.5084816217422485,
                "x": -0.49083608388900757,
                "y": 0.5182115435600281,
                "z": -0.4816462993621826
            },
            "position": {
                "x": 0.5540239810943604,
                "y": 0.030875300988554955,
                "z": 0.16403168439865112
            }
        },
        "name": "move_to_storage_A"
    },
    "id": "ProjEST_move_to_storage_A_29",
    "joint_names": [
        "shoulder_pan_joint",
        "shoulder_lift_joint",
        "elbow_joint",
        "wrist_1_joint",
        "wrist_2_joint",
        "wrist_3_joint"
    ],
    "metrics": {
        "cart_traj_len": 0.3533009673210721,
        "distance_elbow_joint": 0.45460000758853636,
        "distance_shoulder_lift_joint": 0.23571870246637316,
        "distance_shoulder_pan_joint": 0.46292389390228567,
        "distance_wrist_1_joint": 0.25933750781825626,
        "distance_wrist_2_joint": 1.0964323816907005,
        "distance_wrist_3_joint": 0.09355733307401648,
        "smoothness": 8.881784232165597e-16,
        "time": 0.057459089,
        "traj_len": 1.6132482222336924,
        "weighted_distance": 2.036038895060003
    },
    "planner": "ProjEST",
    "start": {
        "state": {
            "elbow_joint": 1.971548880431181,
            "shoulder_lift_joint": -1.1394869514688781,
            "shoulder_pan_joint": 0.12281150262730567,
            "wrist_1_joint": -0.7804693444481463,
            "wrist_2_joint": 0.12958644648617612,
            "wrist_3_joint": 3.0906942077768043
        }
    },
    "waypoints": [
        {
            "positions": [
                0.12281150262730567,
                -1.1394869514688781,
                1.971548880431181,
                -0.7804693444481463,
                0.12958644648617612,
                3.0906942077768043
            ]
        },
        {
            "positions": [
                0.056679517784122,
                -1.1731610518212172,
                2.0364917386581145,
                -0.8175175598507544,
                0.28621964387056187,
                3.1040595410730925
            ]
        },
        {
            "positions": [
                -0.009452467059061664,
                -1.206835152173556,
                2.1014345968850483,
                -0.8545657752533624,
                0.44285284125494767,
                3.11742487436938
            ]
        },
        {
            "positions": [
                -0.07558445190224533,
                -1.2405092525258952,
                2.166377455111982,
                -0.8916139906559704,
                0.5994860386393335,
                3.1307902076656684
            ]
        },
        {
            "positions": [
                -0.141716436745429,
                -1.2741833528782343,
                2.231320313338916,
                -0.9286622060585784,
                0.7561192360237192,
                3.1441555409619566
            ]
        },
        {
            "positions": [
                -0.20784842158861266,
                -1.3078574532305733,
                2.2962631715658497,
                -0.9657104214611865,
                0.9127524334081051,
                3.157520874258245
            ]
        },
        {
            "positions": [
                -0.27398040643179633,
                -1.3415315535829122,
                2.3612060297927835,
                -1.0027586368637946,
                1.0693856307924907,
                3.1708862075545325
            ]
        },
        {
            "positions": [
                -0.34011239127498,
                -1.3752056539352513,
                2.4261488880197173,
                -1.0398068522664026,
                1.2260188281768767,
                3.1842515408508207
            ]
        }
    ]
}