{
    "goal": {
        "global_pose": {
            "orientation": {
                "w": 0.7047431493862688,
                "x": -0.7094548369677653,
                "y": 0.0024358444001904,
                "z": -0.0022348060817251984
            },
            "position": {
                "x": -0.39052492380142206,
                "y": 0.3671506643295288,
                "z": 0.19426114857196808
            }
        },
        "name": "move_to_magneteinheit_D"
    },
    "id": "ProjEST_move_to_magneteinheit_D_130",
    "joint_names": [
        "shoulder_pan_joint",
        "shoulder_lift_joint",
        "elbow_joint",
        "wrist_1_joint",
        "wrist_2_joint",
        "wrist_3_joint"
    ],
    "metrics": {
        "cart_traj_len": 5.018805282275712,
        "distance_elbow_joint": 3.9718018811472477,
        "distance_shoulder_lift_joint": 1.4582554270059112,
        "distance_shoulder_pan_joint": 3.6844919258361086,
        "distance_wrist_1_joint": 2.085787149777846,
        "distance_wrist_2_joint": 1.2039096026737084,
        "distance_wrist_3_joint": 6.290460067717833,
        "smoothness": 0.40709188812111446,
        "time": 0.530953788,
        "traj_len": 4.3237375098586455,
        "weighted_distance": 5.879228090663423
    },
    "planner": "ProjEST",
    "start": {
        "state": {
            "elbow_joint": 0.7495348899011911,
            "shoulder_lift_joint": -0.6476975780737668,
            "shoulder_pan_joint": -2.711696901376276,
            "wrist_1_joint": -0.0750647808097303,
            "wrist_2_joint": 0.43296659715458535,
            "wrist_3_joint": 3.1361499051832418
        }
    },
    "waypoints": [
        {
            "positions": [
                -2.711696901376276,
                -0.6476975780737668,
                0.7495348899011911,
                -0.0750647808097303,
                0.43296659715458535,
                3.1361499051832418
            ]
        },
        {
            "positions": [
                -2.717449401025493,
                -0.6773424018745309,
                0.7401617918458223,
                -0.09031892608341588,
                0.4324604309120319,
                3.097252894581594
            ]
        },
        {
            "positions": [
                -2.733546179642317,
                -0.7739500194640887,
                0.7114228342920794,
                -0.13389610291400894,
                0.42549398205612204,
                2.961157728259976
            ]
        },
        {
            "positions": [
                -2.7496429582591406,
                -0.8705576370536464,
                0.6826838767383365,
                -0.17747327974460197,
                0.41852753320021224,
                2.825062561938358
            ]
        },
        {
            "positions": [
                -2.7657397368759646,
                -0.9671652546432042,
                0.6539449191845936,
                -0.22105045657519504,
                0.4115610843443024,
                2.68896739561674
            ]
        },
        {
            "positions": [
                -2.67997482908142,
                -0.9864553133253161,
                0.5783824802478293,
                -0.2570322295962992,
                0.3970090053599488,
                2.5340584181779664
            ]
        },
        {
            "positions": [
                -2.594209921286875,
                -1.0057453720074279,
                0.5028200413110652,
                -0.2930140026174033,
                0.38245692637559525,
                2.3791494407391927
            ]
        },
        {
            "positions": [
                -2.5084450134923304,
                -1.0250354306895397,
                0.4272576023743009,
                -0.32899577563850746,
                0.36790484739124163,
                2.224240463300419
            ]
        },
        {
            "positions": [
                -2.4226801056977854,
                -1.0443254893716516,
                0.35169516343753665,
                -0.36497754865961163,
                0.35335276840688806,
                2.069331485861645
            ]
        },
        {
            "positions": [
                -2.3369151979032408,
                -1.0636155480537635,
                0.2761327245007724,
                -0.4009593216807158,
                0.3388006894225345,
                1.9144225084228716
            ]
        },
        {
            "positions": [
                -2.2511502901086957,
                -1.0829056067358753,
                0.20057028556400813,
                -0.4369410947018199,
                0.32424861043818093,
                1.759513530984098
            ]
        },
        {
            "positions": [
                -2.165385382314151,
                -1.1021956654179872,
                0.12500784662724396,
                -0.472922867722924,
                0.30969653145382736,
                1.6046045535453244
            ]
        },
        {
            "positions": [
                -2.079620474519606,
                -1.121485724100099,
                0.04944540769047967,
                -0.5089046407440282,
                0.2951444524694738,
                1.4496955761065506
            ]
        },
        {
            "positions": [
                -1.9938555667250615,
                -1.140775782782211,
                -0.026117031246284506,
                -0.5448864137651324,
                0.28059237348512023,
                1.294786598667777
            ]
        },
        {
            "positions": [
                -1.9080906589305167,
                -1.1600658414643228,
                -0.10167947018304879,
                -0.5808681867862365,
                0.2660402945007666,
                1.1398776212290032
            ]
        },
        {
            "positions": [
                -1.8223257511359718,
                -1.1793559001464347,
                -0.17724190911981308,
                -0.6168499598073406,
                0.25148821551641304,
                0.9849686437902294
            ]
        },
        {
            "positions": [
                -1.736560843341427,
                -1.1986459588285465,
                -0.25280434805657737,
                -0.6528317328284448,
                0.23693613653205947,
                0.8300596663514557
            ]
        },
        {
            "positions": [
                -1.6507959355468824,
                -1.2179360175106582,
                -0.32836678699334143,
                -0.6888135058495488,
                0.22238405754770593,
                0.6751506889126824
            ]
        },
        {
            "positions": [
                -1.5650310277523376,
                -1.23722607619277,
                -0.4039292259301057,
                -0.724795278870653,
                0.20783197856335234,
                0.5202417114739086
            ]
        },
        {
            "positions": [
                -1.4792661199577928,
                -1.256516134874882,
                -0.4794916648668699,
                -0.7607770518917572,
                0.19327989957899877,
                0.3653327340351349
            ]
        },
        {
            "positions": [
                -1.393501212163248,
                -1.2758061935569938,
                -0.5550541038036343,
                -0.7967588249128613,
                0.17872782059464518,
                0.21042375659636114
            ]
        },
        {
            "positions": [
                -1.3077363043687031,
                -1.2950962522391056,
                -0.6306165427403985,
                -0.8327405979339655,
                0.1641757416102916,
                0.0555147791575874
            ]
        },
        {
            "positions": [
                -1.2219713965741583,
                -1.3143863109212175,
                -0.7061789816771626,
                -0.8687223709550697,
                0.14962366262593801,
                -0.09939419828118634
            ]
        },
        {
            "positions": [
                -1.1362064887796135,
                -1.3336763696033294,
                -0.781741420613927,
                -0.9047041439761738,
                0.13507158364158445,
                -0.2543031757199601
            ]
        },
        {
            "positions": [
                -1.0504415809850687,
                -1.3529664282854412,
                -0.8573038595506912,
                -0.940685916997278,
                0.12051950465723088,
                -0.4092121531587338
            ]
        },
        {
            "positions": [
                -0.9646766731905239,
                -1.372256486967553,
                -0.9328662984874554,
                -0.976667690018382,
                0.10596742567287731,
                -0.5641211305975076
            ]
        },
        {
            "positions": [
                -0.878911765395979,
                -1.391546545649665,
                -1.0084287374242198,
                -1.0126494630394862,
                0.09141534668852369,
                -0.7190301080362813
            ]
        },
        {
            "positions": [
                -0.7931468576014342,
                -1.4108366043317768,
                -1.083991176360984,
                -1.0486312360605903,
                0.07686326770417012,
                -0.873939085475055
            ]
        },
        {
            "positions": [
                -0.7073819498068894,
                -1.4301266630138887,
                -1.1595536152977484,
                -1.0846130090816946,
                0.06231118871981656,
                -1.0288480629138288
            ]
        },
        {
            "positions": [
                -0.6216170420123448,
                -1.4494167216960006,
                -1.2351160542345125,
                -1.1205947821027986,
                0.04775910973546299,
                -1.1837570403526025
            ]
        },
        {
            "positions": [
                -0.5358521342178002,
                -1.4687067803781124,
                -1.3106784931712765,
                -1.1565765551239027,
                0.03320703075110948,
                -1.3386660177913754
            ]
        },
        {
            "positions": [
                -0.45008722642325516,
                -1.4879968390602243,
                -1.3862409321080407,
                -1.1925583281450067,
                0.018654951766755856,
                -1.4935749952301496
            ]
        },
        {
            "positions": [
                -0.36432231862871056,
                -1.5072868977423362,
                -1.461803371044805,
                -1.2285401011661108,
                0.004102872782402289,
                -1.6484839726689229
            ]
        },
        {
            "positions": [
                -0.2785574108341655,
                -1.526576956424448,
                -1.5373658099815695,
                -1.264521874187215,
                -0.010449206201951278,
                -1.803392950107697
            ]
        },
        {
            "positions": [
                -0.19279250303962092,
                -1.5458670151065597,
                -1.6129282489183334,
                -1.3005036472083191,
                -0.025001285186304845,
                -1.9583019275464704
            ]
        },
        {
            "positions": [
                -0.10702759524507588,
                -1.5651570737886715,
                -1.6884906878550978,
                -1.3364854202294234,
                -0.03955336417065841,
                -2.1132109049852446
            ]
        },
        {
            "positions": [
                -0.02126268745053128,
                -1.5844471324707834,
                -1.7640531267918622,
                -1.3724671932505275,
                -0.054105443155012034,
                -2.268119882424018
            ]
        },
        {
            "positions": [
                0.06450222034401376,
                -1.6037371911528953,
                -1.8396155657286262,
                -1.4084489662716317,
                -0.0686575221393656,
                -2.423028859862792
            ]
        },
        {
            "positions": [
                0.1502671281385582,
                -1.6230272498350071,
                -1.9151780046653903,
                -1.4444307392927358,
                -0.08320960112371915,
                -2.5779378373015653
            ]
        },
        {
            "positions": [
                0.17724728950190158,
                -1.6660615105163887,
                -2.04061628638628,
                -1.518015382535915,
                -0.04027646935632344,
                -2.6373255004404017
            ]
        },
        {
            "positions": [
                0.20422745086524496,
                -1.7090957711977703,
                -2.1660545681071692,
                -1.5916000257790943,
                0.0026566624110722775,
                -2.6967131635792376
            ]
        },
        {
            "positions": [
                0.23120761222858832,
                -1.752130031879152,
                -2.291492849828059,
                -1.6651846690222736,
                0.04558979417846799,
                -2.756100826718074
            ]
        },
        {
            "positions": [
                0.2581877735919317,
                -1.7951642925605333,
                -2.4169311315489486,
                -1.7387693122654528,
                0.08852292594586371,
                -2.8154884898569104
            ]
        },
        {
            "positions": [
                0.2851679349552751,
                -1.838198553241915,
                -2.542369413269838,
                -1.812353955508632,
                0.1314560577132594,
                -2.8748761529957467
            ]
        },
        {
            "positions": [
                0.3121480963186185,
                -1.8812328139232966,
                -2.6678076949907275,
                -1.8859385987518114,
                0.17438918948065513,
                -2.9342638161345826
            ]
        },
        {
            "positions": [
                0.33912825768196186,
                -1.9242670746046782,
                -2.793245976711617,
                -1.9595232419949906,
                0.21732232124805084,
                -2.993651479273419
            ]
        },
        {
            "positions": [
                0.23401203852626304,
                -1.8879298885096782,
                -2.7074417738047294,
                -1.9997889797135078,
                0.13988202484332407,
                -3.0257832159256535
            ]
        },
        {
            "positions": [
                0.1288958193705642,
                -1.8515927024146783,
                -2.621637570897841,
                -2.040054717432025,
                0.06244172843859727,
                -3.0579149525778875
            ]
        },
        {
            "positions": [
                0.023779600214865415,
                -1.8152555163196782,
                -2.5358333679909535,
                -2.080320455150542,
                -0.0149985679661295,
                -3.090046689230122
            ]
        },
        {
            "positions": [
                -0.08133661894083344,
                -1.7789183302246783,
                -2.4500291650840653,
                -2.1205861928690592,
                -0.0924388643708563,
                -3.122178425882356
            ]
        },
        {
            "positions": [
                -0.18645283809653226,
                -1.7425811441296783,
                -2.3642249621771776,
                -2.1608519305875764,
                -0.16987916077558307,
                -3.1543101625345904
            ]
        }
    ]
}