{
    "goal": {
        "global_pose": {
            "orientation": {
                "w": -0.4816463035849501,
                "x": 0.5182115481033762,
                "y": 0.4908360881923453,
                "z": -0.5084816262002911
            },
            "position": {
                "x": -0.8240239810943604,
                "y": 0.19912469901144506,
                "z": 0.16403168439865112
            }
        },
        "name": "move_to_storage_D"
    },
    "id": "ProjEST_move_to_storage_D_76",
    "joint_names": [
        "shoulder_pan_joint",
        "shoulder_lift_joint",
        "elbow_joint",
        "wrist_1_joint",
        "wrist_2_joint",
        "wrist_3_joint"
    ],
    "metrics": {
        "cart_traj_len": 0.5825501188793548,
        "distance_elbow_joint": 0.7990918233552442,
        "distance_shoulder_lift_joint": 0.21838117727042894,
        "distance_shoulder_pan_joint": 0.24097027834581067,
        "distance_wrist_1_joint": 3.8251555605493093,
        "distance_wrist_2_joint": 2.0676583304402527,
        "distance_wrist_3_joint": 3.1710100886393833,
        "smoothness": 0.5499857548945623,
        "time": 0.10488572800000001,
        "traj_len": 3.2128285448496046,
        "weighted_distance": 4.749431684619619
    },
    "planner": "ProjEST",
    "start": {
        "state": {
            "elbow_joint": -2.384821990628643,
            "shoulder_lift_joint": -2.278805467437664,
            "shoulder_pan_joint": -0.18546946439364564,
            "wrist_1_joint": 1.4845938187801415,
            "wrist_2_joint": 0.178987772454074,
            "wrist_3_joint": 0.03710569632802521
        }
    },
    "waypoints": [
        {
            "positions": [
                -0.18546946439364564,
                -2.278805467437664,
                -2.384821990628643,
                1.4845938187801415,
                0.178987772454074,
                0.03710569632802521
            ]
        },
        {
            "positions": [
                -0.18456733749037696,
                -2.2506836965516954,
                -2.445640885909585,
                1.4603260531135405,
                0.2524717766478032,
                0.17007203453467615
            ]
        },
        {
            "positions": [
                -0.18366521058710827,
                -2.222561925665727,
                -2.506459781190527,
                1.4360582874469392,
                0.3259557808415323,
                0.30303837274132706
            ]
        },
        {
            "positions": [
                -0.08646526105163431,
                -2.238977463633225,
                -2.4703467025569505,
                1.4257288782771889,
                0.2733518134732509,
                0.2997729437893148
            ]
        },
        {
            "positions": [
                0.010734688483839655,
                -2.255393001600723,
                -2.434233623923374,
                1.4153994691074385,
                0.22074784610496942,
                0.29650751483730253
            ]
        },
        {
            "positions": [
                0.008869433255992765,
                -2.2500052282855774,
                -2.409015795776449,
                1.2589010853209133,
                0.1451027466334598,
                0.4172802879340549
            ]
        },
        {
            "positions": [
                0.007004178028145874,
                -2.2446174549704314,
                -2.3837979676295236,
                1.102402701534388,
                0.06945764716195016,
                0.5380530610308072
            ]
        },
        {
            "positions": [
                0.005138922800298984,
                -2.239229681655286,
                -2.3585801394825983,
                0.9459043177478628,
                -0.006187452309559499,
                0.6588258341275597
            ]
        },
        {
            "positions": [
                0.0032736675724520936,
                -2.23384190834014,
                -2.333362311335673,
                0.7894059339613375,
                -0.0818325517810691,
                0.779598607224312
            ]
        },
        {
            "positions": [
                0.0014084123446052033,
                -2.2284541350249945,
                -2.3081444831887477,
                0.6329075501748122,
                -0.15747765125257882,
                0.9003713803210643
            ]
        },
        {
            "positions": [
                -0.0004568428832416871,
                -2.223066361709849,
                -2.2829266550418224,
                0.4764091663882869,
                -0.23312275072408842,
                1.0211441534178167
            ]
        },
        {
            "positions": [
                -0.0023220981110885774,
                -2.217678588394703,
                -2.257708826894897,
                0.31991078260176153,
                -0.30876785019559805,
                1.1419169265145692
            ]
        },
        {
            "positions": [
                -0.004187353338935468,
                -2.2122908150795575,
                -2.2324909987479717,
                0.1634123988152365,
                -0.3844129496671076,
                1.2626896996113213
            ]
        },
        {
            "positions": [
                -0.006052608566782358,
                -2.206903041764412,
                -2.2072731706010464,
                0.006914015028711029,
                -0.46005804913861725,
                1.3834624727080738
            ]
        },
        {
            "positions": [
                -0.007917863794629248,
                -2.201515268449266,
                -2.182055342454121,
                -0.14958436875781422,
                -0.535703148610127,
                1.5042352458048263
            ]
        },
        {
            "positions": [
                -0.009783119022476139,
                -2.1961274951341205,
                -2.156837514307196,
                -0.3060827525443395,
                -0.6113482480816366,
                1.6250080189015783
            ]
        },
        {
            "positions": [
                -0.01164837425032303,
                -2.190739721818975,
                -2.1316196861602705,
                -0.46258113633086473,
                -0.6869933475531462,
                1.7457807919983308
            ]
        },
        {
            "positions": [
                -0.01351362947816992,
                -2.185351948503829,
                -2.106401858013345,
                -0.6190795201173898,
                -0.7626384470246558,
                1.8665535650950833
            ]
        },
        {
            "positions": [
                -0.01537888470601681,
                -2.1799641751886836,
                -2.0811840298664195,
                -0.7755779039039155,
                -0.8382835464961655,
                1.9873263381918358
            ]
        },
        {
            "positions": [
                -0.0172441399338637,
                -2.1745764018735376,
                -2.055966201719494,
                -0.9320762876904407,
                -0.9139286459676752,
                2.108099111288588
            ]
        },
        {
            "positions": [
                -0.01910939516171059,
                -2.169188628558392,
                -2.030748373572569,
                -1.0885746714769655,
                -0.9895737454391846,
                2.2288718843853403
            ]
        },
        {
            "positions": [
                -0.02097465038955748,
                -2.1638008552432466,
                -2.0055305454256436,
                -1.2450730552634912,
                -1.0652188449106945,
                2.349644657482093
            ]
        },
        {
            "positions": [
                -0.02283990561740437,
                -2.1584130819281007,
                -1.9803127172787183,
                -1.4015714390500165,
                -1.140863944382204,
                2.4704174305788453
            ]
        },
        {
            "positions": [
                -0.02470516084525126,
                -2.153025308612955,
                -1.955094889131793,
                -1.5580698228365413,
                -1.2165090438537136,
                2.5911902036755974
            ]
        },
        {
            "positions": [
                -0.026570416073098152,
                -2.147637535297809,
                -1.9298770609848677,
                -1.714568206623067,
                -1.2921541433252235,
                2.71196297677235
            ]
        },
        {
            "positions": [
                -0.028435671300945042,
                -2.1422497619826637,
                -1.9046592328379424,
                -1.8710665904095922,
                -1.367799242796733,
                2.8327357498691024
            ]
        },
        {
            "positions": [
                -0.030300926528791933,
                -2.136861988667518,
                -1.879441404691017,
                -2.0275649741961175,
                -1.4434443422682426,
                2.9535085229658544
            ]
        },
        {
            "positions": [
                -0.03216618175663882,
                -2.1314742153523722,
                -1.8542235765440918,
                -2.1840633579826427,
                -1.5190894417397522,
                3.0742812960626074
            ]
        },
        {
            "positions": [
                -0.03403143698448571,
                -2.1260864420372267,
                -1.8290057483971665,
                -2.340561741769168,
                -1.594734541211262,
                3.1950540691593594
            ]
        }
    ]
}