{
    "goal": {
        "global_pose": {
            "orientation": {
                "w": -0.4816463035849501,
                "x": 0.5182115481033762,
                "y": 0.4908360881923453,
                "z": -0.5084816262002911
            },
            "position": {
                "x": -0.8240239810943604,
                "y": 0.19912469901144506,
                "z": 0.16403168439865112
            }
        },
        "name": "move_to_storage_D"
    },
    "id": "ProjEST_move_to_storage_D_2",
    "joint_names": [
        "shoulder_pan_joint",
        "shoulder_lift_joint",
        "elbow_joint",
        "wrist_1_joint",
        "wrist_2_joint",
        "wrist_3_joint"
    ],
    "metrics": {
        "cart_traj_len": 3.841488181897021,
        "distance_elbow_joint": 4.3740659888752,
        "distance_shoulder_lift_joint": 1.2757542010043943,
        "distance_shoulder_pan_joint": 2.908698305264509,
        "distance_wrist_1_joint": 2.267992014172329,
        "distance_wrist_2_joint": 0.8691291839352333,
        "distance_wrist_3_joint": 3.132554818115723,
        "smoothness": 0.31937285702990514,
        "time": 0.206521532,
        "traj_len": 3.8507394759146445,
        "weighted_distance": 4.922440994639388
    },
    "planner": "ProjEST",
    "start": {
        "state": {
            "elbow_joint": -2.384821990628643,
            "shoulder_lift_joint": -2.278805467437664,
            "shoulder_pan_joint": -0.18546946439364564,
            "wrist_1_joint": 1.4845938187801415,
            "wrist_2_joint": 0.178987772454074,
            "wrist_3_joint": 0.03710569632802521
        }
    },
    "waypoints": [
        {
            "positions": [
                -0.18546946439364564,
                -2.278805467437664,
                -2.384821990628643,
                1.4845938187801415,
                0.178987772454074,
                0.03710569632802521
            ]
        },
        {
            "positions": [
                -0.23391586213062027,
                -2.217497676521686,
                -2.4662749042938867,
                1.4811369101758836,
                0.21394314888196103,
                -0.01889701888289963
            ]
        },
        {
            "positions": [
                -0.16692210427660054,
                -2.1723458786137098,
                -2.401880560619045,
                1.4209697137283441,
                0.2739417783539502,
                -0.047602441098857994
            ]
        },
        {
            "positions": [
                -0.09992834642258083,
                -2.1271940807057335,
                -2.337486216944203,
                1.3608025172808045,
                0.33394040782593937,
                -0.07630786331481636
            ]
        },
        {
            "positions": [
                -0.0329345885685611,
                -2.082042282797757,
                -2.2730918732693617,
                1.300635320833265,
                0.39393903729792856,
                -0.10501328553077473
            ]
        },
        {
            "positions": [
                0.05177813722887263,
                -2.0437201803081337,
                -2.1636341777800734,
                1.2465374933601616,
                0.40644036586429433,
                -0.19955248934338168
            ]
        },
        {
            "positions": [
                0.13649086302630636,
                -2.0053980778185103,
                -2.0541764822907855,
                1.1924396658870582,
                0.4189416944306601,
                -0.29409169315598865
            ]
        },
        {
            "positions": [
                0.2212035888237401,
                -1.967075975328887,
                -1.9447187868014975,
                1.1383418384139548,
                0.43144302299702586,
                -0.3886308969685956
            ]
        },
        {
            "positions": [
                0.30591631462117386,
                -1.9287538728392635,
                -1.8352610913122094,
                1.0842440109408513,
                0.4439443515633916,
                -0.48317010078120254
            ]
        },
        {
            "positions": [
                0.3906290404186076,
                -1.89043177034964,
                -1.7258033958229213,
                1.0301461834677479,
                0.4564456801297574,
                -0.5777093045938095
            ]
        },
        {
            "positions": [
                0.4753417662160413,
                -1.8521096678600166,
                -1.6163457003336332,
                0.9760483559946445,
                0.46894700869612316,
                -0.6722485084064165
            ]
        },
        {
            "positions": [
                0.560054492013475,
                -1.8137875653703932,
                -1.5068880048443452,
                0.921950528521541,
                0.4814483372624889,
                -0.7667877122190234
            ]
        },
        {
            "positions": [
                0.6447672178109087,
                -1.7754654628807698,
                -1.397430309355057,
                0.8678527010484376,
                0.4939496658288547,
                -0.8613269160316304
            ]
        },
        {
            "positions": [
                0.7294799436083426,
                -1.7371433603911461,
                -1.2879726138657688,
                0.813754873575334,
                0.5064509943952205,
                -0.9558661198442374
            ]
        },
        {
            "positions": [
                0.8141926694057763,
                -1.6988212579015227,
                -1.178514918376481,
                0.7596570461022306,
                0.5189523229615862,
                -1.0504053236568445
            ]
        },
        {
            "positions": [
                0.8989053952032099,
                -1.6604991554118993,
                -1.0690572228871928,
                0.7055592186291272,
                0.531453651527952,
                -1.1449445274694514
            ]
        },
        {
            "positions": [
                0.9836181210006437,
                -1.6221770529222759,
                -0.9595995273979048,
                0.6514613911560238,
                0.5439549800943178,
                -1.2394837312820584
            ]
        },
        {
            "positions": [
                1.0683308467980777,
                -1.5838549504326525,
                -0.8501418319086167,
                0.5973635636829203,
                0.5564563086606835,
                -1.3340229350946653
            ]
        },
        {
            "positions": [
                1.1530435725955113,
                -1.545532847943029,
                -0.7406841364193286,
                0.5432657362098169,
                0.5689576372270493,
                -1.4285621389072722
            ]
        },
        {
            "positions": [
                1.2377562983929449,
                -1.5072107454534056,
                -0.6312264409300405,
                0.48916790873671345,
                0.581458965793415,
                -1.5231013427198792
            ]
        },
        {
            "positions": [
                1.3224690241903787,
                -1.4688886429637822,
                -0.5217687454407525,
                0.43507008126361,
                0.5939602943597808,
                -1.6176405465324861
            ]
        },
        {
            "positions": [
                1.4071817499878123,
                -1.4305665404741588,
                -0.4123110499514646,
                0.3809722537905066,
                0.6064616229261466,
                -1.712179750345093
            ]
        },
        {
            "positions": [
                1.4918944757852464,
                -1.3922444379845351,
                -0.3028533544621761,
                0.32687442631740304,
                0.6189629514925125,
                -1.8067189541577002
            ]
        },
        {
            "positions": [
                1.57660720158268,
                -1.3539223354949117,
                -0.19339565897288802,
                0.2727765988442996,
                0.6314642800588782,
                -1.9012581579703072
            ]
        },
        {
            "positions": [
                1.6613199273801138,
                -1.3156002330052883,
                -0.08393796348360016,
                0.21867877137119618,
                0.643965608625244,
                -1.9957973617829141
            ]
        },
        {
            "positions": [
                1.7460326531775474,
                -1.2772781305156649,
                0.025519732005688134,
                0.16458094389809275,
                0.6564669371916098,
                -2.090336565595521
            ]
        },
        {
            "positions": [
                1.830745378974981,
                -1.2389560280260414,
                0.134977427494976,
                0.11048311642498931,
                0.6689682657579754,
                -2.1848757694081278
            ]
        },
        {
            "positions": [
                1.9154581047724148,
                -1.200633925536418,
                0.24443512298426384,
                0.05638528895188588,
                0.6814695943243412,
                -2.2794149732207347
            ]
        },
        {
            "positions": [
                2.0001708305698487,
                -1.1623118230467946,
                0.35389281847355214,
                0.0022874614787824488,
                0.6939709228907069,
                -2.3739541770333417
            ]
        },
        {
            "positions": [
                2.0848835563672825,
                -1.1239897205571712,
                0.46335051396284044,
                -0.051810365994320984,
                0.7064722514570728,
                -2.4684933808459486
            ]
        },
        {
            "positions": [
                2.1695962821647163,
                -1.0856676180675477,
                0.5728082094521283,
                -0.10590819346742442,
                0.7189735800234386,
                -2.5630325846585555
            ]
        },
        {
            "positions": [
                2.2543090079621497,
                -1.0473455155779243,
                0.6822659049414166,
                -0.16000602094052785,
                0.7314749085898044,
                -2.6575717884711625
            ]
        },
        {
            "positions": [
                2.3390217337595836,
                -1.009023413088301,
                0.7917236004307047,
                -0.21410384841363125,
                0.7439762371561701,
                -2.7521109922837694
            ]
        },
        {
            "positions": [
                2.380066635422059,
                -1.0098765768961626,
                0.9395256819286137,
                -0.29543161226771075,
                0.7874249113323326,
                -2.8011592964986165
            ]
        },
        {
            "positions": [
                2.421111537084535,
                -1.010729740704024,
                1.0873277634265228,
                -0.3767593761217902,
                0.830873585508495,
                -2.850207600713463
            ]
        },
        {
            "positions": [
                2.4621564387470105,
                -1.0115829045118858,
                1.235129844924432,
                -0.4580871399758697,
                0.8743222596846575,
                -2.89925590492831
            ]
        },
        {
            "positions": [
                2.5032013404094866,
                -1.0124360683197473,
                1.3829319264223412,
                -0.5394149038299492,
                0.91777093386082,
                -2.948304209143157
            ]
        },
        {
            "positions": [
                2.5442462420719623,
                -1.013289232127609,
                1.5307340079202503,
                -0.6207426676840286,
                0.9612196080369824,
                -2.997352513358004
            ]
        },
        {
            "positions": [
                2.585291143734438,
                -1.0141423959354705,
                1.6785360894181593,
                -0.7020704315381081,
                1.004668282213145,
                -3.0464008175728505
            ]
        },
        {
            "positions": [
                2.6263360453969136,
                -1.0149955597433322,
                1.8263381709160684,
                -0.7833981953921876,
                1.0481169563893074,
                -3.0954491217876976
            ]
        }
    ]
}