{
    "goal": {
        "global_pose": {
            "orientation": {
                "w": 0.005598929693374612,
                "x": 0.007748599140229565,
                "y": 0.7110244013736278,
                "z": -0.7031023480610252
            },
            "position": {
                "x": 0.1141497679147869,
                "y": -0.7141253447532654,
                "z": 0.3711530566215515
            }
        },
        "name": "move_to_auspresseinheit_B"
    },
    "id": "ProjEST_move_to_auspresseinheit_B_25",
    "joint_names": [
        "shoulder_pan_joint",
        "shoulder_lift_joint",
        "elbow_joint",
        "wrist_1_joint",
        "wrist_2_joint",
        "wrist_3_joint"
    ],
    "metrics": {
        "cart_traj_len": 0.5651873842256004,
        "distance_elbow_joint": 0.06076085378383156,
        "distance_shoulder_lift_joint": 0.2961193365857455,
        "distance_shoulder_pan_joint": 0.5752161655697259,
        "distance_wrist_1_joint": 0.3181730843185978,
        "distance_wrist_2_joint": 1.0059180688342995,
        "distance_wrist_3_joint": 0.005981667941246993,
        "smoothness": 5.075305255429287e-16,
        "time": 0.130907905,
        "traj_len": 1.5040509223538434,
        "weighted_distance": 1.896898433250668
    },
    "planner": "ProjEST",
    "start": {
        "state": {
            "elbow_joint": 2.0193061681459312,
            "shoulder_lift_joint": -1.1220205130644991,
            "shoulder_pan_joint": -1.0952072088045026,
            "wrist_1_joint": -0.8559671810662515,
            "wrist_2_joint": 0.4759638712940361,
            "wrist_3_joint": 3.159081874192446
        }
    },
    "waypoints": [
        {
            "positions": [
                -1.0952072088045026,
                -1.1220205130644991,
                2.0193061681459312,
                -0.8559671810662515,
                0.4759638712940361,
                3.159081874192446
            ]
        },
        {
            "positions": [
                -1.1910765697327903,
                -1.1713737358287901,
                2.0091793591819593,
                -0.8029383336798185,
                0.6436168827664194,
                3.1580849295355717
            ]
        },
        {
            "positions": [
                -1.286945930661078,
                -1.220726958593081,
                1.9990525502179874,
                -0.7499094862933855,
                0.8112698942388026,
                3.157087984878697
            ]
        },
        {
            "positions": [
                -1.3828152915893654,
                -1.2700801813573719,
                1.9889257412540156,
                -0.6968806389069526,
                0.9789229057111859,
                3.1560910402218223
            ]
        },
        {
            "positions": [
                -1.4786846525176531,
                -1.3194334041216629,
                1.9787989322900434,
                -0.6438517915205196,
                1.146575917183569,
                3.155094095564948
            ]
        },
        {
            "positions": [
                -1.5745540134459408,
                -1.3687866268859537,
                1.9686721233260716,
                -0.5908229441340866,
                1.3142289286559523,
                3.1540971509080737
            ]
        },
        {
            "positions": [
                -1.6704233743742285,
                -1.4181398496502446,
                1.9585453143620997,
                -0.5377940967476537,
                1.4818819401283356,
                3.153100206251199
            ]
        }
    ]
}