{
    "goal": {
        "global_pose": {
            "orientation": {
                "w": 0.5084816262002911,
                "x": -0.4908360881923452,
                "y": 0.5182115481033761,
                "z": -0.48164630358495003
            },
            "position": {
                "x": 0.5540239810943604,
                "y": -0.46912469901144505,
                "z": 0.16403168439865112
            }
        },
        "name": "move_to_storage_B"
    },
    "id": "ProjEST_move_to_storage_B_71",
    "joint_names": [
        "shoulder_pan_joint",
        "shoulder_lift_joint",
        "elbow_joint",
        "wrist_1_joint",
        "wrist_2_joint",
        "wrist_3_joint"
    ],
    "metrics": {
        "cart_traj_len": 4.292436659540924,
        "distance_elbow_joint": 2.9932317650386073,
        "distance_shoulder_lift_joint": 2.0279498285401347,
        "distance_shoulder_pan_joint": 3.607496621066395,
        "distance_wrist_1_joint": 2.984841567388977,
        "distance_wrist_2_joint": 2.699586725269519,
        "distance_wrist_3_joint": 3.1411984590205315,
        "smoothness": 0.31722648383505525,
        "time": 0.13311285099999998,
        "traj_len": 4.177834961594842,
        "weighted_distance": 5.424124830516323
    },
    "planner": "ProjEST",
    "start": {
        "state": {
            "elbow_joint": 1.6649325340416963,
            "shoulder_lift_joint": -0.6616387945129425,
            "shoulder_pan_joint": -0.9139837929255878,
            "wrist_1_joint": 2.1467571094334352,
            "wrist_2_joint": -2.234195976750228,
            "wrist_3_joint": 0.005470921511140723
        }
    },
    "waypoints": [
        {
            "positions": [
                -0.9139837929255878,
                -0.6616387945129425,
                1.6649325340416963,
                2.1467571094334352,
                -2.234195976750228,
                0.005470921511140723
            ]
        },
        {
            "positions": [
                -0.8426350825063498,
                -0.7134349506976712,
                1.6098345213466159,
                2.04556889349403,
                -2.1789805531509345,
                -0.04822039602592336
            ]
        },
        {
            "positions": [
                -0.7712863720871116,
                -0.7652311068823999,
                1.5547365086515352,
                1.9443806775546248,
                -2.123765129551641,
                -0.10191171356298745
            ]
        },
        {
            "positions": [
                -0.6999376616678734,
                -0.8170272630671286,
                1.4996384959564548,
                1.8431924616152195,
                -2.0685497059523477,
                -0.15560303110005153
            ]
        },
        {
            "positions": [
                -0.6285889512486353,
                -0.8688234192518572,
                1.4445404832613744,
                1.7420042456758145,
                -2.0133342823530547,
                -0.2092943486371156
            ]
        },
        {
            "positions": [
                -0.5572402408293973,
                -0.920619575436586,
                1.3894424705662938,
                1.6408160297364094,
                -1.9581188587537612,
                -0.26298566617417973
            ]
        },
        {
            "positions": [
                -0.4858915304101591,
                -0.9724157316213147,
                1.3343444578712134,
                1.539627813797004,
                -1.9029034351544678,
                -0.3166769837112438
            ]
        },
        {
            "positions": [
                -0.4145428199909209,
                -1.0242118878060433,
                1.279246445176133,
                1.4384395978575988,
                -1.8476880115551744,
                -0.37036830124830794
            ]
        },
        {
            "positions": [
                -0.34319410957168284,
                -1.076008043990772,
                1.2241484324810523,
                1.3372513819181937,
                -1.792472587955881,
                -0.42405961878537196
            ]
        },
        {
            "positions": [
                -0.27184539915244477,
                -1.1278042001755009,
                1.169050419785972,
                1.2360631659787886,
                -1.7372571643565875,
                -0.47775093632243604
            ]
        },
        {
            "positions": [
                -0.20049668873320659,
                -1.1796003563602295,
                1.1139524070908915,
                1.1348749500393833,
                -1.6820417407572943,
                -0.5314422538595002
            ]
        },
        {
            "positions": [
                -0.12914797831396851,
                -1.2313965125449582,
                1.0588543943958109,
                1.0336867340999782,
                -1.626826317158001,
                -0.5851335713965642
            ]
        },
        {
            "positions": [
                -0.05779926789473033,
                -1.2831926687296868,
                1.0037563817007304,
                0.9324985181605729,
                -1.5716108935587076,
                -0.6388248889336283
            ]
        },
        {
            "positions": [
                0.013549442524507738,
                -1.3349888249144155,
                0.94865836900565,
                0.8313103022211679,
                -1.5163954699594142,
                -0.6925162064706923
            ]
        },
        {
            "positions": [
                0.08489815294374603,
                -1.3867849810991442,
                0.8935603563105694,
                0.7301220862817626,
                -1.4611800463601208,
                -0.7462075240077566
            ]
        },
        {
            "positions": [
                0.1562468633629841,
                -1.4385811372838728,
                0.838462343615489,
                0.6289338703423573,
                -1.4059646227608273,
                -0.7998988415448206
            ]
        },
        {
            "positions": [
                0.22759557378222217,
                -1.4903772934686015,
                0.7833643309204086,
                0.5277456544029522,
                -1.3507491991615341,
                -0.8535901590818846
            ]
        },
        {
            "positions": [
                0.29894428420146046,
                -1.5421734496533304,
                0.728266318225328,
                0.4265574384635469,
                -1.2955337755622405,
                -0.9072814766189488
            ]
        },
        {
            "positions": [
                0.3702929946206983,
                -1.593969605838059,
                0.6731683055302475,
                0.3253692225241418,
                -1.2403183519629473,
                -0.9609727941560128
            ]
        },
        {
            "positions": [
                0.4416417050399364,
                -1.6457657620227877,
                0.6180702928351671,
                0.22418100658473672,
                -1.185102928363654,
                -1.0146641116930768
            ]
        },
        {
            "positions": [
                0.5129904154591747,
                -1.6975619182075166,
                0.5629722801400865,
                0.12299279064533142,
                -1.1298875047643606,
                -1.068355429230141
            ]
        },
        {
            "positions": [
                0.5843391258784127,
                -1.7493580743922452,
                0.5078742674450061,
                0.02180457470592634,
                -1.0746720811650672,
                -1.122046746767205
            ]
        },
        {
            "positions": [
                0.6556878362976508,
                -1.8011542305769737,
                0.45277625474992567,
                -0.07938364123347874,
                -1.019456657565774,
                -1.175738064304269
            ]
        },
        {
            "positions": [
                0.7270365467168891,
                -1.8529503867617025,
                0.39767824205484503,
                -0.18057185717288426,
                -0.9642412339664803,
                -1.229429381841333
            ]
        },
        {
            "positions": [
                0.7983852571361272,
                -1.9047465429464312,
                0.34258022935976457,
                -0.2817600731122892,
                -0.9090258103671871,
                -1.2831206993783972
            ]
        },
        {
            "positions": [
                0.7081410870882852,
                -1.8673731105604003,
                0.42214591794817774,
                -0.3082517104857772,
                -0.8435774028011642,
                -1.3713400726227303
            ]
        },
        {
            "positions": [
                0.6178969170404432,
                -1.8299996781743697,
                0.501711606536591,
                -0.33474334785926524,
                -0.7781289952351415,
                -1.4595594458670633
            ]
        },
        {
            "positions": [
                0.5276527469926013,
                -1.7926262457883388,
                0.581277295125004,
                -0.36123498523275327,
                -0.7126805876691187,
                -1.5477788191113964
            ]
        },
        {
            "positions": [
                0.4374085769447593,
                -1.7552528134023082,
                0.6608429837134173,
                -0.3877266226062413,
                -0.6472321801030958,
                -1.6359981923557294
            ]
        },
        {
            "positions": [
                0.34716440689691735,
                -1.7178793810162774,
                0.7404086723018304,
                -0.41421825997972933,
                -0.5817837725370729,
                -1.7242175656000625
            ]
        },
        {
            "positions": [
                0.2569202368490754,
                -1.6805059486302465,
                0.8199743608902437,
                -0.44070989735321736,
                -0.5163353649710501,
                -1.8124369388443955
            ]
        },
        {
            "positions": [
                0.16667606680123348,
                -1.6431325162442159,
                0.8995400494786567,
                -0.4672015347267054,
                -0.4508869574050273,
                -1.9006563120887283
            ]
        },
        {
            "positions": [
                0.07643189675339146,
                -1.605759083858185,
                0.97910573806707,
                -0.4936931721001934,
                -0.3854385498390045,
                -1.9888756853330616
            ]
        },
        {
            "positions": [
                -0.01381227329445045,
                -1.5683856514721541,
                1.058671426655483,
                -0.5201848094736814,
                -0.3199901422729817,
                -2.0770950585773944
            ]
        },
        {
            "positions": [
                -0.10405644334229247,
                -1.5310122190861235,
                1.1382371152438964,
                -0.5466764468471694,
                -0.25454173470695884,
                -2.1653144318217277
            ]
        },
        {
            "positions": [
                -0.1943006133901345,
                -1.4936387867000926,
                1.2178028038323097,
                -0.5731680842206575,
                -0.18909332714093596,
                -2.2535338050660605
            ]
        },
        {
            "positions": [
                -0.2845447834379764,
                -1.456265354314062,
                1.2973684924207227,
                -0.5996597215941455,
                -0.12364491957491319,
                -2.3417531783103938
            ]
        },
        {
            "positions": [
                -0.3747889534858184,
                -1.4188919219280312,
                1.376934181009136,
                -0.6261513589676335,
                -0.05819651200889031,
                -2.4299725515547266
            ]
        },
        {
            "positions": [
                -0.4650331235336602,
                -1.3815184895420005,
                1.456499869597549,
                -0.6526429963411216,
                0.0072518955571324595,
                -2.5181919247990594
            ]
        },
        {
            "positions": [
                -0.5552772935815025,
                -1.3441450571559694,
                1.5360655581859624,
                -0.6791346337146096,
                0.07270030312315534,
                -2.6064112980433927
            ]
        },
        {
            "positions": [
                -0.6455214636293443,
                -1.3067716247699388,
                1.6156312467743754,
                -0.7056262710880976,
                0.1381487106891781,
                -2.694630671287726
            ]
        },
        {
            "positions": [
                -0.7357656336771863,
                -1.2693981923839082,
                1.6951969353627887,
                -0.7321179084615856,
                0.203597118255201,
                -2.7828500445320588
            ]
        },
        {
            "positions": [
                -0.8260098037250281,
                -1.2320247599978773,
                1.7747626239512018,
                -0.7586095458350737,
                0.26904552582122365,
                -2.8710694177763916
            ]
        },
        {
            "positions": [
                -0.9162539737728703,
                -1.1946513276118464,
                1.854328312539615,
                -0.7851011832085617,
                0.33449393338724676,
                -2.959288791020725
            ]
        },
        {
            "positions": [
                -1.0064981438207121,
                -1.1572778952258158,
                1.9338940011280281,
                -0.8115928205820497,
                0.3999423409532694,
                -3.047508164265058
            ]
        },
        {
            "positions": [
                -1.0967423138685541,
                -1.119904462839785,
                2.0134596897164414,
                -0.8380844579555378,
                0.4653907485192924,
                -3.135727537509391
            ]
        }
    ]
}