{
    "goal": {
        "global_pose": {
            "orientation": {
                "w": 0.7031023480610252,
                "x": -0.7110244013736278,
                "y": 0.0077485991402295624,
                "z": 0.005598929693374583
            },
            "position": {
                "x": -0.8841497679147869,
                "y": 0.44412534475326537,
                "z": 0.3711530566215515
            }
        },
        "name": "move_to_auspresseinheit_D"
    },
    "id": "ProjEST_move_to_auspresseinheit_D_64",
    "joint_names": [
        "shoulder_pan_joint",
        "shoulder_lift_joint",
        "elbow_joint",
        "wrist_1_joint",
        "wrist_2_joint",
        "wrist_3_joint"
    ],
    "metrics": {
        "cart_traj_len": 0.3424523945320562,
        "distance_elbow_joint": 0.6310526343937823,
        "distance_shoulder_lift_joint": 0.11745086735618582,
        "distance_shoulder_pan_joint": 0.13330303757860584,
        "distance_wrist_1_joint": 0.5044400284076778,
        "distance_wrist_2_joint": 1.445312307577329,
        "distance_wrist_3_joint": 0.020822427845607283,
        "smoothness": 3.947459674368863e-16,
        "time": 0.028342444,
        "traj_len": 1.6888994354783793,
        "weighted_distance": 2.2008585812894497
    },
    "planner": "ProjEST",
    "start": {
        "state": {
            "elbow_joint": -1.8275484843655228,
            "shoulder_lift_joint": -2.1267897864000416,
            "shoulder_pan_joint": -0.035127520176001514,
            "wrist_1_joint": -2.3477863256791385,
            "wrist_2_joint": -1.605890476484521,
            "wrist_3_joint": -3.0880375317375353
        }
    },
    "waypoints": [
        {
            "positions": [
                -0.035127520176001514,
                -2.1267897864000416,
                -1.8275484843655228,
                -2.3477863256791385,
                -1.605890476484521,
                -3.0880375317375353
            ]
        },
        {
            "positions": [
                -0.051790399873327245,
                -2.141471144819565,
                -1.7486669050663,
                -2.4108413292300983,
                -1.425226438037355,
                -3.0906403352182363
            ]
        },
        {
            "positions": [
                -0.06845327957065298,
                -2.1561525032390882,
                -1.6697853257670772,
                -2.4738963327810577,
                -1.2445623995901887,
                -3.093243138698937
            ]
        },
        {
            "positions": [
                -0.0851161592679787,
                -2.170833861658611,
                -1.5909037464678544,
                -2.5369513363320175,
                -1.0638983611430226,
                -3.095845942179638
            ]
        },
        {
            "positions": [
                -0.10177903896530444,
                -2.1855152200781345,
                -1.5120221671686316,
                -2.6000063398829774,
                -0.8832343226958564,
                -3.098448745660339
            ]
        },
        {
            "positions": [
                -0.11844191866263017,
                -2.200196578497658,
                -1.4331405878694088,
                -2.663061343433937,
                -0.7025702842486903,
                -3.1010515491410398
            ]
        },
        {
            "positions": [
                -0.1351047983599559,
                -2.2148779369171807,
                -1.354259008570186,
                -2.726116346984897,
                -0.5219062458015242,
                -3.103654352621741
            ]
        },
        {
            "positions": [
                -0.15176767805728164,
                -2.229559295336704,
                -1.2753774292709632,
                -2.7891713505358564,
                -0.34124220735435795,
                -3.1062571561024415
            ]
        },
        {
            "positions": [
                -0.16843055775460736,
                -2.2442406537562274,
                -1.1964958499717404,
                -2.8522263540868162,
                -0.16057816890719193,
                -3.1088599595831425
            ]
        }
    ]
}