{
    "goal": {
        "global_pose": {
            "orientation": {
                "w": -0.4816463035849501,
                "x": 0.5182115481033762,
                "y": 0.4908360881923453,
                "z": -0.5084816262002911
            },
            "position": {
                "x": -0.8240239810943604,
                "y": -0.300875300988555,
                "z": 0.16403168439865112
            }
        },
        "name": "move_to_storage_C"
    },
    "id": "ProjEST_move_to_storage_C_27",
    "joint_names": [
        "shoulder_pan_joint",
        "shoulder_lift_joint",
        "elbow_joint",
        "wrist_1_joint",
        "wrist_2_joint",
        "wrist_3_joint"
    ],
    "metrics": {
        "cart_traj_len": 0.5767970729007472,
        "distance_elbow_joint": 0.26101137290681264,
        "distance_shoulder_lift_joint": 0.18972827757009036,
        "distance_shoulder_pan_joint": 0.4939741469775867,
        "distance_wrist_1_joint": 0.08887464530646683,
        "distance_wrist_2_joint": 1.0737831199706174,
        "distance_wrist_3_joint": 0.05956553616279647,
        "smoothness": 0.0,
        "time": 0.131630219,
        "traj_len": 1.4720520027819568,
        "weighted_distance": 1.8570745640649564
    },
    "planner": "ProjEST",
    "start": {
        "state": {
            "elbow_joint": 2.0108683149792914,
            "shoulder_lift_joint": -1.1634956873317392,
            "shoulder_pan_joint": -2.4736205022346,
            "wrist_1_joint": -0.8367026793690192,
            "wrist_2_joint": 0.6746043897045053,
            "wrist_3_joint": 3.133522094754363
        }
    },
    "waypoints": [
        {
            "positions": [
                -2.4736205022346,
                -1.1634956873317392,
                2.0108683149792914,
                -0.8367026793690192,
                0.6746043897045053,
                3.133522094754363
            ]
        },
        {
            "positions": [
                -2.5559495267308643,
                -1.1318743077367242,
                1.9673664194948226,
                -0.8218902384846081,
                0.8535682430329415,
                3.143449684114829
            ]
        },
        {
            "positions": [
                -2.638278551227129,
                -1.100252928141709,
                1.9238645240103538,
                -0.8070777976001969,
                1.0325320963613778,
                3.153377273475295
            ]
        },
        {
            "positions": [
                -2.7206075757233936,
                -1.0686315485466942,
                1.880362628525885,
                -0.7922653567157858,
                1.2114959496898141,
                3.163304862835761
            ]
        },
        {
            "positions": [
                -2.802936600219658,
                -1.037010168951679,
                1.8368607330414164,
                -0.7774529158313747,
                1.3904598030182502,
                3.1732324521962276
            ]
        },
        {
            "positions": [
                -2.885265624715922,
                -1.005388789356664,
                1.7933588375569476,
                -0.7626404749469635,
                1.5694236563466863,
                3.1831600415566936
            ]
        },
        {
            "positions": [
                -2.9675946492121867,
                -0.9737674097616489,
                1.7498569420724788,
                -0.7478280340625524,
                1.7483875096751227,
                3.1930876309171596
            ]
        }
    ]
}