{
    "goal": {
        "global_pose": {
            "orientation": {
                "w": 0.005598929693374612,
                "x": 0.007748599140229565,
                "y": 0.7110244013736278,
                "z": -0.7031023480610252
            },
            "position": {
                "x": -0.8858502320852131,
                "y": -0.7141253447532654,
                "z": 0.3711530566215515
            }
        },
        "name": "move_to_auspresseinheit_C"
    },
    "id": "ProjEST_move_to_auspresseinheit_C_59",
    "joint_names": [
        "shoulder_pan_joint",
        "shoulder_lift_joint",
        "elbow_joint",
        "wrist_1_joint",
        "wrist_2_joint",
        "wrist_3_joint"
    ],
    "metrics": {
        "cart_traj_len": 0.4938079353887772,
        "distance_elbow_joint": 1.009784285436578,
        "distance_shoulder_lift_joint": 0.3296483165438071,
        "distance_shoulder_pan_joint": 0.25613497551048114,
        "distance_wrist_1_joint": 0.6943437414718943,
        "distance_wrist_2_joint": 1.313361575998479,
        "distance_wrist_3_joint": 0.061347917786466866,
        "smoothness": 1.1304088990788627e-15,
        "time": 0.021617139,
        "traj_len": 1.914319934793478,
        "weighted_distance": 2.4072851858039197
    },
    "planner": "ProjEST",
    "start": {
        "state": {
            "elbow_joint": 1.7527959577730765,
            "shoulder_lift_joint": -0.9740617694224828,
            "shoulder_pan_joint": -2.967991417825869,
            "wrist_1_joint": -0.7595177689779385,
            "wrist_2_joint": 1.7443932448376545,
            "wrist_3_joint": 3.1991315425061013
        }
    },
    "waypoints": [
        {
            "positions": [
                -2.967991417825869,
                -0.9740617694224828,
                1.7527959577730765,
                -0.7595177689779385,
                1.7443932448376545,
                3.1991315425061013
            ]
        },
        {
            "positions": [
                -2.942377920274821,
                -0.9410969377681021,
                1.6518175292294188,
                -0.6900833948307491,
                1.6130570872378065,
                3.192996750727455
            ]
        },
        {
            "positions": [
                -2.916764422723773,
                -0.9081321061137214,
                1.550839100685761,
                -0.6206490206835596,
                1.4817209296379588,
                3.186861958948808
            ]
        },
        {
            "positions": [
                -2.8911509251727248,
                -0.8751672744593406,
                1.449860672142103,
                -0.5512146465363703,
                1.3503847720381108,
                3.1807271671701614
            ]
        },
        {
            "positions": [
                -2.8655374276216765,
                -0.8422024428049599,
                1.3488822435984453,
                -0.4817802723891808,
                1.2190486144382628,
                3.1745923753915144
            ]
        },
        {
            "positions": [
                -2.8399239300706283,
                -0.8092376111505792,
                1.2479038150547876,
                -0.4123458982419914,
                1.0877124568384149,
                3.168457583612868
            ]
        },
        {
            "positions": [
                -2.8143104325195805,
                -0.7762727794961986,
                1.1469253865111297,
                -0.342911524094802,
                0.9563762992385672,
                3.1623227918342214
            ]
        },
        {
            "positions": [
                -2.788696934968532,
                -0.7433079478418179,
                1.0459469579674718,
                -0.2734771499476126,
                0.8250401416387193,
                3.1561880000555744
            ]
        },
        {
            "positions": [
                -2.763083437417484,
                -0.7103431161874372,
                0.9449685294238142,
                -0.20404277580042307,
                0.6937039840388712,
                3.150053208276928
            ]
        },
        {
            "positions": [
                -2.737469939866436,
                -0.6773782845330564,
                0.8439901008801564,
                -0.13460840165323373,
                0.5623678264390235,
                3.143918416498281
            ]
        },
        {
            "positions": [
                -2.711856442315388,
                -0.6444134528786757,
                0.7430116723364986,
                -0.06517402750604434,
                0.4310316688391755,
                3.1377836247196345
            ]
        }
    ]
}