{
    "goal": {
        "global_pose": {
            "orientation": {
                "w": 0.7047431493862688,
                "x": -0.7094548369677653,
                "y": 0.0024358444001904,
                "z": -0.0022348060817251984
            },
            "position": {
                "x": -0.39052492380142206,
                "y": 0.3671506643295288,
                "z": 0.19426114857196808
            }
        },
        "name": "move_to_magneteinheit_D"
    },
    "id": "ProjEST_move_to_magneteinheit_D_78",
    "joint_names": [
        "shoulder_pan_joint",
        "shoulder_lift_joint",
        "elbow_joint",
        "wrist_1_joint",
        "wrist_2_joint",
        "wrist_3_joint"
    ],
    "metrics": {
        "cart_traj_len": 4.345826078756055,
        "distance_elbow_joint": 4.791331946498797,
        "distance_shoulder_lift_joint": 1.6300749790354574,
        "distance_shoulder_pan_joint": 3.3307060178164836,
        "distance_wrist_1_joint": 2.575056604213297,
        "distance_wrist_2_joint": 0.7543347419019327,
        "distance_wrist_3_joint": 3.2132775771445243,
        "smoothness": 0.4564961252320771,
        "time": 0.31849956,
        "traj_len": 4.0366795595650755,
        "weighted_distance": 5.1039914152567665
    },
    "planner": "ProjEST",
    "start": {
        "state": {
            "elbow_joint": 0.7495348899011911,
            "shoulder_lift_joint": -0.6476975780737668,
            "shoulder_pan_joint": -2.711696901376276,
            "wrist_1_joint": -0.0750647808097303,
            "wrist_2_joint": 0.43296659715458535,
            "wrist_3_joint": 3.1361499051832418
        }
    },
    "waypoints": [
        {
            "positions": [
                -2.711696901376276,
                -0.6476975780737668,
                0.7495348899011911,
                -0.0750647808097303,
                0.43296659715458535,
                3.1361499051832418
            ]
        },
        {
            "positions": [
                -2.7030277632559714,
                -0.7364695047681968,
                0.8323938151699423,
                0.06905997138514079,
                0.43478043556227935,
                3.0871510782453484
            ]
        },
        {
            "positions": [
                -2.694358625135666,
                -0.8252414314626267,
                0.9152527404386934,
                0.2131847235800119,
                0.4365942739699734,
                3.0381522513074546
            ]
        },
        {
            "positions": [
                -2.6856894870153614,
                -0.9140133581570566,
                0.9981116657074445,
                0.357309475774883,
                0.4384081123776674,
                2.989153424369561
            ]
        },
        {
            "positions": [
                -2.6770203488950566,
                -1.0027852848514867,
                1.0809705909761957,
                0.501434227969754,
                0.4402219507853614,
                2.9401545974316674
            ]
        },
        {
            "positions": [
                -2.668351210774752,
                -1.0915572115459167,
                1.1638295162449468,
                0.6455589801646251,
                0.4420357891930554,
                2.891155770493774
            ]
        },
        {
            "positions": [
                -2.6596820726544466,
                -1.1803291382403465,
                1.2466884415136978,
                0.7896837323594962,
                0.4438496276007495,
                2.8421569435558807
            ]
        },
        {
            "positions": [
                -2.6510129345341418,
                -1.2691010649347763,
                1.3295473667824491,
                0.9338084845543672,
                0.4456634660084435,
                2.793158116617987
            ]
        },
        {
            "positions": [
                -2.642343796413837,
                -1.3578729916292065,
                1.4124062920512004,
                1.0779332367492385,
                0.4474773044161375,
                2.7441592896800935
            ]
        },
        {
            "positions": [
                -2.6336746582935318,
                -1.4466449183236363,
                1.4952652173199512,
                1.2220579889441097,
                0.44929114282383154,
                2.6951604627421997
            ]
        },
        {
            "positions": [
                -2.625005520173227,
                -1.5354168450180663,
                1.5781241425887025,
                1.3661827411389806,
                0.45110498123152554,
                2.6461616358043063
            ]
        },
        {
            "positions": [
                -2.519740715332498,
                -1.558301754222208,
                1.45553333609649,
                1.3473014642555179,
                0.43705199401618355,
                2.548146694729714
            ]
        },
        {
            "positions": [
                -2.4144759104917695,
                -1.5811866634263496,
                1.3329425296042776,
                1.328420187372055,
                0.42299900680084157,
                2.4501317536551213
            ]
        },
        {
            "positions": [
                -2.3092111056510407,
                -1.6040715726304913,
                1.210351723112065,
                1.3095389104885922,
                0.4089460195854996,
                2.3521168125805287
            ]
        },
        {
            "positions": [
                -2.203946300810312,
                -1.6269564818346332,
                1.0877609166198527,
                1.2906576336051292,
                0.39489303237015766,
                2.254101871505936
            ]
        },
        {
            "positions": [
                -2.0986814959695828,
                -1.6498413910387748,
                0.9651701101276402,
                1.2717763567216664,
                0.3808400451548157,
                2.1560869304313433
            ]
        },
        {
            "positions": [
                -1.993416691128854,
                -1.6727263002429165,
                0.8425793036354278,
                1.2528950798382037,
                0.3667870579394737,
                2.0580719893567507
            ]
        },
        {
            "positions": [
                -1.8881518862881252,
                -1.6956112094470581,
                0.7199884971432153,
                1.2340138029547407,
                0.3527340707241317,
                1.9600570482821582
            ]
        },
        {
            "positions": [
                -1.7828870814473965,
                -1.7184961186511998,
                0.5973976906510029,
                1.215132526071278,
                0.3386810835087897,
                1.8620421072075657
            ]
        },
        {
            "positions": [
                -1.6776222766066677,
                -1.7413810278553414,
                0.47480688415879047,
                1.196251249187815,
                0.3246280962934478,
                1.7640271661329732
            ]
        },
        {
            "positions": [
                -1.5723574717659388,
                -1.764265937059483,
                0.3522160776665779,
                1.1773699723043523,
                0.3105751090781058,
                1.6660122250583806
            ]
        },
        {
            "positions": [
                -1.46709266692521,
                -1.787150846263625,
                0.2296252711743656,
                1.1584886954208893,
                0.29652212186276383,
                1.567997283983788
            ]
        },
        {
            "positions": [
                -1.3618278620844813,
                -1.8100357554677666,
                0.10703446468215305,
                1.1396074185374265,
                0.28246913464742185,
                1.4699823429091954
            ]
        },
        {
            "positions": [
                -1.2565630572437523,
                -1.8329206646719083,
                -0.015556341810059271,
                1.1207261416539636,
                0.26841614743207987,
                1.3719674018346026
            ]
        },
        {
            "positions": [
                -1.1512982524030235,
                -1.85580557387605,
                -0.13814714830227182,
                1.1018448647705008,
                0.2543631602167379,
                1.2739524607600101
            ]
        },
        {
            "positions": [
                -1.0460334475622945,
                -1.8786904830801916,
                -0.26073795479448436,
                1.082963587887038,
                0.2403101730013959,
                1.1759375196854174
            ]
        },
        {
            "positions": [
                -0.940768642721566,
                -1.9015753922843333,
                -0.3833287612866967,
                1.064082311003575,
                0.22625718578605394,
                1.077922578610825
            ]
        },
        {
            "positions": [
                -0.835503837880837,
                -1.924460301488475,
                -0.5059195677789092,
                1.0452010341201123,
                0.21220419857071196,
                0.9799076375362323
            ]
        },
        {
            "positions": [
                -0.7302390330401083,
                -1.9473452106926166,
                -0.6285103742711216,
                1.0263197572366494,
                0.19815121135537,
                0.8818926964616398
            ]
        },
        {
            "positions": [
                -0.6249742281993793,
                -1.9702301198967584,
                -0.7511011807633343,
                1.0074384803531866,
                0.18409822414002802,
                0.7838777553870471
            ]
        },
        {
            "positions": [
                -0.5197094233586506,
                -1.9931150291009,
                -0.8736919872555466,
                0.9885572034697238,
                0.17004523692468604,
                0.6858628143124548
            ]
        },
        {
            "positions": [
                -0.4144446185179218,
                -2.015999938305042,
                -0.996282793747759,
                0.9696759265862609,
                0.15599224970934406,
                0.587847873237862
            ]
        },
        {
            "positions": [
                -0.30917981367719305,
                -2.038884847509183,
                -1.1188736002399713,
                0.9507946497027981,
                0.14193926249400213,
                0.4898329321632695
            ]
        },
        {
            "positions": [
                -0.2039150088364643,
                -2.0617697567133253,
                -1.241464406732184,
                0.9319133728193352,
                0.1278862752786601,
                0.391817991088677
            ]
        },
        {
            "positions": [
                -0.09865020399573554,
                -2.084654665917467,
                -1.3640552132243964,
                0.9130320959358724,
                0.11383328806331816,
                0.29380305001408447
            ]
        },
        {
            "positions": [
                0.006614600844993657,
                -2.1075395751216086,
                -1.4866460197166087,
                0.8941508190524095,
                0.09978030084797618,
                0.1957881089394915
            ]
        },
        {
            "positions": [
                0.11187940568572241,
                -2.1304244843257503,
                -1.609236826208821,
                0.8752695421689467,
                0.0857273136326342,
                0.09777316786489898
            ]
        },
        {
            "positions": [
                0.21714421052645116,
                -2.153309393529892,
                -1.7318276327010338,
                0.8563882652854838,
                0.07167432641729223,
                -0.0002417732096933749
            ]
        },
        {
            "positions": [
                0.18839090115091967,
                -2.179499427186779,
                -1.8709574349843476,
                0.9643781956811732,
                0.1285047287216819,
                -0.005744991351373539
            ]
        },
        {
            "positions": [
                0.15963759177538817,
                -2.205689460843667,
                -2.0100872372676615,
                1.0723681260768627,
                0.18533513102607152,
                -0.011248209493053704
            ]
        },
        {
            "positions": [
                0.13088428239985667,
                -2.231879494500554,
                -2.149217039550975,
                1.180358056472552,
                0.2421655333304612,
                -0.01675142763473387
            ]
        },
        {
            "positions": [
                0.10213097302432517,
                -2.258069528157441,
                -2.288346841834289,
                1.2883479868682415,
                0.29899593563485083,
                -0.022254645776414034
            ]
        },
        {
            "positions": [
                -0.041294861181490006,
                -2.2679210426333327,
                -2.336482696528436,
                1.3843754292824075,
                0.2342738887382505,
                0.0051818673160200675
            ]
        },
        {
            "positions": [
                -0.1847206953873052,
                -2.277772557109224,
                -2.3846185512225824,
                1.4804028716965736,
                0.1695518418416502,
                0.03261838040845417
            ]
        }
    ]
}