{
    "goal": {
        "global_pose": {
            "orientation": {
                "w": 0.005598929693374612,
                "x": 0.007748599140229565,
                "y": 0.7110244013736278,
                "z": -0.7031023480610252
            },
            "position": {
                "x": 0.1141497679147869,
                "y": -0.7141253447532654,
                "z": 0.3711530566215515
            }
        },
        "name": "move_to_auspresseinheit_B"
    },
    "id": "ProjEST_move_to_auspresseinheit_B_144",
    "joint_names": [
        "shoulder_pan_joint",
        "shoulder_lift_joint",
        "elbow_joint",
        "wrist_1_joint",
        "wrist_2_joint",
        "wrist_3_joint"
    ],
    "metrics": {
        "cart_traj_len": 0.5652623653013705,
        "distance_elbow_joint": 0.06408570221076393,
        "distance_shoulder_lift_joint": 0.29517838319309986,
        "distance_shoulder_pan_joint": 0.5791591397934857,
        "distance_wrist_1_joint": 0.3348952583725504,
        "distance_wrist_2_joint": 0.9872420044144798,
        "distance_wrist_3_joint": 0.0028890599380213544,
        "smoothness": 0.0,
        "time": 0.503680536,
        "traj_len": 1.5044765029479195,
        "weighted_distance": 1.895089689324881
    },
    "planner": "ProjEST",
    "start": {
        "state": {
            "elbow_joint": 2.0193061681459312,
            "shoulder_lift_joint": -1.1220205130644991,
            "shoulder_pan_joint": -1.0952072088045026,
            "wrist_1_joint": -0.8559671810662515,
            "wrist_2_joint": 0.4759638712940361,
            "wrist_3_joint": 3.159081874192446
        }
    },
    "waypoints": [
        {
            "positions": [
                -1.0952072088045026,
                -1.1220205130644991,
                2.0193061681459312,
                -0.8559671810662515,
                0.4759638712940361,
                3.159081874192446
            ]
        },
        {
            "positions": [
                -1.191733732103417,
                -1.1712169102633492,
                2.0086252177774706,
                -0.8001513046708264,
                0.640504205363116,
                3.158600364202776
            ]
        },
        {
            "positions": [
                -1.2882602554023312,
                -1.220413307462199,
                1.99794426740901,
                -0.7443354282754013,
                0.8050445394321961,
                3.1581188542131056
            ]
        },
        {
            "positions": [
                -1.3847867787012453,
                -1.269609704661049,
                1.9872633170405494,
                -0.6885195518799763,
                0.969584873501276,
                3.1576373442234353
            ]
        },
        {
            "positions": [
                -1.4813133020001596,
                -1.318806101859899,
                1.9765823666720885,
                -0.6327036754845512,
                1.134125207570356,
                3.157155834233765
            ]
        },
        {
            "positions": [
                -1.577839825299074,
                -1.368002499058749,
                1.965901416303628,
                -0.5768877990891261,
                1.298665541639436,
                3.156674324244095
            ]
        },
        {
            "positions": [
                -1.6743663485979883,
                -1.417198896257599,
                1.9552204659351673,
                -0.5210719226937011,
                1.463205875708516,
                3.1561928142544247
            ]
        }
    ]
}