{
    "goal": {
        "global_pose": {
            "orientation": {
                "w": -0.4816463035849501,
                "x": 0.5182115481033762,
                "y": 0.4908360881923453,
                "z": -0.5084816262002911
            },
            "position": {
                "x": -0.8240239810943604,
                "y": 0.19912469901144506,
                "z": 0.16403168439865112
            }
        },
        "name": "move_to_storage_D"
    },
    "id": "ProjEST_move_to_storage_D_83",
    "joint_names": [
        "shoulder_pan_joint",
        "shoulder_lift_joint",
        "elbow_joint",
        "wrist_1_joint",
        "wrist_2_joint",
        "wrist_3_joint"
    ],
    "metrics": {
        "cart_traj_len": 3.737054750408921,
        "distance_elbow_joint": 4.207101473365306,
        "distance_shoulder_lift_joint": 1.2656071903715622,
        "distance_shoulder_pan_joint": 2.811220175940891,
        "distance_wrist_1_joint": 2.2612890033846322,
        "distance_wrist_2_joint": 0.8657311739030482,
        "distance_wrist_3_joint": 3.1353990543425083,
        "smoothness": 5.693451395562922e-16,
        "time": 0.10874272100000001,
        "traj_len": 3.8139674974110553,
        "weighted_distance": 4.893277670159404
    },
    "planner": "ProjEST",
    "start": {
        "state": {
            "elbow_joint": -2.384821990628643,
            "shoulder_lift_joint": -2.278805467437664,
            "shoulder_pan_joint": -0.18546946439364564,
            "wrist_1_joint": 1.4845938187801415,
            "wrist_2_joint": 0.178987772454074,
            "wrist_3_joint": 0.03710569632802521
        }
    },
    "waypoints": [
        {
            "positions": [
                -0.18546946439364564,
                -2.278805467437664,
                -2.384821990628643,
                1.4845938187801415,
                0.178987772454074,
                0.03710569632802521
            ]
        },
        {
            "positions": [
                -0.08347796018988489,
                -2.2287118599286626,
                -2.2476556468605677,
                1.4134758840076402,
                0.19299045155380506,
                0.051915438462210105
            ]
        },
        {
            "positions": [
                0.018513544013875866,
                -2.178618252419662,
                -2.1104893030924923,
                1.3423579492351392,
                0.2069931306535361,
                0.066725180596395
            ]
        },
        {
            "positions": [
                0.12050504821763663,
                -2.1285246449106605,
                -1.9733229593244168,
                1.271240014462638,
                0.22099580975326719,
                0.0815349227305799
            ]
        },
        {
            "positions": [
                0.22249655242139738,
                -2.0784310374016597,
                -1.8361566155563414,
                1.2001220796901368,
                0.23499848885299823,
                0.09634466486476478
            ]
        },
        {
            "positions": [
                0.3244880566251582,
                -2.0283374298926584,
                -1.698990271788266,
                1.1290041449176356,
                0.2490011679527293,
                0.1111544069989497
            ]
        },
        {
            "positions": [
                0.4264795608289189,
                -1.9782438223836576,
                -1.5618239280201904,
                1.0578862101451345,
                0.2630038470524604,
                0.12596414913313458
            ]
        },
        {
            "positions": [
                0.5284710650326797,
                -1.9281502148746563,
                -1.424657584252115,
                0.9867682753726332,
                0.27700652615219146,
                0.14077389126731948
            ]
        },
        {
            "positions": [
                0.6304625692364404,
                -1.8780566073656555,
                -1.2874912404840397,
                0.9156503406001321,
                0.2910092052519225,
                0.15558363340150438
            ]
        },
        {
            "positions": [
                0.7324540734402012,
                -1.8279629998566542,
                -1.1503248967159643,
                0.8445324058276309,
                0.30501188435165355,
                0.17039337553568926
            ]
        },
        {
            "positions": [
                0.8344455776439621,
                -1.7778693923476532,
                -1.0131585529478888,
                0.7734144710551296,
                0.3190145634513846,
                0.18520311766987418
            ]
        },
        {
            "positions": [
                0.9364370818477226,
                -1.7277757848386521,
                -0.8759922091798134,
                0.7022965362826284,
                0.33301724255111564,
                0.20001285980405906
            ]
        },
        {
            "positions": [
                1.0384285860514835,
                -1.677682177329651,
                -0.7388258654117379,
                0.6311786015101273,
                0.3470199216508467,
                0.21482260193824396
            ]
        },
        {
            "positions": [
                1.1404200902552442,
                -1.62758856982065,
                -0.6016595216436627,
                0.5600606667376261,
                0.3610226007505778,
                0.22963234407242883
            ]
        },
        {
            "positions": [
                1.242411594459005,
                -1.5774949623116488,
                -0.46449317787558697,
                0.48894273196512483,
                0.37502527985030887,
                0.24444208620661376
            ]
        },
        {
            "positions": [
                1.3444030986627657,
                -1.527401354802648,
                -0.32732683410751173,
                0.41782479719262366,
                0.38902795895003994,
                0.25925182834079863
            ]
        },
        {
            "positions": [
                1.4463946028665264,
                -1.4773077472936469,
                -0.19016049033943627,
                0.3467068624201226,
                0.403030638049771,
                0.27406157047498353
            ]
        },
        {
            "positions": [
                1.5483861070702873,
                -1.4272141397846458,
                -0.05299414657136037,
                0.27558892764762133,
                0.4170333171495021,
                0.28887131260916843
            ]
        },
        {
            "positions": [
                1.650377611274048,
                -1.3771205322756446,
                0.08417219719671465,
                0.20447099287512027,
                0.4310359962492331,
                0.3036810547433533
            ]
        },
        {
            "positions": [
                1.7523691154778087,
                -1.3270269247666437,
                0.2213385409647901,
                0.133353058102619,
                0.4450386753489642,
                0.31849079687753823
            ]
        },
        {
            "positions": [
                1.8543606196815698,
                -1.2769333172576425,
                0.35850488473286557,
                0.062235123330117714,
                0.45904135444869526,
                0.3333005390117232
            ]
        },
        {
            "positions": [
                1.9563521238853303,
                -1.2268397097486414,
                0.49567122850094103,
                -0.008882811442383343,
                0.47304403354842633,
                0.34811028114590803
            ]
        },
        {
            "positions": [
                2.0583436280890908,
                -1.1767461022396404,
                0.6328375722690165,
                -0.08000074621488462,
                0.48704671264815735,
                0.3629200232800929
            ]
        },
        {
            "positions": [
                2.160335132292852,
                -1.1266524947306393,
                0.770003916037092,
                -0.1511186809873859,
                0.5010493917478884,
                0.37772976541427783
            ]
        },
        {
            "positions": [
                2.2623266364966126,
                -1.0765588872216383,
                0.9071702598051674,
                -0.22223661575988696,
                0.5150520708476195,
                0.3925395075484627
            ]
        },
        {
            "positions": [
                2.2882854990002293,
                -1.0720331293533856,
                0.9725352043002743,
                -0.2618407992487872,
                0.5528854190982982,
                0.5911084534857534
            ]
        },
        {
            "positions": [
                2.314244361503846,
                -1.067507371485133,
                1.0379001487953812,
                -0.30144498273768755,
                0.590718767348977,
                0.7896773994230442
            ]
        },
        {
            "positions": [
                2.3402032240074626,
                -1.0629816136168804,
                1.1032650932904882,
                -0.3410491662265879,
                0.6285521155996558,
                0.988246345360335
            ]
        },
        {
            "positions": [
                2.366162086511079,
                -1.0584558557486279,
                1.168630037785595,
                -0.38065334971548814,
                0.6663854638503346,
                1.1868152912976258
            ]
        },
        {
            "positions": [
                2.3921209490146955,
                -1.0539300978803752,
                1.2339949822807017,
                -0.42025753320438847,
                0.7042188121010133,
                1.3853842372349165
            ]
        },
        {
            "positions": [
                2.418079811518312,
                -1.0494043400121227,
                1.2993599267758087,
                -0.45986171669328874,
                0.7420521603516921,
                1.5839531831722073
            ]
        },
        {
            "positions": [
                2.444038674021929,
                -1.04487858214387,
                1.3647248712709157,
                -0.49946590018218906,
                0.7798855086023708,
                1.782522129109498
            ]
        },
        {
            "positions": [
                2.4699975365255455,
                -1.0403528242756173,
                1.4300898157660225,
                -0.5390700836710893,
                0.8177188568530496,
                1.9810910750467885
            ]
        },
        {
            "positions": [
                2.495956399029162,
                -1.0358270664073648,
                1.4954547602611292,
                -0.5786742671599897,
                0.8555522051037284,
                2.1796600209840795
            ]
        },
        {
            "positions": [
                2.521915261532779,
                -1.031301308539112,
                1.5608197047562362,
                -0.61827845064889,
                0.8933855533544072,
                2.3782289669213705
            ]
        },
        {
            "positions": [
                2.547874124036395,
                -1.0267755506708596,
                1.6261846492513432,
                -0.6578826341377902,
                0.931218901605086,
                2.576797912858661
            ]
        },
        {
            "positions": [
                2.573832986540012,
                -1.0222497928026069,
                1.69154959374645,
                -0.6974868176266905,
                0.9690522498557648,
                2.7753668587959517
            ]
        },
        {
            "positions": [
                2.5997918490436285,
                -1.0177240349343544,
                1.7569145382415567,
                -0.7370910011155909,
                1.0068855981064435,
                2.9739358047332427
            ]
        },
        {
            "positions": [
                2.625750711547245,
                -1.0131982770661017,
                1.8222794827366637,
                -0.7766951846044912,
                1.0447189463571223,
                3.1725047506705333
            ]
        }
    ]
}