{
    "goal": {
        "global_pose": {
            "orientation": {
                "w": 0.7047431493862688,
                "x": -0.7094548369677653,
                "y": 0.0024358444001904,
                "z": -0.0022348060817251984
            },
            "position": {
                "x": -0.39052492380142206,
                "y": 0.3671506643295288,
                "z": 0.19426114857196808
            }
        },
        "name": "move_to_magneteinheit_D"
    },
    "id": "ProjEST_move_to_magneteinheit_D_139",
    "joint_names": [
        "shoulder_pan_joint",
        "shoulder_lift_joint",
        "elbow_joint",
        "wrist_1_joint",
        "wrist_2_joint",
        "wrist_3_joint"
    ],
    "metrics": {
        "cart_traj_len": 4.946747698348068,
        "distance_elbow_joint": 4.010649035482345,
        "distance_shoulder_lift_joint": 1.2680305758923696,
        "distance_shoulder_pan_joint": 4.0624727339200835,
        "distance_wrist_1_joint": 4.398480596001757,
        "distance_wrist_2_joint": 2.2212646517665005,
        "distance_wrist_3_joint": 6.281854029575186,
        "smoothness": 0.31131112888328755,
        "time": 0.8842558,
        "traj_len": 4.71622217698003,
        "weighted_distance": 6.436319206623991
    },
    "planner": "ProjEST",
    "start": {
        "state": {
            "elbow_joint": 0.7495348899011911,
            "shoulder_lift_joint": -0.6476975780737668,
            "shoulder_pan_joint": -2.711696901376276,
            "wrist_1_joint": -0.0750647808097303,
            "wrist_2_joint": 0.43296659715458535,
            "wrist_3_joint": 3.1361499051832418
        }
    },
    "waypoints": [
        {
            "positions": [
                -2.711696901376276,
                -0.6476975780737668,
                0.7495348899011911,
                -0.0750647808097303,
                0.43296659715458535,
                3.1361499051832418
            ]
        },
        {
            "positions": [
                -2.7202023089827585,
                -0.6606537340899171,
                0.770466861394538,
                -0.026426451641047982,
                0.3681979159150024,
                2.912316303662597
            ]
        },
        {
            "positions": [
                -2.7287077165892413,
                -0.6736098901060674,
                0.7913988328878849,
                0.02221187752763433,
                0.3034292346754194,
                2.688482702141952
            ]
        },
        {
            "positions": [
                -2.7372131241957236,
                -0.6865660461222176,
                0.8123308043812317,
                0.07085020669631663,
                0.23866055343583642,
                2.4646491006213074
            ]
        },
        {
            "positions": [
                -2.745718531802206,
                -0.6995222021383679,
                0.8332627758745786,
                0.11948853586499895,
                0.17389187219625346,
                2.2408154991006626
            ]
        },
        {
            "positions": [
                -2.7542239394086887,
                -0.7124783581545182,
                0.8541947473679256,
                0.1681268650336813,
                0.10912319095667045,
                2.016981897580018
            ]
        },
        {
            "positions": [
                -2.762729347015171,
                -0.7254345141706685,
                0.8751267188612724,
                0.21676519420236356,
                0.04435450971708749,
                1.7931482960593734
            ]
        },
        {
            "positions": [
                -2.7712347546216534,
                -0.7383906701868188,
                0.8960586903546193,
                0.26540352337104595,
                -0.020414171522495472,
                1.5693146945387284
            ]
        },
        {
            "positions": [
                -2.779740162228136,
                -0.7513468262029691,
                0.9169906618479662,
                0.3140418525397282,
                -0.08518285276207843,
                1.3454810930180838
            ]
        },
        {
            "positions": [
                -2.7882455698346185,
                -0.7643029822191194,
                0.9379226333413131,
                0.36268018170841054,
                -0.14995153400166145,
                1.121647491497439
            ]
        },
        {
            "positions": [
                -2.796750977441101,
                -0.7772591382352696,
                0.95885460483466,
                0.41131851087709287,
                -0.21472021524124446,
                0.8978138899767942
            ]
        },
        {
            "positions": [
                -2.8052563850475836,
                -0.7902152942514199,
                0.9797865763280069,
                0.45995684004577525,
                -0.2794888964808275,
                0.6739802884561494
            ]
        },
        {
            "positions": [
                -2.813761792654066,
                -0.8031714502675702,
                1.0007185478213536,
                0.5085951692144574,
                -0.3442575777204104,
                0.4501466869355051
            ]
        },
        {
            "positions": [
                -2.8222672002605482,
                -0.8161276062837205,
                1.0216505193147007,
                0.5572334983831397,
                -0.4090262589599934,
                0.22631308541486028
            ]
        },
        {
            "positions": [
                -2.830772607867031,
                -0.8290837622998708,
                1.0425824908080474,
                0.6058718275518221,
                -0.4737949401995763,
                0.00247948389421504
            ]
        },
        {
            "positions": [
                -2.8392780154735133,
                -0.842039918316021,
                1.0635144623013946,
                0.6545101567205044,
                -0.5385636214391594,
                -0.22135411762642976
            ]
        },
        {
            "positions": [
                -2.8477834230799957,
                -0.8549960743321713,
                1.0844464337947413,
                0.7031484858891867,
                -0.6033323026787423,
                -0.4451877191470741
            ]
        },
        {
            "positions": [
                -2.8562888306864784,
                -0.8679522303483216,
                1.1053784052880882,
                0.7517868150578689,
                -0.6681009839183254,
                -0.6690213206677189
            ]
        },
        {
            "positions": [
                -2.8647942382929608,
                -0.8809083863644719,
                1.126310376781435,
                0.8004251442265513,
                -0.7328696651579083,
                -0.8928549221883639
            ]
        },
        {
            "positions": [
                -2.850635272961951,
                -0.9035767656614644,
                1.1436755654725035,
                0.8705953374933237,
                -0.7966134684928046,
                -1.07306236226197
            ]
        },
        {
            "positions": [
                -2.8364763076309405,
                -0.926245144958457,
                1.1610407541635719,
                0.9407655307600962,
                -0.8603572718277008,
                -1.2532698023355762
            ]
        },
        {
            "positions": [
                -2.8223173422999306,
                -0.9489135242554496,
                1.1784059428546403,
                1.0109357240268686,
                -0.924101075162597,
                -1.4334772424091824
            ]
        },
        {
            "positions": [
                -2.8081583769689207,
                -0.9715819035524421,
                1.1957711315457087,
                1.081105917293641,
                -0.9878448784974933,
                -1.6136846824827884
            ]
        },
        {
            "positions": [
                -2.6925085586465882,
                -1.0022052670474324,
                1.1034833697659023,
                0.9845314808815746,
                -0.9621946014727378,
                -1.638341875083917
            ]
        },
        {
            "positions": [
                -2.576858740324256,
                -1.0328286305424228,
                1.011195607986096,
                0.8879570444695083,
                -0.9365443244479825,
                -1.6629990676850457
            ]
        },
        {
            "positions": [
                -2.4612089220019238,
                -1.0634519940374132,
                0.9189078462062898,
                0.7913826080574419,
                -0.9108940474232271,
                -1.6876562602861742
            ]
        },
        {
            "positions": [
                -2.3455591036795918,
                -1.0940753575324036,
                0.8266200844264835,
                0.6948081716453756,
                -0.8852437703984717,
                -1.712313452887303
            ]
        },
        {
            "positions": [
                -2.2299092853572593,
                -1.124698721027394,
                0.7343323226466771,
                0.5982337352333091,
                -0.8595934933737163,
                -1.7369706454884315
            ]
        },
        {
            "positions": [
                -2.114259467034927,
                -1.1553220845223844,
                0.6420445608668709,
                0.5016592988212427,
                -0.8339432163489608,
                -1.76162783808956
            ]
        },
        {
            "positions": [
                -1.9986096487125948,
                -1.1859454480173748,
                0.5497567990870645,
                0.4050848624091763,
                -0.8082929393242055,
                -1.7862850306906888
            ]
        },
        {
            "positions": [
                -1.8829598303902624,
                -1.2165688115123652,
                0.4574690373072583,
                0.30851042599711,
                -0.7826426622994501,
                -1.8109422232918173
            ]
        },
        {
            "positions": [
                -1.7673100120679301,
                -1.2471921750073556,
                0.36518127552745183,
                0.21193598958504345,
                -0.7569923852746947,
                -1.835599415892946
            ]
        },
        {
            "positions": [
                -1.651660193745598,
                -1.277815538502346,
                0.2728935137476456,
                0.11536155317297714,
                -0.7313421082499394,
                -1.8602566084940746
            ]
        },
        {
            "positions": [
                -1.5360103754232657,
                -1.3084389019973364,
                0.18060575196783923,
                0.018787116760910827,
                -0.705691831225184,
                -1.8849138010952031
            ]
        },
        {
            "positions": [
                -1.4203605571009335,
                -1.3390622654923268,
                0.0883179901880331,
                -0.0777873196511556,
                -0.6800415542004286,
                -1.9095709936963319
            ]
        },
        {
            "positions": [
                -1.304710738778601,
                -1.3696856289873172,
                -0.003969771591773252,
                -0.17436175606322202,
                -0.6543912771756731,
                -1.9342281862974604
            ]
        },
        {
            "positions": [
                -1.1890609204562688,
                -1.4003089924823076,
                -0.0962575333715796,
                -0.27093619247528844,
                -0.6287410001509177,
                -1.958885378898589
            ]
        },
        {
            "positions": [
                -1.0734111021339365,
                -1.430932355977298,
                -0.18854529515138596,
                -0.36751062888735486,
                -0.6030907231261624,
                -1.9835425714997177
            ]
        },
        {
            "positions": [
                -0.9577612838116043,
                -1.4615557194722881,
                -0.2808330569311921,
                -0.46408506529942106,
                -0.577440446101407,
                -2.0081997641008464
            ]
        },
        {
            "positions": [
                -0.8421114654892721,
                -1.4921790829672785,
                -0.37312081871099845,
                -0.5606595017114875,
                -0.5517901690766516,
                -2.0328569567019747
            ]
        },
        {
            "positions": [
                -0.7264616471669396,
                -1.522802446462269,
                -0.465408580490805,
                -0.6572339381235541,
                -0.5261398920518962,
                -2.0575141493031035
            ]
        },
        {
            "positions": [
                -0.6108118288446072,
                -1.5534258099572593,
                -0.5576963422706112,
                -0.7538083745356206,
                -0.5004896150271407,
                -2.0821713419042323
            ]
        },
        {
            "positions": [
                -0.49516201052227515,
                -1.5840491734522497,
                -0.6499841040504175,
                -0.8503828109476868,
                -0.4748393380023854,
                -2.106828534505361
            ]
        },
        {
            "positions": [
                -0.3795121921999427,
                -1.6146725369472401,
                -0.7422718658302236,
                -0.9469572473597534,
                -0.44918906097763,
                -2.1314857271064893
            ]
        },
        {
            "positions": [
                -0.2638623738776107,
                -1.6452959004422305,
                -0.8345596276100302,
                -1.0435316837718194,
                -0.4235387839528747,
                -2.156142919707618
            ]
        },
        {
            "positions": [
                -0.14821255555527824,
                -1.675919263937221,
                -0.9268473893898364,
                -1.1401061201838858,
                -0.3978885069281193,
                -2.180800112308747
            ]
        },
        {
            "positions": [
                -0.032562737232946226,
                -1.7065426274322113,
                -1.0191351511696425,
                -1.2366805565959522,
                -0.37223822990336386,
                -2.205457304909875
            ]
        },
        {
            "positions": [
                0.08308708108938667,
                -1.7371659909272017,
                -1.111422912949449,
                -1.333254993008019,
                -0.34658795287860844,
                -2.230114497511004
            ]
        },
        {
            "positions": [
                0.19873689941171868,
                -1.767789354422192,
                -1.2037106747292552,
                -1.429829429420085,
                -0.320937675853853,
                -2.2547716901121326
            ]
        },
        {
            "positions": [
                0.31438671773405114,
                -1.7984127179171825,
                -1.2959984365090618,
                -1.5264038658321515,
                -0.2952873988290977,
                -2.279428882713261
            ]
        },
        {
            "positions": [
                0.43003653605638326,
                -1.8290360814121729,
                -1.388286198288868,
                -1.6229783022442181,
                -0.2696371218043423,
                -2.3040860753143897
            ]
        },
        {
            "positions": [
                0.3532184582246263,
                -1.8181995723429274,
                -1.510830631289274,
                -1.6902565120392838,
                -0.2593564443766831,
                -2.4092883314490843
            ]
        },
        {
            "positions": [
                0.2764003803928693,
                -1.807363063273682,
                -1.6333750642896805,
                -1.7575347218343493,
                -0.24907576694902392,
                -2.514490587583779
            ]
        },
        {
            "positions": [
                0.19958230256111226,
                -1.7965265542044366,
                -1.755919497290087,
                -1.824812931629415,
                -0.23879508952136475,
                -2.6196928437184734
            ]
        },
        {
            "positions": [
                0.12276422472935528,
                -1.7856900451351911,
                -1.878463930290493,
                -1.8920911414244808,
                -0.22851441209370554,
                -2.7248950998531676
            ]
        },
        {
            "positions": [
                0.045946146897598295,
                -1.7748535360659456,
                -2.0010083632908993,
                -1.9593693512195463,
                -0.21823373466604634,
                -2.8300973559878626
            ]
        },
        {
            "positions": [
                -0.030871930934158742,
                -1.7640170269967004,
                -2.123552796291306,
                -2.0266475610146117,
                -0.20795305723838717,
                -2.9352996121225567
            ]
        },
        {
            "positions": [
                -0.10769000876591572,
                -1.7531805179274549,
                -2.246097229291712,
                -2.0939257708096775,
                -0.197672379810728,
                -3.0405018682572513
            ]
        },
        {
            "positions": [
                -0.18450808659767273,
                -1.7423440088582094,
                -2.3686416622921183,
                -2.161203980604743,
                -0.1873917023830688,
                -3.145704124391946
            ]
        }
    ]
}