{
    "goal": {
        "global_pose": {
            "orientation": {
                "w": -0.4816463035849501,
                "x": 0.5182115481033762,
                "y": 0.4908360881923453,
                "z": -0.5084816262002911
            },
            "position": {
                "x": -0.8240239810943604,
                "y": 0.19912469901144506,
                "z": 0.16403168439865112
            }
        },
        "name": "move_to_storage_D"
    },
    "id": "ProjEST_move_to_storage_D_97",
    "joint_names": [
        "shoulder_pan_joint",
        "shoulder_lift_joint",
        "elbow_joint",
        "wrist_1_joint",
        "wrist_2_joint",
        "wrist_3_joint"
    ],
    "metrics": {
        "cart_traj_len": 3.7125324836933724,
        "distance_elbow_joint": 4.210095154440309,
        "distance_shoulder_lift_joint": 1.2645948795287234,
        "distance_shoulder_pan_joint": 2.8141634165002767,
        "distance_wrist_1_joint": 2.2685084161379816,
        "distance_wrist_2_joint": 0.8776094934448073,
        "distance_wrist_3_joint": 3.136445941539316,
        "smoothness": 7.970831967240842e-16,
        "time": 0.13842315,
        "traj_len": 3.81725258551113,
        "weighted_distance": 4.898002357518096
    },
    "planner": "ProjEST",
    "start": {
        "state": {
            "elbow_joint": -2.384821990628643,
            "shoulder_lift_joint": -2.278805467437664,
            "shoulder_pan_joint": -0.18546946439364564,
            "wrist_1_joint": 1.4845938187801415,
            "wrist_2_joint": 0.178987772454074,
            "wrist_3_joint": 0.03710569632802521
        }
    },
    "waypoints": [
        {
            "positions": [
                -0.18546946439364564,
                -2.278805467437664,
                -2.384821990628643,
                1.4845938187801415,
                0.178987772454074,
                0.03710569632802521
            ]
        },
        {
            "positions": [
                -0.09175775229961163,
                -2.233243861901107,
                -2.2683238115039766,
                1.4318597546488256,
                0.19948404249107282,
                -0.016941995073344346
            ]
        },
        {
            "positions": [
                0.001953959794422394,
                -2.1876822563645493,
                -2.15182563237931,
                1.3791256905175096,
                0.21998031252807168,
                -0.0709896864747139
            ]
        },
        {
            "positions": [
                0.09566567188845637,
                -2.142120650827992,
                -2.0353274532546433,
                1.3263916263861937,
                0.24047658256507054,
                -0.12503737787608346
            ]
        },
        {
            "positions": [
                0.18937738398249043,
                -2.0965590452914347,
                -1.9188292741299766,
                1.2736575622548776,
                0.26097285260206937,
                -0.17908506927745302
            ]
        },
        {
            "positions": [
                0.28308909607652444,
                -2.0509974397548776,
                -1.80233109500531,
                1.2209234981235617,
                0.2814691226390682,
                -0.23313276067882258
            ]
        },
        {
            "positions": [
                0.3768008081705584,
                -2.0054358342183205,
                -1.6858329158806433,
                1.1681894339922456,
                0.3019653926760671,
                -0.28718045208019216
            ]
        },
        {
            "positions": [
                0.47051252026459245,
                -1.959874228681763,
                -1.5693347367559767,
                1.1154553698609297,
                0.3224616627130659,
                -0.3412281434815617
            ]
        },
        {
            "positions": [
                0.5642242323586265,
                -1.914312623145206,
                -1.4528365576313103,
                1.0627213057296137,
                0.34295793275006475,
                -0.3952758348829313
            ]
        },
        {
            "positions": [
                0.6579359444526605,
                -1.8687510176086486,
                -1.3363383785066436,
                1.0099872415982978,
                0.36345420278706364,
                -0.44932352628430083
            ]
        },
        {
            "positions": [
                0.7516476565466945,
                -1.8231894120720913,
                -1.219840199381977,
                0.9572531774669818,
                0.38395047282406247,
                -0.5033712176856704
            ]
        },
        {
            "positions": [
                0.8453593686407286,
                -1.777627806535534,
                -1.1033420202573103,
                0.9045191133356658,
                0.4044467428610613,
                -0.55741890908704
            ]
        },
        {
            "positions": [
                0.9390710807347624,
                -1.7320662009989767,
                -0.9868438411326437,
                0.8517850492043498,
                0.42494301289806014,
                -0.6114666004884095
            ]
        },
        {
            "positions": [
                1.0327827928287965,
                -1.6865045954624196,
                -0.870345662007977,
                0.7990509850730338,
                0.445439282935059,
                -0.6655142918897791
            ]
        },
        {
            "positions": [
                1.1264945049228305,
                -1.6409429899258623,
                -0.7538474828833104,
                0.7463169209417179,
                0.46593555297205785,
                -0.7195619832911486
            ]
        },
        {
            "positions": [
                1.2202062170168648,
                -1.595381384389305,
                -0.6373493037586437,
                0.6935828568104018,
                0.48643182300905674,
                -0.7736096746925183
            ]
        },
        {
            "positions": [
                1.3139179291108987,
                -1.5498197788527477,
                -0.5208511246339773,
                0.6408487926790859,
                0.5069280930460556,
                -0.8276573660938877
            ]
        },
        {
            "positions": [
                1.4076296412049327,
                -1.5042581733161904,
                -0.40435294550931045,
                0.5881147285477698,
                0.5274243630830544,
                -0.8817050574952574
            ]
        },
        {
            "positions": [
                1.5013413532989666,
                -1.4586965677796333,
                -0.287854766384644,
                0.5353806644164539,
                0.5479206331200532,
                -0.9357527488966269
            ]
        },
        {
            "positions": [
                1.5950530653930008,
                -1.4131349622430758,
                -0.17135658725997738,
                0.48264660028513795,
                0.5684169031570521,
                -0.9898004402979965
            ]
        },
        {
            "positions": [
                1.6887647774870347,
                -1.3675733567065187,
                -0.05485840813531073,
                0.4299125361538221,
                0.5889131731940509,
                -1.043848131699366
            ]
        },
        {
            "positions": [
                1.7824764895810687,
                -1.3220117511699614,
                0.06163977098935591,
                0.377178472022506,
                0.6094094432310497,
                -1.0978958231007356
            ]
        },
        {
            "positions": [
                1.8761882016751028,
                -1.276450145633404,
                0.17813795011402256,
                0.3244444078911901,
                0.6299057132680486,
                -1.151943514502105
            ]
        },
        {
            "positions": [
                1.9698999137691366,
                -1.2308885400968468,
                0.2946361292386892,
                0.271710343759874,
                0.6504019833050475,
                -1.2059912059034748
            ]
        },
        {
            "positions": [
                2.0636116258631705,
                -1.1853269345602897,
                0.41113430836335585,
                0.21897627962855815,
                0.6708982533420463,
                -1.2600388973048442
            ]
        },
        {
            "positions": [
                2.1573233379572048,
                -1.1397653290237324,
                0.5276324874880225,
                0.16624221549724205,
                0.6913945233790453,
                -1.3140865887062139
            ]
        },
        {
            "positions": [
                2.2510350500512386,
                -1.094203723487175,
                0.6441306666126891,
                0.11350815136592618,
                0.7118907934160441,
                -1.3681342801075833
            ]
        },
        {
            "positions": [
                2.344746762145273,
                -1.0486421179506178,
                0.7606288457373556,
                0.060774087234610086,
                0.7323870634530429,
                -1.422181971508953
            ]
        },
        {
            "positions": [
                2.370560143050851,
                -1.04551197885592,
                0.8574146928350199,
                -0.016015793182885374,
                0.7618607182208464,
                -1.574650905481893
            ]
        },
        {
            "positions": [
                2.396373523956429,
                -1.042381839761222,
                0.9542005399326843,
                -0.09280567360038083,
                0.79133437298865,
                -1.7271198394548326
            ]
        },
        {
            "positions": [
                2.422186904862007,
                -1.039251700666524,
                1.0509863870303486,
                -0.16959555401787627,
                0.8208080277564535,
                -1.8795887734277725
            ]
        },
        {
            "positions": [
                2.448000285767585,
                -1.036121561571826,
                1.147772234128013,
                -0.24638543443537175,
                0.850281682524257,
                -2.0320577074007122
            ]
        },
        {
            "positions": [
                2.473813666673163,
                -1.0329914224771282,
                1.2445580812256773,
                -0.3231753148528672,
                0.8797553372920603,
                -2.184526641373652
            ]
        },
        {
            "positions": [
                2.4996270475787408,
                -1.02986128338243,
                1.3413439283233417,
                -0.3999651952703626,
                0.9092289920598638,
                -2.3369955753465916
            ]
        },
        {
            "positions": [
                2.525440428484319,
                -1.0267311442877323,
                1.438129775421006,
                -0.47675507568785813,
                0.9387026468276674,
                -2.489464509319532
            ]
        },
        {
            "positions": [
                2.551253809389897,
                -1.0236010051930342,
                1.5349156225186704,
                -0.5535449561053536,
                0.9681763015954709,
                -2.641933443292472
            ]
        },
        {
            "positions": [
                2.577067190295475,
                -1.0204708660983364,
                1.6317014696163348,
                -0.630334836522849,
                0.9976499563632744,
                -2.7944023772654116
            ]
        },
        {
            "positions": [
                2.602880571201053,
                -1.0173407270036383,
                1.7284873167139991,
                -0.7071247169403445,
                1.0271236111310778,
                -2.9468713112383513
            ]
        },
        {
            "positions": [
                2.628693952106631,
                -1.0142105879089405,
                1.8252731638116635,
                -0.78391459735784,
                1.0565972658988814,
                -3.099340245211291
            ]
        }
    ]
}