{
    "goal": {
        "global_pose": {
            "orientation": {
                "w": 0.7031023502349854,
                "x": -0.7110244035720825,
                "y": 0.007748599164187908,
                "z": 0.005598929710686207
            },
            "position": {
                "x": 0.11585023208521307,
                "y": 0.44412534475326537,
                "z": 0.3711530566215515
            }
        },
        "name": "move_to_auspresseinheit_A"
    },
    "id": "ProjEST_move_to_auspresseinheit_A_70",
    "joint_names": [
        "shoulder_pan_joint",
        "shoulder_lift_joint",
        "elbow_joint",
        "wrist_1_joint",
        "wrist_2_joint",
        "wrist_3_joint"
    ],
    "metrics": {
        "cart_traj_len": 0.7533897240382811,
        "distance_elbow_joint": 0.3665846577229974,
        "distance_shoulder_lift_joint": 0.535440541557261,
        "distance_shoulder_pan_joint": 1.0415011700180634,
        "distance_wrist_1_joint": 1.1433382621219963,
        "distance_wrist_2_joint": 0.8153521317646376,
        "distance_wrist_3_joint": 0.23300666620978028,
        "smoothness": 1.444675763563258,
        "time": 0.088815507,
        "traj_len": 2.033524877987662,
        "weighted_distance": 2.56123547447339
    },
    "planner": "ProjEST",
    "start": {
        "state": {
            "elbow_joint": 2.4225746994637096,
            "shoulder_lift_joint": -1.373653595662188,
            "shoulder_pan_joint": -0.3378633848294565,
            "wrist_1_joint": -1.0288595594406726,
            "wrist_2_joint": 1.2330228066703421,
            "wrist_3_joint": 3.189163495502006
        }
    },
    "waypoints": [
        {
            "positions": [
                -0.3378633848294565,
                -1.373653595662188,
                2.4225746994637096,
                -1.0288595594406726,
                1.2330228066703421,
                3.189163495502006
            ]
        },
        {
            "positions": [
                -0.2610194957442838,
                -1.440563585114101,
                2.3977421373611243,
                -0.9217254951865811,
                1.1486654293817031,
                3.1712548780879906
            ]
        },
        {
            "positions": [
                -0.18417560665911112,
                -1.507473574566014,
                2.3729095752585394,
                -0.8145914309324894,
                1.0643080520930641,
                3.1533462606739753
            ]
        },
        {
            "positions": [
                -0.10733171757393845,
                -1.5743835640179271,
                2.348077013155954,
                -0.7074573666783979,
                0.9799506748044251,
                3.13543764325996
            ]
        },
        {
            "positions": [
                -0.030487828488765745,
                -1.64129355346984,
                2.3232444510533687,
                -0.6003233024243062,
                0.8955932975157861,
                3.1175290258459443
            ]
        },
        {
            "positions": [
                0.046356060596406956,
                -1.708203542921753,
                2.298411888950784,
                -0.49318923817021465,
                0.8112359202271471,
                3.099620408431929
            ]
        },
        {
            "positions": [
                0.1231999496815796,
                -1.7751135323736662,
                2.2735793268481985,
                -0.3860551739161231,
                0.726878542938508,
                3.0817117910179137
            ]
        },
        {
            "positions": [
                0.2000438387667523,
                -1.8420235218255792,
                2.2487467647456136,
                -0.27892110966203143,
                0.6425211656498689,
                3.0638031736038984
            ]
        },
        {
            "positions": [
                0.276887727851925,
                -1.9089335112774921,
                2.2239142026430283,
                -0.17178704540793988,
                0.5581637883612299,
                3.045894556189883
            ]
        },
        {
            "positions": [
                0.41913774696415224,
                -1.90887996929684,
                2.2798889229438,
                -0.2672089614376944,
                0.6049948261797384,
                3.075807131822436
            ]
        },
        {
            "positions": [
                0.5613877660763795,
                -1.9088264273161875,
                2.3358636432445725,
                -0.36263087746744893,
                0.6518258639982468,
                3.105719707454988
            ]
        },
        {
            "positions": [
                0.7036377851886068,
                -1.9087728853355352,
                2.3918383635453444,
                -0.45805279349720346,
                0.6986569018167553,
                3.1356322830875407
            ]
        }
    ]
}