{
    "goal": {
        "global_pose": {
            "orientation": {
                "w": 0.5084816217422485,
                "x": -0.49083608388900757,
                "y": 0.5182115435600281,
                "z": -0.4816462993621826
            },
            "position": {
                "x": 0.5540239810943604,
                "y": 0.030875300988554955,
                "z": 0.16403168439865112
            }
        },
        "name": "move_to_storage_A"
    },
    "id": "ProjEST_move_to_storage_A_40",
    "joint_names": [
        "shoulder_pan_joint",
        "shoulder_lift_joint",
        "elbow_joint",
        "wrist_1_joint",
        "wrist_2_joint",
        "wrist_3_joint"
    ],
    "metrics": {
        "cart_traj_len": 0.3531296773839676,
        "distance_elbow_joint": 0.45185307194663005,
        "distance_shoulder_lift_joint": 0.23629856866756271,
        "distance_shoulder_pan_joint": 0.4640226570614496,
        "distance_wrist_1_joint": 0.24616445805471687,
        "distance_wrist_2_joint": 1.0904657814844168,
        "distance_wrist_3_joint": 0.09093207123116764,
        "smoothness": 0.0,
        "time": 0.048385690999999995,
        "traj_len": 1.6061558481187135,
        "weighted_distance": 2.02440880022969
    },
    "planner": "ProjEST",
    "start": {
        "state": {
            "elbow_joint": 1.971548880431181,
            "shoulder_lift_joint": -1.1394869514688781,
            "shoulder_pan_joint": 0.12281150262730567,
            "wrist_1_joint": -0.7804693444481463,
            "wrist_2_joint": 0.12958644648617612,
            "wrist_3_joint": 3.0906942077768043
        }
    },
    "waypoints": [
        {
            "positions": [
                0.12281150262730567,
                -1.1394869514688781,
                1.971548880431181,
                -0.7804693444481463,
                0.12958644648617612,
                3.0906942077768043
            ]
        },
        {
            "positions": [
                0.056522551618527164,
                -1.1732438898499584,
                2.0360993192806993,
                -0.8156356955988201,
                0.28536727241252136,
                3.103684503666971
            ]
        },
        {
            "positions": [
                -0.00976639939025134,
                -1.207000828231039,
                2.100649758130218,
                -0.850802046749494,
                0.4411480983388666,
                3.116674799557138
            ]
        },
        {
            "positions": [
                -0.07605535039902986,
                -1.2407577666121192,
                2.1652001969797365,
                -0.8859683979001678,
                0.5969289242652118,
                3.129665095447305
            ]
        },
        {
            "positions": [
                -0.14234430140780835,
                -1.2745147049931997,
                2.229750635829255,
                -0.9211347490508417,
                0.7527097501915571,
                3.1426553913374713
            ]
        },
        {
            "positions": [
                -0.20863325241658687,
                -1.30827164337428,
                2.2943010746787738,
                -0.9563011002015155,
                0.9084905761179024,
                3.155645687227638
            ]
        },
        {
            "positions": [
                -0.2749222034253654,
                -1.3420285817553603,
                2.3588515135282924,
                -0.9914674513521893,
                1.0642714020442474,
                3.168635983117805
            ]
        },
        {
            "positions": [
                -0.3412111544341439,
                -1.3757855201364408,
                2.423401952377811,
                -1.0266338025028632,
                1.2200522279705928,
                3.181626279007972
            ]
        }
    ]
}