{
    "goal": {
        "global_pose": {
            "orientation": {
                "w": 0.005598929693374612,
                "x": 0.007748599140229565,
                "y": 0.7110244013736278,
                "z": -0.7031023480610252
            },
            "position": {
                "x": 0.1141497679147869,
                "y": -0.7141253447532654,
                "z": 0.3711530566215515
            }
        },
        "name": "move_to_auspresseinheit_B"
    },
    "id": "ProjEST_move_to_auspresseinheit_B_60",
    "joint_names": [
        "shoulder_pan_joint",
        "shoulder_lift_joint",
        "elbow_joint",
        "wrist_1_joint",
        "wrist_2_joint",
        "wrist_3_joint"
    ],
    "metrics": {
        "cart_traj_len": 0.5648461589714606,
        "distance_elbow_joint": 0.06506035132715948,
        "distance_shoulder_lift_joint": 0.29259494640958383,
        "distance_shoulder_pan_joint": 0.5773112019575406,
        "distance_wrist_1_joint": 0.3319680060743917,
        "distance_wrist_2_joint": 0.9917506820129125,
        "distance_wrist_3_joint": 0.004138336400293596,
        "smoothness": 0.0,
        "time": 0.088952504,
        "traj_len": 1.5042684348818471,
        "weighted_distance": 1.8960007608304836
    },
    "planner": "ProjEST",
    "start": {
        "state": {
            "elbow_joint": 2.0193061681459312,
            "shoulder_lift_joint": -1.1220205130644991,
            "shoulder_pan_joint": -1.0952072088045026,
            "wrist_1_joint": -0.8559671810662515,
            "wrist_2_joint": 0.4759638712940361,
            "wrist_3_joint": 3.159081874192446
        }
    },
    "waypoints": [
        {
            "positions": [
                -1.0952072088045026,
                -1.1220205130644991,
                2.0193061681459312,
                -0.8559671810662515,
                0.4759638712940361,
                3.159081874192446
            ]
        },
        {
            "positions": [
                -1.1914257424640926,
                -1.1707863374660965,
                2.0084627762580713,
                -0.8006391800538528,
                0.6412556516295216,
                3.1583921514590636
            ]
        },
        {
            "positions": [
                -1.2876442761236828,
                -1.2195521618676937,
                1.9976193843702115,
                -0.7453111790414543,
                0.806547431965007,
                3.1577024287256816
            ]
        },
        {
            "positions": [
                -1.383862809783273,
                -1.268317986269291,
                1.9867759924823516,
                -0.6899831780290556,
                0.9718392123004924,
                3.157012705992299
            ]
        },
        {
            "positions": [
                -1.480081343442863,
                -1.3170838106708884,
                1.9759326005944915,
                -0.6346551770166571,
                1.1371309926359778,
                3.156322983258917
            ]
        },
        {
            "positions": [
                -1.576299877102453,
                -1.3658496350724856,
                1.9650892087066316,
                -0.5793271760042584,
                1.3024227729714632,
                3.155633260525535
            ]
        },
        {
            "positions": [
                -1.6725184107620432,
                -1.414615459474083,
                1.9542458168187717,
                -0.5239991749918598,
                1.4677145533069487,
                3.1549435377921524
            ]
        }
    ]
}