{
    "goal": {
        "global_pose": {
            "orientation": {
                "w": 0.7047431468963623,
                "x": -0.7094548344612122,
                "y": 0.0024358443915843964,
                "z": -0.0022348060738295317
            },
            "position": {
                "x": 0.6094750761985779,
                "y": 0.3671506643295288,
                "z": 0.19426114857196808
            }
        },
        "name": "move_to_magneteinheit_A"
    },
    "id": "ProjEST_move_to_magneteinheit_A_66",
    "joint_names": [
        "shoulder_pan_joint",
        "shoulder_lift_joint",
        "elbow_joint",
        "wrist_1_joint",
        "wrist_2_joint",
        "wrist_3_joint"
    ],
    "metrics": {
        "cart_traj_len": 1.5925796206376677,
        "distance_elbow_joint": 3.5299534719886054,
        "distance_shoulder_lift_joint": 1.137451481369697,
        "distance_shoulder_pan_joint": 1.2409961808381862,
        "distance_wrist_1_joint": 3.84789286925982,
        "distance_wrist_2_joint": 1.6913618023881611,
        "distance_wrist_3_joint": 5.054360663428755,
        "smoothness": 7.435912363694704e-16,
        "time": 0.123941859,
        "traj_len": 4.06226740494434,
        "weighted_distance": 5.670096336728214
    },
    "planner": "ProjEST",
    "start": {
        "state": {
            "elbow_joint": -1.5739458827952972,
            "shoulder_lift_joint": 0.006533473998580023,
            "shoulder_pan_joint": -1.1188671628667068,
            "wrist_1_joint": 3.138208179676308,
            "wrist_2_joint": -1.5706037135050406,
            "wrist_3_joint": -2.0226958329764257
        }
    },
    "waypoints": [
        {
            "positions": [
                -1.1188671628667068,
                0.006533473998580023,
                -1.5739458827952972,
                3.138208179676308,
                -1.5706037135050406,
                -2.0226958329764257
            ]
        },
        {
            "positions": [
                -1.089319634751512,
                -0.020548704129269905,
                -1.4898993715574733,
                3.0465916827891695,
                -1.5303331944005605,
                -1.9023539124185982
            ]
        },
        {
            "positions": [
                -1.059772106636317,
                -0.04763088225711983,
                -1.4058528603196494,
                2.9549751859020312,
                -1.4900626752960806,
                -1.7820119918607709
            ]
        },
        {
            "positions": [
                -1.0302245785211221,
                -0.07471306038496976,
                -1.3218063490818255,
                2.8633586890148925,
                -1.4497921561916005,
                -1.6616700713029433
            ]
        },
        {
            "positions": [
                -1.0006770504059272,
                -0.10179523851281969,
                -1.2377598378440016,
                2.771742192127754,
                -1.4095216370871204,
                -1.5413281507451158
            ]
        },
        {
            "positions": [
                -0.9711295222907323,
                -0.1288774166406696,
                -1.1537133266061776,
                2.680125695240615,
                -1.3692511179826405,
                -1.4209862301872884
            ]
        },
        {
            "positions": [
                -0.9415819941755375,
                -0.15595959476851953,
                -1.0696668153683535,
                2.588509198353477,
                -1.3289805988781604,
                -1.3006443096294609
            ]
        },
        {
            "positions": [
                -0.9120344660603426,
                -0.18304177289636944,
                -0.9856203041305297,
                2.4968927014663382,
                -1.2887100797736804,
                -1.1803023890716333
            ]
        },
        {
            "positions": [
                -0.8824869379451475,
                -0.21012395102421938,
                -0.9015737928927058,
                2.4052762045791996,
                -1.2484395606692003,
                -1.0599604685138058
            ]
        },
        {
            "positions": [
                -0.8529394098299528,
                -0.23720612915206932,
                -0.8175272816548819,
                2.313659707692061,
                -1.2081690415647204,
                -0.9396185479559784
            ]
        },
        {
            "positions": [
                -0.8233918817147577,
                -0.26428830727991925,
                -0.733480770417058,
                2.2220432108049226,
                -1.1678985224602403,
                -0.8192766273981509
            ]
        },
        {
            "positions": [
                -0.7938443535995628,
                -0.2913704854077692,
                -0.6494342591792338,
                2.130426713917784,
                -1.1276280033557602,
                -0.6989347068403233
            ]
        },
        {
            "positions": [
                -0.764296825484368,
                -0.31845266353561913,
                -0.56538774794141,
                2.0388102170306457,
                -1.0873574842512803,
                -0.578592786282496
            ]
        },
        {
            "positions": [
                -0.7347492973691729,
                -0.3455348416634691,
                -0.4813412367035861,
                1.9471937201435068,
                -1.0470869651468002,
                -0.4582508657246682
            ]
        },
        {
            "positions": [
                -0.7052017692539782,
                -0.37261701979131895,
                -0.39729472546576217,
                1.8555772232563683,
                -1.0068164460423201,
                -0.3379089451668409
            ]
        },
        {
            "positions": [
                -0.6756542411387831,
                -0.3996991979191689,
                -0.313248214227938,
                1.7639607263692296,
                -0.9665459269378401,
                -0.21756702460901334
            ]
        },
        {
            "positions": [
                -0.6461067130235882,
                -0.4267813760470188,
                -0.22920170299011433,
                1.6723442294820912,
                -0.9262754078333602,
                -0.097225104051186
            ]
        },
        {
            "positions": [
                -0.6165591849083933,
                -0.4538635541748688,
                -0.1451551917522902,
                1.5807277325949525,
                -0.8860048887288801,
                0.02311681650664177
            ]
        },
        {
            "positions": [
                -0.5870116567931986,
                -0.4809457323027187,
                -0.061108680514466496,
                1.489111235707814,
                -0.8457343696244002,
                0.14345873706446888
            ]
        },
        {
            "positions": [
                -0.5574641286780035,
                -0.5080279104305686,
                0.022937830723357644,
                1.3974947388206753,
                -0.8054638505199201,
                0.26380065762229643
            ]
        },
        {
            "positions": [
                -0.5279166005628086,
                -0.5351100885584185,
                0.10698434196118134,
                1.3058782419335369,
                -0.7651933314154401,
                0.384142578180124
            ]
        },
        {
            "positions": [
                -0.49836907244761375,
                -0.5621922666862684,
                0.19103085319900548,
                1.2142617450463982,
                -0.72492281231096,
                0.5044844987379515
            ]
        },
        {
            "positions": [
                -0.46882154433241885,
                -0.5892744448141184,
                0.2750773644368296,
                1.1226452481592597,
                -0.6846522932064799,
                0.6248264192957791
            ]
        },
        {
            "positions": [
                -0.43927401621722384,
                -0.6163566229419684,
                0.35912387567465354,
                1.031028751272121,
                -0.6443817741019998,
                0.7451683398536066
            ]
        },
        {
            "positions": [
                -0.40972648810202905,
                -0.6434388010698182,
                0.44317038691247723,
                0.9394122543849828,
                -0.6041112549975199,
                0.8655102604114338
            ]
        },
        {
            "positions": [
                -0.38017895998683415,
                -0.6705209791976682,
                0.5272168981503011,
                0.8477957574978441,
                -0.56384073589304,
                0.9858521809692613
            ]
        },
        {
            "positions": [
                -0.35063143187163914,
                -0.6976031573255181,
                0.6112634093881251,
                0.7561792606107054,
                -0.5235702167885599,
                1.1061941015270893
            ]
        },
        {
            "positions": [
                -0.32108390375644424,
                -0.724685335453368,
                0.6953099206259494,
                0.6645627637235667,
                -0.48329969768407977,
                1.2265360220849169
            ]
        },
        {
            "positions": [
                -0.29153637564124946,
                -0.7517675135812178,
                0.7793564318637729,
                0.5729462668364285,
                -0.4430291785795999,
                1.346877942642744
            ]
        },
        {
            "positions": [
                -0.26198884752605445,
                -0.7788496917090678,
                0.8634029431015968,
                0.4813297699492898,
                -0.4027586594751198,
                1.4672198632005715
            ]
        },
        {
            "positions": [
                -0.23244131941085955,
                -0.8059318698369178,
                0.9474494543394212,
                0.3897132730621511,
                -0.3624881403706397,
                1.587561783758399
            ]
        },
        {
            "positions": [
                -0.20289379129566465,
                -0.8330140479647677,
                1.031495965577245,
                0.2980967761750124,
                -0.3222176212661596,
                1.7079037043162266
            ]
        },
        {
            "positions": [
                -0.17334626318046975,
                -0.8600962260926176,
                1.1155424768150686,
                0.20648027928787416,
                -0.28194710216167973,
                1.8282456248740537
            ]
        },
        {
            "positions": [
                -0.14379873506527485,
                -0.8871784042204676,
                1.1995889880528925,
                0.11486378240073547,
                -0.24167658305719963,
                1.9485875454318813
            ]
        },
        {
            "positions": [
                -0.11425120695007984,
                -0.9142605823483175,
                1.2836354992907169,
                0.023247285513596783,
                -0.20140606395271954,
                2.0689294659897093
            ]
        },
        {
            "positions": [
                -0.08470367883488494,
                -0.9413427604761675,
                1.3676820105285408,
                -0.0683692113735419,
                -0.16113554484823966,
                2.1892713865475364
            ]
        },
        {
            "positions": [
                -0.05515615071969027,
                -0.9684249386040173,
                1.4517285217663642,
                -0.15998570826068015,
                -0.12086502574375979,
                2.3096133071053635
            ]
        },
        {
            "positions": [
                -0.025608622604495146,
                -0.9955071167318672,
                1.5357750330041886,
                -0.25160220514781884,
                -0.0805945066392797,
                2.4299552276631915
            ]
        },
        {
            "positions": [
                0.003938905510699753,
                -1.0225892948597173,
                1.6198215442420125,
                -0.3432187020349575,
                -0.0403239875347996,
                2.5502971482210186
            ]
        },
        {
            "positions": [
                0.03348643362589465,
                -1.0496714729875671,
                1.7038680554798364,
                -0.4348351989220962,
                -5.346843031950321e-05,
                2.6706390687788466
            ]
        },
        {
            "positions": [
                0.06303396174108955,
                -1.076753651115417,
                1.78791456671766,
                -0.5264516958092345,
                0.04021705067416037,
                2.7909809893366737
            ]
        },
        {
            "positions": [
                0.09258148985628445,
                -1.103835829243267,
                1.8719610779554843,
                -0.6180681926963731,
                0.08048756977864047,
                2.911322909894501
            ]
        },
        {
            "positions": [
                0.12212901797147944,
                -1.130918007371117,
                1.9560075891933082,
                -0.7096846895835117,
                0.12075808888312065,
                3.0316648304523284
            ]
        }
    ]
}