{
    "goal": {
        "global_pose": {
            "orientation": {
                "w": 0.005598929693374612,
                "x": 0.007748599140229565,
                "y": 0.7110244013736278,
                "z": -0.7031023480610252
            },
            "position": {
                "x": 0.1141497679147869,
                "y": -0.7141253447532654,
                "z": 0.3711530566215515
            }
        },
        "name": "move_to_auspresseinheit_B"
    },
    "id": "ProjEST_move_to_auspresseinheit_B_89",
    "joint_names": [
        "shoulder_pan_joint",
        "shoulder_lift_joint",
        "elbow_joint",
        "wrist_1_joint",
        "wrist_2_joint",
        "wrist_3_joint"
    ],
    "metrics": {
        "cart_traj_len": 0.5645129520350645,
        "distance_elbow_joint": 0.06198514101307784,
        "distance_shoulder_lift_joint": 0.2956801039640662,
        "distance_shoulder_pan_joint": 0.5771373021705581,
        "distance_wrist_1_joint": 0.32366443571804127,
        "distance_wrist_2_joint": 0.989874831250531,
        "distance_wrist_3_joint": 0.007221921470291992,
        "smoothness": 5.075305295617109e-16,
        "time": 0.13027897800000002,
        "traj_len": 1.5018534334569955,
        "weighted_distance": 1.8930258438530951
    },
    "planner": "ProjEST",
    "start": {
        "state": {
            "elbow_joint": 2.0193061681459312,
            "shoulder_lift_joint": -1.1220205130644991,
            "shoulder_pan_joint": -1.0952072088045026,
            "wrist_1_joint": -0.8559671810662515,
            "wrist_2_joint": 0.4759638712940361,
            "wrist_3_joint": 3.159081874192446
        }
    },
    "waypoints": [
        {
            "positions": [
                -1.0952072088045026,
                -1.1220205130644991,
                2.0193061681459312,
                -0.8559671810662515,
                0.4759638712940361,
                3.159081874192446
            ]
        },
        {
            "positions": [
                -1.1913967591662624,
                -1.1713005303918436,
                2.0089753113104183,
                -0.8020231084465779,
                0.6409430098357913,
                3.157878220614064
            ]
        },
        {
            "positions": [
                -1.287586309528022,
                -1.2205805477191878,
                1.9986444544749054,
                -0.7480790358269044,
                0.8059221483775465,
                3.156674567035682
            ]
        },
        {
            "positions": [
                -1.3837758598897816,
                -1.2698605650465322,
                1.9883135976393924,
                -0.6941349632072309,
                0.9709012869193017,
                3.1554709134573002
            ]
        },
        {
            "positions": [
                -1.4799654102515414,
                -1.3191405823738767,
                1.9779827408038793,
                -0.6401908905875573,
                1.1358804254610568,
                3.154267259878918
            ]
        },
        {
            "positions": [
                -1.5761549606133012,
                -1.3684205997012209,
                1.9676518839683663,
                -0.5862468179678837,
                1.300859564002812,
                3.153063606300536
            ]
        },
        {
            "positions": [
                -1.6723445109750608,
                -1.4177006170285653,
                1.9573210271328534,
                -0.5323027453482102,
                1.4658387025445672,
                3.151859952722154
            ]
        }
    ]
}