{
    "goal": {
        "global_pose": {
            "orientation": {
                "w": -0.00223480608172531,
                "x": 0.0024358444001904467,
                "y": 0.7094548369677653,
                "z": -0.704743149386269
            },
            "position": {
                "x": 0.6205249238014221,
                "y": -0.6371506643295288,
                "z": 0.19426114857196808
            }
        },
        "name": "move_to_magneteinheit_B"
    },
    "id": "ProjEST_move_to_magneteinheit_B_14",
    "joint_names": [
        "shoulder_pan_joint",
        "shoulder_lift_joint",
        "elbow_joint",
        "wrist_1_joint",
        "wrist_2_joint",
        "wrist_3_joint"
    ],
    "metrics": {
        "cart_traj_len": 1.4534660904175978,
        "distance_elbow_joint": 0.7249977017079556,
        "distance_shoulder_lift_joint": 1.2450257838524597,
        "distance_shoulder_pan_joint": 1.6214637849305313,
        "distance_wrist_1_joint": 2.6204634537941534,
        "distance_wrist_2_joint": 2.9370179217871732,
        "distance_wrist_3_joint": 3.1305054723870294,
        "smoothness": 4.996003619058102e-16,
        "time": 0.022169857,
        "traj_len": 3.5042080586716455,
        "weighted_distance": 4.908967960662881
    },
    "planner": "ProjEST",
    "start": {
        "state": {
            "elbow_joint": 2.393587130804639,
            "shoulder_lift_joint": -1.9085141043513325,
            "shoulder_pan_joint": 0.7066247066698809,
            "wrist_1_joint": -0.4678290934590222,
            "wrist_2_joint": 0.7096259084215963,
            "wrist_3_joint": 3.147370379541726
        }
    },
    "waypoints": [
        {
            "positions": [
                0.7066247066698809,
                -1.9085141043513325,
                2.393587130804639,
                -0.4678290934590222,
                0.7096259084215963,
                3.147370379541726
            ]
        },
        {
            "positions": [
                0.654319423285025,
                -1.8683519822915757,
                2.3702001081688984,
                -0.38329801430437205,
                0.6148833948155585,
                3.0463863320453703
            ]
        },
        {
            "positions": [
                0.6020141399001692,
                -1.828189860231819,
                2.346813085533158,
                -0.29876693514972197,
                0.5201408812095207,
                2.9454022845490146
            ]
        },
        {
            "positions": [
                0.5497088565153133,
                -1.7880277381720622,
                2.3234260628974175,
                -0.2142358559950719,
                0.4253983676034829,
                2.8444182370526585
            ]
        },
        {
            "positions": [
                0.49740357313045747,
                -1.7478656161123054,
                2.3000390402616766,
                -0.12970477684042175,
                0.330655853997445,
                2.743434189556303
            ]
        },
        {
            "positions": [
                0.4450982897456016,
                -1.7077034940525486,
                2.276652017625936,
                -0.045173697685771674,
                0.2359133403914072,
                2.642450142059947
            ]
        },
        {
            "positions": [
                0.39279300636074577,
                -1.6675413719927918,
                2.2532649949901957,
                0.039357381468878405,
                0.1411708267853694,
                2.5414660945635914
            ]
        },
        {
            "positions": [
                0.3404877229758899,
                -1.627379249933035,
                2.2298779723544553,
                0.1238884606235286,
                0.04642831317933149,
                2.4404820470672357
            ]
        },
        {
            "positions": [
                0.28818243959103407,
                -1.5872171278732785,
                2.206490949718715,
                0.20841953977817868,
                -0.04831420042670631,
                2.33949799957088
            ]
        },
        {
            "positions": [
                0.23587715620617816,
                -1.5470550058135215,
                2.1831039270829744,
                0.29295061893282887,
                -0.14305671403274423,
                2.238513952074524
            ]
        },
        {
            "positions": [
                0.18357187282132237,
                -1.506892883753765,
                2.159716904447234,
                0.37748169808747883,
                -0.23779922763878192,
                2.137529904578168
            ]
        },
        {
            "positions": [
                0.13126658943646652,
                -1.466730761694008,
                2.136329881811493,
                0.462012777242129,
                -0.33254174124481994,
                2.036545857081812
            ]
        },
        {
            "positions": [
                0.07896130605161067,
                -1.4265686396342514,
                2.1129428591757526,
                0.546543856396779,
                -0.4272842548508575,
                1.9355618095854568
            ]
        },
        {
            "positions": [
                0.02665602266675482,
                -1.3864065175744944,
                2.089555836540012,
                0.6310749355514294,
                -0.5220267684568956,
                1.8345777620891008
            ]
        },
        {
            "positions": [
                -0.02564926071810103,
                -1.3462443955147378,
                2.0661688139042718,
                0.7156060147060794,
                -0.6167692820629334,
                1.7335937145927451
            ]
        },
        {
            "positions": [
                -0.07795454410295688,
                -1.306082273454981,
                2.0427817912685313,
                0.8001370938607295,
                -0.7115117956689712,
                1.6326096670963892
            ]
        },
        {
            "positions": [
                -0.13025982748781273,
                -1.2659201513952243,
                2.019394768632791,
                0.8846681730153796,
                -0.806254309275009,
                1.5316256196000335
            ]
        },
        {
            "positions": [
                -0.18256511087266847,
                -1.2257580293354677,
                1.9960077459970502,
                0.9691992521700297,
                -0.9009968228810468,
                1.4306415721036778
            ]
        },
        {
            "positions": [
                -0.23487039425752454,
                -1.1855959072757107,
                1.9726207233613098,
                1.05373033132468,
                -0.9957393364870848,
                1.3296575246073217
            ]
        },
        {
            "positions": [
                -0.2871756776423803,
                -1.145433785215954,
                1.9492337007255691,
                1.13826141047933,
                -1.0904818500931226,
                1.228673477110966
            ]
        },
        {
            "positions": [
                -0.33948096102723613,
                -1.1052716631561972,
                1.9258466780898287,
                1.22279248963398,
                -1.1852243636991602,
                1.1276894296146103
            ]
        },
        {
            "positions": [
                -0.391786244412092,
                -1.0651095410964406,
                1.9024596554540882,
                1.30732356878863,
                -1.279966877305198,
                1.0267053821182546
            ]
        },
        {
            "positions": [
                -0.4440915277969478,
                -1.0249474190366836,
                1.8790726328183478,
                1.3918546479432803,
                -1.3747093909112362,
                0.9257213346218984
            ]
        },
        {
            "positions": [
                -0.4963968111818037,
                -0.984785296976927,
                1.8556856101826074,
                1.4763857270979304,
                -1.469451904517274,
                0.8247372871255427
            ]
        },
        {
            "positions": [
                -0.5487020945666595,
                -0.9446231749171702,
                1.8322985875468667,
                1.5609168062525802,
                -1.5641944181233114,
                0.7237532396291875
            ]
        },
        {
            "positions": [
                -0.6010073779515154,
                -0.9044610528574135,
                1.8089115649111263,
                1.6454478854072303,
                -1.6589369317293492,
                0.6227691921328318
            ]
        },
        {
            "positions": [
                -0.6533126613363712,
                -0.8642989307976565,
                1.7855245422753856,
                1.7299789645618808,
                -1.7536794453353874,
                0.5217851446364756
            ]
        },
        {
            "positions": [
                -0.7056179447212271,
                -0.8241368087379,
                1.7621375196396452,
                1.814510043716531,
                -1.8484219589414252,
                0.42080109714011993
            ]
        },
        {
            "positions": [
                -0.7579232281060829,
                -0.7839746866781432,
                1.7387504970039047,
                1.899041122871181,
                -1.943164472547463,
                0.31981704964376423
            ]
        },
        {
            "positions": [
                -0.8102285114909388,
                -0.7438125646183864,
                1.7153634743681643,
                1.983572202025831,
                -2.0379069861535006,
                0.21883300214740853
            ]
        },
        {
            "positions": [
                -0.8625337948757946,
                -0.7036504425586296,
                1.6919764517324236,
                2.068103281180481,
                -2.1326494997595384,
                0.11784895465105238
            ]
        },
        {
            "positions": [
                -0.9148390782606505,
                -0.6634883204988729,
                1.6685894290966832,
                2.152634360335131,
                -2.2273920133655767,
                0.01686490715469665
            ]
        }
    ]
}