{
    "goal": {
        "global_pose": {
            "orientation": {
                "w": 0.7047431468963623,
                "x": -0.7094548344612122,
                "y": 0.0024358443915843964,
                "z": -0.0022348060738295317
            },
            "position": {
                "x": 0.6094750761985779,
                "y": 0.3671506643295288,
                "z": 0.19426114857196808
            }
        },
        "name": "move_to_magneteinheit_A"
    },
    "id": "ProjEST_move_to_magneteinheit_A_82",
    "joint_names": [
        "shoulder_pan_joint",
        "shoulder_lift_joint",
        "elbow_joint",
        "wrist_1_joint",
        "wrist_2_joint",
        "wrist_3_joint"
    ],
    "metrics": {
        "cart_traj_len": 1.9598486611749382,
        "distance_elbow_joint": 3.560859846095025,
        "distance_shoulder_lift_joint": 0.7800079199993737,
        "distance_shoulder_pan_joint": 1.2412402207241846,
        "distance_wrist_1_joint": 1.23614002986174,
        "distance_wrist_2_joint": 1.4492009739172667,
        "distance_wrist_3_joint": 2.044111033002433,
        "smoothness": 5.392511818304771e-16,
        "time": 0.128365681,
        "traj_len": 3.21116178720413,
        "weighted_distance": 4.133415427147857
    },
    "planner": "ProjEST",
    "start": {
        "state": {
            "elbow_joint": -1.5739458827952972,
            "shoulder_lift_joint": 0.006533473998580023,
            "shoulder_pan_joint": -1.1188671628667068,
            "wrist_1_joint": 3.138208179676308,
            "wrist_2_joint": -1.5706037135050406,
            "wrist_3_joint": -2.0226958329764257
        }
    },
    "waypoints": [
        {
            "positions": [
                -1.1188671628667068,
                0.006533473998580023,
                -1.5739458827952972,
                3.138208179676308,
                -1.5706037135050406,
                -2.0226958329764257
            ]
        },
        {
            "positions": [
                -1.072895302839885,
                -0.022355708223619,
                -1.4420621847917778,
                3.0924252156073546,
                -1.5169296033599566,
                -1.9469880169392986
            ]
        },
        {
            "positions": [
                -1.0269234428130636,
                -0.05124489044581802,
                -1.3101784867882584,
                3.0466422515384015,
                -1.4632554932148727,
                -1.8712802009021714
            ]
        },
        {
            "positions": [
                -0.9809515827862418,
                -0.08013407266801705,
                -1.178294788784739,
                3.000859287469448,
                -1.4095813830697888,
                -1.7955723848650442
            ]
        },
        {
            "positions": [
                -0.9349797227594202,
                -0.10902325489021607,
                -1.0464110907812194,
                2.955076323400495,
                -1.3559072729247048,
                -1.7198645688279173
            ]
        },
        {
            "positions": [
                -0.8890078627325986,
                -0.13791243711241508,
                -0.9145273927777,
                2.9092933593315413,
                -1.3022331627796209,
                -1.64415675279079
            ]
        },
        {
            "positions": [
                -0.8430360027057769,
                -0.1668016193346141,
                -0.7826436947741806,
                2.863510395262588,
                -1.248559052634537,
                -1.568448936753663
            ]
        },
        {
            "positions": [
                -0.7970641426789553,
                -0.19569080155681312,
                -0.6507599967706612,
                2.8177274311936347,
                -1.194884942489453,
                -1.4927411207165358
            ]
        },
        {
            "positions": [
                -0.7510922826521336,
                -0.22457998377901214,
                -0.5188762987671418,
                2.7719444671246816,
                -1.141210832344369,
                -1.4170333046794088
            ]
        },
        {
            "positions": [
                -0.705120422625312,
                -0.2534691660012112,
                -0.3869926007636224,
                2.726161503055728,
                -1.087536722199285,
                -1.3413254886422816
            ]
        },
        {
            "positions": [
                -0.6591485625984903,
                -0.2823583482234102,
                -0.2551089027601028,
                2.680378538986775,
                -1.0338626120542012,
                -1.2656176726051545
            ]
        },
        {
            "positions": [
                -0.6131767025716687,
                -0.31124753044560927,
                -0.12322520475658338,
                2.6345955749178214,
                -0.9801885019091171,
                -1.1899098565680273
            ]
        },
        {
            "positions": [
                -0.567204842544847,
                -0.34013671266780826,
                0.008658493246936017,
                2.5888126108488683,
                -0.9265143917640332,
                -1.1142020405309
            ]
        },
        {
            "positions": [
                -0.5212329825180254,
                -0.3690258948900073,
                0.14054219125045542,
                2.5430296467799147,
                -0.8728402816189492,
                -1.038494224493773
            ]
        },
        {
            "positions": [
                -0.4752611224912038,
                -0.3979150771122063,
                0.2724258892539748,
                2.4972466827109616,
                -0.8191661714738653,
                -0.9627864084566458
            ]
        },
        {
            "positions": [
                -0.42928926246438204,
                -0.4268042593344054,
                0.40430958725749444,
                2.451463718642008,
                -0.7654920613287813,
                -0.8870785924195186
            ]
        },
        {
            "positions": [
                -0.3833174024375604,
                -0.45569344155660435,
                0.5361932852610136,
                2.405680754573055,
                -0.7118179511836974,
                -0.8113707763823916
            ]
        },
        {
            "positions": [
                -0.3373455424107388,
                -0.48458262377880346,
                0.6680769832645332,
                2.3598977905041014,
                -0.6581438410386133,
                -0.7356629603452642
            ]
        },
        {
            "positions": [
                -0.29137368238391714,
                -0.5134718060010024,
                0.7999606812680524,
                2.3141148264351483,
                -0.6044697308935295,
                -0.6599551443081373
            ]
        },
        {
            "positions": [
                -0.2454018223570954,
                -0.5423609882232014,
                0.931844379271572,
                2.2683318623661948,
                -0.5507956207484455,
                -0.5842473282710101
            ]
        },
        {
            "positions": [
                -0.19942996233027388,
                -0.5712501704454004,
                1.0637280772750917,
                2.2225488982972417,
                -0.49712151060336174,
                -0.5085395122338829
            ]
        },
        {
            "positions": [
                -0.15345810230345214,
                -0.6001393526675994,
                1.1956117752786113,
                2.176765934228288,
                -0.4434474004582776,
                -0.43283169619675577
            ]
        },
        {
            "positions": [
                -0.1074862422766305,
                -0.6290285348897985,
                1.3274954732821305,
                2.1309829701593346,
                -0.38977329031319363,
                -0.3571238801596288
            ]
        },
        {
            "positions": [
                -0.06151438224980876,
                -0.6579177171119975,
                1.45937917128565,
                2.0852000060903815,
                -0.3360991801681097,
                -0.2814160641225014
            ]
        },
        {
            "positions": [
                -0.015542522222987243,
                -0.6868068993341965,
                1.5912628692891693,
                2.0394170420214284,
                -0.28242507002302575,
                -0.20570824808537447
            ]
        },
        {
            "positions": [
                0.0304293378038345,
                -0.7156960815563955,
                1.723146567292689,
                1.9936340779524748,
                -0.2287509598779418,
                -0.1300004320482473
            ]
        },
        {
            "positions": [
                0.07640119783065602,
                -0.7445852637785946,
                1.855030265296208,
                1.9478511138835215,
                -0.17507684973285786,
                -0.05429261601112012
            ]
        },
        {
            "positions": [
                0.12237305785747779,
                -0.7734744460007936,
                1.986913963299728,
                1.9020681498145682,
                -0.12140273958777398,
                0.021415200026007095
            ]
        }
    ]
}