{
    "goal": {
        "global_pose": {
            "orientation": {
                "w": 0.005598929693374612,
                "x": 0.007748599140229565,
                "y": 0.7110244013736278,
                "z": -0.7031023480610252
            },
            "position": {
                "x": -0.8858502320852131,
                "y": -0.7141253447532654,
                "z": 0.3711530566215515
            }
        },
        "name": "move_to_auspresseinheit_C"
    },
    "id": "ProjEST_move_to_auspresseinheit_C_86",
    "joint_names": [
        "shoulder_pan_joint",
        "shoulder_lift_joint",
        "elbow_joint",
        "wrist_1_joint",
        "wrist_2_joint",
        "wrist_3_joint"
    ],
    "metrics": {
        "cart_traj_len": 0.49224003269516103,
        "distance_elbow_joint": 0.9878590381428435,
        "distance_shoulder_lift_joint": 0.31945970908775645,
        "distance_shoulder_pan_joint": 0.25644281962739734,
        "distance_wrist_1_joint": 0.6541813837159585,
        "distance_wrist_2_joint": 1.3064521864611458,
        "distance_wrist_3_joint": 0.04887970060293867,
        "smoothness": 8.07434933393631e-16,
        "time": 1.913099113,
        "traj_len": 1.890310778056889,
        "weighted_distance": 2.3731135263659473
    },
    "planner": "ProjEST",
    "start": {
        "state": {
            "elbow_joint": 1.7527959577730765,
            "shoulder_lift_joint": -0.9740617694224828,
            "shoulder_pan_joint": -2.967991417825869,
            "wrist_1_joint": -0.7595177689779385,
            "wrist_2_joint": 1.7443932448376545,
            "wrist_3_joint": 3.1991315425061013
        }
    },
    "waypoints": [
        {
            "positions": [
                -2.967991417825869,
                -0.9740617694224828,
                1.7527959577730765,
                -0.7595177689779385,
                1.7443932448376545,
                3.1991315425061013
            ]
        },
        {
            "positions": [
                -2.9423471358631295,
                -0.9421157985137072,
                1.654010053958792,
                -0.6940996306063427,
                1.6137480261915398,
                3.1942435724458074
            ]
        },
        {
            "positions": [
                -2.9167028539003894,
                -0.9101698276049315,
                1.5552241501445079,
                -0.6286814922347468,
                1.4831028075454253,
                3.1893556023855134
            ]
        },
        {
            "positions": [
                -2.89105857193765,
                -0.8782238566961559,
                1.4564382463302235,
                -0.5632633538631511,
                1.3524575888993107,
                3.18446763232522
            ]
        },
        {
            "positions": [
                -2.86541428997491,
                -0.8462778857873802,
                1.357652342515939,
                -0.49784521549155514,
                1.221812370253196,
                3.179579662264926
            ]
        },
        {
            "positions": [
                -2.83977000801217,
                -0.8143319148786046,
                1.2588664387016548,
                -0.4324270771199593,
                1.0911671516070816,
                3.174691692204632
            ]
        },
        {
            "positions": [
                -2.8141257260494306,
                -0.782385943969829,
                1.1600805348873704,
                -0.3670089387483635,
                0.960521932960967,
                3.169803722144338
            ]
        },
        {
            "positions": [
                -2.788481444086691,
                -0.7504399730610533,
                1.061294631073086,
                -0.30159080037676766,
                0.8298767143148524,
                3.164915752084044
            ]
        },
        {
            "positions": [
                -2.7628371621239514,
                -0.7184940021522777,
                0.9625087272588017,
                -0.23617266200517173,
                0.6992314956687378,
                3.1600277820237506
            ]
        },
        {
            "positions": [
                -2.7371928801612113,
                -0.6865480312435019,
                0.8637228234445173,
                -0.1707545236335759,
                0.5685862770226231,
                3.1551398119634566
            ]
        },
        {
            "positions": [
                -2.7115485981984717,
                -0.6546020603347263,
                0.764936919630233,
                -0.1053363852619801,
                0.4379410583765087,
                3.1502518419031627
            ]
        }
    ]
}