{
    "goal": {
        "global_pose": {
            "orientation": {
                "w": 0.7031023480610252,
                "x": -0.7110244013736278,
                "y": 0.0077485991402295624,
                "z": 0.005598929693374583
            },
            "position": {
                "x": -0.8841497679147869,
                "y": 0.44412534475326537,
                "z": 0.3711530566215515
            }
        },
        "name": "move_to_auspresseinheit_D"
    },
    "id": "ProjEST_move_to_auspresseinheit_D_18",
    "joint_names": [
        "shoulder_pan_joint",
        "shoulder_lift_joint",
        "elbow_joint",
        "wrist_1_joint",
        "wrist_2_joint",
        "wrist_3_joint"
    ],
    "metrics": {
        "cart_traj_len": 0.34471982242130156,
        "distance_elbow_joint": 0.6711391397552338,
        "distance_shoulder_lift_joint": 0.14026311773135713,
        "distance_shoulder_pan_joint": 0.1338165262235921,
        "distance_wrist_1_joint": 0.6274379349375288,
        "distance_wrist_2_joint": 1.4458147158275079,
        "distance_wrist_3_joint": 0.08563144488356,
        "smoothness": 0.0,
        "time": 0.12973632599999999,
        "traj_len": 1.7618464403456904,
        "weighted_distance": 2.3127080273763343
    },
    "planner": "ProjEST",
    "start": {
        "state": {
            "elbow_joint": -1.8275484843655228,
            "shoulder_lift_joint": -2.1267897864000416,
            "shoulder_pan_joint": -0.035127520176001514,
            "wrist_1_joint": -2.3477863256791385,
            "wrist_2_joint": -1.605890476484521,
            "wrist_3_joint": -3.0880375317375353
        }
    },
    "waypoints": [
        {
            "positions": [
                -0.035127520176001514,
                -2.1267897864000416,
                -1.8275484843655228,
                -2.3477863256791385,
                -1.605890476484521,
                -3.0880375317375353
            ]
        },
        {
            "positions": [
                -0.051854585953950524,
                -2.1443226761164613,
                -1.7436560918961186,
                -2.4262160675463296,
                -1.4251636370060825,
                -3.07733360112709
            ]
        },
        {
            "positions": [
                -0.06858165173189953,
                -2.161855565832881,
                -1.6597636994267142,
                -2.5046458094135207,
                -1.244436797527644,
                -3.066629670516645
            ]
        },
        {
            "positions": [
                -0.08530871750984856,
                -2.1793884555493004,
                -1.57587130695731,
                -2.5830755512807118,
                -1.0637099580492055,
                -3.0559257399062
            ]
        },
        {
            "positions": [
                -0.10203578328779757,
                -2.19692134526572,
                -1.4919789144879059,
                -2.661505293147903,
                -0.8829831185707671,
                -3.0452218092957555
            ]
        },
        {
            "positions": [
                -0.11876284906574658,
                -2.21445423498214,
                -1.4080865220185017,
                -2.739935035015094,
                -0.7022562790923286,
                -3.0345178786853104
            ]
        },
        {
            "positions": [
                -0.1354899148436956,
                -2.231987124698559,
                -1.3241941295490975,
                -2.818364776882285,
                -0.5215294396138901,
                -3.0238139480748654
            ]
        },
        {
            "positions": [
                -0.15221698062164463,
                -2.249520014414979,
                -1.2403017370796932,
                -2.896794518749476,
                -0.3408026001354516,
                -3.0131100174644203
            ]
        },
        {
            "positions": [
                -0.16894404639959362,
                -2.2670529041313987,
                -1.156409344610289,
                -2.9752242606166672,
                -0.16007576065701312,
                -3.0024060868539753
            ]
        }
    ]
}