{
    "goal": {
        "global_pose": {
            "orientation": {
                "w": -0.4816463035849501,
                "x": 0.5182115481033762,
                "y": 0.4908360881923453,
                "z": -0.5084816262002911
            },
            "position": {
                "x": -0.8240239810943604,
                "y": 0.19912469901144506,
                "z": 0.16403168439865112
            }
        },
        "name": "move_to_storage_D"
    },
    "id": "ProjEST_move_to_storage_D_140",
    "joint_names": [
        "shoulder_pan_joint",
        "shoulder_lift_joint",
        "elbow_joint",
        "wrist_1_joint",
        "wrist_2_joint",
        "wrist_3_joint"
    ],
    "metrics": {
        "cart_traj_len": 3.981808643201886,
        "distance_elbow_joint": 4.209623809209022,
        "distance_shoulder_lift_joint": 1.3469828604864886,
        "distance_shoulder_pan_joint": 2.813678832063965,
        "distance_wrist_1_joint": 2.2623712728024783,
        "distance_wrist_2_joint": 1.4297013539724859,
        "distance_wrist_3_joint": 3.130427207836586,
        "smoothness": 0.016462229606259066,
        "time": 0.084059032,
        "traj_len": 3.897792367016364,
        "weighted_distance": 5.014550067435679
    },
    "planner": "ProjEST",
    "start": {
        "state": {
            "elbow_joint": -2.384821990628643,
            "shoulder_lift_joint": -2.278805467437664,
            "shoulder_pan_joint": -0.18546946439364564,
            "wrist_1_joint": 1.4845938187801415,
            "wrist_2_joint": 0.178987772454074,
            "wrist_3_joint": 0.03710569632802521
        }
    },
    "waypoints": [
        {
            "positions": [
                -0.18546946439364564,
                -2.278805467437664,
                -2.384821990628643,
                1.4845938187801415,
                0.178987772454074,
                0.03710569632802521
            ]
        },
        {
            "positions": [
                -0.07374111701091421,
                -2.2189691267657214,
                -2.308436536548726,
                1.4321098319187267,
                0.25137849833745046,
                0.035227768459428085
            ]
        },
        {
            "positions": [
                0.03798723037181723,
                -2.1591327860937795,
                -2.232051082468809,
                1.379625845057312,
                0.323769224220827,
                0.033349840590830966
            ]
        },
        {
            "positions": [
                0.1497155777545487,
                -2.099296445421837,
                -2.1556656283888915,
                1.3271418581958971,
                0.39615995010420346,
                0.03147191272223385
            ]
        },
        {
            "positions": [
                0.2614439251372801,
                -2.0394601047498946,
                -2.0792801743089746,
                1.2746578713344823,
                0.46855067598757993,
                0.02959398485363672
            ]
        },
        {
            "positions": [
                0.3731722725200115,
                -1.9796237640779524,
                -2.0028947202290572,
                1.2221738844730676,
                0.5409414018709564,
                0.027716056985039598
            ]
        },
        {
            "positions": [
                0.484900619902743,
                -1.9197874234060102,
                -1.9265092661491403,
                1.1696898976116528,
                0.6133321277543329,
                0.025838129116442475
            ]
        },
        {
            "positions": [
                0.5966289672854744,
                -1.8599510827340677,
                -1.850123812069223,
                1.1172059107502381,
                0.6857228536377094,
                0.023960201247845352
            ]
        },
        {
            "positions": [
                0.7083573146682058,
                -1.8001147420621253,
                -1.773738357989306,
                1.0647219238888233,
                0.7581135795210858,
                0.02208227337924823
            ]
        },
        {
            "positions": [
                0.8200856620509374,
                -1.740278401390183,
                -1.6973529039093886,
                1.0122379370274084,
                0.8305043054044623,
                0.020204345510651107
            ]
        },
        {
            "positions": [
                0.9318140094336687,
                -1.6804420607182409,
                -1.6209674498294717,
                0.9597539501659937,
                0.9028950312878388,
                0.018326417642053984
            ]
        },
        {
            "positions": [
                1.0435423568164002,
                -1.6206057200462984,
                -1.5445819957495543,
                0.9072699633045789,
                0.9752857571712152,
                0.01644848977345686
            ]
        },
        {
            "positions": [
                1.1552707041991317,
                -1.5607693793743562,
                -1.4681965416696372,
                0.8547859764431641,
                1.047676483054592,
                0.014570561904859738
            ]
        },
        {
            "positions": [
                1.266999051581863,
                -1.500933038702414,
                -1.39181108758972,
                0.8023019895817494,
                1.1200672089379684,
                0.012692634036262616
            ]
        },
        {
            "positions": [
                1.3787273989645945,
                -1.4410966980304716,
                -1.315425633509803,
                0.7498180027203345,
                1.1924579348213449,
                0.010814706167665493
            ]
        },
        {
            "positions": [
                1.4904557463473258,
                -1.3812603573585291,
                -1.2390401794298858,
                0.6973340158589197,
                1.2648486607047214,
                0.00893677829906837
            ]
        },
        {
            "positions": [
                1.6021840937300573,
                -1.321424016686587,
                -1.1626547253499686,
                0.644850028997505,
                1.3372393865880978,
                0.007058850430471247
            ]
        },
        {
            "positions": [
                1.656701859910182,
                -1.299688456121051,
                -1.0387007034937448,
                0.5932731285577694,
                1.334418202028179,
                -0.11597163063537647
            ]
        },
        {
            "positions": [
                1.7112196260903068,
                -1.2779528955555153,
                -0.9147466816375207,
                0.5416962281180338,
                1.33159701746826,
                -0.23900211170122418
            ]
        },
        {
            "positions": [
                1.7657373922704314,
                -1.2562173349899797,
                -0.7907926597812969,
                0.4901193276782982,
                1.3287758329083414,
                -0.3620325927670719
            ]
        },
        {
            "positions": [
                1.8202551584505562,
                -1.2344817744244438,
                -0.6668386379250729,
                0.43854242723856257,
                1.3259546483484226,
                -0.4850630738329196
            ]
        },
        {
            "positions": [
                1.8747729246306808,
                -1.212746213858908,
                -0.542884616068849,
                0.38696552679882695,
                1.3231334637885037,
                -0.6080935548987673
            ]
        },
        {
            "positions": [
                1.9292906908108054,
                -1.1910106532933722,
                -0.41893059421262513,
                0.3353886263590914,
                1.320312279228585,
                -0.7311240359646151
            ]
        },
        {
            "positions": [
                1.9838084569909302,
                -1.1692750927278364,
                -0.2949765723564012,
                0.2838117259193558,
                1.3174910946686662,
                -0.8541545170304627
            ]
        },
        {
            "positions": [
                2.0383262231710546,
                -1.1475395321623005,
                -0.17102255050017723,
                0.23223482547962015,
                1.3146699101087473,
                -0.9771849980963104
            ]
        },
        {
            "positions": [
                2.0928439893511794,
                -1.125803971596765,
                -0.04706852864395339,
                0.18065792503988454,
                1.3118487255488285,
                -1.1002154791621583
            ]
        },
        {
            "positions": [
                2.1473617555313043,
                -1.104068411031229,
                0.07688549321227067,
                0.12908102460014892,
                1.3090275409889096,
                -1.223245960228006
            ]
        },
        {
            "positions": [
                2.2018795217114286,
                -1.0823328504656933,
                0.2008395150684945,
                0.0775041241604133,
                1.306206356428991,
                -1.3462764412938537
            ]
        },
        {
            "positions": [
                2.2563972878915535,
                -1.0605972899001574,
                0.32479353692471835,
                0.025927223720677794,
                1.303385171869072,
                -1.4693069223597015
            ]
        },
        {
            "positions": [
                2.3109150540716783,
                -1.0388617293346218,
                0.4487475587809424,
                -0.025649676719057823,
                1.3005639873091532,
                -1.592337403425549
            ]
        },
        {
            "positions": [
                2.3654328202518027,
                -1.017126168769086,
                0.5727015806371663,
                -0.07722657715879344,
                1.2977428027492346,
                -1.7153678844913969
            ]
        },
        {
            "positions": [
                2.4199505864319275,
                -0.9953906082035502,
                0.6966556024933903,
                -0.12880347759852906,
                1.2949216181893157,
                -1.8383983655572445
            ]
        },
        {
            "positions": [
                2.4744683526120523,
                -0.9736550476380144,
                0.820609624349614,
                -0.18038037803826462,
                1.2921004336293969,
                -1.9614288466230922
            ]
        },
        {
            "positions": [
                2.4936859794943356,
                -0.9788841027238692,
                0.9461336486284597,
                -0.2550550125362739,
                1.2638115852694267,
                -2.102915429733776
            ]
        },
        {
            "positions": [
                2.5129036063766192,
                -0.984113157809724,
                1.0716576729073055,
                -0.32972964703428315,
                1.2355227369094566,
                -2.2444020128444593
            ]
        },
        {
            "positions": [
                2.532121233258903,
                -0.9893422128955789,
                1.197181697186151,
                -0.4044042815322924,
                1.2072338885494864,
                -2.3858885959551426
            ]
        },
        {
            "positions": [
                2.551338860141186,
                -0.9945712679814337,
                1.3227057214649967,
                -0.47907891603030167,
                1.1789450401895163,
                -2.5273751790658263
            ]
        },
        {
            "positions": [
                2.5705564870234694,
                -0.9998003230672885,
                1.4482297457438424,
                -0.5537535505283109,
                1.1506561918295461,
                -2.66886176217651
            ]
        },
        {
            "positions": [
                2.589774113905753,
                -1.0050293781531434,
                1.5737537700226882,
                -0.6284281850263203,
                1.122367343469576,
                -2.8103483452871934
            ]
        },
        {
            "positions": [
                2.6089917407880368,
                -1.010258433238998,
                1.6992777943015338,
                -0.7031028195243294,
                1.0940784951096059,
                -2.9518349283978766
            ]
        },
        {
            "positions": [
                2.62820936767032,
                -1.015487488324853,
                1.8248018185803796,
                -0.7777774540223388,
                1.0657896467496357,
                -3.0933215115085604
            ]
        }
    ]
}