{
    "goal": {
        "global_pose": {
            "orientation": {
                "w": 0.7047431493862688,
                "x": -0.7094548369677653,
                "y": 0.0024358444001904,
                "z": -0.0022348060817251984
            },
            "position": {
                "x": -0.39052492380142206,
                "y": 0.3671506643295288,
                "z": 0.19426114857196808
            }
        },
        "name": "move_to_magneteinheit_D"
    },
    "id": "ProjEST_move_to_magneteinheit_D_149",
    "joint_names": [
        "shoulder_pan_joint",
        "shoulder_lift_joint",
        "elbow_joint",
        "wrist_1_joint",
        "wrist_2_joint",
        "wrist_3_joint"
    ],
    "metrics": {
        "cart_traj_len": 4.429290085147231,
        "distance_elbow_joint": 5.400867023320628,
        "distance_shoulder_lift_joint": 1.6288546715026906,
        "distance_shoulder_pan_joint": 3.2234614962679067,
        "distance_wrist_1_joint": 3.273443350532621,
        "distance_wrist_2_joint": 1.794566185339422,
        "distance_wrist_3_joint": 3.3686451321650654,
        "smoothness": 0.9667601710645636,
        "time": 0.17028391,
        "traj_len": 4.323174511759657,
        "weighted_distance": 5.5222402754073014
    },
    "planner": "ProjEST",
    "start": {
        "state": {
            "elbow_joint": 0.7495348899011911,
            "shoulder_lift_joint": -0.6476975780737668,
            "shoulder_pan_joint": -2.711696901376276,
            "wrist_1_joint": -0.0750647808097303,
            "wrist_2_joint": 0.43296659715458535,
            "wrist_3_joint": 3.1361499051832418
        }
    },
    "waypoints": [
        {
            "positions": [
                -2.711696901376276,
                -0.6476975780737668,
                0.7495348899011911,
                -0.0750647808097303,
                0.43296659715458535,
                3.1361499051832418
            ]
        },
        {
            "positions": [
                -2.7143278483599653,
                -0.6697581591406807,
                0.7962505824035458,
                0.007813641896802434,
                0.42690535542335684,
                3.120294637286243
            ]
        },
        {
            "positions": [
                -2.7470466226983863,
                -0.7211858628373635,
                0.7834369247516267,
                0.01184077310269948,
                0.48717260549703634,
                3.199390927570008
            ]
        },
        {
            "positions": [
                -2.7797653970368077,
                -0.7726135665340463,
                0.7706232670997076,
                0.015867904308596525,
                0.5474398555707158,
                3.2784872178537734
            ]
        },
        {
            "positions": [
                -2.7629378537594564,
                -0.792776644110091,
                0.8478466608101008,
                0.11750053537622016,
                0.5140731638052648,
                3.1357940860578446
            ]
        },
        {
            "positions": [
                -2.746110310482105,
                -0.8129397216861355,
                0.9250700545204942,
                0.21913316644384379,
                0.48070647203981376,
                2.9931009542619162
            ]
        },
        {
            "positions": [
                -2.729282767204754,
                -0.8331027992621801,
                1.0022934482308874,
                0.32076579751146744,
                0.44733978027436266,
                2.8504078224659875
            ]
        },
        {
            "positions": [
                -2.7124552239274027,
                -0.8532658768382247,
                1.0795168419412806,
                0.42239842857909105,
                0.4139730885089116,
                2.707714690670059
            ]
        },
        {
            "positions": [
                -2.6956276806500514,
                -0.8734289544142694,
                1.1567402356516738,
                0.5240310596467147,
                0.38060639674346053,
                2.5650215588741303
            ]
        },
        {
            "positions": [
                -2.6788001373727,
                -0.8935920319903139,
                1.233963629362067,
                0.6256636907143384,
                0.3472397049780095,
                2.422328427078202
            ]
        },
        {
            "positions": [
                -2.661972594095349,
                -0.9137551095663585,
                1.3111870230724603,
                0.727296321781962,
                0.31387301321255845,
                2.279635295282273
            ]
        },
        {
            "positions": [
                -2.6451450508179977,
                -0.9339181871424032,
                1.3884104167828535,
                0.8289289528495856,
                0.2805063214471074,
                2.136942163486345
            ]
        },
        {
            "positions": [
                -2.6283175075406464,
                -0.9540812647184478,
                1.465633810493247,
                0.9305615839172093,
                0.24713962968165631,
                1.9942490316904158
            ]
        },
        {
            "positions": [
                -2.611489964263295,
                -0.9742443422944923,
                1.5428572042036401,
                1.0321942149848329,
                0.21377293791620527,
                1.8515558998944872
            ]
        },
        {
            "positions": [
                -2.594662420985944,
                -0.9944074198705369,
                1.6200805979140334,
                1.1338268460524565,
                0.18040624615075423,
                1.7088627680985589
            ]
        },
        {
            "positions": [
                -2.5778348777085927,
                -1.0145704974465815,
                1.6973039916244266,
                1.2354594771200802,
                0.1470395543853032,
                1.5661696363026303
            ]
        },
        {
            "positions": [
                -2.5610073344312414,
                -1.034733575022626,
                1.77452738533482,
                1.3370921081877039,
                0.1136728626198521,
                1.4234765045067015
            ]
        },
        {
            "positions": [
                -2.54417979115389,
                -1.0548966525986707,
                1.8517507790452132,
                1.4387247392553275,
                0.08030617085440106,
                1.280783372710773
            ]
        },
        {
            "positions": [
                -2.4093862795273053,
                -1.1052329076001741,
                1.7584058435562628,
                1.380434801006137,
                0.09896942507718903,
                1.2538185718785924
            ]
        },
        {
            "positions": [
                -2.274592767900721,
                -1.1555691626016777,
                1.6650609080673124,
                1.322144862756946,
                0.11763267929997702,
                1.2268537710464118
            ]
        },
        {
            "positions": [
                -2.139799256274136,
                -1.2059054176031812,
                1.571715972578362,
                1.2638549245077555,
                0.136295933522765,
                1.1998889702142312
            ]
        },
        {
            "positions": [
                -2.0050057446475513,
                -1.2562416726046846,
                1.4783710370894116,
                1.2055649862585647,
                0.15495918774555298,
                1.1729241693820507
            ]
        },
        {
            "positions": [
                -1.8702122330209667,
                -1.306577927606188,
                1.3850261016004612,
                1.147275048009374,
                0.17362244196834095,
                1.1459593685498701
            ]
        },
        {
            "positions": [
                -1.735418721394382,
                -1.3569141826076916,
                1.2916811661115108,
                1.0889851097601833,
                0.19228569619112895,
                1.1189945677176896
            ]
        },
        {
            "positions": [
                -1.6006252097677973,
                -1.407250437609195,
                1.1983362306225604,
                1.0306951715109927,
                0.21094895041391692,
                1.092029766885509
            ]
        },
        {
            "positions": [
                -1.4658316981412125,
                -1.4575866926106984,
                1.10499129513361,
                0.9724052332618021,
                0.2296122046367049,
                1.0650649660533285
            ]
        },
        {
            "positions": [
                -1.331038186514628,
                -1.5079229476122018,
                1.0116463596446597,
                0.9141152950126114,
                0.24827545885949287,
                1.0381001652211481
            ]
        },
        {
            "positions": [
                -1.1962446748880433,
                -1.5582592026137054,
                0.9183014241557091,
                0.8558253567634206,
                0.26693871308228084,
                1.0111353643889676
            ]
        },
        {
            "positions": [
                -1.0614511632614585,
                -1.6085954576152088,
                0.8249564886667589,
                0.79753541851423,
                0.2856019673050688,
                0.984170563556787
            ]
        },
        {
            "positions": [
                -0.9266576516348737,
                -1.6589317126167122,
                0.7316115531778082,
                0.7392454802650392,
                0.30426522152785684,
                0.9572057627246064
            ]
        },
        {
            "positions": [
                -0.7918641400082891,
                -1.7092679676182159,
                0.6382666176888578,
                0.6809555420158485,
                0.3229284757506448,
                0.9302409618924259
            ]
        },
        {
            "positions": [
                -0.6570706283817043,
                -1.7596042226197193,
                0.5449216821999074,
                0.6226656037666579,
                0.3415917299734328,
                0.9032761610602453
            ]
        },
        {
            "positions": [
                -0.5222771167551198,
                -1.8099404776212227,
                0.45157674671095704,
                0.5643756655174672,
                0.36025498419622076,
                0.8763113602280648
            ]
        },
        {
            "positions": [
                -0.4781939237556362,
                -1.8123279743767693,
                0.2553305772059855,
                0.6112746027902806,
                0.3212768280971183,
                0.8329585260099687
            ]
        },
        {
            "positions": [
                -0.4341107307561526,
                -1.8147154711323157,
                0.05908440770101392,
                0.6581735400630939,
                0.28229867199801584,
                0.7896056917918726
            ]
        },
        {
            "positions": [
                -0.390027537756669,
                -1.8171029678878623,
                -0.13716176180395767,
                0.7050724773359073,
                0.24332051589891338,
                0.7462528575737766
            ]
        },
        {
            "positions": [
                -0.3459443447571854,
                -1.819490464643409,
                -0.3334079313089292,
                0.7519714146087206,
                0.2043423597998109,
                0.7029000233556805
            ]
        },
        {
            "positions": [
                -0.30186115175770173,
                -1.8218779613989555,
                -0.5296541008139009,
                0.798870351881534,
                0.16536420370070842,
                0.6595471891375844
            ]
        },
        {
            "positions": [
                -0.25777795875821813,
                -1.824265458154502,
                -0.7259002703188724,
                0.8457692891543473,
                0.126386047601606,
                0.6161943549194883
            ]
        },
        {
            "positions": [
                -0.21369476575873453,
                -1.8266529549100485,
                -0.9221464398238439,
                0.8926682264271607,
                0.0874078915025035,
                0.5728415207013922
            ]
        },
        {
            "positions": [
                -0.16961157275925093,
                -1.8290404516655951,
                -1.1183926093288155,
                0.9395671636999741,
                0.048429735403401064,
                0.5294886864832962
            ]
        },
        {
            "positions": [
                -0.12552837975976727,
                -1.8314279484211415,
                -1.3146387788337872,
                0.9864661009727875,
                0.009451579304298519,
                0.48613585226519995
            ]
        },
        {
            "positions": [
                -0.08144518676028367,
                -1.8338154451766882,
                -1.5108849483387587,
                1.0333650382456008,
                -0.029526576794803916,
                0.4427830180471039
            ]
        },
        {
            "positions": [
                -0.03736199376080013,
                -1.8362029419322348,
                -1.70713111784373,
                1.080263975518414,
                -0.06850473289390635,
                0.3994301838290078
            ]
        },
        {
            "positions": [
                0.006721199238683528,
                -1.8385904386877814,
                -1.9033772873487018,
                1.1271629127912275,
                -0.10748288899300878,
                0.35607734961091175
            ]
        },
        {
            "positions": [
                0.05080439223816713,
                -1.8409779354433278,
                -2.0996234568536734,
                1.174061850064041,
                -0.14646104509211127,
                0.31272451539281565
            ]
        },
        {
            "positions": [
                0.09488758523765073,
                -1.8433654321988744,
                -2.2958696263586447,
                1.2209607873368542,
                -0.18543920119121376,
                0.2693716811747195
            ]
        },
        {
            "positions": [
                0.03873958157106718,
                -1.930002795674391,
                -2.315824845991659,
                1.2667047143189174,
                -0.11040044918816093,
                0.232275331770423
            ]
        },
        {
            "positions": [
                -0.017408422095516365,
                -2.0166401591499077,
                -2.335780065624674,
                1.3124486413009806,
                -0.03536169718510809,
                0.19517898236612652
            ]
        },
        {
            "positions": [
                -0.07355642576209989,
                -2.103277522625424,
                -2.3557352852576883,
                1.3581925682830438,
                0.03967705481794473,
                0.15808263296183006
            ]
        },
        {
            "positions": [
                -0.12970442942868346,
                -2.189914886100941,
                -2.375690504890703,
                1.403936495265107,
                0.11471580682099758,
                0.12098628355753357
            ]
        },
        {
            "positions": [
                -0.185852433095267,
                -2.2765522495764574,
                -2.3956457245237175,
                1.4496804222471702,
                0.18975455882405037,
                0.0838899341532371
            ]
        }
    ]
}