{
    "goal": {
        "global_pose": {
            "orientation": {
                "w": -0.00223480608172531,
                "x": 0.0024358444001904467,
                "y": 0.7094548369677653,
                "z": -0.704743149386269
            },
            "position": {
                "x": -0.37947507619857795,
                "y": -0.6371506643295288,
                "z": 0.19426114857196808
            }
        },
        "name": "move_to_magneteinheit_C"
    },
    "id": "ProjEST_move_to_magneteinheit_C_32",
    "joint_names": [
        "shoulder_pan_joint",
        "shoulder_lift_joint",
        "elbow_joint",
        "wrist_1_joint",
        "wrist_2_joint",
        "wrist_3_joint"
    ],
    "metrics": {
        "cart_traj_len": 2.448180845096735,
        "distance_elbow_joint": 4.116766481499255,
        "distance_shoulder_lift_joint": 0.9741631376774911,
        "distance_shoulder_pan_joint": 1.353592487778901,
        "distance_wrist_1_joint": 1.7843141074353681,
        "distance_wrist_2_joint": 1.3393493431476289,
        "distance_wrist_3_joint": 3.8870570610858723,
        "smoothness": 0.415802747773582,
        "time": 0.477359631,
        "traj_len": 3.668138849420031,
        "weighted_distance": 4.934877930747553
    },
    "planner": "ProjEST",
    "start": {
        "state": {
            "elbow_joint": 1.9565354006593851,
            "shoulder_lift_joint": -1.4165861576512813,
            "shoulder_pan_joint": -1.6717766223278752,
            "wrist_1_joint": -0.528663328821883,
            "wrist_2_joint": 1.472756589259273,
            "wrist_3_joint": 3.159348288315503
        }
    },
    "waypoints": [
        {
            "positions": [
                -1.6717766223278752,
                -1.4165861576512813,
                1.9565354006593851,
                -0.528663328821883,
                1.472756589259273,
                3.159348288315503
            ]
        },
        {
            "positions": [
                -1.5875260042502042,
                -1.4316544847599797,
                1.9303244998703226,
                -0.49293297112898515,
                1.4396693903377622,
                3.0872318596002657
            ]
        },
        {
            "positions": [
                -1.5310173031233298,
                -1.4309017450919463,
                1.8653651478081228,
                -0.4652975030276542,
                1.4095408679556465,
                3.0112407226702493
            ]
        },
        {
            "positions": [
                -1.4745086019964555,
                -1.430149005423913,
                1.8004057957459227,
                -0.4376620349263233,
                1.3794123455735308,
                2.935249585740233
            ]
        },
        {
            "positions": [
                -1.499886782084369,
                -1.408149309512488,
                1.6677509531556902,
                -0.39799546557162435,
                1.3273087561783357,
                2.813837768081761
            ]
        },
        {
            "positions": [
                -1.5252649621722827,
                -1.386149613601063,
                1.5350961105654577,
                -0.3583288962169254,
                1.2752051667831406,
                2.6924259504232886
            ]
        },
        {
            "positions": [
                -1.5506431422601963,
                -1.364149917689638,
                1.4024412679752252,
                -0.3186623268622264,
                1.2231015773879452,
                2.571014132764817
            ]
        },
        {
            "positions": [
                -1.5760213223481097,
                -1.3421502217782126,
                1.2697864253849929,
                -0.2789957575075275,
                1.1709979879927501,
                2.4496023151063446
            ]
        },
        {
            "positions": [
                -1.6013995024360232,
                -1.3201505258667876,
                1.1371315827947601,
                -0.2393291881528285,
                1.118894398597555,
                2.3281904974478724
            ]
        },
        {
            "positions": [
                -1.6267776825239368,
                -1.2981508299553626,
                1.0044767402045278,
                -0.19966261879812958,
                1.06679080920236,
                2.2067786797894007
            ]
        },
        {
            "positions": [
                -1.6521558626118504,
                -1.2761511340439375,
                0.8718218976142953,
                -0.1599960494434306,
                1.0146872198071648,
                2.0853668621309285
            ]
        },
        {
            "positions": [
                -1.677534042699764,
                -1.2541514381325125,
                0.7391670550240628,
                -0.12032948008873168,
                0.9625836304119696,
                1.9639550444724563
            ]
        },
        {
            "positions": [
                -1.7029122227876776,
                -1.2321517422210875,
                0.6065122124338302,
                -0.08066291073403264,
                0.9104800410167744,
                1.842543226813984
            ]
        },
        {
            "positions": [
                -1.728290402875591,
                -1.2101520463096622,
                0.4738573698435977,
                -0.04099634137933372,
                0.8583764516215793,
                1.721131409155512
            ]
        },
        {
            "positions": [
                -1.7536685829635048,
                -1.1881523503982372,
                0.3412025272533654,
                -0.001329772024634801,
                0.8062728622263841,
                1.5997195914970401
            ]
        },
        {
            "positions": [
                -1.7790467630514182,
                -1.1661526544868122,
                0.2085476846631329,
                0.03833679733006412,
                0.754169272831189,
                1.478307773838568
            ]
        },
        {
            "positions": [
                -1.8044249431393318,
                -1.1441529585753871,
                0.07589284207290037,
                0.07800336668476315,
                0.7020656834359937,
                1.3568959561800957
            ]
        },
        {
            "positions": [
                -1.8298031232272454,
                -1.122153262663962,
                -0.05676200051733215,
                0.11766993603946206,
                0.6499620940407986,
                1.2354841385216238
            ]
        },
        {
            "positions": [
                -1.8590761714636017,
                -1.120158119232623,
                -0.07696605432635267,
                0.13534241852129922,
                0.6291457356119499,
                1.1965794918691421
            ]
        },
        {
            "positions": [
                -1.9361809803013845,
                -1.1584494030773493,
                0.11923016373019438,
                0.14436369554911874,
                0.6036369229115023,
                1.22200716914452
            ]
        },
        {
            "positions": [
                -2.0132857891391676,
                -1.1967406869220756,
                0.3154263817867414,
                0.15338497257693826,
                0.5781281102110547,
                1.2474348464198979
            ]
        },
        {
            "positions": [
                -2.0903905979769504,
                -1.2350319707668018,
                0.5116225998432884,
                0.16240624960475777,
                0.552619297510607,
                1.2728625236952757
            ]
        },
        {
            "positions": [
                -2.167495406814733,
                -1.273323254611528,
                0.7078188178998355,
                0.17142752663257727,
                0.5271104848101594,
                1.2982902009706536
            ]
        },
        {
            "positions": [
                -2.244600215652516,
                -1.3116145384562543,
                0.9040150359563826,
                0.18044880366039678,
                0.5016016721097118,
                1.3237178782460315
            ]
        },
        {
            "positions": [
                -2.321705024490299,
                -1.3499058223009806,
                1.1002112540129296,
                0.1894700806882163,
                0.47609285940926427,
                1.3491455555214094
            ]
        },
        {
            "positions": [
                -2.3988098333280816,
                -1.3881971061457068,
                1.2964074720694767,
                0.19849135771603582,
                0.45058404670881663,
                1.3745732327967872
            ]
        },
        {
            "positions": [
                -2.4759146421658644,
                -1.426488389990433,
                1.4926036901260238,
                0.20751263474385534,
                0.425075234008369,
                1.400000910072165
            ]
        },
        {
            "positions": [
                -2.5530194510036472,
                -1.4647796738351593,
                1.6887999081825709,
                0.21653391177167486,
                0.3995664213079214,
                1.425428587347543
            ]
        },
        {
            "positions": [
                -2.5486928153811768,
                -1.4497837721607347,
                1.763118550383559,
                0.12913422445482808,
                0.42636670999590903,
                1.581943678190743
            ]
        },
        {
            "positions": [
                -2.5443661797587063,
                -1.4347878704863104,
                1.8374371925845472,
                0.04173453713798131,
                0.45316699868389665,
                1.7384587690339428
            ]
        },
        {
            "positions": [
                -2.540039544136236,
                -1.4197919688118859,
                1.9117558347855352,
                -0.04566515017886549,
                0.47996728737188427,
                1.8949738598771428
            ]
        },
        {
            "positions": [
                -2.5329071776355776,
                -1.3917436650191595,
                1.9323579448558463,
                -0.13646688376551946,
                0.5025631615883138,
                2.041040513166774
            ]
        },
        {
            "positions": [
                -2.525774811134919,
                -1.3636953612264333,
                1.9529600549261572,
                -0.2272686173521734,
                0.5251590358047433,
                2.1871071664564052
            ]
        },
        {
            "positions": [
                -2.518642444634261,
                -1.335647057433707,
                1.9735621649964683,
                -0.3180703509388274,
                0.5477549100211729,
                2.3331738197460363
            ]
        },
        {
            "positions": [
                -2.50995512222008,
                -1.3008782026262173,
                1.9801095264346074,
                -0.4189728717650889,
                0.571349047317778,
                2.49071260709856
            ]
        },
        {
            "positions": [
                -2.5012677998058996,
                -1.266109347818728,
                1.9866568878727464,
                -0.5198753925913504,
                0.5949431846143831,
                2.6482513944510835
            ]
        },
        {
            "positions": [
                -2.492580477391719,
                -1.2313404930112384,
                1.9932042493108852,
                -0.6207779134176119,
                0.6185373219109881,
                2.8057901818036073
            ]
        },
        {
            "positions": [
                -2.4838931549775385,
                -1.196571638203749,
                1.9997516107490243,
                -0.7216804342438735,
                0.6421314592075932,
                2.963328969156131
            ]
        },
        {
            "positions": [
                -2.4752058325633577,
                -1.1618027833962594,
                2.0062989721871634,
                -0.822582955070135,
                0.6657255965041983,
                3.1208677565086544
            ]
        }
    ]
}