{
    "goal": {
        "global_pose": {
            "orientation": {
                "w": 0.5084816262002911,
                "x": -0.4908360881923452,
                "y": 0.5182115481033761,
                "z": -0.48164630358495003
            },
            "position": {
                "x": 0.5540239810943604,
                "y": -0.46912469901144505,
                "z": 0.16403168439865112
            }
        },
        "name": "move_to_storage_B"
    },
    "id": "ProjEST_move_to_storage_B_93",
    "joint_names": [
        "shoulder_pan_joint",
        "shoulder_lift_joint",
        "elbow_joint",
        "wrist_1_joint",
        "wrist_2_joint",
        "wrist_3_joint"
    ],
    "metrics": {
        "cart_traj_len": 1.769813660116549,
        "distance_elbow_joint": 0.9310635070535211,
        "distance_shoulder_lift_joint": 0.9978661731723573,
        "distance_shoulder_pan_joint": 1.4814945450608035,
        "distance_wrist_1_joint": 2.982576393615889,
        "distance_wrist_2_joint": 2.7013089978795377,
        "distance_wrist_3_joint": 3.175714695191737,
        "smoothness": 0.24716731215618465,
        "time": 0.08917693900000001,
        "traj_len": 3.5028594479330515,
        "weighted_distance": 4.930044532643975
    },
    "planner": "ProjEST",
    "start": {
        "state": {
            "elbow_joint": 1.6649325340416963,
            "shoulder_lift_joint": -0.6616387945129425,
            "shoulder_pan_joint": -0.9139837929255878,
            "wrist_1_joint": 2.1467571094334352,
            "wrist_2_joint": -2.234195976750228,
            "wrist_3_joint": 0.005470921511140723
        }
    },
    "waypoints": [
        {
            "positions": [
                -0.9139837929255878,
                -0.6616387945129425,
                1.6649325340416963,
                2.1467571094334352,
                -2.234195976750228,
                0.005470921511140723
            ]
        },
        {
            "positions": [
                -0.8921195942008702,
                -0.6753588253467004,
                1.6506287821654904,
                2.113341966106776,
                -2.187757806806858,
                -0.009556520380316798
            ]
        },
        {
            "positions": [
                -0.8571994539632987,
                -0.7150568382941687,
                1.6352421802137829,
                1.991181817150144,
                -2.070599856841105,
                0.03638632842467778
            ]
        },
        {
            "positions": [
                -0.8222793137257272,
                -0.7547548512416368,
                1.6198555782620752,
                1.869021668193512,
                -1.953441906875351,
                0.08232917722967237
            ]
        },
        {
            "positions": [
                -0.7873591734881555,
                -0.794452864189105,
                1.6044689763103677,
                1.74686151923688,
                -1.8362839569095977,
                0.12827202603466695
            ]
        },
        {
            "positions": [
                -0.7524390332505841,
                -0.8341508771365731,
                1.5890823743586602,
                1.624701370280248,
                -1.7191260069438439,
                0.17421487483966153
            ]
        },
        {
            "positions": [
                -0.7175188930130125,
                -0.8738488900840413,
                1.5736957724069527,
                1.5025412213236158,
                -1.6019680569780905,
                0.22015772364465613
            ]
        },
        {
            "positions": [
                -0.682598752775441,
                -0.9135469030315095,
                1.558309170455245,
                1.3803810723669838,
                -1.484810107012337,
                0.2661005724496507
            ]
        },
        {
            "positions": [
                -0.6476786125378695,
                -0.9532449159789778,
                1.5429225685035375,
                1.2582209234103519,
                -1.3676521570465834,
                0.3120434212546453
            ]
        },
        {
            "positions": [
                -0.612758472300298,
                -0.9929429289264459,
                1.52753596655183,
                1.13606077445372,
                -1.2504942070808298,
                0.35798627005963984
            ]
        },
        {
            "positions": [
                -0.5778383320627265,
                -1.0326409418739142,
                1.5121493646001225,
                1.0139006254970877,
                -1.1333362571150762,
                0.40392911886463445
            ]
        },
        {
            "positions": [
                -0.5429181918251549,
                -1.0723389548213822,
                1.4967627626484148,
                0.8917404765404555,
                -1.0161783071493227,
                0.44987196766962906
            ]
        },
        {
            "positions": [
                -0.5079980515875834,
                -1.1120369677688504,
                1.4813761606967073,
                0.7695803275838236,
                -0.8990203571835691,
                0.4958148164746236
            ]
        },
        {
            "positions": [
                -0.47307791135001187,
                -1.1517349807163186,
                1.4659895587449998,
                0.6474201786271916,
                -0.7818624072178157,
                0.5417576652796181
            ]
        },
        {
            "positions": [
                -0.43815777111244036,
                -1.1914329936637869,
                1.450602956793292,
                0.5252600296705596,
                -0.6647044572520622,
                0.5877005140846128
            ]
        },
        {
            "positions": [
                -0.4032376308748688,
                -1.231131006611255,
                1.4352163548415846,
                0.40309988071392744,
                -0.5475465072863084,
                0.6336433628896073
            ]
        },
        {
            "positions": [
                -0.36831749063729724,
                -1.270829019558723,
                1.4198297528898771,
                0.2809397317572955,
                -0.4303885573205548,
                0.6795862116946019
            ]
        },
        {
            "positions": [
                -0.33339735039972584,
                -1.3105270325061913,
                1.4044431509381696,
                0.1587795828006635,
                -0.31323060735480146,
                0.7255290604995964
            ]
        },
        {
            "positions": [
                -0.2984772101621542,
                -1.3502250454536595,
                1.389056548986462,
                0.036619433844031324,
                -0.1960726573890479,
                0.7714719093045911
            ]
        },
        {
            "positions": [
                -0.2635570699245827,
                -1.3899230584011277,
                1.3736699470347544,
                -0.08554071511260078,
                -0.07891470742329447,
                0.8174147581095856
            ]
        },
        {
            "positions": [
                -0.3229190572145683,
                -1.3706672077379727,
                1.4193700127523672,
                -0.13913204147473313,
                -0.03991272681239421,
                0.9841087563103269
            ]
        },
        {
            "positions": [
                -0.3822810445045539,
                -1.3514113570748174,
                1.46507007846998,
                -0.19272336783686544,
                -0.0009107462014939505,
                1.1508027545110682
            ]
        },
        {
            "positions": [
                -0.4416430317945395,
                -1.3321555064116624,
                1.510770144187593,
                -0.2463146941989978,
                0.0380912344094063,
                1.3174967527118093
            ]
        },
        {
            "positions": [
                -0.5010050190845251,
                -1.312899655748507,
                1.5564702099052057,
                -0.29990602056113014,
                0.07709321502030657,
                1.4841907509125507
            ]
        },
        {
            "positions": [
                -0.5603670063745108,
                -1.293643805085352,
                1.6021702756228184,
                -0.3534973469232625,
                0.11609519563120684,
                1.6508847491132919
            ]
        },
        {
            "positions": [
                -0.6197289936644963,
                -1.2743879544221968,
                1.6478703413404312,
                -0.4070886732853948,
                0.15509717624210706,
                1.817578747314033
            ]
        },
        {
            "positions": [
                -0.6790909809544818,
                -1.2551321037590417,
                1.693570407058044,
                -0.46067999964752715,
                0.19409915685300733,
                1.9842727455147744
            ]
        },
        {
            "positions": [
                -0.7384529682444675,
                -1.2358762530958867,
                1.7392704727756567,
                -0.5142713260096595,
                0.2331011374639076,
                2.1509667437155153
            ]
        },
        {
            "positions": [
                -0.7978149555344531,
                -1.2166204024327314,
                1.7849705384932697,
                -0.5678626523717919,
                0.27210311807480786,
                2.317660741916257
            ]
        },
        {
            "positions": [
                -0.8571769428244387,
                -1.1973645517695763,
                1.8306706042108825,
                -0.6214539787339242,
                0.3111050986857081,
                2.484354740116998
            ]
        },
        {
            "positions": [
                -0.9165389301144242,
                -1.178108701106421,
                1.8763706699284954,
                -0.6750453050960565,
                0.35010707929660834,
                2.6510487383177397
            ]
        },
        {
            "positions": [
                -0.9759009174044099,
                -1.158852850443266,
                1.9220707356461082,
                -0.7286366314581888,
                0.3891090599075086,
                2.8177427365184804
            ]
        },
        {
            "positions": [
                -1.0352629046943955,
                -1.1395969997801108,
                1.967770801363721,
                -0.7822279578203213,
                0.4281110405184089,
                2.984436734719222
            ]
        },
        {
            "positions": [
                -1.094624891984381,
                -1.1203411491169557,
                2.0134708670813337,
                -0.8358192841824535,
                0.4671130211293092,
                3.151130732919963
            ]
        }
    ]
}