{
    "goal": {
        "global_pose": {
            "orientation": {
                "w": 0.7031023480610252,
                "x": -0.7110244013736278,
                "y": 0.0077485991402295624,
                "z": 0.005598929693374583
            },
            "position": {
                "x": -0.8841497679147869,
                "y": 0.44412534475326537,
                "z": 0.3711530566215515
            }
        },
        "name": "move_to_auspresseinheit_D"
    },
    "id": "ProjEST_move_to_auspresseinheit_D_118",
    "joint_names": [
        "shoulder_pan_joint",
        "shoulder_lift_joint",
        "elbow_joint",
        "wrist_1_joint",
        "wrist_2_joint",
        "wrist_3_joint"
    ],
    "metrics": {
        "cart_traj_len": 0.343533532563555,
        "distance_elbow_joint": 0.6457826335560566,
        "distance_shoulder_lift_joint": 0.12520155183279513,
        "distance_shoulder_pan_joint": 0.13312383082217547,
        "distance_wrist_1_joint": 0.5432198449929917,
        "distance_wrist_2_joint": 1.448360270148786,
        "distance_wrist_3_joint": 0.0009983429990678694,
        "smoothness": 3.9474596431116675e-16,
        "time": 0.049830354,
        "traj_len": 1.7019654739012402,
        "weighted_distance": 2.211393966594778
    },
    "planner": "ProjEST",
    "start": {
        "state": {
            "elbow_joint": -1.8275484843655228,
            "shoulder_lift_joint": -2.1267897864000416,
            "shoulder_pan_joint": -0.035127520176001514,
            "wrist_1_joint": -2.3477863256791385,
            "wrist_2_joint": -1.605890476484521,
            "wrist_3_joint": -3.0880375317375353
        }
    },
    "waypoints": [
        {
            "positions": [
                -0.035127520176001514,
                -2.1267897864000416,
                -1.8275484843655228,
                -2.3477863256791385,
                -1.605890476484521,
                -3.0880375317375353
            ]
        },
        {
            "positions": [
                -0.05176799902877345,
                -2.142439980379141,
                -1.7468256551710157,
                -2.4156888063032627,
                -1.4248454427159227,
                -3.0879127388626517
            ]
        },
        {
            "positions": [
                -0.06840847788154539,
                -2.1580901743582404,
                -1.6661028259765085,
                -2.4835912869273864,
                -1.2438004089473245,
                -3.087787945987768
            ]
        },
        {
            "positions": [
                -0.08504895673431731,
                -2.1737403683373397,
                -1.5853799967820015,
                -2.55149376755151,
                -1.0627553751787262,
                -3.0876631531128846
            ]
        },
        {
            "positions": [
                -0.10168943558708925,
                -2.189390562316439,
                -1.5046571675874945,
                -2.6193962481756343,
                -0.8817103414101279,
                -3.0875383602380015
            ]
        },
        {
            "positions": [
                -0.11832991443986118,
                -2.2050407562955385,
                -1.4239343383929874,
                -2.6872987287997585,
                -0.7006653076415297,
                -3.087413567363118
            ]
        },
        {
            "positions": [
                -0.1349703932926331,
                -2.220690950274638,
                -1.3432115091984804,
                -2.7552012094238822,
                -0.5196202738729314,
                -3.0872887744882345
            ]
        },
        {
            "positions": [
                -0.15161087214540503,
                -2.2363411442537373,
                -1.2624886800039732,
                -2.823103690048006,
                -0.33857524010433315,
                -3.087163981613351
            ]
        },
        {
            "positions": [
                -0.16825135099817698,
                -2.2519913382328367,
                -1.1817658508094662,
                -2.89100617067213,
                -0.157530206335735,
                -3.0870391887384674
            ]
        }
    ]
}