{
    "goal": {
        "global_pose": {
            "orientation": {
                "w": 0.005598929693374612,
                "x": 0.007748599140229565,
                "y": 0.7110244013736278,
                "z": -0.7031023480610252
            },
            "position": {
                "x": 0.1141497679147869,
                "y": -0.7141253447532654,
                "z": 0.3711530566215515
            }
        },
        "name": "move_to_auspresseinheit_B"
    },
    "id": "ProjEST_move_to_auspresseinheit_B_15",
    "joint_names": [
        "shoulder_pan_joint",
        "shoulder_lift_joint",
        "elbow_joint",
        "wrist_1_joint",
        "wrist_2_joint",
        "wrist_3_joint"
    ],
    "metrics": {
        "cart_traj_len": 0.5640723195045754,
        "distance_elbow_joint": 0.06283775727613983,
        "distance_shoulder_lift_joint": 0.29491487840891817,
        "distance_shoulder_pan_joint": 0.5784857697837591,
        "distance_wrist_1_joint": 0.333769352250336,
        "distance_wrist_2_joint": 0.9854325004291691,
        "distance_wrist_3_joint": 0.0060787494634158,
        "smoothness": 2.5376526478085547e-16,
        "time": 0.5304977209999999,
        "traj_len": 1.503834767390267,
        "weighted_distance": 1.895488949906613
    },
    "planner": "ProjEST",
    "start": {
        "state": {
            "elbow_joint": 2.0193061681459312,
            "shoulder_lift_joint": -1.1220205130644991,
            "shoulder_pan_joint": -1.0952072088045026,
            "wrist_1_joint": -0.8559671810662515,
            "wrist_2_joint": 0.4759638712940361,
            "wrist_3_joint": 3.159081874192446
        }
    },
    "waypoints": [
        {
            "positions": [
                -1.0952072088045026,
                -1.1220205130644991,
                2.0193061681459312,
                -0.8559671810662515,
                0.4759638712940361,
                3.159081874192446
            ]
        },
        {
            "positions": [
                -1.1916215037684625,
                -1.1711729927993189,
                2.008833208599908,
                -0.8003389556911955,
                0.6402026213655643,
                3.1580687492818766
            ]
        },
        {
            "positions": [
                -1.2880357987324222,
                -1.2203254725341386,
                1.9983602490538845,
                -0.7447107303161394,
                0.8044413714370924,
                3.1570556243713073
            ]
        },
        {
            "positions": [
                -1.3844500936963822,
                -1.269477952268958,
                1.9878872895078614,
                -0.6890825049410835,
                0.9686801215086207,
                3.156042499460738
            ]
        },
        {
            "positions": [
                -1.480864388660342,
                -1.3186304320037778,
                1.977414329961838,
                -0.6334542795660275,
                1.1329188715801488,
                3.155029374550169
            ]
        },
        {
            "positions": [
                -1.5772786836243018,
                -1.3677829117385976,
                1.9669413704158147,
                -0.5778260541909714,
                1.2971576216516771,
                3.1540162496395996
            ]
        },
        {
            "positions": [
                -1.6736929785882617,
                -1.4169353914734173,
                1.9564684108697914,
                -0.5221978288159155,
                1.4613963717232052,
                3.15300312472903
            ]
        }
    ]
}