{
    "goal": {
        "global_pose": {
            "orientation": {
                "w": 0.005598929693374612,
                "x": 0.007748599140229565,
                "y": 0.7110244013736278,
                "z": -0.7031023480610252
            },
            "position": {
                "x": -0.8858502320852131,
                "y": -0.7141253447532654,
                "z": 0.3711530566215515
            }
        },
        "name": "move_to_auspresseinheit_C"
    },
    "id": "ProjEST_move_to_auspresseinheit_C_104",
    "joint_names": [
        "shoulder_pan_joint",
        "shoulder_lift_joint",
        "elbow_joint",
        "wrist_1_joint",
        "wrist_2_joint",
        "wrist_3_joint"
    ],
    "metrics": {
        "cart_traj_len": 0.49332666064454866,
        "distance_elbow_joint": 1.0031653280749397,
        "distance_shoulder_lift_joint": 0.3260664634052691,
        "distance_shoulder_pan_joint": 0.2570371117619694,
        "distance_wrist_1_joint": 0.6935185717537484,
        "distance_wrist_2_joint": 1.3028303746288148,
        "distance_wrist_3_joint": 0.0677725350673608,
        "smoothness": 8.074349282788172e-16,
        "time": 1.0400923210000002,
        "traj_len": 1.9105994830660094,
        "weighted_distance": 2.404638101920825
    },
    "planner": "ProjEST",
    "start": {
        "state": {
            "elbow_joint": 1.7527959577730765,
            "shoulder_lift_joint": -0.9740617694224828,
            "shoulder_pan_joint": -2.967991417825869,
            "wrist_1_joint": -0.7595177689779385,
            "wrist_2_joint": 1.7443932448376545,
            "wrist_3_joint": 3.1991315425061013
        }
    },
    "waypoints": [
        {
            "positions": [
                -2.967991417825869,
                -0.9740617694224828,
                1.7527959577730765,
                -0.7595177689779385,
                1.7443932448376545,
                3.1991315425061013
            ]
        },
        {
            "positions": [
                -2.942287706649672,
                -0.9414551230819559,
                1.6524794249655825,
                -0.6901659118025637,
                1.614110207374773,
                3.1923542889993652
            ]
        },
        {
            "positions": [
                -2.9165839954734754,
                -0.908848476741429,
                1.5521628921580886,
                -0.6208140546271889,
                1.4838271699118915,
                3.185577035492629
            ]
        },
        {
            "positions": [
                -2.8908802842972783,
                -0.8762418304009021,
                1.4518463593505946,
                -0.551462197451814,
                1.35354413244901,
                3.178799781985893
            ]
        },
        {
            "positions": [
                -2.865176573121081,
                -0.8436351840603751,
                1.3515298265431006,
                -0.4821103402764392,
                1.2232610949861287,
                3.172022528479157
            ]
        },
        {
            "positions": [
                -2.839472861944884,
                -0.8110285377198483,
                1.2512132937356066,
                -0.41275848310106433,
                1.092978057523247,
                3.165245274972421
            ]
        },
        {
            "positions": [
                -2.8137691507686875,
                -0.7784218913793213,
                1.1508967609281127,
                -0.3434066259256895,
                0.9626950200603656,
                3.158468021465685
            ]
        },
        {
            "positions": [
                -2.7880654395924904,
                -0.7458152450387945,
                1.0505802281206187,
                -0.2740547687503147,
                0.8324119825974842,
                3.1516907679589488
            ]
        },
        {
            "positions": [
                -2.7623617284162933,
                -0.7132085986982675,
                0.9502636953131247,
                -0.2047029115749398,
                0.7021289451346027,
                3.1449135144522127
            ]
        },
        {
            "positions": [
                -2.7366580172400967,
                -0.6806019523577406,
                0.8499471625056307,
                -0.13535105439956496,
                0.571845907671721,
                3.1381362609454766
            ]
        },
        {
            "positions": [
                -2.7109543060638996,
                -0.6479953060172137,
                0.7496306296981369,
                -0.06599919722419006,
                0.44156287020883966,
                3.1313590074387405
            ]
        }
    ]
}