{
    "goal": {
        "global_pose": {
            "orientation": {
                "w": 0.7031023480610252,
                "x": -0.7110244013736278,
                "y": 0.0077485991402295624,
                "z": 0.005598929693374583
            },
            "position": {
                "x": -0.8841497679147869,
                "y": 0.44412534475326537,
                "z": 0.3711530566215515
            }
        },
        "name": "move_to_auspresseinheit_D"
    },
    "id": "ProjEST_move_to_auspresseinheit_D_98",
    "joint_names": [
        "shoulder_pan_joint",
        "shoulder_lift_joint",
        "elbow_joint",
        "wrist_1_joint",
        "wrist_2_joint",
        "wrist_3_joint"
    ],
    "metrics": {
        "cart_traj_len": 0.3437192657094421,
        "distance_elbow_joint": 0.6459599181689453,
        "distance_shoulder_lift_joint": 0.1257896629107096,
        "distance_shoulder_pan_joint": 0.13448469752588443,
        "distance_wrist_1_joint": 0.5550374688512218,
        "distance_wrist_2_joint": 1.441280188718564,
        "distance_wrist_3_joint": 0.02736795959060645,
        "smoothness": 1.6776703410969468e-15,
        "time": 0.049371835,
        "traj_len": 1.7117008780058307,
        "weighted_distance": 2.231809461517029
    },
    "planner": "ProjEST",
    "start": {
        "state": {
            "elbow_joint": -1.8275484843655228,
            "shoulder_lift_joint": -2.1267897864000416,
            "shoulder_pan_joint": -0.035127520176001514,
            "wrist_1_joint": -2.3477863256791385,
            "wrist_2_joint": -1.605890476484521,
            "wrist_3_joint": -3.0880375317375353
        }
    },
    "waypoints": [
        {
            "positions": [
                -0.035127520176001514,
                -2.1267897864000416,
                -1.8275484843655228,
                -2.3477863256791385,
                -1.605890476484521,
                -3.0880375317375353
            ]
        },
        {
            "positions": [
                -0.05193810736673707,
                -2.14251349426388,
                -1.7468034945944046,
                -2.417166009285541,
                -1.4257304528947006,
                -3.0846165367887095
            ]
        },
        {
            "positions": [
                -0.06874869455747262,
                -2.1582372021277187,
                -1.6660585048232863,
                -2.486545692891944,
                -1.24557042930488,
                -3.0811955418398838
            ]
        },
        {
            "positions": [
                -0.08555928174820818,
                -2.1739609099915578,
                -1.5853135150521682,
                -2.5559253764983465,
                -1.0654104057150595,
                -3.077774546891058
            ]
        },
        {
            "positions": [
                -0.10236986893894373,
                -2.1896846178553964,
                -1.5045685252810501,
                -2.6253050601047496,
                -0.885250382125239,
                -3.074353551942232
            ]
        },
        {
            "positions": [
                -0.11918045612967929,
                -2.205408325719235,
                -1.423823535509932,
                -2.6946847437111523,
                -0.7050903585354185,
                -3.070932556993406
            ]
        },
        {
            "positions": [
                -0.13599104332041484,
                -2.221132033583074,
                -1.343078545738814,
                -2.764064427317555,
                -0.524930334945598,
                -3.0675115620445803
            ]
        },
        {
            "positions": [
                -0.1528016305111504,
                -2.2368557414469126,
                -1.2623335559676956,
                -2.8334441109239576,
                -0.3447703113557774,
                -3.0640905670957546
            ]
        },
        {
            "positions": [
                -0.16961221770188595,
                -2.252579449310751,
                -1.1815885661965775,
                -2.9028237945303603,
                -0.1646102877659569,
                -3.060669572146929
            ]
        }
    ]
}