{
    "goal": {
        "global_pose": {
            "orientation": {
                "w": -0.00223480608172531,
                "x": 0.0024358444001904467,
                "y": 0.7094548369677653,
                "z": -0.704743149386269
            },
            "position": {
                "x": 0.6205249238014221,
                "y": -0.6371506643295288,
                "z": 0.19426114857196808
            }
        },
        "name": "move_to_magneteinheit_B"
    },
    "id": "ProjEST_move_to_magneteinheit_B_137",
    "joint_names": [
        "shoulder_pan_joint",
        "shoulder_lift_joint",
        "elbow_joint",
        "wrist_1_joint",
        "wrist_2_joint",
        "wrist_3_joint"
    ],
    "metrics": {
        "cart_traj_len": 1.4536981646198843,
        "distance_elbow_joint": 0.7279771024424215,
        "distance_shoulder_lift_joint": 1.2471147176753163,
        "distance_shoulder_pan_joint": 1.6216496996715213,
        "distance_wrist_1_joint": 2.6135032128982947,
        "distance_wrist_2_joint": 2.9373079932146418,
        "distance_wrist_3_joint": 3.143099708893365,
        "smoothness": 1.3457248813978723e-16,
        "time": 0.10228709799999999,
        "traj_len": 3.5058026805277507,
        "weighted_distance": 4.91199176085376
    },
    "planner": "ProjEST",
    "start": {
        "state": {
            "elbow_joint": 2.393587130804639,
            "shoulder_lift_joint": -1.9085141043513325,
            "shoulder_pan_joint": 0.7066247066698809,
            "wrist_1_joint": -0.4678290934590222,
            "wrist_2_joint": 0.7096259084215963,
            "wrist_3_joint": 3.147370379541726
        }
    },
    "waypoints": [
        {
            "positions": [
                0.7066247066698809,
                -1.9085141043513325,
                2.393587130804639,
                -0.4678290934590222,
                0.7096259084215963,
                3.147370379541726
            ]
        },
        {
            "positions": [
                0.6559481535551458,
                -1.8695417694239789,
                2.370837846353313,
                -0.3861571180559505,
                0.6178350336336388,
                3.0491485136388086
            ]
        },
        {
            "positions": [
                0.6052716004404108,
                -1.8305694344966252,
                2.3480885619019873,
                -0.30448514265287874,
                0.5260441588456812,
                2.9509266477358906
            ]
        },
        {
            "positions": [
                0.5545950473256758,
                -1.7915970995692716,
                2.3253392774506616,
                -0.22281316724980704,
                0.4342532840577237,
                2.852704781832973
            ]
        },
        {
            "positions": [
                0.5039184942109407,
                -1.752624764641918,
                2.3025899929993363,
                -0.14114119184673535,
                0.3424624092697661,
                2.7544829159300552
            ]
        },
        {
            "positions": [
                0.45324194109620564,
                -1.7136524297145643,
                2.2798407085480106,
                -0.05946921644366365,
                0.25067153448180857,
                2.6562610500271377
            ]
        },
        {
            "positions": [
                0.4025653879814706,
                -1.6746800947872107,
                2.257091424096685,
                0.022202758959408098,
                0.158880659693851,
                2.55803918412422
            ]
        },
        {
            "positions": [
                0.3518888348667356,
                -1.635707759859857,
                2.234342139645359,
                0.10387473436247979,
                0.06708978490589346,
                2.4598173182213023
            ]
        },
        {
            "positions": [
                0.30121228175200054,
                -1.5967354249325034,
                2.2115928551940334,
                0.1855467097655515,
                -0.024701089882064098,
                2.361595452318385
            ]
        },
        {
            "positions": [
                0.2505357286372655,
                -1.5577630900051498,
                2.1888435707427076,
                0.2672186851686232,
                -0.11649196467002165,
                2.263373586415467
            ]
        },
        {
            "positions": [
                0.1998591755225304,
                -1.5187907550777962,
                2.166094286291382,
                0.3488906605716949,
                -0.2082828394579792,
                2.1651517205125494
            ]
        },
        {
            "positions": [
                0.14918262240779545,
                -1.4798184201504425,
                2.143345001840056,
                0.43056263597476657,
                -0.30007371424593665,
                2.066929854609632
            ]
        },
        {
            "positions": [
                0.09850606929306038,
                -1.4408460852230889,
                2.120595717388731,
                0.5122346113778384,
                -0.3918645890338943,
                1.968707988706714
            ]
        },
        {
            "positions": [
                0.047829516178325315,
                -1.4018737502957352,
                2.097846432937405,
                0.5939065867809101,
                -0.483655463821852,
                1.8704861228037963
            ]
        },
        {
            "positions": [
                -0.0028470369364096415,
                -1.3629014153683816,
                2.0750971484860794,
                0.6755785621839818,
                -0.5754463386098094,
                1.7722642569008789
            ]
        },
        {
            "positions": [
                -0.05352359005114471,
                -1.323929080441028,
                2.0523478640347537,
                0.7572505375870535,
                -0.6672372133977669,
                1.6740423909979611
            ]
        },
        {
            "positions": [
                -0.10420014316587978,
                -1.2849567455136743,
                2.029598579583428,
                0.8389225129901252,
                -0.7590280881857245,
                1.5758205250950434
            ]
        },
        {
            "positions": [
                -0.15487669628061485,
                -1.2459844105863207,
                2.006849295132102,
                0.9205944883931969,
                -0.8508189629736822,
                1.4775986591921257
            ]
        },
        {
            "positions": [
                -0.2055532493953499,
                -1.207012075658967,
                1.9841000106807767,
                1.0022664637962686,
                -0.9426098377616396,
                1.379376793289208
            ]
        },
        {
            "positions": [
                -0.25622980251008487,
                -1.1680397407316134,
                1.961350726229451,
                1.0839384391993403,
                -1.034400712549597,
                1.2811549273862906
            ]
        },
        {
            "positions": [
                -0.30690635562482005,
                -1.1290674058042598,
                1.9386014417781254,
                1.165610414602412,
                -1.1261915873375548,
                1.1829330614833728
            ]
        },
        {
            "positions": [
                -0.3575829087395549,
                -1.0900950708769062,
                1.9158521573267997,
                1.2472823900054837,
                -1.2179824621255124,
                1.084711195580455
            ]
        },
        {
            "positions": [
                -0.40825946185428996,
                -1.0511227359495525,
                1.893102872875474,
                1.3289543654085554,
                -1.3097733369134696,
                0.9864893296775374
            ]
        },
        {
            "positions": [
                -0.45893601496902503,
                -1.0121504010221989,
                1.8703535884241482,
                1.410626340811627,
                -1.4015642117014273,
                0.88826746377462
            ]
        },
        {
            "positions": [
                -0.5096125680837601,
                -0.9731780660948453,
                1.8476043039728227,
                1.492298316214699,
                -1.493355086489385,
                0.790045597871702
            ]
        },
        {
            "positions": [
                -0.5602891211984952,
                -0.9342057311674916,
                1.824855019521497,
                1.5739702916177707,
                -1.5851459612773426,
                0.6918237319687845
            ]
        },
        {
            "positions": [
                -0.6109656743132302,
                -0.895233396240138,
                1.8021057350701715,
                1.6556422670208424,
                -1.6769368360653003,
                0.5936018660658666
            ]
        },
        {
            "positions": [
                -0.6616422274279653,
                -0.8562610613127843,
                1.7793564506188457,
                1.737314242423914,
                -1.7687277108532575,
                0.49538000016294914
            ]
        },
        {
            "positions": [
                -0.7123187805427001,
                -0.8172887263854307,
                1.75660716616752,
                1.8189862178269858,
                -1.8605185856412152,
                0.39715813426003166
            ]
        },
        {
            "positions": [
                -0.7629953336574352,
                -0.7783163914580771,
                1.7338578817161943,
                1.9006581932300575,
                -1.9523094604291729,
                0.29893626835711373
            ]
        },
        {
            "positions": [
                -0.8136718867721703,
                -0.7393440565307234,
                1.7111085972648685,
                1.9823301686331292,
                -2.04410033521713,
                0.20071440245419625
            ]
        },
        {
            "positions": [
                -0.8643484398869054,
                -0.7003717216033698,
                1.6883593128135428,
                2.0640021440362006,
                -2.135891210005088,
                0.10249253655127832
            ]
        },
        {
            "positions": [
                -0.9150249930016404,
                -0.6613993866760163,
                1.6656100283622173,
                2.1456741194392723,
                -2.227682084793045,
                0.0042706706483609394
            ]
        }
    ]
}