{
    "goal": {
        "global_pose": {
            "orientation": {
                "w": -0.00223480608172531,
                "x": 0.0024358444001904467,
                "y": 0.7094548369677653,
                "z": -0.704743149386269
            },
            "position": {
                "x": 0.6205249238014221,
                "y": -0.6371506643295288,
                "z": 0.19426114857196808
            }
        },
        "name": "move_to_magneteinheit_B"
    },
    "id": "ProjEST_move_to_magneteinheit_B_37",
    "joint_names": [
        "shoulder_pan_joint",
        "shoulder_lift_joint",
        "elbow_joint",
        "wrist_1_joint",
        "wrist_2_joint",
        "wrist_3_joint"
    ],
    "metrics": {
        "cart_traj_len": 4.285690005081123,
        "distance_elbow_joint": 5.1192337687574785,
        "distance_shoulder_lift_joint": 0.6798321813594346,
        "distance_shoulder_pan_joint": 2.8205016780232177,
        "distance_wrist_1_joint": 2.131363830368135,
        "distance_wrist_2_joint": 1.1876417083471726,
        "distance_wrist_3_joint": 4.981868012971571,
        "smoothness": 0.45360949938325307,
        "time": 1.723698465,
        "traj_len": 4.113446387134152,
        "weighted_distance": 5.495742237813328
    },
    "planner": "ProjEST",
    "start": {
        "state": {
            "elbow_joint": 2.393587130804639,
            "shoulder_lift_joint": -1.9085141043513325,
            "shoulder_pan_joint": 0.7066247066698809,
            "wrist_1_joint": -0.4678290934590222,
            "wrist_2_joint": 0.7096259084215963,
            "wrist_3_joint": 3.147370379541726
        }
    },
    "waypoints": [
        {
            "positions": [
                0.7066247066698809,
                -1.9085141043513325,
                2.393587130804639,
                -0.4678290934590222,
                0.7096259084215963,
                3.147370379541726
            ]
        },
        {
            "positions": [
                0.6380720501440085,
                -1.9234437934061634,
                2.471957083674249,
                -0.4414053940480968,
                0.6846217857320266,
                3.0123959370513056
            ]
        },
        {
            "positions": [
                0.569519393618136,
                -1.9383734824609942,
                2.5503270365438593,
                -0.4149816946371715,
                0.6596176630424567,
                2.877421494560885
            ]
        },
        {
            "positions": [
                0.5009667370922636,
                -1.953303171515825,
                2.6286969894134695,
                -0.3885579952262461,
                0.634613540352887,
                2.7424470520704647
            ]
        },
        {
            "positions": [
                0.4899245096996525,
                -1.9398620021526258,
                2.491239899123951,
                -0.41627602898208593,
                0.5782044060358348,
                2.603004852785777
            ]
        },
        {
            "positions": [
                0.47888228230704144,
                -1.9264208327894263,
                2.3537828088344326,
                -0.44399406273792574,
                0.5217952717187826,
                2.4635626535010897
            ]
        },
        {
            "positions": [
                0.4678400549144303,
                -1.912979663426227,
                2.216325718544914,
                -0.4717120964937655,
                0.4653861374017304,
                2.324120454216402
            ]
        },
        {
            "positions": [
                0.45679782752181924,
                -1.8995384940630278,
                2.0788686282553956,
                -0.4994301302496053,
                0.4089770030846782,
                2.1846782549317147
            ]
        },
        {
            "positions": [
                0.4457556001292082,
                -1.8860973246998283,
                1.9414115379658772,
                -0.5271481640054451,
                0.3525678687676261,
                2.045236055647027
            ]
        },
        {
            "positions": [
                0.43471337273659705,
                -1.872656155336629,
                1.8039544476763587,
                -0.5548661977612849,
                0.29615873445057384,
                1.9057938563623393
            ]
        },
        {
            "positions": [
                0.423671145343986,
                -1.8592149859734297,
                1.6664973573868402,
                -0.5825842315171247,
                0.2397496001335217,
                1.766351657077652
            ]
        },
        {
            "positions": [
                0.4126289179513749,
                -1.8457738166102302,
                1.5290402670973218,
                -0.6103022652729645,
                0.1833404658164695,
                1.6269094577929644
            ]
        },
        {
            "positions": [
                0.40158669055876384,
                -1.832332647247031,
                1.3915831768078033,
                -0.6380202990288043,
                0.12693133149941738,
                1.4874672585082769
            ]
        },
        {
            "positions": [
                0.39054446316615277,
                -1.8188914778838317,
                1.2541260865182848,
                -0.665738332784644,
                0.07052219718236519,
                1.3480250592235894
            ]
        },
        {
            "positions": [
                0.37950223577354164,
                -1.8054503085206322,
                1.1166689962287664,
                -0.6934563665404838,
                0.014113062865312997,
                1.208582859938902
            ]
        },
        {
            "positions": [
                0.3684600083809305,
                -1.7920091391574329,
                0.9792119059392479,
                -0.7211744002963236,
                -0.0422960714517393,
                1.0691406606542142
            ]
        },
        {
            "positions": [
                0.35741778098831944,
                -1.7785679697942336,
                0.8417548156497294,
                -0.7488924340521634,
                -0.09870520576879138,
                0.9296984613695267
            ]
        },
        {
            "positions": [
                0.3463755535957084,
                -1.765126800431034,
                0.704297725360211,
                -0.7766104678080032,
                -0.15511434008584357,
                0.7902562620848392
            ]
        },
        {
            "positions": [
                0.3353333262030973,
                -1.7516856310678348,
                0.5668406350706924,
                -0.8043285015638431,
                -0.21152347440289582,
                0.6508140628001517
            ]
        },
        {
            "positions": [
                0.4609683379989876,
                -1.7536774961332935,
                0.43411735055045164,
                -0.8643232520717924,
                -0.21989178501103382,
                0.706118337150995
            ]
        },
        {
            "positions": [
                0.5866033497948779,
                -1.7556693611987524,
                0.3013940660302109,
                -0.9243180025797417,
                -0.22826009561917185,
                0.7614226115018383
            ]
        },
        {
            "positions": [
                0.7122383615907681,
                -1.757661226264211,
                0.16867078150997017,
                -0.984312753087691,
                -0.23662840622730985,
                0.8167268858526817
            ]
        },
        {
            "positions": [
                0.8378733733866586,
                -1.7596530913296697,
                0.03594749698972943,
                -1.0443075035956404,
                -0.24499671683544788,
                0.872031160203525
            ]
        },
        {
            "positions": [
                0.9635083851825488,
                -1.7616449563951286,
                -0.0967757875305113,
                -1.1043022541035896,
                -0.2533650274435859,
                0.9273354345543683
            ]
        },
        {
            "positions": [
                1.089143396978439,
                -1.7636368214605873,
                -0.22949907205075204,
                -1.164297004611539,
                -0.2617333380517239,
                0.9826397089052117
            ]
        },
        {
            "positions": [
                1.2147784087743294,
                -1.7656286865260462,
                -0.3622223565709928,
                -1.2242917551194883,
                -0.2701016486598619,
                1.0379439832560549
            ]
        },
        {
            "positions": [
                1.3404134205702198,
                -1.7676205515915049,
                -0.4949456410912335,
                -1.2842865056274375,
                -0.27846995926799994,
                1.0932482576068983
            ]
        },
        {
            "positions": [
                1.46604843236611,
                -1.7696124166569636,
                -0.6276689256114741,
                -1.3442812561353867,
                -0.2868382698761379,
                1.1485525319577414
            ]
        },
        {
            "positions": [
                1.5916834441620002,
                -1.7716042817224225,
                -0.760392210131715,
                -1.4042760066433362,
                -0.29520658048427595,
                1.2038568063085848
            ]
        },
        {
            "positions": [
                1.7173184559578907,
                -1.7735961467878811,
                -0.8931154946519558,
                -1.4642707571512856,
                -0.303574891092414,
                1.2591610806594282
            ]
        },
        {
            "positions": [
                1.8429534677537809,
                -1.7755880118533398,
                -1.0258387791721963,
                -1.5242655076592349,
                -0.311943201700552,
                1.3144653550102716
            ]
        },
        {
            "positions": [
                1.9685884795496713,
                -1.7775798769187987,
                -1.1585620636924374,
                -1.584260258167184,
                -0.32031151230869004,
                1.369769629361115
            ]
        },
        {
            "positions": [
                2.0942234913455615,
                -1.7795717419842574,
                -1.291285348212678,
                -1.6442550086751333,
                -0.328679822916828,
                1.425073903711958
            ]
        },
        {
            "positions": [
                2.219858503141452,
                -1.7815636070497163,
                -1.4240086327329187,
                -1.704249759183083,
                -0.33704813352496604,
                1.4803781780628014
            ]
        },
        {
            "positions": [
                2.3454935149373424,
                -1.783555472115175,
                -1.5567319172531593,
                -1.7642445096910322,
                -0.345416444133104,
                1.5356824524136448
            ]
        },
        {
            "positions": [
                2.471128526733233,
                -1.7855473371806336,
                -1.6894552017734004,
                -1.8242392601989814,
                -0.35378475474124205,
                1.5909867267644882
            ]
        },
        {
            "positions": [
                2.596763538529123,
                -1.7875392022460925,
                -1.8221784862936405,
                -1.8842340107069306,
                -0.3621530653493801,
                1.6462910011153313
            ]
        },
        {
            "positions": [
                2.722398550325013,
                -1.7895310673115512,
                -1.9549017708138816,
                -1.94422876121488,
                -0.3705213759575181,
                1.7015952754661747
            ]
        },
        {
            "positions": [
                2.7146304161456984,
                -1.8389785844994555,
                -1.9173361270737197,
                -2.0062815069832207,
                -0.38395817895352535,
                1.8809115859116712
            ]
        },
        {
            "positions": [
                2.7068622819663837,
                -1.88842610168736,
                -1.8797704833335578,
                -2.068334252751561,
                -0.39739498194953254,
                2.0602278963571674
            ]
        },
        {
            "positions": [
                2.699094147787069,
                -1.9378736188752645,
                -1.8422048395933959,
                -2.130386998519902,
                -0.41083178494553974,
                2.239544206802664
            ]
        },
        {
            "positions": [
                2.691326013607754,
                -1.9873211360631688,
                -1.804639195853234,
                -2.1924397442882424,
                -0.424268587941547,
                2.4188605172481603
            ]
        },
        {
            "positions": [
                2.6835578794284394,
                -2.036768653251073,
                -1.7670735521130718,
                -2.2544924900565833,
                -0.43770539093755423,
                2.5981768276936568
            ]
        },
        {
            "positions": [
                2.6757897452491246,
                -2.086216170438978,
                -1.72950790837291,
                -2.3165452358249237,
                -0.4511421939335614,
                2.777493138139153
            ]
        },
        {
            "positions": [
                2.66802161106981,
                -2.135663687626882,
                -1.691942264632748,
                -2.3785979815932645,
                -0.4645789969295686,
                2.9568094485846497
            ]
        },
        {
            "positions": [
                2.660253476890495,
                -2.1851112048147865,
                -1.654376620892586,
                -2.440650727361605,
                -0.47801579992557586,
                3.136125759030146
            ]
        }
    ]
}