{
    "goal": {
        "global_pose": {
            "orientation": {
                "w": 0.5084816217422485,
                "x": -0.49083608388900757,
                "y": 0.5182115435600281,
                "z": -0.4816462993621826
            },
            "position": {
                "x": 0.5540239810943604,
                "y": 0.030875300988554955,
                "z": 0.16403168439865112
            }
        },
        "name": "move_to_storage_A"
    },
    "id": "ProjEST_move_to_storage_A_11",
    "joint_names": [
        "shoulder_pan_joint",
        "shoulder_lift_joint",
        "elbow_joint",
        "wrist_1_joint",
        "wrist_2_joint",
        "wrist_3_joint"
    ],
    "metrics": {
        "cart_traj_len": 0.3534532897018646,
        "distance_elbow_joint": 0.4515573049198729,
        "distance_shoulder_lift_joint": 0.23263349304427172,
        "distance_shoulder_pan_joint": 0.4636884351343177,
        "distance_wrist_1_joint": 0.24984482369667704,
        "distance_wrist_2_joint": 1.0925657488479028,
        "distance_wrist_3_joint": 0.0949219154889307,
        "smoothness": 4.440892098500626e-16,
        "time": 0.033982975,
        "traj_len": 1.6078593598732362,
        "weighted_distance": 2.0291540416277947
    },
    "planner": "ProjEST",
    "start": {
        "state": {
            "elbow_joint": 1.971548880431181,
            "shoulder_lift_joint": -1.1394869514688781,
            "shoulder_pan_joint": 0.12281150262730567,
            "wrist_1_joint": -0.7804693444481463,
            "wrist_2_joint": 0.12958644648617612,
            "wrist_3_joint": 3.0906942077768043
        }
    },
    "waypoints": [
        {
            "positions": [
                0.12281150262730567,
                -1.1394869514688781,
                1.971548880431181,
                -0.7804693444481463,
                0.12958644648617612,
                3.0906942077768043
            ]
        },
        {
            "positions": [
                0.05657029760811744,
                -1.17272030761806,
                2.0360570668483056,
                -0.8161614621191001,
                0.28566726775016227,
                3.10425448141808
            ]
        },
        {
            "positions": [
                -0.009670907411070795,
                -1.2059536637672414,
                2.1005652532654304,
                -0.851853579790054,
                0.44174808901414836,
                3.117814755059356
            ]
        },
        {
            "positions": [
                -0.07591211243025903,
                -1.2391870199164232,
                2.165073439682555,
                -0.8875456974610079,
                0.5978289102781345,
                3.131375028700632
            ]
        },
        {
            "positions": [
                -0.14215331744944726,
                -1.2724203760656048,
                2.2295816260996797,
                -0.9232378151319618,
                0.7539097315421206,
                3.1449353023419073
            ]
        },
        {
            "positions": [
                -0.20839452246863555,
                -1.3056537322147865,
                2.2940898125168045,
                -0.9589299328029156,
                0.9099905528061067,
                3.158495575983183
            ]
        },
        {
            "positions": [
                -0.2746357274878237,
                -1.338887088363968,
                2.358597998933929,
                -0.9946220504738694,
                1.0660713740700927,
                3.172055849624459
            ]
        },
        {
            "positions": [
                -0.340876932507012,
                -1.3721204445131499,
                2.423106185351054,
                -1.0303141681448234,
                1.222152195334079,
                3.185616123265735
            ]
        }
    ]
}