{
    "goal": {
        "global_pose": {
            "orientation": {
                "w": -0.4816463035849501,
                "x": 0.5182115481033762,
                "y": 0.4908360881923453,
                "z": -0.5084816262002911
            },
            "position": {
                "x": -0.8240239810943604,
                "y": 0.19912469901144506,
                "z": 0.16403168439865112
            }
        },
        "name": "move_to_storage_D"
    },
    "id": "ProjEST_move_to_storage_D_84",
    "joint_names": [
        "shoulder_pan_joint",
        "shoulder_lift_joint",
        "elbow_joint",
        "wrist_1_joint",
        "wrist_2_joint",
        "wrist_3_joint"
    ],
    "metrics": {
        "cart_traj_len": 0.5994054603612847,
        "distance_elbow_joint": 0.9502640434610488,
        "distance_shoulder_lift_joint": 0.15325748212636414,
        "distance_shoulder_pan_joint": 0.48407239615122416,
        "distance_wrist_1_joint": 3.823002064334879,
        "distance_wrist_2_joint": 1.7825350033106222,
        "distance_wrist_3_joint": 3.9846714472227225,
        "smoothness": 0.4268369846316764,
        "time": 0.067515721,
        "traj_len": 3.3433220659408303,
        "weighted_distance": 4.975206769441629
    },
    "planner": "ProjEST",
    "start": {
        "state": {
            "elbow_joint": -2.384821990628643,
            "shoulder_lift_joint": -2.278805467437664,
            "shoulder_pan_joint": -0.18546946439364564,
            "wrist_1_joint": 1.4845938187801415,
            "wrist_2_joint": 0.178987772454074,
            "wrist_3_joint": 0.03710569632802521
        }
    },
    "waypoints": [
        {
            "positions": [
                -0.18546946439364564,
                -2.278805467437664,
                -2.384821990628643,
                1.4845938187801415,
                0.178987772454074,
                0.03710569632802521
            ]
        },
        {
            "positions": [
                -0.10621733188746676,
                -2.260150732552153,
                -2.43429676083014,
                1.4511765762169049,
                0.09755511323134788,
                -0.06721643655999646
            ]
        },
        {
            "positions": [
                -0.026965199381287885,
                -2.241495997666642,
                -2.4837715310316373,
                1.417759333653668,
                0.016122454008621778,
                -0.17153856944801812
            ]
        },
        {
            "positions": [
                0.052286933124890994,
                -2.222841262781132,
                -2.533246301233134,
                1.3843420910904314,
                -0.06531020521410433,
                -0.27586070233603976
            ]
        },
        {
            "positions": [
                0.13153906563106987,
                -2.204186527895621,
                -2.582721071434631,
                1.3509248485271947,
                -0.14674286443683043,
                -0.3801828352240615
            ]
        },
        {
            "positions": [
                0.12485651098600953,
                -2.201040986192248,
                -2.5526264729284285,
                1.2033515247639175,
                -0.20501503909361915,
                -0.23748751859723605
            ]
        },
        {
            "positions": [
                0.11817395634094917,
                -2.1978954444888754,
                -2.522531874422226,
                1.0557782010006402,
                -0.26328721375040787,
                -0.0947922019704106
            ]
        },
        {
            "positions": [
                0.11149140169588882,
                -2.1947499027855026,
                -2.4924372759160236,
                0.9082048772373629,
                -0.32155938840719656,
                0.047903114656414836
            ]
        },
        {
            "positions": [
                0.10480884705082848,
                -2.1916043610821294,
                -2.462342677409821,
                0.7606315534740855,
                -0.3798315630639853,
                0.19059843128324028
            ]
        },
        {
            "positions": [
                0.09812629240576812,
                -2.1884588193787566,
                -2.4322480789036187,
                0.6130582297108083,
                -0.43810373772077404,
                0.3332937479100657
            ]
        },
        {
            "positions": [
                0.09144373776070777,
                -2.185313277675384,
                -2.4021534803974163,
                0.465484905947531,
                -0.49637591237756273,
                0.47598906453689116
            ]
        },
        {
            "positions": [
                0.08476118311564743,
                -2.182167735972011,
                -2.372058881891214,
                0.3179115821842535,
                -0.5546480870343515,
                0.6186843811637167
            ]
        },
        {
            "positions": [
                0.07807862847058708,
                -2.1790221942686383,
                -2.3419642833850114,
                0.17033825842097627,
                -0.6129202616911402,
                0.761379697790542
            ]
        },
        {
            "positions": [
                0.07139607382552673,
                -2.1758766525652655,
                -2.311869684878809,
                0.02276493465769902,
                -0.6711924363479289,
                0.9040750144173675
            ]
        },
        {
            "positions": [
                0.06471351918046638,
                -2.1727311108618923,
                -2.2817750863726065,
                -0.12480838910557823,
                -0.7294646110047176,
                1.046770331044193
            ]
        },
        {
            "positions": [
                0.058030964535406016,
                -2.1695855691585195,
                -2.251680487866404,
                -0.2723817128688555,
                -0.7877367856615063,
                1.1894656476710184
            ]
        },
        {
            "positions": [
                0.05134840989034567,
                -2.1664400274551467,
                -2.2215858893602016,
                -0.41995503663213274,
                -0.846008960318295,
                1.3321609642978438
            ]
        },
        {
            "positions": [
                0.044665855245285324,
                -2.163294485751774,
                -2.191491290853999,
                -0.5675283603954102,
                -0.9042811349750837,
                1.4748562809246692
            ]
        },
        {
            "positions": [
                0.037983300600224965,
                -2.160148944048401,
                -2.1613966923477967,
                -0.7151016841586877,
                -0.9625533096318726,
                1.617551597551495
            ]
        },
        {
            "positions": [
                0.03130074595516462,
                -2.1570034023450284,
                -2.1313020938415943,
                -0.8626750079219647,
                -1.020825484288661,
                1.7602469141783201
            ]
        },
        {
            "positions": [
                0.024618191310104273,
                -2.153857860641655,
                -2.101207495335392,
                -1.0102483316852422,
                -1.07909765894545,
                1.9029422308051456
            ]
        },
        {
            "positions": [
                0.017935636665043914,
                -2.1507123189382824,
                -2.0711128968291894,
                -1.1578216554485197,
                -1.1373698336022386,
                2.045637547431971
            ]
        },
        {
            "positions": [
                0.011253082019983582,
                -2.1475667772349096,
                -2.041018298322987,
                -1.3053949792117967,
                -1.1956420082590273,
                2.1883328640587965
            ]
        },
        {
            "positions": [
                0.004570527374923222,
                -2.144421235531537,
                -2.0109236998167845,
                -1.4529683029750737,
                -1.253914182915816,
                2.331028180685622
            ]
        },
        {
            "positions": [
                -0.0021120272701371234,
                -2.141275693828164,
                -1.980829101310582,
                -1.6005416267383512,
                -1.312186357572605,
                2.4737234973124473
            ]
        },
        {
            "positions": [
                -0.008794581915197469,
                -2.1381301521247913,
                -1.9507345028043797,
                -1.7481149505016282,
                -1.3704585322293934,
                2.616418813939273
            ]
        },
        {
            "positions": [
                -0.015477136560257843,
                -2.134984610421418,
                -1.9206399042981772,
                -1.8956882742649057,
                -1.4287307068861823,
                2.7591141305660982
            ]
        },
        {
            "positions": [
                -0.022159691205318188,
                -2.1318390687180453,
                -1.8905453057919748,
                -2.043261598028183,
                -1.487002881542971,
                2.9018094471929237
            ]
        },
        {
            "positions": [
                -0.028842245850378534,
                -2.1286935270146725,
                -1.8604507072857723,
                -2.19083492179146,
                -1.5452750561997597,
                3.044504763819749
            ]
        },
        {
            "positions": [
                -0.03552480049543888,
                -2.1255479853112997,
                -1.83035610877957,
                -2.3384082455547377,
                -1.6035472308565484,
                3.1872000804465745
            ]
        }
    ]
}