{
    "goal": {
        "global_pose": {
            "orientation": {
                "w": 0.5084816262002911,
                "x": -0.4908360881923452,
                "y": 0.5182115481033761,
                "z": -0.48164630358495003
            },
            "position": {
                "x": 0.5540239810943604,
                "y": -0.46912469901144505,
                "z": 0.16403168439865112
            }
        },
        "name": "move_to_storage_B"
    },
    "id": "ProjEST_move_to_storage_B_99",
    "joint_names": [
        "shoulder_pan_joint",
        "shoulder_lift_joint",
        "elbow_joint",
        "wrist_1_joint",
        "wrist_2_joint",
        "wrist_3_joint"
    ],
    "metrics": {
        "cart_traj_len": 1.5735587056162639,
        "distance_elbow_joint": 0.9455699185632216,
        "distance_shoulder_lift_joint": 1.2860906457561956,
        "distance_shoulder_pan_joint": 0.7452574240097041,
        "distance_wrist_1_joint": 3.0285510188339018,
        "distance_wrist_2_joint": 2.710179369533335,
        "distance_wrist_3_joint": 4.65671703455337,
        "smoothness": 0.30046088712844304,
        "time": 0.098549451,
        "traj_len": 3.6568244982839584,
        "weighted_distance": 5.33146601496471
    },
    "planner": "ProjEST",
    "start": {
        "state": {
            "elbow_joint": 1.6649325340416963,
            "shoulder_lift_joint": -0.6616387945129425,
            "shoulder_pan_joint": -0.9139837929255878,
            "wrist_1_joint": 2.1467571094334352,
            "wrist_2_joint": -2.234195976750228,
            "wrist_3_joint": 0.005470921511140723
        }
    },
    "waypoints": [
        {
            "positions": [
                -0.9139837929255878,
                -0.6616387945129425,
                1.6649325340416963,
                2.1467571094334352,
                -2.234195976750228,
                0.005470921511140723
            ]
        },
        {
            "positions": [
                -0.9017396014041577,
                -0.7169069396868921,
                1.6639932087043023,
                2.041569386967042,
                -2.201393289870931,
                0.025622137629807553
            ]
        },
        {
            "positions": [
                -0.8894954098827276,
                -0.7721750848608417,
                1.6630538833669086,
                1.9363816645006489,
                -2.1685906029916344,
                0.04577335374847438
            ]
        },
        {
            "positions": [
                -0.8743526351777288,
                -0.8170794997587824,
                1.6459735860725178,
                1.8135974985211445,
                -2.0297235337877146,
                0.002264120714796751
            ]
        },
        {
            "positions": [
                -0.85920986047273,
                -0.861983914656723,
                1.6288932887781271,
                1.6908133325416403,
                -1.8908564645837946,
                -0.04124511231888088
            ]
        },
        {
            "positions": [
                -0.844067085767731,
                -0.9068883295546637,
                1.6118129914837362,
                1.568029166562136,
                -1.7519893953798746,
                -0.08475434535255852
            ]
        },
        {
            "positions": [
                -0.8289243110627322,
                -0.9517927444526043,
                1.5947326941893456,
                1.4452450005826318,
                -1.6131223261759549,
                -0.12826357838623614
            ]
        },
        {
            "positions": [
                -0.8137815363577334,
                -0.9966971593505449,
                1.5776523968949547,
                1.3224608346031275,
                -1.474255256972035,
                -0.17177281141991377
            ]
        },
        {
            "positions": [
                -0.7986387616527346,
                -1.0416015742484857,
                1.560572099600564,
                1.1996766686236233,
                -1.335388187768115,
                -0.21528204445359142
            ]
        },
        {
            "positions": [
                -0.7834959869477357,
                -1.0865059891464262,
                1.5434918023061732,
                1.076892502644119,
                -1.1965211185641953,
                -0.25879127748726904
            ]
        },
        {
            "positions": [
                -0.7683532122427369,
                -1.1314104040443669,
                1.5264115050117826,
                0.9541083366646147,
                -1.0576540493602753,
                -0.30230051052094664
            ]
        },
        {
            "positions": [
                -0.7532104375377381,
                -1.1763148189423074,
                1.5093312077173917,
                0.8313241706851104,
                -0.9187869801563555,
                -0.34580974355462424
            ]
        },
        {
            "positions": [
                -0.7380676628327392,
                -1.221219233840248,
                1.492250910423001,
                0.7085400047056061,
                -0.7799199109524355,
                -0.38931897658830195
            ]
        },
        {
            "positions": [
                -0.7229248881277404,
                -1.2661236487381888,
                1.4751706131286102,
                0.5857558387261017,
                -0.6410528417485155,
                -0.43282820962197954
            ]
        },
        {
            "positions": [
                -0.7077821134227416,
                -1.3110280636361293,
                1.4580903158342196,
                0.46297167274659756,
                -0.5021857725445957,
                -0.47633744265565725
            ]
        },
        {
            "positions": [
                -0.6926393387177427,
                -1.3559324785340698,
                1.4410100185398287,
                0.3401875067670934,
                -0.36331870334067595,
                -0.5198466756893347
            ]
        },
        {
            "positions": [
                -0.6774965640127439,
                -1.4008368934320106,
                1.423929721245438,
                0.21740334078758905,
                -0.22445163413675617,
                -0.5633559087230124
            ]
        },
        {
            "positions": [
                -0.6623537893077451,
                -1.4457413083299513,
                1.4068494239510472,
                0.09461917480808468,
                -0.0855845649328364,
                -0.60686514175669
            ]
        },
        {
            "positions": [
                -0.6472110146027462,
                -1.490645723227892,
                1.3897691266566565,
                -0.028164991171419462,
                0.05328250427108383,
                -0.6503743747903677
            ]
        },
        {
            "positions": [
                -0.6320682398977474,
                -1.5355501381258325,
                1.3726888293622657,
                -0.15094915715092366,
                0.19214957347500364,
                -0.6938836078240453
            ]
        },
        {
            "positions": [
                -0.6593236440731511,
                -1.511304296823285,
                1.4111197831201356,
                -0.19394002493030837,
                0.2088456804931273,
                -0.4658390407214855
            ]
        },
        {
            "positions": [
                -0.6865790482485549,
                -1.4870584555207378,
                1.4495507368780058,
                -0.23693089270969309,
                0.22554178751125092,
                -0.23779447361892564
            ]
        },
        {
            "positions": [
                -0.7138344524239586,
                -1.4628126142181903,
                1.4879816906358758,
                -0.2799217604890778,
                0.24223789452937455,
                -0.009749906516365758
            ]
        },
        {
            "positions": [
                -0.7410898565993624,
                -1.438566772915643,
                1.5264126443937458,
                -0.32291262826846256,
                0.25893400154749824,
                0.21829466058619407
            ]
        },
        {
            "positions": [
                -0.7683452607747662,
                -1.4143209316130956,
                1.564843598151616,
                -0.3659034960478473,
                0.27563010856562187,
                0.4463392276887539
            ]
        },
        {
            "positions": [
                -0.7956006649501699,
                -1.390075090310548,
                1.603274551909486,
                -0.408894363827232,
                0.2923262155837455,
                0.6743837947913138
            ]
        },
        {
            "positions": [
                -0.8228560691255736,
                -1.3658292490080008,
                1.641705505667356,
                -0.4518852316066167,
                0.3090223226018691,
                0.9024283618938735
            ]
        },
        {
            "positions": [
                -0.8501114733009774,
                -1.3415834077054534,
                1.6801364594252262,
                -0.4948760993860014,
                0.32571842961999276,
                1.1304729289964335
            ]
        },
        {
            "positions": [
                -0.8773668774763811,
                -1.3173375664029061,
                1.7185674131830961,
                -0.5378669671653862,
                0.3424145366381164,
                1.3585174960989934
            ]
        },
        {
            "positions": [
                -0.9046222816517848,
                -1.2930917251003586,
                1.7569983669409663,
                -0.5808578349447708,
                0.35911064365624007,
                1.5865620632015531
            ]
        },
        {
            "positions": [
                -0.9318776858271887,
                -1.2688458837978112,
                1.7954293206988363,
                -0.6238487027241556,
                0.37580675067436375,
                1.8146066303041133
            ]
        },
        {
            "positions": [
                -0.9591330900025923,
                -1.244600042495264,
                1.8338602744567063,
                -0.6668395705035404,
                0.3925028576924874,
                2.042651197406673
            ]
        },
        {
            "positions": [
                -0.9863884941779961,
                -1.2203542011927166,
                1.8722912282145763,
                -0.709830438282925,
                0.409198964710611,
                2.2706957645092323
            ]
        },
        {
            "positions": [
                -1.0136438983533997,
                -1.1961083598901692,
                1.9107221819724465,
                -0.7528213060623097,
                0.42589507172873464,
                2.4987403316117924
            ]
        },
        {
            "positions": [
                -1.0408993025288036,
                -1.1718625185876217,
                1.9491531357303165,
                -0.7958121738416946,
                0.44259117874685827,
                2.726784898714352
            ]
        },
        {
            "positions": [
                -1.0681547067042074,
                -1.1476166772850744,
                1.9875840894881867,
                -0.8388030416210792,
                0.4592872857649819,
                2.9548294658169123
            ]
        },
        {
            "positions": [
                -1.095410110879611,
                -1.123370835982527,
                2.0260150432460566,
                -0.8817939094004639,
                0.4759833927831056,
                3.182874032919472
            ]
        }
    ]
}