{
    "goal": {
        "global_pose": {
            "orientation": {
                "w": 0.005598929693374612,
                "x": 0.007748599140229565,
                "y": 0.7110244013736278,
                "z": -0.7031023480610252
            },
            "position": {
                "x": -0.8858502320852131,
                "y": -0.7141253447532654,
                "z": 0.3711530566215515
            }
        },
        "name": "move_to_auspresseinheit_C"
    },
    "id": "ProjEST_move_to_auspresseinheit_C_50",
    "joint_names": [
        "shoulder_pan_joint",
        "shoulder_lift_joint",
        "elbow_joint",
        "wrist_1_joint",
        "wrist_2_joint",
        "wrist_3_joint"
    ],
    "metrics": {
        "cart_traj_len": 0.49199619466036887,
        "distance_elbow_joint": 0.9895281242234162,
        "distance_shoulder_lift_joint": 0.3202597791856864,
        "distance_shoulder_pan_joint": 0.2559801508999562,
        "distance_wrist_1_joint": 0.6577954623022587,
        "distance_wrist_2_joint": 1.311799414418056,
        "distance_wrist_3_joint": 0.036242617778913466,
        "smoothness": 4.844609574787718e-16,
        "time": 0.049926818,
        "traj_len": 1.8898691882795187,
        "weighted_distance": 2.369321772382643
    },
    "planner": "ProjEST",
    "start": {
        "state": {
            "elbow_joint": 1.7527959577730765,
            "shoulder_lift_joint": -0.9740617694224828,
            "shoulder_pan_joint": -2.967991417825869,
            "wrist_1_joint": -0.7595177689779385,
            "wrist_2_joint": 1.7443932448376545,
            "wrist_3_joint": 3.1991315425061013
        }
    },
    "waypoints": [
        {
            "positions": [
                -2.967991417825869,
                -0.9740617694224828,
                1.7527959577730765,
                -0.7595177689779385,
                1.7443932448376545,
                3.1991315425061013
            ]
        },
        {
            "positions": [
                -2.9423934027358736,
                -0.9420357915039141,
                1.653843145350735,
                -0.6937382227477127,
                1.613213303395849,
                3.19550728072821
            ]
        },
        {
            "positions": [
                -2.9167953876458776,
                -0.9100098135853455,
                1.5548903329283932,
                -0.6279586765174868,
                1.4820333619540431,
                3.1918830189503185
            ]
        },
        {
            "positions": [
                -2.891197372555882,
                -0.8779838356667768,
                1.4559375205060516,
                -0.562179130287261,
                1.3508534205122378,
                3.1882587571724272
            ]
        },
        {
            "positions": [
                -2.8655993574658867,
                -0.8459578577482082,
                1.35698470808371,
                -0.49639958405703505,
                1.219673479070432,
                3.184634495394536
            ]
        },
        {
            "positions": [
                -2.840001342375891,
                -0.8139318798296395,
                1.2580318956613685,
                -0.4306200378268092,
                1.0884935376286264,
                3.181010233616645
            ]
        },
        {
            "positions": [
                -2.8144033272858953,
                -0.781905901911071,
                1.159079083239027,
                -0.3648404915965833,
                0.9573135961868209,
                3.177385971838753
            ]
        },
        {
            "positions": [
                -2.7888053121958998,
                -0.7498799239925024,
                1.0601262708166852,
                -0.29906094536635747,
                0.8261336547450153,
                3.173761710060862
            ]
        },
        {
            "positions": [
                -2.7632072971059043,
                -0.7178539460739337,
                0.9611734583943435,
                -0.23328139913613155,
                0.6949537133032095,
                3.1701374482829707
            ]
        },
        {
            "positions": [
                -2.7376092820159084,
                -0.6858279681553651,
                0.8622206459720019,
                -0.1675018529059057,
                0.563773771861404,
                3.166513186505079
            ]
        },
        {
            "positions": [
                -2.712011266925913,
                -0.6538019902367964,
                0.7632678335496603,
                -0.1017223066756798,
                0.43259383041959854,
                3.162888924727188
            ]
        }
    ]
}