{
    "goal": {
        "global_pose": {
            "orientation": {
                "w": 0.005598929693374612,
                "x": 0.007748599140229565,
                "y": 0.7110244013736278,
                "z": -0.7031023480610252
            },
            "position": {
                "x": 0.1141497679147869,
                "y": -0.7141253447532654,
                "z": 0.3711530566215515
            }
        },
        "name": "move_to_auspresseinheit_B"
    },
    "id": "ProjEST_move_to_auspresseinheit_B_78",
    "joint_names": [
        "shoulder_pan_joint",
        "shoulder_lift_joint",
        "elbow_joint",
        "wrist_1_joint",
        "wrist_2_joint",
        "wrist_3_joint"
    ],
    "metrics": {
        "cart_traj_len": 0.5644015991462126,
        "distance_elbow_joint": 0.06421991928316895,
        "distance_shoulder_lift_joint": 0.29420168842795147,
        "distance_shoulder_pan_joint": 0.5776662390070555,
        "distance_wrist_1_joint": 0.33818411995003317,
        "distance_wrist_2_joint": 0.992585145593593,
        "distance_wrist_3_joint": 0.0034411213294225362,
        "smoothness": 2.5376526478085547e-16,
        "time": 0.112444184,
        "traj_len": 1.5067508863747932,
        "weighted_distance": 1.8994603817383755
    },
    "planner": "ProjEST",
    "start": {
        "state": {
            "elbow_joint": 2.0193061681459312,
            "shoulder_lift_joint": -1.1220205130644991,
            "shoulder_pan_joint": -1.0952072088045026,
            "wrist_1_joint": -0.8559671810662515,
            "wrist_2_joint": 0.4759638712940361,
            "wrist_3_joint": 3.159081874192446
        }
    },
    "waypoints": [
        {
            "positions": [
                -1.0952072088045026,
                -1.1220205130644991,
                2.0193061681459312,
                -0.8559671810662515,
                0.4759638712940361,
                3.159081874192446
            ]
        },
        {
            "positions": [
                -1.1914849153056786,
                -1.171054127802491,
                2.008602848265403,
                -0.7996031610745793,
                0.6413947288929682,
                3.1585083539708756
            ]
        },
        {
            "positions": [
                -1.2877626218068545,
                -1.220087742540483,
                1.9978995283848748,
                -0.7432391410829071,
                0.8068255864919005,
                3.157934833749305
            ]
        },
        {
            "positions": [
                -1.3840403283080303,
                -1.269121357278475,
                1.9871962085043466,
                -0.6868751210912349,
                0.9722564440908326,
                3.1573613135277347
            ]
        },
        {
            "positions": [
                -1.4803180348092062,
                -1.3181549720164667,
                1.9764928886238187,
                -0.6305111010995628,
                1.1376873016897648,
                3.1567877933061643
            ]
        },
        {
            "positions": [
                -1.5765957413103822,
                -1.3671885867544586,
                1.9657895687432905,
                -0.5741470811078905,
                1.303118159288697,
                3.156214273084594
            ]
        },
        {
            "positions": [
                -1.6728734478115581,
                -1.4162222014924506,
                1.9550862488627623,
                -0.5177830611162183,
                1.4685490168876292,
                3.1556407528630235
            ]
        }
    ]
}