{
    "goal": {
        "global_pose": {
            "orientation": {
                "w": -0.4816463035849501,
                "x": 0.5182115481033762,
                "y": 0.4908360881923453,
                "z": -0.5084816262002911
            },
            "position": {
                "x": -0.8240239810943604,
                "y": 0.19912469901144506,
                "z": 0.16403168439865112
            }
        },
        "name": "move_to_storage_D"
    },
    "id": "ProjEST_move_to_storage_D_25",
    "joint_names": [
        "shoulder_pan_joint",
        "shoulder_lift_joint",
        "elbow_joint",
        "wrist_1_joint",
        "wrist_2_joint",
        "wrist_3_joint"
    ],
    "metrics": {
        "cart_traj_len": 4.543559258666523,
        "distance_elbow_joint": 4.21380319276023,
        "distance_shoulder_lift_joint": 1.2639217674317869,
        "distance_shoulder_pan_joint": 2.8146635986748794,
        "distance_wrist_1_joint": 2.3872260962410348,
        "distance_wrist_2_joint": 1.3760276212854432,
        "distance_wrist_3_joint": 3.1259807546976344,
        "smoothness": 0.026143577492376547,
        "time": 0.12309494800000001,
        "traj_len": 3.8963602286096455,
        "weighted_distance": 5.019645232286118
    },
    "planner": "ProjEST",
    "start": {
        "state": {
            "elbow_joint": -2.384821990628643,
            "shoulder_lift_joint": -2.278805467437664,
            "shoulder_pan_joint": -0.18546946439364564,
            "wrist_1_joint": 1.4845938187801415,
            "wrist_2_joint": 0.178987772454074,
            "wrist_3_joint": 0.03710569632802521
        }
    },
    "waypoints": [
        {
            "positions": [
                -0.18546946439364564,
                -2.278805467437664,
                -2.384821990628643,
                1.4845938187801415,
                0.178987772454074,
                0.03710569632802521
            ]
        },
        {
            "positions": [
                -0.1324447877573975,
                -2.274484192868309,
                -2.271328789807784,
                1.392411107055434,
                0.29356078805778457,
                0.026995968072459714
            ]
        },
        {
            "positions": [
                -0.07942011112114933,
                -2.2701629182989547,
                -2.157835588986925,
                1.3002283953307263,
                0.40813380366149515,
                0.01688623981689422
            ]
        },
        {
            "positions": [
                -0.02639543448490117,
                -2.2658416437296,
                -2.044342388166066,
                1.2080456836060187,
                0.5227068192652058,
                0.0067765115613287255
            ]
        },
        {
            "positions": [
                0.026629242151346988,
                -2.261520369160245,
                -1.9308491873452065,
                1.1158629718813111,
                0.6372798348689164,
                -0.003333216694236772
            ]
        },
        {
            "positions": [
                0.07965391878759515,
                -2.2571990945908906,
                -1.8173559865243474,
                1.0236802601566035,
                0.751852850472627,
                -0.01344294494980227
            ]
        },
        {
            "positions": [
                0.1326785954238433,
                -2.252877820021536,
                -1.7038627857034883,
                0.9314975484318959,
                0.8664258660763375,
                -0.02355267320536776
            ]
        },
        {
            "positions": [
                0.18570327206009146,
                -2.248556545452181,
                -1.590369584882629,
                0.8393148367071883,
                0.9809988816800481,
                -0.03366240146093326
            ]
        },
        {
            "positions": [
                0.23872794869633962,
                -2.2442352708828266,
                -1.4768763840617698,
                0.7471321249824807,
                1.0955718972837587,
                -0.043772129716498756
            ]
        },
        {
            "positions": [
                0.2917526253325878,
                -2.2399139963134718,
                -1.3633831832409107,
                0.6549494132577731,
                1.2101449128874693,
                -0.053881857972064254
            ]
        },
        {
            "positions": [
                0.37977265538796623,
                -2.1921033289543246,
                -1.2619466903804666,
                0.5921425311100876,
                1.2142705194266215,
                -0.14283200954114056
            ]
        },
        {
            "positions": [
                0.4677926854433446,
                -2.1442926615951774,
                -1.1605101975200223,
                0.529335648962402,
                1.2183961259657736,
                -0.23178216111021688
            ]
        },
        {
            "positions": [
                0.5558127154987231,
                -2.09648199423603,
                -1.0590737046595782,
                0.46652876681471644,
                1.2225217325049256,
                -0.3207323126792932
            ]
        },
        {
            "positions": [
                0.6438327455541015,
                -2.048671326876883,
                -0.9576372117991341,
                0.40372188466703096,
                1.2266473390440777,
                -0.4096824642483695
            ]
        },
        {
            "positions": [
                0.7318527756094799,
                -2.0008606595177354,
                -0.8562007189386898,
                0.34091500251934537,
                1.23077294558323,
                -0.49863261581744583
            ]
        },
        {
            "positions": [
                0.8198728056648583,
                -1.9530499921585884,
                -0.7547642260782457,
                0.27810812037165983,
                1.2348985521223819,
                -0.5875827673865222
            ]
        },
        {
            "positions": [
                0.9078928357202369,
                -1.905239324799441,
                -0.6533277332178015,
                0.21530123822397423,
                1.239024158661534,
                -0.6765329189555985
            ]
        },
        {
            "positions": [
                0.9959128657756151,
                -1.8574286574402938,
                -0.5518912403573574,
                0.1524943560762888,
                1.2431497652006862,
                -0.7654830705246748
            ]
        },
        {
            "positions": [
                1.0839328958309937,
                -1.8096179900811467,
                -0.45045474749691317,
                0.08968747392860321,
                1.2472753717398384,
                -0.854433222093751
            ]
        },
        {
            "positions": [
                1.1719529258863721,
                -1.7618073227219995,
                -0.34901825463646885,
                0.026880591780917618,
                1.2514009782789906,
                -0.9433833736628274
            ]
        },
        {
            "positions": [
                1.2599729559417505,
                -1.7139966553628523,
                -0.24758176177602498,
                -0.035926290366767866,
                1.2555265848181425,
                -1.0323335252319037
            ]
        },
        {
            "positions": [
                1.347992985997129,
                -1.666185988003705,
                -0.14614526891558066,
                -0.09873317251445346,
                1.2596521913572947,
                -1.1212836768009802
            ]
        },
        {
            "positions": [
                1.4360130160525073,
                -1.618375320644558,
                -0.04470877605513657,
                -0.16154005466213894,
                1.2637777978964468,
                -1.2102338283700564
            ]
        },
        {
            "positions": [
                1.524033046107886,
                -1.5705646532854105,
                0.05672771680530775,
                -0.22434693680982465,
                1.267903404435599,
                -1.299183979939133
            ]
        },
        {
            "positions": [
                1.612053076163264,
                -1.5227539859262633,
                0.15816420966575184,
                -0.28715381895751013,
                1.272029010974751,
                -1.3881341315082092
            ]
        },
        {
            "positions": [
                1.7000731062186425,
                -1.4749433185671161,
                0.25960070252619594,
                -0.3499607011051955,
                1.2761546175139031,
                -1.4770842830772855
            ]
        },
        {
            "positions": [
                1.7880931362740211,
                -1.4271326512079687,
                0.36103719538664025,
                -0.4127675832528812,
                1.2802802240530553,
                -1.566034434646362
            ]
        },
        {
            "positions": [
                1.8761131663293995,
                -1.3793219838488215,
                0.46247368824708435,
                -0.4755744654005667,
                1.2844058305922075,
                -1.654984586215438
            ]
        },
        {
            "positions": [
                1.964133196384778,
                -1.3315113164896744,
                0.5639101811075284,
                -0.5383813475482522,
                1.2885314371313594,
                -1.7439347377845142
            ]
        },
        {
            "positions": [
                2.0521532264401565,
                -1.2837006491305272,
                0.665346673967973,
                -0.6011882296959379,
                1.2926570436705116,
                -1.8328848893535907
            ]
        },
        {
            "positions": [
                2.140173256495535,
                -1.23588998177138,
                0.7667831668284166,
                -0.6639951118436234,
                1.2967826502096638,
                -1.921835040922667
            ]
        },
        {
            "positions": [
                2.2281932865509133,
                -1.1880793144122328,
                0.8682196596888607,
                -0.7268019939913088,
                1.3009082567488157,
                -2.0107851924917433
            ]
        },
        {
            "positions": [
                2.3162133166062917,
                -1.1402686470530854,
                0.9696561525493053,
                -0.7896088761389946,
                1.3050338632879679,
                -2.0997353440608197
            ]
        },
        {
            "positions": [
                2.40423334666167,
                -1.0924579796939382,
                1.0710926454097496,
                -0.85241575828668,
                1.30915946982712,
                -2.188685495629896
            ]
        },
        {
            "positions": [
                2.441726811264931,
                -1.0795289330792612,
                1.1974074048633891,
                -0.8440463384243113,
                1.268183482508387,
                -2.338717089419848
            ]
        },
        {
            "positions": [
                2.4792202758681916,
                -1.0665998864645845,
                1.323722164317029,
                -0.8356769185619426,
                1.2272074951896543,
                -2.4887486832098
            ]
        },
        {
            "positions": [
                2.5167137404714524,
                -1.0536708398499077,
                1.4500369237706685,
                -0.8273074986995739,
                1.1862315078709216,
                -2.6387802769997526
            ]
        },
        {
            "positions": [
                2.5542072050747127,
                -1.0407417932352307,
                1.576351683224308,
                -0.8189380788372053,
                1.1452555205521886,
                -2.7888118707897043
            ]
        },
        {
            "positions": [
                2.5917006696779734,
                -1.0278127466205538,
                1.7026664426779479,
                -0.8105686589748365,
                1.1042795332334556,
                -2.938843464579657
            ]
        },
        {
            "positions": [
                2.629194134281234,
                -1.014883700005877,
                1.8289812021315874,
                -0.8021992391124678,
                1.0633035459147229,
                -3.088875058369609
            ]
        }
    ]
}