{
    "goal": {
        "global_pose": {
            "orientation": {
                "w": -0.00223480608172531,
                "x": 0.0024358444001904467,
                "y": 0.7094548369677653,
                "z": -0.704743149386269
            },
            "position": {
                "x": -0.37947507619857795,
                "y": -0.6371506643295288,
                "z": 0.19426114857196808
            }
        },
        "name": "move_to_magneteinheit_C"
    },
    "id": "ProjEST_move_to_magneteinheit_C_47",
    "joint_names": [
        "shoulder_pan_joint",
        "shoulder_lift_joint",
        "elbow_joint",
        "wrist_1_joint",
        "wrist_2_joint",
        "wrist_3_joint"
    ],
    "metrics": {
        "cart_traj_len": 0.9146007897442077,
        "distance_elbow_joint": 0.8457860529603309,
        "distance_shoulder_lift_joint": 0.25554621315278947,
        "distance_shoulder_pan_joint": 0.8601898550395248,
        "distance_wrist_1_joint": 3.504257029244551,
        "distance_wrist_2_joint": 1.5127238807340482,
        "distance_wrist_3_joint": 5.317017580971452,
        "smoothness": 1.0485303299347908,
        "time": 0.43350168,
        "traj_len": 3.5064969146004814,
        "weighted_distance": 5.286448399826125
    },
    "planner": "ProjEST",
    "start": {
        "state": {
            "elbow_joint": 1.9565354006593851,
            "shoulder_lift_joint": -1.4165861576512813,
            "shoulder_pan_joint": -1.6717766223278752,
            "wrist_1_joint": -0.528663328821883,
            "wrist_2_joint": 1.472756589259273,
            "wrist_3_joint": 3.159348288315503
        }
    },
    "waypoints": [
        {
            "positions": [
                -1.6717766223278752,
                -1.4165861576512813,
                1.9565354006593851,
                -0.528663328821883,
                1.472756589259273,
                3.159348288315503
            ]
        },
        {
            "positions": [
                -1.6532282367439302,
                -1.4180576183292777,
                1.9570428463237122,
                -0.5296190138950159,
                1.454517938459446,
                3.1453124259309613
            ]
        },
        {
            "positions": [
                -1.6822699643090058,
                -1.4161696178998342,
                1.9322182320179273,
                -0.42920372661024203,
                1.3832877855991978,
                2.9791204117567753
            ]
        },
        {
            "positions": [
                -1.7113116918740814,
                -1.4142816174703907,
                1.9073936177121424,
                -0.3287884393254682,
                1.3120576327389495,
                2.8129283975825894
            ]
        },
        {
            "positions": [
                -1.740353419439157,
                -1.4123936170409475,
                1.8825690034063578,
                -0.2283731520406943,
                1.2408274798787013,
                2.646736383408403
            ]
        },
        {
            "positions": [
                -1.7693951470042326,
                -1.410505616611504,
                1.857744389100573,
                -0.12795786475592047,
                1.169597327018453,
                2.480544369234217
            ]
        },
        {
            "positions": [
                -1.7984368745693085,
                -1.4086176161820605,
                1.832919774794788,
                -0.027542577471146634,
                1.0983671741582048,
                2.314352355060031
            ]
        },
        {
            "positions": [
                -1.827478602134384,
                -1.4067296157526172,
                1.8080951604890032,
                0.07287270981362726,
                1.0271370212979565,
                2.1481603408858447
            ]
        },
        {
            "positions": [
                -1.8565203296994597,
                -1.4048416153231738,
                1.7832705461832183,
                0.17328799709840104,
                0.9559068684377083,
                1.9819683267116588
            ]
        },
        {
            "positions": [
                -1.8855620572645353,
                -1.4029536148937303,
                1.7584459318774335,
                0.2737032843831749,
                0.8846767155774601,
                1.8157763125374728
            ]
        },
        {
            "positions": [
                -1.914603784829611,
                -1.4010656144642868,
                1.7336213175716488,
                0.3741185716679488,
                0.8134465627172118,
                1.649584298363287
            ]
        },
        {
            "positions": [
                -1.9436455123946865,
                -1.3991776140348433,
                1.708796703265864,
                0.4745338589527226,
                0.7422164098569636,
                1.4833922841891007
            ]
        },
        {
            "positions": [
                -1.9726872399597624,
                -1.3972896136054,
                1.683972088960079,
                0.5749491462374965,
                0.6709862569967153,
                1.3172002700149146
            ]
        },
        {
            "positions": [
                -2.001728967524838,
                -1.3954016131759566,
                1.6591474746542942,
                0.6753644335222704,
                0.5997561041364672,
                1.1510082558407286
            ]
        },
        {
            "positions": [
                -2.0307706950899136,
                -1.393513612746513,
                1.6343228603485094,
                0.7757797208070443,
                0.5285259512762189,
                0.9848162416665427
            ]
        },
        {
            "positions": [
                -2.059812422654989,
                -1.3916256123170698,
                1.6094982460427247,
                0.8761950080918179,
                0.4572957984159707,
                0.8186242274923563
            ]
        },
        {
            "positions": [
                -2.088854150220065,
                -1.3897376118876263,
                1.5846736317369399,
                0.9766102953765918,
                0.3860656455557223,
                0.6524322133181704
            ]
        },
        {
            "positions": [
                -2.1178958777851404,
                -1.3878496114581829,
                1.559849017431155,
                1.0770255826613657,
                0.31483549269547423,
                0.48624019914398453
            ]
        },
        {
            "positions": [
                -2.1703335719645214,
                -1.3722058314305075,
                1.6154524011975269,
                0.9840391880988962,
                0.32236069571576437,
                0.6567186586706425
            ]
        },
        {
            "positions": [
                -2.2227712661439023,
                -1.3565620514028318,
                1.6710557849638985,
                0.8910527935364267,
                0.32988589873605456,
                0.8271971181973006
            ]
        },
        {
            "positions": [
                -2.2752089603232832,
                -1.3409182713751564,
                1.7266591687302704,
                0.7980663989739571,
                0.3374111017563447,
                0.9976755777239585
            ]
        },
        {
            "positions": [
                -2.327646654502664,
                -1.3252744913474808,
                1.782262552496642,
                0.7050800044114878,
                0.34493630477663484,
                1.1681540372506165
            ]
        },
        {
            "positions": [
                -2.380084348682045,
                -1.3096307113198054,
                1.8378659362630139,
                0.6120936098490182,
                0.352461507796925,
                1.3386324967772745
            ]
        },
        {
            "positions": [
                -2.432522042861426,
                -1.2939869312921297,
                1.8934693200293855,
                0.5191072152865487,
                0.35998671081721517,
                1.5091109563039327
            ]
        },
        {
            "positions": [
                -2.484959737040807,
                -1.2783431512644543,
                1.9490727037957574,
                0.42612082072407925,
                0.3675119138375053,
                1.6795894158305906
            ]
        },
        {
            "positions": [
                -2.4842114178188064,
                -1.2642321011896842,
                1.9568107045030059,
                0.2731072461913569,
                0.4044796287292146,
                1.8583869773703872
            ]
        },
        {
            "positions": [
                -2.4834630985968063,
                -1.2501210511149141,
                1.9645487052102544,
                0.12009367165863455,
                0.4414473436209239,
                2.037184538910184
            ]
        },
        {
            "positions": [
                -2.482714779374806,
                -1.2360100010401442,
                1.9722867059175029,
                -0.0329199028740878,
                0.4784150585126332,
                2.2159821004499802
            ]
        },
        {
            "positions": [
                -2.4819664601528055,
                -1.2218989509653742,
                1.9800247066247514,
                -0.18593347740681015,
                0.5153827734043426,
                2.394779661989777
            ]
        },
        {
            "positions": [
                -2.481218140930805,
                -1.207787900890604,
                1.987762707332,
                -0.3389470519395325,
                0.5523504882960519,
                2.5735772235295737
            ]
        },
        {
            "positions": [
                -2.480469821708805,
                -1.193676850815834,
                1.9955007080392484,
                -0.49196062647225486,
                0.5893182031877612,
                2.75237478506937
            ]
        },
        {
            "positions": [
                -2.4786631370999044,
                -1.1837788558287174,
                1.9996450706376996,
                -0.6011841392993936,
                0.6160915610804153,
                2.8782997536942196
            ]
        },
        {
            "positions": [
                -2.4768564524910044,
                -1.1738808608416011,
                2.0037894332361508,
                -0.7104076521265323,
                0.6428649189730694,
                3.0042247223190692
            ]
        },
        {
            "positions": [
                -2.475049767882104,
                -1.1639828658544846,
                2.0079337958346017,
                -0.819631164953671,
                0.6696382768657235,
                3.130149690943919
            ]
        }
    ]
}