{
    "goal": {
        "global_pose": {
            "orientation": {
                "w": -0.00223480608172531,
                "x": 0.0024358444001904467,
                "y": 0.7094548369677653,
                "z": -0.704743149386269
            },
            "position": {
                "x": -0.37947507619857795,
                "y": -0.6371506643295288,
                "z": 0.19426114857196808
            }
        },
        "name": "move_to_magneteinheit_C"
    },
    "id": "ProjEST_move_to_magneteinheit_C_36",
    "joint_names": [
        "shoulder_pan_joint",
        "shoulder_lift_joint",
        "elbow_joint",
        "wrist_1_joint",
        "wrist_2_joint",
        "wrist_3_joint"
    ],
    "metrics": {
        "cart_traj_len": 1.1473125886153124,
        "distance_elbow_joint": 0.5133874369087936,
        "distance_shoulder_lift_joint": 0.5322805199239813,
        "distance_shoulder_pan_joint": 1.5498396854069945,
        "distance_wrist_1_joint": 0.6061455603331463,
        "distance_wrist_2_joint": 1.094980305701991,
        "distance_wrist_3_joint": 0.9302788626030538,
        "smoothness": 1.7286297802221549,
        "time": 1.508976866,
        "traj_len": 2.286244162568373,
        "weighted_distance": 2.9645566215066976
    },
    "planner": "ProjEST",
    "start": {
        "state": {
            "elbow_joint": 1.9565354006593851,
            "shoulder_lift_joint": -1.4165861576512813,
            "shoulder_pan_joint": -1.6717766223278752,
            "wrist_1_joint": -0.528663328821883,
            "wrist_2_joint": 1.472756589259273,
            "wrist_3_joint": 3.159348288315503
        }
    },
    "waypoints": [
        {
            "positions": [
                -1.6717766223278752,
                -1.4165861576512813,
                1.9565354006593851,
                -0.528663328821883,
                1.472756589259273,
                3.159348288315503
            ]
        },
        {
            "positions": [
                -1.5468078367780849,
                -1.4361907236279725,
                2.0513899852644557,
                -0.5790765235005443,
                1.5240803198607213,
                3.1428712959701124
            ]
        },
        {
            "positions": [
                -1.4218390512282948,
                -1.455795289604664,
                2.146244569869526,
                -0.6294897181792054,
                1.5754040504621698,
                3.126394303624722
            ]
        },
        {
            "positions": [
                -1.2968702656785045,
                -1.4753998555813552,
                2.2410991544745964,
                -0.6799029128578666,
                1.626727781063618,
                3.1099173112793315
            ]
        },
        {
            "positions": [
                -1.4571705606922678,
                -1.4869625472111072,
                2.2400464431682217,
                -0.7224617706761194,
                1.518375064638421,
                3.04886094836184
            ]
        },
        {
            "positions": [
                -1.617470855706031,
                -1.498525238840859,
                2.2389937318618465,
                -0.765020628494372,
                1.4100223482132244,
                2.9878045854443482
            ]
        },
        {
            "positions": [
                -1.7777711507197944,
                -1.510087930470611,
                2.2379410205554717,
                -0.8075794863126248,
                1.3016696317880274,
                2.926748222526857
            ]
        },
        {
            "positions": [
                -1.9380714457335577,
                -1.521650622100363,
                2.236888309249097,
                -0.8501383441308774,
                1.1933169153628305,
                2.865691859609365
            ]
        },
        {
            "positions": [
                -2.098371740747321,
                -1.533213313730115,
                2.2358355979427222,
                -0.8926972019491302,
                1.0849641989376337,
                2.8046354966918736
            ]
        },
        {
            "positions": [
                -2.2586720357610846,
                -1.5447760053598667,
                2.234782886636347,
                -0.9352560597673829,
                0.9766114825124368,
                2.7435791337743822
            ]
        },
        {
            "positions": [
                -2.4189723307748476,
                -1.5563386969896187,
                2.2337301753299723,
                -0.9778149175856355,
                0.8682587660872398,
                2.6825227708568904
            ]
        },
        {
            "positions": [
                -2.4632854451689967,
                -1.5211905361337457,
                2.220252862241413,
                -0.986501287617263,
                0.8566237469951814,
                2.735665087458125
            ]
        },
        {
            "positions": [
                -2.46541498248578,
                -1.431845581201303,
                2.168258514526313,
                -0.9494243872328214,
                0.8138974770378791,
                2.835742844593927
            ]
        },
        {
            "positions": [
                -2.4675445198025625,
                -1.3425006262688601,
                2.1162641668112134,
                -0.9123474868483799,
                0.7711712070805767,
                2.9358206017297284
            ]
        },
        {
            "positions": [
                -2.469674057119345,
                -1.2531556713364176,
                2.064269819096114,
                -0.8752705864639382,
                0.7284449371232744,
                3.0358983588655297
            ]
        },
        {
            "positions": [
                -2.4718035944361283,
                -1.1638107164039748,
                2.012275471381014,
                -0.8381936860794966,
                0.6857186671659721,
                3.1359761160013315
            ]
        }
    ]
}