{
    "goal": {
        "global_pose": {
            "orientation": {
                "w": 0.7031023480610252,
                "x": -0.7110244013736278,
                "y": 0.0077485991402295624,
                "z": 0.005598929693374583
            },
            "position": {
                "x": -0.8841497679147869,
                "y": 0.44412534475326537,
                "z": 0.3711530566215515
            }
        },
        "name": "move_to_auspresseinheit_D"
    },
    "id": "ProjEST_move_to_auspresseinheit_D_90",
    "joint_names": [
        "shoulder_pan_joint",
        "shoulder_lift_joint",
        "elbow_joint",
        "wrist_1_joint",
        "wrist_2_joint",
        "wrist_3_joint"
    ],
    "metrics": {
        "cart_traj_len": 0.344010425957389,
        "distance_elbow_joint": 0.6520592909523895,
        "distance_shoulder_lift_joint": 0.12941500827680796,
        "distance_shoulder_pan_joint": 0.13437577969262185,
        "distance_wrist_1_joint": 0.5689214528536044,
        "distance_wrist_2_joint": 1.4448768653919175,
        "distance_wrist_3_joint": 0.030833800759489716,
        "smoothness": 0.0,
        "time": 0.126041155,
        "traj_len": 1.720605183627793,
        "weighted_distance": 2.2440918247013273
    },
    "planner": "ProjEST",
    "start": {
        "state": {
            "elbow_joint": -1.8275484843655228,
            "shoulder_lift_joint": -2.1267897864000416,
            "shoulder_pan_joint": -0.035127520176001514,
            "wrist_1_joint": -2.3477863256791385,
            "wrist_2_joint": -1.605890476484521,
            "wrist_3_joint": -3.0880375317375353
        }
    },
    "waypoints": [
        {
            "positions": [
                -0.035127520176001514,
                -2.1267897864000416,
                -1.8275484843655228,
                -2.3477863256791385,
                -1.605890476484521,
                -3.0880375317375353
            ]
        },
        {
            "positions": [
                -0.05192449263757924,
                -2.1429666624346426,
                -1.7460410729964742,
                -2.418901507285839,
                -1.4252808683105314,
                -3.084183306642599
            ]
        },
        {
            "positions": [
                -0.06872146509915697,
                -2.1591435384692437,
                -1.6645336616274253,
                -2.4900166888925397,
                -1.2446712601365415,
                -3.0803290815476627
            ]
        },
        {
            "positions": [
                -0.08551843756073471,
                -2.1753204145038447,
                -1.5830262502583767,
                -2.5611318704992403,
                -1.0640616519625519,
                -3.0764748564527267
            ]
        },
        {
            "positions": [
                -0.10231541002231244,
                -2.1914972905384458,
                -1.5015188388893281,
                -2.6322470521059405,
                -0.8834520437885622,
                -3.0726206313577906
            ]
        },
        {
            "positions": [
                -0.11911238248389017,
                -2.2076741665730464,
                -1.4200114275202793,
                -2.703362233712641,
                -0.7028424356145726,
                -3.068766406262854
            ]
        },
        {
            "positions": [
                -0.1359093549454679,
                -2.2238510426076474,
                -1.3385040161512307,
                -2.7744774153193417,
                -0.5222328274405827,
                -3.064912181167918
            ]
        },
        {
            "positions": [
                -0.15270632740704565,
                -2.2400279186422485,
                -1.2569966047821821,
                -2.8455925969260423,
                -0.3416232192665931,
                -3.0610579560729816
            ]
        },
        {
            "positions": [
                -0.16950329986862336,
                -2.2562047946768495,
                -1.1754891934131333,
                -2.916707778532743,
                -0.1610136110926035,
                -3.0572037309780455
            ]
        }
    ]
}