{
    "goal": {
        "global_pose": {
            "orientation": {
                "w": 0.5084816217422485,
                "x": -0.49083608388900757,
                "y": 0.5182115435600281,
                "z": -0.4816462993621826
            },
            "position": {
                "x": 0.5540239810943604,
                "y": 0.030875300988554955,
                "z": 0.16403168439865112
            }
        },
        "name": "move_to_storage_A"
    },
    "id": "ProjEST_move_to_storage_A_83",
    "joint_names": [
        "shoulder_pan_joint",
        "shoulder_lift_joint",
        "elbow_joint",
        "wrist_1_joint",
        "wrist_2_joint",
        "wrist_3_joint"
    ],
    "metrics": {
        "cart_traj_len": 0.3532443644202778,
        "distance_elbow_joint": 0.44789957061690555,
        "distance_shoulder_lift_joint": 0.23342747031736044,
        "distance_shoulder_pan_joint": 0.46183035030433206,
        "distance_wrist_1_joint": 0.23969396435002732,
        "distance_wrist_2_joint": 1.098396305663683,
        "distance_wrist_3_joint": 0.0944467941503353,
        "smoothness": 0.0,
        "time": 0.108517468,
        "traj_len": 1.6048970233016957,
        "weighted_distance": 2.0255069275904796
    },
    "planner": "ProjEST",
    "start": {
        "state": {
            "elbow_joint": 1.971548880431181,
            "shoulder_lift_joint": -1.1394869514688781,
            "shoulder_pan_joint": 0.12281150262730567,
            "wrist_1_joint": -0.7804693444481463,
            "wrist_2_joint": 0.12958644648617612,
            "wrist_3_joint": 3.0906942077768043
        }
    },
    "waypoints": [
        {
            "positions": [
                0.12281150262730567,
                -1.1394869514688781,
                1.971548880431181,
                -0.7804693444481463,
                0.12958644648617612,
                3.0906942077768043
            ]
        },
        {
            "positions": [
                0.056835738298115376,
                -1.1728337329427867,
                2.035534533376453,
                -0.814711339355293,
                0.28650020443813085,
                3.1041866069411377
            ]
        },
        {
            "positions": [
                -0.009140026031074916,
                -1.2061805144166955,
                2.099520186321725,
                -0.8489533342624398,
                0.4434139623900855,
                3.1176790061054716
            ]
        },
        {
            "positions": [
                -0.0751157903602652,
                -1.239527295890604,
                2.1635058392669975,
                -0.8831953291695865,
                0.6003277203420403,
                3.131171405269805
            ]
        },
        {
            "positions": [
                -0.1410915546894555,
                -1.2728740773645126,
                2.2274914922122697,
                -0.9174373240767333,
                0.7572414782939949,
                3.144663804434139
            ]
        },
        {
            "positions": [
                -0.20706731901864583,
                -1.3062208588384214,
                2.291477145157542,
                -0.9516793189838801,
                0.9141552362459496,
                3.1581562035984723
            ]
        },
        {
            "positions": [
                -0.27304308334783606,
                -1.33956764031233,
                2.3554627981028142,
                -0.9859213138910269,
                1.0710689941979044,
                3.171648602762806
            ]
        },
        {
            "positions": [
                -0.3390188476770264,
                -1.3729144217862386,
                2.4194484510480865,
                -1.0201633087981736,
                1.227982752149859,
                3.1851410019271396
            ]
        }
    ]
}