{
    "goal": {
        "global_pose": {
            "orientation": {
                "w": 0.7031023502349854,
                "x": -0.7110244035720825,
                "y": 0.007748599164187908,
                "z": 0.005598929710686207
            },
            "position": {
                "x": 0.11585023208521307,
                "y": 0.44412534475326537,
                "z": 0.3711530566215515
            }
        },
        "name": "move_to_auspresseinheit_A"
    },
    "id": "ProjEST_move_to_auspresseinheit_A_128",
    "joint_names": [
        "shoulder_pan_joint",
        "shoulder_lift_joint",
        "elbow_joint",
        "wrist_1_joint",
        "wrist_2_joint",
        "wrist_3_joint"
    ],
    "metrics": {
        "cart_traj_len": 0.8510351323387708,
        "distance_elbow_joint": 0.45815321115670704,
        "distance_shoulder_lift_joint": 0.7060520718954344,
        "distance_shoulder_pan_joint": 1.0432618715960866,
        "distance_wrist_1_joint": 0.820993087156654,
        "distance_wrist_2_joint": 0.5303368832823687,
        "distance_wrist_3_joint": 1.5196161806004183,
        "smoothness": 1.0875717694398397,
        "time": 0.30107851799999996,
        "traj_len": 2.2535335155456795,
        "weighted_distance": 3.077170069613886
    },
    "planner": "ProjEST",
    "start": {
        "state": {
            "elbow_joint": 2.4225746994637096,
            "shoulder_lift_joint": -1.373653595662188,
            "shoulder_pan_joint": -0.3378633848294565,
            "wrist_1_joint": -1.0288595594406726,
            "wrist_2_joint": 1.2330228066703421,
            "wrist_3_joint": 3.189163495502006
        }
    },
    "waypoints": [
        {
            "positions": [
                -0.3378633848294565,
                -1.373653595662188,
                2.4225746994637096,
                -1.0288595594406726,
                1.2330228066703421,
                3.189163495502006
            ]
        },
        {
            "positions": [
                -0.2605910139625236,
                -1.4510198154205762,
                2.391816225380699,
                -0.9415437275910474,
                1.2107348120214374,
                3.0906456649525973
            ]
        },
        {
            "positions": [
                -0.18331864309559065,
                -1.5283860351789644,
                2.3610577512976887,
                -0.8542278957414223,
                1.1884468173725327,
                2.9921278344031887
            ]
        },
        {
            "positions": [
                -0.10604627222865773,
                -1.6057522549373524,
                2.330299277214678,
                -0.7669120638917971,
                1.166158822723628,
                2.89361000385378
            ]
        },
        {
            "positions": [
                -0.028773901361724807,
                -1.6831184746957406,
                2.2995408031316673,
                -0.679596232042172,
                1.1438708280747232,
                2.7950921733043717
            ]
        },
        {
            "positions": [
                0.04849846950520814,
                -1.7604846944541288,
                2.2687823290486566,
                -0.5922804001925468,
                1.1215828334258184,
                2.696574342754963
            ]
        },
        {
            "positions": [
                0.12577084037214104,
                -1.8378509142125168,
                2.238023854965646,
                -0.5049645683429216,
                1.0992948387769137,
                2.5980565122055546
            ]
        },
        {
            "positions": [
                0.20304321123907393,
                -1.915217133970905,
                2.2072653808826357,
                -0.4176487364932965,
                1.077006844128009,
                2.499538681656146
            ]
        },
        {
            "positions": [
                0.2803155821060068,
                -1.9925833537292932,
                2.176506906799625,
                -0.33033290464367127,
                1.0547188494791042,
                2.4010208511067375
            ]
        },
        {
            "positions": [
                0.3653321630381315,
                -1.9751588909636273,
                2.2189239904981495,
                -0.3548261911156018,
                0.984312264260878,
                2.5473155583477674
            ]
        },
        {
            "positions": [
                0.45034874397025615,
                -1.9577344281979614,
                2.261341074196674,
                -0.37931947758753237,
                0.9139056790426519,
                2.6936102655887972
            ]
        },
        {
            "positions": [
                0.5353653249023809,
                -1.9403099654322957,
                2.3037581578951984,
                -0.40381276405946287,
                0.8434990938244258,
                2.8399049728298276
            ]
        },
        {
            "positions": [
                0.6203819058345055,
                -1.9228855026666298,
                2.346175241593723,
                -0.4283060505313934,
                0.7730925086061995,
                2.9861996800708575
            ]
        },
        {
            "positions": [
                0.7053984867666302,
                -1.905461039900964,
                2.3885923252922474,
                -0.452799337003324,
                0.7026859233879734,
                3.1324943873118873
            ]
        }
    ]
}