{
    "goal": {
        "global_pose": {
            "orientation": {
                "w": 0.7047431468963623,
                "x": -0.7094548344612122,
                "y": 0.0024358443915843964,
                "z": -0.0022348060738295317
            },
            "position": {
                "x": 0.6094750761985779,
                "y": 0.3671506643295288,
                "z": 0.19426114857196808
            }
        },
        "name": "move_to_magneteinheit_A"
    },
    "id": "ProjEST_move_to_magneteinheit_A_113",
    "joint_names": [
        "shoulder_pan_joint",
        "shoulder_lift_joint",
        "elbow_joint",
        "wrist_1_joint",
        "wrist_2_joint",
        "wrist_3_joint"
    ],
    "metrics": {
        "cart_traj_len": 1.6993425487903195,
        "distance_elbow_joint": 3.982963436995075,
        "distance_shoulder_lift_joint": 1.3778306145487935,
        "distance_shoulder_pan_joint": 1.242096870496039,
        "distance_wrist_1_joint": 3.9317551226728074,
        "distance_wrist_2_joint": 1.925340665956937,
        "distance_wrist_3_joint": 1.1487148086794443,
        "smoothness": 0.3767252705834652,
        "time": 0.175664017,
        "traj_len": 3.6889973596289134,
        "weighted_distance": 4.665107386260014
    },
    "planner": "ProjEST",
    "start": {
        "state": {
            "elbow_joint": -1.5739458827952972,
            "shoulder_lift_joint": 0.006533473998580023,
            "shoulder_pan_joint": -1.1188671628667068,
            "wrist_1_joint": 3.138208179676308,
            "wrist_2_joint": -1.5706037135050406,
            "wrist_3_joint": -2.0226958329764257
        }
    },
    "waypoints": [
        {
            "positions": [
                -1.1188671628667068,
                0.006533473998580023,
                -1.5739458827952972,
                3.138208179676308,
                -1.5706037135050406,
                -2.0226958329764257
            ]
        },
        {
            "positions": [
                -1.0888144846249785,
                -0.03291926890530049,
                -1.4562676820115206,
                3.0221013751695227,
                -1.5139741637934465,
                -2.054006189840157
            ]
        },
        {
            "positions": [
                -1.0587618063832502,
                -0.072372011809181,
                -1.3385894812277441,
                2.905994570662737,
                -1.4573446140818527,
                -2.085316546703889
            ]
        },
        {
            "positions": [
                -1.028709128141522,
                -0.11182475471306151,
                -1.2209112804439677,
                2.7898877661559514,
                -1.4007150643702586,
                -2.1166269035676204
            ]
        },
        {
            "positions": [
                -0.9986564498997935,
                -0.151277497616942,
                -1.103233079660191,
                2.6737809616491655,
                -1.3440855146586648,
                -2.147937260431352
            ]
        },
        {
            "positions": [
                -0.9686037716580651,
                -0.19073024052082252,
                -0.9855548788764145,
                2.55767415714238,
                -1.2874559649470707,
                -2.1792476172950836
            ]
        },
        {
            "positions": [
                -0.9385510934163368,
                -0.23018298342470303,
                -0.8678766780926379,
                2.4415673526355945,
                -1.2308264152354766,
                -2.210557974158815
            ]
        },
        {
            "positions": [
                -0.9084984151746085,
                -0.26963572632858357,
                -0.7501984773088614,
                2.3254605481288086,
                -1.1741968655238826,
                -2.2418683310225465
            ]
        },
        {
            "positions": [
                -0.8784457369328801,
                -0.3090884692324641,
                -0.6325202765250848,
                2.209353743622023,
                -1.1175673158122887,
                -2.2731786878862783
            ]
        },
        {
            "positions": [
                -0.8483930586911518,
                -0.3485412121363446,
                -0.5148420757413084,
                2.0932469391152377,
                -1.060937766100695,
                -2.3044890447500097
            ]
        },
        {
            "positions": [
                -0.8183403804494234,
                -0.3879939550402251,
                -0.3971638749575317,
                1.9771401346084518,
                -1.0043082163891008,
                -2.335799401613741
            ]
        },
        {
            "positions": [
                -0.7882877022076951,
                -0.4274466979441056,
                -0.279485674173755,
                1.8610333301016664,
                -0.9476786666775068,
                -2.367109758477473
            ]
        },
        {
            "positions": [
                -0.7582350239659668,
                -0.4668994408479861,
                -0.16180747338997858,
                1.7449265255948807,
                -0.8910491169659128,
                -2.3984201153412044
            ]
        },
        {
            "positions": [
                -0.7281823457242385,
                -0.5063521837518665,
                -0.04412927260620214,
                1.628819721088095,
                -0.8344195672543189,
                -2.4297304722049358
            ]
        },
        {
            "positions": [
                -0.69812966748251,
                -0.5458049266557471,
                0.07354892817757452,
                1.5127129165813096,
                -0.7777900175427248,
                -2.4610408290686676
            ]
        },
        {
            "positions": [
                -0.6680769892407817,
                -0.5852576695596277,
                0.1912271289613512,
                1.396606112074524,
                -0.7211604678311309,
                -2.492351185932399
            ]
        },
        {
            "positions": [
                -0.6380243109990533,
                -0.6247104124635081,
                0.30890532974512763,
                1.2804993075677382,
                -0.6645309181195369,
                -2.5236615427961304
            ]
        },
        {
            "positions": [
                -0.607971632757325,
                -0.6641631553673886,
                0.4265835305289041,
                1.1643925030609525,
                -0.607901368407943,
                -2.5549718996598623
            ]
        },
        {
            "positions": [
                -0.5779189545155967,
                -0.7036158982712691,
                0.5442617313126805,
                1.0482856985541669,
                -0.551271818696349,
                -2.5862822565235937
            ]
        },
        {
            "positions": [
                -0.5478662762738683,
                -0.7430686411751497,
                0.6619399320964574,
                0.9321788940473814,
                -0.49464226898475494,
                -2.617592613387325
            ]
        },
        {
            "positions": [
                -0.51781359803214,
                -0.7825213840790302,
                0.7796181328802338,
                0.8160720895405955,
                -0.4380127192731611,
                -2.648902970251057
            ]
        },
        {
            "positions": [
                -0.4877609197904117,
                -0.8219741269829106,
                0.8972963336640103,
                0.6999652850338101,
                -0.38138316956156704,
                -2.6802133271147883
            ]
        },
        {
            "positions": [
                -0.4577082415486833,
                -0.8614268698867912,
                1.0149745344477872,
                0.5838584805270246,
                -0.324753619849973,
                -2.7115236839785197
            ]
        },
        {
            "positions": [
                -0.427655563306955,
                -0.9008796127906717,
                1.1326527352315636,
                0.4677516760202387,
                -0.26812407013837913,
                -2.7428340408422516
            ]
        },
        {
            "positions": [
                -0.3976028850652267,
                -0.9403323556945522,
                1.25033093601534,
                0.35164487151345325,
                -0.21149452042678507,
                -2.774144397705983
            ]
        },
        {
            "positions": [
                -0.36755020682349826,
                -0.9797850985984327,
                1.3680091367991165,
                0.2355380670066678,
                -0.154864970715191,
                -2.8054547545697144
            ]
        },
        {
            "positions": [
                -0.33749752858176996,
                -1.0192378415023131,
                1.485687337582893,
                0.1194312624998819,
                -0.09823542100359717,
                -2.8367651114334462
            ]
        },
        {
            "positions": [
                -0.30744485034004165,
                -1.0586905844061938,
                1.6033655383666698,
                0.0033244579930964413,
                -0.041605871292003105,
                -2.8680754682971776
            ]
        },
        {
            "positions": [
                -0.27739217209831324,
                -1.0981433273100742,
                1.7210437391504463,
                -0.11278234651368901,
                0.015023678419590958,
                -2.899385825160909
            ]
        },
        {
            "positions": [
                -0.24733949385658494,
                -1.1375960702139547,
                1.8387219399342227,
                -0.2288891510204749,
                0.0716532281311848,
                -2.930696182024641
            ]
        },
        {
            "positions": [
                -0.21728681561485663,
                -1.1770488131178354,
                1.9564001407179996,
                -0.34499595552726037,
                0.12828277784277886,
                -2.9620065388883723
            ]
        },
        {
            "positions": [
                -0.18723413737312822,
                -1.2165015560217158,
                2.0740783415017763,
                -0.46110276003404627,
                0.1849123275543727,
                -2.993316895752104
            ]
        },
        {
            "positions": [
                -0.15718145913139994,
                -1.2559542989255963,
                2.1917565422855527,
                -0.5772095645408319,
                0.24154187726596685,
                -3.0246272526158355
            ]
        },
        {
            "positions": [
                -0.06371107021115592,
                -1.217506685050724,
                2.119336204980811,
                -0.6493220240260544,
                0.2038101855373237,
                -3.073555048962514
            ]
        },
        {
            "positions": [
                0.0297593187090881,
                -1.1790590711758515,
                2.0469158676760695,
                -0.7214344835112769,
                0.1660784938086805,
                -3.1224828453091917
            ]
        },
        {
            "positions": [
                0.12322970762933211,
                -1.1406114573009791,
                1.9744955303713279,
                -0.7935469429964995,
                0.12834680208003735,
                -3.17141064165587
            ]
        }
    ]
}