{
    "goal": {
        "global_pose": {
            "orientation": {
                "w": 0.7031023502349854,
                "x": -0.7110244035720825,
                "y": 0.007748599164187908,
                "z": 0.005598929710686207
            },
            "position": {
                "x": 0.11585023208521307,
                "y": 0.44412534475326537,
                "z": 0.3711530566215515
            }
        },
        "name": "move_to_auspresseinheit_A"
    },
    "id": "ProjEST_move_to_auspresseinheit_A_28",
    "joint_names": [
        "shoulder_pan_joint",
        "shoulder_lift_joint",
        "elbow_joint",
        "wrist_1_joint",
        "wrist_2_joint",
        "wrist_3_joint"
    ],
    "metrics": {
        "cart_traj_len": 0.9951790784205878,
        "distance_elbow_joint": 0.5133075296224408,
        "distance_shoulder_lift_joint": 0.8705171201811102,
        "distance_shoulder_pan_joint": 1.0470344971097858,
        "distance_wrist_1_joint": 0.5638442982322698,
        "distance_wrist_2_joint": 0.514611017620018,
        "distance_wrist_3_joint": 2.9980841300047936,
        "smoothness": 0.9913062268298711,
        "time": 0.126667738,
        "traj_len": 2.5509603275571373,
        "weighted_distance": 3.6853795148712014
    },
    "planner": "ProjEST",
    "start": {
        "state": {
            "elbow_joint": 2.4225746994637096,
            "shoulder_lift_joint": -1.373653595662188,
            "shoulder_pan_joint": -0.3378633848294565,
            "wrist_1_joint": -1.0288595594406726,
            "wrist_2_joint": 1.2330228066703421,
            "wrist_3_joint": 3.189163495502006
        }
    },
    "waypoints": [
        {
            "positions": [
                -0.3378633848294565,
                -1.373653595662188,
                2.4225746994637096,
                -1.0288595594406726,
                1.2330228066703421,
                3.189163495502006
            ]
        },
        {
            "positions": [
                -0.2720238717211776,
                -1.4438295840924398,
                2.3953807152829367,
                -0.9956757056452747,
                1.18967574425402,
                3.0365899157498637
            ]
        },
        {
            "positions": [
                -0.20618435861289863,
                -1.5140055725226913,
                2.368186731102164,
                -0.9624918518498768,
                1.146328681837698,
                2.884016335997722
            ]
        },
        {
            "positions": [
                -0.14034484550461973,
                -1.584181560952943,
                2.340992746921391,
                -0.9293079980544791,
                1.102981619421376,
                2.73144275624558
            ]
        },
        {
            "positions": [
                -0.07450533239634077,
                -1.6543575493831946,
                2.313798762740618,
                -0.8961241442590812,
                1.059634557005054,
                2.5788691764934377
            ]
        },
        {
            "positions": [
                -0.008665819288061871,
                -1.7245335378134463,
                2.2866047785598456,
                -0.8629402904636833,
                1.016287494588732,
                2.426295596741296
            ]
        },
        {
            "positions": [
                0.05717369382021703,
                -1.794709526243698,
                2.2594107943790727,
                -0.8297564366682854,
                0.9729404321724099,
                2.273722016989154
            ]
        },
        {
            "positions": [
                0.12301320692849593,
                -1.8648855146739496,
                2.2322168101982998,
                -0.7965725828728876,
                0.9295933697560879,
                2.1211484372370117
            ]
        },
        {
            "positions": [
                0.18885272003677495,
                -1.9350615031042013,
                2.205022826017527,
                -0.7633887290774897,
                0.8862463073397657,
                1.9685748574848696
            ]
        },
        {
            "positions": [
                0.2546922331450538,
                -2.005237491534453,
                2.177828841836754,
                -0.7302048752820918,
                0.8428992449234437,
                1.8160012777327277
            ]
        },
        {
            "positions": [
                0.32053174625333275,
                -2.0754134799647046,
                2.150634857655981,
                -0.6970210214866939,
                0.7995521825071217,
                1.6634276979805858
            ]
        },
        {
            "positions": [
                0.3715328689101795,
                -2.0506036542867037,
                2.1925147178275464,
                -0.6518791735805841,
                0.7913970338447899,
                1.8682318772693973
            ]
        },
        {
            "positions": [
                0.4225339915670263,
                -2.0257938286087027,
                2.2343945779991117,
                -0.6067373256744742,
                0.7832418851824581,
                2.073036056558209
            ]
        },
        {
            "positions": [
                0.47353511422387307,
                -2.0009840029307018,
                2.276274438170677,
                -0.5615954777683645,
                0.7750867365201263,
                2.2778402358470204
            ]
        },
        {
            "positions": [
                0.5224841642999292,
                -1.980938825861985,
                2.301808307768591,
                -0.5384817471815804,
                0.7635625719760529,
                2.457634448593484
            ]
        },
        {
            "positions": [
                0.5714332143759854,
                -1.9608936487932684,
                2.327342177366505,
                -0.5153680165947961,
                0.7520384074319795,
                2.637428661339947
            ]
        },
        {
            "positions": [
                0.6203822644520416,
                -1.9408484717245515,
                2.3528760469644188,
                -0.492254286008012,
                0.7405142428879061,
                2.817222874086411
            ]
        },
        {
            "positions": [
                0.6693313145280977,
                -1.9208032946558349,
                2.3784099165623327,
                -0.46914055542122785,
                0.7289900783438328,
                2.9970170868328743
            ]
        },
        {
            "positions": [
                0.7091711122803291,
                -1.906656244086111,
                2.3920025454706932,
                -0.465015261208403,
                0.7184117890503241,
                3.1357760304639593
            ]
        }
    ]
}