{
    "goal": {
        "global_pose": {
            "orientation": {
                "w": 0.7031023480610252,
                "x": -0.7110244013736278,
                "y": 0.0077485991402295624,
                "z": 0.005598929693374583
            },
            "position": {
                "x": -0.8841497679147869,
                "y": 0.44412534475326537,
                "z": 0.3711530566215515
            }
        },
        "name": "move_to_auspresseinheit_D"
    },
    "id": "ProjEST_move_to_auspresseinheit_D_78",
    "joint_names": [
        "shoulder_pan_joint",
        "shoulder_lift_joint",
        "elbow_joint",
        "wrist_1_joint",
        "wrist_2_joint",
        "wrist_3_joint"
    ],
    "metrics": {
        "cart_traj_len": 0.3439249542198569,
        "distance_elbow_joint": 0.6641393369939912,
        "distance_shoulder_lift_joint": 0.13605087843019348,
        "distance_shoulder_pan_joint": 0.13392665252969405,
        "distance_wrist_1_joint": 0.6235618024805363,
        "distance_wrist_2_joint": 1.4293547701034035,
        "distance_wrist_3_joint": 0.08704700873898785,
        "smoothness": 0.0,
        "time": 0.099716906,
        "traj_len": 1.7533055778377042,
        "weighted_distance": 2.3024098330529084
    },
    "planner": "ProjEST",
    "start": {
        "state": {
            "elbow_joint": -1.8275484843655228,
            "shoulder_lift_joint": -2.1267897864000416,
            "shoulder_pan_joint": -0.035127520176001514,
            "wrist_1_joint": -2.3477863256791385,
            "wrist_2_joint": -1.605890476484521,
            "wrist_3_joint": -3.0880375317375353
        }
    },
    "waypoints": [
        {
            "positions": [
                -0.035127520176001514,
                -2.1267897864000416,
                -1.8275484843655228,
                -2.3477863256791385,
                -1.605890476484521,
                -3.0880375317375353
            ]
        },
        {
            "positions": [
                -0.05186835174221327,
                -2.1437961462038158,
                -1.744531067241274,
                -2.4257315509892057,
                -1.4272211302215956,
                -3.0771566556451617
            ]
        },
        {
            "positions": [
                -0.06860918330842503,
                -2.16080250600759,
                -1.661513650117025,
                -2.5036767762992724,
                -1.2485517839586702,
                -3.066275779552788
            ]
        },
        {
            "positions": [
                -0.08535001487463678,
                -2.177808865811364,
                -1.578496232992776,
                -2.5816220016093396,
                -1.0698824376957448,
                -3.0553949034604146
            ]
        },
        {
            "positions": [
                -0.10209084644084854,
                -2.1948152256151383,
                -1.4954788158685273,
                -2.659567226919407,
                -0.8912130914328192,
                -3.0445140273680416
            ]
        },
        {
            "positions": [
                -0.11883167800706029,
                -2.2118215854189125,
                -1.4124613987442782,
                -2.7375124522294736,
                -0.7125437451698938,
                -3.033633151275668
            ]
        },
        {
            "positions": [
                -0.13557250957327205,
                -2.2288279452226867,
                -1.3294439816200294,
                -2.815457677539541,
                -0.5338743989069683,
                -3.0227522751832945
            ]
        },
        {
            "positions": [
                -0.1523133411394838,
                -2.245834305026461,
                -1.2464265644957804,
                -2.8934029028496075,
                -0.3552050526440429,
                -3.011871399090921
            ]
        },
        {
            "positions": [
                -0.16905417270569556,
                -2.262840664830235,
                -1.1634091473715316,
                -2.9713481281596748,
                -0.17653570638111746,
                -3.0009905229985474
            ]
        }
    ]
}