{
    "goal": {
        "global_pose": {
            "orientation": {
                "w": -0.4816463035849501,
                "x": 0.5182115481033762,
                "y": 0.4908360881923453,
                "z": -0.5084816262002911
            },
            "position": {
                "x": -0.8240239810943604,
                "y": 0.19912469901144506,
                "z": 0.16403168439865112
            }
        },
        "name": "move_to_storage_D"
    },
    "id": "ProjEST_move_to_storage_D_147",
    "joint_names": [
        "shoulder_pan_joint",
        "shoulder_lift_joint",
        "elbow_joint",
        "wrist_1_joint",
        "wrist_2_joint",
        "wrist_3_joint"
    ],
    "metrics": {
        "cart_traj_len": 3.7280485548632325,
        "distance_elbow_joint": 4.69430920292781,
        "distance_shoulder_lift_joint": 1.2652830631424845,
        "distance_shoulder_pan_joint": 3.010157275835951,
        "distance_wrist_1_joint": 2.2867869328066863,
        "distance_wrist_2_joint": 0.8733109373415828,
        "distance_wrist_3_joint": 3.146533922741508,
        "smoothness": 0.0913144613059363,
        "time": 0.231608397,
        "traj_len": 3.9085011621843,
        "weighted_distance": 4.972881161904768
    },
    "planner": "ProjEST",
    "start": {
        "state": {
            "elbow_joint": -2.384821990628643,
            "shoulder_lift_joint": -2.278805467437664,
            "shoulder_pan_joint": -0.18546946439364564,
            "wrist_1_joint": 1.4845938187801415,
            "wrist_2_joint": 0.178987772454074,
            "wrist_3_joint": 0.03710569632802521
        }
    },
    "waypoints": [
        {
            "positions": [
                -0.18546946439364564,
                -2.278805467437664,
                -2.384821990628643,
                1.4845938187801415,
                0.178987772454074,
                0.03710569632802521
            ]
        },
        {
            "positions": [
                -0.09448560815348017,
                -2.2675439842803975,
                -2.245644083596407,
                1.432741152854949,
                0.20473929133395227,
                0.10748667729276376
            ]
        },
        {
            "positions": [
                -0.003501751913314699,
                -2.2562825011231316,
                -2.106466176564171,
                1.3808884869297564,
                0.23049081021383055,
                0.1778676582575023
            ]
        },
        {
            "positions": [
                0.08748210432685077,
                -2.245021017965865,
                -1.9672882695319351,
                1.3290358210045639,
                0.2562423290937088,
                0.24824863922224086
            ]
        },
        {
            "positions": [
                0.17846596056701625,
                -2.2337595348085992,
                -1.828110362499699,
                1.2771831550793713,
                0.2819938479735871,
                0.3186296201869794
            ]
        },
        {
            "positions": [
                0.2694498168071817,
                -2.222498051651333,
                -1.688932455467463,
                1.225330489154179,
                0.30774536685346543,
                0.3890106011517179
            ]
        },
        {
            "positions": [
                0.3604336730473472,
                -2.211236568494067,
                -1.549754548435227,
                1.1734778232289864,
                0.3334968857333437,
                0.4593915821164565
            ]
        },
        {
            "positions": [
                0.45141752928751266,
                -2.1999750853368005,
                -1.410576641402991,
                1.1216251573037939,
                0.35924840461322194,
                0.529772563081195
            ]
        },
        {
            "positions": [
                0.5424013855276781,
                -2.1887136021795346,
                -1.271398734370755,
                1.0697724913786013,
                0.38499992349310025,
                0.6001535440459336
            ]
        },
        {
            "positions": [
                0.6333852417678436,
                -2.177452119022268,
                -1.1322208273385188,
                1.0179198254534088,
                0.41075144237297856,
                0.6705345250106721
            ]
        },
        {
            "positions": [
                0.7243690980080091,
                -2.1661906358650023,
                -0.9930429203062827,
                0.9660671595282162,
                0.4365029612528568,
                0.7409155059754107
            ]
        },
        {
            "positions": [
                0.8153529542481746,
                -2.154929152707736,
                -0.8538650132740468,
                0.9142144936030236,
                0.4622544801327351,
                0.8112964869401492
            ]
        },
        {
            "positions": [
                0.90633681048834,
                -2.14366766955047,
                -0.7146871062418108,
                0.8623618276778311,
                0.4880059990126134,
                0.8816774679048878
            ]
        },
        {
            "positions": [
                0.9973206667285055,
                -2.1324061863932036,
                -0.5755091992095747,
                0.8105091617526385,
                0.5137575178924916,
                0.9520584488696263
            ]
        },
        {
            "positions": [
                1.088304522968671,
                -2.1211447032359376,
                -0.4363312921773388,
                0.7586564958274461,
                0.5395090367723699,
                1.0224394298343649
            ]
        },
        {
            "positions": [
                1.1792883792088364,
                -2.1098832200786712,
                -0.2971533851451027,
                0.7068038299022535,
                0.5652605556522483,
                1.0928204107991035
            ]
        },
        {
            "positions": [
                1.270272235449002,
                -2.0986217369214053,
                -0.1579754781128666,
                0.654951163977061,
                0.5910120745321266,
                1.163201391763842
            ]
        },
        {
            "positions": [
                1.3612560916891674,
                -2.087360253764139,
                -0.018797571080630515,
                0.6030984980518684,
                0.6167635934120048,
                1.2335823727285804
            ]
        },
        {
            "positions": [
                1.4522399479293329,
                -2.0760987706068725,
                0.12038033595160558,
                0.5512458321266759,
                0.6425151122918831,
                1.303963353693319
            ]
        },
        {
            "positions": [
                1.5432238041694983,
                -2.0648372874496066,
                0.25955824298384167,
                0.49939316620148344,
                0.6682666311717613,
                1.3743443346580577
            ]
        },
        {
            "positions": [
                1.6342076604096638,
                -2.05357580429234,
                0.39873615001607776,
                0.4475405002762909,
                0.6940181500516396,
                1.4447253156227962
            ]
        },
        {
            "positions": [
                1.7251915166498293,
                -2.0423143211350743,
                0.5379140570483134,
                0.39568783435109833,
                0.7197696689315178,
                1.5151062965875346
            ]
        },
        {
            "positions": [
                1.8161753728899948,
                -2.031052837977808,
                0.6770919640805495,
                0.3438351684259058,
                0.7455211878113963,
                1.5854872775522733
            ]
        },
        {
            "positions": [
                1.9071592291301602,
                -2.019791354820542,
                0.8162698711127856,
                0.2919825025007132,
                0.7712727066912746,
                1.655868258517012
            ]
        },
        {
            "positions": [
                1.9981430853703257,
                -2.0085298716632756,
                0.9554477781450217,
                0.24012983657552067,
                0.7970242255711528,
                1.7262492394817504
            ]
        },
        {
            "positions": [
                2.089126941610491,
                -1.9972683885060096,
                1.0946256851772578,
                0.18827717065032812,
                0.8227757444510311,
                1.7966302204464888
            ]
        },
        {
            "positions": [
                2.1801107978506566,
                -1.9860069053487432,
                1.2338035922094939,
                0.13642450472513556,
                0.8485272633309093,
                1.8670112014112275
            ]
        },
        {
            "positions": [
                2.271094654090822,
                -1.974745422191477,
                1.37298149924173,
                0.08457183879994323,
                0.8742787822107876,
                1.937392182375966
            ]
        },
        {
            "positions": [
                2.3620785103309876,
                -1.963483939034211,
                1.5121594062739656,
                0.03271917287475068,
                0.9000303010906658,
                2.0077731633407048
            ]
        },
        {
            "positions": [
                2.453062366571153,
                -1.9522224558769448,
                1.6513373133062017,
                -0.019133493050441874,
                0.9257818199705441,
                2.078154144305443
            ]
        },
        {
            "positions": [
                2.5440462228113185,
                -1.9409609727196786,
                1.7905152203384378,
                -0.07098615897563443,
                0.9515333388504226,
                2.148535125270182
            ]
        },
        {
            "positions": [
                2.635030079051484,
                -1.9296994895624124,
                1.9296931273706739,
                -0.12283882490082698,
                0.9772848577303008,
                2.2189161062349205
            ]
        },
        {
            "positions": [
                2.7260139352916495,
                -1.9184380064051463,
                2.0688710344029095,
                -0.17469149082601954,
                1.003036376610179,
                2.289297087199659
            ]
        },
        {
            "positions": [
                2.7136797007728175,
                -1.8053235561414005,
                2.0387940121658774,
                -0.25312919372608517,
                1.0091941682583638,
                2.4010899036833933
            ]
        },
        {
            "positions": [
                2.7013454662539855,
                -1.6922091058776545,
                2.0087169899288453,
                -0.3315668966261508,
                1.0153519599065486,
                2.5128827201671275
            ]
        },
        {
            "positions": [
                2.6890112317351536,
                -1.5790946556139087,
                1.978639967691813,
                -0.4100045995262164,
                1.0215097515547333,
                2.624675536650862
            ]
        },
        {
            "positions": [
                2.6766769972163216,
                -1.4659802053501627,
                1.9485629454547806,
                -0.488442302426282,
                1.0276675432029179,
                2.736468353134596
            ]
        },
        {
            "positions": [
                2.6643427626974896,
                -1.352865755086417,
                1.9184859232177485,
                -0.5668800053263476,
                1.0338253348511026,
                2.8482611696183304
            ]
        },
        {
            "positions": [
                2.6520085281786576,
                -1.2397513048226712,
                1.8884089009807163,
                -0.6453177082264132,
                1.0399831264992874,
                2.9600539861020647
            ]
        },
        {
            "positions": [
                2.6396742936598256,
                -1.1266368545589254,
                1.858331878743684,
                -0.7237554111264789,
                1.0461409181474721,
                3.071846802585799
            ]
        },
        {
            "positions": [
                2.6273400591409937,
                -1.0135224042951794,
                1.8282548565066519,
                -0.8021931140265445,
                1.0522987097956569,
                3.1836396190695333
            ]
        }
    ]
}