{
    "goal": {
        "global_pose": {
            "orientation": {
                "w": -0.00223480608172531,
                "x": 0.0024358444001904467,
                "y": 0.7094548369677653,
                "z": -0.704743149386269
            },
            "position": {
                "x": 0.6205249238014221,
                "y": -0.6371506643295288,
                "z": 0.19426114857196808
            }
        },
        "name": "move_to_magneteinheit_B"
    },
    "id": "ProjEST_move_to_magneteinheit_B_120",
    "joint_names": [
        "shoulder_pan_joint",
        "shoulder_lift_joint",
        "elbow_joint",
        "wrist_1_joint",
        "wrist_2_joint",
        "wrist_3_joint"
    ],
    "metrics": {
        "cart_traj_len": 3.8381528045260236,
        "distance_elbow_joint": 4.494258056169986,
        "distance_shoulder_lift_joint": 1.0844101624511804,
        "distance_shoulder_pan_joint": 2.7590878292389047,
        "distance_wrist_1_joint": 1.7264747375144402,
        "distance_wrist_2_joint": 1.12968869434785,
        "distance_wrist_3_joint": 3.1836363769155787,
        "smoothness": 0.9537610895459468,
        "time": 0.772246511,
        "traj_len": 3.7917747634370285,
        "weighted_distance": 4.858085223864582
    },
    "planner": "ProjEST",
    "start": {
        "state": {
            "elbow_joint": 2.393587130804639,
            "shoulder_lift_joint": -1.9085141043513325,
            "shoulder_pan_joint": 0.7066247066698809,
            "wrist_1_joint": -0.4678290934590222,
            "wrist_2_joint": 0.7096259084215963,
            "wrist_3_joint": 3.147370379541726
        }
    },
    "waypoints": [
        {
            "positions": [
                0.7066247066698809,
                -1.9085141043513325,
                2.393587130804639,
                -0.4678290934590222,
                0.7096259084215963,
                3.147370379541726
            ]
        },
        {
            "positions": [
                0.5845911669143313,
                -1.779722648932045,
                2.4126894224207747,
                -0.41502145994830675,
                0.7541071716601417,
                3.1549392136086616
            ]
        },
        {
            "positions": [
                0.46255762715878174,
                -1.6509311935127577,
                2.4317917140369105,
                -0.3622138264375913,
                0.7985884348986871,
                3.162508047675597
            ]
        },
        {
            "positions": [
                0.45065292535964935,
                -1.7561534907389567,
                2.3667155285914285,
                -0.40766435043254545,
                0.7620373244823424,
                3.1177665350438066
            ]
        },
        {
            "positions": [
                0.438748223560517,
                -1.8613757879651558,
                2.3016393431459465,
                -0.4531148744274996,
                0.7254862140659976,
                3.0730250224120157
            ]
        },
        {
            "positions": [
                0.4268435217613846,
                -1.9665980851913547,
                2.2365631577004645,
                -0.49856539842245373,
                0.6889351036496528,
                3.028283509780225
            ]
        },
        {
            "positions": [
                0.496926176157722,
                -1.9674118183784517,
                2.0924441597859484,
                -0.44379522345574274,
                0.6628092457441593,
                2.9281799332741447
            ]
        },
        {
            "positions": [
                0.5670088305540594,
                -1.9682255515655487,
                1.9483251618714328,
                -0.38902504848903174,
                0.6366833878386658,
                2.8280763567680642
            ]
        },
        {
            "positions": [
                0.6370914849503968,
                -1.9690392847526457,
                1.804206163956917,
                -0.33425487352232075,
                0.6105575299331725,
                2.727972780261984
            ]
        },
        {
            "positions": [
                0.7071741393467341,
                -1.9698530179397429,
                1.660087166042401,
                -0.2794846985556097,
                0.584431672027679,
                2.6278692037559037
            ]
        },
        {
            "positions": [
                0.7772567937430716,
                -1.9706667511268399,
                1.515968168127885,
                -0.2247145235888987,
                0.5583058141221855,
                2.5277656272498232
            ]
        },
        {
            "positions": [
                0.847339448139409,
                -1.9714804843139369,
                1.3718491702133693,
                -0.1699443486221877,
                0.532179956216692,
                2.427662050743743
            ]
        },
        {
            "positions": [
                0.9174221025357463,
                -1.9722942175010338,
                1.2277301722988532,
                -0.11517417365547672,
                0.5060540983111985,
                2.3275584742376623
            ]
        },
        {
            "positions": [
                0.9875047569320837,
                -1.9731079506881308,
                1.0836111743843373,
                -0.06040399868876567,
                0.47992824040570503,
                2.2274548977315822
            ]
        },
        {
            "positions": [
                1.0575874113284212,
                -1.9739216838752278,
                0.9394921764698214,
                -0.005633823722054676,
                0.45380238250021154,
                2.1273513212255017
            ]
        },
        {
            "positions": [
                1.1276700657247585,
                -1.9747354170623248,
                0.7953731785553055,
                0.04913635124465632,
                0.4276765245947181,
                2.0272477447194213
            ]
        },
        {
            "positions": [
                1.197752720121096,
                -1.9755491502494218,
                0.6512541806407897,
                0.10390652621136731,
                0.4015506666892246,
                1.927144168213341
            ]
        },
        {
            "positions": [
                1.2678353745174333,
                -1.976362883436519,
                0.5071351827262738,
                0.1586767011780783,
                0.3754248087837312,
                1.8270405917072607
            ]
        },
        {
            "positions": [
                1.3379180289137707,
                -1.977176616623616,
                0.3630161848117577,
                0.2134468761447894,
                0.34929895087823765,
                1.7269370152011803
            ]
        },
        {
            "positions": [
                1.408000683310108,
                -1.977990349810713,
                0.2188971868972418,
                0.2682170511115003,
                0.3231730929727442,
                1.6268334386950998
            ]
        },
        {
            "positions": [
                1.4780833377064453,
                -1.97880408299781,
                0.07477818898272615,
                0.3229872260782113,
                0.2970472350672508,
                1.5267298621890195
            ]
        },
        {
            "positions": [
                1.5481659921027828,
                -1.979617816184907,
                -0.06934080893178995,
                0.3777574010449224,
                0.27092137716175724,
                1.426626285682939
            ]
        },
        {
            "positions": [
                1.6182486464991201,
                -1.980431549372004,
                -0.2134598068463056,
                0.4325275760116333,
                0.2447955192562638,
                1.3265227091768588
            ]
        },
        {
            "positions": [
                1.6883313008954577,
                -1.981245282559101,
                -0.3575788047608217,
                0.4872977509783444,
                0.21866966135077026,
                1.2264191326707783
            ]
        },
        {
            "positions": [
                1.758413955291795,
                -1.9820590157461981,
                -0.5016978026753374,
                0.5420679259450553,
                0.19254380344527683,
                1.126315556164698
            ]
        },
        {
            "positions": [
                1.8284966096881323,
                -1.9828727489332951,
                -0.6458168005898535,
                0.5968381009117664,
                0.1664179455397834,
                1.0262119796586178
            ]
        },
        {
            "positions": [
                1.8985792640844699,
                -1.9836864821203921,
                -0.7899357985043696,
                0.6516082758784775,
                0.1402920876342899,
                0.9261084031525373
            ]
        },
        {
            "positions": [
                1.9686619184808072,
                -1.984500215307489,
                -0.9340547964188854,
                0.7063784508451882,
                0.11416622972879646,
                0.8260048266464569
            ]
        },
        {
            "positions": [
                2.073080450989754,
                -1.9862024462634813,
                -1.0133081363886762,
                0.7230837153426879,
                0.1307156722651388,
                0.8404461971254422
            ]
        },
        {
            "positions": [
                2.215117098340169,
                -2.004538214835479,
                -1.1799373481866622,
                0.7475674062785234,
                0.1635298856758498,
                0.8402012781830965
            ]
        },
        {
            "positions": [
                2.3571537456905842,
                -2.0228739834074765,
                -1.3465665599846481,
                0.7720510972143588,
                0.1963440990865608,
                0.8399563592407508
            ]
        },
        {
            "positions": [
                2.499190393040999,
                -2.0412097519794736,
                -1.5131957717826339,
                0.7965347881501943,
                0.22915831249727175,
                0.839711440298405
            ]
        },
        {
            "positions": [
                2.641227040391414,
                -2.059545520551471,
                -1.67982498358062,
                0.8210184790860298,
                0.2619725259079828,
                0.8394665213560594
            ]
        },
        {
            "positions": [
                2.783263687741829,
                -2.077881289123469,
                -1.8464541953786058,
                0.8455021700218652,
                0.29478673931869376,
                0.8392216024137137
            ]
        },
        {
            "positions": [
                2.7586863920718363,
                -2.157856720323848,
                -1.810892682674166,
                0.8735902360346307,
                0.3299234299408879,
                0.675955697901343
            ]
        },
        {
            "positions": [
                2.7341090964018435,
                -2.2378321515242265,
                -1.7753311699697263,
                0.9016783020473963,
                0.3650601205630821,
                0.5126897933889725
            ]
        },
        {
            "positions": [
                2.7095318007318507,
                -2.3178075827246056,
                -1.7397696572652868,
                0.9297663680601618,
                0.4001968111852763,
                0.34942388887660186
            ]
        },
        {
            "positions": [
                2.684954505061858,
                -2.3977830139249843,
                -1.704208144560847,
                0.9578544340729274,
                0.43533350180747044,
                0.18615798436423114
            ]
        },
        {
            "positions": [
                2.660377209391865,
                -2.4777584451253634,
                -1.6686466318564073,
                0.9859425000856928,
                0.47047019242966465,
                0.022892079851860578
            ]
        }
    ]
}