{
    "goal": {
        "global_pose": {
            "orientation": {
                "w": 0.7047431493862688,
                "x": -0.7094548369677653,
                "y": 0.0024358444001904,
                "z": -0.0022348060817251984
            },
            "position": {
                "x": -0.39052492380142206,
                "y": 0.3671506643295288,
                "z": 0.19426114857196808
            }
        },
        "name": "move_to_magneteinheit_D"
    },
    "id": "ProjEST_move_to_magneteinheit_D_89",
    "joint_names": [
        "shoulder_pan_joint",
        "shoulder_lift_joint",
        "elbow_joint",
        "wrist_1_joint",
        "wrist_2_joint",
        "wrist_3_joint"
    ],
    "metrics": {
        "cart_traj_len": 4.298402261850125,
        "distance_elbow_joint": 3.438487399199455,
        "distance_shoulder_lift_joint": 1.6414516942678812,
        "distance_shoulder_pan_joint": 3.0955457895116787,
        "distance_wrist_1_joint": 1.6093824564705248,
        "distance_wrist_2_joint": 0.3908832588672334,
        "distance_wrist_3_joint": 3.507329223908919,
        "smoothness": 0.38465818862416473,
        "time": 0.551722877,
        "traj_len": 3.699064722632694,
        "weighted_distance": 4.764242225725019
    },
    "planner": "ProjEST",
    "start": {
        "state": {
            "elbow_joint": 0.7495348899011911,
            "shoulder_lift_joint": -0.6476975780737668,
            "shoulder_pan_joint": -2.711696901376276,
            "wrist_1_joint": -0.0750647808097303,
            "wrist_2_joint": 0.43296659715458535,
            "wrist_3_joint": 3.1361499051832418
        }
    },
    "waypoints": [
        {
            "positions": [
                -2.711696901376276,
                -0.6476975780737668,
                0.7495348899011911,
                -0.0750647808097303,
                0.43296659715458535,
                3.1361499051832418
            ]
        },
        {
            "positions": [
                -2.7199233600246107,
                -0.6996757373211736,
                0.727888217307034,
                0.005000658780112743,
                0.44956653774953864,
                2.9773467136315275
            ]
        },
        {
            "positions": [
                -2.7281498186729456,
                -0.7516538965685804,
                0.7062415447128769,
                0.08506609836995578,
                0.4661664783444919,
                2.818543522079813
            ]
        },
        {
            "positions": [
                -2.73637627732128,
                -0.8036320558159873,
                0.6845948721187197,
                0.16513153795979885,
                0.48276641893944516,
                2.6597403305280993
            ]
        },
        {
            "positions": [
                -2.7446027359696146,
                -0.8556102150633941,
                0.6629481995245626,
                0.24519697754964187,
                0.49936635953439845,
                2.500937138976385
            ]
        },
        {
            "positions": [
                -2.641705861941322,
                -0.8990818382347439,
                0.5718346396638343,
                0.287302219845654,
                0.49491627566947793,
                2.4010285104495885
            ]
        },
        {
            "positions": [
                -2.5388089879130287,
                -0.9425534614060935,
                0.48072107980310586,
                0.3294074621416661,
                0.49046619180455736,
                2.301119881922792
            ]
        },
        {
            "positions": [
                -2.435912113884736,
                -0.9860250845774433,
                0.3896075199423775,
                0.37151270443767825,
                0.48601610793963684,
                2.201211253395995
            ]
        },
        {
            "positions": [
                -2.333015239856443,
                -1.029496707748793,
                0.29849396008164913,
                0.41361794673369034,
                0.4815660240747163,
                2.1013026248691986
            ]
        },
        {
            "positions": [
                -2.23011836582815,
                -1.0729683309201428,
                0.20738040022092075,
                0.4557231890297025,
                0.47711594020979575,
                2.001393996342402
            ]
        },
        {
            "positions": [
                -2.1272214917998573,
                -1.1164399540914927,
                0.11626684036019241,
                0.49782843132571464,
                0.47266585634487523,
                1.9014853678156056
            ]
        },
        {
            "positions": [
                -2.0243246177715646,
                -1.1599115772628423,
                0.02515328049946397,
                0.5399336736217267,
                0.46821577247995466,
                1.801576739288809
            ]
        },
        {
            "positions": [
                -1.9214277437432716,
                -1.203383200434192,
                -0.06596027936126436,
                0.5820389159177388,
                0.46376568861503414,
                1.7016681107620122
            ]
        },
        {
            "positions": [
                -1.8185308697149787,
                -1.246854823605542,
                -0.1570738392219927,
                0.624144158213751,
                0.4593156047501136,
                1.6017594822352157
            ]
        },
        {
            "positions": [
                -1.715633995686686,
                -1.2903264467768916,
                -0.24818739908272114,
                0.6662494005097631,
                0.45486552088519305,
                1.5018508537084192
            ]
        },
        {
            "positions": [
                -1.612737121658393,
                -1.3337980699482412,
                -0.33930095894344936,
                0.7083546428057752,
                0.45041543702027254,
                1.4019422251816225
            ]
        },
        {
            "positions": [
                -1.5098402476301,
                -1.3772696931195911,
                -0.4304145188041778,
                0.7504598851017874,
                0.445965353155352,
                1.302033596654826
            ]
        },
        {
            "positions": [
                -1.4069433736018073,
                -1.4207413162909406,
                -0.5215280786649062,
                0.7925651273977995,
                0.44151526929043144,
                1.2021249681280295
            ]
        },
        {
            "positions": [
                -1.3040464995735144,
                -1.4642129394622905,
                -0.6126416385256347,
                0.8346703696938116,
                0.4370651854255109,
                1.1022163396012328
            ]
        },
        {
            "positions": [
                -1.2011496255452214,
                -1.5076845626336404,
                -0.7037551983863631,
                0.8767756119898238,
                0.43261510156059035,
                1.002307711074436
            ]
        },
        {
            "positions": [
                -1.0982527515169287,
                -1.5511561858049898,
                -0.7948687582470914,
                0.9188808542858359,
                0.42816501769566984,
                0.9023990825476396
            ]
        },
        {
            "positions": [
                -0.9953558774886355,
                -1.5946278089763397,
                -0.8859823181078198,
                0.9609860965818481,
                0.4237149338307493,
                0.8024904540208428
            ]
        },
        {
            "positions": [
                -0.8924590034603428,
                -1.6380994321476896,
                -0.977095877968548,
                1.0030913388778602,
                0.4192648499658288,
                0.7025818254940464
            ]
        },
        {
            "positions": [
                -0.7895621294320498,
                -1.6815710553190393,
                -1.0682094378292768,
                1.0451965811738724,
                0.4148147661009082,
                0.6026731969672496
            ]
        },
        {
            "positions": [
                -0.6866652554037573,
                -1.725042678490389,
                -1.1593229976900048,
                1.0873018234698844,
                0.4103646822359877,
                0.5027645684404534
            ]
        },
        {
            "positions": [
                -0.5837683813754642,
                -1.7685143016617388,
                -1.2504365575507332,
                1.1294070657658966,
                0.40591459837106714,
                0.4028559399136564
            ]
        },
        {
            "positions": [
                -0.48087150734717143,
                -1.8119859248330883,
                -1.3415501174114612,
                1.1715123080619088,
                0.4014645145061466,
                0.30294731138685993
            ]
        },
        {
            "positions": [
                -0.37797463331887826,
                -1.8554575480044382,
                -1.4326636772721901,
                1.2136175503579207,
                0.3970144306412261,
                0.20303868286006344
            ]
        },
        {
            "positions": [
                -0.27507775929058553,
                -1.898929171175788,
                -1.5237772371329181,
                1.255722792653933,
                0.39256434677630553,
                0.10313005433326694
            ]
        },
        {
            "positions": [
                -0.1721808852622928,
                -1.9424007943471375,
                -1.6148907969936466,
                1.2978280349499451,
                0.388114262911385,
                0.003221425806470002
            ]
        },
        {
            "positions": [
                -0.06928401123400008,
                -1.9858724175184874,
                -1.706004356854375,
                1.3399332772459571,
                0.38366417904646444,
                -0.09668720272032605
            ]
        },
        {
            "positions": [
                0.03361286279429289,
                -2.0293440406898373,
                -1.7971179167151035,
                1.3820385195419693,
                0.3792140951815439,
                -0.19659583124712315
            ]
        },
        {
            "positions": [
                0.04185219188352973,
                -2.093569054190033,
                -1.9807741747578933,
                1.4003356652756838,
                0.32947113582050747,
                -0.15908951538684937
            ]
        },
        {
            "positions": [
                0.05009152097276657,
                -2.1577940676902285,
                -2.164430432800683,
                1.418632811009398,
                0.279728176459471,
                -0.12158319952657559
            ]
        },
        {
            "positions": [
                0.058330850062003406,
                -2.2220190811904246,
                -2.348086690843473,
                1.4369299567431124,
                0.2299852170984346,
                -0.08407688366630181
            ]
        },
        {
            "positions": [
                0.06657017915124025,
                -2.28624409469062,
                -2.531742948886263,
                1.4552271024768269,
                0.18024225773739816,
                -0.04657056780602803
            ]
        },
        {
            "positions": [
                -0.059163340747502347,
                -2.2847915058651065,
                -2.4531381686802622,
                1.4947723890688107,
                0.18292195508260817,
                -0.034291455787298704
            ]
        },
        {
            "positions": [
                -0.18489686064624497,
                -2.2833389170395924,
                -2.3745333884742617,
                1.5343176756607946,
                0.18560165242781818,
                -0.022012343768569382
            ]
        }
    ]
}