{
    "goal": {
        "global_pose": {
            "orientation": {
                "w": 0.005598929693374612,
                "x": 0.007748599140229565,
                "y": 0.7110244013736278,
                "z": -0.7031023480610252
            },
            "position": {
                "x": -0.8858502320852131,
                "y": -0.7141253447532654,
                "z": 0.3711530566215515
            }
        },
        "name": "move_to_auspresseinheit_C"
    },
    "id": "ProjEST_move_to_auspresseinheit_C_58",
    "joint_names": [
        "shoulder_pan_joint",
        "shoulder_lift_joint",
        "elbow_joint",
        "wrist_1_joint",
        "wrist_2_joint",
        "wrist_3_joint"
    ],
    "metrics": {
        "cart_traj_len": 0.4919644084089012,
        "distance_elbow_joint": 0.9901801415875618,
        "distance_shoulder_lift_joint": 0.3202504575128565,
        "distance_shoulder_pan_joint": 0.2559825605878734,
        "distance_wrist_1_joint": 0.6618322834433391,
        "distance_wrist_2_joint": 1.3052371617388794,
        "distance_wrist_3_joint": 0.040764969150805186,
        "smoothness": 1.1304088990788627e-15,
        "time": 0.642587798,
        "traj_len": 1.8905680559084128,
        "weighted_distance": 2.3712543004716182
    },
    "planner": "ProjEST",
    "start": {
        "state": {
            "elbow_joint": 1.7527959577730765,
            "shoulder_lift_joint": -0.9740617694224828,
            "shoulder_pan_joint": -2.967991417825869,
            "wrist_1_joint": -0.7595177689779385,
            "wrist_2_joint": 1.7443932448376545,
            "wrist_3_joint": 3.1991315425061013
        }
    },
    "waypoints": [
        {
            "positions": [
                -2.967991417825869,
                -0.9740617694224828,
                1.7527959577730765,
                -0.7595177689779385,
                1.7443932448376545,
                3.1991315425061013
            ]
        },
        {
            "positions": [
                -2.9423931617670815,
                -0.9420367236711972,
                1.6537779436143203,
                -0.6933345406336047,
                1.6138695286637665,
                3.1950550455910207
            ]
        },
        {
            "positions": [
                -2.9167949057082945,
                -0.9100116779199114,
                1.554759929455564,
                -0.6271513122892707,
                1.4833458124898786,
                3.19097854867594
            ]
        },
        {
            "positions": [
                -2.891196649649507,
                -0.8779866321686258,
                1.4557419152968079,
                -0.5609680839449368,
                1.3528220963159907,
                3.18690205176086
            ]
        },
        {
            "positions": [
                -2.86559839359072,
                -0.8459615864173402,
                1.3567239011380519,
                -0.49478485560060287,
                1.2222983801421026,
                3.1828255548457793
            ]
        },
        {
            "positions": [
                -2.8400001375319324,
                -0.8139365406660546,
                1.2577058869792956,
                -0.428601627256269,
                1.0917746639682147,
                3.1787490579306987
            ]
        },
        {
            "positions": [
                -2.814401881473145,
                -0.7819114949147689,
                1.1586878728205394,
                -0.3624183989119351,
                0.9612509477943268,
                3.174672561015618
            ]
        },
        {
            "positions": [
                -2.788803625414358,
                -0.7498864491634832,
                1.0596698586617832,
                -0.2962351705676012,
                0.8307272316204389,
                3.1705960641005375
            ]
        },
        {
            "positions": [
                -2.7632053693555703,
                -0.7178614034121975,
                0.960651844503027,
                -0.2300519422232672,
                0.7002035154465509,
                3.1665195671854574
            ]
        },
        {
            "positions": [
                -2.737607113296783,
                -0.6858363576609119,
                0.8616338303442709,
                -0.16386871387893331,
                0.569679799272663,
                3.1624430702703767
            ]
        },
        {
            "positions": [
                -2.7120088572379957,
                -0.6538113119096263,
                0.7626158161855147,
                -0.09768548553459941,
                0.439156083098775,
                3.158366573355296
            ]
        }
    ]
}