{
    "goal": {
        "global_pose": {
            "orientation": {
                "w": -0.4816463035849501,
                "x": 0.5182115481033762,
                "y": 0.4908360881923453,
                "z": -0.5084816262002911
            },
            "position": {
                "x": -0.8240239810943604,
                "y": -0.300875300988555,
                "z": 0.16403168439865112
            }
        },
        "name": "move_to_storage_C"
    },
    "id": "ProjEST_move_to_storage_C_65",
    "joint_names": [
        "shoulder_pan_joint",
        "shoulder_lift_joint",
        "elbow_joint",
        "wrist_1_joint",
        "wrist_2_joint",
        "wrist_3_joint"
    ],
    "metrics": {
        "cart_traj_len": 0.5763121636856074,
        "distance_elbow_joint": 0.2576142102611063,
        "distance_shoulder_lift_joint": 0.18831608880187622,
        "distance_shoulder_pan_joint": 0.496098771617135,
        "distance_wrist_1_joint": 0.08342119499488199,
        "distance_wrist_2_joint": 1.0584244827034974,
        "distance_wrist_3_joint": 0.06603947404569199,
        "smoothness": 0.0,
        "time": 0.055647970000000005,
        "traj_len": 1.4662585796591914,
        "weighted_distance": 1.850361815487434
    },
    "planner": "ProjEST",
    "start": {
        "state": {
            "elbow_joint": 2.0108683149792914,
            "shoulder_lift_joint": -1.1634956873317392,
            "shoulder_pan_joint": -2.4736205022346,
            "wrist_1_joint": -0.8367026793690192,
            "wrist_2_joint": 0.6746043897045053,
            "wrist_3_joint": 3.133522094754363
        }
    },
    "waypoints": [
        {
            "positions": [
                -2.4736205022346,
                -1.1634956873317392,
                2.0108683149792914,
                -0.8367026793690192,
                0.6746043897045053,
                3.133522094754363
            ]
        },
        {
            "positions": [
                -2.556303630837456,
                -1.1321096725314266,
                1.967932613269107,
                -0.8227991468698722,
                0.8510084701550882,
                3.1445286737619784
            ]
        },
        {
            "positions": [
                -2.6389867594403116,
                -1.100723657731114,
                1.9249969115589227,
                -0.8088956143707252,
                1.027412550605671,
                3.1555352527695937
            ]
        },
        {
            "positions": [
                -2.7216698880431673,
                -1.069337642930801,
                1.8820612098487381,
                -0.7949920818715782,
                1.2038166310562541,
                3.1665418317772094
            ]
        },
        {
            "positions": [
                -2.8043530166460235,
                -1.0379516281304884,
                1.8391255081385538,
                -0.7810885493724312,
                1.380220711506837,
                3.1775484107848246
            ]
        },
        {
            "positions": [
                -2.8870361452488793,
                -1.0065656133301757,
                1.7961898064283695,
                -0.7671850168732842,
                1.5566247919574199,
                3.18855498979244
            ]
        },
        {
            "positions": [
                -2.969719273851735,
                -0.975179598529863,
                1.753254104718185,
                -0.7532814843741372,
                1.7330288724080027,
                3.199561568800055
            ]
        }
    ]
}