{
    "goal": {
        "global_pose": {
            "orientation": {
                "w": 0.7031023480610252,
                "x": -0.7110244013736278,
                "y": 0.0077485991402295624,
                "z": 0.005598929693374583
            },
            "position": {
                "x": -0.8841497679147869,
                "y": 0.44412534475326537,
                "z": 0.3711530566215515
            }
        },
        "name": "move_to_auspresseinheit_D"
    },
    "id": "ProjEST_move_to_auspresseinheit_D_50",
    "joint_names": [
        "shoulder_pan_joint",
        "shoulder_lift_joint",
        "elbow_joint",
        "wrist_1_joint",
        "wrist_2_joint",
        "wrist_3_joint"
    ],
    "metrics": {
        "cart_traj_len": 0.3434842941459702,
        "distance_elbow_joint": 0.647748836356165,
        "distance_shoulder_lift_joint": 0.12674045035986792,
        "distance_shoulder_pan_joint": 0.13386390815863883,
        "distance_wrist_1_joint": 0.5590152002405651,
        "distance_wrist_2_joint": 1.433385245214923,
        "distance_wrist_3_joint": 0.03102727426612706,
        "smoothness": 0.0,
        "time": 0.141946289,
        "traj_len": 1.7122444085457798,
        "weighted_distance": 2.2329881120561366
    },
    "planner": "ProjEST",
    "start": {
        "state": {
            "elbow_joint": -1.8275484843655228,
            "shoulder_lift_joint": -2.1267897864000416,
            "shoulder_pan_joint": -0.035127520176001514,
            "wrist_1_joint": -2.3477863256791385,
            "wrist_2_joint": -1.605890476484521,
            "wrist_3_joint": -3.0880375317375353
        }
    },
    "waypoints": [
        {
            "positions": [
                -0.035127520176001514,
                -2.1267897864000416,
                -1.8275484843655228,
                -2.3477863256791385,
                -1.605890476484521,
                -3.0880375317375353
            ]
        },
        {
            "positions": [
                -0.051860508695831364,
                -2.142632342695025,
                -1.7465798798210022,
                -2.417663225709209,
                -1.4267173208326556,
                -3.0841591224542695
            ]
        },
        {
            "positions": [
                -0.06859349721566121,
                -2.1584748989900087,
                -1.6656112752764816,
                -2.4875401257392795,
                -1.2475441651807904,
                -3.0802807131710033
            ]
        },
        {
            "positions": [
                -0.08532648573549108,
                -2.174317455284992,
                -1.584642670731961,
                -2.5574170257693503,
                -1.068371009528925,
                -3.0764023038877375
            ]
        },
        {
            "positions": [
                -0.10205947425532093,
                -2.1901600115799758,
                -1.5036740661874402,
                -2.627293925799421,
                -0.8891978538770595,
                -3.0725238946044717
            ]
        },
        {
            "positions": [
                -0.11879246277515078,
                -2.206002567874959,
                -1.4227054616429196,
                -2.6971708258294917,
                -0.7100246982251941,
                -3.068645485321206
            ]
        },
        {
            "positions": [
                -0.13552545129498064,
                -2.2218451241699424,
                -1.341736857098399,
                -2.7670477258595625,
                -0.5308515425733289,
                -3.06476707603794
            ]
        },
        {
            "positions": [
                -0.1522584398148105,
                -2.237687680464926,
                -1.2607682525538784,
                -2.836924625889633,
                -0.35167838692146347,
                -3.060888666754674
            ]
        },
        {
            "positions": [
                -0.16899142833464034,
                -2.2535302367599095,
                -1.1797996480093578,
                -2.9068015259197035,
                -0.1725052312695981,
                -3.057010257471408
            ]
        }
    ]
}