{
    "goal": {
        "global_pose": {
            "orientation": {
                "w": 0.005598929693374612,
                "x": 0.007748599140229565,
                "y": 0.7110244013736278,
                "z": -0.7031023480610252
            },
            "position": {
                "x": 0.1141497679147869,
                "y": -0.7141253447532654,
                "z": 0.3711530566215515
            }
        },
        "name": "move_to_auspresseinheit_B"
    },
    "id": "ProjEST_move_to_auspresseinheit_B_126",
    "joint_names": [
        "shoulder_pan_joint",
        "shoulder_lift_joint",
        "elbow_joint",
        "wrist_1_joint",
        "wrist_2_joint",
        "wrist_3_joint"
    ],
    "metrics": {
        "cart_traj_len": 0.5653303304436336,
        "distance_elbow_joint": 0.0652559495816496,
        "distance_shoulder_lift_joint": 0.29322632310591357,
        "distance_shoulder_pan_joint": 0.5788368710022203,
        "distance_wrist_1_joint": 0.3328248680135153,
        "distance_wrist_2_joint": 0.9860505105813502,
        "distance_wrist_3_joint": 0.007328366949313825,
        "smoothness": 5.075305295617109e-16,
        "time": 0.726197918,
        "traj_len": 1.5045008771130588,
        "weighted_distance": 1.8965903621308045
    },
    "planner": "ProjEST",
    "start": {
        "state": {
            "elbow_joint": 2.0193061681459312,
            "shoulder_lift_joint": -1.1220205130644991,
            "shoulder_pan_joint": -1.0952072088045026,
            "wrist_1_joint": -0.8559671810662515,
            "wrist_2_joint": 0.4759638712940361,
            "wrist_3_joint": 3.159081874192446
        }
    },
    "waypoints": [
        {
            "positions": [
                -1.0952072088045026,
                -1.1220205130644991,
                2.0193061681459312,
                -0.8559671810662515,
                0.4759638712940361,
                3.159081874192446
            ]
        },
        {
            "positions": [
                -1.191680020638206,
                -1.1708915669154847,
                2.00843017654899,
                -0.8004963697306656,
                0.6403056230575945,
                3.1578604797008936
            ]
        },
        {
            "positions": [
                -1.2881528324719094,
                -1.2197626207664702,
                1.997554184952048,
                -0.7450255583950797,
                0.8046473748211529,
                3.1566390852093416
            ]
        },
        {
            "positions": [
                -1.3846256443056126,
                -1.268633674617456,
                1.9866781933551065,
                -0.6895547470594938,
                0.9689891265847113,
                3.155417690717789
            ]
        },
        {
            "positions": [
                -1.4810984561393161,
                -1.3175047284684416,
                1.975802201758165,
                -0.634083935723908,
                1.1333308783482696,
                3.1541962962262367
            ]
        },
        {
            "positions": [
                -1.5775712679730196,
                -1.3663757823194271,
                1.9649262101612233,
                -0.578613124388322,
                1.297672630111828,
                3.1529749017346846
            ]
        },
        {
            "positions": [
                -1.6740440798067229,
                -1.4152468361704127,
                1.9540502185642816,
                -0.5231423130527362,
                1.4620143818753863,
                3.151753507243132
            ]
        }
    ]
}