{
    "goal": {
        "global_pose": {
            "orientation": {
                "w": 0.5084816262002911,
                "x": -0.4908360881923452,
                "y": 0.5182115481033761,
                "z": -0.48164630358495003
            },
            "position": {
                "x": 0.5540239810943604,
                "y": -0.46912469901144505,
                "z": 0.16403168439865112
            }
        },
        "name": "move_to_storage_B"
    },
    "id": "ProjEST_move_to_storage_B_126",
    "joint_names": [
        "shoulder_pan_joint",
        "shoulder_lift_joint",
        "elbow_joint",
        "wrist_1_joint",
        "wrist_2_joint",
        "wrist_3_joint"
    ],
    "metrics": {
        "cart_traj_len": 0.7269261188001962,
        "distance_elbow_joint": 0.6326003632341892,
        "distance_shoulder_lift_joint": 0.4578721111921631,
        "distance_shoulder_pan_joint": 0.4000524849618554,
        "distance_wrist_1_joint": 2.986736408725914,
        "distance_wrist_2_joint": 2.701406464422122,
        "distance_wrist_3_joint": 3.2266741227762825,
        "smoothness": 0.2346372540244957,
        "time": 0.08910685600000001,
        "traj_len": 3.2257312280028114,
        "weighted_distance": 4.748350563512885
    },
    "planner": "ProjEST",
    "start": {
        "state": {
            "elbow_joint": 1.6649325340416963,
            "shoulder_lift_joint": -0.6616387945129425,
            "shoulder_pan_joint": -0.9139837929255878,
            "wrist_1_joint": 2.1467571094334352,
            "wrist_2_joint": -2.234195976750228,
            "wrist_3_joint": 0.005470921511140723
        }
    },
    "waypoints": [
        {
            "positions": [
                -0.9139837929255878,
                -0.6616387945129425,
                1.6649325340416963,
                2.1467571094334352,
                -2.234195976750228,
                0.005470921511140723
            ]
        },
        {
            "positions": [
                -0.8046472694317015,
                -0.7118605432579199,
                1.5232723596889135,
                2.1448241223375737,
                -2.22272843378404,
                0.049157923566478086
            ]
        },
        {
            "positions": [
                -0.815828652565085,
                -0.7275394033520425,
                1.5421546746458907,
                2.0300239907364177,
                -2.119269244497273,
                -0.07326465799971213
            ]
        },
        {
            "positions": [
                -0.8270100356984683,
                -0.7432182634461649,
                1.5610369896028677,
                1.915223859135262,
                -2.0158100552105065,
                -0.19568723956590237
            ]
        },
        {
            "positions": [
                -0.8381914188318518,
                -0.7588971235402875,
                1.579919304559845,
                1.8004237275341062,
                -1.9123508659237398,
                -0.3181098211320926
            ]
        },
        {
            "positions": [
                -0.8493728019652352,
                -0.77457598363441,
                1.5988016195168222,
                1.6856235959329502,
                -1.8088916766369731,
                -0.4405324026982828
            ]
        },
        {
            "positions": [
                -0.8605541850986187,
                -0.7902548437285326,
                1.6176839344737994,
                1.5708234643317942,
                -1.7054324873502065,
                -0.562954984264473
            ]
        },
        {
            "positions": [
                -0.871735568232002,
                -0.8059337038226551,
                1.6365662494307764,
                1.4560233327306384,
                -1.6019732980634398,
                -0.6853775658306632
            ]
        },
        {
            "positions": [
                -0.8829169513653855,
                -0.8216125639167776,
                1.6554485643877537,
                1.3412232011294827,
                -1.4985141087766731,
                -0.8078001473968534
            ]
        },
        {
            "positions": [
                -0.894098334498769,
                -0.8372914240109002,
                1.674330879344731,
                1.2264230695283267,
                -1.3950549194899062,
                -0.9302227289630437
            ]
        },
        {
            "positions": [
                -0.9052797176321523,
                -0.8529702841050226,
                1.6932131943017081,
                1.111622937927171,
                -1.2915957302031398,
                -1.0526453105292337
            ]
        },
        {
            "positions": [
                -0.9164611007655358,
                -0.8686491441991452,
                1.7120955092586851,
                0.9968228063260149,
                -1.1881365409163729,
                -1.175067892095424
            ]
        },
        {
            "positions": [
                -0.9276424838989192,
                -0.8843280042932677,
                1.7309778242156624,
                0.8820226747248592,
                -1.0846773516296062,
                -1.2974904736616142
            ]
        },
        {
            "positions": [
                -0.9388238670323026,
                -0.9000068643873902,
                1.7498601391726396,
                0.7672225431237032,
                -0.9812181623428395,
                -1.4199130552278045
            ]
        },
        {
            "positions": [
                -0.950005250165686,
                -0.9156857244815128,
                1.7687424541296166,
                0.6524224115225474,
                -0.8777589730560729,
                -1.5423356367939947
            ]
        },
        {
            "positions": [
                -0.9611866332990695,
                -0.9313645845756353,
                1.7876247690865938,
                0.5376222799213917,
                -0.7742997837693062,
                -1.6647582183601848
            ]
        },
        {
            "positions": [
                -0.9723680164324529,
                -0.9470434446697578,
                1.806507084043571,
                0.4228221483202359,
                -0.6708405944825395,
                -1.787180799926375
            ]
        },
        {
            "positions": [
                -0.9835493995658363,
                -0.9627223047638803,
                1.8253893990005483,
                0.3080220167190797,
                -0.5673814051957726,
                -1.9096033814925655
            ]
        },
        {
            "positions": [
                -0.9947307826992198,
                -0.9784011648580029,
                1.8442717139575255,
                0.19322188511792393,
                -0.4639222159090062,
                -2.0320259630587554
            ]
        },
        {
            "positions": [
                -1.0059121658326031,
                -0.9940800249521253,
                1.8631540289145025,
                0.07842175351676817,
                -0.3604630266222395,
                -2.1544485446249455
            ]
        },
        {
            "positions": [
                -1.0170935489659865,
                -1.009758885046248,
                1.8820363438714798,
                -0.03637837808438782,
                -0.25700383733547283,
                -2.2768711261911356
            ]
        },
        {
            "positions": [
                -1.02827493209937,
                -1.0254377451403704,
                1.900918658828457,
                -0.1511785096855438,
                -0.15354464804870593,
                -2.399293707757326
            ]
        },
        {
            "positions": [
                -1.0394563152327534,
                -1.041116605234493,
                1.919800973785434,
                -0.26597864128669935,
                -0.05008545876193926,
                -2.5217162893235163
            ]
        },
        {
            "positions": [
                -1.050637698366137,
                -1.0567954653286153,
                1.9386832887424112,
                -0.38077877288785533,
                0.05337373052482741,
                -2.6441388708897064
            ]
        },
        {
            "positions": [
                -1.0618190814995203,
                -1.072474325422738,
                1.9575656036993885,
                -0.4955789044890113,
                0.15683291981159408,
                -2.7665614524558966
            ]
        },
        {
            "positions": [
                -1.0730004646329037,
                -1.0881531855168607,
                1.9764479186563657,
                -0.6103790360901673,
                0.26029210909836076,
                -2.888984034022087
            ]
        },
        {
            "positions": [
                -1.0841818477662872,
                -1.1038320456109831,
                1.9953302336133427,
                -0.7251791676913228,
                0.36375129838512743,
                -3.0114066155882773
            ]
        },
        {
            "positions": [
                -1.0953632308996706,
                -1.1195109057051056,
                2.01421254857032,
                -0.8399792992924789,
                0.46721048767189405,
                -3.1338291971544674
            ]
        }
    ]
}