{
    "goal": {
        "global_pose": {
            "orientation": {
                "w": 0.5084816217422485,
                "x": -0.49083608388900757,
                "y": 0.5182115435600281,
                "z": -0.4816462993621826
            },
            "position": {
                "x": 0.5540239810943604,
                "y": 0.030875300988554955,
                "z": 0.16403168439865112
            }
        },
        "name": "move_to_storage_A"
    },
    "id": "ProjEST_move_to_storage_A_14",
    "joint_names": [
        "shoulder_pan_joint",
        "shoulder_lift_joint",
        "elbow_joint",
        "wrist_1_joint",
        "wrist_2_joint",
        "wrist_3_joint"
    ],
    "metrics": {
        "cart_traj_len": 0.3529752505499361,
        "distance_elbow_joint": 0.44774883477646843,
        "distance_shoulder_lift_joint": 0.23249182174552274,
        "distance_shoulder_pan_joint": 0.46273990097133316,
        "distance_wrist_1_joint": 0.23756273943471196,
        "distance_wrist_2_joint": 1.0922415886374286,
        "distance_wrist_3_joint": 0.08567788208799554,
        "smoothness": 0.0,
        "time": 0.044388095,
        "traj_len": 1.5995195427544673,
        "weighted_distance": 2.014850580043491
    },
    "planner": "ProjEST",
    "start": {
        "state": {
            "elbow_joint": 1.971548880431181,
            "shoulder_lift_joint": -1.1394869514688781,
            "shoulder_pan_joint": 0.12281150262730567,
            "wrist_1_joint": -0.7804693444481463,
            "wrist_2_joint": 0.12958644648617612,
            "wrist_3_joint": 3.0906942077768043
        }
    },
    "waypoints": [
        {
            "positions": [
                0.12281150262730567,
                -1.1394869514688781,
                1.971548880431181,
                -0.7804693444481463,
                0.12958644648617612,
                3.0906942077768043
            ]
        },
        {
            "positions": [
                0.05670580248854379,
                -1.1727000688610956,
                2.035512999684962,
                -0.8144068786531051,
                0.2856209591486659,
                3.1029339052179465
            ]
        },
        {
            "positions": [
                -0.009399897650218092,
                -1.2059131862533132,
                2.0994771189387436,
                -0.848344412858064,
                0.4416554718111557,
                3.115173602659089
            ]
        },
        {
            "positions": [
                -0.07550559778897997,
                -1.2391263036455307,
                2.1634412381925245,
                -0.8822819470630229,
                0.5976899844736455,
                3.127413300100231
            ]
        },
        {
            "positions": [
                -0.14161129792774185,
                -1.2723394210377483,
                2.2274053574463055,
                -0.9162194812679817,
                0.7537244971361353,
                3.139652997541373
            ]
        },
        {
            "positions": [
                -0.20771699806650373,
                -1.3055525384299658,
                2.291369476700087,
                -0.9501570154729406,
                0.9097590097986251,
                3.1518926949825152
            ]
        },
        {
            "positions": [
                -0.2738226982052656,
                -1.3387656558221832,
                2.3553335959538684,
                -0.9840945496778994,
                1.065793522461115,
                3.1641323924236575
            ]
        },
        {
            "positions": [
                -0.3399283983440275,
                -1.3719787732144009,
                2.4192977152076494,
                -1.0180320838828583,
                1.2218280351236046,
                3.1763720898648
            ]
        }
    ]
}