{
    "goal": {
        "global_pose": {
            "orientation": {
                "w": 0.5084816262002911,
                "x": -0.4908360881923452,
                "y": 0.5182115481033761,
                "z": -0.48164630358495003
            },
            "position": {
                "x": 0.5540239810943604,
                "y": -0.46912469901144505,
                "z": 0.16403168439865112
            }
        },
        "name": "move_to_storage_B"
    },
    "id": "ProjEST_move_to_storage_B_20",
    "joint_names": [
        "shoulder_pan_joint",
        "shoulder_lift_joint",
        "elbow_joint",
        "wrist_1_joint",
        "wrist_2_joint",
        "wrist_3_joint"
    ],
    "metrics": {
        "cart_traj_len": 1.073971729312201,
        "distance_elbow_joint": 0.35167108792599344,
        "distance_shoulder_lift_joint": 0.4614732113391382,
        "distance_shoulder_pan_joint": 1.0322822939991032,
        "distance_wrist_1_joint": 2.9822973069893175,
        "distance_wrist_2_joint": 2.72090629359963,
        "distance_wrist_3_joint": 3.847423089380505,
        "smoothness": 0.22402516334537634,
        "time": 0.125355758,
        "traj_len": 3.3758040943208902,
        "weighted_distance": 4.97936773723167
    },
    "planner": "ProjEST",
    "start": {
        "state": {
            "elbow_joint": 1.6649325340416963,
            "shoulder_lift_joint": -0.6616387945129425,
            "shoulder_pan_joint": -0.9139837929255878,
            "wrist_1_joint": 2.1467571094334352,
            "wrist_2_joint": -2.234195976750228,
            "wrist_3_joint": 0.005470921511140723
        }
    },
    "waypoints": [
        {
            "positions": [
                -0.9139837929255878,
                -0.6616387945129425,
                1.6649325340416963,
                2.1467571094334352,
                -2.234195976750228,
                0.005470921511140723
            ]
        },
        {
            "positions": [
                -0.8530977772981644,
                -0.7103545339771521,
                1.6893195410646231,
                2.050564616316305,
                -2.163723595425402,
                -0.045397004291377226
            ]
        },
        {
            "positions": [
                -0.7922117616707409,
                -0.7590702734413617,
                1.71370654808755,
                1.9543721231991753,
                -2.093251214100576,
                -0.09626493009389518
            ]
        },
        {
            "positions": [
                -0.7313257460433176,
                -0.8077860129055712,
                1.7380935551104768,
                1.8581796300820455,
                -2.02277883277575,
                -0.14713285589641312
            ]
        },
        {
            "positions": [
                -0.6704397304158941,
                -0.8565017523697808,
                1.7624805621334039,
                1.7619871369649154,
                -1.9523064514509236,
                -0.19800078169893107
            ]
        },
        {
            "positions": [
                -0.6095537147884706,
                -0.9052174918339904,
                1.7868675691563307,
                1.6657946438477855,
                -1.8818340701260974,
                -0.24886870750144904
            ]
        },
        {
            "positions": [
                -0.5486676991610472,
                -0.9539332312982,
                1.8112545761792576,
                1.5696021507306557,
                -1.8113616888012714,
                -0.299736633303967
            ]
        },
        {
            "positions": [
                -0.4877816835336237,
                -1.0026489707624096,
                1.8356415832021844,
                1.4734096576135256,
                -1.7408893074764453,
                -0.35060455910648497
            ]
        },
        {
            "positions": [
                -0.5141329959078471,
                -1.007886494027178,
                1.8435094979311195,
                1.3730205334757253,
                -1.6440371498970607,
                -0.19880683698635981
            ]
        },
        {
            "positions": [
                -0.5404843082820706,
                -1.0131240172919462,
                1.8513774126600544,
                1.272631409337925,
                -1.547184992317676,
                -0.04700911486623466
            ]
        },
        {
            "positions": [
                -0.566835620656294,
                -1.0183615405567146,
                1.8592453273889895,
                1.1722422852001246,
                -1.4503328347382913,
                0.1047886072538905
            ]
        },
        {
            "positions": [
                -0.5931869330305175,
                -1.0235990638214827,
                1.8671132421179244,
                1.071853161062324,
                -1.3534806771589065,
                0.25658632937401565
            ]
        },
        {
            "positions": [
                -0.6195382454047409,
                -1.028836587086251,
                1.8749811568468595,
                0.9714640369245238,
                -1.256628519579522,
                0.40838405149414075
            ]
        },
        {
            "positions": [
                -0.6458895577789643,
                -1.0340741103510194,
                1.8828490715757944,
                0.8710749127867234,
                -1.1597763620001371,
                0.560181773614266
            ]
        },
        {
            "positions": [
                -0.6722408701531878,
                -1.0393116336157877,
                1.8907169863047295,
                0.770685788648923,
                -1.0629242044207525,
                0.711979495734391
            ]
        },
        {
            "positions": [
                -0.6985921825274113,
                -1.044549156880556,
                1.8985849010336646,
                0.6702966645111227,
                -0.9660720468413678,
                0.8637772178545162
            ]
        },
        {
            "positions": [
                -0.7249434949016347,
                -1.0497866801453244,
                1.9064528157625995,
                0.5699075403733224,
                -0.869219889261983,
                1.0155749399746414
            ]
        },
        {
            "positions": [
                -0.7512948072758581,
                -1.0550242034100927,
                1.9143207304915346,
                0.46951841623552193,
                -0.7723677316825984,
                1.1673726620947664
            ]
        },
        {
            "positions": [
                -0.7776461196500816,
                -1.060261726674861,
                1.9221886452204695,
                0.3691292920977216,
                -0.6755155741032137,
                1.3191703842148916
            ]
        },
        {
            "positions": [
                -0.803997432024305,
                -1.0654992499396292,
                1.9300565599494046,
                0.2687401679599213,
                -0.5786634165238289,
                1.4709681063350168
            ]
        },
        {
            "positions": [
                -0.8303487443985285,
                -1.0707367732043975,
                1.9379244746783395,
                0.16835104382212096,
                -0.4818112589444443,
                1.6227658284551418
            ]
        },
        {
            "positions": [
                -0.8567000567727519,
                -1.0759742964691659,
                1.9457923894072746,
                0.06796191968432042,
                -0.3849591013650595,
                1.774563550575267
            ]
        },
        {
            "positions": [
                -0.8830513691469752,
                -1.0812118197339342,
                1.9536603041362097,
                -0.03242720445347991,
                -0.2881069437856749,
                1.9263612726953923
            ]
        },
        {
            "positions": [
                -0.9094026815211987,
                -1.0864493429987025,
                1.9615282188651446,
                -0.13281632859128023,
                -0.19125478620629033,
                2.0781589948155177
            ]
        },
        {
            "positions": [
                -0.9357539938954221,
                -1.091686866263471,
                1.9693961335940797,
                -0.23320545272908033,
                -0.09440262862690552,
                2.2299567169356425
            ]
        },
        {
            "positions": [
                -0.9621053062696456,
                -1.0969243895282392,
                1.9772640483230146,
                -0.3335945768668809,
                0.0024495289524792963,
                2.381754439055768
            ]
        },
        {
            "positions": [
                -0.988456618643869,
                -1.1021619127930076,
                1.9851319630519497,
                -0.4339837010046812,
                0.09930168653186389,
                2.5335521611758933
            ]
        },
        {
            "positions": [
                -1.0148079310180926,
                -1.1073994360577757,
                1.9929998777808846,
                -0.5343728251424817,
                0.19615384411124848,
                2.685349883296018
            ]
        },
        {
            "positions": [
                -1.041159243392316,
                -1.112636959322544,
                2.0008677925098195,
                -0.6347619492802821,
                0.29300600169063307,
                2.8371476054161433
            ]
        },
        {
            "positions": [
                -1.0675105557665394,
                -1.1178744825873124,
                2.008735707238755,
                -0.7351510734180824,
                0.3898581592700179,
                2.9889453275362685
            ]
        },
        {
            "positions": [
                -1.0938618681407628,
                -1.1231120058520807,
                2.0166036219676897,
                -0.8355401975558829,
                0.48671031684940275,
                3.1407430496563937
            ]
        }
    ]
}