{
    "goal": {
        "global_pose": {
            "orientation": {
                "w": -0.4816463035849501,
                "x": 0.5182115481033762,
                "y": 0.4908360881923453,
                "z": -0.5084816262002911
            },
            "position": {
                "x": -0.8240239810943604,
                "y": -0.300875300988555,
                "z": 0.16403168439865112
            }
        },
        "name": "move_to_storage_C"
    },
    "id": "ProjEST_move_to_storage_C_58",
    "joint_names": [
        "shoulder_pan_joint",
        "shoulder_lift_joint",
        "elbow_joint",
        "wrist_1_joint",
        "wrist_2_joint",
        "wrist_3_joint"
    ],
    "metrics": {
        "cart_traj_len": 0.5769404421430875,
        "distance_elbow_joint": 0.2568176921681178,
        "distance_shoulder_lift_joint": 0.18938146541767975,
        "distance_shoulder_pan_joint": 0.49506547405514123,
        "distance_wrist_1_joint": 0.07021622532247318,
        "distance_wrist_2_joint": 1.0653698932262723,
        "distance_wrist_3_joint": 0.060679374788668916,
        "smoothness": 0.0,
        "time": 0.030962852000000003,
        "traj_len": 1.4620294542102608,
        "weighted_distance": 1.8424101044839167
    },
    "planner": "ProjEST",
    "start": {
        "state": {
            "elbow_joint": 2.0108683149792914,
            "shoulder_lift_joint": -1.1634956873317392,
            "shoulder_pan_joint": -2.4736205022346,
            "wrist_1_joint": -0.8367026793690192,
            "wrist_2_joint": 0.6746043897045053,
            "wrist_3_joint": 3.133522094754363
        }
    },
    "waypoints": [
        {
            "positions": [
                -2.4736205022346,
                -1.1634956873317392,
                2.0108683149792914,
                -0.8367026793690192,
                0.6746043897045053,
                3.133522094754363
            ]
        },
        {
            "positions": [
                -2.5561314145771235,
                -1.131932109762126,
                1.968065366284605,
                -0.824999975148607,
                0.8521660385755507,
                3.143635323885808
            ]
        },
        {
            "positions": [
                -2.6386423269196473,
                -1.1003685321925127,
                1.925262417589919,
                -0.8132972709281948,
                1.029727687446596,
                3.1537485530172527
            ]
        },
        {
            "positions": [
                -2.7211532392621707,
                -1.0688049546228995,
                1.8824594688952325,
                -0.8015945667077826,
                1.2072893363176416,
                3.1638617821486976
            ]
        },
        {
            "positions": [
                -2.803664151604694,
                -1.037241377053286,
                1.8396565202005462,
                -0.7898918624873704,
                1.3848509851886868,
                3.1739750112801426
            ]
        },
        {
            "positions": [
                -2.886175063947218,
                -1.0056777994836728,
                1.79685357150586,
                -0.7781891582669582,
                1.5624126340597324,
                3.184088240411587
            ]
        },
        {
            "positions": [
                -2.9686859762897413,
                -0.9741142219140595,
                1.7540506228111736,
                -0.766486454046546,
                1.7399742829307776,
                3.194201469543032
            ]
        }
    ]
}