{
    "goal": {
        "global_pose": {
            "orientation": {
                "w": -0.00223480608172531,
                "x": 0.0024358444001904467,
                "y": 0.7094548369677653,
                "z": -0.704743149386269
            },
            "position": {
                "x": -0.37947507619857795,
                "y": -0.6371506643295288,
                "z": 0.19426114857196808
            }
        },
        "name": "move_to_magneteinheit_C"
    },
    "id": "ProjEST_move_to_magneteinheit_C_34",
    "joint_names": [
        "shoulder_pan_joint",
        "shoulder_lift_joint",
        "elbow_joint",
        "wrist_1_joint",
        "wrist_2_joint",
        "wrist_3_joint"
    ],
    "metrics": {
        "cart_traj_len": 1.0085720685203703,
        "distance_elbow_joint": 0.864964659657703,
        "distance_shoulder_lift_joint": 0.32950787337679754,
        "distance_shoulder_pan_joint": 1.1050553863154955,
        "distance_wrist_1_joint": 2.3155569477268054,
        "distance_wrist_2_joint": 1.4332551423723099,
        "distance_wrist_3_joint": 5.44403714075132,
        "smoothness": 0.797458717690505,
        "time": 0.578272089,
        "traj_len": 3.390040877364229,
        "weighted_distance": 5.111679129386173
    },
    "planner": "ProjEST",
    "start": {
        "state": {
            "elbow_joint": 1.9565354006593851,
            "shoulder_lift_joint": -1.4165861576512813,
            "shoulder_pan_joint": -1.6717766223278752,
            "wrist_1_joint": -0.528663328821883,
            "wrist_2_joint": 1.472756589259273,
            "wrist_3_joint": 3.159348288315503
        }
    },
    "waypoints": [
        {
            "positions": [
                -1.6717766223278752,
                -1.4165861576512813,
                1.9565354006593851,
                -0.528663328821883,
                1.472756589259273,
                3.159348288315503
            ]
        },
        {
            "positions": [
                -1.6212692491162735,
                -1.429408872502814,
                1.9349807767296054,
                -0.46458539616332317,
                1.4474221627960777,
                2.988887563807322
            ]
        },
        {
            "positions": [
                -1.5707618759046718,
                -1.4422315873543468,
                1.9134261527998255,
                -0.4005074635047633,
                1.4220877363328823,
                2.818426839299141
            ]
        },
        {
            "positions": [
                -1.52025450269307,
                -1.4550543022058795,
                1.8918715288700458,
                -0.3364295308462034,
                1.396753309869687,
                2.6479661147909597
            ]
        },
        {
            "positions": [
                -1.554492555974159,
                -1.451685515517958,
                1.866168765767314,
                -0.2733069119307275,
                1.3265938793816174,
                2.4761823092171893
            ]
        },
        {
            "positions": [
                -1.5887306092552478,
                -1.4483167288300367,
                1.8404660026645825,
                -0.21018429301525157,
                1.256434448893548,
                2.304398503643419
            ]
        },
        {
            "positions": [
                -1.6229686625363364,
                -1.4449479421421152,
                1.8147632395618507,
                -0.14706167409977566,
                1.1862750184054784,
                2.132614698069649
            ]
        },
        {
            "positions": [
                -1.6572067158174253,
                -1.4415791554541937,
                1.789060476459119,
                -0.08393905518429973,
                1.1161155879174087,
                1.9608308924958786
            ]
        },
        {
            "positions": [
                -1.6914447690985142,
                -1.4382103687662724,
                1.7633577133563874,
                -0.020816436268823846,
                1.0459561574293392,
                1.7890470869221082
            ]
        },
        {
            "positions": [
                -1.725682822379603,
                -1.4348415820783509,
                1.7376549502536556,
                0.04230618264665209,
                0.9757967269412698,
                1.617263281348338
            ]
        },
        {
            "positions": [
                -1.7599208756606917,
                -1.4314727953904294,
                1.711952187150924,
                0.10542880156212797,
                0.9056372964532003,
                1.4454794757745677
            ]
        },
        {
            "positions": [
                -1.7941589289417805,
                -1.4281040087025079,
                1.6862494240481922,
                0.16855142047760396,
                0.8354778659651307,
                1.2736956702007973
            ]
        },
        {
            "positions": [
                -1.8283969822228694,
                -1.4247352220145866,
                1.6605466609454607,
                0.23167403939307984,
                0.7653184354770614,
                1.1019118646270272
            ]
        },
        {
            "positions": [
                -1.8626350355039583,
                -1.421366435326665,
                1.6348438978427289,
                0.2947966583085557,
                0.6951590049889917,
                0.9301280590532568
            ]
        },
        {
            "positions": [
                -1.8968730887850471,
                -1.4179976486387436,
                1.609141134739997,
                0.3579192772240316,
                0.6249995745009223,
                0.7583442534794866
            ]
        },
        {
            "positions": [
                -1.9311111420661358,
                -1.4146288619508223,
                1.5834383716372655,
                0.4210418961395076,
                0.5548401440128528,
                0.5865604479057165
            ]
        },
        {
            "positions": [
                -1.9653491953472246,
                -1.4112600752629008,
                1.5577356085345337,
                0.4841645150549835,
                0.4846807135247832,
                0.4147766423319462
            ]
        },
        {
            "positions": [
                -2.0238401829909995,
                -1.3946480210936614,
                1.6142238871544667,
                0.4736082954054772,
                0.4665176045427661,
                0.5947410348200068
            ]
        },
        {
            "positions": [
                -2.0823311706347742,
                -1.378035966924422,
                1.6707121657743995,
                0.4630520757559709,
                0.44835449556074897,
                0.7747054273080676
            ]
        },
        {
            "positions": [
                -2.140822158278549,
                -1.3614239127551826,
                1.7272004443943325,
                0.45249585610646464,
                0.43019138657873185,
                0.9546698197961282
            ]
        },
        {
            "positions": [
                -2.1993131459223236,
                -1.344811858585943,
                1.7836887230142655,
                0.4419396364569584,
                0.4120282775967147,
                1.1346342122841888
            ]
        },
        {
            "positions": [
                -2.2578041335660988,
                -1.3281998044167036,
                1.8401770016341983,
                0.43138341680745207,
                0.39386516861469756,
                1.3145986047722495
            ]
        },
        {
            "positions": [
                -2.3162951212098735,
                -1.3115877502474642,
                1.8966652802541313,
                0.4208271971579458,
                0.37570205963268044,
                1.49456299726031
            ]
        },
        {
            "positions": [
                -2.374786108853648,
                -1.2949756960782248,
                1.9531535588740643,
                0.41027097750843955,
                0.3575389506506633,
                1.6745273897483708
            ]
        },
        {
            "positions": [
                -2.3982821782939823,
                -1.2784679571291426,
                1.9710328758009825,
                0.2931903565521603,
                0.3858464037148262,
                1.8555414691378236
            ]
        },
        {
            "positions": [
                -2.421778247734316,
                -1.2619602181800604,
                1.9889121927279008,
                0.176109735595881,
                0.41415385677898914,
                2.0365555485272764
            ]
        },
        {
            "positions": [
                -2.44527431717465,
                -1.2454524792309782,
                2.006791509654819,
                0.0590291146396017,
                0.442461309843152,
                2.217569627916729
            ]
        },
        {
            "positions": [
                -2.4547183641923116,
                -1.233756759589358,
                2.0111373541789264,
                -0.046319386713896626,
                0.4717872095719403,
                2.3449608416646495
            ]
        },
        {
            "positions": [
                -2.4641624112099727,
                -1.2220610399477376,
                2.0154831987030337,
                -0.15166788806739495,
                0.5011131093007286,
                2.4723520554125704
            ]
        },
        {
            "positions": [
                -2.4665687507509197,
                -1.2075494233067232,
                2.013378879361946,
                -0.3183920632492849,
                0.5447289455791373,
                2.632824575834355
            ]
        },
        {
            "positions": [
                -2.468975090291867,
                -1.1930378066657088,
                2.011274560020858,
                -0.4851162384311748,
                0.5883447818575461,
                2.79329709625614
            ]
        },
        {
            "positions": [
                -2.4713814298328134,
                -1.1785261900246946,
                2.00917024067977,
                -0.6518404136130647,
                0.6319606181359549,
                2.953769616677925
            ]
        },
        {
            "positions": [
                -2.4737877693737604,
                -1.1640145733836802,
                2.007065921338682,
                -0.8185645887949546,
                0.6755764544143636,
                3.1142421370997098
            ]
        }
    ]
}