{
    "goal": {
        "global_pose": {
            "orientation": {
                "w": -0.00223480608172531,
                "x": 0.0024358444001904467,
                "y": 0.7094548369677653,
                "z": -0.704743149386269
            },
            "position": {
                "x": -0.37947507619857795,
                "y": -0.6371506643295288,
                "z": 0.19426114857196808
            }
        },
        "name": "move_to_magneteinheit_C"
    },
    "id": "ProjEST_move_to_magneteinheit_C_20",
    "joint_names": [
        "shoulder_pan_joint",
        "shoulder_lift_joint",
        "elbow_joint",
        "wrist_1_joint",
        "wrist_2_joint",
        "wrist_3_joint"
    ],
    "metrics": {
        "cart_traj_len": 0.8498138114438865,
        "distance_elbow_joint": 0.05463773953972528,
        "distance_shoulder_lift_joint": 0.7398446929970104,
        "distance_shoulder_pan_joint": 0.9131166601112615,
        "distance_wrist_1_joint": 1.12000309153672,
        "distance_wrist_2_joint": 1.1288879811264336,
        "distance_wrist_3_joint": 0.8362602927683871,
        "smoothness": 2.3839416288267197,
        "time": 0.796270537,
        "traj_len": 2.1892351308344056,
        "weighted_distance": 2.951975968106696
    },
    "planner": "ProjEST",
    "start": {
        "state": {
            "elbow_joint": 1.9565354006593851,
            "shoulder_lift_joint": -1.4165861576512813,
            "shoulder_pan_joint": -1.6717766223278752,
            "wrist_1_joint": -0.528663328821883,
            "wrist_2_joint": 1.472756589259273,
            "wrist_3_joint": 3.159348288315503
        }
    },
    "waypoints": [
        {
            "positions": [
                -1.6717766223278752,
                -1.4165861576512813,
                1.9565354006593851,
                -0.528663328821883,
                1.472756589259273,
                3.159348288315503
            ]
        },
        {
            "positions": [
                -1.6839694986107228,
                -1.4723391688886958,
                1.9697350204011355,
                -0.4025487913272903,
                1.3574602326827399,
                3.1041452164764554
            ]
        },
        {
            "positions": [
                -1.6961623748935704,
                -1.5280921801261105,
                1.9829346401428856,
                -0.2764342538326976,
                1.2421638761062064,
                3.048942144637407
            ]
        },
        {
            "positions": [
                -1.8084587319702694,
                -1.550073567397334,
                1.9846264229061057,
                -0.3519330327147787,
                1.1201910137374436,
                2.994371353945408
            ]
        },
        {
            "positions": [
                -1.9207550890469685,
                -1.5720549546685574,
                1.9863182056693258,
                -0.42743181159685983,
                0.9982181513686808,
                2.9398005632534088
            ]
        },
        {
            "positions": [
                -2.0330514461236677,
                -1.594036341939781,
                1.988009988432546,
                -0.502930590478941,
                0.8762452889999179,
                2.8852297725614093
            ]
        },
        {
            "positions": [
                -2.1453478032003668,
                -1.6160177292110045,
                1.9897017711957659,
                -0.5784293693610221,
                0.7542724266311552,
                2.8306589818694103
            ]
        },
        {
            "positions": [
                -2.257644160277066,
                -1.6379991164822278,
                1.991393553958986,
                -0.6539281482431033,
                0.6322995642623924,
                2.7760881911774113
            ]
        },
        {
            "positions": [
                -2.369940517353765,
                -1.6599805037534514,
                1.9930853367222061,
                -0.7294269271251844,
                0.5103267018936296,
                2.721517400485412
            ]
        },
        {
            "positions": [
                -2.439389843253147,
                -1.5803280792263903,
                1.9965795636954744,
                -0.6511904922057737,
                0.5575679888213945,
                2.7735381598000526
            ]
        },
        {
            "positions": [
                -2.5088391691525294,
                -1.5006756546993292,
                2.0000737906687425,
                -0.5729540572863631,
                0.6048092757491592,
                2.825558919114693
            ]
        },
        {
            "positions": [
                -2.52938054254093,
                -1.4333367848773342,
                2.006397461039746,
                -0.6235997385478647,
                0.633498009296996,
                2.9606924001607666
            ]
        },
        {
            "positions": [
                -2.5016241725918267,
                -1.2984334708679728,
                2.0087853006194285,
                -0.7274311346252271,
                0.6551414024757078,
                3.0403196027922372
            ]
        },
        {
            "positions": [
                -2.4738678026427237,
                -1.1635301568586112,
                2.0111731401991104,
                -0.8312625307025895,
                0.6767847956544197,
                3.119946805423708
            ]
        }
    ]
}