{
    "goal": {
        "global_pose": {
            "orientation": {
                "w": 0.005598929693374612,
                "x": 0.007748599140229565,
                "y": 0.7110244013736278,
                "z": -0.7031023480610252
            },
            "position": {
                "x": 0.1141497679147869,
                "y": -0.7141253447532654,
                "z": 0.3711530566215515
            }
        },
        "name": "move_to_auspresseinheit_B"
    },
    "id": "ProjEST_move_to_auspresseinheit_B_62",
    "joint_names": [
        "shoulder_pan_joint",
        "shoulder_lift_joint",
        "elbow_joint",
        "wrist_1_joint",
        "wrist_2_joint",
        "wrist_3_joint"
    ],
    "metrics": {
        "cart_traj_len": 0.5655258470991557,
        "distance_elbow_joint": 0.06666187332194351,
        "distance_shoulder_lift_joint": 0.29407393343270494,
        "distance_shoulder_pan_joint": 0.5790476881419664,
        "distance_wrist_1_joint": 0.33928030407511167,
        "distance_wrist_2_joint": 0.9855016693851029,
        "distance_wrist_3_joint": 0.003928073781115593,
        "smoothness": 6.344131583732827e-16,
        "time": 0.13534788,
        "traj_len": 1.5061518987598645,
        "weighted_distance": 1.8976647920959042
    },
    "planner": "ProjEST",
    "start": {
        "state": {
            "elbow_joint": 2.0193061681459312,
            "shoulder_lift_joint": -1.1220205130644991,
            "shoulder_pan_joint": -1.0952072088045026,
            "wrist_1_joint": -0.8559671810662515,
            "wrist_2_joint": 0.4759638712940361,
            "wrist_3_joint": 3.159081874192446
        }
    },
    "waypoints": [
        {
            "positions": [
                -1.0952072088045026,
                -1.1220205130644991,
                2.0193061681459312,
                -0.8559671810662515,
                0.4759638712940361,
                3.159081874192446
            ]
        },
        {
            "positions": [
                -1.1917151568281636,
                -1.1710328353032833,
                2.0081958559256075,
                -0.7994204637203995,
                0.6402141495248865,
                3.159736553155965
            ]
        },
        {
            "positions": [
                -1.2882231048518247,
                -1.2200451575420674,
                1.9970855437052835,
                -0.7428737463745476,
                0.8044644277557371,
                3.1603912321194847
            ]
        },
        {
            "positions": [
                -1.3847310528754857,
                -1.2690574797808516,
                1.9859752314849595,
                -0.6863270290286956,
                0.9687147059865875,
                3.161045911083004
            ]
        },
        {
            "positions": [
                -1.481239000899147,
                -1.3180698020196358,
                1.9748649192646355,
                -0.6297803116828438,
                1.132964984217438,
                3.161700590046523
            ]
        },
        {
            "positions": [
                -1.577746948922808,
                -1.36708212425842,
                1.9637546070443117,
                -0.5732335943369917,
                1.2972152624482884,
                3.1623552690100425
            ]
        },
        {
            "positions": [
                -1.674254896946469,
                -1.416094446497204,
                1.9526442948239877,
                -0.5166868769911398,
                1.461465540679139,
                3.1630099479735616
            ]
        }
    ]
}