{
    "goal": {
        "global_pose": {
            "orientation": {
                "w": 0.5084816262002911,
                "x": -0.4908360881923452,
                "y": 0.5182115481033761,
                "z": -0.48164630358495003
            },
            "position": {
                "x": 0.5540239810943604,
                "y": -0.46912469901144505,
                "z": 0.16403168439865112
            }
        },
        "name": "move_to_storage_B"
    },
    "id": "ProjEST_move_to_storage_B_45",
    "joint_names": [
        "shoulder_pan_joint",
        "shoulder_lift_joint",
        "elbow_joint",
        "wrist_1_joint",
        "wrist_2_joint",
        "wrist_3_joint"
    ],
    "metrics": {
        "cart_traj_len": 1.5983116164076232,
        "distance_elbow_joint": 0.47530748150926905,
        "distance_shoulder_lift_joint": 0.4622984247989259,
        "distance_shoulder_pan_joint": 1.6473703560518513,
        "distance_wrist_1_joint": 4.077082976548138,
        "distance_wrist_2_joint": 2.716240418480369,
        "distance_wrist_3_joint": 3.1174700326334857,
        "smoothness": 0.23645182003979692,
        "time": 0.108317145,
        "traj_len": 3.534935599133602,
        "weighted_distance": 5.052131545230935
    },
    "planner": "ProjEST",
    "start": {
        "state": {
            "elbow_joint": 1.6649325340416963,
            "shoulder_lift_joint": -0.6616387945129425,
            "shoulder_pan_joint": -0.9139837929255878,
            "wrist_1_joint": 2.1467571094334352,
            "wrist_2_joint": -2.234195976750228,
            "wrist_3_joint": 0.005470921511140723
        }
    },
    "waypoints": [
        {
            "positions": [
                -0.9139837929255878,
                -0.6616387945129425,
                1.6649325340416963,
                2.1467571094334352,
                -2.234195976750228,
                0.005470921511140723
            ]
        },
        {
            "positions": [
                -0.8529233430251953,
                -0.6895223044944513,
                1.6996841691084423,
                2.190961185669868,
                -2.12110656867779,
                -0.08029652036531638
            ]
        },
        {
            "positions": [
                -0.7918628931248027,
                -0.7174058144759601,
                1.7344358041751884,
                2.2351652619063014,
                -2.0080171606053514,
                -0.16606396224177347
            ]
        },
        {
            "positions": [
                -0.7308024432244102,
                -0.745289324457469,
                1.7691874392419344,
                2.2793693381427342,
                -1.8949277525329133,
                -0.25183140411823063
            ]
        },
        {
            "positions": [
                -0.6697419933240177,
                -0.7731728344389778,
                1.8039390743086805,
                2.323573414379167,
                -1.7818383444604753,
                -0.3375988459946877
            ]
        },
        {
            "positions": [
                -0.6086815434236251,
                -0.8010563444204866,
                1.8386907093754266,
                2.3677774906156,
                -1.6687489363880368,
                -0.4233662878711449
            ]
        },
        {
            "positions": [
                -0.5476210935232326,
                -0.8289398544019954,
                1.8734423444421728,
                2.411981566852033,
                -1.5556595283155987,
                -0.509133729747602
            ]
        },
        {
            "positions": [
                -0.48656064362284007,
                -0.8568233643835041,
                1.908193979508919,
                2.456185643088466,
                -1.4425701202431604,
                -0.5949011716240591
            ]
        },
        {
            "positions": [
                -0.4255001937224476,
                -0.8847068743650129,
                1.942945614575665,
                2.500389719324899,
                -1.3294807121707224,
                -0.6806686135005161
            ]
        },
        {
            "positions": [
                -0.364439743822055,
                -0.9125903843465217,
                1.977697249642411,
                2.544593795561332,
                -1.216391304098284,
                -0.7664360553769732
            ]
        },
        {
            "positions": [
                -0.3033792939216624,
                -0.9404738943280306,
                2.012448884709157,
                2.588797871797765,
                -1.1033018960258458,
                -0.8522034972534305
            ]
        },
        {
            "positions": [
                -0.24231884402127002,
                -0.9683574043095393,
                2.047200519775903,
                2.633001948034198,
                -0.9902124879534078,
                -0.9379709391298875
            ]
        },
        {
            "positions": [
                -0.1812583941208774,
                -0.9962409142910482,
                2.081952154842649,
                2.677206024270631,
                -0.8771230798809695,
                -1.0237383810063445
            ]
        },
        {
            "positions": [
                -0.22481291589455077,
                -1.0023216907206112,
                2.0791765424279673,
                2.508318687998681,
                -0.8124008169471071,
                -1.1231793681547255
            ]
        },
        {
            "positions": [
                -0.26836743766822413,
                -1.008402467150174,
                2.0764009300132855,
                2.3394313517267316,
                -0.7476785540132446,
                -1.2226203553031065
            ]
        },
        {
            "positions": [
                -0.3119219594418975,
                -1.0144832435797368,
                2.073625317598604,
                2.170544015454782,
                -0.6829562910793822,
                -1.3220613424514873
            ]
        },
        {
            "positions": [
                -0.35547648121557085,
                -1.0205640200092996,
                2.0708497051839223,
                2.0016566791828323,
                -0.6182340281455196,
                -1.4215023295998683
            ]
        },
        {
            "positions": [
                -0.3990310029892442,
                -1.0266447964388625,
                2.0680740927692405,
                1.8327693429108827,
                -0.5535117652116572,
                -1.5209433167482493
            ]
        },
        {
            "positions": [
                -0.44258552476291757,
                -1.0327255728684255,
                2.0652984803545587,
                1.6638820066389328,
                -0.48878950227779483,
                -1.6203843038966301
            ]
        },
        {
            "positions": [
                -0.48614004653659093,
                -1.0388063492979882,
                2.0625228679398773,
                1.4949946703669832,
                -0.42406723934393237,
                -1.7198252910450111
            ]
        },
        {
            "positions": [
                -0.5296945683102643,
                -1.0448871257275512,
                2.0597472555251954,
                1.3261073340950336,
                -0.3593449764100699,
                -1.8192662781933922
            ]
        },
        {
            "positions": [
                -0.5732490900839377,
                -1.050967902157114,
                2.0569716431105136,
                1.157219997823084,
                -0.2946227134762075,
                -1.918707265341773
            ]
        },
        {
            "positions": [
                -0.616803611857611,
                -1.0570486785866768,
                2.054196030695832,
                0.9883326615511343,
                -0.2299004505423451,
                -2.018148252490154
            ]
        },
        {
            "positions": [
                -0.6603581336312845,
                -1.0631294550162398,
                2.0514204182811504,
                0.8194453252791842,
                -0.16517818760848246,
                -2.1175892396385354
            ]
        },
        {
            "positions": [
                -0.7039126554049577,
                -1.0692102314458025,
                2.0486448058664686,
                0.6505579890072348,
                -0.10045592467462017,
                -2.2170302267869157
            ]
        },
        {
            "positions": [
                -0.7474671771786312,
                -1.0752910078753655,
                2.0458691934517867,
                0.4816706527352852,
                -0.03573366174075765,
                -2.316471213935297
            ]
        },
        {
            "positions": [
                -0.7910216989523045,
                -1.0813717843049284,
                2.043093581037105,
                0.31278331646333557,
                0.028988601193104757,
                -2.4159122010836778
            ]
        },
        {
            "positions": [
                -0.8345762207259779,
                -1.0874525607344911,
                2.0403179686224235,
                0.1438959801913855,
                0.09371086412696727,
                -2.515353188232059
            ]
        },
        {
            "positions": [
                -0.8781307424996512,
                -1.093533337164054,
                2.0375423562077417,
                -0.024991356080563687,
                0.15843312706082968,
                -2.61479417538044
            ]
        },
        {
            "positions": [
                -0.9216852642733246,
                -1.099614113593617,
                2.03476674379306,
                -0.19387869235251376,
                0.2231553899946921,
                -2.714235162528821
            ]
        },
        {
            "positions": [
                -0.9652397860469979,
                -1.1056948900231798,
                2.031991131378378,
                -0.36276602862446294,
                0.2878776529285545,
                -2.8136761496772014
            ]
        },
        {
            "positions": [
                -1.0087943078206714,
                -1.1117756664527427,
                2.0292155189636967,
                -0.531653364896413,
                0.3525999158624171,
                -2.9131171368255826
            ]
        },
        {
            "positions": [
                -1.0523488295943446,
                -1.1178564428823055,
                2.026439906549015,
                -0.7005407011683622,
                0.4173221787962793,
                -3.012558123973964
            ]
        },
        {
            "positions": [
                -1.095903351368018,
                -1.1239372193118684,
                2.023664294134333,
                -0.8694280374403122,
                0.4820444417301418,
                -3.1119991111223446
            ]
        }
    ]
}