{
    "goal": {
        "global_pose": {
            "orientation": {
                "w": 0.5084816217422485,
                "x": -0.49083608388900757,
                "y": 0.5182115435600281,
                "z": -0.4816462993621826
            },
            "position": {
                "x": 0.5540239810943604,
                "y": 0.030875300988554955,
                "z": 0.16403168439865112
            }
        },
        "name": "move_to_storage_A"
    },
    "id": "ProjEST_move_to_storage_A_22",
    "joint_names": [
        "shoulder_pan_joint",
        "shoulder_lift_joint",
        "elbow_joint",
        "wrist_1_joint",
        "wrist_2_joint",
        "wrist_3_joint"
    ],
    "metrics": {
        "cart_traj_len": 0.353069997143583,
        "distance_elbow_joint": 0.4511415334958764,
        "distance_shoulder_lift_joint": 0.2353726091580044,
        "distance_shoulder_pan_joint": 0.4607948733322512,
        "distance_wrist_1_joint": 0.24901176364568234,
        "distance_wrist_2_joint": 1.10299482757048,
        "distance_wrist_3_joint": 0.10025931052895531,
        "smoothness": 2.2204460668324854e-16,
        "time": 0.049668871999999996,
        "traj_len": 1.612319731855704,
        "weighted_distance": 2.037670270187334
    },
    "planner": "ProjEST",
    "start": {
        "state": {
            "elbow_joint": 1.971548880431181,
            "shoulder_lift_joint": -1.1394869514688781,
            "shoulder_pan_joint": 0.12281150262730567,
            "wrist_1_joint": -0.7804693444481463,
            "wrist_2_joint": 0.12958644648617612,
            "wrist_3_joint": 3.0906942077768043
        }
    },
    "waypoints": [
        {
            "positions": [
                0.12281150262730567,
                -1.1394869514688781,
                1.971548880431181,
                -0.7804693444481463,
                0.12958644648617612,
                3.0906942077768043
            ]
        },
        {
            "positions": [
                0.05698366357984121,
                -1.1731116099200216,
                2.035997670930592,
                -0.8160424535403866,
                0.2871571361391018,
                3.105016966423798
            ]
        },
        {
            "positions": [
                -0.008844175467623255,
                -1.206736268371165,
                2.100446461430003,
                -0.8516155626326269,
                0.4447278257920275,
                3.1193397250707915
            ]
        },
        {
            "positions": [
                -0.0746720145150877,
                -1.2403609268223086,
                2.164895251929414,
                -0.8871886717248673,
                0.6022985154449532,
                3.133662483717785
            ]
        },
        {
            "positions": [
                -0.14049985356255218,
                -1.273985585273452,
                2.2293440424288247,
                -0.9227617808171076,
                0.7598692050978789,
                3.1479852423647787
            ]
        },
        {
            "positions": [
                -0.20632769261001666,
                -1.3076102437245956,
                2.2937928329282355,
                -0.958334889909348,
                0.9174398947508047,
                3.1623080010117723
            ]
        },
        {
            "positions": [
                -0.2721555316574811,
                -1.341234902175739,
                2.3582416234276464,
                -0.9939079990015883,
                1.0750105844037303,
                3.176630759658766
            ]
        },
        {
            "positions": [
                -0.33798337070494555,
                -1.3748595606268825,
                2.4226904139270573,
                -1.0294811080938286,
                1.2325812740566562,
                3.1909535183057596
            ]
        }
    ]
}