{
    "goal": {
        "global_pose": {
            "orientation": {
                "w": 0.5084816262002911,
                "x": -0.4908360881923452,
                "y": 0.5182115481033761,
                "z": -0.48164630358495003
            },
            "position": {
                "x": 0.5540239810943604,
                "y": -0.46912469901144505,
                "z": 0.16403168439865112
            }
        },
        "name": "move_to_storage_B"
    },
    "id": "ProjEST_move_to_storage_B_72",
    "joint_names": [
        "shoulder_pan_joint",
        "shoulder_lift_joint",
        "elbow_joint",
        "wrist_1_joint",
        "wrist_2_joint",
        "wrist_3_joint"
    ],
    "metrics": {
        "cart_traj_len": 0.986050851275792,
        "distance_elbow_joint": 1.093971470607413,
        "distance_shoulder_lift_joint": 0.4589898812520903,
        "distance_shoulder_pan_joint": 0.5742651628478372,
        "distance_wrist_1_joint": 3.0240297259202795,
        "distance_wrist_2_joint": 2.704352633087244,
        "distance_wrist_3_joint": 3.1634622316869327,
        "smoothness": 0.24740093289140722,
        "time": 0.131973719,
        "traj_len": 3.3194986225937493,
        "weighted_distance": 4.803579699326658
    },
    "planner": "ProjEST",
    "start": {
        "state": {
            "elbow_joint": 1.6649325340416963,
            "shoulder_lift_joint": -0.6616387945129425,
            "shoulder_pan_joint": -0.9139837929255878,
            "wrist_1_joint": 2.1467571094334352,
            "wrist_2_joint": -2.234195976750228,
            "wrist_3_joint": 0.005470921511140723
        }
    },
    "waypoints": [
        {
            "positions": [
                -0.9139837929255878,
                -0.6616387945129425,
                1.6649325340416963,
                2.1467571094334352,
                -2.234195976750228,
                0.005470921511140723
            ]
        },
        {
            "positions": [
                -0.8905847725809393,
                -0.6812896267768771,
                1.6455527382403754,
                2.155240378207121,
                -2.2228507512699416,
                0.020314683510133533
            ]
        },
        {
            "positions": [
                -0.8329197200733557,
                -0.7168244679622932,
                1.5287738343800314,
                2.147926480779585,
                -2.1181549817460716,
                0.010607984089593868
            ]
        },
        {
            "positions": [
                -0.775254667565772,
                -0.7523593091477091,
                1.4119949305196875,
                2.140612583352049,
                -2.0134592122222013,
                0.0009012846690542031
            ]
        },
        {
            "positions": [
                -0.7175896150581884,
                -0.7878941503331252,
                1.2952160266593435,
                2.1332986859245127,
                -1.9087634426983313,
                -0.008805414751485462
            ]
        },
        {
            "positions": [
                -0.7321231144805129,
                -0.8006916320805062,
                1.3230719867833842,
                2.0181600411220515,
                -1.8172665158123564,
                -0.1287861213448055
            ]
        },
        {
            "positions": [
                -0.7466566139028374,
                -0.8134891138278872,
                1.3509279469074251,
                1.9030213963195908,
                -1.7257695889263815,
                -0.24876682793812555
            ]
        },
        {
            "positions": [
                -0.761190113325162,
                -0.8262865955752683,
                1.3787839070314658,
                1.7878827515171298,
                -1.6342726620404067,
                -0.36874753453144554
            ]
        },
        {
            "positions": [
                -0.7757236127474866,
                -0.8390840773226494,
                1.4066398671555067,
                1.6727441067146689,
                -1.5427757351544318,
                -0.4887282411247656
            ]
        },
        {
            "positions": [
                -0.7902571121698111,
                -0.8518815590700305,
                1.4344958272795474,
                1.5576054619122077,
                -1.451278808268457,
                -0.6087089477180857
            ]
        },
        {
            "positions": [
                -0.8047906115921356,
                -0.8646790408174115,
                1.4623517874035883,
                1.442466817109747,
                -1.359781881382482,
                -0.7286896543114056
            ]
        },
        {
            "positions": [
                -0.8193241110144601,
                -0.8774765225647926,
                1.490207747527629,
                1.3273281723072858,
                -1.2682849544965071,
                -0.8486703609047257
            ]
        },
        {
            "positions": [
                -0.8338576104367846,
                -0.8902740043121736,
                1.5180637076516699,
                1.212189527504825,
                -1.1767880276105323,
                -0.9686510674980457
            ]
        },
        {
            "positions": [
                -0.8483911098591091,
                -0.9030714860595547,
                1.5459196677757105,
                1.097050882702364,
                -1.0852911007245576,
                -1.0886317740913658
            ]
        },
        {
            "positions": [
                -0.8629246092814338,
                -0.9158689678069358,
                1.5737756278997515,
                0.981912237899903,
                -0.9937941738385826,
                -1.208612480684686
            ]
        },
        {
            "positions": [
                -0.8774581087037583,
                -0.9286664495543169,
                1.6016315880237921,
                0.8667735930974421,
                -0.9022972469526078,
                -1.328593187278006
            ]
        },
        {
            "positions": [
                -0.8919916081260828,
                -0.9414639313016979,
                1.629487548147833,
                0.7516349482949811,
                -0.8108003200666329,
                -1.448573893871326
            ]
        },
        {
            "positions": [
                -0.9065251075484073,
                -0.954261413049079,
                1.6573435082718737,
                0.6364963034925202,
                -0.7193033931806581,
                -1.568554600464646
            ]
        },
        {
            "positions": [
                -0.9210586069707318,
                -0.96705889479646,
                1.6851994683959144,
                0.5213576586900592,
                -0.6278064662946832,
                -1.688535307057966
            ]
        },
        {
            "positions": [
                -0.9355921063930563,
                -0.9798563765438411,
                1.7130554285199553,
                0.4062190138875985,
                -0.5363095394087085,
                -1.808516013651286
            ]
        },
        {
            "positions": [
                -0.9501256058153809,
                -0.9926538582912221,
                1.7409113886439962,
                0.2910803690851371,
                -0.4448126125227334,
                -1.9284967202446062
            ]
        },
        {
            "positions": [
                -0.9646591052377055,
                -1.0054513400386031,
                1.7687673487680369,
                0.1759417242826764,
                -0.3533156856367585,
                -2.048477426837926
            ]
        },
        {
            "positions": [
                -0.9791926046600299,
                -1.0182488217859842,
                1.7966233088920776,
                0.06080307948021524,
                -0.26181875875078386,
                -2.168458133431246
            ]
        },
        {
            "positions": [
                -0.9937261040823545,
                -1.0310463035333652,
                1.8244792690161185,
                -0.05433556532224548,
                -0.17032183186480898,
                -2.2884388400245657
            ]
        },
        {
            "positions": [
                -1.008259603504679,
                -1.0438437852807465,
                1.8523352291401594,
                -0.16947421012470665,
                -0.07882490497883388,
                -2.4084195466178864
            ]
        },
        {
            "positions": [
                -1.0227931029270037,
                -1.0566412670281276,
                1.8801911892641998,
                -0.28461285492716737,
                0.012672021907141007,
                -2.528400253211206
            ]
        },
        {
            "positions": [
                -1.0373266023493282,
                -1.0694387487755086,
                1.9080471493882407,
                -0.39975149972962853,
                0.10416894879311567,
                -2.648380959804526
            ]
        },
        {
            "positions": [
                -1.0518601017716527,
                -1.0822362305228896,
                1.9359031095122816,
                -0.5148901445320893,
                0.19566587567909055,
                -2.768361666397846
            ]
        },
        {
            "positions": [
                -1.0663936011939772,
                -1.0950337122702707,
                1.9637590696363223,
                -0.6300287893345504,
                0.28716280256506543,
                -2.888342372991166
            ]
        },
        {
            "positions": [
                -1.0809271006163017,
                -1.1078311940176517,
                1.991615029760363,
                -0.7451674341370116,
                0.3786597294510403,
                -3.0083230795844864
            ]
        },
        {
            "positions": [
                -1.0954606000386262,
                -1.1206286757650328,
                2.019470989884404,
                -0.8603060789394722,
                0.47015665633701503,
                -3.1283037861778062
            ]
        }
    ]
}