{
    "goal": {
        "global_pose": {
            "orientation": {
                "w": 0.5084816262002911,
                "x": -0.4908360881923452,
                "y": 0.5182115481033761,
                "z": -0.48164630358495003
            },
            "position": {
                "x": 0.5540239810943604,
                "y": -0.46912469901144505,
                "z": 0.16403168439865112
            }
        },
        "name": "move_to_storage_B"
    },
    "id": "ProjEST_move_to_storage_B_142",
    "joint_names": [
        "shoulder_pan_joint",
        "shoulder_lift_joint",
        "elbow_joint",
        "wrist_1_joint",
        "wrist_2_joint",
        "wrist_3_joint"
    ],
    "metrics": {
        "cart_traj_len": 1.404749687904335,
        "distance_elbow_joint": 0.7864193276153195,
        "distance_shoulder_lift_joint": 0.514027931953059,
        "distance_shoulder_pan_joint": 1.5262684818523609,
        "distance_wrist_1_joint": 3.4489327245600254,
        "distance_wrist_2_joint": 2.711371229005115,
        "distance_wrist_3_joint": 3.1345483971609838,
        "smoothness": 0.2930191565591055,
        "time": 0.07738927000000001,
        "traj_len": 3.4816042411720014,
        "weighted_distance": 4.954893423680673
    },
    "planner": "ProjEST",
    "start": {
        "state": {
            "elbow_joint": 1.6649325340416963,
            "shoulder_lift_joint": -0.6616387945129425,
            "shoulder_pan_joint": -0.9139837929255878,
            "wrist_1_joint": 2.1467571094334352,
            "wrist_2_joint": -2.234195976750228,
            "wrist_3_joint": 0.005470921511140723
        }
    },
    "waypoints": [
        {
            "positions": [
                -0.9139837929255878,
                -0.6616387945129425,
                1.6649325340416963,
                2.1467571094334352,
                -2.234195976750228,
                0.005470921511140723
            ]
        },
        {
            "positions": [
                -0.7794571609006882,
                -0.656285592139258,
                1.621339604657053,
                2.1932574798634628,
                -2.1982127224470083,
                0.0848296545940709
            ]
        },
        {
            "positions": [
                -0.6449305288757885,
                -0.6509323897655734,
                1.5777466752724096,
                2.2397578502934907,
                -2.162229468143789,
                0.16418838767700109
            ]
        },
        {
            "positions": [
                -0.5104038968508888,
                -0.6455791873918889,
                1.5341537458877665,
                2.2862582207235183,
                -2.1262462138405693,
                0.24354712075993126
            ]
        },
        {
            "positions": [
                -0.37587726482598915,
                -0.6402259850182044,
                1.4905608165031232,
                2.3327585911535462,
                -2.09026295953735,
                0.3229058538428614
            ]
        },
        {
            "positions": [
                -0.24135063280108948,
                -0.6348727826445199,
                1.44696788711848,
                2.3792589615835738,
                -2.0542797052341304,
                0.4022645869257916
            ]
        },
        {
            "positions": [
                -0.27296675582804736,
                -0.6529195204254323,
                1.4680217641811504,
                2.2601318922350595,
                -1.9605221142160187,
                0.503662910323804
            ]
        },
        {
            "positions": [
                -0.30458287885500523,
                -0.6709662582063448,
                1.4890756412438209,
                2.1410048228865453,
                -1.8667645231979069,
                0.6050612337218162
            ]
        },
        {
            "positions": [
                -0.33619900188196317,
                -0.6890129959872572,
                1.5101295183064913,
                2.0218777535380306,
                -1.7730069321797952,
                0.7064595571198286
            ]
        },
        {
            "positions": [
                -0.367815124908921,
                -0.7070597337681697,
                1.5311833953691618,
                1.9027506841895163,
                -1.6792493411616833,
                0.8078578805178409
            ]
        },
        {
            "positions": [
                -0.3994312479358789,
                -0.7251064715490821,
                1.5522372724318323,
                1.783623614841002,
                -1.5854917501435717,
                0.9092562039158532
            ]
        },
        {
            "positions": [
                -0.4310473709628368,
                -0.7431532093299946,
                1.5732911494945028,
                1.6644965454924878,
                -1.49173415912546,
                1.0106545273138656
            ]
        },
        {
            "positions": [
                -0.46266349398979467,
                -0.761199947110907,
                1.5943450265571733,
                1.5453694761439734,
                -1.3979765681073482,
                1.1120528507118776
            ]
        },
        {
            "positions": [
                -0.49427961701675255,
                -0.7792466848918195,
                1.6153989036198437,
                1.4262424067954589,
                -1.3042189770892365,
                1.2134511741098901
            ]
        },
        {
            "positions": [
                -0.5258957400437104,
                -0.797293422672732,
                1.6364527806825142,
                1.3071153374469446,
                -1.2104613860711249,
                1.3148494975079026
            ]
        },
        {
            "positions": [
                -0.5575118630706684,
                -0.8153401604536444,
                1.6575066577451847,
                1.1879882680984304,
                -1.116703795053013,
                1.4162478209059146
            ]
        },
        {
            "positions": [
                -0.5891279860976262,
                -0.8333868982345569,
                1.6785605348078552,
                1.068861198749916,
                -1.0229462040349013,
                1.517646144303927
            ]
        },
        {
            "positions": [
                -0.6207441091245841,
                -0.8514336360154693,
                1.6996144118705256,
                0.9497341294014017,
                -0.9291886130167895,
                1.6190444677019395
            ]
        },
        {
            "positions": [
                -0.652360232151542,
                -0.8694803737963818,
                1.7206682889331963,
                0.8306070600528874,
                -0.8354310219986778,
                1.7204427910999516
            ]
        },
        {
            "positions": [
                -0.6839763551784999,
                -0.8875271115772942,
                1.7417221659958666,
                0.711479990704373,
                -0.7416734309805662,
                1.821841114497964
            ]
        },
        {
            "positions": [
                -0.7155924782054578,
                -0.9055738493582067,
                1.7627760430585373,
                0.5923529213558585,
                -0.6479158399624543,
                1.9232394378959765
            ]
        },
        {
            "positions": [
                -0.7472086012324156,
                -0.9236205871391192,
                1.7838299201212076,
                0.47322585200734424,
                -0.5541582489443426,
                2.0246377612939885
            ]
        },
        {
            "positions": [
                -0.7788247242593735,
                -0.9416673249200316,
                1.8048837971838783,
                0.35409878265882977,
                -0.46040065792623075,
                2.126036084692001
            ]
        },
        {
            "positions": [
                -0.8104408472863314,
                -0.9597140627009441,
                1.8259376742465485,
                0.23497171331031552,
                -0.3666430669081191,
                2.2274344080900135
            ]
        },
        {
            "positions": [
                -0.8420569703132893,
                -0.9777608004818565,
                1.8469915513092192,
                0.11584464396180127,
                -0.2728854758900072,
                2.328832731488026
            ]
        },
        {
            "positions": [
                -0.8736730933402472,
                -0.9958075382627689,
                1.8680454283718897,
                -0.0032824253867129727,
                -0.17912788487189557,
                2.430231054886038
            ]
        },
        {
            "positions": [
                -0.9052892163672052,
                -1.0138542760436815,
                1.8890993054345602,
                -0.12240949473522766,
                -0.0853702938537837,
                2.5316293782840504
            ]
        },
        {
            "positions": [
                -0.936905339394163,
                -1.0319010138245939,
                1.9101531824972307,
                -0.2415365640837419,
                0.008387297164327734,
                2.6330277016820625
            ]
        },
        {
            "positions": [
                -0.9685214624211209,
                -1.0499477516055062,
                1.9312070595599011,
                -0.36066363343225616,
                0.10214488818243961,
                2.734426025080075
            ]
        },
        {
            "positions": [
                -1.0001375854480787,
                -1.0679944893864188,
                1.9522609366225716,
                -0.4797907027807704,
                0.19590247920055148,
                2.8358243484780874
            ]
        },
        {
            "positions": [
                -1.0317537084750366,
                -1.0860412271673312,
                1.973314813685242,
                -0.5989177721292851,
                0.28966007021866336,
                2.9372226718761
            ]
        },
        {
            "positions": [
                -1.0633698315019946,
                -1.1040879649482438,
                1.9943686907479126,
                -0.7180448414777989,
                0.3834176612367748,
                3.038620995274112
            ]
        },
        {
            "positions": [
                -1.0949859545289524,
                -1.1221347027291562,
                2.015422567810583,
                -0.8371719108263137,
                0.4771752522548869,
                3.1400193186721244
            ]
        }
    ]
}