{
    "goal": {
        "global_pose": {
            "orientation": {
                "w": 0.7031023502349854,
                "x": -0.7110244035720825,
                "y": 0.007748599164187908,
                "z": 0.005598929710686207
            },
            "position": {
                "x": 0.11585023208521307,
                "y": 0.44412534475326537,
                "z": 0.3711530566215515
            }
        },
        "name": "move_to_auspresseinheit_A"
    },
    "id": "ProjEST_move_to_auspresseinheit_A_8",
    "joint_names": [
        "shoulder_pan_joint",
        "shoulder_lift_joint",
        "elbow_joint",
        "wrist_1_joint",
        "wrist_2_joint",
        "wrist_3_joint"
    ],
    "metrics": {
        "cart_traj_len": 1.7314246958491486,
        "distance_elbow_joint": 0.16679336463386774,
        "distance_shoulder_lift_joint": 1.6045342809445875,
        "distance_shoulder_pan_joint": 2.5255793327278724,
        "distance_wrist_1_joint": 2.3293287799235216,
        "distance_wrist_2_joint": 1.5300608510927476,
        "distance_wrist_3_joint": 0.6664907615506652,
        "smoothness": 1.4548654906350722,
        "time": 0.5846265070000001,
        "traj_len": 2.970317722209741,
        "weighted_distance": 3.7436824818607226
    },
    "planner": "ProjEST",
    "start": {
        "state": {
            "elbow_joint": 2.4225746994637096,
            "shoulder_lift_joint": -1.373653595662188,
            "shoulder_pan_joint": -0.3378633848294565,
            "wrist_1_joint": -1.0288595594406726,
            "wrist_2_joint": 1.2330228066703421,
            "wrist_3_joint": 3.189163495502006
        }
    },
    "waypoints": [
        {
            "positions": [
                -0.3378633848294565,
                -1.373653595662188,
                2.4225746994637096,
                -1.0288595594406726,
                1.2330228066703421,
                3.189163495502006
            ]
        },
        {
            "positions": [
                -0.21893100142605,
                -1.444897339710853,
                2.427061171146402,
                -0.9320959006835781,
                1.1644363062860426,
                3.165156047036576
            ]
        },
        {
            "positions": [
                -0.09999861802264345,
                -1.5161410837595182,
                2.4315476428290945,
                -0.8353322419264836,
                1.095849805901743,
                3.141148598571146
            ]
        },
        {
            "positions": [
                0.018933765380763135,
                -1.587384827808183,
                2.436034114511787,
                -0.738568583169389,
                1.0272633055174436,
                3.117141150105716
            ]
        },
        {
            "positions": [
                0.13786614878416958,
                -1.658628571856848,
                2.440520586194479,
                -0.6418049244122945,
                0.958676805133144,
                3.0931337016402862
            ]
        },
        {
            "positions": [
                0.25679853218757615,
                -1.7298723159055132,
                2.4450070578771714,
                -0.5450412656552,
                0.8900903047488445,
                3.069126253174856
            ]
        },
        {
            "positions": [
                0.37573091559098276,
                -1.8011160599541782,
                2.449493529559864,
                -0.44827760689810536,
                0.821503804364545,
                3.045118804709426
            ]
        },
        {
            "positions": [
                0.49466329899438927,
                -1.8723598040028433,
                2.4539800012425563,
                -0.3515139481410109,
                0.7529173039802455,
                3.0211113562439964
            ]
        },
        {
            "positions": [
                0.6135956823977957,
                -1.9436035480515081,
                2.458466472925249,
                -0.2547502893839163,
                0.6843308035959459,
                2.997103907778566
            ]
        },
        {
            "positions": [
                0.7325280658012021,
                -2.014847292100173,
                2.4629529446079412,
                -0.15798663062682183,
                0.6157443032116464,
                2.9730964593131364
            ]
        },
        {
            "positions": [
                0.8514604492046087,
                -2.0860910361488383,
                2.4674394162906337,
                -0.06122297186972725,
                0.5471578028273469,
                2.9490890108477066
            ]
        },
        {
            "positions": [
                0.9703928326080151,
                -2.157334780197503,
                2.471925887973326,
                0.03554068688736711,
                0.47857130244304735,
                2.9250815623822763
            ]
        },
        {
            "positions": [
                1.089325216011422,
                -2.2285785242461684,
                2.476412359656018,
                0.13230434564446192,
                0.40998480205874777,
                2.9010741139168466
            ]
        },
        {
            "positions": [
                1.2082575994148284,
                -2.2998222682948333,
                2.4808988313387106,
                0.2290680044015565,
                0.3413983016744483,
                2.8770666654514168
            ]
        },
        {
            "positions": [
                1.327189982818235,
                -2.3710660123434986,
                2.485385303021403,
                0.32583166315865086,
                0.2728118012901487,
                2.8530592169859865
            ]
        },
        {
            "positions": [
                1.4461223662216414,
                -2.4423097563921634,
                2.4898717747040955,
                0.42259532191574545,
                0.20422530090584923,
                2.8290517685205567
            ]
        },
        {
            "positions": [
                1.3534231685120446,
                -2.375324991365337,
                2.4774347385299103,
                0.31286108459485745,
                0.26688321907188106,
                2.8673491478417086
            ]
        },
        {
            "positions": [
                1.2607239708024478,
                -2.3083402263385104,
                2.464997702355725,
                0.20312684727396946,
                0.32954113723791284,
                2.905646527162861
            ]
        },
        {
            "positions": [
                1.168024773092851,
                -2.241355461311684,
                2.45256066618154,
                0.09339260995308146,
                0.3921990554039446,
                2.9439439064840127
            ]
        },
        {
            "positions": [
                1.075325575383254,
                -2.1743706962848575,
                2.4401236300073545,
                -0.016341627367806533,
                0.45485697356997645,
                2.9822412858051646
            ]
        },
        {
            "positions": [
                0.9826263776736572,
                -2.107385931258031,
                2.4276865938331693,
                -0.12607586468869458,
                0.5175148917360083,
                3.020538665126317
            ]
        },
        {
            "positions": [
                0.8899271799640605,
                -2.0404011662312045,
                2.415249557658984,
                -0.23581010200958252,
                0.58017280990204,
                3.0588360444474687
            ]
        },
        {
            "positions": [
                0.7972279822544636,
                -1.9734164012043778,
                2.402812521484799,
                -0.34554433933047046,
                0.6428307280680718,
                3.097133423768621
            ]
        },
        {
            "positions": [
                0.7045287845448668,
                -1.9064316361775513,
                2.3903754853106136,
                -0.4552785766513585,
                0.7054886462341037,
                3.135430803089773
            ]
        }
    ]
}