{
    "goal": {
        "global_pose": {
            "orientation": {
                "w": 0.7031023480610252,
                "x": -0.7110244013736278,
                "y": 0.0077485991402295624,
                "z": 0.005598929693374583
            },
            "position": {
                "x": -0.8841497679147869,
                "y": 0.44412534475326537,
                "z": 0.3711530566215515
            }
        },
        "name": "move_to_auspresseinheit_D"
    },
    "id": "ProjEST_move_to_auspresseinheit_D_142",
    "joint_names": [
        "shoulder_pan_joint",
        "shoulder_lift_joint",
        "elbow_joint",
        "wrist_1_joint",
        "wrist_2_joint",
        "wrist_3_joint"
    ],
    "metrics": {
        "cart_traj_len": 0.3439461141456566,
        "distance_elbow_joint": 0.6436710596712265,
        "distance_shoulder_lift_joint": 0.1239059442983792,
        "distance_shoulder_pan_joint": 0.13385237157418198,
        "distance_wrist_1_joint": 0.5358585679447279,
        "distance_wrist_2_joint": 1.4445620779583794,
        "distance_wrist_3_joint": 0.006862411891803255,
        "smoothness": 1.973729815730094e-15,
        "time": 0.025494179,
        "traj_len": 1.6996212617341249,
        "weighted_distance": 2.2097189647159685
    },
    "planner": "ProjEST",
    "start": {
        "state": {
            "elbow_joint": -1.8275484843655228,
            "shoulder_lift_joint": -2.1267897864000416,
            "shoulder_pan_joint": -0.035127520176001514,
            "wrist_1_joint": -2.3477863256791385,
            "wrist_2_joint": -1.605890476484521,
            "wrist_3_joint": -3.0880375317375353
        }
    },
    "waypoints": [
        {
            "positions": [
                -0.035127520176001514,
                -2.1267897864000416,
                -1.8275484843655228,
                -2.3477863256791385,
                -1.605890476484521,
                -3.0880375317375353
            ]
        },
        {
            "positions": [
                -0.05185906662277426,
                -2.142278029437339,
                -1.7470896019066195,
                -2.4147686466722296,
                -1.4253202167397236,
                -3.08717973025106
            ]
        },
        {
            "positions": [
                -0.068590613069547,
                -2.1577662724746363,
                -1.6666307194477161,
                -2.48175096766532,
                -1.244749956994926,
                -3.086321928764584
            ]
        },
        {
            "positions": [
                -0.08532215951631976,
                -2.1732545155119336,
                -1.5861718369888127,
                -2.5487332886584113,
                -1.0641796972501287,
                -3.085464127278109
            ]
        },
        {
            "positions": [
                -0.1020537059630925,
                -2.188742758549231,
                -1.5057129545299095,
                -2.6157156096515024,
                -0.8836094375053313,
                -3.0846063257916336
            ]
        },
        {
            "positions": [
                -0.11878525240986525,
                -2.2042310015865287,
                -1.4252540720710063,
                -2.6826979306445935,
                -0.7030391777605338,
                -3.0837485243051583
            ]
        },
        {
            "positions": [
                -0.135516798856638,
                -2.219719244623826,
                -1.3447951896121029,
                -2.7496802516376846,
                -0.5224689180157365,
                -3.082890722818683
            ]
        },
        {
            "positions": [
                -0.15224834530341075,
                -2.2352074876611234,
                -1.2643363071531994,
                -2.8166625726307752,
                -0.3418986582709389,
                -3.0820329213322073
            ]
        },
        {
            "positions": [
                -0.1689798917501835,
                -2.2506957306984208,
                -1.1838774246942962,
                -2.8836448936238663,
                -0.16132839852614148,
                -3.081175119845732
            ]
        }
    ]
}