{
    "goal": {
        "global_pose": {
            "orientation": {
                "w": 0.005598929693374612,
                "x": 0.007748599140229565,
                "y": 0.7110244013736278,
                "z": -0.7031023480610252
            },
            "position": {
                "x": 0.1141497679147869,
                "y": -0.7141253447532654,
                "z": 0.3711530566215515
            }
        },
        "name": "move_to_auspresseinheit_B"
    },
    "id": "ProjEST_move_to_auspresseinheit_B_11",
    "joint_names": [
        "shoulder_pan_joint",
        "shoulder_lift_joint",
        "elbow_joint",
        "wrist_1_joint",
        "wrist_2_joint",
        "wrist_3_joint"
    ],
    "metrics": {
        "cart_traj_len": 0.5646768820727169,
        "distance_elbow_joint": 0.06174595021035145,
        "distance_shoulder_lift_joint": 0.29439552857503015,
        "distance_shoulder_pan_joint": 0.5738855915739212,
        "distance_wrist_1_joint": 0.31781680333043394,
        "distance_wrist_2_joint": 1.0076741019054294,
        "distance_wrist_3_joint": 0.001830353398069473,
        "smoothness": 5.075305295617109e-16,
        "time": 0.091719206,
        "traj_len": 1.5024474463332271,
        "weighted_distance": 1.8938056766799591
    },
    "planner": "ProjEST",
    "start": {
        "state": {
            "elbow_joint": 2.0193061681459312,
            "shoulder_lift_joint": -1.1220205130644991,
            "shoulder_pan_joint": -1.0952072088045026,
            "wrist_1_joint": -0.8559671810662515,
            "wrist_2_joint": 0.4759638712940361,
            "wrist_3_joint": 3.159081874192446
        }
    },
    "waypoints": [
        {
            "positions": [
                -1.0952072088045026,
                -1.1220205130644991,
                2.0193061681459312,
                -0.8559671810662515,
                0.4759638712940361,
                3.159081874192446
            ]
        },
        {
            "positions": [
                -1.1908548074001561,
                -1.171086434493671,
                2.009015176444206,
                -0.8029977138445125,
                0.643909554944941,
                3.159386933092124
            ]
        },
        {
            "positions": [
                -1.2865024059958097,
                -1.2201523559228424,
                1.9987241847424808,
                -0.7500282466227735,
                0.811855238595846,
                3.1596919919918025
            ]
        },
        {
            "positions": [
                -1.3821500045914632,
                -1.2692182773520142,
                1.9884331930407555,
                -0.6970587794010346,
                0.9798009222467507,
                3.159997050891481
            ]
        },
        {
            "positions": [
                -1.4777976031871167,
                -1.318284198781186,
                1.9781422013390302,
                -0.6440893121792955,
                1.1477466058976558,
                3.160302109791159
            ]
        },
        {
            "positions": [
                -1.5734452017827703,
                -1.3673501202103575,
                1.967851209637305,
                -0.5911198449575565,
                1.3156922895485605,
                3.160607168690837
            ]
        },
        {
            "positions": [
                -1.6690928003784238,
                -1.4164160416395293,
                1.9575602179355798,
                -0.5381503777358175,
                1.4836379731994656,
                3.1609122275905155
            ]
        }
    ]
}