{
    "goal": {
        "global_pose": {
            "orientation": {
                "w": -0.00223480608172531,
                "x": 0.0024358444001904467,
                "y": 0.7094548369677653,
                "z": -0.704743149386269
            },
            "position": {
                "x": 0.6205249238014221,
                "y": -0.6371506643295288,
                "z": 0.19426114857196808
            }
        },
        "name": "move_to_magneteinheit_B"
    },
    "id": "ProjEST_move_to_magneteinheit_B_44",
    "joint_names": [
        "shoulder_pan_joint",
        "shoulder_lift_joint",
        "elbow_joint",
        "wrist_1_joint",
        "wrist_2_joint",
        "wrist_3_joint"
    ],
    "metrics": {
        "cart_traj_len": 3.32141030161912,
        "distance_elbow_joint": 4.487511944151469,
        "distance_shoulder_lift_joint": 1.9147378916652513,
        "distance_shoulder_pan_joint": 1.9547232137846124,
        "distance_wrist_1_joint": 1.454608326600619,
        "distance_wrist_2_joint": 1.0308366407884162,
        "distance_wrist_3_joint": 3.6411687011827545,
        "smoothness": 0.3010064523545901,
        "time": 2.655409046,
        "traj_len": 3.8057307732120416,
        "weighted_distance": 4.924567908753789
    },
    "planner": "ProjEST",
    "start": {
        "state": {
            "elbow_joint": 2.393587130804639,
            "shoulder_lift_joint": -1.9085141043513325,
            "shoulder_pan_joint": 0.7066247066698809,
            "wrist_1_joint": -0.4678290934590222,
            "wrist_2_joint": 0.7096259084215963,
            "wrist_3_joint": 3.147370379541726
        }
    },
    "waypoints": [
        {
            "positions": [
                0.7066247066698809,
                -1.9085141043513325,
                2.393587130804639,
                -0.4678290934590222,
                0.7096259084215963,
                3.147370379541726
            ]
        },
        {
            "positions": [
                0.7848591838905271,
                -1.9653369227955595,
                2.3937737830709813,
                -0.3880902907556524,
                0.6943384481672819,
                2.981830421881126
            ]
        },
        {
            "positions": [
                0.8630936611111732,
                -2.0221597412397867,
                2.393960435337324,
                -0.30835148805228263,
                0.6790509879129674,
                2.8162904642205264
            ]
        },
        {
            "positions": [
                0.9413281383318195,
                -2.0789825596840137,
                2.3941470876036663,
                -0.22861268534891285,
                0.663763527658653,
                2.6507505065599264
            ]
        },
        {
            "positions": [
                1.0195626155524657,
                -2.1358053781282407,
                2.394333739870009,
                -0.14887388264554308,
                0.6484760674043385,
                2.4852105488993264
            ]
        },
        {
            "positions": [
                1.0977970927731118,
                -2.1926281965724677,
                2.3945203921363514,
                -0.06913507994217333,
                0.633188607150024,
                2.3196705912387268
            ]
        },
        {
            "positions": [
                1.176031569993758,
                -2.2494510150166946,
                2.394707044402694,
                0.010603722761196477,
                0.6179011468957096,
                2.1541306335781267
            ]
        },
        {
            "positions": [
                1.2542660472144043,
                -2.3062738334609216,
                2.3948936966690364,
                0.09034252546456628,
                0.6026136866413951,
                1.988590675917527
            ]
        },
        {
            "positions": [
                1.3325005244350505,
                -2.3630966519051486,
                2.395080348935379,
                0.17008132816793609,
                0.5873262263870807,
                1.823050718256927
            ]
        },
        {
            "positions": [
                1.3867792434699022,
                -2.3338370911522204,
                2.209170454053243,
                0.17371356651143888,
                0.6047247673707175,
                1.7332875371246832
            ]
        },
        {
            "positions": [
                1.441057962504754,
                -2.3045775303992926,
                2.023260559171107,
                0.17734580485494164,
                0.6221233083543543,
                1.6435243559924393
            ]
        },
        {
            "positions": [
                1.4953366815396056,
                -2.2753179696463643,
                1.8373506642889708,
                0.18097804319844443,
                0.639521849337991,
                1.5537611748601954
            ]
        },
        {
            "positions": [
                1.5496154005744576,
                -2.2460584088934366,
                1.6514407694068347,
                0.1846102815419472,
                0.6569203903216279,
                1.4639979937279515
            ]
        },
        {
            "positions": [
                1.6038941196093093,
                -2.2167988481405083,
                1.4655308745246984,
                0.18824251988545,
                0.6743189313052647,
                1.3742348125957076
            ]
        },
        {
            "positions": [
                1.658172838644161,
                -2.18753928738758,
                1.2796209796425624,
                0.19187475822895275,
                0.6917174722889015,
                1.2844716314634637
            ]
        },
        {
            "positions": [
                1.7124515576790127,
                -2.1582797266346523,
                1.0937110847604261,
                0.19550699657245554,
                0.7091160132725383,
                1.1947084503312195
            ]
        },
        {
            "positions": [
                1.7667302767138644,
                -2.129020165881724,
                0.9078011898782903,
                0.1991392349159583,
                0.7265145542561751,
                1.1049452691989758
            ]
        },
        {
            "positions": [
                1.8210089957487163,
                -2.099760605128796,
                0.721891294996154,
                0.2027714732594611,
                0.7439130952398119,
                1.0151820880667317
            ]
        },
        {
            "positions": [
                1.875287714783568,
                -2.070501044375868,
                0.535981400114018,
                0.2064037116029639,
                0.7613116362234487,
                0.9254189069344878
            ]
        },
        {
            "positions": [
                1.9295664338184197,
                -2.04124148362294,
                0.3500715052318819,
                0.21003594994646665,
                0.7787101772070855,
                0.8356557258022439
            ]
        },
        {
            "positions": [
                1.9838451528532715,
                -2.011981922870012,
                0.16416161034974586,
                0.21366818828996945,
                0.7961087181907223,
                0.74589254467
            ]
        },
        {
            "positions": [
                2.038123871888123,
                -1.9827223621170837,
                -0.021748284532390194,
                0.2173004266334722,
                0.8135072591743591,
                0.6561293635377561
            ]
        },
        {
            "positions": [
                2.092402590922975,
                -1.9534628013641557,
                -0.2076581794145267,
                0.220932664976975,
                0.8309058001579959,
                0.566366182405512
            ]
        },
        {
            "positions": [
                2.1466813099578266,
                -1.9242032406112277,
                -0.3935680742966623,
                0.2245649033204778,
                0.8483043411416327,
                0.47660300127326827
            ]
        },
        {
            "positions": [
                2.2009600289926783,
                -1.8949436798582995,
                -0.5794779691787983,
                0.22819714166398056,
                0.8657028821252695,
                0.38683982014102436
            ]
        },
        {
            "positions": [
                2.25523874802753,
                -1.8656841191053717,
                -0.7653878640609344,
                0.23182938000748332,
                0.8831014231089063,
                0.29707663900878045
            ]
        },
        {
            "positions": [
                2.309517467062382,
                -1.8364245583524434,
                -0.9512977589430709,
                0.2354616183509861,
                0.9004999640925431,
                0.20731345787653632
            ]
        },
        {
            "positions": [
                2.3637961860972334,
                -1.8071649975995154,
                -1.137207653825207,
                0.2390938566944889,
                0.9178985050761799,
                0.11755027674429241
            ]
        },
        {
            "positions": [
                2.4180749051320856,
                -1.7779054368465874,
                -1.323117548707343,
                0.24272609503799167,
                0.9352970460598167,
                0.027787095612048507
            ]
        },
        {
            "positions": [
                2.472353624166937,
                -1.7486458760936592,
                -1.5090274435894786,
                0.24635833338149443,
                0.9526955870434535,
                -0.06197608552019518
            ]
        },
        {
            "positions": [
                2.526632343201789,
                -1.7193863153407312,
                -1.694937338471615,
                0.24999057172499722,
                0.9700941280270903,
                -0.1517392666524393
            ]
        },
        {
            "positions": [
                2.5809110622366407,
                -1.6901267545878031,
                -1.8808472333537507,
                0.2536228100685,
                0.9874926690107271,
                -0.2415024477846834
            ]
        },
        {
            "positions": [
                2.5938597373913908,
                -1.7999426971907029,
                -1.8684685608663778,
                0.34884524385750304,
                0.9149868353691026,
                -0.21287985751087157
            ]
        },
        {
            "positions": [
                2.606808412546141,
                -1.9097586397936026,
                -1.856089888379005,
                0.444067677646506,
                0.8424810017274781,
                -0.18425726723705976
            ]
        },
        {
            "positions": [
                2.619757087700891,
                -2.019574582396502,
                -1.8437112158916322,
                0.5392901114355091,
                0.7699751680858536,
                -0.15563467696324795
            ]
        },
        {
            "positions": [
                2.632705762855641,
                -2.129390524999402,
                -1.8313325434042593,
                0.6345125452245121,
                0.6974693344442291,
                -0.12701208668943612
            ]
        },
        {
            "positions": [
                2.645654438010391,
                -2.2392064676023016,
                -1.8189538709168864,
                0.729734979013515,
                0.6249635008026047,
                -0.09838949641562429
            ]
        },
        {
            "positions": [
                2.650885598825092,
                -2.318575045528832,
                -1.769554610485308,
                0.8154163970562087,
                0.5763497181618941,
                -0.06199518891986254
            ]
        },
        {
            "positions": [
                2.6561167596397923,
                -2.3979436234553626,
                -1.7201553500537292,
                0.9010978150989024,
                0.5277359355211836,
                -0.025600881424100788
            ]
        },
        {
            "positions": [
                2.661347920454493,
                -2.477312201381893,
                -1.6707560896221507,
                0.9867792331415962,
                0.479122152880473,
                0.010793426071660974
            ]
        }
    ]
}