{
    "goal": {
        "global_pose": {
            "orientation": {
                "w": 0.5084816262002911,
                "x": -0.4908360881923452,
                "y": 0.5182115481033761,
                "z": -0.48164630358495003
            },
            "position": {
                "x": 0.5540239810943604,
                "y": -0.46912469901144505,
                "z": 0.16403168439865112
            }
        },
        "name": "move_to_storage_B"
    },
    "id": "ProjEST_move_to_storage_B_147",
    "joint_names": [
        "shoulder_pan_joint",
        "shoulder_lift_joint",
        "elbow_joint",
        "wrist_1_joint",
        "wrist_2_joint",
        "wrist_3_joint"
    ],
    "metrics": {
        "cart_traj_len": 0.6757689543413351,
        "distance_elbow_joint": 0.41304087280277924,
        "distance_shoulder_lift_joint": 0.4593098206408259,
        "distance_shoulder_pan_joint": 0.39501289804867024,
        "distance_wrist_1_joint": 2.979869390675957,
        "distance_wrist_2_joint": 2.723816545618744,
        "distance_wrist_3_joint": 3.220489956282395,
        "smoothness": 0.25940409306482587,
        "time": 0.132066606,
        "traj_len": 3.1924190646074915,
        "weighted_distance": 4.726119479332793
    },
    "planner": "ProjEST",
    "start": {
        "state": {
            "elbow_joint": 1.6649325340416963,
            "shoulder_lift_joint": -0.6616387945129425,
            "shoulder_pan_joint": -0.9139837929255878,
            "wrist_1_joint": 2.1467571094334352,
            "wrist_2_joint": -2.234195976750228,
            "wrist_3_joint": 0.005470921511140723
        }
    },
    "waypoints": [
        {
            "positions": [
                -0.9139837929255878,
                -0.6616387945129425,
                1.6649325340416963,
                2.1467571094334352,
                -2.234195976750228,
                0.005470921511140723
            ]
        },
        {
            "positions": [
                -0.807517899108541,
                -0.7043261079611118,
                1.6331042837829042,
                2.092827740468747,
                -2.2436232460991676,
                0.040514803754513655
            ]
        },
        {
            "positions": [
                -0.8186158608097572,
                -0.7203500505454448,
                1.6477663077269036,
                1.9802915857875443,
                -2.139223658550329,
                -0.08200235293929489
            ]
        },
        {
            "positions": [
                -0.8297138225109736,
                -0.7363739931297777,
                1.6624283316709032,
                1.8677554311063416,
                -2.0348240710014904,
                -0.20451950963310345
            ]
        },
        {
            "positions": [
                -0.8408117842121898,
                -0.7523979357141106,
                1.6770903556149026,
                1.755219276425139,
                -1.9304244834526516,
                -0.32703666632691203
            ]
        },
        {
            "positions": [
                -0.8519097459134062,
                -0.7684218782984437,
                1.6917523795589022,
                1.6426831217439364,
                -1.826024895903813,
                -0.44955382302072056
            ]
        },
        {
            "positions": [
                -0.8630077076146224,
                -0.7844458208827766,
                1.7064144035029016,
                1.5301469670627337,
                -1.7216253083549744,
                -0.5720709797145291
            ]
        },
        {
            "positions": [
                -0.8741056693158387,
                -0.8004697634671095,
                1.7210764274469013,
                1.4176108123815312,
                -1.6172257208061358,
                -0.6945881364083377
            ]
        },
        {
            "positions": [
                -0.885203631017055,
                -0.8164937060514424,
                1.7357384513909007,
                1.3050746577003287,
                -1.5128261332572972,
                -0.8171052931021461
            ]
        },
        {
            "positions": [
                -0.8963015927182713,
                -0.8325176486357754,
                1.7504004753349003,
                1.1925385030191258,
                -1.4084265457084584,
                -0.9396224497959548
            ]
        },
        {
            "positions": [
                -0.9073995544194875,
                -0.8485415912201083,
                1.7650624992788997,
                1.0800023483379233,
                -1.30402695815962,
                -1.0621396064897632
            ]
        },
        {
            "positions": [
                -0.9184975161207038,
                -0.8645655338044413,
                1.7797245232228993,
                0.9674661936567206,
                -1.1996273706107812,
                -1.184656763183572
            ]
        },
        {
            "positions": [
                -0.9295954778219201,
                -0.8805894763887743,
                1.7943865471668987,
                0.8549300389755179,
                -1.0952277830619426,
                -1.3071739198773804
            ]
        },
        {
            "positions": [
                -0.9406934395231364,
                -0.8966134189731072,
                1.8090485711108983,
                0.7423938842943152,
                -0.990828195513104,
                -1.4296910765711892
            ]
        },
        {
            "positions": [
                -0.9517914012243527,
                -0.9126373615574401,
                1.8237105950548977,
                0.6298577296131127,
                -0.8864286079642654,
                -1.5522082332649976
            ]
        },
        {
            "positions": [
                -0.9628893629255689,
                -0.9286613041417731,
                1.8383726189988971,
                0.5173215749319102,
                -0.7820290204154268,
                -1.674725389958806
            ]
        },
        {
            "positions": [
                -0.9739873246267853,
                -0.944685246726106,
                1.8530346429428968,
                0.4047854202507075,
                -0.6776294328665882,
                -1.7972425466526145
            ]
        },
        {
            "positions": [
                -0.9850852863280015,
                -0.9607091893104389,
                1.8676966668868964,
                0.2922492655695046,
                -0.5732298453177493,
                -1.9197597033464233
            ]
        },
        {
            "positions": [
                -0.9961832480292179,
                -0.9767331318947718,
                1.8823586908308958,
                0.1797131108883021,
                -0.46883025776891074,
                -2.0422768600402317
            ]
        },
        {
            "positions": [
                -1.0072812097304342,
                -0.9927570744791048,
                1.8970207147748952,
                0.06717695620709963,
                -0.36443067022007214,
                -2.16479401673404
            ]
        },
        {
            "positions": [
                -1.0183791714316504,
                -1.0087810170634377,
                1.9116827387188948,
                -0.04535919847410286,
                -0.26003108267123376,
                -2.287311173427849
            ]
        },
        {
            "positions": [
                -1.0294771331328667,
                -1.0248049596477706,
                1.9263447626628942,
                -0.15789535315530578,
                -0.15563149512239471,
                -2.4098283301216576
            ]
        },
        {
            "positions": [
                -1.0405750948340828,
                -1.0408289022321038,
                1.9410067866068939,
                -0.27043150783650827,
                -0.051231907573556335,
                -2.532345486815466
            ]
        },
        {
            "positions": [
                -1.0516730565352992,
                -1.0568528448164367,
                1.9556688105508933,
                -0.3829676625177112,
                0.05316767997528249,
                -2.6548626435092744
            ]
        },
        {
            "positions": [
                -1.0627710182365155,
                -1.0728767874007696,
                1.9703308344948929,
                -0.4955038171989137,
                0.15756726752412087,
                -2.7773798002030827
            ]
        },
        {
            "positions": [
                -1.073868979937732,
                -1.0889007299851026,
                1.9849928584388923,
                -0.6080399718801166,
                0.2619668550729597,
                -2.899896956896892
            ]
        },
        {
            "positions": [
                -1.084966941638948,
                -1.1049246725694355,
                1.9996548823828917,
                -0.7205761265613191,
                0.3663664426217985,
                -3.0224141135907003
            ]
        },
        {
            "positions": [
                -1.0960649033401644,
                -1.1209486151537684,
                2.0143169063268913,
                -0.8331122812425215,
                0.470766030170637,
                -3.1449312702845087
            ]
        }
    ]
}