{
    "goal": {
        "global_pose": {
            "orientation": {
                "w": -0.4816463035849501,
                "x": 0.5182115481033762,
                "y": 0.4908360881923453,
                "z": -0.5084816262002911
            },
            "position": {
                "x": -0.8240239810943604,
                "y": 0.19912469901144506,
                "z": 0.16403168439865112
            }
        },
        "name": "move_to_storage_D"
    },
    "id": "ProjEST_move_to_storage_D_32",
    "joint_names": [
        "shoulder_pan_joint",
        "shoulder_lift_joint",
        "elbow_joint",
        "wrist_1_joint",
        "wrist_2_joint",
        "wrist_3_joint"
    ],
    "metrics": {
        "cart_traj_len": 3.8359709535352393,
        "distance_elbow_joint": 4.408645554421801,
        "distance_shoulder_lift_joint": 1.2652660781431557,
        "distance_shoulder_pan_joint": 2.8134943442808504,
        "distance_wrist_1_joint": 3.2072029731688705,
        "distance_wrist_2_joint": 0.8817798018885612,
        "distance_wrist_3_joint": 3.478684905234976,
        "smoothness": 0.4618083362646068,
        "time": 0.29973266800000004,
        "traj_len": 4.006878293277476,
        "weighted_distance": 5.205903018945474
    },
    "planner": "ProjEST",
    "start": {
        "state": {
            "elbow_joint": -2.384821990628643,
            "shoulder_lift_joint": -2.278805467437664,
            "shoulder_pan_joint": -0.18546946439364564,
            "wrist_1_joint": 1.4845938187801415,
            "wrist_2_joint": 0.178987772454074,
            "wrist_3_joint": 0.03710569632802521
        }
    },
    "waypoints": [
        {
            "positions": [
                -0.18546946439364564,
                -2.278805467437664,
                -2.384821990628643,
                1.4845938187801415,
                0.178987772454074,
                0.03710569632802521
            ]
        },
        {
            "positions": [
                -0.10559533190095019,
                -2.24817674435898,
                -2.417547794045171,
                1.5361633960656924,
                0.1985659268731703,
                0.09647824636708288
            ]
        },
        {
            "positions": [
                -0.025721199408254736,
                -2.217548021280296,
                -2.450273597461698,
                1.5877329733512433,
                0.21814408129226656,
                0.15585079640614058
            ]
        },
        {
            "positions": [
                0.054152933084440746,
                -2.1869192982016123,
                -2.4829994008782257,
                1.6393025506367942,
                0.23772223571136286,
                0.21522334644519825
            ]
        },
        {
            "positions": [
                0.12282727491199763,
                -2.1578223244389805,
                -2.365727881561671,
                1.5585504735197346,
                0.24621060189292912,
                0.13423155791056818
            ]
        },
        {
            "positions": [
                0.19150161673955451,
                -2.1287253506763486,
                -2.2484563622451166,
                1.4777983964026749,
                0.2546989680744954,
                0.05323976937593808
            ]
        },
        {
            "positions": [
                0.2601759585671114,
                -2.0996283769137167,
                -2.131184842928562,
                1.3970463192856153,
                0.26318733425606167,
                -0.02775201915869202
            ]
        },
        {
            "positions": [
                0.3288503003946683,
                -2.070531403151085,
                -2.013913323612007,
                1.3162942421685555,
                0.27167570043762795,
                -0.10874380769332209
            ]
        },
        {
            "positions": [
                0.39752464222222517,
                -2.041434429388453,
                -1.8966418042954523,
                1.235542165051496,
                0.28016406661919424,
                -0.18973559622795216
            ]
        },
        {
            "positions": [
                0.46619898404978205,
                -2.0123374556258207,
                -1.7793702849788975,
                1.1547900879344364,
                0.28865243280076047,
                -0.2707273847625823
            ]
        },
        {
            "positions": [
                0.5348733258773388,
                -1.983240481863189,
                -1.6620987656623432,
                1.0740380108173766,
                0.29714079898232676,
                -0.35171917329721236
            ]
        },
        {
            "positions": [
                0.6035476677048959,
                -1.9541435081005571,
                -1.5448272463457884,
                0.9932859337003169,
                0.30562916516389305,
                -0.43271096183184243
            ]
        },
        {
            "positions": [
                0.6722220095324527,
                -1.925046534337925,
                -1.4275557270292336,
                0.9125338565832574,
                0.3141175313454593,
                -0.5137027503664725
            ]
        },
        {
            "positions": [
                0.7408963513600095,
                -1.8959495605752932,
                -1.310284207712679,
                0.8317817794661977,
                0.32260589752702556,
                -0.5946945389011026
            ]
        },
        {
            "positions": [
                0.8095706931875666,
                -1.8668525868126613,
                -1.1930126883961243,
                0.751029702349138,
                0.33109426370859185,
                -0.6756863274357328
            ]
        },
        {
            "positions": [
                0.8782450350151234,
                -1.8377556130500294,
                -1.0757411690795695,
                0.6702776252320783,
                0.3395826298901581,
                -0.7566781159703628
            ]
        },
        {
            "positions": [
                0.9469193768426802,
                -1.8086586392873976,
                -0.9584696497630152,
                0.5895255481150188,
                0.34807099607172437,
                -0.8376699045049927
            ]
        },
        {
            "positions": [
                1.015593718670237,
                -1.7795616655247657,
                -0.8411981304464604,
                0.508773470997959,
                0.35655936225329066,
                -0.918661693039623
            ]
        },
        {
            "positions": [
                1.084268060497794,
                -1.7504646917621338,
                -0.7239266111299056,
                0.42802139388089944,
                0.3650477284348569,
                -0.999653481574253
            ]
        },
        {
            "positions": [
                1.152942402325351,
                -1.7213677179995017,
                -0.6066550918133511,
                0.34726931676383965,
                0.37353609461642323,
                -1.0806452701088831
            ]
        },
        {
            "positions": [
                1.2216167441529078,
                -1.6922707442368699,
                -0.4893835724967963,
                0.2665172396467801,
                0.38202446079798946,
                -1.1616370586435132
            ]
        },
        {
            "positions": [
                1.2902910859804646,
                -1.663173770474238,
                -0.37211205318024154,
                0.18576516252972053,
                0.3905128269795557,
                -1.2426288471781433
            ]
        },
        {
            "positions": [
                1.3589654278080217,
                -1.6340767967116059,
                -0.25484053386368677,
                0.10501308541266074,
                0.39900119316112204,
                -1.3236206357127733
            ]
        },
        {
            "positions": [
                1.4276397696355785,
                -1.604979822948974,
                -0.13756901454713244,
                0.024261008295601183,
                0.40748955934268827,
                -1.4046124242474034
            ]
        },
        {
            "positions": [
                1.4963141114631353,
                -1.5758828491863421,
                -0.020297495230577667,
                -0.0564910688214586,
                0.41597792552425455,
                -1.4856042127820337
            ]
        },
        {
            "positions": [
                1.5649884532906924,
                -1.5467858754237103,
                0.0969740240859771,
                -0.13724314593851816,
                0.42446629170582084,
                -1.5665960013166638
            ]
        },
        {
            "positions": [
                1.6336627951182492,
                -1.5176889016610784,
                0.21424554340253188,
                -0.21799522305557795,
                0.4329546578873871,
                -1.6475877898512938
            ]
        },
        {
            "positions": [
                1.702337136945806,
                -1.4885919278984465,
                0.33151706271908665,
                -0.2987473001726375,
                0.44144302406895336,
                -1.728579578385924
            ]
        },
        {
            "positions": [
                1.7710114787733628,
                -1.4594949541358146,
                0.4487885820356414,
                -0.3794993772896973,
                0.44993139025051965,
                -1.809571366920554
            ]
        },
        {
            "positions": [
                1.8396858206009197,
                -1.4303979803731828,
                0.5660601013521953,
                -0.46025145440675663,
                0.4584197564320859,
                -1.8905631554551836
            ]
        },
        {
            "positions": [
                1.9083601624284765,
                -1.401301006610551,
                0.6833316206687501,
                -0.5410035315238164,
                0.46690812261365217,
                -1.9715549439898141
            ]
        },
        {
            "positions": [
                1.9770345042560333,
                -1.3722040328479188,
                0.8006031399853049,
                -0.6217556086408762,
                0.47539648879521845,
                -2.052546732524444
            ]
        },
        {
            "positions": [
                2.04570884608359,
                -1.343107059085287,
                0.9178746593018596,
                -0.7025076857579355,
                0.4838848549767847,
                -2.1335385210590743
            ]
        },
        {
            "positions": [
                2.1143831879111468,
                -1.314010085322655,
                1.0351461786184144,
                -0.7832597628749953,
                0.49237322115835097,
                -2.2145303095937043
            ]
        },
        {
            "positions": [
                2.183057529738704,
                -1.284913111560023,
                1.1524176979349692,
                -0.8640118399920551,
                0.5008615873399173,
                -2.2955220981283344
            ]
        },
        {
            "positions": [
                2.251731871566261,
                -1.255816137797391,
                1.2696892172515235,
                -0.9447639171091149,
                0.5093499535214836,
                -2.3765138866629645
            ]
        },
        {
            "positions": [
                2.3204062133938175,
                -1.2267191640347592,
                1.3869607365680783,
                -1.0255159942261742,
                0.5178383197030498,
                -2.4575056751975946
            ]
        },
        {
            "positions": [
                2.3890805552213745,
                -1.1976221902721274,
                1.5042322558846328,
                -1.106268071343234,
                0.5263266858846161,
                -2.5384974637322246
            ]
        },
        {
            "positions": [
                2.428904609332346,
                -1.1669417234425241,
                1.5581050037861928,
                -1.0551141347878692,
                0.6154001672942859,
                -2.6296385378889546
            ]
        },
        {
            "positions": [
                2.4687286634433177,
                -1.1362612566129209,
                1.6119777516877527,
                -1.0039601982325044,
                0.7044736487039558,
                -2.7207796120456846
            ]
        },
        {
            "positions": [
                2.508552717554289,
                -1.1055807897833176,
                1.6658504995893129,
                -0.9528062616771393,
                0.7935471301136257,
                -2.8119206862024146
            ]
        },
        {
            "positions": [
                2.5483767716652608,
                -1.0749003229537146,
                1.7197232474908728,
                -0.9016523251217745,
                0.8826206115232955,
                -2.903061760359145
            ]
        },
        {
            "positions": [
                2.5882008257762323,
                -1.0442198561241114,
                1.7735959953924327,
                -0.8504983885664097,
                0.9716940929329654,
                -2.994202834515875
            ]
        },
        {
            "positions": [
                2.628024879887204,
                -1.0135393892945082,
                1.8274687432939927,
                -0.7993444520110448,
                1.0607675743426352,
                -3.085343908672605
            ]
        }
    ]
}