{
    "goal": {
        "global_pose": {
            "orientation": {
                "w": 0.7047431468963623,
                "x": -0.7094548344612122,
                "y": 0.0024358443915843964,
                "z": -0.0022348060738295317
            },
            "position": {
                "x": 0.6094750761985779,
                "y": 0.3671506643295288,
                "z": 0.19426114857196808
            }
        },
        "name": "move_to_magneteinheit_A"
    },
    "id": "ProjEST_move_to_magneteinheit_A_108",
    "joint_names": [
        "shoulder_pan_joint",
        "shoulder_lift_joint",
        "elbow_joint",
        "wrist_1_joint",
        "wrist_2_joint",
        "wrist_3_joint"
    ],
    "metrics": {
        "cart_traj_len": 1.9628699959762603,
        "distance_elbow_joint": 3.567857176820975,
        "distance_shoulder_lift_joint": 0.7850846744925132,
        "distance_shoulder_pan_joint": 1.2423760641083548,
        "distance_wrist_1_joint": 1.2127263618109396,
        "distance_wrist_2_joint": 1.4438486205929526,
        "distance_wrist_3_joint": 2.0170371091234447,
        "smoothness": 3.6185046736692446e-16,
        "time": 0.185087985,
        "traj_len": 3.204517125394898,
        "weighted_distance": 4.118200967364264
    },
    "planner": "ProjEST",
    "start": {
        "state": {
            "elbow_joint": -1.5739458827952972,
            "shoulder_lift_joint": 0.006533473998580023,
            "shoulder_pan_joint": -1.1188671628667068,
            "wrist_1_joint": 3.138208179676308,
            "wrist_2_joint": -1.5706037135050406,
            "wrist_3_joint": -2.0226958329764257
        }
    },
    "waypoints": [
        {
            "positions": [
                -1.1188671628667068,
                0.006533473998580023,
                -1.5739458827952972,
                3.138208179676308,
                -1.5706037135050406,
                -2.0226958329764257
            ]
        },
        {
            "positions": [
                -1.0710834680933086,
                -0.02366209040497818,
                -1.4367206067637213,
                3.091564858068195,
                -1.5150710742514655,
                -1.945117482625524
            ]
        },
        {
            "positions": [
                -1.0232997733199103,
                -0.05385765480853638,
                -1.2994953307321453,
                3.044921536460082,
                -1.4595384349978904,
                -1.8675391322746222
            ]
        },
        {
            "positions": [
                -0.975516078546512,
                -0.08405321921209458,
                -1.1622700547005693,
                2.998278214851969,
                -1.4040057957443153,
                -1.7899607819237207
            ]
        },
        {
            "positions": [
                -0.9277323837731137,
                -0.11424878361565279,
                -1.0250447786689934,
                2.951634893243856,
                -1.3484731564907402,
                -1.7123824315728189
            ]
        },
        {
            "positions": [
                -0.8799486889997156,
                -0.14444434801921097,
                -0.8878195026374174,
                2.904991571635743,
                -1.292940517237165,
                -1.6348040812219171
            ]
        },
        {
            "positions": [
                -0.8321649942263173,
                -0.17463991242276916,
                -0.7505942266058415,
                2.8583482500276296,
                -1.23740787798359,
                -1.5572257308710153
            ]
        },
        {
            "positions": [
                -0.784381299452919,
                -0.20483547682632736,
                -0.6133689505742655,
                2.8117049284195166,
                -1.1818752387300149,
                -1.4796473805201136
            ]
        },
        {
            "positions": [
                -0.7365976046795207,
                -0.23503104122988558,
                -0.47614367454268947,
                2.7650616068114036,
                -1.1263425994764398,
                -1.402069030169212
            ]
        },
        {
            "positions": [
                -0.6888139099061226,
                -0.2652266056334438,
                -0.3389183985111137,
                2.7184182852032905,
                -1.0708099602228647,
                -1.3244906798183103
            ]
        },
        {
            "positions": [
                -0.6410302151327243,
                -0.295422170037002,
                -0.20169312247953752,
                2.6717749635951775,
                -1.0152773209692896,
                -1.2469123294674085
            ]
        },
        {
            "positions": [
                -0.593246520359326,
                -0.3256177344405602,
                -0.06446784644796177,
                2.6251316419870645,
                -0.9597446817157145,
                -1.169333979116507
            ]
        },
        {
            "positions": [
                -0.5454628255859277,
                -0.3558132988441184,
                0.0727574295836142,
                2.5784883203789515,
                -0.9042120424621394,
                -1.091755628765605
            ]
        },
        {
            "positions": [
                -0.49767913081252946,
                -0.3860088632476766,
                0.20998270561519017,
                2.5318449987708385,
                -0.8486794032085643,
                -1.0141772784147034
            ]
        },
        {
            "positions": [
                -0.4498954360391312,
                -0.4162044276512348,
                0.34720798164676614,
                2.4852016771627254,
                -0.7931467639549892,
                -0.9365989280638016
            ]
        },
        {
            "positions": [
                -0.402111741265733,
                -0.4463999920547929,
                0.4844332576783421,
                2.4385583555546124,
                -0.7376141247014142,
                -0.8590205777129001
            ]
        },
        {
            "positions": [
                -0.3543280464923346,
                -0.4765955564583512,
                0.6216585337099183,
                2.391915033946499,
                -0.682081485447839,
                -0.7814422273619981
            ]
        },
        {
            "positions": [
                -0.30654435171893646,
                -0.5067911208619094,
                0.758883809741494,
                2.345271712338386,
                -0.6265488461942639,
                -0.7038638770110965
            ]
        },
        {
            "positions": [
                -0.2587606569455382,
                -0.5369866852654676,
                0.8961090857730698,
                2.298628390730273,
                -0.5710162069406888,
                -0.6262855266601948
            ]
        },
        {
            "positions": [
                -0.2109769621721399,
                -0.5671822496690256,
                1.0333343618046456,
                2.25198506912216,
                -0.5154835676871137,
                -0.5487071763092932
            ]
        },
        {
            "positions": [
                -0.16319326739874163,
                -0.597377814072584,
                1.1705596378362222,
                2.205341747514047,
                -0.4599509284335386,
                -0.47112882595839123
            ]
        },
        {
            "positions": [
                -0.11540957262534346,
                -0.6275733784761421,
                1.307784913867798,
                2.158698425905934,
                -0.4044182891799635,
                -0.3935504756074897
            ]
        },
        {
            "positions": [
                -0.06762587785194518,
                -0.6577689428797003,
                1.4450101898993737,
                2.112055104297821,
                -0.3488856499263884,
                -0.3159721252565879
            ]
        },
        {
            "positions": [
                -0.019842183078546904,
                -0.6879645072832585,
                1.5822354659309494,
                2.065411782689708,
                -0.2933530106728133,
                -0.23839377490568636
            ]
        },
        {
            "positions": [
                0.027941511694851373,
                -0.7181600716868167,
                1.7194607419625256,
                2.018768461081595,
                -0.23782037141923817,
                -0.16081542455478437
            ]
        },
        {
            "positions": [
                0.07572520646824965,
                -0.7483556360903749,
                1.8566860179941018,
                1.9721251394734816,
                -0.18228773216566307,
                -0.08323707420388282
            ]
        },
        {
            "positions": [
                0.12350890124164803,
                -0.7785512004939331,
                1.9939112940256773,
                1.9254818178653685,
                -0.12675509291208797,
                -0.005658723852981123
            ]
        }
    ]
}