{
    "goal": {
        "global_pose": {
            "orientation": {
                "w": 0.5084816262002911,
                "x": -0.4908360881923452,
                "y": 0.5182115481033761,
                "z": -0.48164630358495003
            },
            "position": {
                "x": 0.5540239810943604,
                "y": -0.46912469901144505,
                "z": 0.16403168439865112
            }
        },
        "name": "move_to_storage_B"
    },
    "id": "ProjEST_move_to_storage_B_127",
    "joint_names": [
        "shoulder_pan_joint",
        "shoulder_lift_joint",
        "elbow_joint",
        "wrist_1_joint",
        "wrist_2_joint",
        "wrist_3_joint"
    ],
    "metrics": {
        "cart_traj_len": 3.427265846674898,
        "distance_elbow_joint": 3.5024373491901644,
        "distance_shoulder_lift_joint": 0.45660169138796625,
        "distance_shoulder_pan_joint": 2.967888273037122,
        "distance_wrist_1_joint": 2.9804343279810506,
        "distance_wrist_2_joint": 2.701507015648542,
        "distance_wrist_3_joint": 3.1282260433979094,
        "smoothness": 0.2725379191519737,
        "time": 0.063049271,
        "traj_len": 3.967000718507971,
        "weighted_distance": 5.260749768908246
    },
    "planner": "ProjEST",
    "start": {
        "state": {
            "elbow_joint": 1.6649325340416963,
            "shoulder_lift_joint": -0.6616387945129425,
            "shoulder_pan_joint": -0.9139837929255878,
            "wrist_1_joint": 2.1467571094334352,
            "wrist_2_joint": -2.234195976750228,
            "wrist_3_joint": 0.005470921511140723
        }
    },
    "waypoints": [
        {
            "positions": [
                -0.9139837929255878,
                -0.6616387945129425,
                1.6649325340416963,
                2.1467571094334352,
                -2.234195976750228,
                0.005470921511140723
            ]
        },
        {
            "positions": [
                -0.8144577591331665,
                -0.6942133468418727,
                1.552258878225703,
                2.0912961907649548,
                -2.1732151543197493,
                0.031978647143169024
            ]
        },
        {
            "positions": [
                -0.7149317253407452,
                -0.7267878991708029,
                1.4395852224097097,
                2.0358352720964743,
                -2.112234331889271,
                0.058486372775197325
            ]
        },
        {
            "positions": [
                -0.6154056915483239,
                -0.7593624514997331,
                1.3269115665937163,
                1.9803743534279936,
                -2.0512535094587925,
                0.08499409840722562
            ]
        },
        {
            "positions": [
                -0.5158796577559025,
                -0.7919370038286633,
                1.2142379107777233,
                1.9249134347595132,
                -1.9902726870283138,
                0.11150182403925392
            ]
        },
        {
            "positions": [
                -0.41635362396348113,
                -0.8245115561575935,
                1.1015642549617297,
                1.8694525160910327,
                -1.9292918645978354,
                0.13800954967128223
            ]
        },
        {
            "positions": [
                -0.3168275901710599,
                -0.8570861084865237,
                0.9888905991457366,
                1.8139915974225522,
                -1.868311042167357,
                0.16451727530331053
            ]
        },
        {
            "positions": [
                -0.21730155637863846,
                -0.8896606608154539,
                0.8762169433297433,
                1.7585306787540715,
                -1.8073302197368784,
                0.19102500093533883
            ]
        },
        {
            "positions": [
                -0.11777552258621715,
                -0.9222352131443841,
                0.7635432875137501,
                1.703069760085591,
                -1.7463493973064,
                0.21753272656736714
            ]
        },
        {
            "positions": [
                -0.018249488793795732,
                -0.9548097654733143,
                0.6508696316977567,
                1.6476088414171106,
                -1.6853685748759213,
                0.24404045219939546
            ]
        },
        {
            "positions": [
                0.08127654499862558,
                -0.9873843178022446,
                0.5381959758817634,
                1.5921479227486302,
                -1.6243877524454429,
                0.2705481778314237
            ]
        },
        {
            "positions": [
                0.18080257879104678,
                -1.0199588701311746,
                0.4255223200657703,
                1.5366870040801497,
                -1.5634069300149642,
                0.297055903463452
            ]
        },
        {
            "positions": [
                0.2803286125834681,
                -1.0525334224601048,
                0.312848664249777,
                1.4812260854116692,
                -1.5024261075844858,
                0.3235636290954803
            ]
        },
        {
            "positions": [
                0.3798546463758896,
                -1.085107974789035,
                0.20017500843378366,
                1.4257651667431885,
                -1.4414452851540074,
                0.3500713547275086
            ]
        },
        {
            "positions": [
                0.4793806801683109,
                -1.1176825271179653,
                0.08750135261779024,
                1.370304248074708,
                -1.3804644627235287,
                0.3765790803595369
            ]
        },
        {
            "positions": [
                0.4210649838741174,
                -1.1177031922580745,
                0.15879787734987388,
                1.2886753048664739,
                -1.312028333033831,
                0.47869455756507445
            ]
        },
        {
            "positions": [
                0.3627492875799239,
                -1.1177238573981834,
                0.23009440208195753,
                1.2070463616582396,
                -1.243592203344133,
                0.580810034770612
            ]
        },
        {
            "positions": [
                0.30443359128573044,
                -1.1177445225382925,
                0.30139092681404117,
                1.1254174184500054,
                -1.1751560736544349,
                0.6829255119761495
            ]
        },
        {
            "positions": [
                0.2461178949915369,
                -1.1177651876784014,
                0.3726874515461248,
                1.0437884752417714,
                -1.106719943964737,
                0.785040989181687
            ]
        },
        {
            "positions": [
                0.18780219869734344,
                -1.1177858528185105,
                0.44398397627820846,
                0.9621595320335372,
                -1.0382838142750392,
                0.8871564663872246
            ]
        },
        {
            "positions": [
                0.1294865024031499,
                -1.1178065179586194,
                0.5152805010102921,
                0.880530588825303,
                -0.9698476845853412,
                0.989271943592762
            ]
        },
        {
            "positions": [
                0.07117080610895643,
                -1.1178271830987285,
                0.5865770257423757,
                0.7989016456170688,
                -0.9014115548956433,
                1.0913874207982994
            ]
        },
        {
            "positions": [
                0.0128551098147629,
                -1.1178478482388374,
                0.6578735504744594,
                0.7172727024088346,
                -0.8329754252059454,
                1.1935028980038371
            ]
        },
        {
            "positions": [
                -0.04546058647943063,
                -1.1178685133789465,
                0.729170075206543,
                0.6356437592006003,
                -0.7645392955162474,
                1.2956183752093746
            ]
        },
        {
            "positions": [
                -0.10377628277362405,
                -1.1178891785190554,
                0.8004665999386267,
                0.5540148159923662,
                -0.6961031658265495,
                1.397733852414912
            ]
        },
        {
            "positions": [
                -0.16209197906781758,
                -1.1179098436591646,
                0.8717631246707103,
                0.472385872784132,
                -0.6276670361368516,
                1.4998493296204498
            ]
        },
        {
            "positions": [
                -0.2204076753620111,
                -1.1179305087992735,
                0.943059649402794,
                0.3907569295758978,
                -0.5592309064471537,
                1.601964806825987
            ]
        },
        {
            "positions": [
                -0.27872337165620464,
                -1.1179511739393826,
                1.0143561741348774,
                0.3091279863676637,
                -0.49079477675745575,
                1.7040802840315248
            ]
        },
        {
            "positions": [
                -0.33703906795039806,
                -1.1179718390794915,
                1.0856526988669613,
                0.22749904315942948,
                -0.42235864706775783,
                1.806195761237062
            ]
        },
        {
            "positions": [
                -0.3953547642445917,
                -1.1179925042196006,
                1.156949223599045,
                0.14587009995119504,
                -0.3539225173780598,
                1.9083112384425998
            ]
        },
        {
            "positions": [
                -0.4536704605387851,
                -1.1180131693597095,
                1.2282457483311284,
                0.06424115674296105,
                -0.285486387688362,
                2.0104267156481375
            ]
        },
        {
            "positions": [
                -0.5119861568329788,
                -1.1180338344998186,
                1.2995422730632122,
                -0.01738778646527317,
                -0.21705025799866395,
                2.1125421928536747
            ]
        },
        {
            "positions": [
                -0.5703018531271722,
                -1.1180544996399275,
                1.3708387977952956,
                -0.09901672967350739,
                -0.14861412830896614,
                2.2146576700592124
            ]
        },
        {
            "positions": [
                -0.6286175494213657,
                -1.1180751647800367,
                1.4421353225273794,
                -0.1806456728817416,
                -0.08017799861926811,
                2.31677314726475
            ]
        },
        {
            "positions": [
                -0.686933245715559,
                -1.1180958299201456,
                1.5134318472594632,
                -0.2622746160899756,
                -0.011741868929570298,
                2.4188886244702874
            ]
        },
        {
            "positions": [
                -0.7452489420097528,
                -1.1181164950602547,
                1.584728371991547,
                -0.34390355929821004,
                0.056694260760127735,
                2.521004101675825
            ]
        },
        {
            "positions": [
                -0.8035646383039461,
                -1.1181371602003636,
                1.6560248967236304,
                -0.42553250250644403,
                0.12513039044982555,
                2.6231195788813624
            ]
        },
        {
            "positions": [
                -0.8618803345981398,
                -1.1181578253404727,
                1.7273214214557142,
                -0.5071614457146785,
                0.19356652013952358,
                2.7252350560869
            ]
        },
        {
            "positions": [
                -0.9201960308923331,
                -1.1181784904805816,
                1.7986179461877976,
                -0.5887903889229125,
                0.2620026498292214,
                2.8273505332924374
            ]
        },
        {
            "positions": [
                -0.9785117271865267,
                -1.1181991556206907,
                1.8699144709198814,
                -0.6704193321311467,
                0.3304387795189194,
                2.929466010497975
            ]
        },
        {
            "positions": [
                -1.0368274234807202,
                -1.1182198207607996,
                1.9412109956519648,
                -0.7520482753393807,
                0.39887490920861723,
                3.0315814877035123
            ]
        },
        {
            "positions": [
                -1.0951431197749137,
                -1.1182404859009087,
                2.0125075203840486,
                -0.8336772185476152,
                0.4673110388983153,
                3.13369696490905
            ]
        }
    ]
}