{
    "goal": {
        "global_pose": {
            "orientation": {
                "w": 0.7047431468963623,
                "x": -0.7094548344612122,
                "y": 0.0024358443915843964,
                "z": -0.0022348060738295317
            },
            "position": {
                "x": 0.6094750761985779,
                "y": 0.3671506643295288,
                "z": 0.19426114857196808
            }
        },
        "name": "move_to_magneteinheit_A"
    },
    "id": "ProjEST_move_to_magneteinheit_A_133",
    "joint_names": [
        "shoulder_pan_joint",
        "shoulder_lift_joint",
        "elbow_joint",
        "wrist_1_joint",
        "wrist_2_joint",
        "wrist_3_joint"
    ],
    "metrics": {
        "cart_traj_len": 2.166448798110931,
        "distance_elbow_joint": 3.549313139601083,
        "distance_shoulder_lift_joint": 1.1710522165501875,
        "distance_shoulder_pan_joint": 1.241062179477173,
        "distance_wrist_1_joint": 3.920846198521132,
        "distance_wrist_2_joint": 3.0401307224594705,
        "distance_wrist_3_joint": 2.2547844674336432,
        "smoothness": 0.15566759419979087,
        "time": 0.137014657,
        "traj_len": 3.895791180754263,
        "weighted_distance": 5.16214439742735
    },
    "planner": "ProjEST",
    "start": {
        "state": {
            "elbow_joint": -1.5739458827952972,
            "shoulder_lift_joint": 0.006533473998580023,
            "shoulder_pan_joint": -1.1188671628667068,
            "wrist_1_joint": 3.138208179676308,
            "wrist_2_joint": -1.5706037135050406,
            "wrist_3_joint": -2.0226958329764257
        }
    },
    "waypoints": [
        {
            "positions": [
                -1.1188671628667068,
                0.006533473998580023,
                -1.5739458827952972,
                3.138208179676308,
                -1.5706037135050406,
                -2.0226958329764257
            ]
        },
        {
            "positions": [
                -1.1108781947714848,
                -0.03807391615666233,
                -1.497813754135855,
                2.988170380346631,
                -1.4792814522762905,
                -2.00166311399269
            ]
        },
        {
            "positions": [
                -1.1028892266762627,
                -0.08268130631190468,
                -1.4216816254764129,
                2.838132581016954,
                -1.3879591910475406,
                -1.9806303950089548
            ]
        },
        {
            "positions": [
                -1.0949002585810406,
                -0.12728869646714702,
                -1.3455494968169706,
                2.6880947816872767,
                -1.2966369298187905,
                -1.9595976760252192
            ]
        },
        {
            "positions": [
                -1.0869112904858185,
                -0.17189608662238937,
                -1.2694173681575285,
                2.5380569823576,
                -1.2053146685900407,
                -1.9385649570414838
            ]
        },
        {
            "positions": [
                -1.0789223223905964,
                -0.2165034767776317,
                -1.1932852394980862,
                2.3880191830279225,
                -1.1139924073612906,
                -1.9175322380577482
            ]
        },
        {
            "positions": [
                -1.0709333542953743,
                -0.2611108669328741,
                -1.117153110838644,
                2.237981383698245,
                -1.0226701461325405,
                -1.8964995190740126
            ]
        },
        {
            "positions": [
                -1.062944386200152,
                -0.3057182570881164,
                -1.041020982179202,
                2.0879435843685683,
                -0.9313478849037906,
                -1.8754668000902772
            ]
        },
        {
            "positions": [
                -1.0549554181049299,
                -0.3503256472433588,
                -0.9648888535197596,
                1.937905785038891,
                -0.8400256236750405,
                -1.8544340811065416
            ]
        },
        {
            "positions": [
                -1.0469664500097078,
                -0.39493303739860114,
                -0.8887567248603174,
                1.787867985709214,
                -0.7487033624462905,
                -1.8334013621228062
            ]
        },
        {
            "positions": [
                -1.0389774819144857,
                -0.4395404275538435,
                -0.8126245962008752,
                1.6378301863795366,
                -0.6573811012175405,
                -1.8123686431390706
            ]
        },
        {
            "positions": [
                -1.0309885138192636,
                -0.4841478177090858,
                -0.736492467541433,
                1.4877923870498597,
                -0.5660588399887905,
                -1.791335924155335
            ]
        },
        {
            "positions": [
                -1.0229995457240415,
                -0.5287552078643282,
                -0.6603603388819909,
                1.3377545877201824,
                -0.4747365787600404,
                -1.7703032051715994
            ]
        },
        {
            "positions": [
                -1.0150105776288194,
                -0.5733625980195705,
                -0.5842282102225487,
                1.1877167883905053,
                -0.3834143175312905,
                -1.749270486187864
            ]
        },
        {
            "positions": [
                -1.0070216095335973,
                -0.6179699881748127,
                -0.5080960815631066,
                1.0376789890608284,
                -0.29209205630254065,
                -1.7282377672041287
            ]
        },
        {
            "positions": [
                -0.9990326414383752,
                -0.6625773783300551,
                -0.4319639529036643,
                0.8876411897311511,
                -0.20076979507379056,
                -1.707205048220393
            ]
        },
        {
            "positions": [
                -0.9910436733431531,
                -0.7071847684852975,
                -0.355831824244222,
                0.7376033904014738,
                -0.10944753384504047,
                -1.6861723292366575
            ]
        },
        {
            "positions": [
                -0.9830547052479309,
                -0.7517921586405398,
                -0.2796996955847799,
                0.5875655910717965,
                -0.018125272616290378,
                -1.665139610252922
            ]
        },
        {
            "positions": [
                -0.9750657371527088,
                -0.7963995487957822,
                -0.20356756692533762,
                0.43752779174211964,
                0.07319698861245949,
                -1.6441068912691865
            ]
        },
        {
            "positions": [
                -0.9670767690574867,
                -0.8410069389510245,
                -0.12743543826589554,
                0.2874899924124428,
                0.16451924984120936,
                -1.6230741722854511
            ]
        },
        {
            "positions": [
                -0.9590878009622646,
                -0.8856143291062669,
                -0.05130330960645324,
                0.13745219308276502,
                0.25584151106995967,
                -1.6020414533017155
            ]
        },
        {
            "positions": [
                -0.9510988328670426,
                -0.9302217192615092,
                0.024828819052988838,
                -0.012585606246911851,
                0.34716377229870954,
                -1.58100873431798
            ]
        },
        {
            "positions": [
                -0.9431098647718205,
                -0.9748291094167516,
                0.10096094771243114,
                -0.16262340557658872,
                0.43848603352745963,
                -1.5599760153342443
            ]
        },
        {
            "positions": [
                -0.9351208966765983,
                -1.019436499571994,
                0.17709307637187321,
                -0.31266120490626603,
                0.5298082947562093,
                -1.538943296350509
            ]
        },
        {
            "positions": [
                -0.9271319285813762,
                -1.0640438897272364,
                0.2532252050313155,
                -0.46269900423594335,
                0.6211305559849598,
                -1.5179105773667734
            ]
        },
        {
            "positions": [
                -0.9191429604861541,
                -1.1086512798824786,
                0.3293573336907578,
                -0.6127368035656207,
                0.7124528172137095,
                -1.496877858383038
            ]
        },
        {
            "positions": [
                -0.911153992390932,
                -1.153258670037721,
                0.4054894623502,
                -0.7627746028952975,
                0.8037750784424595,
                -1.4758451393993024
            ]
        },
        {
            "positions": [
                -0.8316656070831321,
                -1.152392510613576,
                0.5262492926929373,
                -0.764302557968338,
                0.7525633914800002,
                -1.6072246604651885
            ]
        },
        {
            "positions": [
                -0.7521772217753322,
                -1.1515263511894307,
                0.6470091230356747,
                -0.7658305130413786,
                0.7013517045175408,
                -1.7386041815310747
            ]
        },
        {
            "positions": [
                -0.6726888364675324,
                -1.1506601917652857,
                0.767768953378412,
                -0.7673584681144191,
                0.6501400175550814,
                -1.8699837025969608
            ]
        },
        {
            "positions": [
                -0.5932004511597325,
                -1.1497940323411404,
                0.8885287837211493,
                -0.7688864231874597,
                0.5989283305926221,
                -2.001363223662847
            ]
        },
        {
            "positions": [
                -0.5137120658519327,
                -1.1489278729169954,
                1.0092886140638866,
                -0.7704143782605002,
                0.5477166436301627,
                -2.1327427447287333
            ]
        },
        {
            "positions": [
                -0.4342236805441328,
                -1.1480617134928501,
                1.1300484444066239,
                -0.7719423333335407,
                0.49650495666770333,
                -2.264122265794619
            ]
        },
        {
            "positions": [
                -0.35473529523633296,
                -1.147195554068705,
                1.2508082747493612,
                -0.7734702884065813,
                0.44529326970524397,
                -2.3955017868605055
            ]
        },
        {
            "positions": [
                -0.27524690992853307,
                -1.1463293946445599,
                1.3715681050920987,
                -0.7749982434796218,
                0.3940815827427846,
                -2.5268813079263914
            ]
        },
        {
            "positions": [
                -0.1957585246207333,
                -1.1454632352204148,
                1.4923279354348358,
                -0.7765261985526623,
                0.34286989578032523,
                -2.658260828992278
            ]
        },
        {
            "positions": [
                -0.1162701393129334,
                -1.1445970757962696,
                1.6130877657775735,
                -0.7780541536257028,
                0.29165820881786586,
                -2.789640350058164
            ]
        },
        {
            "positions": [
                -0.036781754005133505,
                -1.1437309163721245,
                1.7338475961203108,
                -0.7795821086987433,
                0.2404465218554065,
                -2.92101987112405
            ]
        },
        {
            "positions": [
                0.04270663130266639,
                -1.1428647569479793,
                1.854607426463048,
                -0.7811100637717839,
                0.18923483489294712,
                -3.052399392189936
            ]
        },
        {
            "positions": [
                0.12219501661046617,
                -1.1419985975238343,
                1.9753672568057854,
                -0.7826380188448244,
                0.13802314793048778,
                -3.1837789132558223
            ]
        }
    ]
}