{
    "goal": {
        "global_pose": {
            "orientation": {
                "w": -0.4816463035849501,
                "x": 0.5182115481033762,
                "y": 0.4908360881923453,
                "z": -0.5084816262002911
            },
            "position": {
                "x": -0.8240239810943604,
                "y": -0.300875300988555,
                "z": 0.16403168439865112
            }
        },
        "name": "move_to_storage_C"
    },
    "id": "ProjEST_move_to_storage_C_134",
    "joint_names": [
        "shoulder_pan_joint",
        "shoulder_lift_joint",
        "elbow_joint",
        "wrist_1_joint",
        "wrist_2_joint",
        "wrist_3_joint"
    ],
    "metrics": {
        "cart_traj_len": 0.5772630989645677,
        "distance_elbow_joint": 0.257349205732355,
        "distance_shoulder_lift_joint": 0.18935115663305024,
        "distance_shoulder_pan_joint": 0.49599557738149436,
        "distance_wrist_1_joint": 0.07101187783384888,
        "distance_wrist_2_joint": 1.0594616391050304,
        "distance_wrist_3_joint": 0.07006851639812695,
        "smoothness": 5.075305295617109e-16,
        "time": 0.022985955,
        "traj_len": 1.4639801819300375,
        "weighted_distance": 1.847660283390602
    },
    "planner": "ProjEST",
    "start": {
        "state": {
            "elbow_joint": 2.0108683149792914,
            "shoulder_lift_joint": -1.1634956873317392,
            "shoulder_pan_joint": -2.4736205022346,
            "wrist_1_joint": -0.8367026793690192,
            "wrist_2_joint": 0.6746043897045053,
            "wrist_3_joint": 3.133522094754363
        }
    },
    "waypoints": [
        {
            "positions": [
                -2.4736205022346,
                -1.1634956873317392,
                2.0108683149792914,
                -0.8367026793690192,
                0.6746043897045053,
                3.133522094754363
            ]
        },
        {
            "positions": [
                -2.5562864317981826,
                -1.1319371612262308,
                1.9679767806905657,
                -0.8248673663967111,
                0.8511813295553436,
                3.1452001808207175
            ]
        },
        {
            "positions": [
                -2.6389523613617647,
                -1.1003786351207225,
                1.9250852464018398,
                -0.8130320534244029,
                1.0277582694061822,
                3.1568782668870723
            ]
        },
        {
            "positions": [
                -2.7216182909253472,
                -1.068820109015214,
                1.8821937121131138,
                -0.8011967404520948,
                1.2043352092570205,
                3.1685563529534266
            ]
        },
        {
            "positions": [
                -2.80428422048893,
                -1.0372615829097058,
                1.839302177824388,
                -0.7893614274797867,
                1.3809121491078589,
                3.180234439019781
            ]
        },
        {
            "positions": [
                -2.886950150052512,
                -1.0057030568041974,
                1.7964106435356624,
                -0.7775261145074784,
                1.5574890889586974,
                3.1919125250861358
            ]
        },
        {
            "positions": [
                -2.9696160796160944,
                -0.974144530698689,
                1.7535191092469364,
                -0.7656908015351703,
                1.7340660288095358,
                3.20359061115249
            ]
        }
    ]
}