{
    "goal": {
        "global_pose": {
            "orientation": {
                "w": 0.7047431468963623,
                "x": -0.7094548344612122,
                "y": 0.0024358443915843964,
                "z": -0.0022348060738295317
            },
            "position": {
                "x": 0.6094750761985779,
                "y": 0.3671506643295288,
                "z": 0.19426114857196808
            }
        },
        "name": "move_to_magneteinheit_A"
    },
    "id": "ProjEST_move_to_magneteinheit_A_67",
    "joint_names": [
        "shoulder_pan_joint",
        "shoulder_lift_joint",
        "elbow_joint",
        "wrist_1_joint",
        "wrist_2_joint",
        "wrist_3_joint"
    ],
    "metrics": {
        "cart_traj_len": 1.5911549539062966,
        "distance_elbow_joint": 3.562596833078645,
        "distance_shoulder_lift_joint": 1.1557728970867676,
        "distance_shoulder_pan_joint": 1.2405484470496517,
        "distance_wrist_1_joint": 4.0033911352865275,
        "distance_wrist_2_joint": 1.6921911221941544,
        "distance_wrist_3_joint": 1.1016455718698484,
        "smoothness": 4.440892111560272e-16,
        "time": 0.504174955,
        "traj_len": 3.571574723643003,
        "weighted_distance": 4.544779357437055
    },
    "planner": "ProjEST",
    "start": {
        "state": {
            "elbow_joint": -1.5739458827952972,
            "shoulder_lift_joint": 0.006533473998580023,
            "shoulder_pan_joint": -1.1188671628667068,
            "wrist_1_joint": 3.138208179676308,
            "wrist_2_joint": -1.5706037135050406,
            "wrist_3_joint": -2.0226958329764257
        }
    },
    "waypoints": [
        {
            "positions": [
                -1.1188671628667068,
                0.006533473998580023,
                -1.5739458827952972,
                3.138208179676308,
                -1.5706037135050406,
                -2.0226958329764257
            ]
        },
        {
            "positions": [
                -1.081274785683384,
                -0.028489947125261428,
                -1.4659884030050352,
                3.0168932967888376,
                -1.5193251946506723,
                -2.056079032123997
            ]
        },
        {
            "positions": [
                -1.0436824085000613,
                -0.06351336824910288,
                -1.3580309232147734,
                2.895578413901367,
                -1.468046675796304,
                -2.0894622312715683
            ]
        },
        {
            "positions": [
                -1.0060900313167385,
                -0.09853678937294433,
                -1.2500734434245113,
                2.7742635310138963,
                -1.4167681569419357,
                -2.1228454304191393
            ]
        },
        {
            "positions": [
                -0.9684976541334157,
                -0.13356021049678576,
                -1.1421159636342493,
                2.652948648126426,
                -1.3654896380875674,
                -2.1562286295667104
            ]
        },
        {
            "positions": [
                -0.930905276950093,
                -0.1685836316206272,
                -1.0341584838439875,
                2.5316337652389556,
                -1.314211119233199,
                -2.1896118287142814
            ]
        },
        {
            "positions": [
                -0.8933128997667702,
                -0.20360705274446866,
                -0.9262010040537254,
                2.410318882351485,
                -1.2629326003788308,
                -2.222995027861853
            ]
        },
        {
            "positions": [
                -0.8557205225834474,
                -0.2386304738683101,
                -0.8182435242634635,
                2.2890039994640143,
                -1.2116540815244623,
                -2.256378227009424
            ]
        },
        {
            "positions": [
                -0.8181281454001246,
                -0.2736538949921516,
                -0.7102860444732015,
                2.167689116576544,
                -1.160375562670094,
                -2.289761426156995
            ]
        },
        {
            "positions": [
                -0.7805357682168019,
                -0.308677316115993,
                -0.6023285646829396,
                2.0463742336890736,
                -1.1090970438157257,
                -2.323144625304566
            ]
        },
        {
            "positions": [
                -0.7429433910334791,
                -0.34370073723983446,
                -0.49437108489267767,
                1.9250593508016027,
                -1.0578185249613574,
                -2.3565278244521375
            ]
        },
        {
            "positions": [
                -0.7053510138501563,
                -0.3787241583636759,
                -0.3864136051024156,
                1.8037444679141323,
                -1.0065400061069891,
                -2.3899110235997085
            ]
        },
        {
            "positions": [
                -0.6677586366668335,
                -0.4137475794875174,
                -0.2784561253121536,
                1.6824295850266617,
                -0.9552614872526208,
                -2.4232942227472796
            ]
        },
        {
            "positions": [
                -0.6301662594835107,
                -0.4487710006113588,
                -0.17049864552189176,
                1.5611147021391913,
                -0.9039829683982525,
                -2.4566774218948506
            ]
        },
        {
            "positions": [
                -0.5925738823001879,
                -0.48379442173520026,
                -0.06254116573162971,
                1.4397998192517207,
                -0.8527044495438841,
                -2.490060621042422
            ]
        },
        {
            "positions": [
                -0.5549815051168652,
                -0.5188178428590416,
                0.04541631405863211,
                1.3184849363642503,
                -0.801425930689516,
                -2.523443820189993
            ]
        },
        {
            "positions": [
                -0.5173891279335423,
                -0.5538412639828831,
                0.15337379384889416,
                1.1971700534767797,
                -0.7501474118351475,
                -2.5568270193375646
            ]
        },
        {
            "positions": [
                -0.47979675075021966,
                -0.5888646851067245,
                0.2613312736391562,
                1.0758551705893091,
                -0.6988688929807793,
                -2.5902102184851357
            ]
        },
        {
            "positions": [
                -0.4422043735668969,
                -0.6238881062305659,
                0.369288753429418,
                0.954540287701839,
                -0.647590374126411,
                -2.6235934176327067
            ]
        },
        {
            "positions": [
                -0.4046119963835739,
                -0.6589115273544075,
                0.4772462332196803,
                0.8332254048143679,
                -0.5963118552720426,
                -2.6569766167802777
            ]
        },
        {
            "positions": [
                -0.3670196192002513,
                -0.6939349484782489,
                0.5852037130099419,
                0.7119105219268973,
                -0.5450333364176743,
                -2.690359815927849
            ]
        },
        {
            "positions": [
                -0.3294272420169285,
                -0.7289583696020904,
                0.6931611928002039,
                0.5905956390394271,
                -0.49375481756330597,
                -2.7237430150754203
            ]
        },
        {
            "positions": [
                -0.29183486483360577,
                -0.7639817907259318,
                0.801118672590466,
                0.4692807561519565,
                -0.4424762987089377,
                -2.7571262142229913
            ]
        },
        {
            "positions": [
                -0.2542424876502829,
                -0.7990052118497732,
                0.909076152380728,
                0.3479658732644859,
                -0.3911977798545694,
                -2.790509413370563
            ]
        },
        {
            "positions": [
                -0.21665011046696014,
                -0.8340286329736147,
                1.01703363217099,
                0.2266509903770153,
                -0.3399192610002011,
                -2.823892612518134
            ]
        },
        {
            "positions": [
                -0.1790577332836374,
                -0.8690520540974561,
                1.1249911119612517,
                0.10533610748954514,
                -0.2886407421458328,
                -2.857275811665705
            ]
        },
        {
            "positions": [
                -0.14146535610031463,
                -0.9040754752212975,
                1.2329485917515137,
                -0.01597877539792547,
                -0.2373622232914645,
                -2.890659010813276
            ]
        },
        {
            "positions": [
                -0.10387297891699165,
                -0.9390988963451391,
                1.3409060715417758,
                -0.13729365828539652,
                -0.186083704437096,
                -2.924042209960847
            ]
        },
        {
            "positions": [
                -0.06628060173366901,
                -0.9741223174689805,
                1.4488635513320378,
                -0.2586085411728667,
                -0.1348051855827277,
                -2.9574254091084184
            ]
        },
        {
            "positions": [
                -0.028688224550346142,
                -1.009145738592822,
                1.5568210311222999,
                -0.3799234240603373,
                -0.0835266667283594,
                -2.9908086082559895
            ]
        },
        {
            "positions": [
                0.008904152632976503,
                -1.0441691597166634,
                1.6647785109125615,
                -0.5012383069478075,
                -0.03224814787399133,
                -3.0241918074035605
            ]
        },
        {
            "positions": [
                0.04649652981629937,
                -1.079192580840505,
                1.772735990702824,
                -0.6225531898352785,
                0.019030370980377187,
                -3.057575006551132
            ]
        },
        {
            "positions": [
                0.08408890699962224,
                -1.1142160019643463,
                1.8806934704930856,
                -0.7438680727227487,
                0.07030888983474548,
                -3.090958205698703
            ]
        },
        {
            "positions": [
                0.12168128418294498,
                -1.1492394230881877,
                1.9886509502833476,
                -0.8651829556102195,
                0.12158740868911372,
                -3.124341404846274
            ]
        }
    ]
}