{
    "goal": {
        "global_pose": {
            "orientation": {
                "w": 0.7031023480610252,
                "x": -0.7110244013736278,
                "y": 0.0077485991402295624,
                "z": 0.005598929693374583
            },
            "position": {
                "x": -0.8841497679147869,
                "y": 0.44412534475326537,
                "z": 0.3711530566215515
            }
        },
        "name": "move_to_auspresseinheit_D"
    },
    "id": "ProjEST_move_to_auspresseinheit_D_111",
    "joint_names": [
        "shoulder_pan_joint",
        "shoulder_lift_joint",
        "elbow_joint",
        "wrist_1_joint",
        "wrist_2_joint",
        "wrist_3_joint"
    ],
    "metrics": {
        "cart_traj_len": 0.3427140801515193,
        "distance_elbow_joint": 0.6355546176836426,
        "distance_shoulder_lift_joint": 0.12093129900880051,
        "distance_shoulder_pan_joint": 0.13379952570648157,
        "distance_wrist_1_joint": 0.5084079642045305,
        "distance_wrist_2_joint": 1.4498005042726503,
        "distance_wrist_3_joint": 0.02066756974044548,
        "smoothness": 1.1842378856733607e-15,
        "time": 0.062260481000000006,
        "traj_len": 1.6938599353596362,
        "weighted_distance": 2.206514239377263
    },
    "planner": "ProjEST",
    "start": {
        "state": {
            "elbow_joint": -1.8275484843655228,
            "shoulder_lift_joint": -2.1267897864000416,
            "shoulder_pan_joint": -0.035127520176001514,
            "wrist_1_joint": -2.3477863256791385,
            "wrist_2_joint": -1.605890476484521,
            "wrist_3_joint": -3.0880375317375353
        }
    },
    "waypoints": [
        {
            "positions": [
                -0.035127520176001514,
                -2.1267897864000416,
                -1.8275484843655228,
                -2.3477863256791385,
                -1.605890476484521,
                -3.0880375317375353
            ]
        },
        {
            "positions": [
                -0.05185246088931171,
                -2.141906198776142,
                -1.7481041571550675,
                -2.4113373212047047,
                -1.4246654134504397,
                -3.090620977955091
            ]
        },
        {
            "positions": [
                -0.0685774016026219,
                -2.1570226111522417,
                -1.668659829944612,
                -2.4748883167302713,
                -1.2434403504163585,
                -3.0932044241726464
            ]
        },
        {
            "positions": [
                -0.0853023423159321,
                -2.1721390235283415,
                -1.5892155027341568,
                -2.5384393122558375,
                -1.0622152873822772,
                -3.095787870390202
            ]
        },
        {
            "positions": [
                -0.1020272830292423,
                -2.187255435904442,
                -1.5097711755237015,
                -2.6019903077814037,
                -0.8809902243481958,
                -3.098371316607758
            ]
        },
        {
            "positions": [
                -0.1187522237425525,
                -2.202371848280542,
                -1.430326848313246,
                -2.66554130330697,
                -0.6997651613141146,
                -3.100954762825314
            ]
        },
        {
            "positions": [
                -0.1354771644558627,
                -2.217488260656642,
                -1.3508825211027908,
                -2.729092298832536,
                -0.5185400982800332,
                -3.1035382090428696
            ]
        },
        {
            "positions": [
                -0.15220210516917287,
                -2.232604673032742,
                -1.2714381938923354,
                -2.7926432943581028,
                -0.33731503524595197,
                -3.106121655260425
            ]
        },
        {
            "positions": [
                -0.16892704588248308,
                -2.247721085408842,
                -1.1919938666818801,
                -2.856194289883669,
                -0.15608997221187076,
                -3.1087051014779807
            ]
        }
    ]
}