{
    "goal": {
        "global_pose": {
            "orientation": {
                "w": -0.00223480608172531,
                "x": 0.0024358444001904467,
                "y": 0.7094548369677653,
                "z": -0.704743149386269
            },
            "position": {
                "x": -0.37947507619857795,
                "y": -0.6371506643295288,
                "z": 0.19426114857196808
            }
        },
        "name": "move_to_magneteinheit_C"
    },
    "id": "ProjEST_move_to_magneteinheit_C_87",
    "joint_names": [
        "shoulder_pan_joint",
        "shoulder_lift_joint",
        "elbow_joint",
        "wrist_1_joint",
        "wrist_2_joint",
        "wrist_3_joint"
    ],
    "metrics": {
        "cart_traj_len": 2.04096224350797,
        "distance_elbow_joint": 1.8819916126529541,
        "distance_shoulder_lift_joint": 0.9246902796708305,
        "distance_shoulder_pan_joint": 2.262732343921576,
        "distance_wrist_1_joint": 1.988170446925655,
        "distance_wrist_2_joint": 3.80102224064614,
        "distance_wrist_3_joint": 11.586171537503379,
        "smoothness": 0.6856612813646028,
        "time": 0.18369328299999998,
        "traj_len": 4.7375920530709,
        "weighted_distance": 7.169819678618085
    },
    "planner": "ProjEST",
    "start": {
        "state": {
            "elbow_joint": 1.9565354006593851,
            "shoulder_lift_joint": -1.4165861576512813,
            "shoulder_pan_joint": -1.6717766223278752,
            "wrist_1_joint": -0.528663328821883,
            "wrist_2_joint": 1.472756589259273,
            "wrist_3_joint": 3.159348288315503
        }
    },
    "waypoints": [
        {
            "positions": [
                -1.6717766223278752,
                -1.4165861576512813,
                1.9565354006593851,
                -0.528663328821883,
                1.472756589259273,
                3.159348288315503
            ]
        },
        {
            "positions": [
                -1.7572266465918305,
                -1.4461042506149195,
                2.00701776191344,
                -0.5666736160510715,
                1.3380517689073619,
                3.1059527719174116
            ]
        },
        {
            "positions": [
                -1.842676670855786,
                -1.4756223435785576,
                2.057500123167495,
                -0.6046839032802599,
                1.2033469485554509,
                3.05255725551932
            ]
        },
        {
            "positions": [
                -1.9281266951197413,
                -1.5051404365421959,
                2.10798248442155,
                -0.6426941905094483,
                1.0686421282035397,
                2.9991617391212286
            ]
        },
        {
            "positions": [
                -2.0135767193836966,
                -1.5346585295058341,
                2.1584648456756046,
                -0.6807044777386368,
                0.9339373078516284,
                2.9457662227231376
            ]
        },
        {
            "positions": [
                -2.099026743647652,
                -1.5641766224694722,
                2.2089472069296594,
                -0.7187147649678252,
                0.7992324874997172,
                2.892370706325046
            ]
        },
        {
            "positions": [
                -2.1844767679116073,
                -1.5936947154331105,
                2.259429568183714,
                -0.7567250521970137,
                0.6645276671478061,
                2.8389751899269546
            ]
        },
        {
            "positions": [
                -2.269926792175563,
                -1.6232128083967485,
                2.309911929437769,
                -0.7947353394262021,
                0.529822846795895,
                2.785579673528863
            ]
        },
        {
            "positions": [
                -2.3553768164395184,
                -1.6527309013603868,
                2.360394290691824,
                -0.8327456266553905,
                0.39511802644398364,
                2.7321841571307717
            ]
        },
        {
            "positions": [
                -2.389303348250377,
                -1.6291824004444313,
                2.323812155817054,
                -0.8664165645159042,
                0.34623129106730616,
                2.5168374478233106
            ]
        },
        {
            "positions": [
                -2.4232298800612355,
                -1.6056338995284758,
                2.287230020942285,
                -0.9000875023764178,
                0.2973445556906287,
                2.301490738515849
            ]
        },
        {
            "positions": [
                -2.457156411872094,
                -1.5820853986125203,
                2.250647886067515,
                -0.9337584402369314,
                0.24845782031395122,
                2.0861440292083877
            ]
        },
        {
            "positions": [
                -2.4910829436829527,
                -1.5585368976965648,
                2.214065751192746,
                -0.967429378097445,
                0.19957108493727374,
                1.8707973199009267
            ]
        },
        {
            "positions": [
                -2.5250094754938113,
                -1.5349883967806093,
                2.1774836163179763,
                -1.0011003159579588,
                0.15068434956059626,
                1.6554506105934654
            ]
        },
        {
            "positions": [
                -2.55893600730467,
                -1.5114398958646538,
                2.140901481443207,
                -1.0347712538184723,
                0.1017976141839188,
                1.4401039012860042
            ]
        },
        {
            "positions": [
                -2.5928625391155284,
                -1.4878913949486983,
                2.1043193465684373,
                -1.068442191678986,
                0.05291087880724127,
                1.224757191978543
            ]
        },
        {
            "positions": [
                -2.626789070926387,
                -1.4643428940327428,
                2.067737211693668,
                -1.1021131295394997,
                0.004024143430563842,
                1.0094104826710817
            ]
        },
        {
            "positions": [
                -2.6607156027372456,
                -1.4407943931167873,
                2.0311550768188984,
                -1.1357840674000133,
                -0.04486259194611364,
                0.7940637733636207
            ]
        },
        {
            "positions": [
                -2.694642134548104,
                -1.4172458922008317,
                1.994572941944129,
                -1.1694550052605268,
                -0.09374932732279112,
                0.5787170640561592
            ]
        },
        {
            "positions": [
                -2.728568666358963,
                -1.393697391284876,
                1.9579908070693595,
                -1.2031259431210404,
                -0.1426360626994686,
                0.36337035474869817
            ]
        },
        {
            "positions": [
                -2.7624951981698214,
                -1.3701488903689207,
                1.92140867219459,
                -1.2367968809815542,
                -0.19152279807614603,
                0.1480236454412367
            ]
        },
        {
            "positions": [
                -2.79642172998068,
                -1.346600389452965,
                1.8848265373198203,
                -1.2704678188420677,
                -0.24040953345282357,
                -0.06732306386622433
            ]
        },
        {
            "positions": [
                -2.8303482617915385,
                -1.3230518885370095,
                1.8482444024450508,
                -1.3041387567025815,
                -0.2892962688295011,
                -0.2826697731736858
            ]
        },
        {
            "positions": [
                -2.864274793602397,
                -1.299503387621054,
                1.8116622675702816,
                -1.337809694563095,
                -0.3381830042061784,
                -0.4980164824811468
            ]
        },
        {
            "positions": [
                -2.8982013254132557,
                -1.2759548867050985,
                1.775080132695512,
                -1.3714806324236086,
                -0.38706973958285595,
                -0.7133631917886083
            ]
        },
        {
            "positions": [
                -2.9321278572241143,
                -1.252406385789143,
                1.7384979978207424,
                -1.4051515702841222,
                -0.4359564749595335,
                -0.9287099010960698
            ]
        },
        {
            "positions": [
                -2.966054389034973,
                -1.2288578848731875,
                1.701915862945973,
                -1.4388225081446357,
                -0.4848432103362109,
                -1.1440566104035303
            ]
        },
        {
            "positions": [
                -2.9999809208458315,
                -1.205309383957232,
                1.6653337280712033,
                -1.4724934460051495,
                -0.5337299457128883,
                -1.3594033197109923
            ]
        },
        {
            "positions": [
                -3.03390745265669,
                -1.1817608830412765,
                1.628751593196434,
                -1.5061643838656633,
                -0.5826166810895659,
                -1.5747500290184533
            ]
        },
        {
            "positions": [
                -3.0678339844675486,
                -1.158212382125321,
                1.5921694583216643,
                -1.5398353217261769,
                -0.6315034164662433,
                -1.7900967383259143
            ]
        },
        {
            "positions": [
                -3.101760516278407,
                -1.1346638812093655,
                1.555587323446895,
                -1.5735062595866904,
                -0.6803901518429208,
                -2.0054434476333753
            ]
        },
        {
            "positions": [
                -3.135687048089266,
                -1.11111538029341,
                1.5190051885721254,
                -1.607177197447204,
                -0.7292768872195984,
                -2.2207901569408373
            ]
        },
        {
            "positions": [
                -3.1696135799001244,
                -1.0875668793774544,
                1.4824230536973562,
                -1.6408481353077176,
                -0.7781636225962757,
                -2.4361368662482983
            ]
        },
        {
            "positions": [
                -3.203540111710983,
                -1.064018378461499,
                1.4458409188225865,
                -1.6745190731682313,
                -0.8270503579729533,
                -2.6514835755557598
            ]
        },
        {
            "positions": [
                -3.174301357529444,
                -1.0680116989840125,
                1.4683840928526375,
                -1.6408264850650591,
                -0.7670017462363969,
                -2.4204699886104746
            ]
        },
        {
            "positions": [
                -3.1450626033479057,
                -1.0720050195065258,
                1.4909272668826887,
                -1.6071338969618867,
                -0.7069531344998404,
                -2.18945640166519
            ]
        },
        {
            "positions": [
                -3.115823849166367,
                -1.0759983400290394,
                1.5134704409127397,
                -1.5734413088587145,
                -0.646904522763284,
                -1.9584428147199047
            ]
        },
        {
            "positions": [
                -3.086585094984828,
                -1.079991660551553,
                1.536013614942791,
                -1.5397487207555423,
                -0.5868559110267275,
                -1.7274292277746197
            ]
        },
        {
            "positions": [
                -3.0573463408032895,
                -1.0839849810740663,
                1.558556788972842,
                -1.50605613265237,
                -0.5268072992901711,
                -1.4964156408293348
            ]
        },
        {
            "positions": [
                -3.0281075866217506,
                -1.0879783015965798,
                1.5810999630028932,
                -1.4723635445491978,
                -0.46675868755361466,
                -1.2654020538840498
            ]
        },
        {
            "positions": [
                -2.9988688324402117,
                -1.0919716221190934,
                1.6036431370329443,
                -1.4386709564460254,
                -0.4067100758170582,
                -1.0343884669387646
            ]
        },
        {
            "positions": [
                -2.9696300782586733,
                -1.0959649426416067,
                1.6261863110629955,
                -1.4049783683428532,
                -0.34666146408050175,
                -0.8033748799934797
            ]
        },
        {
            "positions": [
                -2.9403913240771344,
                -1.0999582631641203,
                1.6487294850930465,
                -1.371285780239681,
                -0.2866128523439454,
                -0.5723612930481949
            ]
        },
        {
            "positions": [
                -2.911152569895596,
                -1.1039515836866338,
                1.6712726591230977,
                -1.3375931921365085,
                -0.2265642406073889,
                -0.34134770610290976
            ]
        },
        {
            "positions": [
                -2.881913815714057,
                -1.1079449042091472,
                1.6938158331531488,
                -1.3039006040333363,
                -0.1665156288708325,
                -0.11033411915762459
            ]
        },
        {
            "positions": [
                -2.8526750615325183,
                -1.1119382247316607,
                1.7163590071832,
                -1.270208015930164,
                -0.10646701713427598,
                0.12067946778766014
            ]
        },
        {
            "positions": [
                -2.82343630735098,
                -1.1159315452541743,
                1.738902181213251,
                -1.2365154278269919,
                -0.046418405397719575,
                0.3516930547329453
            ]
        },
        {
            "positions": [
                -2.794197553169441,
                -1.1199248657766878,
                1.7614453552433023,
                -1.2028228397238194,
                0.013630206338836937,
                0.5827066416782305
            ]
        },
        {
            "positions": [
                -2.764958798987902,
                -1.1239181862992011,
                1.7839885292733533,
                -1.1691302516206472,
                0.07367881807539334,
                0.8137202286235152
            ]
        },
        {
            "positions": [
                -2.7357200448063637,
                -1.1279115068217147,
                1.8065317033034045,
                -1.135437663517475,
                0.13372742981194985,
                1.0447338155688004
            ]
        },
        {
            "positions": [
                -2.706481290624825,
                -1.1319048273442283,
                1.8290748773334555,
                -1.1017450754143026,
                0.19377604154850636,
                1.2757474025140856
            ]
        },
        {
            "positions": [
                -2.677242536443286,
                -1.1358981478667416,
                1.8516180513635065,
                -1.0680524873111303,
                0.25382465328506254,
                1.5067609894593699
            ]
        },
        {
            "positions": [
                -2.6480037822617475,
                -1.1398914683892551,
                1.8741612253935578,
                -1.0343598992079581,
                0.31387326502161916,
                1.737774576404655
            ]
        },
        {
            "positions": [
                -2.6187650280802086,
                -1.1438847889117687,
                1.896704399423609,
                -1.000667311104786,
                0.37392187675817556,
                1.9687881633499402
            ]
        },
        {
            "positions": [
                -2.58952627389867,
                -1.147878109434282,
                1.91924757345366,
                -0.9669747230016136,
                0.43397048849473197,
                2.1998017502952254
            ]
        },
        {
            "positions": [
                -2.5602875197171313,
                -1.1518714299567956,
                1.941790747483711,
                -0.9332821348984414,
                0.49401910023128837,
                2.4308153372405106
            ]
        },
        {
            "positions": [
                -2.5310487655355924,
                -1.1558647504793091,
                1.9643339215137623,
                -0.899589546795269,
                0.554067711967845,
                2.6618289241857958
            ]
        },
        {
            "positions": [
                -2.501810011354054,
                -1.1598580710018225,
                1.9868770955438135,
                -0.8658969586920968,
                0.6141163237044014,
                2.89284251113108
            ]
        },
        {
            "positions": [
                -2.472571257172515,
                -1.163851391524336,
                2.0094202695738645,
                -0.8322043705889245,
                0.6741649354409578,
                3.123856098076365
            ]
        }
    ]
}