{
    "goal": {
        "global_pose": {
            "orientation": {
                "w": 0.7047431468963623,
                "x": -0.7094548344612122,
                "y": 0.0024358443915843964,
                "z": -0.0022348060738295317
            },
            "position": {
                "x": 0.6094750761985779,
                "y": 0.3671506643295288,
                "z": 0.19426114857196808
            }
        },
        "name": "move_to_magneteinheit_A"
    },
    "id": "ProjEST_move_to_magneteinheit_A_40",
    "joint_names": [
        "shoulder_pan_joint",
        "shoulder_lift_joint",
        "elbow_joint",
        "wrist_1_joint",
        "wrist_2_joint",
        "wrist_3_joint"
    ],
    "metrics": {
        "cart_traj_len": 1.8426863953119013,
        "distance_elbow_joint": 3.540912506707964,
        "distance_shoulder_lift_joint": 1.1833344688203578,
        "distance_shoulder_pan_joint": 1.7698984183596658,
        "distance_wrist_1_joint": 3.899415510026149,
        "distance_wrist_2_joint": 1.7054831570975955,
        "distance_wrist_3_joint": 2.929076020125048,
        "smoothness": 0.14489756333892786,
        "time": 0.22325281200000002,
        "traj_len": 3.8766119332655395,
        "weighted_distance": 5.146957430221336
    },
    "planner": "ProjEST",
    "start": {
        "state": {
            "elbow_joint": -1.5739458827952972,
            "shoulder_lift_joint": 0.006533473998580023,
            "shoulder_pan_joint": -1.1188671628667068,
            "wrist_1_joint": 3.138208179676308,
            "wrist_2_joint": -1.5706037135050406,
            "wrist_3_joint": -2.0226958329764257
        }
    },
    "waypoints": [
        {
            "positions": [
                -1.1188671628667068,
                0.006533473998580023,
                -1.5739458827952972,
                3.138208179676308,
                -1.5706037135050406,
                -2.0226958329764257
            ]
        },
        {
            "positions": [
                -1.1343855788614758,
                -0.06191879318454428,
                -1.4710103373354892,
                3.040798083716606,
                -1.5129394541622838,
                -1.9712604060933563
            ]
        },
        {
            "positions": [
                -1.149903994856245,
                -0.13037106036766857,
                -1.3680747918756815,
                2.9433879877569047,
                -1.455275194819527,
                -1.9198249792102868
            ]
        },
        {
            "positions": [
                -1.165422410851014,
                -0.19882332755079288,
                -1.2651392464158735,
                2.8459778917972027,
                -1.3976109354767705,
                -1.8683895523272172
            ]
        },
        {
            "positions": [
                -1.1809408268457833,
                -0.2672755947339172,
                -1.1622037009560657,
                2.7485677958375008,
                -1.3399466761340137,
                -1.8169541254441477
            ]
        },
        {
            "positions": [
                -1.1964592428405523,
                -0.3357278619170415,
                -1.0592681554962577,
                2.6511576998777993,
                -1.282282416791257,
                -1.7655186985610782
            ]
        },
        {
            "positions": [
                -1.2119776588353215,
                -0.4041801291001658,
                -0.9563326100364499,
                2.5537476039180973,
                -1.2246181574485002,
                -1.7140832716780088
            ]
        },
        {
            "positions": [
                -1.2274960748300905,
                -0.47263239628329007,
                -0.853397064576642,
                2.456337507958396,
                -1.1669538981057437,
                -1.6626478447949393
            ]
        },
        {
            "positions": [
                -1.2430144908248597,
                -0.5410846634664144,
                -0.7504615191168341,
                2.358927411998694,
                -1.109289638762987,
                -1.6112124179118696
            ]
        },
        {
            "positions": [
                -1.2585329068196287,
                -0.6095369306495386,
                -0.6475259736570261,
                2.261517316038992,
                -1.0516253794202302,
                -1.5597769910288002
            ]
        },
        {
            "positions": [
                -1.274051322814398,
                -0.677989197832663,
                -0.5445904281972183,
                2.1641072200792904,
                -0.9939611200774735,
                -1.5083415641457307
            ]
        },
        {
            "positions": [
                -1.289569738809167,
                -0.7464414650157873,
                -0.44165488273741027,
                2.0666971241195884,
                -0.9362968607347167,
                -1.4569061372626613
            ]
        },
        {
            "positions": [
                -1.3050881548039361,
                -0.8148937321989116,
                -0.3387193372776025,
                1.9692870281598864,
                -0.87863260139196,
                -1.4054707103795918
            ]
        },
        {
            "positions": [
                -1.3206065707987051,
                -0.8833459993820358,
                -0.23578379181779474,
                1.871876932200185,
                -0.8209683420492034,
                -1.3540352834965224
            ]
        },
        {
            "positions": [
                -1.3361249867934744,
                -0.9517982665651601,
                -0.13284824635798675,
                1.774466836240483,
                -0.7633040827064467,
                -1.302599856613453
            ]
        },
        {
            "positions": [
                -1.3516434027882434,
                -1.0202505337482843,
                -0.029912700898178768,
                1.6770567402807812,
                -0.7056398233636899,
                -1.2511644297303834
            ]
        },
        {
            "positions": [
                -1.3671618187830124,
                -1.0887028009314088,
                0.073022844561629,
                1.5796466443210793,
                -0.6479755640209333,
                -1.1997290028473138
            ]
        },
        {
            "positions": [
                -1.3826802347777816,
                -1.157155068114533,
                0.17595839002143707,
                1.4822365483613775,
                -0.5903113046781765,
                -1.1482935759642443
            ]
        },
        {
            "positions": [
                -1.3142218099392093,
                -1.1562620714460219,
                0.2573678551983111,
                1.3802618266017765,
                -0.5573480888476886,
                -1.24168783792392
            ]
        },
        {
            "positions": [
                -1.2457633851006369,
                -1.1553690747775107,
                0.3387773203751852,
                1.2782871048421756,
                -0.5243848730172008,
                -1.3350820998835957
            ]
        },
        {
            "positions": [
                -1.1773049602620647,
                -1.1544760781089998,
                0.42018678555205924,
                1.1763123830825748,
                -0.49142165718671293,
                -1.4284763618432716
            ]
        },
        {
            "positions": [
                -1.1088465354234922,
                -1.1535830814404886,
                0.5015962507289333,
                1.0743376613229738,
                -0.4584584413562251,
                -1.5218706238029474
            ]
        },
        {
            "positions": [
                -1.04038811058492,
                -1.1526900847719774,
                0.5830057159058074,
                0.9723629395633728,
                -0.42549522552573726,
                -1.615264885762623
            ]
        },
        {
            "positions": [
                -0.9719296857463476,
                -1.1517970881034663,
                0.6644151810826815,
                0.870388217803772,
                -0.3925320096952494,
                -1.7086591477222988
            ]
        },
        {
            "positions": [
                -0.9034712609077753,
                -1.1509040914349553,
                0.7458246462595556,
                0.768413496044171,
                -0.35956879386476154,
                -1.8020534096819745
            ]
        },
        {
            "positions": [
                -0.835012836069203,
                -1.1500110947664441,
                0.8272341114364297,
                0.66643877428457,
                -0.3266055780342737,
                -1.8954476716416502
            ]
        },
        {
            "positions": [
                -0.7665544112306305,
                -1.149118098097933,
                0.9086435766133039,
                0.564464052524969,
                -0.2936423622037858,
                -1.988841933601326
            ]
        },
        {
            "positions": [
                -0.6980959863920583,
                -1.1482251014294218,
                0.9900530417901778,
                0.46248933076536813,
                -0.260679146373298,
                -2.0822361955610016
            ]
        },
        {
            "positions": [
                -0.6296375615534859,
                -1.1473321047609106,
                1.0714625069670518,
                0.36051460900576715,
                -0.22771593054281014,
                -2.1756304575206773
            ]
        },
        {
            "positions": [
                -0.5611791367149137,
                -1.1464391080923997,
                1.1528719721439258,
                0.2585398872461664,
                -0.1947527147123223,
                -2.2690247194803534
            ]
        },
        {
            "positions": [
                -0.49272071187634126,
                -1.1455461114238885,
                1.2342814373208,
                0.15656516548656518,
                -0.16178949888183441,
                -2.362418981440029
            ]
        },
        {
            "positions": [
                -0.4242622870377689,
                -1.1446531147553773,
                1.315690902497674,
                0.05459044372696442,
                -0.12882628305134658,
                -2.455813243399705
            ]
        },
        {
            "positions": [
                -0.3558038621991968,
                -1.1437601180868662,
                1.397100367674548,
                -0.04738427803263656,
                -0.0958630672208588,
                -2.54920750535938
            ]
        },
        {
            "positions": [
                -0.28734543736062435,
                -1.1428671214183552,
                1.4785098328514221,
                -0.14935899979223755,
                -0.06289985139037091,
                -2.6426017673190563
            ]
        },
        {
            "positions": [
                -0.2188870125220519,
                -1.141974124749844,
                1.5599192980282963,
                -0.25133372155183853,
                -0.029936635559883018,
                -2.735996029278732
            ]
        },
        {
            "positions": [
                -0.15042858768347944,
                -1.1410811280813329,
                1.6413287632051705,
                -0.3533084433114395,
                0.0030265802706048728,
                -2.8293902912384077
            ]
        },
        {
            "positions": [
                -0.08197016284490721,
                -1.1401881314128217,
                1.7227382283820445,
                -0.4552831650710405,
                0.03598979610109265,
                -2.922784553198084
            ]
        },
        {
            "positions": [
                -0.013511738006334983,
                -1.1392951347443108,
                1.8041476935589185,
                -0.5572578868306413,
                0.06895301193158054,
                -3.016178815157759
            ]
        },
        {
            "positions": [
                0.05494668683223747,
                -1.1384021380757996,
                1.8855571587357927,
                -0.6592326085902425,
                0.10191622776206843,
                -3.1095730771174352
            ]
        },
        {
            "positions": [
                0.12340511167080971,
                -1.1375091414072884,
                1.9669666239126666,
                -0.7612073303498433,
                0.13487944359255627,
                -3.202967339077111
            ]
        }
    ]
}