{
    "goal": {
        "global_pose": {
            "orientation": {
                "w": 0.7031023480610252,
                "x": -0.7110244013736278,
                "y": 0.0077485991402295624,
                "z": 0.005598929693374583
            },
            "position": {
                "x": -0.8841497679147869,
                "y": 0.44412534475326537,
                "z": 0.3711530566215515
            }
        },
        "name": "move_to_auspresseinheit_D"
    },
    "id": "ProjEST_move_to_auspresseinheit_D_27",
    "joint_names": [
        "shoulder_pan_joint",
        "shoulder_lift_joint",
        "elbow_joint",
        "wrist_1_joint",
        "wrist_2_joint",
        "wrist_3_joint"
    ],
    "metrics": {
        "cart_traj_len": 0.34455371061741175,
        "distance_elbow_joint": 0.6594221211919116,
        "distance_shoulder_lift_joint": 0.13244553277682636,
        "distance_shoulder_pan_joint": 0.13392790697365806,
        "distance_wrist_1_joint": 0.5978837892233435,
        "distance_wrist_2_joint": 1.436214038931688,
        "distance_wrist_3_joint": 0.06295081304751626,
        "smoothness": 0.0,
        "time": 0.018001503,
        "traj_len": 1.7386328543269116,
        "weighted_distance": 2.2765859650790716
    },
    "planner": "ProjEST",
    "start": {
        "state": {
            "elbow_joint": -1.8275484843655228,
            "shoulder_lift_joint": -2.1267897864000416,
            "shoulder_pan_joint": -0.035127520176001514,
            "wrist_1_joint": -2.3477863256791385,
            "wrist_2_joint": -1.605890476484521,
            "wrist_3_joint": -3.0880375317375353
        }
    },
    "waypoints": [
        {
            "positions": [
                -0.035127520176001514,
                -2.1267897864000416,
                -1.8275484843655228,
                -2.3477863256791385,
                -1.605890476484521,
                -3.0880375317375353
            ]
        },
        {
            "positions": [
                -0.051868508547708775,
                -2.143345477997145,
                -1.7451207192165339,
                -2.4225217993320562,
                -1.42636372161806,
                -3.0801686801065955
            ]
        },
        {
            "positions": [
                -0.06860949691941604,
                -2.159901169594248,
                -1.6626929540675448,
                -2.4972572729849745,
                -1.246836966751599,
                -3.072299828475656
            ]
        },
        {
            "positions": [
                -0.08535048529112328,
                -2.1764568611913515,
                -1.580265188918556,
                -2.5719927466378922,
                -1.0673102118851379,
                -3.064430976844717
            ]
        },
        {
            "positions": [
                -0.10209147366283054,
                -2.1930125527884545,
                -1.497837423769567,
                -2.64672822029081,
                -0.887783457018677,
                -3.056562125213777
            ]
        },
        {
            "positions": [
                -0.1188324620345378,
                -2.209568244385558,
                -1.415409658620578,
                -2.7214636939437282,
                -0.708256702152216,
                -3.0486932735828374
            ]
        },
        {
            "positions": [
                -0.13557345040624505,
                -2.2261239359826615,
                -1.3329818934715891,
                -2.796199167596646,
                -0.528729947285755,
                -3.040824421951898
            ]
        },
        {
            "positions": [
                -0.1523144387779523,
                -2.2426796275797645,
                -1.2505541283226003,
                -2.8709346412495638,
                -0.349203192419294,
                -3.0329555703209587
            ]
        },
        {
            "positions": [
                -0.16905542714965957,
                -2.259235319176868,
                -1.1681263631736112,
                -2.945670114902482,
                -0.16967643755283293,
                -3.025086718690019
            ]
        }
    ]
}