{
    "goal": {
        "global_pose": {
            "orientation": {
                "w": 0.7047431493862688,
                "x": -0.7094548369677653,
                "y": 0.0024358444001904,
                "z": -0.0022348060817251984
            },
            "position": {
                "x": -0.39052492380142206,
                "y": 0.3671506643295288,
                "z": 0.19426114857196808
            }
        },
        "name": "move_to_magneteinheit_D"
    },
    "id": "ProjEST_move_to_magneteinheit_D_133",
    "joint_names": [
        "shoulder_pan_joint",
        "shoulder_lift_joint",
        "elbow_joint",
        "wrist_1_joint",
        "wrist_2_joint",
        "wrist_3_joint"
    ],
    "metrics": {
        "cart_traj_len": 4.567317198434325,
        "distance_elbow_joint": 3.676535214615123,
        "distance_shoulder_lift_joint": 1.6252258146883547,
        "distance_shoulder_pan_joint": 3.5651525069412786,
        "distance_wrist_1_joint": 3.049676887510069,
        "distance_wrist_2_joint": 0.5564114916998348,
        "distance_wrist_3_joint": 7.654749905116558,
        "smoothness": 0.6801797778036135,
        "time": 0.19619346,
        "traj_len": 4.4863963066776895,
        "weighted_distance": 6.248467012797158
    },
    "planner": "ProjEST",
    "start": {
        "state": {
            "elbow_joint": 0.7495348899011911,
            "shoulder_lift_joint": -0.6476975780737668,
            "shoulder_pan_joint": -2.711696901376276,
            "wrist_1_joint": -0.0750647808097303,
            "wrist_2_joint": 0.43296659715458535,
            "wrist_3_joint": 3.1361499051832418
        }
    },
    "waypoints": [
        {
            "positions": [
                -2.711696901376276,
                -0.6476975780737668,
                0.7495348899011911,
                -0.0750647808097303,
                0.43296659715458535,
                3.1361499051832418
            ]
        },
        {
            "positions": [
                -2.7218719488987584,
                -0.6582604453303754,
                0.7440877205459087,
                -0.12058677467812429,
                0.4324467883819719,
                2.8352889728758637
            ]
        },
        {
            "positions": [
                -2.73204699642124,
                -0.668823312586984,
                0.7386405511906261,
                -0.1661087685465183,
                0.4319269796093585,
                2.534428040568485
            ]
        },
        {
            "positions": [
                -2.7422220439437224,
                -0.6793861798435926,
                0.7331933818353437,
                -0.21163076241491224,
                0.431407170836745,
                2.2335671082611066
            ]
        },
        {
            "positions": [
                -2.7523970914662046,
                -0.6899490471002012,
                0.7277462124800611,
                -0.25715275628330625,
                0.4308873620641316,
                1.9327061759537285
            ]
        },
        {
            "positions": [
                -2.762572138988687,
                -0.7005119143568097,
                0.7222990431247787,
                -0.30267475015170026,
                0.43036755329151816,
                1.6318452436463502
            ]
        },
        {
            "positions": [
                -2.772747186511169,
                -0.7110747816134183,
                0.7168518737694962,
                -0.3481967440200942,
                0.42984774451890473,
                1.3309843113389719
            ]
        },
        {
            "positions": [
                -2.782922234033651,
                -0.7216376488700269,
                0.7114047044142137,
                -0.3937187378884882,
                0.4293279357462913,
                1.0301233790315933
            ]
        },
        {
            "positions": [
                -2.793097281556133,
                -0.7322005161266355,
                0.7059575350589312,
                -0.4392407317568822,
                0.42880812697367787,
                0.7292624467242153
            ]
        },
        {
            "positions": [
                -2.8032723290786152,
                -0.7427633833832441,
                0.7005103657036488,
                -0.4847627256252762,
                0.4282883182010644,
                0.42840151441683716
            ]
        },
        {
            "positions": [
                -2.813447376601097,
                -0.7533262506398527,
                0.6950631963483662,
                -0.5302847194936703,
                0.42776850942845096,
                0.12754058210945862
            ]
        },
        {
            "positions": [
                -2.8236224241235792,
                -0.7638891178964613,
                0.6896160269930838,
                -0.5758067133620642,
                0.42724870065583753,
                -0.17332035019791991
            ]
        },
        {
            "positions": [
                -2.8337974716460614,
                -0.7744519851530698,
                0.6841688576378013,
                -0.6213287072304582,
                0.4267288918832241,
                -0.474181282505298
            ]
        },
        {
            "positions": [
                -2.8439725191685437,
                -0.7850148524096785,
                0.6787216882825188,
                -0.6668507010988522,
                0.4262090831106107,
                -0.7750422148126761
            ]
        },
        {
            "positions": [
                -2.854147566691026,
                -0.795577719666287,
                0.6732745189272363,
                -0.7123726949672462,
                0.4256892743379972,
                -1.075903147120055
            ]
        },
        {
            "positions": [
                -2.8643226142135076,
                -0.8061405869228956,
                0.6678273495719538,
                -0.7578946888356403,
                0.42516946556538376,
                -1.3767640794274332
            ]
        },
        {
            "positions": [
                -2.87449766173599,
                -0.8167034541795042,
                0.6623801802166713,
                -0.8034166827040342,
                0.42464965679277034,
                -1.6776250117348117
            ]
        },
        {
            "positions": [
                -2.7707712020242496,
                -0.8553862744741559,
                0.5674971804632671,
                -0.7303418552062848,
                0.42018040864017053,
                -1.606555449538896
            ]
        },
        {
            "positions": [
                -2.667044742312509,
                -0.8940690947688077,
                0.47261418070986305,
                -0.6572670277085354,
                0.4157111604875707,
                -1.5354858873429804
            ]
        },
        {
            "positions": [
                -2.5633182826007688,
                -0.9327519150634594,
                0.3777311809564589,
                -0.584192200210786,
                0.41124191233497087,
                -1.4644163251470648
            ]
        },
        {
            "positions": [
                -2.4595918228890286,
                -0.9714347353581112,
                0.2828481812030547,
                -0.5111173727130365,
                0.406772664182371,
                -1.3933467629511491
            ]
        },
        {
            "positions": [
                -2.355865363177288,
                -1.010117555652763,
                0.18796518144965058,
                -0.43804254521528707,
                0.4023034160297712,
                -1.3222772007552335
            ]
        },
        {
            "positions": [
                -2.2521389034655477,
                -1.0488003759474147,
                0.09308218169624649,
                -0.36496771771753767,
                0.39783416787717135,
                -1.251207638559318
            ]
        },
        {
            "positions": [
                -2.1484124437538075,
                -1.0874831962420666,
                -0.0018008180571577048,
                -0.29189289021978826,
                0.39336491972457155,
                -1.1801380763634024
            ]
        },
        {
            "positions": [
                -2.044685984042067,
                -1.1261660165367182,
                -0.0966838178105619,
                -0.21881806272203885,
                0.3888956715719717,
                -1.1090685141674868
            ]
        },
        {
            "positions": [
                -1.9409595243303266,
                -1.16484883683137,
                -0.1915668175639661,
                -0.14574323522428934,
                0.3844264234193719,
                -1.037998951971571
            ]
        },
        {
            "positions": [
                -1.8372330646185862,
                -1.2035316571260217,
                -0.2864498173173702,
                -0.07266840772653993,
                0.3799571752667721,
                -0.9669293897756555
            ]
        },
        {
            "positions": [
                -1.733506604906846,
                -1.2422144774206734,
                -0.38133281707077415,
                0.00040641977120947637,
                0.3754879271141722,
                -0.8958598275797399
            ]
        },
        {
            "positions": [
                -1.6297801451951057,
                -1.2808972977153252,
                -0.47621581682417835,
                0.07348124726895888,
                0.3710186789615724,
                -0.8247902653838243
            ]
        },
        {
            "positions": [
                -1.5260536854833653,
                -1.319580118009977,
                -0.5710988165775825,
                0.1465560747667083,
                0.36654943080897257,
                -0.7537207031879086
            ]
        },
        {
            "positions": [
                -1.4223272257716248,
                -1.358262938304629,
                -0.6659818163309867,
                0.2196309022644577,
                0.36208018265637276,
                -0.682651140991993
            ]
        },
        {
            "positions": [
                -1.3186007660598844,
                -1.3969457585992806,
                -0.7608648160843909,
                0.2927057297622072,
                0.3576109345037729,
                -0.6115815787960774
            ]
        },
        {
            "positions": [
                -1.2148743063481442,
                -1.4356285788939323,
                -0.8557478158377951,
                0.3657805572599565,
                0.3531416863511731,
                -0.5405120166001618
            ]
        },
        {
            "positions": [
                -1.111147846636404,
                -1.4743113991885841,
                -0.9506308155911991,
                0.4388553847577058,
                0.3486724381985733,
                -0.46944245440424637
            ]
        },
        {
            "positions": [
                -1.0074213869246635,
                -1.512994219483236,
                -1.0455138153446035,
                0.5119302122554555,
                0.34420319004597344,
                -0.3983728922083305
            ]
        },
        {
            "positions": [
                -0.9036949272129233,
                -1.5516770397778874,
                -1.1403968150980075,
                0.5850050397532048,
                0.3397339418933736,
                -0.3273033300124151
            ]
        },
        {
            "positions": [
                -0.7999684675011824,
                -1.5903598600725393,
                -1.2352798148514117,
                0.6580798672509544,
                0.3352646937407738,
                -0.2562337678164992
            ]
        },
        {
            "positions": [
                -0.6962420077894422,
                -1.6290426803671911,
                -1.330162814604816,
                0.7311546947487036,
                0.330795445588174,
                -0.18516420562058378
            ]
        },
        {
            "positions": [
                -0.592515548077702,
                -1.6677255006618428,
                -1.4250458143582196,
                0.8042295222464532,
                0.3263261974355741,
                -0.11409464342466813
            ]
        },
        {
            "positions": [
                -0.4887890883659618,
                -1.7064083209564946,
                -1.5199288141116243,
                0.8773043497442027,
                0.32185694928297426,
                -0.04302508122875248
            ]
        },
        {
            "positions": [
                -0.3850626286542216,
                -1.7450911412511463,
                -1.614811813865028,
                0.950379177241952,
                0.31738770113037446,
                0.028044480967163166
            ]
        },
        {
            "positions": [
                -0.28133616894248137,
                -1.7837739615457981,
                -1.7096948136184322,
                1.0234540047397012,
                0.31291845297777465,
                0.09911404316307859
            ]
        },
        {
            "positions": [
                -0.1776097092307407,
                -1.82245678184045,
                -1.8045778133718364,
                1.0965288322374507,
                0.3084492048251748,
                0.17018360535899446
            ]
        },
        {
            "positions": [
                -0.0738832495190005,
                -1.8611396021351017,
                -1.8994608131252406,
                1.1696036597352002,
                0.303979956672575,
                0.2412531675549099
            ]
        },
        {
            "positions": [
                0.029843210192740166,
                -1.8998224224297535,
                -1.9943438128786448,
                1.2426784872329497,
                0.2995107085199752,
                0.31232272975082576
            ]
        },
        {
            "positions": [
                0.13356966990448021,
                -1.9385052427244052,
                -2.089226812632049,
                1.315753314730699,
                0.29504146036737533,
                0.3833922919467412
            ]
        },
        {
            "positions": [
                0.14103853802305782,
                -2.0013981763663677,
                -2.2037890047411914,
                1.3482084477163516,
                0.3254137951206561,
                0.2767660731864132
            ]
        },
        {
            "positions": [
                0.1485074061416354,
                -2.06429111000833,
                -2.3183511968503345,
                1.3806635807020045,
                0.3557861298739369,
                0.17013985442608529
            ]
        },
        {
            "positions": [
                0.15597627426021302,
                -2.1271840436502925,
                -2.432913388959477,
                1.413118713687657,
                0.38615846462721765,
                0.06351363566575735
            ]
        },
        {
            "positions": [
                0.1634451423787906,
                -2.1900769772922546,
                -2.5474755810686203,
                1.44557384667331,
                0.4165307993804984,
                -0.04311258309457061
            ]
        },
        {
            "positions": [
                0.1709140104973682,
                -2.252969910934217,
                -2.662037773177763,
                1.4780289796589625,
                0.4469031341337792,
                -0.14973880185489852
            ]
        },
        {
            "positions": [
                0.08167899191031672,
                -2.2579582813911934,
                -2.5957971352937204,
                1.4680591488457708,
                0.38024696384722395,
                -0.08803215417607047
            ]
        },
        {
            "positions": [
                -0.007556026676734773,
                -2.2629466518481696,
                -2.5295564974096783,
                1.4580893180325791,
                0.31359079356066877,
                -0.026325506497242426
            ]
        },
        {
            "positions": [
                -0.09679104526378624,
                -2.2679350223051453,
                -2.463315859525636,
                1.4481194872193872,
                0.24693462327411353,
                0.03538114118158561
            ]
        },
        {
            "positions": [
                -0.18602606385083775,
                -2.2729233927621215,
                -2.3970752216415936,
                1.4381496564061955,
                0.1802784529875583,
                0.09708778886041367
            ]
        }
    ]
}