{
    "goal": {
        "global_pose": {
            "orientation": {
                "w": 0.7047431468963623,
                "x": -0.7094548344612122,
                "y": 0.0024358443915843964,
                "z": -0.0022348060738295317
            },
            "position": {
                "x": 0.6094750761985779,
                "y": 0.3671506643295288,
                "z": 0.19426114857196808
            }
        },
        "name": "move_to_magneteinheit_A"
    },
    "id": "ProjEST_move_to_magneteinheit_A_140",
    "joint_names": [
        "shoulder_pan_joint",
        "shoulder_lift_joint",
        "elbow_joint",
        "wrist_1_joint",
        "wrist_2_joint",
        "wrist_3_joint"
    ],
    "metrics": {
        "cart_traj_len": 1.592392116956761,
        "distance_elbow_joint": 3.536256311978522,
        "distance_shoulder_lift_joint": 1.1408583269454196,
        "distance_shoulder_pan_joint": 1.2409997892871927,
        "distance_wrist_1_joint": 3.879180650449962,
        "distance_wrist_2_joint": 1.6998637293140084,
        "distance_wrist_3_joint": 5.082703917636493,
        "smoothness": 7.435912375346793e-16,
        "time": 0.052424877,
        "traj_len": 4.07183775777125,
        "weighted_distance": 5.685447646460967
    },
    "planner": "ProjEST",
    "start": {
        "state": {
            "elbow_joint": -1.5739458827952972,
            "shoulder_lift_joint": 0.006533473998580023,
            "shoulder_pan_joint": -1.1188671628667068,
            "wrist_1_joint": 3.138208179676308,
            "wrist_2_joint": -1.5706037135050406,
            "wrist_3_joint": -2.0226958329764257
        }
    },
    "waypoints": [
        {
            "positions": [
                -1.1188671628667068,
                0.006533473998580023,
                -1.5739458827952972,
                3.138208179676308,
                -1.5706037135050406,
                -2.0226958329764257
            ]
        },
        {
            "positions": [
                -1.0893195488360594,
                -0.020629819500120442,
                -1.4897493039386658,
                3.045846735617976,
                -1.5301307675689928,
                -1.9016790730326998
            ]
        },
        {
            "positions": [
                -1.059771934805412,
                -0.04779311299882091,
                -1.4055527250820343,
                2.9534852915596432,
                -1.489657821632945,
                -1.7806623130889736
            ]
        },
        {
            "positions": [
                -1.0302243207747646,
                -0.07495640649752137,
                -1.3213561462254029,
                2.861123847501311,
                -1.449184875696897,
                -1.6596455531452476
            ]
        },
        {
            "positions": [
                -1.0006767067441171,
                -0.10211969999622184,
                -1.2371595673687714,
                2.7687624034429783,
                -1.4087119297608492,
                -1.5386287932015217
            ]
        },
        {
            "positions": [
                -0.9711290927134696,
                -0.12928299349492228,
                -1.15296298851214,
                2.676400959384646,
                -1.3682389838248015,
                -1.4176120332577957
            ]
        },
        {
            "positions": [
                -0.9415814786828222,
                -0.15644628699362276,
                -1.0687664096555083,
                2.584039515326314,
                -1.3277660378887537,
                -1.2965952733140695
            ]
        },
        {
            "positions": [
                -0.9120338646521747,
                -0.1836095804923232,
                -0.9845698307988769,
                2.491678071267981,
                -1.287293091952706,
                -1.1755785133703436
            ]
        },
        {
            "positions": [
                -0.8824862506215273,
                -0.21077287399102368,
                -0.9003732519422455,
                2.399316627209649,
                -1.246820146016658,
                -1.0545617534266176
            ]
        },
        {
            "positions": [
                -0.8529386365908799,
                -0.23793616748972415,
                -0.816176673085614,
                2.306955183151316,
                -1.2063472000806104,
                -0.9335449934828914
            ]
        },
        {
            "positions": [
                -0.8233910225602323,
                -0.26509946098842463,
                -0.7319800942289826,
                2.214593739092984,
                -1.1658742541445624,
                -0.8125282335391655
            ]
        },
        {
            "positions": [
                -0.7938434085295849,
                -0.29226275448712513,
                -0.6477835153723509,
                2.1222322950346513,
                -1.1254013082085146,
                -0.6915114735954393
            ]
        },
        {
            "positions": [
                -0.7642957944989375,
                -0.3194260479858256,
                -0.5635869365157196,
                2.029870850976319,
                -1.0849283622724668,
                -0.5704947136517133
            ]
        },
        {
            "positions": [
                -0.73474818046829,
                -0.3465893414845261,
                -0.4793903576590881,
                1.9375094069179866,
                -1.0444554163364188,
                -0.44947795370798715
            ]
        },
        {
            "positions": [
                -0.7052005664376426,
                -0.3737526349832265,
                -0.39519377880245665,
                1.845147962859654,
                -1.0039824704003713,
                -0.3284611937642614
            ]
        },
        {
            "positions": [
                -0.6756529524069952,
                -0.400915928481927,
                -0.310997199945825,
                1.7527865188013216,
                -0.9635095244643233,
                -0.20744443382053523
            ]
        },
        {
            "positions": [
                -0.6461053383763478,
                -0.4280792219806274,
                -0.22680062108919374,
                1.6604250747429894,
                -0.9230365785282755,
                -0.08642767387680927
            ]
        },
        {
            "positions": [
                -0.6165577243457003,
                -0.4552425154793279,
                -0.14260404223256207,
                1.5680636306846567,
                -0.8825636325922276,
                0.034589086066916686
            ]
        },
        {
            "positions": [
                -0.5870101103150529,
                -0.48240580897802837,
                -0.058407463375930835,
                1.4757021866263245,
                -0.8420906866561799,
                0.15560584601064287
            ]
        },
        {
            "positions": [
                -0.5574624962844054,
                -0.5095691024767288,
                0.02578911548070084,
                1.383340742567992,
                -0.801617740720132,
                0.27662260595436905
            ]
        },
        {
            "positions": [
                -0.5279148822537579,
                -0.5367323959754292,
                0.10998569433733207,
                1.2909792985096595,
                -0.7611447947840843,
                0.3976393658980948
            ]
        },
        {
            "positions": [
                -0.4983672682231105,
                -0.5638956894741297,
                0.19418227319396375,
                1.198617854451327,
                -0.7206718488480364,
                0.518656125841821
            ]
        },
        {
            "positions": [
                -0.4688196541924631,
                -0.5910589829728302,
                0.2783788520505954,
                1.1062564103929944,
                -0.6801989029119885,
                0.6396728857855472
            ]
        },
        {
            "positions": [
                -0.43927204016181554,
                -0.6182222764715307,
                0.3625754309072269,
                1.0138949663346621,
                -0.6397259569759406,
                0.7606896457292733
            ]
        },
        {
            "positions": [
                -0.4097244261311682,
                -0.6453855699702311,
                0.4467720097638581,
                0.9215335222763299,
                -0.5992530110398929,
                0.8817064056729991
            ]
        },
        {
            "positions": [
                -0.3801768121005207,
                -0.6725488634689316,
                0.5309685886204896,
                0.8291720782179972,
                -0.558780065103845,
                1.0027231656167253
            ]
        },
        {
            "positions": [
                -0.35062919806987325,
                -0.6997121569676321,
                0.615165167477121,
                0.736810634159665,
                -0.5183071191677973,
                1.1237399255604514
            ]
        },
        {
            "positions": [
                -0.3210815840392258,
                -0.7268754504663325,
                0.6993617463337529,
                0.6444491901013323,
                -0.47783417323174926,
                1.2447566855041776
            ]
        },
        {
            "positions": [
                -0.2915339700085784,
                -0.7540387439650329,
                0.7835583251903839,
                0.552087746043,
                -0.4373612272957017,
                1.365773445447903
            ]
        },
        {
            "positions": [
                -0.26198635597793096,
                -0.7812020374637334,
                0.8677549040470154,
                0.4597263019846678,
                -0.3968882813596539,
                1.486790205391629
            ]
        },
        {
            "positions": [
                -0.23243874194728353,
                -0.8083653309624339,
                0.9519514829036473,
                0.3673648579263351,
                -0.35641533542360593,
                1.6078069653353553
            ]
        },
        {
            "positions": [
                -0.202891127916636,
                -0.8355286244611344,
                1.0361480617602787,
                0.2750034138680024,
                -0.31594238948755815,
                1.7288237252790815
            ]
        },
        {
            "positions": [
                -0.17334351388598868,
                -0.8626919179598348,
                1.1203446406169097,
                0.18264196980967062,
                -0.2754694435515104,
                1.8498404852228072
            ]
        },
        {
            "positions": [
                -0.14379589985534114,
                -0.8898552114585353,
                1.2045412194735412,
                0.09028052575133794,
                -0.2349964976154626,
                1.9708572451665334
            ]
        },
        {
            "positions": [
                -0.11424828582469382,
                -0.9170185049572358,
                1.288737798330173,
                -0.00208091830699475,
                -0.1945235516794146,
                2.091874005110259
            ]
        },
        {
            "positions": [
                -0.08470067179404617,
                -0.9441817984559363,
                1.3729343771868046,
                -0.09444236236532699,
                -0.15405060574336682,
                2.2128907650539857
            ]
        },
        {
            "positions": [
                -0.05515305776339896,
                -0.9713450919546367,
                1.4571309560434356,
                -0.18680380642365924,
                -0.11357765980731926,
                2.3339075249977115
            ]
        },
        {
            "positions": [
                -0.02560544373275131,
                -0.9985083854533372,
                1.5413275349000675,
                -0.2791652504819919,
                -0.07310471387127127,
                2.454924284941437
            ]
        },
        {
            "positions": [
                0.003942170297896119,
                -1.0256716789520377,
                1.625524113756699,
                -0.37152669454032416,
                -0.03263176793522349,
                2.575941044885164
            ]
        },
        {
            "positions": [
                0.03348978432854355,
                -1.0528349724507382,
                1.7097206926133304,
                -0.46388813859865685,
                0.007841178000824511,
                2.6969578048288896
            ]
        },
        {
            "positions": [
                0.06303739835919098,
                -1.0799982659494385,
                1.7939172714699614,
                -0.5562495826569891,
                0.048314123936872067,
                2.8179745647726153
            ]
        },
        {
            "positions": [
                0.0925850123898384,
                -1.107161559448139,
                1.8781138503265933,
                -0.6486110267153213,
                0.08878706987292007,
                2.938991324716342
            ]
        },
        {
            "positions": [
                0.12213262642048575,
                -1.1343248529468395,
                1.9623104291832245,
                -0.740972470773654,
                0.12926001580896773,
                3.0600080846600677
            ]
        }
    ]
}