{
    "goal": {
        "global_pose": {
            "orientation": {
                "w": 0.5084816217422485,
                "x": -0.49083608388900757,
                "y": 0.5182115435600281,
                "z": -0.4816462993621826
            },
            "position": {
                "x": 0.5540239810943604,
                "y": 0.030875300988554955,
                "z": 0.16403168439865112
            }
        },
        "name": "move_to_storage_A"
    },
    "id": "ProjEST_move_to_storage_A_19",
    "joint_names": [
        "shoulder_pan_joint",
        "shoulder_lift_joint",
        "elbow_joint",
        "wrist_1_joint",
        "wrist_2_joint",
        "wrist_3_joint"
    ],
    "metrics": {
        "cart_traj_len": 0.3537956325589581,
        "distance_elbow_joint": 0.45326455476437855,
        "distance_shoulder_lift_joint": 0.234547658513236,
        "distance_shoulder_pan_joint": 0.45998115661042427,
        "distance_wrist_1_joint": 0.2529328081457667,
        "distance_wrist_2_joint": 1.1123802476216516,
        "distance_wrist_3_joint": 0.09222022474448632,
        "smoothness": 5.551115138160447e-16,
        "time": 0.084158937,
        "traj_len": 1.6141024287200436,
        "weighted_distance": 2.0384013725604517
    },
    "planner": "ProjEST",
    "start": {
        "state": {
            "elbow_joint": 1.971548880431181,
            "shoulder_lift_joint": -1.1394869514688781,
            "shoulder_pan_joint": 0.12281150262730567,
            "wrist_1_joint": -0.7804693444481463,
            "wrist_2_joint": 0.12958644648617612,
            "wrist_3_joint": 3.0906942077768043
        }
    },
    "waypoints": [
        {
            "positions": [
                0.12281150262730567,
                -1.1394869514688781,
                1.971548880431181,
                -0.7804693444481463,
                0.12958644648617612,
                3.0906942077768043
            ]
        },
        {
            "positions": [
                0.05709990882581649,
                -1.1729937598279119,
                2.036300959683235,
                -0.8166026027546844,
                0.28849791043212636,
                3.103868525597445
            ]
        },
        {
            "positions": [
                -0.00861168497567269,
                -1.2065005681869456,
                2.101053038935289,
                -0.8527358610612225,
                0.44740937437807654,
                3.117042843418086
            ]
        },
        {
            "positions": [
                -0.07432327877716186,
                -1.2400073765459794,
                2.1658051181873432,
                -0.8888691193677606,
                0.6063208383240268,
                3.130217161238727
            ]
        },
        {
            "positions": [
                -0.14003487257865105,
                -1.273514184905013,
                2.2305571974393974,
                -0.9250023776742987,
                0.765232302269977,
                3.143391479059368
            ]
        },
        {
            "positions": [
                -0.20574646638014027,
                -1.3070209932640466,
                2.2953092766914516,
                -0.9611356359808367,
                0.9241437662159272,
                3.1565657968800087
            ]
        },
        {
            "positions": [
                -0.2714580601816294,
                -1.3405278016230804,
                2.3600613559435053,
                -0.9972688942873749,
                1.0830552301618774,
                3.16974011470065
            ]
        },
        {
            "positions": [
                -0.3371696539831186,
                -1.3740346099821141,
                2.4248134351955595,
                -1.033402152593913,
                1.2419666941078278,
                3.1829144325212906
            ]
        }
    ]
}