{
    "goal": {
        "global_pose": {
            "orientation": {
                "w": -0.00223480608172531,
                "x": 0.0024358444001904467,
                "y": 0.7094548369677653,
                "z": -0.704743149386269
            },
            "position": {
                "x": -0.37947507619857795,
                "y": -0.6371506643295288,
                "z": 0.19426114857196808
            }
        },
        "name": "move_to_magneteinheit_C"
    },
    "id": "ProjEST_move_to_magneteinheit_C_124",
    "joint_names": [
        "shoulder_pan_joint",
        "shoulder_lift_joint",
        "elbow_joint",
        "wrist_1_joint",
        "wrist_2_joint",
        "wrist_3_joint"
    ],
    "metrics": {
        "cart_traj_len": 1.834722826841484,
        "distance_elbow_joint": 0.8318271413810312,
        "distance_shoulder_lift_joint": 0.8255101452845519,
        "distance_shoulder_pan_joint": 2.738020326906815,
        "distance_wrist_1_joint": 0.9520585869041246,
        "distance_wrist_2_joint": 1.620794844791006,
        "distance_wrist_3_joint": 3.9986602133209193,
        "smoothness": 1.1814002769541554,
        "time": 0.635677956,
        "traj_len": 3.3116266786261472,
        "weighted_distance": 4.640802206184337
    },
    "planner": "ProjEST",
    "start": {
        "state": {
            "elbow_joint": 1.9565354006593851,
            "shoulder_lift_joint": -1.4165861576512813,
            "shoulder_pan_joint": -1.6717766223278752,
            "wrist_1_joint": -0.528663328821883,
            "wrist_2_joint": 1.472756589259273,
            "wrist_3_joint": 3.159348288315503
        }
    },
    "waypoints": [
        {
            "positions": [
                -1.6717766223278752,
                -1.4165861576512813,
                1.9565354006593851,
                -0.528663328821883,
                1.472756589259273,
                3.159348288315503
            ]
        },
        {
            "positions": [
                -1.5948852734379129,
                -1.4395104763822295,
                1.952933288829036,
                -0.4764355097007609,
                1.4212809913036197,
                3.057514229060928
            ]
        },
        {
            "positions": [
                -1.5560746720397087,
                -1.456141819929201,
                1.9344048245839192,
                -0.44912134688048877,
                1.3483608005492138,
                2.865800849435408
            ]
        },
        {
            "positions": [
                -1.5172640706415046,
                -1.4727731634761727,
                1.915876360338802,
                -0.4218071840602167,
                1.2754406097948079,
                2.674087469809888
            ]
        },
        {
            "positions": [
                -1.4784534692433005,
                -1.489404507023144,
                1.8973478960936851,
                -0.3944930212399447,
                1.202520419040402,
                2.4823740901843685
            ]
        },
        {
            "positions": [
                -1.4396428678450963,
                -1.5060358505701157,
                1.878819431848568,
                -0.36717885841967257,
                1.129600228285996,
                2.2906607105588486
            ]
        },
        {
            "positions": [
                -1.400832266446892,
                -1.5226671941170873,
                1.8602909676034511,
                -0.33986469559940047,
                1.0566800375315903,
                2.0989473309333286
            ]
        },
        {
            "positions": [
                -1.362021665048688,
                -1.5392985376640589,
                1.8417625033583342,
                -0.3125505327791284,
                0.9837598467771844,
                1.9072339513078091
            ]
        },
        {
            "positions": [
                -1.3232110636504837,
                -1.5559298812110305,
                1.8232340391132171,
                -0.2852363699588564,
                0.9108396560227785,
                1.7155205716822894
            ]
        },
        {
            "positions": [
                -1.2844004622522796,
                -1.5725612247580019,
                1.8047055748681002,
                -0.25792220713858427,
                0.8379194652683725,
                1.5238071920567693
            ]
        },
        {
            "positions": [
                -1.2455898608540754,
                -1.5891925683049735,
                1.7861771106229831,
                -0.2306080443183122,
                0.7649992745139667,
                1.3320938124312496
            ]
        },
        {
            "positions": [
                -1.2067792594558713,
                -1.605823911851945,
                1.7676486463778662,
                -0.20329388149804012,
                0.6920790837595607,
                1.1403804328057299
            ]
        },
        {
            "positions": [
                -1.3542969466332235,
                -1.6139427281582215,
                1.8045661646713897,
                -0.2241405591494117,
                0.6565121858982873,
                1.285545694799198
            ]
        },
        {
            "positions": [
                -1.5018146338105756,
                -1.6220615444644981,
                1.8414836829649135,
                -0.24498723680078327,
                0.6209452880370139,
                1.430710956792666
            ]
        },
        {
            "positions": [
                -1.6493323209879278,
                -1.6301803607707748,
                1.878401201258437,
                -0.2658339144521549,
                0.5853783901757403,
                1.575876218786134
            ]
        },
        {
            "positions": [
                -1.79685000816528,
                -1.6382991770770512,
                1.9153187195519605,
                -0.2866805921035264,
                0.549811492314467,
                1.721041480779602
            ]
        },
        {
            "positions": [
                -1.9443676953426323,
                -1.6464179933833276,
                1.9522362378454843,
                -0.307527269754898,
                0.5142445944531935,
                1.86620674277307
            ]
        },
        {
            "positions": [
                -2.0918853825199846,
                -1.6545368096896043,
                1.9891537561390078,
                -0.3283739474062696,
                0.47867769659192005,
                2.011372004766538
            ]
        },
        {
            "positions": [
                -2.239403069697337,
                -1.662655625995881,
                2.0260712744325313,
                -0.3492206250576412,
                0.4431107987306466,
                2.1565372667600062
            ]
        },
        {
            "positions": [
                -2.386920756874689,
                -1.6707744423021573,
                2.062988792726055,
                -0.3700673027090128,
                0.4075439008693732,
                2.301702528753474
            ]
        },
        {
            "positions": [
                -2.534438444052041,
                -1.6788932586084337,
                2.099906311019579,
                -0.39091398036038433,
                0.3719770030080997,
                2.446867790746942
            ]
        },
        {
            "positions": [
                -2.681956131229393,
                -1.6870120749147104,
                2.1368238293131023,
                -0.41176065801175593,
                0.33641010514682623,
                2.59203305274041
            ]
        },
        {
            "positions": [
                -2.829473818406745,
                -1.695130891220987,
                2.173741347606626,
                -0.4326073356631275,
                0.30084320728555286,
                2.7371983147338783
            ]
        },
        {
            "positions": [
                -2.9769915055840976,
                -1.7032497075272635,
                2.2106588659001494,
                -0.4534540133144991,
                0.2652763094242794,
                2.882363576727346
            ]
        },
        {
            "positions": [
                -2.8931897192663336,
                -1.6134419416258352,
                2.1773371713039444,
                -0.5162088479418028,
                0.33416207025028133,
                2.9219817790422677
            ]
        },
        {
            "positions": [
                -2.8093879329485696,
                -1.523634175724407,
                2.1440154767077395,
                -0.5789636825691066,
                0.40304783107628334,
                2.961599981357189
            ]
        },
        {
            "positions": [
                -2.725586146630805,
                -1.4338264098229785,
                2.110693782111535,
                -0.6417185171964104,
                0.47193359190228534,
                3.00121818367211
            ]
        },
        {
            "positions": [
                -2.641784360313041,
                -1.3440186439215505,
                2.07737208751533,
                -0.7044733518237141,
                0.5408193527282873,
                3.0408363859870318
            ]
        },
        {
            "positions": [
                -2.557982573995277,
                -1.254210878020122,
                2.044050392919125,
                -0.7672281864510178,
                0.6097051135542894,
                3.0804545883019534
            ]
        },
        {
            "positions": [
                -2.474180787677513,
                -1.1644031121186937,
                2.0107286983229202,
                -0.8299830210783216,
                0.6785908743802913,
                3.1200727906168746
            ]
        }
    ]
}