{
    "goal": {
        "global_pose": {
            "orientation": {
                "w": 0.5084816262002911,
                "x": -0.4908360881923452,
                "y": 0.5182115481033761,
                "z": -0.48164630358495003
            },
            "position": {
                "x": 0.5540239810943604,
                "y": -0.46912469901144505,
                "z": 0.16403168439865112
            }
        },
        "name": "move_to_storage_B"
    },
    "id": "ProjEST_move_to_storage_B_52",
    "joint_names": [
        "shoulder_pan_joint",
        "shoulder_lift_joint",
        "elbow_joint",
        "wrist_1_joint",
        "wrist_2_joint",
        "wrist_3_joint"
    ],
    "metrics": {
        "cart_traj_len": 1.662562111601667,
        "distance_elbow_joint": 1.4879159435773406,
        "distance_shoulder_lift_joint": 1.4471585363351038,
        "distance_shoulder_pan_joint": 1.6728246119124237,
        "distance_wrist_1_joint": 2.9829435647491795,
        "distance_wrist_2_joint": 2.7200143110772306,
        "distance_wrist_3_joint": 4.015444044806744,
        "smoothness": 0.2705095268180758,
        "time": 0.107347681,
        "traj_len": 3.7850100412625087,
        "weighted_distance": 5.297182928491136
    },
    "planner": "ProjEST",
    "start": {
        "state": {
            "elbow_joint": 1.6649325340416963,
            "shoulder_lift_joint": -0.6616387945129425,
            "shoulder_pan_joint": -0.9139837929255878,
            "wrist_1_joint": 2.1467571094334352,
            "wrist_2_joint": -2.234195976750228,
            "wrist_3_joint": 0.005470921511140723
        }
    },
    "waypoints": [
        {
            "positions": [
                -0.9139837929255878,
                -0.6616387945129425,
                1.6649325340416963,
                2.1467571094334352,
                -2.234195976750228,
                0.005470921511140723
            ]
        },
        {
            "positions": [
                -0.8461085193960471,
                -0.7482933559743661,
                1.7485207501275204,
                2.120791618859703,
                -2.1626816512804163,
                -0.03485357815642609
            ]
        },
        {
            "positions": [
                -0.7782332458665066,
                -0.8349479174357896,
                1.8321089662133443,
                2.094826128285971,
                -2.0911673258106043,
                -0.07517807782399291
            ]
        },
        {
            "positions": [
                -0.7103579723369658,
                -0.921602478897213,
                1.9156971822991684,
                2.0688606377122385,
                -2.0196530003407926,
                -0.11550257749155972
            ]
        },
        {
            "positions": [
                -0.6424826988074253,
                -1.0082570403586366,
                1.9992853983849923,
                2.0428951471385064,
                -1.9481386748709808,
                -0.15582707715912653
            ]
        },
        {
            "positions": [
                -0.5746074252778846,
                -1.0949116018200602,
                2.082873614470816,
                2.0169296565647743,
                -1.876624349401169,
                -0.19615157682669332
            ]
        },
        {
            "positions": [
                -0.5067321517483439,
                -1.1815661632814836,
                2.1664618305566403,
                1.9909641659910422,
                -1.805110023931357,
                -0.23647607649426014
            ]
        },
        {
            "positions": [
                -0.4388568782188032,
                -1.2682207247429071,
                2.2500500466424644,
                1.96499867541731,
                -1.7335956984615453,
                -0.27680057616182696
            ]
        },
        {
            "positions": [
                -0.37098160468926256,
                -1.3548752862043307,
                2.3336382627282886,
                1.9390331848435778,
                -1.6620813729917336,
                -0.3171250758293938
            ]
        },
        {
            "positions": [
                -0.30310633115972185,
                -1.4415298476657543,
                2.4172264788141122,
                1.9130676942698457,
                -1.5905670475219216,
                -0.35744957549696066
            ]
        },
        {
            "positions": [
                -0.23523105763018126,
                -1.5281844091271777,
                2.5008146948999364,
                1.8871022036961134,
                -1.51905272205211,
                -0.3977740751645274
            ]
        },
        {
            "positions": [
                -0.16735578410064056,
                -1.6148389705886013,
                2.5844029109857605,
                1.8611367131223813,
                -1.447538396582298,
                -0.43809857483209425
            ]
        },
        {
            "positions": [
                -0.20297873037323583,
                -1.595840572117084,
                2.5625396199614037,
                1.7573935143362995,
                -1.3731785223165558,
                -0.3007187845065747
            ]
        },
        {
            "positions": [
                -0.23860167664583107,
                -1.5768421736455671,
                2.540676328937047,
                1.6536503155502178,
                -1.2988186480508135,
                -0.16333899418105513
            ]
        },
        {
            "positions": [
                -0.2742246229184263,
                -1.55784377517405,
                2.51881303791269,
                1.549907116764136,
                -1.2244587737850712,
                -0.025959203855535518
            ]
        },
        {
            "positions": [
                -0.3098475691910216,
                -1.5388453767025327,
                2.4969497468883333,
                1.4461639179780543,
                -1.1500988995193286,
                0.11142058646998398
            ]
        },
        {
            "positions": [
                -0.34547051546361685,
                -1.5198469782310156,
                2.4750864558639765,
                1.3424207191919724,
                -1.0757390252535863,
                0.2488003767955036
            ]
        },
        {
            "positions": [
                -0.3810934617362121,
                -1.5008485797594986,
                2.4532231648396197,
                1.2386775204058909,
                -1.001379150987844,
                0.3861801671210232
            ]
        },
        {
            "positions": [
                -0.4167164080088073,
                -1.4818501812879814,
                2.431359873815263,
                1.134934321619809,
                -0.9270192767221018,
                0.5235599574465426
            ]
        },
        {
            "positions": [
                -0.4523393542814026,
                -1.4628517828164642,
                2.409496582790906,
                1.0311911228337272,
                -0.8526594024563594,
                0.6609397477720622
            ]
        },
        {
            "positions": [
                -0.48796230055399786,
                -1.4438533843449473,
                2.3876332917665493,
                0.9274479240476455,
                -0.7782995281906172,
                0.7983195380975818
            ]
        },
        {
            "positions": [
                -0.5235852468265931,
                -1.42485498587343,
                2.3657700007421925,
                0.8237047252615637,
                -0.7039396539248748,
                0.9356993284231014
            ]
        },
        {
            "positions": [
                -0.5592081930991883,
                -1.4058565874019129,
                2.3439067097178357,
                0.719961526475482,
                -0.6295797796591325,
                1.0730791187486208
            ]
        },
        {
            "positions": [
                -0.5948311393717837,
                -1.386858188930396,
                2.322043418693479,
                0.6162183276894002,
                -0.5552199053933902,
                1.2104589090741407
            ]
        },
        {
            "positions": [
                -0.6304540856443789,
                -1.3678597904588787,
                2.3001801276691225,
                0.5124751289033185,
                -0.48086003112764786,
                1.34783869939966
            ]
        },
        {
            "positions": [
                -0.6660770319169741,
                -1.3488613919873615,
                2.2783168366447657,
                0.40873193011723674,
                -0.40650015686190555,
                1.4852184897251794
            ]
        },
        {
            "positions": [
                -0.7016999781895693,
                -1.3298629935158446,
                2.256453545620409,
                0.304988731331155,
                -0.33214028259616324,
                1.6225982800506988
            ]
        },
        {
            "positions": [
                -0.7373229244621646,
                -1.3108645950443274,
                2.234590254596052,
                0.20124553254507305,
                -0.2577804083304207,
                1.7599780703762187
            ]
        },
        {
            "positions": [
                -0.77294587073476,
                -1.2918661965728102,
                2.2127269635716953,
                0.09750233375899153,
                -0.18342053406467862,
                1.8973578607017385
            ]
        },
        {
            "positions": [
                -0.8085688170073552,
                -1.2728677981012932,
                2.1908636725473385,
                -0.006240865027090203,
                -0.10906065979893631,
                2.0347376510272577
            ]
        },
        {
            "positions": [
                -0.8441917632799504,
                -1.253869399629776,
                2.1690003815229817,
                -0.10998406381317194,
                -0.034700785533194,
                2.1721174413527775
            ]
        },
        {
            "positions": [
                -0.8798147095525457,
                -1.2348710011582589,
                2.147137090498625,
                -0.2137272625992539,
                0.03965908873254853,
                2.3094972316782973
            ]
        },
        {
            "positions": [
                -0.9154376558251409,
                -1.215872602686742,
                2.125273799474268,
                -0.3174704613853354,
                0.11401896299829084,
                2.4468770220038163
            ]
        },
        {
            "positions": [
                -0.9510606020977361,
                -1.1968742042152247,
                2.1034105084499113,
                -0.42121366017141737,
                0.18837883726403315,
                2.584256812329336
            ]
        },
        {
            "positions": [
                -0.9866835483703315,
                -1.1778758057437075,
                2.0815472174255545,
                -0.5249568589574989,
                0.26273871152977524,
                2.721636602654856
            ]
        },
        {
            "positions": [
                -1.0223064946429268,
                -1.1588774072721904,
                2.0596839264011977,
                -0.6287000577435808,
                0.33709858579551777,
                2.859016392980376
            ]
        },
        {
            "positions": [
                -1.057929440915522,
                -1.1398790088006734,
                2.037820635376841,
                -0.7324432565296628,
                0.4114584600612601,
                2.9963961833058947
            ]
        },
        {
            "positions": [
                -1.0935523871881172,
                -1.1208806103291562,
                2.015957344352484,
                -0.8361864553157442,
                0.4858183343270024,
                3.1337759736314146
            ]
        }
    ]
}