{
    "goal": {
        "global_pose": {
            "orientation": {
                "w": 0.7031023480610252,
                "x": -0.7110244013736278,
                "y": 0.0077485991402295624,
                "z": 0.005598929693374583
            },
            "position": {
                "x": -0.8841497679147869,
                "y": 0.44412534475326537,
                "z": 0.3711530566215515
            }
        },
        "name": "move_to_auspresseinheit_D"
    },
    "id": "ProjEST_move_to_auspresseinheit_D_40",
    "joint_names": [
        "shoulder_pan_joint",
        "shoulder_lift_joint",
        "elbow_joint",
        "wrist_1_joint",
        "wrist_2_joint",
        "wrist_3_joint"
    ],
    "metrics": {
        "cart_traj_len": 0.34444637398052336,
        "distance_elbow_joint": 0.6763986811072189,
        "distance_shoulder_lift_joint": 0.14308250770485564,
        "distance_shoulder_pan_joint": 0.13280045020895934,
        "distance_wrist_1_joint": 0.6489483913370249,
        "distance_wrist_2_joint": 1.4489638282884232,
        "distance_wrist_3_joint": 0.09208903617680342,
        "smoothness": 0.0,
        "time": 0.126407975,
        "traj_len": 1.7726485536685734,
        "weighted_distance": 2.3290283782732963
    },
    "planner": "ProjEST",
    "start": {
        "state": {
            "elbow_joint": -1.8275484843655228,
            "shoulder_lift_joint": -2.1267897864000416,
            "shoulder_pan_joint": -0.035127520176001514,
            "wrist_1_joint": -2.3477863256791385,
            "wrist_2_joint": -1.605890476484521,
            "wrist_3_joint": -3.0880375317375353
        }
    },
    "waypoints": [
        {
            "positions": [
                -0.035127520176001514,
                -2.1267897864000416,
                -1.8275484843655228,
                -2.3477863256791385,
                -1.605890476484521,
                -3.0880375317375353
            ]
        },
        {
            "positions": [
                -0.051727576452121435,
                -2.1446750998631483,
                -1.7429986492271203,
                -2.4289048745962667,
                -1.424769997948468,
                -3.0765264022154346
            ]
        },
        {
            "positions": [
                -0.06832763272824136,
                -2.1625604133262555,
                -1.6584488140887181,
                -2.5100234235133945,
                -1.2436495194124153,
                -3.0650152726933344
            ]
        },
        {
            "positions": [
                -0.08492768900436126,
                -2.1804457267893627,
                -1.5738989789503157,
                -2.5911419724305227,
                -1.0625290408763624,
                -3.053504143171234
            ]
        },
        {
            "positions": [
                -0.10152774528048118,
                -2.1983310402524694,
                -1.4893491438119133,
                -2.672260521347651,
                -0.8814085623403094,
                -3.0419930136491335
            ]
        },
        {
            "positions": [
                -0.1181278015566011,
                -2.216216353715576,
                -1.4047993086735109,
                -2.753379070264779,
                -0.7002880838042564,
                -3.030481884127033
            ]
        },
        {
            "positions": [
                -0.134727857832721,
                -2.2341016671786833,
                -1.3202494735351085,
                -2.8344976191819073,
                -0.5191676052682037,
                -3.0189707546049327
            ]
        },
        {
            "positions": [
                -0.15132791410884094,
                -2.2519869806417905,
                -1.2356996383967063,
                -2.915616168099035,
                -0.33804712673215076,
                -3.0074596250828325
            ]
        },
        {
            "positions": [
                -0.16792797038496085,
                -2.269872294104897,
                -1.1511498032583038,
                -2.9967347170161633,
                -0.15692664819609775,
                -2.995948495560732
            ]
        }
    ]
}