{
    "goal": {
        "global_pose": {
            "orientation": {
                "w": -0.4816463035849501,
                "x": 0.5182115481033762,
                "y": 0.4908360881923453,
                "z": -0.5084816262002911
            },
            "position": {
                "x": -0.8240239810943604,
                "y": 0.19912469901144506,
                "z": 0.16403168439865112
            }
        },
        "name": "move_to_storage_D"
    },
    "id": "ProjEST_move_to_storage_D_113",
    "joint_names": [
        "shoulder_pan_joint",
        "shoulder_lift_joint",
        "elbow_joint",
        "wrist_1_joint",
        "wrist_2_joint",
        "wrist_3_joint"
    ],
    "metrics": {
        "cart_traj_len": 3.8194939303275754,
        "distance_elbow_joint": 4.232046736417768,
        "distance_shoulder_lift_joint": 1.2632567446406953,
        "distance_shoulder_pan_joint": 2.8122639041183466,
        "distance_wrist_1_joint": 4.741242134517851,
        "distance_wrist_2_joint": 6.118572128914687,
        "distance_wrist_3_joint": 3.2544798038677967,
        "smoothness": 0.265815006711846,
        "time": 0.285342522,
        "traj_len": 4.7351728006987415,
        "weighted_distance": 6.307981874073932
    },
    "planner": "ProjEST",
    "start": {
        "state": {
            "elbow_joint": -2.384821990628643,
            "shoulder_lift_joint": -2.278805467437664,
            "shoulder_pan_joint": -0.18546946439364564,
            "wrist_1_joint": 1.4845938187801415,
            "wrist_2_joint": 0.178987772454074,
            "wrist_3_joint": 0.03710569632802521
        }
    },
    "waypoints": [
        {
            "positions": [
                -0.18546946439364564,
                -2.278805467437664,
                -2.384821990628643,
                1.4845938187801415,
                0.178987772454074,
                0.03710569632802521
            ]
        },
        {
            "positions": [
                -0.052780904235307013,
                -2.2497816184896196,
                -2.3939231019596567,
                1.444974574812384,
                0.21650369853012397,
                0.1789602810761677
            ]
        },
        {
            "positions": [
                0.01892129136113646,
                -2.2296249084097783,
                -2.2792664911947513,
                1.3428127667962744,
                0.13932569902904907,
                0.1774125167028233
            ]
        },
        {
            "positions": [
                0.09062348695757994,
                -2.209468198329937,
                -2.1646098804298464,
                1.2406509587801648,
                0.06214769952797419,
                0.17586475232947885
            ]
        },
        {
            "positions": [
                0.1623256825540234,
                -2.189311488250096,
                -2.049953269664941,
                1.1384891507640553,
                -0.015030299973100708,
                0.17431698795613443
            ]
        },
        {
            "positions": [
                0.23402787815046688,
                -2.1691547781702547,
                -1.9352966589000358,
                1.0363273427479458,
                -0.09220829947417558,
                0.17276922358279
            ]
        },
        {
            "positions": [
                0.30573007374691036,
                -2.148998068090413,
                -1.8206400481351306,
                0.9341655347318363,
                -0.16938629897525048,
                0.17122145920944556
            ]
        },
        {
            "positions": [
                0.37743226934335383,
                -2.128841358010572,
                -1.7059834373702252,
                0.8320037267157268,
                -0.24656429847632538,
                0.16967369483610115
            ]
        },
        {
            "positions": [
                0.44913446493979725,
                -2.1086846479307306,
                -1.5913268266053202,
                0.7298419186996173,
                -0.3237422979774002,
                0.16812593046275673
            ]
        },
        {
            "positions": [
                0.5208366605362408,
                -2.0885279378508894,
                -1.4766702158404148,
                0.6276801106835078,
                -0.40092029747847513,
                0.16657816608941228
            ]
        },
        {
            "positions": [
                0.5925388561326842,
                -2.068371227771048,
                -1.3620136050755096,
                0.5255183026673983,
                -0.47809829697955,
                0.16503040171606786
            ]
        },
        {
            "positions": [
                0.6642410517291277,
                -2.048214517691207,
                -1.2473569943106044,
                0.42335649465128866,
                -0.5552762964806249,
                0.16348263734272345
            ]
        },
        {
            "positions": [
                0.7359432473255713,
                -2.028057807611366,
                -1.1327003835456992,
                0.32119468663517914,
                -0.6324542959816998,
                0.161934872969379
            ]
        },
        {
            "positions": [
                0.8076454429220147,
                -2.0079010975315246,
                -1.0180437727807938,
                0.21903287861906962,
                -0.7096322954827747,
                0.16038710859603458
            ]
        },
        {
            "positions": [
                0.8793476385184581,
                -1.9877443874516831,
                -0.9033871620158889,
                0.11687107060296031,
                -0.7868102949838495,
                0.15883934422269017
            ]
        },
        {
            "positions": [
                0.9510498341149015,
                -1.967587677371842,
                -0.7887305512509837,
                0.014709262586850791,
                -0.8639882944849243,
                0.15729157984934572
            ]
        },
        {
            "positions": [
                1.022752029711345,
                -1.9474309672920005,
                -0.6740739404860785,
                -0.08745254542925873,
                -0.9411662939859992,
                0.1557438154760013
            ]
        },
        {
            "positions": [
                1.0944542253077887,
                -1.9272742572121593,
                -0.5594173297211731,
                -0.18961435344536826,
                -1.0183442934870741,
                0.15419605110265688
            ]
        },
        {
            "positions": [
                1.1661564209042319,
                -1.907117547132318,
                -0.4447607189562679,
                -0.2917761614614778,
                -1.0955222929881492,
                0.15264828672931247
            ]
        },
        {
            "positions": [
                1.2378586165006755,
                -1.8869608370524769,
                -0.3301041081913625,
                -0.3939379694775873,
                -1.1727002924892238,
                0.15110052235596802
            ]
        },
        {
            "positions": [
                1.3095608120971192,
                -1.8668041269726356,
                -0.21544749742645752,
                -0.4960997774936968,
                -1.2498782919902989,
                0.1495527579826236
            ]
        },
        {
            "positions": [
                1.3812630076935624,
                -1.8466474168927942,
                -0.10079088666155211,
                -0.5982615855098066,
                -1.327056291491374,
                0.14800499360927916
            ]
        },
        {
            "positions": [
                1.452965203290006,
                -1.826490706812953,
                0.013865724103353294,
                -0.7004233935259159,
                -1.4042342909924486,
                0.14645722923593474
            ]
        },
        {
            "positions": [
                1.5246673988864496,
                -1.8063339967331118,
                0.12852233486825826,
                -0.8025852015420256,
                -1.4814122904935236,
                0.14490946486259032
            ]
        },
        {
            "positions": [
                1.5963695944828928,
                -1.7861772866532704,
                0.24317894563316367,
                -0.9047470095581349,
                -1.5585902899945987,
                0.1433617004892459
            ]
        },
        {
            "positions": [
                1.6680717900793365,
                -1.7660205765734291,
                0.3578355563980691,
                -1.0069088175742447,
                -1.6357682894956733,
                0.14181393611590146
            ]
        },
        {
            "positions": [
                1.7397739856757797,
                -1.745863866493588,
                0.47249216716297404,
                -1.109070625590354,
                -1.7129462889967484,
                0.14026617174255704
            ]
        },
        {
            "positions": [
                1.8114761812722233,
                -1.7257071564137467,
                0.587148777927879,
                -1.2112324336064633,
                -1.790124288497823,
                0.13871840736921262
            ]
        },
        {
            "positions": [
                1.8831783768686665,
                -1.7055504463339055,
                0.701805388692784,
                -1.3133942416225726,
                -1.867302287998898,
                0.13717064299586817
            ]
        },
        {
            "positions": [
                1.9548805724651102,
                -1.6853937362540643,
                0.8164619994576894,
                -1.4155560496386823,
                -1.9444802874999727,
                0.13562287862252376
            ]
        },
        {
            "positions": [
                2.026582768061554,
                -1.665237026174223,
                0.9311186102225948,
                -1.5177178576547916,
                -2.0216582870010478,
                0.13407511424917934
            ]
        },
        {
            "positions": [
                2.098284963657997,
                -1.6450803160943817,
                1.0457752209874998,
                -1.6198796656709014,
                -2.0988362865021224,
                0.1325273498758349
            ]
        },
        {
            "positions": [
                2.1699871592544406,
                -1.6249236060145404,
                1.1604318317524052,
                -1.7220414736870107,
                -2.1760142860031975,
                0.13097958550249048
            ]
        },
        {
            "positions": [
                2.2416893548508843,
                -1.604766895934699,
                1.2750884425173106,
                -1.8242032817031204,
                -2.2531922855042725,
                0.12943182112914606
            ]
        },
        {
            "positions": [
                2.3133915504473275,
                -1.5846101858548578,
                1.3897450532822155,
                -1.9263650897192297,
                -2.330370285005347,
                0.1278840567558016
            ]
        },
        {
            "positions": [
                2.385093746043771,
                -1.5644534757750166,
                1.5044016640471212,
                -2.0285268977353392,
                -2.407548284506422,
                0.1263362923824572
            ]
        },
        {
            "positions": [
                2.3956024718559856,
                -1.5405880517324928,
                1.5185156144419028,
                -1.9751303143439318,
                -2.257243753210679,
                0.25937982414010696
            ]
        },
        {
            "positions": [
                2.4061111976681997,
                -1.516722627689969,
                1.532629564836684,
                -1.9217337309525246,
                -2.106939221914936,
                0.3924233558977567
            ]
        },
        {
            "positions": [
                2.416619923480414,
                -1.492857203647445,
                1.5467435152314657,
                -1.8683371475611172,
                -1.956634690619193,
                0.5254668876554064
            ]
        },
        {
            "positions": [
                2.4271286492926283,
                -1.4689917796049212,
                1.5608574656262473,
                -1.8149405641697098,
                -1.80633015932345,
                0.6585104194130562
            ]
        },
        {
            "positions": [
                2.437637375104843,
                -1.4451263555623974,
                1.5749714160210286,
                -1.7615439807783024,
                -1.6560256280277068,
                0.7915539511707059
            ]
        },
        {
            "positions": [
                2.4481461009170573,
                -1.4212609315198736,
                1.5890853664158102,
                -1.7081473973868952,
                -1.5057210967319636,
                0.9245974829283556
            ]
        },
        {
            "positions": [
                2.4586548267292714,
                -1.3973955074773499,
                1.6031993168105918,
                -1.6547508139954878,
                -1.3554165654362207,
                1.0576410146860054
            ]
        },
        {
            "positions": [
                2.469163552541486,
                -1.373530083434826,
                1.6173132672053732,
                -1.6013542306040804,
                -1.2051120341404777,
                1.190684546443655
            ]
        },
        {
            "positions": [
                2.4796722783537,
                -1.349664659392302,
                1.6314272176001547,
                -1.547957647212673,
                -1.0548075028447346,
                1.3237280782013048
            ]
        },
        {
            "positions": [
                2.4901810041659145,
                -1.3257992353497783,
                1.6455411679949363,
                -1.4945610638212656,
                -0.9045029715489916,
                1.4567716099589545
            ]
        },
        {
            "positions": [
                2.500689729978129,
                -1.3019338113072545,
                1.6596551183897177,
                -1.4411644804298585,
                -0.7541984402532484,
                1.5898151417166042
            ]
        },
        {
            "positions": [
                2.511198455790343,
                -1.2780683872647307,
                1.6737690687844993,
                -1.387767897038451,
                -0.6038939089575053,
                1.722858673474254
            ]
        },
        {
            "positions": [
                2.5217071816025576,
                -1.254202963222207,
                1.6878830191792806,
                -1.3343713136470439,
                -0.4535893776617623,
                1.8559022052319036
            ]
        },
        {
            "positions": [
                2.532215907414772,
                -1.2303375391796831,
                1.7019969695740622,
                -1.2809747302556365,
                -0.30328484636601916,
                1.9889457369895536
            ]
        },
        {
            "positions": [
                2.542724633226986,
                -1.2064721151371591,
                1.7161109199688438,
                -1.227578146864229,
                -0.15298031507027599,
                2.1219892687472033
            ]
        },
        {
            "positions": [
                2.5532333590392007,
                -1.1826066910946353,
                1.7302248703636252,
                -1.1741815634728217,
                -0.002675783774533258,
                2.255032800504853
            ]
        },
        {
            "positions": [
                2.5637420848514147,
                -1.1587412670521116,
                1.7443388207584067,
                -1.1207849800814143,
                0.1476287475212099,
                2.3880763322625023
            ]
        },
        {
            "positions": [
                2.5742508106636293,
                -1.1348758430095878,
                1.7584527711531883,
                -1.0673883966900068,
                0.2979332788169531,
                2.5211198640201524
            ]
        },
        {
            "positions": [
                2.5847595364758438,
                -1.111010418967064,
                1.7725667215479697,
                -1.0139918132985997,
                0.44823781011269626,
                2.654163395777802
            ]
        },
        {
            "positions": [
                2.595268262288058,
                -1.08714499492454,
                1.7866806719427513,
                -0.9605952299071923,
                0.598542341408439,
                2.787206927535452
            ]
        },
        {
            "positions": [
                2.6057769881002724,
                -1.0632795708820164,
                1.8007946223375328,
                -0.9071986465157851,
                0.7488468727041822,
                2.9202504592931016
            ]
        },
        {
            "positions": [
                2.6162857139124864,
                -1.0394141468394924,
                1.8149085727323144,
                -0.8538020631243777,
                0.8991514039999253,
                3.0532939910507513
            ]
        },
        {
            "positions": [
                2.626794439724701,
                -1.0155487227969686,
                1.8290225231270958,
                -0.8004054797329703,
                1.0494559352956685,
                3.186337522808401
            ]
        }
    ]
}