{
    "goal": {
        "global_pose": {
            "orientation": {
                "w": -0.4816463035849501,
                "x": 0.5182115481033762,
                "y": 0.4908360881923453,
                "z": -0.5084816262002911
            },
            "position": {
                "x": -0.8240239810943604,
                "y": -0.300875300988555,
                "z": 0.16403168439865112
            }
        },
        "name": "move_to_storage_C"
    },
    "id": "ProjEST_move_to_storage_C_126",
    "joint_names": [
        "shoulder_pan_joint",
        "shoulder_lift_joint",
        "elbow_joint",
        "wrist_1_joint",
        "wrist_2_joint",
        "wrist_3_joint"
    ],
    "metrics": {
        "cart_traj_len": 0.576867985421789,
        "distance_elbow_joint": 0.2537062892062305,
        "distance_shoulder_lift_joint": 0.1891010033319268,
        "distance_shoulder_pan_joint": 0.4956898627196886,
        "distance_wrist_1_joint": 0.06326226995472328,
        "distance_wrist_2_joint": 1.0649675621958279,
        "distance_wrist_3_joint": 0.06899343988998341,
        "smoothness": 2.5376526478085547e-16,
        "time": 0.216970738,
        "traj_len": 1.4614104239734917,
        "weighted_distance": 1.8444340972853703
    },
    "planner": "ProjEST",
    "start": {
        "state": {
            "elbow_joint": 2.0108683149792914,
            "shoulder_lift_joint": -1.1634956873317392,
            "shoulder_pan_joint": -2.4736205022346,
            "wrist_1_joint": -0.8367026793690192,
            "wrist_2_joint": 0.6746043897045053,
            "wrist_3_joint": 3.133522094754363
        }
    },
    "waypoints": [
        {
            "positions": [
                -2.4736205022346,
                -1.1634956873317392,
                2.0108683149792914,
                -0.8367026793690192,
                0.6746043897045053,
                3.133522094754363
            ]
        },
        {
            "positions": [
                -2.556235479354548,
                -1.1319788534430848,
                1.9685839334449198,
                -0.8261589677098986,
                0.85209898340381,
                3.145021001402694
            ]
        },
        {
            "positions": [
                -2.638850456474496,
                -1.1004620195544303,
                1.926299551910548,
                -0.8156152560507781,
                1.0295935771031146,
                3.1565199080510244
            ]
        },
        {
            "positions": [
                -2.721465433594444,
                -1.068945185665776,
                1.884015170376176,
                -0.8050715443916576,
                1.2070881708024193,
                3.168018814699355
            ]
        },
        {
            "positions": [
                -2.8040804107143926,
                -1.0374283517771214,
                1.8417307888418044,
                -0.794527832732537,
                1.384582764501724,
                3.1795177213476853
            ]
        },
        {
            "positions": [
                -2.8866953878343407,
                -1.005911517888467,
                1.7994464073074328,
                -0.7839841210734164,
                1.5620773582010286,
                3.191016627996016
            ]
        },
        {
            "positions": [
                -2.9693103649542887,
                -0.9743946839998124,
                1.757162025773061,
                -0.7734404094142959,
                1.7395719519003332,
                3.2025155346443466
            ]
        }
    ]
}