{
    "goal": {
        "global_pose": {
            "orientation": {
                "w": 0.7031023502349854,
                "x": -0.7110244035720825,
                "y": 0.007748599164187908,
                "z": 0.005598929710686207
            },
            "position": {
                "x": 0.11585023208521307,
                "y": 0.44412534475326537,
                "z": 0.3711530566215515
            }
        },
        "name": "move_to_auspresseinheit_A"
    },
    "id": "ProjEST_move_to_auspresseinheit_A_126",
    "joint_names": [
        "shoulder_pan_joint",
        "shoulder_lift_joint",
        "elbow_joint",
        "wrist_1_joint",
        "wrist_2_joint",
        "wrist_3_joint"
    ],
    "metrics": {
        "cart_traj_len": 1.760759798868771,
        "distance_elbow_joint": 1.779933555450206,
        "distance_shoulder_lift_joint": 1.1957047988362175,
        "distance_shoulder_pan_joint": 1.2922027344276477,
        "distance_wrist_1_joint": 2.112114284270001,
        "distance_wrist_2_joint": 2.7351442956676717,
        "distance_wrist_3_joint": 3.1699052683095212,
        "smoothness": 0.7442585612167728,
        "time": 0.691877525,
        "traj_len": 3.5049971379390974,
        "weighted_distance": 4.844798659750266
    },
    "planner": "ProjEST",
    "start": {
        "state": {
            "elbow_joint": 2.4225746994637096,
            "shoulder_lift_joint": -1.373653595662188,
            "shoulder_pan_joint": -0.3378633848294565,
            "wrist_1_joint": -1.0288595594406726,
            "wrist_2_joint": 1.2330228066703421,
            "wrist_3_joint": 3.189163495502006
        }
    },
    "waypoints": [
        {
            "positions": [
                -0.3378633848294565,
                -1.373653595662188,
                2.4225746994637096,
                -1.0288595594406726,
                1.2330228066703421,
                3.189163495502006
            ]
        },
        {
            "positions": [
                -0.3057445986552135,
                -1.4091451203986836,
                2.365905725603362,
                -0.9698734394097934,
                1.1311852094494408,
                3.0883715621361136
            ]
        },
        {
            "positions": [
                -0.2736258124809704,
                -1.444636645135179,
                2.3092367517430143,
                -0.9108873193789142,
                1.0293476122285397,
                2.987579628770221
            ]
        },
        {
            "positions": [
                -0.24150702630672738,
                -1.4801281698716744,
                2.2525677778826667,
                -0.851901199348035,
                0.9275100150076384,
                2.886787695404329
            ]
        },
        {
            "positions": [
                -0.20938824013248433,
                -1.51561969460817,
                2.195898804022319,
                -0.7929150793171558,
                0.8256724177867372,
                2.7859957620384366
            ]
        },
        {
            "positions": [
                -0.17726945395824129,
                -1.5511112193446654,
                2.1392298301619714,
                -0.7339289592862765,
                0.7238348205658359,
                2.6852038286725444
            ]
        },
        {
            "positions": [
                -0.14515066778399827,
                -1.5866027440811608,
                2.082560856301624,
                -0.6749428392553973,
                0.6219972233449347,
                2.584411895306652
            ]
        },
        {
            "positions": [
                -0.11303188160975522,
                -1.6220942688176563,
                2.025891882441276,
                -0.6159567192245181,
                0.5201596261240334,
                2.4836199619407595
            ]
        },
        {
            "positions": [
                -0.08091309543551217,
                -1.6575857935541518,
                1.9692229085809287,
                -0.5569705991936389,
                0.4183220289031322,
                2.3828280285748673
            ]
        },
        {
            "positions": [
                -0.04879430926126915,
                -1.6930773182906473,
                1.912553934720581,
                -0.4979844791627598,
                0.31648443168223095,
                2.282036095208975
            ]
        },
        {
            "positions": [
                -0.01667552308702608,
                -1.7285688430271429,
                1.8558849608602335,
                -0.43899835913188057,
                0.2146468344613297,
                2.1812441618430825
            ]
        },
        {
            "positions": [
                0.01544326308721694,
                -1.7640603677636382,
                1.799215986999886,
                -0.38001223910100135,
                0.11280923724042857,
                2.0804522284771902
            ]
        },
        {
            "positions": [
                0.04756204926145996,
                -1.7995518925001337,
                1.7425470131395384,
                -0.32102611907012213,
                0.010971640019527218,
                1.979660295111298
            ]
        },
        {
            "positions": [
                0.07968083543570303,
                -1.8350434172366292,
                1.6858780392791908,
                -0.2620399990392429,
                -0.09086595720137414,
                1.8788683617454058
            ]
        },
        {
            "positions": [
                0.11179962160994605,
                -1.8705349419731245,
                1.6292090654188431,
                -0.2030538790083637,
                -0.19270355442227527,
                1.7780764283795134
            ]
        },
        {
            "positions": [
                0.14391840778418913,
                -1.90602646670962,
                1.5725400915584955,
                -0.14406775897748447,
                -0.2945411516431764,
                1.677284495013621
            ]
        },
        {
            "positions": [
                0.17603719395843218,
                -1.9415179914461156,
                1.5158711176981479,
                -0.08508163894660523,
                -0.39637874886407776,
                1.5764925616477288
            ]
        },
        {
            "positions": [
                0.26307220638506845,
                -1.9838268239580874,
                1.5726091483203948,
                -0.02784325839841085,
                -0.34708228981555467,
                1.6531553837817712
            ]
        },
        {
            "positions": [
                0.35010721881170476,
                -2.026135656470059,
                1.6293471789426417,
                0.02939512214978353,
                -0.29778583076703163,
                1.7298182059158136
            ]
        },
        {
            "positions": [
                0.43714223123834106,
                -2.068444488982031,
                1.6860852095648886,
                0.0866335026979779,
                -0.24848937171850854,
                1.8064810280498562
            ]
        },
        {
            "positions": [
                0.5241772436649773,
                -2.1107533214940024,
                1.7428232401871355,
                0.14387188324617228,
                -0.19919291266998548,
                1.8831438501838986
            ]
        },
        {
            "positions": [
                0.6112122560916137,
                -2.153062154005974,
                1.7995612708093827,
                0.20111026379436667,
                -0.1498964536214624,
                1.9598066723179413
            ]
        },
        {
            "positions": [
                0.6982472685182499,
                -2.195370986517946,
                1.8562993014316296,
                0.258348644342561,
                -0.10059999457293933,
                2.0364694944519837
            ]
        },
        {
            "positions": [
                0.7852822809448863,
                -2.2376798190299176,
                1.9130373320538765,
                0.3155870248907554,
                -0.051303535524416244,
                2.113132316586026
            ]
        },
        {
            "positions": [
                0.7908834745721416,
                -2.2101054639348665,
                1.9648099837529394,
                0.25219621749201837,
                0.03656938387276072,
                2.2268462307372503
            ]
        },
        {
            "positions": [
                0.7964846681993969,
                -2.182531108839816,
                2.016582635452002,
                0.18880541009328128,
                0.12444230326993769,
                2.340560144888474
            ]
        },
        {
            "positions": [
                0.8020858618266522,
                -2.1549567537447647,
                2.0683552871510646,
                0.1254146026945442,
                0.21231522266711467,
                2.4542740590396983
            ]
        },
        {
            "positions": [
                0.8076870554539075,
                -2.127382398649714,
                2.1201279388501275,
                0.06202379529580715,
                0.3001881420642916,
                2.567987973190922
            ]
        },
        {
            "positions": [
                0.8132882490811628,
                -2.099808043554663,
                2.1719005905491904,
                -0.0013670121029298876,
                0.38806106146146857,
                2.6817018873421463
            ]
        },
        {
            "positions": [
                0.8188894427084181,
                -2.0722336884596118,
                2.2236732422482532,
                -0.06475781950166698,
                0.4759339808586456,
                2.7954158014933705
            ]
        },
        {
            "positions": [
                0.8244906363356734,
                -2.044659333364561,
                2.2754458939473157,
                -0.12814862690040407,
                0.5638069002558225,
                2.9091297156445943
            ]
        },
        {
            "positions": [
                0.8300918299629287,
                -2.01708497826951,
                2.3272185456463785,
                -0.1915394342991411,
                0.6516798196529995,
                3.0228436297958186
            ]
        },
        {
            "positions": [
                0.7679680701452977,
                -1.96154311091547,
                2.3581598185145856,
                -0.32181005467347934,
                0.6805219054610867,
                3.0782852629493958
            ]
        },
        {
            "positions": [
                0.7058443103276666,
                -1.9060012435614297,
                2.389101091382792,
                -0.4520806750478176,
                0.709363991269174,
                3.133726896102973
            ]
        }
    ]
}