{
    "goal": {
        "global_pose": {
            "orientation": {
                "w": 0.7047431493862688,
                "x": -0.7094548369677653,
                "y": 0.0024358444001904,
                "z": -0.0022348060817251984
            },
            "position": {
                "x": -0.39052492380142206,
                "y": 0.3671506643295288,
                "z": 0.19426114857196808
            }
        },
        "name": "move_to_magneteinheit_D"
    },
    "id": "ProjEST_move_to_magneteinheit_D_67",
    "joint_names": [
        "shoulder_pan_joint",
        "shoulder_lift_joint",
        "elbow_joint",
        "wrist_1_joint",
        "wrist_2_joint",
        "wrist_3_joint"
    ],
    "metrics": {
        "cart_traj_len": 4.401094992034747,
        "distance_elbow_joint": 3.109575560119236,
        "distance_shoulder_lift_joint": 1.0994287742469107,
        "distance_shoulder_pan_joint": 3.0533080393816583,
        "distance_wrist_1_joint": 2.3877642623230777,
        "distance_wrist_2_joint": 0.7033536298537681,
        "distance_wrist_3_joint": 1.3406281375427054,
        "smoothness": 0.44678944578156804,
        "time": 0.545558458,
        "traj_len": 3.4196576441900377,
        "weighted_distance": 4.17928613171312
    },
    "planner": "ProjEST",
    "start": {
        "state": {
            "elbow_joint": 0.7495348899011911,
            "shoulder_lift_joint": -0.6476975780737668,
            "shoulder_pan_joint": -2.711696901376276,
            "wrist_1_joint": -0.0750647808097303,
            "wrist_2_joint": 0.43296659715458535,
            "wrist_3_joint": 3.1361499051832418
        }
    },
    "waypoints": [
        {
            "positions": [
                -2.711696901376276,
                -0.6476975780737668,
                0.7495348899011911,
                -0.0750647808097303,
                0.43296659715458535,
                3.1361499051832418
            ]
        },
        {
            "positions": [
                -2.7143491069079784,
                -0.6839258505577193,
                0.5614211028273591,
                -0.005705541236995917,
                0.45222644502630893,
                3.125970501116332
            ]
        },
        {
            "positions": [
                -2.7170013124396806,
                -0.7201541230416717,
                0.3733073157535271,
                0.06365369833573847,
                0.47148629289803257,
                3.1157910970494225
            ]
        },
        {
            "positions": [
                -2.5872052234150216,
                -0.761897572092474,
                0.2722012103263931,
                0.01381958161384348,
                0.44580663522018127,
                3.082160058007131
            ]
        },
        {
            "positions": [
                -2.457409134390363,
                -0.8036410211432762,
                0.17109510489925914,
                -0.03601453510805151,
                0.4201269775423299,
                3.0485290189648393
            ]
        },
        {
            "positions": [
                -2.3276130453657045,
                -0.8453844701940785,
                0.06998899947212517,
                -0.0858486518299465,
                0.3944473198644786,
                3.014897979922548
            ]
        },
        {
            "positions": [
                -2.1978169563410455,
                -0.8871279192448808,
                -0.031117105955008828,
                -0.1356827685518415,
                0.3687676621866273,
                2.9812669408802566
            ]
        },
        {
            "positions": [
                -2.0680208673163865,
                -0.9288713682956831,
                -0.13222321138214282,
                -0.1855168852737365,
                0.34308800450877597,
                2.9476359018379648
            ]
        },
        {
            "positions": [
                -1.938224778291728,
                -0.9706148173464852,
                -0.23332931680927677,
                -0.23535100199563147,
                0.31740834683092467,
                2.9140048627956734
            ]
        },
        {
            "positions": [
                -1.8084286892670691,
                -1.0123582663972877,
                -0.3344354222364107,
                -0.2851851187175265,
                0.2917286891530734,
                2.880373823753382
            ]
        },
        {
            "positions": [
                -1.6786326002424103,
                -1.0541017154480898,
                -0.43554152766354476,
                -0.33501923543942147,
                0.2660490314752221,
                2.8467427847110907
            ]
        },
        {
            "positions": [
                -1.5488365112177516,
                -1.095845164498892,
                -0.5366476330906786,
                -0.38485335216131644,
                0.24036937379737075,
                2.813111745668799
            ]
        },
        {
            "positions": [
                -1.4190404221930928,
                -1.1375886135496942,
                -0.6377537385178127,
                -0.43468746888321147,
                0.21468971611951942,
                2.7794807066265075
            ]
        },
        {
            "positions": [
                -1.2892443331684338,
                -1.1793320626004966,
                -0.7388598439449467,
                -0.48452158560510655,
                0.18901005844166807,
                2.745849667584216
            ]
        },
        {
            "positions": [
                -1.1594482441437752,
                -1.221075511651299,
                -0.8399659493720806,
                -0.5343557023270014,
                0.16333040076381683,
                2.7122186285419243
            ]
        },
        {
            "positions": [
                -1.0296521551191162,
                -1.2628189607021012,
                -0.9410720547992146,
                -0.5841898190488966,
                0.13765074308596548,
                2.678587589499633
            ]
        },
        {
            "positions": [
                -0.8998560660944577,
                -1.3045624097529034,
                -1.0421781602263485,
                -0.6340239357707915,
                0.11197108540811418,
                2.6449565504573416
            ]
        },
        {
            "positions": [
                -0.7700599770697987,
                -1.3463058588037056,
                -1.1432842656534825,
                -0.6838580524926865,
                0.08629142773026283,
                2.6113255114150498
            ]
        },
        {
            "positions": [
                -0.6402638880451401,
                -1.3880493078545078,
                -1.2443903710806166,
                -0.7336921692145815,
                0.06061177005241153,
                2.5776944723727584
            ]
        },
        {
            "positions": [
                -0.5104677990204811,
                -1.4297927569053104,
                -1.3454964765077506,
                -0.7835262859364764,
                0.03493211237456023,
                2.544063433330467
            ]
        },
        {
            "positions": [
                -0.38067170999582256,
                -1.4715362059561126,
                -1.4466025819348844,
                -0.8333604026583714,
                0.009252454696708934,
                2.510432394288175
            ]
        },
        {
            "positions": [
                -0.25087562097116345,
                -1.5132796550069147,
                -1.5477086873620185,
                -0.8831945193802664,
                -0.0164272029811424,
                2.476801355245884
            ]
        },
        {
            "positions": [
                -0.20454729910921682,
                -1.5334576657666354,
                -1.6347414273751222,
                -1.003726587532036,
                -0.014598065663358825,
                2.5596902531975534
            ]
        },
        {
            "positions": [
                -0.15821897724727016,
                -1.553635676526356,
                -1.7217741673882259,
                -1.1242586556838057,
                -0.012768928345575251,
                2.6425791511492234
            ]
        },
        {
            "positions": [
                -0.11189065538532353,
                -1.5738136872860766,
                -1.8088069074013295,
                -1.2447907238355753,
                -0.01093979102779168,
                2.725468049100893
            ]
        },
        {
            "positions": [
                -0.06556233352337687,
                -1.5939916980457973,
                -1.8958396474144332,
                -1.365322791987345,
                -0.009110653710008106,
                2.8083569470525624
            ]
        },
        {
            "positions": [
                -0.01923401166143021,
                -1.614169708805518,
                -1.9828723874275371,
                -1.4858548601391146,
                -0.007281516392224532,
                2.8912458450042324
            ]
        },
        {
            "positions": [
                0.02709431020051639,
                -1.6343477195652385,
                -2.0699051274406406,
                -1.6063869282908843,
                -0.005452379074440959,
                2.974134742955902
            ]
        },
        {
            "positions": [
                0.07342263206246308,
                -1.6545257303249592,
                -2.1569378674537445,
                -1.726918996442654,
                -0.0036232417566573853,
                3.0570236409075715
            ]
        },
        {
            "positions": [
                0.011600331163803823,
                -1.6804750519255893,
                -2.2187862324571004,
                -1.8579664929382058,
                -0.04578517221286012,
                3.089503446981434
            ]
        },
        {
            "positions": [
                -0.05022196973485543,
                -1.7064243735262197,
                -2.2806345974604563,
                -1.989013989433758,
                -0.08794710266906285,
                3.1219832530552973
            ]
        },
        {
            "positions": [
                -0.11204427063351469,
                -1.7323736951268498,
                -2.342482962463812,
                -2.12006148592931,
                -0.13010903312526556,
                3.15446305912916
            ]
        },
        {
            "positions": [
                -0.1841570517536466,
                -1.7471263523206775,
                -2.360040670218044,
                -2.1853920848418706,
                -0.16773971876331834,
                3.1508451754070887
            ]
        }
    ]
}