{
    "goal": {
        "global_pose": {
            "orientation": {
                "w": 0.005598929693374612,
                "x": 0.007748599140229565,
                "y": 0.7110244013736278,
                "z": -0.7031023480610252
            },
            "position": {
                "x": -0.8858502320852131,
                "y": -0.7141253447532654,
                "z": 0.3711530566215515
            }
        },
        "name": "move_to_auspresseinheit_C"
    },
    "id": "ProjEST_move_to_auspresseinheit_C_10",
    "joint_names": [
        "shoulder_pan_joint",
        "shoulder_lift_joint",
        "elbow_joint",
        "wrist_1_joint",
        "wrist_2_joint",
        "wrist_3_joint"
    ],
    "metrics": {
        "cart_traj_len": 0.4932171269445361,
        "distance_elbow_joint": 1.0042429263410182,
        "distance_shoulder_lift_joint": 0.32683109039348324,
        "distance_shoulder_pan_joint": 0.2554394903346098,
        "distance_wrist_1_joint": 0.6803975795185857,
        "distance_wrist_2_joint": 1.3155111917406332,
        "distance_wrist_3_joint": 0.05184958221556757,
        "smoothness": 1.6148698667872622e-16,
        "time": 1.1282809139999999,
        "traj_len": 1.9063766313464656,
        "weighted_distance": 2.394552107646491
    },
    "planner": "ProjEST",
    "start": {
        "state": {
            "elbow_joint": 1.7527959577730765,
            "shoulder_lift_joint": -0.9740617694224828,
            "shoulder_pan_joint": -2.967991417825869,
            "wrist_1_joint": -0.7595177689779385,
            "wrist_2_joint": 1.7443932448376545,
            "wrist_3_joint": 3.1991315425061013
        }
    },
    "waypoints": [
        {
            "positions": [
                -2.967991417825869,
                -0.9740617694224828,
                1.7527959577730765,
                -0.7595177689779385,
                1.7443932448376545,
                3.1991315425061013
            ]
        },
        {
            "positions": [
                -2.942447468792408,
                -0.9413786603831344,
                1.6523716651389746,
                -0.69147801102608,
                1.6128421256635912,
                3.1939465842845447
            ]
        },
        {
            "positions": [
                -2.916903519758947,
                -0.9086955513437861,
                1.551947372504873,
                -0.6234382530742214,
                1.4812910064895277,
                3.1887616260629876
            ]
        },
        {
            "positions": [
                -2.891359570725486,
                -0.8760124423044379,
                1.451523079870771,
                -0.5553984951223628,
                1.3497398873154645,
                3.183576667841431
            ]
        },
        {
            "positions": [
                -2.865815621692025,
                -0.8433293332650895,
                1.351098787236669,
                -0.48735873717050426,
                1.2181887681414012,
                3.1783917096198744
            ]
        },
        {
            "positions": [
                -2.840271672658564,
                -0.8106462242257412,
                1.2506744946025674,
                -0.4193189792186457,
                1.0866376489673377,
                3.1732067513983173
            ]
        },
        {
            "positions": [
                -2.8147277236251034,
                -0.7779631151863928,
                1.1502502019684657,
                -0.3512792212667871,
                0.9550865297932746,
                3.1680217931767607
            ]
        },
        {
            "positions": [
                -2.7891837745916424,
                -0.7452800061470446,
                1.0498259093343638,
                -0.2832394633149286,
                0.8235354106192112,
                3.162836834955204
            ]
        },
        {
            "positions": [
                -2.7636398255581813,
                -0.7125968971076961,
                0.9494016167002619,
                -0.21519970536306998,
                0.6919842914451477,
                3.1576518767336474
            ]
        },
        {
            "positions": [
                -2.7380958765247203,
                -0.6799137880683479,
                0.8489773240661601,
                -0.1471599474112114,
                0.5604331722710845,
                3.1524669185120904
            ]
        },
        {
            "positions": [
                -2.7125519274912593,
                -0.6472306790289996,
                0.7485530314320584,
                -0.0791201894593529,
                0.4288820530970212,
                3.1472819602905338
            ]
        }
    ]
}