{
    "goal": {
        "global_pose": {
            "orientation": {
                "w": 0.7031023480610252,
                "x": -0.7110244013736278,
                "y": 0.0077485991402295624,
                "z": 0.005598929693374583
            },
            "position": {
                "x": -0.8841497679147869,
                "y": 0.44412534475326537,
                "z": 0.3711530566215515
            }
        },
        "name": "move_to_auspresseinheit_D"
    },
    "id": "ProjEST_move_to_auspresseinheit_D_119",
    "joint_names": [
        "shoulder_pan_joint",
        "shoulder_lift_joint",
        "elbow_joint",
        "wrist_1_joint",
        "wrist_2_joint",
        "wrist_3_joint"
    ],
    "metrics": {
        "cart_traj_len": 0.34430885748874485,
        "distance_elbow_joint": 0.6636472607106803,
        "distance_shoulder_lift_joint": 0.1355877012821769,
        "distance_shoulder_pan_joint": 0.13390169218942793,
        "distance_wrist_1_joint": 0.6112733213786967,
        "distance_wrist_2_joint": 1.433742652393916,
        "distance_wrist_3_joint": 0.06783085953268264,
        "smoothness": 1.0855513978843758e-15,
        "time": 0.101943123,
        "traj_len": 1.745274616639909,
        "weighted_distance": 2.286189226710151
    },
    "planner": "ProjEST",
    "start": {
        "state": {
            "elbow_joint": -1.8275484843655228,
            "shoulder_lift_joint": -2.1267897864000416,
            "shoulder_pan_joint": -0.035127520176001514,
            "wrist_1_joint": -2.3477863256791385,
            "wrist_2_joint": -1.605890476484521,
            "wrist_3_joint": -3.0880375317375353
        }
    },
    "waypoints": [
        {
            "positions": [
                -0.035127520176001514,
                -2.1267897864000416,
                -1.8275484843655228,
                -2.3477863256791385,
                -1.605890476484521,
                -3.0880375317375353
            ]
        },
        {
            "positions": [
                -0.051865231699680006,
                -2.1437382490603136,
                -1.7445925767766877,
                -2.4241954908514756,
                -1.4266726449352816,
                -3.0795586742959498
            ]
        },
        {
            "positions": [
                -0.0686029432233585,
                -2.1606867117205857,
                -1.6616366691878528,
                -2.5006046560238127,
                -1.247454813386042,
                -3.0710798168543647
            ]
        },
        {
            "positions": [
                -0.08534065474703699,
                -2.1776351743808577,
                -1.5786807615990177,
                -2.5770138211961497,
                -1.0682369818368025,
                -3.062600959412779
            ]
        },
        {
            "positions": [
                -0.10207836627071548,
                -2.19458363704113,
                -1.4957248540101826,
                -2.653422986368487,
                -0.889019150287563,
                -3.0541221019711937
            ]
        },
        {
            "positions": [
                -0.11881607779439397,
                -2.2115320997014023,
                -1.4127689464213475,
                -2.729832151540824,
                -0.7098013187383234,
                -3.0456432445296087
            ]
        },
        {
            "positions": [
                -0.13555378931807247,
                -2.2284805623616744,
                -1.3298130388325125,
                -2.806241316713161,
                -0.530583487189084,
                -3.037164387088023
            ]
        },
        {
            "positions": [
                -0.15229150084175097,
                -2.2454290250219464,
                -1.2468571312436776,
                -2.882650481885498,
                -0.35136565563984434,
                -3.028685529646438
            ]
        },
        {
            "positions": [
                -0.16902921236542945,
                -2.2623774876822185,
                -1.1639012236548425,
                -2.959059647057835,
                -0.172147824090605,
                -3.0202066722048526
            ]
        }
    ]
}