{
    "goal": {
        "global_pose": {
            "orientation": {
                "w": -0.00223480608172531,
                "x": 0.0024358444001904467,
                "y": 0.7094548369677653,
                "z": -0.704743149386269
            },
            "position": {
                "x": 0.6205249238014221,
                "y": -0.6371506643295288,
                "z": 0.19426114857196808
            }
        },
        "name": "move_to_magneteinheit_B"
    },
    "id": "ProjEST_move_to_magneteinheit_B_29",
    "joint_names": [
        "shoulder_pan_joint",
        "shoulder_lift_joint",
        "elbow_joint",
        "wrist_1_joint",
        "wrist_2_joint",
        "wrist_3_joint"
    ],
    "metrics": {
        "cart_traj_len": 1.4532924846264759,
        "distance_elbow_joint": 0.7318689201131272,
        "distance_shoulder_lift_joint": 1.249031528916802,
        "distance_shoulder_pan_joint": 1.6213795604893484,
        "distance_wrist_1_joint": 2.6038190730720814,
        "distance_wrist_2_joint": 2.9394658540598537,
        "distance_wrist_3_joint": 3.146455643036165,
        "smoothness": 2.6914497627957446e-16,
        "time": 0.638481908,
        "traj_len": 3.505997800867447,
        "weighted_distance": 4.912048126076499
    },
    "planner": "ProjEST",
    "start": {
        "state": {
            "elbow_joint": 2.393587130804639,
            "shoulder_lift_joint": -1.9085141043513325,
            "shoulder_pan_joint": 0.7066247066698809,
            "wrist_1_joint": -0.4678290934590222,
            "wrist_2_joint": 0.7096259084215963,
            "wrist_3_joint": 3.147370379541726
        }
    },
    "waypoints": [
        {
            "positions": [
                0.7066247066698809,
                -1.9085141043513325,
                2.393587130804639,
                -0.4678290934590222,
                0.7096259084215963,
                3.147370379541726
            ]
        },
        {
            "positions": [
                0.6559565954045887,
                -1.8694818690726824,
                2.3707162270511035,
                -0.38645974742551964,
                0.6177676004822259,
                3.049043640696846
            ]
        },
        {
            "positions": [
                0.6052884841392966,
                -1.8304496337940324,
                2.3478453232975682,
                -0.3050904013920171,
                0.5259092925428555,
                2.950716901851966
            ]
        },
        {
            "positions": [
                0.5546203728740045,
                -1.7914173985153823,
                2.324974419544033,
                -0.22372105535851455,
                0.4340509846034851,
                2.852390163007086
            ]
        },
        {
            "positions": [
                0.5039522616087123,
                -1.7523851632367322,
                2.302103515790498,
                -0.142351709325012,
                0.3421926766641147,
                2.7540634241622053
            ]
        },
        {
            "positions": [
                0.4532841503434202,
                -1.7133529279580821,
                2.279232612036963,
                -0.06098236329150947,
                0.25033436872474424,
                2.655736685317325
            ]
        },
        {
            "positions": [
                0.40261603907812804,
                -1.674320692679432,
                2.2563617082834275,
                0.020386982741993076,
                0.1584760607853739,
                2.557409946472445
            ]
        },
        {
            "positions": [
                0.3519479278128359,
                -1.6352884574007822,
                2.2334908045298922,
                0.10175632877549562,
                0.06661775284600346,
                2.459083207627565
            ]
        },
        {
            "positions": [
                0.30127981654754377,
                -1.5962562221221321,
                2.210619900776357,
                0.18312567480899816,
                -0.02524055509336698,
                2.360756468782685
            ]
        },
        {
            "positions": [
                0.25061170528225163,
                -1.557223986843482,
                2.1877489970228217,
                0.2644950208425007,
                -0.11709886303273742,
                2.2624297299378044
            ]
        },
        {
            "positions": [
                0.1999435940169595,
                -1.518191751564832,
                2.1648780932692864,
                0.34586436687600325,
                -0.20895717097210786,
                2.1641029910929244
            ]
        },
        {
            "positions": [
                0.14927548275166735,
                -1.479159516286182,
                2.142007189515751,
                0.4272337129095058,
                -0.3008154789114783,
                2.0657762522480443
            ]
        },
        {
            "positions": [
                0.09860737148637522,
                -1.4401272810075318,
                2.1191362857622162,
                0.5086030589430084,
                -0.3926737868508485,
                1.9674495134031642
            ]
        },
        {
            "positions": [
                0.04793926022108308,
                -1.4010950457288818,
                2.096265382008681,
                0.5899724049765109,
                -0.48453209479021897,
                1.869122774558284
            ]
        },
        {
            "positions": [
                -0.0027288510442090574,
                -1.3620628104502317,
                2.0733944782551457,
                0.6713417510100135,
                -0.5763904027295894,
                1.7707960357134038
            ]
        },
        {
            "positions": [
                -0.053396962309501195,
                -1.3230305751715816,
                2.0505235745016104,
                0.752711097043516,
                -0.6682487106689599,
                1.6724692968685235
            ]
        },
        {
            "positions": [
                -0.10406507357479333,
                -1.2839983398929316,
                2.027652670748075,
                0.8340804430770186,
                -0.7601070186083303,
                1.5741425580236434
            ]
        },
        {
            "positions": [
                -0.15473318484008547,
                -1.2449661046142815,
                2.00478176699454,
                0.9154497891105211,
                -0.8519653265477007,
                1.4758158191787634
            ]
        },
        {
            "positions": [
                -0.2054012961053776,
                -1.2059338693356314,
                1.9819108632410047,
                0.9968191351440236,
                -0.9438236344870712,
                1.377489080333883
            ]
        },
        {
            "positions": [
                -0.25606940737066974,
                -1.1669016340569813,
                1.9590399594874695,
                1.0781884811775262,
                -1.0356819424264416,
                1.279162341489003
            ]
        },
        {
            "positions": [
                -0.3067375186359619,
                -1.1278693987783313,
                1.9361690557339344,
                1.1595578272110287,
                -1.127540250365812,
                1.1808356026441227
            ]
        },
        {
            "positions": [
                -0.3574056299012539,
                -1.0888371634996812,
                1.913298151980399,
                1.2409271732445313,
                -1.2193985583051823,
                1.0825088637992426
            ]
        },
        {
            "positions": [
                -0.40807374116654616,
                -1.049804928221031,
                1.8904272482268638,
                1.3222965192780338,
                -1.311256866244553,
                0.9841821249543625
            ]
        },
        {
            "positions": [
                -0.4587418524318384,
                -1.010772692942381,
                1.8675563444733285,
                1.4036658653115364,
                -1.4031151741839232,
                0.8858553861094824
            ]
        },
        {
            "positions": [
                -0.5094099636971304,
                -0.9717404576637311,
                1.8446854407197935,
                1.485035211345039,
                -1.4949734821232934,
                0.7875286472646024
            ]
        },
        {
            "positions": [
                -0.5600780749624225,
                -0.932708222385081,
                1.8218145369662582,
                1.5664045573785417,
                -1.586831790062664,
                0.6892019084197218
            ]
        },
        {
            "positions": [
                -0.6107461862277147,
                -0.893675987106431,
                1.798943633212723,
                1.647773903412044,
                -1.6786900980020343,
                0.5908751695748418
            ]
        },
        {
            "positions": [
                -0.661414297493007,
                -0.854643751827781,
                1.7760727294591878,
                1.7291432494455463,
                -1.770548405941405,
                0.4925484307299617
            ]
        },
        {
            "positions": [
                -0.712082408758299,
                -0.8156115165491309,
                1.7532018257056525,
                1.810512595479049,
                -1.8624067138807752,
                0.3942216918850816
            ]
        },
        {
            "positions": [
                -0.762750520023591,
                -0.7765792812704808,
                1.7303309219521172,
                1.8918819415125518,
                -1.9542650218201458,
                0.2958949530402015
            ]
        },
        {
            "positions": [
                -0.8134186312888833,
                -0.7375470459918307,
                1.707460018198582,
                1.9732512875460542,
                -2.0461233297595163,
                0.197568214195321
            ]
        },
        {
            "positions": [
                -0.8640867425541755,
                -0.6985148107131807,
                1.6845891144450467,
                2.0546206335795563,
                -2.1379816376988865,
                0.09924147535044092
            ]
        },
        {
            "positions": [
                -0.9147548538194674,
                -0.6594825754345306,
                1.6617182106915116,
                2.135989979613059,
                -2.229839945638257,
                0.0009147365055609965
            ]
        }
    ]
}