{
    "goal": {
        "global_pose": {
            "orientation": {
                "w": 0.5084816262002911,
                "x": -0.4908360881923452,
                "y": 0.5182115481033761,
                "z": -0.48164630358495003
            },
            "position": {
                "x": 0.5540239810943604,
                "y": -0.46912469901144505,
                "z": 0.16403168439865112
            }
        },
        "name": "move_to_storage_B"
    },
    "id": "ProjEST_move_to_storage_B_107",
    "joint_names": [
        "shoulder_pan_joint",
        "shoulder_lift_joint",
        "elbow_joint",
        "wrist_1_joint",
        "wrist_2_joint",
        "wrist_3_joint"
    ],
    "metrics": {
        "cart_traj_len": 0.8695115327489948,
        "distance_elbow_joint": 0.35642267184394805,
        "distance_shoulder_lift_joint": 0.46022948456724566,
        "distance_shoulder_pan_joint": 0.7568543193255002,
        "distance_wrist_1_joint": 3.0118722801054267,
        "distance_wrist_2_joint": 2.706855188698675,
        "distance_wrist_3_joint": 3.237289995316042,
        "smoothness": 0.11871448707602716,
        "time": 0.102998969,
        "traj_len": 3.244922794128828,
        "weighted_distance": 4.7668471130604795
    },
    "planner": "ProjEST",
    "start": {
        "state": {
            "elbow_joint": 1.6649325340416963,
            "shoulder_lift_joint": -0.6616387945129425,
            "shoulder_pan_joint": -0.9139837929255878,
            "wrist_1_joint": 2.1467571094334352,
            "wrist_2_joint": -2.234195976750228,
            "wrist_3_joint": 0.005470921511140723
        }
    },
    "waypoints": [
        {
            "positions": [
                -0.9139837929255878,
                -0.6616387945129425,
                1.6649325340416963,
                2.1467571094334352,
                -2.234195976750228,
                0.005470921511140723
            ]
        },
        {
            "positions": [
                -0.8182035261081032,
                -0.696981458340929,
                1.7350667182645692,
                2.0964609162545766,
                -2.127873689022657,
                0.025152182921511716
            ]
        },
        {
            "positions": [
                -0.7224232592906186,
                -0.7323241221689153,
                1.8052009024874422,
                2.0461647230757176,
                -2.0215514012950857,
                0.04483344433188271
            ]
        },
        {
            "positions": [
                -0.6266429924731339,
                -0.7676667859969017,
                1.8753350867103151,
                1.9958685298968588,
                -1.9152291135675146,
                0.06451470574225371
            ]
        },
        {
            "positions": [
                -0.6462060557595108,
                -0.7824251815420387,
                1.8814192583426206,
                1.87666087570649,
                -1.8157337666710163,
                -0.0679122197196183
            ]
        },
        {
            "positions": [
                -0.6657691190458878,
                -0.7971835770871756,
                1.8875034299749258,
                1.7574532215161214,
                -1.7162384197745177,
                -0.20033914518149032
            ]
        },
        {
            "positions": [
                -0.6853321823322647,
                -0.8119419726323125,
                1.8935876016072313,
                1.6382455673257525,
                -1.6167430728780192,
                -0.3327660706433624
            ]
        },
        {
            "positions": [
                -0.7048952456186417,
                -0.8267003681774495,
                1.8996717732395367,
                1.5190379131353837,
                -1.517247725981521,
                -0.46519299610523435
            ]
        },
        {
            "positions": [
                -0.7244583089050186,
                -0.8414587637225864,
                1.905755944871842,
                1.399830258945015,
                -1.4177523790850226,
                -0.5976199215671065
            ]
        },
        {
            "positions": [
                -0.7440213721913955,
                -0.8562171592677233,
                1.9118401165041474,
                1.280622604754646,
                -1.318257032188524,
                -0.7300468470289785
            ]
        },
        {
            "positions": [
                -0.7635844354777724,
                -0.8709755548128603,
                1.9179242881364529,
                1.1614149505642772,
                -1.2187616852920256,
                -0.8624737724908506
            ]
        },
        {
            "positions": [
                -0.7831474987641494,
                -0.8857339503579972,
                1.9240084597687581,
                1.0422072963739086,
                -1.1192663383955272,
                -0.9949006979527224
            ]
        },
        {
            "positions": [
                -0.8027105620505263,
                -0.9004923459031342,
                1.9300926314010636,
                0.9229996421835398,
                -1.019770991499029,
                -1.1273276234145946
            ]
        },
        {
            "positions": [
                -0.8222736253369032,
                -0.9152507414482711,
                1.936176803033369,
                0.803791987993171,
                -0.9202756446025304,
                -1.2597545488764668
            ]
        },
        {
            "positions": [
                -0.8418366886232801,
                -0.930009136993408,
                1.9422609746656743,
                0.6845843338028024,
                -0.8207802977060321,
                -1.3921814743383385
            ]
        },
        {
            "positions": [
                -0.861399751909657,
                -0.944767532538545,
                1.9483451462979797,
                0.5653766796124335,
                -0.7212849508095336,
                -1.5246083998002107
            ]
        },
        {
            "positions": [
                -0.880962815196034,
                -0.9595259280836819,
                1.9544293179302852,
                0.44616902542206494,
                -0.6217896039130353,
                -1.6570353252620826
            ]
        },
        {
            "positions": [
                -0.900525878482411,
                -0.9742843236288188,
                1.9605134895625904,
                0.3269613712316959,
                -0.5222942570165368,
                -1.7894622507239548
            ]
        },
        {
            "positions": [
                -0.9200889417687879,
                -0.9890427191739557,
                1.9665976611948959,
                0.20775371704132728,
                -0.42279891012003823,
                -1.9218891761858268
            ]
        },
        {
            "positions": [
                -0.9396520050551648,
                -1.0038011147190926,
                1.9726818328272013,
                0.08854606285095845,
                -0.3233035632235399,
                -2.0543161016476983
            ]
        },
        {
            "positions": [
                -0.9592150683415417,
                -1.0185595102642298,
                1.9787660044595066,
                -0.030661591339410377,
                -0.2238082163270414,
                -2.1867430271095714
            ]
        },
        {
            "positions": [
                -0.9787781316279186,
                -1.0333179058093664,
                1.984850176091812,
                -0.1498692455297792,
                -0.1243128694305431,
                -2.3191699525714426
            ]
        },
        {
            "positions": [
                -0.9983411949142955,
                -1.0480763013545036,
                1.9909343477241175,
                -0.2690768997201476,
                -0.02481752253404479,
                -2.451596878033315
            ]
        },
        {
            "positions": [
                -1.0179042582006725,
                -1.0628346968996405,
                1.9970185193564227,
                -0.38828455391051686,
                0.07467782436245374,
                -2.584023803495187
            ]
        },
        {
            "positions": [
                -1.0374673214870493,
                -1.0775930924447774,
                2.003102690988728,
                -0.5074922081008852,
                0.17417317125895204,
                -2.716450728957059
            ]
        },
        {
            "positions": [
                -1.0570303847734264,
                -1.0923514879899143,
                2.0091868626210334,
                -0.6266998622912541,
                0.27366851815545035,
                -2.8488776544189305
            ]
        },
        {
            "positions": [
                -1.0765934480598034,
                -1.1071098835350512,
                2.015271034253339,
                -0.7459075164816229,
                0.3731638650519491,
                -2.9813045798808036
            ]
        },
        {
            "positions": [
                -1.0961565113461802,
                -1.1218682790801882,
                2.0213552058856443,
                -0.8651151706719916,
                0.47265921194844746,
                -3.1137315053426753
            ]
        }
    ]
}