{
    "goal": {
        "global_pose": {
            "orientation": {
                "w": 0.7047431468963623,
                "x": -0.7094548344612122,
                "y": 0.0024358443915843964,
                "z": -0.0022348060738295317
            },
            "position": {
                "x": 0.6094750761985779,
                "y": 0.3671506643295288,
                "z": 0.19426114857196808
            }
        },
        "name": "move_to_magneteinheit_A"
    },
    "id": "ProjEST_move_to_magneteinheit_A_150",
    "joint_names": [
        "shoulder_pan_joint",
        "shoulder_lift_joint",
        "elbow_joint",
        "wrist_1_joint",
        "wrist_2_joint",
        "wrist_3_joint"
    ],
    "metrics": {
        "cart_traj_len": 1.9650666735303361,
        "distance_elbow_joint": 3.571909635531303,
        "distance_shoulder_lift_joint": 0.7852310386762898,
        "distance_shoulder_pan_joint": 1.2424259696705293,
        "distance_wrist_1_joint": 1.2094830920566166,
        "distance_wrist_2_joint": 1.4322502105149384,
        "distance_wrist_3_joint": 2.0239796171346853,
        "smoothness": 2.6316397650649437e-16,
        "time": 0.18380670100000002,
        "traj_len": 3.203947497008084,
        "weighted_distance": 4.117641570174034
    },
    "planner": "ProjEST",
    "start": {
        "state": {
            "elbow_joint": -1.5739458827952972,
            "shoulder_lift_joint": 0.006533473998580023,
            "shoulder_pan_joint": -1.1188671628667068,
            "wrist_1_joint": 3.138208179676308,
            "wrist_2_joint": -1.5706037135050406,
            "wrist_3_joint": -2.0226958329764257
        }
    },
    "waypoints": [
        {
            "positions": [
                -1.1188671628667068,
                0.006533473998580023,
                -1.5739458827952972,
                3.138208179676308,
                -1.5706037135050406,
                -2.0226958329764257
            ]
        },
        {
            "positions": [
                -1.0710815486486096,
                -0.023667719796661896,
                -1.4365647429671702,
                3.091689599212592,
                -1.5155171669467737,
                -1.9448504630866301
            ]
        },
        {
            "positions": [
                -1.0232959344305124,
                -0.053868913591903815,
                -1.2991836031390431,
                3.045171018748876,
                -1.460430620388507,
                -1.8670050931968345
            ]
        },
        {
            "positions": [
                -0.975510320212415,
                -0.08407010738714574,
                -1.161802463310916,
                2.99865243828516,
                -1.40534407383024,
                -1.7891597233070389
            ]
        },
        {
            "positions": [
                -0.9277247059943177,
                -0.11427130118238765,
                -1.024421323482789,
                2.952133857821444,
                -1.3502575272719732,
                -1.7113143534172433
            ]
        },
        {
            "positions": [
                -0.8799390917762204,
                -0.14447249497762957,
                -0.887040183654662,
                2.905615277357728,
                -1.2951709807137062,
                -1.6334689835274478
            ]
        },
        {
            "positions": [
                -0.8321534775581232,
                -0.17467368877287148,
                -0.749659043826535,
                2.859096696894012,
                -1.2400844341554393,
                -1.5556236136376522
            ]
        },
        {
            "positions": [
                -0.784367863340026,
                -0.20487488256811337,
                -0.612277903998408,
                2.812578116430296,
                -1.1849978875971725,
                -1.4777782437478566
            ]
        },
        {
            "positions": [
                -0.7365822491219285,
                -0.2350760763633553,
                -0.4748967641702808,
                2.76605953596658,
                -1.1299113410389057,
                -1.399932873858061
            ]
        },
        {
            "positions": [
                -0.6887966349038313,
                -0.26527727015859726,
                -0.337515624342154,
                2.719540955502864,
                -1.0748247944806388,
                -1.3220875039682656
            ]
        },
        {
            "positions": [
                -0.641011020685734,
                -0.2954784639538392,
                -0.2001344845140267,
                2.6730223750391477,
                -1.0197382479223718,
                -1.24424213407847
            ]
        },
        {
            "positions": [
                -0.5932254064676368,
                -0.3256796577490811,
                -0.06275334468589988,
                2.6265037945754317,
                -0.9646517013641052,
                -1.1663967641886743
            ]
        },
        {
            "positions": [
                -0.5454397922495394,
                -0.35588085154432303,
                0.07462779514222717,
                2.5799852141117157,
                -0.9095651548058382,
                -1.0885513942988787
            ]
        },
        {
            "positions": [
                -0.4976541780314422,
                -0.3860820453395649,
                0.21200893497035422,
                2.5334666336479996,
                -0.8544786082475714,
                -1.010706024409083
            ]
        },
        {
            "positions": [
                -0.44986856381334495,
                -0.4162832391348068,
                0.3493900747984813,
                2.4869480531842836,
                -0.7993920616893045,
                -0.9328606545192875
            ]
        },
        {
            "positions": [
                -0.4020829495952477,
                -0.4464844329300487,
                0.48677121462660833,
                2.440429472720568,
                -0.7443055151310377,
                -0.8550152846294921
            ]
        },
        {
            "positions": [
                -0.35429733537715025,
                -0.4766856267252907,
                0.6241523544547356,
                2.3939108922568515,
                -0.6892189685727708,
                -0.7771699147396962
            ]
        },
        {
            "positions": [
                -0.306511721159053,
                -0.5068868205205326,
                0.7615334942828624,
                2.347392311793136,
                -0.6341324220145039,
                -0.6993245448499008
            ]
        },
        {
            "positions": [
                -0.25872610694095577,
                -0.5370880143157745,
                0.8989146341109893,
                2.30087373132942,
                -0.5790458754562371,
                -0.6214791749601052
            ]
        },
        {
            "positions": [
                -0.21094049272285853,
                -0.5672892081110164,
                1.036295773939116,
                2.254355150865704,
                -0.5239593288979703,
                -0.5436338050703096
            ]
        },
        {
            "positions": [
                -0.16315487850476118,
                -0.5974904019062584,
                1.1736769137672438,
                2.2078365704019878,
                -0.4688727823397032,
                -0.46578843518051394
            ]
        },
        {
            "positions": [
                -0.11536926428666394,
                -0.6276915957015002,
                1.3110580535953706,
                2.1613179899382717,
                -0.41378623578143636,
                -0.3879430652907183
            ]
        },
        {
            "positions": [
                -0.0675836500685667,
                -0.6578927894967421,
                1.4484391934234975,
                2.1147994094745557,
                -0.35869968922316975,
                -0.3100976954009227
            ]
        },
        {
            "positions": [
                -0.019798035850469464,
                -0.688093983291984,
                1.5858203332516243,
                2.0682808290108396,
                -0.3036131426649029,
                -0.2322523255111273
            ]
        },
        {
            "positions": [
                0.027987578367627997,
                -0.718295177087226,
                1.7232014730797516,
                2.0217622485471236,
                -0.24852659610663586,
                -0.15440695562133144
            ]
        },
        {
            "positions": [
                0.07577319258572524,
                -0.7484963708824679,
                1.8605826129078789,
                1.9752436680834076,
                -0.19344004954836902,
                -0.07656158573153604
            ]
        },
        {
            "positions": [
                0.12355880680382239,
                -0.7786975646777098,
                1.997963752736006,
                1.9287250876196915,
                -0.13835350299010224,
                0.0012837841582596244
            ]
        }
    ]
}