{
    "goal": {
        "global_pose": {
            "orientation": {
                "w": -0.4816463035849501,
                "x": 0.5182115481033762,
                "y": 0.4908360881923453,
                "z": -0.5084816262002911
            },
            "position": {
                "x": -0.8240239810943604,
                "y": 0.19912469901144506,
                "z": 0.16403168439865112
            }
        },
        "name": "move_to_storage_D"
    },
    "id": "ProjEST_move_to_storage_D_24",
    "joint_names": [
        "shoulder_pan_joint",
        "shoulder_lift_joint",
        "elbow_joint",
        "wrist_1_joint",
        "wrist_2_joint",
        "wrist_3_joint"
    ],
    "metrics": {
        "cart_traj_len": 0.9155766931789964,
        "distance_elbow_joint": 0.5587247589836617,
        "distance_shoulder_lift_joint": 1.0079782084095301,
        "distance_shoulder_pan_joint": 0.4154341837396306,
        "distance_wrist_1_joint": 3.880100095948392,
        "distance_wrist_2_joint": 1.7875065939834036,
        "distance_wrist_3_joint": 3.1179659117124423,
        "smoothness": 0.08931105592168923,
        "time": 0.06288532,
        "traj_len": 3.2814188627447516,
        "weighted_distance": 4.76143342556984
    },
    "planner": "ProjEST",
    "start": {
        "state": {
            "elbow_joint": -2.384821990628643,
            "shoulder_lift_joint": -2.278805467437664,
            "shoulder_pan_joint": -0.18546946439364564,
            "wrist_1_joint": 1.4845938187801415,
            "wrist_2_joint": 0.178987772454074,
            "wrist_3_joint": 0.03710569632802521
        }
    },
    "waypoints": [
        {
            "positions": [
                -0.18546946439364564,
                -2.278805467437664,
                -2.384821990628643,
                1.4845938187801415,
                0.178987772454074,
                0.03710569632802521
            ]
        },
        {
            "positions": [
                -0.11490551013889827,
                -2.1339646130767984,
                -2.3819880412145373,
                1.4903402866270374,
                0.11423422347651016,
                -0.01621868648248486
            ]
        },
        {
            "positions": [
                -0.044341555884150896,
                -1.9891237587159327,
                -2.379154091800432,
                1.4960867544739331,
                0.04948067449894633,
                -0.06954306929299493
            ]
        },
        {
            "positions": [
                0.026222398370596478,
                -1.844282904355067,
                -2.376320142386326,
                1.5018332223208288,
                -0.015272874478617499,
                -0.122867452103505
            ]
        },
        {
            "positions": [
                0.09678635262534385,
                -1.6994420499942016,
                -2.37348619297222,
                1.5075796901677248,
                -0.08002642345618136,
                -0.17619183491401508
            ]
        },
        {
            "positions": [
                0.09123725401198382,
                -1.7173009996177877,
                -2.350678319583585,
                1.346866597477691,
                -0.1437136067092292,
                -0.2972196841002818
            ]
        },
        {
            "positions": [
                0.08568815539862379,
                -1.7351599492413738,
                -2.32787044619495,
                1.1861535047876575,
                -0.20740078996227704,
                -0.41824753328654857
            ]
        },
        {
            "positions": [
                0.08013905678526376,
                -1.75301889886496,
                -2.305062572806315,
                1.0254404120976237,
                -0.27108797321532485,
                -0.5392753824728154
            ]
        },
        {
            "positions": [
                0.07458995817190373,
                -1.7708778484885461,
                -2.28225469941768,
                0.8647273194075901,
                -0.33477515646837275,
                -0.660303231659082
            ]
        },
        {
            "positions": [
                0.06904085955854368,
                -1.7887367981121323,
                -2.2594468260290457,
                0.7040142267175563,
                -0.39846233972142053,
                -0.7813310808453489
            ]
        },
        {
            "positions": [
                0.06349176094518365,
                -1.8065957477357184,
                -2.2366389526404107,
                0.5433011340275227,
                -0.46214952297446843,
                -0.9023589300316155
            ]
        },
        {
            "positions": [
                0.05794266233182361,
                -1.8244546973593048,
                -2.2138310792517757,
                0.3825880413374889,
                -0.5258367062275163,
                -1.0233867792178823
            ]
        },
        {
            "positions": [
                0.052393563718463584,
                -1.842313646982891,
                -2.1910232058631407,
                0.22187494864745538,
                -0.5895238894805641,
                -1.144414628404149
            ]
        },
        {
            "positions": [
                0.046844465105103546,
                -1.860172596606477,
                -2.1682153324745057,
                0.06116185595742163,
                -0.653211072733612,
                -1.2654424775904158
            ]
        },
        {
            "positions": [
                0.04129536649174351,
                -1.8780315462300632,
                -2.1454074590858707,
                -0.09955123673261213,
                -0.7168982559866598,
                -1.3864703267766825
            ]
        },
        {
            "positions": [
                0.03574626787838348,
                -1.8958904958536493,
                -2.1225995856972357,
                -0.26026432942264566,
                -0.7805854392397076,
                -1.507498175962949
            ]
        },
        {
            "positions": [
                0.030197169265023444,
                -1.9137494454772355,
                -2.0997917123086007,
                -0.4209774221126794,
                -0.8442726224927555,
                -1.628526025149216
            ]
        },
        {
            "positions": [
                0.024648070651663412,
                -1.9316083951008216,
                -2.0769838389199657,
                -0.5816905148027132,
                -0.9079598057458033,
                -1.7495538743354826
            ]
        },
        {
            "positions": [
                0.019098972038303366,
                -1.9494673447244077,
                -2.0541759655313307,
                -0.7424036074927469,
                -0.9716469889988513,
                -1.8705817235217495
            ]
        },
        {
            "positions": [
                0.013549873424943348,
                -1.9673262943479939,
                -2.0313680921426958,
                -0.9031167001827807,
                -1.035334172251899,
                -1.991609572708016
            ]
        },
        {
            "positions": [
                0.008000774811583317,
                -1.98518524397158,
                -2.008560218754061,
                -1.063829792872814,
                -1.0990213555049468,
                -2.112637421894283
            ]
        },
        {
            "positions": [
                0.002451676198223271,
                -2.003044193595166,
                -1.9857523453654262,
                -1.2245428855628477,
                -1.1627085387579947,
                -2.23366527108055
            ]
        },
        {
            "positions": [
                -0.0030974224151367608,
                -2.0209031432187525,
                -1.9629444719767912,
                -1.3852559782528815,
                -1.2263957220110426,
                -2.3546931202668167
            ]
        },
        {
            "positions": [
                -0.008646521028496792,
                -2.0387620928423384,
                -1.9401365985881562,
                -1.5459690709429152,
                -1.2900829052640903,
                -2.475720969453083
            ]
        },
        {
            "positions": [
                -0.014195619641856838,
                -2.056621042465925,
                -1.9173287251995212,
                -1.706682163632949,
                -1.3537700885171382,
                -2.59674881863935
            ]
        },
        {
            "positions": [
                -0.01974471825521687,
                -2.0744799920895107,
                -1.8945208518108863,
                -1.8673952563229823,
                -1.417457271770186,
                -2.7177766678256168
            ]
        },
        {
            "positions": [
                -0.025293816868576888,
                -2.092338941713097,
                -1.8717129784222513,
                -2.0281083490130163,
                -1.4811444550232338,
                -2.838804517011883
            ]
        },
        {
            "positions": [
                -0.030842915481936933,
                -2.110197891336683,
                -1.8489051050336163,
                -2.18882144170305,
                -1.544831638276282,
                -2.95983236619815
            ]
        },
        {
            "positions": [
                -0.036392014095296965,
                -2.1280568409602694,
                -1.8260972316449815,
                -2.349534534393084,
                -1.6085188215293296,
                -3.080860215384417
            ]
        }
    ]
}