{
    "goal": {
        "global_pose": {
            "orientation": {
                "w": 0.7047431493862688,
                "x": -0.7094548369677653,
                "y": 0.0024358444001904,
                "z": -0.0022348060817251984
            },
            "position": {
                "x": -0.39052492380142206,
                "y": 0.3671506643295288,
                "z": 0.19426114857196808
            }
        },
        "name": "move_to_magneteinheit_D"
    },
    "id": "ProjEST_move_to_magneteinheit_D_73",
    "joint_names": [
        "shoulder_pan_joint",
        "shoulder_lift_joint",
        "elbow_joint",
        "wrist_1_joint",
        "wrist_2_joint",
        "wrist_3_joint"
    ],
    "metrics": {
        "cart_traj_len": 4.196027943292901,
        "distance_elbow_joint": 3.968546577814206,
        "distance_shoulder_lift_joint": 1.6336660051021428,
        "distance_shoulder_pan_joint": 3.9902013353683015,
        "distance_wrist_1_joint": 3.3222608521108885,
        "distance_wrist_2_joint": 0.41340455737986465,
        "distance_wrist_3_joint": 3.521049356767606,
        "smoothness": 0.4378512887192836,
        "time": 0.080526681,
        "traj_len": 4.104769017197316,
        "weighted_distance": 5.256129070672539
    },
    "planner": "ProjEST",
    "start": {
        "state": {
            "elbow_joint": 0.7495348899011911,
            "shoulder_lift_joint": -0.6476975780737668,
            "shoulder_pan_joint": -2.711696901376276,
            "wrist_1_joint": -0.0750647808097303,
            "wrist_2_joint": 0.43296659715458535,
            "wrist_3_joint": 3.1361499051832418
        }
    },
    "waypoints": [
        {
            "positions": [
                -2.711696901376276,
                -0.6476975780737668,
                0.7495348899011911,
                -0.0750647808097303,
                0.43296659715458535,
                3.1361499051832418
            ]
        },
        {
            "positions": [
                -2.721880370429068,
                -0.678852477445557,
                0.7842384067106056,
                -0.13581545591985744,
                0.43009434950731446,
                2.950162685794239
            ]
        },
        {
            "positions": [
                -2.7320638394818593,
                -0.7100073768173472,
                0.8189419235200202,
                -0.19656613102998458,
                0.4272221018600435,
                2.764175466405236
            ]
        },
        {
            "positions": [
                -2.742247308534651,
                -0.7411622761891374,
                0.8536454403294346,
                -0.2573168061401117,
                0.4243498542127726,
                2.578188247016233
            ]
        },
        {
            "positions": [
                -2.7524307775874424,
                -0.7723171755609276,
                0.8883489571388491,
                -0.31806748125023887,
                0.42147760656550165,
                2.3922010276272303
            ]
        },
        {
            "positions": [
                -2.762614246640234,
                -0.8034720749327178,
                0.9230524739482636,
                -0.378818156360366,
                0.41860535891823075,
                2.2062138082382274
            ]
        },
        {
            "positions": [
                -2.7592764119980018,
                -0.8405771320772694,
                0.9504076522023539,
                -0.44134828403652604,
                0.41607087061962844,
                1.9805576448130349
            ]
        },
        {
            "positions": [
                -2.755938577355769,
                -0.877682189221821,
                0.9777628304564441,
                -0.5038784117126861,
                0.4135363823210261,
                1.7549014813878423
            ]
        },
        {
            "positions": [
                -2.7526007427135366,
                -0.9147872463663725,
                1.0051180087105342,
                -0.5664085393888462,
                0.41100189402242376,
                1.5292453179626497
            ]
        },
        {
            "positions": [
                -2.749262908071304,
                -0.9518923035109241,
                1.0324731869646246,
                -0.6289386670650063,
                0.40846740572382145,
                1.3035891545374572
            ]
        },
        {
            "positions": [
                -2.7459250734290714,
                -0.9889973606554756,
                1.0598283652187148,
                -0.6914687947411664,
                0.4059329174252191,
                1.0779329911122644
            ]
        },
        {
            "positions": [
                -2.7425872387868386,
                -1.0261024178000273,
                1.087183543472805,
                -0.7539989224173265,
                0.4033984291266168,
                0.852276827687072
            ]
        },
        {
            "positions": [
                -2.7392494041446063,
                -1.0632074749445788,
                1.1145387217268952,
                -0.8165290500934865,
                0.40086394082801446,
                0.6266206642618792
            ]
        },
        {
            "positions": [
                -2.7359115695023735,
                -1.1003125320891303,
                1.1418938999809856,
                -0.8790591777696466,
                0.3983294525294121,
                0.4009645008366869
            ]
        },
        {
            "positions": [
                -2.732573734860141,
                -1.137417589233682,
                1.1692490782350757,
                -0.9415893054458067,
                0.3957949642308098,
                0.175308337411494
            ]
        },
        {
            "positions": [
                -2.6034775866799484,
                -1.1482224932689693,
                1.0364378730914814,
                -0.8468360478915662,
                0.399187101112793,
                0.16059087048371873
            ]
        },
        {
            "positions": [
                -2.474381438499756,
                -1.1590273973042569,
                0.9036266679478873,
                -0.7520827903373258,
                0.4025792379947762,
                0.14587340355594347
            ]
        },
        {
            "positions": [
                -2.345285290319563,
                -1.1698323013395442,
                0.7708154628042929,
                -0.6573295327830855,
                0.4059713748767594,
                0.1311559366281682
            ]
        },
        {
            "positions": [
                -2.2161891421393705,
                -1.1806372053748317,
                0.6380042576606987,
                -0.562576275228845,
                0.40936351175874264,
                0.11643846970039293
            ]
        },
        {
            "positions": [
                -2.0870929939591782,
                -1.191442109410119,
                0.5051930525171044,
                -0.46782301767460455,
                0.41275564864072584,
                0.10172100277261767
            ]
        },
        {
            "positions": [
                -1.9579968457789856,
                -1.2022470134454064,
                0.3723818473735102,
                -0.3730697601203642,
                0.41614778552270903,
                0.08700353584484241
            ]
        },
        {
            "positions": [
                -1.828900697598793,
                -1.213051917480694,
                0.23957064222991586,
                -0.2783165025661237,
                0.41953992240469223,
                0.07228606891706714
            ]
        },
        {
            "positions": [
                -1.6998045494186003,
                -1.2238568215159813,
                0.10675943708632163,
                -0.18356324501188337,
                0.42293205928667543,
                0.05756860198929188
            ]
        },
        {
            "positions": [
                -1.5707084012384076,
                -1.2346617255512689,
                -0.026051768057272495,
                -0.08880998745764301,
                0.42632419616865863,
                0.04285113506151664
            ]
        },
        {
            "positions": [
                -1.441612253058215,
                -1.2454666295865562,
                -0.15886297320086684,
                0.005943270096597564,
                0.4297163330506419,
                0.028133668133741352
            ]
        },
        {
            "positions": [
                -1.3125161048780225,
                -1.2562715336218435,
                -0.2916741783444612,
                0.10069652765083781,
                0.4331084699326251,
                0.013416201205966094
            ]
        },
        {
            "positions": [
                -1.1834199566978298,
                -1.267076437657131,
                -0.4244853834880553,
                0.19544978520507827,
                0.4365006068146083,
                -0.0013012657218091639
            ]
        },
        {
            "positions": [
                -1.0543238085176372,
                -1.2778813416924184,
                -0.5572965886316497,
                0.29020304275931874,
                0.4398927436965915,
                -0.016018732649584422
            ]
        },
        {
            "positions": [
                -0.9252276603374445,
                -1.288686245727706,
                -0.690107793775244,
                0.3849563003135592,
                0.4432848805785747,
                -0.030736199577359707
            ]
        },
        {
            "positions": [
                -0.7961315121572521,
                -1.2994911497629933,
                -0.8229189989188381,
                0.47970955786779945,
                0.4466770174605579,
                -0.04545366650513494
            ]
        },
        {
            "positions": [
                -0.6670353639770594,
                -1.3102960537982806,
                -0.9557302040624325,
                0.5744628154220399,
                0.45006915434254113,
                -0.06017113343291022
            ]
        },
        {
            "positions": [
                -0.5379392157968668,
                -1.3211009578335682,
                -1.0885414092060268,
                0.6692160729762804,
                0.45346129122452433,
                -0.07488860036068551
            ]
        },
        {
            "positions": [
                -0.4088430676166741,
                -1.3319058618688555,
                -1.2213526143496207,
                0.7639693305305206,
                0.45685342810650753,
                -0.08960606728846071
            ]
        },
        {
            "positions": [
                -0.27974691943648144,
                -1.342710765904143,
                -1.354163819493215,
                0.8587225880847613,
                0.46024556498849073,
                -0.10432353421623602
            ]
        },
        {
            "positions": [
                -0.15065077125628878,
                -1.3535156699394304,
                -1.4869750246368094,
                0.9534758456390018,
                0.46363770187047393,
                -0.11904100114401128
            ]
        },
        {
            "positions": [
                -0.02155462307609657,
                -1.3643205739747177,
                -1.6197862297804038,
                1.048229103193242,
                0.4670298387524571,
                -0.13375846807178648
            ]
        },
        {
            "positions": [
                0.10754152510409609,
                -1.3751254780100053,
                -1.752597434923998,
                1.1429823607474823,
                0.4704219756344403,
                -0.1484759349995618
            ]
        },
        {
            "positions": [
                0.2366376732842892,
                -1.3859303820452926,
                -1.8854086400675925,
                1.2377356183017227,
                0.4738141125164236,
                -0.16319340192733706
            ]
        },
        {
            "positions": [
                0.3657338214644814,
                -1.3967352860805802,
                -2.0182198452111866,
                1.3324888758559632,
                0.4772062493984068,
                -0.17791086885511231
            ]
        },
        {
            "positions": [
                0.49482996964467396,
                -1.4075401901158675,
                -2.1510310503547805,
                1.4272421334102035,
                0.48059838628039,
                -0.19262833578288757
            ]
        },
        {
            "positions": [
                0.3811900073414348,
                -1.5531774222925412,
                -2.1891230938365247,
                1.441726281513337,
                0.4320268025459718,
                -0.1605831498159746
            ]
        },
        {
            "positions": [
                0.2675500450381956,
                -1.6988146544692149,
                -2.227215137318269,
                1.4562104296164704,
                0.3834552188115537,
                -0.12853796384906163
            ]
        },
        {
            "positions": [
                0.15391008273495643,
                -1.8444518866458885,
                -2.265307180800013,
                1.470694577719604,
                0.33488363507713553,
                -0.09649277788214866
            ]
        },
        {
            "positions": [
                0.04027012043171729,
                -1.9900891188225622,
                -2.3033992242817574,
                1.4851787258227376,
                0.2863120513427174,
                -0.06444759191523569
            ]
        },
        {
            "positions": [
                -0.07336984187152196,
                -2.135726350999236,
                -2.3414912677635016,
                1.499662873925871,
                0.23774046760829923,
                -0.03240240594832272
            ]
        },
        {
            "positions": [
                -0.18700980417476107,
                -2.2813635831759096,
                -2.379583311245246,
                1.5141470220290045,
                0.18916888387388112,
                -0.00035721998140974317
            ]
        }
    ]
}