{
    "goal": {
        "global_pose": {
            "orientation": {
                "w": 0.7031023502349854,
                "x": -0.7110244035720825,
                "y": 0.007748599164187908,
                "z": 0.005598929710686207
            },
            "position": {
                "x": 0.11585023208521307,
                "y": 0.44412534475326537,
                "z": 0.3711530566215515
            }
        },
        "name": "move_to_auspresseinheit_A"
    },
    "id": "ProjEST_move_to_auspresseinheit_A_35",
    "joint_names": [
        "shoulder_pan_joint",
        "shoulder_lift_joint",
        "elbow_joint",
        "wrist_1_joint",
        "wrist_2_joint",
        "wrist_3_joint"
    ],
    "metrics": {
        "cart_traj_len": 3.085453796519394,
        "distance_elbow_joint": 5.043253391747699,
        "distance_shoulder_lift_joint": 0.49111121020792603,
        "distance_shoulder_pan_joint": 1.0455958333793482,
        "distance_wrist_1_joint": 2.9990437073484904,
        "distance_wrist_2_joint": 0.27773590935690207,
        "distance_wrist_3_joint": 3.1612510491618018,
        "smoothness": 0.17304622169194356,
        "time": 0.069351949,
        "traj_len": 3.608045329704461,
        "weighted_distance": 4.75576206472014
    },
    "planner": "ProjEST",
    "start": {
        "state": {
            "elbow_joint": 2.4225746994637096,
            "shoulder_lift_joint": -1.373653595662188,
            "shoulder_pan_joint": -0.3378633848294565,
            "wrist_1_joint": -1.0288595594406726,
            "wrist_2_joint": 1.2330228066703421,
            "wrist_3_joint": 3.189163495502006
        }
    },
    "waypoints": [
        {
            "positions": [
                -0.3378633848294565,
                -1.373653595662188,
                2.4225746994637096,
                -1.0288595594406726,
                1.2330228066703421,
                3.189163495502006
            ]
        },
        {
            "positions": [
                -0.3701546541852306,
                -1.371151707302981,
                2.2515170461462186,
                -0.935723983308805,
                1.2305448652892008,
                3.107678181099295
            ]
        },
        {
            "positions": [
                -0.40244592354100467,
                -1.3686498189437741,
                2.0804593928287276,
                -0.8425884071769373,
                1.2280669239080597,
                3.0261928666965847
            ]
        },
        {
            "positions": [
                -0.43473719289677876,
                -1.3661479305845674,
                1.9094017395112368,
                -0.7494528310450697,
                1.2255889825269184,
                2.944707552293874
            ]
        },
        {
            "positions": [
                -0.46702846225255285,
                -1.3636460422253605,
                1.738344086193746,
                -0.6563172549132019,
                1.2231110411457773,
                2.863222237891163
            ]
        },
        {
            "positions": [
                -0.49931973160832693,
                -1.3611441538661535,
                1.567286432876255,
                -0.5631816787813343,
                1.220633099764636,
                2.7817369234884524
            ]
        },
        {
            "positions": [
                -0.5316110009641011,
                -1.3586422655069466,
                1.396228779558764,
                -0.47004610264946667,
                1.2181551583834949,
                2.700251609085742
            ]
        },
        {
            "positions": [
                -0.563902270319875,
                -1.3561403771477396,
                1.225171126241273,
                -0.37691052651759893,
                1.2156772170023535,
                2.6187662946830312
            ]
        },
        {
            "positions": [
                -0.5961935396756493,
                -1.3536384887885327,
                1.0541134729237822,
                -0.2837749503857313,
                1.2131992756212124,
                2.5372809802803205
            ]
        },
        {
            "positions": [
                -0.6284848090314232,
                -1.351136600429326,
                0.883055819606291,
                -0.19063937425386357,
                1.2107213342400711,
                2.45579566587761
            ]
        },
        {
            "positions": [
                -0.6607760783871974,
                -1.348634712070119,
                0.7119981662888002,
                -0.09750379812199594,
                1.20824339285893,
                2.3743103514748993
            ]
        },
        {
            "positions": [
                -0.6930673477429714,
                -1.346132823710912,
                0.5409405129713092,
                -0.004368221990128207,
                1.2057654514777887,
                2.2928250370721885
            ]
        },
        {
            "positions": [
                -0.7253586170987456,
                -1.343630935351705,
                0.3698828596538184,
                0.08876735414173931,
                1.2032875100966476,
                2.2113397226694778
            ]
        },
        {
            "positions": [
                -0.7576498864545196,
                -1.3411290469924981,
                0.1988252063363274,
                0.18190293027360704,
                1.2008095687155063,
                2.129854408266767
            ]
        },
        {
            "positions": [
                -0.7899411558102938,
                -1.3386271586332912,
                0.027767553018836377,
                0.2750385064054748,
                1.198331627334365,
                2.0483690938640566
            ]
        },
        {
            "positions": [
                -0.8222324251660678,
                -1.3361252702740845,
                -0.14329010029865463,
                0.3681740825373425,
                1.1958536859532238,
                1.966883779461346
            ]
        },
        {
            "positions": [
                -0.854523694521842,
                -1.3336233819148775,
                -0.3143477536161452,
                0.46130965866921003,
                1.1933757445720825,
                1.8853984650586353
            ]
        },
        {
            "positions": [
                -0.8868149638776159,
                -1.3311214935556706,
                -0.4854054069336362,
                0.5544452348010778,
                1.1908978031909414,
                1.8039131506559247
            ]
        },
        {
            "positions": [
                -0.9191062332333901,
                -1.3286196051964636,
                -0.6564630602511277,
                0.6475808109329455,
                1.1884198618098,
                1.722427836253214
            ]
        },
        {
            "positions": [
                -0.9513975025891641,
                -1.3261177168372567,
                -0.8275207135686187,
                0.7407163870648132,
                1.185941920428659,
                1.6409425218505034
            ]
        },
        {
            "positions": [
                -0.9836887719449383,
                -1.32361582847805,
                -0.9985783668861092,
                0.8338519631966808,
                1.1834639790475177,
                1.5594572074477926
            ]
        },
        {
            "positions": [
                -1.0159800413007123,
                -1.321113940118843,
                -1.1696360202036002,
                0.9269875393285485,
                1.1809860376663766,
                1.477971893045082
            ]
        },
        {
            "positions": [
                -1.0482713106564865,
                -1.318612051759636,
                -1.3406936735210913,
                1.0201231154604162,
                1.1785080962852352,
                1.3964865786423715
            ]
        },
        {
            "positions": [
                -1.0805625800122605,
                -1.316110163400429,
                -1.5117513268385818,
                1.113258691592284,
                1.1760301549040941,
                1.3150012642396607
            ]
        },
        {
            "positions": [
                -1.1128538493680347,
                -1.3136082750412221,
                -1.6828089801560728,
                1.2063942677241513,
                1.1735522135229528,
                1.2335159498369501
            ]
        },
        {
            "positions": [
                -1.1451451187238086,
                -1.3111063866820152,
                -1.8538666334735638,
                1.2995298438560194,
                1.1710742721418117,
                1.1520306354342393
            ]
        },
        {
            "positions": [
                -1.1774363880795828,
                -1.3086044983228085,
                -2.024924286791055,
                1.3926654199878867,
                1.1685963307606704,
                1.0705453210315286
            ]
        },
        {
            "positions": [
                -1.2097276574353568,
                -1.3061026099636015,
                -2.195981940108546,
                1.4858009961197545,
                1.166118389379529,
                0.9890600066288182
            ]
        },
        {
            "positions": [
                -1.242018926791131,
                -1.3036007216043946,
                -2.3670395934260373,
                1.5789365722516222,
                1.163640447998388,
                0.9075746922261074
            ]
        },
        {
            "positions": [
                -1.2655923086940766,
                -1.37377711096275,
                -2.40931277656903,
                1.5137286429755896,
                1.1983660397792126,
                0.7609643179117901
            ]
        },
        {
            "positions": [
                -1.2891656905970224,
                -1.4439535003211055,
                -2.4515859597120224,
                1.448520713699557,
                1.2330916315600373,
                0.6143539435974728
            ]
        },
        {
            "positions": [
                -1.312739072499968,
                -1.5141298896794608,
                -2.493859142855015,
                1.3833127844235245,
                1.2678172233408618,
                0.46774356928315536
            ]
        },
        {
            "positions": [
                -1.3363124544029135,
                -1.5843062790378162,
                -2.5361323259980075,
                1.318104855147492,
                1.3025428151216865,
                0.3211331949688381
            ]
        },
        {
            "positions": [
                -1.3598858363058592,
                -1.6544826683961718,
                -2.578405509141,
                1.2528969258714595,
                1.3372684069025111,
                0.17452282065452063
            ]
        },
        {
            "positions": [
                -1.3834592182088048,
                -1.724659057754527,
                -2.6206786922839926,
                1.187688996595427,
                1.3719939986833358,
                0.02791244634020325
            ]
        }
    ]
}