{
    "goal": {
        "global_pose": {
            "orientation": {
                "w": 0.005598929693374612,
                "x": 0.007748599140229565,
                "y": 0.7110244013736278,
                "z": -0.7031023480610252
            },
            "position": {
                "x": 0.1141497679147869,
                "y": -0.7141253447532654,
                "z": 0.3711530566215515
            }
        },
        "name": "move_to_auspresseinheit_B"
    },
    "id": "ProjEST_move_to_auspresseinheit_B_125",
    "joint_names": [
        "shoulder_pan_joint",
        "shoulder_lift_joint",
        "elbow_joint",
        "wrist_1_joint",
        "wrist_2_joint",
        "wrist_3_joint"
    ],
    "metrics": {
        "cart_traj_len": 0.5652769287717694,
        "distance_elbow_joint": 0.06546973325221805,
        "distance_shoulder_lift_joint": 0.2934587732671201,
        "distance_shoulder_pan_joint": 0.5764722662310067,
        "distance_wrist_1_joint": 0.3310402650787896,
        "distance_wrist_2_joint": 0.9964351455035003,
        "distance_wrist_3_joint": 0.0055884333368569905,
        "smoothness": 0.0,
        "time": 0.60751591,
        "traj_len": 1.5061422962885982,
        "weighted_distance": 1.8992411363293222
    },
    "planner": "ProjEST",
    "start": {
        "state": {
            "elbow_joint": 2.0193061681459312,
            "shoulder_lift_joint": -1.1220205130644991,
            "shoulder_pan_joint": -1.0952072088045026,
            "wrist_1_joint": -0.8559671810662515,
            "wrist_2_joint": 0.4759638712940361,
            "wrist_3_joint": 3.159081874192446
        }
    },
    "waypoints": [
        {
            "positions": [
                -1.0952072088045026,
                -1.1220205130644991,
                2.0193061681459312,
                -0.8559671810662515,
                0.4759638712940361,
                3.159081874192446
            ]
        },
        {
            "positions": [
                -1.1912859198430037,
                -1.170930308609019,
                2.0083945459372283,
                -0.8007938035531199,
                0.6420363955446196,
                3.158150468636303
            ]
        },
        {
            "positions": [
                -1.2873646308815048,
                -1.2198401041535392,
                1.9974829237285252,
                -0.7456204260399882,
                0.8081089197952029,
                3.15721906308016
            ]
        },
        {
            "positions": [
                -1.3834433419200058,
                -1.2687498996980593,
                1.986571301519822,
                -0.6904470485268567,
                0.9741814440457863,
                3.1562876575240173
            ]
        },
        {
            "positions": [
                -1.4795220529585071,
                -1.3176596952425792,
                1.9756596793111192,
                -0.6352736710137251,
                1.1402539682963697,
                3.155356251967875
            ]
        },
        {
            "positions": [
                -1.5756007639970082,
                -1.366569490787099,
                1.9647480571024163,
                -0.5801002935005934,
                1.306326492546953,
                3.154424846411732
            ]
        },
        {
            "positions": [
                -1.6716794750355093,
                -1.4154792863316192,
                1.9538364348937132,
                -0.5249269159874619,
                1.4723990167975365,
                3.153493440855589
            ]
        }
    ]
}