{
    "goal": {
        "global_pose": {
            "orientation": {
                "w": 0.7031023480610252,
                "x": -0.7110244013736278,
                "y": 0.0077485991402295624,
                "z": 0.005598929693374583
            },
            "position": {
                "x": -0.8841497679147869,
                "y": 0.44412534475326537,
                "z": 0.3711530566215515
            }
        },
        "name": "move_to_auspresseinheit_D"
    },
    "id": "ProjEST_move_to_auspresseinheit_D_79",
    "joint_names": [
        "shoulder_pan_joint",
        "shoulder_lift_joint",
        "elbow_joint",
        "wrist_1_joint",
        "wrist_2_joint",
        "wrist_3_joint"
    ],
    "metrics": {
        "cart_traj_len": 0.3418645301465155,
        "distance_elbow_joint": 0.6306611912995908,
        "distance_shoulder_lift_joint": 0.11760486640539236,
        "distance_shoulder_pan_joint": 0.1331147347609657,
        "distance_wrist_1_joint": 0.5107307190544996,
        "distance_wrist_2_joint": 1.4348091553920992,
        "distance_wrist_3_joint": 0.022944765345211948,
        "smoothness": 0.0,
        "time": 0.06318937499999999,
        "traj_len": 1.688154445617391,
        "weighted_distance": 2.2002942615465737
    },
    "planner": "ProjEST",
    "start": {
        "state": {
            "elbow_joint": -1.8275484843655228,
            "shoulder_lift_joint": -2.1267897864000416,
            "shoulder_pan_joint": -0.035127520176001514,
            "wrist_1_joint": -2.3477863256791385,
            "wrist_2_joint": -1.605890476484521,
            "wrist_3_joint": -3.0880375317375353
        }
    },
    "waypoints": [
        {
            "positions": [
                -0.035127520176001514,
                -2.1267897864000416,
                -1.8275484843655228,
                -2.3477863256791385,
                -1.605890476484521,
                -3.0880375317375353
            ]
        },
        {
            "positions": [
                -0.051766862021122226,
                -2.141490394700716,
                -1.7487158354530739,
                -2.411627665560951,
                -1.4265393320605086,
                -3.0909056274056868
            ]
        },
        {
            "positions": [
                -0.06840620386624294,
                -2.1561910030013896,
                -1.6698831865406252,
                -2.4754690054427635,
                -1.247188187636496,
                -3.0937737230738382
            ]
        },
        {
            "positions": [
                -0.08504554571136365,
                -2.1708916113020638,
                -1.5910505376281763,
                -2.539310345324576,
                -1.0678370432124837,
                -3.0966418187419897
            ]
        },
        {
            "positions": [
                -0.10168488755648436,
                -2.1855922196027375,
                -1.5122178887157274,
                -2.603151685206388,
                -0.8884858987884714,
                -3.0995099144101412
            ]
        },
        {
            "positions": [
                -0.11832422940160507,
                -2.2002928279034117,
                -1.4333852398032785,
                -2.6669930250882006,
                -0.709134754364459,
                -3.1023780100782927
            ]
        },
        {
            "positions": [
                -0.13496357124672578,
                -2.214993436204086,
                -1.3545525908908296,
                -2.730834364970013,
                -0.5297836099404465,
                -3.105246105746444
            ]
        },
        {
            "positions": [
                -0.15160291309184648,
                -2.2296940445047597,
                -1.275719941978381,
                -2.7946757048518256,
                -0.35043246551643414,
                -3.1081142014145957
            ]
        },
        {
            "positions": [
                -0.1682422549369672,
                -2.244394652805434,
                -1.196887293065932,
                -2.858517044733638,
                -0.17108132109242188,
                -3.110982297082747
            ]
        }
    ]
}