{
    "goal": {
        "global_pose": {
            "orientation": {
                "w": 0.7031023502349854,
                "x": -0.7110244035720825,
                "y": 0.007748599164187908,
                "z": 0.005598929710686207
            },
            "position": {
                "x": 0.11585023208521307,
                "y": 0.44412534475326537,
                "z": 0.3711530566215515
            }
        },
        "name": "move_to_auspresseinheit_A"
    },
    "id": "ProjEST_move_to_auspresseinheit_A_34",
    "joint_names": [
        "shoulder_pan_joint",
        "shoulder_lift_joint",
        "elbow_joint",
        "wrist_1_joint",
        "wrist_2_joint",
        "wrist_3_joint"
    ],
    "metrics": {
        "cart_traj_len": 1.0406221744954844,
        "distance_elbow_joint": 0.8655388311453249,
        "distance_shoulder_lift_joint": 0.8531996499381864,
        "distance_shoulder_pan_joint": 1.04651074772122,
        "distance_wrist_1_joint": 2.353164873038501,
        "distance_wrist_2_joint": 0.5547813051578371,
        "distance_wrist_3_joint": 1.3547020178938731,
        "smoothness": 0.9863405758767269,
        "time": 0.083656991,
        "traj_len": 2.651018186451188,
        "weighted_distance": 3.5560156972205603
    },
    "planner": "ProjEST",
    "start": {
        "state": {
            "elbow_joint": 2.4225746994637096,
            "shoulder_lift_joint": -1.373653595662188,
            "shoulder_pan_joint": -0.3378633848294565,
            "wrist_1_joint": -1.0288595594406726,
            "wrist_2_joint": 1.2330228066703421,
            "wrist_3_joint": 3.189163495502006
        }
    },
    "waypoints": [
        {
            "positions": [
                -0.3378633848294565,
                -1.373653595662188,
                2.4225746994637096,
                -1.0288595594406726,
                1.2330228066703421,
                3.189163495502006
            ]
        },
        {
            "positions": [
                -0.27065934389689744,
                -1.4315679885274477,
                2.3853636274690273,
                -0.9077271354779278,
                1.1932222078446026,
                3.1311442898073216
            ]
        },
        {
            "positions": [
                -0.2034553029643384,
                -1.4894823813927076,
                2.3481525554743454,
                -0.7865947115151831,
                1.1534216090188631,
                3.0731250841126374
            ]
        },
        {
            "positions": [
                -0.13625126203177934,
                -1.5473967742579675,
                2.310941483479663,
                -0.6654622875524383,
                1.1136210101931239,
                3.0151058784179527
            ]
        },
        {
            "positions": [
                -0.06904722109922029,
                -1.6053111671232272,
                2.273730411484981,
                -0.5443298635896936,
                1.0738204113673844,
                2.9570866727232685
            ]
        },
        {
            "positions": [
                -0.0018431801666612402,
                -1.6632255599884869,
                2.236519339490299,
                -0.42319743962694867,
                1.0340198125416449,
                2.8990674670285843
            ]
        },
        {
            "positions": [
                0.06536086076589781,
                -1.7211399528537468,
                2.1993082674956166,
                -0.30206501566420396,
                0.9942192137159055,
                2.8410482613339
            ]
        },
        {
            "positions": [
                0.13256490169845692,
                -1.7790543457190067,
                2.1620971955009343,
                -0.18093259170145914,
                0.9544186148901661,
                2.783029055639216
            ]
        },
        {
            "positions": [
                0.1997689426310159,
                -1.8369687385842663,
                2.1248861235062524,
                -0.05980016773871444,
                0.9146180160644266,
                2.7250098499445317
            ]
        },
        {
            "positions": [
                0.26697298356357496,
                -1.894883131449526,
                2.08767505151157,
                0.06133225622403038,
                0.8748174172386871,
                2.6669906442498474
            ]
        },
        {
            "positions": [
                0.334177024496134,
                -1.952797524314786,
                2.0504639795168877,
                0.1824646801867753,
                0.8350168184129477,
                2.608971438555163
            ]
        },
        {
            "positions": [
                0.40138106542869306,
                -2.010711917180046,
                2.013252907522206,
                0.3035971041495198,
                0.7952162195872083,
                2.5509522328604786
            ]
        },
        {
            "positions": [
                0.46858510636125206,
                -2.0686263100453055,
                1.9760418355275235,
                0.42472952811226466,
                0.7554156207614688,
                2.4929330271657943
            ]
        },
        {
            "positions": [
                0.5158531398313656,
                -2.056188989029009,
                2.039118744241264,
                0.3289704793745372,
                0.7359308524497544,
                2.5858989682540012
            ]
        },
        {
            "positions": [
                0.563121173301479,
                -2.043751668012712,
                2.1021956529550043,
                0.23321143063680974,
                0.7164460841380401,
                2.6788649093422077
            ]
        },
        {
            "positions": [
                0.6103892067715926,
                -2.0313143469964157,
                2.1652725616687447,
                0.13745238189908227,
                0.6969613158263257,
                2.7718308504304146
            ]
        },
        {
            "positions": [
                0.6347676413426382,
                -2.0058876203935503,
                2.217535300753702,
                0.005416749170833207,
                0.6987568018579183,
                2.8570421897978435
            ]
        },
        {
            "positions": [
                0.6591460759136837,
                -1.9804608937906847,
                2.26979803983866,
                -0.12661888355741585,
                0.7005522878895111,
                2.9422535291652725
            ]
        },
        {
            "positions": [
                0.6835245104847293,
                -1.955034167187819,
                2.3220607789236176,
                -0.25865451628566494,
                0.7023477739211037,
                3.0274648685327015
            ]
        },
        {
            "positions": [
                0.6960859366882465,
                -1.9327167708390278,
                2.3585542908301402,
                -0.36675038682948213,
                0.709014452030625,
                3.089434722628079
            ]
        },
        {
            "positions": [
                0.7086473628917637,
                -1.9103993744902366,
                2.3950478027366624,
                -0.47484625737329933,
                0.7156811301401463,
                3.151404576723456
            ]
        }
    ]
}