{
    "goal": {
        "global_pose": {
            "orientation": {
                "w": -0.4816463035849501,
                "x": 0.5182115481033762,
                "y": 0.4908360881923453,
                "z": -0.5084816262002911
            },
            "position": {
                "x": -0.8240239810943604,
                "y": -0.300875300988555,
                "z": 0.16403168439865112
            }
        },
        "name": "move_to_storage_C"
    },
    "id": "ProjEST_move_to_storage_C_12",
    "joint_names": [
        "shoulder_pan_joint",
        "shoulder_lift_joint",
        "elbow_joint",
        "wrist_1_joint",
        "wrist_2_joint",
        "wrist_3_joint"
    ],
    "metrics": {
        "cart_traj_len": 0.5768383954000404,
        "distance_elbow_joint": 0.25567949526454825,
        "distance_shoulder_lift_joint": 0.18782425719298146,
        "distance_shoulder_pan_joint": 0.49635187363881084,
        "distance_wrist_1_joint": 0.07136840534657096,
        "distance_wrist_2_joint": 1.0589630047261351,
        "distance_wrist_3_joint": 0.055049736756183076,
        "smoothness": 5.075305295617109e-16,
        "time": 0.207985086,
        "traj_len": 1.4578191838925807,
        "weighted_distance": 1.834575606648661
    },
    "planner": "ProjEST",
    "start": {
        "state": {
            "elbow_joint": 2.0108683149792914,
            "shoulder_lift_joint": -1.1634956873317392,
            "shoulder_pan_joint": -2.4736205022346,
            "wrist_1_joint": -0.8367026793690192,
            "wrist_2_joint": 0.6746043897045053,
            "wrist_3_joint": 3.133522094754363
        }
    },
    "waypoints": [
        {
            "positions": [
                -2.4736205022346,
                -1.1634956873317392,
                2.0108683149792914,
                -0.8367026793690192,
                0.6746043897045053,
                3.133522094754363
            ]
        },
        {
            "positions": [
                -2.5563458145077353,
                -1.1321916444662423,
                1.9682550657685334,
                -0.8248079451445907,
                0.8510982238255278,
                3.1426970508803937
            ]
        },
        {
            "positions": [
                -2.63907112678087,
                -1.1008876016007454,
                1.9256418165577753,
                -0.8129132109201622,
                1.0275920579465503,
                3.1518720070064243
            ]
        },
        {
            "positions": [
                -2.7217964390540055,
                -1.0695835587352485,
                1.8830285673470173,
                -0.8010184766957338,
                1.2040858920675728,
                3.1610469631324545
            ]
        },
        {
            "positions": [
                -2.8045217513271408,
                -1.0382795158697515,
                1.8404153181362592,
                -0.7891237424713052,
                1.3805797261885955,
                3.170221919258485
            ]
        },
        {
            "positions": [
                -2.8872470636002756,
                -1.0069754730042546,
                1.7978020689255012,
                -0.7772290082468767,
                1.557073560309618,
                3.1793968753845157
            ]
        },
        {
            "positions": [
                -2.969972375873411,
                -0.9756714301387578,
                1.7551888197147432,
                -0.7653342740224482,
                1.7335673944306405,
                3.1885718315105462
            ]
        }
    ]
}