{
    "goal": {
        "global_pose": {
            "orientation": {
                "w": 0.7047431468963623,
                "x": -0.7094548344612122,
                "y": 0.0024358443915843964,
                "z": -0.0022348060738295317
            },
            "position": {
                "x": 0.6094750761985779,
                "y": 0.3671506643295288,
                "z": 0.19426114857196808
            }
        },
        "name": "move_to_magneteinheit_A"
    },
    "id": "ProjEST_move_to_magneteinheit_A_120",
    "joint_names": [
        "shoulder_pan_joint",
        "shoulder_lift_joint",
        "elbow_joint",
        "wrist_1_joint",
        "wrist_2_joint",
        "wrist_3_joint"
    ],
    "metrics": {
        "cart_traj_len": 1.5928298391051168,
        "distance_elbow_joint": 3.52674523055037,
        "distance_shoulder_lift_joint": 1.1354397283752202,
        "distance_shoulder_pan_joint": 1.2416455131471924,
        "distance_wrist_1_joint": 3.835134477766649,
        "distance_wrist_2_joint": 1.6947569038921106,
        "distance_wrist_3_joint": 1.2452949246936753,
        "smoothness": 4.1796631551529226e-16,
        "time": 0.116778435,
        "traj_len": 3.5607607022131127,
        "weighted_distance": 4.54967009897106
    },
    "planner": "ProjEST",
    "start": {
        "state": {
            "elbow_joint": -1.5739458827952972,
            "shoulder_lift_joint": 0.006533473998580023,
            "shoulder_pan_joint": -1.1188671628667068,
            "wrist_1_joint": 3.138208179676308,
            "wrist_2_joint": -1.5706037135050406,
            "wrist_3_joint": -2.0226958329764257
        }
    },
    "waypoints": [
        {
            "positions": [
                -1.1188671628667068,
                0.006533473998580023,
                -1.5739458827952972,
                3.138208179676308,
                -1.5706037135050406,
                -2.0226958329764257
            ]
        },
        {
            "positions": [
                -1.0812415412561858,
                -0.02787379049763878,
                -1.4670748152028619,
                3.021991983380349,
                -1.5192474436901282,
                -2.060432042815628
            ]
        },
        {
            "positions": [
                -1.043615919645665,
                -0.06228105499385758,
                -1.3602037476104263,
                2.90577578708439,
                -1.4678911738752156,
                -2.09816825265483
            ]
        },
        {
            "positions": [
                -1.0059902980351438,
                -0.09668831949007639,
                -1.253332680017991,
                2.789559590788431,
                -1.4165349040603032,
                -2.1359044624940324
            ]
        },
        {
            "positions": [
                -0.9683646764246229,
                -0.13109558398629517,
                -1.1464616124255553,
                2.673343394492472,
                -1.3651786342453909,
                -2.173640672333235
            ]
        },
        {
            "positions": [
                -0.9307390548141019,
                -0.16550284848251398,
                -1.03959054483312,
                2.557127198196513,
                -1.3138223644304783,
                -2.2113768821724373
            ]
        },
        {
            "positions": [
                -0.8931134332035809,
                -0.1999101129787328,
                -0.9327194772406845,
                2.4409110019005538,
                -1.262466094615566,
                -2.2491130920116396
            ]
        },
        {
            "positions": [
                -0.85548781159306,
                -0.23431737747495157,
                -0.825848409648249,
                2.3246948056045946,
                -1.2111098248006535,
                -2.286849301850842
            ]
        },
        {
            "positions": [
                -0.8178621899825389,
                -0.2687246419711704,
                -0.7189773420558135,
                2.208478609308636,
                -1.159753554985741,
                -2.324585511690044
            ]
        },
        {
            "positions": [
                -0.780236568372018,
                -0.3031319064673892,
                -0.6121062744633783,
                2.092262413012677,
                -1.1083972851708286,
                -2.3623217215292462
            ]
        },
        {
            "positions": [
                -0.742610946761497,
                -0.337539170963608,
                -0.5052352068709427,
                1.9760462167167174,
                -1.057041015355916,
                -2.4000579313684485
            ]
        },
        {
            "positions": [
                -0.7049853251509761,
                -0.3719464354598268,
                -0.39836413927850733,
                1.8598300204207585,
                -1.0056847455410036,
                -2.4377941412076507
            ]
        },
        {
            "positions": [
                -0.667359703540455,
                -0.40635369995604564,
                -0.29149307168607175,
                1.7436138241247994,
                -0.9543284757260913,
                -2.475530351046853
            ]
        },
        {
            "positions": [
                -0.6297340819299341,
                -0.44076096445226437,
                -0.18462200409363638,
                1.6273976278288405,
                -0.9029722059111789,
                -2.5132665608860556
            ]
        },
        {
            "positions": [
                -0.5921084603194131,
                -0.4751682289484832,
                -0.0777509365012008,
                1.5111814315328813,
                -0.8516159360962663,
                -2.551002770725258
            ]
        },
        {
            "positions": [
                -0.5544828387088921,
                -0.509575493444702,
                0.02912013109123457,
                1.3949652352369224,
                -0.8002596662813539,
                -2.58873898056446
            ]
        },
        {
            "positions": [
                -0.5168572170983711,
                -0.5439827579409208,
                0.13599119868367016,
                1.2787490389409633,
                -0.7489033964664414,
                -2.6264751904036623
            ]
        },
        {
            "positions": [
                -0.4792315954878502,
                -0.5783900224371396,
                0.2428622662761053,
                1.1625328426450041,
                -0.6975471266515291,
                -2.6642114002428645
            ]
        },
        {
            "positions": [
                -0.44160597387732925,
                -0.6127972869333583,
                0.34973333386854066,
                1.0463166463490454,
                -0.6461908568366167,
                -2.7019476100820667
            ]
        },
        {
            "positions": [
                -0.4039803522668082,
                -0.6472045514295772,
                0.4566044014609767,
                0.9301004500530858,
                -0.5948345870217041,
                -2.739683819921269
            ]
        },
        {
            "positions": [
                -0.3663547306562872,
                -0.681611815925796,
                0.5634754690534118,
                0.8138842537571267,
                -0.5434783172067916,
                -2.7774200297604716
            ]
        },
        {
            "positions": [
                -0.32872910904576624,
                -0.7160190804220148,
                0.6703465366458474,
                0.697668057461168,
                -0.49212204739187926,
                -2.8151562395996734
            ]
        },
        {
            "positions": [
                -0.2911034874352453,
                -0.7504263449182336,
                0.7772176042382826,
                0.5814518611652089,
                -0.4407657775769669,
                -2.852892449438876
            ]
        },
        {
            "positions": [
                -0.2534778658247242,
                -0.7848336094144525,
                0.8840886718307182,
                0.4652356648692497,
                -0.3894095077620543,
                -2.8906286592780783
            ]
        },
        {
            "positions": [
                -0.21585224421420324,
                -0.8192408739106712,
                0.9909597394231537,
                0.3490194685732906,
                -0.3380532379471419,
                -2.9283648691172806
            ]
        },
        {
            "positions": [
                -0.17822662260368227,
                -0.8536481384068899,
                1.0978308070155889,
                0.23280327227733189,
                -0.28669696813222956,
                -2.966101078956483
            ]
        },
        {
            "positions": [
                -0.1406010009931613,
                -0.8880554029031087,
                1.2047018746080245,
                0.11658707598137275,
                -0.2353406983173172,
                -3.003837288795685
            ]
        },
        {
            "positions": [
                -0.10297537938264023,
                -0.9224626673993276,
                1.31157294220046,
                0.0003708796854131613,
                -0.1839844285024046,
                -3.0415734986348877
            ]
        },
        {
            "positions": [
                -0.06534975777211938,
                -0.9568699318955464,
                1.4184440097928956,
                -0.11584531661054553,
                -0.132628158687492,
                -3.0793097084740895
            ]
        },
        {
            "positions": [
                -0.0277241361615983,
                -0.9912771963917651,
                1.5253150773853308,
                -0.23206151290650467,
                -0.08127188887257963,
                -3.117045918313292
            ]
        },
        {
            "positions": [
                0.009901485448922553,
                -1.025684460887984,
                1.6321861449777664,
                -0.34827770920246337,
                -0.029915619057667264,
                -3.154782128152494
            ]
        },
        {
            "positions": [
                0.04752710705944363,
                -1.0600917253842028,
                1.739057212570202,
                -0.46449390549842295,
                0.021440650757245328,
                -3.1925183379916966
            ]
        },
        {
            "positions": [
                0.0851527286699647,
                -1.0944989898804216,
                1.8459282801626375,
                -0.5807101017943817,
                0.0727969205721577,
                -3.230254547830899
            ]
        },
        {
            "positions": [
                0.12277835028048567,
                -1.1289062543766404,
                1.9527993477550727,
                -0.6969262980903408,
                0.12415319038707011,
                -3.267990757670101
            ]
        }
    ]
}