{
    "goal": {
        "global_pose": {
            "orientation": {
                "w": 0.5084816262002911,
                "x": -0.4908360881923452,
                "y": 0.5182115481033761,
                "z": -0.48164630358495003
            },
            "position": {
                "x": 0.5540239810943604,
                "y": -0.46912469901144505,
                "z": 0.16403168439865112
            }
        },
        "name": "move_to_storage_B"
    },
    "id": "ProjEST_move_to_storage_B_28",
    "joint_names": [
        "shoulder_pan_joint",
        "shoulder_lift_joint",
        "elbow_joint",
        "wrist_1_joint",
        "wrist_2_joint",
        "wrist_3_joint"
    ],
    "metrics": {
        "cart_traj_len": 2.0462100326343755,
        "distance_elbow_joint": 3.00474790037591,
        "distance_shoulder_lift_joint": 0.4582823657153581,
        "distance_shoulder_pan_joint": 1.2340394122336593,
        "distance_wrist_1_joint": 2.977235126383874,
        "distance_wrist_2_joint": 2.709842259217642,
        "distance_wrist_3_joint": 3.3454819463378973,
        "smoothness": 0.32811751422432045,
        "time": 0.117314723,
        "traj_len": 3.705351401724854,
        "weighted_distance": 5.109566546052773
    },
    "planner": "ProjEST",
    "start": {
        "state": {
            "elbow_joint": 1.6649325340416963,
            "shoulder_lift_joint": -0.6616387945129425,
            "shoulder_pan_joint": -0.9139837929255878,
            "wrist_1_joint": 2.1467571094334352,
            "wrist_2_joint": -2.234195976750228,
            "wrist_3_joint": 0.005470921511140723
        }
    },
    "waypoints": [
        {
            "positions": [
                -0.9139837929255878,
                -0.6616387945129425,
                1.6649325340416963,
                2.1467571094334352,
                -2.234195976750228,
                0.005470921511140723
            ]
        },
        {
            "positions": [
                -0.8268440694507128,
                -0.7382526951050221,
                1.6056111465527647,
                2.068389760342299,
                -2.194466064917815,
                -0.03105634247497875
            ]
        },
        {
            "positions": [
                -0.7397043459758377,
                -0.8148665956971017,
                1.5462897590638331,
                1.9900224112511635,
                -2.1547361530854023,
                -0.06758360646109823
            ]
        },
        {
            "positions": [
                -0.6525646225009625,
                -0.8914804962891815,
                1.4869683715749016,
                1.9116550621600277,
                -2.1150062412529893,
                -0.10411087044721772
            ]
        },
        {
            "positions": [
                -0.6231616020614457,
                -0.8930395096609154,
                1.3591308853701456,
                1.8605072934140712,
                -1.990633017709237,
                -0.047393082025602065
            ]
        },
        {
            "positions": [
                -0.593758581621929,
                -0.8945985230326494,
                1.2312933991653896,
                1.8093595246681144,
                -1.8662597941654848,
                0.009324706396013585
            ]
        },
        {
            "positions": [
                -0.5643555611824121,
                -0.8961575364043833,
                1.1034559129606338,
                1.758211755922158,
                -1.7418865706217326,
                0.06604249481762924
            ]
        },
        {
            "positions": [
                -0.5349525407428954,
                -0.8977165497761174,
                0.9756184267558778,
                1.7070639871762014,
                -1.6175133470779801,
                0.12276028323924489
            ]
        },
        {
            "positions": [
                -0.5055495203033786,
                -0.8992755631478513,
                0.8477809405511219,
                1.6559162184302447,
                -1.4931401235342279,
                0.17947807166086055
            ]
        },
        {
            "positions": [
                -0.47614649986386187,
                -0.9008345765195853,
                0.719943454346366,
                1.6047684496842882,
                -1.3687668999904756,
                0.23619586008247617
            ]
        },
        {
            "positions": [
                -0.4467434794243451,
                -0.9023935898913192,
                0.59210596814161,
                1.5536206809383317,
                -1.2443936764467232,
                0.29291364850409185
            ]
        },
        {
            "positions": [
                -0.4173404589848283,
                -0.9039526032630533,
                0.4642684819368541,
                1.502472912192375,
                -1.120020452902971,
                0.3496314369257075
            ]
        },
        {
            "positions": [
                -0.38793743854531154,
                -0.9055116166347872,
                0.33643099573209806,
                1.4513251434464185,
                -0.9956472293592186,
                0.4063492253473232
            ]
        },
        {
            "positions": [
                -0.4187197454085021,
                -0.9148337707040703,
                0.40931127234367687,
                1.3521163103856857,
                -0.9316779462363215,
                0.5248466191988448
            ]
        },
        {
            "positions": [
                -0.44950205227169265,
                -0.9241559247733536,
                0.48219154895525573,
                1.2529074773249527,
                -0.8677086631134243,
                0.6433440130503665
            ]
        },
        {
            "positions": [
                -0.4802843591348832,
                -0.9334780788426368,
                0.5550718255668345,
                1.1536986442642196,
                -0.8037393799905272,
                0.7618414069018882
            ]
        },
        {
            "positions": [
                -0.5110666659980738,
                -0.9428002329119199,
                0.6279521021784134,
                1.0544898112034868,
                -0.7397700968676302,
                0.8803388007534098
            ]
        },
        {
            "positions": [
                -0.5418489728612643,
                -0.9521223869812031,
                0.7008323787899922,
                0.9552809781427539,
                -0.6758008137447331,
                0.9988361946049313
            ]
        },
        {
            "positions": [
                -0.5726312797244549,
                -0.9614445410504864,
                0.773712655401571,
                0.856072145082021,
                -0.6118315306218359,
                1.117333588456453
            ]
        },
        {
            "positions": [
                -0.6034135865876455,
                -0.9707666951197695,
                0.8465929320131498,
                0.756863312021288,
                -0.5478622474989387,
                1.2358309823079747
            ]
        },
        {
            "positions": [
                -0.634195893450836,
                -0.9800888491890527,
                0.9194732086247286,
                0.6576544789605552,
                -0.4838929643760417,
                1.3543283761594962
            ]
        },
        {
            "positions": [
                -0.6649782003140267,
                -0.9894110032583359,
                0.9923534852363074,
                0.5584456458998222,
                -0.4199236812531446,
                1.4728257700110179
            ]
        },
        {
            "positions": [
                -0.6957605071772173,
                -0.9987331573276191,
                1.0652337618478862,
                0.45923681283908935,
                -0.35595439813024754,
                1.5913231638625396
            ]
        },
        {
            "positions": [
                -0.7265428140404078,
                -1.0080553113969022,
                1.138114038459465,
                0.3600279797783563,
                -0.29198511500735036,
                1.7098205577140613
            ]
        },
        {
            "positions": [
                -0.7573251209035983,
                -1.0173774654661856,
                1.2109943150710438,
                0.2608191467176235,
                -0.2280158318844533,
                1.828317951565583
            ]
        },
        {
            "positions": [
                -0.7881074277667889,
                -1.0266996195354687,
                1.2838745916826226,
                0.16161031365689071,
                -0.16404654876155622,
                1.9468153454171042
            ]
        },
        {
            "positions": [
                -0.8188897346299795,
                -1.036021773604752,
                1.3567548682942017,
                0.062401480596157466,
                -0.10007726563865904,
                2.0653127392686264
            ]
        },
        {
            "positions": [
                -0.84967204149317,
                -1.045343927674035,
                1.4296351449057805,
                -0.03680735246457534,
                -0.03610798251576197,
                2.1838101331201476
            ]
        },
        {
            "positions": [
                -0.8804543483563606,
                -1.0546660817433182,
                1.5025154215173593,
                -0.13601618552530814,
                0.02786130060713521,
                2.3023075269716693
            ]
        },
        {
            "positions": [
                -0.9112366552195512,
                -1.0639882358126014,
                1.5753956981289379,
                -0.23522501858604095,
                0.09183058373003228,
                2.4208049208231905
            ]
        },
        {
            "positions": [
                -0.9420189620827417,
                -1.0733103898818845,
                1.648275974740517,
                -0.3344338516467742,
                0.15579986685292935,
                2.5393023146747127
            ]
        },
        {
            "positions": [
                -0.9728012689459324,
                -1.082632543951168,
                1.7211562513520957,
                -0.433642684707507,
                0.21976914997582642,
                2.6577997085262344
            ]
        },
        {
            "positions": [
                -1.003583575809123,
                -1.091954698020451,
                1.7940365279636745,
                -0.5328515177682398,
                0.2837384330987235,
                2.7762971023777556
            ]
        },
        {
            "positions": [
                -1.0343658826723134,
                -1.1012768520897342,
                1.8669168045752533,
                -0.6320603508289726,
                0.34770771622162056,
                2.8947944962292773
            ]
        },
        {
            "positions": [
                -1.0651481895355042,
                -1.1105990061590174,
                1.9397970811868321,
                -0.7312691838897059,
                0.41167699934451785,
                3.013291890080799
            ]
        },
        {
            "positions": [
                -1.0959304963986947,
                -1.1199211602283006,
                2.012677357798411,
                -0.8304780169504388,
                0.47564628246741497,
                3.1317892839323207
            ]
        }
    ]
}