{
    "goal": {
        "global_pose": {
            "orientation": {
                "w": 0.7031023502349854,
                "x": -0.7110244035720825,
                "y": 0.007748599164187908,
                "z": 0.005598929710686207
            },
            "position": {
                "x": 0.11585023208521307,
                "y": 0.44412534475326537,
                "z": 0.3711530566215515
            }
        },
        "name": "move_to_auspresseinheit_A"
    },
    "id": "ProjEST_move_to_auspresseinheit_A_137",
    "joint_names": [
        "shoulder_pan_joint",
        "shoulder_lift_joint",
        "elbow_joint",
        "wrist_1_joint",
        "wrist_2_joint",
        "wrist_3_joint"
    ],
    "metrics": {
        "cart_traj_len": 2.084362558983121,
        "distance_elbow_joint": 3.1522618919928598,
        "distance_shoulder_lift_joint": 0.7868956444536543,
        "distance_shoulder_pan_joint": 1.3223930799489083,
        "distance_wrist_1_joint": 4.487634778802642,
        "distance_wrist_2_joint": 1.3742544555874736,
        "distance_wrist_3_joint": 4.684952811646539,
        "smoothness": 0.6347413332550766,
        "time": 0.10085535400000001,
        "traj_len": 3.975976944403988,
        "weighted_distance": 5.5713721397978135
    },
    "planner": "ProjEST",
    "start": {
        "state": {
            "elbow_joint": 2.4225746994637096,
            "shoulder_lift_joint": -1.373653595662188,
            "shoulder_pan_joint": -0.3378633848294565,
            "wrist_1_joint": -1.0288595594406726,
            "wrist_2_joint": 1.2330228066703421,
            "wrist_3_joint": 3.189163495502006
        }
    },
    "waypoints": [
        {
            "positions": [
                -0.3378633848294565,
                -1.373653595662188,
                2.4225746994637096,
                -1.0288595594406726,
                1.2330228066703421,
                3.189163495502006
            ]
        },
        {
            "positions": [
                -0.320286547939326,
                -1.3911829602104944,
                2.3467645160509565,
                -0.908364813110591,
                1.1875916877136983,
                3.0763993193625794
            ]
        },
        {
            "positions": [
                -0.3027097110491955,
                -1.4087123247588007,
                2.2709543326382033,
                -0.7878700667805094,
                1.1421605687570546,
                2.9636351432231525
            ]
        },
        {
            "positions": [
                -0.28513287415906496,
                -1.4262416893071073,
                2.1951441492254506,
                -0.6673753204504278,
                1.0967294498004108,
                2.850870967083726
            ]
        },
        {
            "positions": [
                -0.2675560372689344,
                -1.4437710538554136,
                2.1193339658126975,
                -0.5468805741203462,
                1.051298330843767,
                2.7381067909442995
            ]
        },
        {
            "positions": [
                -0.2499792003788039,
                -1.46130041840372,
                2.0435237823999444,
                -0.42638582779026446,
                1.0058672118871232,
                2.6253426148048726
            ]
        },
        {
            "positions": [
                -0.23240236348867338,
                -1.4788297829520263,
                1.9677135989871912,
                -0.30589108146018285,
                0.9604360929304794,
                2.512578438665446
            ]
        },
        {
            "positions": [
                -0.21482552659854287,
                -1.4963591475003328,
                1.891903415574438,
                -0.18539633513010123,
                0.9150049739738355,
                2.3998142625260197
            ]
        },
        {
            "positions": [
                -0.19724868970841236,
                -1.5138885120486392,
                1.8160932321616852,
                -0.06490158880001962,
                0.8695738550171918,
                2.287050086386593
            ]
        },
        {
            "positions": [
                -0.17967185281828185,
                -1.5314178765969455,
                1.740283048748932,
                0.05559315753006211,
                0.824142736060548,
                2.1742859102471663
            ]
        },
        {
            "positions": [
                -0.16209501592815131,
                -1.5489472411452518,
                1.664472865336179,
                0.17608790386014372,
                0.7787116171039041,
                2.06152173410774
            ]
        },
        {
            "positions": [
                -0.1445181790380208,
                -1.5664766056935584,
                1.588662681923426,
                0.29658265019022534,
                0.7332804981472603,
                1.948757557968313
            ]
        },
        {
            "positions": [
                -0.1269413421478903,
                -1.5840059702418647,
                1.5128524985106728,
                0.41707739652030695,
                0.6878493791906166,
                1.8359933818288865
            ]
        },
        {
            "positions": [
                -0.10936450525775976,
                -1.601535334790171,
                1.4370423150979197,
                0.5375721428503886,
                0.6424182602339727,
                1.7232292056894598
            ]
        },
        {
            "positions": [
                -0.09178766836762925,
                -1.6190646993384774,
                1.3612321316851668,
                0.6580668891804702,
                0.596987141277329,
                1.6104650295500333
            ]
        },
        {
            "positions": [
                -0.07421083147749874,
                -1.636594063886784,
                1.2854219482724136,
                0.778561635510552,
                0.5515560223206851,
                1.4977008534106067
            ]
        },
        {
            "positions": [
                -0.05663399458736823,
                -1.6541234284350903,
                1.2096117648596607,
                0.8990563818406334,
                0.5061249033640414,
                1.3849366772711802
            ]
        },
        {
            "positions": [
                -0.03905715769723772,
                -1.6716527929833966,
                1.1338015814469076,
                1.0195511281707152,
                0.4606937844073975,
                1.2721725011317535
            ]
        },
        {
            "positions": [
                -0.02148032080710721,
                -1.689182157531703,
                1.0579913980341544,
                1.1400458745007969,
                0.41526266545075385,
                1.1594083249923268
            ]
        },
        {
            "positions": [
                -0.0039034839169766467,
                -1.7067115220800093,
                0.9821812146214013,
                1.2605406208308785,
                0.36983154649411,
                1.0466441488529004
            ]
        },
        {
            "positions": [
                0.013673352973153863,
                -1.7242408866283159,
                0.9063710312086484,
                1.38103536716096,
                0.32440042753746623,
                0.9338799727134739
            ]
        },
        {
            "positions": [
                0.031250189863284386,
                -1.7417702511766222,
                0.8305608477958952,
                1.5015301134910417,
                0.27896930858082236,
                0.8211157965740472
            ]
        },
        {
            "positions": [
                0.09799897715648272,
                -1.7709109449346796,
                0.9134855221896747,
                1.4648561704565026,
                0.3012818276866276,
                0.9468638107927771
            ]
        },
        {
            "positions": [
                0.16474776444968103,
                -1.8000516386927372,
                0.9964101965834542,
                1.4281822274219635,
                0.3235943467924328,
                1.072611825011507
            ]
        },
        {
            "positions": [
                0.23149655174287936,
                -1.8291923324507946,
                1.0793348709772337,
                1.3915082843874247,
                0.3459068658982381,
                1.1983598392302373
            ]
        },
        {
            "positions": [
                0.2982453390360777,
                -1.858333026208852,
                1.162259545371013,
                1.3548343413528856,
                0.36821938500404333,
                1.3241078534489672
            ]
        },
        {
            "positions": [
                0.364994126329276,
                -1.8874737199669096,
                1.2451842197647927,
                1.3181603983183465,
                0.39053190410984856,
                1.4498558676676971
            ]
        },
        {
            "positions": [
                0.43174291362247436,
                -1.916614413724967,
                1.328108894158572,
                1.2814864552838077,
                0.41284442321565384,
                1.575603881886427
            ]
        },
        {
            "positions": [
                0.4984917009156727,
                -1.9457551074830246,
                1.4110335685523514,
                1.2448125122492686,
                0.4351569423214591,
                1.701351896105157
            ]
        },
        {
            "positions": [
                0.5652404882088711,
                -1.974895801241082,
                1.4939582429461309,
                1.2081385692147295,
                0.4574694614272643,
                1.827099910323887
            ]
        },
        {
            "positions": [
                0.5962595414858538,
                -1.9814090396652781,
                1.5740758051566686,
                1.1046930284758212,
                0.48092227130785237,
                1.9461577934529553
            ]
        },
        {
            "positions": [
                0.6272785947628366,
                -1.9879222780894745,
                1.6541933673672062,
                1.0012474877369129,
                0.5043750811884404,
                2.0652156765820235
            ]
        },
        {
            "positions": [
                0.6582976480398194,
                -1.9944355165136707,
                1.7343109295777437,
                0.8978019469980048,
                0.5278278910690285,
                2.1842735597110914
            ]
        },
        {
            "positions": [
                0.6893167013168021,
                -2.000948754937867,
                1.8144284917882814,
                0.7943564062590964,
                0.5512807009496166,
                2.3033314428401597
            ]
        },
        {
            "positions": [
                0.720335754593785,
                -2.007461993362063,
                1.894546053998819,
                0.6909108655201881,
                0.5747335108302046,
                2.422389325969228
            ]
        },
        {
            "positions": [
                0.7513548078707677,
                -2.0139752317862594,
                1.9746636162093565,
                0.5874653247812799,
                0.5981863207107927,
                2.541447209098296
            ]
        },
        {
            "positions": [
                0.7823738611477504,
                -2.0204884702104557,
                2.054781178419894,
                0.48401978404237156,
                0.6216391305913808,
                2.660505092227364
            ]
        },
        {
            "positions": [
                0.8133929144247332,
                -2.0270017086346517,
                2.134898740630432,
                0.38057424330346334,
                0.6450919404719688,
                2.7795629753564324
            ]
        },
        {
            "positions": [
                0.844411967701716,
                -2.033514947058848,
                2.2150163028409695,
                0.2771287025645551,
                0.6685447503525569,
                2.8986208584855007
            ]
        },
        {
            "positions": [
                0.809382535847282,
                -2.0017563737945996,
                2.2589644491609624,
                0.09391777882844463,
                0.6762011292841112,
                2.9584708711872825
            ]
        },
        {
            "positions": [
                0.7743531039928482,
                -1.969997800530351,
                2.3029125954809553,
                -0.08929314490766582,
                0.6838575082156657,
                3.018320883889064
            ]
        },
        {
            "positions": [
                0.7393236721384142,
                -1.9382392272661022,
                2.346860741800948,
                -0.27250406864377624,
                0.6915138871472201,
                3.078170896590845
            ]
        },
        {
            "positions": [
                0.7042942402839802,
                -1.9064806540018537,
                2.390808888120941,
                -0.4557149923798867,
                0.6991702660787744,
                3.138020909292627
            ]
        }
    ]
}