{
    "goal": {
        "global_pose": {
            "orientation": {
                "w": -0.4816463035849501,
                "x": 0.5182115481033762,
                "y": 0.4908360881923453,
                "z": -0.5084816262002911
            },
            "position": {
                "x": -0.8240239810943604,
                "y": -0.300875300988555,
                "z": 0.16403168439865112
            }
        },
        "name": "move_to_storage_C"
    },
    "id": "ProjEST_move_to_storage_C_143",
    "joint_names": [
        "shoulder_pan_joint",
        "shoulder_lift_joint",
        "elbow_joint",
        "wrist_1_joint",
        "wrist_2_joint",
        "wrist_3_joint"
    ],
    "metrics": {
        "cart_traj_len": 0.5775247243103626,
        "distance_elbow_joint": 0.2576902021603049,
        "distance_shoulder_lift_joint": 0.18970995479846564,
        "distance_shoulder_pan_joint": 0.49528223303857555,
        "distance_wrist_1_joint": 0.07512246762368369,
        "distance_wrist_2_joint": 1.0708217568323142,
        "distance_wrist_3_joint": 0.05704418816305701,
        "smoothness": 0.0,
        "time": 0.20340814200000001,
        "traj_len": 1.4648108419234207,
        "weighted_distance": 1.8454547958155225
    },
    "planner": "ProjEST",
    "start": {
        "state": {
            "elbow_joint": 2.0108683149792914,
            "shoulder_lift_joint": -1.1634956873317392,
            "shoulder_pan_joint": -2.4736205022346,
            "wrist_1_joint": -0.8367026793690192,
            "wrist_2_joint": 0.6746043897045053,
            "wrist_3_joint": 3.133522094754363
        }
    },
    "waypoints": [
        {
            "positions": [
                -2.4736205022346,
                -1.1634956873317392,
                2.0108683149792914,
                -0.8367026793690192,
                0.6746043897045053,
                3.133522094754363
            ]
        },
        {
            "positions": [
                -2.5561675410743625,
                -1.131877361531995,
                1.967919947952574,
                -0.8241822680984052,
                0.8530746825098909,
                3.143029459448206
            ]
        },
        {
            "positions": [
                -2.6387145799141254,
                -1.1002590357322508,
                1.9249715809258565,
                -0.8116618568277914,
                1.0315449753152768,
                3.152536824142049
            ]
        },
        {
            "positions": [
                -2.721261618753888,
                -1.0686407099325064,
                1.882023213899139,
                -0.7991414455571774,
                1.2100152681206624,
                3.1620441888358917
            ]
        },
        {
            "positions": [
                -2.8038086575936503,
                -1.0370223841327622,
                1.8390748468724214,
                -0.7866210342865634,
                1.388485560926048,
                3.1715515535297345
            ]
        },
        {
            "positions": [
                -2.886355696433413,
                -1.005404058333018,
                1.796126479845704,
                -0.7741006230159495,
                1.5669558537314339,
                3.1810589182235773
            ]
        },
        {
            "positions": [
                -2.9689027352731756,
                -0.9737857325332736,
                1.7531781128189865,
                -0.7615802117453355,
                1.7454261465368195,
                3.19056628291742
            ]
        }
    ]
}