{
    "goal": {
        "global_pose": {
            "orientation": {
                "w": -0.4816463035849501,
                "x": 0.5182115481033762,
                "y": 0.4908360881923453,
                "z": -0.5084816262002911
            },
            "position": {
                "x": -0.8240239810943604,
                "y": -0.300875300988555,
                "z": 0.16403168439865112
            }
        },
        "name": "move_to_storage_C"
    },
    "id": "ProjEST_move_to_storage_C_89",
    "joint_names": [
        "shoulder_pan_joint",
        "shoulder_lift_joint",
        "elbow_joint",
        "wrist_1_joint",
        "wrist_2_joint",
        "wrist_3_joint"
    ],
    "metrics": {
        "cart_traj_len": 0.5759695196787231,
        "distance_elbow_joint": 0.26047431632999696,
        "distance_shoulder_lift_joint": 0.19008296872852093,
        "distance_shoulder_pan_joint": 0.4918069496032835,
        "distance_wrist_1_joint": 0.08461333211926392,
        "distance_wrist_2_joint": 1.0818383713737638,
        "distance_wrist_3_joint": 0.07524947152214567,
        "smoothness": 0.0,
        "time": 0.042612079,
        "traj_len": 1.4778583862051786,
        "weighted_distance": 1.8711002261274765
    },
    "planner": "ProjEST",
    "start": {
        "state": {
            "elbow_joint": 2.0108683149792914,
            "shoulder_lift_joint": -1.1634956873317392,
            "shoulder_pan_joint": -2.4736205022346,
            "wrist_1_joint": -0.8367026793690192,
            "wrist_2_joint": 0.6746043897045053,
            "wrist_3_joint": 3.133522094754363
        }
    },
    "waypoints": [
        {
            "positions": [
                -2.4736205022346,
                -1.1634956873317392,
                2.0108683149792914,
                -0.8367026793690192,
                0.6746043897045053,
                3.133522094754363
            ]
        },
        {
            "positions": [
                -2.5555883271684805,
                -1.1318151925436524,
                1.9674559289242919,
                -0.8226004573491419,
                0.854910784933466,
                3.1460636733413874
            ]
        },
        {
            "positions": [
                -2.6375561521023614,
                -1.1001346977555655,
                1.9240435428692924,
                -0.8084982353292646,
                1.0352171801624266,
                3.1586052519284116
            ]
        },
        {
            "positions": [
                -2.719523977036242,
                -1.0684542029674788,
                1.8806311568142928,
                -0.7943960133093872,
                1.2155235753913871,
                3.171146830515436
            ]
        },
        {
            "positions": [
                -2.8014918019701223,
                -1.036773708179392,
                1.8372187707592935,
                -0.7802937912895099,
                1.3958299706203479,
                3.1836884091024604
            ]
        },
        {
            "positions": [
                -2.883459626904003,
                -1.005093213391305,
                1.793806384704294,
                -0.7661915692696326,
                1.5761363658493086,
                3.1962299876894846
            ]
        },
        {
            "positions": [
                -2.9654274518378836,
                -0.9734127186032183,
                1.7503939986492945,
                -0.7520893472497553,
                1.7564427610782691,
                3.208771566276509
            ]
        }
    ]
}