{
    "goal": {
        "global_pose": {
            "orientation": {
                "w": 0.5084816262002911,
                "x": -0.4908360881923452,
                "y": 0.5182115481033761,
                "z": -0.48164630358495003
            },
            "position": {
                "x": 0.5540239810943604,
                "y": -0.46912469901144505,
                "z": 0.16403168439865112
            }
        },
        "name": "move_to_storage_B"
    },
    "id": "ProjEST_move_to_storage_B_42",
    "joint_names": [
        "shoulder_pan_joint",
        "shoulder_lift_joint",
        "elbow_joint",
        "wrist_1_joint",
        "wrist_2_joint",
        "wrist_3_joint"
    ],
    "metrics": {
        "cart_traj_len": 1.8767613377046266,
        "distance_elbow_joint": 1.6351797216959791,
        "distance_shoulder_lift_joint": 0.4578422005376781,
        "distance_shoulder_pan_joint": 1.6497653559436634,
        "distance_wrist_1_joint": 3.9760543179210153,
        "distance_wrist_2_joint": 2.7045460879293017,
        "distance_wrist_3_joint": 3.9907592065962216,
        "smoothness": 0.4353482897631537,
        "time": 0.11254697899999999,
        "traj_len": 3.7965967511211747,
        "weighted_distance": 5.3922412510631075
    },
    "planner": "ProjEST",
    "start": {
        "state": {
            "elbow_joint": 1.6649325340416963,
            "shoulder_lift_joint": -0.6616387945129425,
            "shoulder_pan_joint": -0.9139837929255878,
            "wrist_1_joint": 2.1467571094334352,
            "wrist_2_joint": -2.234195976750228,
            "wrist_3_joint": 0.005470921511140723
        }
    },
    "waypoints": [
        {
            "positions": [
                -0.9139837929255878,
                -0.6616387945129425,
                1.6649325340416963,
                2.1467571094334352,
                -2.234195976750228,
                0.005470921511140723
            ]
        },
        {
            "positions": [
                -0.8222030238663544,
                -0.691790119998376,
                1.584559568974378,
                2.208977729935699,
                -2.178627172062316,
                -0.048279602469150314
            ]
        },
        {
            "positions": [
                -0.7304222548071209,
                -0.7219414454838096,
                1.50418660390706,
                2.271198350437963,
                -2.123058367374404,
                -0.10203012644944136
            ]
        },
        {
            "positions": [
                -0.6386414857478875,
                -0.7520927709692431,
                1.4238136388397418,
                2.333418970940227,
                -2.067489562686492,
                -0.15578065042973238
            ]
        },
        {
            "positions": [
                -0.546860716688654,
                -0.7822440964546766,
                1.3434406737724238,
                2.3956395914424906,
                -2.0119207579985803,
                -0.20953117441002342
            ]
        },
        {
            "positions": [
                -0.4550799476294205,
                -0.8123954219401102,
                1.2630677087051057,
                2.4578602119447543,
                -1.9563519533106686,
                -0.26328169839031446
            ]
        },
        {
            "positions": [
                -0.3632991785701871,
                -0.8425467474255438,
                1.1826947436377875,
                2.520080832447018,
                -1.9007831486227569,
                -0.3170322223706055
            ]
        },
        {
            "positions": [
                -0.27151840951095363,
                -0.8726980729109773,
                1.1023217785704693,
                2.5823014529492823,
                -1.845214343934845,
                -0.3707827463508966
            ]
        },
        {
            "positions": [
                -0.17973764045172014,
                -0.9028493983964109,
                1.0219488135031511,
                2.644522073451546,
                -1.789645539246933,
                -0.4245332703311876
            ]
        },
        {
            "positions": [
                -0.21130726815757517,
                -0.9103194534534526,
                1.0561624687154765,
                2.5245810612479977,
                -1.7117146547494846,
                -0.30174861465001884
            ]
        },
        {
            "positions": [
                -0.2428768958634302,
                -0.9177895085104943,
                1.0903761239278018,
                2.404640049044449,
                -1.633783770252036,
                -0.17896395896885012
            ]
        },
        {
            "positions": [
                -0.27444652356928523,
                -0.925259563567536,
                1.1245897791401271,
                2.284699036840901,
                -1.5558528857545875,
                -0.05617930328768139
            ]
        },
        {
            "positions": [
                -0.30601615127514026,
                -0.9327296186245777,
                1.1588034343524525,
                2.164758024637352,
                -1.477922001257139,
                0.06660535239348736
            ]
        },
        {
            "positions": [
                -0.33758577898099534,
                -0.9401996736816195,
                1.1930170895647776,
                2.0448170124338034,
                -1.3999911167596903,
                0.1893900080746561
            ]
        },
        {
            "positions": [
                -0.3691554066868504,
                -0.9476697287386612,
                1.227230744777103,
                1.9248760002302552,
                -1.322060232262242,
                0.3121746637558248
            ]
        },
        {
            "positions": [
                -0.4007250343927054,
                -0.9551397837957029,
                1.2614443999894283,
                1.8049349880267067,
                -1.2441293477647934,
                0.4349593194369936
            ]
        },
        {
            "positions": [
                -0.43229466209856043,
                -0.9626098388527446,
                1.2956580552017536,
                1.6849939758231582,
                -1.166198463267345,
                0.5577439751181623
            ]
        },
        {
            "positions": [
                -0.46386428980441546,
                -0.9700798939097863,
                1.329871710414079,
                1.5650529636196098,
                -1.0882675787698963,
                0.6805286307993311
            ]
        },
        {
            "positions": [
                -0.49543391751027055,
                -0.977549948966828,
                1.3640853656264043,
                1.4451119514160613,
                -1.0103366942724477,
                0.8033132864804998
            ]
        },
        {
            "positions": [
                -0.5270035452161255,
                -0.9850200040238697,
                1.3982990208387296,
                1.325170939212513,
                -0.9324058097749993,
                0.9260979421616685
            ]
        },
        {
            "positions": [
                -0.5585731729219806,
                -0.9924900590809115,
                1.432512676051055,
                1.2052299270089646,
                -0.8544749252775508,
                1.0488825978428373
            ]
        },
        {
            "positions": [
                -0.5901428006278356,
                -0.9999601141379532,
                1.4667263312633803,
                1.085288914805416,
                -0.7765440407801021,
                1.171667253524006
            ]
        },
        {
            "positions": [
                -0.6217124283336907,
                -1.007430169194995,
                1.5009399864757056,
                0.9653479026018674,
                -0.6986131562826536,
                1.2944519092051747
            ]
        },
        {
            "positions": [
                -0.6532820560395458,
                -1.0149002242520366,
                1.535153641688031,
                0.845406890398319,
                -0.620682271785205,
                1.4172365648863439
            ]
        },
        {
            "positions": [
                -0.6848516837454007,
                -1.0223702793090783,
                1.569367296900356,
                0.7254658781947707,
                -0.5427513872877567,
                1.5400212205675121
            ]
        },
        {
            "positions": [
                -0.7164213114512558,
                -1.02984033436612,
                1.6035809521126814,
                0.6055248659912222,
                -0.4648205027903083,
                1.6628058762486808
            ]
        },
        {
            "positions": [
                -0.7479909391571108,
                -1.0373103894231617,
                1.6377946073250067,
                0.48558385378767355,
                -0.3868896182928596,
                1.78559053192985
            ]
        },
        {
            "positions": [
                -0.7795605668629658,
                -1.0447804444802034,
                1.672008262537332,
                0.3656428415841253,
                -0.30895873379541117,
                1.9083751876110187
            ]
        },
        {
            "positions": [
                -0.811130194568821,
                -1.0522504995372453,
                1.7062219177496574,
                0.2457018293805766,
                -0.2310278492979625,
                2.0311598432921874
            ]
        },
        {
            "positions": [
                -0.8426998222746759,
                -1.059720554594287,
                1.7404355729619827,
                0.12576081717702836,
                -0.15309696480051405,
                2.153944498973356
            ]
        },
        {
            "positions": [
                -0.8742694499805309,
                -1.0671906096513286,
                1.774649228174308,
                0.005819804973480114,
                -0.0751660803030656,
                2.2767291546545247
            ]
        },
        {
            "positions": [
                -0.905839077686386,
                -1.0746606647083703,
                1.8088628833866334,
                -0.11412120723006858,
                0.002764804194383075,
                2.399513810335694
            ]
        },
        {
            "positions": [
                -0.9374087053922411,
                -1.082130719765412,
                1.8430765385989587,
                -0.23406221943361682,
                0.08069568869183152,
                2.522298466016862
            ]
        },
        {
            "positions": [
                -0.968978333098096,
                -1.0896007748224537,
                1.8772901938112838,
                -0.3540032316371655,
                0.15862657318927997,
                2.645083121698031
            ]
        },
        {
            "positions": [
                -1.0005479608039511,
                -1.0970708298794953,
                1.9115038490236094,
                -0.4739442438407142,
                0.23655745768672887,
                2.7678677773792
            ]
        },
        {
            "positions": [
                -1.0321175885098062,
                -1.1045408849365372,
                1.9457175042359345,
                -0.5938852560442625,
                0.3144883421841773,
                2.8906524330603687
            ]
        },
        {
            "positions": [
                -1.0636872162156612,
                -1.112010939993579,
                1.97993115944826,
                -0.7138262682478111,
                0.39241922668162577,
                3.0134370887415374
            ]
        },
        {
            "positions": [
                -1.0952568439215162,
                -1.1194809950506206,
                2.014144814660585,
                -0.8337672804513592,
                0.470350111179074,
                3.136221744422706
            ]
        }
    ]
}