{
    "goal": {
        "global_pose": {
            "orientation": {
                "w": 0.7031023502349854,
                "x": -0.7110244035720825,
                "y": 0.007748599164187908,
                "z": 0.005598929710686207
            },
            "position": {
                "x": 0.11585023208521307,
                "y": 0.44412534475326537,
                "z": 0.3711530566215515
            }
        },
        "name": "move_to_auspresseinheit_A"
    },
    "id": "ProjEST_move_to_auspresseinheit_A_116",
    "joint_names": [
        "shoulder_pan_joint",
        "shoulder_lift_joint",
        "elbow_joint",
        "wrist_1_joint",
        "wrist_2_joint",
        "wrist_3_joint"
    ],
    "metrics": {
        "cart_traj_len": 0.7717359050631393,
        "distance_elbow_joint": 0.37687620473940475,
        "distance_shoulder_lift_joint": 0.6705190282063018,
        "distance_shoulder_pan_joint": 1.0476140339376423,
        "distance_wrist_1_joint": 1.7829580344956892,
        "distance_wrist_2_joint": 1.3382863408171901,
        "distance_wrist_3_joint": 2.0944479036661936,
        "smoothness": 1.1607648890843245,
        "time": 0.121097753,
        "traj_len": 2.7038309018617315,
        "weighted_distance": 3.8237209271216024
    },
    "planner": "ProjEST",
    "start": {
        "state": {
            "elbow_joint": 2.4225746994637096,
            "shoulder_lift_joint": -1.373653595662188,
            "shoulder_pan_joint": -0.3378633848294565,
            "wrist_1_joint": -1.0288595594406726,
            "wrist_2_joint": 1.2330228066703421,
            "wrist_3_joint": 3.189163495502006
        }
    },
    "waypoints": [
        {
            "positions": [
                -0.3378633848294565,
                -1.373653595662188,
                2.4225746994637096,
                -1.0288595594406726,
                1.2330228066703421,
                3.189163495502006
            ]
        },
        {
            "positions": [
                -0.29217483256827137,
                -1.423989959033266,
                2.4057732129430143,
                -0.9316009262241567,
                1.1558721548761217,
                3.1003694036665377
            ]
        },
        {
            "positions": [
                -0.24648628030708625,
                -1.4743263224043441,
                2.388971726422319,
                -0.8343422930076407,
                1.0787215030819013,
                3.0115753118310695
            ]
        },
        {
            "positions": [
                -0.2007977280459011,
                -1.5246626857754222,
                2.3721702399016236,
                -0.7370836597911248,
                1.0015708512876809,
                2.9227812199956014
            ]
        },
        {
            "positions": [
                -0.15510917578471597,
                -1.5749990491465002,
                2.355368753380928,
                -0.6398250265746088,
                0.9244201994934604,
                2.833987128160133
            ]
        },
        {
            "positions": [
                -0.10942062352353082,
                -1.6253354125175783,
                2.338567266860233,
                -0.5425663933580929,
                0.8472695476992399,
                2.745193036324665
            ]
        },
        {
            "positions": [
                -0.0637320712623457,
                -1.6756717758886563,
                2.321765780339537,
                -0.4453077601415769,
                0.7701188959050195,
                2.6563989444891973
            ]
        },
        {
            "positions": [
                -0.018043519001160524,
                -1.7260081392597344,
                2.3049642938188417,
                -0.34804912692506096,
                0.692968244110799,
                2.567604852653729
            ]
        },
        {
            "positions": [
                0.027645033260024543,
                -1.7763445026308124,
                2.2881628072981464,
                -0.250790493708545,
                0.6158175923165786,
                2.478810760818261
            ]
        },
        {
            "positions": [
                0.07333358552120967,
                -1.8266808660018905,
                2.271361320777451,
                -0.15353186049202905,
                0.5386669405223581,
                2.390016668982793
            ]
        },
        {
            "positions": [
                0.11902213778239484,
                -1.8770172293729686,
                2.2545598342567557,
                -0.056273227275513094,
                0.46151628872813766,
                2.3012225771473247
            ]
        },
        {
            "positions": [
                0.1647106900435799,
                -1.9273535927440466,
                2.2377583477360603,
                0.04098540594100286,
                0.38436563693391723,
                2.2124284853118565
            ]
        },
        {
            "positions": [
                0.2103992423047651,
                -1.9776899561151247,
                2.220956861215365,
                0.13824403915751893,
                0.30721498513969675,
                2.1236343934763884
            ]
        },
        {
            "positions": [
                0.27281816815519266,
                -1.969379622645954,
                2.2428641570267476,
                0.06126223467033173,
                0.3587748000505149,
                2.2522492436814603
            ]
        },
        {
            "positions": [
                0.33523709400562024,
                -1.9610692891767834,
                2.26477145283813,
                -0.01571956981685546,
                0.41033461496133294,
                2.380864093886532
            ]
        },
        {
            "positions": [
                0.3976560198560478,
                -1.9527589557076128,
                2.2866787486495124,
                -0.09270137430404266,
                0.46189442987215107,
                2.5094789440916045
            ]
        },
        {
            "positions": [
                0.46007494570647545,
                -1.944448622238442,
                2.308586044460895,
                -0.16968317879122985,
                0.5134542447829692,
                2.6380937942966765
            ]
        },
        {
            "positions": [
                0.522493871556903,
                -1.9361382887692713,
                2.3304933402722776,
                -0.24666498327841702,
                0.5650140596937873,
                2.7667086445017484
            ]
        },
        {
            "positions": [
                0.5849127974073306,
                -1.9278279553001008,
                2.35240063608366,
                -0.32364678776560424,
                0.6165738746046054,
                2.8953234947068207
            ]
        },
        {
            "positions": [
                0.6473317232577582,
                -1.9195176218309302,
                2.3743079318950424,
                -0.40062859225279146,
                0.6681336895154235,
                3.0239383449118926
            ]
        },
        {
            "positions": [
                0.7097506491081857,
                -1.9112072883617595,
                2.396215227706425,
                -0.47761039673997857,
                0.7196935044262416,
                3.1525531951169645
            ]
        }
    ]
}