{
    "goal": {
        "global_pose": {
            "orientation": {
                "w": 0.5084816262002911,
                "x": -0.4908360881923452,
                "y": 0.5182115481033761,
                "z": -0.48164630358495003
            },
            "position": {
                "x": 0.5540239810943604,
                "y": -0.46912469901144505,
                "z": 0.16403168439865112
            }
        },
        "name": "move_to_storage_B"
    },
    "id": "ProjEST_move_to_storage_B_53",
    "joint_names": [
        "shoulder_pan_joint",
        "shoulder_lift_joint",
        "elbow_joint",
        "wrist_1_joint",
        "wrist_2_joint",
        "wrist_3_joint"
    ],
    "metrics": {
        "cart_traj_len": 2.2275952404744945,
        "distance_elbow_joint": 1.522737295925648,
        "distance_shoulder_lift_joint": 0.4603059455772607,
        "distance_shoulder_pan_joint": 2.1645152130791874,
        "distance_wrist_1_joint": 2.9991251361338493,
        "distance_wrist_2_joint": 2.70529713330239,
        "distance_wrist_3_joint": 3.1289797232390426,
        "smoothness": 0.25156745480789267,
        "time": 0.095036292,
        "traj_len": 3.6029099971075293,
        "weighted_distance": 4.994331002563978
    },
    "planner": "ProjEST",
    "start": {
        "state": {
            "elbow_joint": 1.6649325340416963,
            "shoulder_lift_joint": -0.6616387945129425,
            "shoulder_pan_joint": -0.9139837929255878,
            "wrist_1_joint": 2.1467571094334352,
            "wrist_2_joint": -2.234195976750228,
            "wrist_3_joint": 0.005470921511140723
        }
    },
    "waypoints": [
        {
            "positions": [
                -0.9139837929255878,
                -0.6616387945129425,
                1.6649325340416963,
                2.1467571094334352,
                -2.234195976750228,
                0.005470921511140723
            ]
        },
        {
            "positions": [
                -0.8431986237311333,
                -0.6907548206662724,
                1.623140639946048,
                2.0783194671131833,
                -2.1439420289592754,
                -0.0798991644677362
            ]
        },
        {
            "positions": [
                -0.7724134545366789,
                -0.7198708468196022,
                1.5813487458503996,
                2.0098818247929313,
                -2.053688081168323,
                -0.16526925044661311
            ]
        },
        {
            "positions": [
                -0.7016282853422244,
                -0.7489868729729321,
                1.5395568517547513,
                1.9414441824726794,
                -1.9634341333773704,
                -0.2506393364254901
            ]
        },
        {
            "positions": [
                -0.6308431161477699,
                -0.7781028991262618,
                1.497764957659103,
                1.8730065401524274,
                -1.8731801855864179,
                -0.336009422404367
            ]
        },
        {
            "positions": [
                -0.5600579469533153,
                -0.8072189252795917,
                1.4559730635634547,
                1.8045688978321752,
                -1.7829262377954653,
                -0.42137950838324395
            ]
        },
        {
            "positions": [
                -0.4892727777588609,
                -0.8363349514329216,
                1.4141811694678064,
                1.7361312555119233,
                -1.6926722900045128,
                -0.5067495943621209
            ]
        },
        {
            "positions": [
                -0.41848760856440637,
                -0.8654509775862514,
                1.372389275372158,
                1.6676936131916713,
                -1.6024183422135603,
                -0.5921196803409978
            ]
        },
        {
            "positions": [
                -0.34770243936995193,
                -0.8945670037395813,
                1.3305973812765095,
                1.5992559708714194,
                -1.5121643944226077,
                -0.6774897663198747
            ]
        },
        {
            "positions": [
                -0.2769172701754973,
                -0.9236830298929112,
                1.2888054871808612,
                1.5308183285511672,
                -1.421910446631655,
                -0.7628598522987518
            ]
        },
        {
            "positions": [
                -0.20613210098104284,
                -0.9527990560462409,
                1.2470135930852129,
                1.4623806862309152,
                -1.3316564988407025,
                -0.8482299382776286
            ]
        },
        {
            "positions": [
                -0.1353469317865884,
                -0.9819150821995708,
                1.2052216989895645,
                1.3939430439106633,
                -1.2414025510497502,
                -0.9336000242565056
            ]
        },
        {
            "positions": [
                -0.06456176259213398,
                -1.0110311083529007,
                1.1634298048939162,
                1.3255054015904113,
                -1.1511486032587974,
                -1.0189701102353823
            ]
        },
        {
            "positions": [
                0.00622340660232068,
                -1.0401471345062305,
                1.121637910798268,
                1.2570677592701593,
                -1.060894655467845,
                -1.1043401962142594
            ]
        },
        {
            "positions": [
                0.07700857579677514,
                -1.0692631606595604,
                1.0798460167026196,
                1.1886301169499074,
                -0.9706407076768924,
                -1.1897102821931362
            ]
        },
        {
            "positions": [
                0.01833243357893393,
                -1.0718972396310926,
                1.1267285556319482,
                1.0865802097673913,
                -0.8985536144654396,
                -1.2864002081698744
            ]
        },
        {
            "positions": [
                -0.04034370863890728,
                -1.0745313186026246,
                1.1736110945612768,
                0.9845303025848752,
                -0.8264665212539868,
                -1.3830901341466129
            ]
        },
        {
            "positions": [
                -0.09901985085674847,
                -1.0771653975741569,
                1.2204936334906054,
                0.8824803954023591,
                -0.7543794280425341,
                -1.479780060123351
            ]
        },
        {
            "positions": [
                -0.1576959930745897,
                -1.0797994765456889,
                1.267376172419934,
                0.780430488219843,
                -0.6822923348310813,
                -1.5764699861000895
            ]
        },
        {
            "positions": [
                -0.2163721352924309,
                -1.082433555517221,
                1.3142587113492623,
                0.6783805810373269,
                -0.6102052416196286,
                -1.6731599120768277
            ]
        },
        {
            "positions": [
                -0.27504827751027205,
                -1.0850676344887533,
                1.361141250278591,
                0.5763306738548108,
                -0.5381181484081758,
                -1.7698498380535659
            ]
        },
        {
            "positions": [
                -0.3337244197281133,
                -1.0877017134602853,
                1.4080237892079195,
                0.4742807666722948,
                -0.46603105519672305,
                -1.8665397640303043
            ]
        },
        {
            "positions": [
                -0.3924005619459545,
                -1.0903357924318176,
                1.454906328137248,
                0.3722308594897785,
                -0.39394396198527026,
                -1.9632296900070427
            ]
        },
        {
            "positions": [
                -0.45107670416379575,
                -1.0929698714033496,
                1.5017888670665767,
                0.27018095230726247,
                -0.3218568687738176,
                -2.0599196159837807
            ]
        },
        {
            "positions": [
                -0.509752846381637,
                -1.0956039503748818,
                1.5486714059959052,
                0.16813104512474641,
                -0.2497697755623648,
                -2.156609541960519
            ]
        },
        {
            "positions": [
                -0.5684289885994782,
                -1.098238029346414,
                1.5955539449252338,
                0.06608113794223014,
                -0.177682682350912,
                -2.2532994679372575
            ]
        },
        {
            "positions": [
                -0.6271051308173193,
                -1.100872108317946,
                1.6424364838545622,
                -0.03596876924028569,
                -0.10559558913945932,
                -2.3499893939139955
            ]
        },
        {
            "positions": [
                -0.6857812730351607,
                -1.1035061872894782,
                1.689319022783891,
                -0.13801867642280197,
                -0.03350849592800653,
                -2.446679319890734
            ]
        },
        {
            "positions": [
                -0.7444574152530018,
                -1.1061402662610103,
                1.7362015617132194,
                -0.2400685836053178,
                0.03857859728344626,
                -2.5433692458674724
            ]
        },
        {
            "positions": [
                -0.803133557470843,
                -1.1087743452325425,
                1.7830841006425482,
                -0.3421184907878341,
                0.11066569049489905,
                -2.640059171844211
            ]
        },
        {
            "positions": [
                -0.8618096996886843,
                -1.1114084242040747,
                1.8299666395718766,
                -0.44416839797035035,
                0.18275278370635184,
                -2.736749097820949
            ]
        },
        {
            "positions": [
                -0.9204858419065254,
                -1.1140425031756067,
                1.8768491785012051,
                -0.5462183051528662,
                0.2548398769178044,
                -2.833439023797687
            ]
        },
        {
            "positions": [
                -0.9791619841243666,
                -1.116676582147139,
                1.9237317174305337,
                -0.6482682123353825,
                0.3269269701292572,
                -2.930128949774425
            ]
        },
        {
            "positions": [
                -1.0378381263422078,
                -1.119310661118671,
                1.9706142563598623,
                -0.7503181195178983,
                0.39901406334071,
                -3.0268188757511636
            ]
        },
        {
            "positions": [
                -1.096514268560049,
                -1.1219447400902032,
                2.017496795289191,
                -0.8523680267004143,
                0.47110115655216284,
                -3.123508801727902
            ]
        }
    ]
}