{
    "goal": {
        "global_pose": {
            "orientation": {
                "w": -0.00223480608172531,
                "x": 0.0024358444001904467,
                "y": 0.7094548369677653,
                "z": -0.704743149386269
            },
            "position": {
                "x": -0.37947507619857795,
                "y": -0.6371506643295288,
                "z": 0.19426114857196808
            }
        },
        "name": "move_to_magneteinheit_C"
    },
    "id": "ProjEST_move_to_magneteinheit_C_114",
    "joint_names": [
        "shoulder_pan_joint",
        "shoulder_lift_joint",
        "elbow_joint",
        "wrist_1_joint",
        "wrist_2_joint",
        "wrist_3_joint"
    ],
    "metrics": {
        "cart_traj_len": 1.838463494240541,
        "distance_elbow_joint": 0.4207391138573977,
        "distance_shoulder_lift_joint": 1.1560869218022394,
        "distance_shoulder_pan_joint": 1.9586673436798183,
        "distance_wrist_1_joint": 5.85960061687757,
        "distance_wrist_2_joint": 4.969983547194867,
        "distance_wrist_3_joint": 6.940700916318599,
        "smoothness": 0.598870721623042,
        "time": 0.201462784,
        "traj_len": 4.6158182871220665,
        "weighted_distance": 6.783565762667898
    },
    "planner": "ProjEST",
    "start": {
        "state": {
            "elbow_joint": 1.9565354006593851,
            "shoulder_lift_joint": -1.4165861576512813,
            "shoulder_pan_joint": -1.6717766223278752,
            "wrist_1_joint": -0.528663328821883,
            "wrist_2_joint": 1.472756589259273,
            "wrist_3_joint": 3.159348288315503
        }
    },
    "waypoints": [
        {
            "positions": [
                -1.6717766223278752,
                -1.4165861576512813,
                1.9565354006593851,
                -0.528663328821883,
                1.472756589259273,
                3.159348288315503
            ]
        },
        {
            "positions": [
                -1.7193961762019991,
                -1.4321533806332085,
                1.950221954212499,
                -0.4330805868872225,
                1.3731365780729605,
                3.0391738302459896
            ]
        },
        {
            "positions": [
                -1.767015730076123,
                -1.4477206036151358,
                1.9439085077656126,
                -0.33749784495256197,
                1.2735165668866482,
                2.918999372176476
            ]
        },
        {
            "positions": [
                -1.8146352839502469,
                -1.463287826597063,
                1.9375950613187265,
                -0.24191510301790148,
                1.1738965557003356,
                2.7988249141069628
            ]
        },
        {
            "positions": [
                -1.8622548378243708,
                -1.4788550495789903,
                1.9312816148718404,
                -0.14633236108324094,
                1.074276544514023,
                2.6786504560374493
            ]
        },
        {
            "positions": [
                -1.9098743916984946,
                -1.4944222725609175,
                1.924968168424954,
                -0.05074961914858034,
                0.9746565333277105,
                2.558475997967936
            ]
        },
        {
            "positions": [
                -1.9574939455726186,
                -1.5099894955428446,
                1.9186547219780679,
                0.04483312278608009,
                0.875036522141398,
                2.4383015398984225
            ]
        },
        {
            "positions": [
                -2.0051134994467423,
                -1.5255567185247718,
                1.9123412755311817,
                0.14041586472074075,
                0.7754165109550856,
                2.318127081828909
            ]
        },
        {
            "positions": [
                -2.0527330533208663,
                -1.541123941506699,
                1.9060278290842956,
                0.23599860665540118,
                0.6757964997687731,
                2.1979526237593956
            ]
        },
        {
            "positions": [
                -2.1003526071949903,
                -1.5566911644886263,
                1.8997143826374092,
                0.3315813485900617,
                0.5761764885824605,
                2.077778165689882
            ]
        },
        {
            "positions": [
                -2.1479721610691143,
                -1.5722583874705536,
                1.893400936190523,
                0.4271640905247224,
                0.4765564773961479,
                1.9576037076203687
            ]
        },
        {
            "positions": [
                -2.195591714943238,
                -1.5878256104524808,
                1.887087489743637,
                0.5227468324593828,
                0.37693646620983556,
                1.8374292495508553
            ]
        },
        {
            "positions": [
                -2.2432112688173618,
                -1.603392833434408,
                1.8807740432967506,
                0.6183295743940432,
                0.277316455023523,
                1.7172547914813419
            ]
        },
        {
            "positions": [
                -2.2908308226914857,
                -1.6189600564163353,
                1.8744605968498644,
                0.7139123163287039,
                0.1776964438372104,
                1.5970803334118284
            ]
        },
        {
            "positions": [
                -2.3384503765656097,
                -1.6345272793982626,
                1.8681471504029783,
                0.8094950582633645,
                0.07807643265089803,
                1.476905875342315
            ]
        },
        {
            "positions": [
                -2.3860699304397337,
                -1.6500945023801896,
                1.861833703956092,
                0.905077800198025,
                -0.021543578535414554,
                1.3567314172728013
            ]
        },
        {
            "positions": [
                -2.4336894843138577,
                -1.6656617253621169,
                1.8555202575092058,
                1.0006605421326853,
                -0.12116358972172692,
                1.2365569592032881
            ]
        },
        {
            "positions": [
                -2.481309038187981,
                -1.6812289483440441,
                1.8492068110623197,
                1.096243284067346,
                -0.22078360090803928,
                1.1163825011337747
            ]
        },
        {
            "positions": [
                -2.528928592062105,
                -1.6967961713259714,
                1.8428933646154333,
                1.1918260260020066,
                -0.3204036120943521,
                0.9962080430642613
            ]
        },
        {
            "positions": [
                -2.576548145936229,
                -1.7123633943078986,
                1.8365799181685472,
                1.2874087679366668,
                -0.42002362328066445,
                0.8760335849947478
            ]
        },
        {
            "positions": [
                -2.624167699810353,
                -1.7279306172898259,
                1.830266471721661,
                1.382991509871328,
                -0.5196436344669773,
                0.7558591269252344
            ]
        },
        {
            "positions": [
                -2.671787253684477,
                -1.7434978402717531,
                1.8239530252747747,
                1.4785742518059881,
                -0.6192636456532894,
                0.635684668855721
            ]
        },
        {
            "positions": [
                -2.7194068075586006,
                -1.7590650632536804,
                1.8176395788278885,
                1.5741569937406488,
                -0.718883656839602,
                0.5155102107862075
            ]
        },
        {
            "positions": [
                -2.7670263614327246,
                -1.7746322862356076,
                1.8113261323810024,
                1.6697397356753094,
                -0.8185036680259146,
                0.3953357527166941
            ]
        },
        {
            "positions": [
                -2.8146459153068486,
                -1.7901995092175347,
                1.8050126859341162,
                1.7653224776099696,
                -0.9181236792122272,
                0.27516129464718064
            ]
        },
        {
            "positions": [
                -2.862265469180972,
                -1.805766732199462,
                1.7986992394872299,
                1.8609052195446303,
                -1.0177436903985393,
                0.1549868365776672
            ]
        },
        {
            "positions": [
                -2.9098850230550966,
                -1.8213339551813892,
                1.7923857930403437,
                1.956487961479291,
                -1.1173637015848523,
                0.034812378508153774
            ]
        },
        {
            "positions": [
                -2.95750457692922,
                -1.8369011781633164,
                1.7860723465934576,
                2.052070703413951,
                -1.2169837127711645,
                -0.08536207956135966
            ]
        },
        {
            "positions": [
                -3.0051241308033445,
                -1.8524684011452437,
                1.7797589001465712,
                2.1476534453486122,
                -1.316603723957477,
                -0.2055365376308731
            ]
        },
        {
            "positions": [
                -3.052743684677468,
                -1.868035624127171,
                1.773445453699685,
                2.2432361872832725,
                -1.4162237351437894,
                -0.3257109957003863
            ]
        },
        {
            "positions": [
                -3.030524443087844,
                -1.840934183537696,
                1.7825858062726734,
                2.1244784526381797,
                -1.336185149651797,
                -0.192801702150282
            ]
        },
        {
            "positions": [
                -3.00830520149822,
                -1.813832742948221,
                1.7917261588456619,
                2.0057207179930865,
                -1.2561465641598044,
                -0.05989240860017769
            ]
        },
        {
            "positions": [
                -2.986085959908596,
                -1.7867313023587459,
                1.8008665114186502,
                1.8869629833479937,
                -1.1761079786678121,
                0.07301688494992659
            ]
        },
        {
            "positions": [
                -2.9638667183189717,
                -1.759629861769271,
                1.8100068639916387,
                1.7682052487029007,
                -1.0960693931758196,
                0.20592617850003092
            ]
        },
        {
            "positions": [
                -2.9416474767293477,
                -1.732528421179796,
                1.819147216564627,
                1.6494475140578078,
                -1.0160308076838271,
                0.3388354720501352
            ]
        },
        {
            "positions": [
                -2.9194282351397236,
                -1.705426980590321,
                1.8282875691376153,
                1.5306897794127148,
                -0.9359922221918346,
                0.4717447656002395
            ]
        },
        {
            "positions": [
                -2.8972089935500995,
                -1.678325540000846,
                1.8374279217106038,
                1.411932044767622,
                -0.8559536366998423,
                0.6046540591503436
            ]
        },
        {
            "positions": [
                -2.8749897519604755,
                -1.651224099411371,
                1.846568274283592,
                1.293174310122529,
                -0.7759150512078498,
                0.7375633527004481
            ]
        },
        {
            "positions": [
                -2.8527705103708514,
                -1.624122658821896,
                1.8557086268565803,
                1.174416575477436,
                -0.6958764657158574,
                0.8704726462505523
            ]
        },
        {
            "positions": [
                -2.8305512687812273,
                -1.597021218232421,
                1.8648489794295688,
                1.055658840832343,
                -0.6158378802238649,
                1.0033819398006567
            ]
        },
        {
            "positions": [
                -2.8083320271916032,
                -1.569919777642946,
                1.8739893320025571,
                0.9369011061872503,
                -0.5357992947318725,
                1.1362912333507609
            ]
        },
        {
            "positions": [
                -2.786112785601979,
                -1.542818337053471,
                1.8831296845755456,
                0.8181433715421571,
                -0.45576070923988,
                1.2692005269008653
            ]
        },
        {
            "positions": [
                -2.7638935440123555,
                -1.5157168964639962,
                1.892270037148534,
                0.6993856368970643,
                -0.3757221237478876,
                1.4021098204509694
            ]
        },
        {
            "positions": [
                -2.7416743024227315,
                -1.488615455874521,
                1.9014103897215222,
                0.5806279022519716,
                -0.2956835382558951,
                1.5350191140010736
            ]
        },
        {
            "positions": [
                -2.7194550608331074,
                -1.461514015285046,
                1.9105507422945107,
                0.4618701676068786,
                -0.21564495276390283,
                1.6679284075511778
            ]
        },
        {
            "positions": [
                -2.6972358192434833,
                -1.4344125746955712,
                1.919691094867499,
                0.3431124329617854,
                -0.1356063672719101,
                1.8008377011012826
            ]
        },
        {
            "positions": [
                -2.6750165776538593,
                -1.4073111341060962,
                1.9288314474404875,
                0.2243546983166924,
                -0.055567781779917835,
                1.9337469946513866
            ]
        },
        {
            "positions": [
                -2.652797336064235,
                -1.3802096935166213,
                1.9379718000134758,
                0.10559696367159965,
                0.024470803712074662,
                2.066656288201491
            ]
        },
        {
            "positions": [
                -2.630578094474611,
                -1.353108252927146,
                1.947112152586464,
                -0.013160770973493108,
                0.10450938920406694,
                2.199565581751595
            ]
        },
        {
            "positions": [
                -2.608358852884987,
                -1.3260068123376711,
                1.9562525051594526,
                -0.1319185056185863,
                0.18454797469605966,
                2.3324748753017
            ]
        },
        {
            "positions": [
                -2.586139611295363,
                -1.2989053717481962,
                1.9653928577324409,
                -0.2506762402636791,
                0.26458656018805193,
                2.465384168851804
            ]
        },
        {
            "positions": [
                -2.563920369705739,
                -1.2718039311587213,
                1.9745332103054292,
                -0.36943397490877183,
                0.34462514568004443,
                2.598293462401908
            ]
        },
        {
            "positions": [
                -2.541701128116115,
                -1.2447024905692463,
                1.9836735628784177,
                -0.48819170955386504,
                0.4246637311720367,
                2.731202755952012
            ]
        },
        {
            "positions": [
                -2.5194818865264907,
                -1.2176010499797711,
                1.992813915451406,
                -0.6069494441989582,
                0.5047023166640294,
                2.8641120495021166
            ]
        },
        {
            "positions": [
                -2.4972626449368667,
                -1.1904996093902962,
                2.0019542680243942,
                -0.725707178844051,
                0.5847409021560219,
                2.9970213430522206
            ]
        },
        {
            "positions": [
                -2.4750434033472426,
                -1.1633981688008213,
                2.0110946205973828,
                -0.8444649134891439,
                0.664779487648014,
                3.129930636602325
            ]
        }
    ]
}