{
    "goal": {
        "global_pose": {
            "orientation": {
                "w": -0.4816463035849501,
                "x": 0.5182115481033762,
                "y": 0.4908360881923453,
                "z": -0.5084816262002911
            },
            "position": {
                "x": -0.8240239810943604,
                "y": -0.300875300988555,
                "z": 0.16403168439865112
            }
        },
        "name": "move_to_storage_C"
    },
    "id": "ProjEST_move_to_storage_C_98",
    "joint_names": [
        "shoulder_pan_joint",
        "shoulder_lift_joint",
        "elbow_joint",
        "wrist_1_joint",
        "wrist_2_joint",
        "wrist_3_joint"
    ],
    "metrics": {
        "cart_traj_len": 0.5767686380998256,
        "distance_elbow_joint": 0.2557942339516921,
        "distance_shoulder_lift_joint": 0.18815752392764795,
        "distance_shoulder_pan_joint": 0.4958375636394363,
        "distance_wrist_1_joint": 0.07308404469435148,
        "distance_wrist_2_joint": 1.0636323677580455,
        "distance_wrist_3_joint": 0.05636393930237649,
        "smoothness": 0.0,
        "time": 0.031539082,
        "traj_len": 1.4604347548841576,
        "weighted_distance": 1.8391068387482823
    },
    "planner": "ProjEST",
    "start": {
        "state": {
            "elbow_joint": 2.0108683149792914,
            "shoulder_lift_joint": -1.1634956873317392,
            "shoulder_pan_joint": -2.4736205022346,
            "wrist_1_joint": -0.8367026793690192,
            "wrist_2_joint": 0.6746043897045053,
            "wrist_3_joint": 3.133522094754363
        }
    },
    "waypoints": [
        {
            "positions": [
                -2.4736205022346,
                -1.1634956873317392,
                2.0108683149792914,
                -0.8367026793690192,
                0.6746043897045053,
                3.133522094754363
            ]
        },
        {
            "positions": [
                -2.556260096174506,
                -1.1321361000104646,
                1.9682359426540095,
                -0.824522005253294,
                0.8518764509975129,
                3.1429160846380926
            ]
        },
        {
            "positions": [
                -2.638899690114412,
                -1.10077651268919,
                1.9256035703287273,
                -0.8123413311375687,
                1.0291485122905204,
                3.152310074521822
            ]
        },
        {
            "positions": [
                -2.721539284054318,
                -1.0694169253679153,
                1.8829711980034454,
                -0.8001606570218435,
                1.206420573583528,
                3.1617040644055514
            ]
        },
        {
            "positions": [
                -2.8041788779942243,
                -1.0380573380466407,
                1.8403388256781634,
                -0.7879799829061183,
                1.3836926348765357,
                3.171098054289281
            ]
        },
        {
            "positions": [
                -2.8868184719341303,
                -1.0066977507253658,
                1.7977064533528813,
                -0.7757993087903929,
                1.5609646961695431,
                3.1804920441730102
            ]
        },
        {
            "positions": [
                -2.9694580658740364,
                -0.9753381634040913,
                1.7550740810275993,
                -0.7636186346746677,
                1.7382367574625508,
                3.1898860340567396
            ]
        }
    ]
}