{
    "goal": {
        "global_pose": {
            "orientation": {
                "w": 0.7031023502349854,
                "x": -0.7110244035720825,
                "y": 0.007748599164187908,
                "z": 0.005598929710686207
            },
            "position": {
                "x": 0.11585023208521307,
                "y": 0.44412534475326537,
                "z": 0.3711530566215515
            }
        },
        "name": "move_to_auspresseinheit_A"
    },
    "id": "ProjEST_move_to_auspresseinheit_A_72",
    "joint_names": [
        "shoulder_pan_joint",
        "shoulder_lift_joint",
        "elbow_joint",
        "wrist_1_joint",
        "wrist_2_joint",
        "wrist_3_joint"
    ],
    "metrics": {
        "cart_traj_len": 1.9622542721737628,
        "distance_elbow_joint": 1.3685955961947274,
        "distance_shoulder_lift_joint": 0.9769267992203841,
        "distance_shoulder_pan_joint": 2.1972521370311586,
        "distance_wrist_1_joint": 1.0340611445045906,
        "distance_wrist_2_joint": 2.579188921906886,
        "distance_wrist_3_joint": 5.55475608567407,
        "smoothness": 0.34945988508043463,
        "time": 0.197797893,
        "traj_len": 3.7028071357460433,
        "weighted_distance": 5.332311217688951
    },
    "planner": "ProjEST",
    "start": {
        "state": {
            "elbow_joint": 2.4225746994637096,
            "shoulder_lift_joint": -1.373653595662188,
            "shoulder_pan_joint": -0.3378633848294565,
            "wrist_1_joint": -1.0288595594406726,
            "wrist_2_joint": 1.2330228066703421,
            "wrist_3_joint": 3.189163495502006
        }
    },
    "waypoints": [
        {
            "positions": [
                -0.3378633848294565,
                -1.373653595662188,
                2.4225746994637096,
                -1.0288595594406726,
                1.2330228066703421,
                3.189163495502006
            ]
        },
        {
            "positions": [
                -0.27086902451972517,
                -1.4239176940275862,
                2.3865749208801104,
                -1.0084254449612091,
                1.217603601900917,
                3.0033598893501834
            ]
        },
        {
            "positions": [
                -0.20387466420999378,
                -1.474181792392984,
                2.3505751422965115,
                -0.9879913304817454,
                1.202184397131492,
                2.817556283198361
            ]
        },
        {
            "positions": [
                -0.13688030390026243,
                -1.5244458907583822,
                2.3145753637129123,
                -0.9675572160022817,
                1.1867651923620672,
                2.6317526770465385
            ]
        },
        {
            "positions": [
                -0.06988594359053107,
                -1.5747099891237801,
                2.2785755851293135,
                -0.9471231015228181,
                1.1713459875926422,
                2.4459490708947156
            ]
        },
        {
            "positions": [
                -0.0028915832807997477,
                -1.624974087489178,
                2.242575806545714,
                -0.9266889870433545,
                1.1559267828232171,
                2.2601454647428936
            ]
        },
        {
            "positions": [
                0.06410277702893163,
                -1.6752381858545762,
                2.206576027962115,
                -0.9062548725638908,
                1.140507578053792,
                2.0743418585910707
            ]
        },
        {
            "positions": [
                0.13109713733866296,
                -1.7255022842199743,
                2.170576249378516,
                -0.8858207580844273,
                1.125088373284367,
                1.8885382524392482
            ]
        },
        {
            "positions": [
                0.19809149764839434,
                -1.7757663825853722,
                2.134576470794917,
                -0.8653866436049635,
                1.1096691685149422,
                1.7027346462874258
            ]
        },
        {
            "positions": [
                0.2650858579581256,
                -1.8260304809507704,
                2.098576692211318,
                -0.8449525291255,
                1.0942499637455172,
                1.5169310401356033
            ]
        },
        {
            "positions": [
                0.332080218267857,
                -1.8762945793161683,
                2.0625769136277188,
                -0.8245184146460364,
                1.0788307589760922,
                1.3311274339837809
            ]
        },
        {
            "positions": [
                0.3990745785775884,
                -1.9265586776815664,
                2.0265771350441195,
                -0.8040843001665727,
                1.063411554206667,
                1.1453238278319584
            ]
        },
        {
            "positions": [
                0.46606893888731976,
                -1.9768227760469643,
                1.9905773564605207,
                -0.7836501856871091,
                1.047992349437242,
                0.9595202216801355
            ]
        },
        {
            "positions": [
                0.5330632991970512,
                -2.0270868744123627,
                1.9545775778769214,
                -0.7632160712076455,
                1.0325731446678172,
                0.7737166155283131
            ]
        },
        {
            "positions": [
                0.6000576595067824,
                -2.0773509727777606,
                1.9185777992933224,
                -0.7427819567281818,
                1.0171539398983922,
                0.5879130093764906
            ]
        },
        {
            "positions": [
                0.6670520198165137,
                -2.1276150711431585,
                1.8825780207097234,
                -0.7223478422487182,
                1.0017347351289672,
                0.40210940322466815
            ]
        },
        {
            "positions": [
                0.7550327950615892,
                -2.121243276800274,
                1.8596479446081235,
                -0.6516855009038951,
                0.8125350359740525,
                0.3993864517640914
            ]
        },
        {
            "positions": [
                0.8430135703066647,
                -2.1148714824573895,
                1.8367178685065237,
                -0.5810231595590719,
                0.6233353368191379,
                0.39666350030351466
            ]
        },
        {
            "positions": [
                0.9309943455517402,
                -2.108499688114505,
                1.813787792404924,
                -0.5103608182142487,
                0.43413563766422314,
                0.3939405488429379
            ]
        },
        {
            "positions": [
                1.0189751207968156,
                -2.10212789377162,
                1.7908577163033241,
                -0.43969847686942565,
                0.2449359385093085,
                0.3912175973823611
            ]
        },
        {
            "positions": [
                1.106955896041891,
                -2.0957560994287356,
                1.7679276402017243,
                -0.36903613552460246,
                0.05573623935439376,
                0.38849464592178434
            ]
        },
        {
            "positions": [
                1.1949366712869667,
                -2.089384305085851,
                1.7449975641001245,
                -0.2983737941797794,
                -0.13346345980052088,
                0.3857716944612076
            ]
        },
        {
            "positions": [
                1.282917446532042,
                -2.0830125107429667,
                1.7220674879985247,
                -0.2277114528349562,
                -0.3226631589554356,
                0.38304874300063085
            ]
        },
        {
            "positions": [
                1.2467264858087652,
                -2.070707137668069,
                1.771140866580201,
                -0.23391710152736625,
                -0.251737711617447,
                0.5752769753675075
            ]
        },
        {
            "positions": [
                1.2105355250854886,
                -2.0584017645931714,
                1.8202142451618777,
                -0.24012275021977628,
                -0.1808122642794584,
                0.7675052077343842
            ]
        },
        {
            "positions": [
                1.1743445643622117,
                -2.0460963915182737,
                1.869287623743554,
                -0.24632839891218633,
                -0.10988681694146979,
                0.959733440101261
            ]
        },
        {
            "positions": [
                1.1381536036389348,
                -2.033791018443376,
                1.9183610023252307,
                -0.25253404760459636,
                -0.03896136960348118,
                1.1519616724681376
            ]
        },
        {
            "positions": [
                1.1019626429156582,
                -2.0214856453684784,
                1.967434380906907,
                -0.25873969629700644,
                0.031964077734507435,
                1.3441899048350145
            ]
        },
        {
            "positions": [
                1.0657716821923813,
                -2.0091802722935808,
                2.0165077594885834,
                -0.26494534498941646,
                0.10288952507249605,
                1.5364181372018912
            ]
        },
        {
            "positions": [
                1.0295807214691046,
                -1.9968748992186829,
                2.06558113807026,
                -0.2711509936818265,
                0.1738149724104846,
                1.7286463695687677
            ]
        },
        {
            "positions": [
                0.9933897607458277,
                -1.9845695261437852,
                2.1146545166519366,
                -0.2773566423742365,
                0.24474041974847327,
                1.9208746019356446
            ]
        },
        {
            "positions": [
                0.957198800022551,
                -1.9722641530688876,
                2.1637278952336128,
                -0.2835622910666466,
                0.3156658670864618,
                2.1131028343025213
            ]
        },
        {
            "positions": [
                0.9210078392992742,
                -1.9599587799939897,
                2.2128012738152893,
                -0.2897679397590566,
                0.3865913144244505,
                2.305331066669398
            ]
        },
        {
            "positions": [
                0.8848168785759973,
                -1.947653406919092,
                2.2618746523969655,
                -0.29597358845146665,
                0.45751676176243905,
                2.4975592990362747
            ]
        },
        {
            "positions": [
                0.8486259178527206,
                -1.9353480338441944,
                2.3109480309786425,
                -0.30217923714387673,
                0.5284422091004277,
                2.6897875314031516
            ]
        },
        {
            "positions": [
                0.8124349571294438,
                -1.9230426607692968,
                2.3600214095603187,
                -0.30838488583628676,
                0.5993676564384163,
                2.882015763770028
            ]
        },
        {
            "positions": [
                0.7594405489959135,
                -1.913846204086521,
                2.3750886411441927,
                -0.3845046882850587,
                0.6501037268820442,
                3.006852919971676
            ]
        },
        {
            "positions": [
                0.7064461408623832,
                -1.904649747403745,
                2.390155872728067,
                -0.4606244907338306,
                0.7008397973256721,
                3.131690076173324
            ]
        }
    ]
}