{
    "goal": {
        "global_pose": {
            "orientation": {
                "w": 0.005598929693374612,
                "x": 0.007748599140229565,
                "y": 0.7110244013736278,
                "z": -0.7031023480610252
            },
            "position": {
                "x": -0.8858502320852131,
                "y": -0.7141253447532654,
                "z": 0.3711530566215515
            }
        },
        "name": "move_to_auspresseinheit_C"
    },
    "id": "ProjEST_move_to_auspresseinheit_C_85",
    "joint_names": [
        "shoulder_pan_joint",
        "shoulder_lift_joint",
        "elbow_joint",
        "wrist_1_joint",
        "wrist_2_joint",
        "wrist_3_joint"
    ],
    "metrics": {
        "cart_traj_len": 0.4935477288024521,
        "distance_elbow_joint": 1.0166315377211899,
        "distance_shoulder_lift_joint": 0.33353023723540465,
        "distance_shoulder_pan_joint": 0.2558390615785595,
        "distance_wrist_1_joint": 0.7115748564251894,
        "distance_wrist_2_joint": 1.318946511298741,
        "distance_wrist_3_joint": 0.07615131691727939,
        "smoothness": 8.074349282788172e-16,
        "time": 0.73169546,
        "traj_len": 1.926829914957821,
        "weighted_distance": 2.4280645631314774
    },
    "planner": "ProjEST",
    "start": {
        "state": {
            "elbow_joint": 1.7527959577730765,
            "shoulder_lift_joint": -0.9740617694224828,
            "shoulder_pan_joint": -2.967991417825869,
            "wrist_1_joint": -0.7595177689779385,
            "wrist_2_joint": 1.7443932448376545,
            "wrist_3_joint": 3.1991315425061013
        }
    },
    "waypoints": [
        {
            "positions": [
                -2.967991417825869,
                -0.9740617694224828,
                1.7527959577730765,
                -0.7595177689779385,
                1.7443932448376545,
                3.1991315425061013
            ]
        },
        {
            "positions": [
                -2.942407511668013,
                -0.9407087456989424,
                1.6511328040009574,
                -0.6883602833354197,
                1.6124985937077803,
                3.191516410814373
            ]
        },
        {
            "positions": [
                -2.916823605510157,
                -0.9073557219754018,
                1.5494696502288385,
                -0.6172027976929007,
                1.4806039425779063,
                3.1839012791226455
            ]
        },
        {
            "positions": [
                -2.891239699352301,
                -0.8740026982518614,
                1.4478064964567197,
                -0.5460453120503818,
                1.348709291448032,
                3.1762861474309174
            ]
        },
        {
            "positions": [
                -2.865655793194445,
                -0.840649674528321,
                1.3461433426846006,
                -0.4748878264078628,
                1.216814640318158,
                3.1686710157391897
            ]
        },
        {
            "positions": [
                -2.840071887036589,
                -0.8072966508047805,
                1.2444801889124815,
                -0.40373034076534386,
                1.084919989188284,
                3.1610558840474616
            ]
        },
        {
            "positions": [
                -2.8144879808787335,
                -0.77394362708124,
                1.1428170351403626,
                -0.3325728551228249,
                0.9530253380584098,
                3.1534407523557335
            ]
        },
        {
            "positions": [
                -2.7889040747208775,
                -0.7405906033576996,
                1.0411538813682437,
                -0.261415369480306,
                0.8211306869285357,
                3.145825620664006
            ]
        },
        {
            "positions": [
                -2.7633201685630215,
                -0.707237579634159,
                0.9394907275961246,
                -0.19025788383778708,
                0.6892360357986616,
                3.1382104889722777
            ]
        },
        {
            "positions": [
                -2.7377362624051655,
                -0.6738845559106186,
                0.8378275738240056,
                -0.11910039819526808,
                0.5573413846687874,
                3.13059535728055
            ]
        },
        {
            "positions": [
                -2.7121523562473095,
                -0.6405315321870781,
                0.7361644200518866,
                -0.04794291255274919,
                0.42544673353891344,
                3.122980225588822
            ]
        }
    ]
}