{
    "goal": {
        "global_pose": {
            "orientation": {
                "w": -0.00223480608172531,
                "x": 0.0024358444001904467,
                "y": 0.7094548369677653,
                "z": -0.704743149386269
            },
            "position": {
                "x": 0.6205249238014221,
                "y": -0.6371506643295288,
                "z": 0.19426114857196808
            }
        },
        "name": "move_to_magneteinheit_B"
    },
    "id": "ProjEST_move_to_magneteinheit_B_81",
    "joint_names": [
        "shoulder_pan_joint",
        "shoulder_lift_joint",
        "elbow_joint",
        "wrist_1_joint",
        "wrist_2_joint",
        "wrist_3_joint"
    ],
    "metrics": {
        "cart_traj_len": 3.8920131977749817,
        "distance_elbow_joint": 4.984598052689306,
        "distance_shoulder_lift_joint": 1.5600571239774614,
        "distance_shoulder_pan_joint": 2.891644939482246,
        "distance_wrist_1_joint": 3.1199600121555173,
        "distance_wrist_2_joint": 1.4261158938111642,
        "distance_wrist_3_joint": 1.5337761131124052,
        "smoothness": 0.6953506315821474,
        "time": 2.843545366,
        "traj_len": 3.939054726102202,
        "weighted_distance": 4.809343018273867
    },
    "planner": "ProjEST",
    "start": {
        "state": {
            "elbow_joint": 2.393587130804639,
            "shoulder_lift_joint": -1.9085141043513325,
            "shoulder_pan_joint": 0.7066247066698809,
            "wrist_1_joint": -0.4678290934590222,
            "wrist_2_joint": 0.7096259084215963,
            "wrist_3_joint": 3.147370379541726
        }
    },
    "waypoints": [
        {
            "positions": [
                0.7066247066698809,
                -1.9085141043513325,
                2.393587130804639,
                -0.4678290934590222,
                0.7096259084215963,
                3.147370379541726
            ]
        },
        {
            "positions": [
                0.6128349427330331,
                -1.9654950434948697,
                2.391716440646329,
                -0.3999880241123068,
                0.734587471645431,
                3.065684235402389
            ]
        },
        {
            "positions": [
                0.5190451787961853,
                -2.022475982638407,
                2.389845750488019,
                -0.3321469547655913,
                0.7595490348692657,
                2.983998091263052
            ]
        },
        {
            "positions": [
                0.42525541485933754,
                -2.0794569217819445,
                2.387975060329709,
                -0.2643058854188759,
                0.7845105980931004,
                2.902311947123715
            ]
        },
        {
            "positions": [
                0.3314656509224897,
                -2.1364378609254815,
                2.3861043701713993,
                -0.1964648160721605,
                0.8094721613169351,
                2.820625802984378
            ]
        },
        {
            "positions": [
                0.23767588698564196,
                -2.193418800069019,
                2.3842336800130894,
                -0.12862374672544508,
                0.8344337245407698,
                2.738939658845041
            ]
        },
        {
            "positions": [
                0.2947547047335483,
                -2.165598157020485,
                2.221563231552846,
                -0.21020073169208273,
                0.7941453606899095,
                2.7237967489199453
            ]
        },
        {
            "positions": [
                0.35183352248145466,
                -2.137777513971952,
                2.0588927830926025,
                -0.2917777166587204,
                0.7538569968390493,
                2.708653838994849
            ]
        },
        {
            "positions": [
                0.40891234022936096,
                -2.109956870923418,
                1.896222334632359,
                -0.37335470162535805,
                0.713568632988189,
                2.6935109290697534
            ]
        },
        {
            "positions": [
                0.4659911579772673,
                -2.082136227874885,
                1.7335518861721155,
                -0.4549316865919957,
                0.6732802691373286,
                2.6783680191446573
            ]
        },
        {
            "positions": [
                0.5230699757251737,
                -2.0543155848263512,
                1.570881437711872,
                -0.5365086715586334,
                0.6329919052864683,
                2.6632251092195616
            ]
        },
        {
            "positions": [
                0.58014879347308,
                -2.026494941777818,
                1.4082109892516286,
                -0.618085656525271,
                0.5927035414356081,
                2.6480821992944654
            ]
        },
        {
            "positions": [
                0.6372276112209865,
                -1.9986742987292843,
                1.245540540791385,
                -0.6996626414919087,
                0.5524151775847478,
                2.6329392893693697
            ]
        },
        {
            "positions": [
                0.6943064289688927,
                -1.9708536556807508,
                1.0828700923311416,
                -0.7812396264585463,
                0.5121268137338875,
                2.617796379444274
            ]
        },
        {
            "positions": [
                0.7513852467167992,
                -1.9430330126322173,
                0.9201996438708981,
                -0.8628166114251841,
                0.4718384498830272,
                2.602653469519178
            ]
        },
        {
            "positions": [
                0.8084640644647054,
                -1.9152123695836836,
                0.7575291954106547,
                -0.9443935963918216,
                0.43155008603216694,
                2.587510559594082
            ]
        },
        {
            "positions": [
                0.8655428822126119,
                -1.88739172653515,
                0.5948587469504112,
                -1.0259705813584592,
                0.3912617221813066,
                2.572367649668986
            ]
        },
        {
            "positions": [
                0.9226216999605181,
                -1.8595710834866166,
                0.4321882984901677,
                -1.1075475663250969,
                0.3509733583304464,
                2.5572247397438903
            ]
        },
        {
            "positions": [
                0.9797005177084244,
                -1.831750440438083,
                0.26951785002992423,
                -1.1891245512917346,
                0.3106849944795861,
                2.542081829818794
            ]
        },
        {
            "positions": [
                1.0367793354563308,
                -1.8039297973895496,
                0.10684740156968076,
                -1.2707015362583722,
                0.27039663062872576,
                2.5269389198936985
            ]
        },
        {
            "positions": [
                1.093858153204237,
                -1.776109154341016,
                -0.05582304689056272,
                -1.35227852122501,
                0.23010826677786544,
                2.5117960099686023
            ]
        },
        {
            "positions": [
                1.1509369709521435,
                -1.7482885112924824,
                -0.2184934953508062,
                -1.4338555061916476,
                0.18981990292700524,
                2.4966531000435066
            ]
        },
        {
            "positions": [
                1.2080157887000498,
                -1.720467868243949,
                -0.3811639438110497,
                -1.5154324911582853,
                0.14953153907614503,
                2.481510190118411
            ]
        },
        {
            "positions": [
                1.2650946064479562,
                -1.6926472251954154,
                -0.5438343922712932,
                -1.597009476124923,
                0.1092431752252846,
                2.4663672801933147
            ]
        },
        {
            "positions": [
                1.3221734241958625,
                -1.664826582146882,
                -0.7065048407315366,
                -1.6785864610915606,
                0.06895481137442439,
                2.451224370268219
            ]
        },
        {
            "positions": [
                1.3792522419437687,
                -1.6370059390983482,
                -0.8691752891917801,
                -1.7601634460581983,
                0.028666447523564065,
                2.436081460343123
            ]
        },
        {
            "positions": [
                1.4363310596916752,
                -1.609185296049815,
                -1.0318457376520236,
                -1.841740431024836,
                -0.011621916327296145,
                2.420938550418027
            ]
        },
        {
            "positions": [
                1.4934098774395816,
                -1.5813646530012813,
                -1.194516186112267,
                -1.9233174159914737,
                -0.051910280178156576,
                2.405795640492931
            ]
        },
        {
            "positions": [
                1.5504886951874879,
                -1.5535440099527478,
                -1.3571866345725108,
                -2.0048944009581113,
                -0.09219864402901673,
                2.3906527305678353
            ]
        },
        {
            "positions": [
                1.6426309043619551,
                -1.5691232308925485,
                -1.4416170664613044,
                -2.0816788984497654,
                -0.1190539622247565,
                2.455159623522583
            ]
        },
        {
            "positions": [
                1.7347731135364224,
                -1.5847024518323491,
                -1.5260474983500982,
                -2.1584633959414194,
                -0.14590928042049628,
                2.5196665164773306
            ]
        },
        {
            "positions": [
                1.8269153227108896,
                -1.6002816727721498,
                -1.6104779302388919,
                -2.235247893433074,
                -0.17276459861623605,
                2.584173409432078
            ]
        },
        {
            "positions": [
                1.9190575318853569,
                -1.6158608937119505,
                -1.6949083621276857,
                -2.312032390924728,
                -0.19961991681197583,
                2.6486803023868255
            ]
        },
        {
            "positions": [
                2.011199741059824,
                -1.6314401146517514,
                -1.7793387940164793,
                -2.388816888416382,
                -0.2264752350077156,
                2.713187195341573
            ]
        },
        {
            "positions": [
                2.1033419502342916,
                -1.6470193355915521,
                -1.8637692259052732,
                -2.465601385908036,
                -0.2533305532034554,
                2.777694088296321
            ]
        },
        {
            "positions": [
                2.1954841594087586,
                -1.6625985565313528,
                -1.9481996577940668,
                -2.5423858833996906,
                -0.28018587139919515,
                2.842200981251068
            ]
        },
        {
            "positions": [
                2.2876263685832257,
                -1.6781777774711535,
                -2.0326300896828604,
                -2.6191703808913447,
                -0.3070411895949349,
                2.9067078742058157
            ]
        },
        {
            "positions": [
                2.379768577757693,
                -1.6937569984109542,
                -2.1170605215716543,
                -2.6959548783829987,
                -0.3338965077906747,
                2.9712147671605633
            ]
        },
        {
            "positions": [
                2.425726509326585,
                -1.772624340482338,
                -2.0472587981499872,
                -2.67100852745619,
                -0.3598223889105588,
                3.0048342794109755
            ]
        },
        {
            "positions": [
                2.4716844408954763,
                -1.8514916825537222,
                -1.9774570747283202,
                -2.6460621765293815,
                -0.38574827003044293,
                3.038453791661388
            ]
        },
        {
            "positions": [
                2.517642372464368,
                -1.9303590246251061,
                -1.9076553513066532,
                -2.6211158256025726,
                -0.411674151150327,
                3.0720733039118002
            ]
        },
        {
            "positions": [
                2.5652189172374618,
                -2.0165132324488213,
                -1.8194736079573162,
                -2.574920998607919,
                -0.43007421848395816,
                3.103952600843317
            ]
        },
        {
            "positions": [
                2.612795462010556,
                -2.1026674402725365,
                -1.7312918646079791,
                -2.5287261716132656,
                -0.44847428581758936,
                3.135831897774833
            ]
        },
        {
            "positions": [
                2.6603720067836494,
                -2.1888216480962517,
                -1.643110121258642,
                -2.482531344618612,
                -0.4668743531512205,
                3.16771119470635
            ]
        }
    ]
}