{
    "goal": {
        "global_pose": {
            "orientation": {
                "w": -0.4816463035849501,
                "x": 0.5182115481033762,
                "y": 0.4908360881923453,
                "z": -0.5084816262002911
            },
            "position": {
                "x": -0.8240239810943604,
                "y": 0.19912469901144506,
                "z": 0.16403168439865112
            }
        },
        "name": "move_to_storage_D"
    },
    "id": "ProjEST_move_to_storage_D_29",
    "joint_names": [
        "shoulder_pan_joint",
        "shoulder_lift_joint",
        "elbow_joint",
        "wrist_1_joint",
        "wrist_2_joint",
        "wrist_3_joint"
    ],
    "metrics": {
        "cart_traj_len": 3.874082351789613,
        "distance_elbow_joint": 4.216233575542379,
        "distance_shoulder_lift_joint": 1.2642986771630849,
        "distance_shoulder_pan_joint": 2.813328405392866,
        "distance_wrist_1_joint": 3.16052407994815,
        "distance_wrist_2_joint": 0.8808244096729314,
        "distance_wrist_3_joint": 3.130831200858833,
        "smoothness": 0.06196698789730423,
        "time": 0.113898389,
        "traj_len": 3.9326886920500383,
        "weighted_distance": 5.0763226099133005
    },
    "planner": "ProjEST",
    "start": {
        "state": {
            "elbow_joint": -2.384821990628643,
            "shoulder_lift_joint": -2.278805467437664,
            "shoulder_pan_joint": -0.18546946439364564,
            "wrist_1_joint": 1.4845938187801415,
            "wrist_2_joint": 0.178987772454074,
            "wrist_3_joint": 0.03710569632802521
        }
    },
    "waypoints": [
        {
            "positions": [
                -0.18546946439364564,
                -2.278805467437664,
                -2.384821990628643,
                1.4845938187801415,
                0.178987772454074,
                0.03710569632802521
            ]
        },
        {
            "positions": [
                -0.10017110955930851,
                -2.249134481194955,
                -2.246416511114979,
                1.3836411035282639,
                0.193174643989615,
                0.01326386930219147
            ]
        },
        {
            "positions": [
                -0.014872754724971377,
                -2.2194634949522465,
                -2.1080110316013148,
                1.2826883882763862,
                0.20736151552515603,
                -0.01057795772364227
            ]
        },
        {
            "positions": [
                0.07042560010936577,
                -2.189792508709538,
                -1.9696055520876508,
                1.1817356730245088,
                0.22154838706069704,
                -0.03441978474947602
            ]
        },
        {
            "positions": [
                0.1557239549437029,
                -2.1601215224668295,
                -1.8312000725739865,
                1.0807829577726311,
                0.23573525859623806,
                -0.05826161177530975
            ]
        },
        {
            "positions": [
                0.24102230977804007,
                -2.130450536224121,
                -1.6927945930603223,
                0.9798302425207535,
                0.2499221301317791,
                -0.0821034388011435
            ]
        },
        {
            "positions": [
                0.3263206646123772,
                -2.100779549981412,
                -1.5543891135466583,
                0.8788775272688758,
                0.2641090016673201,
                -0.10594526582697725
            ]
        },
        {
            "positions": [
                0.4116190194467143,
                -2.0711085637387034,
                -1.415983634032994,
                0.7779248120169981,
                0.27829587320286114,
                -0.12978709285281098
            ]
        },
        {
            "positions": [
                0.4969173742810514,
                -2.0414375774959947,
                -1.2775781545193299,
                0.6769720967651206,
                0.29248274473840213,
                -0.15362891987864472
            ]
        },
        {
            "positions": [
                0.5822157291153887,
                -2.011766591253286,
                -1.1391726750056659,
                0.576019381513243,
                0.3066696162739432,
                -0.17747074690447848
            ]
        },
        {
            "positions": [
                0.6675140839497258,
                -1.9820956050105776,
                -1.0007671954920017,
                0.4750666662613654,
                0.32085648780948417,
                -0.2013125739303122
            ]
        },
        {
            "positions": [
                0.7528124387840629,
                -1.9524246187678689,
                -0.8623617159783374,
                0.37411395100948774,
                0.3350433593450252,
                -0.22515440095614594
            ]
        },
        {
            "positions": [
                0.8381107936184,
                -1.9227536325251602,
                -0.7239562364646734,
                0.2731612357576101,
                0.34923023088056626,
                -0.2489962279819797
            ]
        },
        {
            "positions": [
                0.9234091484527371,
                -1.8930826462824517,
                -0.5855507569510092,
                0.17220852050573243,
                0.36341710241610725,
                -0.27283805500781344
            ]
        },
        {
            "positions": [
                1.0087075032870743,
                -1.863411660039743,
                -0.447145277437345,
                0.07125580525385478,
                0.37760397395164824,
                -0.29667988203364715
            ]
        },
        {
            "positions": [
                1.0940058581214116,
                -1.8337406737970343,
                -0.30873979792368056,
                -0.02969690999802288,
                0.39179084548718934,
                -0.32052170905948096
            ]
        },
        {
            "positions": [
                1.1793042129557485,
                -1.8040696875543256,
                -0.17033431841001656,
                -0.13064962524990031,
                0.40597771702273033,
                -0.34436353608531467
            ]
        },
        {
            "positions": [
                1.2646025677900858,
                -1.774398701311617,
                -0.03192883889635256,
                -0.2316023405017782,
                0.4201645885582713,
                -0.3682053631111485
            ]
        },
        {
            "positions": [
                1.349900922624423,
                -1.7447277150689084,
                0.10647664061731144,
                -0.3325550557536556,
                0.43435146009381237,
                -0.3920471901369822
            ]
        },
        {
            "positions": [
                1.43519927745876,
                -1.7150567288261998,
                0.24488212013097588,
                -0.4335077710055333,
                0.4485383316293534,
                -0.4158890171628159
            ]
        },
        {
            "positions": [
                1.5204976322930972,
                -1.6853857425834913,
                0.3832875996446399,
                -0.5344604862574107,
                0.4627252031648944,
                -0.4397308441886496
            ]
        },
        {
            "positions": [
                1.6057959871274343,
                -1.6557147563407826,
                0.5216930791583043,
                -0.6354132015092888,
                0.47691207470043545,
                -0.4635726712144834
            ]
        },
        {
            "positions": [
                1.6910943419617714,
                -1.6260437700980739,
                0.6600985586719683,
                -0.736365916761166,
                0.49109894623597644,
                -0.48741449824031713
            ]
        },
        {
            "positions": [
                1.7763926967961088,
                -1.5963727838553652,
                0.7985040381856328,
                -0.8373186320130437,
                0.5052858177715175,
                -0.511256325266151
            ]
        },
        {
            "positions": [
                1.8616910516304457,
                -1.5667017976126565,
                0.9369095176992963,
                -0.9382713472649213,
                0.5194726893070585,
                -0.5350981522919847
            ]
        },
        {
            "positions": [
                1.946989406464783,
                -1.5370308113699478,
                1.0753149972129608,
                -1.039224062516799,
                0.5336595608425996,
                -0.5589399793178184
            ]
        },
        {
            "positions": [
                2.03228776129912,
                -1.5073598251272393,
                1.2137204767266248,
                -1.1401767777686767,
                0.5478464323781405,
                -0.5827818063436521
            ]
        },
        {
            "positions": [
                2.1175861161334573,
                -1.4776888388845306,
                1.352125956240289,
                -1.2411294930205545,
                0.5620333039136816,
                -0.6066236333694859
            ]
        },
        {
            "positions": [
                2.158926594778316,
                -1.4415553787114372,
                1.3922232726808184,
                -1.2110603801108595,
                0.6003330255312029,
                -0.7962664996375706
            ]
        },
        {
            "positions": [
                2.200267073423175,
                -1.4054219185383439,
                1.432320589121348,
                -1.1809912672011647,
                0.6386327471487242,
                -0.9859093659056553
            ]
        },
        {
            "positions": [
                2.241607552068033,
                -1.3692884583652505,
                1.4724179055618773,
                -1.1509221542914696,
                0.6769324687662456,
                -1.17555223217374
            ]
        },
        {
            "positions": [
                2.282948030712892,
                -1.333154998192157,
                1.512515222002407,
                -1.1208530413817746,
                0.7152321903837668,
                -1.3651950984418249
            ]
        },
        {
            "positions": [
                2.3242885093577508,
                -1.2970215380190635,
                1.5526125384429363,
                -1.0907839284720797,
                0.7535319120012882,
                -1.5548379647099093
            ]
        },
        {
            "positions": [
                2.3656289880026096,
                -1.2608880778459701,
                1.5927098548834657,
                -1.0607148155623847,
                0.7918316336188096,
                -1.744480830977994
            ]
        },
        {
            "positions": [
                2.4069694666474684,
                -1.2247546176728767,
                1.6328071713239953,
                -1.0306457026526896,
                0.8301313552363309,
                -1.9341236972460787
            ]
        },
        {
            "positions": [
                2.448309945292327,
                -1.1886211574997834,
                1.6729044877645247,
                -1.0005765897429946,
                0.8684310768538522,
                -2.1237665635141636
            ]
        },
        {
            "positions": [
                2.4896504239371855,
                -1.15248769732669,
                1.7130018042050543,
                -0.9705074768332997,
                0.9067307984713735,
                -2.313409429782248
            ]
        },
        {
            "positions": [
                2.5309909025820443,
                -1.1163542371535966,
                1.7530991206455837,
                -0.9404383639236047,
                0.9450305200888949,
                -2.503052296050333
            ]
        },
        {
            "positions": [
                2.563280248721103,
                -1.082405088193924,
                1.7792032754016343,
                -0.89573515090677,
                0.9832910741015984,
                -2.6999433655438243
            ]
        },
        {
            "positions": [
                2.595569594860162,
                -1.0484559392342516,
                1.8053074301576848,
                -0.8510319378899355,
                1.021551628114302,
                -2.896834435037316
            ]
        },
        {
            "positions": [
                2.6278589409992206,
                -1.014506790274579,
                1.8314115849137353,
                -0.8063287248731008,
                1.0598121821270055,
                -3.0937255045308074
            ]
        }
    ]
}