{
    "goal": {
        "global_pose": {
            "orientation": {
                "w": 0.7031023480610252,
                "x": -0.7110244013736278,
                "y": 0.0077485991402295624,
                "z": 0.005598929693374583
            },
            "position": {
                "x": -0.8841497679147869,
                "y": 0.44412534475326537,
                "z": 0.3711530566215515
            }
        },
        "name": "move_to_auspresseinheit_D"
    },
    "id": "ProjEST_move_to_auspresseinheit_D_116",
    "joint_names": [
        "shoulder_pan_joint",
        "shoulder_lift_joint",
        "elbow_joint",
        "wrist_1_joint",
        "wrist_2_joint",
        "wrist_3_joint"
    ],
    "metrics": {
        "cart_traj_len": 0.3427936843170418,
        "distance_elbow_joint": 0.629665182326514,
        "distance_shoulder_lift_joint": 0.11649820073090877,
        "distance_shoulder_pan_joint": 0.13423124514664916,
        "distance_wrist_1_joint": 0.5078928903366822,
        "distance_wrist_2_joint": 1.4341168180517736,
        "distance_wrist_3_joint": 0.023892044949316738,
        "smoothness": 2.1711027948884176e-15,
        "time": 0.058519577,
        "traj_len": 1.6870970278978754,
        "weighted_distance": 2.1991112249790676
    },
    "planner": "ProjEST",
    "start": {
        "state": {
            "elbow_joint": -1.8275484843655228,
            "shoulder_lift_joint": -2.1267897864000416,
            "shoulder_pan_joint": -0.035127520176001514,
            "wrist_1_joint": -2.3477863256791385,
            "wrist_2_joint": -1.605890476484521,
            "wrist_3_joint": -3.0880375317375353
        }
    },
    "waypoints": [
        {
            "positions": [
                -0.035127520176001514,
                -2.1267897864000416,
                -1.8275484843655228,
                -2.3477863256791385,
                -1.605890476484521,
                -3.0880375317375353
            ]
        },
        {
            "positions": [
                -0.05190642581933266,
                -2.1413520614914052,
                -1.7488403365747085,
                -2.4112729369712236,
                -1.4266258742280493,
                -3.0910240373562
            ]
        },
        {
            "positions": [
                -0.06868533146266381,
                -2.155914336582769,
                -1.6701321887838942,
                -2.474759548263309,
                -1.2473612719715776,
                -3.0940105429748646
            ]
        },
        {
            "positions": [
                -0.08546423710599495,
                -2.1704766116741325,
                -1.59142404099308,
                -2.5382461595553942,
                -1.0680966697151058,
                -3.096997048593529
            ]
        },
        {
            "positions": [
                -0.1022431427493261,
                -2.185038886765496,
                -1.5127158932022657,
                -2.6017327708474793,
                -0.8888320674586342,
                -3.0999835542121934
            ]
        },
        {
            "positions": [
                -0.11902204839265725,
                -2.1996011618568594,
                -1.4340077454114515,
                -2.665219382139565,
                -0.7095674652021625,
                -3.102970059830858
            ]
        },
        {
            "positions": [
                -0.13580095403598838,
                -2.214163436948223,
                -1.3552995976206372,
                -2.72870599343165,
                -0.5303028629456907,
                -3.1059565654495227
            ]
        },
        {
            "positions": [
                -0.15257985967931953,
                -2.2287257120395867,
                -1.276591449829823,
                -2.7921926047237355,
                -0.35103826068921906,
                -3.1089430710681873
            ]
        },
        {
            "positions": [
                -0.16935876532265068,
                -2.2432879871309503,
                -1.1978833020390087,
                -2.8556792160158206,
                -0.1717736584327473,
                -3.111929576686852
            ]
        }
    ]
}