{
    "goal": {
        "global_pose": {
            "orientation": {
                "w": -0.4816463035849501,
                "x": 0.5182115481033762,
                "y": 0.4908360881923453,
                "z": -0.5084816262002911
            },
            "position": {
                "x": -0.8240239810943604,
                "y": 0.19912469901144506,
                "z": 0.16403168439865112
            }
        },
        "name": "move_to_storage_D"
    },
    "id": "ProjEST_move_to_storage_D_100",
    "joint_names": [
        "shoulder_pan_joint",
        "shoulder_lift_joint",
        "elbow_joint",
        "wrist_1_joint",
        "wrist_2_joint",
        "wrist_3_joint"
    ],
    "metrics": {
        "cart_traj_len": 0.6193242879173486,
        "distance_elbow_joint": 0.5549092942271223,
        "distance_shoulder_lift_joint": 0.34188702961527184,
        "distance_shoulder_pan_joint": 0.45712817869490807,
        "distance_wrist_1_joint": 3.8266780127128768,
        "distance_wrist_2_joint": 1.7952887298261233,
        "distance_wrist_3_joint": 3.156052638073466,
        "smoothness": 0.11499969860133903,
        "time": 0.08552194199999999,
        "traj_len": 3.1830714542953267,
        "weighted_distance": 4.697447807249773
    },
    "planner": "ProjEST",
    "start": {
        "state": {
            "elbow_joint": -2.384821990628643,
            "shoulder_lift_joint": -2.278805467437664,
            "shoulder_pan_joint": -0.18546946439364564,
            "wrist_1_joint": 1.4845938187801415,
            "wrist_2_joint": 0.178987772454074,
            "wrist_3_joint": 0.03710569632802521
        }
    },
    "waypoints": [
        {
            "positions": [
                -0.18546946439364564,
                -2.278805467437664,
                -2.384821990628643,
                1.4845938187801415,
                0.178987772454074,
                0.03710569632802521
            ]
        },
        {
            "positions": [
                -0.1578911936270644,
                -2.260715594971378,
                -2.38309112860565,
                1.4550102000537706,
                0.18889479314182794,
                0.03792151428978881
            ]
        },
        {
            "positions": [
                -0.06569426630510061,
                -2.1842572080306217,
                -2.3706249217017725,
                1.3291379528416964,
                0.1675013143834141,
                0.0740638611669395
            ]
        },
        {
            "positions": [
                0.026502661016863188,
                -2.107798821089865,
                -2.3581587147978946,
                1.2032657056296223,
                0.14610783562500027,
                0.11020620804409019
            ]
        },
        {
            "positions": [
                0.11869958833882702,
                -2.0313404341491084,
                -2.345692507894017,
                1.0773934584175482,
                0.12471435686658641,
                0.14634855492124088
            ]
        },
        {
            "positions": [
                0.11204919155785155,
                -2.0354457383372266,
                -2.323267298698691,
                0.9287205170110141,
                0.049879518916015636,
                0.27881854533342565
            ]
        },
        {
            "positions": [
                0.10539879477687607,
                -2.0395510425253445,
                -2.3008420895033654,
                0.78004757560448,
                -0.02495531903455514,
                0.4112885357456105
            ]
        },
        {
            "positions": [
                0.0987483979959006,
                -2.0436563467134627,
                -2.2784168803080393,
                0.631374634197946,
                -0.09979015698512592,
                0.5437585261577953
            ]
        },
        {
            "positions": [
                0.09209800121492512,
                -2.0477616509015806,
                -2.2559916711127133,
                0.48270169279141195,
                -0.1746249949356967,
                0.6762285165699801
            ]
        },
        {
            "positions": [
                0.08544760443394964,
                -2.051866955089699,
                -2.2335664619173876,
                0.33402875138487786,
                -0.24945983288626747,
                0.8086985069821649
            ]
        },
        {
            "positions": [
                0.07879720765297417,
                -2.055972259277817,
                -2.2111412527220615,
                0.18535580997834378,
                -0.3242946708368383,
                0.9411684973943497
            ]
        },
        {
            "positions": [
                0.0721468108719987,
                -2.060077563465935,
                -2.188716043526736,
                0.03668286857180969,
                -0.39912950878740905,
                1.0736384878065346
            ]
        },
        {
            "positions": [
                0.06549641409102322,
                -2.0641828676540532,
                -2.16629083433141,
                -0.11199007283472429,
                -0.4739643467379798,
                1.2061084782187192
            ]
        },
        {
            "positions": [
                0.058846017310047745,
                -2.068288171842171,
                -2.1438656251360837,
                -0.2606630142412585,
                -0.5487991846885506,
                1.3385784686309041
            ]
        },
        {
            "positions": [
                0.05219562052907227,
                -2.0723934760302893,
                -2.121440415940758,
                -0.40933595564779246,
                -0.6236340226391214,
                1.471048459043089
            ]
        },
        {
            "positions": [
                0.0455452237480968,
                -2.0764987802184076,
                -2.099015206745432,
                -0.5580088970543267,
                -0.6984688605896922,
                1.6035184494552739
            ]
        },
        {
            "positions": [
                0.03889482696712132,
                -2.0806040844065254,
                -2.076589997550106,
                -0.7066818384608606,
                -0.7733036985402629,
                1.7359884398674585
            ]
        },
        {
            "positions": [
                0.03224443018614585,
                -2.0847093885946437,
                -2.0541647883547802,
                -0.8553547798673946,
                -0.8481385364908336,
                1.8684584302796432
            ]
        },
        {
            "positions": [
                0.02559403340517037,
                -2.088814692782762,
                -2.031739579159454,
                -1.0040277212739288,
                -0.9229733744414045,
                2.000928420691828
            ]
        },
        {
            "positions": [
                0.018943636624194904,
                -2.09291999697088,
                -2.0093143699641285,
                -1.1527006626804628,
                -0.9978082123919753,
                2.133398411104013
            ]
        },
        {
            "positions": [
                0.012293239843219436,
                -2.097025301158998,
                -1.9868891607688024,
                -1.3013736040869968,
                -1.072643050342546,
                2.2658684015161974
            ]
        },
        {
            "positions": [
                0.005642843062243955,
                -2.101130605347116,
                -1.9644639515734765,
                -1.4500465454935307,
                -1.1474778882931167,
                2.398338391928383
            ]
        },
        {
            "positions": [
                -0.001007553718731527,
                -2.105235909535234,
                -1.9420387423781504,
                -1.5987194869000652,
                -1.2223127262436875,
                2.5308083823405676
            ]
        },
        {
            "positions": [
                -0.007657950499706995,
                -2.1093412137233525,
                -1.9196135331828246,
                -1.7473924283065991,
                -1.2971475641942583,
                2.6632783727527523
            ]
        },
        {
            "positions": [
                -0.014308347280682476,
                -2.1134465179114703,
                -1.8971883239874987,
                -1.896065369713133,
                -1.371982402144829,
                2.795748363164937
            ]
        },
        {
            "positions": [
                -0.02095874406165793,
                -2.1175518220995886,
                -1.8747631147921728,
                -2.044738311119667,
                -1.4468172400953998,
                2.9282183535771216
            ]
        },
        {
            "positions": [
                -0.02760914084263341,
                -2.1216571262877064,
                -1.8523379055968467,
                -2.1934112525262015,
                -1.5216520780459706,
                3.060688343989307
            ]
        },
        {
            "positions": [
                -0.034259537623608886,
                -2.1257624304758247,
                -1.8299126964015209,
                -2.3420841939327355,
                -1.5964869159965414,
                3.1931583344014913
            ]
        }
    ]
}