{
    "goal": {
        "global_pose": {
            "orientation": {
                "w": -0.00223480608172531,
                "x": 0.0024358444001904467,
                "y": 0.7094548369677653,
                "z": -0.704743149386269
            },
            "position": {
                "x": -0.37947507619857795,
                "y": -0.6371506643295288,
                "z": 0.19426114857196808
            }
        },
        "name": "move_to_magneteinheit_C"
    },
    "id": "ProjEST_move_to_magneteinheit_C_103",
    "joint_names": [
        "shoulder_pan_joint",
        "shoulder_lift_joint",
        "elbow_joint",
        "wrist_1_joint",
        "wrist_2_joint",
        "wrist_3_joint"
    ],
    "metrics": {
        "cart_traj_len": 1.7860324577150248,
        "distance_elbow_joint": 0.1481895976377834,
        "distance_shoulder_lift_joint": 1.4949958104786203,
        "distance_shoulder_pan_joint": 2.2269433461951986,
        "distance_wrist_1_joint": 0.8959011311763321,
        "distance_wrist_2_joint": 1.690432632687258,
        "distance_wrist_3_joint": 1.8402614758065274,
        "smoothness": 1.35562718223402,
        "time": 0.26298504,
        "traj_len": 2.880403442919363,
        "weighted_distance": 3.816225977252705
    },
    "planner": "ProjEST",
    "start": {
        "state": {
            "elbow_joint": 1.9565354006593851,
            "shoulder_lift_joint": -1.4165861576512813,
            "shoulder_pan_joint": -1.6717766223278752,
            "wrist_1_joint": -0.528663328821883,
            "wrist_2_joint": 1.472756589259273,
            "wrist_3_joint": 3.159348288315503
        }
    },
    "waypoints": [
        {
            "positions": [
                -1.6717766223278752,
                -1.4165861576512813,
                1.9565354006593851,
                -0.528663328821883,
                1.472756589259273,
                3.159348288315503
            ]
        },
        {
            "positions": [
                -1.6754180761973632,
                -1.5201259503680484,
                1.9607830570484803,
                -0.47843323629133194,
                1.440897614703654,
                3.0028435921427117
            ]
        },
        {
            "positions": [
                -1.6790595300668512,
                -1.6236657430848156,
                1.9650307134375757,
                -0.4282031437607809,
                1.409038640148035,
                2.8463388959699207
            ]
        },
        {
            "positions": [
                -1.6827009839363392,
                -1.7272055358015828,
                1.9692783698266711,
                -0.3779730512302298,
                1.377179665592416,
                2.6898341997971293
            ]
        },
        {
            "positions": [
                -1.6863424378058274,
                -1.8307453285183497,
                1.9735260262157663,
                -0.32774295869967873,
                1.345320691036797,
                2.533329503624338
            ]
        },
        {
            "positions": [
                -1.6899838916753154,
                -1.934285121235117,
                1.9777736826048615,
                -0.27751286616912757,
                1.313461716481178,
                2.3768248074515466
            ]
        },
        {
            "positions": [
                -1.6936253455448034,
                -2.037824913951884,
                1.982021338993957,
                -0.22728277363857652,
                1.281602741925559,
                2.2203201112787556
            ]
        },
        {
            "positions": [
                -1.8428748476070334,
                -2.0032106511846512,
                1.9771835200705263,
                -0.25241604410549434,
                1.1765408599011309,
                2.297004736806202
            ]
        },
        {
            "positions": [
                -1.9921243496692635,
                -1.9685963884174182,
                1.972345701147096,
                -0.27754931457241216,
                1.0714789778767029,
                2.373689362333648
            ]
        },
        {
            "positions": [
                -2.1413738517314935,
                -1.9339821256501852,
                1.9675078822236653,
                -0.30268258503933,
                0.9664170958522751,
                2.450373987861094
            ]
        },
        {
            "positions": [
                -2.2906233537937237,
                -1.8993678628829525,
                1.962670063300235,
                -0.3278158555062478,
                0.8613552138278471,
                2.5270586133885407
            ]
        },
        {
            "positions": [
                -2.4398728558559535,
                -1.8647536001157194,
                1.9578322443768044,
                -0.35294912597316563,
                0.7562933318034191,
                2.603743238915987
            ]
        },
        {
            "positions": [
                -2.5891223579181837,
                -1.8301393373484864,
                1.9529944254533738,
                -0.37808239644008346,
                0.6512314497789912,
                2.680427864443433
            ]
        },
        {
            "positions": [
                -2.738371859980414,
                -1.7955250745812537,
                1.9481566065299434,
                -0.4032156669070013,
                0.5461695677545632,
                2.757112489970879
            ]
        },
        {
            "positions": [
                -2.887621362042644,
                -1.7609108118140206,
                1.9433187876065128,
                -0.4283489373739191,
                0.44110768573013515,
                2.8337971154983257
            ]
        },
        {
            "positions": [
                -3.0368708641048743,
                -1.7262965490467876,
                1.9384809686830824,
                -0.4534822078408369,
                0.33604580370570714,
                2.910481741025772
            ]
        },
        {
            "positions": [
                -3.186120366167104,
                -1.6916822862795549,
                1.9336431497596518,
                -0.47861547830775475,
                0.2309839216812793,
                2.987166366553218
            ]
        },
        {
            "positions": [
                -3.0673537657744423,
                -1.6037465485286069,
                1.9460307281044695,
                -0.5358134568617293,
                0.30576058253282334,
                3.009564207135771
            ]
        },
        {
            "positions": [
                -2.948587165381781,
                -1.5158108107776587,
                1.9584183064492873,
                -0.5930114354157039,
                0.38053724338436745,
                3.031962047718324
            ]
        },
        {
            "positions": [
                -2.8298205649891193,
                -1.4278750730267107,
                1.970805884794105,
                -0.6502094139696784,
                0.45531390423591156,
                3.054359888300877
            ]
        },
        {
            "positions": [
                -2.7110539645964575,
                -1.3399393352757627,
                1.9831934631389228,
                -0.7074073925236529,
                0.5300905650874557,
                3.07675772888343
            ]
        },
        {
            "positions": [
                -2.592287364203796,
                -1.2520035975248145,
                1.9955810414837405,
                -0.7646053710776275,
                0.6048672259389998,
                3.0991555694659825
            ]
        },
        {
            "positions": [
                -2.4735207638111345,
                -1.1640678597738665,
                2.0079686198285582,
                -0.8218033496316021,
                0.6796438867905438,
                3.1215534100485356
            ]
        }
    ]
}