{
    "goal": {
        "global_pose": {
            "orientation": {
                "w": 0.7031023480610252,
                "x": -0.7110244013736278,
                "y": 0.0077485991402295624,
                "z": 0.005598929693374583
            },
            "position": {
                "x": -0.8841497679147869,
                "y": 0.44412534475326537,
                "z": 0.3711530566215515
            }
        },
        "name": "move_to_auspresseinheit_D"
    },
    "id": "ProjEST_move_to_auspresseinheit_D_107",
    "joint_names": [
        "shoulder_pan_joint",
        "shoulder_lift_joint",
        "elbow_joint",
        "wrist_1_joint",
        "wrist_2_joint",
        "wrist_3_joint"
    ],
    "metrics": {
        "cart_traj_len": 0.34235300216253284,
        "distance_elbow_joint": 0.628664897100089,
        "distance_shoulder_lift_joint": 0.11689918022952828,
        "distance_shoulder_pan_joint": 0.13443466750762043,
        "distance_wrist_1_joint": 0.5039255596418482,
        "distance_wrist_2_joint": 1.4311464043474198,
        "distance_wrist_3_joint": 0.021614609759780024,
        "smoothness": 0.0,
        "time": 0.041008363,
        "traj_len": 1.6842462167350372,
        "weighted_distance": 2.1943077500877384
    },
    "planner": "ProjEST",
    "start": {
        "state": {
            "elbow_joint": -1.8275484843655228,
            "shoulder_lift_joint": -2.1267897864000416,
            "shoulder_pan_joint": -0.035127520176001514,
            "wrist_1_joint": -2.3477863256791385,
            "wrist_2_joint": -1.605890476484521,
            "wrist_3_joint": -3.0880375317375353
        }
    },
    "waypoints": [
        {
            "positions": [
                -0.035127520176001514,
                -2.1267897864000416,
                -1.8275484843655228,
                -2.3477863256791385,
                -1.605890476484521,
                -3.0880375317375353
            ]
        },
        {
            "positions": [
                -0.05193185361445407,
                -2.1414021839287325,
                -1.7489653722280116,
                -2.4107770206343693,
                -1.4269971759410935,
                -3.0907393579575078
            ]
        },
        {
            "positions": [
                -0.06873618705290663,
                -2.1560145814574234,
                -1.6703822600905005,
                -2.4737677155896005,
                -1.248103875397666,
                -3.0934411841774803
            ]
        },
        {
            "positions": [
                -0.08554052049135917,
                -2.170626978986115,
                -1.5917991479529894,
                -2.5367584105448318,
                -1.0692105748542384,
                -3.0961430103974528
            ]
        },
        {
            "positions": [
                -0.10234485392981173,
                -2.1852393765148057,
                -1.5132160358154783,
                -2.5997491055000626,
                -0.8903172743108111,
                -3.0988448366174253
            ]
        },
        {
            "positions": [
                -0.11914918736826428,
                -2.1998517740434966,
                -1.4346329236779671,
                -2.6627398004552933,
                -0.7114239737673836,
                -3.1015466628373978
            ]
        },
        {
            "positions": [
                -0.13595352080671683,
                -2.214464171572188,
                -1.356049811540456,
                -2.7257304954105246,
                -0.5325306732239561,
                -3.1042484890573703
            ]
        },
        {
            "positions": [
                -0.15275785424516938,
                -2.229076569100879,
                -1.2774666994029449,
                -2.788721190365756,
                -0.35363737268052864,
                -3.1069503152773428
            ]
        },
        {
            "positions": [
                -0.16956218768362194,
                -2.24368896662957,
                -1.1988835872654338,
                -2.8517118853209866,
                -0.17474407213710125,
                -3.1096521414973153
            ]
        }
    ]
}