{
    "goal": {
        "global_pose": {
            "orientation": {
                "w": 0.005598929693374612,
                "x": 0.007748599140229565,
                "y": 0.7110244013736278,
                "z": -0.7031023480610252
            },
            "position": {
                "x": -0.8858502320852131,
                "y": -0.7141253447532654,
                "z": 0.3711530566215515
            }
        },
        "name": "move_to_auspresseinheit_C"
    },
    "id": "ProjEST_move_to_auspresseinheit_C_49",
    "joint_names": [
        "shoulder_pan_joint",
        "shoulder_lift_joint",
        "elbow_joint",
        "wrist_1_joint",
        "wrist_2_joint",
        "wrist_3_joint"
    ],
    "metrics": {
        "cart_traj_len": 0.4937598660244267,
        "distance_elbow_joint": 0.9938799010513453,
        "distance_shoulder_lift_joint": 0.3221446001970879,
        "distance_shoulder_pan_joint": 0.25690880964585583,
        "distance_wrist_1_joint": 0.6564373230645917,
        "distance_wrist_2_joint": 1.3139538976812446,
        "distance_wrist_3_joint": 0.04267681457645134,
        "smoothness": 3.2297397335745243e-16,
        "time": 0.333011757,
        "traj_len": 1.8936740337810456,
        "weighted_distance": 2.3752360295590234
    },
    "planner": "ProjEST",
    "start": {
        "state": {
            "elbow_joint": 1.7527959577730765,
            "shoulder_lift_joint": -0.9740617694224828,
            "shoulder_pan_joint": -2.967991417825869,
            "wrist_1_joint": -0.7595177689779385,
            "wrist_2_joint": 1.7443932448376545,
            "wrist_3_joint": 3.1991315425061013
        }
    },
    "waypoints": [
        {
            "positions": [
                -2.967991417825869,
                -0.9740617694224828,
                1.7527959577730765,
                -0.7595177689779385,
                1.7443932448376545,
                3.1991315425061013
            ]
        },
        {
            "positions": [
                -2.9423005368612833,
                -0.941847309402774,
                1.653407967667942,
                -0.6938740366714794,
                1.61299785506953,
                3.1948638610484563
            ]
        },
        {
            "positions": [
                -2.916609655896698,
                -0.9096328493830652,
                1.5540199775628074,
                -0.6282303043650201,
                1.4816024653014055,
                3.190596179590811
            ]
        },
        {
            "positions": [
                -2.8909187749321124,
                -0.8774183893633565,
                1.454631987457673,
                -0.562586572058561,
                1.3502070755332811,
                3.186328498133166
            ]
        },
        {
            "positions": [
                -2.8652278939675266,
                -0.8452039293436476,
                1.3552439973525383,
                -0.49694283975210185,
                1.2188116857651567,
                3.182060816675521
            ]
        },
        {
            "positions": [
                -2.839537013002941,
                -0.8129894693239388,
                1.2558560072474039,
                -0.4312991074456427,
                1.0874162959970322,
                3.1777931352178754
            ]
        },
        {
            "positions": [
                -2.8138461320383557,
                -0.78077500930423,
                1.1564680171422692,
                -0.36565537513918356,
                0.9560209062289077,
                3.1735254537602304
            ]
        },
        {
            "positions": [
                -2.78815525107377,
                -0.7485605492845213,
                1.0570800270371348,
                -0.3000116428327244,
                0.8246255164607833,
                3.1692577723025854
            ]
        },
        {
            "positions": [
                -2.762464370109184,
                -0.7163460892648125,
                0.9576920369320002,
                -0.23436791052626516,
                0.6932301266926588,
                3.1649900908449404
            ]
        },
        {
            "positions": [
                -2.736773489144599,
                -0.6841316292451036,
                0.8583040468268658,
                -0.168724178219806,
                0.5618347369245342,
                3.160722409387295
            ]
        },
        {
            "positions": [
                -2.7110826081800132,
                -0.6519171692253949,
                0.7589160567217312,
                -0.1030804459133469,
                0.4304393471564099,
                3.15645472792965
            ]
        }
    ]
}