{
    "goal": {
        "global_pose": {
            "orientation": {
                "w": 0.005598929693374612,
                "x": 0.007748599140229565,
                "y": 0.7110244013736278,
                "z": -0.7031023480610252
            },
            "position": {
                "x": -0.8858502320852131,
                "y": -0.7141253447532654,
                "z": 0.3711530566215515
            }
        },
        "name": "move_to_auspresseinheit_C"
    },
    "id": "ProjEST_move_to_auspresseinheit_C_26",
    "joint_names": [
        "shoulder_pan_joint",
        "shoulder_lift_joint",
        "elbow_joint",
        "wrist_1_joint",
        "wrist_2_joint",
        "wrist_3_joint"
    ],
    "metrics": {
        "cart_traj_len": 0.4925269305845198,
        "distance_elbow_joint": 0.989154788449093,
        "distance_shoulder_lift_joint": 0.32019863144734306,
        "distance_shoulder_pan_joint": 0.25717324344899994,
        "distance_wrist_1_joint": 0.6606551439700614,
        "distance_wrist_2_joint": 1.302921641611361,
        "distance_wrist_3_joint": 0.05425151801078565,
        "smoothness": 0.0,
        "time": 0.330976287,
        "traj_len": 1.8932392788386903,
        "weighted_distance": 2.378326047568045
    },
    "planner": "ProjEST",
    "start": {
        "state": {
            "elbow_joint": 1.7527959577730765,
            "shoulder_lift_joint": -0.9740617694224828,
            "shoulder_pan_joint": -2.967991417825869,
            "wrist_1_joint": -0.7595177689779385,
            "wrist_2_joint": 1.7443932448376545,
            "wrist_3_joint": 3.1991315425061013
        }
    },
    "waypoints": [
        {
            "positions": [
                -2.967991417825869,
                -0.9740617694224828,
                1.7527959577730765,
                -0.7595177689779385,
                1.7443932448376545,
                3.1991315425061013
            ]
        },
        {
            "positions": [
                -2.942274093480969,
                -0.9420419062777485,
                1.6538804789281671,
                -0.6934522545809324,
                1.6141010806765184,
                3.1937063907050227
            ]
        },
        {
            "positions": [
                -2.916556769136069,
                -0.9100220431330142,
                1.554965000083258,
                -0.6273867401839263,
                1.4838089165153823,
                3.188281238903944
            ]
        },
        {
            "positions": [
                -2.890839444791169,
                -0.8780021799882799,
                1.4560495212383486,
                -0.5613212257869201,
                1.3535167523542462,
                3.1828560871028655
            ]
        },
        {
            "positions": [
                -2.865122120446269,
                -0.8459823168435455,
                1.3571340423934393,
                -0.495255711389914,
                1.22322458819311,
                3.177430935301787
            ]
        },
        {
            "positions": [
                -2.839404796101369,
                -0.8139624536988113,
                1.25821856354853,
                -0.42919019699290784,
                1.092932424031974,
                3.1720057835007083
            ]
        },
        {
            "positions": [
                -2.8136874717564693,
                -0.781942590554077,
                1.1593030847036208,
                -0.3631246825959017,
                0.9626402598708379,
                3.16658063169963
            ]
        },
        {
            "positions": [
                -2.7879701474115692,
                -0.7499227274093426,
                1.0603876058587116,
                -0.2970591681988956,
                0.8323480957097019,
                3.1611554798985515
            ]
        },
        {
            "positions": [
                -2.762252823066669,
                -0.7179028642646084,
                0.961472127013802,
                -0.2309936538018894,
                0.7020559315485657,
                3.155730328097473
            ]
        },
        {
            "positions": [
                -2.736535498721769,
                -0.685883001119874,
                0.8625566481688928,
                -0.16492813940488327,
                0.5717637673874296,
                3.1503051762963943
            ]
        },
        {
            "positions": [
                -2.710818174376869,
                -0.6538631379751397,
                0.7636411693239835,
                -0.09886262500787714,
                0.4414716032262934,
                3.1448800244953157
            ]
        }
    ]
}