{
    "goal": {
        "global_pose": {
            "orientation": {
                "w": 0.7047431493862688,
                "x": -0.7094548369677653,
                "y": 0.0024358444001904,
                "z": -0.0022348060817251984
            },
            "position": {
                "x": -0.39052492380142206,
                "y": 0.3671506643295288,
                "z": 0.19426114857196808
            }
        },
        "name": "move_to_magneteinheit_D"
    },
    "id": "ProjEST_move_to_magneteinheit_D_55",
    "joint_names": [
        "shoulder_pan_joint",
        "shoulder_lift_joint",
        "elbow_joint",
        "wrist_1_joint",
        "wrist_2_joint",
        "wrist_3_joint"
    ],
    "metrics": {
        "cart_traj_len": 4.827271122117405,
        "distance_elbow_joint": 3.114321548429887,
        "distance_shoulder_lift_joint": 1.610060914649895,
        "distance_shoulder_pan_joint": 6.473819333127196,
        "distance_wrist_1_joint": 3.9306237553204433,
        "distance_wrist_2_joint": 0.685303495469503,
        "distance_wrist_3_joint": 12.216049642383204,
        "smoothness": 0.3584792837644712,
        "time": 0.17611755899999998,
        "traj_len": 5.294353472274036,
        "weighted_distance": 7.555011927517819
    },
    "planner": "ProjEST",
    "start": {
        "state": {
            "elbow_joint": 0.7495348899011911,
            "shoulder_lift_joint": -0.6476975780737668,
            "shoulder_pan_joint": -2.711696901376276,
            "wrist_1_joint": -0.0750647808097303,
            "wrist_2_joint": 0.43296659715458535,
            "wrist_3_joint": 3.1361499051832418
        }
    },
    "waypoints": [
        {
            "positions": [
                -2.711696901376276,
                -0.6476975780737668,
                0.7495348899011911,
                -0.0750647808097303,
                0.43296659715458535,
                3.1361499051832418
            ]
        },
        {
            "positions": [
                -2.569429173195593,
                -0.7195926272951225,
                0.6589327615454974,
                -0.06691944193467109,
                0.3715278164423401,
                3.141198728298299
            ]
        },
        {
            "positions": [
                -2.4271614450149093,
                -0.7914876765164782,
                0.5683306331898037,
                -0.05877410305961187,
                0.31008903573009494,
                3.1462475514133565
            ]
        },
        {
            "positions": [
                -2.284893716834226,
                -0.863382725737834,
                0.47772850483411,
                -0.05062876418455266,
                0.2486502550178497,
                3.1512963745284135
            ]
        },
        {
            "positions": [
                -2.142625988653543,
                -0.9352777749591897,
                0.3871263764784163,
                -0.04248342530949345,
                0.18721147430560447,
                3.156345197643471
            ]
        },
        {
            "positions": [
                -2.046754507997315,
                -0.9289777739333483,
                0.32218539848263306,
                -0.11597916334366307,
                0.18804981308564367,
                3.007472099868541
            ]
        },
        {
            "positions": [
                -1.950883027341087,
                -0.9226777729075071,
                0.2572444204868498,
                -0.18947490137783268,
                0.1888881518656829,
                2.8585990020936105
            ]
        },
        {
            "positions": [
                -1.8550115466848593,
                -0.9163777718816657,
                0.19230344249106662,
                -0.26297063941200227,
                0.18972649064572208,
                2.7097259043186805
            ]
        },
        {
            "positions": [
                -1.7591400660286314,
                -0.9100777708558243,
                0.12736246449528338,
                -0.3364663774461719,
                0.19056482942576128,
                2.5608528065437506
            ]
        },
        {
            "positions": [
                -1.6632685853724036,
                -0.9037777698299829,
                0.06242148649950019,
                -0.4099621154803415,
                0.1914031682058005,
                2.4119797087688206
            ]
        },
        {
            "positions": [
                -1.5673971047161759,
                -0.8974777688041417,
                -0.002519491496283055,
                -0.4834578535145111,
                0.1922415069858397,
                2.2631066109938907
            ]
        },
        {
            "positions": [
                -1.471525624059948,
                -0.8911777677783003,
                -0.06746046949206636,
                -0.5569535915486807,
                0.1930798457658789,
                2.1142335132189602
            ]
        },
        {
            "positions": [
                -1.3756541434037202,
                -0.8848777667524589,
                -0.13240144748784954,
                -0.6304493295828504,
                0.1939181845459181,
                1.9653604154440303
            ]
        },
        {
            "positions": [
                -1.2797826627474924,
                -0.8785777657266175,
                -0.1973424254836328,
                -0.7039450676170199,
                0.1947565233259573,
                1.8164873176691
            ]
        },
        {
            "positions": [
                -1.1839111820912644,
                -0.8722777647007762,
                -0.2622834034794159,
                -0.7774408056511896,
                0.1955948621059965,
                1.6676142198941701
            ]
        },
        {
            "positions": [
                -1.0880397014350367,
                -0.8659777636749348,
                -0.3272243814751993,
                -0.8509365436853592,
                0.19643320088603572,
                1.51874112211924
            ]
        },
        {
            "positions": [
                -0.992168220778809,
                -0.8596777626490935,
                -0.3921653594709824,
                -0.9244322817195287,
                0.1972715396660749,
                1.36986802434431
            ]
        },
        {
            "positions": [
                -0.896296740122581,
                -0.8533777616232521,
                -0.45710633746676566,
                -0.9979280197536984,
                0.1981098784461141,
                1.2209949265693798
            ]
        },
        {
            "positions": [
                -0.800425259466353,
                -0.8470777605974108,
                -0.522047315462549,
                -1.071423757787868,
                0.19894821722615333,
                1.0721218287944496
            ]
        },
        {
            "positions": [
                -0.7045537788101255,
                -0.8407777595715694,
                -0.5869882934583321,
                -1.1449194958220377,
                0.19978655600619252,
                0.9232487310195197
            ]
        },
        {
            "positions": [
                -0.6086822981538975,
                -0.834477758545728,
                -0.6519292714541154,
                -1.2184152338562073,
                0.20062489478623174,
                0.7743756332445897
            ]
        },
        {
            "positions": [
                -0.5128108174976698,
                -0.8281777575198868,
                -0.7168702494498986,
                -1.2919109718903767,
                0.20146323356627094,
                0.6255025354696597
            ]
        },
        {
            "positions": [
                -0.4169393368414418,
                -0.8218777564940454,
                -0.7818112274456819,
                -1.3654067099245464,
                0.20230157234631013,
                0.4766294376947293
            ]
        },
        {
            "positions": [
                -0.32106785618521405,
                -0.815577755468204,
                -0.8467522054414651,
                -1.4389024479587162,
                0.20313991112634933,
                0.32775633991979936
            ]
        },
        {
            "positions": [
                -0.2251963755289863,
                -0.8092777544423626,
                -0.9116931834372481,
                -1.5123981859928857,
                0.20397824990638855,
                0.1788832421448694
            ]
        },
        {
            "positions": [
                -0.12932489487275856,
                -0.8029777534165212,
                -0.9766341614330316,
                -1.5858939240270553,
                0.20481658868642774,
                0.030010144369938985
            ]
        },
        {
            "positions": [
                -0.033453414216530586,
                -0.79667775239068,
                -1.0415751394288149,
                -1.659389662061225,
                0.20565492746646696,
                -0.11886295340499098
            ]
        },
        {
            "positions": [
                0.062418066439697384,
                -0.7903777513648386,
                -1.106516117424598,
                -1.7328854000953946,
                0.20649326624650616,
                -0.2677360511799214
            ]
        },
        {
            "positions": [
                0.1582895470959249,
                -0.7840777503389973,
                -1.1714570954203811,
                -1.806381138129564,
                0.20733160502654535,
                -0.4166091489548509
            ]
        },
        {
            "positions": [
                0.2541610277521529,
                -0.7777777493131559,
                -1.2363980734161644,
                -1.8798768761637337,
                0.20816994380658455,
                -0.5654822467297813
            ]
        },
        {
            "positions": [
                0.35003250840838085,
                -0.7714777482873145,
                -1.3013390514119476,
                -1.9533726141979033,
                0.20900828258662377,
                -0.7143553445047113
            ]
        },
        {
            "positions": [
                0.4459039890646088,
                -0.7651777472614731,
                -1.3662800294077309,
                -2.026868352232073,
                0.20984662136666296,
                -0.8632284422796412
            ]
        },
        {
            "positions": [
                0.5417754697208368,
                -0.7588777462356318,
                -1.4312210074035143,
                -2.1003640902662424,
                0.21068496014670218,
                -1.0121015400545716
            ]
        },
        {
            "positions": [
                0.6376469503770639,
                -0.7525777452097905,
                -1.4961619853992971,
                -2.1738598283004125,
                0.21152329892674138,
                -1.1609746378295012
            ]
        },
        {
            "positions": [
                0.7335184310332918,
                -0.7462777441839491,
                -1.5611029633950806,
                -2.2473555663345817,
                0.21236163770678057,
                -1.3098477356044316
            ]
        },
        {
            "positions": [
                0.8293899116895198,
                -0.7399777431581077,
                -1.6260439413908636,
                -2.3208513043687518,
                0.2131999764868198,
                -1.458720833379362
            ]
        },
        {
            "positions": [
                0.9252613923457478,
                -0.7336777421322664,
                -1.690984919386647,
                -2.394347042402921,
                0.21403831526685899,
                -1.6075939311542915
            ]
        },
        {
            "positions": [
                1.0211328730019757,
                -0.7273777411064251,
                -1.7559258973824305,
                -2.467842780437091,
                0.21487665404689818,
                -1.756467028929222
            ]
        },
        {
            "positions": [
                1.1170043536582033,
                -0.7210777400805837,
                -1.8208668753782136,
                -2.5413385184712602,
                0.2157149928269374,
                -1.9053401267041514
            ]
        },
        {
            "positions": [
                1.2128758343144312,
                -0.7147777390547423,
                -1.8858078533739966,
                -2.6148342565054294,
                0.2165533316069766,
                -2.054213224479082
            ]
        },
        {
            "positions": [
                1.3087473149706592,
                -0.708477738028901,
                -1.95074883136978,
                -2.6883299945395995,
                0.2173916703870158,
                -2.2030863222540122
            ]
        },
        {
            "positions": [
                1.4046187956268867,
                -0.7021777370030596,
                -2.015689809365563,
                -2.7618257325737687,
                0.218230009167055,
                -2.3519594200289426
            ]
        },
        {
            "positions": [
                1.5004902762831147,
                -0.6958777359772182,
                -2.0806307873613465,
                -2.835321470607939,
                0.2190683479470942,
                -2.500832517803872
            ]
        },
        {
            "positions": [
                1.5963617569393422,
                -0.689577734951377,
                -2.1455717653571296,
                -2.908817208642108,
                0.2199066867271334,
                -2.6497056155788017
            ]
        },
        {
            "positions": [
                1.6922332375955702,
                -0.6832777339255356,
                -2.2105127433529126,
                -2.982312946676278,
                0.22074502550717262,
                -2.798578713353732
            ]
        },
        {
            "positions": [
                1.7881047182517982,
                -0.6769777328996942,
                -2.275453721348696,
                -3.0558086847104473,
                0.22158336428721181,
                -2.9474518111286625
            ]
        },
        {
            "positions": [
                1.7149929510851638,
                -0.7163918319998785,
                -2.278762348651659,
                -3.023041383213438,
                0.20657682789317794,
                -2.7218200577527054
            ]
        },
        {
            "positions": [
                1.6418811839185294,
                -0.7558059311000629,
                -2.282070975954622,
                -2.9902740817164286,
                0.19157029149914406,
                -2.4961883043767483
            ]
        },
        {
            "positions": [
                1.5687694167518953,
                -0.7952200302002471,
                -2.285379603257585,
                -2.9575067802194193,
                0.17656375510511021,
                -2.2705565510007912
            ]
        },
        {
            "positions": [
                1.495657649585261,
                -0.8346341293004315,
                -2.288688230560548,
                -2.92473947872241,
                0.16155721871107634,
                -2.044924797624834
            ]
        },
        {
            "positions": [
                1.4225458824186266,
                -0.8740482284006158,
                -2.291996857863511,
                -2.8919721772254006,
                0.1465506823170425,
                -1.819293044248877
            ]
        },
        {
            "positions": [
                1.3494341152519922,
                -0.9134623275008,
                -2.295305485166474,
                -2.859204875728391,
                0.13154414592300862,
                -1.59366129087292
            ]
        },
        {
            "positions": [
                1.2763223480853578,
                -0.9528764266009844,
                -2.298614112469437,
                -2.826437574231382,
                0.11653760952897474,
                -1.3680295374969629
            ]
        },
        {
            "positions": [
                1.2032105809187237,
                -0.9922905257011687,
                -2.3019227397724,
                -2.7936702727343725,
                0.10153107313494086,
                -1.1423977841210058
            ]
        },
        {
            "positions": [
                1.1300988137520893,
                -1.031704624801353,
                -2.305231367075363,
                -2.760902971237363,
                0.08652453674090699,
                -0.9167660307450487
            ]
        },
        {
            "positions": [
                1.056987046585455,
                -1.0711187239015374,
                -2.308539994378326,
                -2.728135669740354,
                0.07151800034687314,
                -0.6911342773690916
            ]
        },
        {
            "positions": [
                0.9838752794188206,
                -1.1105328230017217,
                -2.311848621681289,
                -2.6953683682433445,
                0.056511463952839264,
                -0.4655025239931345
            ]
        },
        {
            "positions": [
                0.9107635122521863,
                -1.1499469221019059,
                -2.315157248984252,
                -2.662601066746335,
                0.04150492755880539,
                -0.23987077061717743
            ]
        },
        {
            "positions": [
                0.837651745085552,
                -1.1893610212020902,
                -2.318465876287215,
                -2.6298337652493258,
                0.026498391164771512,
                -0.014239017241220342
            ]
        },
        {
            "positions": [
                0.7645399779189177,
                -1.2287751203022745,
                -2.3217745035901776,
                -2.5970664637523164,
                0.011491854770737664,
                0.21139273613473675
            ]
        },
        {
            "positions": [
                0.6914282107522833,
                -1.2681892194024589,
                -2.3250831308931406,
                -2.564299162255307,
                -0.0035146816232962397,
                0.43702448951069384
            ]
        },
        {
            "positions": [
                0.618316443585649,
                -1.3076033185026432,
                -2.3283917581961036,
                -2.5315318607582977,
                -0.018521218017330088,
                0.6626562428866509
            ]
        },
        {
            "positions": [
                0.5452046764190146,
                -1.3470174176028276,
                -2.3317003854990666,
                -2.4987645592612884,
                -0.033527754411363964,
                0.888287996262608
            ]
        },
        {
            "positions": [
                0.47209290925238045,
                -1.386431516703012,
                -2.3350090128020295,
                -2.465997257764279,
                -0.04853429080539784,
                1.113919749638565
            ]
        },
        {
            "positions": [
                0.39898114208574587,
                -1.4258456158031962,
                -2.3383176401049925,
                -2.4332299562672697,
                -0.06354082719943172,
                1.3395515030145222
            ]
        },
        {
            "positions": [
                0.3258693749191117,
                -1.4652597149033806,
                -2.3416262674079555,
                -2.4004626547702603,
                -0.07854736359346554,
                1.5651832563904793
            ]
        },
        {
            "positions": [
                0.25275760775247735,
                -1.504673814003565,
                -2.3449348947109185,
                -2.367695353273251,
                -0.09355389998749947,
                1.7908150097664364
            ]
        },
        {
            "positions": [
                0.179645840585843,
                -1.5440879131037493,
                -2.3482435220138815,
                -2.3349280517762416,
                -0.10856043638153329,
                2.0164467631423935
            ]
        },
        {
            "positions": [
                0.10653407341920862,
                -1.5835020122039336,
                -2.3515521493168445,
                -2.3021607502792323,
                -0.12356697277556722,
                2.2420785165183506
            ]
        },
        {
            "positions": [
                0.033422306252574474,
                -1.6229161113041177,
                -2.3548607766198075,
                -2.269393448782223,
                -0.13857350916960104,
                2.4677102698943076
            ]
        },
        {
            "positions": [
                -0.03968946091405989,
                -1.662330210404302,
                -2.3581694039227705,
                -2.2366261472852136,
                -0.15358004556363491,
                2.6933420232702647
            ]
        },
        {
            "positions": [
                -0.11280122808069426,
                -1.7017443095044864,
                -2.3614780312257335,
                -2.2038588457882042,
                -0.1685865819576688,
                2.918973776646222
            ]
        },
        {
            "positions": [
                -0.18591299524732857,
                -1.7411584086046707,
                -2.3647866585286965,
                -2.171091544291195,
                -0.1835931183517027,
                3.144605530022179
            ]
        }
    ]
}