{
    "goal": {
        "global_pose": {
            "orientation": {
                "w": 0.005598929693374612,
                "x": 0.007748599140229565,
                "y": 0.7110244013736278,
                "z": -0.7031023480610252
            },
            "position": {
                "x": 0.1141497679147869,
                "y": -0.7141253447532654,
                "z": 0.3711530566215515
            }
        },
        "name": "move_to_auspresseinheit_B"
    },
    "id": "ProjEST_move_to_auspresseinheit_B_102",
    "joint_names": [
        "shoulder_pan_joint",
        "shoulder_lift_joint",
        "elbow_joint",
        "wrist_1_joint",
        "wrist_2_joint",
        "wrist_3_joint"
    ],
    "metrics": {
        "cart_traj_len": 0.5641917760318119,
        "distance_elbow_joint": 0.06419502954733058,
        "distance_shoulder_lift_joint": 0.29473988316473143,
        "distance_shoulder_pan_joint": 0.5767694380307042,
        "distance_wrist_1_joint": 0.33436280859077405,
        "distance_wrist_2_joint": 0.9917333547429856,
        "distance_wrist_3_joint": 0.005047898830667474,
        "smoothness": 5.075305255429287e-16,
        "time": 0.036624297,
        "traj_len": 1.5056056631492833,
        "weighted_distance": 1.8981676358800053
    },
    "planner": "ProjEST",
    "start": {
        "state": {
            "elbow_joint": 2.0193061681459312,
            "shoulder_lift_joint": -1.1220205130644991,
            "shoulder_pan_joint": -1.0952072088045026,
            "wrist_1_joint": -0.8559671810662515,
            "wrist_2_joint": 0.4759638712940361,
            "wrist_3_joint": 3.159081874192446
        }
    },
    "waypoints": [
        {
            "positions": [
                -1.0952072088045026,
                -1.1220205130644991,
                2.0193061681459312,
                -0.8559671810662515,
                0.4759638712940361,
                3.159081874192446
            ]
        },
        {
            "positions": [
                -1.1913354484762866,
                -1.1711438269252876,
                2.0086069965547093,
                -0.8002400463011224,
                0.6412527637512004,
                3.159923190664224
            ]
        },
        {
            "positions": [
                -1.2874636881480708,
                -1.2202671407860763,
                1.9979078249634876,
                -0.7445129115359934,
                0.8065416562083647,
                3.160764507136002
            ]
        },
        {
            "positions": [
                -1.3835919278198547,
                -1.2693904546468648,
                1.987208653372266,
                -0.6887857767708645,
                0.971830548665529,
                3.16160582360778
            ]
        },
        {
            "positions": [
                -1.4797201674916387,
                -1.3185137685076533,
                1.9765094817810442,
                -0.6330586420057355,
                1.1371194411226933,
                3.1624471400795575
            ]
        },
        {
            "positions": [
                -1.575848407163423,
                -1.367637082368442,
                1.9658103101898223,
                -0.5773315072406064,
                1.3024083335798575,
                3.1632884565513355
            ]
        },
        {
            "positions": [
                -1.6719766468352069,
                -1.4167603962292306,
                1.9551111385986006,
                -0.5216043724754774,
                1.4676972260370218,
                3.1641297730231135
            ]
        }
    ]
}