{
    "goal": {
        "global_pose": {
            "orientation": {
                "w": 0.005598929693374612,
                "x": 0.007748599140229565,
                "y": 0.7110244013736278,
                "z": -0.7031023480610252
            },
            "position": {
                "x": 0.1141497679147869,
                "y": -0.7141253447532654,
                "z": 0.3711530566215515
            }
        },
        "name": "move_to_auspresseinheit_B"
    },
    "id": "ProjEST_move_to_auspresseinheit_B_117",
    "joint_names": [
        "shoulder_pan_joint",
        "shoulder_lift_joint",
        "elbow_joint",
        "wrist_1_joint",
        "wrist_2_joint",
        "wrist_3_joint"
    ],
    "metrics": {
        "cart_traj_len": 0.5644927577847874,
        "distance_elbow_joint": 0.0632753332479854,
        "distance_shoulder_lift_joint": 0.29607446388614034,
        "distance_shoulder_pan_joint": 0.577356579009138,
        "distance_wrist_1_joint": 0.333671736130544,
        "distance_wrist_2_joint": 0.9918925509378427,
        "distance_wrist_3_joint": 0.00341333118527265,
        "smoothness": 2.5376526478085547e-16,
        "time": 0.508791831,
        "traj_len": 1.505218919093473,
        "weighted_distance": 1.8968592314233166
    },
    "planner": "ProjEST",
    "start": {
        "state": {
            "elbow_joint": 2.0193061681459312,
            "shoulder_lift_joint": -1.1220205130644991,
            "shoulder_pan_joint": -1.0952072088045026,
            "wrist_1_joint": -0.8559671810662515,
            "wrist_2_joint": 0.4759638712940361,
            "wrist_3_joint": 3.159081874192446
        }
    },
    "waypoints": [
        {
            "positions": [
                -1.0952072088045026,
                -1.1220205130644991,
                2.0193061681459312,
                -0.8559671810662515,
                0.4759638712940361,
                3.159081874192446
            ]
        },
        {
            "positions": [
                -1.1914333053060255,
                -1.1713662570455226,
                2.008760279271267,
                -0.8003552250444941,
                0.6412792964503432,
                3.1585129856615675
            ]
        },
        {
            "positions": [
                -1.2876594018075487,
                -1.220712001026546,
                1.9982143903966028,
                -0.7447432690227368,
                0.8065947216066502,
                3.1579440971306885
            ]
        },
        {
            "positions": [
                -1.3838854983090716,
                -1.2700577450075694,
                1.9876685015219384,
                -0.6891313130009795,
                0.9719101467629574,
                3.1573752085998095
            ]
        },
        {
            "positions": [
                -1.4801115948105945,
                -1.3194034889885926,
                1.9771226126472743,
                -0.6335193569792221,
                1.1372255719192645,
                3.156806320068931
            ]
        },
        {
            "positions": [
                -1.5763376913121177,
                -1.368749232969616,
                1.9665767237726102,
                -0.5779074009574647,
                1.3025409970755717,
                3.1562374315380524
            ]
        },
        {
            "positions": [
                -1.6725637878136406,
                -1.4180949769506395,
                1.9560308348979458,
                -0.5222954449357075,
                1.4678564222318788,
                3.1556685430071734
            ]
        }
    ]
}