{
    "goal": {
        "global_pose": {
            "orientation": {
                "w": 0.7031023502349854,
                "x": -0.7110244035720825,
                "y": 0.007748599164187908,
                "z": 0.005598929710686207
            },
            "position": {
                "x": 0.11585023208521307,
                "y": 0.44412534475326537,
                "z": 0.3711530566215515
            }
        },
        "name": "move_to_auspresseinheit_A"
    },
    "id": "ProjEST_move_to_auspresseinheit_A_67",
    "joint_names": [
        "shoulder_pan_joint",
        "shoulder_lift_joint",
        "elbow_joint",
        "wrist_1_joint",
        "wrist_2_joint",
        "wrist_3_joint"
    ],
    "metrics": {
        "cart_traj_len": 1.7504806154558339,
        "distance_elbow_joint": 1.7998861792976752,
        "distance_shoulder_lift_joint": 0.7195852891659238,
        "distance_shoulder_pan_joint": 2.4131336050679693,
        "distance_wrist_1_joint": 2.909950344711888,
        "distance_wrist_2_joint": 0.8100315323537282,
        "distance_wrist_3_joint": 3.0282777069794924,
        "smoothness": 0.9107896941058243,
        "time": 0.165825266,
        "traj_len": 3.417727996429306,
        "weighted_distance": 4.6322135042117045
    },
    "planner": "ProjEST",
    "start": {
        "state": {
            "elbow_joint": 2.4225746994637096,
            "shoulder_lift_joint": -1.373653595662188,
            "shoulder_pan_joint": -0.3378633848294565,
            "wrist_1_joint": -1.0288595594406726,
            "wrist_2_joint": 1.2330228066703421,
            "wrist_3_joint": 3.189163495502006
        }
    },
    "waypoints": [
        {
            "positions": [
                -0.3378633848294565,
                -1.373653595662188,
                2.4225746994637096,
                -1.0288595594406726,
                1.2330228066703421,
                3.189163495502006
            ]
        },
        {
            "positions": [
                -0.38076652713137643,
                -1.4128188278527165,
                2.3653363139766603,
                -0.9200420242914347,
                1.190926531266191,
                3.0931653500215806
            ]
        },
        {
            "positions": [
                -0.4236696694332964,
                -1.451984060043245,
                2.3080979284896106,
                -0.8112244891421967,
                1.1488302558620396,
                2.997167204541155
            ]
        },
        {
            "positions": [
                -0.46657281173521636,
                -1.4911492922337737,
                2.2508595430025613,
                -0.7024069539929587,
                1.1067339804578884,
                2.9011690590607295
            ]
        },
        {
            "positions": [
                -0.5094759540371363,
                -1.5303145244243022,
                2.193621157515512,
                -0.5935894188437207,
                1.064637705053737,
                2.8051709135803042
            ]
        },
        {
            "positions": [
                -0.5523790963390562,
                -1.5694797566148306,
                2.1363827720284627,
                -0.48477188369448265,
                1.0225414296495858,
                2.709172768099879
            ]
        },
        {
            "positions": [
                -0.5952822386409762,
                -1.6086449888053593,
                2.0791443865414134,
                -0.3759543485452447,
                0.9804451542454345,
                2.6131746226194537
            ]
        },
        {
            "positions": [
                -0.6381853809428961,
                -1.6478102209958878,
                2.0219060010543637,
                -0.2671368133960067,
                0.9383488788412833,
                2.517176477139028
            ]
        },
        {
            "positions": [
                -0.6810885232448161,
                -1.6869754531864163,
                1.9646676155673144,
                -0.15831927824676872,
                0.8962526034371321,
                2.4211783316586026
            ]
        },
        {
            "positions": [
                -0.723991665546736,
                -1.7261406853769448,
                1.907429230080265,
                -0.04950174309753075,
                0.8541563280329807,
                2.3251801861781773
            ]
        },
        {
            "positions": [
                -0.7668948078486559,
                -1.7653059175674732,
                1.8501908445932156,
                0.05931579205170734,
                0.8120600526288295,
                2.2291820406977516
            ]
        },
        {
            "positions": [
                -0.809797950150576,
                -1.804471149758002,
                1.792952459106166,
                0.16813332720094532,
                0.7699637772246782,
                2.1331838952173263
            ]
        },
        {
            "positions": [
                -0.852701092452496,
                -1.8436363819485304,
                1.7357140736191168,
                0.2769508623501833,
                0.727867501820527,
                2.037185749736901
            ]
        },
        {
            "positions": [
                -0.895604234754416,
                -1.8828016141390589,
                1.6784756881320675,
                0.38576839749942127,
                0.6857712264163757,
                1.9411876042564757
            ]
        },
        {
            "positions": [
                -0.9385073770563359,
                -1.9219668463295876,
                1.621237302645018,
                0.49458593264865924,
                0.6436749510122245,
                1.8451894587760502
            ]
        },
        {
            "positions": [
                -0.9814105193582559,
                -1.961132078520116,
                1.5639989171579685,
                0.6034034677978972,
                0.6015786756080732,
                1.7491913132956247
            ]
        },
        {
            "positions": [
                -1.0243136616601758,
                -2.0002973107106445,
                1.5067605316709192,
                0.7122210029471352,
                0.5594824002039219,
                1.6531931678151994
            ]
        },
        {
            "positions": [
                -0.9009791382146579,
                -1.993658626845111,
                1.5699085324926967,
                0.6287303042097009,
                0.5692317663387296,
                1.7597865520503913
            ]
        },
        {
            "positions": [
                -0.77764461476914,
                -1.9870199429795778,
                1.6330565333144742,
                0.5452396054722666,
                0.5789811324735373,
                1.866379936285583
            ]
        },
        {
            "positions": [
                -0.6543100913236222,
                -1.9803812591140444,
                1.6962045341362515,
                0.4617489067348323,
                0.588730498608345,
                1.972973320520775
            ]
        },
        {
            "positions": [
                -0.5309755678781044,
                -1.973742575248511,
                1.759352534958029,
                0.378258207997398,
                0.5984798647431527,
                2.0795667047559667
            ]
        },
        {
            "positions": [
                -0.40764104443258653,
                -1.9671038913829777,
                1.8225005357798065,
                0.2947675092599637,
                0.6082292308779604,
                2.1861600889911585
            ]
        },
        {
            "positions": [
                -0.28430652098706866,
                -1.9604652075174442,
                1.885648536601584,
                0.21127681052252945,
                0.6179785970127681,
                2.2927534732263504
            ]
        },
        {
            "positions": [
                -0.16097199754155078,
                -1.953826523651911,
                1.9487965374233616,
                0.12778611178509514,
                0.6277279631475758,
                2.399346857461542
            ]
        },
        {
            "positions": [
                -0.03763747409603302,
                -1.9471878397863776,
                2.011944538245139,
                0.044295413047660825,
                0.6374773292823837,
                2.5059402416967345
            ]
        },
        {
            "positions": [
                0.08569704934948508,
                -1.940549155920844,
                2.0750925390669166,
                -0.039195285689773485,
                0.6472266954171914,
                2.6125336259319263
            ]
        },
        {
            "positions": [
                0.20903157279500273,
                -1.9339104720553109,
                2.138240539888694,
                -0.1226859844272078,
                0.6569760615519991,
                2.719127010167118
            ]
        },
        {
            "positions": [
                0.3323660962405206,
                -1.9272717881897774,
                2.2013885407104716,
                -0.206176683164642,
                0.6667254276868068,
                2.8257203944023095
            ]
        },
        {
            "positions": [
                0.4557006196860385,
                -1.920633104324244,
                2.264536541532249,
                -0.2896673819020763,
                0.6764747938216145,
                2.9323137786375018
            ]
        },
        {
            "positions": [
                0.5790351431315564,
                -1.9139944204587107,
                2.3276845423540267,
                -0.3731580806395107,
                0.6862241599564222,
                3.0389071628726936
            ]
        },
        {
            "positions": [
                0.7023696665770742,
                -1.9073557365931773,
                2.390832543175804,
                -0.4566487793769448,
                0.6959735260912299,
                3.1455005471078854
            ]
        }
    ]
}