{
    "goal": {
        "global_pose": {
            "orientation": {
                "w": -0.4816463035849501,
                "x": 0.5182115481033762,
                "y": 0.4908360881923453,
                "z": -0.5084816262002911
            },
            "position": {
                "x": -0.8240239810943604,
                "y": -0.300875300988555,
                "z": 0.16403168439865112
            }
        },
        "name": "move_to_storage_C"
    },
    "id": "ProjEST_move_to_storage_C_59",
    "joint_names": [
        "shoulder_pan_joint",
        "shoulder_lift_joint",
        "elbow_joint",
        "wrist_1_joint",
        "wrist_2_joint",
        "wrist_3_joint"
    ],
    "metrics": {
        "cart_traj_len": 0.5768554280167324,
        "distance_elbow_joint": 0.2561392030984526,
        "distance_shoulder_lift_joint": 0.19024632082463855,
        "distance_shoulder_pan_joint": 0.4953719723554597,
        "distance_wrist_1_joint": 0.0692633948447583,
        "distance_wrist_2_joint": 1.0631118145325522,
        "distance_wrist_3_joint": 0.07002805519901978,
        "smoothness": 0.0,
        "time": 0.027004366000000002,
        "traj_len": 1.4642953120374596,
        "weighted_distance": 1.848402575368859
    },
    "planner": "ProjEST",
    "start": {
        "state": {
            "elbow_joint": 2.0108683149792914,
            "shoulder_lift_joint": -1.1634956873317392,
            "shoulder_pan_joint": -2.4736205022346,
            "wrist_1_joint": -0.8367026793690192,
            "wrist_2_joint": 0.6746043897045053,
            "wrist_3_joint": 3.133522094754363
        }
    },
    "waypoints": [
        {
            "positions": [
                -2.4736205022346,
                -1.1634956873317392,
                2.0108683149792914,
                -0.8367026793690192,
                0.6746043897045053,
                3.133522094754363
            ]
        },
        {
            "positions": [
                -2.5561824976271765,
                -1.1317879671942994,
                1.968178447796216,
                -0.8251587802282262,
                0.8517896921265973,
                3.145193437287533
            ]
        },
        {
            "positions": [
                -2.6387444930197534,
                -1.1000802470568598,
                1.9254885806131405,
                -0.8136148810874331,
                1.0289749945486895,
                3.1568647798207032
            ]
        },
        {
            "positions": [
                -2.72130648841233,
                -1.06837252691942,
                1.882798713430065,
                -0.8020709819466401,
                1.2061602969707814,
                3.1685361223538733
            ]
        },
        {
            "positions": [
                -2.8038684838049064,
                -1.0366648067819801,
                1.8401088462469897,
                -0.790527082805847,
                1.3833455993928734,
                3.180207464887043
            ]
        },
        {
            "positions": [
                -2.8864304791974833,
                -1.0049570866445405,
                1.7974189790639143,
                -0.7789831836650539,
                1.5605309018149656,
                3.191878807420213
            ]
        },
        {
            "positions": [
                -2.9689924745900598,
                -0.9732493665071007,
                1.7547291118808388,
                -0.7674392845242609,
                1.7377162042370575,
                3.203550149953383
            ]
        }
    ]
}