{
    "goal": {
        "global_pose": {
            "orientation": {
                "w": -0.00223480608172531,
                "x": 0.0024358444001904467,
                "y": 0.7094548369677653,
                "z": -0.704743149386269
            },
            "position": {
                "x": -0.37947507619857795,
                "y": -0.6371506643295288,
                "z": 0.19426114857196808
            }
        },
        "name": "move_to_magneteinheit_C"
    },
    "id": "ProjEST_move_to_magneteinheit_C_121",
    "joint_names": [
        "shoulder_pan_joint",
        "shoulder_lift_joint",
        "elbow_joint",
        "wrist_1_joint",
        "wrist_2_joint",
        "wrist_3_joint"
    ],
    "metrics": {
        "cart_traj_len": 3.0027938152527054,
        "distance_elbow_joint": 0.6474818850230453,
        "distance_shoulder_lift_joint": 1.3366064510412419,
        "distance_shoulder_pan_joint": 3.453763341308656,
        "distance_wrist_1_joint": 2.0896707494104394,
        "distance_wrist_2_joint": 1.116870732402964,
        "distance_wrist_3_joint": 5.098190683493982,
        "smoothness": 0.9582909708994286,
        "time": 2.3053229870000003,
        "traj_len": 3.7070991142239946,
        "weighted_distance": 5.210134997433532
    },
    "planner": "ProjEST",
    "start": {
        "state": {
            "elbow_joint": 1.9565354006593851,
            "shoulder_lift_joint": -1.4165861576512813,
            "shoulder_pan_joint": -1.6717766223278752,
            "wrist_1_joint": -0.528663328821883,
            "wrist_2_joint": 1.472756589259273,
            "wrist_3_joint": 3.159348288315503
        }
    },
    "waypoints": [
        {
            "positions": [
                -1.6717766223278752,
                -1.4165861576512813,
                1.9565354006593851,
                -0.528663328821883,
                1.472756589259273,
                3.159348288315503
            ]
        },
        {
            "positions": [
                -1.5762706356319034,
                -1.3987675765137448,
                1.9177351805874796,
                -0.43766334337576296,
                1.495285844264689,
                3.0507572810663026
            ]
        },
        {
            "positions": [
                -1.4807646489359314,
                -1.3809489953762084,
                1.8789349605155738,
                -0.34666335792964287,
                1.5178150992701047,
                2.9421662738171026
            ]
        },
        {
            "positions": [
                -1.3852586622399596,
                -1.363130414238672,
                1.8401347404436683,
                -0.2556633724835227,
                1.5403443542755206,
                2.833575266567902
            ]
        },
        {
            "positions": [
                -1.2897526755439879,
                -1.3453118331011353,
                1.8013345203717628,
                -0.16466338703740263,
                1.5628736092809363,
                2.724984259318702
            ]
        },
        {
            "positions": [
                -1.1942466888480159,
                -1.327493251963599,
                1.762534300299857,
                -0.07366340159128248,
                1.5854028642863522,
                2.6163932520695017
            ]
        },
        {
            "positions": [
                -1.098740702152044,
                -1.3096746708260625,
                1.7237340802279515,
                0.017336583854837606,
                1.607932119291768,
                2.5078022448203017
            ]
        },
        {
            "positions": [
                -1.0032347154560721,
                -1.291856089688526,
                1.684933860156046,
                0.1083365693009577,
                1.6304613742971839,
                2.399211237571101
            ]
        },
        {
            "positions": [
                -0.9526837913252157,
                -1.3595561992596101,
                1.6888040237618298,
                -0.03461060415471737,
                1.5436303358469723,
                2.388529333736769
            ]
        },
        {
            "positions": [
                -0.9021328671943593,
                -1.4272563088306942,
                1.6926741873676137,
                -0.17755777761039243,
                1.4567992973967607,
                2.3778474299024372
            ]
        },
        {
            "positions": [
                -0.8515819430635029,
                -1.494956418401778,
                1.6965443509733975,
                -0.32050495106606747,
                1.3699682589465492,
                2.367165526068105
            ]
        },
        {
            "positions": [
                -0.8010310189326464,
                -1.5626565279728621,
                1.7004145145791814,
                -0.46345212452174256,
                1.2831372204963374,
                2.356483622233773
            ]
        },
        {
            "positions": [
                -0.75048009480179,
                -1.6303566375439462,
                1.7042846781849652,
                -0.6063992979774177,
                1.1963061820461258,
                2.3458017183994406
            ]
        },
        {
            "positions": [
                -0.6999291706709336,
                -1.69805674711503,
                1.708154841790749,
                -0.7493464714330926,
                1.1094751435959143,
                2.3351198145651084
            ]
        },
        {
            "positions": [
                -0.6493782465400773,
                -1.7657568566861142,
                1.712025005396533,
                -0.8922936448887677,
                1.0226441051457025,
                2.3244379107307767
            ]
        },
        {
            "positions": [
                -0.5988273224092208,
                -1.8334569662571982,
                1.7158951690023168,
                -1.0352408183444428,
                0.935813066695491,
                2.3137560068964445
            ]
        },
        {
            "positions": [
                -0.7923003468377822,
                -1.82892729751868,
                1.7384794352541888,
                -1.0329751025561957,
                0.9245590247550879,
                2.157157757796837
            ]
        },
        {
            "positions": [
                -0.9857733712663436,
                -1.8243976287801622,
                1.7610637015060606,
                -1.0307093867679487,
                0.9133049828146848,
                2.0005595086972296
            ]
        },
        {
            "positions": [
                -1.1792463956949049,
                -1.819867960041644,
                1.7836479677579327,
                -1.0284436709797016,
                0.9020509408742816,
                1.843961259597622
            ]
        },
        {
            "positions": [
                -1.3727194201234663,
                -1.8153382913031262,
                1.8062322340098047,
                -1.0261779551914545,
                0.8907968989338784,
                1.6873630104980146
            ]
        },
        {
            "positions": [
                -1.5661924445520277,
                -1.810808622564608,
                1.8288165002616767,
                -1.0239122394032074,
                0.8795428569934752,
                1.5307647613984072
            ]
        },
        {
            "positions": [
                -1.759665468980589,
                -1.8062789538260902,
                1.8514007665135486,
                -1.0216465236149606,
                0.8682888150530721,
                1.3741665122987996
            ]
        },
        {
            "positions": [
                -1.9531384934091505,
                -1.801749285087572,
                1.8739850327654206,
                -1.0193808078267135,
                0.857034773112669,
                1.2175682631991922
            ]
        },
        {
            "positions": [
                -2.146611517837712,
                -1.7972196163490541,
                1.8965692990172927,
                -1.0171150920384664,
                0.8457807311722658,
                1.0609700140995848
            ]
        },
        {
            "positions": [
                -2.3400845422662733,
                -1.792689947610536,
                1.9191535652691647,
                -1.0148493762502193,
                0.8345266892318626,
                0.9043717649999772
            ]
        },
        {
            "positions": [
                -2.5335575666948347,
                -1.7881602788720181,
                1.9417378315210365,
                -1.0125836604619722,
                0.8232726472914594,
                0.74777351590037
            ]
        },
        {
            "positions": [
                -2.727030591123396,
                -1.7836306101335,
                1.9643220977729086,
                -1.0103179446737252,
                0.8120186053510563,
                0.5911752668007624
            ]
        },
        {
            "positions": [
                -2.7005537553403767,
                -1.7100604289691743,
                1.9759842386706348,
                -0.9712662535317798,
                0.7996840656692088,
                0.8190631489091853
            ]
        },
        {
            "positions": [
                -2.6740769195573573,
                -1.6364902478048486,
                1.9876463795683612,
                -0.9322145623898344,
                0.7873495259873613,
                1.0469510310176082
            ]
        },
        {
            "positions": [
                -2.6476000837743374,
                -1.562920066640523,
                1.9993085204660874,
                -0.893162871247889,
                0.7750149863055138,
                1.2748389131260311
            ]
        },
        {
            "positions": [
                -2.621123247991318,
                -1.4893498854761975,
                2.010970661363814,
                -0.8541111801059436,
                0.7626804466236662,
                1.5027267952344543
            ]
        },
        {
            "positions": [
                -2.5946464122082986,
                -1.4157797043118718,
                2.02263280226154,
                -0.815059488963998,
                0.7503459069418187,
                1.7306146773428772
            ]
        },
        {
            "positions": [
                -2.568169576425279,
                -1.3422095231475462,
                2.0342949431592663,
                -0.7760077978220526,
                0.7380113672599712,
                1.9585025594513001
            ]
        },
        {
            "positions": [
                -2.5447321369308518,
                -1.2974525072975056,
                2.027665127780145,
                -0.7884729086020045,
                0.721332382178011,
                2.249175151783476
            ]
        },
        {
            "positions": [
                -2.5212946974364243,
                -1.252695491447465,
                2.0210353124010236,
                -0.8009380193819564,
                0.7046533970960507,
                2.5398477441156526
            ]
        },
        {
            "positions": [
                -2.4978572579419973,
                -1.2079384755974243,
                2.014405497021902,
                -0.8134031301619082,
                0.6879744120140905,
                2.8305203364478286
            ]
        },
        {
            "positions": [
                -2.47441981844757,
                -1.1631814597473837,
                2.0077756816427805,
                -0.8258682409418601,
                0.6712954269321303,
                3.1211929287800046
            ]
        }
    ]
}