{
    "goal": {
        "global_pose": {
            "orientation": {
                "w": -0.00223480608172531,
                "x": 0.0024358444001904467,
                "y": 0.7094548369677653,
                "z": -0.704743149386269
            },
            "position": {
                "x": -0.37947507619857795,
                "y": -0.6371506643295288,
                "z": 0.19426114857196808
            }
        },
        "name": "move_to_magneteinheit_C"
    },
    "id": "ProjEST_move_to_magneteinheit_C_71",
    "joint_names": [
        "shoulder_pan_joint",
        "shoulder_lift_joint",
        "elbow_joint",
        "wrist_1_joint",
        "wrist_2_joint",
        "wrist_3_joint"
    ],
    "metrics": {
        "cart_traj_len": 2.098310167567645,
        "distance_elbow_joint": 1.4137749451376849,
        "distance_shoulder_lift_joint": 1.5639324347924464,
        "distance_shoulder_pan_joint": 2.278238257354362,
        "distance_wrist_1_joint": 2.516173304711934,
        "distance_wrist_2_joint": 2.385591167289184,
        "distance_wrist_3_joint": 3.9385419162791515,
        "smoothness": 1.1151516471223484,
        "time": 1.009656681,
        "traj_len": 3.7544975729869314,
        "weighted_distance": 5.184120015019346
    },
    "planner": "ProjEST",
    "start": {
        "state": {
            "elbow_joint": 1.9565354006593851,
            "shoulder_lift_joint": -1.4165861576512813,
            "shoulder_pan_joint": -1.6717766223278752,
            "wrist_1_joint": -0.528663328821883,
            "wrist_2_joint": 1.472756589259273,
            "wrist_3_joint": 3.159348288315503
        }
    },
    "waypoints": [
        {
            "positions": [
                -1.6717766223278752,
                -1.4165861576512813,
                1.9565354006593851,
                -0.528663328821883,
                1.472756589259273,
                3.159348288315503
            ]
        },
        {
            "positions": [
                -1.6413918676084922,
                -1.4216280041307243,
                1.940698550402058,
                -0.4573249316916029,
                1.394128059611485,
                3.0137528445322883
            ]
        },
        {
            "positions": [
                -1.6110071128891095,
                -1.4266698506101674,
                1.924861700144731,
                -0.3859865345613227,
                1.315499529963697,
                2.868157400749074
            ]
        },
        {
            "positions": [
                -1.5806223581697265,
                -1.4317116970896104,
                1.9090248498874038,
                -0.3146481374310425,
                1.2368710003159087,
                2.7225619569658592
            ]
        },
        {
            "positions": [
                -1.5502376034503436,
                -1.4367535435690535,
                1.8931879996300767,
                -0.2433097403007623,
                1.1582424706681205,
                2.5769665131826445
            ]
        },
        {
            "positions": [
                -1.5601966528925044,
                -1.4407063767903163,
                1.8362988161021363,
                -0.33969462604886075,
                1.1275884518230697,
                2.4212859236285045
            ]
        },
        {
            "positions": [
                -1.5701557023346653,
                -1.444659210011579,
                1.779409632574196,
                -0.43607951179695925,
                1.0969344329780188,
                2.265605334074365
            ]
        },
        {
            "positions": [
                -1.5801147517768261,
                -1.4486120432328418,
                1.7225204490462553,
                -0.5324643975450577,
                1.0662804141329678,
                2.109924744520225
            ]
        },
        {
            "positions": [
                -1.590073801218987,
                -1.4525648764541044,
                1.665631265518315,
                -0.6288492832931561,
                1.035626395287917,
                1.9542441549660852
            ]
        },
        {
            "positions": [
                -1.600032850661148,
                -1.4565177096753672,
                1.6087420819903746,
                -0.7252341690412547,
                1.0049723764428662,
                1.7985635654119452
            ]
        },
        {
            "positions": [
                -1.609991900103309,
                -1.4604705428966298,
                1.5518528984624342,
                -0.8216190547893532,
                0.9743183575978154,
                1.6428829758578054
            ]
        },
        {
            "positions": [
                -1.6199509495454698,
                -1.4644233761178926,
                1.4949637149344936,
                -0.9180039405374516,
                0.9436643387527645,
                1.4872023863036656
            ]
        },
        {
            "positions": [
                -1.6299099989876307,
                -1.4683762093391552,
                1.4380745314065533,
                -1.01438882628555,
                0.9130103199077135,
                1.3315217967495259
            ]
        },
        {
            "positions": [
                -1.6398690484297915,
                -1.472329042560418,
                1.381185347878613,
                -1.1107737120336485,
                0.8823563010626627,
                1.1758412071953859
            ]
        },
        {
            "positions": [
                -1.7305583541305525,
                -1.509865005456778,
                1.4271562281962555,
                -1.1451301773817137,
                0.8196500091943179,
                1.2952039278972463
            ]
        },
        {
            "positions": [
                -1.8212476598313132,
                -1.5474009683531376,
                1.4731271085138982,
                -1.179486642729779,
                0.756943717325973,
                1.4145666485991066
            ]
        },
        {
            "positions": [
                -1.9119369655320742,
                -1.5849369312494974,
                1.5190979888315408,
                -1.2138431080778442,
                0.6942374254576282,
                1.5339293693009672
            ]
        },
        {
            "positions": [
                -2.002626271232835,
                -1.622472894145857,
                1.5650688691491834,
                -1.2481995734259095,
                0.6315311335892833,
                1.6532920900028276
            ]
        },
        {
            "positions": [
                -2.093315576933596,
                -1.660008857042217,
                1.6110397494668263,
                -1.2825560387739747,
                0.5688248417209385,
                1.772654810704688
            ]
        },
        {
            "positions": [
                -2.1840048826343565,
                -1.6975448199385768,
                1.657010629784469,
                -1.31691250412204,
                0.5061185498525936,
                1.8920175314065486
            ]
        },
        {
            "positions": [
                -2.2746941883351175,
                -1.7350807828349364,
                1.7029815101021115,
                -1.3512689694701052,
                0.44341225798424877,
                2.0113802521084088
            ]
        },
        {
            "positions": [
                -2.3653834940358784,
                -1.7726167457312962,
                1.7489523904197541,
                -1.3856254348181705,
                0.3807059661159039,
                2.1307429728102694
            ]
        },
        {
            "positions": [
                -2.4560727997366394,
                -1.810152708627656,
                1.7949232707373968,
                -1.4199819001662357,
                0.31799967424755904,
                2.25010569351213
            ]
        },
        {
            "positions": [
                -2.5467621054374003,
                -1.8476886715240157,
                1.8408941510550394,
                -1.454338365514301,
                0.2552933823792142,
                2.36946841421399
            ]
        },
        {
            "positions": [
                -2.6374514111381613,
                -1.8852246344203756,
                1.886865031372682,
                -1.4886948308623664,
                0.1925870905108693,
                2.4888311349158507
            ]
        },
        {
            "positions": [
                -2.7281407168389222,
                -1.9227605973167354,
                1.9328359116903249,
                -1.5230512962104317,
                0.12988079864252455,
                2.608193855617711
            ]
        },
        {
            "positions": [
                -2.818830022539683,
                -1.960296560213095,
                1.9788067920079673,
                -1.557407761558497,
                0.06717450677417969,
                2.7275565763195715
            ]
        },
        {
            "positions": [
                -2.909519328240444,
                -1.997832523109455,
                2.02477767232561,
                -1.5917642269065622,
                0.004468214905834822,
                2.846919297021432
            ]
        },
        {
            "positions": [
                -3.0002086339412046,
                -2.0353684860058148,
                2.070748552643253,
                -1.6261206922546274,
                -0.058238076962510044,
                2.9662820177232927
            ]
        },
        {
            "positions": [
                -3.0908979396419656,
                -2.0729044489021744,
                2.1167194329608954,
                -1.6604771576026927,
                -0.12094436883085491,
                3.085644738425153
            ]
        },
        {
            "positions": [
                -3.022449172721387,
                -1.972058432953113,
                2.105287121041492,
                -1.5700713466150389,
                -0.03295656780873764,
                3.090670438861738
            ]
        },
        {
            "positions": [
                -2.9540004058008082,
                -1.8712124170040514,
                2.0938548091220888,
                -1.4796655356273853,
                0.05503123321337963,
                3.0956961392983233
            ]
        },
        {
            "positions": [
                -2.8855516388802296,
                -1.77036640105499,
                2.0824224972026855,
                -1.3892597246397316,
                0.1430190342354969,
                3.1007218397349083
            ]
        },
        {
            "positions": [
                -2.817102871959651,
                -1.6695203851059286,
                2.070990185283282,
                -1.2988539136520778,
                0.23100683525761417,
                3.1057475401714933
            ]
        },
        {
            "positions": [
                -2.748654105039072,
                -1.568674369156867,
                2.0595578733638784,
                -1.208448102664424,
                0.3189946362797315,
                3.110773240608079
            ]
        },
        {
            "positions": [
                -2.680205338118493,
                -1.4678283532078056,
                2.048125561444475,
                -1.1180422916767703,
                0.4069824373018487,
                3.115798941044664
            ]
        },
        {
            "positions": [
                -2.6117565711979145,
                -1.3669823372587442,
                2.036693249525072,
                -1.0276364806891167,
                0.494970238323966,
                3.120824641481249
            ]
        },
        {
            "positions": [
                -2.543307804277336,
                -1.2661363213096828,
                2.0252609376056685,
                -0.937230669701463,
                0.5829580393460833,
                3.1258503419178343
            ]
        },
        {
            "positions": [
                -2.474859037356757,
                -1.1652903053606212,
                2.013828625686265,
                -0.8468248587138092,
                0.6709458403682006,
                3.1308760423544193
            ]
        }
    ]
}