{
    "goal": {
        "global_pose": {
            "orientation": {
                "w": 0.7047431468963623,
                "x": -0.7094548344612122,
                "y": 0.0024358443915843964,
                "z": -0.0022348060738295317
            },
            "position": {
                "x": 0.6094750761985779,
                "y": 0.3671506643295288,
                "z": 0.19426114857196808
            }
        },
        "name": "move_to_magneteinheit_A"
    },
    "id": "ProjEST_move_to_magneteinheit_A_34",
    "joint_names": [
        "shoulder_pan_joint",
        "shoulder_lift_joint",
        "elbow_joint",
        "wrist_1_joint",
        "wrist_2_joint",
        "wrist_3_joint"
    ],
    "metrics": {
        "cart_traj_len": 1.9605963832695028,
        "distance_elbow_joint": 3.566220691086519,
        "distance_shoulder_lift_joint": 0.7839838294383142,
        "distance_shoulder_pan_joint": 1.241385418850766,
        "distance_wrist_1_joint": 1.2242203990869052,
        "distance_wrist_2_joint": 1.4320266858996422,
        "distance_wrist_3_joint": 2.026084025524831,
        "smoothness": 2.9605947464981317e-16,
        "time": 0.144904488,
        "traj_len": 3.2052957819656793,
        "weighted_distance": 4.120963016810899
    },
    "planner": "ProjEST",
    "start": {
        "state": {
            "elbow_joint": -1.5739458827952972,
            "shoulder_lift_joint": 0.006533473998580023,
            "shoulder_pan_joint": -1.1188671628667068,
            "wrist_1_joint": 3.138208179676308,
            "wrist_2_joint": -1.5706037135050406,
            "wrist_3_joint": -2.0226958329764257
        }
    },
    "waypoints": [
        {
            "positions": [
                -1.1188671628667068,
                0.006533473998580023,
                -1.5739458827952972,
                3.138208179676308,
                -1.5706037135050406,
                -2.0226958329764257
            ]
        },
        {
            "positions": [
                -1.071121569833985,
                -0.023619750210585915,
                -1.4367835485227387,
                3.0911227797114273,
                -1.515525764047362,
                -1.9447695243023937
            ]
        },
        {
            "positions": [
                -1.0233759768012634,
                -0.05377297441975185,
                -1.2996212142501804,
                3.044037379746546,
                -1.4604478145896835,
                -1.8668432156283619
            ]
        },
        {
            "positions": [
                -0.9756303837685415,
                -0.08392619862891779,
                -1.1624588799776219,
                2.9969519797816653,
                -1.405369865132005,
                -1.7889169069543298
            ]
        },
        {
            "positions": [
                -0.9278847907358198,
                -0.11407942283808373,
                -1.0252965457050633,
                2.9498665798167845,
                -1.3502919156743265,
                -1.710990598280298
            ]
        },
        {
            "positions": [
                -0.880139197703098,
                -0.14423264704724967,
                -0.888134211432505,
                2.902781179851903,
                -1.2952139662166477,
                -1.633064289606266
            ]
        },
        {
            "positions": [
                -0.8323936046703762,
                -0.17438587125641558,
                -0.7509718771599466,
                2.8556957798870224,
                -1.2401360167589692,
                -1.5551379809322339
            ]
        },
        {
            "positions": [
                -0.7846480116376544,
                -0.20453909546558152,
                -0.6138095428873883,
                2.8086103799221416,
                -1.1850580673012907,
                -1.477211672258202
            ]
        },
        {
            "positions": [
                -0.7369024186049327,
                -0.23469231967474746,
                -0.4766472086148297,
                2.7615249799572603,
                -1.1299801178436122,
                -1.39928536358417
            ]
        },
        {
            "positions": [
                -0.6891568255722109,
                -0.2648455438839134,
                -0.33948487434227137,
                2.7144395799923795,
                -1.0749021683859337,
                -1.321359054910138
            ]
        },
        {
            "positions": [
                -0.6414112325394892,
                -0.2949987680930794,
                -0.20232254006971284,
                2.6673541800274982,
                -1.019824218928255,
                -1.2434327462361061
            ]
        },
        {
            "positions": [
                -0.5936656395067674,
                -0.3251519923022453,
                -0.06516020579715454,
                2.6202687800626174,
                -0.9647462694705766,
                -1.1655064375620743
            ]
        },
        {
            "positions": [
                -0.5459200464740456,
                -0.3553052165114112,
                0.07200212847540399,
                2.5731833800977366,
                -0.909668320012898,
                -1.087580128888042
            ]
        },
        {
            "positions": [
                -0.49817445344132383,
                -0.38545844072057717,
                0.2091644627479623,
                2.526097980132856,
                -0.8545903705552195,
                -1.0096538202140102
            ]
        },
        {
            "positions": [
                -0.4504288604086021,
                -0.4156116649297431,
                0.3463267970205206,
                2.4790125801679745,
                -0.799512421097541,
                -0.9317275115399783
            ]
        },
        {
            "positions": [
                -0.40268326737588034,
                -0.445764889138909,
                0.4834891312930789,
                2.4319271802030937,
                -0.7444344716398624,
                -0.8538012028659463
            ]
        },
        {
            "positions": [
                -0.3549376743431585,
                -0.475918113348075,
                0.6206514655656379,
                2.3848417802382125,
                -0.6893565221821838,
                -0.7758748941919142
            ]
        },
        {
            "positions": [
                -0.30719208131043674,
                -0.5060713375572409,
                0.757813799838196,
                2.3377563802733317,
                -0.6342785727245053,
                -0.6979485855178822
            ]
        },
        {
            "positions": [
                -0.259446488277715,
                -0.5362245617664068,
                0.8949761341107545,
                2.290670980308451,
                -0.5792006232668268,
                -0.6200222768438504
            ]
        },
        {
            "positions": [
                -0.21170089524499325,
                -0.5663777859755726,
                1.0321384683833126,
                2.24358558034357,
                -0.5241226738091482,
                -0.5420959681698185
            ]
        },
        {
            "positions": [
                -0.1639553022122714,
                -0.5965310101847388,
                1.1693008026558716,
                2.1965001803786888,
                -0.4690447243514695,
                -0.46416965949578626
            ]
        },
        {
            "positions": [
                -0.11620970917954954,
                -0.6266842343939046,
                1.3064631369284296,
                2.149414780413808,
                -0.41396677489379097,
                -0.3862433508217544
            ]
        },
        {
            "positions": [
                -0.06846411614682801,
                -0.6568374586030705,
                1.4436254712009882,
                2.1023293804489267,
                -0.35888882543611267,
                -0.3083170421477226
            ]
        },
        {
            "positions": [
                -0.02071852311410627,
                -0.6869906828122364,
                1.5807878054735462,
                2.055243980484046,
                -0.30381087597843415,
                -0.23039073347369055
            ]
        },
        {
            "positions": [
                0.027027069918615698,
                -0.7171439070214024,
                1.7179501397461052,
                2.008158580519165,
                -0.2487329265207554,
                -0.1524644247996585
            ]
        },
        {
            "positions": [
                0.07477266295133744,
                -0.7472971312305684,
                1.8551124740186633,
                1.961073180554284,
                -0.19365497706307688,
                -0.07453811612562644
            ]
        },
        {
            "positions": [
                0.1225182559840592,
                -0.7774503554397343,
                1.992274808291222,
                1.913987780589403,
                -0.1385770276053984,
                0.003388192548405273
            ]
        }
    ]
}