{
    "goal": {
        "global_pose": {
            "orientation": {
                "w": 0.7031023502349854,
                "x": -0.7110244035720825,
                "y": 0.007748599164187908,
                "z": 0.005598929710686207
            },
            "position": {
                "x": 0.11585023208521307,
                "y": 0.44412534475326537,
                "z": 0.3711530566215515
            }
        },
        "name": "move_to_auspresseinheit_A"
    },
    "id": "ProjEST_move_to_auspresseinheit_A_110",
    "joint_names": [
        "shoulder_pan_joint",
        "shoulder_lift_joint",
        "elbow_joint",
        "wrist_1_joint",
        "wrist_2_joint",
        "wrist_3_joint"
    ],
    "metrics": {
        "cart_traj_len": 0.7746027492417477,
        "distance_elbow_joint": 0.2749754396379154,
        "distance_shoulder_lift_joint": 0.625015466631663,
        "distance_shoulder_pan_joint": 1.0410749532986106,
        "distance_wrist_1_joint": 1.4400681803722282,
        "distance_wrist_2_joint": 0.8810620441779174,
        "distance_wrist_3_joint": 0.176218339615692,
        "smoothness": 1.1650969570437142,
        "time": 0.234978529,
        "traj_len": 2.106754476376881,
        "weighted_distance": 2.666829827250992
    },
    "planner": "ProjEST",
    "start": {
        "state": {
            "elbow_joint": 2.4225746994637096,
            "shoulder_lift_joint": -1.373653595662188,
            "shoulder_pan_joint": -0.3378633848294565,
            "wrist_1_joint": -1.0288595594406726,
            "wrist_2_joint": 1.2330228066703421,
            "wrist_3_joint": 3.189163495502006
        }
    },
    "waypoints": [
        {
            "positions": [
                -0.3378633848294565,
                -1.373653595662188,
                2.4225746994637096,
                -1.0288595594406726,
                1.2330228066703421,
                3.189163495502006
            ]
        },
        {
            "positions": [
                -0.3362874080079428,
                -1.456356142103999,
                2.4006306556311245,
                -0.8849935459679417,
                1.1320500371199615,
                3.198834914294238
            ]
        },
        {
            "positions": [
                -0.3347114311864292,
                -1.5390586885458097,
                2.37868661179854,
                -0.7411275324952107,
                1.031077267569581,
                3.2085063330864694
            ]
        },
        {
            "positions": [
                -0.33313545436491554,
                -1.6217612349876207,
                2.356742567965955,
                -0.5972615190224797,
                0.9301044980192004,
                3.2181777518787014
            ]
        },
        {
            "positions": [
                -0.3315594775434019,
                -1.7044637814294317,
                2.33479852413337,
                -0.4533955055497487,
                0.8291317284688199,
                3.227849170670933
            ]
        },
        {
            "positions": [
                -0.32998350072188826,
                -1.7871663278712426,
                2.312854480300785,
                -0.30952949207701774,
                0.7281589589184393,
                3.237520589463165
            ]
        },
        {
            "positions": [
                -0.32840752390037464,
                -1.8698688743130534,
                2.2909104364682005,
                -0.16566347860428676,
                0.6271861893680587,
                3.2471920082553964
            ]
        },
        {
            "positions": [
                -0.326831547078861,
                -1.9525714207548643,
                2.2689663926356154,
                -0.0217974651315557,
                0.5262134198176781,
                3.2568634270476284
            ]
        },
        {
            "positions": [
                -0.12082292396925792,
                -1.943351892447067,
                2.29323981919758,
                -0.10839868234417799,
                0.5610639512827288,
                3.2351597454336147
            ]
        },
        {
            "positions": [
                0.08518569914034513,
                -1.9341323641392696,
                2.3175132457595438,
                -0.19499989955680028,
                0.5959144827477795,
                3.2134560638196006
            ]
        },
        {
            "positions": [
                0.2911943222499481,
                -1.9249128358314724,
                2.341786672321508,
                -0.28160111676942257,
                0.6307650142128302,
                3.191752382205587
            ]
        },
        {
            "positions": [
                0.49720294535955123,
                -1.915693307523675,
                2.366060098883472,
                -0.3682023339820448,
                0.6656155456778808,
                3.1700487005915727
            ]
        },
        {
            "positions": [
                0.7032115684691541,
                -1.9064737792158777,
                2.3903335254454365,
                -0.4548035511946671,
                0.7004660771429315,
                3.148345018977559
            ]
        }
    ]
}