{
    "goal": {
        "global_pose": {
            "orientation": {
                "w": 0.5084816262002911,
                "x": -0.4908360881923452,
                "y": 0.5182115481033761,
                "z": -0.48164630358495003
            },
            "position": {
                "x": 0.5540239810943604,
                "y": -0.46912469901144505,
                "z": 0.16403168439865112
            }
        },
        "name": "move_to_storage_B"
    },
    "id": "ProjEST_move_to_storage_B_148",
    "joint_names": [
        "shoulder_pan_joint",
        "shoulder_lift_joint",
        "elbow_joint",
        "wrist_1_joint",
        "wrist_2_joint",
        "wrist_3_joint"
    ],
    "metrics": {
        "cart_traj_len": 2.781515456206243,
        "distance_elbow_joint": 0.9607066882582982,
        "distance_shoulder_lift_joint": 1.7553262844606303,
        "distance_shoulder_pan_joint": 2.391519820553887,
        "distance_wrist_1_joint": 3.080004856660164,
        "distance_wrist_2_joint": 2.7184556501757364,
        "distance_wrist_3_joint": 3.1695747375381647,
        "smoothness": 0.25999515869258627,
        "time": 0.084019448,
        "traj_len": 3.7517446658383986,
        "weighted_distance": 5.119882617752003
    },
    "planner": "ProjEST",
    "start": {
        "state": {
            "elbow_joint": 1.6649325340416963,
            "shoulder_lift_joint": -0.6616387945129425,
            "shoulder_pan_joint": -0.9139837929255878,
            "wrist_1_joint": 2.1467571094334352,
            "wrist_2_joint": -2.234195976750228,
            "wrist_3_joint": 0.005470921511140723
        }
    },
    "waypoints": [
        {
            "positions": [
                -0.9139837929255878,
                -0.6616387945129425,
                1.6649325340416963,
                2.1467571094334352,
                -2.234195976750228,
                0.005470921511140723
            ]
        },
        {
            "positions": [
                -0.8613519521000041,
                -0.7144736147686541,
                1.650653698262909,
                2.001457123428384,
                -2.121997476712379,
                0.017184337492695673
            ]
        },
        {
            "positions": [
                -0.8087201112744205,
                -0.7673084350243657,
                1.636374862484122,
                1.8561571374233332,
                -2.0097989766745292,
                0.028897753474250627
            ]
        },
        {
            "positions": [
                -0.7560882704488366,
                -0.8201432552800774,
                1.6220960267053346,
                1.710857151418282,
                -1.8976004766366799,
                0.040611169455805576
            ]
        },
        {
            "positions": [
                -0.7034564296232529,
                -0.872978075535789,
                1.6078171909265475,
                1.565557165413231,
                -1.7854019765988305,
                0.05232458543736053
            ]
        },
        {
            "positions": [
                -0.6508245887976691,
                -0.9258128957915006,
                1.5935383551477602,
                1.42025717940818,
                -1.6732034765609813,
                0.06403800141891548
            ]
        },
        {
            "positions": [
                -0.5981927479720854,
                -0.9786477160472122,
                1.579259519368973,
                1.2749571934031287,
                -1.5610049765231317,
                0.07575141740047042
            ]
        },
        {
            "positions": [
                -0.5455609071465017,
                -1.0314825363029239,
                1.5649806835901858,
                1.1296572073980777,
                -1.4488064764852826,
                0.08746483338202538
            ]
        },
        {
            "positions": [
                -0.49292906632091804,
                -1.0843173565586355,
                1.5507018478113985,
                0.9843572213930267,
                -1.336607976447433,
                0.09917824936358033
            ]
        },
        {
            "positions": [
                -0.4402972254953343,
                -1.137152176814347,
                1.5364230120326114,
                0.8390572353879757,
                -1.2244094764095839,
                0.11089166534513528
            ]
        },
        {
            "positions": [
                -0.38766538466975053,
                -1.1899869970700587,
                1.5221441762538241,
                0.6937572493829247,
                -1.1122109763717345,
                0.12260508132669024
            ]
        },
        {
            "positions": [
                -0.33503354384416684,
                -1.2428218173257704,
                1.5078653404750368,
                0.5484572633778733,
                -1.000012476333885,
                0.13431849730824522
            ]
        },
        {
            "positions": [
                -0.28240170301858314,
                -1.295656637581482,
                1.4935865046962498,
                0.4031572773728225,
                -0.8878139762960358,
                0.14603191328980014
            ]
        },
        {
            "positions": [
                -0.22976986219299933,
                -1.3484914578371936,
                1.4793076689174625,
                0.25785729136777125,
                -0.7756154762581862,
                0.15774532927135512
            ]
        },
        {
            "positions": [
                -0.17713802136741563,
                -1.4013262780929052,
                1.4650288331386752,
                0.11255730536272024,
                -0.663416976220337,
                0.16945874525291005
            ]
        },
        {
            "positions": [
                -0.12450618054183193,
                -1.4541610983486168,
                1.450749997359888,
                -0.03274268064233077,
                -0.5512184761824876,
                0.181172161234465
            ]
        },
        {
            "positions": [
                -0.07187433971624824,
                -1.5069959186043285,
                1.4364711615811008,
                -0.17804266664738178,
                -0.4390199761446383,
                0.19288557721601995
            ]
        },
        {
            "positions": [
                -0.019242498890664428,
                -1.55983073886004,
                1.4221923258023135,
                -0.3233426526524332,
                -0.3268214761067889,
                0.2045989931975749
            ]
        },
        {
            "positions": [
                0.03338934193491927,
                -1.6126655591157517,
                1.4079134900235264,
                -0.4686426386574838,
                -0.21462297606893976,
                0.21631240917912986
            ]
        },
        {
            "positions": [
                0.08602118276050308,
                -1.6655003793714633,
                1.393634654244739,
                -0.6139426246625352,
                -0.10242447603109017,
                0.22802582516068481
            ]
        },
        {
            "positions": [
                0.13865302358608678,
                -1.718335199627175,
                1.379355818465952,
                -0.7592426106675858,
                0.009774024006758975,
                0.23973924114223977
            ]
        },
        {
            "positions": [
                0.19128486441167047,
                -1.7711700198828866,
                1.3650769826871647,
                -0.9045425966726371,
                0.12197252404460854,
                0.2514526571237947
            ]
        },
        {
            "positions": [
                0.1055347868638953,
                -1.7281170159435075,
                1.4091337251474159,
                -0.902628919969031,
                0.1461250006700018,
                0.44635885725216207
            ]
        },
        {
            "positions": [
                0.019784709316120114,
                -1.6850640120041285,
                1.453190467607667,
                -0.900715243265425,
                0.1702774772953951,
                0.6412650573805294
            ]
        },
        {
            "positions": [
                -0.06596536823165511,
                -1.6420110080647494,
                1.497247210067918,
                -0.8988015665618189,
                0.19442995392078838,
                0.8361712575088969
            ]
        },
        {
            "positions": [
                -0.15171544577943025,
                -1.5989580041253704,
                1.541303952528169,
                -0.8968878898582128,
                0.21858243054618165,
                1.0310774576372643
            ]
        },
        {
            "positions": [
                -0.23746552332720544,
                -1.555905000185991,
                1.5853606949884202,
                -0.8949742131546067,
                0.24273490717157495,
                1.2259836577656316
            ]
        },
        {
            "positions": [
                -0.3232156008749807,
                -1.512851996246612,
                1.6294174374486714,
                -0.8930605364510006,
                0.26688738379696825,
                1.420889857893999
            ]
        },
        {
            "positions": [
                -0.4089656784227559,
                -1.469798992307233,
                1.6734741799089226,
                -0.8911468597473945,
                0.2910398604223615,
                1.6157960580223665
            ]
        },
        {
            "positions": [
                -0.49471575597053097,
                -1.426745988367854,
                1.7175309223691735,
                -0.8892331830437884,
                0.3151923370477548,
                1.8107022581507337
            ]
        },
        {
            "positions": [
                -0.5804658335183062,
                -1.3836929844284749,
                1.7615876648294246,
                -0.8873195063401823,
                0.33934481367314806,
                2.0056084582791014
            ]
        },
        {
            "positions": [
                -0.6662159110660814,
                -1.3406399804890958,
                1.8056444072896758,
                -0.8854058296365762,
                0.3634972902985414,
                2.200514658407468
            ]
        },
        {
            "positions": [
                -0.7519659886138566,
                -1.2975869765497168,
                1.849701149749927,
                -0.8834921529329701,
                0.3876497669239346,
                2.395420858535836
            ]
        },
        {
            "positions": [
                -0.8377160661616319,
                -1.2545339726103375,
                1.893757892210178,
                -0.881578476229364,
                0.41180224354932793,
                2.5903270586642035
            ]
        },
        {
            "positions": [
                -0.9234661437094069,
                -1.2114809686709584,
                1.937814634670429,
                -0.8796647995257579,
                0.43595472017472126,
                2.785233258792571
            ]
        },
        {
            "positions": [
                -1.0092162212571822,
                -1.1684279647315794,
                1.9818713771306802,
                -0.8777511228221518,
                0.46010719680011447,
                2.980139458920938
            ]
        },
        {
            "positions": [
                -1.0949662988049573,
                -1.1253749607922003,
                2.0259281195909313,
                -0.8758374461185457,
                0.48425967342550774,
                3.1750456590493052
            ]
        }
    ]
}