Planner,Run,Success,Length_In_Joint_Space,Length_In_Cartesian_Space(Endeffector),Smoothness,Time,Weighted_Length,Shoulder_Pan_Joint,Shoulder_Lift_Joint,Elbow_Joint,Wrist_1_Joint,Wrist_2_Joint,Wrist_3_Joint
EST,1,true,3.262095,2.062674,0.000000,0.044234,4.124312,1.240502,1.053868,3.875028,1.132227,1.442814,1.896822
EST,2,true,3.200833,1.873931,0.000000,0.031310,3.971883,1.241929,0.704829,3.920663,1.531578,1.693732,1.152604
EST,3,true,3.233055,1.865736,0.000000,0.151892,4.031210,1.242087,0.715162,3.944338,1.605095,1.699017,1.246948
LBKPIECE,1,true,3.260856,2.063037,0.000000,0.426215,4.123181,1.241846,1.051971,3.872258,1.119923,1.446852,1.900332
LBKPIECE,2,true,3.186272,1.880583,0.000000,0.262117,3.945368,1.242367,0.697828,3.910296,1.483694,1.706395,1.111752
LBKPIECE,3,true,3.192702,1.876112,0.000000,0.583954,3.956691,1.242173,0.702015,3.914311,1.510810,1.696823,1.127214
BKPIECE,1,true,3.266905,2.063569,0.000000,0.299086,4.134285,1.241124,1.055474,3.877593,1.140749,1.436567,1.921162
BKPIECE,2,true,3.265933,2.064195,0.000000,0.427341,4.131198,1.241064,1.056753,3.879987,1.144503,1.432043,1.911967
BKPIECE,3,true,3.179527,1.879862,0.000000,0.279904,3.933302,1.240189,0.698149,3.905771,1.477781,1.691310,1.096190
KPIECE,1,true,3.262547,2.063848,0.000000,0.240548,4.125433,1.241342,1.054892,3.877255,1.135399,1.431055,1.904268
KPIECE,2,true,3.188263,1.879230,0.000000,0.037777,3.948370,1.241799,0.700039,3.914075,1.501883,1.691732,1.115494
KPIECE,3,true,3.181536,1.880839,0.000000,0.088214,3.935672,1.242905,0.698025,3.907415,1.480698,1.699617,1.093513
RRT,1,true,3.199877,1.875371,0.000000,0.041175,3.969005,1.240747,0.703531,3.923504,1.523826,1.705257,1.142351
RRT,2,true,3.192280,1.876852,0.000000,1.452772,3.955056,1.242198,0.702193,3.916170,1.511006,1.697358,1.121727
RRT,3,true,3.303314,2.070434,0.000000,0.095552,4.198185,1.241348,1.068251,3.902326,1.254896,1.432152,2.012912
RRTConnect,1,true,3.753001,2.674494,0.067792,0.102229,5.116419,1.240430,1.071494,3.908479,1.951369,1.685126,4.228118
RRTConnect,2,true,3.275188,2.065822,0.000000,0.048604,4.147653,1.241149,1.058023,3.883464,1.166989,1.445288,1.931944
RRTConnect,3,true,3.285910,2.067077,0.000000,0.051576,4.168346,1.240751,1.059677,3.887649,1.195109,1.445238,1.968779
PRM,1,true,3.213133,1.872381,0.000000,0.065415,3.994085,1.242596,0.707398,3.930308,1.548234,1.711128,1.184563
PRM,2,true,3.292189,2.067456,0.000000,0.045577,4.177718,1.240676,1.064321,3.893343,1.216318,1.449199,1.974650
PRM,3,true,3.282856,2.066793,0.000000,0.034809,4.162780,1.242798,1.059237,3.884830,1.183313,1.445648,1.961316
RRTstar,1,true,3.205503,1.873051,0.000000,5.020422,3.981567,1.240673,0.704835,3.923590,1.537622,1.697057,1.171473
RRTstar,2,true,3.261073,2.062419,0.000000,5.007619,4.122725,1.240460,1.053124,3.873856,1.126555,1.445492,1.895109
RRTstar,3,true,3.185716,1.880203,0.000000,5.017181,3.944385,1.242180,0.698744,3.910305,1.488530,1.697207,1.111822
PRMstar,1,true,3.182428,1.879047,0.000000,5.013299,3.937757,1.240763,0.698685,3.908194,1.482837,1.699498,1.097874
PRMstar,2,true,3.183986,1.880555,0.000000,5.007963,3.940734,1.241999,0.697624,3.909580,1.486568,1.698946,1.103050
PRMstar,3,true,3.212330,1.871236,0.000000,5.005375,3.992320,1.240858,0.707711,3.931188,1.553881,1.705177,1.180250
TRRT,1,true,3.191512,1.878816,0.000000,0.077041,3.955524,1.241672,0.699528,3.914097,1.499470,1.701022,1.129962
TRRT,2,true,3.262409,2.064078,0.000000,0.182885,4.125601,1.241490,1.053620,3.876024,1.132287,1.434802,1.905089
TRRT,3,true,3.278720,2.068445,0.000000,0.082779,4.153313,1.242923,1.060620,3.888896,1.185382,1.429744,1.942440
FMT,1,true,3.259393,2.061677,0.000000,1.016687,4.120596,1.241158,1.051683,3.870579,1.114575,1.450193,1.895453
FMT,2,true,3.181215,1.880632,0.000000,0.958384,3.934198,1.242285,0.699504,3.909460,1.480304,1.699661,1.088912
FMT,3,true,3.189219,1.878093,0.000000,0.937131,3.950035,1.242460,0.700375,3.912512,1.497385,1.702503,1.115886
BFMT,1,true,3.195254,1.876297,0.000000,0.486310,3.961737,1.242384,0.702735,3.916722,1.518125,1.691780,1.137903
BFMT,2,true,3.181417,1.881834,0.000000,0.567332,3.936636,1.242661,0.697474,3.906803,1.477778,1.695481,1.101216
BFMT,3,true,3.268405,2.064707,0.000000,0.435060,4.137169,1.242314,1.055811,3.878652,1.146389,1.431302,1.928002
STRIDE,1,true,3.235012,1.865004,0.000000,0.075259,4.035924,1.241673,0.713690,3.943709,1.613358,1.695726,1.257148
STRIDE,2,true,3.196451,1.877138,0.000000,0.080940,3.963860,1.242087,0.701569,3.917836,1.507051,1.709676,1.139079
STRIDE,3,true,3.282528,2.067015,0.000000,0.076257,4.160735,1.241505,1.061473,3.888837,1.189806,1.439830,1.953542
BiTRRT,1,true,3.274538,2.064821,0.000000,0.085349,4.147215,1.242114,1.058081,3.881210,1.160455,1.445134,1.935602
BiTRRT,2,true,3.190880,1.878496,0.000000,0.078704,3.953036,1.241368,0.701122,3.916450,1.504498,1.696283,1.121998
BiTRRT,3,true,3.259928,2.062588,0.000000,0.068652,4.120805,1.242280,1.051582,3.870850,1.124570,1.446357,1.891490
LBTRRT,1,false,0,0,0,0,0,0,0,0,0,0,0
LBTRRT,2,true,3.293588,2.070471,0.000000,5.014406,4.179665,1.243268,1.066293,3.898119,1.228197,1.430011,1.981833
LBTRRT,3,true,3.224195,1.867654,0.000000,5.012489,4.013668,1.241679,0.712144,3.939661,1.587553,1.702243,1.212151
BiEST,1,true,3.278959,2.066467,0.000000,0.061986,4.155916,1.242850,1.059286,3.884589,1.176835,1.432804,1.955210
BiEST,2,true,3.188745,1.879118,0.000000,0.087023,3.947665,1.241903,0.701282,3.916373,1.494803,1.706301,1.107431
BiEST,3,true,3.181020,1.879993,0.000000,0.102060,3.935163,1.242616,0.697790,3.905820,1.484283,1.694421,1.093959
ProjEST,1,true,3.270028,2.063511,0.000000,0.076483,4.139793,1.241658,1.055352,3.876792,1.148126,1.445638,1.925518
ProjEST,2,true,3.236069,1.864111,0.000000,0.202029,4.037504,1.241248,0.715160,3.945441,1.619229,1.692064,1.259001
ProjEST,3,true,3.280976,2.065811,0.000000,0.115763,4.158185,1.241338,1.058691,3.884071,1.185179,1.450538,1.944989
LazyPRM,1,false,0,0,0,0,0,0,0,0,0,0,0
LazyPRM,2,false,0,0,0,0,0,0,0,0,0,0,0
LazyPRM,3,false,0,0,0,0,0,0,0,0,0,0,0
LazyPRMstar,1,true,3.631601,2.077317,0.042468,5.054370,4.940541,1.241725,1.067924,3.903101,1.282179,1.448960,4.244640
LazyPRMstar,2,true,3.631506,2.223883,0.000000,5.021341,4.939622,1.241581,1.072066,3.908441,1.280957,1.438503,4.246284
LazyPRMstar,3,true,3.635046,2.086251,0.067783,5.054859,4.946383,1.243172,1.070241,3.905380,1.294308,1.442087,4.258374
SPARS,1,true,3.186489,1.879215,0.000000,5.058431,3.944711,1.241093,0.700497,3.912838,1.483562,1.707974,1.107748
SPARS,2,true,3.199713,1.874294,0.000000,5.033251,3.970328,1.240896,0.703503,3.919705,1.525191,1.697593,1.151278
SPARS,3,true,3.185617,1.880007,0.000000,5.026559,3.944829,1.241519,0.698044,3.909754,1.490769,1.693383,1.114685
SPARStwo,1,true,3.198837,1.875570,0.000000,5.008703,3.966542,1.241401,0.704447,3.923030,1.519561,1.706905,1.137214
SPARStwo,2,true,3.209865,1.871855,0.000000,5.006599,3.989280,1.242196,0.706535,3.926004,1.553788,1.692079,1.182629
SPARStwo,3,true,3.188384,1.878312,0.000000,5.011831,3.947663,1.241430,0.700340,3.914469,1.497412,1.703445,1.108696
SBL,1,true,3.211425,1.872864,0.000000,0.219552,3.991689,1.242920,0.706381,3.928083,1.552348,1.699040,1.184475
SBL,2,true,3.192127,1.877637,0.000000,0.105981,3.956659,1.241765,0.700909,3.913872,1.503470,1.697320,1.132341
SBL,3,true,3.183374,1.879610,0.000000,0.223306,3.940011,1.241781,0.698227,3.907330,1.479702,1.703534,1.103292
