{
    "goal": {
        "global_pose": {
            "orientation": {
                "w": 0.5084816217422485,
                "x": -0.49083608388900757,
                "y": 0.5182115435600281,
                "z": -0.4816462993621826
            },
            "position": {
                "x": 0.5540239810943604,
                "y": 0.030875300988554955,
                "z": 0.16403168439865112
            }
        },
        "name": "move_to_storage_A"
    },
    "id": "BFMT_move_to_storage_A_93",
    "joint_names": [
        "shoulder_pan_joint",
        "shoulder_lift_joint",
        "elbow_joint",
        "wrist_1_joint",
        "wrist_2_joint",
        "wrist_3_joint"
    ],
    "metrics": {
        "cart_traj_len": 0.35307647382448026,
        "distance_elbow_joint": 0.449618301855804,
        "distance_shoulder_lift_joint": 0.23404276647254263,
        "distance_shoulder_pan_joint": 0.4586696515757608,
        "distance_wrist_1_joint": 0.24697830429456447,
        "distance_wrist_2_joint": 1.1111720347932197,
        "distance_wrist_3_joint": 0.10549192837548782,
        "smoothness": 8.881784197001252e-16,
        "time": 0.483054611,
        "traj_len": 1.6143026319025127,
        "weighted_distance": 2.0433079022032237
    },
    "planner": "BFMT",
    "start": {
        "state": {
            "elbow_joint": 1.9715477243005601,
            "shoulder_lift_joint": -1.1394853015351272,
            "shoulder_pan_joint": 0.12281154014795169,
            "wrist_1_joint": -0.7804696478968182,
            "wrist_2_joint": 0.12958648046900423,
            "wrist_3_joint": -3.192491284697111
        }
    },
    "waypoints": [
        {
            "positions": [
                0.12281154014795169,
                -1.1394853015351272,
                1.9715477243005601,
                -0.7804696478968182,
                0.12958648046900423,
                -3.192491284697111
            ]
        },
        {
            "positions": [
                0.057287304208557294,
                -1.172919982459776,
                2.035778910279961,
                -0.8157522627960416,
                0.28832534258232134,
                -3.1774210092148985
            ]
        },
        {
            "positions": [
                -0.008236931730837102,
                -1.206354663384425,
                2.100010096259361,
                -0.8510348776952652,
                0.4470642046956384,
                -3.162350733732686
            ]
        },
        {
            "positions": [
                -0.07376116767023148,
                -1.239789344309074,
                2.1642412822387618,
                -0.8863174925944887,
                0.6058030668089556,
                -3.1472804582504734
            ]
        },
        {
            "positions": [
                -0.13928540360962588,
                -1.273224025233723,
                2.2284724682181625,
                -0.9216001074937121,
                0.7645419289222726,
                -3.132210182768261
            ]
        },
        {
            "positions": [
                -0.20480963954902032,
                -1.3066587061583719,
                2.292703654197563,
                -0.9568827223929357,
                0.9232807910355897,
                -3.1171399072860484
            ]
        },
        {
            "positions": [
                -0.27033387548841464,
                -1.3400933870830207,
                2.3569348401769634,
                -0.992165337292159,
                1.0820196531489068,
                -3.102069631803836
            ]
        },
        {
            "positions": [
                -0.3358581114278091,
                -1.3735280680076698,
                2.421166026156364,
                -1.0274479521913826,
                1.2407585152622238,
                -3.0869993563216234
            ]
        }
    ]
}