{
    "goal": {
        "global_pose": {
            "orientation": {
                "w": 0.7047431468963623,
                "x": -0.7094548344612122,
                "y": 0.0024358443915843964,
                "z": -0.0022348060738295317
            },
            "position": {
                "x": 0.6094750761985779,
                "y": 0.3671506643295288,
                "z": 0.19426114857196808
            }
        },
        "name": "move_to_magneteinheit_A"
    },
    "id": "BFMT_move_to_magneteinheit_A_82",
    "joint_names": [
        "shoulder_pan_joint",
        "shoulder_lift_joint",
        "elbow_joint",
        "wrist_1_joint",
        "wrist_2_joint",
        "wrist_3_joint"
    ],
    "metrics": {
        "cart_traj_len": 3.239377305512943,
        "distance_elbow_joint": 3.9117241490838923,
        "distance_shoulder_lift_joint": 0.6257609552560527,
        "distance_shoulder_pan_joint": 2.921786178259216,
        "distance_wrist_1_joint": 3.4632471517851737,
        "distance_wrist_2_joint": 1.4357664026921224,
        "distance_wrist_3_joint": 0.4391150756987651,
        "smoothness": 0.06049957681689146,
        "time": 0.985624832,
        "traj_len": 3.577345372308245,
        "weighted_distance": 4.309831042935448
    },
    "planner": "BFMT",
    "start": {
        "state": {
            "elbow_joint": -1.919618573717145,
            "shoulder_lift_joint": -1.2443395971678275,
            "shoulder_pan_joint": 2.6996025300909787,
            "wrist_1_joint": -1.548550951253194,
            "wrist_2_joint": -1.5709469090946802,
            "wrist_3_joint": 0.4420197732051276
        }
    },
    "waypoints": [
        {
            "positions": [
                2.6996025300909787,
                -1.2443395971678275,
                -1.919618573717145,
                -1.548550951253194,
                -1.5709469090946802,
                0.4420197732051276
            ]
        },
        {
            "positions": [
                2.556526925997009,
                -1.2495997988276704,
                -1.793412571902225,
                -1.5035460362044855,
                -1.5072040290808735,
                0.43040276225538904
            ]
        },
        {
            "positions": [
                2.413451321903039,
                -1.2548600004875132,
                -1.6672065700873049,
                -1.4585411211557768,
                -1.4434611490670666,
                0.41878575130565054
            ]
        },
        {
            "positions": [
                2.2703757178090695,
                -1.2601202021473563,
                -1.5410005682723846,
                -1.4135362061070684,
                -1.3797182690532597,
                0.407168740355912
            ]
        },
        {
            "positions": [
                2.1273001137150995,
                -1.2653804038071992,
                -1.4147945664574646,
                -1.3685312910583598,
                -1.315975389039453,
                0.3955517294061735
            ]
        },
        {
            "positions": [
                1.98422450962113,
                -1.270640605467042,
                -1.2885885646425446,
                -1.3235263760096512,
                -1.2522325090256463,
                0.38393471845643495
            ]
        },
        {
            "positions": [
                1.84114890552716,
                -1.275900807126885,
                -1.1623825628276245,
                -1.2785214609609425,
                -1.1884896290118394,
                0.37231770750669646
            ]
        },
        {
            "positions": [
                1.6980733014331901,
                -1.2811610087867278,
                -1.0361765610127045,
                -1.233516545912234,
                -1.1247467489980325,
                0.3607006965569579
            ]
        },
        {
            "positions": [
                1.5549976973392206,
                -1.2864212104465709,
                -0.9099705591977845,
                -1.1885116308635255,
                -1.0610038689842258,
                0.3490836856072194
            ]
        },
        {
            "positions": [
                1.4119220932452508,
                -1.2916814121064137,
                -0.7837645573828644,
                -1.1435067158148169,
                -0.997260988970419,
                0.33746667465748087
            ]
        },
        {
            "positions": [
                1.268846489151281,
                -1.2969416137662566,
                -0.6575585555679444,
                -1.0985018007661083,
                -0.9335181089566122,
                0.3258496637077424
            ]
        },
        {
            "positions": [
                1.1257708850573112,
                -1.3022018154260995,
                -0.5313525537530244,
                -1.0534968857173996,
                -0.8697752289428055,
                0.3142326527580038
            ]
        },
        {
            "positions": [
                0.9826952809633411,
                -1.3074620170859423,
                -0.4051465519381041,
                -1.008491970668691,
                -0.8060323489289986,
                0.3026156418082653
            ]
        },
        {
            "positions": [
                0.8396196768693716,
                -1.3127222187457854,
                -0.2789405501231841,
                -0.9634870556199825,
                -0.7422894689151918,
                0.2909986308585268
            ]
        },
        {
            "positions": [
                0.6965440727754015,
                -1.3179824204056283,
                -0.15273454830826405,
                -0.918482140571274,
                -0.678546588901385,
                0.2793816199087883
            ]
        },
        {
            "positions": [
                0.553468468681432,
                -1.3232426220654712,
                -0.02652854649334402,
                -0.8734772255225653,
                -0.6148037088875782,
                0.26776460895904974
            ]
        },
        {
            "positions": [
                0.48651227930477703,
                -1.3112132794294027,
                0.14638154890713453,
                -0.7911310728736907,
                -0.5774713632710187,
                0.2528350852338696
            ]
        },
        {
            "positions": [
                0.4195560899281221,
                -1.2991839367933342,
                0.3192916443076131,
                -0.7087849202248159,
                -0.540139017654459,
                0.2379055615086894
            ]
        },
        {
            "positions": [
                0.3525999005514672,
                -1.2871545941572657,
                0.49220173970809156,
                -0.6264387675759412,
                -0.5028066720378994,
                0.22297603778350927
            ]
        },
        {
            "positions": [
                0.2856437111748123,
                -1.2751252515211973,
                0.6651118351085702,
                -0.5440926149270664,
                -0.4654743264213399,
                0.2080465140583291
            ]
        },
        {
            "positions": [
                0.21868752179815737,
                -1.2630959088851286,
                0.8380219305090487,
                -0.46174646227819166,
                -0.42814198080478033,
                0.19311699033314894
            ]
        },
        {
            "positions": [
                0.1517313324215025,
                -1.25106656624906,
                1.0109320259095271,
                -0.379400309629317,
                -0.39080963518822076,
                0.1781874666079688
            ]
        },
        {
            "positions": [
                0.08477514304484751,
                -1.2390372236129916,
                1.1838421213100059,
                -0.29705415698044224,
                -0.3534772895716612,
                0.1632579428827886
            ]
        },
        {
            "positions": [
                0.01781895366819264,
                -1.2270078809769231,
                1.3567522167104844,
                -0.21470800433156756,
                -0.3161449439551016,
                0.14832841915760847
            ]
        },
        {
            "positions": [
                -0.049137235708462235,
                -1.2149785383408547,
                1.529662312110963,
                -0.13236185168269274,
                -0.27881259833854205,
                0.1333988954324283
            ]
        },
        {
            "positions": [
                -0.02990985654626508,
                -1.1662458887148777,
                1.581044896917161,
                0.09508904300782642,
                -0.2628534770123215,
                0.11889954010730988
            ]
        },
        {
            "positions": [
                -0.010682477384067926,
                -1.1175132390889009,
                1.6324274817233593,
                0.32253993769834555,
                -0.24689435568610094,
                0.10440018478219146
            ]
        },
        {
            "positions": [
                0.008544901778129228,
                -1.0687805894629239,
                1.6838100665295574,
                0.5499908323888647,
                -0.2309352343598804,
                0.08990082945707303
            ]
        },
        {
            "positions": [
                0.027772280940326383,
                -1.0200479398369469,
                1.7351926513357556,
                0.7774417270793839,
                -0.21497611303365982,
                0.07540147413195461
            ]
        },
        {
            "positions": [
                0.046999660102523544,
                -0.97131529021097,
                1.7865752361419536,
                1.004892621769903,
                -0.19901699170743925,
                0.060902118806836186
            ]
        },
        {
            "positions": [
                0.06622703926472069,
                -0.9225826405849931,
                1.8379578209481517,
                1.2323435164604222,
                -0.1830578703812187,
                0.04640276348171776
            ]
        },
        {
            "positions": [
                0.08545441842691787,
                -0.873849990959016,
                1.88934040575435,
                1.4597944111509413,
                -0.16709874905499814,
                0.03190340815659934
            ]
        },
        {
            "positions": [
                0.104681797589115,
                -0.825117341333039,
                1.940722990560548,
                1.6872453058414605,
                -0.1511396277287776,
                0.017404052831480915
            ]
        },
        {
            "positions": [
                0.12390917675131216,
                -0.7763846917070621,
                1.9921055753667463,
                1.9146962005319796,
                -0.13518050640255702,
                0.002904697506362478
            ]
        }
    ]
}{
    "goal": {
        "global_pose": {
            "orientation": {
                "w": 0.7047431468963623,
                "x": -0.7094548344612122,
                "y": 0.0024358443915843964,
                "z": -0.0022348060738295317
            },
            "position": {
                "x": 0.6094750761985779,
                "y": 0.3671506643295288,
                "z": 0.19426114857196808
            }
        },
        "name": "move_to_magneteinheit_A"
    },
    "id": "BFMT_move_to_magneteinheit_A_82",
    "joint_names": [
        "shoulder_pan_joint",
        "shoulder_lift_joint",
        "elbow_joint",
        "wrist_1_joint",
        "wrist_2_joint",
        "wrist_3_joint"
    ],
    "metrics": {
        "cart_traj_len": 1.3162306507301818,
        "distance_elbow_joint": 0.1419036435907559,
        "distance_shoulder_lift_joint": 0.7630814632578196,
        "distance_shoulder_pan_joint": 1.2411334608425135,
        "distance_wrist_1_joint": 0.912613338920036,
        "distance_wrist_2_joint": 1.431753628724077,
        "distance_wrist_3_joint": 4.347266373866217,
        "smoothness": 0.022634672999022706,
        "time": 0.669577506,
        "traj_len": 2.9728356680451444,
        "weighted_distance": 4.458323858198052
    },
    "planner": "BFMT",
    "start": {
        "state": {
            "elbow_joint": 1.919643534880228,
            "shoulder_lift_joint": -1.8972525353963687,
            "shoulder_pan_joint": -1.1188672234189438,
            "wrist_1_joint": -1.5931878212786155,
            "wrist_2_joint": 1.5706036197970081,
            "wrist_3_joint": 1.118896926603594
        }
    },
    "waypoints": [
        {
            "positions": [
                -1.1188672234189438,
                -1.8972525353963687,
                1.919643534880228,
                -1.5931878212786155,
                1.5706036197970081,
                1.118896926603594
            ]
        },
        {
            "positions": [
                -1.0868146239752114,
                -1.8559852420726113,
                1.9163409497638624,
                -1.534055736385428,
                1.4804636636800954,
                0.9608119199902951
            ]
        },
        {
            "positions": [
                -1.054762024531479,
                -1.8147179487488536,
                1.9130383646474967,
                -1.4749236514922401,
                1.3903237075631825,
                0.8027269133769962
            ]
        },
        {
            "positions": [
                -1.0227094250877466,
                -1.7734506554250962,
                1.909735779531131,
                -1.4157915665990526,
                1.3001837514462697,
                0.6446419067636973
            ]
        },
        {
            "positions": [
                -0.9906568256440141,
                -1.7321833621013385,
                1.9064331944147652,
                -1.3566594817058648,
                1.2100437953293568,
                0.48655690015039843
            ]
        },
        {
            "positions": [
                -0.9586042262002817,
                -1.690916068777581,
                1.9031306092983995,
                -1.2975273968126773,
                1.119903839212444,
                0.3284718935370996
            ]
        },
        {
            "positions": [
                -0.9265516267565492,
                -1.6496487754538234,
                1.8998280241820338,
                -1.2383953119194895,
                1.0297638830955314,
                0.17038688692380066
            ]
        },
        {
            "positions": [
                -0.8944990273128168,
                -1.608381482130066,
                1.896525439065668,
                -1.179263227026302,
                0.9396239269786184,
                0.012301880310501945
            ]
        },
        {
            "positions": [
                -0.8624464278690844,
                -1.5671141888063085,
                1.8932228539493026,
                -1.1201311421331142,
                0.8494839708617057,
                -0.1457831263027971
            ]
        },
        {
            "positions": [
                -0.830393828425352,
                -1.5258468954825508,
                1.8899202688329368,
                -1.0609990572399266,
                0.7593440147447929,
                -0.30386813291609593
            ]
        },
        {
            "positions": [
                -0.7983412289816196,
                -1.4845796021587934,
                1.8866176837165711,
                -1.0018669723467388,
                0.66920405862788,
                -0.46195313952939476
            ]
        },
        {
            "positions": [
                -0.7662886295378872,
                -1.443312308835036,
                1.8833150986002054,
                -0.9427348874535513,
                0.5790641025109673,
                -0.6200381461426936
            ]
        },
        {
            "positions": [
                -0.7342360300941546,
                -1.4020450155112782,
                1.8800125134838397,
                -0.8836028025603635,
                0.48892414639405435,
                -0.7781231527559926
            ]
        },
        {
            "positions": [
                -0.7021834306504222,
                -1.3607777221875206,
                1.876709928367474,
                -0.824470717667176,
                0.3987841902771416,
                -0.9362081593692915
            ]
        },
        {
            "positions": [
                -0.6701308312066898,
                -1.3195104288637634,
                1.8734073432511082,
                -0.7653386327739883,
                0.3086442341602287,
                -1.09429316598259
            ]
        },
        {
            "positions": [
                -0.6380782317629574,
                -1.2782431355400057,
                1.8701047581347425,
                -0.7062065478808006,
                0.2185042780433159,
                -1.2523781725958891
            ]
        },
        {
            "positions": [
                -0.5430351731146416,
                -1.2602341276148237,
                1.8816503664904014,
                -0.7094105560710783,
                0.20854749217201787,
                -1.499377081929231
            ]
        },
        {
            "positions": [
                -0.4479921144663257,
                -1.2422251196896417,
                1.89319597484606,
                -0.7126145642613559,
                0.19859070630071984,
                -1.7463759912625727
            ]
        },
        {
            "positions": [
                -0.35294905581800984,
                -1.2242161117644594,
                1.904741583201719,
                -0.7158185724516336,
                0.18863392042942181,
                -1.9933749005959145
            ]
        },
        {
            "positions": [
                -0.257905997169694,
                -1.2062071038392774,
                1.9162871915573776,
                -0.7190225806419113,
                0.17867713455812378,
                -2.2403738099292565
            ]
        },
        {
            "positions": [
                -0.16286293852137812,
                -1.1881980959140954,
                1.9278327999130365,
                -0.7222265888321888,
                0.16872034868682573,
                -2.4873727192625985
            ]
        },
        {
            "positions": [
                -0.06781987987306226,
                -1.1701890879889132,
                1.9393784082686953,
                -0.7254305970224665,
                0.1587635628155277,
                -2.73437162859594
            ]
        },
        {
            "positions": [
                0.027223178775253598,
                -1.1521800800637312,
                1.950924016624354,
                -0.7286346052127441,
                0.14880677694422967,
                -2.9813705379292816
            ]
        },
        {
            "positions": [
                0.12226623742356946,
                -1.1341710721385492,
                1.9624696249800129,
                -0.7318386134030218,
                0.13884999107293164,
                -3.2283694472626236
            ]
        }
    ]
}