{
    "goal": {
        "global_pose": {
            "orientation": {
                "w": 0.7047431468963623,
                "x": -0.7094548344612122,
                "y": 0.0024358443915843964,
                "z": -0.0022348060738295317
            },
            "position": {
                "x": 0.6094750761985779,
                "y": 0.3671506643295288,
                "z": 0.19426114857196808
            }
        },
        "name": "move_to_magneteinheit_A"
    },
    "id": "BFMT_move_to_magneteinheit_A_92",
    "joint_names": [
        "shoulder_pan_joint",
        "shoulder_lift_joint",
        "elbow_joint",
        "wrist_1_joint",
        "wrist_2_joint",
        "wrist_3_joint"
    ],
    "metrics": {
        "cart_traj_len": 3.1384094771915936,
        "distance_elbow_joint": 3.919688282432706,
        "distance_shoulder_lift_joint": 0.9419897826762489,
        "distance_shoulder_pan_joint": 3.213017740284429,
        "distance_wrist_1_joint": 3.4821484058414303,
        "distance_wrist_2_joint": 1.4324480708755138,
        "distance_wrist_3_joint": 0.733514834985687,
        "smoothness": 0.1049154947748578,
        "time": 1.016100497,
        "traj_len": 3.7044307413010187,
        "weighted_distance": 4.483796746484427
    },
    "planner": "BFMT",
    "start": {
        "state": {
            "elbow_joint": -1.919618573717145,
            "shoulder_lift_joint": -1.2443395971678275,
            "shoulder_pan_joint": 2.6996025300909787,
            "wrist_1_joint": -1.548550951253194,
            "wrist_2_joint": -1.5709469090946802,
            "wrist_3_joint": 0.4420197732051276
        }
    },
    "waypoints": [
        {
            "positions": [
                2.6996025300909787,
                -1.2443395971678275,
                -1.919618573717145,
                -1.548550951253194,
                -1.5709469090946802,
                0.4420197732051276
            ]
        },
        {
            "positions": [
                2.5732870175017117,
                -1.255187631724922,
                -1.7850950630037246,
                -1.4977303287486754,
                -1.54067420746694,
                0.4158782478199508
            ]
        },
        {
            "positions": [
                2.4469715049124448,
                -1.2660356662820165,
                -1.6505715522903042,
                -1.4469097062441567,
                -1.5104015058392,
                0.38973672243477403
            ]
        },
        {
            "positions": [
                2.3206559923231778,
                -1.276883700839111,
                -1.516048041576884,
                -1.396089083739638,
                -1.4801288042114598,
                0.3635951970495973
            ]
        },
        {
            "positions": [
                2.1943404797339108,
                -1.2877317353962052,
                -1.3815245308634636,
                -1.3452684612351193,
                -1.4498561025837198,
                0.33745367166442053
            ]
        },
        {
            "positions": [
                2.0680249671446442,
                -1.2985797699532997,
                -1.2470010201500432,
                -1.2944478387306009,
                -1.4195834009559796,
                0.31131214627924375
            ]
        },
        {
            "positions": [
                1.9417094545553772,
                -1.3094278045103942,
                -1.1124775094366228,
                -1.2436272162260822,
                -1.3893106993282394,
                0.285170620894067
            ]
        },
        {
            "positions": [
                1.8153939419661103,
                -1.3202758390674887,
                -0.9779539987232025,
                -1.1928065937215635,
                -1.3590379977004994,
                0.2590290955088902
            ]
        },
        {
            "positions": [
                1.6890784293768433,
                -1.3311238736245832,
                -0.843430488009782,
                -1.1419859712170448,
                -1.3287652960727592,
                0.23288757012371344
            ]
        },
        {
            "positions": [
                1.5627629167875763,
                -1.3419719081816777,
                -0.7089069772963617,
                -1.0911653487125261,
                -1.298492594445019,
                0.20674604473853667
            ]
        },
        {
            "positions": [
                1.4364474041983095,
                -1.3528199427387722,
                -0.5743834665829415,
                -1.0403447262080074,
                -1.268219892817279,
                0.18060451935335992
            ]
        },
        {
            "positions": [
                1.3101318916090425,
                -1.3636679772958664,
                -0.4398599558695211,
                -0.9895241037034888,
                -1.2379471911895388,
                0.15446299396818314
            ]
        },
        {
            "positions": [
                1.1838163790197758,
                -1.374516011852961,
                -0.3053364451561009,
                -0.9387034811989702,
                -1.2076744895617988,
                0.12832146858300642
            ]
        },
        {
            "positions": [
                1.0575008664305086,
                -1.3853640464100554,
                -0.1708129344426803,
                -0.8878828586944514,
                -1.1774017879340586,
                0.10217994319782958
            ]
        },
        {
            "positions": [
                0.9311853538412418,
                -1.3962120809671499,
                -0.03628942372926014,
                -0.8370622361899328,
                -1.1471290863063186,
                0.07603841781265286
            ]
        },
        {
            "positions": [
                0.804869841251975,
                -1.4070601155242444,
                0.09823408698416025,
                -0.7862416136854141,
                -1.1168563846785784,
                0.04989689242747608
            ]
        },
        {
            "positions": [
                0.6785543286627078,
                -1.4179081500813389,
                0.23275759769758086,
                -0.7354209911808954,
                -1.0865836830508382,
                0.023755367042299302
            ]
        },
        {
            "positions": [
                0.5522388160734408,
                -1.4287561846384333,
                0.36728110841100103,
                -0.6846003686763767,
                -1.0563109814230982,
                -0.0023861583428774757
            ]
        },
        {
            "positions": [
                0.42592330348417384,
                -1.4396042191955278,
                0.5018046191244216,
                -0.6337797461718581,
                -1.026038279795358,
                -0.028527683728054254
            ]
        },
        {
            "positions": [
                0.2996077908949073,
                -1.450452253752622,
                0.6363281298378418,
                -0.5829591236673394,
                -0.9957655781676179,
                -0.05466920911323103
            ]
        },
        {
            "positions": [
                0.1732922783056403,
                -1.4613002883097166,
                0.770851640551262,
                -0.5321385011628208,
                -0.9654928765398778,
                -0.08081073449840775
            ]
        },
        {
            "positions": [
                0.046976765716373325,
                -1.472148322866811,
                0.9053751512646826,
                -0.4813178786583021,
                -0.9352201749121376,
                -0.10695225988358453
            ]
        },
        {
            "positions": [
                -0.07933874687289369,
                -1.4829963574239056,
                1.0398986619781028,
                -0.4304972561537834,
                -0.9049474732843975,
                -0.1330937852687613
            ]
        },
        {
            "positions": [
                -0.09375997881743069,
                -1.4523389277149636,
                1.1118411556296144,
                -0.27218740203854186,
                -0.8235715733179314,
                -0.11597669506916297
            ]
        },
        {
            "positions": [
                -0.10818121076196768,
                -1.4216814980060215,
                1.1837836492811258,
                -0.11387754792330024,
                -0.7421956733514652,
                -0.09885960486956465
            ]
        },
        {
            "positions": [
                -0.1226024427065047,
                -1.3910240682970796,
                1.2557261429326374,
                0.044432306191941384,
                -0.6608197733849991,
                -0.08174251466996632
            ]
        },
        {
            "positions": [
                -0.1370236746510417,
                -1.3603666385881374,
                1.327668636584149,
                0.20274216030718295,
                -0.579443873418533,
                -0.06462542447036798
            ]
        },
        {
            "positions": [
                -0.1514449065955787,
                -1.3297092088791955,
                1.3996111302356606,
                0.3610520144224245,
                -0.4980679734520669,
                -0.04750833427076964
            ]
        },
        {
            "positions": [
                -0.1658661385401157,
                -1.2990517791702536,
                1.4715536238871723,
                0.5193618685376662,
                -0.4166920734856007,
                -0.030391244071171317
            ]
        },
        {
            "positions": [
                -0.1802873704846527,
                -1.2683943494613115,
                1.5434961175386837,
                0.6776717226529076,
                -0.33531617351913456,
                -0.013274153871572991
            ]
        },
        {
            "positions": [
                -0.1947086024291897,
                -1.2377369197523695,
                1.6154386111901953,
                0.8359815767681493,
                -0.2539402735526684,
                0.003842936328025348
            ]
        },
        {
            "positions": [
                -0.1491790870342951,
                -1.1722978362168504,
                1.670385910836676,
                0.9927838450281615,
                -0.23744863993359683,
                0.000776571340166511
            ]
        },
        {
            "positions": [
                -0.10364957163940051,
                -1.106858752681331,
                1.7253332104831571,
                1.1495861132881737,
                -0.22095700631452525,
                -0.002289793647692326
            ]
        },
        {
            "positions": [
                -0.05812005624450592,
                -1.0414196691458117,
                1.780280510129638,
                1.306388381548186,
                -0.20446537269545367,
                -0.0053561586355511635
            ]
        },
        {
            "positions": [
                -0.012590540849611337,
                -0.9759805856102926,
                1.835227809776119,
                1.4631906498081984,
                -0.1879737390763821,
                -0.00842252362341
            ]
        },
        {
            "positions": [
                0.03293897454528327,
                -0.9105415020747732,
                1.8901751094225998,
                1.6199929180682107,
                -0.17148210545731052,
                -0.011488888611268839
            ]
        },
        {
            "positions": [
                0.07846848994017785,
                -0.845102418539254,
                1.9451224090690808,
                1.7767951863282228,
                -0.15499047183823894,
                -0.014555253599127675
            ]
        },
        {
            "positions": [
                0.12399800533507244,
                -0.7796633350037347,
                2.0000697087155617,
                1.933597454588235,
                -0.13849883821916736,
                -0.017621618586986514
            ]
        }
    ]
}{
    "goal": {
        "global_pose": {
            "orientation": {
                "w": 0.7047431468963623,
                "x": -0.7094548344612122,
                "y": 0.0024358443915843964,
                "z": -0.0022348060738295317
            },
            "position": {
                "x": 0.6094750761985779,
                "y": 0.3671506643295288,
                "z": 0.19426114857196808
            }
        },
        "name": "move_to_magneteinheit_A"
    },
    "id": "BFMT_move_to_magneteinheit_A_92",
    "joint_names": [
        "shoulder_pan_joint",
        "shoulder_lift_joint",
        "elbow_joint",
        "wrist_1_joint",
        "wrist_2_joint",
        "wrist_3_joint"
    ],
    "metrics": {
        "cart_traj_len": 1.198678057210858,
        "distance_elbow_joint": 0.09482260775406326,
        "distance_shoulder_lift_joint": 0.7496385002304777,
        "distance_shoulder_pan_joint": 1.242464271645932,
        "distance_wrist_1_joint": 0.7431705362711983,
        "distance_wrist_2_joint": 1.4347575877465002,
        "distance_wrist_3_joint": 4.245689568016456,
        "smoothness": 0.027820957545667182,
        "time": 0.5813634560000001,
        "traj_len": 2.9172835089625124,
        "weighted_distance": 4.379480600678034
    },
    "planner": "BFMT",
    "start": {
        "state": {
            "elbow_joint": 1.919643534880228,
            "shoulder_lift_joint": -1.8972525353963687,
            "shoulder_pan_joint": -1.1188672234189438,
            "wrist_1_joint": -1.5931878212786155,
            "wrist_2_joint": 1.5706036197970081,
            "wrist_3_joint": 1.118896926603594
        }
    },
    "waypoints": [
        {
            "positions": [
                -1.1188672234189438,
                -1.8972525353963687,
                1.919643534880228,
                -1.5931878212786155,
                1.5706036197970081,
                1.118896926603594
            ]
        },
        {
            "positions": [
                -1.0633655954907162,
                -1.8635711756300792,
                1.9233496492984208,
                -1.5600011375162472,
                1.5054567076864191,
                0.9285827597821963
            ]
        },
        {
            "positions": [
                -1.0078639675624883,
                -1.8298898158637897,
                1.9270557637166132,
                -1.5268144537538788,
                1.4403097955758302,
                0.7382685929607986
            ]
        },
        {
            "positions": [
                -0.9523623396342606,
                -1.7962084560975005,
                1.930761878134806,
                -1.4936277699915106,
                1.3751628834652412,
                0.5479544261394009
            ]
        },
        {
            "positions": [
                -0.8968607117060329,
                -1.762527096331211,
                1.9344679925529986,
                -1.4604410862291424,
                1.3100159713546522,
                0.35764025931800314
            ]
        },
        {
            "positions": [
                -0.8413590837778051,
                -1.7288457365649215,
                1.938174106971191,
                -1.427254402466774,
                1.2448690592440634,
                0.16732609249660546
            ]
        },
        {
            "positions": [
                -0.7858574558495774,
                -1.695164376798632,
                1.9418802213893838,
                -1.3940677187044057,
                1.1797221471334745,
                -0.022988074324792107
            ]
        },
        {
            "positions": [
                -0.7303558279213497,
                -1.6614830170323427,
                1.9455863358075765,
                -1.3608810349420375,
                1.1145752350228855,
                -0.21330224114619
            ]
        },
        {
            "positions": [
                -0.6748541999931219,
                -1.6278016572660532,
                1.949292450225769,
                -1.327694351179669,
                1.0494283229122963,
                -0.4036164079675877
            ]
        },
        {
            "positions": [
                -0.6193525720648941,
                -1.5941202974997637,
                1.9529985646439616,
                -1.2945076674173008,
                0.9842814108017074,
                -0.5939305747889854
            ]
        },
        {
            "positions": [
                -0.5638509441366665,
                -1.5604389377334742,
                1.9567046790621543,
                -1.2613209836549326,
                0.9191344986911185,
                -0.784244741610383
            ]
        },
        {
            "positions": [
                -0.5083493162084387,
                -1.5267575779671847,
                1.9604107934803467,
                -1.2281342998925644,
                0.8539875865805295,
                -0.9745589084317807
            ]
        },
        {
            "positions": [
                -0.45284768828021105,
                -1.4930762182008954,
                1.9641169078985394,
                -1.194947616130196,
                0.7888406744699407,
                -1.1648730752531782
            ]
        },
        {
            "positions": [
                -0.39734606035198317,
                -1.459394858434606,
                1.9678230223167321,
                -1.1617609323678277,
                0.7236937623593516,
                -1.355187242074576
            ]
        },
        {
            "positions": [
                -0.3418444324237555,
                -1.4257134986683164,
                1.9715291367349248,
                -1.1285742486054593,
                0.6585468502487627,
                -1.545501408895974
            ]
        },
        {
            "positions": [
                -0.28634280449552785,
                -1.3920321389020271,
                1.9752352511531173,
                -1.095387564843091,
                0.5933999381381737,
                -1.7358155757173714
            ]
        },
        {
            "positions": [
                -0.23084117656729997,
                -1.3583507791357374,
                1.97894136557131,
                -1.0622008810807229,
                0.5282530260275846,
                -1.9261297425387693
            ]
        },
        {
            "positions": [
                -0.1753395486390723,
                -1.3246694193694482,
                1.9826474799895026,
                -1.0290141973183546,
                0.46310611391699585,
                -2.116443909360167
            ]
        },
        {
            "positions": [
                -0.11983792071084443,
                -1.2909880596031587,
                1.986353594407695,
                -0.9958275135559862,
                0.39795920180640665,
                -2.3067580761815645
            ]
        },
        {
            "positions": [
                -0.06433629278261677,
                -1.2573066998368692,
                1.9900597088258878,
                -0.962640829793618,
                0.3328122896958179,
                -2.497072243002962
            ]
        },
        {
            "positions": [
                -0.008834664854389107,
                -1.2236253400705799,
                1.9937658232440805,
                -0.9294541460312497,
                0.2676653775852289,
                -2.6873864098243603
            ]
        },
        {
            "positions": [
                0.046666963073838774,
                -1.1899439803042902,
                1.997471937662273,
                -0.8962674622688813,
                0.20251846547463992,
                -2.8777005766457577
            ]
        },
        {
            "positions": [
                0.1021685910020664,
                -1.1562626205380009,
                2.0011780520804656,
                -0.8630807785065131,
                0.13737155336405082,
                -3.068014743467155
            ]
        },
        {
            "positions": [
                0.12359704822698807,
                -1.147614035165891,
                1.9878899615266399,
                -0.8500172850074171,
                0.1358460320505079,
                -3.126792641412862
            ]
        }
    ]
}