{
    "goal": {
        "global_pose": {
            "orientation": {
                "w": 0.5084816217422485,
                "x": -0.49083608388900757,
                "y": 0.5182115435600281,
                "z": -0.4816462993621826
            },
            "position": {
                "x": 0.5540239810943604,
                "y": 0.030875300988554955,
                "z": 0.16403168439865112
            }
        },
        "name": "move_to_storage_A"
    },
    "id": "BFMT_move_to_storage_A_62",
    "joint_names": [
        "shoulder_pan_joint",
        "shoulder_lift_joint",
        "elbow_joint",
        "wrist_1_joint",
        "wrist_2_joint",
        "wrist_3_joint"
    ],
    "metrics": {
        "cart_traj_len": 0.35410375352751067,
        "distance_elbow_joint": 0.449333830769445,
        "distance_shoulder_lift_joint": 0.23490196391330498,
        "distance_shoulder_pan_joint": 0.4619730779272985,
        "distance_wrist_1_joint": 0.23577395984894933,
        "distance_wrist_2_joint": 1.1058990515536977,
        "distance_wrist_3_joint": 0.08960789986169804,
        "smoothness": 2.2204460668324854e-16,
        "time": 0.47309802900000003,
        "traj_len": 1.6054562541141983,
        "weighted_distance": 2.024445256113496
    },
    "planner": "BFMT",
    "start": {
        "state": {
            "elbow_joint": 1.9715477243005601,
            "shoulder_lift_joint": -1.1394853015351272,
            "shoulder_pan_joint": 0.12281154014795169,
            "wrist_1_joint": -0.7804696478968182,
            "wrist_2_joint": 0.12958648046900423,
            "wrist_3_joint": -3.192491284697111
        }
    },
    "waypoints": [
        {
            "positions": [
                0.12281154014795169,
                -1.1394853015351272,
                1.9715477243005601,
                -0.7804696478968182,
                0.12958648046900423,
                -3.192491284697111
            ]
        },
        {
            "positions": [
                0.056815386158337616,
                -1.1730427249513136,
                2.035738271553338,
                -0.8141516421609538,
                0.2875720592623896,
                -3.17969015614544
            ]
        },
        {
            "positions": [
                -0.009180767831276457,
                -1.2066001483675,
                2.099928818806116,
                -0.8478336364250894,
                0.445557638055775,
                -3.166889027593769
            ]
        },
        {
            "positions": [
                -0.07517692182089052,
                -1.2401575717836864,
                2.1641193660588938,
                -0.881515630689225,
                0.6035432168491603,
                -3.1540878990420977
            ]
        },
        {
            "positions": [
                -0.1411730758105046,
                -1.2737149951998727,
                2.2283099133116715,
                -0.9151976249533607,
                0.7615287956425457,
                -3.1412867704904266
            ]
        },
        {
            "positions": [
                -0.2071692298001187,
                -1.3072724186160594,
                2.2925004605644492,
                -0.9488796192174962,
                0.9195143744359312,
                -3.1284856419387554
            ]
        },
        {
            "positions": [
                -0.2731653837897327,
                -1.3408298420322458,
                2.3566910078172274,
                -0.9825616134816318,
                1.0774999532293164,
                -3.1156845133870843
            ]
        },
        {
            "positions": [
                -0.3391615377793468,
                -1.3743872654484321,
                2.420881555070005,
                -1.0162436077457675,
                1.235485532022702,
                -3.102883384835413
            ]
        }
    ]
}