{
    "goal": {
        "global_pose": {
            "orientation": {
                "w": 0.5084816217422485,
                "x": -0.49083608388900757,
                "y": 0.5182115435600281,
                "z": -0.4816462993621826
            },
            "position": {
                "x": 0.5540239810943604,
                "y": 0.030875300988554955,
                "z": 0.16403168439865112
            }
        },
        "name": "move_to_storage_A"
    },
    "id": "BFMT_move_to_storage_A_89",
    "joint_names": [
        "shoulder_pan_joint",
        "shoulder_lift_joint",
        "elbow_joint",
        "wrist_1_joint",
        "wrist_2_joint",
        "wrist_3_joint"
    ],
    "metrics": {
        "cart_traj_len": 0.3533554132416536,
        "distance_elbow_joint": 0.45159656504956347,
        "distance_shoulder_lift_joint": 0.23377307134634906,
        "distance_shoulder_pan_joint": 0.4636184136235696,
        "distance_wrist_1_joint": 0.24836949290822752,
        "distance_wrist_2_joint": 1.092695026405611,
        "distance_wrist_3_joint": 0.09188503508626855,
        "smoothness": 0.0,
        "time": 0.47160174899999996,
        "traj_len": 1.6068408771311455,
        "weighted_distance": 2.026517257243561
    },
    "planner": "BFMT",
    "start": {
        "state": {
            "elbow_joint": 1.9715477243005601,
            "shoulder_lift_joint": -1.1394853015351272,
            "shoulder_pan_joint": 0.12281154014795169,
            "wrist_1_joint": -0.7804696478968182,
            "wrist_2_joint": 0.12958648046900423,
            "wrist_3_joint": -3.192491284697111
        }
    },
    "waypoints": [
        {
            "positions": [
                0.12281154014795169,
                -1.1394853015351272,
                1.9715477243005601,
                -0.7804696478968182,
                0.12958648046900423,
                -3.192491284697111
            ]
        },
        {
            "positions": [
                0.05658033820172746,
                -1.1728814545846056,
                2.0360615193076406,
                -0.815951004026565,
                0.2856857699555201,
                -3.1793648511133585
            ]
        },
        {
            "positions": [
                -0.009650863744496765,
                -1.206277607634084,
                2.100575314314721,
                -0.8514323601563117,
                0.44178505944203594,
                -3.166238417529606
            ]
        },
        {
            "positions": [
                -0.07588206569072099,
                -1.2396737606835624,
                2.1650891093218014,
                -0.8869137162860585,
                0.5978843489285518,
                -3.1531119839458532
            ]
        },
        {
            "positions": [
                -0.1421132676369452,
                -1.2730699137330408,
                2.229602904328882,
                -0.9223950724158053,
                0.7539836384150677,
                -3.1399855503621006
            ]
        },
        {
            "positions": [
                -0.20834446958316943,
                -1.3064660667825194,
                2.2941166993359627,
                -0.9578764285455521,
                0.9100829279015835,
                -3.126859116778348
            ]
        },
        {
            "positions": [
                -0.27457567152939366,
                -1.3398622198319978,
                2.358630494343043,
                -0.9933577846752989,
                1.0661822173880995,
                -3.1137326831945953
            ]
        },
        {
            "positions": [
                -0.3408068734756179,
                -1.3732583728814762,
                2.4231442893501236,
                -1.0288391408050457,
                1.2222815068746151,
                -3.1006062496108426
            ]
        }
    ]
}