{
    "goal": {
        "global_pose": {
            "orientation": {
                "w": 0.5084816217422485,
                "x": -0.49083608388900757,
                "y": 0.5182115435600281,
                "z": -0.4816462993621826
            },
            "position": {
                "x": 0.5540239810943604,
                "y": 0.030875300988554955,
                "z": 0.16403168439865112
            }
        },
        "name": "move_to_storage_A"
    },
    "id": "BFMT_move_to_storage_A_72",
    "joint_names": [
        "shoulder_pan_joint",
        "shoulder_lift_joint",
        "elbow_joint",
        "wrist_1_joint",
        "wrist_2_joint",
        "wrist_3_joint"
    ],
    "metrics": {
        "cart_traj_len": 0.35362669578748257,
        "distance_elbow_joint": 0.45327518847969195,
        "distance_shoulder_lift_joint": 0.23282238442006165,
        "distance_shoulder_pan_joint": 0.4632295763389345,
        "distance_wrist_1_joint": 0.2622297657486642,
        "distance_wrist_2_joint": 1.0955784997846099,
        "distance_wrist_3_joint": 0.09587487855087229,
        "smoothness": 2.2204460668324854e-16,
        "time": 0.478901399,
        "traj_len": 1.6133847319603696,
        "weighted_distance": 2.037785149606762
    },
    "planner": "BFMT",
    "start": {
        "state": {
            "elbow_joint": 1.9715477243005601,
            "shoulder_lift_joint": -1.1394853015351272,
            "shoulder_pan_joint": 0.12281154014795169,
            "wrist_1_joint": -0.7804696478968182,
            "wrist_2_joint": 0.12958648046900423,
            "wrist_3_joint": -3.192491284697111
        }
    },
    "waypoints": [
        {
            "positions": [
                0.12281154014795169,
                -1.1394853015351272,
                1.9715477243005601,
                -0.7804696478968182,
                0.12958648046900423,
                -3.192491284697111
            ]
        },
        {
            "positions": [
                0.05663588638524676,
                -1.1727456421665645,
                2.036301322654802,
                -0.8179310430037702,
                0.2860976947239485,
                -3.178794873475558
            ]
        },
        {
            "positions": [
                -0.009539767377458166,
                -1.2060059827980019,
                2.1010549210090437,
                -0.8553924381107222,
                0.44260890897889277,
                -3.165098462254005
            ]
        },
        {
            "positions": [
                -0.0757154211401631,
                -1.2392663234294392,
                2.1658085193632854,
                -0.8928538332176742,
                0.599120123233837,
                -3.1514020510324516
            ]
        },
        {
            "positions": [
                -0.141891074902868,
                -1.2725266640608766,
                2.2305621177175268,
                -0.9303152283246263,
                0.7556313374887813,
                -3.1377056398108985
            ]
        },
        {
            "positions": [
                -0.20806672866557296,
                -1.3057870046923141,
                2.2953157160717685,
                -0.9677766234315783,
                0.9121425517437256,
                -3.1240092285893453
            ]
        },
        {
            "positions": [
                -0.27424238242827786,
                -1.3390473453237515,
                2.3600693144260103,
                -1.0052380185385303,
                1.0686537659986697,
                -3.110312817367792
            ]
        },
        {
            "positions": [
                -0.3404180361909828,
                -1.3723076859551888,
                2.424822912780252,
                -1.0426994136454824,
                1.225164980253614,
                -3.096616406146239
            ]
        }
    ]
}