{
    "goal": {
        "global_pose": {
            "orientation": {
                "w": 0.5084816217422485,
                "x": -0.49083608388900757,
                "y": 0.5182115435600281,
                "z": -0.4816462993621826
            },
            "position": {
                "x": 0.5540239810943604,
                "y": 0.030875300988554955,
                "z": 0.16403168439865112
            }
        },
        "name": "move_to_storage_A"
    },
    "id": "BFMT_move_to_storage_A_145",
    "joint_names": [
        "shoulder_pan_joint",
        "shoulder_lift_joint",
        "elbow_joint",
        "wrist_1_joint",
        "wrist_2_joint",
        "wrist_3_joint"
    ],
    "metrics": {
        "cart_traj_len": 0.35252666693201035,
        "distance_elbow_joint": 0.4497936359227257,
        "distance_shoulder_lift_joint": 0.2341119903401787,
        "distance_shoulder_pan_joint": 0.461651395400264,
        "distance_wrist_1_joint": 0.24624097945753765,
        "distance_wrist_2_joint": 1.0943373899221447,
        "distance_wrist_3_joint": 0.09518737005312117,
        "smoothness": 4.440892098500626e-16,
        "time": 0.464090217,
        "traj_len": 1.606649545201433,
        "weighted_distance": 2.027874717674121
    },
    "planner": "BFMT",
    "start": {
        "state": {
            "elbow_joint": 1.9715477243005601,
            "shoulder_lift_joint": -1.1394853015351272,
            "shoulder_pan_joint": 0.12281154014795169,
            "wrist_1_joint": -0.7804696478968182,
            "wrist_2_joint": 0.12958648046900423,
            "wrist_3_joint": -3.192491284697111
        }
    },
    "waypoints": [
        {
            "positions": [
                0.12281154014795169,
                -1.1394853015351272,
                1.9715477243005601,
                -0.7804696478968182,
                0.12958648046900423,
                -3.192491284697111
            ]
        },
        {
            "positions": [
                0.05686134080505684,
                -1.1729298715837242,
                2.0358039580038065,
                -0.8156469306764664,
                0.2859203933150249,
                -3.178893088975237
            ]
        },
        {
            "positions": [
                -0.009088858537838015,
                -1.206374441632321,
                2.1000601917070534,
                -0.8508242134561146,
                0.44225430616104555,
                -3.165294893253362
            ]
        },
        {
            "positions": [
                -0.07503905788073288,
                -1.239819011680918,
                2.1643164254103,
                -0.8860014962357629,
                0.5985882190070662,
                -3.151696697531488
            ]
        },
        {
            "positions": [
                -0.1409892572236277,
                -1.273263581729515,
                2.228572659113546,
                -0.9211787790154111,
                0.7549221318530869,
                -3.1380985018096132
            ]
        },
        {
            "positions": [
                -0.20693945656652257,
                -1.306708151778112,
                2.292828892816793,
                -0.9563560617950593,
                0.9112560446991076,
                -3.124500306087739
            ]
        },
        {
            "positions": [
                -0.27288965590941744,
                -1.3401527218267089,
                2.3570851265200394,
                -0.9915333445747075,
                1.0675899575451282,
                -3.1109021103658643
            ]
        },
        {
            "positions": [
                -0.3388398552523123,
                -1.3735972918753059,
                2.421341360223286,
                -1.0267106273543558,
                1.223923870391149,
                -3.09730391464399
            ]
        }
    ]
}