{
    "goal": {
        "global_pose": {
            "orientation": {
                "w": 0.5084816217422485,
                "x": -0.49083608388900757,
                "y": 0.5182115435600281,
                "z": -0.4816462993621826
            },
            "position": {
                "x": 0.5540239810943604,
                "y": 0.030875300988554955,
                "z": 0.16403168439865112
            }
        },
        "name": "move_to_storage_A"
    },
    "id": "BFMT_move_to_storage_A_80",
    "joint_names": [
        "shoulder_pan_joint",
        "shoulder_lift_joint",
        "elbow_joint",
        "wrist_1_joint",
        "wrist_2_joint",
        "wrist_3_joint"
    ],
    "metrics": {
        "cart_traj_len": 0.35293960750312275,
        "distance_elbow_joint": 0.4534962145232395,
        "distance_shoulder_lift_joint": 0.23133763407420282,
        "distance_shoulder_pan_joint": 0.4616546881846474,
        "distance_wrist_1_joint": 0.2632657461456106,
        "distance_wrist_2_joint": 1.096712661434338,
        "distance_wrist_3_joint": 0.10405675226116706,
        "smoothness": 8.881784232165597e-16,
        "time": 0.47751606999999996,
        "traj_len": 1.6157115140467389,
        "weighted_distance": 2.044166238035813
    },
    "planner": "BFMT",
    "start": {
        "state": {
            "elbow_joint": 1.9715477243005601,
            "shoulder_lift_joint": -1.1394853015351272,
            "shoulder_pan_joint": 0.12281154014795169,
            "wrist_1_joint": -0.7804696478968182,
            "wrist_2_joint": 0.12958648046900423,
            "wrist_3_joint": -3.192491284697111
        }
    },
    "waypoints": [
        {
            "positions": [
                0.12281154014795169,
                -1.1394853015351272,
                1.9715477243005601,
                -0.7804696478968182,
                0.12958648046900423,
                -3.192491284697111
            ]
        },
        {
            "positions": [
                0.05686087040728778,
                -1.172533534974299,
                2.03633289780388,
                -0.818079040203334,
                0.28625971781676685,
                -3.177626034374087
            ]
        },
        {
            "positions": [
                -0.009089799333376128,
                -1.2055817684134709,
                2.1011180713072,
                -0.8556884325098497,
                0.4429329551645294,
                -3.1627607840510636
            ]
        },
        {
            "positions": [
                -0.07504046907404004,
                -1.2386300018526426,
                2.16590324481052,
                -0.8932978248163655,
                0.599606192512292,
                -3.1478955337280397
            ]
        },
        {
            "positions": [
                -0.14099113881470393,
                -1.2716782352918146,
                2.23068841831384,
                -0.9309072171228814,
                0.7562794298600546,
                -3.1330302834050157
            ]
        },
        {
            "positions": [
                -0.20694180855536787,
                -1.3047264687309863,
                2.29547359181716,
                -0.9685166094293971,
                0.9129526672078172,
                -3.1181650330819917
            ]
        },
        {
            "positions": [
                -0.27289247829603175,
                -1.337774702170158,
                2.36025876532048,
                -1.006126001735913,
                1.0696259045555796,
                -3.103299782758968
            ]
        },
        {
            "positions": [
                -0.3388431480366957,
                -1.37082293560933,
                2.4250439388237996,
                -1.0437353940424288,
                1.2262991419033422,
                -3.088434532435944
            ]
        }
    ]
}