{
    "goal": {
        "global_pose": {
            "orientation": {
                "w": 0.7047431468963623,
                "x": -0.7094548344612122,
                "y": 0.0024358443915843964,
                "z": -0.0022348060738295317
            },
            "position": {
                "x": 0.6094750761985779,
                "y": 0.3671506643295288,
                "z": 0.19426114857196808
            }
        },
        "name": "move_to_magneteinheit_A"
    },
    "id": "BFMT_move_to_magneteinheit_A_125",
    "joint_names": [
        "shoulder_pan_joint",
        "shoulder_lift_joint",
        "elbow_joint",
        "wrist_1_joint",
        "wrist_2_joint",
        "wrist_3_joint"
    ],
    "metrics": {
        "cart_traj_len": 3.9916792009730555,
        "distance_elbow_joint": 3.872523344992398,
        "distance_shoulder_lift_joint": 0.11635999592470636,
        "distance_shoulder_pan_joint": 5.497913874294996,
        "distance_wrist_1_joint": 4.764669270120636,
        "distance_wrist_2_joint": 3.4406075364045705,
        "distance_wrist_3_joint": 2.578988135177959,
        "smoothness": 0.31619300921076,
        "time": 0.854416348,
        "traj_len": 4.502339631448883,
        "weighted_distance": 5.799509913242359
    },
    "planner": "BFMT",
    "start": {
        "state": {
            "elbow_joint": -1.919618573717145,
            "shoulder_lift_joint": -1.2443395971678275,
            "shoulder_pan_joint": 2.6996025300909787,
            "wrist_1_joint": -1.548550951253194,
            "wrist_2_joint": -1.5709469090946802,
            "wrist_3_joint": 0.4420197732051276
        }
    },
    "waypoints": [
        {
            "positions": [
                2.6996025300909787,
                -1.2443395971678275,
                -1.919618573717145,
                -1.548550951253194,
                -1.5709469090946802,
                0.4420197732051276
            ]
        },
        {
            "positions": [
                2.560386809543064,
                -1.2405095509395323,
                -1.8939088844005014,
                -1.451779320172401,
                -1.482378194737182,
                0.4828039707218076
            ]
        },
        {
            "positions": [
                2.4211710889951497,
                -1.236679504711237,
                -1.8681991950838577,
                -1.3550076890916078,
                -1.3938094803796837,
                0.5235881682384875
            ]
        },
        {
            "positions": [
                2.281955368447235,
                -1.232849458482942,
                -1.8424895057672142,
                -1.2582360580108147,
                -1.3052407660221854,
                0.5643723657551675
            ]
        },
        {
            "positions": [
                2.1427396478993206,
                -1.2290194122546467,
                -1.8167798164505706,
                -1.1614644269300216,
                -1.2166720516646872,
                0.6051565632718474
            ]
        },
        {
            "positions": [
                2.003523927351406,
                -1.2251893660263515,
                -1.7910701271339269,
                -1.0646927958492285,
                -1.1281033373071887,
                0.6459407607885275
            ]
        },
        {
            "positions": [
                1.8643082068034913,
                -1.2213593197980563,
                -1.7653604378172834,
                -0.9679211647684354,
                -1.0395346229496907,
                0.6867249583052074
            ]
        },
        {
            "positions": [
                1.7250924862555768,
                -1.2175292735697612,
                -1.7396507485006398,
                -0.8711495336876423,
                -0.9509659085921922,
                0.7275091558218874
            ]
        },
        {
            "positions": [
                1.5858767657076622,
                -1.213699227341466,
                -1.713941059183996,
                -0.7743779026068492,
                -0.862397194234694,
                0.7682933533385674
            ]
        },
        {
            "positions": [
                1.4466610451597475,
                -1.2098691811131708,
                -1.6882313698673526,
                -0.677606271526056,
                -0.7738284798771957,
                0.8090775508552474
            ]
        },
        {
            "positions": [
                1.307445324611833,
                -1.2060391348848756,
                -1.662521680550709,
                -0.5808346404452629,
                -0.6852597655196974,
                0.8498617483719273
            ]
        },
        {
            "positions": [
                1.1682296040639184,
                -1.2022090886565804,
                -1.6368119912340655,
                -0.48406300936447,
                -0.5966910511621992,
                0.8906459458886072
            ]
        },
        {
            "positions": [
                1.0290138835160039,
                -1.1983790424282852,
                -1.6111023019174218,
                -0.38729137828367666,
                -0.508122336804701,
                0.9314301434052872
            ]
        },
        {
            "positions": [
                0.8897981629680893,
                -1.19454899619999,
                -1.5853926126007782,
                -0.29051974720288354,
                -0.41955362244720273,
                0.9722143409219672
            ]
        },
        {
            "positions": [
                0.7505824424201746,
                -1.1907189499716946,
                -1.5596829232841345,
                -0.19374811612209042,
                -0.33098490808970427,
                1.0129985384386473
            ]
        },
        {
            "positions": [
                0.61136672187226,
                -1.1868889037433994,
                -1.533973233967491,
                -0.0969764850412973,
                -0.24241619373220602,
                1.0537827359553271
            ]
        },
        {
            "positions": [
                0.47215100132434573,
                -1.1830588575151042,
                -1.5082635446508474,
                -0.00020485396050440308,
                -0.15384747937470777,
                1.0945669334720072
            ]
        },
        {
            "positions": [
                0.332935280776431,
                -1.179228811286809,
                -1.482553855334204,
                0.09656677712028872,
                -0.06527876501720975,
                1.135351130988687
            ]
        },
        {
            "positions": [
                0.19371956022851622,
                -1.1753987650585138,
                -1.4568441660175602,
                0.19333840820108206,
                0.023289949340288718,
                1.176135328505367
            ]
        },
        {
            "positions": [
                0.05450383968060191,
                -1.1715687188302186,
                -1.4311344767009166,
                0.29011003928187495,
                0.11185866369778696,
                1.216919526022047
            ]
        },
        {
            "positions": [
                -0.08471188086731285,
                -1.1677386726019234,
                -1.405424787384273,
                0.3868816703626683,
                0.20042737805528543,
                1.257703723538727
            ]
        },
        {
            "positions": [
                -0.22392760141522716,
                -1.1639086263736282,
                -1.3797150980676296,
                0.4836533014434612,
                0.28899609241278346,
                1.298487921055407
            ]
        },
        {
            "positions": [
                -0.3631433219631419,
                -1.160078580145333,
                -1.3540054087509859,
                0.5804249325242541,
                0.3775648067702817,
                1.3392721185720868
            ]
        },
        {
            "positions": [
                -0.5023590425110567,
                -1.1562485339170379,
                -1.3282957194343423,
                0.6771965636050474,
                0.46613352112778017,
                1.3800563160887669
            ]
        },
        {
            "positions": [
                -0.641574763058971,
                -1.1524184876887427,
                -1.3025860301176988,
                0.7739681946858408,
                0.5547022354852782,
                1.420840513605447
            ]
        },
        {
            "positions": [
                -0.7807904836068853,
                -1.1485884414604475,
                -1.276876340801055,
                0.8707398257666337,
                0.6432709498427762,
                1.4616247111221268
            ]
        },
        {
            "positions": [
                -0.9200062041548001,
                -1.1447583952321523,
                -1.2511666514844115,
                0.967511456847427,
                0.7318396642002747,
                1.5024089086388068
            ]
        },
        {
            "positions": [
                -1.0592219247027148,
                -1.140928349003857,
                -1.225456962167768,
                1.06428308792822,
                0.8204083785577732,
                1.5431931061554869
            ]
        },
        {
            "positions": [
                -1.1984376452506296,
                -1.137098302775562,
                -1.1997472728511243,
                1.1610547190090132,
                0.9089770929152716,
                1.583977303672167
            ]
        },
        {
            "positions": [
                -1.3376533657985434,
                -1.1332682565472667,
                -1.1740375835344807,
                1.2578263500898061,
                0.9975458072727696,
                1.6247615011888468
            ]
        },
        {
            "positions": [
                -1.2741464971722187,
                -1.1330383150123038,
                -1.0380835681079705,
                1.1726832210125175,
                0.9596277716189817,
                1.685467866719031
            ]
        },
        {
            "positions": [
                -1.210639628545894,
                -1.132808373477341,
                -0.9021295526814604,
                1.0875400919352292,
                0.9217097359651937,
                1.7461742322492155
            ]
        },
        {
            "positions": [
                -1.1471327599195693,
                -1.1325784319423782,
                -0.7661755372549504,
                1.0023969628579406,
                0.8837917003114057,
                1.8068805977793998
            ]
        },
        {
            "positions": [
                -1.0836258912932446,
                -1.1323484904074153,
                -0.6302215218284402,
                0.917253833780652,
                0.8458736646576178,
                1.867586963309584
            ]
        },
        {
            "positions": [
                -1.02011902266692,
                -1.1321185488724526,
                -0.49426750640193007,
                0.8321107047033635,
                0.8079556290038299,
                1.9282933288397683
            ]
        },
        {
            "positions": [
                -0.9566121540405952,
                -1.1318886073374896,
                -0.35831349097541987,
                0.746967575626075,
                0.7700375933500418,
                1.9889996943699528
            ]
        },
        {
            "positions": [
                -0.8931052854142705,
                -1.1316586658025267,
                -0.22235947554890967,
                0.6618244465487864,
                0.7321195576962538,
                2.0497060599001373
            ]
        },
        {
            "positions": [
                -0.8295984167879458,
                -1.1314287242675638,
                -0.08640546012239958,
                0.5766813174714979,
                0.694201522042466,
                2.1104124254303214
            ]
        },
        {
            "positions": [
                -0.7660915481616211,
                -1.131198782732601,
                0.04954855530411062,
                0.49153818839420926,
                0.656283486388678,
                2.171118790960506
            ]
        },
        {
            "positions": [
                -0.7025846795352964,
                -1.1309688411976382,
                0.1855025707306206,
                0.40639505931692077,
                0.61836545073489,
                2.2318251564906904
            ]
        },
        {
            "positions": [
                -0.6390778109089716,
                -1.1307388996626753,
                0.3214565861571308,
                0.32125193023963217,
                0.5804474150811021,
                2.2925315220208744
            ]
        },
        {
            "positions": [
                -0.5755709422826469,
                -1.1305089581277126,
                0.457410601583641,
                0.23610880116234378,
                0.542529379427314,
                2.353237887551059
            ]
        },
        {
            "positions": [
                -0.5120640736563223,
                -1.1302790165927497,
                0.593364617010151,
                0.15096567208505518,
                0.5046113437735262,
                2.413944253081243
            ]
        },
        {
            "positions": [
                -0.4485572050299974,
                -1.1300490750577867,
                0.7293186324366614,
                0.06582254300776658,
                0.4666933081197381,
                2.4746506186114274
            ]
        },
        {
            "positions": [
                -0.3850503364036728,
                -1.129819133522824,
                0.8652726478631714,
                -0.019320586069522028,
                0.42877527246595015,
                2.535356984141612
            ]
        },
        {
            "positions": [
                -0.3215434677773481,
                -1.1295891919878611,
                1.0012266632896816,
                -0.10446371514681041,
                0.3908572368121622,
                2.596063349671796
            ]
        },
        {
            "positions": [
                -0.2580365991510234,
                -1.1293592504528982,
                1.1371806787161913,
                -0.1896068442240988,
                0.3529392011583743,
                2.6567697152019805
            ]
        },
        {
            "positions": [
                -0.19452973052469869,
                -1.1291293089179353,
                1.273134694142702,
                -0.2747499733013876,
                0.31502116550458625,
                2.717476080732165
            ]
        },
        {
            "positions": [
                -0.13102286189837398,
                -1.1288993673829726,
                1.4090887095692122,
                -0.359893102378676,
                0.2771031298507983,
                2.778182446262349
            ]
        },
        {
            "positions": [
                -0.06751599327204927,
                -1.1286694258480097,
                1.545042724995722,
                -0.4450362314559646,
                0.2391850941970104,
                2.8388888117925335
            ]
        },
        {
            "positions": [
                -0.00400912464572456,
                -1.1284394843130467,
                1.6809967404222321,
                -0.530179360533253,
                0.20126705854322247,
                2.899595177322718
            ]
        },
        {
            "positions": [
                0.05949774398060015,
                -1.128209542778084,
                1.8169507558487423,
                -0.6153224896105418,
                0.16334902288943443,
                2.9603015428529025
            ]
        },
        {
            "positions": [
                0.12300461260692477,
                -1.1279796012431211,
                1.9529047712752525,
                -0.7004656186878301,
                0.12543098723564644,
                3.0210079083830865
            ]
        }
    ]
}{
    "goal": {
        "global_pose": {
            "orientation": {
                "w": 0.7047431468963623,
                "x": -0.7094548344612122,
                "y": 0.0024358443915843964,
                "z": -0.0022348060738295317
            },
            "position": {
                "x": 0.6094750761985779,
                "y": 0.3671506643295288,
                "z": 0.19426114857196808
            }
        },
        "name": "move_to_magneteinheit_A"
    },
    "id": "BFMT_move_to_magneteinheit_A_125",
    "joint_names": [
        "shoulder_pan_joint",
        "shoulder_lift_joint",
        "elbow_joint",
        "wrist_1_joint",
        "wrist_2_joint",
        "wrist_3_joint"
    ],
    "metrics": {
        "cart_traj_len": 1.211301535593273,
        "distance_elbow_joint": 0.10474823126453603,
        "distance_shoulder_lift_joint": 0.7504222501838438,
        "distance_shoulder_pan_joint": 1.3727432650354776,
        "distance_wrist_1_joint": 0.739573289757198,
        "distance_wrist_2_joint": 1.4502121296202053,
        "distance_wrist_3_joint": 4.242957689479336,
        "smoothness": 0.09709221255829807,
        "time": 0.597014277,
        "traj_len": 2.9428993960617476,
        "weighted_distance": 4.397312549009528
    },
    "planner": "BFMT",
    "start": {
        "state": {
            "elbow_joint": 1.919643534880228,
            "shoulder_lift_joint": -1.8972525353963687,
            "shoulder_pan_joint": -1.1188672234189438,
            "wrist_1_joint": -1.5931878212786155,
            "wrist_2_joint": 1.5706036197970081,
            "wrist_3_joint": 1.118896926603594
        }
    },
    "waypoints": [
        {
            "positions": [
                -1.1188672234189438,
                -1.8972525353963687,
                1.919643534880228,
                -1.5931878212786155,
                1.5706036197970081,
                1.118896926603594
            ]
        },
        {
            "positions": [
                -1.1406820171203638,
                -1.8932527248986075,
                1.9132243426599296,
                -1.5940915740965504,
                1.434738578829615,
                0.9144624681350321
            ]
        },
        {
            "positions": [
                -1.1624968108217835,
                -1.8892529144008465,
                1.9068051504396308,
                -1.5949953269144854,
                1.2988735378622218,
                0.7100280096664702
            ]
        },
        {
            "positions": [
                -1.1843116045232034,
                -1.8852531039030853,
                1.9003859582193323,
                -1.5958990797324204,
                1.1630084968948284,
                0.5055935511979082
            ]
        },
        {
            "positions": [
                -1.1189466603266425,
                -1.8483319629685573,
                1.9046604909495144,
                -1.5590559781672508,
                1.1108776465589272,
                0.32411083549422565
            ]
        },
        {
            "positions": [
                -1.0535817161300816,
                -1.8114108220340293,
                1.9089350236796963,
                -1.522212876602081,
                1.058746796223026,
                0.14262811979054313
            ]
        },
        {
            "positions": [
                -0.9882167719335208,
                -1.7744896810995012,
                1.9132095564098783,
                -1.4853697750369115,
                1.0066159458871244,
                -0.038854595913139334
            ]
        },
        {
            "positions": [
                -0.9228518277369597,
                -1.7375685401649732,
                1.9174840891400604,
                -1.4485266734717417,
                0.9544850955512232,
                -0.2203373116168219
            ]
        },
        {
            "positions": [
                -0.8574868835403989,
                -1.7006473992304452,
                1.9217586218702425,
                -1.4116835719065721,
                0.9023542452153219,
                -0.40182002732050437
            ]
        },
        {
            "positions": [
                -0.7921219393438381,
                -1.6637262582959171,
                1.9260331546004243,
                -1.3748404703414026,
                0.8502233948794207,
                -0.5833027430241868
            ]
        },
        {
            "positions": [
                -0.7267569951472772,
                -1.626805117361389,
                1.9303076873306064,
                -1.3379973687762328,
                0.7980925445435194,
                -0.7647854587278693
            ]
        },
        {
            "positions": [
                -0.6613920509507162,
                -1.589883976426861,
                1.9345822200607885,
                -1.3011542672110632,
                0.7459616942076179,
                -0.946268174431552
            ]
        },
        {
            "positions": [
                -0.5960271067541554,
                -1.552962835492333,
                1.9388567527909704,
                -1.2643111656458934,
                0.6938308438717167,
                -1.1277508901352344
            ]
        },
        {
            "positions": [
                -0.5306621625575945,
                -1.516041694557805,
                1.9431312855211524,
                -1.2274680640807238,
                0.6416999935358154,
                -1.309233605838917
            ]
        },
        {
            "positions": [
                -0.46529721836103355,
                -1.479120553623277,
                1.9474058182513345,
                -1.190624962515554,
                0.589569143199914,
                -1.4907163215425996
            ]
        },
        {
            "positions": [
                -0.39993227416447275,
                -1.4421994126887492,
                1.9516803509815164,
                -1.1537818609503845,
                0.5374382928640128,
                -1.6721990372462818
            ]
        },
        {
            "positions": [
                -0.3345673299679117,
                -1.405278271754221,
                1.9559548837116985,
                -1.116938759385215,
                0.48530744252811153,
                -1.8536817529499643
            ]
        },
        {
            "positions": [
                -0.2692023857713509,
                -1.3683571308196931,
                1.9602294164418805,
                -1.0800956578200451,
                0.4331765921922103,
                -2.0351644686536465
            ]
        },
        {
            "positions": [
                -0.20383744157479,
                -1.331435989885165,
                1.9645039491720624,
                -1.0432525562548756,
                0.3810457418563089,
                -2.2166471843573294
            ]
        },
        {
            "positions": [
                -0.13847249737822898,
                -1.2945148489506368,
                1.9687784819022445,
                -1.006409454689706,
                0.32891489152040754,
                -2.3981299000610123
            ]
        },
        {
            "positions": [
                -0.07310755318166828,
                -1.257593708016109,
                1.9730530146324265,
                -0.9695663531245363,
                0.2767840411845063,
                -2.5796126157646944
            ]
        },
        {
            "positions": [
                -0.007742608985107369,
                -1.220672567081581,
                1.9773275473626086,
                -0.9327232515593665,
                0.22465319084860502,
                -2.7610953314683773
            ]
        },
        {
            "positions": [
                0.057622335211453546,
                -1.183751426147053,
                1.9816020800927905,
                -0.895880149994197,
                0.17252234051270376,
                -2.9425780471720593
            ]
        },
        {
            "positions": [
                0.12298727940801449,
                -1.146830285212525,
                1.9858766128229726,
                -0.8590370484290273,
                0.12039149017680242,
                -3.1240607628757417
            ]
        }
    ]
}