{
    "goal": {
        "global_pose": {
            "orientation": {
                "w": 0.5084816217422485,
                "x": -0.49083608388900757,
                "y": 0.5182115435600281,
                "z": -0.4816462993621826
            },
            "position": {
                "x": 0.5540239810943604,
                "y": 0.030875300988554955,
                "z": 0.16403168439865112
            }
        },
        "name": "move_to_storage_A"
    },
    "id": "BFMT_move_to_storage_A_79",
    "joint_names": [
        "shoulder_pan_joint",
        "shoulder_lift_joint",
        "elbow_joint",
        "wrist_1_joint",
        "wrist_2_joint",
        "wrist_3_joint"
    ],
    "metrics": {
        "cart_traj_len": 0.3533574853028826,
        "distance_elbow_joint": 0.44826724156922904,
        "distance_shoulder_lift_joint": 0.2337942403483051,
        "distance_shoulder_pan_joint": 0.4632412991011799,
        "distance_wrist_1_joint": 0.2376371487855472,
        "distance_wrist_2_joint": 1.0936707017159613,
        "distance_wrist_3_joint": 0.08783302939844573,
        "smoothness": 4.440892133664971e-16,
        "time": 0.46089583,
        "traj_len": 1.6013880419556867,
        "weighted_distance": 2.017775401331146
    },
    "planner": "BFMT",
    "start": {
        "state": {
            "elbow_joint": 1.9715477243005601,
            "shoulder_lift_joint": -1.1394853015351272,
            "shoulder_pan_joint": 0.12281154014795169,
            "wrist_1_joint": -0.7804696478968182,
            "wrist_2_joint": 0.12958648046900423,
            "wrist_3_joint": -3.192491284697111
        }
    },
    "waypoints": [
        {
            "positions": [
                0.12281154014795169,
                -1.1394853015351272,
                1.9715477243005601,
                -0.7804696478968182,
                0.12958648046900423,
                -3.192491284697111
            ]
        },
        {
            "positions": [
                0.056634211704925996,
                -1.1728844787277422,
                2.035585901667593,
                -0.8144178120090392,
                0.285825152142713,
                -3.1799437090687617
            ]
        },
        {
            "positions": [
                -0.009543116738099697,
                -1.2062836559203571,
                2.0996240790346254,
                -0.8483659761212602,
                0.44206382381642173,
                -3.1673961334404126
            ]
        },
        {
            "positions": [
                -0.0757204451811254,
                -1.2396828331129721,
                2.163662256401658,
                -0.8823141402334812,
                0.5983024954901305,
                -3.154848557812063
            ]
        },
        {
            "positions": [
                -0.14189777362415107,
                -1.273082010305587,
                2.2277004337686908,
                -0.9162623043457023,
                0.7545411671638392,
                -3.1423009821837136
            ]
        },
        {
            "positions": [
                -0.20807510206717678,
                -1.3064811874982023,
                2.291738611135724,
                -0.9502104684579233,
                0.910779838837548,
                -3.129753406555364
            ]
        },
        {
            "positions": [
                -0.2742524305102025,
                -1.3398803646908173,
                2.3557767885027565,
                -0.9841586325701444,
                1.0670185105112568,
                -3.117205830927015
            ]
        },
        {
            "positions": [
                -0.3404297589532282,
                -1.3732795418834323,
                2.419814965869789,
                -1.0181067966823654,
                1.2232571821849656,
                -3.1046582552986655
            ]
        }
    ]
}