{
    "goal": {
        "global_pose": {
            "orientation": {
                "w": 0.7047431468963623,
                "x": -0.7094548344612122,
                "y": 0.0024358443915843964,
                "z": -0.0022348060738295317
            },
            "position": {
                "x": 0.6094750761985779,
                "y": 0.3671506643295288,
                "z": 0.19426114857196808
            }
        },
        "name": "move_to_magneteinheit_A"
    },
    "id": "BFMT_move_to_magneteinheit_A_106",
    "joint_names": [
        "shoulder_pan_joint",
        "shoulder_lift_joint",
        "elbow_joint",
        "wrist_1_joint",
        "wrist_2_joint",
        "wrist_3_joint"
    ],
    "metrics": {
        "cart_traj_len": 2.961074536959195,
        "distance_elbow_joint": 4.146305550156132,
        "distance_shoulder_lift_joint": 0.4687061918513964,
        "distance_shoulder_pan_joint": 2.9726981703170843,
        "distance_wrist_1_joint": 3.4642796646733016,
        "distance_wrist_2_joint": 1.4393592802140542,
        "distance_wrist_3_joint": 1.3479809420056126,
        "smoothness": 0.33866510117581133,
        "time": 1.1076972340000002,
        "traj_len": 3.7201249709139583,
        "weighted_distance": 4.630219285100453
    },
    "planner": "BFMT",
    "start": {
        "state": {
            "elbow_joint": -1.919618573717145,
            "shoulder_lift_joint": -1.2443395971678275,
            "shoulder_pan_joint": 2.6996025300909787,
            "wrist_1_joint": -1.548550951253194,
            "wrist_2_joint": -1.5709469090946802,
            "wrist_3_joint": 0.4420197732051276
        }
    },
    "waypoints": [
        {
            "positions": [
                2.6996025300909787,
                -1.2443395971678275,
                -1.919618573717145,
                -1.548550951253194,
                -1.5709469090946802,
                0.4420197732051276
            ]
        },
        {
            "positions": [
                2.594260544194368,
                -1.2439559460713976,
                -1.8152746676556715,
                -1.4229767876231079,
                -1.5302083046003991,
                0.4225405305646463
            ]
        },
        {
            "positions": [
                2.4889185582977573,
                -1.2435722949749677,
                -1.710930761594198,
                -1.2974026239930214,
                -1.489469700106118,
                0.40306128792416507
            ]
        },
        {
            "positions": [
                2.3835765724011466,
                -1.2431886438785378,
                -1.6065868555327245,
                -1.171828460362935,
                -1.4487310956118369,
                0.3835820452836838
            ]
        },
        {
            "positions": [
                2.278234586504536,
                -1.2428049927821079,
                -1.502242949471251,
                -1.0462542967328488,
                -1.4079924911175559,
                0.3641028026432025
            ]
        },
        {
            "positions": [
                2.172892600607925,
                -1.242421341685678,
                -1.3978990434097776,
                -0.9206801331027624,
                -1.3672538866232746,
                0.3446235600027212
            ]
        },
        {
            "positions": [
                2.0675506147113145,
                -1.242037690589248,
                -1.293555137348304,
                -0.7951059694726761,
                -1.3265152821289936,
                0.32514431736224
            ]
        },
        {
            "positions": [
                1.9622086288147036,
                -1.2416540394928182,
                -1.1892112312868306,
                -0.6695318058425896,
                -1.2857766776347126,
                0.3056650747217587
            ]
        },
        {
            "positions": [
                1.8568666429180931,
                -1.2412703883963883,
                -1.0848673252253571,
                -0.5439576422125034,
                -1.2450380731404316,
                0.28618583208127746
            ]
        },
        {
            "positions": [
                1.7515246570214822,
                -1.2408867372999584,
                -0.9805234191638836,
                -0.4183834785824172,
                -1.2042994686461506,
                0.26670658944079617
            ]
        },
        {
            "positions": [
                1.6461826711248715,
                -1.2405030862035284,
                -0.8761795131024102,
                -0.29280931495233076,
                -1.1635608641518693,
                0.24722734680031488
            ]
        },
        {
            "positions": [
                1.5408406852282608,
                -1.2401194351070985,
                -0.7718356070409367,
                -0.16723515132224454,
                -1.1228222596575883,
                0.22774810415983365
            ]
        },
        {
            "positions": [
                1.43549869933165,
                -1.2397357840106684,
                -0.6674917009794632,
                -0.04166098769215809,
                -1.082083655163307,
                0.20826886151935237
            ]
        },
        {
            "positions": [
                1.3301567134350394,
                -1.2393521329142385,
                -0.5631477949179897,
                0.08391317593792813,
                -1.041345050669026,
                0.18878961887887113
            ]
        },
        {
            "positions": [
                1.2248147275384285,
                -1.2389684818178086,
                -0.45880388885651624,
                0.2094873395680148,
                -1.000606446174745,
                0.1693103762383898
            ]
        },
        {
            "positions": [
                1.119472741641818,
                -1.2385848307213787,
                -0.35445998279504276,
                0.335061503198101,
                -0.9598678416804639,
                0.14983113359790856
            ]
        },
        {
            "positions": [
                1.0141307557452073,
                -1.2382011796249488,
                -0.2501160767335693,
                0.46063566682818724,
                -0.9191292371861829,
                0.13035189095742733
            ]
        },
        {
            "positions": [
                0.9087887698485964,
                -1.237817528528519,
                -0.1457721706720958,
                0.5862098304582739,
                -0.8783906326919018,
                0.11087264831694599
            ]
        },
        {
            "positions": [
                0.8034467839519857,
                -1.237433877432089,
                -0.04142826461062232,
                0.7117839940883597,
                -0.8376520281976207,
                0.09139340567646476
            ]
        },
        {
            "positions": [
                0.698104798055375,
                -1.237050226335659,
                0.06291564145085116,
                0.8373581577184459,
                -0.7969134237033396,
                0.07191416303598352
            ]
        },
        {
            "positions": [
                0.5927628121587643,
                -1.2366665752392292,
                0.16725954751232464,
                0.9629323213485326,
                -0.7561748192090585,
                0.05243492039550218
            ]
        },
        {
            "positions": [
                0.48742082626215355,
                -1.2362829241427993,
                0.2716034535737981,
                1.0885064849786188,
                -0.7154362147147775,
                0.03295567775502095
            ]
        },
        {
            "positions": [
                0.38207884036554285,
                -1.2358992730463694,
                0.3759473596352716,
                1.214080648608705,
                -0.6746976102204963,
                0.01347643511453972
            ]
        },
        {
            "positions": [
                0.27673685446893215,
                -1.2355156219499395,
                0.4802912656967451,
                1.3396548122387917,
                -0.6339590057262152,
                -0.0060028075259416225
            ]
        },
        {
            "positions": [
                0.1713948685723216,
                -1.2351319708535096,
                0.5846351717582186,
                1.4652289758688781,
                -0.5932204012319342,
                -0.025482050166422854
            ]
        },
        {
            "positions": [
                0.14056281301214207,
                -1.220491779212552,
                0.775178078658933,
                1.4817420555618082,
                -0.5545080536462601,
                0.03160188247687132
            ]
        },
        {
            "positions": [
                0.10973075745196254,
                -1.2058515875715945,
                0.9657209855596474,
                1.4982551352547382,
                -0.5157957060605859,
                0.08868581512016549
            ]
        },
        {
            "positions": [
                0.078898701891783,
                -1.1912113959306367,
                1.1562638924603619,
                1.5147682149476682,
                -0.4770833584749118,
                0.14576974776345966
            ]
        },
        {
            "positions": [
                0.04806664633160346,
                -1.1765712042896792,
                1.3468067993610764,
                1.5312812946405985,
                -0.4383710108892376,
                0.20285368040675383
            ]
        },
        {
            "positions": [
                0.01723459077142392,
                -1.1619310126487217,
                1.5373497062617907,
                1.5477943743335285,
                -0.3996586633035635,
                0.259937613050048
            ]
        },
        {
            "positions": [
                -0.01359746478875562,
                -1.147290821007764,
                1.7278926131625052,
                1.5643074540264585,
                -0.3609463157178893,
                0.3170215456933422
            ]
        },
        {
            "positions": [
                -0.04442952034893516,
                -1.1326506293668064,
                1.9184355200632195,
                1.5808205337193886,
                -0.32223396813221516,
                0.3741054783366364
            ]
        },
        {
            "positions": [
                -0.0752615759091147,
                -1.1180104377258488,
                2.108978426963934,
                1.5973336134123186,
                -0.283521620546541,
                0.4311894109799305
            ]
        },
        {
            "positions": [
                -0.025803059829867303,
                -1.0324161796234943,
                2.079551289595171,
                1.6769323884142655,
                -0.2455381226300622,
                0.3252374966080033
            ]
        },
        {
            "positions": [
                0.02365545624938009,
                -0.94682192152114,
                2.0501241522264078,
                1.7565311634162124,
                -0.20755462471358335,
                0.21928558223607597
            ]
        },
        {
            "positions": [
                0.07311397232862749,
                -0.8612276634187855,
                2.0206970148576446,
                1.8361299384181595,
                -0.1695711267971045,
                0.11333366786414872
            ]
        },
        {
            "positions": [
                0.12257248840787488,
                -0.7756334053164311,
                1.9912698774888815,
                1.9157287134201064,
                -0.1315876288806257,
                0.007381753492221408
            ]
        }
    ]
}{
    "goal": {
        "global_pose": {
            "orientation": {
                "w": 0.7047431468963623,
                "x": -0.7094548344612122,
                "y": 0.0024358443915843964,
                "z": -0.0022348060738295317
            },
            "position": {
                "x": 0.6094750761985779,
                "y": 0.3671506643295288,
                "z": 0.19426114857196808
            }
        },
        "name": "move_to_magneteinheit_A"
    },
    "id": "BFMT_move_to_magneteinheit_A_106",
    "joint_names": [
        "shoulder_pan_joint",
        "shoulder_lift_joint",
        "elbow_joint",
        "wrist_1_joint",
        "wrist_2_joint",
        "wrist_3_joint"
    ],
    "metrics": {
        "cart_traj_len": 1.2505362412241054,
        "distance_elbow_joint": 0.06999865897523971,
        "distance_shoulder_lift_joint": 1.1219971072486714,
        "distance_shoulder_pan_joint": 1.241980126456378,
        "distance_wrist_1_joint": 3.5065584750577456,
        "distance_wrist_2_joint": 1.6923965375358048,
        "distance_wrist_3_joint": 1.1008614091487159,
        "smoothness": 7.401486889441618e-17,
        "time": 0.7214197859999999,
        "traj_len": 2.9552990228439753,
        "weighted_distance": 4.016773598961428
    },
    "planner": "BFMT",
    "start": {
        "state": {
            "elbow_joint": 1.919643534880228,
            "shoulder_lift_joint": -1.8972525353963687,
            "shoulder_pan_joint": -1.1188672234189438,
            "wrist_1_joint": -1.5931878212786155,
            "wrist_2_joint": 1.5706036197970081,
            "wrist_3_joint": 1.118896926603594
        }
    },
    "waypoints": [
        {
            "positions": [
                -1.1188672234189438,
                -1.8972525353963687,
                1.919643534880228,
                -1.5931878212786155,
                1.5706036197970081,
                1.118896926603594
            ]
        },
        {
            "positions": [
                -1.0648680874860579,
                -1.8484700524725135,
                1.9226869548356733,
                -1.44072875714567,
                1.4970211616432776,
                1.071033387075389
            ]
        },
        {
            "positions": [
                -1.010868951553172,
                -1.7996875695486583,
                1.9257303747911185,
                -1.2882696930127246,
                1.4234387034895468,
                1.023169847547184
            ]
        },
        {
            "positions": [
                -0.9568698156202858,
                -1.7509050866248028,
                1.9287737947465637,
                -1.1358106288797791,
                1.3498562453358163,
                0.9753063080189789
            ]
        },
        {
            "positions": [
                -0.9028706796873999,
                -1.7021226037009476,
                1.931817214702009,
                -0.9833515647468336,
                1.2762737871820855,
                0.9274427684907738
            ]
        },
        {
            "positions": [
                -0.8488715437545139,
                -1.6533401207770924,
                1.9348606346574542,
                -0.8308925006138882,
                1.202691329028355,
                0.8795792289625688
            ]
        },
        {
            "positions": [
                -0.7948724078216278,
                -1.6045576378532371,
                1.9379040546128994,
                -0.6784334364809427,
                1.1291088708746244,
                0.8317156894343638
            ]
        },
        {
            "positions": [
                -0.7408732718887419,
                -1.555775154929382,
                1.9409474745683446,
                -0.5259743723479973,
                1.0555264127208936,
                0.7838521499061587
            ]
        },
        {
            "positions": [
                -0.6868741359558559,
                -1.5069926720055264,
                1.9439908945237898,
                -0.37351530821505174,
                0.981943954567163,
                0.7359886103779536
            ]
        },
        {
            "positions": [
                -0.6328750000229699,
                -1.4582101890816712,
                1.947034314479235,
                -0.22105624408210622,
                0.9083614964134323,
                0.6881250708497486
            ]
        },
        {
            "positions": [
                -0.578875864090084,
                -1.409427706157816,
                1.9500777344346802,
                -0.06859717994916092,
                0.8347790382597017,
                0.6402615313215436
            ]
        },
        {
            "positions": [
                -0.5248767281571979,
                -1.3606452232339605,
                1.9531211543901255,
                0.0838618841837846,
                0.761196580105971,
                0.5923979917933385
            ]
        },
        {
            "positions": [
                -0.4708775922243119,
                -1.3118627403101053,
                1.9561645743455705,
                0.23632094831673012,
                0.6876141219522405,
                0.5445344522651335
            ]
        },
        {
            "positions": [
                -0.41687845629142595,
                -1.26308025738625,
                1.9592079943010157,
                0.3887800124496754,
                0.6140316637985098,
                0.49667091273692854
            ]
        },
        {
            "positions": [
                -0.36287932035853987,
                -1.2142977744623948,
                1.9622514142564609,
                0.5412390765826209,
                0.5404492056447792,
                0.44880737320872344
            ]
        },
        {
            "positions": [
                -0.3088801844256539,
                -1.1655152915385396,
                1.965294834211906,
                0.6936981407155665,
                0.4668667474910484,
                0.40094383368051834
            ]
        },
        {
            "positions": [
                -0.25488104849276794,
                -1.1167328086146844,
                1.9683382541673513,
                0.846157204848512,
                0.39328428933731785,
                0.35308029415231335
            ]
        },
        {
            "positions": [
                -0.20088191255988197,
                -1.0679503256908291,
                1.9713816741227965,
                0.9986162689814571,
                0.3197018311835873,
                0.30521675462410836
            ]
        },
        {
            "positions": [
                -0.1468827766269959,
                -1.0191678427669737,
                1.9744250940782417,
                1.151075333114403,
                0.24611937302985654,
                0.25735321509590325
            ]
        },
        {
            "positions": [
                -0.09288364069410981,
                -0.9703853598431185,
                1.977468514033687,
                1.3035343972473485,
                0.172536914876126,
                0.20948967556769826
            ]
        },
        {
            "positions": [
                -0.03888450476122407,
                -0.9216028769192632,
                1.9805119339891322,
                1.4559934613802936,
                0.09895445672239522,
                0.16162613603949327
            ]
        },
        {
            "positions": [
                0.015114631171661896,
                -0.872820393995408,
                1.9835553539445774,
                1.6084525255132391,
                0.025371998568664678,
                0.11376259651128828
            ]
        },
        {
            "positions": [
                0.06911376710454809,
                -0.8240379110715526,
                1.9865987739000226,
                1.7609115896461847,
                -0.04821045958506609,
                0.06589905698308307
            ]
        },
        {
            "positions": [
                0.12311290303743407,
                -0.7752554281476973,
                1.9896421938554678,
                1.9133706537791302,
                -0.12179291773879657,
                0.01803551745487817
            ]
        }
    ]
}