{
    "goal": {
        "global_pose": {
            "orientation": {
                "w": 0.7047431468963623,
                "x": -0.7094548344612122,
                "y": 0.0024358443915843964,
                "z": -0.0022348060738295317
            },
            "position": {
                "x": 0.6094750761985779,
                "y": 0.3671506643295288,
                "z": 0.19426114857196808
            }
        },
        "name": "move_to_magneteinheit_A"
    },
    "id": "BFMT_move_to_magneteinheit_A_103",
    "joint_names": [
        "shoulder_pan_joint",
        "shoulder_lift_joint",
        "elbow_joint",
        "wrist_1_joint",
        "wrist_2_joint",
        "wrist_3_joint"
    ],
    "metrics": {
        "cart_traj_len": 3.2140977803458246,
        "distance_elbow_joint": 3.91407778472318,
        "distance_shoulder_lift_joint": 0.46659628389485686,
        "distance_shoulder_pan_joint": 3.086820063170629,
        "distance_wrist_1_joint": 3.797684127343202,
        "distance_wrist_2_joint": 1.4375048959297083,
        "distance_wrist_3_joint": 0.5493918658811797,
        "smoothness": 0.31745048324528535,
        "time": 0.8890352300000001,
        "traj_len": 3.6403399595288843,
        "weighted_distance": 4.425612700630053
    },
    "planner": "BFMT",
    "start": {
        "state": {
            "elbow_joint": -1.919618573717145,
            "shoulder_lift_joint": -1.2443395971678275,
            "shoulder_pan_joint": 2.6996025300909787,
            "wrist_1_joint": -1.548550951253194,
            "wrist_2_joint": -1.5709469090946802,
            "wrist_3_joint": 0.4420197732051276
        }
    },
    "waypoints": [
        {
            "positions": [
                2.6996025300909787,
                -1.2443395971678275,
                -1.919618573717145,
                -1.548550951253194,
                -1.5709469090946802,
                0.4420197732051276
            ]
        },
        {
            "positions": [
                2.4928533458934354,
                -1.2183237440058525,
                -1.915331880908869,
                -1.4535478487031004,
                -1.5323551227928052,
                0.4315662536295403
            ]
        },
        {
            "positions": [
                2.2861041616958917,
                -1.1923078908438776,
                -1.9110451881005934,
                -1.3585447461530067,
                -1.4937633364909304,
                0.42111273405395305
            ]
        },
        {
            "positions": [
                2.0793549774983484,
                -1.1662920376819026,
                -1.9067584952923178,
                -1.2635416436029132,
                -1.4551715501890556,
                0.4106592144783658
            ]
        },
        {
            "positions": [
                1.8726057933008047,
                -1.1402761845199274,
                -1.902471802484042,
                -1.1685385410528193,
                -1.4165797638871807,
                0.40020569490277846
            ]
        },
        {
            "positions": [
                1.6658566091032614,
                -1.1142603313579524,
                -1.898185109675766,
                -1.0735354385027258,
                -1.3779879775853057,
                0.3897521753271912
            ]
        },
        {
            "positions": [
                1.4591074249057179,
                -1.0882444781959775,
                -1.8938984168674904,
                -0.9785323359526321,
                -1.339396191283431,
                0.37929865575160393
            ]
        },
        {
            "positions": [
                1.2523582407081744,
                -1.0622286250340025,
                -1.8896117240592147,
                -0.8835292334025384,
                -1.3008044049815561,
                0.36884513617601666
            ]
        },
        {
            "positions": [
                1.0456090565106309,
                -1.0362127718720275,
                -1.8853250312509389,
                -0.7885261308524447,
                -1.2622126186796812,
                0.3583916166004294
            ]
        },
        {
            "positions": [
                0.9965444148569503,
                -1.027897047319012,
                -1.734169919800497,
                -0.668661547840809,
                -1.2244534473990527,
                0.3411598288863506
            ]
        },
        {
            "positions": [
                0.9474797732032698,
                -1.0195813227659964,
                -1.5830148083500553,
                -0.5487969648291733,
                -1.1866942761184243,
                0.3239280411722718
            ]
        },
        {
            "positions": [
                0.8984151315495893,
                -1.011265598212981,
                -1.4318596968996133,
                -0.42893238181753746,
                -1.1489351048377958,
                0.30669625345819307
            ]
        },
        {
            "positions": [
                0.8493504898959088,
                -1.0029498736599656,
                -1.2807045854491714,
                -0.30906779880590174,
                -1.1111759335571674,
                0.2894644657441143
            ]
        },
        {
            "positions": [
                0.8002858482422283,
                -0.99463414910695,
                -1.1295494739987295,
                -0.1892032157942659,
                -1.073416762276539,
                0.2722326780300355
            ]
        },
        {
            "positions": [
                0.7512212065885477,
                -0.9863184245539345,
                -0.9783943625482877,
                -0.0693386327826302,
                -1.0356575909959105,
                0.2550008903159567
            ]
        },
        {
            "positions": [
                0.7021565649348673,
                -0.978002700000919,
                -0.8272392510978457,
                0.050525950229005634,
                -0.997898419715282,
                0.2377691026018779
            ]
        },
        {
            "positions": [
                0.6530919232811868,
                -0.9696869754479035,
                -0.676084139647404,
                0.17039053324064124,
                -0.9601392484346536,
                0.22053731488779912
            ]
        },
        {
            "positions": [
                0.6040272816275063,
                -0.9613712508948881,
                -0.5249290281969621,
                0.29025511625227707,
                -0.9223800771540251,
                0.20330552717372033
            ]
        },
        {
            "positions": [
                0.5549626399738257,
                -0.9530555263418725,
                -0.37377391674652016,
                0.4101196992639129,
                -0.8846209058733967,
                0.18607373945964154
            ]
        },
        {
            "positions": [
                0.5058979983201453,
                -0.9447398017888571,
                -0.22261880529607847,
                0.5299842822755485,
                -0.8468617345927683,
                0.16884195174556277
            ]
        },
        {
            "positions": [
                0.45683335666646474,
                -0.9364240772358415,
                -0.07146369384563656,
                0.6498488652871843,
                -0.8091025633121398,
                0.15161016403148397
            ]
        },
        {
            "positions": [
                0.4077687150127842,
                -0.928108352682826,
                0.07969141760480514,
                0.7697134482988199,
                -0.7713433920315114,
                0.1343783763174052
            ]
        },
        {
            "positions": [
                0.3587040733591037,
                -0.9197926281298106,
                0.2308465290552475,
                0.889578031310456,
                -0.7335842207508829,
                0.11714658860332638
            ]
        },
        {
            "positions": [
                0.3096394317054232,
                -0.911476903576795,
                0.38200164050568897,
                1.0094426143220916,
                -0.6958250494702545,
                0.09991480088924765
            ]
        },
        {
            "positions": [
                0.2605747900517428,
                -0.9031611790237796,
                0.5331567519561309,
                1.1293071973337272,
                -0.658065878189626,
                0.08268301317516885
            ]
        },
        {
            "positions": [
                0.21151014839806215,
                -0.894845454470764,
                0.6843118634065728,
                1.2491717803453632,
                -0.6203067069089976,
                0.06545122546109006
            ]
        },
        {
            "positions": [
                0.16244550674438174,
                -0.8865297299177486,
                0.8354669748570147,
                1.3690363633569989,
                -0.5825475356283691,
                0.04821943774701126
            ]
        },
        {
            "positions": [
                0.11338086509070122,
                -0.878214005364733,
                0.9866220863074562,
                1.4889009463686345,
                -0.5447883643477407,
                0.030987650032932468
            ]
        },
        {
            "positions": [
                0.06431622343702059,
                -0.8698982808117175,
                1.1377771977578985,
                1.6087655293802705,
                -0.5070291930671122,
                0.013755862318853673
            ]
        },
        {
            "positions": [
                0.015251581783340074,
                -0.8615825562587021,
                1.28893230920834,
                1.7286301123919061,
                -0.4692700217864838,
                -0.0034759253952251212
            ]
        },
        {
            "positions": [
                -0.033813059870340334,
                -0.8532668317056865,
                1.440087420658782,
                1.8484946954035417,
                -0.43151085050585536,
                -0.02070771310930386
            ]
        },
        {
            "positions": [
                -0.08287770152402096,
                -0.844951107152671,
                1.5912425321092238,
                1.9683592784151778,
                -0.3937516792252269,
                -0.037939500823382655
            ]
        },
        {
            "positions": [
                -0.13194234317770143,
                -0.8366353825996555,
                1.7423976435596658,
                2.088223861426813,
                -0.3559925079445985,
                -0.05517128853746142
            ]
        },
        {
            "positions": [
                -0.04685061321038492,
                -0.8170046928240939,
                1.8264181660417889,
                2.0345874232057484,
                -0.281809009684723,
                -0.037771020491264566
            ]
        },
        {
            "positions": [
                0.03824111675693159,
                -0.7973740030485322,
                1.910438688523912,
                1.9809509849846834,
                -0.20762551142484742,
                -0.02037075244506771
            ]
        },
        {
            "positions": [
                0.12333284672424813,
                -0.7777433132729706,
                1.994459211006035,
                1.9273145467636184,
                -0.13344201316497184,
                -0.0029704843988708545
            ]
        }
    ]
}{
    "goal": {
        "global_pose": {
            "orientation": {
                "w": 0.7047431468963623,
                "x": -0.7094548344612122,
                "y": 0.0024358443915843964,
                "z": -0.0022348060738295317
            },
            "position": {
                "x": 0.6094750761985779,
                "y": 0.3671506643295288,
                "z": 0.19426114857196808
            }
        },
        "name": "move_to_magneteinheit_A"
    },
    "id": "BFMT_move_to_magneteinheit_A_103",
    "joint_names": [
        "shoulder_pan_joint",
        "shoulder_lift_joint",
        "elbow_joint",
        "wrist_1_joint",
        "wrist_2_joint",
        "wrist_3_joint"
    ],
    "metrics": {
        "cart_traj_len": 1.6403529423599477,
        "distance_elbow_joint": 0.21125090105554034,
        "distance_shoulder_lift_joint": 0.7485500663656628,
        "distance_shoulder_pan_joint": 1.6090305444420958,
        "distance_wrist_1_joint": 1.0219768210648847,
        "distance_wrist_2_joint": 1.4407029535493994,
        "distance_wrist_3_joint": 4.233272384371027,
        "smoothness": 0.12833582582772832,
        "time": 0.593914859,
        "traj_len": 3.0438107153449288,
        "weighted_distance": 4.493774383990027
    },
    "planner": "BFMT",
    "start": {
        "state": {
            "elbow_joint": 1.919643534880228,
            "shoulder_lift_joint": -1.8972525353963687,
            "shoulder_pan_joint": -1.1188672234189438,
            "wrist_1_joint": -1.5931878212786155,
            "wrist_2_joint": 1.5706036197970081,
            "wrist_3_joint": 1.118896926603594
        }
    },
    "waypoints": [
        {
            "positions": [
                -1.1188672234189438,
                -1.8972525353963687,
                1.919643534880228,
                -1.5931878212786155,
                1.5706036197970081,
                1.118896926603594
            ]
        },
        {
            "positions": [
                -1.1372062908065412,
                -1.8463273479020645,
                1.9337633108484056,
                -1.6078715189400006,
                1.4826516236164788,
                0.9213224749773508
            ]
        },
        {
            "positions": [
                -1.1555453581941386,
                -1.7954021604077601,
                1.9478830868165828,
                -1.622555216601386,
                1.3946996274359496,
                0.7237480233511076
            ]
        },
        {
            "positions": [
                -1.173884425581736,
                -1.7444769729134557,
                1.96200286278476,
                -1.637238914262771,
                1.3067476312554205,
                0.5261735717248645
            ]
        },
        {
            "positions": [
                -1.1922234929693334,
                -1.6935517854191515,
                1.9761226387529376,
                -1.6519226119241561,
                1.2187956350748912,
                0.32859912009862124
            ]
        },
        {
            "positions": [
                -1.210562560356931,
                -1.6426265979248473,
                1.990242414721115,
                -1.6666063095855415,
                1.130843638894362,
                0.13102466847237815
            ]
        },
        {
            "positions": [
                -1.2289016277445284,
                -1.591701410430543,
                2.0043621906892923,
                -1.6812900072469266,
                1.0428916427138328,
                -0.06654978315386506
            ]
        },
        {
            "positions": [
                -1.2472406951321258,
                -1.5407762229362385,
                2.0184819666574696,
                -1.6959737049083117,
                0.9549396465333034,
                -0.26412423478010805
            ]
        },
        {
            "positions": [
                -1.2655797625197232,
                -1.4898510354419343,
                2.032601742625647,
                -1.7106574025696968,
                0.8669876503527741,
                -0.4616986864063515
            ]
        },
        {
            "positions": [
                -1.2839188299073205,
                -1.4389258479476301,
                2.0467215185938246,
                -1.7253411002310821,
                0.7790356541722449,
                -0.6592731380325945
            ]
        },
        {
            "positions": [
                -1.302257897294918,
                -1.3880006604533257,
                2.060841294562002,
                -1.7400247978924672,
                0.6910836579917157,
                -0.8568475896588377
            ]
        },
        {
            "positions": [
                -1.2004264779687663,
                -1.3709079324945672,
                2.05583749874959,
                -1.6775148090031078,
                0.6509991585814223,
                -1.018099580238023
            ]
        },
        {
            "positions": [
                -1.0985950586426148,
                -1.3538152045358085,
                2.050833702937178,
                -1.6150048201137484,
                0.610914659171129,
                -1.1793515708172084
            ]
        },
        {
            "positions": [
                -0.9967636393164633,
                -1.33672247657705,
                2.0458299071247663,
                -1.5524948312243887,
                0.5708301597608356,
                -1.3406035613963938
            ]
        },
        {
            "positions": [
                -0.8949322199903118,
                -1.3196297486182915,
                2.040826111312354,
                -1.4899848423350293,
                0.5307456603505423,
                -1.5018555519755792
            ]
        },
        {
            "positions": [
                -0.7931008006641601,
                -1.302537020659533,
                2.035822315499942,
                -1.4274748534456698,
                0.49066116094024886,
                -1.6631075425547646
            ]
        },
        {
            "positions": [
                -0.6912693813380086,
                -1.2854442927007743,
                2.0308185196875304,
                -1.3649648645563102,
                0.45057666152995557,
                -1.82435953313395
            ]
        },
        {
            "positions": [
                -0.589437962011857,
                -1.2683515647420158,
                2.0258147238751185,
                -1.3024548756669507,
                0.41049216211966216,
                -1.9856115237131353
            ]
        },
        {
            "positions": [
                -0.4876065426857056,
                -1.2512588367832573,
                2.0208109280627067,
                -1.2399448867775913,
                0.3704076627093688,
                -2.1468635142923205
            ]
        },
        {
            "positions": [
                -0.3857751233595539,
                -1.2341661088244986,
                2.015807132250295,
                -1.1774348978882316,
                0.3303231632990754,
                -2.3081155048715063
            ]
        },
        {
            "positions": [
                -0.2839437040334023,
                -1.2170733808657401,
                2.010803336437883,
                -1.1149249089988722,
                0.29023866388878206,
                -2.4693674954506912
            ]
        },
        {
            "positions": [
                -0.18211228470725094,
                -1.1999806529069816,
                2.0057995406254707,
                -1.0524149201095128,
                0.25015416447848876,
                -2.630619486029877
            ]
        },
        {
            "positions": [
                -0.08028086538109935,
                -1.1828879249482231,
                2.000795744813059,
                -0.9899049312201533,
                0.2100696650681954,
                -2.791871476609062
            ]
        },
        {
            "positions": [
                0.02155055394505223,
                -1.1657951969894644,
                1.995791949000647,
                -0.9273949423307937,
                0.169985165657902,
                -2.953123467188248
            ]
        },
        {
            "positions": [
                0.12338197327120388,
                -1.148702469030706,
                1.9907881531882352,
                -0.8648849534414342,
                0.12990066624760868,
                -3.1143754577674327
            ]
        }
    ]
}