{
    "goal": {
        "global_pose": {
            "orientation": {
                "w": 0.7047431468963623,
                "x": -0.7094548344612122,
                "y": 0.0024358443915843964,
                "z": -0.0022348060738295317
            },
            "position": {
                "x": 0.6094750761985779,
                "y": 0.3671506643295288,
                "z": 0.19426114857196808
            }
        },
        "name": "move_to_magneteinheit_A"
    },
    "id": "BFMT_move_to_magneteinheit_A_113",
    "joint_names": [
        "shoulder_pan_joint",
        "shoulder_lift_joint",
        "elbow_joint",
        "wrist_1_joint",
        "wrist_2_joint",
        "wrist_3_joint"
    ],
    "metrics": {
        "cart_traj_len": 3.9670902921931983,
        "distance_elbow_joint": 3.908368466472915,
        "distance_shoulder_lift_joint": 0.6470954401932807,
        "distance_shoulder_pan_joint": 2.8716254145816063,
        "distance_wrist_1_joint": 0.6874633439211056,
        "distance_wrist_2_joint": 1.7767636885843885,
        "distance_wrist_3_joint": 3.686446471127175,
        "smoothness": 0.18719069934210206,
        "time": 0.855628234,
        "traj_len": 3.6848015991204295,
        "weighted_distance": 4.838892724543532
    },
    "planner": "BFMT",
    "start": {
        "state": {
            "elbow_joint": -1.919618573717145,
            "shoulder_lift_joint": -1.2443395971678275,
            "shoulder_pan_joint": 2.6996025300909787,
            "wrist_1_joint": -1.548550951253194,
            "wrist_2_joint": -1.5709469090946802,
            "wrist_3_joint": 0.4420197732051276
        }
    },
    "waypoints": [
        {
            "positions": [
                2.6996025300909787,
                -1.2443395971678275,
                -1.919618573717145,
                -1.548550951253194,
                -1.5709469090946802,
                0.4420197732051276
            ]
        },
        {
            "positions": [
                2.605815566213931,
                -1.2433363286336925,
                -1.9006837461021107,
                -1.5436962320819165,
                -1.5140557800006302,
                0.2772637579132514
            ]
        },
        {
            "positions": [
                2.5120286023368834,
                -1.2423330600995572,
                -1.8817489184870764,
                -1.5388415129106392,
                -1.4571646509065805,
                0.11250774262137525
            ]
        },
        {
            "positions": [
                2.4182416384598358,
                -1.241329791565422,
                -1.862814090872042,
                -1.5339867937393619,
                -1.4002735218125308,
                -0.05224827267050092
            ]
        },
        {
            "positions": [
                2.324454674582788,
                -1.240326523031287,
                -1.8438792632570078,
                -1.5291320745680843,
                -1.343382392718481,
                -0.21700428796237708
            ]
        },
        {
            "positions": [
                2.2405562569176327,
                -1.2271926661315358,
                -1.7253829968491432,
                -1.5162327071607573,
                -1.289368336520859,
                -0.32283835656551174
            ]
        },
        {
            "positions": [
                2.156657839252477,
                -1.2140588092317848,
                -1.6068867304412786,
                -1.5033333397534303,
                -1.2353542803232371,
                -0.42867242516864645
            ]
        },
        {
            "positions": [
                2.0727594215873215,
                -1.2009249523320336,
                -1.4883904640334142,
                -1.4904339723461033,
                -1.181340224125615,
                -0.5345064937717812
            ]
        },
        {
            "positions": [
                1.9888610039221661,
                -1.1877910954322823,
                -1.3698941976255496,
                -1.477534604938776,
                -1.1273261679279931,
                -0.6403405623749159
            ]
        },
        {
            "positions": [
                1.9049625862570105,
                -1.1746572385325311,
                -1.251397931217685,
                -1.464635237531449,
                -1.0733121117303712,
                -0.7461746309780506
            ]
        },
        {
            "positions": [
                1.821064168591855,
                -1.1615233816327801,
                -1.1329016648098205,
                -1.451735870124122,
                -1.0192980555327493,
                -0.8520086995811853
            ]
        },
        {
            "positions": [
                1.7371657509266996,
                -1.148389524733029,
                -1.0144053984019559,
                -1.438836502716795,
                -0.9652839993351274,
                -0.95784276818432
            ]
        },
        {
            "positions": [
                1.653267333261544,
                -1.1352556678332777,
                -0.8959091319940914,
                -1.425937135309468,
                -0.9112699431375055,
                -1.0636768367874545
            ]
        },
        {
            "positions": [
                1.5693689155963884,
                -1.1221218109335267,
                -0.7774128655862267,
                -1.413037767902141,
                -0.8572558869398834,
                -1.1695109053905894
            ]
        },
        {
            "positions": [
                1.485470497931233,
                -1.1089879540337755,
                -0.6589165991783621,
                -1.4001384004948139,
                -0.8032418307422615,
                -1.275344973993724
            ]
        },
        {
            "positions": [
                1.4015720802660774,
                -1.0958540971340243,
                -0.5404203327704977,
                -1.387239033087487,
                -0.7492277745446396,
                -1.3811790425968586
            ]
        },
        {
            "positions": [
                1.317673662600922,
                -1.082720240234273,
                -0.42192406636263313,
                -1.3743396656801599,
                -0.6952137183470177,
                -1.4870131111999934
            ]
        },
        {
            "positions": [
                1.2337752449357662,
                -1.069586383334522,
                -0.30342779995476854,
                -1.3614402982728329,
                -0.6411996621493957,
                -1.592847179803128
            ]
        },
        {
            "positions": [
                1.1498768272706108,
                -1.0564525264347708,
                -0.18493153354690395,
                -1.3485409308655059,
                -0.5871856059517738,
                -1.6986812484062628
            ]
        },
        {
            "positions": [
                1.0659784096054554,
                -1.0433186695350196,
                -0.06643526713903936,
                -1.3356415634581789,
                -0.5331715497541519,
                -1.8045153170093975
            ]
        },
        {
            "positions": [
                0.9820799919402998,
                -1.0301848126352686,
                0.052060999268825014,
                -1.3227421960508519,
                -0.47915749355653003,
                -1.910349385612532
            ]
        },
        {
            "positions": [
                0.8981815742751444,
                -1.0170509557355174,
                0.17055726567668938,
                -1.3098428286435249,
                -0.42514343735890814,
                -2.0161834542156667
            ]
        },
        {
            "positions": [
                0.8142831566099886,
                -1.0039170988357662,
                0.2890535320845544,
                -1.2969434612361976,
                -0.371129381161286,
                -2.1220175228188016
            ]
        },
        {
            "positions": [
                0.730384738944833,
                -0.9907832419360151,
                0.407549798492419,
                -1.2840440938288706,
                -0.317115324963664,
                -2.2278515914219366
            ]
        },
        {
            "positions": [
                0.6464863212796776,
                -0.977649385036264,
                0.5260460649002836,
                -1.2711447264215436,
                -0.2631012687660421,
                -2.333685660025071
            ]
        },
        {
            "positions": [
                0.562587903614522,
                -0.9645155281365128,
                0.6445423313081482,
                -1.2582453590142166,
                -0.20908721256842022,
                -2.439519728628206
            ]
        },
        {
            "positions": [
                0.47868948594936667,
                -0.9513816712367615,
                0.7630385977160123,
                -1.2453459916068896,
                -0.15507315637079833,
                -2.5453537972313405
            ]
        },
        {
            "positions": [
                0.3947910682842113,
                -0.9382478143370104,
                0.8815348641238769,
                -1.2324466241995626,
                -0.10105910017317643,
                -2.651187865834475
            ]
        },
        {
            "positions": [
                0.3108926506190559,
                -0.9251139574372593,
                1.0000311305317415,
                -1.2195472567922356,
                -0.047045043975554535,
                -2.75702193443761
            ]
        },
        {
            "positions": [
                0.2269942329539001,
                -0.9119801005375081,
                1.1185273969396066,
                -1.2066478893849084,
                0.006969012222067583,
                -2.862856003040745
            ]
        },
        {
            "positions": [
                0.14309581528874427,
                -0.898846243637757,
                1.2370236633474707,
                -1.1937485219775814,
                0.06098306841968948,
                -2.9686900716438793
            ]
        },
        {
            "positions": [
                0.05919739762358889,
                -0.8857123867380059,
                1.3555199297553353,
                -1.1808491545702544,
                0.11499712461731137,
                -3.0745241402470143
            ]
        },
        {
            "positions": [
                -0.024701020041566657,
                -0.8725785298382547,
                1.4740161961632,
                -1.1679497871629274,
                0.16901118081493335,
                -3.1803582088501487
            ]
        },
        {
            "positions": [
                0.012129446070698671,
                -0.9414121230541816,
                1.6026996203113426,
                -1.0912342422052177,
                0.15980978114623956,
                -3.1643410865821737
            ]
        },
        {
            "positions": [
                0.048959912182964,
                -1.0102457162701086,
                1.731383044459485,
                -1.014518697247508,
                0.15060838147754574,
                -3.1483239643141987
            ]
        },
        {
            "positions": [
                0.08579037829522933,
                -1.0790793094860356,
                1.8600664686076276,
                -0.9378031522897982,
                0.14140698180885192,
                -3.132306842046224
            ]
        },
        {
            "positions": [
                0.12262084440749467,
                -1.1479129027019626,
                1.9887498927557703,
                -0.8610876073320884,
                0.13220558214015812,
                -3.116289719778249
            ]
        }
    ]
}{
    "goal": {
        "global_pose": {
            "orientation": {
                "w": 0.7047431468963623,
                "x": -0.7094548344612122,
                "y": 0.0024358443915843964,
                "z": -0.0022348060738295317
            },
            "position": {
                "x": 0.6094750761985779,
                "y": 0.3671506643295288,
                "z": 0.19426114857196808
            }
        },
        "name": "move_to_magneteinheit_A"
    },
    "id": "BFMT_move_to_magneteinheit_A_113",
    "joint_names": [
        "shoulder_pan_joint",
        "shoulder_lift_joint",
        "elbow_joint",
        "wrist_1_joint",
        "wrist_2_joint",
        "wrist_3_joint"
    ],
    "metrics": {
        "cart_traj_len": 1.1248503937232432,
        "distance_elbow_joint": 0.25562108044549636,
        "distance_shoulder_lift_joint": 0.7478264913457013,
        "distance_shoulder_pan_joint": 1.2407061246789364,
        "distance_wrist_1_joint": 0.7288004193509228,
        "distance_wrist_2_joint": 1.4468497562416327,
        "distance_wrist_3_joint": 4.233385538269974,
        "smoothness": 0.03663926159922439,
        "time": 0.689534154,
        "traj_len": 2.9416304000218423,
        "weighted_distance": 4.392676935817745
    },
    "planner": "BFMT",
    "start": {
        "state": {
            "elbow_joint": 1.919643534880228,
            "shoulder_lift_joint": -1.8972525353963687,
            "shoulder_pan_joint": -1.1188672234189438,
            "wrist_1_joint": -1.5931878212786155,
            "wrist_2_joint": 1.5706036197970081,
            "wrist_3_joint": 1.118896926603594
        }
    },
    "waypoints": [
        {
            "positions": [
                -1.1188672234189438,
                -1.8972525353963687,
                1.919643534880228,
                -1.5931878212786155,
                1.5706036197970081,
                1.118896926603594
            ]
        },
        {
            "positions": [
                -1.0527286419734312,
                -1.8716684119727687,
                1.931293888404547,
                -1.5474504287227284,
                1.4867755833691647,
                0.9741134842414987
            ]
        },
        {
            "positions": [
                -0.9865900605279186,
                -1.8460842885491684,
                1.9429442419288658,
                -1.5017130361668416,
                1.4029475469413215,
                0.8293300418794033
            ]
        },
        {
            "positions": [
                -0.9204514790824061,
                -1.8205001651255683,
                1.9545945954531847,
                -1.4559756436109548,
                1.319119510513478,
                0.6845465995173079
            ]
        },
        {
            "positions": [
                -0.8543128976368934,
                -1.7949160417019683,
                1.9662449489775036,
                -1.4102382510550677,
                1.2352914740856349,
                0.5397631571552126
            ]
        },
        {
            "positions": [
                -0.7881743161913808,
                -1.7693319182783682,
                1.9778953025018224,
                -1.3645008584991807,
                1.1514634376577915,
                0.3949797147931172
            ]
        },
        {
            "positions": [
                -0.7220357347458682,
                -1.743747794854768,
                1.9895456560261413,
                -1.3187634659432939,
                1.067635401229948,
                0.25019627243102194
            ]
        },
        {
            "positions": [
                -0.6558971533003556,
                -1.7181636714311679,
                2.00119600955046,
                -1.273026073387407,
                0.9838073648021048,
                0.10541283006892654
            ]
        },
        {
            "positions": [
                -0.589758571854843,
                -1.6925795480075678,
                2.0128463630747793,
                -1.22728868083152,
                0.8999793283742615,
                -0.03937061229316874
            ]
        },
        {
            "positions": [
                -0.5236199904093303,
                -1.6669954245839675,
                2.024496716599098,
                -1.181551288275633,
                0.8161512919464181,
                -0.18415405465526424
            ]
        },
        {
            "positions": [
                -0.4574814089638177,
                -1.6414113011603675,
                2.036147070123417,
                -1.1358138957197461,
                0.7323232555185748,
                -0.3289374970173595
            ]
        },
        {
            "positions": [
                -0.3913428275183052,
                -1.6158271777367674,
                2.0477974236477356,
                -1.0900765031638593,
                0.6484952190907316,
                -0.4737209393794548
            ]
        },
        {
            "positions": [
                -0.32520424607279264,
                -1.5902430543131674,
                2.0594477771720547,
                -1.0443391106079722,
                0.5646671826628882,
                -0.6185043817415501
            ]
        },
        {
            "positions": [
                -0.25906566462727987,
                -1.564658930889567,
                2.071098130696374,
                -0.9986017180520853,
                0.48083914623504476,
                -0.7632878241036456
            ]
        },
        {
            "positions": [
                -0.1929270831817673,
                -1.539074807465967,
                2.0827484842206925,
                -0.9528643254961984,
                0.3970111098072015,
                -0.9080712664657411
            ]
        },
        {
            "positions": [
                -0.1579530849104607,
                -1.4957805004198226,
                2.0724689140979113,
                -0.9430335562108089,
                0.3666491935569985,
                -1.1532287492658122
            ]
        },
        {
            "positions": [
                -0.12297908663915409,
                -1.4524861933736781,
                2.0621893439751298,
                -0.9332027869254194,
                0.33628727730679553,
                -1.398386232065883
            ]
        },
        {
            "positions": [
                -0.0880050883678475,
                -1.409191886327534,
                2.0519097738523486,
                -0.9233720176400299,
                0.3059253610565925,
                -1.6435437148659542
            ]
        },
        {
            "positions": [
                -0.05303109009654089,
                -1.3658975792813894,
                2.041630203729567,
                -0.9135412483546403,
                0.2755634448063895,
                -1.888701197666025
            ]
        },
        {
            "positions": [
                -0.018057091825234295,
                -1.322603272235245,
                2.031350633606786,
                -0.9037104790692507,
                0.24520152855618652,
                -2.1338586804660964
            ]
        },
        {
            "positions": [
                0.0169169064460723,
                -1.2793089651891005,
                2.0210710634840043,
                -0.8938797097838612,
                0.21483961230598353,
                -2.3790161632661673
            ]
        },
        {
            "positions": [
                0.05189090471737892,
                -1.236014658142956,
                2.010791493361223,
                -0.8840489404984717,
                0.18447769605578054,
                -2.6241736460662386
            ]
        },
        {
            "positions": [
                0.08686490298868552,
                -1.1927203510968118,
                2.0005119232384416,
                -0.8742181712130822,
                0.15411577980557756,
                -2.8693311288663095
            ]
        },
        {
            "positions": [
                0.12183890125999212,
                -1.1494260440506674,
                1.9902323531156605,
                -0.8643874019276927,
                0.12375386355537454,
                -3.1144886116663804
            ]
        }
    ]
}