{
    "goal": {
        "global_pose": {
            "orientation": {
                "w": 0.5084816217422485,
                "x": -0.49083608388900757,
                "y": 0.5182115435600281,
                "z": -0.4816462993621826
            },
            "position": {
                "x": 0.5540239810943604,
                "y": 0.030875300988554955,
                "z": 0.16403168439865112
            }
        },
        "name": "move_to_storage_A"
    },
    "id": "BFMT_move_to_storage_A_136",
    "joint_names": [
        "shoulder_pan_joint",
        "shoulder_lift_joint",
        "elbow_joint",
        "wrist_1_joint",
        "wrist_2_joint",
        "wrist_3_joint"
    ],
    "metrics": {
        "cart_traj_len": 0.35350418140833817,
        "distance_elbow_joint": 0.4501317633892139,
        "distance_shoulder_lift_joint": 0.23594035022404536,
        "distance_shoulder_pan_joint": 0.461405717157937,
        "distance_wrist_1_joint": 0.2388386875206684,
        "distance_wrist_2_joint": 1.1043034520344128,
        "distance_wrist_3_joint": 0.10333006447577331,
        "smoothness": 0.0,
        "time": 0.491874419,
        "traj_len": 1.6105744424900237,
        "weighted_distance": 2.0356208643332083
    },
    "planner": "BFMT",
    "start": {
        "state": {
            "elbow_joint": 1.9715477243005601,
            "shoulder_lift_joint": -1.1394853015351272,
            "shoulder_pan_joint": 0.12281154014795169,
            "wrist_1_joint": -0.7804696478968182,
            "wrist_2_joint": 0.12958648046900423,
            "wrist_3_joint": -3.192491284697111
        }
    },
    "waypoints": [
        {
            "positions": [
                0.12281154014795169,
                -1.1394853015351272,
                1.9715477243005601,
                -0.7804696478968182,
                0.12958648046900423,
                -3.192491284697111
            ]
        },
        {
            "positions": [
                0.056896437696817834,
                -1.173191065852848,
                2.0358522619275905,
                -0.8145894603997708,
                0.28734411647392033,
                -3.177729846914858
            ]
        },
        {
            "positions": [
                -0.009018664754316022,
                -1.2068968301705687,
                2.1001567995546213,
                -0.8487092729027235,
                0.44510175247883643,
                -3.1629684091326045
            ]
        },
        {
            "positions": [
                -0.07493376720544988,
                -1.2406025944882895,
                2.1644613371816517,
                -0.8828290854056761,
                0.6028593884837525,
                -3.1482069713503513
            ]
        },
        {
            "positions": [
                -0.14084886965658372,
                -1.2743083588060102,
                2.2287658748086825,
                -0.9169488979086287,
                0.7606170244886686,
                -3.1334455335680977
            ]
        },
        {
            "positions": [
                -0.20676397210771758,
                -1.308014123123731,
                2.293070412435713,
                -0.9510687104115814,
                0.9183746604935848,
                -3.1186840957858446
            ]
        },
        {
            "positions": [
                -0.27267907455885143,
                -1.3417198874414518,
                2.3573749500627432,
                -0.9851885229145338,
                1.0761322964985007,
                -3.103922658003591
            ]
        },
        {
            "positions": [
                -0.3385941770099853,
                -1.3754256517591725,
                2.421679487689774,
                -1.0193083354174866,
                1.233889932503417,
                -3.089161220221338
            ]
        }
    ]
}