{
    "goal": {
        "global_pose": {
            "orientation": {
                "w": 0.7047431468963623,
                "x": -0.7094548344612122,
                "y": 0.0024358443915843964,
                "z": -0.0022348060738295317
            },
            "position": {
                "x": 0.6094750761985779,
                "y": 0.3671506643295288,
                "z": 0.19426114857196808
            }
        },
        "name": "move_to_magneteinheit_A"
    },
    "id": "BFMT_move_to_magneteinheit_A_105",
    "joint_names": [
        "shoulder_pan_joint",
        "shoulder_lift_joint",
        "elbow_joint",
        "wrist_1_joint",
        "wrist_2_joint",
        "wrist_3_joint"
    ],
    "metrics": {
        "cart_traj_len": 3.3791440796297314,
        "distance_elbow_joint": 3.905398707382668,
        "distance_shoulder_lift_joint": 1.5208072197746165,
        "distance_shoulder_pan_joint": 4.5692219923605855,
        "distance_wrist_1_joint": 1.2525928690151438,
        "distance_wrist_2_joint": 1.7084605990361754,
        "distance_wrist_3_joint": 3.580443470120454,
        "smoothness": 0.3015355178308011,
        "time": 0.901819222,
        "traj_len": 4.066561798090575,
        "weighted_distance": 5.163222372315749
    },
    "planner": "BFMT",
    "start": {
        "state": {
            "elbow_joint": -1.919618573717145,
            "shoulder_lift_joint": -1.2443395971678275,
            "shoulder_pan_joint": 2.6996025300909787,
            "wrist_1_joint": -1.548550951253194,
            "wrist_2_joint": -1.5709469090946802,
            "wrist_3_joint": 0.4420197732051276
        }
    },
    "waypoints": [
        {
            "positions": [
                2.6996025300909787,
                -1.2443395971678275,
                -1.919618573717145,
                -1.548550951253194,
                -1.5709469090946802,
                0.4420197732051276
            ]
        },
        {
            "positions": [
                2.5879575380453694,
                -1.2665963424701119,
                -1.8289114628860506,
                -1.5179048653355114,
                -1.539380551828185,
                0.33524031079585825
            ]
        },
        {
            "positions": [
                2.4763125459997597,
                -1.2888530877723965,
                -1.7382043520549564,
                -1.4872587794178287,
                -1.5078141945616894,
                0.22846084838658892
            ]
        },
        {
            "positions": [
                2.3646675539541504,
                -1.3111098330746809,
                -1.647497241223862,
                -1.456612693500146,
                -1.4762478372951942,
                0.12168138597731959
            ]
        },
        {
            "positions": [
                2.253022561908541,
                -1.3333665783769655,
                -1.5567901303927676,
                -1.4259666075824633,
                -1.444681480028699,
                0.014901923568050257
            ]
        },
        {
            "positions": [
                2.1413775698629314,
                -1.3556233236792499,
                -1.4660830195616732,
                -1.3953205216647806,
                -1.4131151227622034,
                -0.09187753884121902
            ]
        },
        {
            "positions": [
                2.029732577817322,
                -1.3778800689815345,
                -1.3753759087305788,
                -1.364674435747098,
                -1.3815487654957082,
                -0.1986570012504884
            ]
        },
        {
            "positions": [
                1.9180875857717128,
                -1.4001368142838189,
                -1.2846687978994846,
                -1.3340283498294152,
                -1.349982408229213,
                -0.3054364636597578
            ]
        },
        {
            "positions": [
                1.8064425937261033,
                -1.4223935595861035,
                -1.1939616870683902,
                -1.3033822639117325,
                -1.3184160509627176,
                -0.41221592606902707
            ]
        },
        {
            "positions": [
                1.6947976016804938,
                -1.4446503048883879,
                -1.1032545762372958,
                -1.2727361779940498,
                -1.2868496936962222,
                -0.5189953884782963
            ]
        },
        {
            "positions": [
                1.5831526096348845,
                -1.4669070501906725,
                -1.0125474654062017,
                -1.2420900920763671,
                -1.255283336429727,
                -0.6257748508875656
            ]
        },
        {
            "positions": [
                1.471507617589275,
                -1.4891637954929569,
                -0.9218403545751073,
                -1.2114440061586842,
                -1.2237169791632314,
                -0.7325543132968351
            ]
        },
        {
            "positions": [
                1.3598626255436654,
                -1.5114205407952412,
                -0.8311332437440129,
                -1.1807979202410015,
                -1.1921506218967362,
                -0.8393337757061043
            ]
        },
        {
            "positions": [
                1.2482176334980561,
                -1.5336772860975258,
                -0.7404261329129185,
                -1.1501518343233188,
                -1.160584264630241,
                -0.9461132381153736
            ]
        },
        {
            "positions": [
                1.1365726414524466,
                -1.5559340313998105,
                -0.6497190220818243,
                -1.119505748405636,
                -1.1290179073637456,
                -1.0528927005246431
            ]
        },
        {
            "positions": [
                1.0249276494068373,
                -1.5781907767020948,
                -0.5590119112507299,
                -1.0888596624879534,
                -1.0974515500972502,
                -1.1596721629339124
            ]
        },
        {
            "positions": [
                0.9132826573612278,
                -1.6004475220043792,
                -0.4683048004196355,
                -1.0582135765702707,
                -1.065885192830755,
                -1.2664516253431817
            ]
        },
        {
            "positions": [
                0.8016376653156183,
                -1.6227042673066638,
                -0.3775976895885411,
                -1.027567490652588,
                -1.0343188355642594,
                -1.373231087752451
            ]
        },
        {
            "positions": [
                0.6899926732700088,
                -1.6449610126089484,
                -0.2868905787574467,
                -0.9969214047349053,
                -1.0027524782977641,
                -1.4800105501617202
            ]
        },
        {
            "positions": [
                0.5783476812243995,
                -1.6672177579112328,
                -0.19618346792635255,
                -0.9662753188172226,
                -0.9711861210312689,
                -1.5867900125709897
            ]
        },
        {
            "positions": [
                0.4667026891787902,
                -1.6894745032135172,
                -0.10547635709525816,
                -0.9356292328995399,
                -0.9396197637647736,
                -1.6935694749802588
            ]
        },
        {
            "positions": [
                0.35505769713318047,
                -1.7117312485158018,
                -0.01476924626416376,
                -0.9049831469818571,
                -0.9080534064982783,
                -1.8003489373895283
            ]
        },
        {
            "positions": [
                0.24341270508757118,
                -1.7339879938180862,
                0.07593786456693041,
                -0.8743370610641744,
                -0.8764870492317829,
                -1.9071283997987978
            ]
        },
        {
            "positions": [
                0.1317677130419619,
                -1.7562447391203708,
                0.16664497539802503,
                -0.8436909751464917,
                -0.8449206919652876,
                -2.013907862208067
            ]
        },
        {
            "positions": [
                0.02012272099635215,
                -1.7785014844226552,
                0.2573520862291192,
                -0.813044889228809,
                -0.8133543346987923,
                -2.1206873246173363
            ]
        },
        {
            "positions": [
                -0.09152227104925714,
                -1.8007582297249396,
                0.3480591970602134,
                -0.7823988033111263,
                -0.7817879774322969,
                -2.227466787026606
            ]
        },
        {
            "positions": [
                -0.20316726309486643,
                -1.8230149750272242,
                0.438766307891308,
                -0.7517527173934436,
                -0.7502216201658016,
                -2.334246249435875
            ]
        },
        {
            "positions": [
                -0.3148122551404757,
                -1.8452717203295088,
                0.5294734187224022,
                -0.7211066314757609,
                -0.7186552628993063,
                -2.4410257118451444
            ]
        },
        {
            "positions": [
                -0.42645724718608546,
                -1.8675284656317932,
                0.6201805295534963,
                -0.6904605455580781,
                -0.6870889056328109,
                -2.547805174254414
            ]
        },
        {
            "positions": [
                -0.5381022392316948,
                -1.8897852109340776,
                0.710887640384591,
                -0.6598144596403954,
                -0.6555225483663156,
                -2.654584636663683
            ]
        },
        {
            "positions": [
                -0.649747231277304,
                -1.9120419562363622,
                0.8015947512156851,
                -0.6291683737227127,
                -0.6239561910998203,
                -2.7613640990729524
            ]
        },
        {
            "positions": [
                -0.7613922233229138,
                -1.9342987015386468,
                0.8923018620467797,
                -0.59852228780503,
                -0.592389833833325,
                -2.8681435614822215
            ]
        },
        {
            "positions": [
                -0.8730372153685231,
                -1.9565554468409312,
                0.9830089728778741,
                -0.5678762018873473,
                -0.5608234765668296,
                -2.974923023891491
            ]
        },
        {
            "positions": [
                -0.7733789906784146,
                -1.87569630983078,
                1.0832860889566391,
                -0.595068013852277,
                -0.490989759915997,
                -2.9912730911938743
            ]
        },
        {
            "positions": [
                -0.6737207659883062,
                -1.7948371728206287,
                1.1835632050354041,
                -0.6222598258172066,
                -0.4211560432651644,
                -3.007623158496258
            ]
        },
        {
            "positions": [
                -0.5740625412981977,
                -1.7139780358104773,
                1.283840321114169,
                -0.6494516377821363,
                -0.3513223266143318,
                -3.023973225798642
            ]
        },
        {
            "positions": [
                -0.47440431660808924,
                -1.633118898800326,
                1.384117437192934,
                -0.6766434497470659,
                -0.2814886099634993,
                -3.040323293101025
            ]
        },
        {
            "positions": [
                -0.3747460919179808,
                -1.5522597617901748,
                1.484394553271699,
                -0.7038352617119956,
                -0.21165489331266668,
                -3.0566733604034084
            ]
        },
        {
            "positions": [
                -0.2750878672278724,
                -1.4714006247800235,
                1.5846716693504637,
                -0.7310270736769253,
                -0.14182117666183408,
                -3.073023427705792
            ]
        },
        {
            "positions": [
                -0.17542964253776394,
                -1.3905414877698723,
                1.6849487854292287,
                -0.7582188856418549,
                -0.07198746001100154,
                -3.0893734950081755
            ]
        },
        {
            "positions": [
                -0.0757714178476554,
                -1.3096823507597208,
                1.7852259015079937,
                -0.7854106976067846,
                -0.002153743360168936,
                -3.1057235623105592
            ]
        },
        {
            "positions": [
                0.023886806842453034,
                -1.2288232137495696,
                1.8855030175867586,
                -0.8126025095717142,
                0.06767997329066366,
                -3.1220736296129425
            ]
        },
        {
            "positions": [
                0.12354503153256143,
                -1.1479640767394184,
                1.9857801336655236,
                -0.8397943215366439,
                0.13751368994149626,
                -3.1384236969153263
            ]
        }
    ]
}{
    "goal": {
        "global_pose": {
            "orientation": {
                "w": 0.7047431468963623,
                "x": -0.7094548344612122,
                "y": 0.0024358443915843964,
                "z": -0.0022348060738295317
            },
            "position": {
                "x": 0.6094750761985779,
                "y": 0.3671506643295288,
                "z": 0.19426114857196808
            }
        },
        "name": "move_to_magneteinheit_A"
    },
    "id": "BFMT_move_to_magneteinheit_A_105",
    "joint_names": [
        "shoulder_pan_joint",
        "shoulder_lift_joint",
        "elbow_joint",
        "wrist_1_joint",
        "wrist_2_joint",
        "wrist_3_joint"
    ],
    "metrics": {
        "cart_traj_len": 1.2118901474988208,
        "distance_elbow_joint": 0.22850013356126442,
        "distance_shoulder_lift_joint": 0.752425001707723,
        "distance_shoulder_pan_joint": 1.2415603649411293,
        "distance_wrist_1_joint": 0.76675443542168,
        "distance_wrist_2_joint": 2.063323158054469,
        "distance_wrist_3_joint": 4.273139174468536,
        "smoothness": 0.1470623962311395,
        "time": 0.580214832,
        "traj_len": 3.0538012817069156,
        "weighted_distance": 4.549951451451765
    },
    "planner": "BFMT",
    "start": {
        "state": {
            "elbow_joint": 1.919643534880228,
            "shoulder_lift_joint": -1.8972525353963687,
            "shoulder_pan_joint": -1.1188672234189438,
            "wrist_1_joint": -1.5931878212786155,
            "wrist_2_joint": 1.5706036197970081,
            "wrist_3_joint": 1.118896926603594
        }
    },
    "waypoints": [
        {
            "positions": [
                -1.1188672234189438,
                -1.8972525353963687,
                1.919643534880228,
                -1.5931878212786155,
                1.5706036197970081,
                1.118896926603594
            ]
        },
        {
            "positions": [
                -1.0646346031472451,
                -1.8556055820831798,
                1.929280009156956,
                -1.5532596192632242,
                1.453660062381842,
                0.9897735477090472
            ]
        },
        {
            "positions": [
                -1.0104019828755464,
                -1.8139586287699907,
                1.9389164834336838,
                -1.513331417247833,
                1.336716504966676,
                0.8606501688145005
            ]
        },
        {
            "positions": [
                -0.9561693626038476,
                -1.7723116754568018,
                1.9485529577104117,
                -1.4734032152324417,
                1.21977294755151,
                0.7315267899199538
            ]
        },
        {
            "positions": [
                -0.9019367423321488,
                -1.7306647221436127,
                1.9581894319871398,
                -1.4334750132170502,
                1.1028293901363442,
                0.6024034110254072
            ]
        },
        {
            "positions": [
                -0.8477041220604501,
                -1.6890177688304238,
                1.9678259062638677,
                -1.393546811201659,
                0.9858858327211781,
                0.47328003213086056
            ]
        },
        {
            "positions": [
                -0.7934715017887513,
                -1.6473708155172346,
                1.9774623805405955,
                -1.3536186091862676,
                0.8689422753060121,
                0.3441566532363137
            ]
        },
        {
            "positions": [
                -0.7392388815170525,
                -1.6057238622040457,
                1.9870988548173234,
                -1.3136904071708764,
                0.7519987178908462,
                0.2150332743417671
            ]
        },
        {
            "positions": [
                -0.6850062612453538,
                -1.5640769088908566,
                1.9967353290940513,
                -1.273762205155485,
                0.6350551604756801,
                0.08590989544722039
            ]
        },
        {
            "positions": [
                -0.6307736409736551,
                -1.5224299555776677,
                2.0063718033707794,
                -1.2338340031400938,
                0.5181116030605142,
                -0.04321348344732634
            ]
        },
        {
            "positions": [
                -0.5765410207019563,
                -1.4807830022644786,
                2.016008277647507,
                -1.1939058011247026,
                0.40116804564534814,
                -0.17233686234187284
            ]
        },
        {
            "positions": [
                -0.5223084004302575,
                -1.4391360489512897,
                2.025644751924235,
                -1.1539775991093113,
                0.2842244882301823,
                -0.30146024123641957
            ]
        },
        {
            "positions": [
                -0.46807578015855866,
                -1.3974890956381005,
                2.0352812262009627,
                -1.1140493970939198,
                0.16728093081501605,
                -0.4305836201309665
            ]
        },
        {
            "positions": [
                -0.41384315988685993,
                -1.3558421423249116,
                2.044917700477691,
                -1.0741211950785285,
                0.050337373399850005,
                -0.5597069990255132
            ]
        },
        {
            "positions": [
                -0.3596105396151612,
                -1.3141951890117225,
                2.0545541747544185,
                -1.0341929930631373,
                -0.06660618401531582,
                -0.6888303779200597
            ]
        },
        {
            "positions": [
                -0.30537791934346253,
                -1.2725482356985336,
                2.0641906490311466,
                -0.994264791047746,
                -0.18354974143048194,
                -0.8179537568146065
            ]
        },
        {
            "positions": [
                -0.2578144681361683,
                -1.2583570465863239,
                2.0548625357633306,
                -0.975616857137656,
                -0.1491975417830398,
                -1.0775413669313103
            ]
        },
        {
            "positions": [
                -0.21025101692887407,
                -1.2441658574741141,
                2.045534422495514,
                -0.9569689232275659,
                -0.11484534213559766,
                -1.3371289770480144
            ]
        },
        {
            "positions": [
                -0.16268756572157983,
                -1.2299746683619044,
                2.036206309227698,
                -0.9383209893174759,
                -0.0804931424881555,
                -1.5967165871647182
            ]
        },
        {
            "positions": [
                -0.11512411451428561,
                -1.2157834792496947,
                2.0268781959598816,
                -0.9196730554073858,
                -0.04614094284071338,
                -1.856304197281422
            ]
        },
        {
            "positions": [
                -0.06756066330699134,
                -1.2015922901374847,
                2.0175500826920656,
                -0.9010251214972957,
                -0.011788743193271195,
                -2.115891807398126
            ]
        },
        {
            "positions": [
                -0.019997212099697126,
                -1.187401101025275,
                2.008221969424249,
                -0.8823771875872056,
                0.022563456454170933,
                -2.37547941751483
            ]
        },
        {
            "positions": [
                0.02756623910759709,
                -1.1732099119130652,
                1.9988938561564331,
                -0.8637292536771156,
                0.05691565610161309,
                -2.6350670276315338
            ]
        },
        {
            "positions": [
                0.0751296903148913,
                -1.1590187228008555,
                1.9895657428886169,
                -0.8450813197670255,
                0.09126785574905519,
                -2.8946546377482374
            ]
        },
        {
            "positions": [
                0.12269314152218559,
                -1.1448275336886458,
                1.9802376296208006,
                -0.8264333858569355,
                0.12562005539649734,
                -3.154242247864942
            ]
        }
    ]
}