{
    "goal": {
        "global_pose": {
            "orientation": {
                "w": 0.5084816217422485,
                "x": -0.49083608388900757,
                "y": 0.5182115435600281,
                "z": -0.4816462993621826
            },
            "position": {
                "x": 0.5540239810943604,
                "y": 0.030875300988554955,
                "z": 0.16403168439865112
            }
        },
        "name": "move_to_storage_A"
    },
    "id": "BFMT_move_to_storage_A_14",
    "joint_names": [
        "shoulder_pan_joint",
        "shoulder_lift_joint",
        "elbow_joint",
        "wrist_1_joint",
        "wrist_2_joint",
        "wrist_3_joint"
    ],
    "metrics": {
        "cart_traj_len": 0.35329285572526714,
        "distance_elbow_joint": 0.45176871119762074,
        "distance_shoulder_lift_joint": 0.23404446145224012,
        "distance_shoulder_pan_joint": 0.46247729277887634,
        "distance_wrist_1_joint": 0.25569036067045203,
        "distance_wrist_2_joint": 1.0965998437364401,
        "distance_wrist_3_joint": 0.09430474297368896,
        "smoothness": 9.992007236661072e-16,
        "time": 0.474085885,
        "traj_len": 1.6108648027718893,
        "weighted_distance": 2.0336629767893175
    },
    "planner": "BFMT",
    "start": {
        "state": {
            "elbow_joint": 1.9715477243005601,
            "shoulder_lift_joint": -1.1394853015351272,
            "shoulder_pan_joint": 0.12281154014795169,
            "wrist_1_joint": -0.7804696478968182,
            "wrist_2_joint": 0.12958648046900423,
            "wrist_3_joint": -3.192491284697111
        }
    },
    "waypoints": [
        {
            "positions": [
                0.12281154014795169,
                -1.1394853015351272,
                1.9715477243005601,
                -0.7804696478968182,
                0.12958648046900423,
                -3.192491284697111
            ]
        },
        {
            "positions": [
                0.05674335546525508,
                -1.172920224599733,
                2.036086111614506,
                -0.8169968422783113,
                0.28624360100278134,
                -3.1790191785580126
            ]
        },
        {
            "positions": [
                -0.00932482921744153,
                -1.2063551476643386,
                2.1006244989284517,
                -0.8535240366598045,
                0.4429007215365585,
                -3.1655470724189145
            ]
        },
        {
            "positions": [
                -0.07539301390013815,
                -1.2397900707289444,
                2.1651628862423977,
                -0.8900512310412976,
                0.5995578420703357,
                -3.152074966279816
            ]
        },
        {
            "positions": [
                -0.14146119858283474,
                -1.27322499379355,
                2.2297012735563433,
                -0.9265784254227908,
                0.7562149626041128,
                -3.1386028601407174
            ]
        },
        {
            "positions": [
                -0.2075293832655314,
                -1.3066599168581559,
                2.2942396608702893,
                -0.9631056198042839,
                0.91287208313789,
                -3.125130754001619
            ]
        },
        {
            "positions": [
                -0.273597567948228,
                -1.3400948399227615,
                2.358778048184235,
                -0.9996328141857771,
                1.0695292036716673,
                -3.1116586478625208
            ]
        },
        {
            "positions": [
                -0.33966575263092463,
                -1.3735297629873673,
                2.423316435498181,
                -1.0361600085672702,
                1.2261863242054443,
                -3.0981865417234222
            ]
        }
    ]
}