{
    "goal": {
        "global_pose": {
            "orientation": {
                "w": 0.5084816217422485,
                "x": -0.49083608388900757,
                "y": 0.5182115435600281,
                "z": -0.4816462993621826
            },
            "position": {
                "x": 0.5540239810943604,
                "y": 0.030875300988554955,
                "z": 0.16403168439865112
            }
        },
        "name": "move_to_storage_A"
    },
    "id": "BFMT_move_to_storage_A_28",
    "joint_names": [
        "shoulder_pan_joint",
        "shoulder_lift_joint",
        "elbow_joint",
        "wrist_1_joint",
        "wrist_2_joint",
        "wrist_3_joint"
    ],
    "metrics": {
        "cart_traj_len": 0.35262768878617123,
        "distance_elbow_joint": 0.45020142857576184,
        "distance_shoulder_lift_joint": 0.23399532726384442,
        "distance_shoulder_pan_joint": 0.4613998260759573,
        "distance_wrist_1_joint": 0.2415741685642644,
        "distance_wrist_2_joint": 1.096828893181419,
        "distance_wrist_3_joint": 0.09251615368545618,
        "smoothness": 0.0,
        "time": 0.473832274,
        "traj_len": 1.6051528890877351,
        "weighted_distance": 2.024833614513375
    },
    "planner": "BFMT",
    "start": {
        "state": {
            "elbow_joint": 1.9715477243005601,
            "shoulder_lift_joint": -1.1394853015351272,
            "shoulder_pan_joint": 0.12281154014795169,
            "wrist_1_joint": -0.7804696478968182,
            "wrist_2_joint": 0.12958648046900423,
            "wrist_3_joint": -3.192491284697111
        }
    },
    "waypoints": [
        {
            "positions": [
                0.12281154014795169,
                -1.1394853015351272,
                1.9715477243005601,
                -0.7804696478968182,
                0.12958648046900423,
                -3.192491284697111
            ]
        },
        {
            "positions": [
                0.05689727927995779,
                -1.172913205429962,
                2.0358622140970977,
                -0.8149802434059988,
                0.28627632235206407,
                -3.1792746913134744
            ]
        },
        {
            "positions": [
                -0.009016981588036113,
                -1.206341109324797,
                2.1001767038936348,
                -0.8494908389151794,
                0.4429661642351239,
                -3.166058097929838
            ]
        },
        {
            "positions": [
                -0.07493124245603001,
                -1.239769013219632,
                2.1644911936901723,
                -0.8840014344243601,
                0.5996560061181837,
                -3.1528415045462013
            ]
        },
        {
            "positions": [
                -0.1408455033240239,
                -1.2731969171144668,
                2.22880568348671,
                -0.9185120299335406,
                0.7563458480012436,
                -3.139624911162565
            ]
        },
        {
            "positions": [
                -0.2067597641920178,
                -1.3066248210093017,
                2.2931201732832474,
                -0.9530226254427213,
                0.9130356898843035,
                -3.126408317778928
            ]
        },
        {
            "positions": [
                -0.2726740250600117,
                -1.3400527249041367,
                2.3574346630797844,
                -0.9875332209519019,
                1.0697255317673633,
                -3.113191724395292
            ]
        },
        {
            "positions": [
                -0.3385882859280056,
                -1.3734806287989716,
                2.421749152876322,
                -1.0220438164610826,
                1.2264153736504233,
                -3.099975131011655
            ]
        }
    ]
}