{
    "goal": {
        "global_pose": {
            "orientation": {
                "w": 0.5084816217422485,
                "x": -0.49083608388900757,
                "y": 0.5182115435600281,
                "z": -0.4816462993621826
            },
            "position": {
                "x": 0.5540239810943604,
                "y": 0.030875300988554955,
                "z": 0.16403168439865112
            }
        },
        "name": "move_to_storage_A"
    },
    "id": "BFMT_move_to_storage_A_150",
    "joint_names": [
        "shoulder_pan_joint",
        "shoulder_lift_joint",
        "elbow_joint",
        "wrist_1_joint",
        "wrist_2_joint",
        "wrist_3_joint"
    ],
    "metrics": {
        "cart_traj_len": 0.3535085546185155,
        "distance_elbow_joint": 0.4511956560915529,
        "distance_shoulder_lift_joint": 0.23235459413302473,
        "distance_shoulder_pan_joint": 0.4583285526130343,
        "distance_wrist_1_joint": 0.2541063970276408,
        "distance_wrist_2_joint": 1.115413683869038,
        "distance_wrist_3_joint": 0.09250693829383927,
        "smoothness": 8.881784197001252e-16,
        "time": 0.45877837499999996,
        "traj_len": 1.6136622391405613,
        "weighted_distance": 2.039225289052803
    },
    "planner": "BFMT",
    "start": {
        "state": {
            "elbow_joint": 1.9715477243005601,
            "shoulder_lift_joint": -1.1394853015351272,
            "shoulder_pan_joint": 0.12281154014795169,
            "wrist_1_joint": -0.7804696478968182,
            "wrist_2_joint": 0.12958648046900423,
            "wrist_3_joint": -3.192491284697111
        }
    },
    "waypoints": [
        {
            "positions": [
                0.12281154014795169,
                -1.1394853015351272,
                1.9715477243005601,
                -0.7804696478968182,
                0.12958648046900423,
                -3.192491284697111
            ]
        },
        {
            "positions": [
                0.05733603263180394,
                -1.172678814982702,
                2.0360042465993535,
                -0.8167705617579097,
                0.28893129245029536,
                -3.1792760077979914
            ]
        },
        {
            "positions": [
                -0.008139474884343814,
                -1.205872328430277,
                2.1004607688981465,
                -0.8530714756190012,
                0.4482761044315865,
                -3.1660607308988715
            ]
        },
        {
            "positions": [
                -0.07361498240049157,
                -1.239065841877852,
                2.16491729119694,
                -0.8893723894800928,
                0.6076209164128776,
                -3.1528454539997517
            ]
        },
        {
            "positions": [
                -0.1390904899166393,
                -1.2722593553254269,
                2.2293738134957333,
                -0.9256733033411844,
                0.7669657283941688,
                -3.1396301771006314
            ]
        },
        {
            "positions": [
                -0.20456599743278708,
                -1.305452868773002,
                2.2938303357945267,
                -0.9619742172022758,
                0.92631054037546,
                -3.1264149002015116
            ]
        },
        {
            "positions": [
                -0.2700415049489348,
                -1.338646382220577,
                2.3582868580933196,
                -0.9982751310633674,
                1.085655352356751,
                -3.1131996233023917
            ]
        },
        {
            "positions": [
                -0.3355170124650826,
                -1.371839895668152,
                2.422743380392113,
                -1.034576044924459,
                1.2450001643380422,
                -3.099984346403272
            ]
        }
    ]
}