{
    "goal": {
        "global_pose": {
            "orientation": {
                "w": 0.5084816217422485,
                "x": -0.49083608388900757,
                "y": 0.5182115435600281,
                "z": -0.4816462993621826
            },
            "position": {
                "x": 0.5540239810943604,
                "y": 0.030875300988554955,
                "z": 0.16403168439865112
            }
        },
        "name": "move_to_storage_A"
    },
    "id": "BFMT_move_to_storage_A_123",
    "joint_names": [
        "shoulder_pan_joint",
        "shoulder_lift_joint",
        "elbow_joint",
        "wrist_1_joint",
        "wrist_2_joint",
        "wrist_3_joint"
    ],
    "metrics": {
        "cart_traj_len": 0.353762127201142,
        "distance_elbow_joint": 0.4501825687823131,
        "distance_shoulder_lift_joint": 0.2331538804105553,
        "distance_shoulder_pan_joint": 0.45979834471127407,
        "distance_wrist_1_joint": 0.24519301053860676,
        "distance_wrist_2_joint": 1.1116128621268446,
        "distance_wrist_3_joint": 0.09965988291326955,
        "smoothness": 6.661338200497456e-16,
        "time": 0.48320216,
        "traj_len": 1.6123276805546891,
        "weighted_distance": 2.03855983183591
    },
    "planner": "BFMT",
    "start": {
        "state": {
            "elbow_joint": 1.9715477243005601,
            "shoulder_lift_joint": -1.1394853015351272,
            "shoulder_pan_joint": 0.12281154014795169,
            "wrist_1_joint": -0.7804696478968182,
            "wrist_2_joint": 0.12958648046900423,
            "wrist_3_joint": -3.192491284697111
        }
    },
    "waypoints": [
        {
            "positions": [
                0.12281154014795169,
                -1.1394853015351272,
                1.9715477243005601,
                -0.7804696478968182,
                0.12958648046900423,
                -3.192491284697111
            ]
        },
        {
            "positions": [
                0.0571260623320554,
                -1.172792998736635,
                2.0358595198408906,
                -0.8154972208309048,
                0.2883883179156963,
                -3.178254158566644
            ]
        },
        {
            "positions": [
                -0.008559415483840885,
                -1.206100695938143,
                2.100171315381221,
                -0.8505247937649916,
                0.4471901553623884,
                -3.164017032436177
            ]
        },
        {
            "positions": [
                -0.07424489329973717,
                -1.239408393139651,
                2.1644831109215517,
                -0.8855523666990782,
                0.6059919928090804,
                -3.14977990630571
            ]
        },
        {
            "positions": [
                -0.13993037111563345,
                -1.2727160903411587,
                2.2287949064618817,
                -0.9205799396331649,
                0.7647938302557725,
                -3.1355427801752427
            ]
        },
        {
            "positions": [
                -0.2056158489315298,
                -1.3060237875426668,
                2.2931067020022122,
                -0.9556075125672516,
                0.9235956677024647,
                -3.1213056540447757
            ]
        },
        {
            "positions": [
                -0.271301326747426,
                -1.3393314847441746,
                2.3574184975425427,
                -0.9906350855013382,
                1.0823975051491566,
                -3.1070685279143087
            ]
        },
        {
            "positions": [
                -0.33698680456332236,
                -1.3726391819456825,
                2.4217302930828732,
                -1.025662658435425,
                1.241199342595849,
                -3.0928314017838416
            ]
        }
    ]
}