{
    "goal": {
        "global_pose": {
            "orientation": {
                "w": 0.5084816217422485,
                "x": -0.49083608388900757,
                "y": 0.5182115435600281,
                "z": -0.4816462993621826
            },
            "position": {
                "x": 0.5540239810943604,
                "y": 0.030875300988554955,
                "z": 0.16403168439865112
            }
        },
        "name": "move_to_storage_A"
    },
    "id": "BFMT_move_to_storage_A_71",
    "joint_names": [
        "shoulder_pan_joint",
        "shoulder_lift_joint",
        "elbow_joint",
        "wrist_1_joint",
        "wrist_2_joint",
        "wrist_3_joint"
    ],
    "metrics": {
        "cart_traj_len": 0.3536787263010629,
        "distance_elbow_joint": 0.4506616400301735,
        "distance_shoulder_lift_joint": 0.2335978574350681,
        "distance_shoulder_pan_joint": 0.46213355272422096,
        "distance_wrist_1_joint": 0.2488100347701877,
        "distance_wrist_2_joint": 1.1009518323213445,
        "distance_wrist_3_joint": 0.1020763703125156,
        "smoothness": 4.440892098500626e-16,
        "time": 0.475940948,
        "traj_len": 1.6119030019183878,
        "weighted_distance": 2.037681499967567
    },
    "planner": "BFMT",
    "start": {
        "state": {
            "elbow_joint": 1.9715477243005601,
            "shoulder_lift_joint": -1.1394853015351272,
            "shoulder_pan_joint": 0.12281154014795169,
            "wrist_1_joint": -0.7804696478968182,
            "wrist_2_joint": 0.12958648046900423,
            "wrist_3_joint": -3.192491284697111
        }
    },
    "waypoints": [
        {
            "positions": [
                0.12281154014795169,
                -1.1394853015351272,
                1.9715477243005601,
                -0.7804696478968182,
                0.12958648046900423,
                -3.192491284697111
            ]
        },
        {
            "positions": [
                0.056792461187348695,
                -1.1728564240258512,
                2.0359279585905847,
                -0.8160139385782735,
                0.2868653136577677,
                -3.1779089460810375
            ]
        },
        {
            "positions": [
                -0.0092266177732543,
                -1.2062275465165753,
                2.1003081928806098,
                -0.8515582292597289,
                0.4441441468465312,
                -3.1633266074649637
            ]
        },
        {
            "positions": [
                -0.0752456967338573,
                -1.2395986690072993,
                2.1646884271706344,
                -0.8871025199411843,
                0.6014229800352947,
                -3.14874426884889
            ]
        },
        {
            "positions": [
                -0.14126477569446028,
                -1.2729697914980231,
                2.2290686614606594,
                -0.9226468106226398,
                0.7587018132240582,
                -3.1341619302328168
            ]
        },
        {
            "positions": [
                -0.20728385465506327,
                -1.3063409139887472,
                2.293448895750684,
                -0.9581911013040951,
                0.9159806464128217,
                -3.119579591616743
            ]
        },
        {
            "positions": [
                -0.27330293361566627,
                -1.3397120364794712,
                2.3578291300407086,
                -0.9937353919855505,
                1.0732594796015853,
                -3.1049972530006693
            ]
        },
        {
            "positions": [
                -0.33932201257626926,
                -1.3730831589701953,
                2.4222093643307336,
                -1.0292796826670059,
                1.2305383127903486,
                -3.0904149143845956
            ]
        }
    ]
}