{
    "goal": {
        "global_pose": {
            "orientation": {
                "w": 0.5084816217422485,
                "x": -0.49083608388900757,
                "y": 0.5182115435600281,
                "z": -0.4816462993621826
            },
            "position": {
                "x": 0.5540239810943604,
                "y": 0.030875300988554955,
                "z": 0.16403168439865112
            }
        },
        "name": "move_to_storage_A"
    },
    "id": "BFMT_move_to_storage_A_57",
    "joint_names": [
        "shoulder_pan_joint",
        "shoulder_lift_joint",
        "elbow_joint",
        "wrist_1_joint",
        "wrist_2_joint",
        "wrist_3_joint"
    ],
    "metrics": {
        "cart_traj_len": 0.3529206576111581,
        "distance_elbow_joint": 0.44947420391065807,
        "distance_shoulder_lift_joint": 0.23324013340466232,
        "distance_shoulder_pan_joint": 0.4598705501885808,
        "distance_wrist_1_joint": 0.2471946275861595,
        "distance_wrist_2_joint": 1.1044461678938697,
        "distance_wrist_3_joint": 0.09617647644940996,
        "smoothness": 1.7763568394002505e-15,
        "time": 0.468043576,
        "traj_len": 1.6094726339498102,
        "weighted_distance": 2.0333213980608646
    },
    "planner": "BFMT",
    "start": {
        "state": {
            "elbow_joint": 1.9715477243005601,
            "shoulder_lift_joint": -1.1394853015351272,
            "shoulder_pan_joint": 0.12281154014795169,
            "wrist_1_joint": -0.7804696478968182,
            "wrist_2_joint": 0.12958648046900423,
            "wrist_3_joint": -3.192491284697111
        }
    },
    "waypoints": [
        {
            "positions": [
                0.12281154014795169,
                -1.1394853015351272,
                1.9715477243005601,
                -0.7804696478968182,
                0.12958648046900423,
                -3.192491284697111
            ]
        },
        {
            "positions": [
                0.05711574726386873,
                -1.172805320592936,
                2.0357583248592257,
                -0.8157831661234124,
                0.28736450445384276,
                -3.178751788061481
            ]
        },
        {
            "positions": [
                -0.008580045620214236,
                -1.206125339650745,
                2.099968925417891,
                -0.8510966843500066,
                0.4451425284386813,
                -3.1650122914258514
            ]
        },
        {
            "positions": [
                -0.07427583850429721,
                -1.2394453587085539,
                2.1641795259765564,
                -0.8864102025766007,
                0.6029205524235198,
                -3.1512727947902213
            ]
        },
        {
            "positions": [
                -0.13997163138838015,
                -1.2727653777663628,
                2.228390126535222,
                -0.921723720803195,
                0.7606985764083584,
                -3.137533298154591
            ]
        },
        {
            "positions": [
                -0.20566742427246315,
                -1.3060853968241717,
                2.2926007270938875,
                -0.9570372390297892,
                0.9184766003931969,
                -3.123793801518961
            ]
        },
        {
            "positions": [
                -0.2713632171565461,
                -1.3394054158819806,
                2.3568113276525526,
                -0.9923507572563834,
                1.0762546243780355,
                -3.1100543048833313
            ]
        },
        {
            "positions": [
                -0.3370590100406291,
                -1.3727254349397895,
                2.421021928211218,
                -1.0276642754829777,
                1.2340326483628739,
                -3.0963148082477012
            ]
        }
    ]
}