{
    "goal": {
        "global_pose": {
            "orientation": {
                "w": 0.5084816217422485,
                "x": -0.49083608388900757,
                "y": 0.5182115435600281,
                "z": -0.4816462993621826
            },
            "position": {
                "x": 0.5540239810943604,
                "y": 0.030875300988554955,
                "z": 0.16403168439865112
            }
        },
        "name": "move_to_storage_A"
    },
    "id": "BFMT_move_to_storage_A_87",
    "joint_names": [
        "shoulder_pan_joint",
        "shoulder_lift_joint",
        "elbow_joint",
        "wrist_1_joint",
        "wrist_2_joint",
        "wrist_3_joint"
    ],
    "metrics": {
        "cart_traj_len": 0.35260666293504284,
        "distance_elbow_joint": 0.4474008619631946,
        "distance_shoulder_lift_joint": 0.2341944697464653,
        "distance_shoulder_pan_joint": 0.4574696528825865,
        "distance_wrist_1_joint": 0.23564099242429604,
        "distance_wrist_2_joint": 1.1128513307322492,
        "distance_wrist_3_joint": 0.09126681899330613,
        "smoothness": 4.440892098500626e-16,
        "time": 0.483442347,
        "traj_len": 1.605871765348061,
        "weighted_distance": 2.0272765198376996
    },
    "planner": "BFMT",
    "start": {
        "state": {
            "elbow_joint": 1.9715477243005601,
            "shoulder_lift_joint": -1.1394853015351272,
            "shoulder_pan_joint": 0.12281154014795169,
            "wrist_1_joint": -0.7804696478968182,
            "wrist_2_joint": 0.12958648046900423,
            "wrist_3_joint": -3.192491284697111
        }
    },
    "waypoints": [
        {
            "positions": [
                0.12281154014795169,
                -1.1394853015351272,
                1.9715477243005601,
                -0.7804696478968182,
                0.12958648046900423,
                -3.192491284697111
            ]
        },
        {
            "positions": [
                0.05745873259329648,
                -1.1729416543560507,
                2.035462133152445,
                -0.8141326468145748,
                0.2885652420021827,
                -3.1794531676980675
            ]
        },
        {
            "positions": [
                -0.00789407496135873,
                -1.2063980071769744,
                2.09937654200433,
                -0.8477956457323313,
                0.4475440035353611,
                -3.166415050699024
            ]
        },
        {
            "positions": [
                -0.07324688251601395,
                -1.239854359997898,
                2.163290950856215,
                -0.8814586446500878,
                0.6065227650685396,
                -3.15337693369998
            ]
        },
        {
            "positions": [
                -0.13859969007066913,
                -1.2733107128188217,
                2.2272053597081,
                -0.9151216435678444,
                0.765501526601718,
                -3.140338816700936
            ]
        },
        {
            "positions": [
                -0.20395249762532436,
                -1.3067670656397452,
                2.2911197685599847,
                -0.948784642485601,
                0.9244802881348965,
                -3.1273006997018924
            ]
        },
        {
            "positions": [
                -0.2693053051799796,
                -1.3402234184606687,
                2.35503417741187,
                -0.9824476414033576,
                1.083459049668075,
                -3.1142625827028487
            ]
        },
        {
            "positions": [
                -0.3346581127346348,
                -1.3736797712815925,
                2.4189485862637548,
                -1.0161106403211142,
                1.2424378112012535,
                -3.101224465703805
            ]
        }
    ]
}