{
    "goal": {
        "global_pose": {
            "orientation": {
                "w": 0.7047431468963623,
                "x": -0.7094548344612122,
                "y": 0.0024358443915843964,
                "z": -0.0022348060738295317
            },
            "position": {
                "x": 0.6094750761985779,
                "y": 0.3671506643295288,
                "z": 0.19426114857196808
            }
        },
        "name": "move_to_magneteinheit_A"
    },
    "id": "BFMT_move_to_magneteinheit_A_133",
    "joint_names": [
        "shoulder_pan_joint",
        "shoulder_lift_joint",
        "elbow_joint",
        "wrist_1_joint",
        "wrist_2_joint",
        "wrist_3_joint"
    ],
    "metrics": {
        "cart_traj_len": 3.145559962815882,
        "distance_elbow_joint": 3.912206068592261,
        "distance_shoulder_lift_joint": 0.46808462996355327,
        "distance_shoulder_pan_joint": 2.7948649925377618,
        "distance_wrist_1_joint": 3.458032099665588,
        "distance_wrist_2_joint": 1.5727759883576018,
        "distance_wrist_3_joint": 0.42755886902600887,
        "smoothness": 0.057336148163415424,
        "time": 0.953782559,
        "traj_len": 3.5543667014171136,
        "weighted_distance": 4.303422878850972
    },
    "planner": "BFMT",
    "start": {
        "state": {
            "elbow_joint": -1.919618573717145,
            "shoulder_lift_joint": -1.2443395971678275,
            "shoulder_pan_joint": 2.6996025300909787,
            "wrist_1_joint": -1.548550951253194,
            "wrist_2_joint": -1.5709469090946802,
            "wrist_3_joint": 0.4420197732051276
        }
    },
    "waypoints": [
        {
            "positions": [
                2.6996025300909787,
                -1.2443395971678275,
                -1.919618573717145,
                -1.548550951253194,
                -1.5709469090946802,
                0.4420197732051276
            ]
        },
        {
            "positions": [
                2.5982634925928507,
                -1.2377879304347679,
                -1.8185794204082883,
                -1.4420914009366705,
                -1.5083514260512085,
                0.430278215179987
            ]
        },
        {
            "positions": [
                2.4969244550947227,
                -1.2312362637017085,
                -1.717540267099432,
                -1.335631850620147,
                -1.445755943007737,
                0.4185366571548464
            ]
        },
        {
            "positions": [
                2.395585417596595,
                -1.2246845969686488,
                -1.6165011137905756,
                -1.2291723003036235,
                -1.383160459964265,
                0.4067950991297058
            ]
        },
        {
            "positions": [
                2.294246380098467,
                -1.2181329302355894,
                -1.515461960481719,
                -1.1227127499871,
                -1.3205649769207937,
                0.39505354110456525
            ]
        },
        {
            "positions": [
                2.192907342600339,
                -1.2115812635025298,
                -1.4144228071728624,
                -1.0162531996705764,
                -1.2579694938773218,
                0.38331198307942466
            ]
        },
        {
            "positions": [
                2.0915683051022116,
                -1.2050295967694704,
                -1.313383653864006,
                -0.9097936493540528,
                -1.1953740108338502,
                0.37157042505428406
            ]
        },
        {
            "positions": [
                1.9902292676040836,
                -1.1984779300364108,
                -1.2123445005551496,
                -0.8033340990375293,
                -1.1327785277903786,
                0.35982886702914346
            ]
        },
        {
            "positions": [
                1.8888902301059556,
                -1.1919262633033512,
                -1.111305347246293,
                -0.6968745487210057,
                -1.070183044746907,
                0.34808730900400287
            ]
        },
        {
            "positions": [
                1.7875511926078276,
                -1.1853745965702918,
                -1.0102661939374364,
                -0.5904149984044822,
                -1.0075875617034353,
                0.3363457509788623
            ]
        },
        {
            "positions": [
                1.6862121551096998,
                -1.1788229298372321,
                -0.9092270406285801,
                -0.48395544808795865,
                -0.9449920786599635,
                0.32460419295372167
            ]
        },
        {
            "positions": [
                1.584873117611572,
                -1.1722712631041727,
                -0.8081878873197237,
                -0.3774958977714351,
                -0.882396595616492,
                0.31286263492858113
            ]
        },
        {
            "positions": [
                1.483534080113444,
                -1.165719596371113,
                -0.7071487340108671,
                -0.27103634745491156,
                -0.8198011125730202,
                0.30112107690344053
            ]
        },
        {
            "positions": [
                1.3821950426153162,
                -1.1591679296380535,
                -0.6061095807020107,
                -0.16457679713838802,
                -0.7572056295295486,
                0.28937951887829994
            ]
        },
        {
            "positions": [
                1.2808560051171882,
                -1.152616262904994,
                -0.5050704273931541,
                -0.05811724682186448,
                -0.6946101464860769,
                0.27763796085315934
            ]
        },
        {
            "positions": [
                1.1795169676190604,
                -1.1460645961719345,
                -0.4040312740842975,
                0.04834230349465907,
                -0.6320146634426053,
                0.26589640282801874
            ]
        },
        {
            "positions": [
                1.0781779301209324,
                -1.139512929438875,
                -0.30299212077544113,
                0.1548018538111826,
                -0.5694191803991338,
                0.2541548448028782
            ]
        },
        {
            "positions": [
                0.9768388926228044,
                -1.1329612627058154,
                -0.20195296746658453,
                0.26126140412770615,
                -0.5068236973556619,
                0.24241328677773757
            ]
        },
        {
            "positions": [
                0.8754998551246767,
                -1.1264095959727558,
                -0.10091381415772815,
                0.3677209544442297,
                -0.4442282143121903,
                0.230671728752597
            ]
        },
        {
            "positions": [
                0.7741608176265489,
                -1.1198579292396964,
                0.00012533915112822314,
                0.47418050476075324,
                -0.38163273126871866,
                0.21893017072745644
            ]
        },
        {
            "positions": [
                0.6728217801284209,
                -1.1133062625066368,
                0.10116449245998482,
                0.5806400550772768,
                -0.3190372482252468,
                0.2071886127023158
            ]
        },
        {
            "positions": [
                0.5714827426302929,
                -1.1067545957735774,
                0.2022036457688412,
                0.6870996053938003,
                -0.2564417651817754,
                0.19544705467717524
            ]
        },
        {
            "positions": [
                0.4701437051321653,
                -1.1002029290405178,
                0.3032427990776976,
                0.7935591557103239,
                -0.1938462821383038,
                0.18370549665203467
            ]
        },
        {
            "positions": [
                0.3688046676340373,
                -1.0936512623074583,
                0.4042819523865544,
                0.9000187060268474,
                -0.13125079909483195,
                0.17196393862689408
            ]
        },
        {
            "positions": [
                0.26746563013590907,
                -1.0870995955743987,
                0.505321105695411,
                1.0064782563433707,
                -0.06865531605136033,
                0.16022238060175348
            ]
        },
        {
            "positions": [
                0.22519642242747512,
                -1.060804969870032,
                0.656638630590517,
                1.1364609370706409,
                -0.06928431387449241,
                0.13937671146936925
            ]
        },
        {
            "positions": [
                0.18292721471904116,
                -1.034510344165665,
                0.807956155485623,
                1.266443617797911,
                -0.06991331169762449,
                0.11853104233698504
            ]
        },
        {
            "positions": [
                0.14065800701060718,
                -1.008215718461298,
                0.9592736803807291,
                1.3964262985251814,
                -0.07054230952075657,
                0.09768537320460081
            ]
        },
        {
            "positions": [
                0.09838879930217323,
                -0.9819210927569312,
                1.110591205275835,
                1.5264089792524516,
                -0.07117130734388866,
                0.0768397040722166
            ]
        },
        {
            "positions": [
                0.05611959159373925,
                -0.9556264670525643,
                1.2619087301709413,
                1.6563916599797217,
                -0.07180030516702074,
                0.05599403493983236
            ]
        },
        {
            "positions": [
                0.013850383885305302,
                -0.9293318413481975,
                1.4132262550660473,
                1.7863743407069919,
                -0.07242930299015282,
                0.03514836580744816
            ]
        },
        {
            "positions": [
                0.03455518385431891,
                -0.8838712199301388,
                1.595687141167266,
                1.8454020677000127,
                -0.09073582931755558,
                0.024982055736753543
            ]
        },
        {
            "positions": [
                0.055259983823332526,
                -0.8384105985120801,
                1.7781480272684846,
                1.9044297946930335,
                -0.10904235564495836,
                0.014815745666058932
            ]
        },
        {
            "positions": [
                0.12296323021739303,
                -0.7762549672042742,
                1.992587494875116,
                1.909481148412394,
                -0.1391397113656431,
                0.014460904179118795
            ]
        }
    ]
}{
    "goal": {
        "global_pose": {
            "orientation": {
                "w": 0.7047431468963623,
                "x": -0.7094548344612122,
                "y": 0.0024358443915843964,
                "z": -0.0022348060738295317
            },
            "position": {
                "x": 0.6094750761985779,
                "y": 0.3671506643295288,
                "z": 0.19426114857196808
            }
        },
        "name": "move_to_magneteinheit_A"
    },
    "id": "BFMT_move_to_magneteinheit_A_133",
    "joint_names": [
        "shoulder_pan_joint",
        "shoulder_lift_joint",
        "elbow_joint",
        "wrist_1_joint",
        "wrist_2_joint",
        "wrist_3_joint"
    ],
    "metrics": {
        "cart_traj_len": 1.3445174328992775,
        "distance_elbow_joint": 0.6228979583225318,
        "distance_shoulder_lift_joint": 0.750776988263419,
        "distance_shoulder_pan_joint": 1.2407156798854204,
        "distance_wrist_1_joint": 0.9294774628946738,
        "distance_wrist_2_joint": 1.4504744406113386,
        "distance_wrist_3_joint": 4.235698025919647,
        "smoothness": 0.10539572645009246,
        "time": 0.6554591830000001,
        "traj_len": 3.0380981807533862,
        "weighted_distance": 4.481226228527449
    },
    "planner": "BFMT",
    "start": {
        "state": {
            "elbow_joint": 1.919643534880228,
            "shoulder_lift_joint": -1.8972525353963687,
            "shoulder_pan_joint": -1.1188672234189438,
            "wrist_1_joint": -1.5931878212786155,
            "wrist_2_joint": 1.5706036197970081,
            "wrist_3_joint": 1.118896926603594
        }
    },
    "waypoints": [
        {
            "positions": [
                -1.1188672234189438,
                -1.8972525353963687,
                1.919643534880228,
                -1.5931878212786155,
                1.5706036197970081,
                1.118896926603594
            ]
        },
        {
            "positions": [
                -1.10022579193269,
                -1.867126259395864,
                1.8964410506092226,
                -1.6011592246306665,
                1.477772409124408,
                0.9201516617877405
            ]
        },
        {
            "positions": [
                -1.0815843604464364,
                -1.8369999833953592,
                1.8732385663382174,
                -1.6091306279827178,
                1.3849411984518079,
                0.7214063969718871
            ]
        },
        {
            "positions": [
                -1.0629429289601826,
                -1.8068737073948544,
                1.850036082067212,
                -1.6171020313347688,
                1.2921099877792077,
                0.5226611321560337
            ]
        },
        {
            "positions": [
                -1.0443014974739289,
                -1.7767474313943497,
                1.8268335977962067,
                -1.62507343468682,
                1.1992787771066076,
                0.3239158673401803
            ]
        },
        {
            "positions": [
                -1.0256600659876751,
                -1.7466211553938449,
                1.8036311135252012,
                -1.6330448380388711,
                1.1064475664340072,
                0.12517060252432688
            ]
        },
        {
            "positions": [
                -1.0070186345014212,
                -1.7164948793933403,
                1.780428629254196,
                -1.6410162413909224,
                1.013616355761407,
                -0.07357466229152654
            ]
        },
        {
            "positions": [
                -0.9883772030151675,
                -1.6863686033928356,
                1.7572261449831905,
                -1.6489876447429734,
                0.9207851450888068,
                -0.27231992710737996
            ]
        },
        {
            "positions": [
                -0.9697357715289138,
                -1.6562423273923308,
                1.734023660712185,
                -1.6569590480950245,
                0.8279539344162068,
                -0.4710651919232334
            ]
        },
        {
            "positions": [
                -0.9510943400426599,
                -1.626116051391826,
                1.7108211764411798,
                -1.6649304514470757,
                0.7351227237436065,
                -0.6698104567390868
            ]
        },
        {
            "positions": [
                -0.9324529085564062,
                -1.5959897753913213,
                1.6876186921701744,
                -1.6729018547991268,
                0.6422915130710063,
                -0.8685557215549402
            ]
        },
        {
            "positions": [
                -0.9138114770701524,
                -1.5658634993908165,
                1.664416207899169,
                -1.680873258151178,
                0.5494603023984062,
                -1.0673009863707936
            ]
        },
        {
            "positions": [
                -0.8951700455838987,
                -1.5357372233903117,
                1.6412137236281636,
                -1.688844661503229,
                0.45662909172580607,
                -1.266046251186647
            ]
        },
        {
            "positions": [
                -0.8169378531184852,
                -1.5057940175243607,
                1.667711273402815,
                -1.624704613605532,
                0.4307444830688725,
                -1.408412008735063
            ]
        },
        {
            "positions": [
                -0.7387056606530716,
                -1.47585081165841,
                1.6942088231774663,
                -1.5605645657078353,
                0.4048598744119388,
                -1.5507777662834787
            ]
        },
        {
            "positions": [
                -0.6604734681876582,
                -1.445907605792459,
                1.7207063729521177,
                -1.4964245178101383,
                0.3789752657550052,
                -1.6931435238318946
            ]
        },
        {
            "positions": [
                -0.5822412757222446,
                -1.4159643999265081,
                1.747203922726769,
                -1.4322844699124413,
                0.3530906570980716,
                -1.8355092813803107
            ]
        },
        {
            "positions": [
                -0.5040090832568311,
                -1.3860211940605571,
                1.7737014725014204,
                -1.3681444220147445,
                0.327206048441138,
                -1.9778750389287265
            ]
        },
        {
            "positions": [
                -0.4257768907914177,
                -1.3560779881946061,
                1.8001990222760718,
                -1.3040043741170475,
                0.30132143978420434,
                -2.1202407964771424
            ]
        },
        {
            "positions": [
                -0.3475446983260042,
                -1.3261347823286553,
                1.8266965720507229,
                -1.2398643262193505,
                0.27543683112727074,
                -2.262606554025558
            ]
        },
        {
            "positions": [
                -0.26931250586059063,
                -1.2961915764627043,
                1.8531941218253745,
                -1.1757242783216535,
                0.2495522224703371,
                -2.404972311573974
            ]
        },
        {
            "positions": [
                -0.19108031339517717,
                -1.2662483705967533,
                1.8796916716000256,
                -1.1115842304239567,
                0.2236676138134035,
                -2.54733806912239
            ]
        },
        {
            "positions": [
                -0.1128481209297637,
                -1.2363051647308025,
                1.906189221374677,
                -1.0474441825262597,
                0.19778300515646985,
                -2.6897038266708058
            ]
        },
        {
            "positions": [
                -0.03461592846435024,
                -1.2063619588648515,
                1.9326867711493283,
                -0.9833041346285628,
                0.17189839649953625,
                -2.8320695842192216
            ]
        },
        {
            "positions": [
                0.04361626400106333,
                -1.1764187529989005,
                1.9591843209239796,
                -0.9191640867308658,
                0.1460137878426026,
                -2.9744353417676375
            ]
        },
        {
            "positions": [
                0.12184845646647674,
                -1.1464755471329497,
                1.985681870698631,
                -0.8550240388331689,
                0.120129179185669,
                -3.1168010993160533
            ]
        }
    ]
}