{
    "goal": {
        "global_pose": {
            "orientation": {
                "w": 0.7047431468963623,
                "x": -0.7094548344612122,
                "y": 0.0024358443915843964,
                "z": -0.0022348060738295317
            },
            "position": {
                "x": 0.6094750761985779,
                "y": 0.3671506643295288,
                "z": 0.19426114857196808
            }
        },
        "name": "move_to_magneteinheit_A"
    },
    "id": "BFMT_move_to_magneteinheit_A_50",
    "joint_names": [
        "shoulder_pan_joint",
        "shoulder_lift_joint",
        "elbow_joint",
        "wrist_1_joint",
        "wrist_2_joint",
        "wrist_3_joint"
    ],
    "metrics": {
        "cart_traj_len": 3.4299338583839236,
        "distance_elbow_joint": 3.8848576824953214,
        "distance_shoulder_lift_joint": 0.16358323276235565,
        "distance_shoulder_pan_joint": 2.6455770478682976,
        "distance_wrist_1_joint": 0.7948532883521086,
        "distance_wrist_2_joint": 1.6952901519999388,
        "distance_wrist_3_joint": 2.618722570531528,
        "smoothness": 0.006470847353757251,
        "time": 0.919770216,
        "traj_len": 3.435532560464178,
        "weighted_distance": 4.419329423727615
    },
    "planner": "BFMT",
    "start": {
        "state": {
            "elbow_joint": -1.919618573717145,
            "shoulder_lift_joint": -1.2443395971678275,
            "shoulder_pan_joint": 2.6996025300909787,
            "wrist_1_joint": -1.548550951253194,
            "wrist_2_joint": -1.5709469090946802,
            "wrist_3_joint": 0.4420197732051276
        }
    },
    "waypoints": [
        {
            "positions": [
                2.6996025300909787,
                -1.2443395971678275,
                -1.919618573717145,
                -1.548550951253194,
                -1.5709469090946802,
                0.4420197732051276
            ]
        },
        {
            "positions": [
                2.546828528969842,
                -1.2359771164349733,
                -1.7595453502302165,
                -1.5339124533455784,
                -1.514889855084918,
                0.4454778824468052
            ]
        },
        {
            "positions": [
                2.394054527848705,
                -1.227614635702119,
                -1.599472126743288,
                -1.5192739554379626,
                -1.458832801075156,
                0.4489359916884828
            ]
        },
        {
            "positions": [
                2.241280526727568,
                -1.2192521549692648,
                -1.4393989032563597,
                -1.5046354575303469,
                -1.4027757470653937,
                0.4523941009301604
            ]
        },
        {
            "positions": [
                2.088506525606431,
                -1.2108896742364106,
                -1.2793256797694315,
                -1.4899969596227312,
                -1.3467186930556316,
                0.455852210171838
            ]
        },
        {
            "positions": [
                1.9357325244852945,
                -1.2025271935035564,
                -1.1192524562825028,
                -1.4753584617151154,
                -1.2906616390458694,
                0.45931031941351563
            ]
        },
        {
            "positions": [
                1.7829585233641576,
                -1.194164712770702,
                -0.9591792327955744,
                -1.4607199638074997,
                -1.2346045850361071,
                0.46276842865519324
            ]
        },
        {
            "positions": [
                1.6301845222430207,
                -1.1858022320378478,
                -0.799106009308646,
                -1.446081465899884,
                -1.1785475310263451,
                0.46622653789687085
            ]
        },
        {
            "positions": [
                1.4774105211218838,
                -1.1774397513049937,
                -0.6390327858217177,
                -1.4314429679922682,
                -1.1224904770165829,
                0.4696846471385485
            ]
        },
        {
            "positions": [
                1.324636520000747,
                -1.1690772705721395,
                -0.4789595623347893,
                -1.4168044700846525,
                -1.0664334230068206,
                0.4731427563802261
            ]
        },
        {
            "positions": [
                1.1718625188796101,
                -1.160714789839285,
                -0.3188863388478609,
                -1.4021659721770368,
                -1.0103763689970586,
                0.47660086562190374
            ]
        },
        {
            "positions": [
                1.0190885177584732,
                -1.152352309106431,
                -0.15881311536093246,
                -1.387527474269421,
                -0.9543193149872965,
                0.48005897486358134
            ]
        },
        {
            "positions": [
                0.8663145166373363,
                -1.1439898283735768,
                0.0012601081259961955,
                -1.3728889763618053,
                -0.8982622609775343,
                0.48351708410525895
            ]
        },
        {
            "positions": [
                0.7135405155161993,
                -1.1356273476407224,
                0.1613333316129244,
                -1.3582504784541896,
                -0.8422052069677721,
                0.48697519334693656
            ]
        },
        {
            "positions": [
                0.5607665143950626,
                -1.1272648669078682,
                0.32140655509985305,
                -1.3436119805465738,
                -0.78614815295801,
                0.4904333025886142
            ]
        },
        {
            "positions": [
                0.40799251327392566,
                -1.118902386175014,
                0.48147977858678126,
                -1.328973482638958,
                -0.7300910989482479,
                0.4938914118302918
            ]
        },
        {
            "positions": [
                0.3724546709640169,
                -1.1171752535058095,
                0.589541255658429,
                -1.2882835275569013,
                -0.6803637147140924,
                0.6278272701252192
            ]
        },
        {
            "positions": [
                0.33691682865410816,
                -1.1154481208366047,
                0.6976027327300767,
                -1.2475935724748444,
                -0.6306363304799368,
                0.7617631284201467
            ]
        },
        {
            "positions": [
                0.3013789863441994,
                -1.1137209881674002,
                0.8056642098017245,
                -1.2069036173927876,
                -0.5809089462457814,
                0.8956989867150742
            ]
        },
        {
            "positions": [
                0.2658411440342907,
                -1.1119938554981956,
                0.9137256868733722,
                -1.1662136623107309,
                -0.5311815620116259,
                1.0296348450100017
            ]
        },
        {
            "positions": [
                0.23030330172438193,
                -1.1102667228289909,
                1.02178716394502,
                -1.125523707228674,
                -0.48145417777747035,
                1.1635707033049292
            ]
        },
        {
            "positions": [
                0.19476545941447318,
                -1.1085395901597863,
                1.1298486410166677,
                -1.0848337521466171,
                -0.4317267935433149,
                1.2975065615998567
            ]
        },
        {
            "positions": [
                0.17353543476613958,
                -1.1088826848099576,
                1.2303255135555993,
                -1.0436803353703266,
                -0.37635850679298705,
                1.4603062838877618
            ]
        },
        {
            "positions": [
                0.152305410117806,
                -1.1092257794601288,
                1.3308023860945308,
                -1.0025269185940362,
                -0.3209902200426592,
                1.623106006175667
            ]
        },
        {
            "positions": [
                0.1310753854694724,
                -1.1095688741103,
                1.4312792586334626,
                -0.9613735018177456,
                -0.26562193329233136,
                1.7859057284635722
            ]
        },
        {
            "positions": [
                0.10984536082113881,
                -1.1099119687604713,
                1.5317561311723942,
                -0.920220085041455,
                -0.21025364654200351,
                1.9487054507514774
            ]
        },
        {
            "positions": [
                0.08861533617280523,
                -1.1102550634106425,
                1.6322330037113257,
                -0.8790666682651646,
                -0.15488535979167567,
                2.1115051730393826
            ]
        },
        {
            "positions": [
                0.09058341638313194,
                -1.1138017443756112,
                1.7021325620877097,
                -0.8485147272014424,
                -0.10225418826663477,
                2.2840827919537245
            ]
        },
        {
            "positions": [
                0.09255149659345864,
                -1.1173484253405799,
                1.7720321204640936,
                -0.8179627861377202,
                -0.04962301674159385,
                2.456660410868067
            ]
        },
        {
            "positions": [
                0.1027693944366156,
                -1.1236732221984203,
                1.8364344499021215,
                -0.7965410783921754,
                0.008365736474023638,
                2.6580210551575965
            ]
        },
        {
            "positions": [
                0.11298729227977257,
                -1.1299980190562604,
                1.900836779340149,
                -0.7751193706466304,
                0.06635448968964112,
                2.859381699447126
            ]
        },
        {
            "positions": [
                0.12320519012292953,
                -1.1363228159141008,
                1.9652391087781769,
                -0.7536976629010855,
                0.12434324290525864,
                3.0607423437366554
            ]
        }
    ]
}{
    "goal": {
        "global_pose": {
            "orientation": {
                "w": 0.7047431468963623,
                "x": -0.7094548344612122,
                "y": 0.0024358443915843964,
                "z": -0.0022348060738295317
            },
            "position": {
                "x": 0.6094750761985779,
                "y": 0.3671506643295288,
                "z": 0.19426114857196808
            }
        },
        "name": "move_to_magneteinheit_A"
    },
    "id": "BFMT_move_to_magneteinheit_A_50",
    "joint_names": [
        "shoulder_pan_joint",
        "shoulder_lift_joint",
        "elbow_joint",
        "wrist_1_joint",
        "wrist_2_joint",
        "wrist_3_joint"
    ],
    "metrics": {
        "cart_traj_len": 1.1841422522949323,
        "distance_elbow_joint": 0.08449072233984767,
        "distance_shoulder_lift_joint": 0.7502204075931753,
        "distance_shoulder_pan_joint": 1.2410935657864484,
        "distance_wrist_1_joint": 0.7541202867465303,
        "distance_wrist_2_joint": 1.4363205960694958,
        "distance_wrist_3_joint": 4.250582436564072,
        "smoothness": 0.01632964942912178,
        "time": 0.568847624,
        "traj_len": 2.918360501223173,
        "weighted_distance": 4.382742722433491
    },
    "planner": "BFMT",
    "start": {
        "state": {
            "elbow_joint": 1.919643534880228,
            "shoulder_lift_joint": -1.8972525353963687,
            "shoulder_pan_joint": -1.1188672234189438,
            "wrist_1_joint": -1.5931878212786155,
            "wrist_2_joint": 1.5706036197970081,
            "wrist_3_joint": 1.118896926603594
        }
    },
    "waypoints": [
        {
            "positions": [
                -1.1188672234189438,
                -1.8972525353963687,
                1.919643534880228,
                -1.5931878212786155,
                1.5706036197970081,
                1.118896926603594
            ]
        },
        {
            "positions": [
                -1.0638517596682282,
                -1.8653249892274486,
                1.9232204542913276,
                -1.5594692677403383,
                1.5026148847368181,
                0.9281257788150489
            ]
        },
        {
            "positions": [
                -1.0088362959175126,
                -1.8333974430585285,
                1.926797373702427,
                -1.525750714202061,
                1.4346261496766284,
                0.7373546310265038
            ]
        },
        {
            "positions": [
                -0.9538208321667969,
                -1.8014698968896083,
                1.9303742931135266,
                -1.4920321606637839,
                1.3666374146164384,
                0.5465834832379586
            ]
        },
        {
            "positions": [
                -0.8988053684160813,
                -1.7695423507206882,
                1.9339512125246259,
                -1.4583136071255065,
                1.2986486795562486,
                0.3558123354494135
            ]
        },
        {
            "positions": [
                -0.8437899046653656,
                -1.737614804551768,
                1.9375281319357254,
                -1.4245950535872294,
                1.2306599444960586,
                0.16504118766086828
            ]
        },
        {
            "positions": [
                -0.78877444091465,
                -1.7056872583828482,
                1.9411050513468249,
                -1.3908765000489522,
                1.1626712094358689,
                -0.02572996012767681
            ]
        },
        {
            "positions": [
                -0.7337589771639345,
                -1.673759712213928,
                1.9446819707579244,
                -1.357157946510675,
                1.094682474375679,
                -0.216501107916222
            ]
        },
        {
            "positions": [
                -0.6787435134132188,
                -1.641832166045008,
                1.9482588901690239,
                -1.3234393929723978,
                1.0266937393154891,
                -0.407272255704767
            ]
        },
        {
            "positions": [
                -0.6237280496625032,
                -1.6099046198760878,
                1.9518358095801234,
                -1.2897208394341204,
                0.9587050042552991,
                -0.5980434034933122
            ]
        },
        {
            "positions": [
                -0.5687125859117875,
                -1.5779770737071677,
                1.9554127289912229,
                -1.2560022858958433,
                0.8907162691951093,
                -0.7888145512818574
            ]
        },
        {
            "positions": [
                -0.5136971221610719,
                -1.5460495275382475,
                1.9589896484023221,
                -1.2222837323575662,
                0.8227275341349193,
                -0.9795856990704028
            ]
        },
        {
            "positions": [
                -0.45868165841035624,
                -1.5141219813693274,
                1.9625665678134216,
                -1.1885651788192888,
                0.7547387990747295,
                -1.1703568468589476
            ]
        },
        {
            "positions": [
                -0.4036661946596406,
                -1.4821944352004073,
                1.9661434872245211,
                -1.1548466252810117,
                0.6867500640145395,
                -1.3611279946474928
            ]
        },
        {
            "positions": [
                -0.34865073090892507,
                -1.4502668890314871,
                1.9697204066356206,
                -1.1211280717427345,
                0.6187613289543497,
                -1.551899142436038
            ]
        },
        {
            "positions": [
                -0.2936352671582093,
                -1.4183393428625672,
                1.9732973260467201,
                -1.0874095182044572,
                0.5507725938941597,
                -1.7426702902245832
            ]
        },
        {
            "positions": [
                -0.23861980340749378,
                -1.386411796693647,
                1.9768742454578196,
                -1.0536909646661798,
                0.4827838588339699,
                -1.933441438013128
            ]
        },
        {
            "positions": [
                -0.18360433965677814,
                -1.354484250524727,
                1.9804511648689191,
                -1.0199724111279027,
                0.4147951237737799,
                -2.124212585801674
            ]
        },
        {
            "positions": [
                -0.1285888759060625,
                -1.3225567043558069,
                1.9840280842800184,
                -0.9862538575896256,
                0.34680638871359015,
                -2.3149837335902186
            ]
        },
        {
            "positions": [
                -0.07357341215534685,
                -1.2906291581868867,
                1.987605003691118,
                -0.9525353040513483,
                0.27881765365340017,
                -2.5057548813787633
            ]
        },
        {
            "positions": [
                -0.018557948404631208,
                -1.2587016120179666,
                1.9911819231022174,
                -0.9188167505130711,
                0.2108289185932104,
                -2.696526029167309
            ]
        },
        {
            "positions": [
                0.03645751534608439,
                -1.2267740658490465,
                1.994758842513317,
                -0.8850981969747939,
                0.14284018353302044,
                -2.8872971769558538
            ]
        },
        {
            "positions": [
                0.07934192885679435,
                -1.18690309682612,
                1.9900711351599374,
                -0.8620828657534395,
                0.13856160363026637,
                -3.0094913434581656
            ]
        },
        {
            "positions": [
                0.1222263423675043,
                -1.1470321278031934,
                1.985383427806558,
                -0.8390675345320852,
                0.1342830237275123,
                -3.131685509960477
            ]
        }
    ]
}