{
    "goal": {
        "global_pose": {
            "orientation": {
                "w": 0.5084816217422485,
                "x": -0.49083608388900757,
                "y": 0.5182115435600281,
                "z": -0.4816462993621826
            },
            "position": {
                "x": 0.5540239810943604,
                "y": 0.030875300988554955,
                "z": 0.16403168439865112
            }
        },
        "name": "move_to_storage_A"
    },
    "id": "BFMT_move_to_storage_A_24",
    "joint_names": [
        "shoulder_pan_joint",
        "shoulder_lift_joint",
        "elbow_joint",
        "wrist_1_joint",
        "wrist_2_joint",
        "wrist_3_joint"
    ],
    "metrics": {
        "cart_traj_len": 0.35396752376327884,
        "distance_elbow_joint": 0.4513521510538543,
        "distance_shoulder_lift_joint": 0.23346134076657643,
        "distance_shoulder_pan_joint": 0.4600886549328925,
        "distance_wrist_1_joint": 0.2527133144982471,
        "distance_wrist_2_joint": 1.1118694086640852,
        "distance_wrist_3_joint": 0.10115249706874163,
        "smoothness": 8.881784197001252e-16,
        "time": 0.471919266,
        "traj_len": 1.615746690228514,
        "weighted_distance": 2.043899479985308
    },
    "planner": "BFMT",
    "start": {
        "state": {
            "elbow_joint": 1.9715477243005601,
            "shoulder_lift_joint": -1.1394853015351272,
            "shoulder_pan_joint": 0.12281154014795169,
            "wrist_1_joint": -0.7804696478968182,
            "wrist_2_joint": 0.12958648046900423,
            "wrist_3_joint": -3.192491284697111
        }
    },
    "waypoints": [
        {
            "positions": [
                0.12281154014795169,
                -1.1394853015351272,
                1.9715477243005601,
                -0.7804696478968182,
                0.12958648046900423,
                -3.192491284697111
            ]
        },
        {
            "positions": [
                0.05708458944325276,
                -1.1728369216446382,
                2.036026603022539,
                -0.8165715499679963,
                0.2884249674210164,
                -3.1780409279730053
            ]
        },
        {
            "positions": [
                -0.008642361261446171,
                -1.206188541754149,
                2.1005054817445186,
                -0.8526734520391744,
                0.44726345437302856,
                -3.1635905712488994
            ]
        },
        {
            "positions": [
                -0.07436931196614509,
                -1.23954016186366,
                2.1649843604664976,
                -0.8887753541103526,
                0.6061019413250408,
                -3.1491402145247935
            ]
        },
        {
            "positions": [
                -0.14009626267084402,
                -1.2728917819731709,
                2.229463239188477,
                -0.9248772561815308,
                0.7649404282770529,
                -3.134689857800687
            ]
        },
        {
            "positions": [
                -0.205823213375543,
                -1.3062434020826819,
                2.293942117910456,
                -0.960979158252709,
                0.9237789152290651,
                -3.1202395010765813
            ]
        },
        {
            "positions": [
                -0.27155016408024185,
                -1.3395950221921926,
                2.358420996632435,
                -0.9970810603238871,
                1.0826174021810773,
                -3.1057891443524754
            ]
        },
        {
            "positions": [
                -0.3372771147849408,
                -1.3729466423017036,
                2.4228998753544144,
                -1.0331829623950652,
                1.2414558891330896,
                -3.0913387876283696
            ]
        }
    ]
}