{
    "goal": {
        "global_pose": {
            "orientation": {
                "w": 0.5084816217422485,
                "x": -0.49083608388900757,
                "y": 0.5182115435600281,
                "z": -0.4816462993621826
            },
            "position": {
                "x": 0.5540239810943604,
                "y": 0.030875300988554955,
                "z": 0.16403168439865112
            }
        },
        "name": "move_to_storage_A"
    },
    "id": "BFMT_move_to_storage_A_23",
    "joint_names": [
        "shoulder_pan_joint",
        "shoulder_lift_joint",
        "elbow_joint",
        "wrist_1_joint",
        "wrist_2_joint",
        "wrist_3_joint"
    ],
    "metrics": {
        "cart_traj_len": 0.35333501011312246,
        "distance_elbow_joint": 0.4544343418497845,
        "distance_shoulder_lift_joint": 0.23356717350836242,
        "distance_shoulder_pan_joint": 0.46176646669062854,
        "distance_wrist_1_joint": 0.2589264067214553,
        "distance_wrist_2_joint": 1.100901786557639,
        "distance_wrist_3_joint": 0.09899925979443536,
        "smoothness": 4.440892098500626e-16,
        "time": 0.45148235600000003,
        "traj_len": 1.6151146817245843,
        "weighted_distance": 2.041181556841593
    },
    "planner": "BFMT",
    "start": {
        "state": {
            "elbow_joint": 1.9715477243005601,
            "shoulder_lift_joint": -1.1394853015351272,
            "shoulder_pan_joint": 0.12281154014795169,
            "wrist_1_joint": -0.7804696478968182,
            "wrist_2_joint": 0.12958648046900423,
            "wrist_3_joint": -3.192491284697111
        }
    },
    "waypoints": [
        {
            "positions": [
                0.12281154014795169,
                -1.1394853015351272,
                1.9715477243005601,
                -0.7804696478968182,
                0.12958648046900423,
                -3.192491284697111
            ]
        },
        {
            "positions": [
                0.05684490204929048,
                -1.1728520406077503,
                2.0364669159933864,
                -0.8174591345713118,
                0.28685816426295263,
                -3.178348533297906
            ]
        },
        {
            "positions": [
                -0.009121736049370735,
                -1.2062187796803736,
                2.101386107686213,
                -0.8544486212458053,
                0.44412984805690103,
                -3.1642057818987013
            ]
        },
        {
            "positions": [
                -0.07508837414803195,
                -1.2395855187529967,
                2.1663052993790393,
                -0.891438107920299,
                0.6014015318508494,
                -3.150063030499496
            ]
        },
        {
            "positions": [
                -0.14105501224669315,
                -1.27295225782562,
                2.2312244910718655,
                -0.9284275945947926,
                0.7586732156447978,
                -3.135920279100291
            ]
        },
        {
            "positions": [
                -0.2070216503453544,
                -1.3063189968982432,
                2.2961436827646917,
                -0.9654170812692862,
                0.9159448994387464,
                -3.1217775277010857
            ]
        },
        {
            "positions": [
                -0.27298828844401557,
                -1.3396857359708663,
                2.3610628744575184,
                -1.00240656794378,
                1.0732165832326945,
                -3.107634776301881
            ]
        },
        {
            "positions": [
                -0.33895492654267684,
                -1.3730524750434896,
                2.4259820661503446,
                -1.0393960546182734,
                1.230488267026643,
                -3.093492024902676
            ]
        }
    ]
}