{
    "goal": {
        "global_pose": {
            "orientation": {
                "w": 0.7047431468963623,
                "x": -0.7094548344612122,
                "y": 0.0024358443915843964,
                "z": -0.0022348060738295317
            },
            "position": {
                "x": 0.6094750761985779,
                "y": 0.3671506643295288,
                "z": 0.19426114857196808
            }
        },
        "name": "move_to_magneteinheit_A"
    },
    "id": "BFMT_move_to_magneteinheit_A_102",
    "joint_names": [
        "shoulder_pan_joint",
        "shoulder_lift_joint",
        "elbow_joint",
        "wrist_1_joint",
        "wrist_2_joint",
        "wrist_3_joint"
    ],
    "metrics": {
        "cart_traj_len": 3.362647748158058,
        "distance_elbow_joint": 3.927687494052917,
        "distance_shoulder_lift_joint": 1.0433764652785995,
        "distance_shoulder_pan_joint": 3.576413644149979,
        "distance_wrist_1_joint": 3.5091587451837594,
        "distance_wrist_2_joint": 2.5668381720731746,
        "distance_wrist_3_joint": 2.109913237680827,
        "smoothness": 0.1888585248024425,
        "time": 1.152797586,
        "traj_len": 4.0906463741588865,
        "weighted_distance": 5.198962507177546
    },
    "planner": "BFMT",
    "start": {
        "state": {
            "elbow_joint": -1.919618573717145,
            "shoulder_lift_joint": -1.2443395971678275,
            "shoulder_pan_joint": 2.6996025300909787,
            "wrist_1_joint": -1.548550951253194,
            "wrist_2_joint": -1.5709469090946802,
            "wrist_3_joint": 0.4420197732051276
        }
    },
    "waypoints": [
        {
            "positions": [
                2.6996025300909787,
                -1.2443395971678275,
                -1.919618573717145,
                -1.548550951253194,
                -1.5709469090946802,
                0.4420197732051276
            ]
        },
        {
            "positions": [
                2.537679791126195,
                -1.204742976387243,
                -1.873087729079159,
                -1.5145091057109081,
                -1.6008293425524551,
                0.3734769342234441
            ]
        },
        {
            "positions": [
                2.3757570521614118,
                -1.1651463556066586,
                -1.826556884441173,
                -1.480467260168622,
                -1.63071177601023,
                0.30493409524176057
            ]
        },
        {
            "positions": [
                2.213834313196628,
                -1.1255497348260741,
                -1.7800260398031873,
                -1.446425414626336,
                -1.6605942094680048,
                0.23639125626007704
            ]
        },
        {
            "positions": [
                2.0519115742318443,
                -1.0859531140454897,
                -1.7334951951652013,
                -1.4123835690840498,
                -1.6904766429257798,
                0.16784841727839356
            ]
        },
        {
            "positions": [
                1.8899888352670609,
                -1.0463564932649052,
                -1.6869643505272154,
                -1.3783417235417639,
                -1.7203590763835548,
                0.09930557829671005
            ]
        },
        {
            "positions": [
                1.7280660963022774,
                -1.0067598724843205,
                -1.6404335058892294,
                -1.344299877999478,
                -1.7502415098413298,
                0.03076273931502649
            ]
        },
        {
            "positions": [
                1.5661433573374937,
                -0.9671632517037361,
                -1.5939026612512435,
                -1.3102580324571917,
                -1.7801239432991047,
                -0.03778009966665702
            ]
        },
        {
            "positions": [
                1.4042206183727102,
                -0.9275666309231516,
                -1.5473718166132575,
                -1.2762161869149058,
                -1.8100063767568797,
                -0.10632293864834047
            ]
        },
        {
            "positions": [
                1.2422978794079265,
                -0.8879700101425672,
                -1.5008409719752716,
                -1.2421743413726198,
                -1.8398888102146547,
                -0.17486577763002403
            ]
        },
        {
            "positions": [
                1.080375140443143,
                -0.8483733893619827,
                -1.4543101273372858,
                -1.2081324958303337,
                -1.8697712436724294,
                -0.24340861661170748
            ]
        },
        {
            "positions": [
                0.918452401478359,
                -0.8087767685813982,
                -1.4077792826992996,
                -1.1740906502880477,
                -1.8996536771302044,
                -0.31195145559339116
            ]
        },
        {
            "positions": [
                0.7565296625135758,
                -0.7691801478008138,
                -1.361248438061314,
                -1.1400488047457618,
                -1.9295361105879794,
                -0.3804942945750746
            ]
        },
        {
            "positions": [
                0.5946069235487919,
                -0.7295835270202292,
                -1.314717593423328,
                -1.1060069592034756,
                -1.9594185440457543,
                -0.4490371335567582
            ]
        },
        {
            "positions": [
                0.4326841845840086,
                -0.6899869062396448,
                -1.2681867487853422,
                -1.0719651136611896,
                -1.9893009775035293,
                -0.5175799725384416
            ]
        },
        {
            "positions": [
                0.2707614456192249,
                -0.6503902854590603,
                -1.2216559041473563,
                -1.0379232681189037,
                -2.019183410961304,
                -0.5861228115201251
            ]
        },
        {
            "positions": [
                0.10883870665444162,
                -0.6107936646784758,
                -1.1751250595093703,
                -1.0038814225766175,
                -2.0490658444190792,
                -0.6546656505018085
            ]
        },
        {
            "positions": [
                -0.05308403231034253,
                -0.5711970438978913,
                -1.1285942148713843,
                -0.9698395770343314,
                -2.078948277876854,
                -0.723208489483492
            ]
        },
        {
            "positions": [
                -0.2150067712751258,
                -0.5316004231173069,
                -1.0820633702333984,
                -0.9357977314920455,
                -2.1088307113346287,
                -0.7917513284651756
            ]
        },
        {
            "positions": [
                -0.3769295102399095,
                -0.49200380233672236,
                -1.0355325255954124,
                -0.9017558859497594,
                -2.138713144792404,
                -0.8602941674468592
            ]
        },
        {
            "positions": [
                -0.3561011100807808,
                -0.5041304969387013,
                -0.908715798681613,
                -0.7824907326214126,
                -2.05541848077676,
                -0.8266441967373241
            ]
        },
        {
            "positions": [
                -0.33527270992165215,
                -0.5162571915406803,
                -0.7818990717678137,
                -0.6632255792930657,
                -1.9721238167611164,
                -0.7929942260277891
            ]
        },
        {
            "positions": [
                -0.31444430976252347,
                -0.5283838861426592,
                -0.6550823448540143,
                -0.5439604259647188,
                -1.8888291527454726,
                -0.7593442553182541
            ]
        },
        {
            "positions": [
                -0.2936159096033948,
                -0.5405105807446381,
                -0.528265617940215,
                -0.42469527263637197,
                -1.8055344887298288,
                -0.7256942846087191
            ]
        },
        {
            "positions": [
                -0.2727875094442661,
                -0.5526372753466171,
                -0.40144889102641546,
                -0.3054301193080251,
                -1.722239824714185,
                -0.6920443138991841
            ]
        },
        {
            "positions": [
                -0.25195910928513743,
                -0.564763969948596,
                -0.27463216411261615,
                -0.18616496597967824,
                -1.6389451606985412,
                -0.6583943431896491
            ]
        },
        {
            "positions": [
                -0.23113070912600875,
                -0.5768906645505749,
                -0.14781543719881673,
                -0.06689981265133138,
                -1.5556504966828975,
                -0.624744372480114
            ]
        },
        {
            "positions": [
                -0.21030230896688007,
                -0.5890173591525538,
                -0.02099871028501754,
                0.05236534067701548,
                -1.4723558326672537,
                -0.591094401770579
            ]
        },
        {
            "positions": [
                -0.1894739088077514,
                -0.6011440537545328,
                0.1058180166287821,
                0.17163049400536234,
                -1.38906116865161,
                -0.557444431061044
            ]
        },
        {
            "positions": [
                -0.1686455086486227,
                -0.6132707483565117,
                0.2326347435425815,
                0.2908956473337092,
                -1.305766504635966,
                -0.523794460351509
            ]
        },
        {
            "positions": [
                -0.14781710848949403,
                -0.6253974429584906,
                0.3594514704563807,
                0.41016080066205607,
                -1.2224718406203223,
                -0.490144489641974
            ]
        },
        {
            "positions": [
                -0.12698870833036535,
                -0.6375241375604697,
                0.4862681973701801,
                0.5294259539904029,
                -1.1391771766046785,
                -0.456494518932439
            ]
        },
        {
            "positions": [
                -0.10616030817123667,
                -0.6496508321624486,
                0.6130849242839793,
                0.6486911073187498,
                -1.0558825125890348,
                -0.422844548222904
            ]
        },
        {
            "positions": [
                -0.085331908012108,
                -0.6617775267644275,
                0.739901651197779,
                0.7679562606470967,
                -0.972587848573391,
                -0.3891945775133689
            ]
        },
        {
            "positions": [
                -0.06450350785297931,
                -0.6739042213664064,
                0.8667183781115781,
                0.8872214139754435,
                -0.8892931845577472,
                -0.35554460680383393
            ]
        },
        {
            "positions": [
                -0.043675107693850634,
                -0.6860309159683853,
                0.9935351050253773,
                1.0064865673037904,
                -0.8059985205421034,
                -0.3218946360942989
            ]
        },
        {
            "positions": [
                -0.022846707534721955,
                -0.6981576105703643,
                1.120351831939177,
                1.1257517206321372,
                -0.7227038565264596,
                -0.2882446653847639
            ]
        },
        {
            "positions": [
                -0.0020183073755932757,
                -0.7102843051723432,
                1.2471685588529766,
                1.245016873960484,
                -0.6394091925108158,
                -0.2545946946752289
            ]
        },
        {
            "positions": [
                0.018810092783535404,
                -0.7224109997743222,
                1.3739852857667758,
                1.364282027288831,
                -0.5561145284951721,
                -0.22094472396569387
            ]
        },
        {
            "positions": [
                0.03963849294266408,
                -0.7345376943763011,
                1.5008020126805754,
                1.4835471806171778,
                -0.4728198644795283,
                -0.18729475325615885
            ]
        },
        {
            "positions": [
                0.06046689310179276,
                -0.74666438897828,
                1.6276187395943746,
                1.6028123339455247,
                -0.3895252004638845,
                -0.15364478254662384
            ]
        },
        {
            "positions": [
                0.08129529326092144,
                -0.7587910835802589,
                1.7544354665081738,
                1.7220774872738716,
                -0.3062305364482407,
                -0.11999481183708882
            ]
        },
        {
            "positions": [
                0.10212369342005012,
                -0.770917778182238,
                1.8812521934219735,
                1.8413426406022184,
                -0.22293587243259694,
                -0.0863448411275538
            ]
        },
        {
            "positions": [
                0.12295209357917883,
                -0.7830444727842168,
                2.0080689203357727,
                1.960607793930565,
                -0.13964120841695313,
                -0.052694870418018826
            ]
        }
    ]
}{
    "goal": {
        "global_pose": {
            "orientation": {
                "w": 0.7047431468963623,
                "x": -0.7094548344612122,
                "y": 0.0024358443915843964,
                "z": -0.0022348060738295317
            },
            "position": {
                "x": 0.6094750761985779,
                "y": 0.3671506643295288,
                "z": 0.19426114857196808
            }
        },
        "name": "move_to_magneteinheit_A"
    },
    "id": "BFMT_move_to_magneteinheit_A_102",
    "joint_names": [
        "shoulder_pan_joint",
        "shoulder_lift_joint",
        "elbow_joint",
        "wrist_1_joint",
        "wrist_2_joint",
        "wrist_3_joint"
    ],
    "metrics": {
        "cart_traj_len": 1.1946360317630487,
        "distance_elbow_joint": 0.10406876552426314,
        "distance_shoulder_lift_joint": 0.7511071755381908,
        "distance_shoulder_pan_joint": 1.2416016716441058,
        "distance_wrist_1_joint": 0.7406271954719308,
        "distance_wrist_2_joint": 1.4468474083928813,
        "distance_wrist_3_joint": 4.24069632869816,
        "smoothness": 0.017205079900146872,
        "time": 0.566718662,
        "traj_len": 2.9197514526530393,
        "weighted_distance": 4.381074731904337
    },
    "planner": "BFMT",
    "start": {
        "state": {
            "elbow_joint": 1.919643534880228,
            "shoulder_lift_joint": -1.8972525353963687,
            "shoulder_pan_joint": -1.1188672234189438,
            "wrist_1_joint": -1.5931878212786155,
            "wrist_2_joint": 1.5706036197970081,
            "wrist_3_joint": 1.118896926603594
        }
    },
    "waypoints": [
        {
            "positions": [
                -1.1188672234189438,
                -1.8972525353963687,
                1.919643534880228,
                -1.5931878212786155,
                1.5706036197970081,
                1.118896926603594
            ]
        },
        {
            "positions": [
                -1.0599024955544587,
                -1.8619510500353726,
                1.9238761004206275,
                -1.5586170184728672,
                1.5050348612340299,
                0.9215417598557014
            ]
        },
        {
            "positions": [
                -1.0009377676899733,
                -1.8266495646743763,
                1.928108665961027,
                -1.5240462156671186,
                1.4394661026710514,
                0.7241865931078089
            ]
        },
        {
            "positions": [
                -0.9419730398254882,
                -1.7913480793133802,
                1.9323412315014263,
                -1.4894754128613703,
                1.373897344108073,
                0.5268314263599163
            ]
        },
        {
            "positions": [
                -0.883008311961003,
                -1.7560465939523842,
                1.936573797041826,
                -1.4549046100556218,
                1.3083285855450946,
                0.32947625961202376
            ]
        },
        {
            "positions": [
                -0.8240435840965178,
                -1.7207451085913879,
                1.9408063625822254,
                -1.4203338072498735,
                1.2427598269821163,
                0.1321210928641312
            ]
        },
        {
            "positions": [
                -0.7650788562320325,
                -1.6854436232303918,
                1.9450389281226248,
                -1.385763004444125,
                1.177191068419138,
                -0.06523407388376135
            ]
        },
        {
            "positions": [
                -0.7061141283675474,
                -1.6501421378693957,
                1.9492714936630242,
                -1.3511922016383766,
                1.1116223098561595,
                -0.2625892406316539
            ]
        },
        {
            "positions": [
                -0.6471494005030621,
                -1.6148406525083994,
                1.9535040592034236,
                -1.316621398832628,
                1.046053551293181,
                -0.45994440737954645
            ]
        },
        {
            "positions": [
                -0.5881846726385769,
                -1.5795391671474033,
                1.957736624743823,
                -1.2820505960268798,
                0.9804847927302028,
                -0.657299574127439
            ]
        },
        {
            "positions": [
                -0.5292199447740917,
                -1.5442376817864072,
                1.9619691902842225,
                -1.2474797932211312,
                0.9149160341672244,
                -0.8546547408753316
            ]
        },
        {
            "positions": [
                -0.4702552169096065,
                -1.5089361964254109,
                1.966201755824622,
                -1.212908990415383,
                0.849347275604246,
                -1.0520099076232243
            ]
        },
        {
            "positions": [
                -0.41129048904512133,
                -1.4736347110644148,
                1.9704343213650215,
                -1.1783381876096346,
                0.7837785170412678,
                -1.2493650743711167
            ]
        },
        {
            "positions": [
                -0.3523257611806361,
                -1.4383332257034187,
                1.974666886905421,
                -1.143767384803886,
                0.7182097584782893,
                -1.4467202411190094
            ]
        },
        {
            "positions": [
                -0.29336103331615093,
                -1.4030317403424224,
                1.9788994524458203,
                -1.1091965819981378,
                0.652640999915311,
                -1.6440754078669018
            ]
        },
        {
            "positions": [
                -0.23439630545166568,
                -1.3677302549814263,
                1.9831320179862197,
                -1.0746257791923892,
                0.5870722413523326,
                -1.841430574614794
            ]
        },
        {
            "positions": [
                -0.17543157758718042,
                -1.3324287696204302,
                1.9873645835266192,
                -1.040054976386641,
                0.5215034827893541,
                -2.0387857413626866
            ]
        },
        {
            "positions": [
                -0.11646684972269528,
                -1.297127284259434,
                1.9915971490670188,
                -1.0054841735808924,
                0.4559347242263758,
                -2.2361409081105794
            ]
        },
        {
            "positions": [
                -0.05750212185820991,
                -1.2618257988984376,
                1.9958297146074182,
                -0.9709133707751441,
                0.39036596566339754,
                -2.433496074858472
            ]
        },
        {
            "positions": [
                0.0014626060062750135,
                -1.2265243135374417,
                2.0000622801478176,
                -0.9363425679693956,
                0.32479720710041926,
                -2.630851241606364
            ]
        },
        {
            "positions": [
                0.06042733387076045,
                -1.1912228281764454,
                2.004294845688217,
                -0.9017717651636472,
                0.25922844853744087,
                -2.828206408354257
            ]
        },
        {
            "positions": [
                0.09158089104796126,
                -1.1686840940173115,
                1.99458611833008,
                -0.877166195485166,
                0.19149232997078386,
                -2.975002905224411
            ]
        },
        {
            "positions": [
                0.12273444822516207,
                -1.146145359858178,
                1.9848773909719428,
                -0.8525606258066847,
                0.12375621140412685,
                -3.1217994020945654
            ]
        }
    ]
}