{
    "goal": {
        "global_pose": {
            "orientation": {
                "w": 0.7047431468963623,
                "x": -0.7094548344612122,
                "y": 0.0024358443915843964,
                "z": -0.0022348060738295317
            },
            "position": {
                "x": 0.6094750761985779,
                "y": 0.3671506643295288,
                "z": 0.19426114857196808
            }
        },
        "name": "move_to_magneteinheit_A"
    },
    "id": "BFMT_move_to_magneteinheit_A_68",
    "joint_names": [
        "shoulder_pan_joint",
        "shoulder_lift_joint",
        "elbow_joint",
        "wrist_1_joint",
        "wrist_2_joint",
        "wrist_3_joint"
    ],
    "metrics": {
        "cart_traj_len": 3.705385488017534,
        "distance_elbow_joint": 4.231099265498916,
        "distance_shoulder_lift_joint": 0.703570447640631,
        "distance_shoulder_pan_joint": 3.1157788053821163,
        "distance_wrist_1_joint": 0.9293817628712497,
        "distance_wrist_2_joint": 2.270010875364128,
        "distance_wrist_3_joint": 4.025256832889164,
        "smoothness": 0.5576462380366501,
        "time": 0.8036415490000001,
        "traj_len": 3.9083369851698055,
        "weighted_distance": 5.15024312956776
    },
    "planner": "BFMT",
    "start": {
        "state": {
            "elbow_joint": -1.919618573717145,
            "shoulder_lift_joint": -1.2443395971678275,
            "shoulder_pan_joint": 2.6996025300909787,
            "wrist_1_joint": -1.548550951253194,
            "wrist_2_joint": -1.5709469090946802,
            "wrist_3_joint": 0.4420197732051276
        }
    },
    "waypoints": [
        {
            "positions": [
                2.6996025300909787,
                -1.2443395971678275,
                -1.919618573717145,
                -1.548550951253194,
                -1.5709469090946802,
                0.4420197732051276
            ]
        },
        {
            "positions": [
                2.595532232922457,
                -1.238308529629051,
                -1.813413790367819,
                -1.5309820129958651,
                -1.5248256608094832,
                0.3368819670378552
            ]
        },
        {
            "positions": [
                2.491461935753935,
                -1.2322774620902748,
                -1.7072090070184927,
                -1.5134130747385364,
                -1.4787044125242863,
                0.23174416087058292
            ]
        },
        {
            "positions": [
                2.387391638585413,
                -1.2262463945514983,
                -1.6010042236691666,
                -1.4958441364812074,
                -1.4325831642390894,
                0.1266063547033106
            ]
        },
        {
            "positions": [
                2.283321341416891,
                -1.2202153270127218,
                -1.4947994403198406,
                -1.4782751982238787,
                -1.3864619159538925,
                0.021468548536038246
            ]
        },
        {
            "positions": [
                2.1792510442483692,
                -1.2141842594739456,
                -1.3885946569705143,
                -1.4607062599665497,
                -1.3403406676686955,
                -0.08366925763123406
            ]
        },
        {
            "positions": [
                2.0751807470798473,
                -1.2081531919351691,
                -1.2823898736211883,
                -1.443137321709221,
                -1.2942194193834986,
                -0.18880706379850637
            ]
        },
        {
            "positions": [
                1.9711104499113257,
                -1.2021221243963927,
                -1.1761850902718622,
                -1.425568383451892,
                -1.2480981710983017,
                -0.2939448699657787
            ]
        },
        {
            "positions": [
                1.8670401527428038,
                -1.1960910568576164,
                -1.069980306922536,
                -1.4079994451945632,
                -1.2019769228131048,
                -0.3990826761330511
            ]
        },
        {
            "positions": [
                1.762969855574282,
                -1.19005998931884,
                -0.9637755235732101,
                -1.3904305069372342,
                -1.155855674527908,
                -0.5042204823003233
            ]
        },
        {
            "positions": [
                1.65889955840576,
                -1.1840289217800635,
                -0.8575707402238839,
                -1.3728615686799055,
                -1.109734426242711,
                -0.6093582884675957
            ]
        },
        {
            "positions": [
                1.5548292612372383,
                -1.1779978542412872,
                -0.7513659568745579,
                -1.3552926304225765,
                -1.0636131779575142,
                -0.714496094634868
            ]
        },
        {
            "positions": [
                1.4507589640687164,
                -1.1719667867025108,
                -0.6451611735252316,
                -1.3377236921652478,
                -1.017491929672317,
                -0.8196339008021403
            ]
        },
        {
            "positions": [
                1.3466886669001945,
                -1.1659357191637345,
                -0.5389563901759056,
                -1.3201547539079188,
                -0.9713706813871202,
                -0.9247717069694126
            ]
        },
        {
            "positions": [
                1.2426183697316726,
                -1.159904651624958,
                -0.43275160682657954,
                -1.3025858156505898,
                -0.9252494331019233,
                -1.0299095131366849
            ]
        },
        {
            "positions": [
                1.138548072563151,
                -1.1538735840861816,
                -0.3265468234772535,
                -1.285016877393261,
                -0.8791281848167265,
                -1.1350473193039572
            ]
        },
        {
            "positions": [
                1.0344777753946288,
                -1.147842516547405,
                -0.22034204012792724,
                -1.2674479391359321,
                -0.8330069365315295,
                -1.2401851254712297
            ]
        },
        {
            "positions": [
                0.9304074782261071,
                -1.1418114490086289,
                -0.1141372567786012,
                -1.2498790008786034,
                -0.7868856882463325,
                -1.3453229316385018
            ]
        },
        {
            "positions": [
                0.8263371810575852,
                -1.1357803814698524,
                -0.007932473429275166,
                -1.2323100626212744,
                -0.7407644399611357,
                -1.4504607378057741
            ]
        },
        {
            "positions": [
                0.7222668838890633,
                -1.1297493139310761,
                0.09827230992005087,
                -1.2147411243639457,
                -0.6946431916759388,
                -1.5555985439730464
            ]
        },
        {
            "positions": [
                0.6181965867205412,
                -1.1237182463922997,
                0.20447709326937713,
                -1.1971721861066167,
                -0.6485219433907418,
                -1.660736350140319
            ]
        },
        {
            "positions": [
                0.5141262895520198,
                -1.1176871788535232,
                0.3106818766187034,
                -1.179603247849288,
                -0.6024006951055448,
                -1.765874156307591
            ]
        },
        {
            "positions": [
                0.4100559923834979,
                -1.111656111314747,
                0.4168866599680292,
                -1.162034309591959,
                -0.556279446820348,
                -1.8710119624748636
            ]
        },
        {
            "positions": [
                0.305985695214976,
                -1.1056250437759705,
                0.5230914433173555,
                -1.1444653713346302,
                -0.5101581985351511,
                -1.9761497686421357
            ]
        },
        {
            "positions": [
                0.2019153980464541,
                -1.099593976237194,
                0.6292962266666817,
                -1.1268964330773013,
                -0.46403695024995417,
                -2.081287574809408
            ]
        },
        {
            "positions": [
                0.09784510087793219,
                -1.0935629086984178,
                0.735501010016008,
                -1.1093274948199725,
                -0.41791570196475725,
                -2.1864253809766807
            ]
        },
        {
            "positions": [
                -0.006225196290589485,
                -1.0875318411596413,
                0.8417057933653338,
                -1.0917585565626435,
                -0.3717944536795604,
                -2.291563187143953
            ]
        },
        {
            "positions": [
                -0.02030072691208493,
                -1.117781365292998,
                0.9723851836263788,
                -1.103335075364965,
                -0.29369912335981613,
                -2.3979280024589884
            ]
        },
        {
            "positions": [
                -0.034376257533580375,
                -1.148030889426355,
                1.1030645738874238,
                -1.1149115941672862,
                -0.21560379304007188,
                -2.5042928177740236
            ]
        },
        {
            "positions": [
                -0.048451788155075816,
                -1.1782804135597116,
                1.2337439641484689,
                -1.1264881129696076,
                -0.13750846272032763,
                -2.610657633089059
            ]
        },
        {
            "positions": [
                -0.06252731877657126,
                -1.2085299376930685,
                1.3644233544095137,
                -1.138064631771929,
                -0.05941313240058338,
                -2.7170224484040943
            ]
        },
        {
            "positions": [
                -0.0766028493980667,
                -1.2387794618264252,
                1.4951027446705587,
                -1.1496411505742503,
                0.01868219791916087,
                -2.82338726371913
            ]
        },
        {
            "positions": [
                -0.09067838001956215,
                -1.2690289859597819,
                1.6257821349316037,
                -1.1612176693765717,
                0.09677752823890512,
                -2.9297520790341656
            ]
        },
        {
            "positions": [
                -0.10475391064105759,
                -1.2992785100931388,
                1.7564615251926488,
                -1.172794188178893,
                0.17487285855864937,
                -3.0361168943492007
            ]
        },
        {
            "positions": [
                -0.11882944126255304,
                -1.3295280342264955,
                1.8871409154536938,
                -1.1843707069812144,
                0.2529681888783936,
                -3.1424817096642363
            ]
        },
        {
            "positions": [
                -0.13290497188404848,
                -1.3597775583598524,
                2.017820305714739,
                -1.1959472257835357,
                0.33106351919813787,
                -3.248846524979272
            ]
        },
        {
            "positions": [
                -0.14698050250554393,
                -1.390027082493209,
                2.148499695975784,
                -1.207523744585857,
                0.40915884951788206,
                -3.355211340294307
            ]
        },
        {
            "positions": [
                -0.07968155930914488,
                -1.3289602199184898,
                2.107754447024287,
                -1.1183176995464856,
                0.3366825703299906,
                -3.298204910446875
            ]
        },
        {
            "positions": [
                -0.012382616112745826,
                -1.2678933573437705,
                2.06700919807279,
                -1.0291116545071142,
                0.2642062911420991,
                -3.2411984805994427
            ]
        },
        {
            "positions": [
                0.05491632708365321,
                -1.2068264947690512,
                2.0262639491212933,
                -0.9399056094677429,
                0.1917300119542076,
                -3.1841920507520105
            ]
        },
        {
            "positions": [
                0.12221527028005227,
                -1.145759632194332,
                1.9855187001697963,
                -0.8506995644283715,
                0.11925373276631611,
                -3.1271856209045783
            ]
        }
    ]
}{
    "goal": {
        "global_pose": {
            "orientation": {
                "w": 0.7047431468963623,
                "x": -0.7094548344612122,
                "y": 0.0024358443915843964,
                "z": -0.0022348060738295317
            },
            "position": {
                "x": 0.6094750761985779,
                "y": 0.3671506643295288,
                "z": 0.19426114857196808
            }
        },
        "name": "move_to_magneteinheit_A"
    },
    "id": "BFMT_move_to_magneteinheit_A_68",
    "joint_names": [
        "shoulder_pan_joint",
        "shoulder_lift_joint",
        "elbow_joint",
        "wrist_1_joint",
        "wrist_2_joint",
        "wrist_3_joint"
    ],
    "metrics": {
        "cart_traj_len": 1.250483428524386,
        "distance_elbow_joint": 0.07042467363186944,
        "distance_shoulder_lift_joint": 1.1211704139185492,
        "distance_shoulder_pan_joint": 1.2418584996751258,
        "distance_wrist_1_joint": 3.5156952877104803,
        "distance_wrist_2_joint": 1.6919402896044762,
        "distance_wrist_3_joint": 1.1123405330484994,
        "smoothness": 4.810966467698721e-16,
        "time": 0.606640952,
        "traj_len": 2.9586195594548825,
        "weighted_distance": 4.023151294818647
    },
    "planner": "BFMT",
    "start": {
        "state": {
            "elbow_joint": 1.919643534880228,
            "shoulder_lift_joint": -1.8972525353963687,
            "shoulder_pan_joint": -1.1188672234189438,
            "wrist_1_joint": -1.5931878212786155,
            "wrist_2_joint": 1.5706036197970081,
            "wrist_3_joint": 1.118896926603594
        }
    },
    "waypoints": [
        {
            "positions": [
                -1.1188672234189438,
                -1.8972525353963687,
                1.919643534880228,
                -1.5931878212786155,
                1.5706036197970081,
                1.118896926603594
            ]
        },
        {
            "positions": [
                -1.064873375606982,
                -1.8485059956607797,
                1.9227054772120484,
                -1.440331504421638,
                1.497040998509857,
                1.07053429473192
            ]
        },
        {
            "positions": [
                -1.0108795277950198,
                -1.7997594559251906,
                1.925767419543869,
                -1.2874751875646606,
                1.4234783772227058,
                1.0221716628602462
            ]
        },
        {
            "positions": [
                -0.9568856799830578,
                -1.7510129161896015,
                1.9288293618756893,
                -1.1346188707076832,
                1.3499157559355548,
                0.9738090309885723
            ]
        },
        {
            "positions": [
                -0.9028918321710959,
                -1.7022663764540122,
                1.9318913042075097,
                -0.9817625538507059,
                1.2763531346484036,
                0.9254463991168984
            ]
        },
        {
            "positions": [
                -0.8488979843591339,
                -1.6535198367184232,
                1.9349532465393302,
                -0.8289062369937285,
                1.2027905133612524,
                0.8770837672452245
            ]
        },
        {
            "positions": [
                -0.7949041365471718,
                -1.604773296982834,
                1.9380151888711505,
                -0.676049920136751,
                1.1292278920741012,
                0.8287211353735506
            ]
        },
        {
            "positions": [
                -0.7409102887352099,
                -1.556026757247245,
                1.9410771312029709,
                -0.5231936032797735,
                1.05566527078695,
                0.7803585035018767
            ]
        },
        {
            "positions": [
                -0.6869164409232479,
                -1.507280217511656,
                1.9441390735347914,
                -0.3703372864227963,
                0.9821026494997991,
                0.7319958716302029
            ]
        },
        {
            "positions": [
                -0.6329225931112858,
                -1.458533677776067,
                1.9472010158666118,
                -0.21748096956581886,
                0.9085400282126479,
                0.683633239758529
            ]
        },
        {
            "positions": [
                -0.5789287452993239,
                -1.4097871380404778,
                1.950262958198432,
                -0.06462465270884143,
                0.8349774069254968,
                0.6352706078868551
            ]
        },
        {
            "positions": [
                -0.5249348974873619,
                -1.3610405983048888,
                1.9533249005302527,
                0.08823166414813599,
                0.7614147856383456,
                0.5869079760151812
            ]
        },
        {
            "positions": [
                -0.47094104967539996,
                -1.3122940585692997,
                1.956386842862073,
                0.24108798100511342,
                0.6878521643511945,
                0.5385453441435073
            ]
        },
        {
            "positions": [
                -0.41694720186343803,
                -1.2635475188337106,
                1.9594487851938935,
                0.3939442978620906,
                0.6142895430640434,
                0.4901827122718334
            ]
        },
        {
            "positions": [
                -0.3629533540514759,
                -1.2148009790981213,
                1.9625107275257139,
                0.5468006147190685,
                0.5407269217768922,
                0.4418200804001595
            ]
        },
        {
            "positions": [
                -0.30895950623951396,
                -1.1660544393625323,
                1.9655726698575342,
                0.6996569315760455,
                0.467164300489741,
                0.39345744852848563
            ]
        },
        {
            "positions": [
                -0.2549656584275519,
                -1.1173078996269432,
                1.9686346121893548,
                0.8525132484330229,
                0.39360167920259004,
                0.34509481665681174
            ]
        },
        {
            "positions": [
                -0.20097181061559,
                -1.0685613598913541,
                1.971696554521175,
                1.0053695652900003,
                0.32003905791543885,
                0.29673218478513785
            ]
        },
        {
            "positions": [
                -0.14697796280362796,
                -1.0198148201557649,
                1.9747584968529954,
                1.1582258821469777,
                0.24647643662828767,
                0.24836955291346396
            ]
        },
        {
            "positions": [
                -0.09298411499166592,
                -0.9710682804201759,
                1.977820439184816,
                1.3110821990039552,
                0.17291381534113648,
                0.20000692104179008
            ]
        },
        {
            "positions": [
                -0.038990267179704,
                -0.9223217406845868,
                1.9808823815166363,
                1.4639385158609326,
                0.09935119405398551,
                0.1516442891701162
            ]
        },
        {
            "positions": [
                0.015003580632257929,
                -0.8735752009489979,
                1.9839443238484566,
                1.61679483271791,
                0.025788572766834328,
                0.1032816572984423
            ]
        },
        {
            "positions": [
                0.06899742844422008,
                -0.8248286612134086,
                1.9870062661802772,
                1.7696511495748874,
                -0.04777404852031686,
                0.05491902542676841
            ]
        },
        {
            "positions": [
                0.12299127625618211,
                -0.7760821214778195,
                1.9900682085120975,
                1.922507466431865,
                -0.12133666980746799,
                0.006556393555094414
            ]
        }
    ]
}