{
    "goal": {
        "global_pose": {
            "orientation": {
                "w": 0.5084816217422485,
                "x": -0.49083608388900757,
                "y": 0.5182115435600281,
                "z": -0.4816462993621826
            },
            "position": {
                "x": 0.5540239810943604,
                "y": 0.030875300988554955,
                "z": 0.16403168439865112
            }
        },
        "name": "move_to_storage_A"
    },
    "id": "BFMT_move_to_storage_A_91",
    "joint_names": [
        "shoulder_pan_joint",
        "shoulder_lift_joint",
        "elbow_joint",
        "wrist_1_joint",
        "wrist_2_joint",
        "wrist_3_joint"
    ],
    "metrics": {
        "cart_traj_len": 0.35330861429421107,
        "distance_elbow_joint": 0.45276598779371424,
        "distance_shoulder_lift_joint": 0.23246716496878417,
        "distance_shoulder_pan_joint": 0.463397229432782,
        "distance_wrist_1_joint": 0.26084324041243623,
        "distance_wrist_2_joint": 1.0922008530064602,
        "distance_wrist_3_joint": 0.0941868209351302,
        "smoothness": 4.440892133664971e-16,
        "time": 0.47652099200000003,
        "traj_len": 1.6111676810777043,
        "weighted_distance": 2.0340302435899185
    },
    "planner": "BFMT",
    "start": {
        "state": {
            "elbow_joint": 1.9715477243005601,
            "shoulder_lift_joint": -1.1394853015351272,
            "shoulder_pan_joint": 0.12281154014795169,
            "wrist_1_joint": -0.7804696478968182,
            "wrist_2_joint": 0.12958648046900423,
            "wrist_3_joint": -3.192491284697111
        }
    },
    "waypoints": [
        {
            "positions": [
                0.12281154014795169,
                -1.1394853015351272,
                1.9715477243005601,
                -0.7804696478968182,
                0.12958648046900423,
                -3.192491284697111
            ]
        },
        {
            "positions": [
                0.05661193594326855,
                -1.1726948965306678,
                2.036228579699662,
                -0.8177329679557376,
                0.2856151737556414,
                -3.179036024563521
            ]
        },
        {
            "positions": [
                -0.009587668261414592,
                -1.2059044915262083,
                2.1009094350987643,
                -0.8549962880146571,
                0.44164386704227854,
                -3.165580764429931
            ]
        },
        {
            "positions": [
                -0.07578727246609772,
                -1.239114086521749,
                2.165590290497866,
                -0.8922596080735765,
                0.5976725603289157,
                -3.152125504296341
            ]
        },
        {
            "positions": [
                -0.14198687667078086,
                -1.2723236815172896,
                2.2302711458969684,
                -0.929522928132496,
                0.7537012536155528,
                -3.138670244162751
            ]
        },
        {
            "positions": [
                -0.20818648087546404,
                -1.3055332765128302,
                2.2949520012960702,
                -0.9667862481914155,
                0.9097299469021901,
                -3.125214984029161
            ]
        },
        {
            "positions": [
                -0.2743860850801471,
                -1.3387428715083707,
                2.359632856695172,
                -1.004049568250335,
                1.065758640188827,
                -3.111759723895571
            ]
        },
        {
            "positions": [
                -0.3405856892848303,
                -1.3719524665039113,
                2.4243137120942744,
                -1.0413128883092544,
                1.2217873334754643,
                -3.098304463761981
            ]
        }
    ]
}