{
    "goal": {
        "global_pose": {
            "orientation": {
                "w": 0.5084816217422485,
                "x": -0.49083608388900757,
                "y": 0.5182115435600281,
                "z": -0.4816462993621826
            },
            "position": {
                "x": 0.5540239810943604,
                "y": 0.030875300988554955,
                "z": 0.16403168439865112
            }
        },
        "name": "move_to_storage_A"
    },
    "id": "BFMT_move_to_storage_A_53",
    "joint_names": [
        "shoulder_pan_joint",
        "shoulder_lift_joint",
        "elbow_joint",
        "wrist_1_joint",
        "wrist_2_joint",
        "wrist_3_joint"
    ],
    "metrics": {
        "cart_traj_len": 0.3533376340570766,
        "distance_elbow_joint": 0.4520349646085582,
        "distance_shoulder_lift_joint": 0.23523471685155184,
        "distance_shoulder_pan_joint": 0.4623695648367168,
        "distance_wrist_1_joint": 0.24630980143964176,
        "distance_wrist_2_joint": 1.0988974462935017,
        "distance_wrist_3_joint": 0.10111696415702198,
        "smoothness": 4.440892133664971e-16,
        "time": 0.46546817,
        "traj_len": 1.611199384988398,
        "weighted_distance": 2.0355354662187
    },
    "planner": "BFMT",
    "start": {
        "state": {
            "elbow_joint": 1.9715477243005601,
            "shoulder_lift_joint": -1.1394853015351272,
            "shoulder_pan_joint": 0.12281154014795169,
            "wrist_1_joint": -0.7804696478968182,
            "wrist_2_joint": 0.12958648046900423,
            "wrist_3_joint": -3.192491284697111
        }
    },
    "waypoints": [
        {
            "positions": [
                0.12281154014795169,
                -1.1394853015351272,
                1.9715477243005601,
                -0.7804696478968182,
                0.12958648046900423,
                -3.192491284697111
            ]
        },
        {
            "positions": [
                0.056758745171277866,
                -1.1730902610853489,
                2.0361241478160683,
                -0.8156567623881955,
                0.2865718299395045,
                -3.1780460041032508
            ]
        },
        {
            "positions": [
                -0.009294049805395957,
                -1.2066952206355706,
                2.100700571331577,
                -0.850843876879573,
                0.4435571794100047,
                -3.163600723509391
            ]
        },
        {
            "positions": [
                -0.07534684478206978,
                -1.2403001801857922,
                2.165276994847085,
                -0.8860309913709503,
                0.600542528880505,
                -3.1491554429155304
            ]
        },
        {
            "positions": [
                -0.1413996397587436,
                -1.273905139736014,
                2.2298534183625933,
                -0.9212181058623278,
                0.7575278783510052,
                -3.13471016232167
            ]
        },
        {
            "positions": [
                -0.20745243473541747,
                -1.3075100992862356,
                2.2944298418781015,
                -0.9564052203537051,
                0.9145132278215055,
                -3.1202648817278096
            ]
        },
        {
            "positions": [
                -0.27350522971209124,
                -1.3411150588364573,
                2.35900626539361,
                -0.9915923348450826,
                1.0714985772920058,
                -3.1058196011339496
            ]
        },
        {
            "positions": [
                -0.3395580246887651,
                -1.374720018386679,
                2.4235826889091183,
                -1.02677944933646,
                1.228483926762506,
                -3.091374320540089
            ]
        }
    ]
}