{
    "goal": {
        "global_pose": {
            "orientation": {
                "w": 0.7047431468963623,
                "x": -0.7094548344612122,
                "y": 0.0024358443915843964,
                "z": -0.0022348060738295317
            },
            "position": {
                "x": 0.6094750761985779,
                "y": 0.3671506643295288,
                "z": 0.19426114857196808
            }
        },
        "name": "move_to_magneteinheit_A"
    },
    "id": "BFMT_move_to_magneteinheit_A_28",
    "joint_names": [
        "shoulder_pan_joint",
        "shoulder_lift_joint",
        "elbow_joint",
        "wrist_1_joint",
        "wrist_2_joint",
        "wrist_3_joint"
    ],
    "metrics": {
        "cart_traj_len": 4.537887532243985,
        "distance_elbow_joint": 4.4319977467535185,
        "distance_shoulder_lift_joint": 1.9531094020267359,
        "distance_shoulder_pan_joint": 6.17890143320629,
        "distance_wrist_1_joint": 1.5853365195734004,
        "distance_wrist_2_joint": 1.7071984474731594,
        "distance_wrist_3_joint": 4.229596511231245,
        "smoothness": 0.26027010206272594,
        "time": 0.9256514760000001,
        "traj_len": 4.481756358869184,
        "weighted_distance": 5.642505476273231
    },
    "planner": "BFMT",
    "start": {
        "state": {
            "elbow_joint": -1.919618573717145,
            "shoulder_lift_joint": -1.2443395971678275,
            "shoulder_pan_joint": 2.6996025300909787,
            "wrist_1_joint": -1.548550951253194,
            "wrist_2_joint": -1.5709469090946802,
            "wrist_3_joint": 0.4420197732051276
        }
    },
    "waypoints": [
        {
            "positions": [
                2.6996025300909787,
                -1.2443395971678275,
                -1.919618573717145,
                -1.548550951253194,
                -1.5709469090946802,
                0.4420197732051276
            ]
        },
        {
            "positions": [
                2.5486355769537434,
                -1.2089303037877457,
                -1.92880179360513,
                -1.563107763519403,
                -1.5225464017055412,
                0.3069172535636666
            ]
        },
        {
            "positions": [
                2.3976686238165086,
                -1.1735210104076639,
                -1.9379850134931154,
                -1.577664575785612,
                -1.474145894316402,
                0.1718147339222057
            ]
        },
        {
            "positions": [
                2.2467016706792733,
                -1.138111717027582,
                -1.9471682333811005,
                -1.5922213880518208,
                -1.4257453869272632,
                0.03671221428074478
            ]
        },
        {
            "positions": [
                2.0957347175420384,
                -1.1027024236475,
                -1.9563514532690855,
                -1.6067782003180298,
                -1.377344879538124,
                -0.09839030536071619
            ]
        },
        {
            "positions": [
                1.9447677644048031,
                -1.0672931302674182,
                -1.9655346731570706,
                -1.6213350125842387,
                -1.328944372148985,
                -0.23349282500217722
            ]
        },
        {
            "positions": [
                1.793800811267568,
                -1.0318838368873364,
                -1.974717893045056,
                -1.6358918248504477,
                -1.280543864759846,
                -0.368595344643638
            ]
        },
        {
            "positions": [
                1.642833858130333,
                -0.9964745435072546,
                -1.983901112933041,
                -1.6504486371166567,
                -1.232143357370707,
                -0.5036978642850991
            ]
        },
        {
            "positions": [
                1.491866904993098,
                -0.9610652501271728,
                -1.9930843328210262,
                -1.6650054493828657,
                -1.1837428499815679,
                -0.6388003839265599
            ]
        },
        {
            "positions": [
                1.3408999518558626,
                -0.925655956747091,
                -2.0022675527090112,
                -1.6795622616490746,
                -1.135342342592429,
                -0.7739029035680209
            ]
        },
        {
            "positions": [
                1.1899329987186276,
                -0.8902466633670091,
                -2.0114507725969966,
                -1.6941190739152834,
                -1.0869418352032898,
                -0.909005423209482
            ]
        },
        {
            "positions": [
                1.0389660455813925,
                -0.8548373699869273,
                -2.0206339924849814,
                -1.7086758861814924,
                -1.0385413278141509,
                -1.0441079428509425
            ]
        },
        {
            "positions": [
                0.8879990924441574,
                -0.8194280766068454,
                -2.0298172123729668,
                -1.7232326984477013,
                -0.9901408204250118,
                -1.1792104624924036
            ]
        },
        {
            "positions": [
                0.7370321393069224,
                -0.7840187832267635,
                -2.039000432260952,
                -1.7377895107139103,
                -0.9417403130358728,
                -1.3143129821338646
            ]
        },
        {
            "positions": [
                0.5860651861696873,
                -0.7486094898466817,
                -2.048183652148937,
                -1.7523463229801193,
                -0.8933398056467338,
                -1.4494155017753256
            ]
        },
        {
            "positions": [
                0.435098233032452,
                -0.7132001964665999,
                -2.0573668720369223,
                -1.766903135246328,
                -0.8449392982575947,
                -1.5845180214167867
            ]
        },
        {
            "positions": [
                0.28413127989521714,
                -0.6777909030865181,
                -2.0665500919249076,
                -1.781459947512537,
                -0.7965387908684558,
                -1.7196205410582475
            ]
        },
        {
            "positions": [
                0.1331643267579823,
                -0.6423816097064363,
                -2.0757333118128924,
                -1.796016759778746,
                -0.7481382834793168,
                -1.8547230606997083
            ]
        },
        {
            "positions": [
                -0.01780262637925345,
                -0.6069723163263544,
                -2.0849165317008778,
                -1.810573572044955,
                -0.6997377760901777,
                -1.9898255803411695
            ]
        },
        {
            "positions": [
                -0.1687695795164883,
                -0.5715630229462726,
                -2.094099751588863,
                -1.825130384311164,
                -0.6513372687010387,
                -2.1249280999826303
            ]
        },
        {
            "positions": [
                -0.3197365326537236,
                -0.5361537295661907,
                -2.103282971476848,
                -1.839687196577373,
                -0.6029367613118995,
                -2.2600306196240916
            ]
        },
        {
            "positions": [
                -0.47070348579095844,
                -0.5007444361861089,
                -2.1124661913648333,
                -1.8542440088435819,
                -0.5545362539227607,
                -2.3951331392655524
            ]
        },
        {
            "positions": [
                -0.6216704389281937,
                -0.46533514280602706,
                -2.121649411252818,
                -1.8688008211097906,
                -0.5061357465336216,
                -2.5302356589070127
            ]
        },
        {
            "positions": [
                -0.772637392065429,
                -0.42992584942594514,
                -2.1308326311408035,
                -1.8833576333759996,
                -0.45773523914448244,
                -2.665338178548474
            ]
        },
        {
            "positions": [
                -0.9236043452026639,
                -0.39451655604586333,
                -2.1400158510287888,
                -1.8979144456422086,
                -0.4093347317553435,
                -2.800440698189935
            ]
        },
        {
            "positions": [
                -1.0745712983398987,
                -0.35910726266578163,
                -2.1491990709167736,
                -1.9124712579084173,
                -0.3609342243662046,
                -2.9355432178313956
            ]
        },
        {
            "positions": [
                -1.225538251477134,
                -0.3236979692856997,
                -2.158382290804759,
                -1.9270280701746265,
                -0.31253371697706545,
                -3.070645737472857
            ]
        },
        {
            "positions": [
                -1.3765052046143689,
                -0.2882886759056179,
                -2.1675655106927443,
                -1.9415848824408353,
                -0.2641332095879265,
                -3.2057482571143177
            ]
        },
        {
            "positions": [
                -1.5274721577516042,
                -0.252879382525536,
                -2.176748730580729,
                -1.9561416947070442,
                -0.21573270219878737,
                -3.340850776755779
            ]
        },
        {
            "positions": [
                -1.6784391108888397,
                -0.21747008914545418,
                -2.1859319504687145,
                -1.9706985069732532,
                -0.16733219480964845,
                -3.4759532963972397
            ]
        },
        {
            "positions": [
                -1.596581847605818,
                -0.25957190250928885,
                -1.9965826609231714,
                -1.9178262813435558,
                -0.15353293421018815,
                -3.461788594505018
            ]
        },
        {
            "positions": [
                -1.5147245843227963,
                -0.30167371587312347,
                -1.807233371377628,
                -1.8649540557138586,
                -0.13973367361072783,
                -3.4476238926127967
            ]
        },
        {
            "positions": [
                -1.4328673210397747,
                -0.3437755292369581,
                -1.617884081832085,
                -1.8120818300841612,
                -0.12593441301126754,
                -3.433459190720575
            ]
        },
        {
            "positions": [
                -1.351010057756753,
                -0.38587734260079276,
                -1.4285347922865417,
                -1.7592096044544638,
                -0.11213515241180723,
                -3.419294488828353
            ]
        },
        {
            "positions": [
                -1.2691527944737313,
                -0.42797915596462743,
                -1.2391855027409986,
                -1.7063373788247667,
                -0.09833589181234693,
                -3.405129786936132
            ]
        },
        {
            "positions": [
                -1.1872955311907096,
                -0.47008096932846205,
                -1.0498362131954555,
                -1.6534651531950693,
                -0.08453663121288663,
                -3.39096508504391
            ]
        },
        {
            "positions": [
                -1.105438267907688,
                -0.5121827826922967,
                -0.8604869236499124,
                -1.6005929275653719,
                -0.07073737061342632,
                -3.376800383151689
            ]
        },
        {
            "positions": [
                -1.0235810046246663,
                -0.5542845960561313,
                -0.6711376341043691,
                -1.5477207019356745,
                -0.05693811001396601,
                -3.362635681259467
            ]
        },
        {
            "positions": [
                -0.9417237413416446,
                -0.596386409419966,
                -0.4817883445588258,
                -1.4948484763059773,
                -0.0431388494145057,
                -3.3484709793672454
            ]
        },
        {
            "positions": [
                -0.8598664780586229,
                -0.6384882227838007,
                -0.29243905501328293,
                -1.44197625067628,
                -0.02933958881504542,
                -3.334306277475024
            ]
        },
        {
            "positions": [
                -0.7780092147756013,
                -0.6805900361476354,
                -0.10308976546773962,
                -1.3891040250465827,
                -0.015540328215585097,
                -3.3201415755828023
            ]
        },
        {
            "positions": [
                -0.6961519514925797,
                -0.7226918495114699,
                0.08625952407780346,
                -1.3362317994168853,
                -0.0017410676161248029,
                -3.3059768736905806
            ]
        },
        {
            "positions": [
                -0.6142946882095579,
                -0.7647936628753047,
                0.275608813623347,
                -1.283359573787188,
                0.01205819298333552,
                -3.2918121717983593
            ]
        },
        {
            "positions": [
                -0.5324374249265362,
                -0.8068954762391393,
                0.46495810316888964,
                -1.2304873481574905,
                0.025857453582795814,
                -3.2776474699061375
            ]
        },
        {
            "positions": [
                -0.45058016164351455,
                -0.8489972896029739,
                0.6543073927144327,
                -1.1776151225277933,
                0.03965671418225611,
                -3.2634827680139162
            ]
        },
        {
            "positions": [
                -0.3687228983604929,
                -0.8910991029668086,
                0.8436566822599763,
                -1.124742896898096,
                0.05345597478171643,
                -3.2493180661216945
            ]
        },
        {
            "positions": [
                -0.2868656350774712,
                -0.9332009163306433,
                1.0330059718055193,
                -1.0718706712683987,
                0.06725523538117673,
                -3.2351533642294727
            ]
        },
        {
            "positions": [
                -0.20500837179444953,
                -0.975302729694478,
                1.2223552613510629,
                -1.0189984456387013,
                0.08105449598063705,
                -3.220988662337251
            ]
        },
        {
            "positions": [
                -0.12315110851142785,
                -1.0174045430583125,
                1.411704550896606,
                -0.9661262200090039,
                0.09485375658009737,
                -3.2068239604450297
            ]
        },
        {
            "positions": [
                -0.04129384522840618,
                -1.0595063564221472,
                1.6010538404421486,
                -0.9132539943793068,
                0.10865301717955761,
                -3.192659258552808
            ]
        },
        {
            "positions": [
                0.0405634180546155,
                -1.1016081697859819,
                1.7904031299876921,
                -0.8603817687496091,
                0.12245227777901796,
                -3.1784945566605867
            ]
        },
        {
            "positions": [
                0.12242068133763723,
                -1.1437099831498165,
                1.9797524195332357,
                -0.807509543119912,
                0.13625153837847823,
                -3.164329854768365
            ]
        }
    ]
}{
    "goal": {
        "global_pose": {
            "orientation": {
                "w": 0.7047431468963623,
                "x": -0.7094548344612122,
                "y": 0.0024358443915843964,
                "z": -0.0022348060738295317
            },
            "position": {
                "x": 0.6094750761985779,
                "y": 0.3671506643295288,
                "z": 0.19426114857196808
            }
        },
        "name": "move_to_magneteinheit_A"
    },
    "id": "BFMT_move_to_magneteinheit_A_28",
    "joint_names": [
        "shoulder_pan_joint",
        "shoulder_lift_joint",
        "elbow_joint",
        "wrist_1_joint",
        "wrist_2_joint",
        "wrist_3_joint"
    ],
    "metrics": {
        "cart_traj_len": 1.231229473724737,
        "distance_elbow_joint": 0.764184124458503,
        "distance_shoulder_lift_joint": 0.7476134894400954,
        "distance_shoulder_pan_joint": 1.2427596923312787,
        "distance_wrist_1_joint": 0.7280144149149993,
        "distance_wrist_2_joint": 1.4952802045778353,
        "distance_wrist_3_joint": 4.237661770274597,
        "smoothness": 0.09583506416114368,
        "time": 0.590776038,
        "traj_len": 3.0357064574819,
        "weighted_distance": 4.462525277916007
    },
    "planner": "BFMT",
    "start": {
        "state": {
            "elbow_joint": 1.919643534880228,
            "shoulder_lift_joint": -1.8972525353963687,
            "shoulder_pan_joint": -1.1188672234189438,
            "wrist_1_joint": -1.5931878212786155,
            "wrist_2_joint": 1.5706036197970081,
            "wrist_3_joint": 1.118896926603594
        }
    },
    "waypoints": [
        {
            "positions": [
                -1.1188672234189438,
                -1.8972525353963687,
                1.919643534880228,
                -1.5931878212786155,
                1.5706036197970081,
                1.118896926603594
            ]
        },
        {
            "positions": [
                -1.065995555604384,
                -1.8738148515126385,
                1.940502253195838,
                -1.5623743436648954,
                1.4971479555281788,
                0.9301361060210849
            ]
        },
        {
            "positions": [
                -1.0131238877898243,
                -1.850377167628908,
                1.961360971511448,
                -1.5315608660511755,
                1.4236922912593497,
                0.7413752854385758
            ]
        },
        {
            "positions": [
                -0.9602522199752644,
                -1.8269394837451778,
                1.9822196898270579,
                -1.5007473884374554,
                1.3502366269905206,
                0.5526144648560667
            ]
        },
        {
            "positions": [
                -0.9073805521607047,
                -1.8035017998614473,
                2.0030784081426676,
                -1.4699339108237353,
                1.2767809627216913,
                0.3638536442735576
            ]
        },
        {
            "positions": [
                -0.8545088843461448,
                -1.780064115977717,
                2.0239371264582777,
                -1.4391204332100154,
                1.203325298452862,
                0.1750928236910485
            ]
        },
        {
            "positions": [
                -0.801637216531585,
                -1.7566264320939866,
                2.0447958447738874,
                -1.4083069555962953,
                1.1298696341840329,
                -0.013667996891460588
            ]
        },
        {
            "positions": [
                -0.7487655487170253,
                -1.7331887482102564,
                2.065654563089497,
                -1.3774934779825752,
                1.0564139699152038,
                -0.20242881747396968
            ]
        },
        {
            "positions": [
                -0.6958938809024655,
                -1.709751064326526,
                2.0865132814051073,
                -1.3466800003688553,
                0.9829583056463744,
                -0.3911896380564788
            ]
        },
        {
            "positions": [
                -0.6430222130879056,
                -1.6863133804427957,
                2.107371999720717,
                -1.3158665227551352,
                0.9095026413775452,
                -0.5799504586389879
            ]
        },
        {
            "positions": [
                -0.5901505452733459,
                -1.6628756965590652,
                2.128230718036327,
                -1.285053045141415,
                0.836046977108716,
                -0.768711279221497
            ]
        },
        {
            "positions": [
                -0.537278877458786,
                -1.639438012675335,
                2.149089436351937,
                -1.2542395675276952,
                0.7625913128398867,
                -0.9574720998040063
            ]
        },
        {
            "positions": [
                -0.48440720964422634,
                -1.6160003287916047,
                2.169948154667547,
                -1.223426089913975,
                0.6891356485710576,
                -1.1462329203865151
            ]
        },
        {
            "positions": [
                -0.43153554182966647,
                -1.5925626449078742,
                2.1908068729831567,
                -1.192612612300255,
                0.6156799843022284,
                -1.3349937409690245
            ]
        },
        {
            "positions": [
                -0.3786638740151067,
                -1.569124961024144,
                2.2116655912987664,
                -1.161799134686535,
                0.5422243200333992,
                -1.5237545615515333
            ]
        },
        {
            "positions": [
                -0.32579220620054694,
                -1.5456872771404135,
                2.2325243096143765,
                -1.130985657072815,
                0.46876865576457005,
                -1.7125153821340426
            ]
        },
        {
            "positions": [
                -0.27292053838598707,
                -1.5222495932566833,
                2.2533830279299862,
                -1.1001721794590948,
                0.39531299149574073,
                -1.9012762027165515
            ]
        },
        {
            "positions": [
                -0.2200488705714273,
                -1.4988119093729528,
                2.2742417462455964,
                -1.069358701845375,
                0.3218573272269116,
                -2.09003702329906
            ]
        },
        {
            "positions": [
                -0.16717720275686743,
                -1.4753742254892226,
                2.295100464561206,
                -1.0385452242316549,
                0.2484016629580823,
                -2.27879784388157
            ]
        },
        {
            "positions": [
                -0.11430553494230766,
                -1.4519365416054923,
                2.3159591828768162,
                -1.0077317466179347,
                0.1749459986892532,
                -2.467558664464079
            ]
        },
        {
            "positions": [
                -0.0614338671277479,
                -1.4284988577217619,
                2.336817901192426,
                -0.9769182690042147,
                0.10149033442042393,
                -2.6563194850465877
            ]
        },
        {
            "positions": [
                -0.015102283117727155,
                -1.3587839047803898,
                2.2500654616558498,
                -0.9489820533440652,
                0.10803206422073677,
                -2.7719308247026913
            ]
        },
        {
            "positions": [
                0.031229300892293588,
                -1.2890689518390177,
                2.163313022119273,
                -0.9210458376839155,
                0.11457379402104963,
                -2.8875421643587953
            ]
        },
        {
            "positions": [
                0.07756088490231433,
                -1.2193539988976454,
                2.076560582582697,
                -0.8931096220237658,
                0.12111552382136248,
                -3.0031535040148993
            ]
        },
        {
            "positions": [
                0.12389246891233509,
                -1.1496390459562733,
                1.9898081430461207,
                -0.8651734063636162,
                0.12765725362167532,
                -3.118764843671003
            ]
        }
    ]
}