{
    "goal": {
        "global_pose": {
            "orientation": {
                "w": 0.7047431468963623,
                "x": -0.7094548344612122,
                "y": 0.0024358443915843964,
                "z": -0.0022348060738295317
            },
            "position": {
                "x": 0.6094750761985779,
                "y": 0.3671506643295288,
                "z": 0.19426114857196808
            }
        },
        "name": "move_to_magneteinheit_A"
    },
    "id": "BFMT_move_to_magneteinheit_A_66",
    "joint_names": [
        "shoulder_pan_joint",
        "shoulder_lift_joint",
        "elbow_joint",
        "wrist_1_joint",
        "wrist_2_joint",
        "wrist_3_joint"
    ],
    "metrics": {
        "cart_traj_len": 3.1486484136972486,
        "distance_elbow_joint": 3.9102167670504437,
        "distance_shoulder_lift_joint": 0.46815832585593375,
        "distance_shoulder_pan_joint": 2.7685665840933105,
        "distance_wrist_1_joint": 3.4534860434535606,
        "distance_wrist_2_joint": 1.4328554759735335,
        "distance_wrist_3_joint": 0.4887221825233785,
        "smoothness": 0.1292482124223027,
        "time": 0.899022156,
        "traj_len": 3.5386445680444027,
        "weighted_distance": 4.287865583646951
    },
    "planner": "BFMT",
    "start": {
        "state": {
            "elbow_joint": -1.919618573717145,
            "shoulder_lift_joint": -1.2443395971678275,
            "shoulder_pan_joint": 2.6996025300909787,
            "wrist_1_joint": -1.548550951253194,
            "wrist_2_joint": -1.5709469090946802,
            "wrist_3_joint": 0.4420197732051276
        }
    },
    "waypoints": [
        {
            "positions": [
                2.6996025300909787,
                -1.2443395971678275,
                -1.919618573717145,
                -1.548550951253194,
                -1.5709469090946802,
                0.4420197732051276
            ]
        },
        {
            "positions": [
                2.5978336573337226,
                -1.2311134788888252,
                -1.8048367133013747,
                -1.4353818278382842,
                -1.5351775910633074,
                0.4256107869118971
            ]
        },
        {
            "positions": [
                2.4960647845764665,
                -1.2178873606098226,
                -1.6900548528856048,
                -1.3222127044233742,
                -1.4994082730319345,
                0.4092018006186666
            ]
        },
        {
            "positions": [
                2.3942959118192104,
                -1.2046612423308203,
                -1.5752729924698348,
                -1.2090435810084643,
                -1.4636389550005617,
                0.3927928143254361
            ]
        },
        {
            "positions": [
                2.2925270390619543,
                -1.1914351240518177,
                -1.4604911320540646,
                -1.0958744575935544,
                -1.427869636969189,
                0.37638382803220566
            ]
        },
        {
            "positions": [
                2.1907581663046978,
                -1.1782090057728154,
                -1.3457092716382943,
                -0.9827053341786445,
                -1.392100318937816,
                0.35997484173897515
            ]
        },
        {
            "positions": [
                2.088989293547442,
                -1.1649828874938128,
                -1.2309274112225244,
                -0.8695362107637346,
                -1.3563310009064433,
                0.3435658554457447
            ]
        },
        {
            "positions": [
                1.9872204207901856,
                -1.1517567692148105,
                -1.1161455508067544,
                -0.7563670873488246,
                -1.3205616828750704,
                0.3271568691525142
            ]
        },
        {
            "positions": [
                1.8854515480329297,
                -1.138530650935808,
                -1.0013636903909842,
                -0.6431979639339147,
                -1.2847923648436979,
                0.3107478828592837
            ]
        },
        {
            "positions": [
                1.7836826752756734,
                -1.1253045326568056,
                -0.8865818299752142,
                -0.5300288405190048,
                -1.249023046812325,
                0.2943388965660532
            ]
        },
        {
            "positions": [
                1.6819138025184173,
                -1.112078414377803,
                -0.771799969559444,
                -0.41685971710409486,
                -1.213253728780952,
                0.2779299102728227
            ]
        },
        {
            "positions": [
                1.5801449297611612,
                -1.0988522960988008,
                -0.657018109143674,
                -0.30369059368918494,
                -1.1774844107495794,
                0.26152092397959226
            ]
        },
        {
            "positions": [
                1.478376057003905,
                -1.0856261778197984,
                -0.5422362487279038,
                -0.19052147027427502,
                -1.1417150927182065,
                0.24511193768636175
            ]
        },
        {
            "positions": [
                1.376607184246649,
                -1.0724000595407959,
                -0.4274543883121338,
                -0.0773523468593651,
                -1.1059457746868337,
                0.22870295139313127
            ]
        },
        {
            "positions": [
                1.2748383114893926,
                -1.0591739412617933,
                -0.3126725278963636,
                0.03581677655554483,
                -1.0701764566554608,
                0.21229396509990076
            ]
        },
        {
            "positions": [
                1.1730694387321368,
                -1.045947822982791,
                -0.19789066748059336,
                0.14898589997045475,
                -1.034407138624088,
                0.19588497880667027
            ]
        },
        {
            "positions": [
                1.0713005659748807,
                -1.0327217047037887,
                -0.08310880706482338,
                0.26215502338536467,
                -0.9986378205927153,
                0.17947599251343982
            ]
        },
        {
            "positions": [
                0.9695316932176243,
                -1.019495586424786,
                0.031673053350946834,
                0.3753241468002746,
                -0.9628685025613424,
                0.1630670062202093
            ]
        },
        {
            "positions": [
                0.8677628204603682,
                -1.0062694681457838,
                0.1464549137667166,
                0.4884932702151845,
                -0.9270991845299696,
                0.14665801992697886
            ]
        },
        {
            "positions": [
                0.7659939477031121,
                -0.9930433498667812,
                0.26123677418248703,
                0.6016623936300944,
                -0.8913298664985969,
                0.13024903363374835
            ]
        },
        {
            "positions": [
                0.6642250749458558,
                -0.9798172315877789,
                0.376018634598257,
                0.7148315170450044,
                -0.855560548467224,
                0.11384004734051784
            ]
        },
        {
            "positions": [
                0.5624562021885997,
                -0.9665911133087765,
                0.490800495014027,
                0.8280006404599143,
                -0.8197912304358512,
                0.09743106104728738
            ]
        },
        {
            "positions": [
                0.4606873294313436,
                -0.953364995029774,
                0.605582355429797,
                0.9411697638748242,
                -0.7840219124044785,
                0.08102207475405687
            ]
        },
        {
            "positions": [
                0.3589184566740875,
                -0.9401388767507716,
                0.7203642158455674,
                1.0543388872897341,
                -0.7482525943731055,
                0.06461308846082636
            ]
        },
        {
            "positions": [
                0.2571495839168312,
                -0.9269127584717691,
                0.8351460762613372,
                1.1675080107046438,
                -0.7124832763417328,
                0.0482041021675959
            ]
        },
        {
            "positions": [
                0.21884421329550924,
                -0.9064388912749448,
                0.9834599430455051,
                1.266499912404141,
                -0.6460314932919448,
                0.037453238844204206
            ]
        },
        {
            "positions": [
                0.1805388426741873,
                -0.8859650240781204,
                1.131773809829673,
                1.365491814103638,
                -0.5795797102421567,
                0.02670237552081252
            ]
        },
        {
            "positions": [
                0.14223347205286535,
                -0.8654911568812961,
                1.280087676613841,
                1.4644837158031354,
                -0.5131279271923685,
                0.015951512197420824
            ]
        },
        {
            "positions": [
                0.10392810143154341,
                -0.8450172896844718,
                1.4284015433980088,
                1.5634756175026325,
                -0.4466761441425805,
                0.005200648874029136
            ]
        },
        {
            "positions": [
                0.06562273081022144,
                -0.8245434224876473,
                1.576715410182177,
                1.6624675192021297,
                -0.3802243610927924,
                -0.005550214449362566
            ]
        },
        {
            "positions": [
                0.0273173601888995,
                -0.804069555290823,
                1.725029276966345,
                1.7614594209016268,
                -0.31377257804300435,
                -0.016301077772754254
            ]
        },
        {
            "positions": [
                0.07545806728451557,
                -0.7901254133013584,
                1.8578137351498218,
                1.8331972565509966,
                -0.22593200558207555,
                -0.0011004120000059174
            ]
        },
        {
            "positions": [
                0.12359877438013164,
                -0.7761812713118937,
                1.9905981933332988,
                1.9049350922003667,
                -0.13809143312114672,
                0.014100253772742417
            ]
        }
    ]
}{
    "goal": {
        "global_pose": {
            "orientation": {
                "w": 0.7047431468963623,
                "x": -0.7094548344612122,
                "y": 0.0024358443915843964,
                "z": -0.0022348060738295317
            },
            "position": {
                "x": 0.6094750761985779,
                "y": 0.3671506643295288,
                "z": 0.19426114857196808
            }
        },
        "name": "move_to_magneteinheit_A"
    },
    "id": "BFMT_move_to_magneteinheit_A_66",
    "joint_names": [
        "shoulder_pan_joint",
        "shoulder_lift_joint",
        "elbow_joint",
        "wrist_1_joint",
        "wrist_2_joint",
        "wrist_3_joint"
    ],
    "metrics": {
        "cart_traj_len": 1.2001357162698316,
        "distance_elbow_joint": 0.15417829819808637,
        "distance_shoulder_lift_joint": 0.7551751155256576,
        "distance_shoulder_pan_joint": 1.2413771703858676,
        "distance_wrist_1_joint": 0.7725066222066865,
        "distance_wrist_2_joint": 1.445983866887286,
        "distance_wrist_3_joint": 4.273119514782449,
        "smoothness": 0.019564066323498486,
        "time": 0.669948043,
        "traj_len": 2.939785806480811,
        "weighted_distance": 4.405345628511445
    },
    "planner": "BFMT",
    "start": {
        "state": {
            "elbow_joint": 1.919643534880228,
            "shoulder_lift_joint": -1.8972525353963687,
            "shoulder_pan_joint": -1.1188672234189438,
            "wrist_1_joint": -1.5931878212786155,
            "wrist_2_joint": 1.5706036197970081,
            "wrist_3_joint": 1.118896926603594
        }
    },
    "waypoints": [
        {
            "positions": [
                -1.1188672234189438,
                -1.8972525353963687,
                1.919643534880228,
                -1.5931878212786155,
                1.5706036197970081,
                1.118896926603594
            ]
        },
        {
            "positions": [
                -1.0657219076602749,
                -1.8627242053371607,
                1.924959076548368,
                -1.5611822158995285,
                1.4988137055806074,
                0.9199066668553518
            ]
        },
        {
            "positions": [
                -1.012576591901606,
                -1.8281958752779528,
                1.9302746182165076,
                -1.5291766105204416,
                1.4270237913642068,
                0.7209164071071097
            ]
        },
        {
            "positions": [
                -0.9594312761429371,
                -1.7936675452187447,
                1.9355901598846474,
                -1.4971710051413547,
                1.355233877147806,
                0.5219261473588677
            ]
        },
        {
            "positions": [
                -0.9062859603842681,
                -1.7591392151595369,
                1.940905701552787,
                -1.4651653997622676,
                1.2834439629314054,
                0.3229358876106254
            ]
        },
        {
            "positions": [
                -0.8531406446255992,
                -1.7246108851003288,
                1.946221243220927,
                -1.4331597943831806,
                1.2116540487150047,
                0.12394562786238339
            ]
        },
        {
            "positions": [
                -0.7999953288669304,
                -1.6900825550411207,
                1.9515367848890666,
                -1.4011541890040937,
                1.139864134498604,
                -0.07504463188585864
            ]
        },
        {
            "positions": [
                -0.7468500131082614,
                -1.6555542249819128,
                1.9568523265572064,
                -1.3691485836250068,
                1.0680742202822033,
                -0.27403489163410066
            ]
        },
        {
            "positions": [
                -0.6937046973495924,
                -1.6210258949227048,
                1.962167868225346,
                -1.3371429782459199,
                0.9962843060658026,
                -0.47302515138234313
            ]
        },
        {
            "positions": [
                -0.6405593815909236,
                -1.586497564863497,
                1.967483409893486,
                -1.305137372866833,
                0.924494391849402,
                -0.6720154111305852
            ]
        },
        {
            "positions": [
                -0.5874140658322546,
                -1.5519692348042888,
                1.9727989515616255,
                -1.273131767487746,
                0.8527044776330013,
                -0.8710056708788272
            ]
        },
        {
            "positions": [
                -0.5342687500735857,
                -1.5174409047450808,
                1.9781144932297654,
                -1.241126162108659,
                0.7809145634166005,
                -1.0699959306270694
            ]
        },
        {
            "positions": [
                -0.4811234343149168,
                -1.482912574685873,
                1.9834300348979053,
                -1.2091205567295722,
                0.7091246492001999,
                -1.2689861903753112
            ]
        },
        {
            "positions": [
                -0.4279781185562479,
                -1.4483842446266648,
                1.988745576566045,
                -1.177114951350485,
                0.6373347349837992,
                -1.4679764501235535
            ]
        },
        {
            "positions": [
                -0.374832802797579,
                -1.413855914567457,
                1.9940611182341847,
                -1.1451093459713984,
                0.5655448207673985,
                -1.6669667098717953
            ]
        },
        {
            "positions": [
                -0.32168748703891004,
                -1.3793275845082489,
                1.9993766599023244,
                -1.1131037405923112,
                0.49375490655099785,
                -1.8659569696200375
            ]
        },
        {
            "positions": [
                -0.26854217128024105,
                -1.344799254449041,
                2.0046922015704642,
                -1.0810981352132243,
                0.42196499233459717,
                -2.06494722936828
            ]
        },
        {
            "positions": [
                -0.21539685552157217,
                -1.310270924389833,
                2.010007743238604,
                -1.0490925298341374,
                0.3501750781181965,
                -2.263937489116522
            ]
        },
        {
            "positions": [
                -0.1622515397629033,
                -1.2757425943306249,
                2.0153232849067435,
                -1.0170869244550502,
                0.2783851639017958,
                -2.4629277488647645
            ]
        },
        {
            "positions": [
                -0.10910622400423442,
                -1.241214264271417,
                2.0206388265748836,
                -0.9850813190759635,
                0.2065952496853951,
                -2.6619180086130063
            ]
        },
        {
            "positions": [
                -0.05596090824556532,
                -1.206685934212209,
                2.025954368243023,
                -0.9530757136968765,
                0.13480533546899437,
                -2.860908268361248
            ]
        },
        {
            "positions": [
                0.03327451936067928,
                -1.1743816770414601,
                2.0020206358253776,
                -0.8868784563844028,
                0.12971254418935818,
                -3.0075654282700515
            ]
        },
        {
            "positions": [
                0.12250994696692388,
                -1.142077419870711,
                1.978086903407732,
                -0.8206811990719289,
                0.12461975290972196,
                -3.154222588178855
            ]
        }
    ]
}