{
    "goal": {
        "global_pose": {
            "orientation": {
                "w": 0.5084816217422485,
                "x": -0.49083608388900757,
                "y": 0.5182115435600281,
                "z": -0.4816462993621826
            },
            "position": {
                "x": 0.5540239810943604,
                "y": 0.030875300988554955,
                "z": 0.16403168439865112
            }
        },
        "name": "move_to_storage_A"
    },
    "id": "BFMT_move_to_storage_A_52",
    "joint_names": [
        "shoulder_pan_joint",
        "shoulder_lift_joint",
        "elbow_joint",
        "wrist_1_joint",
        "wrist_2_joint",
        "wrist_3_joint"
    ],
    "metrics": {
        "cart_traj_len": 0.35277059480448714,
        "distance_elbow_joint": 0.45011916940910046,
        "distance_shoulder_lift_joint": 0.23387918683502318,
        "distance_shoulder_pan_joint": 0.4623884584140177,
        "distance_wrist_1_joint": 0.24234341782594016,
        "distance_wrist_2_joint": 1.0934709029997216,
        "distance_wrist_3_joint": 0.09122268153009339,
        "smoothness": 6.661338165333112e-16,
        "time": 0.487197558,
        "traj_len": 1.6041894579549811,
        "weighted_distance": 2.022791017604079
    },
    "planner": "BFMT",
    "start": {
        "state": {
            "elbow_joint": 1.9715477243005601,
            "shoulder_lift_joint": -1.1394853015351272,
            "shoulder_pan_joint": 0.12281154014795169,
            "wrist_1_joint": -0.7804696478968182,
            "wrist_2_joint": 0.12958648046900423,
            "wrist_3_joint": -3.192491284697111
        }
    },
    "waypoints": [
        {
            "positions": [
                0.12281154014795169,
                -1.1394853015351272,
                1.9715477243005601,
                -0.7804696478968182,
                0.12958648046900423,
                -3.192491284697111
            ]
        },
        {
            "positions": [
                0.0567560460888063,
                -1.1728966139401305,
                2.0358504627875744,
                -0.8150901361576668,
                0.28579660946896446,
                -3.179459473049955
            ]
        },
        {
            "positions": [
                -0.00929944797033909,
                -1.2063079263451337,
                2.1001532012745887,
                -0.8497106244185153,
                0.4420067384689247,
                -3.166427661402799
            ]
        },
        {
            "positions": [
                -0.07535494202948446,
                -1.239719238750137,
                2.164455939761603,
                -0.8843311126793639,
                0.5982168674688849,
                -3.1533958497556425
            ]
        },
        {
            "positions": [
                -0.14141043608862985,
                -1.2731305511551403,
                2.2287586782486173,
                -0.9189516009402126,
                0.7544269964688451,
                -3.1403640381084865
            ]
        },
        {
            "positions": [
                -0.20746593014777526,
                -1.3065418635601438,
                2.293061416735632,
                -0.9535720892010611,
                0.9106371254688054,
                -3.12733222646133
            ]
        },
        {
            "positions": [
                -0.2735214242069206,
                -1.339953175965147,
                2.3573641552226463,
                -0.9881925774619097,
                1.0668472544687657,
                -3.114300414814174
            ]
        },
        {
            "positions": [
                -0.339576918266066,
                -1.3733644883701503,
                2.4216668937096606,
                -1.0228130657227583,
                1.2230573834687257,
                -3.101268603167018
            ]
        }
    ]
}