{
    "goal": {
        "global_pose": {
            "orientation": {
                "w": 0.5084816217422485,
                "x": -0.49083608388900757,
                "y": 0.5182115435600281,
                "z": -0.4816462993621826
            },
            "position": {
                "x": 0.5540239810943604,
                "y": 0.030875300988554955,
                "z": 0.16403168439865112
            }
        },
        "name": "move_to_storage_A"
    },
    "id": "BFMT_move_to_storage_A_119",
    "joint_names": [
        "shoulder_pan_joint",
        "shoulder_lift_joint",
        "elbow_joint",
        "wrist_1_joint",
        "wrist_2_joint",
        "wrist_3_joint"
    ],
    "metrics": {
        "cart_traj_len": 0.35322548921267827,
        "distance_elbow_joint": 0.4504431833579212,
        "distance_shoulder_lift_joint": 0.2342884277660915,
        "distance_shoulder_pan_joint": 0.4628150818090518,
        "distance_wrist_1_joint": 0.24486255000157364,
        "distance_wrist_2_joint": 1.095113514990448,
        "distance_wrist_3_joint": 0.08754864687359376,
        "smoothness": 8.881784197001252e-16,
        "time": 0.47429915,
        "traj_len": 1.6047029023463129,
        "weighted_distance": 2.0224106317802746
    },
    "planner": "BFMT",
    "start": {
        "state": {
            "elbow_joint": 1.9715477243005601,
            "shoulder_lift_joint": -1.1394853015351272,
            "shoulder_pan_joint": 0.12281154014795169,
            "wrist_1_joint": -0.7804696478968182,
            "wrist_2_joint": 0.12958648046900423,
            "wrist_3_joint": -3.192491284697111
        }
    },
    "waypoints": [
        {
            "positions": [
                0.12281154014795169,
                -1.1394853015351272,
                1.9715477243005601,
                -0.7804696478968182,
                0.12958648046900423,
                -3.192491284697111
            ]
        },
        {
            "positions": [
                0.056695099889515724,
                -1.172955076930283,
                2.035896750494549,
                -0.8154500121827573,
                0.28603126832478254,
                -3.1799843351437405
            ]
        },
        {
            "positions": [
                -0.009421340368920242,
                -1.206424852325439,
                2.1002457766885376,
                -0.8504303764686963,
                0.4424760561805608,
                -3.16747738559037
            ]
        },
        {
            "positions": [
                -0.07553778062735621,
                -1.2398946277205949,
                2.1645948028825264,
                -0.8854107407546354,
                0.5989208440363392,
                -3.1549704360369994
            ]
        },
        {
            "positions": [
                -0.14165422088579216,
                -1.273364403115751,
                2.228943829076515,
                -0.9203911050405745,
                0.7553656318921174,
                -3.142463486483629
            ]
        },
        {
            "positions": [
                -0.20777066114422815,
                -1.3068341785109068,
                2.293292855270504,
                -0.9553714693265136,
                0.9118104197478957,
                -3.1299565369302584
            ]
        },
        {
            "positions": [
                -0.2738871014026641,
                -1.3403039539060626,
                2.3576418814644926,
                -0.9903518336124527,
                1.068255207603674,
                -3.117449587376888
            ]
        },
        {
            "positions": [
                -0.3400035416611001,
                -1.3737737293012187,
                2.4219909076584814,
                -1.0253321978983918,
                1.2246999954594522,
                -3.1049426378235174
            ]
        }
    ]
}