{
    "goal": {
        "global_pose": {
            "orientation": {
                "w": 0.7047431468963623,
                "x": -0.7094548344612122,
                "y": 0.0024358443915843964,
                "z": -0.0022348060738295317
            },
            "position": {
                "x": 0.6094750761985779,
                "y": 0.3671506643295288,
                "z": 0.19426114857196808
            }
        },
        "name": "move_to_magneteinheit_A"
    },
    "id": "BFMT_move_to_magneteinheit_A_147",
    "joint_names": [
        "shoulder_pan_joint",
        "shoulder_lift_joint",
        "elbow_joint",
        "wrist_1_joint",
        "wrist_2_joint",
        "wrist_3_joint"
    ],
    "metrics": {
        "cart_traj_len": 2.876514622021174,
        "distance_elbow_joint": 3.916405262216964,
        "distance_shoulder_lift_joint": 1.248084716700769,
        "distance_shoulder_pan_joint": 2.7682870429570956,
        "distance_wrist_1_joint": 3.4781928154680175,
        "distance_wrist_2_joint": 1.4383498083415402,
        "distance_wrist_3_joint": 0.5643806529394617,
        "smoothness": 0.08324012846609417,
        "time": 1.0817761789999998,
        "traj_len": 3.6624718836632515,
        "weighted_distance": 4.411236133819219
    },
    "planner": "BFMT",
    "start": {
        "state": {
            "elbow_joint": -1.919618573717145,
            "shoulder_lift_joint": -1.2443395971678275,
            "shoulder_pan_joint": 2.6996025300909787,
            "wrist_1_joint": -1.548550951253194,
            "wrist_2_joint": -1.5709469090946802,
            "wrist_3_joint": 0.4420197732051276
        }
    },
    "waypoints": [
        {
            "positions": [
                2.6996025300909787,
                -1.2443395971678275,
                -1.919618573717145,
                -1.548550951253194,
                -1.5709469090946802,
                0.4420197732051276
            ]
        },
        {
            "positions": [
                2.596265292618773,
                -1.2639059255075837,
                -1.7561741635389112,
                -1.4874285167877401,
                -1.5630528138312383,
                0.41959110712151354
            ]
        },
        {
            "positions": [
                2.492928055146567,
                -1.28347225384734,
                -1.5927297533606777,
                -1.4263060823222864,
                -1.5551587185677964,
                0.3971624410378995
            ]
        },
        {
            "positions": [
                2.389590817674361,
                -1.3030385821870962,
                -1.429285343182444,
                -1.3651836478568327,
                -1.5472646233043543,
                0.3747337749542854
            ]
        },
        {
            "positions": [
                2.2862535802021555,
                -1.3226049105268525,
                -1.2658409330042102,
                -1.3040612133913787,
                -1.5393705280409125,
                0.35230510887067135
            ]
        },
        {
            "positions": [
                2.18291634272995,
                -1.3421712388666087,
                -1.1023965228259767,
                -1.2429387789259247,
                -1.5314764327774706,
                0.3298764427870573
            ]
        },
        {
            "positions": [
                2.0795791052577437,
                -1.361737567206365,
                -0.938952112647743,
                -1.181816344460471,
                -1.5235823375140285,
                0.30744777670344325
            ]
        },
        {
            "positions": [
                1.976241867785538,
                -1.3813038955461212,
                -0.7755077024695094,
                -1.1206939099950173,
                -1.5156882422505866,
                0.2850191106198292
            ]
        },
        {
            "positions": [
                1.872904630313332,
                -1.4008702238858775,
                -0.6120632922912757,
                -1.0595714755295633,
                -1.5077941469871448,
                0.26259044453621516
            ]
        },
        {
            "positions": [
                1.7695673928411262,
                -1.4204365522256337,
                -0.4486188821130419,
                -0.9984490410641095,
                -1.4999000517237029,
                0.2401617784526011
            ]
        },
        {
            "positions": [
                1.6662301553689205,
                -1.44000288056539,
                -0.2851744719348084,
                -0.9373266065986556,
                -1.492005956460261,
                0.21773311236898704
            ]
        },
        {
            "positions": [
                1.5628929178967146,
                -1.4595692089051462,
                -0.12173006175657464,
                -0.8762041721332018,
                -1.484111861196819,
                0.19530444628537297
            ]
        },
        {
            "positions": [
                1.459555680424509,
                -1.4791355372449024,
                0.04171434842165889,
                -0.8150817376677479,
                -1.476217765933377,
                0.17287578020175892
            ]
        },
        {
            "positions": [
                1.356218442952303,
                -1.4987018655846587,
                0.20515875859989285,
                -0.7539593032022941,
                -1.4683236706699352,
                0.15044711411814488
            ]
        },
        {
            "positions": [
                1.2528812054800973,
                -1.518268193924415,
                0.36860316877812616,
                -0.6928368687368403,
                -1.4604295754064933,
                0.12801844803453083
            ]
        },
        {
            "positions": [
                1.1495439680078914,
                -1.5378345222641712,
                0.5320475789563599,
                -0.6317144342713864,
                -1.4525354801430512,
                0.10558978195091678
            ]
        },
        {
            "positions": [
                1.0462067305356855,
                -1.5574008506039274,
                0.6954919891345936,
                -0.5705919998059326,
                -1.4446413848796094,
                0.08316111586730268
            ]
        },
        {
            "positions": [
                0.9428694930634798,
                -1.5769671789436837,
                0.858936399312827,
                -0.5094695653404788,
                -1.4367472896161675,
                0.06073244978368869
            ]
        },
        {
            "positions": [
                0.8395322555912739,
                -1.59653350728344,
                1.0223808094910611,
                -0.44834713087502487,
                -1.4288531943527256,
                0.03830378370007459
            ]
        },
        {
            "positions": [
                0.7361950181190682,
                -1.6160998356231961,
                1.1858252196692944,
                -0.38722469640957113,
                -1.4209590990892835,
                0.0158751176164606
            ]
        },
        {
            "positions": [
                0.632857780646862,
                -1.6356661639629524,
                1.349269629847528,
                -0.32610226194411707,
                -1.4130650038258417,
                -0.006553548467153503
            ]
        },
        {
            "positions": [
                0.5613936930738977,
                -1.565640145926719,
                1.4074020740985609,
                -0.21714256435657686,
                -1.3431406013468068,
                -0.014115080326406373
            ]
        },
        {
            "positions": [
                0.48992960550093345,
                -1.4956141278904858,
                1.4655345183495938,
                -0.10818286676903668,
                -1.2732161988677722,
                -0.021676612185659243
            ]
        },
        {
            "positions": [
                0.41846551792796916,
                -1.4255881098542524,
                1.5236669626006267,
                0.0007768308185034933,
                -1.2032917963887373,
                -0.029238144044912113
            ]
        },
        {
            "positions": [
                0.34700143035500486,
                -1.3555620918180193,
                1.5817994068516597,
                0.1097365284060437,
                -1.1333673939097026,
                -0.03679967590416498
            ]
        },
        {
            "positions": [
                0.27553734278204056,
                -1.285536073781786,
                1.6399318511026926,
                0.21869622599358385,
                -1.0634429914306678,
                -0.044361207763417856
            ]
        },
        {
            "positions": [
                0.20407325520907627,
                -1.2155100557455527,
                1.6980642953537255,
                0.32765592358112405,
                -0.993518588951633,
                -0.05192273962267072
            ]
        },
        {
            "positions": [
                0.13260916763611197,
                -1.1454840377093194,
                1.7561967396047584,
                0.43661562116866426,
                -0.9235941864725983,
                -0.05948427148192359
            ]
        },
        {
            "positions": [
                0.06114508006314773,
                -1.075458019673086,
                1.8143291838557913,
                0.5455753187562045,
                -0.8536697839935635,
                -0.06704580334117646
            ]
        },
        {
            "positions": [
                0.04963174425724292,
                -1.0274380436097752,
                1.843153698367753,
                0.7376261955515223,
                -0.7563202328886164,
                -0.061008730630297506
            ]
        },
        {
            "positions": [
                0.03811840845133811,
                -0.9794180675464644,
                1.8719782128797147,
                0.9296770723468402,
                -0.6589706817836694,
                -0.05497165791941855
            ]
        },
        {
            "positions": [
                0.026605072645433298,
                -0.9313980914831536,
                1.9008027273916763,
                1.1217279491421581,
                -0.5616211306787222,
                -0.048934585208539584
            ]
        },
        {
            "positions": [
                0.03689406538650937,
                -0.8953894659889208,
                1.9210527085036795,
                1.2943379609121053,
                -0.4712325044896726,
                -0.04217951855704523
            ]
        },
        {
            "positions": [
                0.04718305812758544,
                -0.8593808404946881,
                1.9413026896156824,
                1.4669479726820525,
                -0.38084387830062294,
                -0.03542445190555088
            ]
        },
        {
            "positions": [
                0.057472050868661514,
                -0.8233722150004553,
                1.9615526707276856,
                1.6395579844519999,
                -0.29045525211157325,
                -0.028669385254056528
            ]
        },
        {
            "positions": [
                0.08968335451282289,
                -0.8011401145288819,
                1.9791696796137521,
                1.7845999243334114,
                -0.21152617643235655,
                -0.020200056101037634
            ]
        },
        {
            "positions": [
                0.12189465815698425,
                -0.7789080140573084,
                1.9967866884998189,
                1.929641864214823,
                -0.13259710075313982,
                -0.011730726948018742
            ]
        }
    ]
}{
    "goal": {
        "global_pose": {
            "orientation": {
                "w": 0.7047431468963623,
                "x": -0.7094548344612122,
                "y": 0.0024358443915843964,
                "z": -0.0022348060738295317
            },
            "position": {
                "x": 0.6094750761985779,
                "y": 0.3671506643295288,
                "z": 0.19426114857196808
            }
        },
        "name": "move_to_magneteinheit_A"
    },
    "id": "BFMT_move_to_magneteinheit_A_147",
    "joint_names": [
        "shoulder_pan_joint",
        "shoulder_lift_joint",
        "elbow_joint",
        "wrist_1_joint",
        "wrist_2_joint",
        "wrist_3_joint"
    ],
    "metrics": {
        "cart_traj_len": 1.190852493416563,
        "distance_elbow_joint": 0.24182498778931216,
        "distance_shoulder_lift_joint": 0.7503050355034191,
        "distance_shoulder_pan_joint": 1.2427191148079033,
        "distance_wrist_1_joint": 1.9150154325835549,
        "distance_wrist_2_joint": 2.506925809181409,
        "distance_wrist_3_joint": 4.242704132174367,
        "smoothness": 0.40988243523480217,
        "time": 0.662537595,
        "traj_len": 3.3014382490120826,
        "weighted_distance": 4.879225760113347
    },
    "planner": "BFMT",
    "start": {
        "state": {
            "elbow_joint": 1.919643534880228,
            "shoulder_lift_joint": -1.8972525353963687,
            "shoulder_pan_joint": -1.1188672234189438,
            "wrist_1_joint": -1.5931878212786155,
            "wrist_2_joint": 1.5706036197970081,
            "wrist_3_joint": 1.118896926603594
        }
    },
    "waypoints": [
        {
            "positions": [
                -1.1188672234189438,
                -1.8972525353963687,
                1.919643534880228,
                -1.5931878212786155,
                1.5706036197970081,
                1.118896926603594
            ]
        },
        {
            "positions": [
                -1.0915079332477342,
                -1.8726901707423451,
                1.9154742984002584,
                -1.529968248876429,
                1.4765965232821967,
                0.9518019344550952
            ]
        },
        {
            "positions": [
                -1.0641486430765248,
                -1.8481278060883217,
                1.911305061920289,
                -1.4667486764742423,
                1.3825894267673853,
                0.7847069423065964
            ]
        },
        {
            "positions": [
                -1.0367893529053152,
                -1.823565441434298,
                1.9071358254403192,
                -1.4035291040720559,
                1.288582330252574,
                0.6176119501580977
            ]
        },
        {
            "positions": [
                -1.0094300627341055,
                -1.7990030767802747,
                1.9029665889603498,
                -1.3403095316698692,
                1.1945752337377626,
                0.4505169580095989
            ]
        },
        {
            "positions": [
                -0.9820707725628959,
                -1.774440712126251,
                1.89879735248038,
                -1.2770899592676828,
                1.1005681372229512,
                0.28342196586110013
            ]
        },
        {
            "positions": [
                -0.9547114823916864,
                -1.7498783474722277,
                1.8946281160004104,
                -1.213870386865496,
                1.00656104070814,
                0.11632697371260137
            ]
        },
        {
            "positions": [
                -0.9273521922204768,
                -1.725315982818204,
                1.890458879520441,
                -1.1506508144633096,
                0.9125539441933285,
                -0.0507680184358974
            ]
        },
        {
            "positions": [
                -0.8999929020492672,
                -1.7007536181641807,
                1.8862896430404712,
                -1.0874312420611232,
                0.818546847678517,
                -0.21786301058439617
            ]
        },
        {
            "positions": [
                -0.8726336118780575,
                -1.676191253510157,
                1.8821204065605015,
                -1.0242116696589365,
                0.7245397511637057,
                -0.38495800273289493
            ]
        },
        {
            "positions": [
                -0.845274321706848,
                -1.6516288888561337,
                1.877951170080532,
                -0.9609920972567499,
                0.6305326546488943,
                -0.5520529948813937
            ]
        },
        {
            "positions": [
                -0.8179150315356384,
                -1.62706652420211,
                1.8737819336005623,
                -0.8977725248545633,
                0.5365255581340829,
                -0.7191479870298927
            ]
        },
        {
            "positions": [
                -0.7905557413644289,
                -1.6025041595480867,
                1.8696126971205929,
                -0.8345529524523768,
                0.44251846161927166,
                -0.8862429791783912
            ]
        },
        {
            "positions": [
                -0.7631964511932192,
                -1.577941794894063,
                1.8654434606406232,
                -0.7713333800501901,
                0.34851136510446,
                -1.0533379713268902
            ]
        },
        {
            "positions": [
                -0.7358371610220097,
                -1.5533794302400397,
                1.8612742241606535,
                -0.7081138076480037,
                0.2545042685896488,
                -1.2204329634753888
            ]
        },
        {
            "positions": [
                -0.7084778708508,
                -1.528817065586016,
                1.857104987680684,
                -0.6448942352458171,
                0.16049717207483738,
                -1.3875279556238878
            ]
        },
        {
            "positions": [
                -0.6811185806795905,
                -1.5042547009319926,
                1.8529357512007143,
                -0.5816746628436307,
                0.06649007556002595,
                -1.5546229477723863
            ]
        },
        {
            "positions": [
                -0.6537592905083809,
                -1.479692336277969,
                1.8487665147207446,
                -0.518455090441444,
                -0.027517020954785476,
                -1.7217179399208853
            ]
        },
        {
            "positions": [
                -0.6264000003371714,
                -1.4551299716239456,
                1.8445972782407751,
                -0.45523551803925755,
                -0.12152411746959668,
                -1.8888129320693838
            ]
        },
        {
            "positions": [
                -0.5990407101659617,
                -1.430567606969922,
                1.8404280417608054,
                -0.3920159456370709,
                -0.2155312139844081,
                -2.055907924217883
            ]
        },
        {
            "positions": [
                -0.5716814199947522,
                -1.4060052423158986,
                1.836258805280836,
                -0.3287963732348844,
                -0.30953831049921954,
                -2.223002916366381
            ]
        },
        {
            "positions": [
                -0.5443221298235426,
                -1.381442877661875,
                1.8320895688008663,
                -0.26557680083269775,
                -0.403545407014031,
                -2.39009790851488
            ]
        },
        {
            "positions": [
                -0.4608003771719798,
                -1.3521309554407592,
                1.85137344651461,
                -0.3390023523499024,
                -0.33694830921773483,
                -2.4818115706468666
            ]
        },
        {
            "positions": [
                -0.37727862452041705,
                -1.3228190332196437,
                1.870657324228354,
                -0.41242790386710704,
                -0.27035121142143864,
                -2.573525232778853
            ]
        },
        {
            "positions": [
                -0.29375687186885435,
                -1.293507110998528,
                1.8899412019420976,
                -0.4858534553843117,
                -0.20375411362514245,
                -2.6652388949108397
            ]
        },
        {
            "positions": [
                -0.2102351192172916,
                -1.2641951887774123,
                1.9092250796558414,
                -0.5592790069015163,
                -0.13715701582884626,
                -2.756952557042826
            ]
        },
        {
            "positions": [
                -0.12671336656572885,
                -1.2348832665562965,
                1.9285089573695853,
                -0.632704558418721,
                -0.07055991803255007,
                -2.8486662191748127
            ]
        },
        {
            "positions": [
                -0.04319161391416615,
                -1.205571344335181,
                1.947792835083329,
                -0.7061301099359256,
                -0.003962820236253883,
                -2.940379881306799
            ]
        },
        {
            "positions": [
                0.04033013873739666,
                -1.1762594221140654,
                1.9670767127970727,
                -0.7795556614531303,
                0.0626342775600423,
                -3.0320935434387857
            ]
        },
        {
            "positions": [
                0.12385189138895936,
                -1.1469474998929496,
                1.9863605905108166,
                -0.8529812129703349,
                0.12923137535633855,
                -3.123807205570772
            ]
        }
    ]
}