{
    "goal": {
        "global_pose": {
            "orientation": {
                "w": 0.5084816217422485,
                "x": -0.49083608388900757,
                "y": 0.5182115435600281,
                "z": -0.4816462993621826
            },
            "position": {
                "x": 0.5540239810943604,
                "y": 0.030875300988554955,
                "z": 0.16403168439865112
            }
        },
        "name": "move_to_storage_A"
    },
    "id": "BFMT_move_to_storage_A_73",
    "joint_names": [
        "shoulder_pan_joint",
        "shoulder_lift_joint",
        "elbow_joint",
        "wrist_1_joint",
        "wrist_2_joint",
        "wrist_3_joint"
    ],
    "metrics": {
        "cart_traj_len": 0.35354582313886407,
        "distance_elbow_joint": 0.44988515073107394,
        "distance_shoulder_lift_joint": 0.23621573976662846,
        "distance_shoulder_pan_joint": 0.46123364184291504,
        "distance_wrist_1_joint": 0.24077000013696093,
        "distance_wrist_2_joint": 1.1051284931022805,
        "distance_wrist_3_joint": 0.09659832495401233,
        "smoothness": 4.440892133664971e-16,
        "time": 0.47353954499999995,
        "traj_len": 1.609295296250465,
        "weighted_distance": 2.0319760071617816
    },
    "planner": "BFMT",
    "start": {
        "state": {
            "elbow_joint": 1.9715477243005601,
            "shoulder_lift_joint": -1.1394853015351272,
            "shoulder_pan_joint": 0.12281154014795169,
            "wrist_1_joint": -0.7804696478968182,
            "wrist_2_joint": 0.12958648046900423,
            "wrist_3_joint": -3.192491284697111
        }
    },
    "waypoints": [
        {
            "positions": [
                0.12281154014795169,
                -1.1394853015351272,
                1.9715477243005601,
                -0.7804696478968182,
                0.12958648046900423,
                -3.192491284697111
            ]
        },
        {
            "positions": [
                0.05692101988467811,
                -1.1732304072160742,
                2.0358170315478565,
                -0.8148653622020983,
                0.28746197948361574,
                -3.178691523989395
            ]
        },
        {
            "positions": [
                -0.008969500378595466,
                -1.206975512897021,
                2.1000863387951525,
                -0.8492610765073785,
                0.4453374784982272,
                -3.164891763281679
            ]
        },
        {
            "positions": [
                -0.07486002064186904,
                -1.240720618577968,
                2.164355646042449,
                -0.8836567908126586,
                0.6032129775128388,
                -3.151092002573963
            ]
        },
        {
            "positions": [
                -0.1407505409051426,
                -1.2744657242589148,
                2.2286249532897453,
                -0.9180525051179387,
                0.7610884765274502,
                -3.137292241866247
            ]
        },
        {
            "positions": [
                -0.20664106116841618,
                -1.3082108299398618,
                2.2928942605370417,
                -0.9524482194232189,
                0.9189639755420617,
                -3.123492481158531
            ]
        },
        {
            "positions": [
                -0.27253158143168976,
                -1.3419559356208086,
                2.3571635677843377,
                -0.9868439337284989,
                1.0768394745566732,
                -3.109692720450815
            ]
        },
        {
            "positions": [
                -0.33842210169496334,
                -1.3757010413017556,
                2.421432875031634,
                -1.021239648033779,
                1.2347149735712848,
                -3.095892959743099
            ]
        }
    ]
}