{
    "goal": {
        "global_pose": {
            "orientation": {
                "w": 0.5084816217422485,
                "x": -0.49083608388900757,
                "y": 0.5182115435600281,
                "z": -0.4816462993621826
            },
            "position": {
                "x": 0.5540239810943604,
                "y": 0.030875300988554955,
                "z": 0.16403168439865112
            }
        },
        "name": "move_to_storage_A"
    },
    "id": "BFMT_move_to_storage_A_48",
    "joint_names": [
        "shoulder_pan_joint",
        "shoulder_lift_joint",
        "elbow_joint",
        "wrist_1_joint",
        "wrist_2_joint",
        "wrist_3_joint"
    ],
    "metrics": {
        "cart_traj_len": 0.3526134512327519,
        "distance_elbow_joint": 0.44907427996475,
        "distance_shoulder_lift_joint": 0.23316054041361745,
        "distance_shoulder_pan_joint": 0.45904937438715404,
        "distance_wrist_1_joint": 0.24000078746578313,
        "distance_wrist_2_joint": 1.1061597468883937,
        "distance_wrist_3_joint": 0.08964967635719434,
        "smoothness": 4.440892098500626e-16,
        "time": 0.478300031,
        "traj_len": 1.6053331135552185,
        "weighted_distance": 2.0254763125115676
    },
    "planner": "BFMT",
    "start": {
        "state": {
            "elbow_joint": 1.9715477243005601,
            "shoulder_lift_joint": -1.1394853015351272,
            "shoulder_pan_joint": 0.12281154014795169,
            "wrist_1_joint": -0.7804696478968182,
            "wrist_2_joint": 0.12958648046900423,
            "wrist_3_joint": -3.192491284697111
        }
    },
    "waypoints": [
        {
            "positions": [
                0.12281154014795169,
                -1.1394853015351272,
                1.9715477243005601,
                -0.7804696478968182,
                0.12958648046900423,
                -3.192491284697111
            ]
        },
        {
            "positions": [
                0.05723305809264398,
                -1.172793950165644,
                2.035701192866953,
                -0.8147554746776443,
                0.28760930145306046,
                -3.179684188074655
            ]
        },
        {
            "positions": [
                -0.008345423962663731,
                -1.2061025987961607,
                2.099854661433346,
                -0.8490413014584705,
                0.4456321224371167,
                -3.1668770914521986
            ]
        },
        {
            "positions": [
                -0.07392390601797146,
                -1.2394112474266774,
                2.164008129999739,
                -0.8833271282392966,
                0.6036549434211729,
                -3.1540699948297424
            ]
        },
        {
            "positions": [
                -0.13950238807327914,
                -1.2727198960571942,
                2.2281615985661314,
                -0.9176129550201229,
                0.7616777644052292,
                -3.1412628982072857
            ]
        },
        {
            "positions": [
                -0.2050808701285869,
                -1.3060285446877111,
                2.2923150671325243,
                -0.951898781800949,
                0.9197005853892855,
                -3.1284558015848294
            ]
        },
        {
            "positions": [
                -0.2706593521838946,
                -1.3393371933182279,
                2.3564685356989172,
                -0.9861846085817751,
                1.0777234063733416,
                -3.115648704962373
            ]
        },
        {
            "positions": [
                -0.33623783423920234,
                -1.3726458419487446,
                2.42062200426531,
                -1.0204704353626013,
                1.2357462273573978,
                -3.102841608339917
            ]
        }
    ]
}