{
    "goal": {
        "global_pose": {
            "orientation": {
                "w": 0.5084816217422485,
                "x": -0.49083608388900757,
                "y": 0.5182115435600281,
                "z": -0.4816462993621826
            },
            "position": {
                "x": 0.5540239810943604,
                "y": 0.030875300988554955,
                "z": 0.16403168439865112
            }
        },
        "name": "move_to_storage_A"
    },
    "id": "BFMT_move_to_storage_A_144",
    "joint_names": [
        "shoulder_pan_joint",
        "shoulder_lift_joint",
        "elbow_joint",
        "wrist_1_joint",
        "wrist_2_joint",
        "wrist_3_joint"
    ],
    "metrics": {
        "cart_traj_len": 0.35349584127641187,
        "distance_elbow_joint": 0.4509588749901403,
        "distance_shoulder_lift_joint": 0.23614593124268235,
        "distance_shoulder_pan_joint": 0.4604514674966412,
        "distance_wrist_1_joint": 0.24170168973865713,
        "distance_wrist_2_joint": 1.1085664499575327,
        "distance_wrist_3_joint": 0.08922739263618906,
        "smoothness": 4.440892098500626e-16,
        "time": 0.465560698,
        "traj_len": 1.6084314738470653,
        "weighted_distance": 2.0287372257220526
    },
    "planner": "BFMT",
    "start": {
        "state": {
            "elbow_joint": 1.9715477243005601,
            "shoulder_lift_joint": -1.1394853015351272,
            "shoulder_pan_joint": 0.12281154014795169,
            "wrist_1_joint": -0.7804696478968182,
            "wrist_2_joint": 0.12958648046900423,
            "wrist_3_joint": -3.192491284697111
        }
    },
    "waypoints": [
        {
            "positions": [
                0.12281154014795169,
                -1.1394853015351272,
                1.9715477243005601,
                -0.7804696478968182,
                0.12958648046900423,
                -3.192491284697111
            ]
        },
        {
            "positions": [
                0.05703275907700295,
                -1.173220434569796,
                2.035970420727723,
                -0.8149984607166263,
                0.2879531161772232,
                -3.1797445143205127
            ]
        },
        {
            "positions": [
                -0.008746021993945793,
                -1.206955567604465,
                2.1003931171548857,
                -0.8495272735364345,
                0.44631975188544215,
                -3.1669977439439143
            ]
        },
        {
            "positions": [
                -0.07452480306489452,
                -1.240690700639134,
                2.1648158135820488,
                -0.8840560863562427,
                0.6046863875936611,
                -3.154250973567316
            ]
        },
        {
            "positions": [
                -0.14030358413584326,
                -1.2744258336738028,
                2.229238510009212,
                -0.9185848991760508,
                0.7630530233018801,
                -3.1415042031907174
            ]
        },
        {
            "positions": [
                -0.20608236520679202,
                -1.3081609667084717,
                2.293661206436375,
                -0.953113711995859,
                0.921419659010099,
                -3.128757432814119
            ]
        },
        {
            "positions": [
                -0.2718611462777407,
                -1.3418960997431406,
                2.3580839028635374,
                -0.9876425248156671,
                1.079786294718318,
                -3.1160106624375206
            ]
        },
        {
            "positions": [
                -0.3376399273486895,
                -1.3756312327778095,
                2.4225065992907004,
                -1.0221713376354753,
                1.2381529304265368,
                -3.103263892060922
            ]
        }
    ]
}