{
    "goal": {
        "global_pose": {
            "orientation": {
                "w": 0.5084816217422485,
                "x": -0.49083608388900757,
                "y": 0.5182115435600281,
                "z": -0.4816462993621826
            },
            "position": {
                "x": 0.5540239810943604,
                "y": 0.030875300988554955,
                "z": 0.16403168439865112
            }
        },
        "name": "move_to_storage_A"
    },
    "id": "BFMT_move_to_storage_A_8",
    "joint_names": [
        "shoulder_pan_joint",
        "shoulder_lift_joint",
        "elbow_joint",
        "wrist_1_joint",
        "wrist_2_joint",
        "wrist_3_joint"
    ],
    "metrics": {
        "cart_traj_len": 0.35276212392176154,
        "distance_elbow_joint": 0.44808094420034017,
        "distance_shoulder_lift_joint": 0.2344945869514845,
        "distance_shoulder_pan_joint": 0.4616059199915883,
        "distance_wrist_1_joint": 0.23735188155850995,
        "distance_wrist_2_joint": 1.096435065412082,
        "distance_wrist_3_joint": 0.09314410369799608,
        "smoothness": 4.440892098500626e-16,
        "time": 0.459294645,
        "traj_len": 1.6034688964279915,
        "weighted_distance": 2.0226684493951512
    },
    "planner": "BFMT",
    "start": {
        "state": {
            "elbow_joint": 1.9715477243005601,
            "shoulder_lift_joint": -1.1394853015351272,
            "shoulder_pan_joint": 0.12281154014795169,
            "wrist_1_joint": -0.7804696478968182,
            "wrist_2_joint": 0.12958648046900423,
            "wrist_3_joint": -3.192491284697111
        }
    },
    "waypoints": [
        {
            "positions": [
                0.12281154014795169,
                -1.1394853015351272,
                1.9715477243005601,
                -0.7804696478968182,
                0.12958648046900423,
                -3.192491284697111
            ]
        },
        {
            "positions": [
                0.056867837292010504,
                -1.172984528242482,
                2.0355592877577515,
                -0.8143770595480339,
                0.2862200612421588,
                -3.1791849841688262
            ]
        },
        {
            "positions": [
                -0.009075865563930682,
                -1.206483754949837,
                2.099570851214943,
                -0.8482844711992495,
                0.44285364201531335,
                -3.165878683640541
            ]
        },
        {
            "positions": [
                -0.07501956841987185,
                -1.239982981657192,
                2.1635824146721343,
                -0.8821918828504652,
                0.599487222788468,
                -3.152572383112256
            ]
        },
        {
            "positions": [
                -0.14096327127581304,
                -1.273482208364547,
                2.2275939781293257,
                -0.916099294501681,
                0.7561208035616225,
                -3.1392660825839704
            ]
        },
        {
            "positions": [
                -0.20690697413175424,
                -1.3069814350719018,
                2.2916055415865175,
                -0.9500067061528967,
                0.9127543843347771,
                -3.1259597820556855
            ]
        },
        {
            "positions": [
                -0.2728506769876954,
                -1.3404806617792566,
                2.355617105043709,
                -0.9839141178041124,
                1.0693879651079317,
                -3.1126534815274
            ]
        },
        {
            "positions": [
                -0.3387943798436366,
                -1.3739798884866117,
                2.4196286685009003,
                -1.0178215294553281,
                1.2260215458810864,
                -3.099347180999115
            ]
        }
    ]
}