{
    "goal": {
        "global_pose": {
            "orientation": {
                "w": 0.7047431468963623,
                "x": -0.7094548344612122,
                "y": 0.0024358443915843964,
                "z": -0.0022348060738295317
            },
            "position": {
                "x": 0.6094750761985779,
                "y": 0.3671506643295288,
                "z": 0.19426114857196808
            }
        },
        "name": "move_to_magneteinheit_A"
    },
    "id": "BFMT_move_to_magneteinheit_A_72",
    "joint_names": [
        "shoulder_pan_joint",
        "shoulder_lift_joint",
        "elbow_joint",
        "wrist_1_joint",
        "wrist_2_joint",
        "wrist_3_joint"
    ],
    "metrics": {
        "cart_traj_len": 3.371784591664729,
        "distance_elbow_joint": 3.8775468290053965,
        "distance_shoulder_lift_joint": 0.38192254491064404,
        "distance_shoulder_pan_joint": 2.6972676195836125,
        "distance_wrist_1_joint": 0.9085913272233379,
        "distance_wrist_2_joint": 1.7085610966565667,
        "distance_wrist_3_joint": 2.5950353301163207,
        "smoothness": 0.04497902019952396,
        "time": 0.857135988,
        "traj_len": 3.4883985935520445,
        "weighted_distance": 4.46946840593022
    },
    "planner": "BFMT",
    "start": {
        "state": {
            "elbow_joint": -1.919618573717145,
            "shoulder_lift_joint": -1.2443395971678275,
            "shoulder_pan_joint": 2.6996025300909787,
            "wrist_1_joint": -1.548550951253194,
            "wrist_2_joint": -1.5709469090946802,
            "wrist_3_joint": 0.4420197732051276
        }
    },
    "waypoints": [
        {
            "positions": [
                2.6996025300909787,
                -1.2443395971678275,
                -1.919618573717145,
                -1.548550951253194,
                -1.5709469090946802,
                0.4420197732051276
            ]
        },
        {
            "positions": [
                2.5806593266885343,
                -1.2297767856473445,
                -1.8155274354163706,
                -1.501145907753111,
                -1.5128286833673483,
                0.49450574006639836
            ]
        },
        {
            "positions": [
                2.46171612328609,
                -1.2152139741268615,
                -1.7114362971155963,
                -1.4537408642530278,
                -1.4547104576400167,
                0.5469917069276692
            ]
        },
        {
            "positions": [
                2.3427729198836458,
                -1.2006511626063787,
                -1.6073451588148218,
                -1.4063358207529446,
                -1.396592231912685,
                0.5994776737889399
            ]
        },
        {
            "positions": [
                2.2238297164812013,
                -1.1860883510858957,
                -1.5032540205140474,
                -1.3589307772528616,
                -1.338474006185353,
                0.6519636406502107
            ]
        },
        {
            "positions": [
                2.104886513078757,
                -1.1715255395654127,
                -1.3991628822132731,
                -1.3115257337527786,
                -1.2803557804580215,
                0.7044496075114814
            ]
        },
        {
            "positions": [
                1.9859433096763124,
                -1.1569627280449297,
                -1.2950717439124988,
                -1.2641206902526954,
                -1.2222375547306896,
                0.7569355743727523
            ]
        },
        {
            "positions": [
                1.867000106273868,
                -1.1423999165244467,
                -1.1909806056117245,
                -1.2167156467526123,
                -1.1641193290033578,
                0.8094215412340231
            ]
        },
        {
            "positions": [
                1.7480569028714237,
                -1.1278371050039637,
                -1.0868894673109502,
                -1.1693106032525291,
                -1.106001103276026,
                0.8619075080952938
            ]
        },
        {
            "positions": [
                1.6291136994689792,
                -1.113274293483481,
                -0.9827983290101758,
                -1.121905559752446,
                -1.0478828775486941,
                0.9143934749565646
            ]
        },
        {
            "positions": [
                1.5101704960665348,
                -1.098711481962998,
                -0.8787071907094015,
                -1.0745005162523629,
                -0.9897646518213625,
                0.9668794418178355
            ]
        },
        {
            "positions": [
                1.3912272926640905,
                -1.084148670442515,
                -0.774616052408627,
                -1.0270954727522796,
                -0.9316464260940307,
                1.0193654086791062
            ]
        },
        {
            "positions": [
                1.272284089261646,
                -1.069585858922032,
                -0.6705249141078526,
                -0.9796904292521966,
                -0.873528200366699,
                1.071851375540377
            ]
        },
        {
            "positions": [
                1.1533408858592018,
                -1.055023047401549,
                -0.5664337758070785,
                -0.9322853857521136,
                -0.8154099746393673,
                1.1243373424016476
            ]
        },
        {
            "positions": [
                1.0343976824567573,
                -1.0404602358810662,
                -0.4623426375063042,
                -0.8848803422520305,
                -0.7572917489120355,
                1.1768233092629186
            ]
        },
        {
            "positions": [
                0.9154544790543131,
                -1.0258974243605832,
                -0.3582514992055297,
                -0.8374752987519474,
                -0.6991735231847037,
                1.2293092761241893
            ]
        },
        {
            "positions": [
                0.7965112756518686,
                -1.0113346128401002,
                -0.25416036090475536,
                -0.7900702552518643,
                -0.641055297457372,
                1.28179524298546
            ]
        },
        {
            "positions": [
                0.6775680722494242,
                -0.9967718013196172,
                -0.15006922260398103,
                -0.7426652117517811,
                -0.5829370717300402,
                1.334281209846731
            ]
        },
        {
            "positions": [
                0.6225241773530182,
                -1.0035532209378826,
                -0.0019199250765085385,
                -0.736869149677134,
                -0.5396062040268975,
                1.4396338321652113
            ]
        },
        {
            "positions": [
                0.5674802824566122,
                -1.010334640556148,
                0.14622937245096396,
                -0.7310730876024869,
                -0.4962753363237549,
                1.544986454483692
            ]
        },
        {
            "positions": [
                0.5124363875602063,
                -1.0171160601744134,
                0.2943786699784364,
                -0.7252770255278399,
                -0.45294446862061233,
                1.6503390768021724
            ]
        },
        {
            "positions": [
                0.4573924926638002,
                -1.0238974797926788,
                0.44252796750590895,
                -0.7194809634531928,
                -0.4096136009174697,
                1.7556916991206528
            ]
        },
        {
            "positions": [
                0.4023485977673943,
                -1.0306788994109441,
                0.5906772650333815,
                -0.7136849013785457,
                -0.366282733214327,
                1.8610443214391332
            ]
        },
        {
            "positions": [
                0.3473047028709883,
                -1.0374603190292093,
                0.7388265625608539,
                -0.7078888393038986,
                -0.32295186551118443,
                1.9663969437576139
            ]
        },
        {
            "positions": [
                0.2922608079745823,
                -1.0442417386474747,
                0.8869758600883264,
                -0.7020927772292515,
                -0.2796209978080418,
                2.071749566076094
            ]
        },
        {
            "positions": [
                0.23721691307817633,
                -1.05102315826574,
                1.035125157615799,
                -0.6962967151546043,
                -0.23629013010489913,
                2.1771021883945747
            ]
        },
        {
            "positions": [
                0.18217301818177029,
                -1.0578045778840055,
                1.1832744551432717,
                -0.6905006530799573,
                -0.19295926240175648,
                2.2824548107130553
            ]
        },
        {
            "positions": [
                0.1271291232853644,
                -1.064585997502271,
                1.331423752670744,
                -0.6847045910053102,
                -0.1496283946986139,
                2.3878074330315355
            ]
        },
        {
            "positions": [
                0.07208522838895835,
                -1.0713674171205363,
                1.4795730501982165,
                -0.6789085289306631,
                -0.10629752699547126,
                2.493160055350016
            ]
        },
        {
            "positions": [
                0.06746854045205333,
                -1.0866616903363682,
                1.6267523893557578,
                -0.687396571868508,
                -0.04279268631674364,
                2.641481690638202
            ]
        },
        {
            "positions": [
                0.06285185251514833,
                -1.1019559635522,
                1.7739317285132992,
                -0.695884614806353,
                0.020712154361983974,
                2.7898033259263877
            ]
        },
        {
            "positions": [
                0.09311032351903986,
                -1.1165412569671256,
                1.8659299919007752,
                -0.7068710243189116,
                0.07916317096193543,
                2.913429214623918
            ]
        },
        {
            "positions": [
                0.12336879452293141,
                -1.131126550382051,
                1.9579282552882515,
                -0.71785743383147,
                0.1376141875618869,
                3.0370551033214483
            ]
        }
    ]
}{
    "goal": {
        "global_pose": {
            "orientation": {
                "w": 0.7047431468963623,
                "x": -0.7094548344612122,
                "y": 0.0024358443915843964,
                "z": -0.0022348060738295317
            },
            "position": {
                "x": 0.6094750761985779,
                "y": 0.3671506643295288,
                "z": 0.19426114857196808
            }
        },
        "name": "move_to_magneteinheit_A"
    },
    "id": "BFMT_move_to_magneteinheit_A_72",
    "joint_names": [
        "shoulder_pan_joint",
        "shoulder_lift_joint",
        "elbow_joint",
        "wrist_1_joint",
        "wrist_2_joint",
        "wrist_3_joint"
    ],
    "metrics": {
        "cart_traj_len": 1.2533572602512142,
        "distance_elbow_joint": 0.279390603581404,
        "distance_shoulder_lift_joint": 0.750722141709177,
        "distance_shoulder_pan_joint": 1.2407940177070098,
        "distance_wrist_1_joint": 0.7464063965888384,
        "distance_wrist_2_joint": 1.446835910855817,
        "distance_wrist_3_joint": 4.244689988115949,
        "smoothness": 0.03783443475013729,
        "time": 0.5739840700000001,
        "traj_len": 2.9510742211198613,
        "weighted_distance": 4.403573701237978
    },
    "planner": "BFMT",
    "start": {
        "state": {
            "elbow_joint": 1.919643534880228,
            "shoulder_lift_joint": -1.8972525353963687,
            "shoulder_pan_joint": -1.1188672234189438,
            "wrist_1_joint": -1.5931878212786155,
            "wrist_2_joint": 1.5706036197970081,
            "wrist_3_joint": 1.118896926603594
        }
    },
    "waypoints": [
        {
            "positions": [
                -1.1188672234189438,
                -1.8972525353963687,
                1.919643534880228,
                -1.5931878212786155,
                1.5706036197970081,
                1.118896926603594
            ]
        },
        {
            "positions": [
                -1.0804739415210292,
                -1.8642998064617176,
                1.930386758808144,
                -1.550280378226524,
                1.5242214482338623,
                0.9144499842029363
            ]
        },
        {
            "positions": [
                -1.0420806596231147,
                -1.8313470775270664,
                1.94112998273606,
                -1.5073729351744325,
                1.4778392766707162,
                0.7100030418022787
            ]
        },
        {
            "positions": [
                -1.0036873777252,
                -1.7983943485924152,
                1.951873206663976,
                -1.464465492122341,
                1.4314571051075704,
                0.505556099401621
            ]
        },
        {
            "positions": [
                -0.9652940958272853,
                -1.765441619657764,
                1.9626164305918918,
                -1.4215580490702495,
                1.3850749335444243,
                0.3011091570009634
            ]
        },
        {
            "positions": [
                -0.9269008139293706,
                -1.7324888907231129,
                1.9733596545198078,
                -1.378650606018158,
                1.3386927619812785,
                0.09666221460030577
            ]
        },
        {
            "positions": [
                -0.888507532031456,
                -1.6995361617884617,
                1.9841028784477237,
                -1.3357431629660663,
                1.2923105904181327,
                -0.10778472780035186
            ]
        },
        {
            "positions": [
                -0.8501142501335415,
                -1.6665834328538103,
                1.9948461023756396,
                -1.2928357199139748,
                1.2459284188549866,
                -0.3122316702010095
            ]
        },
        {
            "positions": [
                -0.8117209682356268,
                -1.633630703919159,
                2.0055893263035554,
                -1.2499282768618833,
                1.1995462472918406,
                -0.5166786126016671
            ]
        },
        {
            "positions": [
                -0.7733276863377121,
                -1.600677974984508,
                2.0163325502314713,
                -1.2070208338097919,
                1.1531640757286947,
                -0.7211255550023248
            ]
        },
        {
            "positions": [
                -0.7349344044397975,
                -1.5677252460498567,
                2.0270757741593872,
                -1.1641133907577004,
                1.106781904165549,
                -0.9255724974029824
            ]
        },
        {
            "positions": [
                -0.6965411225418829,
                -1.5347725171152056,
                2.037818998087303,
                -1.1212059477056089,
                1.0603997326024028,
                -1.1300194398036398
            ]
        },
        {
            "positions": [
                -0.6581478406439683,
                -1.5018197881805544,
                2.048562222015219,
                -1.0782985046535174,
                1.014017561039257,
                -1.3344663822042977
            ]
        },
        {
            "positions": [
                -0.6197545587460536,
                -1.4688670592459032,
                2.059305445943135,
                -1.035391061601426,
                0.967635389476111,
                -1.5389133246049556
            ]
        },
        {
            "positions": [
                -0.581361276848139,
                -1.435914330311252,
                2.070048669871051,
                -0.9924836185493344,
                0.9212532179129651,
                -1.743360267005613
            ]
        },
        {
            "positions": [
                -0.5429679949502244,
                -1.4029616013766009,
                2.080791893798967,
                -0.9495761754972429,
                0.8748710463498192,
                -1.9478072094062704
            ]
        },
        {
            "positions": [
                -0.5045747130523097,
                -1.3700088724419497,
                2.091535117726883,
                -0.9066687324451514,
                0.8284888747866732,
                -2.152254151806928
            ]
        },
        {
            "positions": [
                -0.4150744977179703,
                -1.3380833754769843,
                2.076178114764776,
                -0.8981134027658122,
                0.727814422523033,
                -2.291331138907703
            ]
        },
        {
            "positions": [
                -0.32557428238363084,
                -1.306157878512019,
                2.0608211118026687,
                -0.8895580730864731,
                0.6271399702593927,
                -2.430408126008478
            ]
        },
        {
            "positions": [
                -0.2360740670492914,
                -1.2742323815470535,
                2.045464108840562,
                -0.8810027434071338,
                0.5264655179957525,
                -2.5694851131092533
            ]
        },
        {
            "positions": [
                -0.14657385171495196,
                -1.2423068845820882,
                2.0301071058784546,
                -0.8724474137277947,
                0.4257910657321121,
                -2.7085621002100284
            ]
        },
        {
            "positions": [
                -0.05707363638061247,
                -1.2103813876171226,
                2.0147501029163477,
                -0.8638920840484554,
                0.32511661346847176,
                -2.847639087310804
            ]
        },
        {
            "positions": [
                0.032426578953726914,
                -1.1784558906521572,
                1.9993930999542406,
                -0.8553367543691163,
                0.22444216120483163,
                -2.986716074411579
            ]
        },
        {
            "positions": [
                0.12192679428806635,
                -1.1465303936871918,
                1.9840360969921336,
                -0.846781424689777,
                0.12376770894119127,
                -3.125793061512354
            ]
        }
    ]
}