{
    "goal": {
        "global_pose": {
            "orientation": {
                "w": 0.7047431468963623,
                "x": -0.7094548344612122,
                "y": 0.0024358443915843964,
                "z": -0.0022348060738295317
            },
            "position": {
                "x": 0.6094750761985779,
                "y": 0.3671506643295288,
                "z": 0.19426114857196808
            }
        },
        "name": "move_to_magneteinheit_A"
    },
    "id": "BFMT_move_to_magneteinheit_A_114",
    "joint_names": [
        "shoulder_pan_joint",
        "shoulder_lift_joint",
        "elbow_joint",
        "wrist_1_joint",
        "wrist_2_joint",
        "wrist_3_joint"
    ],
    "metrics": {
        "cart_traj_len": 3.4556781214451027,
        "distance_elbow_joint": 3.901272644550253,
        "distance_shoulder_lift_joint": 0.1258633189216456,
        "distance_shoulder_pan_joint": 2.5782948891565516,
        "distance_wrist_1_joint": 0.7776500264110571,
        "distance_wrist_2_joint": 1.6936820873447136,
        "distance_wrist_3_joint": 3.5925145755573396,
        "smoothness": 0.01487676613843196,
        "time": 0.8804501069999999,
        "traj_len": 3.559392861421954,
        "weighted_distance": 4.72500146103808
    },
    "planner": "BFMT",
    "start": {
        "state": {
            "elbow_joint": -1.919618573717145,
            "shoulder_lift_joint": -1.2443395971678275,
            "shoulder_pan_joint": 2.6996025300909787,
            "wrist_1_joint": -1.548550951253194,
            "wrist_2_joint": -1.5709469090946802,
            "wrist_3_joint": 0.4420197732051276
        }
    },
    "waypoints": [
        {
            "positions": [
                2.6996025300909787,
                -1.2443395971678275,
                -1.919618573717145,
                -1.548550951253194,
                -1.5709469090946802,
                0.4420197732051276
            ]
        },
        {
            "positions": [
                2.586028566245617,
                -1.238971182722842,
                -1.7814881961573306,
                -1.5498911267288364,
                -1.5531757465891523,
                0.33894166070627957
            ]
        },
        {
            "positions": [
                2.472454602400255,
                -1.2336027682778563,
                -1.6433578185975162,
                -1.5512313022044788,
                -1.5354045840836243,
                0.23586354820743155
            ]
        },
        {
            "positions": [
                2.358880638554893,
                -1.2282343538328708,
                -1.5052274410377016,
                -1.552571477680121,
                -1.5176334215780964,
                0.13278543570858353
            ]
        },
        {
            "positions": [
                2.245306674709531,
                -1.2228659393878851,
                -1.3670970634778872,
                -1.5539116531557633,
                -1.4998622590725685,
                0.029707323209735514
            ]
        },
        {
            "positions": [
                2.131732710864169,
                -1.2174975249428996,
                -1.2289666859180728,
                -1.5552518286314057,
                -1.4820910965670406,
                -0.0733707892891125
            ]
        },
        {
            "positions": [
                2.018158747018807,
                -1.2121291104979142,
                -1.0908363083582584,
                -1.556592004107048,
                -1.4643199340615127,
                -0.17644890178796052
            ]
        },
        {
            "positions": [
                1.904584783173445,
                -1.2067606960529285,
                -0.952705930798444,
                -1.5579321795826904,
                -1.4465487715559848,
                -0.27952701428680854
            ]
        },
        {
            "positions": [
                1.7910108193280831,
                -1.201392281607943,
                -0.8145755532386296,
                -1.5592723550583325,
                -1.428777609050457,
                -0.38260512678565656
            ]
        },
        {
            "positions": [
                1.6774368554827213,
                -1.1960238671629575,
                -0.6764451756788152,
                -1.5606125305339749,
                -1.411006446544929,
                -0.4856832392845046
            ]
        },
        {
            "positions": [
                1.5638628916373591,
                -1.1906554527179718,
                -0.5383147981190006,
                -1.5619527060096172,
                -1.3932352840394011,
                -0.5887613517833525
            ]
        },
        {
            "positions": [
                1.4502889277919973,
                -1.1852870382729863,
                -0.40018442055918624,
                -1.5632928814852596,
                -1.3754641215338732,
                -0.6918394642822006
            ]
        },
        {
            "positions": [
                1.3367149639466354,
                -1.1799186238280006,
                -0.26205404299937185,
                -1.564633056960902,
                -1.3576929590283453,
                -0.7949175767810486
            ]
        },
        {
            "positions": [
                1.2231410001012732,
                -1.1745502093830151,
                -0.12392366543955724,
                -1.5659732324365443,
                -1.3399217965228174,
                -0.8979956892798966
            ]
        },
        {
            "positions": [
                1.1095670362559114,
                -1.1691817949380297,
                0.014206712120256926,
                -1.5673134079121864,
                -1.3221506340172895,
                -1.0010738017787446
            ]
        },
        {
            "positions": [
                0.9959930724105495,
                -1.163813380493044,
                0.15233708968007176,
                -1.5686535833878288,
                -1.3043794715117616,
                -1.1041519142775926
            ]
        },
        {
            "positions": [
                0.8824191085651876,
                -1.1584449660480585,
                0.2904674672398857,
                -1.5699937588634711,
                -1.2866083090062337,
                -1.2072300267764406
            ]
        },
        {
            "positions": [
                0.7688451447198255,
                -1.153076551603073,
                0.42859784479970053,
                -1.5713339343391135,
                -1.2688371465007058,
                -1.3103081392752887
            ]
        },
        {
            "positions": [
                0.6552711808744638,
                -1.1477081371580873,
                0.5667282223595145,
                -1.5726741098147559,
                -1.2510659839951779,
                -1.4133862517741367
            ]
        },
        {
            "positions": [
                0.5416972170291015,
                -1.1423397227131018,
                0.7048585999193293,
                -1.574014285290398,
                -1.23329482148965,
                -1.5164643642729847
            ]
        },
        {
            "positions": [
                0.42812325318373956,
                -1.136971308268116,
                0.8429889774791437,
                -1.5753544607660404,
                -1.215523658984122,
                -1.6195424767718327
            ]
        },
        {
            "positions": [
                0.31454928933837767,
                -1.1316028938231306,
                0.9811193550389581,
                -1.5766946362416827,
                -1.1977524964785942,
                -1.7226205892706807
            ]
        },
        {
            "positions": [
                0.27240124183967657,
                -1.1356176192725052,
                1.0669321838964878,
                -1.5603733453634967,
                -1.138219827261579,
                -1.8069136749245582
            ]
        },
        {
            "positions": [
                0.23025319434097546,
                -1.1396323447218795,
                1.1527450127540175,
                -1.544052054485311,
                -1.078687158044564,
                -1.891206760578436
            ]
        },
        {
            "positions": [
                0.18810514684227433,
                -1.143647070171254,
                1.2385578416115472,
                -1.527730763607125,
                -1.019154488827549,
                -1.9754998462323135
            ]
        },
        {
            "positions": [
                0.18142539625148976,
                -1.1437553140941366,
                1.3128674645337033,
                -1.4576765167283239,
                -0.9049655221197908,
                -2.0929993418443034
            ]
        },
        {
            "positions": [
                0.1747456456607052,
                -1.143863558017019,
                1.387177087455859,
                -1.3876222698495229,
                -0.7907765554120325,
                -2.210498837456293
            ]
        },
        {
            "positions": [
                0.16806589506992062,
                -1.1439718019399017,
                1.4614867103780151,
                -1.3175680229707216,
                -0.6765875887042743,
                -2.3279983330682827
            ]
        },
        {
            "positions": [
                0.16138614447913602,
                -1.1440800458627842,
                1.5357963333001712,
                -1.2475137760919206,
                -0.562398621996516,
                -2.4454978286802724
            ]
        },
        {
            "positions": [
                0.15470639388835145,
                -1.1441882897856668,
                1.610105956222327,
                -1.1774595292131196,
                -0.4482096552887578,
                -2.5629973242922626
            ]
        },
        {
            "positions": [
                0.14802664329756687,
                -1.1442965337085491,
                1.684415579144483,
                -1.1074052823343186,
                -0.33402068858099954,
                -2.6804968199042523
            ]
        },
        {
            "positions": [
                0.1413468927067823,
                -1.1444047776314317,
                1.758725202066639,
                -1.0373510354555175,
                -0.2198317218732413,
                -2.797996315516242
            ]
        },
        {
            "positions": [
                0.13466714211599773,
                -1.1445130215543142,
                1.833034824988795,
                -0.9672967885767164,
                -0.10564275516548305,
                -2.915495811128232
            ]
        },
        {
            "positions": [
                0.12798739152521316,
                -1.1446212654771968,
                1.9073444479109511,
                -0.8972425416979153,
                0.008546211542275195,
                -3.0329953067402218
            ]
        },
        {
            "positions": [
                0.12130764093442858,
                -1.1447295094000793,
                1.981654070833107,
                -0.8271882948191143,
                0.12273517825003338,
                -3.1504948023522115
            ]
        }
    ]
}{
    "goal": {
        "global_pose": {
            "orientation": {
                "w": 0.7047431468963623,
                "x": -0.7094548344612122,
                "y": 0.0024358443915843964,
                "z": -0.0022348060738295317
            },
            "position": {
                "x": 0.6094750761985779,
                "y": 0.3671506643295288,
                "z": 0.19426114857196808
            }
        },
        "name": "move_to_magneteinheit_A"
    },
    "id": "BFMT_move_to_magneteinheit_A_114",
    "joint_names": [
        "shoulder_pan_joint",
        "shoulder_lift_joint",
        "elbow_joint",
        "wrist_1_joint",
        "wrist_2_joint",
        "wrist_3_joint"
    ],
    "metrics": {
        "cart_traj_len": 1.198379578389896,
        "distance_elbow_joint": 0.06444202414106392,
        "distance_shoulder_lift_joint": 0.7503778144671605,
        "distance_shoulder_pan_joint": 1.2423141887378473,
        "distance_wrist_1_joint": 0.7499417010830239,
        "distance_wrist_2_joint": 1.4405334487167956,
        "distance_wrist_3_joint": 2.0222347438992294,
        "smoothness": 2.6122894756546934e-16,
        "time": 0.48723980800000005,
        "traj_len": 2.5039656389505667,
        "weighted_distance": 3.5362110455462634
    },
    "planner": "BFMT",
    "start": {
        "state": {
            "elbow_joint": 1.919643534880228,
            "shoulder_lift_joint": -1.8972525353963687,
            "shoulder_pan_joint": -1.1188672234189438,
            "wrist_1_joint": -1.5931878212786155,
            "wrist_2_joint": 1.5706036197970081,
            "wrist_3_joint": 1.118896926603594
        }
    },
    "waypoints": [
        {
            "positions": [
                -1.1188672234189438,
                -1.8972525353963687,
                1.919643534880228,
                -1.5931878212786155,
                1.5706036197970081,
                1.118896926603594
            ]
        },
        {
            "positions": [
                -1.0412225866228284,
                -1.8503539219921712,
                1.9236711613890445,
                -1.5463164649609265,
                1.4805702792522084,
                1.2452865980972958
            ]
        },
        {
            "positions": [
                -0.963577949826713,
                -1.8034553085879736,
                1.927698787897861,
                -1.4994451086432374,
                1.3905369387074087,
                1.3716762695909976
            ]
        },
        {
            "positions": [
                -0.8859333130305975,
                -1.756556695183776,
                1.9317264144066777,
                -1.4525737523255484,
                1.300503598162609,
                1.4980659410846995
            ]
        },
        {
            "positions": [
                -0.8082886762344821,
                -1.7096580817795786,
                1.935754040915494,
                -1.4057023960078594,
                1.2104702576178092,
                1.6244556125784013
            ]
        },
        {
            "positions": [
                -0.7306440394383666,
                -1.662759468375381,
                1.9397816674243105,
                -1.3588310396901706,
                1.1204369170730095,
                1.7508452840721032
            ]
        },
        {
            "positions": [
                -0.6529994026422511,
                -1.6158608549711837,
                1.943809293933127,
                -1.3119596833724816,
                1.0304035765282098,
                1.877234955565805
            ]
        },
        {
            "positions": [
                -0.5753547658461357,
                -1.568962241566986,
                1.9478369204419437,
                -1.2650883270547926,
                0.9403702359834101,
                2.003624627059507
            ]
        },
        {
            "positions": [
                -0.4977101290500202,
                -1.5220636281627886,
                1.95186454695076,
                -1.2182169707371036,
                0.8503368954386104,
                2.130014298553209
            ]
        },
        {
            "positions": [
                -0.42006549225390477,
                -1.4751650147585909,
                1.9558921734595764,
                -1.1713456144194145,
                0.7603035548938106,
                2.2564039700469105
            ]
        },
        {
            "positions": [
                -0.34242085545778933,
                -1.4282664013543935,
                1.959919799968393,
                -1.1244742581017255,
                0.6702702143490109,
                2.382793641540612
            ]
        },
        {
            "positions": [
                -0.2647762186616739,
                -1.3813677879501958,
                1.9639474264772097,
                -1.0776029017840365,
                0.5802368738042112,
                2.509183313034314
            ]
        },
        {
            "positions": [
                -0.18713158186555834,
                -1.3344691745459984,
                1.967975052986026,
                -1.0307315454663475,
                0.49020353325941146,
                2.6355729845280162
            ]
        },
        {
            "positions": [
                -0.1094869450694429,
                -1.287570561141801,
                1.9720026794948424,
                -0.9838601891486585,
                0.40017019271461174,
                2.761962656021718
            ]
        },
        {
            "positions": [
                -0.03184230827332746,
                -1.2406719477376034,
                1.976030306003659,
                -0.9369888328309696,
                0.310136852169812,
                2.8883523275154195
            ]
        },
        {
            "positions": [
                0.04580232852278798,
                -1.1937733343334058,
                1.9800579325124756,
                -0.8901174765132805,
                0.2201035116250123,
                3.0147419990091215
            ]
        },
        {
            "positions": [
                0.12344696531890337,
                -1.1468747209292083,
                1.984085559021292,
                -0.8432461201955915,
                0.13007017108021268,
                3.141131670502823
            ]
        }
    ]
}