{
    "goal": {
        "global_pose": {
            "orientation": {
                "w": 0.7047431468963623,
                "x": -0.7094548344612122,
                "y": 0.0024358443915843964,
                "z": -0.0022348060738295317
            },
            "position": {
                "x": 0.6094750761985779,
                "y": 0.3671506643295288,
                "z": 0.19426114857196808
            }
        },
        "name": "move_to_magneteinheit_A"
    },
    "id": "BFMT_move_to_magneteinheit_A_8",
    "joint_names": [
        "shoulder_pan_joint",
        "shoulder_lift_joint",
        "elbow_joint",
        "wrist_1_joint",
        "wrist_2_joint",
        "wrist_3_joint"
    ],
    "metrics": {
        "cart_traj_len": 3.5221836365750647,
        "distance_elbow_joint": 3.9069015455116345,
        "distance_shoulder_lift_joint": 0.27968607902619613,
        "distance_shoulder_pan_joint": 3.005071718140622,
        "distance_wrist_1_joint": 0.6835021332925144,
        "distance_wrist_2_joint": 1.6921102201829692,
        "distance_wrist_3_joint": 2.7279343345500995,
        "smoothness": 0.021495265798152807,
        "time": 0.803260352,
        "traj_len": 3.5064520573799434,
        "weighted_distance": 4.4862776388983905
    },
    "planner": "BFMT",
    "start": {
        "state": {
            "elbow_joint": -1.919618573717145,
            "shoulder_lift_joint": -1.2443395971678275,
            "shoulder_pan_joint": 2.6996025300909787,
            "wrist_1_joint": -1.548550951253194,
            "wrist_2_joint": -1.5709469090946802,
            "wrist_3_joint": 0.4420197732051276
        }
    },
    "waypoints": [
        {
            "positions": [
                2.6996025300909787,
                -1.2443395971678275,
                -1.919618573717145,
                -1.548550951253194,
                -1.5709469090946802,
                0.4420197732051276
            ]
        },
        {
            "positions": [
                2.5792935834420634,
                -1.2483148644498654,
                -1.796456449226555,
                -1.5297409320404838,
                -1.5118916238424756,
                0.5102184367206627
            ]
        },
        {
            "positions": [
                2.458984636793148,
                -1.2522901317319035,
                -1.6732943247359648,
                -1.5109309128277737,
                -1.452836338590271,
                0.5784171002361977
            ]
        },
        {
            "positions": [
                2.338675690144233,
                -1.2562653990139414,
                -1.5501322002453748,
                -1.4921208936150634,
                -1.3937810533380663,
                0.6466157637517328
            ]
        },
        {
            "positions": [
                2.218366743495318,
                -1.2602406662959795,
                -1.4269700757547847,
                -1.4733108744023533,
                -1.3347257680858617,
                0.7148144272672678
            ]
        },
        {
            "positions": [
                2.0980577968464025,
                -1.2642159335780174,
                -1.3038079512641945,
                -1.454500855189643,
                -1.275670482833657,
                0.7830130907828029
            ]
        },
        {
            "positions": [
                1.9777488501974871,
                -1.2681912008600555,
                -1.1806458267736044,
                -1.435690835976933,
                -1.2166151975814523,
                0.851211754298338
            ]
        },
        {
            "positions": [
                1.857439903548572,
                -1.2721664681420934,
                -1.0574837022830144,
                -1.4168808167642226,
                -1.1575599123292477,
                0.9194104178138731
            ]
        },
        {
            "positions": [
                1.737130956899657,
                -1.2761417354241313,
                -0.9343215777924244,
                -1.3980707975515125,
                -1.098504627077043,
                0.9876090813294081
            ]
        },
        {
            "positions": [
                1.6168220102507416,
                -1.2801170027061695,
                -0.8111594533018343,
                -1.3792607783388022,
                -1.0394493418248385,
                1.0558077448449432
            ]
        },
        {
            "positions": [
                1.4965130636018262,
                -1.2840922699882074,
                -0.6879973288112442,
                -1.360450759126092,
                -0.9803940565726339,
                1.1240064083604782
            ]
        },
        {
            "positions": [
                1.3762041169529111,
                -1.2880675372702455,
                -0.5648352043206541,
                -1.3416407399133818,
                -0.9213387713204292,
                1.1922050718760133
            ]
        },
        {
            "positions": [
                1.2558951703039958,
                -1.2920428045522834,
                -0.4416730798300641,
                -1.3228307207006715,
                -0.8622834860682246,
                1.2604037353915483
            ]
        },
        {
            "positions": [
                1.1355862236550807,
                -1.2960180718343215,
                -0.31851095533947404,
                -1.3040207014879615,
                -0.80322820081602,
                1.3286023989070834
            ]
        },
        {
            "positions": [
                1.0152772770061653,
                -1.2999933391163594,
                -0.19534883084888377,
                -1.2852106822752511,
                -0.7441729155638153,
                1.3968010624226186
            ]
        },
        {
            "positions": [
                0.89496833035725,
                -1.3039686063983975,
                -0.07218670635829394,
                -1.2664006630625408,
                -0.6851176303116107,
                1.4649997259381538
            ]
        },
        {
            "positions": [
                0.7746593837083349,
                -1.3079438736804354,
                0.05097541813229611,
                -1.2475906438498308,
                -0.6260623450594061,
                1.5331983894536887
            ]
        },
        {
            "positions": [
                0.6543504370594198,
                -1.3119191409624733,
                0.17413754262288594,
                -1.2287806246371207,
                -0.5670070598072015,
                1.6013970529692236
            ]
        },
        {
            "positions": [
                0.5340414904105044,
                -1.3158944082445114,
                0.29729966711347644,
                -1.2099706054244104,
                -0.5079517745549966,
                1.6695957164847588
            ]
        },
        {
            "positions": [
                0.4137325437615891,
                -1.3198696755265493,
                0.4204617916040665,
                -1.1911605862117,
                -0.448896489302792,
                1.737794380000294
            ]
        },
        {
            "positions": [
                0.29342359711267374,
                -1.3238449428085874,
                0.5436239160946565,
                -1.17235056699899,
                -0.38984120405058764,
                1.805993043515829
            ]
        },
        {
            "positions": [
                0.17311465046375885,
                -1.3278202100906253,
                0.6667860405852466,
                -1.1535405477862797,
                -0.33078591879838304,
                1.8741917070313638
            ]
        },
        {
            "positions": [
                0.05280570381484351,
                -1.3317954773726635,
                0.7899481650758367,
                -1.1347305285735696,
                -0.2717306335461782,
                1.9423903705468992
            ]
        },
        {
            "positions": [
                -0.06750324283407175,
                -1.3357707446547014,
                0.9131102895664267,
                -1.1159205093608593,
                -0.2126753482939735,
                2.010589034062434
            ]
        },
        {
            "positions": [
                -0.0715547539354217,
                -1.3291000183486328,
                1.0738183949966598,
                -1.1080765579312888,
                -0.1645280501040705,
                2.1764339409470184
            ]
        },
        {
            "positions": [
                -0.07560626503677163,
                -1.3224292920425642,
                1.2345265004268926,
                -1.100232606501718,
                -0.11638075191416755,
                2.342278847831602
            ]
        },
        {
            "positions": [
                -0.07965777613812158,
                -1.3157585657364956,
                1.3952346058571257,
                -1.0923886550721473,
                -0.06823345372426456,
                2.5081237547161863
            ]
        },
        {
            "positions": [
                -0.08370928723947152,
                -1.309087839430427,
                1.5559427112873587,
                -1.0845447036425768,
                -0.020086155534361605,
                2.67396866160077
            ]
        },
        {
            "positions": [
                -0.08776079834082148,
                -1.3024171131243585,
                1.7166508167175918,
                -1.0767007522130063,
                0.02806114265554141,
                2.8398135684853543
            ]
        },
        {
            "positions": [
                -0.09181230944217142,
                -1.29574638681829,
                1.8773589221478248,
                -1.0688568007834356,
                0.07620844084544437,
                3.0056584753699385
            ]
        },
        {
            "positions": [
                -0.020593349906347785,
                -1.2463361955839862,
                1.9140002720300464,
                -1.0009208065091837,
                0.09119339759305929,
                3.0604236861650347
            ]
        },
        {
            "positions": [
                0.05062560962947585,
                -1.1969260043496828,
                1.9506416219122682,
                -0.9329848122349317,
                0.10617835434067421,
                3.115188896960131
            ]
        },
        {
            "positions": [
                0.12184456916529948,
                -1.147515813115379,
                1.9872829717944898,
                -0.8650488179606797,
                0.12116331108828915,
                3.169954107755227
            ]
        }
    ]
}{
    "goal": {
        "global_pose": {
            "orientation": {
                "w": 0.7047431468963623,
                "x": -0.7094548344612122,
                "y": 0.0024358443915843964,
                "z": -0.0022348060738295317
            },
            "position": {
                "x": 0.6094750761985779,
                "y": 0.3671506643295288,
                "z": 0.19426114857196808
            }
        },
        "name": "move_to_magneteinheit_A"
    },
    "id": "BFMT_move_to_magneteinheit_A_8",
    "joint_names": [
        "shoulder_pan_joint",
        "shoulder_lift_joint",
        "elbow_joint",
        "wrist_1_joint",
        "wrist_2_joint",
        "wrist_3_joint"
    ],
    "metrics": {
        "cart_traj_len": 1.1986249521690029,
        "distance_elbow_joint": 0.06810521335296427,
        "distance_shoulder_lift_joint": 0.7496855333017267,
        "distance_shoulder_pan_joint": 1.242920936711351,
        "distance_wrist_1_joint": 0.7311991254976681,
        "distance_wrist_2_joint": 1.4461894469893781,
        "distance_wrist_3_joint": 2.047952256698058,
        "smoothness": 1.0449157961564637e-16,
        "time": 0.49607692600000003,
        "traj_len": 2.5072001341239485,
        "weighted_distance": 3.543916703089155
    },
    "planner": "BFMT",
    "start": {
        "state": {
            "elbow_joint": 1.919643534880228,
            "shoulder_lift_joint": -1.8972525353963687,
            "shoulder_pan_joint": -1.1188672234189438,
            "wrist_1_joint": -1.5931878212786155,
            "wrist_2_joint": 1.5706036197970081,
            "wrist_3_joint": 1.118896926603594
        }
    },
    "waypoints": [
        {
            "positions": [
                -1.1188672234189438,
                -1.8972525353963687,
                1.919643534880228,
                -1.5931878212786155,
                1.5706036197970081,
                1.118896926603594
            ]
        },
        {
            "positions": [
                -1.0411846648744845,
                -1.8503971895650109,
                1.9239001107147884,
                -1.5474878759350112,
                1.480216779360172,
                1.2468939426472225
            ]
        },
        {
            "positions": [
                -0.963502106330025,
                -1.8035418437336528,
                1.9281566865493487,
                -1.501787930591407,
                1.389829938923336,
                1.3748909586908513
            ]
        },
        {
            "positions": [
                -0.8858195477855655,
                -1.756686497902295,
                1.932413262383909,
                -1.4560879852478026,
                1.2994430984864997,
                1.5028879747344799
            ]
        },
        {
            "positions": [
                -0.8081369892411061,
                -1.709831152070937,
                1.936669838218469,
                -1.4103880399041984,
                1.2090562580496635,
                1.6308849907781084
            ]
        },
        {
            "positions": [
                -0.7304544306966467,
                -1.6629758062395792,
                1.9409264140530293,
                -1.3646880945605941,
                1.1186694176128276,
                1.758882006821737
            ]
        },
        {
            "positions": [
                -0.6527718721521872,
                -1.6161204604082213,
                1.9451829898875896,
                -1.31898814921699,
                1.0282825771759914,
                1.8868790228653656
            ]
        },
        {
            "positions": [
                -0.5750893136077277,
                -1.5692651145768632,
                1.94943956572215,
                -1.2732882038733857,
                0.9378957367391552,
                2.0148760389089944
            ]
        },
        {
            "positions": [
                -0.49740675506326837,
                -1.5224097687455054,
                1.9536961415567102,
                -1.2275882585297815,
                0.8475088963023191,
                2.1428730549526227
            ]
        },
        {
            "positions": [
                -0.419724196518809,
                -1.4755544229141475,
                1.9579527173912705,
                -1.1818883131861773,
                0.757122055865483,
                2.2708700709962515
            ]
        },
        {
            "positions": [
                -0.3420416379743495,
                -1.4286990770827894,
                1.9622092932258308,
                -1.136188367842573,
                0.6667352154286468,
                2.3988670870398803
            ]
        },
        {
            "positions": [
                -0.26435907942989,
                -1.3818437312514316,
                1.9664658690603911,
                -1.0904884224989688,
                0.5763483749918107,
                2.5268641030835086
            ]
        },
        {
            "positions": [
                -0.18667652088543063,
                -1.3349883854200737,
                1.9707224448949514,
                -1.0447884771553644,
                0.4859615345549746,
                2.6548611191271374
            ]
        },
        {
            "positions": [
                -0.10899396234097125,
                -1.2881330395887158,
                1.9749790207295115,
                -0.9990885318117602,
                0.3955746941181384,
                2.782858135170766
            ]
        },
        {
            "positions": [
                -0.03131140379651165,
                -1.241277693757358,
                1.9792355965640718,
                -0.9533885864681559,
                0.3051878536813022,
                2.9108551512143945
            ]
        },
        {
            "positions": [
                0.04637115474794773,
                -1.1944223479259999,
                1.983492172398632,
                -0.9076886411245516,
                0.2148010132444662,
                3.0388521672580233
            ]
        },
        {
            "positions": [
                0.12405371329240707,
                -1.147567002094642,
                1.9877487482331924,
                -0.8619886957809474,
                0.12441417280763006,
                3.166849183301652
            ]
        }
    ]
}