{
    "goal": {
        "global_pose": {
            "orientation": {
                "w": 0.5084816217422485,
                "x": -0.49083608388900757,
                "y": 0.5182115435600281,
                "z": -0.4816462993621826
            },
            "position": {
                "x": 0.5540239810943604,
                "y": 0.030875300988554955,
                "z": 0.16403168439865112
            }
        },
        "name": "move_to_storage_A"
    },
    "id": "BFMT_move_to_storage_A_90",
    "joint_names": [
        "shoulder_pan_joint",
        "shoulder_lift_joint",
        "elbow_joint",
        "wrist_1_joint",
        "wrist_2_joint",
        "wrist_3_joint"
    ],
    "metrics": {
        "cart_traj_len": 0.3523180352863812,
        "distance_elbow_joint": 0.4483310007688721,
        "distance_shoulder_lift_joint": 0.23619167132557206,
        "distance_shoulder_pan_joint": 0.4617648488455315,
        "distance_wrist_1_joint": 0.2358418446897076,
        "distance_wrist_2_joint": 1.093257804823208,
        "distance_wrist_3_joint": 0.09383152690960594,
        "smoothness": 1.7763568429166847e-15,
        "time": 0.484828993,
        "traj_len": 1.6028782540675062,
        "weighted_distance": 2.021381062712972
    },
    "planner": "BFMT",
    "start": {
        "state": {
            "elbow_joint": 1.9715477243005601,
            "shoulder_lift_joint": -1.1394853015351272,
            "shoulder_pan_joint": 0.12281154014795169,
            "wrist_1_joint": -0.7804696478968182,
            "wrist_2_joint": 0.12958648046900423,
            "wrist_3_joint": -3.192491284697111
        }
    },
    "waypoints": [
        {
            "positions": [
                0.12281154014795169,
                -1.1394853015351272,
                1.9715477243005601,
                -0.7804696478968182,
                0.12958648046900423,
                -3.192491284697111
            ]
        },
        {
            "positions": [
                0.05684513317001863,
                -1.1732269688673518,
                2.035595010124685,
                -0.8141613399953478,
                0.28576616687231965,
                -3.1790867808528818
            ]
        },
        {
            "positions": [
                -0.009121273807914429,
                -1.2069686361995764,
                2.0996422959488092,
                -0.8478530320938775,
                0.44194585327563507,
                -3.1656822770086523
            ]
        },
        {
            "positions": [
                -0.0750876807858475,
                -1.240710303531801,
                2.163689581772934,
                -0.8815447241924071,
                0.5981255396789504,
                -3.152277773164423
            ]
        },
        {
            "positions": [
                -0.14105408776378053,
                -1.2744519708640254,
                2.2277368675970584,
                -0.9152364162909368,
                0.7543052260822659,
                -3.1388732693201935
            ]
        },
        {
            "positions": [
                -0.20702049474171363,
                -1.30819363819625,
                2.291784153421183,
                -0.9489281083894665,
                0.9104849124855814,
                -3.125468765475964
            ]
        },
        {
            "positions": [
                -0.2729869017196467,
                -1.3419353055284746,
                2.3558314392453075,
                -0.982619800487996,
                1.0666645988888968,
                -3.1120642616317347
            ]
        },
        {
            "positions": [
                -0.3389533086975798,
                -1.3756769728606992,
                2.4198787250694322,
                -1.0163114925865258,
                1.2228442852922121,
                -3.0986597577875052
            ]
        }
    ]
}