{
    "goal": {
        "global_pose": {
            "orientation": {
                "w": 0.5084816217422485,
                "x": -0.49083608388900757,
                "y": 0.5182115435600281,
                "z": -0.4816462993621826
            },
            "position": {
                "x": 0.5540239810943604,
                "y": 0.030875300988554955,
                "z": 0.16403168439865112
            }
        },
        "name": "move_to_storage_A"
    },
    "id": "BFMT_move_to_storage_A_143",
    "joint_names": [
        "shoulder_pan_joint",
        "shoulder_lift_joint",
        "elbow_joint",
        "wrist_1_joint",
        "wrist_2_joint",
        "wrist_3_joint"
    ],
    "metrics": {
        "cart_traj_len": 0.3537672541244675,
        "distance_elbow_joint": 0.4506174833232732,
        "distance_shoulder_lift_joint": 0.2344853260658153,
        "distance_shoulder_pan_joint": 0.45941655722539987,
        "distance_wrist_1_joint": 0.24694670478571779,
        "distance_wrist_2_joint": 1.1138040290479512,
        "distance_wrist_3_joint": 0.08846822719523262,
        "smoothness": 4.440892098500626e-16,
        "time": 0.460354329,
        "traj_len": 1.610508717034276,
        "weighted_distance": 2.0325908382819016
    },
    "planner": "BFMT",
    "start": {
        "state": {
            "elbow_joint": 1.9715477243005601,
            "shoulder_lift_joint": -1.1394853015351272,
            "shoulder_pan_joint": 0.12281154014795169,
            "wrist_1_joint": -0.7804696478968182,
            "wrist_2_joint": 0.12958648046900423,
            "wrist_3_joint": -3.192491284697111
        }
    },
    "waypoints": [
        {
            "positions": [
                0.12281154014795169,
                -1.1394853015351272,
                1.9715477243005601,
                -0.7804696478968182,
                0.12958648046900423,
                -3.192491284697111
            ]
        },
        {
            "positions": [
                0.057180603401465996,
                -1.1729832052588152,
                2.035921650489599,
                -0.8157477485804921,
                0.2887013417615687,
                -3.1798529665263637
            ]
        },
        {
            "positions": [
                -0.008450333345019698,
                -1.206481108982503,
                2.100295576678638,
                -0.8510258492641661,
                0.4478162030541331,
                -3.1672146483556163
            ]
        },
        {
            "positions": [
                -0.07408127009150538,
                -1.239979012706191,
                2.1646695028676772,
                -0.88630394994784,
                0.6069310643466976,
                -3.154576330184869
            ]
        },
        {
            "positions": [
                -0.13971220683799107,
                -1.2734769164298787,
                2.2290434290567163,
                -0.921582050631514,
                0.766045925639262,
                -3.141938012014121
            ]
        },
        {
            "positions": [
                -0.2053431435844768,
                -1.3069748201535667,
                2.2934173552457553,
                -0.956860151315188,
                0.9251607869318265,
                -3.1292996938433735
            ]
        },
        {
            "positions": [
                -0.27097408033096243,
                -1.3404727238772545,
                2.3577912814347943,
                -0.992138251998862,
                1.084275648224391,
                -3.116661375672626
            ]
        },
        {
            "positions": [
                -0.33660501707744817,
                -1.3739706276009425,
                2.4221652076238334,
                -1.027416352682536,
                1.2433905095169553,
                -3.1040230575018786
            ]
        }
    ]
}