{
    "goal": {
        "global_pose": {
            "orientation": {
                "w": 0.7047431468963623,
                "x": -0.7094548344612122,
                "y": 0.0024358443915843964,
                "z": -0.0022348060738295317
            },
            "position": {
                "x": 0.6094750761985779,
                "y": 0.3671506643295288,
                "z": 0.19426114857196808
            }
        },
        "name": "move_to_magneteinheit_A"
    },
    "id": "BFMT_move_to_magneteinheit_A_49",
    "joint_names": [
        "shoulder_pan_joint",
        "shoulder_lift_joint",
        "elbow_joint",
        "wrist_1_joint",
        "wrist_2_joint",
        "wrist_3_joint"
    ],
    "metrics": {
        "cart_traj_len": 3.5309520896354165,
        "distance_elbow_joint": 3.9116048815547444,
        "distance_shoulder_lift_joint": 0.3042026930489621,
        "distance_shoulder_pan_joint": 2.5770366675896743,
        "distance_wrist_1_joint": 0.6894522306136962,
        "distance_wrist_2_joint": 1.939214078308022,
        "distance_wrist_3_joint": 3.567952927116388,
        "smoothness": 0.04259228051968831,
        "time": 0.947859211,
        "traj_len": 3.604089826604144,
        "weighted_distance": 4.770119038492225
    },
    "planner": "BFMT",
    "start": {
        "state": {
            "elbow_joint": -1.919618573717145,
            "shoulder_lift_joint": -1.2443395971678275,
            "shoulder_pan_joint": 2.6996025300909787,
            "wrist_1_joint": -1.548550951253194,
            "wrist_2_joint": -1.5709469090946802,
            "wrist_3_joint": 0.4420197732051276
        }
    },
    "waypoints": [
        {
            "positions": [
                2.6996025300909787,
                -1.2443395971678275,
                -1.919618573717145,
                -1.548550951253194,
                -1.5709469090946802,
                0.4420197732051276
            ]
        },
        {
            "positions": [
                2.606592184520264,
                -1.234374104557662,
                -1.8235142977325698,
                -1.5455550598544041,
                -1.5043047223981774,
                0.33027203583359777
            ]
        },
        {
            "positions": [
                2.5135818389495492,
                -1.2244086119474964,
                -1.7274100217479944,
                -1.5425591684556144,
                -1.4376625357016746,
                0.21852429846206792
            ]
        },
        {
            "positions": [
                2.420571493378834,
                -1.2144431193373308,
                -1.6313057457634192,
                -1.5395632770568244,
                -1.3710203490051718,
                0.10677656109053812
            ]
        },
        {
            "positions": [
                2.3275611478081193,
                -1.2044776267271653,
                -1.535201469778844,
                -1.5365673856580344,
                -1.304378162308669,
                -0.0049711762809917515
            ]
        },
        {
            "positions": [
                2.2345508022374045,
                -1.1945121341169997,
                -1.439097193794269,
                -1.5335714942592444,
                -1.237735975612166,
                -0.11671891365252157
            ]
        },
        {
            "positions": [
                2.14154045666669,
                -1.1845466415068342,
                -1.3429929178096938,
                -1.5305756028604547,
                -1.1710937889156634,
                -0.22846665102405134
            ]
        },
        {
            "positions": [
                2.048530111095975,
                -1.1745811488966686,
                -1.2468886418251186,
                -1.5275797114616647,
                -1.1044516022191604,
                -0.3402143883955812
            ]
        },
        {
            "positions": [
                1.9555197655252599,
                -1.164615656286503,
                -1.1507843658405432,
                -1.5245838200628747,
                -1.0378094155226576,
                -0.4519621257671111
            ]
        },
        {
            "positions": [
                1.862509419954545,
                -1.1546501636763375,
                -1.0546800898559678,
                -1.521587928664085,
                -0.9711672288261548,
                -0.5637098631386408
            ]
        },
        {
            "positions": [
                1.7694990743838304,
                -1.1446846710661718,
                -0.9585758138713928,
                -1.518592037265295,
                -0.904525042129652,
                -0.6754576005101707
            ]
        },
        {
            "positions": [
                1.6764887288131154,
                -1.1347191784560062,
                -0.8624715378868175,
                -1.515596145866505,
                -0.8378828554331491,
                -0.7872053378817006
            ]
        },
        {
            "positions": [
                1.5834783832424006,
                -1.1247536858458407,
                -0.7663672619022424,
                -1.5126002544677153,
                -0.7712406687366464,
                -0.8989530752532302
            ]
        },
        {
            "positions": [
                1.490468037671686,
                -1.1147881932356751,
                -0.6702629859176672,
                -1.5096043630689253,
                -0.7045984820401435,
                -1.0107008126247603
            ]
        },
        {
            "positions": [
                1.3974576921009711,
                -1.1048227006255096,
                -0.574158709933092,
                -1.5066084716701353,
                -0.6379562953436408,
                -1.12244854999629
            ]
        },
        {
            "positions": [
                1.3044473465302562,
                -1.094857208015344,
                -0.47805443394851665,
                -1.5036125802713456,
                -0.5713141086471379,
                -1.2341962873678198
            ]
        },
        {
            "positions": [
                1.2114370009595412,
                -1.0848917154051785,
                -0.3819501579639415,
                -1.5006166888725556,
                -0.504671921950635,
                -1.3459440247393497
            ]
        },
        {
            "positions": [
                1.1184266553888265,
                -1.074926222795013,
                -0.28584588197936633,
                -1.4976207974737656,
                -0.43802973525413225,
                -1.4576917621108794
            ]
        },
        {
            "positions": [
                1.0254163098181117,
                -1.0649607301848474,
                -0.18974160599479095,
                -1.4946249060749757,
                -0.37138754855762945,
                -1.5694394994824092
            ]
        },
        {
            "positions": [
                0.932405964247397,
                -1.0549952375746818,
                -0.09363733001021601,
                -1.491629014676186,
                -0.30474536186112666,
                -1.6811872368539391
            ]
        },
        {
            "positions": [
                0.839395618676682,
                -1.0450297449645163,
                0.002466945974359383,
                -1.488633123277396,
                -0.23810317516462393,
                -1.792934974225469
            ]
        },
        {
            "positions": [
                0.7823722329571784,
                -1.0500993458392014,
                0.12061735842171196,
                -1.4417704562829903,
                -0.1977581537366262,
                -1.8960479412883207
            ]
        },
        {
            "positions": [
                0.7253488472376747,
                -1.0551689467138863,
                0.23876777086906453,
                -1.3949077892885846,
                -0.1574131323086285,
                -1.999160908351172
            ]
        },
        {
            "positions": [
                0.6683254615181711,
                -1.0602385475885714,
                0.3569181833164171,
                -1.348045122294179,
                -0.11706811088063077,
                -2.1022738754140238
            ]
        },
        {
            "positions": [
                0.6113020757986675,
                -1.0653081484632565,
                0.4750685957637697,
                -1.3011824552997733,
                -0.07672308945263306,
                -2.205386842476875
            ]
        },
        {
            "positions": [
                0.5542786900791637,
                -1.0703777493379414,
                0.5932190082111223,
                -1.2543197883053676,
                -0.03637806802463531,
                -2.308499809539727
            ]
        },
        {
            "positions": [
                0.49725530435966014,
                -1.0754473502126265,
                0.7113694206584749,
                -1.207457121310962,
                0.003966953403362394,
                -2.4116127766025786
            ]
        },
        {
            "positions": [
                0.4402319186401565,
                -1.0805169510873116,
                0.8295198331058274,
                -1.1605944543165565,
                0.044311974831360124,
                -2.51472574366543
            ]
        },
        {
            "positions": [
                0.3832085329206529,
                -1.0855865519619965,
                0.94767024555318,
                -1.1137317873221508,
                0.0846569962593578,
                -2.6178387107282814
            ]
        },
        {
            "positions": [
                0.3261851472011492,
                -1.0906561528366816,
                1.0658206580005327,
                -1.0668691203277452,
                0.12500201768735558,
                -2.7209516777911333
            ]
        },
        {
            "positions": [
                0.2691617614816455,
                -1.0957257537113667,
                1.1839710704478852,
                -1.0200064533333395,
                0.1653470391153533,
                -2.8240646448539852
            ]
        },
        {
            "positions": [
                0.212138375762142,
                -1.1007953545860516,
                1.3021214828952377,
                -0.9731437863389338,
                0.20569206054335099,
                -2.9271776119168367
            ]
        },
        {
            "positions": [
                0.15511499004263835,
                -1.1058649554607367,
                1.4202718953425904,
                -0.9262811193445282,
                0.24603708197134874,
                -3.030290578979688
            ]
        },
        {
            "positions": [
                0.1378457175816929,
                -1.1096562768998717,
                1.4792713799122996,
                -0.9009226311801974,
                0.25353290308892107,
                -3.070574862082129
            ]
        },
        {
            "positions": [
                0.13020579004149835,
                -1.1297894313550194,
                1.735628843874949,
                -0.8800106759098476,
                0.1961657700267106,
                -3.0982540079966947
            ]
        },
        {
            "positions": [
                0.12256586250130377,
                -1.1499225858101672,
                1.9919863078375983,
                -0.8590987206394979,
                0.1387986369645001,
                -3.125933153911261
            ]
        }
    ]
}{
    "goal": {
        "global_pose": {
            "orientation": {
                "w": 0.7047431468963623,
                "x": -0.7094548344612122,
                "y": 0.0024358443915843964,
                "z": -0.0022348060738295317
            },
            "position": {
                "x": 0.6094750761985779,
                "y": 0.3671506643295288,
                "z": 0.19426114857196808
            }
        },
        "name": "move_to_magneteinheit_A"
    },
    "id": "BFMT_move_to_magneteinheit_A_49",
    "joint_names": [
        "shoulder_pan_joint",
        "shoulder_lift_joint",
        "elbow_joint",
        "wrist_1_joint",
        "wrist_2_joint",
        "wrist_3_joint"
    ],
    "metrics": {
        "cart_traj_len": 1.248931700288224,
        "distance_elbow_joint": 0.059438010163626265,
        "distance_shoulder_lift_joint": 0.761656531729261,
        "distance_shoulder_pan_joint": 1.2423395744693841,
        "distance_wrist_1_joint": 0.783166927851196,
        "distance_wrist_2_joint": 1.4403147811546,
        "distance_wrist_3_joint": 4.277096009252546,
        "smoothness": 0.006572900065085617,
        "time": 0.659504428,
        "traj_len": 2.9264332957750145,
        "weighted_distance": 4.397918321448399
    },
    "planner": "BFMT",
    "start": {
        "state": {
            "elbow_joint": 1.919643534880228,
            "shoulder_lift_joint": -1.8972525353963687,
            "shoulder_pan_joint": -1.1188672234189438,
            "wrist_1_joint": -1.5931878212786155,
            "wrist_2_joint": 1.5706036197970081,
            "wrist_3_joint": 1.118896926603594
        }
    },
    "waypoints": [
        {
            "positions": [
                -1.1188672234189438,
                -1.8972525353963687,
                1.919643534880228,
                -1.5931878212786155,
                1.5706036197970081,
                1.118896926603594
            ]
        },
        {
            "positions": [
                -1.0641445332400676,
                -1.859344104924315,
                1.9195882054552207,
                -1.556474928688634,
                1.505866596884509,
                0.9220113144001467
            ]
        },
        {
            "positions": [
                -1.0094218430611914,
                -1.821435674452261,
                1.9195328760302133,
                -1.5197620360986521,
                1.4411295739720102,
                0.7251257021966995
            ]
        },
        {
            "positions": [
                -0.9546991528823152,
                -1.7835272439802072,
                1.9194775466052059,
                -1.4830491435086706,
                1.3763925510595112,
                0.5282400899932523
            ]
        },
        {
            "positions": [
                -0.899976462703439,
                -1.7456188135081534,
                1.9194222171801985,
                -1.446336250918689,
                1.3116555281470121,
                0.3313544777898051
            ]
        },
        {
            "positions": [
                -0.8452537725245628,
                -1.7077103830360996,
                1.9193668877551913,
                -1.4096233583287072,
                1.2469185052345133,
                0.13446886558635796
            ]
        },
        {
            "positions": [
                -0.7905310823456866,
                -1.6698019525640457,
                1.9193115583301839,
                -1.3729104657387257,
                1.1821814823220143,
                -0.06241674661708929
            ]
        },
        {
            "positions": [
                -0.7358083921668105,
                -1.6318935220919921,
                1.9192562289051764,
                -1.3361975731487439,
                1.1174444594095152,
                -0.2593023588205363
            ]
        },
        {
            "positions": [
                -0.6810857019879342,
                -1.593985091619938,
                1.919200899480169,
                -1.2994846805587623,
                1.0527074364970161,
                -0.4561879710239838
            ]
        },
        {
            "positions": [
                -0.6263630118090581,
                -1.5560766611478845,
                1.9191455700551616,
                -1.2627717879687808,
                0.9879704135845172,
                -0.6530735832274308
            ]
        },
        {
            "positions": [
                -0.5716403216301819,
                -1.5181682306758306,
                1.9190902406301542,
                -1.2260588953787992,
                0.9232333906720183,
                -0.8499591954308781
            ]
        },
        {
            "positions": [
                -0.5169176314513056,
                -1.4802598002037768,
                1.9190349112051468,
                -1.1893460027888174,
                0.8584963677595192,
                -1.0468448076343255
            ]
        },
        {
            "positions": [
                -0.46219494127242944,
                -1.442351369731723,
                1.9189795817801394,
                -1.1526331101988359,
                0.7937593448470203,
                -1.2437304198377725
            ]
        },
        {
            "positions": [
                -0.40747225109355323,
                -1.4044429392596691,
                1.918924252355132,
                -1.115920217608854,
                0.7290223219345213,
                -1.4406160320412196
            ]
        },
        {
            "positions": [
                -0.35274956091467713,
                -1.3665345087876153,
                1.9188689229301246,
                -1.0792073250188725,
                0.6642852990220224,
                -1.6375016442446666
            ]
        },
        {
            "positions": [
                -0.2980268707358009,
                -1.3286260783155615,
                1.9188135935051172,
                -1.042494432428891,
                0.5995482761095233,
                -1.834387256448114
            ]
        },
        {
            "positions": [
                -0.2433041805569246,
                -1.2907176478435076,
                1.91875826408011,
                -1.0057815398389094,
                0.5348112531970244,
                -2.0312728686515618
            ]
        },
        {
            "positions": [
                -0.1885814903780485,
                -1.2528092173714538,
                1.9187029346551026,
                -0.9690686472489276,
                0.47007423028452533,
                -2.228158480855009
            ]
        },
        {
            "positions": [
                -0.1338588001991723,
                -1.2149007868994,
                1.9186476052300951,
                -0.9323557546589459,
                0.4053372073720263,
                -2.425044093058456
            ]
        },
        {
            "positions": [
                -0.07913611002029608,
                -1.1769923564273461,
                1.9185922758050877,
                -0.8956428620689644,
                0.34060018445952744,
                -2.621929705261903
            ]
        },
        {
            "positions": [
                -0.02441341984141987,
                -1.1390839259552923,
                1.9185369463800803,
                -0.8589299694789827,
                0.2758631615470284,
                -2.81881531746535
            ]
        },
        {
            "positions": [
                0.04952946560451016,
                -1.1408278870993844,
                1.9477026572118197,
                -0.834475431453201,
                0.20307600009471816,
                -2.9885072000571506
            ]
        },
        {
            "positions": [
                0.12347235105044019,
                -1.1425718482434768,
                1.9768683680435588,
                -0.8100208934274195,
                0.13028883864240792,
                -3.1581990826489514
            ]
        }
    ]
}