{
    "goal": {
        "global_pose": {
            "orientation": {
                "w": 0.7047431468963623,
                "x": -0.7094548344612122,
                "y": 0.0024358443915843964,
                "z": -0.0022348060738295317
            },
            "position": {
                "x": 0.6094750761985779,
                "y": 0.3671506643295288,
                "z": 0.19426114857196808
            }
        },
        "name": "move_to_magneteinheit_A"
    },
    "id": "BFMT_move_to_magneteinheit_A_3",
    "joint_names": [
        "shoulder_pan_joint",
        "shoulder_lift_joint",
        "elbow_joint",
        "wrist_1_joint",
        "wrist_2_joint",
        "wrist_3_joint"
    ],
    "metrics": {
        "cart_traj_len": 3.6323616113698343,
        "distance_elbow_joint": 3.910595293376745,
        "distance_shoulder_lift_joint": 0.8331817128732703,
        "distance_shoulder_pan_joint": 3.933567219631981,
        "distance_wrist_1_joint": 3.460327185510798,
        "distance_wrist_2_joint": 2.200371789098616,
        "distance_wrist_3_joint": 1.2621884973686892,
        "smoothness": 0.22043920097823905,
        "time": 0.982499291,
        "traj_len": 3.949712862710415,
        "weighted_distance": 4.877018317292534
    },
    "planner": "BFMT",
    "start": {
        "state": {
            "elbow_joint": -1.919618573717145,
            "shoulder_lift_joint": -1.2443395971678275,
            "shoulder_pan_joint": 2.6996025300909787,
            "wrist_1_joint": -1.548550951253194,
            "wrist_2_joint": -1.5709469090946802,
            "wrist_3_joint": 0.4420197732051276
        }
    },
    "waypoints": [
        {
            "positions": [
                2.6996025300909787,
                -1.2443395971678275,
                -1.919618573717145,
                -1.548550951253194,
                -1.5709469090946802,
                0.4420197732051276
            ]
        },
        {
            "positions": [
                2.5229247298043678,
                -1.2544590957106936,
                -1.8583150180658272,
                -1.459157454030794,
                -1.5478536184336689,
                0.42218250775300864
            ]
        },
        {
            "positions": [
                2.3462469295177564,
                -1.2645785942535597,
                -1.7970114624145095,
                -1.369763956808394,
                -1.5247603277726576,
                0.40234524230088964
            ]
        },
        {
            "positions": [
                2.1695691292311454,
                -1.2746980927964255,
                -1.7357079067631918,
                -1.280370459585994,
                -1.5016670371116463,
                0.3825079768487707
            ]
        },
        {
            "positions": [
                1.9928913289445345,
                -1.2848175913392916,
                -1.6744043511118738,
                -1.1909769623635937,
                -1.478573746450635,
                0.36267071139665175
            ]
        },
        {
            "positions": [
                1.816213528657923,
                -1.2949370898821577,
                -1.613100795460556,
                -1.1015834651411938,
                -1.4554804557896237,
                0.34283344594453274
            ]
        },
        {
            "positions": [
                1.6395357283713121,
                -1.3050565884250238,
                -1.5517972398092383,
                -1.0121899679187938,
                -1.4323871651286124,
                0.3229961804924138
            ]
        },
        {
            "positions": [
                1.462857928084701,
                -1.3151760869678897,
                -1.4904936841579206,
                -0.9227964706963936,
                -1.4092938744676011,
                0.3031589150402948
            ]
        },
        {
            "positions": [
                1.28618012779809,
                -1.3252955855107558,
                -1.4291901285066029,
                -0.8334029734739935,
                -1.3862005838065898,
                0.28332164958817585
            ]
        },
        {
            "positions": [
                1.1095023275114788,
                -1.3354150840536219,
                -1.367886572855285,
                -0.7440094762515934,
                -1.3631072931455788,
                0.2634843841360569
            ]
        },
        {
            "positions": [
                0.9328245272248676,
                -1.345534582596488,
                -1.3065830172039672,
                -0.6546159790291933,
                -1.3400140024845673,
                0.24364711868393793
            ]
        },
        {
            "positions": [
                0.7561467269382565,
                -1.355654081139354,
                -1.2452794615526495,
                -0.5652224818067932,
                -1.3169207118235562,
                0.22380985323181896
            ]
        },
        {
            "positions": [
                0.5794689266516455,
                -1.36577357968222,
                -1.1839759059013317,
                -0.47582898458439327,
                -1.293827421162545,
                0.2039725877797
            ]
        },
        {
            "positions": [
                0.40279112636503456,
                -1.375893078225086,
                -1.122672350250014,
                -0.38643548736199307,
                -1.2707341305015336,
                0.18413532232758106
            ]
        },
        {
            "positions": [
                0.22611332607842316,
                -1.386012576767952,
                -1.061368794598696,
                -0.2970419901395931,
                -1.2476408398405223,
                0.16429805687546206
            ]
        },
        {
            "positions": [
                0.04943552579181221,
                -1.3961320753108182,
                -1.0000652389473785,
                -0.2076484929171929,
                -1.224547549179511,
                0.14446079142334312
            ]
        },
        {
            "positions": [
                -0.12724227449479875,
                -1.406251573853684,
                -0.9387616832960607,
                -0.11825499569479292,
                -1.2014542585184997,
                0.12462352597122417
            ]
        },
        {
            "positions": [
                -0.3039200747814097,
                -1.4163710723965501,
                -0.8774581276447428,
                -0.028861498472392944,
                -1.1783609678574885,
                0.10478626051910517
            ]
        },
        {
            "positions": [
                -0.4805978750680209,
                -1.4264905709394162,
                -0.8161545719934251,
                0.06053199875000727,
                -1.1552676771964772,
                0.08494899506698622
            ]
        },
        {
            "positions": [
                -0.4850279871633311,
                -1.3922540276171724,
                -0.6806049370828156,
                0.15019669502461175,
                -1.072622141412573,
                0.05599588031432218
            ]
        },
        {
            "positions": [
                -0.48945809925864137,
                -1.3580174842949286,
                -0.5450553021722059,
                0.2398613912992162,
                -0.9899766056286686,
                0.02704276556165814
            ]
        },
        {
            "positions": [
                -0.49388821135395156,
                -1.3237809409726848,
                -0.40950566726159626,
                0.3295260875738207,
                -0.9073310698447643,
                -0.0019103491910059112
            ]
        },
        {
            "positions": [
                -0.4983183234492618,
                -1.289544397650441,
                -0.27395603235098664,
                0.4191907838484251,
                -0.8246855340608601,
                -0.03086346394366994
            ]
        },
        {
            "positions": [
                -0.502748435544572,
                -1.2553078543281972,
                -0.13840639744037697,
                0.5088554801230297,
                -0.7420399982769559,
                -0.059816578696334
            ]
        },
        {
            "positions": [
                -0.5071785476398822,
                -1.2210713110059535,
                -0.0028567625297674093,
                0.5985201763976341,
                -0.6593944624930516,
                -0.08876969344899804
            ]
        },
        {
            "positions": [
                -0.5116086597351925,
                -1.1868347676837097,
                0.13269287238084215,
                0.6881848726722385,
                -0.5767489267091473,
                -0.11772280820166206
            ]
        },
        {
            "positions": [
                -0.5160387718305027,
                -1.1525982243614656,
                0.2682425072914518,
                0.777849568946843,
                -0.494103390925243,
                -0.1466759229543261
            ]
        },
        {
            "positions": [
                -0.520468883925813,
                -1.118361681039222,
                0.4037921422020614,
                0.8675142652214476,
                -0.4114578551413388,
                -0.17562903770699018
            ]
        },
        {
            "positions": [
                -0.5248989960211232,
                -1.084125137716978,
                0.5393417771126712,
                0.9571789614960521,
                -0.3288123193574345,
                -0.20458215245965422
            ]
        },
        {
            "positions": [
                -0.5293291081164335,
                -1.0498885943947343,
                0.6748914120232807,
                1.0468436577706566,
                -0.24616678357353017,
                -0.23353526721231826
            ]
        },
        {
            "positions": [
                -0.5337592202117437,
                -1.0156520510724905,
                0.8104410469338903,
                1.136508354045261,
                -0.16352124778962596,
                -0.2624883819649823
            ]
        },
        {
            "positions": [
                -0.5381893323070539,
                -0.9814155077502467,
                0.9459906818444999,
                1.2261730503198653,
                -0.08087571200572174,
                -0.2914414967176463
            ]
        },
        {
            "positions": [
                -0.5426194444023642,
                -0.9471789644280029,
                1.0815403167551094,
                1.3158377465944697,
                0.0017698237781824666,
                -0.32039461147031034
            ]
        },
        {
            "positions": [
                -0.5470495564976744,
                -0.9129424211057591,
                1.2170899516657192,
                1.4055024428690743,
                0.08441535956208668,
                -0.3493477262229744
            ]
        },
        {
            "positions": [
                -0.5514796685929847,
                -0.8787058777835153,
                1.3526395865763288,
                1.4951671391436787,
                0.1670608953459911,
                -0.37830084097563843
            ]
        },
        {
            "positions": [
                -0.5559097806882949,
                -0.8444693344612715,
                1.4881892214869383,
                1.5848318354182833,
                0.24970643112989532,
                -0.4072539557283025
            ]
        },
        {
            "positions": [
                -0.4429006292128434,
                -0.8329677506906821,
                1.5719871378490486,
                1.63932256855817,
                0.18642002298422194,
                -0.3384348276557593
            ]
        },
        {
            "positions": [
                -0.3298914777373919,
                -0.8214661669200926,
                1.6557850542111592,
                1.6938133016980568,
                0.1231336148385486,
                -0.2696156995832161
            ]
        },
        {
            "positions": [
                -0.21688232626194043,
                -0.809964583149503,
                1.7395829705732695,
                1.7483040348379435,
                0.059847206692875216,
                -0.20079657151067284
            ]
        },
        {
            "positions": [
                -0.10387317478648894,
                -0.7984629993789136,
                1.8233808869353798,
                1.8027947679778302,
                -0.003439201452798135,
                -0.13197744343812967
            ]
        },
        {
            "positions": [
                0.0091359766889626,
                -0.7869614156083242,
                1.9071788032974903,
                1.857285501117717,
                -0.06672560959847151,
                -0.06315831536558641
            ]
        },
        {
            "positions": [
                0.12214512816441406,
                -0.7754598318377347,
                1.9909767196596007,
                1.9117762342576037,
                -0.1300120177441449,
                0.005660812706956777
            ]
        }
    ]
}{
    "goal": {
        "global_pose": {
            "orientation": {
                "w": 0.7047431468963623,
                "x": -0.7094548344612122,
                "y": 0.0024358443915843964,
                "z": -0.0022348060738295317
            },
            "position": {
                "x": 0.6094750761985779,
                "y": 0.3671506643295288,
                "z": 0.19426114857196808
            }
        },
        "name": "move_to_magneteinheit_A"
    },
    "id": "BFMT_move_to_magneteinheit_A_3",
    "joint_names": [
        "shoulder_pan_joint",
        "shoulder_lift_joint",
        "elbow_joint",
        "wrist_1_joint",
        "wrist_2_joint",
        "wrist_3_joint"
    ],
    "metrics": {
        "cart_traj_len": 1.2503606859841891,
        "distance_elbow_joint": 0.07681580202164273,
        "distance_shoulder_lift_joint": 1.117957214806341,
        "distance_shoulder_pan_joint": 1.2414468891324655,
        "distance_wrist_1_joint": 3.538566998506325,
        "distance_wrist_2_joint": 1.694040267390555,
        "distance_wrist_3_joint": 1.1296181523392492,
        "smoothness": 2.2204460668324854e-16,
        "time": 0.595511021,
        "traj_len": 2.966217342710507,
        "weighted_distance": 4.036123002928919
    },
    "planner": "BFMT",
    "start": {
        "state": {
            "elbow_joint": 1.919643534880228,
            "shoulder_lift_joint": -1.8972525353963687,
            "shoulder_pan_joint": -1.1188672234189438,
            "wrist_1_joint": -1.5931878212786155,
            "wrist_2_joint": 1.5706036197970081,
            "wrist_3_joint": 1.118896926603594
        }
    },
    "waypoints": [
        {
            "positions": [
                -1.1188672234189438,
                -1.8972525353963687,
                1.919643534880228,
                -1.5931878212786155,
                1.5706036197970081,
                1.118896926603594
            ]
        },
        {
            "positions": [
                -1.0648912717175323,
                -1.848645699970006,
                1.92298335235943,
                -1.439337082213123,
                1.4969496951278536,
                1.0697830938931918
            ]
        },
        {
            "positions": [
                -1.0109153200161207,
                -1.8000388645436434,
                1.9263231698386318,
                -1.2854863431476307,
                1.423295770458699,
                1.0206692611827897
            ]
        },
        {
            "positions": [
                -0.9569393683147092,
                -1.7514320291172807,
                1.9296629873178337,
                -1.1316356040821383,
                1.3496418457895445,
                0.9715554284723875
            ]
        },
        {
            "positions": [
                -0.9029634166132977,
                -1.7028251936909182,
                1.9330028047970356,
                -0.977784865016646,
                1.27598792112039,
                0.9224415957619854
            ]
        },
        {
            "positions": [
                -0.8489874649118861,
                -1.6542183582645555,
                1.9363426222762374,
                -0.8239341259511536,
                1.2023339964512352,
                0.8733277630515832
            ]
        },
        {
            "positions": [
                -0.7950115132104746,
                -1.6056115228381929,
                1.9396824397554393,
                -0.6700833868856612,
                1.1286800717820809,
                0.8242139303411811
            ]
        },
        {
            "positions": [
                -0.741035561509063,
                -1.5570046874118302,
                1.9430222572346412,
                -0.5162326478201686,
                1.055026147112926,
                0.7751000976307789
            ]
        },
        {
            "positions": [
                -0.6870596098076516,
                -1.5083978519854675,
                1.946362074713843,
                -0.36238190875467646,
                0.9813722224437716,
                0.7259862649203769
            ]
        },
        {
            "positions": [
                -0.63308365810624,
                -1.4597910165591048,
                1.949701892193045,
                -0.20853116968918384,
                0.907718297774617,
                0.6768724322099746
            ]
        },
        {
            "positions": [
                -0.5791077064048284,
                -1.4111841811327421,
                1.9530417096722468,
                -0.054680430623691656,
                0.8340643731054624,
                0.6277585994995726
            ]
        },
        {
            "positions": [
                -0.5251317547034169,
                -1.3625773457063795,
                1.9563815271514486,
                0.09917030844180097,
                0.7604104484363079,
                0.5786447667891704
            ]
        },
        {
            "positions": [
                -0.4711558030020053,
                -1.3139705102800168,
                1.9597213446306503,
                0.25302104750729315,
                0.6867565237671533,
                0.5295309340787683
            ]
        },
        {
            "positions": [
                -0.4171798513005939,
                -1.2653636748536543,
                1.9630611621098522,
                0.40687178657278555,
                0.6131025990979988,
                0.48041710136836624
            ]
        },
        {
            "positions": [
                -0.3632038995991822,
                -1.2167568394272914,
                1.966400979589054,
                0.5607225256382782,
                0.539448674428844,
                0.431303268657964
            ]
        },
        {
            "positions": [
                -0.30922794789777075,
                -1.168150004000929,
                1.9697407970682559,
                0.7145732647037704,
                0.4657947497596897,
                0.38218943594756183
            ]
        },
        {
            "positions": [
                -0.2552519961963592,
                -1.1195431685745663,
                1.9730806145474578,
                0.8684240037692625,
                0.39214082509053516,
                0.3330756032371598
            ]
        },
        {
            "positions": [
                -0.20127604449494763,
                -1.0709363331482038,
                1.9764204320266596,
                1.0222747428347552,
                0.3184869004213806,
                0.28396177052675764
            ]
        },
        {
            "positions": [
                -0.14730009279353606,
                -1.022329497721841,
                1.9797602495058615,
                1.1761254819002478,
                0.24483297575222585,
                0.23484793781635538
            ]
        },
        {
            "positions": [
                -0.09332414109212461,
                -0.9737226622954783,
                1.9831000669850634,
                1.32997622096574,
                0.1711790510830713,
                0.18573410510595334
            ]
        },
        {
            "positions": [
                -0.03934818939071305,
                -0.9251158268691156,
                1.9864398844642652,
                1.4838269600312322,
                0.09752512641391675,
                0.1366202723955512
            ]
        },
        {
            "positions": [
                0.014627762310698511,
                -0.8765089914427531,
                1.989779701943467,
                1.6376776990967248,
                0.023871201744762427,
                0.08750643968514904
            ]
        },
        {
            "positions": [
                0.06860371401211007,
                -0.8279021560163904,
                1.993119519422669,
                1.7915284381622174,
                -0.04978272292439234,
                0.03839260697474689
            ]
        },
        {
            "positions": [
                0.12257966571352163,
                -0.7792953205900277,
                1.9964593369018708,
                1.9453791772277096,
                -0.12343664759354679,
                -0.010721225735655341
            ]
        }
    ]
}