{
    "goal": {
        "global_pose": {
            "orientation": {
                "w": 0.7047431468963623,
                "x": -0.7094548344612122,
                "y": 0.0024358443915843964,
                "z": -0.0022348060738295317
            },
            "position": {
                "x": 0.6094750761985779,
                "y": 0.3671506643295288,
                "z": 0.19426114857196808
            }
        },
        "name": "move_to_magneteinheit_A"
    },
    "id": "BFMT_move_to_magneteinheit_A_25",
    "joint_names": [
        "shoulder_pan_joint",
        "shoulder_lift_joint",
        "elbow_joint",
        "wrist_1_joint",
        "wrist_2_joint",
        "wrist_3_joint"
    ],
    "metrics": {
        "cart_traj_len": 4.555873327820206,
        "distance_elbow_joint": 3.910334267664081,
        "distance_shoulder_lift_joint": 0.7695116097666941,
        "distance_shoulder_pan_joint": 5.327941146444406,
        "distance_wrist_1_joint": 1.1764907841051824,
        "distance_wrist_2_joint": 4.640559812199672,
        "distance_wrist_3_joint": 3.561682020927198,
        "smoothness": 0.2436040993433478,
        "time": 0.898592268,
        "traj_len": 4.403012564268609,
        "weighted_distance": 5.685677996445674
    },
    "planner": "BFMT",
    "start": {
        "state": {
            "elbow_joint": -1.919618573717145,
            "shoulder_lift_joint": -1.2443395971678275,
            "shoulder_pan_joint": 2.6996025300909787,
            "wrist_1_joint": -1.548550951253194,
            "wrist_2_joint": -1.5709469090946802,
            "wrist_3_joint": 0.4420197732051276
        }
    },
    "waypoints": [
        {
            "positions": [
                2.6996025300909787,
                -1.2443395971678275,
                -1.919618573717145,
                -1.548550951253194,
                -1.5709469090946802,
                0.4420197732051276
            ]
        },
        {
            "positions": [
                2.547599212491881,
                -1.2572869349663474,
                -1.8561218254579221,
                -1.558074068097185,
                -1.4490143135280626,
                0.41560067449141835
            ]
        },
        {
            "positions": [
                2.395595894892783,
                -1.2702342727648674,
                -1.7926250771986993,
                -1.567597184941176,
                -1.3270817179614451,
                0.3891815757777092
            ]
        },
        {
            "positions": [
                2.2435925772936853,
                -1.2831816105633873,
                -1.7291283289394765,
                -1.577120301785167,
                -1.2051491223948276,
                0.36276247706399994
            ]
        },
        {
            "positions": [
                2.0915892596945875,
                -1.2961289483619074,
                -1.6656315806802535,
                -1.5866434186291578,
                -1.08321652682821,
                0.3363433783502907
            ]
        },
        {
            "positions": [
                1.9395859420954897,
                -1.3090762861604273,
                -1.6021348324210307,
                -1.596166535473149,
                -0.9612839312615924,
                0.30992427963658153
            ]
        },
        {
            "positions": [
                1.787582624496392,
                -1.3220236239589473,
                -1.538638084161808,
                -1.6056896523171398,
                -0.8393513356949749,
                0.2835051809228723
            ]
        },
        {
            "positions": [
                1.6355793068972941,
                -1.3349709617574672,
                -1.4751413359025851,
                -1.6152127691611307,
                -0.7174187401283574,
                0.2570860822091631
            ]
        },
        {
            "positions": [
                1.4835759892981963,
                -1.347918299555987,
                -1.4116445876433623,
                -1.6247358860051218,
                -0.5954861445617398,
                0.2306669834954539
            ]
        },
        {
            "positions": [
                1.3315726716990985,
                -1.3608656373545072,
                -1.3481478393841395,
                -1.6342590028491126,
                -0.47355354899512236,
                0.2042478847817447
            ]
        },
        {
            "positions": [
                1.1795693541000007,
                -1.373812975153027,
                -1.2846510911249167,
                -1.6437821196931037,
                -0.35162095342850463,
                0.17782878606803548
            ]
        },
        {
            "positions": [
                1.027566036500903,
                -1.3867603129515471,
                -1.221154342865694,
                -1.6533052365370946,
                -0.22968835786188713,
                0.15140968735432625
            ]
        },
        {
            "positions": [
                0.8755627189018051,
                -1.399707650750067,
                -1.157657594606471,
                -1.6628283533810855,
                -0.10775576229526962,
                0.12499058864061702
            ]
        },
        {
            "positions": [
                0.7235594013027074,
                -1.4126549885485868,
                -1.0941608463472483,
                -1.6723514702250766,
                0.014176833271347888,
                0.09857148992690784
            ]
        },
        {
            "positions": [
                0.5715560837036096,
                -1.425602326347107,
                -1.0306640980880255,
                -1.6818745870690675,
                0.1361094288379654,
                0.07215239121319866
            ]
        },
        {
            "positions": [
                0.41955276610451175,
                -1.4385496641456268,
                -0.9671673498288026,
                -1.6913977039130583,
                0.2580420244045829,
                0.04573329249948943
            ]
        },
        {
            "positions": [
                0.26754944850541396,
                -1.4514970019441469,
                -0.9036706015695797,
                -1.7009208207570494,
                0.37997461997120063,
                0.019314193785780198
            ]
        },
        {
            "positions": [
                0.11554613090631616,
                -1.4644443397426667,
                -0.8401738533103569,
                -1.7104439376010403,
                0.5019072155378179,
                -0.007104904927929034
            ]
        },
        {
            "positions": [
                -0.03645718669278164,
                -1.4773916775411868,
                -0.7766771050511341,
                -1.7199670544450312,
                0.6238398111044354,
                -0.03352400364163821
            ]
        },
        {
            "positions": [
                -0.18846050429187944,
                -1.4903390153397067,
                -0.7131803567919113,
                -1.7294901712890223,
                0.7457724066710529,
                -0.059943102355347444
            ]
        },
        {
            "positions": [
                -0.34046382189097724,
                -1.5032863531382268,
                -0.6496836085326883,
                -1.7390132881330131,
                0.8677050022376709,
                -0.08636220106905662
            ]
        },
        {
            "positions": [
                -0.49246713949007503,
                -1.5162336909367466,
                -0.5861868602734654,
                -1.748536404977004,
                0.9896375978042884,
                -0.11278129978276591
            ]
        },
        {
            "positions": [
                -0.6444704570891728,
                -1.5291810287352665,
                -0.5226901120142429,
                -1.7580595218209951,
                1.111570193370906,
                -0.1392003984964751
            ]
        },
        {
            "positions": [
                -0.7964737746882706,
                -1.5421283665337866,
                -0.45919336375502007,
                -1.767582638664986,
                1.2335027889375234,
                -0.16561949721018426
            ]
        },
        {
            "positions": [
                -0.9484770922873684,
                -1.5550757043323065,
                -0.39569661549579704,
                -1.7771057555089769,
                1.355435384504141,
                -0.19203859592389355
            ]
        },
        {
            "positions": [
                -1.1004804098864662,
                -1.5680230421308265,
                -0.33219986723657424,
                -1.786628872352968,
                1.4773679800707584,
                -0.21845769463760273
            ]
        },
        {
            "positions": [
                -1.2524837274855642,
                -1.5809703799293464,
                -0.26870311897735144,
                -1.7961519891969588,
                1.599300575637376,
                -0.24487679335131185
            ]
        },
        {
            "positions": [
                -1.1951564404494033,
                -1.5629336788041308,
                -0.1745606684388395,
                -1.7574482497735664,
                1.538037561992892,
                -0.3646595206167601
            ]
        },
        {
            "positions": [
                -1.1378291534132423,
                -1.5448969776789152,
                -0.08041821790032755,
                -1.7187445103501742,
                1.4767745483484083,
                -0.48444224788220835
            ]
        },
        {
            "positions": [
                -1.0805018663770813,
                -1.5268602765536996,
                0.013724232638184397,
                -1.6800407709267817,
                1.4155115347039242,
                -0.6042249751476567
            ]
        },
        {
            "positions": [
                -1.0231745793409202,
                -1.508823575428484,
                0.10786668317669634,
                -1.6413370315033893,
                1.3542485210594404,
                -0.7240077024131049
            ]
        },
        {
            "positions": [
                -0.9658472923047592,
                -1.4907868743032682,
                0.2020091337152083,
                -1.6026332920799968,
                1.2929855074149565,
                -0.8437904296785532
            ]
        },
        {
            "positions": [
                -0.9085200052685982,
                -1.4727501731780526,
                0.29615158425372023,
                -1.5639295526566044,
                1.2317224937704727,
                -0.9635731569440015
            ]
        },
        {
            "positions": [
                -0.8511927182324373,
                -1.454713472052837,
                0.39029403479223224,
                -1.5252258132332122,
                1.1704594801259889,
                -1.0833558842094497
            ]
        },
        {
            "positions": [
                -0.7938654311962763,
                -1.4366767709276214,
                0.4844364853307441,
                -1.4865220738098197,
                1.109196466481505,
                -1.2031386114748979
            ]
        },
        {
            "positions": [
                -0.7365381441601153,
                -1.4186400698024058,
                0.5785789358692561,
                -1.4478183343864273,
                1.0479334528370212,
                -1.3229213387403462
            ]
        },
        {
            "positions": [
                -0.6792108571239542,
                -1.4006033686771902,
                0.672721386407768,
                -1.409114594963035,
                0.9866704391925372,
                -1.4427040660057946
            ]
        },
        {
            "positions": [
                -0.6218835700877933,
                -1.3825666675519745,
                0.7668638369462799,
                -1.3704108555396426,
                0.9254074255480534,
                -1.5624867932712427
            ]
        },
        {
            "positions": [
                -0.5645562830516323,
                -1.3645299664267587,
                0.8610062874847919,
                -1.3317071161162501,
                0.8641444119035695,
                -1.682269520536691
            ]
        },
        {
            "positions": [
                -0.5072289960154713,
                -1.3464932653015431,
                0.9551487380233037,
                -1.293003376692858,
                0.8028813982590857,
                -1.8020522478021392
            ]
        },
        {
            "positions": [
                -0.44990170897931026,
                -1.3284565641763275,
                1.049291188561816,
                -1.2542996372694653,
                0.7416183846146017,
                -1.9218349750675878
            ]
        },
        {
            "positions": [
                -0.3925744219431493,
                -1.310419863051112,
                1.1434336391003277,
                -1.215595897846073,
                0.6803553709701179,
                -2.0416177023330357
            ]
        },
        {
            "positions": [
                -0.3352471349069883,
                -1.2923831619258963,
                1.2375760896388397,
                -1.1768921584226806,
                0.6190923573256341,
                -2.1614004295984843
            ]
        },
        {
            "positions": [
                -0.27791984787082724,
                -1.2743464608006807,
                1.3317185401773517,
                -1.1381884189992881,
                0.5578293436811501,
                -2.2811831568639325
            ]
        },
        {
            "positions": [
                -0.22059256083466638,
                -1.256309759675465,
                1.4258609907158637,
                -1.099484679575896,
                0.4965663300366663,
                -2.4009658841293806
            ]
        },
        {
            "positions": [
                -0.16326527379850542,
                -1.2382730585502495,
                1.5200034412543755,
                -1.0607809401525035,
                0.43530331639218245,
                -2.5207486113948288
            ]
        },
        {
            "positions": [
                -0.10593798676234423,
                -1.220236357425034,
                1.6141458917928875,
                -1.022077200729111,
                0.3740403027476984,
                -2.6405313386602773
            ]
        },
        {
            "positions": [
                -0.04861069972618326,
                -1.2021996562998183,
                1.7082883423313995,
                -0.9833734613057186,
                0.3127772891032148,
                -2.7603140659257255
            ]
        },
        {
            "positions": [
                0.008716587309977708,
                -1.1841629551746025,
                1.8024307928699113,
                -0.9446697218823262,
                0.25151427545873095,
                -2.8800967931911736
            ]
        },
        {
            "positions": [
                0.06604387434613868,
                -1.1661262540493869,
                1.8965732434084233,
                -0.9059659824589338,
                0.1902512618142469,
                -2.999879520456622
            ]
        },
        {
            "positions": [
                0.1233711613822997,
                -1.1480895529241713,
                1.9907156939469353,
                -0.8672622430355414,
                0.12898824816976312,
                -3.1196622477220703
            ]
        }
    ]
}{
    "goal": {
        "global_pose": {
            "orientation": {
                "w": 0.7047431468963623,
                "x": -0.7094548344612122,
                "y": 0.0024358443915843964,
                "z": -0.0022348060738295317
            },
            "position": {
                "x": 0.6094750761985779,
                "y": 0.3671506643295288,
                "z": 0.19426114857196808
            }
        },
        "name": "move_to_magneteinheit_A"
    },
    "id": "BFMT_move_to_magneteinheit_A_25",
    "joint_names": [
        "shoulder_pan_joint",
        "shoulder_lift_joint",
        "elbow_joint",
        "wrist_1_joint",
        "wrist_2_joint",
        "wrist_3_joint"
    ],
    "metrics": {
        "cart_traj_len": 1.178886454210411,
        "distance_elbow_joint": 0.06951732223524343,
        "distance_shoulder_lift_joint": 0.7488762900544113,
        "distance_shoulder_pan_joint": 1.2423633520021409,
        "distance_wrist_1_joint": 0.7499081772038155,
        "distance_wrist_2_joint": 1.4403630984746756,
        "distance_wrist_3_joint": 4.229903797312229,
        "smoothness": 0.01849547279515817,
        "time": 0.584135517,
        "traj_len": 2.9122039827736166,
        "weighted_distance": 4.373901108574068
    },
    "planner": "BFMT",
    "start": {
        "state": {
            "elbow_joint": 1.919643534880228,
            "shoulder_lift_joint": -1.8972525353963687,
            "shoulder_pan_joint": -1.1188672234189438,
            "wrist_1_joint": -1.5931878212786155,
            "wrist_2_joint": 1.5706036197970081,
            "wrist_3_joint": 1.118896926603594
        }
    },
    "waypoints": [
        {
            "positions": [
                -1.1188672234189438,
                -1.8972525353963687,
                1.919643534880228,
                -1.5931878212786155,
                1.5706036197970081,
                1.118896926603594
            ]
        },
        {
            "positions": [
                -1.0633017352345955,
                -1.8664382498677683,
                1.922735445483585,
                -1.5561511300469046,
                1.500503598221812,
                0.9223305210564774
            ]
        },
        {
            "positions": [
                -1.007736247050247,
                -1.8356239643391676,
                1.9258273560869419,
                -1.5191144388151938,
                1.4304035766466159,
                0.7257641155093608
            ]
        },
        {
            "positions": [
                -0.9521707588658985,
                -1.8048096788105672,
                1.9289192666902988,
                -1.482077747583483,
                1.3603035550714198,
                0.5291977099622442
            ]
        },
        {
            "positions": [
                -0.89660527068155,
                -1.7739953932819665,
                1.932011177293656,
                -1.4450410563517722,
                1.2902035334962236,
                0.33263130441512767
            ]
        },
        {
            "positions": [
                -0.8410397824972016,
                -1.743181107753366,
                1.9351030878970128,
                -1.4080043651200613,
                1.2201035119210277,
                0.1360648988680111
            ]
        },
        {
            "positions": [
                -0.7854742943128532,
                -1.7123668222247657,
                1.9381949985003697,
                -1.3709676738883507,
                1.1500034903458316,
                -0.06050150667910548
            ]
        },
        {
            "positions": [
                -0.7299088061285046,
                -1.681552536696165,
                1.9412869091037266,
                -1.33393098265664,
                1.0799034687706355,
                -0.25706791222622205
            ]
        },
        {
            "positions": [
                -0.6743433179441563,
                -1.6507382511675646,
                1.9443788197070835,
                -1.296894291424929,
                1.0098034471954391,
                -0.4536343177733386
            ]
        },
        {
            "positions": [
                -0.6187778297598078,
                -1.619923965638964,
                1.9474707303104404,
                -1.2598576001932182,
                0.9397034256202432,
                -0.6502007233204552
            ]
        },
        {
            "positions": [
                -0.5632123415754593,
                -1.5891096801103635,
                1.9505626409137973,
                -1.2228209089615074,
                0.8696034040450471,
                -0.8467671288675718
            ]
        },
        {
            "positions": [
                -0.5076468533911108,
                -1.558295394581763,
                1.9536545515171544,
                -1.1857842177297966,
                0.799503382469851,
                -1.0433335344146883
            ]
        },
        {
            "positions": [
                -0.45208136520676245,
                -1.5274811090531624,
                1.9567464621205113,
                -1.1487475264980858,
                0.729403360894655,
                -1.239899939961805
            ]
        },
        {
            "positions": [
                -0.39651587702241387,
                -1.496666823524562,
                1.9598383727238682,
                -1.111710835266375,
                0.6593033393194587,
                -1.4364663455089215
            ]
        },
        {
            "positions": [
                -0.3409503888380655,
                -1.4658525379959615,
                1.962930283327225,
                -1.074674144034664,
                0.5892033177442627,
                -1.633032751056038
            ]
        },
        {
            "positions": [
                -0.285384900653717,
                -1.4350382524673608,
                1.966022193930582,
                -1.0376374528029535,
                0.5191032961690665,
                -1.8295991566031546
            ]
        },
        {
            "positions": [
                -0.22981941246936854,
                -1.4042239669387602,
                1.9691141045339389,
                -1.0006007615712424,
                0.44900327459387035,
                -2.026165562150271
            ]
        },
        {
            "positions": [
                -0.17425392428502018,
                -1.37340968141016,
                1.972206015137296,
                -0.9635640703395318,
                0.37890325301867445,
                -2.2227319676973876
            ]
        },
        {
            "positions": [
                -0.1186884361006717,
                -1.3425953958815593,
                1.9752979257406529,
                -0.9265273791078209,
                0.3088032314434783,
                -2.419298373244504
            ]
        },
        {
            "positions": [
                -0.06312294791632334,
                -1.3117811103529586,
                1.9783898363440098,
                -0.8894906878761102,
                0.2387032098682822,
                -2.6158647787916207
            ]
        },
        {
            "positions": [
                -0.007557459731974719,
                -1.2809668248243582,
                1.9814817469473667,
                -0.8524539966443994,
                0.16860318829308596,
                -2.8124311843387373
            ]
        },
        {
            "positions": [
                0.057969334425611085,
                -1.2146715350831578,
                1.985321302031419,
                -0.8570411729291991,
                0.1494218548077092,
                -2.961719027523686
            ]
        },
        {
            "positions": [
                0.1234961285831969,
                -1.1483762453419575,
                1.9891608571154715,
                -0.8616283492139988,
                0.13024052132233246,
                -3.1110068707086347
            ]
        }
    ]
}