{
    "goal": {
        "global_pose": {
            "orientation": {
                "w": 0.5084816217422485,
                "x": -0.49083608388900757,
                "y": 0.5182115435600281,
                "z": -0.4816462993621826
            },
            "position": {
                "x": 0.5540239810943604,
                "y": 0.030875300988554955,
                "z": 0.16403168439865112
            }
        },
        "name": "move_to_storage_A"
    },
    "id": "BFMT_move_to_storage_A_67",
    "joint_names": [
        "shoulder_pan_joint",
        "shoulder_lift_joint",
        "elbow_joint",
        "wrist_1_joint",
        "wrist_2_joint",
        "wrist_3_joint"
    ],
    "metrics": {
        "cart_traj_len": 0.3533546006719438,
        "distance_elbow_joint": 0.4541540823322605,
        "distance_shoulder_lift_joint": 0.2331336161452744,
        "distance_shoulder_pan_joint": 0.46157271153943585,
        "distance_wrist_1_joint": 0.2619341516263819,
        "distance_wrist_2_joint": 1.1012948042688984,
        "distance_wrist_3_joint": 0.0994263648039615,
        "smoothness": 0.0,
        "time": 0.510597965,
        "traj_len": 1.616018480932756,
        "weighted_distance": 2.0429384269280892
    },
    "planner": "BFMT",
    "start": {
        "state": {
            "elbow_joint": 1.9715477243005601,
            "shoulder_lift_joint": -1.1394853015351272,
            "shoulder_pan_joint": 0.12281154014795169,
            "wrist_1_joint": -0.7804696478968182,
            "wrist_2_joint": 0.12958648046900423,
            "wrist_3_joint": -3.192491284697111
        }
    },
    "waypoints": [
        {
            "positions": [
                0.12281154014795169,
                -1.1394853015351272,
                1.9715477243005601,
                -0.7804696478968182,
                0.12958648046900423,
                -3.192491284697111
            ]
        },
        {
            "positions": [
                0.05687258135660371,
                -1.1727901038415949,
                2.0364268789194546,
                -0.8178888124148728,
                0.2869143096502754,
                -3.1782875182965453
            ]
        },
        {
            "positions": [
                -0.009066377434744269,
                -1.2060949061480628,
                2.1013060335383487,
                -0.8553079769329273,
                0.4442421388315466,
                -3.1640837518959795
            ]
        },
        {
            "positions": [
                -0.07500533622609225,
                -1.2393997084545305,
                2.166185188157243,
                -0.8927271414509819,
                0.6015699680128178,
                -3.1498799854954136
            ]
        },
        {
            "positions": [
                -0.1409442950174402,
                -1.2727045107609982,
                2.2310643427761376,
                -0.9301463059690364,
                0.758897797194089,
                -3.1356762190948473
            ]
        },
        {
            "positions": [
                -0.2068832538087882,
                -1.3060093130674661,
                2.295943497395032,
                -0.967565470487091,
                0.9162256263753602,
                -3.1214724526942814
            ]
        },
        {
            "positions": [
                -0.27282221260013617,
                -1.3393141153739339,
                2.360822652013926,
                -1.0049846350051455,
                1.0735534555566315,
                -3.1072686862937156
            ]
        },
        {
            "positions": [
                -0.33876117139148415,
                -1.3726189176804016,
                2.4257018066328206,
                -1.0424037995232,
                1.2308812847379025,
                -3.0930649198931497
            ]
        }
    ]
}