{
    "goal": {
        "global_pose": {
            "orientation": {
                "w": 0.5084816217422485,
                "x": -0.49083608388900757,
                "y": 0.5182115435600281,
                "z": -0.4816462993621826
            },
            "position": {
                "x": 0.5540239810943604,
                "y": 0.030875300988554955,
                "z": 0.16403168439865112
            }
        },
        "name": "move_to_storage_A"
    },
    "id": "BFMT_move_to_storage_A_146",
    "joint_names": [
        "shoulder_pan_joint",
        "shoulder_lift_joint",
        "elbow_joint",
        "wrist_1_joint",
        "wrist_2_joint",
        "wrist_3_joint"
    ],
    "metrics": {
        "cart_traj_len": 0.35333503295522634,
        "distance_elbow_joint": 0.44837930285916494,
        "distance_shoulder_lift_joint": 0.23257087062461856,
        "distance_shoulder_pan_joint": 0.4584943247333443,
        "distance_wrist_1_joint": 0.2425512926743375,
        "distance_wrist_2_joint": 1.1131591995918684,
        "distance_wrist_3_joint": 0.10063578454191902,
        "smoothness": 0.0,
        "time": 0.451642588,
        "traj_len": 1.6111457957072826,
        "weighted_distance": 2.037835331025374
    },
    "planner": "BFMT",
    "start": {
        "state": {
            "elbow_joint": 1.9715477243005601,
            "shoulder_lift_joint": -1.1394853015351272,
            "shoulder_pan_joint": 0.12281154014795169,
            "wrist_1_joint": -0.7804696478968182,
            "wrist_2_joint": 0.12958648046900423,
            "wrist_3_joint": -3.192491284697111
        }
    },
    "waypoints": [
        {
            "positions": [
                0.12281154014795169,
                -1.1394853015351272,
                1.9715477243005601,
                -0.7804696478968182,
                0.12958648046900423,
                -3.192491284697111
            ]
        },
        {
            "positions": [
                0.057312350900331085,
                -1.1727097116243583,
                2.035601910423298,
                -0.8151198325645806,
                0.28860922326784255,
                -3.1781147440482655
            ]
        },
        {
            "positions": [
                -0.008186838347289518,
                -1.2059341217135897,
                2.099656096546036,
                -0.8497700172323431,
                0.4476319660666809,
                -3.16373820339942
            ]
        },
        {
            "positions": [
                -0.07368602759491012,
                -1.2391585318028209,
                2.1637102826687737,
                -0.8844202019001056,
                0.6066547088655192,
                -3.1493616627505743
            ]
        },
        {
            "positions": [
                -0.1391852168425307,
                -1.272382941892052,
                2.2277644687915115,
                -0.9190703865678682,
                0.7656774516643575,
                -3.134985122101729
            ]
        },
        {
            "positions": [
                -0.20468440609015137,
                -1.3056073519812834,
                2.291818654914249,
                -0.9537205712356307,
                0.924700194463196,
                -3.1206085814528834
            ]
        },
        {
            "positions": [
                -0.2701835953377719,
                -1.3388317620705146,
                2.3558728410369874,
                -0.9883707559033932,
                1.083722937262034,
                -3.106232040804038
            ]
        },
        {
            "positions": [
                -0.3356827845853926,
                -1.3720561721597457,
                2.419927027159725,
                -1.0230209405711557,
                1.2427456800608727,
                -3.091855500155192
            ]
        }
    ]
}