{
    "goal": {
        "global_pose": {
            "orientation": {
                "w": 0.7047431468963623,
                "x": -0.7094548344612122,
                "y": 0.0024358443915843964,
                "z": -0.0022348060738295317
            },
            "position": {
                "x": 0.6094750761985779,
                "y": 0.3671506643295288,
                "z": 0.19426114857196808
            }
        },
        "name": "move_to_magneteinheit_A"
    },
    "id": "BFMT_move_to_magneteinheit_A_135",
    "joint_names": [
        "shoulder_pan_joint",
        "shoulder_lift_joint",
        "elbow_joint",
        "wrist_1_joint",
        "wrist_2_joint",
        "wrist_3_joint"
    ],
    "metrics": {
        "cart_traj_len": 3.1497368584153964,
        "distance_elbow_joint": 3.8721640393643604,
        "distance_shoulder_lift_joint": 0.7776349484831235,
        "distance_shoulder_pan_joint": 2.7633479722936607,
        "distance_wrist_1_joint": 1.0764013293388728,
        "distance_wrist_2_joint": 1.6996571249519699,
        "distance_wrist_3_joint": 3.703889772024347,
        "smoothness": 0.09037647930182881,
        "time": 0.834868903,
        "traj_len": 3.7273442538161583,
        "weighted_distance": 4.906825163463221
    },
    "planner": "BFMT",
    "start": {
        "state": {
            "elbow_joint": -1.919618573717145,
            "shoulder_lift_joint": -1.2443395971678275,
            "shoulder_pan_joint": 2.6996025300909787,
            "wrist_1_joint": -1.548550951253194,
            "wrist_2_joint": -1.5709469090946802,
            "wrist_3_joint": 0.4420197732051276
        }
    },
    "waypoints": [
        {
            "positions": [
                2.6996025300909787,
                -1.2443395971678275,
                -1.919618573717145,
                -1.548550951253194,
                -1.5709469090946802,
                0.4420197732051276
            ]
        },
        {
            "positions": [
                2.6134955750728053,
                -1.2550308188743546,
                -1.8053047269432778,
                -1.5173916905364317,
                -1.525473740053105,
                0.33542072070951273
            ]
        },
        {
            "positions": [
                2.527388620054632,
                -1.2657220405808818,
                -1.6909908801694107,
                -1.4862324298196694,
                -1.48000057101153,
                0.22882166821389788
            ]
        },
        {
            "positions": [
                2.4412816650364584,
                -1.276413262287409,
                -1.5766770333955438,
                -1.455073169102907,
                -1.4345274019699548,
                0.12222261571828302
            ]
        },
        {
            "positions": [
                2.355174710018285,
                -1.287104483993936,
                -1.4623631866216766,
                -1.4239139083861447,
                -1.3890542329283797,
                0.015623563222668169
            ]
        },
        {
            "positions": [
                2.269067755000111,
                -1.2977957057004632,
                -1.3480493398478095,
                -1.3927546476693824,
                -1.3435810638868046,
                -0.09097548927294669
            ]
        },
        {
            "positions": [
                2.182960799981938,
                -1.3084869274069901,
                -1.2337354930739424,
                -1.36159538695262,
                -1.2981078948452296,
                -0.19757454176856154
            ]
        },
        {
            "positions": [
                2.096853844963764,
                -1.3191781491135173,
                -1.1194216463000752,
                -1.3304361262358577,
                -1.2526347258036545,
                -0.3041735942641764
            ]
        },
        {
            "positions": [
                2.0107468899455907,
                -1.3298693708200444,
                -1.005107799526208,
                -1.2992768655190954,
                -1.2071615567620795,
                -0.41077264675979125
            ]
        },
        {
            "positions": [
                1.9246399349274173,
                -1.3405605925265716,
                -0.890793952752341,
                -1.268117604802333,
                -1.1616883877205044,
                -0.5173716992554063
            ]
        },
        {
            "positions": [
                1.8385329799092438,
                -1.3512518142330987,
                -0.7764801059784738,
                -1.2369583440855707,
                -1.1162152186789291,
                -0.6239707517510209
            ]
        },
        {
            "positions": [
                1.7524260248910704,
                -1.3619430359396258,
                -0.6621662592046067,
                -1.2057990833688084,
                -1.070742049637354,
                -0.730569804246636
            ]
        },
        {
            "positions": [
                1.666319069872897,
                -1.372634257646153,
                -0.5478524124307398,
                -1.174639822652046,
                -1.025268880595779,
                -0.8371688567422506
            ]
        },
        {
            "positions": [
                1.5802121148547232,
                -1.3833254793526801,
                -0.43353856565687243,
                -1.1434805619352837,
                -0.979795711554204,
                -0.9437679092378657
            ]
        },
        {
            "positions": [
                1.4941051598365498,
                -1.3940167010592073,
                -0.3192247188830055,
                -1.1123213012185214,
                -0.9343225425126289,
                -1.0503669617334803
            ]
        },
        {
            "positions": [
                1.4079982048183763,
                -1.4047079227657344,
                -0.2049108721091384,
                -1.081162040501759,
                -0.8888493734710537,
                -1.1569660142290954
            ]
        },
        {
            "positions": [
                1.321891249800203,
                -1.4153991444722613,
                -0.09059702533527125,
                -1.0500027797849967,
                -0.8433762044294787,
                -1.26356506672471
            ]
        },
        {
            "positions": [
                1.2357842947820294,
                -1.4260903661787885,
                0.02371682143859566,
                -1.0188435190682343,
                -0.7979030353879036,
                -1.3701641192203249
            ]
        },
        {
            "positions": [
                1.1496773397638558,
                -1.4367815878853156,
                0.13803066821246301,
                -0.987684258351472,
                -0.7524298663463285,
                -1.47676317171594
            ]
        },
        {
            "positions": [
                1.0635703847456823,
                -1.4474728095918428,
                0.25234451498633015,
                -0.9565249976347097,
                -0.7069566973047534,
                -1.5833622242115548
            ]
        },
        {
            "positions": [
                0.9774634297275089,
                -1.45816403129837,
                0.3666583617601973,
                -0.9253657369179473,
                -0.6614835282631784,
                -1.6899612767071694
            ]
        },
        {
            "positions": [
                0.8913564747093354,
                -1.468855253004897,
                0.48097220853406397,
                -0.894206476201185,
                -0.6160103592216033,
                -1.796560329202784
            ]
        },
        {
            "positions": [
                0.8052495196911618,
                -1.4795464747114242,
                0.5952860553079315,
                -0.8630472154844226,
                -0.570537190180028,
                -1.9031593816983996
            ]
        },
        {
            "positions": [
                0.7191425646729883,
                -1.4902376964179513,
                0.7095999020817987,
                -0.8318879547676603,
                -0.525064021138453,
                -2.0097584341940142
            ]
        },
        {
            "positions": [
                0.6330356096548151,
                -1.5009289181244785,
                0.8239137488556654,
                -0.800728694050898,
                -0.4795908520968779,
                -2.116357486689629
            ]
        },
        {
            "positions": [
                0.5469286546366416,
                -1.5116201398310056,
                0.9382275956295325,
                -0.7695694333341356,
                -0.43411768305530285,
                -2.222956539185244
            ]
        },
        {
            "positions": [
                0.46082169961846775,
                -1.5223113615375325,
                1.0525414424034,
                -0.7384101726173733,
                -0.3886445140137278,
                -2.329555591680859
            ]
        },
        {
            "positions": [
                0.3747147446002943,
                -1.53300258324406,
                1.1668552891772668,
                -0.707250911900611,
                -0.34317134497215274,
                -2.4361546441764736
            ]
        },
        {
            "positions": [
                0.28860778958212085,
                -1.5436938049505868,
                1.281169135951134,
                -0.6760916511838486,
                -0.2976981759305777,
                -2.5427536966720883
            ]
        },
        {
            "positions": [
                0.20250083456394785,
                -1.554385026657114,
                1.395482982725001,
                -0.6449323904670863,
                -0.2522250068890026,
                -2.6493527491677034
            ]
        },
        {
            "positions": [
                0.11639387954577396,
                -1.5650762483636411,
                1.5097968294988682,
                -0.6137731297503239,
                -0.20675183784742734,
                -2.7559518016633184
            ]
        },
        {
            "positions": [
                0.03028692452760036,
                -1.5757674700701683,
                1.6241106762727355,
                -0.5826138690335616,
                -0.1612786688058522,
                -2.862550854158933
            ]
        },
        {
            "positions": [
                0.02956637616460635,
                -1.5397726625817962,
                1.6814218978441353,
                -0.5962678483879363,
                -0.1249186200702932,
                -2.8910856119248853
            ]
        },
        {
            "positions": [
                0.048343321208496215,
                -1.4554977258034152,
                1.7392747842230523,
                -0.6184449595875773,
                -0.07213849229029921,
                -2.96563537422567
            ]
        },
        {
            "positions": [
                0.06712026625238608,
                -1.3712227890250341,
                1.7971276706019692,
                -0.6406220707872181,
                -0.01935836451030523,
                -3.040185136526454
            ]
        },
        {
            "positions": [
                0.08589721129627594,
                -1.2869478522466533,
                1.854980556980886,
                -0.662799181986859,
                0.033421763269688765,
                -3.114734898827238
            ]
        },
        {
            "positions": [
                0.1046741563401658,
                -1.2026729154682723,
                1.9128334433598029,
                -0.6849762931865,
                0.08620189104968273,
                -3.1892846611280223
            ]
        },
        {
            "positions": [
                0.1228781945318953,
                -1.1295603944893855,
                1.9525454656472157,
                -0.6930781161528021,
                0.12871021585728964,
                -3.2618699988192192
            ]
        }
    ]
}{
    "goal": {
        "global_pose": {
            "orientation": {
                "w": 0.7047431468963623,
                "x": -0.7094548344612122,
                "y": 0.0024358443915843964,
                "z": -0.0022348060738295317
            },
            "position": {
                "x": 0.6094750761985779,
                "y": 0.3671506643295288,
                "z": 0.19426114857196808
            }
        },
        "name": "move_to_magneteinheit_A"
    },
    "id": "BFMT_move_to_magneteinheit_A_135",
    "joint_names": [
        "shoulder_pan_joint",
        "shoulder_lift_joint",
        "elbow_joint",
        "wrist_1_joint",
        "wrist_2_joint",
        "wrist_3_joint"
    ],
    "metrics": {
        "cart_traj_len": 1.1139975167213882,
        "distance_elbow_joint": 0.5101965174569509,
        "distance_shoulder_lift_joint": 0.7530932161201678,
        "distance_shoulder_pan_joint": 1.2421491463436491,
        "distance_wrist_1_joint": 0.983689570115703,
        "distance_wrist_2_joint": 1.4328758126978052,
        "distance_wrist_3_joint": 4.275233046874641,
        "smoothness": 0.09190495414488913,
        "time": 0.56647033,
        "traj_len": 3.03269472740151,
        "weighted_distance": 4.4904642060895785
    },
    "planner": "BFMT",
    "start": {
        "state": {
            "elbow_joint": 1.919643534880228,
            "shoulder_lift_joint": -1.8972525353963687,
            "shoulder_pan_joint": -1.1188672234189438,
            "wrist_1_joint": -1.5931878212786155,
            "wrist_2_joint": 1.5706036197970081,
            "wrist_3_joint": 1.118896926603594
        }
    },
    "waypoints": [
        {
            "positions": [
                -1.1188672234189438,
                -1.8972525353963687,
                1.919643534880228,
                -1.5931878212786155,
                1.5706036197970081,
                1.118896926603594
            ]
        },
        {
            "positions": [
                -1.0501925409748814,
                -1.869639756907864,
                1.9434271038653752,
                -1.601636533805188,
                1.498660307958465,
                0.9304917100976342
            ]
        },
        {
            "positions": [
                -0.9815178585308189,
                -1.842026978419359,
                1.9672106728505223,
                -1.6100852463317605,
                1.426716996119922,
                0.7420864935916743
            ]
        },
        {
            "positions": [
                -0.9128431760867564,
                -1.8144141999308543,
                1.9909942418356694,
                -1.618533958858333,
                1.354773684281379,
                0.5536812770857145
            ]
        },
        {
            "positions": [
                -0.844168493642694,
                -1.7868014214423493,
                2.0147778108208163,
                -1.6269826713849054,
                1.2828303724428358,
                0.3652760605797547
            ]
        },
        {
            "positions": [
                -0.7754938111986314,
                -1.7591886429538446,
                2.0385613798059636,
                -1.635431383911478,
                1.2108870606042927,
                0.17687084407379472
            ]
        },
        {
            "positions": [
                -0.706819128754569,
                -1.7315758644653396,
                2.0623449487911105,
                -1.6438800964380504,
                1.1389437487657497,
                -0.011534372432165041
            ]
        },
        {
            "positions": [
                -0.6381444463105065,
                -1.7039630859768349,
                2.086128517776258,
                -1.6523288089646229,
                1.0670004369272066,
                -0.19993958893812502
            ]
        },
        {
            "positions": [
                -0.5694697638664441,
                -1.6763503074883301,
                2.1099120867614047,
                -1.6607775214911955,
                0.9950571250886635,
                -0.38834480544408456
            ]
        },
        {
            "positions": [
                -0.5007950814223816,
                -1.6487375289998252,
                2.133695655746552,
                -1.669226234017768,
                0.9231138132501203,
                -0.5767500219500445
            ]
        },
        {
            "positions": [
                -0.432120398978319,
                -1.6211247505113204,
                2.157479224731699,
                -1.6776749465443404,
                0.8511705014115772,
                -0.7651552384560045
            ]
        },
        {
            "positions": [
                -0.3634457165342566,
                -1.5935119720228155,
                2.1812627937168463,
                -1.686123659070913,
                0.7792271895730342,
                -0.9535604549619643
            ]
        },
        {
            "positions": [
                -0.2947710340901941,
                -1.5658991935343107,
                2.205046362701993,
                -1.6945723715974854,
                0.7072838777344911,
                -1.1419656714679238
            ]
        },
        {
            "positions": [
                -0.25993328767228585,
                -1.5307542040128015,
                2.1863135552323945,
                -1.6210469532810827,
                0.659820871848217,
                -1.3098298755348508
            ]
        },
        {
            "positions": [
                -0.22509554125437758,
                -1.4956092144912925,
                2.1675807477627957,
                -1.5475215349646798,
                0.6123578659619431,
                -1.4776940796017777
            ]
        },
        {
            "positions": [
                -0.1902577948364693,
                -1.4604642249697832,
                2.1488479402931966,
                -1.4739961166482771,
                0.564894860075669,
                -1.6455582836687048
            ]
        },
        {
            "positions": [
                -0.15542004841856102,
                -1.4253192354482742,
                2.130115132823598,
                -1.4004706983318744,
                0.517431854189395,
                -1.8134224877356315
            ]
        },
        {
            "positions": [
                -0.12058230200065273,
                -1.390174245926765,
                2.111382325353999,
                -1.3269452800154715,
                0.46996884830312097,
                -1.9812866918025587
            ]
        },
        {
            "positions": [
                -0.08574455558274446,
                -1.3550292564052557,
                2.0926495178844,
                -1.2534198616990688,
                0.42250584241684697,
                -2.149150895869486
            ]
        },
        {
            "positions": [
                -0.05090680916483617,
                -1.3198842668837467,
                2.0739167104148013,
                -1.1798944433826661,
                0.3750428365305729,
                -2.3170150999364125
            ]
        },
        {
            "positions": [
                -0.01606906274692793,
                -1.2847392773622377,
                2.0551839029452026,
                -1.1063690250662634,
                0.32757983064429896,
                -2.4848793040033392
            ]
        },
        {
            "positions": [
                0.01876868367098039,
                -1.2495942878407285,
                2.036451095475604,
                -1.0328436067498608,
                0.2801168247580249,
                -2.6527435080702664
            ]
        },
        {
            "positions": [
                0.05360643008888866,
                -1.2144492983192192,
                2.017718288006005,
                -0.9593181884334578,
                0.23265381887175085,
                -2.8206077121371935
            ]
        },
        {
            "positions": [
                0.08844417650679692,
                -1.1793043087977102,
                1.998985480536406,
                -0.8857927701170552,
                0.1851908129854769,
                -2.9884719162041202
            ]
        },
        {
            "positions": [
                0.1232819229247052,
                -1.144159319276201,
                1.9802526730668073,
                -0.8122673518006523,
                0.1377278070992029,
                -3.1563361202710474
            ]
        }
    ]
}