{
    "goal": {
        "global_pose": {
            "orientation": {
                "w": 0.7047431468963623,
                "x": -0.7094548344612122,
                "y": 0.0024358443915843964,
                "z": -0.0022348060738295317
            },
            "position": {
                "x": 0.6094750761985779,
                "y": 0.3671506643295288,
                "z": 0.19426114857196808
            }
        },
        "name": "move_to_magneteinheit_A"
    },
    "id": "BFMT_move_to_magneteinheit_A_79",
    "joint_names": [
        "shoulder_pan_joint",
        "shoulder_lift_joint",
        "elbow_joint",
        "wrist_1_joint",
        "wrist_2_joint",
        "wrist_3_joint"
    ],
    "metrics": {
        "cart_traj_len": 3.5378629418755105,
        "distance_elbow_joint": 3.8735405458510686,
        "distance_shoulder_lift_joint": 0.13932246142574178,
        "distance_shoulder_pan_joint": 2.8111290221688785,
        "distance_wrist_1_joint": 0.8355786669502113,
        "distance_wrist_2_joint": 1.6933646371922038,
        "distance_wrist_3_joint": 2.593347326211586,
        "smoothness": 0.010939892859121449,
        "time": 0.741051963,
        "traj_len": 3.456339488505098,
        "weighted_distance": 4.434176430450786
    },
    "planner": "BFMT",
    "start": {
        "state": {
            "elbow_joint": -1.919618573717145,
            "shoulder_lift_joint": -1.2443395971678275,
            "shoulder_pan_joint": 2.6996025300909787,
            "wrist_1_joint": -1.548550951253194,
            "wrist_2_joint": -1.5709469090946802,
            "wrist_3_joint": 0.4420197732051276
        }
    },
    "waypoints": [
        {
            "positions": [
                2.6996025300909787,
                -1.2443395971678275,
                -1.919618573717145,
                -1.548550951253194,
                -1.5709469090946802,
                0.4420197732051276
            ]
        },
        {
            "positions": [
                2.559297765744204,
                -1.2376470446392969,
                -1.7786272055264487,
                -1.5301682015311353,
                -1.5333056859381926,
                0.4846664434148979
            ]
        },
        {
            "positions": [
                2.418993001397429,
                -1.2309544921107662,
                -1.6376358373357525,
                -1.5117854518090763,
                -1.495664462781705,
                0.5273131136246683
            ]
        },
        {
            "positions": [
                2.2786882370506536,
                -1.2242619395822356,
                -1.4966444691450562,
                -1.4934027020870175,
                -1.4580232396252175,
                0.5699597838344386
            ]
        },
        {
            "positions": [
                2.138383472703879,
                -1.217569387053705,
                -1.35565310095436,
                -1.4750199523649588,
                -1.4203820164687297,
                0.6126064540442089
            ]
        },
        {
            "positions": [
                1.9980787083571039,
                -1.2108768345251744,
                -1.2146617327636637,
                -1.4566372026428998,
                -1.3827407933122422,
                0.6552531242539792
            ]
        },
        {
            "positions": [
                1.857773944010329,
                -1.2041842819966437,
                -1.0736703645729675,
                -1.438254452920841,
                -1.3450995701557547,
                0.6978997944637495
            ]
        },
        {
            "positions": [
                1.717469179663554,
                -1.197491729468113,
                -0.9326789963822713,
                -1.419871703198782,
                -1.307458346999267,
                0.7405464646735199
            ]
        },
        {
            "positions": [
                1.577164415316779,
                -1.1907991769395825,
                -0.791687628191575,
                -1.4014889534767232,
                -1.2698171238427796,
                0.7831931348832902
            ]
        },
        {
            "positions": [
                1.436859650970004,
                -1.184106624411052,
                -0.6506962600008788,
                -1.3831062037546644,
                -1.232175900686292,
                0.8258398050930605
            ]
        },
        {
            "positions": [
                1.296554886623229,
                -1.1774140718825215,
                -0.5097048918101825,
                -1.3647234540326054,
                -1.1945346775298042,
                0.868486475302831
            ]
        },
        {
            "positions": [
                1.1562501222764539,
                -1.1707215193539908,
                -0.3687135236194863,
                -1.3463407043105466,
                -1.1568934543733167,
                0.9111331455126013
            ]
        },
        {
            "positions": [
                1.015945357929679,
                -1.1640289668254602,
                -0.22772215542879004,
                -1.3279579545884879,
                -1.1192522312168292,
                0.9537798157223716
            ]
        },
        {
            "positions": [
                0.8756405935829039,
                -1.1573364142969296,
                -0.0867307872380938,
                -1.3095752048664289,
                -1.0816110080603416,
                0.9964264859321419
            ]
        },
        {
            "positions": [
                0.7353358292361292,
                -1.150643861768399,
                0.054260580952602444,
                -1.29119245514437,
                -1.043969784903854,
                1.0390731561419122
            ]
        },
        {
            "positions": [
                0.595031064889354,
                -1.1439513092398683,
                0.1952519491432987,
                -1.2728097054223113,
                -1.0063285617473663,
                1.0817198263516825
            ]
        },
        {
            "positions": [
                0.45472630054257923,
                -1.1372587567113377,
                0.33624331733399493,
                -1.2544269557002523,
                -0.9686873385908789,
                1.1243664965614528
            ]
        },
        {
            "positions": [
                0.31442153619580404,
                -1.130566204182807,
                0.47723468552469117,
                -1.2360442059781935,
                -0.9310461154343913,
                1.1670131667712234
            ]
        },
        {
            "positions": [
                0.1741167718490293,
                -1.1238736516542764,
                0.6182260537153874,
                -1.2176614562561348,
                -0.8934048922779038,
                1.2096598369809934
            ]
        },
        {
            "positions": [
                0.033812007502254146,
                -1.1171810991257458,
                0.7592174219060834,
                -1.1992787065340758,
                -0.8557636691214161,
                1.252306507190764
            ]
        },
        {
            "positions": [
                0.03030724542757044,
                -1.1178804158792797,
                0.8662808849751749,
                -1.1603894475460224,
                -0.7741290010000264,
                1.3999817011892146
            ]
        },
        {
            "positions": [
                0.026802483352886732,
                -1.1185797326328133,
                0.9733443480442664,
                -1.121500188557969,
                -0.6924943328786366,
                1.5476568951876655
            ]
        },
        {
            "positions": [
                0.023297721278203024,
                -1.1192790493863471,
                1.080407811113358,
                -1.0826109295699156,
                -0.6108596647572468,
                1.6953320891861163
            ]
        },
        {
            "positions": [
                0.01979295920351932,
                -1.1199783661398808,
                1.1874712741824494,
                -1.0437216705818622,
                -0.5292249966358571,
                1.843007283184567
            ]
        },
        {
            "positions": [
                0.016288197128835613,
                -1.1206776828934146,
                1.2945347372515408,
                -1.004832411593809,
                -0.44759032851446734,
                1.9906824771830176
            ]
        },
        {
            "positions": [
                0.012783435054151904,
                -1.1213769996469485,
                1.4015982003206324,
                -0.9659431526057556,
                -0.3659556603930776,
                2.1383576711814687
            ]
        },
        {
            "positions": [
                0.009278672979468196,
                -1.122076316400482,
                1.5086616633897239,
                -0.9270538936177022,
                -0.28432099227168783,
                2.2860328651799193
            ]
        },
        {
            "positions": [
                0.0057739109047844905,
                -1.122775633154016,
                1.6157251264588153,
                -0.8881646346296488,
                -0.20268632415029805,
                2.43370805917837
            ]
        },
        {
            "positions": [
                0.03509901165045558,
                -1.1244179904928635,
                1.700274337877592,
                -0.8443665470479823,
                -0.12141031108834267,
                2.584122819237956
            ]
        },
        {
            "positions": [
                0.06442411239612666,
                -1.1260603478317108,
                1.7848235492963687,
                -0.8005684594663158,
                -0.040134298026387294,
                2.734537579297542
            ]
        },
        {
            "positions": [
                0.09374921314179775,
                -1.1277027051705584,
                1.8693727607151451,
                -0.7567703718846492,
                0.0411417150355681,
                2.8849523393571275
            ]
        },
        {
            "positions": [
                0.12307431388746884,
                -1.129345062509406,
                1.9539219721339218,
                -0.7129722843029828,
                0.12241772809752346,
                3.0353670994167135
            ]
        }
    ]
}{
    "goal": {
        "global_pose": {
            "orientation": {
                "w": 0.7047431468963623,
                "x": -0.7094548344612122,
                "y": 0.0024358443915843964,
                "z": -0.0022348060738295317
            },
            "position": {
                "x": 0.6094750761985779,
                "y": 0.3671506643295288,
                "z": 0.19426114857196808
            }
        },
        "name": "move_to_magneteinheit_A"
    },
    "id": "BFMT_move_to_magneteinheit_A_79",
    "joint_names": [
        "shoulder_pan_joint",
        "shoulder_lift_joint",
        "elbow_joint",
        "wrist_1_joint",
        "wrist_2_joint",
        "wrist_3_joint"
    ],
    "metrics": {
        "cart_traj_len": 1.2414629657353176,
        "distance_elbow_joint": 0.06889573212874733,
        "distance_shoulder_lift_joint": 0.7488017404380074,
        "distance_shoulder_pan_joint": 1.2418135545771436,
        "distance_wrist_1_joint": 0.7446308751885794,
        "distance_wrist_2_joint": 1.4335447587333818,
        "distance_wrist_3_joint": 4.259590148254859,
        "smoothness": 3.330669097318366e-16,
        "time": 0.601730939,
        "traj_len": 2.915008886662392,
        "weighted_distance": 4.381167965252233
    },
    "planner": "BFMT",
    "start": {
        "state": {
            "elbow_joint": 1.919643534880228,
            "shoulder_lift_joint": -1.8972525353963687,
            "shoulder_pan_joint": -1.1188672234189438,
            "wrist_1_joint": -1.5931878212786155,
            "wrist_2_joint": 1.5706036197970081,
            "wrist_3_joint": 1.118896926603594
        }
    },
    "waypoints": [
        {
            "positions": [
                -1.1188672234189438,
                -1.8972525353963687,
                1.919643534880228,
                -1.5931878212786155,
                1.5706036197970081,
                1.118896926603594
            ]
        },
        {
            "positions": [
                -1.0671795932422061,
                -1.859898353349959,
                1.9224442084493072,
                -1.5554948643771385,
                1.5074088770065859,
                0.9354741377165754
            ]
        },
        {
            "positions": [
                -1.0154919630654684,
                -1.822544171303549,
                1.925244882018386,
                -1.5178019074756615,
                1.4442141342161634,
                0.7520513488295568
            ]
        },
        {
            "positions": [
                -0.9638043328887307,
                -1.7851899892571395,
                1.9280455555874652,
                -1.4801089505741845,
                1.3810193914257411,
                0.5686285599425382
            ]
        },
        {
            "positions": [
                -0.912116702711993,
                -1.7478358072107296,
                1.930846229156544,
                -1.4424159936727072,
                1.317824648635319,
                0.3852057710555197
            ]
        },
        {
            "positions": [
                -0.8604290725352552,
                -1.7104816251643198,
                1.9336469027256231,
                -1.4047230367712302,
                1.2546299058448964,
                0.201782982168501
            ]
        },
        {
            "positions": [
                -0.8087414423585176,
                -1.67312744311791,
                1.936447576294702,
                -1.3670300798697532,
                1.1914351630544742,
                0.01836019328148253
            ]
        },
        {
            "positions": [
                -0.7570538121817799,
                -1.6357732610715003,
                1.939248249863781,
                -1.3293371229682762,
                1.128240420264052,
                -0.16506259560553604
            ]
        },
        {
            "positions": [
                -0.7053661820050422,
                -1.5984190790250905,
                1.9420489234328602,
                -1.2916441660667992,
                1.0650456774736297,
                -0.3484853844925546
            ]
        },
        {
            "positions": [
                -0.6536785518283045,
                -1.5610648969786807,
                1.944849597001939,
                -1.2539512091653222,
                1.0018509346832074,
                -0.5319081733795734
            ]
        },
        {
            "positions": [
                -0.6019909216515668,
                -1.5237107149322708,
                1.9476502705710181,
                -1.2162582522638452,
                0.9386561918927849,
                -0.715330962266592
            ]
        },
        {
            "positions": [
                -0.550303291474829,
                -1.486356532885861,
                1.950450944140097,
                -1.1785652953623682,
                0.8754614491023626,
                -0.8987537511536108
            ]
        },
        {
            "positions": [
                -0.49861566129809143,
                -1.4490023508394514,
                1.953251617709176,
                -1.1408723384608912,
                0.8122667063119403,
                -1.082176540040629
            ]
        },
        {
            "positions": [
                -0.4469280311213536,
                -1.4116481687930416,
                1.9560522912782552,
                -1.103179381559414,
                0.749071963521518,
                -1.265599328927648
            ]
        },
        {
            "positions": [
                -0.395240400944616,
                -1.3742939867466317,
                1.958852964847334,
                -1.0654864246579372,
                0.6858772207310957,
                -1.449022117814666
            ]
        },
        {
            "positions": [
                -0.34355277076787816,
                -1.336939804700222,
                1.9616536384164132,
                -1.02779346775646,
                0.6226824779406732,
                -1.632444906701685
            ]
        },
        {
            "positions": [
                -0.29186514059114055,
                -1.299585622653812,
                1.964454311985492,
                -0.990100510854983,
                0.559487735150251,
                -1.8158676955887032
            ]
        },
        {
            "positions": [
                -0.24017751041440283,
                -1.2622314406074024,
                1.9672549855545711,
                -0.9524075539535058,
                0.4962929923598287,
                -1.9992904844757222
            ]
        },
        {
            "positions": [
                -0.1884898802376651,
                -1.2248772585609926,
                1.97005565912365,
                -0.914714597052029,
                0.43309824956940646,
                -2.182713273362741
            ]
        },
        {
            "positions": [
                -0.1368022500609274,
                -1.1875230765145828,
                1.972856332692729,
                -0.8770216401505518,
                0.3699035067789841,
                -2.366136062249759
            ]
        },
        {
            "positions": [
                -0.07186510475614566,
                -1.1777550061255275,
                1.9767770662717907,
                -0.8699054666354229,
                0.31169234535014473,
                -2.559775352100136
            ]
        },
        {
            "positions": [
                -0.00692795945136393,
                -1.167986935736472,
                1.9806977998508524,
                -0.862789293120294,
                0.25348118392130536,
                -2.753414641950512
            ]
        },
        {
            "positions": [
                0.0580091858534178,
                -1.1582188653474166,
                1.9846185334299138,
                -0.855673119605165,
                0.195270022492466,
                -2.9470539318008884
            ]
        },
        {
            "positions": [
                0.12294633115819954,
                -1.1484507949583613,
                1.9885392670089754,
                -0.8485569460900361,
                0.13705886106362664,
                -3.140693221651265
            ]
        }
    ]
}