{
    "goal": {
        "global_pose": {
            "orientation": {
                "w": 0.7047431468963623,
                "x": -0.7094548344612122,
                "y": 0.0024358443915843964,
                "z": -0.0022348060738295317
            },
            "position": {
                "x": 0.6094750761985779,
                "y": 0.3671506643295288,
                "z": 0.19426114857196808
            }
        },
        "name": "move_to_magneteinheit_A"
    },
    "id": "BiEST_move_to_magneteinheit_A_90",
    "joint_names": [
        "shoulder_pan_joint",
        "shoulder_lift_joint",
        "elbow_joint",
        "wrist_1_joint",
        "wrist_2_joint",
        "wrist_3_joint"
    ],
    "metrics": {
        "cart_traj_len": 3.4189271145189264,
        "distance_elbow_joint": 3.909446277372391,
        "distance_shoulder_lift_joint": 1.9687731937419004,
        "distance_shoulder_pan_joint": 4.527695301945078,
        "distance_wrist_1_joint": 0.6878706912387116,
        "distance_wrist_2_joint": 1.708984336738506,
        "distance_wrist_3_joint": 5.567283613194647,
        "smoothness": 0.2133352715688081,
        "time": 0.078594161,
        "traj_len": 4.286030029553132,
        "weighted_distance": 5.648139133254221
    },
    "planner": "BiEST",
    "start": {
        "state": {
            "elbow_joint": -1.919618573717145,
            "shoulder_lift_joint": -1.2443395971678275,
            "shoulder_pan_joint": 2.6996025300909787,
            "wrist_1_joint": -1.548550951253194,
            "wrist_2_joint": -1.5709469090946802,
            "wrist_3_joint": 0.4420197732051276
        }
    },
    "waypoints": [
        {
            "positions": [
                2.6996025300909787,
                -1.2443395971678275,
                -1.919618573717145,
                -1.548550951253194,
                -1.5709469090946802,
                0.4420197732051276
            ]
        },
        {
            "positions": [
                2.5680572053932935,
                -1.2790521724160466,
                -1.789780120537231,
                -1.5430026252412679,
                -1.522987708331163,
                0.47900108863638524
            ]
        },
        {
            "positions": [
                2.4365118806956083,
                -1.3137647476642655,
                -1.6599416673573169,
                -1.5374542992293416,
                -1.4750285075676457,
                0.515982404067643
            ]
        },
        {
            "positions": [
                2.304966555997923,
                -1.3484773229124847,
                -1.530103214177403,
                -1.5319059732174154,
                -1.4270693068041285,
                0.5529637194989006
            ]
        },
        {
            "positions": [
                2.173421231300238,
                -1.3831898981607038,
                -1.400264760997489,
                -1.5263576472054892,
                -1.3791101060406112,
                0.5899450349301583
            ]
        },
        {
            "positions": [
                2.0418759066025522,
                -1.417902473408923,
                -1.270426307817575,
                -1.520809321193563,
                -1.331150905277094,
                0.626926350361416
            ]
        },
        {
            "positions": [
                1.9103305819048673,
                -1.4526150486571419,
                -1.1405878546376609,
                -1.5152609951816367,
                -1.2831917045135768,
                0.6639076657926737
            ]
        },
        {
            "positions": [
                1.7787852572071818,
                -1.487327623905361,
                -1.0107494014577467,
                -1.5097126691697103,
                -1.2352325037500596,
                0.7008889812239314
            ]
        },
        {
            "positions": [
                1.6472399325094966,
                -1.5220401991535801,
                -0.8809109482778328,
                -1.504164343157784,
                -1.1872733029865423,
                0.737870296655189
            ]
        },
        {
            "positions": [
                1.5156946078118114,
                -1.556752774401799,
                -0.7510724950979188,
                -1.4986160171458578,
                -1.139314102223025,
                0.7748516120864466
            ]
        },
        {
            "positions": [
                1.3841492831141262,
                -1.5914653496500182,
                -0.6212340419180049,
                -1.4930676911339316,
                -1.0913549014595079,
                0.8118329275177043
            ]
        },
        {
            "positions": [
                1.252603958416441,
                -1.6261779248982373,
                -0.49139558873809075,
                -1.4875193651220053,
                -1.0433957006959904,
                0.848814242948962
            ]
        },
        {
            "positions": [
                1.1210586337187558,
                -1.6608905001464564,
                -0.3615571355581768,
                -1.481971039110079,
                -0.9954364999324733,
                0.8857955583802197
            ]
        },
        {
            "positions": [
                0.9895133090210706,
                -1.6956030753946756,
                -0.23171868237826287,
                -1.4764227130981529,
                -0.9474772991689561,
                0.9227768738114774
            ]
        },
        {
            "positions": [
                0.8579679843233852,
                -1.7303156506428945,
                -0.10188022919834872,
                -1.4708743870862266,
                -0.8995180984054388,
                0.9597581892427351
            ]
        },
        {
            "positions": [
                0.7264226596256997,
                -1.7650282258911136,
                0.027958223981565444,
                -1.4653260610743004,
                -0.8515588976419216,
                0.9967395046739929
            ]
        },
        {
            "positions": [
                0.5948773349280145,
                -1.7997408011393325,
                0.15779667716147938,
                -1.4597777350623742,
                -0.8035996968784044,
                1.0337208201052503
            ]
        },
        {
            "positions": [
                0.4633320102303293,
                -1.8344533763875517,
                0.2876351303413933,
                -1.454229409050448,
                -0.7556404961148872,
                1.070702135536508
            ]
        },
        {
            "positions": [
                0.3317866855326441,
                -1.8691659516357708,
                0.41747358352130726,
                -1.4486810830385217,
                -0.7076812953513699,
                1.1076834509677658
            ]
        },
        {
            "positions": [
                0.20024136083495891,
                -1.90387852688399,
                0.5473120367012216,
                -1.4431327570265955,
                -0.6597220945878526,
                1.1446647663990235
            ]
        },
        {
            "positions": [
                0.06869603613727371,
                -1.938591102132209,
                0.6771504898811351,
                -1.4375844310146693,
                -0.6117628938243355,
                1.1816460818302812
            ]
        },
        {
            "positions": [
                -0.0628492885604115,
                -1.9733036773804282,
                0.8069889430610495,
                -1.4320361050027428,
                -0.5638036930608181,
                1.218627397261539
            ]
        },
        {
            "positions": [
                -0.1943946132580967,
                -2.0080162526286474,
                0.9368273962409635,
                -1.4264877789908166,
                -0.5158444922973009,
                1.2556087126927964
            ]
        },
        {
            "positions": [
                -0.32593993795578236,
                -2.042728827876866,
                1.0666658494208774,
                -1.4209394529788903,
                -0.46788529153378366,
                1.292590028124054
            ]
        },
        {
            "positions": [
                -0.4574852626534671,
                -2.077441403125085,
                1.1965043026007913,
                -1.4153911269669641,
                -0.41992609077026644,
                1.3295713435553118
            ]
        },
        {
            "positions": [
                -0.5890305873511528,
                -2.1121539783733043,
                1.3263427557807057,
                -1.409842800955038,
                -0.3719668900067492,
                1.3665526589865695
            ]
        },
        {
            "positions": [
                -0.7205759120488375,
                -2.1468665536215235,
                1.4561812089606192,
                -1.4042944749431117,
                -0.324007689243232,
                1.4035339744178272
            ]
        },
        {
            "positions": [
                -0.8521212367465232,
                -2.1815791288697426,
                1.5860196621405338,
                -1.3987461489311854,
                -0.27604848847971464,
                1.440515289849085
            ]
        },
        {
            "positions": [
                -0.8056464017414007,
                -2.1324584782964098,
                1.6052486164983772,
                -1.3731239637446757,
                -0.2563301115214509,
                1.2229539519180999
            ]
        },
        {
            "positions": [
                -0.7591715667362782,
                -2.0833378277230774,
                1.6244775708562205,
                -1.3475017785581662,
                -0.23661173456318718,
                1.0053926139871145
            ]
        },
        {
            "positions": [
                -0.7126967317311556,
                -2.0342171771497446,
                1.643706525214064,
                -1.3218795933716565,
                -0.21689335760492345,
                0.7878312760561295
            ]
        },
        {
            "positions": [
                -0.666221896726033,
                -1.985096526576412,
                1.6629354795719071,
                -1.2962574081851468,
                -0.19717498064665973,
                0.5702699381251443
            ]
        },
        {
            "positions": [
                -0.6197470617209105,
                -1.9359758760030794,
                1.6821644339297506,
                -1.270635222998637,
                -0.177456603688396,
                0.35270860019415906
            ]
        },
        {
            "positions": [
                -0.5732722267157879,
                -1.8868552254297468,
                1.701393388287594,
                -1.2450130378121274,
                -0.15773822673013227,
                0.13514726226317397
            ]
        },
        {
            "positions": [
                -0.5267973917106654,
                -1.8377345748564142,
                1.7206223426454372,
                -1.2193908526256179,
                -0.13801984977186854,
                -0.08241407566781134
            ]
        },
        {
            "positions": [
                -0.48032255670554297,
                -1.7886139242830814,
                1.7398512970032807,
                -1.1937686674391081,
                -0.11830147281360481,
                -0.2999754135987964
            ]
        },
        {
            "positions": [
                -0.4338477217004204,
                -1.739493273709749,
                1.759080251361124,
                -1.1681464822525984,
                -0.09858309585534109,
                -0.5175367515297815
            ]
        },
        {
            "positions": [
                -0.3873728866952979,
                -1.6903726231364162,
                1.7783092057189673,
                -1.142524297066089,
                -0.07886471889707736,
                -0.7350980894607668
            ]
        },
        {
            "positions": [
                -0.3408980516901753,
                -1.6412519725630836,
                1.7975381600768108,
                -1.116902111879579,
                -0.05914634193881363,
                -0.9526594273917521
            ]
        },
        {
            "positions": [
                -0.2944232166850528,
                -1.592131321989751,
                1.816767114434654,
                -1.0912799266930695,
                -0.0394279649805499,
                -1.170220765322737
            ]
        },
        {
            "positions": [
                -0.24794838167993027,
                -1.5430106714164182,
                1.8359960687924974,
                -1.0656577415065598,
                -0.019709588022286173,
                -1.3877821032537228
            ]
        },
        {
            "positions": [
                -0.20147354667480777,
                -1.4938900208430859,
                1.8552250231503407,
                -1.04003555632005,
                8.788935977555035e-06,
                -1.6053434411847076
            ]
        },
        {
            "positions": [
                -0.15499871166968515,
                -1.444769370269753,
                1.874453977508184,
                -1.0144133711335406,
                0.019727165894241283,
                -1.822904779115693
            ]
        },
        {
            "positions": [
                -0.10852387666456276,
                -1.3956487196964205,
                1.8936829318660275,
                -0.9887911859470309,
                0.03944554285250501,
                -2.0404661170466776
            ]
        },
        {
            "positions": [
                -0.06204904165944014,
                -1.3465280691230879,
                1.912911886223871,
                -0.9631690007605211,
                0.05916391981076874,
                -2.258027454977663
            ]
        },
        {
            "positions": [
                -0.015574206654317635,
                -1.2974074185497553,
                1.9321408405817142,
                -0.9375468155740115,
                0.07888229676903247,
                -2.475588792908648
            ]
        },
        {
            "positions": [
                0.03090062835080498,
                -1.2482867679764227,
                1.9513697949395576,
                -0.9119246303875018,
                0.0986006737272962,
                -2.6931501308396335
            ]
        },
        {
            "positions": [
                0.07737546335592738,
                -1.1991661174030899,
                1.9705987492974009,
                -0.8863024452009922,
                0.11831905068555992,
                -2.910711468770619
            ]
        },
        {
            "positions": [
                0.12385029836105002,
                -1.1500454668297573,
                1.9898277036552443,
                -0.8606802600144825,
                0.13803742764382368,
                -3.128272806701604
            ]
        }
    ]
}{
    "goal": {
        "global_pose": {
            "orientation": {
                "w": 0.7047431468963623,
                "x": -0.7094548344612122,
                "y": 0.0024358443915843964,
                "z": -0.0022348060738295317
            },
            "position": {
                "x": 0.6094750761985779,
                "y": 0.3671506643295288,
                "z": 0.19426114857196808
            }
        },
        "name": "move_to_magneteinheit_A"
    },
    "id": "BiEST_move_to_magneteinheit_A_90",
    "joint_names": [
        "shoulder_pan_joint",
        "shoulder_lift_joint",
        "elbow_joint",
        "wrist_1_joint",
        "wrist_2_joint",
        "wrist_3_joint"
    ],
    "metrics": {
        "cart_traj_len": 1.1875684781620417,
        "distance_elbow_joint": 0.07007487511204569,
        "distance_shoulder_lift_joint": 0.747530153965074,
        "distance_shoulder_pan_joint": 1.2403904323791168,
        "distance_wrist_1_joint": 1.344746980054095,
        "distance_wrist_2_joint": 1.4471053544757126,
        "distance_wrist_3_joint": 4.241823838967245,
        "smoothness": 0.08777834745351461,
        "time": 0.073810762,
        "traj_len": 3.015239896750056,
        "weighted_distance": 4.51300029331016
    },
    "planner": "BiEST",
    "start": {
        "state": {
            "elbow_joint": 1.919643534880228,
            "shoulder_lift_joint": -1.8972525353963687,
            "shoulder_pan_joint": -1.1188672234189438,
            "wrist_1_joint": -1.5931878212786155,
            "wrist_2_joint": 1.5706036197970081,
            "wrist_3_joint": 1.118896926603594
        }
    },
    "waypoints": [
        {
            "positions": [
                -1.1188672234189438,
                -1.8972525353963687,
                1.919643534880228,
                -1.5931878212786155,
                1.5706036197970081,
                1.118896926603594
            ]
        },
        {
            "positions": [
                -1.0815508050830758,
                -1.8732315181232806,
                1.9237036336273694,
                -1.6188451931033605,
                1.5068093718377356,
                0.9066098329446665
            ]
        },
        {
            "positions": [
                -1.0442343867472075,
                -1.8492105008501925,
                1.927763732374511,
                -1.6445025649281058,
                1.4430151238784628,
                0.694322739285739
            ]
        },
        {
            "positions": [
                -1.0069179684113394,
                -1.825189483577104,
                1.9318238311216522,
                -1.6701599367528508,
                1.3792208759191902,
                0.48203564562681134
            ]
        },
        {
            "positions": [
                -0.9696015500754713,
                -1.801168466304016,
                1.9358839298687938,
                -1.695817308577596,
                1.3154266279599174,
                0.26974855196788383
            ]
        },
        {
            "positions": [
                -0.9322851317396033,
                -1.7771474490309278,
                1.939944028615935,
                -1.721474680402341,
                1.2516323800006448,
                0.057461458308956104
            ]
        },
        {
            "positions": [
                -0.8949687134037351,
                -1.7531264317578397,
                1.9440041273630766,
                -1.7471320522270863,
                1.187838132041372,
                -0.1548256353499713
            ]
        },
        {
            "positions": [
                -0.8576522950678669,
                -1.7291054144847515,
                1.948064226110218,
                -1.7727894240518314,
                1.1240438840820994,
                -0.3671127290088989
            ]
        },
        {
            "positions": [
                -0.8203358767319988,
                -1.7050843972116634,
                1.9521243248573592,
                -1.7984467958765764,
                1.0602496361228266,
                -0.5793998226678263
            ]
        },
        {
            "positions": [
                -0.7830194583961307,
                -1.6810633799385752,
                1.9561844236045007,
                -1.8241041677013217,
                0.9964553881635541,
                -0.7916869163267539
            ]
        },
        {
            "positions": [
                -0.7457030400602626,
                -1.6570423626654869,
                1.960244522351642,
                -1.8497615395260667,
                0.9326611402042814,
                -1.0039740099856818
            ]
        },
        {
            "positions": [
                -0.7083866217243944,
                -1.6330213453923987,
                1.9643046210987836,
                -1.875418911350812,
                0.8688668922450087,
                -1.216261103644609
            ]
        },
        {
            "positions": [
                -0.6710702033885263,
                -1.6090003281193106,
                1.9683647198459249,
                -1.901076283175557,
                0.805072644285736,
                -1.4285481973035365
            ]
        },
        {
            "positions": [
                -0.6050207523594681,
                -1.5707271658953093,
                1.9701441940247872,
                -1.814671406662461,
                0.7482747793720326,
                -1.569746423558546
            ]
        },
        {
            "positions": [
                -0.5389713013304098,
                -1.532454003671308,
                1.9719236682036496,
                -1.7282665301493647,
                0.6914769144583293,
                -1.7109446498135557
            ]
        },
        {
            "positions": [
                -0.47292185030135153,
                -1.4941808414473066,
                1.973703142382512,
                -1.6418616536362687,
                0.6346790495446258,
                -1.8521428760685652
            ]
        },
        {
            "positions": [
                -0.4068723992722933,
                -1.4559076792233052,
                1.9754826165613746,
                -1.5554567771231727,
                0.5778811846309225,
                -1.9933411023235748
            ]
        },
        {
            "positions": [
                -0.340822948243235,
                -1.4176345169993039,
                1.977262090740237,
                -1.4690519006100764,
                0.5210833197172191,
                -2.1345393285785845
            ]
        },
        {
            "positions": [
                -0.27477349721417677,
                -1.3793613547753028,
                1.9790415649190993,
                -1.3826470240969804,
                0.46428545480351574,
                -2.275737554833594
            ]
        },
        {
            "positions": [
                -0.20872404618511847,
                -1.3410881925513012,
                1.9808210390979617,
                -1.2962421475838841,
                0.4074875898898123,
                -2.4169357810886036
            ]
        },
        {
            "positions": [
                -0.1426745951560603,
                -1.3028150303273,
                1.982600513276824,
                -1.2098372710707883,
                0.350689724976109,
                -2.5581340073436127
            ]
        },
        {
            "positions": [
                -0.07662514412700205,
                -1.2645418681032987,
                1.9843799874556867,
                -1.123432394557692,
                0.29389186006240564,
                -2.6993322335986227
            ]
        },
        {
            "positions": [
                -0.010575693097943706,
                -1.2262687058792974,
                1.986159461634549,
                -1.0370275180445958,
                0.23709399514870222,
                -2.8405304598536323
            ]
        },
        {
            "positions": [
                0.05547375793111453,
                -1.187995543655296,
                1.9879389358134114,
                -0.9506226415314999,
                0.1802961302349989,
                -2.981728686108642
            ]
        },
        {
            "positions": [
                0.12152320896017278,
                -1.1497223814312947,
                1.9897184099922738,
                -0.8642177650184037,
                0.12349826532129547,
                -3.1229269123636514
            ]
        }
    ]
}