{
    "goal": {
        "global_pose": {
            "orientation": {
                "w": 0.7047431468963623,
                "x": -0.7094548344612122,
                "y": 0.0024358443915843964,
                "z": -0.0022348060738295317
            },
            "position": {
                "x": 0.6094750761985779,
                "y": 0.3671506643295288,
                "z": 0.19426114857196808
            }
        },
        "name": "move_to_magneteinheit_A"
    },
    "id": "BiEST_move_to_magneteinheit_A_143",
    "joint_names": [
        "shoulder_pan_joint",
        "shoulder_lift_joint",
        "elbow_joint",
        "wrist_1_joint",
        "wrist_2_joint",
        "wrist_3_joint"
    ],
    "metrics": {
        "cart_traj_len": 3.3984305090835623,
        "distance_elbow_joint": 3.882901067204317,
        "distance_shoulder_lift_joint": 0.4992537669993615,
        "distance_shoulder_pan_joint": 3.17071402023526,
        "distance_wrist_1_joint": 0.7998682286259111,
        "distance_wrist_2_joint": 1.6982058471456627,
        "distance_wrist_3_joint": 2.615394859695177,
        "smoothness": 0.11529991768736986,
        "time": 0.074464197,
        "traj_len": 3.558979880514315,
        "weighted_distance": 4.516104691553066
    },
    "planner": "BiEST",
    "start": {
        "state": {
            "elbow_joint": -1.919618573717145,
            "shoulder_lift_joint": -1.2443395971678275,
            "shoulder_pan_joint": 2.6996025300909787,
            "wrist_1_joint": -1.548550951253194,
            "wrist_2_joint": -1.5709469090946802,
            "wrist_3_joint": 0.4420197732051276
        }
    },
    "waypoints": [
        {
            "positions": [
                2.6996025300909787,
                -1.2443395971678275,
                -1.919618573717145,
                -1.548550951253194,
                -1.5709469090946802,
                0.4420197732051276
            ]
        },
        {
            "positions": [
                2.5846357512837583,
                -1.2521433692182844,
                -1.770997440378666,
                -1.5189390321994918,
                -1.512938325378178,
                0.4753893830376503
            ]
        },
        {
            "positions": [
                2.4696689724765375,
                -1.259947141268741,
                -1.6223763070401866,
                -1.4893271131457895,
                -1.454929741661676,
                0.508758992870173
            ]
        },
        {
            "positions": [
                2.354702193669317,
                -1.267750913319198,
                -1.4737551737017078,
                -1.4597151940920872,
                -1.396921157945174,
                0.5421286027026957
            ]
        },
        {
            "positions": [
                2.2397354148620963,
                -1.2755546853696549,
                -1.3251340403632286,
                -1.4301032750383849,
                -1.3389125742286718,
                0.5754982125352184
            ]
        },
        {
            "positions": [
                2.124768636054876,
                -1.2833584574201118,
                -1.1765129070247495,
                -1.4004913559846823,
                -1.2809039905121695,
                0.6088678223677412
            ]
        },
        {
            "positions": [
                2.0098018572476555,
                -1.2911622294705685,
                -1.0278917736862705,
                -1.37087943693098,
                -1.2228954067956674,
                0.6422374322002639
            ]
        },
        {
            "positions": [
                1.8948350784404346,
                -1.2989660015210254,
                -0.8792706403477912,
                -1.3412675178772777,
                -1.1648868230791654,
                0.6756070420327867
            ]
        },
        {
            "positions": [
                1.779868299633214,
                -1.3067697735714823,
                -0.7306495070093122,
                -1.3116555988235754,
                -1.1068782393626633,
                0.7089766518653093
            ]
        },
        {
            "positions": [
                1.6649015208259934,
                -1.314573545621939,
                -0.5820283736708332,
                -1.282043679769873,
                -1.0488696556461612,
                0.742346261697832
            ]
        },
        {
            "positions": [
                1.5499347420187728,
                -1.3223773176723959,
                -0.4334072403323541,
                -1.2524317607161708,
                -0.990861071929659,
                0.7757158715303547
            ]
        },
        {
            "positions": [
                1.4349679632115522,
                -1.3301810897228528,
                -0.2847861069938751,
                -1.2228198416624685,
                -0.9328524882131569,
                0.8090854813628774
            ]
        },
        {
            "positions": [
                1.3200011844043318,
                -1.3379848617733097,
                -0.13616497365539604,
                -1.193207922608766,
                -0.8748439044966548,
                0.8424550911954001
            ]
        },
        {
            "positions": [
                1.205034405597111,
                -1.3457886338237663,
                0.012456159683083223,
                -1.1635960035550639,
                -0.8168353207801528,
                0.8758247010279229
            ]
        },
        {
            "positions": [
                1.0900676267898903,
                -1.3535924058742232,
                0.16107729302156248,
                -1.1339840845013613,
                -0.7588267370636506,
                0.9091943108604457
            ]
        },
        {
            "positions": [
                0.9751008479826699,
                -1.3613961779246802,
                0.3096984263600413,
                -1.104372165447659,
                -0.7008181533471486,
                0.9425639206929681
            ]
        },
        {
            "positions": [
                0.8601340691754493,
                -1.369199949975137,
                0.45831955969852056,
                -1.0747602463939567,
                -0.6428095696306464,
                0.975933530525491
            ]
        },
        {
            "positions": [
                0.7451672903682285,
                -1.3770037220255937,
                0.6069406930369998,
                -1.0451483273402544,
                -0.5848009859141442,
                1.0093031403580137
            ]
        },
        {
            "positions": [
                0.6302005115610081,
                -1.3848074940760506,
                0.7555618263754786,
                -1.0155364082865521,
                -0.5267924021976422,
                1.0426727501905364
            ]
        },
        {
            "positions": [
                0.5152337327537877,
                -1.3926112661265075,
                0.9041829597139575,
                -0.9859244892328497,
                -0.46878381848114015,
                1.076042360023059
            ]
        },
        {
            "positions": [
                0.40026695394656686,
                -1.4004150381769644,
                1.0528040930524367,
                -0.9563125701791474,
                -0.41077523476463784,
                1.1094119698555818
            ]
        },
        {
            "positions": [
                0.28530017513934647,
                -1.4082188102274211,
                1.2014252263909155,
                -0.9267006511254451,
                -0.352766651048136,
                1.1427815796881045
            ]
        },
        {
            "positions": [
                0.17033339633212563,
                -1.416022582277878,
                1.3500463597293948,
                -0.8970887320717428,
                -0.2947580673316337,
                1.1761511895206271
            ]
        },
        {
            "positions": [
                0.05536661752490524,
                -1.423826354328335,
                1.498667493067874,
                -0.8674768130180404,
                -0.2367494836151316,
                1.20952079935315
            ]
        },
        {
            "positions": [
                -0.059600161282315156,
                -1.4316301263787916,
                1.6472886264063529,
                -0.837864893964338,
                -0.1787408998986295,
                1.2428904091856725
            ]
        },
        {
            "positions": [
                -0.17456694008953613,
                -1.4394338984292485,
                1.795909759744832,
                -0.8082529749106357,
                -0.12073231618212754,
                1.2762600190181954
            ]
        },
        {
            "positions": [
                -0.13749887133269292,
                -1.401413965212006,
                1.8168313514626244,
                -0.8008066933752167,
                -0.08973340940298871,
                1.498904345753459
            ]
        },
        {
            "positions": [
                -0.10043080257584973,
                -1.3633940319947633,
                1.837752943180417,
                -0.7933604118397976,
                -0.05873450262384988,
                1.7215486724887228
            ]
        },
        {
            "positions": [
                -0.06336273381900653,
                -1.3253740987775209,
                1.8586745348982094,
                -0.7859141303043784,
                -0.027735595844711053,
                1.9441929992239864
            ]
        },
        {
            "positions": [
                -0.026294665062163325,
                -1.2873541655602783,
                1.879596126616002,
                -0.7784678487689594,
                0.0032633109344277766,
                2.16683732595925
            ]
        },
        {
            "positions": [
                0.010773403694679884,
                -1.2493342323430356,
                1.9005177183337945,
                -0.7710215672335403,
                0.034262217713566606,
                2.3894816526945135
            ]
        },
        {
            "positions": [
                0.047841472451523065,
                -1.2113142991257932,
                1.921439310051587,
                -0.7635752856981212,
                0.06526112449270544,
                2.612125979429777
            ]
        },
        {
            "positions": [
                0.08490954120836627,
                -1.1732943659085506,
                1.9423609017693795,
                -0.756129004162702,
                0.09626003127184427,
                2.834770306165041
            ]
        },
        {
            "positions": [
                0.12197760996520948,
                -1.135274432691308,
                1.963282493487172,
                -0.748682722627283,
                0.1272589380509831,
                3.0574146329003047
            ]
        }
    ]
}{
    "goal": {
        "global_pose": {
            "orientation": {
                "w": 0.7047431468963623,
                "x": -0.7094548344612122,
                "y": 0.0024358443915843964,
                "z": -0.0022348060738295317
            },
            "position": {
                "x": 0.6094750761985779,
                "y": 0.3671506643295288,
                "z": 0.19426114857196808
            }
        },
        "name": "move_to_magneteinheit_A"
    },
    "id": "BiEST_move_to_magneteinheit_A_143",
    "joint_names": [
        "shoulder_pan_joint",
        "shoulder_lift_joint",
        "elbow_joint",
        "wrist_1_joint",
        "wrist_2_joint",
        "wrist_3_joint"
    ],
    "metrics": {
        "cart_traj_len": 1.202386917113357,
        "distance_elbow_joint": 0.07089048437800316,
        "distance_shoulder_lift_joint": 0.7588565668254326,
        "distance_shoulder_pan_joint": 1.2412219450176707,
        "distance_wrist_1_joint": 0.829845843724222,
        "distance_wrist_2_joint": 1.4733634092764256,
        "distance_wrist_3_joint": 4.312388215378684,
        "smoothness": 0.04898394959118247,
        "time": 0.063200481,
        "traj_len": 2.9472981635050832,
        "weighted_distance": 4.4288319169232935
    },
    "planner": "BiEST",
    "start": {
        "state": {
            "elbow_joint": 1.919643534880228,
            "shoulder_lift_joint": -1.8972525353963687,
            "shoulder_pan_joint": -1.1188672234189438,
            "wrist_1_joint": -1.5931878212786155,
            "wrist_2_joint": 1.5706036197970081,
            "wrist_3_joint": 1.118896926603594
        }
    },
    "waypoints": [
        {
            "positions": [
                -1.1188672234189438,
                -1.8972525353963687,
                1.919643534880228,
                -1.5931878212786155,
                1.5706036197970081,
                1.118896926603594
            ]
        },
        {
            "positions": [
                -1.0670841429763729,
                -1.8635261165644226,
                1.92246830547136,
                -1.5537737973363919,
                1.5010035869752645,
                0.9219766096630745
            ]
        },
        {
            "positions": [
                -1.015301062533802,
                -1.8297996977324764,
                1.9252930760624922,
                -1.5143597733941683,
                1.4314035541535208,
                0.725056292722555
            ]
        },
        {
            "positions": [
                -0.963517982091231,
                -1.7960732789005303,
                1.9281178466536242,
                -1.4749457494519447,
                1.3618035213317772,
                0.5281359757820356
            ]
        },
        {
            "positions": [
                -0.91173490164866,
                -1.7623468600685839,
                1.9309426172447564,
                -1.435531725509721,
                1.2922034885100335,
                0.33121565884151616
            ]
        },
        {
            "positions": [
                -0.859951821206089,
                -1.7286204412366377,
                1.9337673878358883,
                -1.3961177015674977,
                1.2226034556882899,
                0.13429534190099668
            ]
        },
        {
            "positions": [
                -0.8081687407635181,
                -1.6948940224046916,
                1.9365921584270203,
                -1.356703677625274,
                1.1530034228665462,
                -0.06262497503952269
            ]
        },
        {
            "positions": [
                -0.7563856603209471,
                -1.6611676035727454,
                1.9394169290181524,
                -1.3172896536830505,
                1.0834033900448028,
                -0.2595452919800423
            ]
        },
        {
            "positions": [
                -0.7046025798783762,
                -1.6274411847407992,
                1.9422416996092844,
                -1.277875629740827,
                1.013803357223059,
                -0.45646560892056165
            ]
        },
        {
            "positions": [
                -0.6528194994358052,
                -1.593714765908853,
                1.9450664702004163,
                -1.2384616057986033,
                0.9442033244013154,
                -0.653385925861081
            ]
        },
        {
            "positions": [
                -0.6010364189932341,
                -1.559988347076907,
                1.9478912407915485,
                -1.1990475818563797,
                0.8746032915795717,
                -0.8503062428016006
            ]
        },
        {
            "positions": [
                -0.5492533385506632,
                -1.5262619282449605,
                1.9507160113826805,
                -1.1596335579141561,
                0.8050032587578281,
                -1.0472265597421202
            ]
        },
        {
            "positions": [
                -0.4974702581080922,
                -1.4925355094130146,
                1.9535407819738126,
                -1.1202195339719325,
                0.7354032259360845,
                -1.2441468766826393
            ]
        },
        {
            "positions": [
                -0.44568717766552124,
                -1.4588090905810682,
                1.9563655525649446,
                -1.080805510029709,
                0.6658031931143408,
                -1.441067193623159
            ]
        },
        {
            "positions": [
                -0.3939040972229503,
                -1.425082671749122,
                1.9591903231560766,
                -1.0413914860874853,
                0.5962031602925972,
                -1.6379875105636785
            ]
        },
        {
            "positions": [
                -0.3421210167803792,
                -1.391356252917176,
                1.9620150937472087,
                -1.0019774621452617,
                0.5266031274708536,
                -1.8349078275041981
            ]
        },
        {
            "positions": [
                -0.29033793633780836,
                -1.3576298340852297,
                1.9648398643383407,
                -0.9625634382030382,
                0.45700309464910993,
                -2.0318281444447175
            ]
        },
        {
            "positions": [
                -0.23855485589523728,
                -1.3239034152532834,
                1.9676646349294726,
                -0.9231494142608146,
                0.3874030618273663,
                -2.228748461385237
            ]
        },
        {
            "positions": [
                -0.18677177545266643,
                -1.2901769964213372,
                1.9704894055206048,
                -0.8837353903185912,
                0.31780302900562263,
                -2.425668778325756
            ]
        },
        {
            "positions": [
                -0.13498869501009536,
                -1.256450577589391,
                1.9733141761117368,
                -0.8443213663763676,
                0.24820299618387898,
                -2.6225890952662763
            ]
        },
        {
            "positions": [
                -0.0832056145675244,
                -1.222724158757445,
                1.976138946702869,
                -0.804907342434144,
                0.17860296336213533,
                -2.819509412206795
            ]
        },
        {
            "positions": [
                -0.031422534124953494,
                -1.1889977399254987,
                1.978963717294001,
                -0.7654933184919204,
                0.10900293054039156,
                -3.0164297291473146
            ]
        },
        {
            "positions": [
                0.04546609373688658,
                -1.1636968542482173,
                1.9731785663118857,
                -0.7665689889606838,
                0.11488429055029614,
                -3.1049605089612022
            ]
        },
        {
            "positions": [
                0.12235472159872665,
                -1.1383959685709362,
                1.9673934153297705,
                -0.7676446594294473,
                0.12076565056020072,
                -3.19349128877509
            ]
        }
    ]
}