{
    "goal": {
        "global_pose": {
            "orientation": {
                "w": 0.7047431468963623,
                "x": -0.7094548344612122,
                "y": 0.0024358443915843964,
                "z": -0.0022348060738295317
            },
            "position": {
                "x": 0.6094750761985779,
                "y": 0.3671506643295288,
                "z": 0.19426114857196808
            }
        },
        "name": "move_to_magneteinheit_A"
    },
    "id": "BiEST_move_to_magneteinheit_A_141",
    "joint_names": [
        "shoulder_pan_joint",
        "shoulder_lift_joint",
        "elbow_joint",
        "wrist_1_joint",
        "wrist_2_joint",
        "wrist_3_joint"
    ],
    "metrics": {
        "cart_traj_len": 3.5409255185379136,
        "distance_elbow_joint": 3.9061310269097724,
        "distance_shoulder_lift_joint": 0.25445499888979084,
        "distance_shoulder_pan_joint": 3.2817092071979808,
        "distance_wrist_1_joint": 0.6896728555180077,
        "distance_wrist_2_joint": 1.6915614581876826,
        "distance_wrist_3_joint": 2.7230627729866517,
        "smoothness": 0.07206756442652243,
        "time": 0.064491381,
        "traj_len": 3.542116926315376,
        "weighted_distance": 4.51375145298995
    },
    "planner": "BiEST",
    "start": {
        "state": {
            "elbow_joint": -1.919618573717145,
            "shoulder_lift_joint": -1.2443395971678275,
            "shoulder_pan_joint": 2.6996025300909787,
            "wrist_1_joint": -1.548550951253194,
            "wrist_2_joint": -1.5709469090946802,
            "wrist_3_joint": 0.4420197732051276
        }
    },
    "waypoints": [
        {
            "positions": [
                2.6996025300909787,
                -1.2443395971678275,
                -1.919618573717145,
                -1.548550951253194,
                -1.5709469090946802,
                0.4420197732051276
            ]
        },
        {
            "positions": [
                2.527277299962803,
                -1.2340299305582445,
                -1.8938100959640891,
                -1.527003144661112,
                -1.5532710147409456,
                0.590282282270463
            ]
        },
        {
            "positions": [
                2.354952069834627,
                -1.2237202639486615,
                -1.8680016182110333,
                -1.50545533806903,
                -1.5355951203872111,
                0.7385447913357983
            ]
        },
        {
            "positions": [
                2.182626839706451,
                -1.2134105973390785,
                -1.8421931404579772,
                -1.483907531476948,
                -1.5179192260334766,
                0.8868073004011338
            ]
        },
        {
            "positions": [
                2.0103016095782746,
                -1.2031009307294955,
                -1.8163846627049214,
                -1.462359724884866,
                -1.500243331679742,
                1.035069809466469
            ]
        },
        {
            "positions": [
                1.8379763794500987,
                -1.1927912641199128,
                -1.7905761849518655,
                -1.440811918292784,
                -1.4825674373260076,
                1.1833323185318045
            ]
        },
        {
            "positions": [
                1.6656511493219228,
                -1.1824815975103298,
                -1.7647677071988097,
                -1.419264111700702,
                -1.464891542972273,
                1.3315948275971399
            ]
        },
        {
            "positions": [
                1.493325919193747,
                -1.1721719309007468,
                -1.7389592294457539,
                -1.39771630510862,
                -1.4472156486185386,
                1.4798573366624752
            ]
        },
        {
            "positions": [
                1.3210006890655708,
                -1.1618622642911638,
                -1.713150751692698,
                -1.376168498516538,
                -1.429539754264804,
                1.6281198457278105
            ]
        },
        {
            "positions": [
                1.1486754589373949,
                -1.1515525976815808,
                -1.687342273939642,
                -1.354620691924456,
                -1.4118638599110693,
                1.776382354793146
            ]
        },
        {
            "positions": [
                0.9763502288092187,
                -1.1412429310719978,
                -1.6615337961865861,
                -1.333072885332374,
                -1.3941879655573348,
                1.9246448638584814
            ]
        },
        {
            "positions": [
                0.8040249986810428,
                -1.1309332644624148,
                -1.6357253184335303,
                -1.311525078740292,
                -1.3765120712036003,
                2.0729073729238165
            ]
        },
        {
            "positions": [
                0.6316997685528669,
                -1.1206235978528318,
                -1.6099168406804745,
                -1.28997727214821,
                -1.3588361768498658,
                2.221169881989152
            ]
        },
        {
            "positions": [
                0.459374538424691,
                -1.110313931243249,
                -1.5841083629274186,
                -1.268429465556128,
                -1.3411602824961313,
                2.369432391054487
            ]
        },
        {
            "positions": [
                0.2870493082965151,
                -1.100004264633666,
                -1.5582998851743626,
                -1.246881658964046,
                -1.3234843881423968,
                2.5176949001198228
            ]
        },
        {
            "positions": [
                0.11472407816833918,
                -1.089694598024083,
                -1.5324914074213067,
                -1.225333852371964,
                -1.3058084937886623,
                2.6659574091851583
            ]
        },
        {
            "positions": [
                -0.05760115195983717,
                -1.0793849314145,
                -1.506682929668251,
                -1.203786045779882,
                -1.2881325994349277,
                2.8142199182504934
            ]
        },
        {
            "positions": [
                -0.22992638208801291,
                -1.069075264804917,
                -1.480874451915195,
                -1.1822382391878,
                -1.2704567050811932,
                2.962482427315829
            ]
        },
        {
            "positions": [
                -0.20644769575341365,
                -1.0743546425733759,
                -1.2497153249080069,
                -1.160680896290959,
                -1.1777186214695803,
                2.975989101907559
            ]
        },
        {
            "positions": [
                -0.1829690094188144,
                -1.0796340203418344,
                -1.0185561979008186,
                -1.1391235533941182,
                -1.084980537857967,
                2.989495776499289
            ]
        },
        {
            "positions": [
                -0.15949032308421512,
                -1.0849133981102932,
                -0.7873970708936304,
                -1.1175662104972772,
                -0.9922424542463542,
                3.003002451091019
            ]
        },
        {
            "positions": [
                -0.13601163674961586,
                -1.090192775878752,
                -0.5562379438864423,
                -1.0960088676004363,
                -0.8995043706347411,
                3.016509125682749
            ]
        },
        {
            "positions": [
                -0.11253295041501658,
                -1.0954721536472105,
                -0.3250788168792542,
                -1.0744515247035955,
                -0.806766287023128,
                3.0300158002744793
            ]
        },
        {
            "positions": [
                -0.0890542640804173,
                -1.1007515314156693,
                -0.09391968987206578,
                -1.0528941818067545,
                -0.714028203411515,
                3.0435224748662093
            ]
        },
        {
            "positions": [
                -0.06557557774581804,
                -1.106030909184128,
                0.1372394371351222,
                -1.0313368389099136,
                -0.6212901197999019,
                3.0570291494579394
            ]
        },
        {
            "positions": [
                -0.04209689141121878,
                -1.1113102869525866,
                0.3683985641423104,
                -1.0097794960130726,
                -0.5285520361882889,
                3.070535824049669
            ]
        },
        {
            "positions": [
                -0.018618205076619515,
                -1.1165896647210454,
                0.5995576911494984,
                -0.9882221531162318,
                -0.4358139525766759,
                3.084042498641399
            ]
        },
        {
            "positions": [
                0.0048604812579797485,
                -1.1218690424895041,
                0.8307168181566866,
                -0.9666648102193909,
                -0.3430758689650628,
                3.097549173233129
            ]
        },
        {
            "positions": [
                0.028339167592578984,
                -1.1271484202579627,
                1.0618759451638748,
                -0.94510746732255,
                -0.25033778535344986,
                3.111055847824859
            ]
        },
        {
            "positions": [
                0.0518178539271783,
                -1.1324277980264215,
                1.2930350721710635,
                -0.923550124425709,
                -0.15759970174183668,
                3.124562522416589
            ]
        },
        {
            "positions": [
                0.07529654026177757,
                -1.1377071757948802,
                1.5241941991782513,
                -0.9019927815288682,
                -0.06486161813022373,
                3.138069197008319
            ]
        },
        {
            "positions": [
                0.09877522659637683,
                -1.1429865535633388,
                1.7553533261854395,
                -0.8804354386320272,
                0.027876465481389445,
                3.1515758716000493
            ]
        },
        {
            "positions": [
                0.12225391293097611,
                -1.1482659313317976,
                1.9865124531926277,
                -0.8588780957351864,
                0.12061454909300229,
                3.1650825461917793
            ]
        }
    ]
}{
    "goal": {
        "global_pose": {
            "orientation": {
                "w": 0.7047431468963623,
                "x": -0.7094548344612122,
                "y": 0.0024358443915843964,
                "z": -0.0022348060738295317
            },
            "position": {
                "x": 0.6094750761985779,
                "y": 0.3671506643295288,
                "z": 0.19426114857196808
            }
        },
        "name": "move_to_magneteinheit_A"
    },
    "id": "BiEST_move_to_magneteinheit_A_141",
    "joint_names": [
        "shoulder_pan_joint",
        "shoulder_lift_joint",
        "elbow_joint",
        "wrist_1_joint",
        "wrist_2_joint",
        "wrist_3_joint"
    ],
    "metrics": {
        "cart_traj_len": 1.09836770166253,
        "distance_elbow_joint": 0.44504187731293054,
        "distance_shoulder_lift_joint": 0.9640603296696919,
        "distance_shoulder_pan_joint": 1.2415629366116738,
        "distance_wrist_1_joint": 1.1149587345179715,
        "distance_wrist_2_joint": 1.4314850250104978,
        "distance_wrist_3_joint": 4.26143881023611,
        "smoothness": 0.11981901431085604,
        "time": 0.075973933,
        "traj_len": 3.0754752012264497,
        "weighted_distance": 4.530769150305449
    },
    "planner": "BiEST",
    "start": {
        "state": {
            "elbow_joint": 1.919643534880228,
            "shoulder_lift_joint": -1.8972525353963687,
            "shoulder_pan_joint": -1.1188672234189438,
            "wrist_1_joint": -1.5931878212786155,
            "wrist_2_joint": 1.5706036197970081,
            "wrist_3_joint": 1.118896926603594
        }
    },
    "waypoints": [
        {
            "positions": [
                -1.1188672234189438,
                -1.8972525353963687,
                1.919643534880228,
                -1.5931878212786155,
                1.5706036197970081,
                1.118896926603594
            ]
        },
        {
            "positions": [
                -1.0854826419097023,
                -1.9069505189702065,
                1.9429344835008695,
                -1.5081772800813367,
                1.5480906608669196,
                0.9297157019881673
            ]
        },
        {
            "positions": [
                -1.0520980604004606,
                -1.9166485025440443,
                1.966225432121511,
                -1.4231667388840579,
                1.525577701936831,
                0.7405344773727407
            ]
        },
        {
            "positions": [
                -1.018713478891219,
                -1.9263464861178818,
                1.9895163807421523,
                -1.338156197686779,
                1.5030647430067428,
                0.5513532527573141
            ]
        },
        {
            "positions": [
                -0.9853288973819776,
                -1.9360444696917196,
                2.012807329362794,
                -1.2531456564895,
                1.4805517840766542,
                0.3621720281418873
            ]
        },
        {
            "positions": [
                -0.951944315872736,
                -1.9457424532655574,
                2.0360982779834353,
                -1.1681351152922215,
                1.4580388251465657,
                0.17299080352646068
            ]
        },
        {
            "positions": [
                -0.9185597343634945,
                -1.9554404368393952,
                2.0593892266040768,
                -1.0831245740949424,
                1.4355258662164772,
                -0.016190421088965845
            ]
        },
        {
            "positions": [
                -0.8851751528542529,
                -1.965138420413233,
                2.082680175224718,
                -0.9981140328976638,
                1.4130129072863886,
                -0.2053716457043926
            ]
        },
        {
            "positions": [
                -0.8517905713450113,
                -1.9748364039870707,
                2.1059711238453596,
                -0.9131034917003849,
                1.3904999483563,
                -0.39455287031981934
            ]
        },
        {
            "positions": [
                -0.8184059898357697,
                -1.9845343875609083,
                2.129262072466001,
                -0.828092950503106,
                1.3679869894262118,
                -0.5837340949352461
            ]
        },
        {
            "positions": [
                -0.7850214083265281,
                -1.994232371134746,
                2.1525530210866424,
                -0.7430824093058273,
                1.3454740304961232,
                -0.7729153195506726
            ]
        },
        {
            "positions": [
                -0.7516368268172866,
                -2.003930354708584,
                2.1758439697072838,
                -0.6580718681085485,
                1.3229610715660347,
                -0.9620965441660995
            ]
        },
        {
            "positions": [
                -0.6891845025308568,
                -1.9426887468259069,
                2.162355295244007,
                -0.6709177810619702,
                1.2384008946532115,
                -1.117842639842272
            ]
        },
        {
            "positions": [
                -0.6267321782444272,
                -1.88144713894323,
                2.1488666207807303,
                -0.6837636940153919,
                1.1538407177403884,
                -1.2735887355184445
            ]
        },
        {
            "positions": [
                -0.5642798539579974,
                -1.8202055310605532,
                2.1353779463174534,
                -0.6966096069688136,
                1.0692805408275652,
                -1.4293348311946172
            ]
        },
        {
            "positions": [
                -0.5018275296715676,
                -1.7589639231778762,
                2.121889271854177,
                -0.7094555199222353,
                0.984720363914742,
                -1.58508092687079
            ]
        },
        {
            "positions": [
                -0.4393752053851379,
                -1.6977223152951992,
                2.1084005973909,
                -0.7223014328756571,
                0.9001601870019189,
                -1.7408270225469624
            ]
        },
        {
            "positions": [
                -0.3769228810987082,
                -1.6364807074125225,
                2.094911922927623,
                -0.7351473458290788,
                0.8156000100890958,
                -1.896573118223135
            ]
        },
        {
            "positions": [
                -0.3144705568122784,
                -1.5752390995298455,
                2.0814232484643465,
                -0.7479932587825004,
                0.7310398331762725,
                -2.052319213899308
            ]
        },
        {
            "positions": [
                -0.2520182325258487,
                -1.5139974916471686,
                2.0679345740010695,
                -0.7608391717359222,
                0.6464796562634494,
                -2.2080653095754803
            ]
        },
        {
            "positions": [
                -0.18956590823941888,
                -1.4527558837644916,
                2.054445899537793,
                -0.7736850846893439,
                0.5619194793506261,
                -2.3638114052516532
            ]
        },
        {
            "positions": [
                -0.12711358395298922,
                -1.3915142758818146,
                2.040957225074516,
                -0.7865309976427657,
                0.477359302437803,
                -2.5195575009278257
            ]
        },
        {
            "positions": [
                -0.06466125966655945,
                -1.3302726679991377,
                2.027468550611239,
                -0.7993769105961874,
                0.39279912552497986,
                -2.675303596603998
            ]
        },
        {
            "positions": [
                -0.002208935380129784,
                -1.269031060116461,
                2.0139798761479626,
                -0.8122228235496091,
                0.30823894861215684,
                -2.8310496922801707
            ]
        },
        {
            "positions": [
                0.0602433889063001,
                -1.2077894522337838,
                2.0004912016846856,
                -0.8250687365030308,
                0.22367877169933337,
                -2.9867957879563436
            ]
        },
        {
            "positions": [
                0.12269571319272977,
                -1.146547844351107,
                1.987002527221409,
                -0.8379146494564526,
                0.13911859478651026,
                -3.142541883632516
            ]
        }
    ]
}