{
    "goal": {
        "global_pose": {
            "orientation": {
                "w": 0.7047431468963623,
                "x": -0.7094548344612122,
                "y": 0.0024358443915843964,
                "z": -0.0022348060738295317
            },
            "position": {
                "x": 0.6094750761985779,
                "y": 0.3671506643295288,
                "z": 0.19426114857196808
            }
        },
        "name": "move_to_magneteinheit_A"
    },
    "id": "BiEST_move_to_magneteinheit_A_27",
    "joint_names": [
        "shoulder_pan_joint",
        "shoulder_lift_joint",
        "elbow_joint",
        "wrist_1_joint",
        "wrist_2_joint",
        "wrist_3_joint"
    ],
    "metrics": {
        "cart_traj_len": 3.639018159221879,
        "distance_elbow_joint": 3.8771016776793203,
        "distance_shoulder_lift_joint": 0.21912780409019006,
        "distance_shoulder_pan_joint": 3.1310998280267013,
        "distance_wrist_1_joint": 0.8198516756786862,
        "distance_wrist_2_joint": 1.7667311760397881,
        "distance_wrist_3_joint": 2.6025693252213133,
        "smoothness": 0.09504371058346514,
        "time": 0.100021945,
        "traj_len": 3.523702809082514,
        "weighted_distance": 4.495353488758933
    },
    "planner": "BiEST",
    "start": {
        "state": {
            "elbow_joint": -1.919618573717145,
            "shoulder_lift_joint": -1.2443395971678275,
            "shoulder_pan_joint": 2.6996025300909787,
            "wrist_1_joint": -1.548550951253194,
            "wrist_2_joint": -1.5709469090946802,
            "wrist_3_joint": 0.4420197732051276
        }
    },
    "waypoints": [
        {
            "positions": [
                2.6996025300909787,
                -1.2443395971678275,
                -1.919618573717145,
                -1.548550951253194,
                -1.5709469090946802,
                0.4420197732051276
            ]
        },
        {
            "positions": [
                2.5755108196073073,
                -1.2466584679021655,
                -1.7791110918444017,
                -1.526518776585085,
                -1.4957281009355052,
                0.4689648685412659
            ]
        },
        {
            "positions": [
                2.4514191091236355,
                -1.2489773386365035,
                -1.6386036099716588,
                -1.5044866019169758,
                -1.4205092927763303,
                0.49590996387740427
            ]
        },
        {
            "positions": [
                2.327327398639964,
                -1.2512962093708415,
                -1.4980961280989158,
                -1.4824544272488667,
                -1.3452904846171554,
                0.5228550592135426
            ]
        },
        {
            "positions": [
                2.2032356881562922,
                -1.2536150801051795,
                -1.3575886462261726,
                -1.4604222525807575,
                -1.2700716764579805,
                0.5498001545496809
            ]
        },
        {
            "positions": [
                2.079143977672621,
                -1.2559339508395175,
                -1.2170811643534294,
                -1.4383900779126484,
                -1.1948528682988055,
                0.5767452498858192
            ]
        },
        {
            "positions": [
                1.9550522671889492,
                -1.2582528215738558,
                -1.0765736824806864,
                -1.4163579032445393,
                -1.1196340601396306,
                0.6036903452219575
            ]
        },
        {
            "positions": [
                1.8309605567052776,
                -1.2605716923081938,
                -0.9360662006079432,
                -1.3943257285764303,
                -1.0444152519804555,
                0.630635440558096
            ]
        },
        {
            "positions": [
                1.706868846221606,
                -1.2628905630425318,
                -0.7955587187352002,
                -1.3722935539083212,
                -0.9691964438212807,
                0.6575805358942343
            ]
        },
        {
            "positions": [
                1.5827771357379343,
                -1.2652094337768698,
                -0.655051236862457,
                -1.350261379240212,
                -0.8939776356621058,
                0.6845256312303726
            ]
        },
        {
            "positions": [
                1.4586854252542627,
                -1.2675283045112078,
                -0.514543754989714,
                -1.328229204572103,
                -0.8187588275029308,
                0.7114707265665109
            ]
        },
        {
            "positions": [
                1.334593714770591,
                -1.2698471752455458,
                -0.37403627311697085,
                -1.3061970299039938,
                -0.7435400193437559,
                0.7384158219026493
            ]
        },
        {
            "positions": [
                1.2105020042869197,
                -1.2721660459798838,
                -0.23352879124422787,
                -1.2841648552358846,
                -0.668321211184581,
                0.7653609172387876
            ]
        },
        {
            "positions": [
                1.086410293803248,
                -1.2744849167142218,
                -0.0930213093714849,
                -1.2621326805677755,
                -0.5931024030254062,
                0.7923060125749259
            ]
        },
        {
            "positions": [
                0.9623185833195762,
                -1.2768037874485598,
                0.04748617250125853,
                -1.2401005058996664,
                -0.517883594866231,
                0.8192511079110643
            ]
        },
        {
            "positions": [
                0.8382268728359048,
                -1.2791226581828978,
                0.1879936543740015,
                -1.2180683312315572,
                -0.4426647867070561,
                0.8461962032472026
            ]
        },
        {
            "positions": [
                0.7141351623522332,
                -1.2814415289172358,
                0.3285011362467445,
                -1.1960361565634483,
                -0.3674459785478812,
                0.8731412985833409
            ]
        },
        {
            "positions": [
                0.5900434518685618,
                -1.2837603996515738,
                0.46900861811948746,
                -1.1740039818953392,
                -0.2922271703887065,
                0.9000863939194792
            ]
        },
        {
            "positions": [
                0.46595174138488993,
                -1.286079270385912,
                0.6095160999922309,
                -1.15197180722723,
                -0.21700836222953135,
                0.9270314892556176
            ]
        },
        {
            "positions": [
                0.3418600309012185,
                -1.28839814112025,
                0.7500235818649739,
                -1.1299396325591209,
                -0.14178955407035643,
                0.9539765845917558
            ]
        },
        {
            "positions": [
                0.21776832041754668,
                -1.290717011854588,
                0.8905310637377168,
                -1.1079074578910117,
                -0.0665707459111815,
                0.9809216799278941
            ]
        },
        {
            "positions": [
                0.09367660993387528,
                -1.293035882588926,
                1.0310385456104598,
                -1.0858752832229026,
                0.008648062247993193,
                1.0078667752640325
            ]
        },
        {
            "positions": [
                -0.03041510054979657,
                -1.295354753323264,
                1.1715460274832032,
                -1.0638431085547935,
                0.08386687040716834,
                1.034811870600171
            ]
        },
        {
            "positions": [
                -0.15450681103346792,
                -1.2976736240576021,
                1.3120535093559464,
                -1.0418109338866843,
                0.1590856785663432,
                1.0617569659363093
            ]
        },
        {
            "positions": [
                -0.12373009026655056,
                -1.279252093257556,
                1.3837679087566386,
                -1.0070207496297758,
                0.15500805763536935,
                1.2820716473241016
            ]
        },
        {
            "positions": [
                -0.0929533694996332,
                -1.2608305624575098,
                1.4554823081573307,
                -0.9722305653728673,
                0.15093043670439546,
                1.5023863287118941
            ]
        },
        {
            "positions": [
                -0.06217664873271586,
                -1.2424090316574636,
                1.527196707558023,
                -0.9374403811159588,
                0.1468528157734216,
                1.7227010100996865
            ]
        },
        {
            "positions": [
                -0.031399927965798505,
                -1.2239875008574175,
                1.5989111069587152,
                -0.9026501968590503,
                0.14277519484244772,
                1.9430156914874788
            ]
        },
        {
            "positions": [
                -0.0006232071988811483,
                -1.2055659700573713,
                1.6706255063594073,
                -0.8678600126021419,
                0.13869757391147386,
                2.1633303728752713
            ]
        },
        {
            "positions": [
                0.030153513568036194,
                -1.1871444392573252,
                1.7423399057600994,
                -0.8330698283452334,
                0.13461995298049997,
                2.383645054263064
            ]
        },
        {
            "positions": [
                0.060930234334953565,
                -1.168722908457279,
                1.8140543051607918,
                -0.7982796440883249,
                0.13054233204952612,
                2.6039597356508564
            ]
        },
        {
            "positions": [
                0.09170695510187091,
                -1.1503013776572328,
                1.885768704561484,
                -0.7634894598314164,
                0.12646471111855223,
                2.8242744170386485
            ]
        },
        {
            "positions": [
                0.12248367586878826,
                -1.1318798468571867,
                1.957483103962176,
                -0.7286992755745079,
                0.12238709018757837,
                3.044589098426441
            ]
        }
    ]
}{
    "goal": {
        "global_pose": {
            "orientation": {
                "w": 0.7047431468963623,
                "x": -0.7094548344612122,
                "y": 0.0024358443915843964,
                "z": -0.0022348060738295317
            },
            "position": {
                "x": 0.6094750761985779,
                "y": 0.3671506643295288,
                "z": 0.19426114857196808
            }
        },
        "name": "move_to_magneteinheit_A"
    },
    "id": "BiEST_move_to_magneteinheit_A_27",
    "joint_names": [
        "shoulder_pan_joint",
        "shoulder_lift_joint",
        "elbow_joint",
        "wrist_1_joint",
        "wrist_2_joint",
        "wrist_3_joint"
    ],
    "metrics": {
        "cart_traj_len": 2.1082732317020048,
        "distance_elbow_joint": 2.1858581446814895,
        "distance_shoulder_lift_joint": 0.7482855728423512,
        "distance_shoulder_pan_joint": 1.347603688968477,
        "distance_wrist_1_joint": 0.7278876078427619,
        "distance_wrist_2_joint": 1.4354688427163447,
        "distance_wrist_3_joint": 4.233034112719887,
        "smoothness": 0.19405125507880744,
        "time": 0.068094713,
        "traj_len": 3.2677420292567945,
        "weighted_distance": 4.616011551737083
    },
    "planner": "BiEST",
    "start": {
        "state": {
            "elbow_joint": 1.919643534880228,
            "shoulder_lift_joint": -1.8972525353963687,
            "shoulder_pan_joint": -1.1188672234189438,
            "wrist_1_joint": -1.5931878212786155,
            "wrist_2_joint": 1.5706036197970081,
            "wrist_3_joint": 1.118896926603594
        }
    },
    "waypoints": [
        {
            "positions": [
                -1.1188672234189438,
                -1.8972525353963687,
                1.919643534880228,
                -1.5931878212786155,
                1.5706036197970081,
                1.118896926603594
            ]
        },
        {
            "positions": [
                -1.1246671344146548,
                -1.8256025966114982,
                1.8021324628743318,
                -1.5352828477163083,
                1.5705017947565532,
                0.989183892732897
            ]
        },
        {
            "positions": [
                -1.130467045410366,
                -1.7539526578266278,
                1.6846213908684353,
                -1.4773778741540011,
                1.5703999697160982,
                0.8594708588622
            ]
        },
        {
            "positions": [
                -1.136266956406077,
                -1.6823027190417572,
                1.567110318862539,
                -1.419472900591694,
                1.5702981446756434,
                0.7297578249915029
            ]
        },
        {
            "positions": [
                -1.1420668674017882,
                -1.6106527802568866,
                1.4495992468566425,
                -1.3615679270293868,
                1.5701963196351885,
                0.6000447911208059
            ]
        },
        {
            "positions": [
                -1.1478667783974992,
                -1.539002841472016,
                1.332088174850746,
                -1.3036629534670796,
                1.5700944945947335,
                0.4703317572501088
            ]
        },
        {
            "positions": [
                -1.1536666893932104,
                -1.4673529026871455,
                1.2145771028448498,
                -1.2457579799047724,
                1.5699926695542785,
                0.3406187233794118
            ]
        },
        {
            "positions": [
                -1.1594666003889214,
                -1.3957029639022749,
                1.0970660308389535,
                -1.1878530063424653,
                1.5698908445138238,
                0.2109056895087148
            ]
        },
        {
            "positions": [
                -1.1652665113846326,
                -1.3240530251174045,
                0.9795549588330571,
                -1.129948032780158,
                1.5697890194733688,
                0.08119265563801781
            ]
        },
        {
            "positions": [
                -1.1710664223803435,
                -1.252403086332534,
                0.8620438868271608,
                -1.072043059217851,
                1.5696871944329138,
                -0.048520378232679295
            ]
        },
        {
            "positions": [
                -1.1028872386957604,
                -1.2469590798178751,
                0.9214259129654988,
                -1.0611618568082721,
                1.4941844356249006,
                -0.20986863127918529
            ]
        },
        {
            "positions": [
                -1.0347080550111776,
                -1.2415150733032165,
                0.9808079391038368,
                -1.0502806543986933,
                1.4186816768168875,
                -0.3712168843256913
            ]
        },
        {
            "positions": [
                -0.9665288713265945,
                -1.2360710667885577,
                1.0401899652421749,
                -1.0393994519891145,
                1.3431789180088742,
                -0.5325651373721974
            ]
        },
        {
            "positions": [
                -0.8983496876420114,
                -1.230627060273899,
                1.0995719913805129,
                -1.0285182495795357,
                1.2676761592008612,
                -0.6939133904187033
            ]
        },
        {
            "positions": [
                -0.8301705039574285,
                -1.22518305375924,
                1.1589540175188509,
                -1.017637047169957,
                1.192173400392848,
                -0.8552616434652093
            ]
        },
        {
            "positions": [
                -0.7619913202728454,
                -1.2197390472445815,
                1.2183360436571888,
                -1.0067558447603782,
                1.1166706415848349,
                -1.0166098965117154
            ]
        },
        {
            "positions": [
                -0.6938121365882624,
                -1.2142950407299227,
                1.2777180697955268,
                -0.9958746423507993,
                1.0411678827768216,
                -1.1779581495582212
            ]
        },
        {
            "positions": [
                -0.6256329529036794,
                -1.2088510342152639,
                1.3371000959338648,
                -0.9849934399412205,
                0.9656651239688084,
                -1.3393064026047272
            ]
        },
        {
            "positions": [
                -0.5574537692190964,
                -1.203407027700605,
                1.3964821220722028,
                -0.9741122375316417,
                0.8901623651607953,
                -1.5006546556512332
            ]
        },
        {
            "positions": [
                -0.4892745855345134,
                -1.1979630211859464,
                1.4558641482105408,
                -0.9632310351220629,
                0.8146596063527821,
                -1.6620029086977393
            ]
        },
        {
            "positions": [
                -0.42109540184993033,
                -1.1925190146712876,
                1.515246174348879,
                -0.9523498327124841,
                0.7391568475447688,
                -1.8233511617442455
            ]
        },
        {
            "positions": [
                -0.35291621816534735,
                -1.1870750081566288,
                1.5746282004872167,
                -0.9414686303029053,
                0.6636540887367558,
                -1.9846994147907513
            ]
        },
        {
            "positions": [
                -0.28473703448076426,
                -1.18163100164197,
                1.634010226625555,
                -0.9305874278933264,
                0.5881513299287425,
                -2.1460476678372573
            ]
        },
        {
            "positions": [
                -0.21655785079618128,
                -1.1761869951273114,
                1.693392252763893,
                -0.9197062254837476,
                0.5126485711207294,
                -2.307395920883763
            ]
        },
        {
            "positions": [
                -0.1483786671115983,
                -1.1707429886126526,
                1.752774278902231,
                -0.9088250230741688,
                0.4371458123127161,
                -2.4687441739302693
            ]
        },
        {
            "positions": [
                -0.08019948342701522,
                -1.1652989820979938,
                1.812156305040569,
                -0.89794382066459,
                0.36164305350470305,
                -2.630092426976775
            ]
        },
        {
            "positions": [
                -0.012020299742432128,
                -1.1598549755833352,
                1.871538331178907,
                -0.8870626182550112,
                0.2861402946966898,
                -2.7914406800232814
            ]
        },
        {
            "positions": [
                0.05615888394215074,
                -1.1544109690686764,
                1.930920357317245,
                -0.8761814158454324,
                0.21063753588867673,
                -2.952788933069787
            ]
        },
        {
            "positions": [
                0.1243380676267338,
                -1.1489669625540175,
                1.990302383455583,
                -0.8653002134358536,
                0.13513477708066352,
                -3.1141371861162934
            ]
        }
    ]
}