{
    "goal": {
        "global_pose": {
            "orientation": {
                "w": 0.5084816217422485,
                "x": -0.49083608388900757,
                "y": 0.5182115435600281,
                "z": -0.4816462993621826
            },
            "position": {
                "x": 0.5540239810943604,
                "y": 0.030875300988554955,
                "z": 0.16403168439865112
            }
        },
        "name": "move_to_storage_A"
    },
    "id": "BiEST_move_to_storage_A_95",
    "joint_names": [
        "shoulder_pan_joint",
        "shoulder_lift_joint",
        "elbow_joint",
        "wrist_1_joint",
        "wrist_2_joint",
        "wrist_3_joint"
    ],
    "metrics": {
        "cart_traj_len": 0.3532618746571831,
        "distance_elbow_joint": 0.45314700693290666,
        "distance_shoulder_lift_joint": 0.23570489984740117,
        "distance_shoulder_pan_joint": 0.4625348982729191,
        "distance_wrist_1_joint": 0.2534726783593485,
        "distance_wrist_2_joint": 1.0976378214197404,
        "distance_wrist_3_joint": 0.10730639185904023,
        "smoothness": 4.440892133664971e-16,
        "time": 0.081347167,
        "traj_len": 1.6154886866491376,
        "weighted_distance": 2.043410624467957
    },
    "planner": "BiEST",
    "start": {
        "state": {
            "elbow_joint": 1.9715477243005601,
            "shoulder_lift_joint": -1.1394853015351272,
            "shoulder_pan_joint": 0.12281154014795169,
            "wrist_1_joint": -0.7804696478968182,
            "wrist_2_joint": 0.12958648046900423,
            "wrist_3_joint": -3.192491284697111
        }
    },
    "waypoints": [
        {
            "positions": [
                0.12281154014795169,
                -1.1394853015351272,
                1.9715477243005601,
                -0.7804696478968182,
                0.12958648046900423,
                -3.192491284697111
            ]
        },
        {
            "positions": [
                0.05673512610896325,
                -1.1731574300847558,
                2.036283011005261,
                -0.8166800305195823,
                0.28639188352896716,
                -3.1771618001458197
            ]
        },
        {
            "positions": [
                -0.009341287930025186,
                -1.2068295586343847,
                2.101018297709962,
                -0.8528904131423463,
                0.44319728658893004,
                -3.1618323155945283
            ]
        },
        {
            "positions": [
                -0.07541770196901364,
                -1.2405016871840133,
                2.165753584414663,
                -0.8891007957651104,
                0.600002689648893,
                -3.146502831043237
            ]
        },
        {
            "positions": [
                -0.14149411600800205,
                -1.2741738157336422,
                2.230488871119364,
                -0.9253111783878745,
                0.7568080927088559,
                -3.1311733464919453
            ]
        },
        {
            "positions": [
                -0.2075705300469905,
                -1.3078459442832708,
                2.295224157824065,
                -0.9615215610106385,
                0.9136134957688188,
                -3.115843861940654
            ]
        },
        {
            "positions": [
                -0.27364694408597895,
                -1.3415180728328995,
                2.3599594445287657,
                -0.9977319436334026,
                1.0704188988287817,
                -3.1005143773893624
            ]
        },
        {
            "positions": [
                -0.3397233581249674,
                -1.3751902013825283,
                2.424694731233467,
                -1.0339423262561667,
                1.2272243018887445,
                -3.085184892838071
            ]
        }
    ]
}