{
    "goal": {
        "global_pose": {
            "orientation": {
                "w": 0.7047431468963623,
                "x": -0.7094548344612122,
                "y": 0.0024358443915843964,
                "z": -0.0022348060738295317
            },
            "position": {
                "x": 0.6094750761985779,
                "y": 0.3671506643295288,
                "z": 0.19426114857196808
            }
        },
        "name": "move_to_magneteinheit_A"
    },
    "id": "BiEST_move_to_magneteinheit_A_144",
    "joint_names": [
        "shoulder_pan_joint",
        "shoulder_lift_joint",
        "elbow_joint",
        "wrist_1_joint",
        "wrist_2_joint",
        "wrist_3_joint"
    ],
    "metrics": {
        "cart_traj_len": 3.7115324387638178,
        "distance_elbow_joint": 3.911943846019219,
        "distance_shoulder_lift_joint": 0.4689395200828901,
        "distance_shoulder_pan_joint": 4.168303066723302,
        "distance_wrist_1_joint": 3.455245887128137,
        "distance_wrist_2_joint": 1.4349577391410069,
        "distance_wrist_3_joint": 0.43066529279326327,
        "smoothness": 0.15365190354817998,
        "time": 0.08285182399999999,
        "traj_len": 3.7242523211898266,
        "weighted_distance": 4.429626345838156
    },
    "planner": "BiEST",
    "start": {
        "state": {
            "elbow_joint": -1.919618573717145,
            "shoulder_lift_joint": -1.2443395971678275,
            "shoulder_pan_joint": 2.6996025300909787,
            "wrist_1_joint": -1.548550951253194,
            "wrist_2_joint": -1.5709469090946802,
            "wrist_3_joint": 0.4420197732051276
        }
    },
    "waypoints": [
        {
            "positions": [
                2.6996025300909787,
                -1.2443395971678275,
                -1.919618573717145,
                -1.548550951253194,
                -1.5709469090946802,
                0.4420197732051276
            ]
        },
        {
            "positions": [
                2.5590789382995003,
                -1.226542078248609,
                -1.8494864064583558,
                -1.460097416643967,
                -1.5185582256196475,
                0.4245074278074809
            ]
        },
        {
            "positions": [
                2.418555346508022,
                -1.2087445593293904,
                -1.7793542391995667,
                -1.37164388203474,
                -1.4661695421446148,
                0.40699508240983423
            ]
        },
        {
            "positions": [
                2.278031754716544,
                -1.1909470404101719,
                -1.7092220719407776,
                -1.283190347425513,
                -1.4137808586695821,
                0.38948273701218755
            ]
        },
        {
            "positions": [
                2.1375081629250654,
                -1.1731495214909535,
                -1.6390899046819885,
                -1.1947368128162863,
                -1.3613921751945495,
                0.3719703916145409
            ]
        },
        {
            "positions": [
                1.996984571133587,
                -1.155352002571735,
                -1.5689577374231993,
                -1.1062832782070593,
                -1.3090034917195168,
                0.3544580462168942
            ]
        },
        {
            "positions": [
                1.8564609793421087,
                -1.1375544836525164,
                -1.4988255701644102,
                -1.0178297435978323,
                -1.2566148082444841,
                0.3369457008192475
            ]
        },
        {
            "positions": [
                1.7159373875506303,
                -1.1197569647332979,
                -1.428693402905621,
                -0.9293762089886053,
                -1.2042261247694515,
                0.31943335542160084
            ]
        },
        {
            "positions": [
                1.575413795759152,
                -1.1019594458140793,
                -1.358561235646832,
                -0.8409226743793784,
                -1.1518374412944188,
                0.30192101002395416
            ]
        },
        {
            "positions": [
                1.4348902039676736,
                -1.0841619268948608,
                -1.2884290683880428,
                -0.7524691397701514,
                -1.0994487578193861,
                0.2844086646263075
            ]
        },
        {
            "positions": [
                1.2943666121761954,
                -1.0663644079756422,
                -1.2182969011292537,
                -0.6640156051609244,
                -1.0470600743443534,
                0.2668963192286608
            ]
        },
        {
            "positions": [
                1.1538430203847172,
                -1.0485668890564237,
                -1.1481647338704646,
                -0.5755620705516975,
                -0.9946713908693208,
                0.24938397383101413
            ]
        },
        {
            "positions": [
                1.0133194285932388,
                -1.0307693701372052,
                -1.0780325666116755,
                -0.4871085359424705,
                -0.9422827073942881,
                0.23187162843336745
            ]
        },
        {
            "positions": [
                0.8727958368017605,
                -1.0129718512179868,
                -1.0079003993528866,
                -0.3986550013332437,
                -0.8898940239192554,
                0.2143592830357208
            ]
        },
        {
            "positions": [
                0.7322722450102819,
                -0.9951743322987682,
                -0.9377682320940971,
                -0.3102014667240165,
                -0.8375053404442228,
                0.19684693763807407
            ]
        },
        {
            "positions": [
                0.5917486532188039,
                -0.9773768133795497,
                -0.8676360648353081,
                -0.2217479321147895,
                -0.7851166569691901,
                0.17933459224042742
            ]
        },
        {
            "positions": [
                0.45122506142732544,
                -0.9595792944603312,
                -0.797503897576519,
                -0.1332943975055627,
                -0.7327279734941574,
                0.16182224684278074
            ]
        },
        {
            "positions": [
                0.310701469635847,
                -0.9417817755411126,
                -0.7273717303177298,
                -0.04484086289633549,
                -0.6803392900191247,
                0.14430990144513406
            ]
        },
        {
            "positions": [
                0.17017787784436855,
                -0.9239842566218941,
                -0.6572395630589407,
                0.04361267171289129,
                -0.6279506065440921,
                0.12679755604748738
            ]
        },
        {
            "positions": [
                0.029654286052890555,
                -0.9061867377026757,
                -0.5871073958001516,
                0.13206620632211807,
                -0.5755619230690594,
                0.1092852106498407
            ]
        },
        {
            "positions": [
                -0.11086930573858789,
                -0.8883892187834571,
                -0.5169752285413625,
                0.2205197409313453,
                -0.5231732395940267,
                0.09177286525219402
            ]
        },
        {
            "positions": [
                -0.25139289753006633,
                -0.8705916998642386,
                -0.44684306128257334,
                0.3089732755405721,
                -0.47078455611899406,
                0.07426051985454735
            ]
        },
        {
            "positions": [
                -0.3919164893215443,
                -0.8527941809450201,
                -0.3767108940237842,
                0.3974268101497991,
                -0.4183958726439614,
                0.05674817445690067
            ]
        },
        {
            "positions": [
                -0.5324400811130232,
                -0.8349966620258016,
                -0.3065787267649951,
                0.4858803447590261,
                -0.3660071891689287,
                0.03923582905925399
            ]
        },
        {
            "positions": [
                -0.6729636729045014,
                -0.817199143106583,
                -0.23644655950620597,
                0.5743338793682531,
                -0.3136185056938961,
                0.02172348366160733
            ]
        },
        {
            "positions": [
                -0.6066522675938496,
                -0.8137158876047792,
                -0.05071557352218256,
                0.6853639674104772,
                -0.2988160610488776,
                0.020859400057462094
            ]
        },
        {
            "positions": [
                -0.5403408622831978,
                -0.8102326321029755,
                0.13501541246184084,
                0.7963940554527014,
                -0.2840136164038591,
                0.019995316453316855
            ]
        },
        {
            "positions": [
                -0.47402945697254595,
                -0.8067493766011716,
                0.3207463984458643,
                0.9074241434949255,
                -0.2692111717588406,
                0.01913123284917162
            ]
        },
        {
            "positions": [
                -0.4077180516618942,
                -0.8032661210993678,
                0.5064773844298877,
                1.0184542315371496,
                -0.254408727113822,
                0.018267149245026384
            ]
        },
        {
            "positions": [
                -0.34140664635124235,
                -0.7997828655975641,
                0.6922083704139111,
                1.1294843195793738,
                -0.2396062824688035,
                0.01740306564088115
            ]
        },
        {
            "positions": [
                -0.2750952410405905,
                -0.7962996100957602,
                0.8779393563979345,
                1.240514407621598,
                -0.224803837823785,
                0.016538982036735914
            ]
        },
        {
            "positions": [
                -0.2087838357299387,
                -0.7928163545939564,
                1.063670342381958,
                1.351544495663822,
                -0.21000139317876648,
                0.015674898432590675
            ]
        },
        {
            "positions": [
                -0.14247243041928692,
                -0.7893330990921527,
                1.2494013283659813,
                1.462574583706046,
                -0.19519894853374797,
                0.01481081482844544
            ]
        },
        {
            "positions": [
                -0.0761610251086351,
                -0.7858498435903488,
                1.4351323143500048,
                1.5736046717482701,
                -0.18039650388872944,
                0.013946731224300204
            ]
        },
        {
            "positions": [
                -0.009849619797983267,
                -0.782366588088545,
                1.6208633003340283,
                1.6846347597904943,
                -0.1655940592437109,
                0.013082647620154967
            ]
        },
        {
            "positions": [
                0.05646178551266856,
                -0.7788833325867413,
                1.8065942863180513,
                1.7956648478327184,
                -0.15079161459869242,
                0.012218564016009731
            ]
        },
        {
            "positions": [
                0.12277319082332042,
                -0.7754000770849374,
                1.9923252723020748,
                1.9066949358749425,
                -0.13598916995367388,
                0.011354480411864494
            ]
        }
    ]
}{
    "goal": {
        "global_pose": {
            "orientation": {
                "w": 0.7047431468963623,
                "x": -0.7094548344612122,
                "y": 0.0024358443915843964,
                "z": -0.0022348060738295317
            },
            "position": {
                "x": 0.6094750761985779,
                "y": 0.3671506643295288,
                "z": 0.19426114857196808
            }
        },
        "name": "move_to_magneteinheit_A"
    },
    "id": "BiEST_move_to_magneteinheit_A_144",
    "joint_names": [
        "shoulder_pan_joint",
        "shoulder_lift_joint",
        "elbow_joint",
        "wrist_1_joint",
        "wrist_2_joint",
        "wrist_3_joint"
    ],
    "metrics": {
        "cart_traj_len": 2.1081480338975824,
        "distance_elbow_joint": 2.8101959561600447,
        "distance_shoulder_lift_joint": 0.7512350506625038,
        "distance_shoulder_pan_joint": 1.2404334608989673,
        "distance_wrist_1_joint": 0.7640043065624247,
        "distance_wrist_2_joint": 1.4405546315161124,
        "distance_wrist_3_joint": 4.266380673399935,
        "smoothness": 0.22950360479081408,
        "time": 0.07371567799999999,
        "traj_len": 3.357499676723735,
        "weighted_distance": 4.691494896520553
    },
    "planner": "BiEST",
    "start": {
        "state": {
            "elbow_joint": 1.919643534880228,
            "shoulder_lift_joint": -1.8972525353963687,
            "shoulder_pan_joint": -1.1188672234189438,
            "wrist_1_joint": -1.5931878212786155,
            "wrist_2_joint": 1.5706036197970081,
            "wrist_3_joint": 1.118896926603594
        }
    },
    "waypoints": [
        {
            "positions": [
                -1.1188672234189438,
                -1.8972525353963687,
                1.919643534880228,
                -1.5931878212786155,
                1.5706036197970081,
                1.118896926603594
            ]
        },
        {
            "positions": [
                -1.089526808862941,
                -1.8744964388535181,
                1.8388525879271262,
                -1.5655077504051726,
                1.4996406530052042,
                0.9644315886523529
            ]
        },
        {
            "positions": [
                -1.060186394306938,
                -1.8517403423106675,
                1.7580616409740244,
                -1.5378276795317296,
                1.4286776862134003,
                0.8099662507011118
            ]
        },
        {
            "positions": [
                -1.0308459797509353,
                -1.828984245767817,
                1.6772706940209225,
                -1.5101476086582868,
                1.3577147194215966,
                0.6555009127498708
            ]
        },
        {
            "positions": [
                -1.0015055651949325,
                -1.8062281492249663,
                1.5964797470678207,
                -1.4824675377848437,
                1.2867517526297927,
                0.5010355747986297
            ]
        },
        {
            "positions": [
                -0.9721651506389296,
                -1.7834720526821157,
                1.5156888001147188,
                -1.454787466911401,
                1.2157887858379888,
                0.3465702368473885
            ]
        },
        {
            "positions": [
                -0.9428247360829267,
                -1.7607159561392651,
                1.434897853161617,
                -1.4271073960379579,
                1.1448258190461849,
                0.19210489889614746
            ]
        },
        {
            "positions": [
                -0.9134843215269239,
                -1.7379598595964145,
                1.3541069062085151,
                -1.399427325164515,
                1.073862852254381,
                0.0376395609449065
            ]
        },
        {
            "positions": [
                -0.884143906970921,
                -1.7152037630535641,
                1.2733159592554133,
                -1.371747254291072,
                1.0028998854625772,
                -0.11682577700633456
            ]
        },
        {
            "positions": [
                -0.8548034924149182,
                -1.6924476665107133,
                1.1925250123023114,
                -1.3440671834176292,
                0.9319369186707732,
                -0.27129111495757585
            ]
        },
        {
            "positions": [
                -0.8254630778589154,
                -1.669691569967863,
                1.1117340653492096,
                -1.3163871125441862,
                0.8609739518789693,
                -0.4257564529088169
            ]
        },
        {
            "positions": [
                -0.7961226633029124,
                -1.6469354734250121,
                1.0309431183961077,
                -1.2887070416707433,
                0.7900109850871655,
                -0.580221790860058
            ]
        },
        {
            "positions": [
                -0.7667822487469096,
                -1.6241793768821617,
                0.9501521714430058,
                -1.2610269707973003,
                0.7190480182953616,
                -0.734687128811299
            ]
        },
        {
            "positions": [
                -0.7374418341909068,
                -1.6014232803393111,
                0.869361224489904,
                -1.2333468999238575,
                0.6480850515035578,
                -0.8891524667625401
            ]
        },
        {
            "positions": [
                -0.7081014196349039,
                -1.5786671837964605,
                0.7885702775368022,
                -1.2056668290504144,
                0.5771220847117539,
                -1.043617804713781
            ]
        },
        {
            "positions": [
                -0.678761005078901,
                -1.55591108725361,
                0.7077793305837004,
                -1.1779867581769716,
                0.50615911791995,
                -1.1980831426650222
            ]
        },
        {
            "positions": [
                -0.6494205905228982,
                -1.5331549907107593,
                0.6269883836305985,
                -1.1503066873035288,
                0.43519615112814614,
                -1.352548480616263
            ]
        },
        {
            "positions": [
                -0.6200801759668954,
                -1.5103988941679087,
                0.5461974366774967,
                -1.1226266164300858,
                0.3642331843363422,
                -1.5070138185675042
            ]
        },
        {
            "positions": [
                -0.5582763081796521,
                -1.4800337767150717,
                0.6659265915072727,
                -1.0981730246205945,
                0.344717834665055,
                -1.6437196459199073
            ]
        },
        {
            "positions": [
                -0.4964724403924088,
                -1.4496686592622348,
                0.7856557463370488,
                -1.0737194328111033,
                0.32520248499376786,
                -1.7804254732723102
            ]
        },
        {
            "positions": [
                -0.43466857260516556,
                -1.4193035418093978,
                0.905384901166825,
                -1.049265841001612,
                0.3056871353224807,
                -1.9171313006247133
            ]
        },
        {
            "positions": [
                -0.3728647048179223,
                -1.3889384243565608,
                1.025114055996601,
                -1.0248122491921208,
                0.2861717856511935,
                -2.053837127977116
            ]
        },
        {
            "positions": [
                -0.311060837030679,
                -1.3585733069037238,
                1.1448432108263773,
                -1.0003586573826295,
                0.2666564359799063,
                -2.1905429553295193
            ]
        },
        {
            "positions": [
                -0.2492569692434357,
                -1.3282081894508868,
                1.2645723656561534,
                -0.9759050655731383,
                0.24714108630861914,
                -2.3272487826819224
            ]
        },
        {
            "positions": [
                -0.18745310145619243,
                -1.2978430719980498,
                1.3843015204859297,
                -0.951451473763647,
                0.22762573663733196,
                -2.4639546100343255
            ]
        },
        {
            "positions": [
                -0.1256492336689492,
                -1.2674779545452128,
                1.5040306753157056,
                -0.9269978819541558,
                0.20811038696604478,
                -2.600660437386728
            ]
        },
        {
            "positions": [
                -0.06384536588170586,
                -1.2371128370923758,
                1.6237598301454819,
                -0.9025442901446645,
                0.1885950372947576,
                -2.7373662647391317
            ]
        },
        {
            "positions": [
                -0.002041498094462635,
                -1.2067477196395389,
                1.743488984975258,
                -0.8780906983351733,
                0.16907968762347042,
                -2.8740720920915344
            ]
        },
        {
            "positions": [
                0.05976236969278059,
                -1.1763826021867019,
                1.863218139805034,
                -0.853637106525682,
                0.14956433795218324,
                -3.0107779194439375
            ]
        },
        {
            "positions": [
                0.12156623748002393,
                -1.1460174847338649,
                1.9829472946348101,
                -0.8291835147161908,
                0.13004898828089606,
                -3.1474837467963406
            ]
        }
    ]
}