{
    "goal": {
        "global_pose": {
            "orientation": {
                "w": 0.5084816217422485,
                "x": -0.49083608388900757,
                "y": 0.5182115435600281,
                "z": -0.4816462993621826
            },
            "position": {
                "x": 0.5540239810943604,
                "y": 0.030875300988554955,
                "z": 0.16403168439865112
            }
        },
        "name": "move_to_storage_A"
    },
    "id": "BiEST_move_to_storage_A_9",
    "joint_names": [
        "shoulder_pan_joint",
        "shoulder_lift_joint",
        "elbow_joint",
        "wrist_1_joint",
        "wrist_2_joint",
        "wrist_3_joint"
    ],
    "metrics": {
        "cart_traj_len": 0.3523356526112532,
        "distance_elbow_joint": 0.45167846908353226,
        "distance_shoulder_lift_joint": 0.23404514937557308,
        "distance_shoulder_pan_joint": 0.45767525175405355,
        "distance_wrist_1_joint": 0.25371104338551376,
        "distance_wrist_2_joint": 1.110299435567382,
        "distance_wrist_3_joint": 0.108206735232105,
        "smoothness": 4.440892098500626e-16,
        "time": 0.043259308999999996,
        "traj_len": 1.6172866426203365,
        "weighted_distance": 2.0484237925329967
    },
    "planner": "BiEST",
    "start": {
        "state": {
            "elbow_joint": 1.9715477243005601,
            "shoulder_lift_joint": -1.1394853015351272,
            "shoulder_pan_joint": 0.12281154014795169,
            "wrist_1_joint": -0.7804696478968182,
            "wrist_2_joint": 0.12958648046900423,
            "wrist_3_joint": -3.192491284697111
        }
    },
    "waypoints": [
        {
            "positions": [
                0.12281154014795169,
                -1.1394853015351272,
                1.9715477243005601,
                -0.7804696478968182,
                0.12958648046900423,
                -3.192491284697111
            ]
        },
        {
            "positions": [
                0.05742936132594405,
                -1.1729203228744947,
                2.0360732198839218,
                -0.8167140826661773,
                0.28820068555005884,
                -3.1770331796639533
            ]
        },
        {
            "positions": [
                -0.007952817496063594,
                -1.2063553442138624,
                2.100598715467284,
                -0.8529585174355364,
                0.4468148906311134,
                -3.1615750746307953
            ]
        },
        {
            "positions": [
                -0.07333499631807124,
                -1.2397903655532299,
                2.1651242110506455,
                -0.8892029522048954,
                0.605429095712168,
                -3.1461169695976374
            ]
        },
        {
            "positions": [
                -0.13871717514007886,
                -1.2732253868925976,
                2.229649706634007,
                -0.9254473869742545,
                0.7640433007932226,
                -3.13065886456448
            ]
        },
        {
            "positions": [
                -0.20409935396208656,
                -1.306660408231965,
                2.294175202217369,
                -0.9616918217436137,
                0.9226575058742772,
                -3.115200759531322
            ]
        },
        {
            "positions": [
                -0.26948153278409415,
                -1.3400954295713325,
                2.3587006978007308,
                -0.9979362565129728,
                1.0812717109553316,
                -3.099742654498164
            ]
        },
        {
            "positions": [
                -0.33486371160610184,
                -1.3735304509107003,
                2.4232261933840924,
                -1.034180691282332,
                1.2398859160363864,
                -3.084284549465006
            ]
        }
    ]
}