{
    "goal": {
        "global_pose": {
            "orientation": {
                "w": 0.7047431468963623,
                "x": -0.7094548344612122,
                "y": 0.0024358443915843964,
                "z": -0.0022348060738295317
            },
            "position": {
                "x": 0.6094750761985779,
                "y": 0.3671506643295288,
                "z": 0.19426114857196808
            }
        },
        "name": "move_to_magneteinheit_A"
    },
    "id": "BiEST_move_to_magneteinheit_A_59",
    "joint_names": [
        "shoulder_pan_joint",
        "shoulder_lift_joint",
        "elbow_joint",
        "wrist_1_joint",
        "wrist_2_joint",
        "wrist_3_joint"
    ],
    "metrics": {
        "cart_traj_len": 3.748852579250931,
        "distance_elbow_joint": 3.9052261246225672,
        "distance_shoulder_lift_joint": 1.6347135521310336,
        "distance_shoulder_pan_joint": 5.305639189181183,
        "distance_wrist_1_joint": 0.7062604534063758,
        "distance_wrist_2_joint": 1.7099598981276705,
        "distance_wrist_3_joint": 3.5779683039766144,
        "smoothness": 0.19526742606650294,
        "time": 0.09022297,
        "traj_len": 4.1036285798601995,
        "weighted_distance": 5.139253299938885
    },
    "planner": "BiEST",
    "start": {
        "state": {
            "elbow_joint": -1.919618573717145,
            "shoulder_lift_joint": -1.2443395971678275,
            "shoulder_pan_joint": 2.6996025300909787,
            "wrist_1_joint": -1.548550951253194,
            "wrist_2_joint": -1.5709469090946802,
            "wrist_3_joint": 0.4420197732051276
        }
    },
    "waypoints": [
        {
            "positions": [
                2.6996025300909787,
                -1.2443395971678275,
                -1.919618573717145,
                -1.548550951253194,
                -1.5709469090946802,
                0.4420197732051276
            ]
        },
        {
            "positions": [
                2.535381697835994,
                -1.276379505450205,
                -1.7931991463312151,
                -1.5375772785347268,
                -1.5252401461798206,
                0.4348483936980483
            ]
        },
        {
            "positions": [
                2.3711608655810092,
                -1.3084194137325826,
                -1.666779718945285,
                -1.5266036058162595,
                -1.479533383264961,
                0.427677014190969
            ]
        },
        {
            "positions": [
                2.206940033326025,
                -1.34045932201496,
                -1.540360291559355,
                -1.5156299330977923,
                -1.4338266203501018,
                0.4205056346838897
            ]
        },
        {
            "positions": [
                2.04271920107104,
                -1.3724992302973376,
                -1.4139408641734252,
                -1.504656260379325,
                -1.3881198574352422,
                0.41333425517681033
            ]
        },
        {
            "positions": [
                1.8784983688160555,
                -1.404539138579715,
                -1.2875214367874954,
                -1.4936825876608577,
                -1.3424130945203827,
                0.406162875669731
            ]
        },
        {
            "positions": [
                1.7142775365610707,
                -1.4365790468620927,
                -1.1611020094015654,
                -1.4827089149423904,
                -1.2967063316055232,
                0.3989914961626517
            ]
        },
        {
            "positions": [
                1.5500567043060862,
                -1.4686189551444702,
                -1.0346825820156353,
                -1.471735242223923,
                -1.2509995686906636,
                0.3918201166555724
            ]
        },
        {
            "positions": [
                1.3858358720511017,
                -1.5006588634268476,
                -0.9082631546297055,
                -1.4607615695054557,
                -1.2052928057758043,
                0.3846487371484931
            ]
        },
        {
            "positions": [
                1.221615039796117,
                -1.5326987717092253,
                -0.7818437272437755,
                -1.4497878967869884,
                -1.1595860428609446,
                0.3774773576414138
            ]
        },
        {
            "positions": [
                1.0573942075411322,
                -1.5647386799916028,
                -0.6554242998578457,
                -1.438814224068521,
                -1.1138792799460853,
                0.3703059781343345
            ]
        },
        {
            "positions": [
                0.8931733752861477,
                -1.5967785882739802,
                -0.5290048724719159,
                -1.4278405513500538,
                -1.0681725170312257,
                0.3631345986272552
            ]
        },
        {
            "positions": [
                0.728952543031163,
                -1.6288184965563577,
                -0.4025854450859858,
                -1.4168668786315866,
                -1.0224657541163662,
                0.3559632191201759
            ]
        },
        {
            "positions": [
                0.5647317107761785,
                -1.6608584048387354,
                -0.276166017700056,
                -1.4058932059131193,
                -0.9767589912015068,
                0.34879183961309657
            ]
        },
        {
            "positions": [
                0.4005108785211937,
                -1.6928983131211128,
                -0.14974659031412574,
                -1.394919533194652,
                -0.9310522282866471,
                0.34162046010601727
            ]
        },
        {
            "positions": [
                0.23629004626620898,
                -1.7249382214034905,
                -0.023327162928196143,
                -1.3839458604761847,
                -0.8853454653717877,
                0.33444908059893796
            ]
        },
        {
            "positions": [
                0.07206921401122468,
                -1.756978129685868,
                0.1030922644577339,
                -1.3729721877577175,
                -0.8396387024569283,
                0.32727770109185866
            ]
        },
        {
            "positions": [
                -0.0921516182437605,
                -1.7890180379682454,
                0.22951169184366393,
                -1.3619985150392502,
                -0.7939319395420686,
                0.32010632158477936
            ]
        },
        {
            "positions": [
                -0.2563724504987448,
                -1.821057946250623,
                0.355931119229594,
                -1.3510248423207827,
                -0.7482251766272092,
                0.31293494207770006
            ]
        },
        {
            "positions": [
                -0.42059328275372954,
                -1.8530978545330004,
                0.48235054661552357,
                -1.3400511696023156,
                -0.7025184137123498,
                0.30576356257062076
            ]
        },
        {
            "positions": [
                -0.5848141150087143,
                -1.885137762815378,
                0.6087699740014536,
                -1.3290774968838481,
                -0.6568116507974902,
                0.2985921830635414
            ]
        },
        {
            "positions": [
                -0.749034947263699,
                -1.9171776710977555,
                0.7351894013873836,
                -1.3181038241653809,
                -0.6111048878826307,
                0.29142080355646216
            ]
        },
        {
            "positions": [
                -0.9132557795186833,
                -1.9492175793801332,
                0.8616088287733132,
                -1.3071301514469136,
                -0.5653981249677713,
                0.2842494240493828
            ]
        },
        {
            "positions": [
                -1.0774766117736685,
                -1.9812574876625106,
                0.9880282561592437,
                -1.2961564787284463,
                -0.5196913620529118,
                0.2770780445423035
            ]
        },
        {
            "positions": [
                -1.2416974440286528,
                -2.013297395944888,
                1.114447683545173,
                -1.285182806009979,
                -0.47398459913805224,
                0.2699066650352242
            ]
        },
        {
            "positions": [
                -1.1734804832755754,
                -1.9700096082771894,
                1.1580056769131855,
                -1.263038190601821,
                -0.4433347197295001,
                0.09961390524488864
            ]
        },
        {
            "positions": [
                -1.1052635225224978,
                -1.9267218206094907,
                1.2015636702811978,
                -1.240893575193663,
                -0.412684840320948,
                -0.07067885454544692
            ]
        },
        {
            "positions": [
                -1.0370465617694204,
                -1.8834340329417922,
                1.2451216636492102,
                -1.218748959785505,
                -0.3820349609123959,
                -0.2409716143357824
            ]
        },
        {
            "positions": [
                -0.968829601016343,
                -1.8401462452740935,
                1.2886796570172225,
                -1.1966043443773469,
                -0.3513850815038438,
                -0.41126437412611805
            ]
        },
        {
            "positions": [
                -0.9006126402632655,
                -1.7968584576063948,
                1.3322376503852347,
                -1.174459728969189,
                -0.32073520209529166,
                -0.5815571339164536
            ]
        },
        {
            "positions": [
                -0.8323956795101881,
                -1.7535706699386961,
                1.375795643753247,
                -1.1523151135610308,
                -0.2900853226867396,
                -0.751849893706789
            ]
        },
        {
            "positions": [
                -0.7641787187571107,
                -1.7102828822709975,
                1.4193536371212594,
                -1.1301704981528728,
                -0.25943544327818746,
                -0.9221426534971247
            ]
        },
        {
            "positions": [
                -0.6959617580040331,
                -1.666995094603299,
                1.4629116304892718,
                -1.1080258827447147,
                -0.2287855638696353,
                -1.0924354132874603
            ]
        },
        {
            "positions": [
                -0.6277447972509558,
                -1.6237073069356003,
                1.5064696238572841,
                -1.0858812673365568,
                -0.1981356844610832,
                -1.262728173077796
            ]
        },
        {
            "positions": [
                -0.5595278364978783,
                -1.5804195192679016,
                1.5500276172252965,
                -1.0637366519283986,
                -0.16748580505253108,
                -1.4330209328681314
            ]
        },
        {
            "positions": [
                -0.4913108757448008,
                -1.5371317316002029,
                1.5935856105933088,
                -1.0415920365202407,
                -0.13683592564397895,
                -1.603313692658467
            ]
        },
        {
            "positions": [
                -0.42309391499172344,
                -1.4938439439325042,
                1.637143603961321,
                -1.0194474211120825,
                -0.10618604623542688,
                -1.7736064524488022
            ]
        },
        {
            "positions": [
                -0.35487695423864596,
                -1.4505561562648057,
                1.6807015973293336,
                -0.9973028057039246,
                -0.0755361668268747,
                -1.943899212239138
            ]
        },
        {
            "positions": [
                -0.2866599934855686,
                -1.407268368597107,
                1.7242595906973457,
                -0.9751581902957666,
                -0.044886287418322623,
                -2.1141919720294737
            ]
        },
        {
            "positions": [
                -0.2184430327324911,
                -1.3639805809294083,
                1.7678175840653583,
                -0.9530135748876085,
                -0.014236408009770496,
                -2.284484731819809
            ]
        },
        {
            "positions": [
                -0.1502260719794135,
                -1.3206927932617096,
                1.8113755774333704,
                -0.9308689594794504,
                0.01641347139878163,
                -2.4547774916101446
            ]
        },
        {
            "positions": [
                -0.08200911122633614,
                -1.277405005594011,
                1.8549335708013828,
                -0.9087243440712924,
                0.047063350807333704,
                -2.62507025140048
            ]
        },
        {
            "positions": [
                -0.013792150473258769,
                -1.2341172179263125,
                1.8984915641693951,
                -0.8865797286631344,
                0.07771323021588583,
                -2.7953630111908163
            ]
        },
        {
            "positions": [
                0.0544248102798186,
                -1.1908294302586138,
                1.9420495575374075,
                -0.8644351132549764,
                0.10836310962443796,
                -2.965655770981151
            ]
        },
        {
            "positions": [
                0.1226417710328963,
                -1.147541642590915,
                1.9856075509054198,
                -0.8422904978468183,
                0.13901298903299011,
                -3.1359485307714867
            ]
        }
    ]
}{
    "goal": {
        "global_pose": {
            "orientation": {
                "w": 0.7047431468963623,
                "x": -0.7094548344612122,
                "y": 0.0024358443915843964,
                "z": -0.0022348060738295317
            },
            "position": {
                "x": 0.6094750761985779,
                "y": 0.3671506643295288,
                "z": 0.19426114857196808
            }
        },
        "name": "move_to_magneteinheit_A"
    },
    "id": "BiEST_move_to_magneteinheit_A_59",
    "joint_names": [
        "shoulder_pan_joint",
        "shoulder_lift_joint",
        "elbow_joint",
        "wrist_1_joint",
        "wrist_2_joint",
        "wrist_3_joint"
    ],
    "metrics": {
        "cart_traj_len": 1.1699908571505306,
        "distance_elbow_joint": 0.5783581229167964,
        "distance_shoulder_lift_joint": 0.7551028272675664,
        "distance_shoulder_pan_joint": 1.241842457699283,
        "distance_wrist_1_joint": 0.7928703831744262,
        "distance_wrist_2_joint": 1.4350715272897419,
        "distance_wrist_3_joint": 4.286832294499238,
        "smoothness": 0.0589123599070016,
        "time": 0.081492732,
        "traj_len": 3.0149755575870016,
        "weighted_distance": 4.460009429621164
    },
    "planner": "BiEST",
    "start": {
        "state": {
            "elbow_joint": 1.919643534880228,
            "shoulder_lift_joint": -1.8972525353963687,
            "shoulder_pan_joint": -1.1188672234189438,
            "wrist_1_joint": -1.5931878212786155,
            "wrist_2_joint": 1.5706036197970081,
            "wrist_3_joint": 1.118896926603594
        }
    },
    "waypoints": [
        {
            "positions": [
                -1.1188672234189438,
                -1.8972525353963687,
                1.919643534880228,
                -1.5931878212786155,
                1.5706036197970081,
                1.118896926603594
            ]
        },
        {
            "positions": [
                -1.0550461457131524,
                -1.8596743844939507,
                1.9549414631337634,
                -1.5192092688525811,
                1.482552364464788,
                1.0293896284683415
            ]
        },
        {
            "positions": [
                -0.9912250680073609,
                -1.8220962335915327,
                1.9902393913872989,
                -1.445230716426547,
                1.3945011091325679,
                0.9398823303330888
            ]
        },
        {
            "positions": [
                -0.9274039903015694,
                -1.7845180826891147,
                2.025537319640834,
                -1.3712521640005126,
                1.3064498538003477,
                0.8503750321978363
            ]
        },
        {
            "positions": [
                -0.8635829125957778,
                -1.7469399317866967,
                2.0608352478943694,
                -1.2972736115744785,
                1.2183985984681276,
                0.7608677340625836
            ]
        },
        {
            "positions": [
                -0.7997618348899863,
                -1.7093617808842785,
                2.0961331761479047,
                -1.2232950591484442,
                1.1303473431359075,
                0.6713604359273311
            ]
        },
        {
            "positions": [
                -0.7359407571841948,
                -1.6717836299818605,
                2.1314311044014405,
                -1.14931650672241,
                1.0422960878036873,
                0.5818531377920785
            ]
        },
        {
            "positions": [
                -0.6721196794784032,
                -1.6342054790794425,
                2.1667290326549757,
                -1.0753379542963757,
                0.9542448324714671,
                0.4923458396568259
            ]
        },
        {
            "positions": [
                -0.6082986017726117,
                -1.5966273281770245,
                2.202026960908511,
                -1.0013594018703413,
                0.8661935771392469,
                0.4028385415215733
            ]
        },
        {
            "positions": [
                -0.5444775240668203,
                -1.5590491772746065,
                2.2373248891620463,
                -0.9273808494443072,
                0.7781423218070268,
                0.3133312433863207
            ]
        },
        {
            "positions": [
                -0.499980673510343,
                -1.531255879331553,
                2.2199464379197145,
                -0.918909955354966,
                0.7353016398537094,
                0.08124680263418968
            ]
        },
        {
            "positions": [
                -0.4554838229538657,
                -1.5034625813884992,
                2.2025679866773826,
                -0.9104390612656248,
                0.6924609579003921,
                -0.15083763811794132
            ]
        },
        {
            "positions": [
                -0.41098697239738835,
                -1.4756692834454457,
                2.185189535435051,
                -0.9019681671762836,
                0.6496202759470747,
                -0.38292207887007246
            ]
        },
        {
            "positions": [
                -0.3664901218409111,
                -1.447875985502392,
                2.167811084192719,
                -0.8934972730869425,
                0.6067795939937574,
                -0.6150065196222033
            ]
        },
        {
            "positions": [
                -0.32199327128443384,
                -1.4200826875593384,
                2.1504326329503867,
                -0.8850263789976013,
                0.56393891204044,
                -0.8470909603743344
            ]
        },
        {
            "positions": [
                -0.2774964207279565,
                -1.392289389616285,
                2.133054181708055,
                -0.8765554849082601,
                0.5210982300871226,
                -1.0791754011264656
            ]
        },
        {
            "positions": [
                -0.2329995701714792,
                -1.3644960916732312,
                2.115675730465723,
                -0.8680845908189189,
                0.4782575481338053,
                -1.3112598418785966
            ]
        },
        {
            "positions": [
                -0.18850271961500198,
                -1.3367027937301776,
                2.098297279223391,
                -0.8596136967295777,
                0.4354168661804879,
                -1.5433442826307273
            ]
        },
        {
            "positions": [
                -0.1440058690585247,
                -1.3089094957871241,
                2.0809188279810593,
                -0.8511428026402365,
                0.39257618422717055,
                -1.7754287233828583
            ]
        },
        {
            "positions": [
                -0.09950901850204741,
                -1.2811161978440704,
                2.0635403767387275,
                -0.8426719085508952,
                0.3497355022738532,
                -2.0075131641349895
            ]
        },
        {
            "positions": [
                -0.05501216794557012,
                -1.2533228999010169,
                2.0461619254963956,
                -0.8342010144615541,
                0.3068948203205359,
                -2.2395976048871202
            ]
        },
        {
            "positions": [
                -0.010515317389092727,
                -1.2255296019579631,
                2.028783474254064,
                -0.8257301203722129,
                0.26405413836721847,
                -2.471682045639252
            ]
        },
        {
            "positions": [
                0.0339815331673845,
                -1.1977363040149096,
                2.011405023011732,
                -0.8172592262828717,
                0.2212134564139011,
                -2.7037664863913826
            ]
        },
        {
            "positions": [
                0.07847838372386184,
                -1.1699430060718559,
                1.9940265717694,
                -0.8087883321935305,
                0.17837277446058375,
                -2.935850927143514
            ]
        },
        {
            "positions": [
                0.1229752342803391,
                -1.1421497081288023,
                1.976648120527068,
                -0.8003174381041893,
                0.13553209250726642,
                -3.1679353678956446
            ]
        }
    ]
}