{
    "goal": {
        "global_pose": {
            "orientation": {
                "w": 0.7047431468963623,
                "x": -0.7094548344612122,
                "y": 0.0024358443915843964,
                "z": -0.0022348060738295317
            },
            "position": {
                "x": 0.6094750761985779,
                "y": 0.3671506643295288,
                "z": 0.19426114857196808
            }
        },
        "name": "move_to_magneteinheit_A"
    },
    "id": "BiEST_move_to_magneteinheit_A_88",
    "joint_names": [
        "shoulder_pan_joint",
        "shoulder_lift_joint",
        "elbow_joint",
        "wrist_1_joint",
        "wrist_2_joint",
        "wrist_3_joint"
    ],
    "metrics": {
        "cart_traj_len": 3.183571744694071,
        "distance_elbow_joint": 3.872087356113914,
        "distance_shoulder_lift_joint": 0.3128704043197117,
        "distance_shoulder_pan_joint": 2.9842271918046106,
        "distance_wrist_1_joint": 2.254830024084323,
        "distance_wrist_2_joint": 1.6948424608450978,
        "distance_wrist_3_joint": 3.7183131797561972,
        "smoothness": 0.17126978940338405,
        "time": 0.090783501,
        "traj_len": 3.8519048037203434,
        "weighted_distance": 5.120885612993682
    },
    "planner": "BiEST",
    "start": {
        "state": {
            "elbow_joint": -1.919618573717145,
            "shoulder_lift_joint": -1.2443395971678275,
            "shoulder_pan_joint": 2.6996025300909787,
            "wrist_1_joint": -1.548550951253194,
            "wrist_2_joint": -1.5709469090946802,
            "wrist_3_joint": 0.4420197732051276
        }
    },
    "waypoints": [
        {
            "positions": [
                2.6996025300909787,
                -1.2443395971678275,
                -1.919618573717145,
                -1.548550951253194,
                -1.5709469090946802,
                0.4420197732051276
            ]
        },
        {
            "positions": [
                2.6037148319759305,
                -1.2477349159282296,
                -1.80571859851092,
                -1.494885088748975,
                -1.5344115367862257,
                0.3539140837622463
            ]
        },
        {
            "positions": [
                2.5078271338608817,
                -1.2511302346886317,
                -1.691818623304695,
                -1.4412192262447563,
                -1.497876164477771,
                0.265808394319365
            ]
        },
        {
            "positions": [
                2.4119394357458335,
                -1.2545255534490338,
                -1.5779186480984702,
                -1.3875533637405373,
                -1.4613407921693164,
                0.17770270487648365
            ]
        },
        {
            "positions": [
                2.3160517376307848,
                -1.257920872209436,
                -1.4640186728922453,
                -1.3338875012363183,
                -1.424805419860862,
                0.08959701543360238
            ]
        },
        {
            "positions": [
                2.220164039515736,
                -1.261316190969838,
                -1.3501186976860202,
                -1.2802216387320993,
                -1.3882700475524075,
                0.0014913259907210485
            ]
        },
        {
            "positions": [
                2.1242763414006878,
                -1.2647115097302402,
                -1.2362187224797954,
                -1.2265557762278805,
                -1.3517346752439527,
                -0.08661436345216028
            ]
        },
        {
            "positions": [
                2.0283886432856395,
                -1.2681068284906423,
                -1.1223187472735705,
                -1.1728899137236615,
                -1.3151993029354982,
                -0.1747200528950416
            ]
        },
        {
            "positions": [
                1.9325009451705908,
                -1.2715021472510442,
                -1.0084187720673454,
                -1.1192240512194425,
                -1.2786639306270438,
                -0.26282574233792283
            ]
        },
        {
            "positions": [
                1.8366132470555423,
                -1.2748974660114463,
                -0.8945187968611206,
                -1.0655581887152237,
                -1.2421285583185893,
                -0.35093143178080416
            ]
        },
        {
            "positions": [
                1.7407255489404938,
                -1.2782927847718484,
                -0.7806188216548957,
                -1.0118923262110047,
                -1.2055931860101345,
                -0.4390371212236855
            ]
        },
        {
            "positions": [
                1.6448378508254455,
                -1.2816881035322505,
                -0.6667188464486709,
                -0.9582264637067858,
                -1.16905781370168,
                -0.5271428106665668
            ]
        },
        {
            "positions": [
                1.5489501527103968,
                -1.2850834222926526,
                -0.5528188712424458,
                -0.9045606012025669,
                -1.1325224413932256,
                -0.6152485001094481
            ]
        },
        {
            "positions": [
                1.4530624545953483,
                -1.2884787410530547,
                -0.4389188960362209,
                -0.8508947386983479,
                -1.0959870690847708,
                -0.7033541895523294
            ]
        },
        {
            "positions": [
                1.3571747564802998,
                -1.2918740598134568,
                -0.32501892082999584,
                -0.7972288761941289,
                -1.0594516967763163,
                -0.7914598789952108
            ]
        },
        {
            "positions": [
                1.2612870583652513,
                -1.295269378573859,
                -0.21111894562377098,
                -0.74356301368991,
                -1.0229163244678618,
                -0.8795655684380921
            ]
        },
        {
            "positions": [
                1.165399360250203,
                -1.298664697334261,
                -0.09721897041754612,
                -0.6898971511856911,
                -0.9863809521594072,
                -0.9676712578809732
            ]
        },
        {
            "positions": [
                1.0695116621351546,
                -1.3020600160946632,
                0.016681004788678733,
                -0.6362312886814722,
                -0.9498455798509527,
                -1.0557769473238545
            ]
        },
        {
            "positions": [
                0.9736239640201059,
                -1.3054553348550653,
                0.1305809799949038,
                -0.5825654261772532,
                -0.9133102075424981,
                -1.1438826367667358
            ]
        },
        {
            "positions": [
                0.8777362659050576,
                -1.3088506536154674,
                0.24448095520112845,
                -0.5288995636730343,
                -0.8767748352340436,
                -1.2319883262096172
            ]
        },
        {
            "positions": [
                0.7818485677900089,
                -1.3122459723758695,
                0.3583809304073535,
                -0.47523370116881525,
                -0.840239462925589,
                -1.3200940156524985
            ]
        },
        {
            "positions": [
                0.6859608696749606,
                -1.3156412911362716,
                0.4722809056135786,
                -0.42156783866459624,
                -0.8037040906171344,
                -1.4081997050953798
            ]
        },
        {
            "positions": [
                0.5900731715599123,
                -1.3190366098966735,
                0.5861808808198032,
                -0.36790197616037745,
                -0.7671687183086799,
                -1.496305394538261
            ]
        },
        {
            "positions": [
                0.49418547344486363,
                -1.3224319286570756,
                0.7000808560260283,
                -0.31423611365615844,
                -0.7306333460002253,
                -1.5844110839811423
            ]
        },
        {
            "positions": [
                0.3982977753298149,
                -1.3258272474174777,
                0.8139808312322534,
                -0.26057025115193966,
                -0.6940979736917708,
                -1.6725167734240238
            ]
        },
        {
            "positions": [
                0.30241007721476665,
                -1.3292225661778798,
                0.927880806438478,
                -0.20690438864772065,
                -0.6575626013833163,
                -1.760622462866905
            ]
        },
        {
            "positions": [
                0.20652237909971793,
                -1.332617884938282,
                1.0417807816447031,
                -0.15323852614350164,
                -0.6210272290748617,
                -1.8487281523097865
            ]
        },
        {
            "positions": [
                0.11063468098466966,
                -1.336013203698684,
                1.1556807568509277,
                -0.09957266363928285,
                -0.5844918567664071,
                -1.9368338417526676
            ]
        },
        {
            "positions": [
                0.01474698286962095,
                -1.3394085224590861,
                1.2695807320571533,
                -0.045906801135063624,
                -0.5479564844579525,
                -2.024939531195549
            ]
        },
        {
            "positions": [
                -0.08114071524542715,
                -1.3428038412194883,
                1.3834807072633781,
                0.0077590613691552665,
                -0.5114211121494981,
                -2.1130452206384303
            ]
        },
        {
            "positions": [
                -0.059434621540045286,
                -1.3200729134026143,
                1.444342991158666,
                -0.06754982745187857,
                -0.4434454451286974,
                -2.2362183164572773
            ]
        },
        {
            "positions": [
                -0.03772852783466342,
                -1.2973419855857404,
                1.5052052750539537,
                -0.14285871627291238,
                -0.3754697781078966,
                -2.3593914122761244
            ]
        },
        {
            "positions": [
                -0.016022434129281546,
                -1.2746110577688665,
                1.5660675589492414,
                -0.21816760509394623,
                -0.3074941110870958,
                -2.4825645080949714
            ]
        },
        {
            "positions": [
                0.005683659576100314,
                -1.2518801299519926,
                1.6269298428445294,
                -0.29347649391498004,
                -0.23951844406629508,
                -2.6057376039138185
            ]
        },
        {
            "positions": [
                0.0273897532814822,
                -1.2291492021351187,
                1.6877921267398173,
                -0.3687853827360139,
                -0.17154277704549425,
                -2.7289106997326655
            ]
        },
        {
            "positions": [
                0.04909584698686406,
                -1.2064182743182448,
                1.748654410635105,
                -0.4440942715570477,
                -0.10356711002469349,
                -2.8520837955515126
            ]
        },
        {
            "positions": [
                0.06740769304584276,
                -1.1869131259765429,
                1.7996080035755209,
                -0.5057609411909902,
                -0.04670144458091571,
                -2.9581361983014016
            ]
        },
        {
            "positions": [
                0.08571953910482148,
                -1.167407977634841,
                1.850561596515937,
                -0.5674276108249328,
                0.010164220862862061,
                -3.064188601051291
            ]
        },
        {
            "positions": [
                0.1040313851638002,
                -1.1479028292931392,
                1.901515189456353,
                -0.6290942804588754,
                0.06702988630663984,
                -3.1702410038011806
            ]
        },
        {
            "positions": [
                0.1223432312227789,
                -1.1283976809514373,
                1.9524687823967688,
                -0.6907609500928179,
                0.12389555175041762,
                -3.2762934065510696
            ]
        }
    ]
}{
    "goal": {
        "global_pose": {
            "orientation": {
                "w": 0.7047431468963623,
                "x": -0.7094548344612122,
                "y": 0.0024358443915843964,
                "z": -0.0022348060738295317
            },
            "position": {
                "x": 0.6094750761985779,
                "y": 0.3671506643295288,
                "z": 0.19426114857196808
            }
        },
        "name": "move_to_magneteinheit_A"
    },
    "id": "BiEST_move_to_magneteinheit_A_88",
    "joint_names": [
        "shoulder_pan_joint",
        "shoulder_lift_joint",
        "elbow_joint",
        "wrist_1_joint",
        "wrist_2_joint",
        "wrist_3_joint"
    ],
    "metrics": {
        "cart_traj_len": 1.818583954298784,
        "distance_elbow_joint": 2.1553860438241923,
        "distance_shoulder_lift_joint": 0.7492971898515717,
        "distance_shoulder_pan_joint": 1.2427112378438234,
        "distance_wrist_1_joint": 1.0274306857283673,
        "distance_wrist_2_joint": 1.4330878200426325,
        "distance_wrist_3_joint": 4.245548650554735,
        "smoothness": 0.2194448623869305,
        "time": 0.091715348,
        "traj_len": 3.294459231474161,
        "weighted_distance": 4.669590713834113
    },
    "planner": "BiEST",
    "start": {
        "state": {
            "elbow_joint": 1.919643534880228,
            "shoulder_lift_joint": -1.8972525353963687,
            "shoulder_pan_joint": -1.1188672234189438,
            "wrist_1_joint": -1.5931878212786155,
            "wrist_2_joint": 1.5706036197970081,
            "wrist_3_joint": 1.118896926603594
        }
    },
    "waypoints": [
        {
            "positions": [
                -1.1188672234189438,
                -1.8972525353963687,
                1.919643534880228,
                -1.5931878212786155,
                1.5706036197970081,
                1.118896926603594
            ]
        },
        {
            "positions": [
                -1.094266402807209,
                -1.8672158187328158,
                1.8544519611079409,
                -1.6024171151302455,
                1.5034206080281254,
                0.9422108461403446
            ]
        },
        {
            "positions": [
                -1.0696655821954746,
                -1.8371791020692632,
                1.7892603873356536,
                -1.6116464089818756,
                1.4362375962592429,
                0.7655247656770952
            ]
        },
        {
            "positions": [
                -1.0450647615837398,
                -1.8071423854057103,
                1.7240688135633664,
                -1.6208757028335055,
                1.36905458449036,
                0.5888386852138459
            ]
        },
        {
            "positions": [
                -1.020463940972005,
                -1.7771056687421576,
                1.6588772397910792,
                -1.6301049966851355,
                1.3018715727214776,
                0.41215260475059645
            ]
        },
        {
            "positions": [
                -0.9958631203602705,
                -1.7470689520786047,
                1.593685666018792,
                -1.6393342905367656,
                1.2346885609525948,
                0.23546652428734705
            ]
        },
        {
            "positions": [
                -0.9712622997485358,
                -1.717032235415052,
                1.528494092246505,
                -1.6485635843883957,
                1.167505549183712,
                0.05878044382409775
            ]
        },
        {
            "positions": [
                -0.9466614791368011,
                -1.6869955187514991,
                1.4633025184742174,
                -1.6577928782400257,
                1.1003225374148295,
                -0.11790563663915177
            ]
        },
        {
            "positions": [
                -0.9220606585250665,
                -1.6569588020879462,
                1.3981109447019304,
                -1.6670221720916558,
                1.033139525645947,
                -0.29459171710240106
            ]
        },
        {
            "positions": [
                -0.8974598379133318,
                -1.6269220854243935,
                1.332919370929643,
                -1.6762514659432857,
                0.9659565138770643,
                -0.47127779756565036
            ]
        },
        {
            "positions": [
                -0.8728590173015971,
                -1.5968853687608409,
                1.267727797157356,
                -1.6854807597949157,
                0.8987735021081816,
                -0.6479638780288999
            ]
        },
        {
            "positions": [
                -0.8482581966898625,
                -1.566848652097288,
                1.2025362233850685,
                -1.6947100536465458,
                0.831590490339299,
                -0.8246499584921492
            ]
        },
        {
            "positions": [
                -0.8236573760781278,
                -1.536811935433735,
                1.1373446496127815,
                -1.7039393474981759,
                0.7644074785704162,
                -1.0013360389553985
            ]
        },
        {
            "positions": [
                -0.7990565554663931,
                -1.5067752187701824,
                1.0721530758404942,
                -1.713168641349806,
                0.6972244668015336,
                -1.178022119418648
            ]
        },
        {
            "positions": [
                -0.7744557348546585,
                -1.4767385021066295,
                1.006961502068207,
                -1.7223979352014358,
                0.630041455032651,
                -1.3547081998818975
            ]
        },
        {
            "positions": [
                -0.7498549142429238,
                -1.4467017854430768,
                0.9417699282959198,
                -1.7316272290530659,
                0.5628584432637684,
                -1.5313942803451466
            ]
        },
        {
            "positions": [
                -0.7252540936311891,
                -1.416665068779524,
                0.8765783545236325,
                -1.740856522904696,
                0.49567543149488574,
                -1.708080360808396
            ]
        },
        {
            "positions": [
                -0.659938854549953,
                -1.3959950900691602,
                0.9621414978672937,
                -1.673182524127597,
                0.4681246905917696,
                -1.8172012348962996
            ]
        },
        {
            "positions": [
                -0.594623615468717,
                -1.3753251113587968,
                1.047704641210955,
                -1.605508525350498,
                0.44057394968865343,
                -1.9263221089842029
            ]
        },
        {
            "positions": [
                -0.529308376387481,
                -1.354655132648433,
                1.1332677845546164,
                -1.537834526573399,
                0.4130232087855372,
                -2.035442983072106
            ]
        },
        {
            "positions": [
                -0.4639931373062449,
                -1.3339851539380696,
                1.2188309278982776,
                -1.4701605277963,
                0.38547246788242107,
                -2.14456385716001
            ]
        },
        {
            "positions": [
                -0.3986778982250089,
                -1.313315175227706,
                1.3043940712419388,
                -1.402486529019201,
                0.3579217269793049,
                -2.253684731247913
            ]
        },
        {
            "positions": [
                -0.33336265914377283,
                -1.2926451965173422,
                1.3899572145856003,
                -1.3348125302421021,
                0.33037098607618876,
                -2.3628056053358164
            ]
        },
        {
            "positions": [
                -0.2680474200625368,
                -1.2719752178069788,
                1.4755203579292613,
                -1.2671385314650032,
                0.3028202451730726,
                -2.4719264794237197
            ]
        },
        {
            "positions": [
                -0.20273218098130075,
                -1.251305239096615,
                1.5610835012729227,
                -1.199464532687904,
                0.27526950426995644,
                -2.5810473535116234
            ]
        },
        {
            "positions": [
                -0.1374169419000647,
                -1.2306352603862516,
                1.646646644616584,
                -1.131790533910805,
                0.24771876336684026,
                -2.6901682275995267
            ]
        },
        {
            "positions": [
                -0.07210170281882866,
                -1.209965281675888,
                1.7322097879602452,
                -1.064116535133706,
                0.22016802246372408,
                -2.79928910168743
            ]
        },
        {
            "positions": [
                -0.0067864637375926185,
                -1.1892953029655242,
                1.8177729313039066,
                -0.9964425363566072,
                0.19261728156060792,
                -2.9084099757753332
            ]
        },
        {
            "positions": [
                0.058528775343643424,
                -1.1686253242551605,
                1.9033360746475678,
                -0.9287685375795081,
                0.16506654065749177,
                -3.017530849863237
            ]
        },
        {
            "positions": [
                0.12384401442487943,
                -1.147955345544797,
                1.988899217991229,
                -0.8610945388024092,
                0.13751579975437558,
                -3.12665172395114
            ]
        }
    ]
}