{
    "goal": {
        "global_pose": {
            "orientation": {
                "w": 0.5084816217422485,
                "x": -0.49083608388900757,
                "y": 0.5182115435600281,
                "z": -0.4816462993621826
            },
            "position": {
                "x": 0.5540239810943604,
                "y": 0.030875300988554955,
                "z": 0.16403168439865112
            }
        },
        "name": "move_to_storage_A"
    },
    "id": "BiEST_move_to_storage_A_98",
    "joint_names": [
        "shoulder_pan_joint",
        "shoulder_lift_joint",
        "elbow_joint",
        "wrist_1_joint",
        "wrist_2_joint",
        "wrist_3_joint"
    ],
    "metrics": {
        "cart_traj_len": 0.35257785688981214,
        "distance_elbow_joint": 0.4498537040297981,
        "distance_shoulder_lift_joint": 0.23426260973210522,
        "distance_shoulder_pan_joint": 0.46261148916591865,
        "distance_wrist_1_joint": 0.2378288438541455,
        "distance_wrist_2_joint": 1.0914940561355664,
        "distance_wrist_3_joint": 0.09109843572497489,
        "smoothness": 0.0,
        "time": 0.030592431,
        "traj_len": 1.6022325482408941,
        "weighted_distance": 2.019571466940987
    },
    "planner": "BiEST",
    "start": {
        "state": {
            "elbow_joint": 1.9715477243005601,
            "shoulder_lift_joint": -1.1394853015351272,
            "shoulder_pan_joint": 0.12281154014795169,
            "wrist_1_joint": -0.7804696478968182,
            "wrist_2_joint": 0.12958648046900423,
            "wrist_3_joint": -3.192491284697111
        }
    },
    "waypoints": [
        {
            "positions": [
                0.12281154014795169,
                -1.1394853015351272,
                1.9715477243005601,
                -0.7804696478968182,
                0.12958648046900423,
                -3.192491284697111
            ]
        },
        {
            "positions": [
                0.05672418455282045,
                -1.1729513886397136,
                2.03581253916196,
                -0.814445197018839,
                0.2855142027740851,
                -3.179477222450686
            ]
        },
        {
            "positions": [
                -0.009363171042310783,
                -1.2064174757443,
                2.1000773540233597,
                -0.8484207461408597,
                0.441441925079166,
                -3.166463160204261
            ]
        },
        {
            "positions": [
                -0.07545052663744202,
                -1.2398835628488865,
                2.1643421688847595,
                -0.8823962952628805,
                0.5973696473842469,
                -3.1534490979578362
            ]
        },
        {
            "positions": [
                -0.14153788223257324,
                -1.2733496499534729,
                2.228606983746159,
                -0.9163718443849013,
                0.7532973696893278,
                -3.1404350357114112
            ]
        },
        {
            "positions": [
                -0.20762523782770448,
                -1.3068157370580595,
                2.2928717986075586,
                -0.9503473935069221,
                0.9092250919944088,
                -3.1274209734649863
            ]
        },
        {
            "positions": [
                -0.2737125934228357,
                -1.340281824162646,
                2.3571366134689584,
                -0.9843229426289428,
                1.0651528142994895,
                -3.1144069112185613
            ]
        },
        {
            "positions": [
                -0.33979994901796695,
                -1.3737479112672324,
                2.421401428330358,
                -1.0182984917509637,
                1.2210805366045707,
                -3.1013928489721363
            ]
        }
    ]
}