{
    "goal": {
        "global_pose": {
            "orientation": {
                "w": 0.7047431468963623,
                "x": -0.7094548344612122,
                "y": 0.0024358443915843964,
                "z": -0.0022348060738295317
            },
            "position": {
                "x": 0.6094750761985779,
                "y": 0.3671506643295288,
                "z": 0.19426114857196808
            }
        },
        "name": "move_to_magneteinheit_A"
    },
    "id": "BiEST_move_to_magneteinheit_A_148",
    "joint_names": [
        "shoulder_pan_joint",
        "shoulder_lift_joint",
        "elbow_joint",
        "wrist_1_joint",
        "wrist_2_joint",
        "wrist_3_joint"
    ],
    "metrics": {
        "cart_traj_len": 3.4064813624795014,
        "distance_elbow_joint": 3.9101217594190816,
        "distance_shoulder_lift_joint": 0.8651411632434689,
        "distance_shoulder_pan_joint": 2.5782593367900644,
        "distance_wrist_1_joint": 3.4660210775621088,
        "distance_wrist_2_joint": 2.307549506411291,
        "distance_wrist_3_joint": 4.162232414457469,
        "smoothness": 0.13585535574675459,
        "time": 0.09418638400000001,
        "traj_len": 4.158043441077003,
        "weighted_distance": 5.602442384422334
    },
    "planner": "BiEST",
    "start": {
        "state": {
            "elbow_joint": -1.919618573717145,
            "shoulder_lift_joint": -1.2443395971678275,
            "shoulder_pan_joint": 2.6996025300909787,
            "wrist_1_joint": -1.548550951253194,
            "wrist_2_joint": -1.5709469090946802,
            "wrist_3_joint": 0.4420197732051276
        }
    },
    "waypoints": [
        {
            "positions": [
                2.6996025300909787,
                -1.2443395971678275,
                -1.919618573717145,
                -1.548550951253194,
                -1.5709469090946802,
                0.4420197732051276
            ]
        },
        {
            "positions": [
                2.6221014571456847,
                -1.2213711799964342,
                -1.8568577701031201,
                -1.470189858681682,
                -1.507333080593214,
                0.3629191355181031
            ]
        },
        {
            "positions": [
                2.5446003842003906,
                -1.1984027628250407,
                -1.7940969664890956,
                -1.3918287661101698,
                -1.4437192520917477,
                0.2838184978310786
            ]
        },
        {
            "positions": [
                2.4670993112550965,
                -1.1754343456536474,
                -1.7313361628750707,
                -1.3134676735386577,
                -1.3801054235902814,
                0.20471786014405413
            ]
        },
        {
            "positions": [
                2.3895982383098024,
                -1.152465928482254,
                -1.668575359261046,
                -1.2351065809671455,
                -1.3164915950888152,
                0.12561722245702966
            ]
        },
        {
            "positions": [
                2.3120971653645084,
                -1.1294975113108607,
                -1.6058145556470214,
                -1.1567454883956336,
                -1.252877766587349,
                0.04651658477000514
            ]
        },
        {
            "positions": [
                2.2345960924192143,
                -1.1065290941394672,
                -1.5430537520329966,
                -1.0783843958241215,
                -1.1892639380858827,
                -0.032584052917019324
            ]
        },
        {
            "positions": [
                2.1570950194739202,
                -1.083560676968074,
                -1.4802929484189717,
                -1.0000233032526094,
                -1.1256501095844165,
                -0.11168469060404379
            ]
        },
        {
            "positions": [
                2.079593946528626,
                -1.0605922597966806,
                -1.4175321448049472,
                -0.9216622106810972,
                -1.0620362810829502,
                -0.19078532829106826
            ]
        },
        {
            "positions": [
                2.002092873583332,
                -1.0376238426252873,
                -1.3547713411909226,
                -0.8433011181095851,
                -0.9984224525814841,
                -0.2698859659780927
            ]
        },
        {
            "positions": [
                1.9245918006380383,
                -1.0146554254538938,
                -1.2920105375768975,
                -0.7649400255380729,
                -0.9348086240800179,
                -0.3489866036651173
            ]
        },
        {
            "positions": [
                1.8470907276927444,
                -0.9916870082825004,
                -1.229249733962873,
                -0.6865789329665609,
                -0.8711947955785517,
                -0.42808724135214166
            ]
        },
        {
            "positions": [
                1.7695896547474503,
                -0.9687185911111071,
                -1.1664889303488484,
                -0.6082178403950488,
                -0.8075809670770855,
                -0.5071878790391662
            ]
        },
        {
            "positions": [
                1.6920885818021563,
                -0.9457501739397137,
                -1.1037281267348236,
                -0.5298567478235365,
                -0.7439671385756192,
                -0.5862885167261906
            ]
        },
        {
            "positions": [
                1.6145875088568622,
                -0.9227817567683203,
                -1.0409673231207988,
                -0.4514956552520244,
                -0.680353310074153,
                -0.6653891544132151
            ]
        },
        {
            "positions": [
                1.5370864359115681,
                -0.899813339596927,
                -0.9782065195067741,
                -0.37313456268051226,
                -0.6167394815726867,
                -0.7444897921002396
            ]
        },
        {
            "positions": [
                1.459585362966274,
                -0.8768449224255336,
                -0.9154457158927494,
                -0.29477347010900035,
                -0.5531256530712205,
                -0.823590429787264
            ]
        },
        {
            "positions": [
                1.3820842900209802,
                -0.8538765052541403,
                -0.8526849122787248,
                -0.2164123775374882,
                -0.4895118245697545,
                -0.9026910674742885
            ]
        },
        {
            "positions": [
                1.304583217075686,
                -0.8309080880827469,
                -0.7899241086647,
                -0.13805128496597607,
                -0.42589799606828804,
                -0.981791705161313
            ]
        },
        {
            "positions": [
                1.227082144130392,
                -0.8079396709113535,
                -0.7271633050506752,
                -0.05969019239446394,
                -0.362284167566822,
                -1.0608923428483374
            ]
        },
        {
            "positions": [
                1.1495810711850978,
                -0.78497125373996,
                -0.6644025014366504,
                0.0186709001770482,
                -0.29867033906535556,
                -1.1399929805353621
            ]
        },
        {
            "positions": [
                1.072079998239804,
                -0.7620028365685667,
                -0.6016416978226258,
                0.09703199274856034,
                -0.23505651056388932,
                -1.2190936182223864
            ]
        },
        {
            "positions": [
                0.9945789252945099,
                -0.7390344193971734,
                -0.5388808942086012,
                0.17539308532007225,
                -0.1714426820624233,
                -1.2981942559094108
            ]
        },
        {
            "positions": [
                0.9170778523492158,
                -0.71606600222578,
                -0.47612009059457616,
                0.2537541778915846,
                -0.10782885356095684,
                -1.3772948935964355
            ]
        },
        {
            "positions": [
                0.8395767794039217,
                -0.6930975850543867,
                -0.4133592869805516,
                0.3321152704630965,
                -0.04421502505949082,
                -1.45639553128346
            ]
        },
        {
            "positions": [
                0.7620757064586279,
                -0.6701291678829934,
                -0.350598483366527,
                0.41047636303460866,
                0.01939880344197542,
                -1.5354961689704842
            ]
        },
        {
            "positions": [
                0.6845746335133338,
                -0.6471607507116,
                -0.2878376797525022,
                0.488837455606121,
                0.08301263194344166,
                -1.614596806657509
            ]
        },
        {
            "positions": [
                0.6070735605680397,
                -0.6241923335402065,
                -0.22507687613847738,
                0.5671985481776329,
                0.1466264604449079,
                -1.6936974443445334
            ]
        },
        {
            "positions": [
                0.5295724876227457,
                -0.6012239163688131,
                -0.16231607252445257,
                0.6455596407491453,
                0.21024028894637414,
                -1.7727980820315579
            ]
        },
        {
            "positions": [
                0.4520714146774518,
                -0.5782554991974198,
                -0.09955526891042787,
                0.7239207333206572,
                0.27385411744784044,
                -1.8518987197185826
            ]
        },
        {
            "positions": [
                0.39639594997882943,
                -0.5781340372060153,
                0.02964631147138369,
                0.8443140933283044,
                0.28270955611669324,
                -1.7883285937142752
            ]
        },
        {
            "positions": [
                0.340720485280207,
                -0.5780125752146109,
                0.15884789185319526,
                0.9647074533359516,
                0.2915649947855461,
                -1.7247584677099679
            ]
        },
        {
            "positions": [
                0.28504502058158454,
                -0.5778911132232065,
                0.2880494722350068,
                1.0851008133435989,
                0.3004204334543989,
                -1.6611883417056605
            ]
        },
        {
            "positions": [
                0.22936955588296215,
                -0.577769651231802,
                0.4172510526168184,
                1.205494173351246,
                0.3092758721232517,
                -1.5976182157013532
            ]
        },
        {
            "positions": [
                0.22036735900112506,
                -0.594317252674089,
                0.5483553970405781,
                1.2648255027643853,
                0.2736653116904717,
                -1.4631154309083092
            ]
        },
        {
            "positions": [
                0.21136516211928796,
                -0.6108648541163759,
                0.679459741464338,
                1.3241568321775243,
                0.23805475125769168,
                -1.3286126461152652
            ]
        },
        {
            "positions": [
                0.20236296523745087,
                -0.6274124555586629,
                0.8105640858880977,
                1.3834881615906633,
                0.20244419082491166,
                -1.1941098613222212
            ]
        },
        {
            "positions": [
                0.19336076835561378,
                -0.6439600570009498,
                0.9416684303118574,
                1.4428194910038026,
                0.16683363039213167,
                -1.0596070765291774
            ]
        },
        {
            "positions": [
                0.18435857147377668,
                -0.6605076584432368,
                1.0727727747356173,
                1.5021508204169418,
                0.13122306995935165,
                -0.9251042917361333
            ]
        },
        {
            "positions": [
                0.1753563745919396,
                -0.6770552598855237,
                1.203877119159377,
                1.5614821498300808,
                0.09561250952657166,
                -0.7906015069430893
            ]
        },
        {
            "positions": [
                0.1663541777101025,
                -0.6936028613278107,
                1.3349814635831367,
                1.6208134792432198,
                0.06000194909379164,
                -0.6560987221500453
            ]
        },
        {
            "positions": [
                0.1573519808282654,
                -0.7101504627700976,
                1.4660858080068966,
                1.680144808656359,
                0.024391388661011648,
                -0.5215959373570014
            ]
        },
        {
            "positions": [
                0.1483497839464283,
                -0.7266980642123846,
                1.5971901524306564,
                1.7394761380694983,
                -0.011219171771768344,
                -0.3870931525639574
            ]
        },
        {
            "positions": [
                0.13934758706459122,
                -0.7432456656546715,
                1.7282944968544163,
                1.7988074674826373,
                -0.04682973220454839,
                -0.25259036777091337
            ]
        },
        {
            "positions": [
                0.13034539018275412,
                -0.7597932670969585,
                1.8593988412781757,
                1.8581387968957763,
                -0.08244029263732833,
                -0.11808758297786937
            ]
        },
        {
            "positions": [
                0.12134319330091703,
                -0.7763408685392454,
                1.9905031857019357,
                1.9174701263089156,
                -0.11805085307010839,
                0.016415201815174557
            ]
        }
    ]
}{
    "goal": {
        "global_pose": {
            "orientation": {
                "w": 0.7047431468963623,
                "x": -0.7094548344612122,
                "y": 0.0024358443915843964,
                "z": -0.0022348060738295317
            },
            "position": {
                "x": 0.6094750761985779,
                "y": 0.3671506643295288,
                "z": 0.19426114857196808
            }
        },
        "name": "move_to_magneteinheit_A"
    },
    "id": "BiEST_move_to_magneteinheit_A_148",
    "joint_names": [
        "shoulder_pan_joint",
        "shoulder_lift_joint",
        "elbow_joint",
        "wrist_1_joint",
        "wrist_2_joint",
        "wrist_3_joint"
    ],
    "metrics": {
        "cart_traj_len": 1.5999598967824513,
        "distance_elbow_joint": 0.7907879887266207,
        "distance_shoulder_lift_joint": 0.7646497658454887,
        "distance_shoulder_pan_joint": 1.4824645583176208,
        "distance_wrist_1_joint": 0.8514165486844677,
        "distance_wrist_2_joint": 1.4430657357405847,
        "distance_wrist_3_joint": 4.345590651690145,
        "smoothness": 0.14865960505729933,
        "time": 0.06292710800000001,
        "traj_len": 3.1109444303948806,
        "weighted_distance": 4.545727536578745
    },
    "planner": "BiEST",
    "start": {
        "state": {
            "elbow_joint": 1.919643534880228,
            "shoulder_lift_joint": -1.8972525353963687,
            "shoulder_pan_joint": -1.1188672234189438,
            "wrist_1_joint": -1.5931878212786155,
            "wrist_2_joint": 1.5706036197970081,
            "wrist_3_joint": 1.118896926603594
        }
    },
    "waypoints": [
        {
            "positions": [
                -1.1188672234189438,
                -1.8972525353963687,
                1.919643534880228,
                -1.5931878212786155,
                1.5706036197970081,
                1.118896926603594
            ]
        },
        {
            "positions": [
                -1.1428958034939634,
                -1.8610060061926996,
                1.8447684344462956,
                -1.554681446560898,
                1.5185997468344699,
                1.0082771947983453
            ]
        },
        {
            "positions": [
                -1.1669243835689829,
                -1.8247594769890305,
                1.769893334012363,
                -1.5161750718431803,
                1.4665958738719316,
                0.8976574629930968
            ]
        },
        {
            "positions": [
                -1.1909529636440024,
                -1.7885129477853616,
                1.6950182335784305,
                -1.477668697125463,
                1.4145920009093933,
                0.7870377311878483
            ]
        },
        {
            "positions": [
                -1.214981543719022,
                -1.7522664185816925,
                1.620143133144498,
                -1.4391623224077452,
                1.362588127946855,
                0.6764179993825996
            ]
        },
        {
            "positions": [
                -1.2390101237940414,
                -1.7160198893780234,
                1.5452680327105655,
                -1.4006559476900278,
                1.3105842549843167,
                0.5657982675773511
            ]
        },
        {
            "positions": [
                -1.1741376638920165,
                -1.6882381217672071,
                1.5650971987370872,
                -1.3692804869711763,
                1.2542487135115599,
                0.38520341078383197
            ]
        },
        {
            "positions": [
                -1.1092652039899915,
                -1.6604563541563908,
                1.5849263647636092,
                -1.3379050262523249,
                1.197913172038803,
                0.20460855399031286
            ]
        },
        {
            "positions": [
                -1.0443927440879666,
                -1.6326745865455743,
                1.604755530790131,
                -1.3065295655334734,
                1.1415776305660463,
                0.024013697196793693
            ]
        },
        {
            "positions": [
                -0.9795202841859418,
                -1.604892818934758,
                1.6245846968166526,
                -1.275154104814622,
                1.0852420890932895,
                -0.15658115959672536
            ]
        },
        {
            "positions": [
                -0.9146478242839169,
                -1.5771110513239417,
                1.6444138628431746,
                -1.2437786440957705,
                1.0289065476205326,
                -0.3371760163902445
            ]
        },
        {
            "positions": [
                -0.8497753643818919,
                -1.5493292837131254,
                1.6642430288696963,
                -1.212403183376919,
                0.9725710061477758,
                -0.5177708731837637
            ]
        },
        {
            "positions": [
                -0.784902904479867,
                -1.5215475161023089,
                1.684072194896218,
                -1.1810277226580679,
                0.916235464675019,
                -0.6983657299772829
            ]
        },
        {
            "positions": [
                -0.7200304445778422,
                -1.4937657484914926,
                1.70390136092274,
                -1.1496522619392164,
                0.8598999232022622,
                -0.8789605867708018
            ]
        },
        {
            "positions": [
                -0.6551579846758172,
                -1.4659839808806763,
                1.7237305269492618,
                -1.118276801220365,
                0.8035643817295054,
                -1.0595554435643209
            ]
        },
        {
            "positions": [
                -0.5902855247737923,
                -1.43820221326986,
                1.7435596929757835,
                -1.0869013405015135,
                0.7472288402567485,
                -1.2401503003578402
            ]
        },
        {
            "positions": [
                -0.5254130648717673,
                -1.4104204456590435,
                1.7633888590023055,
                -1.055525879782662,
                0.6908932987839916,
                -1.4207451571513596
            ]
        },
        {
            "positions": [
                -0.4605406049697425,
                -1.3826386780482272,
                1.7832180250288272,
                -1.0241504190638107,
                0.6345577573112349,
                -1.6013400139448786
            ]
        },
        {
            "positions": [
                -0.3956681450677174,
                -1.3548569104374109,
                1.803047191055349,
                -0.9927749583449592,
                0.578222215838478,
                -1.781934870738398
            ]
        },
        {
            "positions": [
                -0.3307956851656926,
                -1.3270751428265946,
                1.8228763570818707,
                -0.9613994976261078,
                0.5218866743657212,
                -1.962529727531917
            ]
        },
        {
            "positions": [
                -0.26592322526366763,
                -1.299293375215778,
                1.8427055231083926,
                -0.9300240369072563,
                0.46555113289296435,
                -2.1431245843254363
            ]
        },
        {
            "positions": [
                -0.2010507653616429,
                -1.2715116076049617,
                1.8625346891349144,
                -0.898648576188405,
                0.4092155914202076,
                -2.323719441118955
            ]
        },
        {
            "positions": [
                -0.13617830545961773,
                -1.2437298399941454,
                1.8823638551614363,
                -0.8672731154695534,
                0.3528800499474507,
                -2.504314297912474
            ]
        },
        {
            "positions": [
                -0.071305845557593,
                -1.2159480723833291,
                1.902193021187958,
                -0.8358976547507021,
                0.29654450847469405,
                -2.684909154705993
            ]
        },
        {
            "positions": [
                -0.006433385655568058,
                -1.1881663047725128,
                1.9220221872144798,
                -0.8045221940318507,
                0.24020896700193695,
                -2.8655040114995125
            ]
        },
        {
            "positions": [
                0.05843907424645689,
                -1.1603845371616965,
                1.9418513532410016,
                -0.7731467333129992,
                0.1838734255291803,
                -3.0460988682930314
            ]
        },
        {
            "positions": [
                0.12331153414848177,
                -1.13260276955088,
                1.9616805192675235,
                -0.7417712725941478,
                0.12753788405642347,
                -3.226693725086551
            ]
        }
    ]
}