{
    "goal": {
        "global_pose": {
            "orientation": {
                "w": 0.5084816217422485,
                "x": -0.49083608388900757,
                "y": 0.5182115435600281,
                "z": -0.4816462993621826
            },
            "position": {
                "x": 0.5540239810943604,
                "y": 0.030875300988554955,
                "z": 0.16403168439865112
            }
        },
        "name": "move_to_storage_A"
    },
    "id": "BiEST_move_to_storage_A_54",
    "joint_names": [
        "shoulder_pan_joint",
        "shoulder_lift_joint",
        "elbow_joint",
        "wrist_1_joint",
        "wrist_2_joint",
        "wrist_3_joint"
    ],
    "metrics": {
        "cart_traj_len": 0.3527991089700787,
        "distance_elbow_joint": 0.45259227541774116,
        "distance_shoulder_lift_joint": 0.23376934124890703,
        "distance_shoulder_pan_joint": 0.4619840953024125,
        "distance_wrist_1_joint": 0.2516299289082665,
        "distance_wrist_2_joint": 1.0957615430839152,
        "distance_wrist_3_joint": 0.10699583447552863,
        "smoothness": 1.3322676295501878e-15,
        "time": 0.044217983,
        "traj_len": 1.6132988001101254,
        "weighted_distance": 2.0406166125414176
    },
    "planner": "BiEST",
    "start": {
        "state": {
            "elbow_joint": 1.9715477243005601,
            "shoulder_lift_joint": -1.1394853015351272,
            "shoulder_pan_joint": 0.12281154014795169,
            "wrist_1_joint": -0.7804696478968182,
            "wrist_2_joint": 0.12958648046900423,
            "wrist_3_joint": -3.192491284697111
        }
    },
    "waypoints": [
        {
            "positions": [
                0.12281154014795169,
                -1.1394853015351272,
                1.9715477243005601,
                -0.7804696478968182,
                0.12958648046900423,
                -3.192491284697111
            ]
        },
        {
            "positions": [
                0.05681381224760705,
                -1.1728809217135425,
                2.036203763645952,
                -0.816416780597999,
                0.2861238437667064,
                -3.1772061654863215
            ]
        },
        {
            "positions": [
                -0.009183915652737587,
                -1.2062765418919577,
                2.1008598029913435,
                -0.85236391329918,
                0.44266120706440854,
                -3.1619210462755314
            ]
        },
        {
            "positions": [
                -0.07518164355308223,
                -1.239672162070373,
                2.165515842336735,
                -0.8883110460003609,
                0.5991985703621108,
                -3.1466359270647417
            ]
        },
        {
            "positions": [
                -0.14117937145342685,
                -1.2730677822487884,
                2.2301718816821263,
                -0.9242581787015419,
                0.7557359336598128,
                -3.131350807853952
            ]
        },
        {
            "positions": [
                -0.20717709935377154,
                -1.3064634024272037,
                2.294827921027518,
                -0.9602053114027228,
                0.912273296957515,
                -3.1160656886431624
            ]
        },
        {
            "positions": [
                -0.2731748272541161,
                -1.3398590226056188,
                2.3594839603729096,
                -0.9961524441039038,
                1.0688106602552172,
                -3.1007805694323722
            ]
        },
        {
            "positions": [
                -0.3391725551544608,
                -1.3732546427840342,
                2.4241399997183013,
                -1.0320995768050847,
                1.2253480235529193,
                -3.0854954502215826
            ]
        }
    ]
}