{
    "goal": {
        "global_pose": {
            "orientation": {
                "w": 0.7047431468963623,
                "x": -0.7094548344612122,
                "y": 0.0024358443915843964,
                "z": -0.0022348060738295317
            },
            "position": {
                "x": 0.6094750761985779,
                "y": 0.3671506643295288,
                "z": 0.19426114857196808
            }
        },
        "name": "move_to_magneteinheit_A"
    },
    "id": "BiEST_move_to_magneteinheit_A_72",
    "joint_names": [
        "shoulder_pan_joint",
        "shoulder_lift_joint",
        "elbow_joint",
        "wrist_1_joint",
        "wrist_2_joint",
        "wrist_3_joint"
    ],
    "metrics": {
        "cart_traj_len": 3.1314191542349965,
        "distance_elbow_joint": 3.8850780798253552,
        "distance_shoulder_lift_joint": 0.8166906377349399,
        "distance_shoulder_pan_joint": 3.377826877055832,
        "distance_wrist_1_joint": 3.405562170693846,
        "distance_wrist_2_joint": 1.6932416427196375,
        "distance_wrist_3_joint": 2.636778169945537,
        "smoothness": 0.20013411218472726,
        "time": 0.097791591,
        "traj_len": 3.9768300916653647,
        "weighted_distance": 5.117376059200624
    },
    "planner": "BiEST",
    "start": {
        "state": {
            "elbow_joint": -1.919618573717145,
            "shoulder_lift_joint": -1.2443395971678275,
            "shoulder_pan_joint": 2.6996025300909787,
            "wrist_1_joint": -1.548550951253194,
            "wrist_2_joint": -1.5709469090946802,
            "wrist_3_joint": 0.4420197732051276
        }
    },
    "waypoints": [
        {
            "positions": [
                2.6996025300909787,
                -1.2443395971678275,
                -1.919618573717145,
                -1.548550951253194,
                -1.5709469090946802,
                0.4420197732051276
            ]
        },
        {
            "positions": [
                2.570137744493893,
                -1.2597504113463098,
                -1.8481694203308934,
                -1.4572971163844395,
                -1.5368770599066748,
                0.49297542926503635
            ]
        },
        {
            "positions": [
                2.4406729588968075,
                -1.2751612255247922,
                -1.7767202669446418,
                -1.3660432815156849,
                -1.5028072107186696,
                0.543931085324945
            ]
        },
        {
            "positions": [
                2.311208173299722,
                -1.2905720397032745,
                -1.7052711135583902,
                -1.2747894466469303,
                -1.4687373615306643,
                0.5948867413848539
            ]
        },
        {
            "positions": [
                2.1817433877026366,
                -1.3059828538817568,
                -1.6338219601721389,
                -1.183535611778176,
                -1.434667512342659,
                0.6458423974447627
            ]
        },
        {
            "positions": [
                2.052278602105551,
                -1.3213936680602392,
                -1.5623728067858873,
                -1.0922817769094213,
                -1.4005976631546537,
                0.6967980535046714
            ]
        },
        {
            "positions": [
                1.9228138165084654,
                -1.3368044822387213,
                -1.4909236533996357,
                -1.0010279420406667,
                -1.3665278139666486,
                0.7477537095645801
            ]
        },
        {
            "positions": [
                1.7933490309113798,
                -1.3522152964172036,
                -1.4194745000133842,
                -0.9097741071719121,
                -1.3324579647786432,
                0.798709365624489
            ]
        },
        {
            "positions": [
                1.6638842453142944,
                -1.367626110595686,
                -1.3480253466271326,
                -0.8185202723031576,
                -1.298388115590638,
                0.8496650216843977
            ]
        },
        {
            "positions": [
                1.5344194597172087,
                -1.3830369247741683,
                -1.276576193240881,
                -0.727266437434403,
                -1.2643182664026327,
                0.9006206777443064
            ]
        },
        {
            "positions": [
                1.4049546741201233,
                -1.3984477389526506,
                -1.2051270398546294,
                -0.6360126025656485,
                -1.2302484172146273,
                0.9515763338042151
            ]
        },
        {
            "positions": [
                1.2754898885230377,
                -1.413858553131133,
                -1.1336778864683779,
                -0.5447587676968939,
                -1.1961785680266221,
                1.002531989864124
            ]
        },
        {
            "positions": [
                1.146025102925952,
                -1.4292693673096153,
                -1.0622287330821263,
                -0.4535049328281393,
                -1.1621087188386168,
                1.0534876459240328
            ]
        },
        {
            "positions": [
                1.0165603173288666,
                -1.4446801814880976,
                -0.9907795796958748,
                -0.3622510979593849,
                -1.1280388696506116,
                1.1044433019839415
            ]
        },
        {
            "positions": [
                0.8870955317317808,
                -1.46009099566658,
                -0.9193304263096231,
                -0.2709972630906301,
                -1.0939690204626062,
                1.1553989580438504
            ]
        },
        {
            "positions": [
                0.7576307461346954,
                -1.4755018098450623,
                -0.8478812729233716,
                -0.17974342822187572,
                -1.0598991712746009,
                1.206354614103759
            ]
        },
        {
            "positions": [
                0.62816596053761,
                -1.4909126240235446,
                -0.7764321195371202,
                -0.08848959335312112,
                -1.0258293220865957,
                1.2573102701636678
            ]
        },
        {
            "positions": [
                0.49870117494052435,
                -1.5063234382020267,
                -0.7049829661508686,
                0.002764241515633481,
                -0.9917594728985905,
                1.3082659262235765
            ]
        },
        {
            "positions": [
                0.3692363893434387,
                -1.5217342523805093,
                -0.6335338127646168,
                0.09401807638438808,
                -0.9576896237105851,
                1.3592215822834854
            ]
        },
        {
            "positions": [
                0.2397716037463531,
                -1.5371450665589914,
                -0.5620846593783655,
                0.18527191125314268,
                -0.9236197745225798,
                1.4101772383433941
            ]
        },
        {
            "positions": [
                0.1103068181492679,
                -1.5525558807374737,
                -0.4906355059921139,
                0.27652574612189706,
                -0.8895499253345747,
                1.4611328944033029
            ]
        },
        {
            "positions": [
                -0.019157967447817725,
                -1.567966694915956,
                -0.41918635260586234,
                0.36777958099065167,
                -0.8554800761465694,
                1.5120885504632116
            ]
        },
        {
            "positions": [
                -0.14862275304490336,
                -1.5833775090944384,
                -0.34773719921961077,
                0.45903341585940627,
                -0.821410226958564,
                1.5630442065231205
            ]
        },
        {
            "positions": [
                -0.2780875386419892,
                -1.5987883232729208,
                -0.27628804583335925,
                0.5502872507281606,
                -0.7873403777705588,
                1.6139998625830292
            ]
        },
        {
            "positions": [
                -0.26172062136822155,
                -1.5745831485608879,
                -0.14750859045935583,
                0.4837873249473621,
                -0.7367392074134221,
                1.7000974622748488
            ]
        },
        {
            "positions": [
                -0.24535370409445395,
                -1.5503779738488548,
                -0.0187291350853524,
                0.4172873991665635,
                -0.6861380370562854,
                1.7861950619666687
            ]
        },
        {
            "positions": [
                -0.2289867868206863,
                -1.526172799136822,
                0.11005032028865108,
                0.3507874733857649,
                -0.6355368666991488,
                1.8722926616584883
            ]
        },
        {
            "positions": [
                -0.21261986954691867,
                -1.5019676244247888,
                0.23882977566265445,
                0.28428754760496633,
                -0.5849356963420121,
                1.9583902613503081
            ]
        },
        {
            "positions": [
                -0.19625295227315104,
                -1.477762449712756,
                0.3676092310366578,
                0.21778762182416778,
                -0.5343345259848755,
                2.044487861042128
            ]
        },
        {
            "positions": [
                -0.17988603499938338,
                -1.4535572750007228,
                0.4963886864106614,
                0.1512876960433691,
                -0.4837333556277388,
                2.130585460733948
            ]
        },
        {
            "positions": [
                -0.16351911772561575,
                -1.42935210028869,
                0.6251681417846648,
                0.08478777026257056,
                -0.4331321852706021,
                2.2166830604257672
            ]
        },
        {
            "positions": [
                -0.14715220045184813,
                -1.4051469255766569,
                0.7539475971586682,
                0.01828784448177201,
                -0.3825310149134655,
                2.302780660117587
            ]
        },
        {
            "positions": [
                -0.1307852831780805,
                -1.380941750864624,
                0.8827270525326716,
                -0.048212081299026543,
                -0.3319298445563288,
                2.388878259809407
            ]
        },
        {
            "positions": [
                -0.11441836590431287,
                -1.356736576152591,
                1.011506507906675,
                -0.1147120070798251,
                -0.28132867419919216,
                2.4749758595012263
            ]
        },
        {
            "positions": [
                -0.09805144863054524,
                -1.332531401440558,
                1.1402859632806783,
                -0.18121193286062365,
                -0.23072750384205554,
                2.561073459193046
            ]
        },
        {
            "positions": [
                -0.08168453135677756,
                -1.308326226728525,
                1.2690654186546821,
                -0.24771185864142242,
                -0.1801263334849188,
                2.647171058884866
            ]
        },
        {
            "positions": [
                -0.06531761408300993,
                -1.284121052016492,
                1.3978448740286855,
                -0.314211784422221,
                -0.12952516312778206,
                2.7332686585766854
            ]
        },
        {
            "positions": [
                -0.0489506968092423,
                -1.2599158773044592,
                1.5266243294026889,
                -0.3807117102030195,
                -0.07892399277064543,
                2.8193662582685057
            ]
        },
        {
            "positions": [
                -0.03258377953547467,
                -1.235710702592426,
                1.6554037847766923,
                -0.44721163598381813,
                -0.028322822413508753,
                2.905463857960325
            ]
        },
        {
            "positions": [
                0.006074482768612582,
                -1.2109196298550882,
                1.7329177151095723,
                -0.5245179064839464,
                0.009331566596107642,
                2.94879737925791
            ]
        },
        {
            "positions": [
                0.04473274507269984,
                -1.1861285571177502,
                1.8104316454424523,
                -0.6018241769840745,
                0.046985955605724036,
                2.9921309005554946
            ]
        },
        {
            "positions": [
                0.08339100737678709,
                -1.161337484380412,
                1.8879455757753323,
                -0.6791304474842028,
                0.08464034461534042,
                3.0354644218530797
            ]
        },
        {
            "positions": [
                0.12204926968087436,
                -1.1365464116430741,
                1.9654595061082123,
                -0.756436717984331,
                0.12229473362495683,
                3.0787979431506645
            ]
        }
    ]
}{
    "goal": {
        "global_pose": {
            "orientation": {
                "w": 0.7047431468963623,
                "x": -0.7094548344612122,
                "y": 0.0024358443915843964,
                "z": -0.0022348060738295317
            },
            "position": {
                "x": 0.6094750761985779,
                "y": 0.3671506643295288,
                "z": 0.19426114857196808
            }
        },
        "name": "move_to_magneteinheit_A"
    },
    "id": "BiEST_move_to_magneteinheit_A_72",
    "joint_names": [
        "shoulder_pan_joint",
        "shoulder_lift_joint",
        "elbow_joint",
        "wrist_1_joint",
        "wrist_2_joint",
        "wrist_3_joint"
    ],
    "metrics": {
        "cart_traj_len": 1.198229180559922,
        "distance_elbow_joint": 0.041174321394777724,
        "distance_shoulder_lift_joint": 0.7639406039716126,
        "distance_shoulder_pan_joint": 1.2423876142406913,
        "distance_wrist_1_joint": 1.4427483971958504,
        "distance_wrist_2_joint": 1.4303547160793646,
        "distance_wrist_3_joint": 4.367929338710045,
        "smoothness": 0.19943443098382116,
        "time": 0.101091458,
        "traj_len": 3.047709794516588,
        "weighted_distance": 4.57137799599723
    },
    "planner": "BiEST",
    "start": {
        "state": {
            "elbow_joint": 1.919643534880228,
            "shoulder_lift_joint": -1.8972525353963687,
            "shoulder_pan_joint": -1.1188672234189438,
            "wrist_1_joint": -1.5931878212786155,
            "wrist_2_joint": 1.5706036197970081,
            "wrist_3_joint": 1.118896926603594
        }
    },
    "waypoints": [
        {
            "positions": [
                -1.1188672234189438,
                -1.8972525353963687,
                1.919643534880228,
                -1.5931878212786155,
                1.5706036197970081,
                1.118896926603594
            ]
        },
        {
            "positions": [
                -1.064935059283023,
                -1.8661981380120614,
                1.9214293648490441,
                -1.5405557577949958,
                1.5078264652239926,
                0.9394051735127725
            ]
        },
        {
            "positions": [
                -1.011002895147102,
                -1.8351437406277542,
                1.9232151948178602,
                -1.4879236943113763,
                1.4450493106509767,
                0.7599134204219511
            ]
        },
        {
            "positions": [
                -0.9570707310111811,
                -1.8040893432434468,
                1.9250010247866765,
                -1.4352916308277566,
                1.3822721560779612,
                0.5804216673311298
            ]
        },
        {
            "positions": [
                -0.9031385668752602,
                -1.7730349458591395,
                1.9267868547554925,
                -1.382659567344137,
                1.3194950015049454,
                0.4009299142403083
            ]
        },
        {
            "positions": [
                -0.8492064027393392,
                -1.7419805484748323,
                1.9285726847243085,
                -1.3300275038605174,
                1.2567178469319298,
                0.221438161149487
            ]
        },
        {
            "positions": [
                -0.7952742386034184,
                -1.710926151090525,
                1.9303585146931246,
                -1.277395440376898,
                1.1939406923589142,
                0.04194640805866556
            ]
        },
        {
            "positions": [
                -0.7413420744674974,
                -1.6798717537062176,
                1.9321443446619408,
                -1.2247633768932782,
                1.1311635377858984,
                -0.13754534503215576
            ]
        },
        {
            "positions": [
                -0.6874099103315765,
                -1.6488173563219104,
                1.933930174630757,
                -1.1721313134096585,
                1.0683863832128826,
                -0.3170370981229773
            ]
        },
        {
            "positions": [
                -0.6334777461956556,
                -1.617762958937603,
                1.935716004599573,
                -1.119499249926039,
                1.005609228639867,
                -0.49652885121379886
            ]
        },
        {
            "positions": [
                -0.5795455820597346,
                -1.5867085615532956,
                1.937501834568389,
                -1.0668671864424195,
                0.9428320740668513,
                -0.67602060430462
            ]
        },
        {
            "positions": [
                -0.5256134179238137,
                -1.5556541641689883,
                1.939287664537205,
                -1.0142351229587998,
                0.8800549194938356,
                -0.8555123573954415
            ]
        },
        {
            "positions": [
                -0.47168125378789283,
                -1.5245997667846811,
                1.9410734945060213,
                -0.9616030594751802,
                0.81727776492082,
                -1.0350041104862628
            ]
        },
        {
            "positions": [
                -0.41774908965197177,
                -1.4935453694003737,
                1.9428593244748373,
                -0.9089709959915606,
                0.7545006103478042,
                -1.2144958635770846
            ]
        },
        {
            "positions": [
                -0.36381692551605094,
                -1.4624909720160666,
                1.9446451544436534,
                -0.856338932507941,
                0.6917234557747886,
                -1.3939876166679055
            ]
        },
        {
            "positions": [
                -0.30988476138013,
                -1.4314365746317592,
                1.9464309844124694,
                -0.8037068690243214,
                0.628946301201773,
                -1.5734793697587268
            ]
        },
        {
            "positions": [
                -0.25595259724420905,
                -1.4003821772474518,
                1.9482168143812857,
                -0.7510748055407017,
                0.5661691466287573,
                -1.7529711228495486
            ]
        },
        {
            "positions": [
                -0.2020204331082881,
                -1.3693277798631445,
                1.9500026443501017,
                -0.6984427420570822,
                0.5033919920557415,
                -1.93246287594037
            ]
        },
        {
            "positions": [
                -0.14808826897236715,
                -1.338273382478837,
                1.9517884743189178,
                -0.6458106785734625,
                0.4406148374827259,
                -2.1119546290311915
            ]
        },
        {
            "positions": [
                -0.09415610483644632,
                -1.30721898509453,
                1.9535743042877338,
                -0.593178615089843,
                0.3778376829097101,
                -2.291446382122013
            ]
        },
        {
            "positions": [
                -0.040223940700525374,
                -1.2761645877102228,
                1.95536013425655,
                -0.5405465516062233,
                0.3150605283366945,
                -2.470938135212834
            ]
        },
        {
            "positions": [
                0.013708223435395572,
                -1.2451101903259154,
                1.9571459642253661,
                -0.48791448812260363,
                0.2522833737636787,
                -2.6504298883036554
            ]
        },
        {
            "positions": [
                0.06764038757131655,
                -1.214055792941608,
                1.9589317941941822,
                -0.43528242463898414,
                0.18950621919066302,
                -2.829921641394477
            ]
        },
        {
            "positions": [
                0.08626705532146026,
                -1.1871411724359908,
                1.9595604815544567,
                -0.5302300914910572,
                0.1730871140329899,
                -2.969625231631802
            ]
        },
        {
            "positions": [
                0.10489372307160397,
                -1.1602265519303734,
                1.9601891689147313,
                -0.6251777583431302,
                0.1566680088753168,
                -3.109328821869126
            ]
        },
        {
            "positions": [
                0.12352039082174769,
                -1.1333119314247562,
                1.9608178562750058,
                -0.7201254251952033,
                0.14024890371764367,
                -3.249032412106451
            ]
        }
    ]
}