{
    "goal": {
        "global_pose": {
            "orientation": {
                "w": 0.7047431468963623,
                "x": -0.7094548344612122,
                "y": 0.0024358443915843964,
                "z": -0.0022348060738295317
            },
            "position": {
                "x": 0.6094750761985779,
                "y": 0.3671506643295288,
                "z": 0.19426114857196808
            }
        },
        "name": "move_to_magneteinheit_A"
    },
    "id": "BiEST_move_to_magneteinheit_A_67",
    "joint_names": [
        "shoulder_pan_joint",
        "shoulder_lift_joint",
        "elbow_joint",
        "wrist_1_joint",
        "wrist_2_joint",
        "wrist_3_joint"
    ],
    "metrics": {
        "cart_traj_len": 3.4740595086752406,
        "distance_elbow_joint": 3.931344409272561,
        "distance_shoulder_lift_joint": 0.530026118399362,
        "distance_shoulder_pan_joint": 2.827782744336491,
        "distance_wrist_1_joint": 3.5383179509685005,
        "distance_wrist_2_joint": 2.1622856167834765,
        "distance_wrist_3_joint": 1.8602797982947215,
        "smoothness": 0.1322620829973271,
        "time": 0.09191571800000001,
        "traj_len": 3.853574527377809,
        "weighted_distance": 4.926580944468133
    },
    "planner": "BiEST",
    "start": {
        "state": {
            "elbow_joint": -1.919618573717145,
            "shoulder_lift_joint": -1.2443395971678275,
            "shoulder_pan_joint": 2.6996025300909787,
            "wrist_1_joint": -1.548550951253194,
            "wrist_2_joint": -1.5709469090946802,
            "wrist_3_joint": 0.4420197732051276
        }
    },
    "waypoints": [
        {
            "positions": [
                2.6996025300909787,
                -1.2443395971678275,
                -1.919618573717145,
                -1.548550951253194,
                -1.5709469090946802,
                0.4420197732051276
            ]
        },
        {
            "positions": [
                2.58124552563815,
                -1.245947722498214,
                -1.7995702976335812,
                -1.5102930303687898,
                -1.4890073739946712,
                0.47254929910770804
            ]
        },
        {
            "positions": [
                2.4628885211853206,
                -1.2475558478286004,
                -1.6795220215500173,
                -1.4720351094843855,
                -1.4070678388946625,
                0.5030788250102886
            ]
        },
        {
            "positions": [
                2.344531516732492,
                -1.249163973158987,
                -1.5594737454664536,
                -1.433777188599981,
                -1.3251283037946537,
                0.5336083509128691
            ]
        },
        {
            "positions": [
                2.2261745122796626,
                -1.2507720984893735,
                -1.4394254693828898,
                -1.3955192677155768,
                -1.2431887686946448,
                0.5641378768154495
            ]
        },
        {
            "positions": [
                2.1078175078268337,
                -1.2523802238197599,
                -1.3193771932993261,
                -1.3572613468311725,
                -1.1612492335946358,
                0.59466740271803
            ]
        },
        {
            "positions": [
                1.989460503374005,
                -1.2539883491501465,
                -1.1993289172157624,
                -1.3190034259467682,
                -1.079309698494627,
                0.6251969286206105
            ]
        },
        {
            "positions": [
                1.8711034989211757,
                -1.2555964744805328,
                -1.0792806411321985,
                -1.280745505062364,
                -0.9973701633946181,
                0.6557264545231909
            ]
        },
        {
            "positions": [
                1.7527464944683468,
                -1.2572045998109194,
                -0.9592323650486346,
                -1.2424875841779595,
                -0.9154306282946093,
                0.6862559804257715
            ]
        },
        {
            "positions": [
                1.6343894900155176,
                -1.258812725141306,
                -0.8391840889650708,
                -1.2042296632935552,
                -0.8334910931946005,
                0.7167855063283519
            ]
        },
        {
            "positions": [
                1.5160324855626888,
                -1.2604208504716923,
                -0.7191358128815071,
                -1.165971742409151,
                -0.7515515580945916,
                0.7473150322309323
            ]
        },
        {
            "positions": [
                1.3976754811098597,
                -1.2620289758020788,
                -0.5990875367979434,
                -1.1277138215247464,
                -0.6696120229945828,
                0.7778445581335129
            ]
        },
        {
            "positions": [
                1.279318476657031,
                -1.2636371011324654,
                -0.47903926071437963,
                -1.0894559006403424,
                -0.587672487894574,
                0.8083740840360933
            ]
        },
        {
            "positions": [
                1.1609614722042016,
                -1.2652452264628518,
                -0.3589909846308157,
                -1.0511979797559379,
                -0.5057329527945651,
                0.8389036099386739
            ]
        },
        {
            "positions": [
                1.0426044677513728,
                -1.2668533517932383,
                -0.23894270854725197,
                -1.0129400588715336,
                -0.42379341769455614,
                0.8694331358412544
            ]
        },
        {
            "positions": [
                0.9242474632985438,
                -1.268461477123625,
                -0.11889443246368847,
                -0.9746821379871293,
                -0.3418538825945474,
                0.8999626617438348
            ]
        },
        {
            "positions": [
                0.8058904588457148,
                -1.2700696024540112,
                0.001153843619875694,
                -0.9364242171027249,
                -0.25991434749453846,
                0.9304921876464154
            ]
        },
        {
            "positions": [
                0.6875334543928857,
                -1.2716777277843978,
                0.12120211970343919,
                -0.8981662962183206,
                -0.17797481239452972,
                0.9610217135489958
            ]
        },
        {
            "positions": [
                0.5691764499400565,
                -1.2732858531147841,
                0.24125039578700336,
                -0.8599083753339162,
                -0.09603527729452077,
                0.9915512394515762
            ]
        },
        {
            "positions": [
                0.45081944548722763,
                -1.2748939784451707,
                0.3612986718705671,
                -0.8216504544495119,
                -0.01409574219451204,
                1.0220807653541568
            ]
        },
        {
            "positions": [
                0.3324624410343988,
                -1.2765021037755573,
                0.4813469479541308,
                -0.7833925335651076,
                0.06784379290549691,
                1.0526102912567372
            ]
        },
        {
            "positions": [
                0.21410543658156955,
                -1.2781102291059436,
                0.6013952240376945,
                -0.7451346126807032,
                0.14978332800550587,
                1.0831398171593178
            ]
        },
        {
            "positions": [
                0.09574843212874079,
                -1.2797183544363302,
                0.7214435001212584,
                -0.706876691796299,
                0.23172286310551457,
                1.1136693430618982
            ]
        },
        {
            "positions": [
                0.08339766298057144,
                -1.2491608182504115,
                0.8014865718122871,
                -0.5457584557960179,
                0.21514789776984,
                1.0472655616835618
            ]
        },
        {
            "positions": [
                0.07104689383240209,
                -1.218603282064493,
                0.8815296435033159,
                -0.3846402197957368,
                0.1985729324341654,
                0.9808617803052254
            ]
        },
        {
            "positions": [
                0.058696124684232756,
                -1.1880457458785743,
                0.9615727151943447,
                -0.22352198379545574,
                0.18199796709849084,
                0.9144579989268891
            ]
        },
        {
            "positions": [
                0.04634535553606341,
                -1.1574882096926555,
                1.0416157868853735,
                -0.06240374779517466,
                0.16542300176281627,
                0.8480542175485526
            ]
        },
        {
            "positions": [
                0.03399458638789406,
                -1.126930673506737,
                1.1216588585764022,
                0.09871448820510642,
                0.14884803642714167,
                0.7816504361702161
            ]
        },
        {
            "positions": [
                0.021643817239724722,
                -1.0963731373208183,
                1.201701930267431,
                0.2598327242053875,
                0.1322730710914671,
                0.7152466547918798
            ]
        },
        {
            "positions": [
                0.009293048091555373,
                -1.0658156011348998,
                1.2817450019584598,
                0.42095096020566847,
                0.11569810575579252,
                0.6488428734135434
            ]
        },
        {
            "positions": [
                -0.00305772105661397,
                -1.035258064948981,
                1.3617880736494885,
                0.5820691962059497,
                0.09912314042011794,
                0.5824390920352069
            ]
        },
        {
            "positions": [
                0.010844778186596888,
                -1.0074595014330354,
                1.4340033805279246,
                0.7384800632625448,
                0.07389912687590838,
                0.5093946501006226
            ]
        },
        {
            "positions": [
                0.024747277429807747,
                -0.97966093791709,
                1.5062186874063608,
                0.89489093031914,
                0.04867511333169884,
                0.4363502081660382
            ]
        },
        {
            "positions": [
                0.0386497766730186,
                -0.9518623744011444,
                1.578433994284797,
                1.0513017973757353,
                0.0234510997874893,
                0.3633057662314538
            ]
        },
        {
            "positions": [
                0.05255227591622946,
                -0.9240638108851988,
                1.650649301163233,
                1.2077126644323304,
                -0.0017729137567202569,
                0.2902613242968694
            ]
        },
        {
            "positions": [
                0.06645477515944032,
                -0.8962652473692532,
                1.722864608041669,
                1.3641235314889257,
                -0.026996927300929813,
                0.21721688236228492
            ]
        },
        {
            "positions": [
                0.08035727440265117,
                -0.8684666838533077,
                1.795079914920105,
                1.5205343985455209,
                -0.05222094084513934,
                0.1441724404277006
            ]
        },
        {
            "positions": [
                0.09425977364586205,
                -0.840668120337362,
                1.8672952217985412,
                1.676945265602116,
                -0.07744495438934892,
                0.07112799849311613
            ]
        },
        {
            "positions": [
                0.1081622728890729,
                -0.8128695568214165,
                1.9395105286769774,
                1.8333561326587111,
                -0.10266896793355845,
                -0.0019164434414681297
            ]
        },
        {
            "positions": [
                0.12206477213228377,
                -0.7850709933054709,
                2.0117258355554135,
                1.9897669997153065,
                -0.127892981477768,
                -0.07496088537605267
            ]
        }
    ]
}{
    "goal": {
        "global_pose": {
            "orientation": {
                "w": 0.7047431468963623,
                "x": -0.7094548344612122,
                "y": 0.0024358443915843964,
                "z": -0.0022348060738295317
            },
            "position": {
                "x": 0.6094750761985779,
                "y": 0.3671506643295288,
                "z": 0.19426114857196808
            }
        },
        "name": "move_to_magneteinheit_A"
    },
    "id": "BiEST_move_to_magneteinheit_A_67",
    "joint_names": [
        "shoulder_pan_joint",
        "shoulder_lift_joint",
        "elbow_joint",
        "wrist_1_joint",
        "wrist_2_joint",
        "wrist_3_joint"
    ],
    "metrics": {
        "cart_traj_len": 1.2793350008389865,
        "distance_elbow_joint": 0.6078294905356887,
        "distance_shoulder_lift_joint": 0.7584391430410891,
        "distance_shoulder_pan_joint": 1.2419224085373342,
        "distance_wrist_1_joint": 0.8110819408444183,
        "distance_wrist_2_joint": 1.9230893287445205,
        "distance_wrist_3_joint": 4.312128465092076,
        "smoothness": 0.2545423020074166,
        "time": 0.09781683399999999,
        "traj_len": 3.107167645428088,
        "weighted_distance": 4.583985054138835
    },
    "planner": "BiEST",
    "start": {
        "state": {
            "elbow_joint": 1.919643534880228,
            "shoulder_lift_joint": -1.8972525353963687,
            "shoulder_pan_joint": -1.1188672234189438,
            "wrist_1_joint": -1.5931878212786155,
            "wrist_2_joint": 1.5706036197970081,
            "wrist_3_joint": 1.118896926603594
        }
    },
    "waypoints": [
        {
            "positions": [
                -1.1188672234189438,
                -1.8972525353963687,
                1.919643534880228,
                -1.5931878212786155,
                1.5706036197970081,
                1.118896926603594
            ]
        },
        {
            "positions": [
                -1.0673562348328762,
                -1.8670820770368808,
                1.9063927432644046,
                -1.5561818977787496,
                1.490474820448389,
                0.9367283164224841
            ]
        },
        {
            "positions": [
                -1.0158452462468088,
                -1.8369116186773928,
                1.8931419516485812,
                -1.519175974278884,
                1.4103460210997703,
                0.7545597062413743
            ]
        },
        {
            "positions": [
                -0.9643342576607413,
                -1.8067411603179049,
                1.8798911600327577,
                -1.482170050779018,
                1.3302172217511512,
                0.5723910960602645
            ]
        },
        {
            "positions": [
                -0.9128232690746738,
                -1.776570701958417,
                1.8666403684169344,
                -1.4451641272791522,
                1.2500884224025322,
                0.39022248587915465
            ]
        },
        {
            "positions": [
                -0.8613122804886062,
                -1.746400243598929,
                1.8533895768011108,
                -1.4081582037792866,
                1.1699596230539133,
                0.2080538756980448
            ]
        },
        {
            "positions": [
                -0.8098012919025388,
                -1.716229785239441,
                1.8401387851852873,
                -1.3711522802794207,
                1.0898308237052943,
                0.02588526551693504
            ]
        },
        {
            "positions": [
                -0.7582903033164712,
                -1.686059326879953,
                1.826887993569464,
                -1.3341463567795548,
                1.0097020243566752,
                -0.15628334466417493
            ]
        },
        {
            "positions": [
                -0.7067793147304037,
                -1.6558888685204651,
                1.8136372019536404,
                -1.2971404332796892,
                0.9295732250080563,
                -0.3384519548452847
            ]
        },
        {
            "positions": [
                -0.6552683261443362,
                -1.6257184101609772,
                1.8003864103378169,
                -1.2601345097798233,
                0.8494444256594373,
                -0.5206205650263944
            ]
        },
        {
            "positions": [
                -0.6037573375582687,
                -1.595547951801489,
                1.7871356187219936,
                -1.2231285862799575,
                0.7693156263108183,
                -0.7027891752075044
            ]
        },
        {
            "positions": [
                -0.552246348972201,
                -1.5653774934420013,
                1.77388482710617,
                -1.1861226627800916,
                0.6891868269621992,
                -0.8849577853886144
            ]
        },
        {
            "positions": [
                -0.5007353603861336,
                -1.535207035082513,
                1.7606340354903467,
                -1.149116739280226,
                0.6090580276135803,
                -1.0671263955697239
            ]
        },
        {
            "positions": [
                -0.449224371800066,
                -1.5050365767230252,
                1.7473832438745232,
                -1.11211081578036,
                0.5289292282649614,
                -1.2492950057508339
            ]
        },
        {
            "positions": [
                -0.3977133832139985,
                -1.4748661183635372,
                1.7341324522586996,
                -1.0751048922804944,
                0.4488004289163423,
                -1.4314636159319438
            ]
        },
        {
            "positions": [
                -0.346202394627931,
                -1.4446956600040493,
                1.7208816606428763,
                -1.0380989687806284,
                0.36867162956772326,
                -1.6136322261130538
            ]
        },
        {
            "positions": [
                -0.2946914060418635,
                -1.4145252016445613,
                1.7076308690270527,
                -1.0010930452807627,
                0.28854283021910443,
                -1.7958008362941633
            ]
        },
        {
            "positions": [
                -0.24318041745579588,
                -1.3843547432850734,
                1.6943800774112292,
                -0.9640871217808968,
                0.20841403087048538,
                -1.9779694464752733
            ]
        },
        {
            "positions": [
                -0.1916694288697285,
                -1.3541842849255854,
                1.6811292857954059,
                -0.9270811982810311,
                0.12828523152186655,
                -2.1601380566563826
            ]
        },
        {
            "positions": [
                -0.14015844028366087,
                -1.3240138265660975,
                1.6678784941795823,
                -0.8900752747811653,
                0.04815643217324728,
                -2.3423066668374934
            ]
        },
        {
            "positions": [
                -0.08864745169759347,
                -1.2938433682066095,
                1.654627702563759,
                -0.8530693512812996,
                -0.03197236717537155,
                -2.5244752770186025
            ]
        },
        {
            "positions": [
                -0.0371364631115259,
                -1.2636729098471216,
                1.6413769109479355,
                -0.8160634277814337,
                -0.11210116652399049,
                -2.7066438871997125
            ]
        },
        {
            "positions": [
                0.002911448945953146,
                -1.232458030474161,
                1.7237676275987845,
                -0.8075740409446246,
                -0.052005030918110026,
                -2.828290800021905
            ]
        },
        {
            "positions": [
                0.042959361003432193,
                -1.2012431511012007,
                1.8061583442496336,
                -0.7990846541078154,
                0.00809110468777044,
                -2.949937712844098
            ]
        },
        {
            "positions": [
                0.08300727306091124,
                -1.1700282717282402,
                1.8885490609004825,
                -0.7905952672710063,
                0.06818724029365092,
                -3.07158462566629
            ]
        },
        {
            "positions": [
                0.1230551851183903,
                -1.1388133923552797,
                1.9709397775513315,
                -0.7821058804341972,
                0.12828337589953137,
                -3.1932315384884826
            ]
        }
    ]
}