{
    "goal": {
        "global_pose": {
            "orientation": {
                "w": 0.5084816217422485,
                "x": -0.49083608388900757,
                "y": 0.5182115435600281,
                "z": -0.4816462993621826
            },
            "position": {
                "x": 0.5540239810943604,
                "y": 0.030875300988554955,
                "z": 0.16403168439865112
            }
        },
        "name": "move_to_storage_A"
    },
    "id": "BiEST_move_to_storage_A_124",
    "joint_names": [
        "shoulder_pan_joint",
        "shoulder_lift_joint",
        "elbow_joint",
        "wrist_1_joint",
        "wrist_2_joint",
        "wrist_3_joint"
    ],
    "metrics": {
        "cart_traj_len": 0.35299891257702753,
        "distance_elbow_joint": 0.4521740256350837,
        "distance_shoulder_lift_joint": 0.2325018571587265,
        "distance_shoulder_pan_joint": 0.4628843452862445,
        "distance_wrist_1_joint": 0.2550042887118714,
        "distance_wrist_2_joint": 1.092377319010665,
        "distance_wrist_3_joint": 0.1035619882915384,
        "smoothness": 8.881784197001252e-16,
        "time": 0.07171902299999999,
        "traj_len": 1.6119875384425681,
        "weighted_distance": 2.037893375130245
    },
    "planner": "BiEST",
    "start": {
        "state": {
            "elbow_joint": 1.9715477243005601,
            "shoulder_lift_joint": -1.1394853015351272,
            "shoulder_pan_joint": 0.12281154014795169,
            "wrist_1_joint": -0.7804696478968182,
            "wrist_2_joint": 0.12958648046900423,
            "wrist_3_joint": -3.192491284697111
        }
    },
    "waypoints": [
        {
            "positions": [
                0.12281154014795169,
                -1.1394853015351272,
                1.9715477243005601,
                -0.7804696478968182,
                0.12958648046900423,
                -3.192491284697111
            ]
        },
        {
            "positions": [
                0.05668520510705963,
                -1.1726998525578023,
                2.0361440136770006,
                -0.8168988319985141,
                0.2856403831848135,
                -3.177696714941177
            ]
        },
        {
            "positions": [
                -0.009441129933832434,
                -1.2059144035804776,
                2.100740303053441,
                -0.85332801610021,
                0.44169428590062276,
                -3.1629021451852433
            ]
        },
        {
            "positions": [
                -0.07556746497472451,
                -1.2391289546031528,
                2.1653365924298815,
                -0.8897572002019059,
                0.597748188616432,
                -3.148107575429309
            ]
        },
        {
            "positions": [
                -0.14169380001561654,
                -1.272343505625828,
                2.229932881806322,
                -0.9261863843036018,
                0.7538020913322413,
                -3.133313005673375
            ]
        },
        {
            "positions": [
                -0.20782013505650865,
                -1.3055580566485032,
                2.294529171182763,
                -0.9626155684052977,
                0.9098559940480506,
                -3.1185184359174407
            ]
        },
        {
            "positions": [
                -0.2739464700974007,
                -1.3387726076711783,
                2.3591254605592034,
                -0.9990447525069936,
                1.0659098967638598,
                -3.103723866161507
            ]
        },
        {
            "positions": [
                -0.3400728051382928,
                -1.3719871586938537,
                2.423721749935644,
                -1.0354739366086896,
                1.2219637994796693,
                -3.088929296405573
            ]
        }
    ]
}