{
    "goal": {
        "global_pose": {
            "orientation": {
                "w": 0.7047431468963623,
                "x": -0.7094548344612122,
                "y": 0.0024358443915843964,
                "z": -0.0022348060738295317
            },
            "position": {
                "x": 0.6094750761985779,
                "y": 0.3671506643295288,
                "z": 0.19426114857196808
            }
        },
        "name": "move_to_magneteinheit_A"
    },
    "id": "BiEST_move_to_magneteinheit_A_34",
    "joint_names": [
        "shoulder_pan_joint",
        "shoulder_lift_joint",
        "elbow_joint",
        "wrist_1_joint",
        "wrist_2_joint",
        "wrist_3_joint"
    ],
    "metrics": {
        "cart_traj_len": 3.1850716662971625,
        "distance_elbow_joint": 3.9305767359023553,
        "distance_shoulder_lift_joint": 0.4602874767393048,
        "distance_shoulder_pan_joint": 3.0867754049009677,
        "distance_wrist_1_joint": 3.540938574777723,
        "distance_wrist_2_joint": 2.060020176775785,
        "distance_wrist_3_joint": 0.8566009036615356,
        "smoothness": 0.28272485150793314,
        "time": 0.07632392199999999,
        "traj_len": 3.732987981866226,
        "weighted_distance": 4.609702792115155
    },
    "planner": "BiEST",
    "start": {
        "state": {
            "elbow_joint": -1.919618573717145,
            "shoulder_lift_joint": -1.2443395971678275,
            "shoulder_pan_joint": 2.6996025300909787,
            "wrist_1_joint": -1.548550951253194,
            "wrist_2_joint": -1.5709469090946802,
            "wrist_3_joint": 0.4420197732051276
        }
    },
    "waypoints": [
        {
            "positions": [
                2.6996025300909787,
                -1.2443395971678275,
                -1.919618573717145,
                -1.548550951253194,
                -1.5709469090946802,
                0.4420197732051276
            ]
        },
        {
            "positions": [
                2.5954260648261447,
                -1.2430037022294254,
                -1.8429273269697557,
                -1.44585007954914,
                -1.4926427266808366,
                0.4129103437837345
            ]
        },
        {
            "positions": [
                2.4912495995613106,
                -1.2416678072910232,
                -1.7662360802223667,
                -1.3431492078450862,
                -1.414338544266993,
                0.3838009143623414
            ]
        },
        {
            "positions": [
                2.3870731342964766,
                -1.240331912352621,
                -1.6895448334749774,
                -1.2404483361410321,
                -1.3360343618531494,
                0.3546914849409483
            ]
        },
        {
            "positions": [
                2.282896669031642,
                -1.238996017414219,
                -1.6128535867275882,
                -1.1377474644369783,
                -1.2577301794393057,
                0.3255820555195552
            ]
        },
        {
            "positions": [
                2.178720203766808,
                -1.2376601224758168,
                -1.5361623399801991,
                -1.0350465927329242,
                -1.1794259970254621,
                0.29647262609816216
            ]
        },
        {
            "positions": [
                2.074543738501974,
                -1.2363242275374147,
                -1.45947109323281,
                -0.9323457210288703,
                -1.1011218146116186,
                0.26736319667676905
            ]
        },
        {
            "positions": [
                1.97036727323714,
                -1.2349883325990125,
                -1.3827798464854208,
                -0.8296448493248162,
                -1.0228176321977749,
                0.23825376725537595
            ]
        },
        {
            "positions": [
                1.866190807972306,
                -1.2336524376606104,
                -1.3060885997380316,
                -0.7269439776207622,
                -0.9445134497839313,
                0.20914433783398284
            ]
        },
        {
            "positions": [
                1.762014342707472,
                -1.2323165427222083,
                -1.2293973529906426,
                -0.6242431059167082,
                -0.8662092673700876,
                0.18003490841258973
            ]
        },
        {
            "positions": [
                1.6578378774426377,
                -1.2309806477838061,
                -1.1527061062432533,
                -0.5215422342126543,
                -0.7879050849562441,
                0.15092547899119668
            ]
        },
        {
            "positions": [
                1.5536614121778036,
                -1.2296447528454038,
                -1.076014859495864,
                -0.41884136250860027,
                -0.7096009025424005,
                0.12181604956980358
            ]
        },
        {
            "positions": [
                1.4494849469129696,
                -1.2283088579070016,
                -0.999323612748475,
                -0.3161404908045464,
                -0.631296720128557,
                0.09270662014841052
            ]
        },
        {
            "positions": [
                1.3453084816481353,
                -1.2269729629685995,
                -0.9226323660010858,
                -0.21343961910049214,
                -0.5529925377147131,
                0.06359719072701736
            ]
        },
        {
            "positions": [
                1.2411320163833013,
                -1.2256370680301973,
                -0.8459411192536967,
                -0.1107387473964383,
                -0.4746883553008696,
                0.03448776130562431
            ]
        },
        {
            "positions": [
                1.1369555511184672,
                -1.2243011730917952,
                -0.7692498725063077,
                -0.008037875692384455,
                -0.3963841728870261,
                0.005378331884231258
            ]
        },
        {
            "positions": [
                1.032779085853633,
                -1.222965278153393,
                -0.6925586257589182,
                0.09466299601166961,
                -0.31807999047318236,
                -0.023731097537161905
            ]
        },
        {
            "positions": [
                0.9286026205887992,
                -1.221629383214991,
                -0.6158673790115292,
                0.19736386771572367,
                -0.23977580805933885,
                -0.052840526958554956
            ]
        },
        {
            "positions": [
                0.8244261553239649,
                -1.2202934882765888,
                -0.53917613226414,
                0.30006473941977774,
                -0.1614716256454951,
                -0.08194995637994812
            ]
        },
        {
            "positions": [
                0.7202496900591309,
                -1.2189575933381867,
                -0.46248488551675093,
                0.4027656111238316,
                -0.0831674432316516,
                -0.11105938580134117
            ]
        },
        {
            "positions": [
                0.6160732247942966,
                -1.2176216983997845,
                -0.3857936387693617,
                0.5054664828278854,
                -0.004863260817808079,
                -0.14016881522273422
            ]
        },
        {
            "positions": [
                0.5118967595294626,
                -1.2162858034613824,
                -0.3091023920219724,
                0.6081673545319397,
                0.07344092159603566,
                -0.16927824464412738
            ]
        },
        {
            "positions": [
                0.4077202942646284,
                -1.2149499085229802,
                -0.23241114527458342,
                0.7108682262359935,
                0.1517451040098791,
                -0.19838767406552046
            ]
        },
        {
            "positions": [
                0.3586824366489866,
                -1.1884879427314115,
                -0.06136441408141868,
                0.8133836342607573,
                0.12401066686697457,
                -0.18342600642003665
            ]
        },
        {
            "positions": [
                0.30964457903334475,
                -1.1620259769398424,
                0.10968231711174606,
                0.9158990422855211,
                0.09627622972407003,
                -0.16846433877455283
            ]
        },
        {
            "positions": [
                0.2606067214177029,
                -1.1355640111482734,
                0.28072904830491074,
                1.0184144503102848,
                0.06854179258116551,
                -0.153502671129069
            ]
        },
        {
            "positions": [
                0.21156886380206102,
                -1.1091020453567046,
                0.45177577949807557,
                1.1209298583350487,
                0.04080735543826097,
                -0.1385410034835852
            ]
        },
        {
            "positions": [
                0.1625310061864192,
                -1.0826400795651359,
                0.6228225106912403,
                1.2234452663598123,
                0.01307291829535645,
                -0.12357933583810138
            ]
        },
        {
            "positions": [
                0.11349314857077736,
                -1.0561781137735669,
                0.7938692418844049,
                1.325960674384576,
                -0.014661518847548072,
                -0.10861766819261756
            ]
        },
        {
            "positions": [
                0.06445529095513552,
                -1.0297161479819978,
                0.9649159730775698,
                1.4284760824093397,
                -0.042395955990452594,
                -0.09365600054713374
            ]
        },
        {
            "positions": [
                0.015417433339493636,
                -1.003254182190429,
                1.1359627042707345,
                1.5309914904341035,
                -0.07013039313335714,
                -0.07869433290164993
            ]
        },
        {
            "positions": [
                -0.0336204242761482,
                -0.9767922163988602,
                1.3070094354638992,
                1.6335068984588674,
                -0.09786483027626167,
                -0.06373266525616611
            ]
        },
        {
            "positions": [
                -0.08265828189179003,
                -0.9503302506072913,
                1.478056166657064,
                1.7360223064836309,
                -0.1255992674191662,
                -0.04877099761068229
            ]
        },
        {
            "positions": [
                -0.1316961395074319,
                -0.9238682848157224,
                1.6491028978502287,
                1.8385377145083948,
                -0.15333370456207068,
                -0.033809329965198476
            ]
        },
        {
            "positions": [
                -0.0465372277399127,
                -0.8772628966866558,
                1.7697213192952226,
                1.8898210175137728,
                -0.14258391952897864,
                -0.051014367395387165
            ]
        },
        {
            "positions": [
                0.03862168402760649,
                -0.8306575085575892,
                1.8903397407402163,
                1.9411043205191512,
                -0.1318341344958866,
                -0.06821940482557586
            ]
        },
        {
            "positions": [
                0.12378059579512571,
                -0.7840521204285227,
                2.01095816218521,
                1.9923876235245292,
                -0.12108434946279456,
                -0.08542444225576455
            ]
        }
    ]
}{
    "goal": {
        "global_pose": {
            "orientation": {
                "w": 0.7047431468963623,
                "x": -0.7094548344612122,
                "y": 0.0024358443915843964,
                "z": -0.0022348060738295317
            },
            "position": {
                "x": 0.6094750761985779,
                "y": 0.3671506643295288,
                "z": 0.19426114857196808
            }
        },
        "name": "move_to_magneteinheit_A"
    },
    "id": "BiEST_move_to_magneteinheit_A_34",
    "joint_names": [
        "shoulder_pan_joint",
        "shoulder_lift_joint",
        "elbow_joint",
        "wrist_1_joint",
        "wrist_2_joint",
        "wrist_3_joint"
    ],
    "metrics": {
        "cart_traj_len": 1.3015146517364173,
        "distance_elbow_joint": 0.20392348780394332,
        "distance_shoulder_lift_joint": 0.7512552496389151,
        "distance_shoulder_pan_joint": 1.3715861263317222,
        "distance_wrist_1_joint": 0.7408138271860427,
        "distance_wrist_2_joint": 1.4435268154297094,
        "distance_wrist_3_joint": 4.247599499444312,
        "smoothness": 0.15448427738600853,
        "time": 0.09775688199999999,
        "traj_len": 2.9595109403133897,
        "weighted_distance": 4.40888247148175
    },
    "planner": "BiEST",
    "start": {
        "state": {
            "elbow_joint": 1.919643534880228,
            "shoulder_lift_joint": -1.8972525353963687,
            "shoulder_pan_joint": -1.1188672234189438,
            "wrist_1_joint": -1.5931878212786155,
            "wrist_2_joint": 1.5706036197970081,
            "wrist_3_joint": 1.118896926603594
        }
    },
    "waypoints": [
        {
            "positions": [
                -1.1188672234189438,
                -1.8972525353963687,
                1.919643534880228,
                -1.5931878212786155,
                1.5706036197970081,
                1.118896926603594
            ]
        },
        {
            "positions": [
                -1.1511818089476336,
                -1.8832932080496025,
                1.885012200925603,
                -1.5821857770491743,
                1.5211194554577072,
                0.9560411304964503
            ]
        },
        {
            "positions": [
                -1.183496394476323,
                -1.8693338807028366,
                1.8503808669709776,
                -1.5711837328197333,
                1.471635291118406,
                0.7931853343893067
            ]
        },
        {
            "positions": [
                -1.1212603489870687,
                -1.8348892809435327,
                1.856793286965963,
                -1.5369546976422495,
                1.4076086965112105,
                0.6064287673783532
            ]
        },
        {
            "positions": [
                -1.0590243034978142,
                -1.8004446811842287,
                1.8632057069609482,
                -1.5027256624647656,
                1.3435821019040148,
                0.4196722003673996
            ]
        },
        {
            "positions": [
                -0.9967882580085599,
                -1.7660000814249248,
                1.8696181269559338,
                -1.468496627287282,
                1.2795555072968194,
                0.23291563335644605
            ]
        },
        {
            "positions": [
                -0.9345522125193054,
                -1.731555481665621,
                1.876030546950919,
                -1.434267592109798,
                1.2155289126896238,
                0.046159066345492494
            ]
        },
        {
            "positions": [
                -0.872316167030051,
                -1.6971108819063168,
                1.8824429669459044,
                -1.4000385569323142,
                1.1515023180824282,
                -0.14059750066546106
            ]
        },
        {
            "positions": [
                -0.8100801215407966,
                -1.6626662821470128,
                1.8888553869408897,
                -1.3658095217548303,
                1.0874757234752326,
                -0.3273540676764146
            ]
        },
        {
            "positions": [
                -0.7478440760515421,
                -1.628221682387709,
                1.8952678069358753,
                -1.3315804865773464,
                1.023449128868037,
                -0.5141106346873681
            ]
        },
        {
            "positions": [
                -0.6856080305622878,
                -1.593777082628405,
                1.9016802269308606,
                -1.2973514513998627,
                0.9594225342608415,
                -0.7008672016983217
            ]
        },
        {
            "positions": [
                -0.6233719850730334,
                -1.559332482869101,
                1.908092646925846,
                -1.2631224162223789,
                0.8953959396536458,
                -0.8876237687092752
            ]
        },
        {
            "positions": [
                -0.5611359395837789,
                -1.5248878831097972,
                1.9145050669208312,
                -1.228893381044895,
                0.8313693450464502,
                -1.0743803357202288
            ]
        },
        {
            "positions": [
                -0.4988998940945244,
                -1.490443283350493,
                1.9209174869158168,
                -1.194664345867411,
                0.7673427504392546,
                -1.2611369027311827
            ]
        },
        {
            "positions": [
                -0.4366638486052701,
                -1.4559986835911891,
                1.927329906910802,
                -1.1604353106899272,
                0.7033161558320591,
                -1.447893469742136
            ]
        },
        {
            "positions": [
                -0.37442780311601565,
                -1.4215540838318852,
                1.9337423269057874,
                -1.1262062755124433,
                0.6392895612248634,
                -1.6346500367530896
            ]
        },
        {
            "positions": [
                -0.3121917576267612,
                -1.3871094840725813,
                1.9401547469007727,
                -1.0919772403349597,
                0.5752629666176678,
                -1.8214066037640428
            ]
        },
        {
            "positions": [
                -0.24995571213750678,
                -1.3526648843132774,
                1.9465671668957583,
                -1.0577482051574758,
                0.5112363720104722,
                -2.008163170774997
            ]
        },
        {
            "positions": [
                -0.18771966664825246,
                -1.3182202845539734,
                1.9529795868907436,
                -1.023519169979992,
                0.44720977740327683,
                -2.19491973778595
            ]
        },
        {
            "positions": [
                -0.12548362115899803,
                -1.2837756847946693,
                1.959392006885729,
                -0.989290134802508,
                0.383183182796081,
                -2.381676304796904
            ]
        },
        {
            "positions": [
                -0.0632475756697437,
                -1.2493310850353656,
                1.9658044268807142,
                -0.9550610996250243,
                0.3191565881888856,
                -2.568432871807857
            ]
        },
        {
            "positions": [
                -0.0010115301804891619,
                -1.2148864852760615,
                1.9722168468756998,
                -0.9208320644475404,
                0.25512999358169,
                -2.755189438818811
            ]
        },
        {
            "positions": [
                0.06122451530876516,
                -1.1804418855167578,
                1.978629266870685,
                -0.8866030292700566,
                0.19110339897449435,
                -2.9419460058297644
            ]
        },
        {
            "positions": [
                0.1234605607980196,
                -1.1459972857574536,
                1.9850416868656704,
                -0.8523739940925728,
                0.1270768043672988,
                -3.128702572840718
            ]
        }
    ]
}