{
    "goal": {
        "global_pose": {
            "orientation": {
                "w": 0.7047431468963623,
                "x": -0.7094548344612122,
                "y": 0.0024358443915843964,
                "z": -0.0022348060738295317
            },
            "position": {
                "x": 0.6094750761985779,
                "y": 0.3671506643295288,
                "z": 0.19426114857196808
            }
        },
        "name": "move_to_magneteinheit_A"
    },
    "id": "BiEST_move_to_magneteinheit_A_109",
    "joint_names": [
        "shoulder_pan_joint",
        "shoulder_lift_joint",
        "elbow_joint",
        "wrist_1_joint",
        "wrist_2_joint",
        "wrist_3_joint"
    ],
    "metrics": {
        "cart_traj_len": 3.4347458422422568,
        "distance_elbow_joint": 3.906427622673819,
        "distance_shoulder_lift_joint": 0.5300241214261182,
        "distance_shoulder_pan_joint": 2.7984934496062297,
        "distance_wrist_1_joint": 3.462216804761906,
        "distance_wrist_2_joint": 2.41359078963718,
        "distance_wrist_3_joint": 0.985561299572519,
        "smoothness": 0.07331427492592679,
        "time": 0.083419597,
        "traj_len": 3.754505838013541,
        "weighted_distance": 4.684361672759897
    },
    "planner": "BiEST",
    "start": {
        "state": {
            "elbow_joint": -1.919618573717145,
            "shoulder_lift_joint": -1.2443395971678275,
            "shoulder_pan_joint": 2.6996025300909787,
            "wrist_1_joint": -1.548550951253194,
            "wrist_2_joint": -1.5709469090946802,
            "wrist_3_joint": 0.4420197732051276
        }
    },
    "waypoints": [
        {
            "positions": [
                2.6996025300909787,
                -1.2443395971678275,
                -1.919618573717145,
                -1.548550951253194,
                -1.5709469090946802,
                0.4420197732051276
            ]
        },
        {
            "positions": [
                2.5948955334629513,
                -1.2430678184073165,
                -1.7973571013013725,
                -1.4784702970778434,
                -1.4869568768034669,
                0.45405664694266606
            ]
        },
        {
            "positions": [
                2.490188536834924,
                -1.2417960396468055,
                -1.6750956288856,
                -1.408389642902493,
                -1.4029668445122538,
                0.46609352068020454
            ]
        },
        {
            "positions": [
                2.3854815402068965,
                -1.2405242608862945,
                -1.5528341564698276,
                -1.3383089887271424,
                -1.3189768122210406,
                0.478130394417743
            ]
        },
        {
            "positions": [
                2.2807745435788696,
                -1.2392524821257835,
                -1.4305726840540554,
                -1.2682283345517917,
                -1.2349867799298275,
                0.49016726815528144
            ]
        },
        {
            "positions": [
                2.176067546950842,
                -1.2379807033652726,
                -1.3083112116382827,
                -1.198147680376441,
                -1.1509967476386143,
                0.5022041418928199
            ]
        },
        {
            "positions": [
                2.0713605503228147,
                -1.2367089246047616,
                -1.1860497392225104,
                -1.1280670262010906,
                -1.067006715347401,
                0.5142410156303584
            ]
        },
        {
            "positions": [
                1.9666535536947873,
                -1.2354371458442506,
                -1.0637882668067378,
                -1.0579863720257399,
                -0.983016683056188,
                0.5262778893678969
            ]
        },
        {
            "positions": [
                1.8619465570667602,
                -1.2341653670837396,
                -0.9415267943909655,
                -0.9879057178503894,
                -0.8990266507649748,
                0.5383147631054354
            ]
        },
        {
            "positions": [
                1.7572395604387328,
                -1.2328935883232286,
                -0.8192653219751931,
                -0.9178250636750387,
                -0.8150366184737616,
                0.5503516368429738
            ]
        },
        {
            "positions": [
                1.6525325638107056,
                -1.2316218095627176,
                -0.6970038495594206,
                -0.8477444094996882,
                -0.7310465861825485,
                0.5623885105805123
            ]
        },
        {
            "positions": [
                1.5478255671826782,
                -1.2303500308022066,
                -0.5747423771436482,
                -0.7776637553243375,
                -0.6470565538913352,
                0.5744253843180508
            ]
        },
        {
            "positions": [
                1.4431185705546508,
                -1.2290782520416956,
                -0.45248090472787594,
                -0.707583101148987,
                -0.563066521600122,
                0.5864622580555893
            ]
        },
        {
            "positions": [
                1.3384115739266236,
                -1.2278064732811846,
                -0.3302194323121035,
                -0.6375024469736364,
                -0.479076489308909,
                0.5984991317931276
            ]
        },
        {
            "positions": [
                1.233704577298596,
                -1.2265346945206737,
                -0.2079579598963308,
                -0.5674217927982858,
                -0.39508645701769574,
                0.6105360055306662
            ]
        },
        {
            "positions": [
                1.1289975806705688,
                -1.2252629157601627,
                -0.08569648748055858,
                -0.49734113862293516,
                -0.31109642472648247,
                0.6225728792682046
            ]
        },
        {
            "positions": [
                1.0242905840425416,
                -1.2239911369996517,
                0.03656498493521387,
                -0.4272604844475847,
                -0.22710639243526942,
                0.6346097530057431
            ]
        },
        {
            "positions": [
                0.9195835874145142,
                -1.2227193582391407,
                0.1588264573509861,
                -0.357179830272234,
                -0.14311636014405638,
                0.6466466267432815
            ]
        },
        {
            "positions": [
                0.8148765907864868,
                -1.2214475794786297,
                0.2810879297667588,
                -0.2870991760968833,
                -0.05912632785284311,
                0.65868350048082
            ]
        },
        {
            "positions": [
                0.7101695941584596,
                -1.2201758007181187,
                0.403349402182531,
                -0.21701852192153281,
                0.02486370443837016,
                0.6707203742183585
            ]
        },
        {
            "positions": [
                0.6054625975304324,
                -1.2189040219576077,
                0.5256108745983037,
                -0.14693786774618234,
                0.1088537367295832,
                0.682757247955897
            ]
        },
        {
            "positions": [
                0.500755600902405,
                -1.2176322431970967,
                0.6478723470140759,
                -0.07685721357083164,
                0.19284376902079625,
                0.6947941216934355
            ]
        },
        {
            "positions": [
                0.3960486042743776,
                -1.2163604644365857,
                0.7701338194298486,
                -0.006776559395480941,
                0.27683380131200974,
                0.7068309954309739
            ]
        },
        {
            "positions": [
                0.29134160764635,
                -1.2150886856760748,
                0.892395291845621,
                0.06330409477986948,
                0.3608238336032229,
                0.7188678691685124
            ]
        },
        {
            "positions": [
                0.23624194563726325,
                -1.1453231253982061,
                0.9426716809530399,
                0.23228473153788992,
                0.3579078296640677,
                0.7143741333294836
            ]
        },
        {
            "positions": [
                0.18114228362817653,
                -1.0755575651203375,
                0.9929480700604588,
                0.40126536829591036,
                0.35499182572491245,
                0.709880397490455
            ]
        },
        {
            "positions": [
                0.12604262161908977,
                -1.005792004842469,
                1.0432244591678776,
                0.5702460050539307,
                0.35207582178575725,
                0.7053866616514262
            ]
        },
        {
            "positions": [
                0.10318664598711044,
                -0.9535305385822685,
                1.0988464436093617,
                0.7240949283319341,
                0.3220347534631975,
                0.6705487539854774
            ]
        },
        {
            "positions": [
                0.08033067035513111,
                -0.9012690723220682,
                1.1544684280508457,
                0.8779438516099376,
                0.2919936851406377,
                0.6357108463195287
            ]
        },
        {
            "positions": [
                0.05747469472315178,
                -0.8490076060618679,
                1.2100904124923297,
                1.031792774887941,
                0.26195261681807797,
                0.60087293865358
            ]
        },
        {
            "positions": [
                0.03461871909117245,
                -0.7967461398016675,
                1.2657123969338138,
                1.1856416981659443,
                0.23191154849551818,
                0.5660350309876313
            ]
        },
        {
            "positions": [
                0.01176274345919312,
                -0.7444846735414672,
                1.3213343813752978,
                1.3394906214439477,
                0.20187048017295842,
                0.5311971233216826
            ]
        },
        {
            "positions": [
                0.0306505015426807,
                -0.7498491340657538,
                1.4354807046302152,
                1.4389641029948959,
                0.14666379039302563,
                0.44064999663955956
            ]
        },
        {
            "positions": [
                0.04953825962616828,
                -0.7552135945900403,
                1.5496270278851325,
                1.538437584545844,
                0.09145710061309283,
                0.35010286995743656
            ]
        },
        {
            "positions": [
                0.06842601770965584,
                -0.760578055114327,
                1.6637733511400499,
                1.637911066096792,
                0.03625041083316005,
                0.2595557432753136
            ]
        },
        {
            "positions": [
                0.08731377579314344,
                -0.7659425156386135,
                1.7779196743949672,
                1.73738454764774,
                -0.018956278946772764,
                0.16900861659319055
            ]
        },
        {
            "positions": [
                0.106201533876631,
                -0.7713069761629001,
                1.8920659976498846,
                1.8368580291986882,
                -0.07416296872670552,
                0.0784614899110676
            ]
        },
        {
            "positions": [
                0.1224164064336369,
                -0.7746538713412251,
                1.9868090489566737,
                1.913665853508712,
                -0.12099621333605434,
                0.010154665559378231
            ]
        }
    ]
}{
    "goal": {
        "global_pose": {
            "orientation": {
                "w": 0.7047431468963623,
                "x": -0.7094548344612122,
                "y": 0.0024358443915843964,
                "z": -0.0022348060738295317
            },
            "position": {
                "x": 0.6094750761985779,
                "y": 0.3671506643295288,
                "z": 0.19426114857196808
            }
        },
        "name": "move_to_magneteinheit_A"
    },
    "id": "BiEST_move_to_magneteinheit_A_109",
    "joint_names": [
        "shoulder_pan_joint",
        "shoulder_lift_joint",
        "elbow_joint",
        "wrist_1_joint",
        "wrist_2_joint",
        "wrist_3_joint"
    ],
    "metrics": {
        "cart_traj_len": 2.770964658406256,
        "distance_elbow_joint": 4.399110085326203,
        "distance_shoulder_lift_joint": 0.9675159043961328,
        "distance_shoulder_pan_joint": 2.412314499146928,
        "distance_wrist_1_joint": 0.774194159307158,
        "distance_wrist_2_joint": 1.4369361718035207,
        "distance_wrist_3_joint": 4.278757329328011,
        "smoothness": 0.33503296591678156,
        "time": 0.06574423,
        "traj_len": 3.7774102437130064,
        "weighted_distance": 5.003745910722752
    },
    "planner": "BiEST",
    "start": {
        "state": {
            "elbow_joint": 1.919643534880228,
            "shoulder_lift_joint": -1.8972525353963687,
            "shoulder_pan_joint": -1.1188672234189438,
            "wrist_1_joint": -1.5931878212786155,
            "wrist_2_joint": 1.5706036197970081,
            "wrist_3_joint": 1.118896926603594
        }
    },
    "waypoints": [
        {
            "positions": [
                -1.1188672234189438,
                -1.8972525353963687,
                1.919643534880228,
                -1.5931878212786155,
                1.5706036197970081,
                1.118896926603594
            ]
        },
        {
            "positions": [
                -1.1606918799156511,
                -1.8357868494803191,
                1.764717814549692,
                -1.5922032098729455,
                1.476195089646597,
                1.0879712932181287
            ]
        },
        {
            "positions": [
                -1.2025165364123584,
                -1.7743211635642695,
                1.6097920942191561,
                -1.5912185984672755,
                1.3817865594961858,
                1.0570456598326634
            ]
        },
        {
            "positions": [
                -1.2443411929090658,
                -1.7128554776482199,
                1.45486637388862,
                -1.5902339870616053,
                1.2873780293457746,
                1.0261200264471981
            ]
        },
        {
            "positions": [
                -1.286165849405773,
                -1.6513897917321703,
                1.299940653558084,
                -1.5892493756559354,
                1.1929694991953634,
                0.9951943930617327
            ]
        },
        {
            "positions": [
                -1.3279905059024804,
                -1.5899241058161206,
                1.1450149332275479,
                -1.5882647642502654,
                1.098560969044952,
                0.9642687596762675
            ]
        },
        {
            "positions": [
                -1.3698151623991877,
                -1.5284584199000713,
                0.990089212897012,
                -1.5872801528445954,
                1.004152438894541,
                0.9333431262908022
            ]
        },
        {
            "positions": [
                -1.4116398188958952,
                -1.4669927339840214,
                0.8351634925664759,
                -1.5862955414389255,
                0.9097439087441297,
                0.9024174929053368
            ]
        },
        {
            "positions": [
                -1.4534644753926025,
                -1.405527048067972,
                0.6802377722359401,
                -1.5853109300332553,
                0.8153353785937185,
                0.8714918595198715
            ]
        },
        {
            "positions": [
                -1.4952891318893098,
                -1.3440613621519222,
                0.5253120519054038,
                -1.5843263186275853,
                0.7209268484433072,
                0.8405662261344062
            ]
        },
        {
            "positions": [
                -1.537113788386017,
                -1.2825956762358728,
                0.3703863315748679,
                -1.5833417072219154,
                0.6265183182928961,
                0.809640592748941
            ]
        },
        {
            "positions": [
                -1.5789384448827244,
                -1.2211299903198232,
                0.2154606112443318,
                -1.5823570958162454,
                0.532109788142485,
                0.7787149593634757
            ]
        },
        {
            "positions": [
                -1.6207631013794317,
                -1.1596643044037735,
                0.060534890913795936,
                -1.5813724844105752,
                0.4377012579920738,
                0.7477893259780104
            ]
        },
        {
            "positions": [
                -1.662587757876139,
                -1.098198618487724,
                -0.09439082941674015,
                -1.5803878730049052,
                0.3432927278416624,
                0.716863692592545
            ]
        },
        {
            "positions": [
                -1.7044124143728463,
                -1.0367329325716743,
                -0.24931654974727646,
                -1.5794032615992353,
                0.24888419769125136,
                0.6859380592070797
            ]
        },
        {
            "positions": [
                -1.6249876618427148,
                -1.041384945683476,
                -0.15235350623863736,
                -1.5463419746588971,
                0.24387477379134853,
                0.5187294304274495
            ]
        },
        {
            "positions": [
                -1.545562909312583,
                -1.0460369587952776,
                -0.05539046272999823,
                -1.513280687718559,
                0.23886534989144573,
                0.3515208016478191
            ]
        },
        {
            "positions": [
                -1.4661381567824516,
                -1.0506889719070793,
                0.0415725807786409,
                -1.4802194007782208,
                0.2338559259915429,
                0.1843121728681888
            ]
        },
        {
            "positions": [
                -1.3867134042523201,
                -1.055340985018881,
                0.13853562428728,
                -1.4471581138378826,
                0.2288465020916401,
                0.01710354408855852
            ]
        },
        {
            "positions": [
                -1.3072886517221884,
                -1.0599929981306826,
                0.23549866779591916,
                -1.4140968268975445,
                0.22383707819173726,
                -0.15010508469107176
            ]
        },
        {
            "positions": [
                -1.227863899192057,
                -1.0646450112424843,
                0.33246171130455826,
                -1.3810355399572063,
                0.21882765429183443,
                -0.31731371347070214
            ]
        },
        {
            "positions": [
                -1.1484391466619255,
                -1.069297024354286,
                0.4294247548131974,
                -1.3479742530168681,
                0.21381823039193162,
                -0.4845223422503325
            ]
        },
        {
            "positions": [
                -1.069014394131794,
                -1.0739490374660876,
                0.5263877983218365,
                -1.31491296607653,
                0.2088088064920288,
                -0.6517309710299627
            ]
        },
        {
            "positions": [
                -0.9895896416016623,
                -1.0786010505778894,
                0.6233508418304757,
                -1.2818516791361918,
                0.203799382592126,
                -0.8189395998095931
            ]
        },
        {
            "positions": [
                -0.9101648890715308,
                -1.083253063689691,
                0.7203138853391148,
                -1.2487903921958536,
                0.19878995869222316,
                -0.9861482285892232
            ]
        },
        {
            "positions": [
                -0.8307401365413992,
                -1.0879050768014926,
                0.8172769288477539,
                -1.2157291052555155,
                0.19378053479232032,
                -1.1533568573688537
            ]
        },
        {
            "positions": [
                -0.7513153840112677,
                -1.0925570899132944,
                0.914239972356393,
                -1.1826678183151773,
                0.18877111089241752,
                -1.320565486148484
            ]
        },
        {
            "positions": [
                -0.6718906314811361,
                -1.0972091030250959,
                1.011203015865032,
                -1.1496065313748391,
                0.18376168699251472,
                -1.487774114928114
            ]
        },
        {
            "positions": [
                -0.5924658789510044,
                -1.1018611161368976,
                1.1081660593736713,
                -1.116545244434501,
                0.17875226309261188,
                -1.6549827437077447
            ]
        },
        {
            "positions": [
                -0.513041126420873,
                -1.1065131292486994,
                1.2051291028823103,
                -1.0834839574941628,
                0.17374283919270905,
                -1.8221913724873748
            ]
        },
        {
            "positions": [
                -0.4336163738907415,
                -1.111165142360501,
                1.3020921463909494,
                -1.0504226705538247,
                0.16873341529280622,
                -1.989400001267005
            ]
        },
        {
            "positions": [
                -0.35419162136061,
                -1.1158171554723026,
                1.3990551898995884,
                -1.0173613836134865,
                0.16372399139290342,
                -2.156608630046635
            ]
        },
        {
            "positions": [
                -0.2747668688304783,
                -1.1204691685841044,
                1.496018233408228,
                -0.9843000966731483,
                0.15871456749300059,
                -2.3238172588262658
            ]
        },
        {
            "positions": [
                -0.1953421163003468,
                -1.125121181695906,
                1.592981276916867,
                -0.9512388097328102,
                0.15370514359309778,
                -2.491025887605896
            ]
        },
        {
            "positions": [
                -0.11591736377021533,
                -1.1297731948077077,
                1.689944320425506,
                -0.918177522792472,
                0.14869571969319495,
                -2.658234516385526
            ]
        },
        {
            "positions": [
                -0.03649261124008385,
                -1.1344252079195094,
                1.7869073639341448,
                -0.8851162358521338,
                0.14368629579329212,
                -2.8254431451651563
            ]
        },
        {
            "positions": [
                0.042932141290047854,
                -1.139077221031311,
                1.8838704074427843,
                -0.8520549489117957,
                0.1386768718933893,
                -2.992651773944787
            ]
        },
        {
            "positions": [
                0.12235689382017938,
                -1.1437292341431127,
                1.9808334509514236,
                -0.8189936619714575,
                0.13366744799348648,
                -3.159860402724417
            ]
        }
    ]
}