{
    "goal": {
        "global_pose": {
            "orientation": {
                "w": 0.5084816217422485,
                "x": -0.49083608388900757,
                "y": 0.5182115435600281,
                "z": -0.4816462993621826
            },
            "position": {
                "x": 0.5540239810943604,
                "y": 0.030875300988554955,
                "z": 0.16403168439865112
            }
        },
        "name": "move_to_storage_A"
    },
    "id": "BiEST_move_to_storage_A_82",
    "joint_names": [
        "shoulder_pan_joint",
        "shoulder_lift_joint",
        "elbow_joint",
        "wrist_1_joint",
        "wrist_2_joint",
        "wrist_3_joint"
    ],
    "metrics": {
        "cart_traj_len": 0.3535269025232057,
        "distance_elbow_joint": 0.4471760789895254,
        "distance_shoulder_lift_joint": 0.23378700138855057,
        "distance_shoulder_pan_joint": 0.4596692043458845,
        "distance_wrist_1_joint": 0.23473430353631153,
        "distance_wrist_2_joint": 1.110101005929467,
        "distance_wrist_3_joint": 0.10223509604707992,
        "smoothness": 6.661338165333112e-16,
        "time": 0.083612468,
        "traj_len": 1.6086337961875659,
        "weighted_distance": 2.0339636653088857
    },
    "planner": "BiEST",
    "start": {
        "state": {
            "elbow_joint": 1.9715477243005601,
            "shoulder_lift_joint": -1.1394853015351272,
            "shoulder_pan_joint": 0.12281154014795169,
            "wrist_1_joint": -0.7804696478968182,
            "wrist_2_joint": 0.12958648046900423,
            "wrist_3_joint": -3.192491284697111
        }
    },
    "waypoints": [
        {
            "positions": [
                0.12281154014795169,
                -1.1394853015351272,
                1.9715477243005601,
                -0.7804696478968182,
                0.12958648046900423,
                -3.192491284697111
            ]
        },
        {
            "positions": [
                0.05714451095568249,
                -1.1728834445906344,
                2.0354300212990637,
                -0.8140031198305769,
                0.2881723384589281,
                -3.1778862709760998
            ]
        },
        {
            "positions": [
                -0.008522518236586715,
                -1.2062815876461417,
                2.0993123182975673,
                -0.8475365917643357,
                0.4467581964488519,
                -3.1632812572550884
            ]
        },
        {
            "positions": [
                -0.07418954742885593,
                -1.239679730701649,
                2.163194615296071,
                -0.8810700636980945,
                0.6053440544387758,
                -3.148676243534077
            ]
        },
        {
            "positions": [
                -0.1398565766211251,
                -1.273077873757156,
                2.2270769122945744,
                -0.9146035356318534,
                0.7639299124286996,
                -3.1340712298130655
            ]
        },
        {
            "positions": [
                -0.20552360581339435,
                -1.3064760168126632,
                2.2909592092930784,
                -0.9481370075656121,
                0.9225157704186234,
                -3.119466216092054
            ]
        },
        {
            "positions": [
                -0.27119063500566354,
                -1.3398741598681705,
                2.354841506291582,
                -0.9816704794993709,
                1.0811016284085473,
                -3.1048612023710427
            ]
        },
        {
            "positions": [
                -0.3368576641979328,
                -1.3732723029236777,
                2.4187238032900855,
                -1.0152039514331297,
                1.239687486398471,
                -3.0902561886500313
            ]
        }
    ]
}