{
    "goal": {
        "global_pose": {
            "orientation": {
                "w": 0.5084816217422485,
                "x": -0.49083608388900757,
                "y": 0.5182115435600281,
                "z": -0.4816462993621826
            },
            "position": {
                "x": 0.5540239810943604,
                "y": 0.030875300988554955,
                "z": 0.16403168439865112
            }
        },
        "name": "move_to_storage_A"
    },
    "id": "BiEST_move_to_storage_A_87",
    "joint_names": [
        "shoulder_pan_joint",
        "shoulder_lift_joint",
        "elbow_joint",
        "wrist_1_joint",
        "wrist_2_joint",
        "wrist_3_joint"
    ],
    "metrics": {
        "cart_traj_len": 0.3523005084014124,
        "distance_elbow_joint": 0.447311900718685,
        "distance_shoulder_lift_joint": 0.2338808942194801,
        "distance_shoulder_pan_joint": 0.4598741524213349,
        "distance_wrist_1_joint": 0.23524528004838385,
        "distance_wrist_2_joint": 1.100050872922547,
        "distance_wrist_3_joint": 0.09808273450760119,
        "smoothness": 1.1102230244806396e-15,
        "time": 0.06204965900000001,
        "traj_len": 1.6045079728184688,
        "weighted_distance": 2.0263038905416346
    },
    "planner": "BiEST",
    "start": {
        "state": {
            "elbow_joint": 1.9715477243005601,
            "shoulder_lift_joint": -1.1394853015351272,
            "shoulder_pan_joint": 0.12281154014795169,
            "wrist_1_joint": -0.7804696478968182,
            "wrist_2_joint": 0.12958648046900423,
            "wrist_3_joint": -3.192491284697111
        }
    },
    "waypoints": [
        {
            "positions": [
                0.12281154014795169,
                -1.1394853015351272,
                1.9715477243005601,
                -0.7804696478968182,
                0.12958648046900423,
                -3.192491284697111
            ]
        },
        {
            "positions": [
                0.057115232659189566,
                -1.1728968578521957,
                2.0354494244032293,
                -0.8140761164751588,
                0.2867366051722252,
                -3.1784794654817397
            ]
        },
        {
            "positions": [
                -0.008581074829572558,
                -1.2063084141692644,
                2.099351124505899,
                -0.8476825850534992,
                0.44388672987544625,
                -3.164467646266368
            ]
        },
        {
            "positions": [
                -0.07427738231833468,
                -1.2397199704863329,
                2.163252824608568,
                -0.8812890536318398,
                0.6010368545786673,
                -3.1504558270509966
            ]
        },
        {
            "positions": [
                -0.1399736898070968,
                -1.2731315268034016,
                2.227154524711237,
                -0.9148955222101803,
                0.7581869792818883,
                -3.1364440078356246
            ]
        },
        {
            "positions": [
                -0.20566999729585894,
                -1.30654308312047,
                2.2910562248139064,
                -0.9485019907885209,
                0.9153371039851094,
                -3.122432188620253
            ]
        },
        {
            "positions": [
                -0.27136630478462104,
                -1.3399546394375386,
                2.354957924916576,
                -0.9821084593668614,
                1.0724872286883302,
                -3.1084203694048815
            ]
        },
        {
            "positions": [
                -0.3370626122733832,
                -1.3733661957546073,
                2.418859625019245,
                -1.015714927945202,
                1.2296373533915512,
                -3.09440855018951
            ]
        }
    ]
}