{
    "goal": {
        "global_pose": {
            "orientation": {
                "w": 0.7047431468963623,
                "x": -0.7094548344612122,
                "y": 0.0024358443915843964,
                "z": -0.0022348060738295317
            },
            "position": {
                "x": 0.6094750761985779,
                "y": 0.3671506643295288,
                "z": 0.19426114857196808
            }
        },
        "name": "move_to_magneteinheit_A"
    },
    "id": "BiEST_move_to_magneteinheit_A_4",
    "joint_names": [
        "shoulder_pan_joint",
        "shoulder_lift_joint",
        "elbow_joint",
        "wrist_1_joint",
        "wrist_2_joint",
        "wrist_3_joint"
    ],
    "metrics": {
        "cart_traj_len": 3.5179147047390664,
        "distance_elbow_joint": 3.9054846609512666,
        "distance_shoulder_lift_joint": 0.4710031604730054,
        "distance_shoulder_pan_joint": 2.7945390770130527,
        "distance_wrist_1_joint": 3.4503270583616246,
        "distance_wrist_2_joint": 2.6898717329693875,
        "distance_wrist_3_joint": 1.0520709783931776,
        "smoothness": 0.11645682404597976,
        "time": 0.071756618,
        "traj_len": 3.7898940180645586,
        "weighted_distance": 4.754748933043562
    },
    "planner": "BiEST",
    "start": {
        "state": {
            "elbow_joint": -1.919618573717145,
            "shoulder_lift_joint": -1.2443395971678275,
            "shoulder_pan_joint": 2.6996025300909787,
            "wrist_1_joint": -1.548550951253194,
            "wrist_2_joint": -1.5709469090946802,
            "wrist_3_joint": 0.4420197732051276
        }
    },
    "waypoints": [
        {
            "positions": [
                2.6996025300909787,
                -1.2443395971678275,
                -1.919618573717145,
                -1.548550951253194,
                -1.5709469090946802,
                0.4420197732051276
            ]
        },
        {
            "positions": [
                2.582847812454531,
                -1.2395192338445398,
                -1.816609371138245,
                -1.4827228421009935,
                -1.4809759625751742,
                0.4557670948244385
            ]
        },
        {
            "positions": [
                2.4660930948180835,
                -1.2346988705212518,
                -1.713600168559345,
                -1.416894732948793,
                -1.3910050160556684,
                0.4695144164437494
            ]
        },
        {
            "positions": [
                2.3493383771816356,
                -1.229878507197964,
                -1.610590965980445,
                -1.3510666237965925,
                -1.3010340695361624,
                0.48326173806306033
            ]
        },
        {
            "positions": [
                2.2325836595451882,
                -1.2250581438746764,
                -1.507581763401545,
                -1.285238514644392,
                -1.2110631230166566,
                0.49700905968237125
            ]
        },
        {
            "positions": [
                2.1158289419087404,
                -1.2202377805513887,
                -1.4045725608226447,
                -1.2194104054921915,
                -1.1210921764971506,
                0.5107563813016821
            ]
        },
        {
            "positions": [
                1.9990742242722928,
                -1.2154174172281007,
                -1.3015633582437447,
                -1.1535822963399909,
                -1.0311212299776447,
                0.524503702920993
            ]
        },
        {
            "positions": [
                1.882319506635845,
                -1.210597053904813,
                -1.1985541556648447,
                -1.0877541871877905,
                -0.9411502834581388,
                0.5382510245403039
            ]
        },
        {
            "positions": [
                1.7655647889993973,
                -1.2057766905815253,
                -1.0955449530859447,
                -1.0219260780355899,
                -0.8511793369386329,
                0.5519983461596148
            ]
        },
        {
            "positions": [
                1.6488100713629497,
                -1.2009563272582375,
                -0.9925357505070447,
                -0.9560979688833894,
                -0.7612083904191269,
                0.5657456677789258
            ]
        },
        {
            "positions": [
                1.532055353726502,
                -1.1961359639349496,
                -0.8895265479281447,
                -0.8902698597311889,
                -0.671237443899621,
                0.5794929893982367
            ]
        },
        {
            "positions": [
                1.4153006360900542,
                -1.1913156006116619,
                -0.7865173453492447,
                -0.8244417505789883,
                -0.581266497380115,
                0.5932403110175476
            ]
        },
        {
            "positions": [
                1.2985459184536068,
                -1.1864952372883741,
                -0.6835081427703447,
                -0.7586136414267879,
                -0.49129555086060916,
                0.6069876326368585
            ]
        },
        {
            "positions": [
                1.1817912008171592,
                -1.1816748739650864,
                -0.5804989401914447,
                -0.6927855322745874,
                -0.4013246043411034,
                0.6207349542561694
            ]
        },
        {
            "positions": [
                1.065036483180711,
                -1.1768545106417985,
                -0.47748973761254443,
                -0.6269574231223867,
                -0.3113536578215974,
                0.6344822758754803
            ]
        },
        {
            "positions": [
                0.9482817655442637,
                -1.1720341473185107,
                -0.37448053503364465,
                -0.5611293139701863,
                -0.22138271130209142,
                0.6482295974947913
            ]
        },
        {
            "positions": [
                0.8315270479078161,
                -1.167213783995223,
                -0.27147133245474464,
                -0.4953012048179857,
                -0.13141176478258565,
                0.6619769191141022
            ]
        },
        {
            "positions": [
                0.7147723302713684,
                -1.1623934206719353,
                -0.16846212987584464,
                -0.4294730956657853,
                -0.04144081826307966,
                0.6757242407334131
            ]
        },
        {
            "positions": [
                0.5980176126349206,
                -1.1575730573486473,
                -0.06545292729694441,
                -0.3636449865135847,
                0.04853012825642633,
                0.689471562352724
            ]
        },
        {
            "positions": [
                0.48126289499847275,
                -1.1527526940253596,
                0.0375562752819556,
                -0.29781687736138407,
                0.1385010747759321,
                0.7032188839720349
            ]
        },
        {
            "positions": [
                0.36450817736202534,
                -1.147932330702072,
                0.1405654778608556,
                -0.23198876820918368,
                0.2284720212954381,
                0.7169662055913458
            ]
        },
        {
            "positions": [
                0.24775345972557794,
                -1.1431119673787842,
                0.2435746804397556,
                -0.1661606590569833,
                0.31844296781494386,
                0.7307135272106567
            ]
        },
        {
            "positions": [
                0.13099874208912965,
                -1.1382916040554962,
                0.3465838830186556,
                -0.10033254990478246,
                0.40841391433445007,
                0.7444608488299677
            ]
        },
        {
            "positions": [
                0.014244024452682028,
                -1.1334712407322085,
                0.4495930855975557,
                -0.034504440752582105,
                0.4983848608539559,
                0.7582081704492786
            ]
        },
        {
            "positions": [
                0.014325207479163955,
                -1.1057788911868867,
                0.5578338959944125,
                0.10022524808942926,
                0.4594536202839214,
                0.6997638464426638
            ]
        },
        {
            "positions": [
                0.014406390505645881,
                -1.0780865416415648,
                0.6660747063912693,
                0.23495493693144062,
                0.4205223797138869,
                0.641319522436049
            ]
        },
        {
            "positions": [
                0.014487573532127807,
                -1.050394192096243,
                0.7743155167881259,
                0.36968462577345196,
                0.38159113914385245,
                0.5828751984294341
            ]
        },
        {
            "positions": [
                0.014568756558609734,
                -1.0227018425509211,
                0.8825563271849828,
                0.5044143146154634,
                0.34265989857381796,
                0.5244308744228192
            ]
        },
        {
            "positions": [
                0.01464993958509166,
                -0.9950094930055992,
                0.9907971375818396,
                0.6391440034574747,
                0.30372865800378346,
                0.46598655041620446
            ]
        },
        {
            "positions": [
                0.014731122611573586,
                -0.9673171434602773,
                1.0990379479786963,
                0.773873692299486,
                0.26479741743374896,
                0.40754222640958965
            ]
        },
        {
            "positions": [
                0.014812305638055513,
                -0.9396247939149555,
                1.207278758375553,
                0.9086033811414973,
                0.22586617686371452,
                0.34909790240297484
            ]
        },
        {
            "positions": [
                0.014893488664537439,
                -0.9119324443696335,
                1.31551956877241,
                1.0433330699835088,
                0.18693493629367997,
                0.29065357839635997
            ]
        },
        {
            "positions": [
                0.014974671691019365,
                -0.8842400948243117,
                1.4237603791692668,
                1.1780627588255201,
                0.14800369572364552,
                0.23220925438974516
            ]
        },
        {
            "positions": [
                0.015055854717501291,
                -0.8565477452789898,
                1.5320011895661234,
                1.3127924476675314,
                0.10907245515361105,
                0.17376493038313034
            ]
        },
        {
            "positions": [
                0.03672960293948919,
                -0.8399054835621562,
                1.6227741690997235,
                1.4305891795557115,
                0.06282694368952964,
                0.1434770621665546
            ]
        },
        {
            "positions": [
                0.05840335116147709,
                -0.8232632218453227,
                1.7135471486333234,
                1.5483859114438916,
                0.016581432225448223,
                0.11318919394997887
            ]
        },
        {
            "positions": [
                0.08007709938346497,
                -0.8066209601284892,
                1.8043201281669234,
                1.6661826433320714,
                -0.02966407923863318,
                0.08290132573340313
            ]
        },
        {
            "positions": [
                0.10175084760545287,
                -0.7899786984116557,
                1.8950931077005233,
                1.7839793752202515,
                -0.07590959070271461,
                0.052613457516827375
            ]
        },
        {
            "positions": [
                0.12342459582744077,
                -0.7733364366948221,
                1.9858660872341234,
                1.9017761071084316,
                -0.12215510216679602,
                0.02232558930025163
            ]
        }
    ]
}{
    "goal": {
        "global_pose": {
            "orientation": {
                "w": 0.7047431468963623,
                "x": -0.7094548344612122,
                "y": 0.0024358443915843964,
                "z": -0.0022348060738295317
            },
            "position": {
                "x": 0.6094750761985779,
                "y": 0.3671506643295288,
                "z": 0.19426114857196808
            }
        },
        "name": "move_to_magneteinheit_A"
    },
    "id": "BiEST_move_to_magneteinheit_A_4",
    "joint_names": [
        "shoulder_pan_joint",
        "shoulder_lift_joint",
        "elbow_joint",
        "wrist_1_joint",
        "wrist_2_joint",
        "wrist_3_joint"
    ],
    "metrics": {
        "cart_traj_len": 1.2214406503999073,
        "distance_elbow_joint": 0.04747451698662908,
        "distance_shoulder_lift_joint": 0.7658458171065741,
        "distance_shoulder_pan_joint": 1.2421207778228196,
        "distance_wrist_1_joint": 2.9449414293941523,
        "distance_wrist_2_joint": 3.0267766232140403,
        "distance_wrist_3_joint": 4.354183675099167,
        "smoothness": 0.44445081418908705,
        "time": 0.110026046,
        "traj_len": 3.51871323634413,
        "weighted_distance": 5.202059999887536
    },
    "planner": "BiEST",
    "start": {
        "state": {
            "elbow_joint": 1.919643534880228,
            "shoulder_lift_joint": -1.8972525353963687,
            "shoulder_pan_joint": -1.1188672234189438,
            "wrist_1_joint": -1.5931878212786155,
            "wrist_2_joint": 1.5706036197970081,
            "wrist_3_joint": 1.118896926603594
        }
    },
    "waypoints": [
        {
            "positions": [
                -1.1188672234189438,
                -1.8972525353963687,
                1.919643534880228,
                -1.5931878212786155,
                1.5706036197970081,
                1.118896926603594
            ]
        },
        {
            "positions": [
                -1.1010219737371014,
                -1.878319697179287,
                1.921481248858008,
                -1.5102185197219746,
                1.4733554728239624,
                0.9586577465569166
            ]
        },
        {
            "positions": [
                -1.083176724055259,
                -1.8593868589622053,
                1.9233189628357876,
                -1.427249218165334,
                1.3761073258509169,
                0.7984185665102393
            ]
        },
        {
            "positions": [
                -1.0653314743734166,
                -1.8404540207451239,
                1.9251566768135675,
                -1.3442799166086932,
                1.2788591788778711,
                0.6381793864635621
            ]
        },
        {
            "positions": [
                -1.0474862246915742,
                -1.8215211825280422,
                1.9269943907913474,
                -1.2613106150520523,
                1.1816110319048256,
                0.4779402064168847
            ]
        },
        {
            "positions": [
                -1.0296409750097317,
                -1.8025883443109605,
                1.928832104769127,
                -1.1783413134954117,
                1.08436288493178,
                0.3177010263702075
            ]
        },
        {
            "positions": [
                -1.0117957253278893,
                -1.7836555060938788,
                1.930669818746907,
                -1.0953720119387709,
                0.9871147379587343,
                0.1574618463235301
            ]
        },
        {
            "positions": [
                -0.9939504756460469,
                -1.764722667876797,
                1.9325075327246868,
                -1.0124027103821303,
                0.8898665909856887,
                -0.002777333723147146
            ]
        },
        {
            "positions": [
                -0.9761052259642045,
                -1.7457898296597154,
                1.9343452467024664,
                -0.9294334088254894,
                0.792618444012643,
                -0.1630165137698245
            ]
        },
        {
            "positions": [
                -0.958259976282362,
                -1.726856991442634,
                1.9361829606802463,
                -0.8464641072688486,
                0.6953702970395973,
                -0.3232556938165019
            ]
        },
        {
            "positions": [
                -0.9404147266005196,
                -1.7079241532255522,
                1.9380206746580262,
                -0.7634948057122078,
                0.5981221500665518,
                -0.483494873863179
            ]
        },
        {
            "positions": [
                -0.9225694769186772,
                -1.6889913150084706,
                1.9398583886358058,
                -0.680525504155567,
                0.5008740030935062,
                -0.6437340539098564
            ]
        },
        {
            "positions": [
                -0.9047242272368348,
                -1.6700584767913889,
                1.9416961026135857,
                -0.5975562025989264,
                0.4036258561204604,
                -0.8039732339565338
            ]
        },
        {
            "positions": [
                -0.8868789775549923,
                -1.6511256385743072,
                1.9435338165913654,
                -0.5145869010422857,
                0.3063777091474149,
                -0.9642124140032109
            ]
        },
        {
            "positions": [
                -0.8690337278731498,
                -1.6321928003572255,
                1.9453715305691452,
                -0.4316175994856448,
                0.20912956217436918,
                -1.1244515940498883
            ]
        },
        {
            "positions": [
                -0.8511884781913075,
                -1.6132599621401438,
                1.9472092445469251,
                -0.348648297929004,
                0.11188141520132344,
                -1.2846907740965656
            ]
        },
        {
            "positions": [
                -0.8333432285094651,
                -1.5943271239230623,
                1.9490469585247048,
                -0.26567899637236336,
                0.01463326822827793,
                -1.444929954143243
            ]
        },
        {
            "positions": [
                -0.8154979788276226,
                -1.5753942857059806,
                1.9508846725024847,
                -0.18270969481572252,
                -0.08261487874476758,
                -1.60516913418992
            ]
        },
        {
            "positions": [
                -0.7976527291457801,
                -1.556461447488899,
                1.9527223864802645,
                -0.09974039325908168,
                -0.17986302571781354,
                -1.7654083142365977
            ]
        },
        {
            "positions": [
                -0.7798074794639377,
                -1.5375286092718172,
                1.9545601004580442,
                -0.016771091702441066,
                -0.27711117269085905,
                -1.925647494283275
            ]
        },
        {
            "positions": [
                -0.7619622297820953,
                -1.5185957710547355,
                1.956397814435824,
                0.06619820985419977,
                -0.37435931966390457,
                -2.0858866743299522
            ]
        },
        {
            "positions": [
                -0.744116980100253,
                -1.499662932837654,
                1.958235528413604,
                0.1491675114108404,
                -0.4716074666369501,
                -2.246125854376629
            ]
        },
        {
            "positions": [
                -0.7262717304184104,
                -1.4807300946205724,
                1.9600732423913836,
                0.23213681296748145,
                -0.5688556136099958,
                -2.406365034423307
            ]
        },
        {
            "positions": [
                -0.708426480736568,
                -1.4617972564034907,
                1.9619109563691635,
                0.31510611452412196,
                -0.6661037605830415,
                -2.566604214469984
            ]
        },
        {
            "positions": [
                -0.6252584772225236,
                -1.428758202592121,
                1.961390246819394,
                0.21144136516498052,
                -0.5870968362996425,
                -2.6334724678725427
            ]
        },
        {
            "positions": [
                -0.5420904737084793,
                -1.3957191487807514,
                1.9608695372696248,
                0.10777661580583908,
                -0.5080899120162434,
                -2.7003407212751016
            ]
        },
        {
            "positions": [
                -0.4589224701944349,
                -1.3626800949693818,
                1.9603488277198553,
                0.004111866446697698,
                -0.4290829877328443,
                -2.7672089746776605
            ]
        },
        {
            "positions": [
                -0.3757544666803905,
                -1.3296410411580122,
                1.959828118170086,
                -0.0995528829124438,
                -0.3500760634494452,
                -2.8340772280802193
            ]
        },
        {
            "positions": [
                -0.2925864631663461,
                -1.2966019873466426,
                1.9593074086203166,
                -0.20321763227158518,
                -0.27106913916604614,
                -2.900945481482778
            ]
        },
        {
            "positions": [
                -0.20941845965230177,
                -1.2635629335352732,
                1.9587866990705471,
                -0.30688238163072656,
                -0.19206221488264708,
                -2.9678137348853375
            ]
        },
        {
            "positions": [
                -0.12625045613825736,
                -1.2305238797239035,
                1.958265989520778,
                -0.41054713098986795,
                -0.11305529059924802,
                -3.0346819882878964
            ]
        },
        {
            "positions": [
                -0.04308245262421295,
                -1.197484825912534,
                1.9577452799710084,
                -0.5142118803490096,
                -0.034048366315848844,
                -3.1015502416904552
            ]
        },
        {
            "positions": [
                0.040085550889831345,
                -1.1644457721011643,
                1.9572245704212392,
                -0.6178766297081509,
                0.04495855796755022,
                -3.168418495093014
            ]
        },
        {
            "positions": [
                0.12325355440387577,
                -1.1314067182897947,
                1.9567038608714697,
                -0.7215413790672922,
                0.12396548225094925,
                -3.235286748495573
            ]
        }
    ]
}