{
    "goal": {
        "global_pose": {
            "orientation": {
                "w": 0.7047431468963623,
                "x": -0.7094548344612122,
                "y": 0.0024358443915843964,
                "z": -0.0022348060738295317
            },
            "position": {
                "x": 0.6094750761985779,
                "y": 0.3671506643295288,
                "z": 0.19426114857196808
            }
        },
        "name": "move_to_magneteinheit_A"
    },
    "id": "BiEST_move_to_magneteinheit_A_150",
    "joint_names": [
        "shoulder_pan_joint",
        "shoulder_lift_joint",
        "elbow_joint",
        "wrist_1_joint",
        "wrist_2_joint",
        "wrist_3_joint"
    ],
    "metrics": {
        "cart_traj_len": 3.460716688898944,
        "distance_elbow_joint": 3.9152617668553624,
        "distance_shoulder_lift_joint": 0.4661060259742631,
        "distance_shoulder_pan_joint": 2.7142828506587633,
        "distance_wrist_1_joint": 3.4840504276911597,
        "distance_wrist_2_joint": 4.295700784049787,
        "distance_wrist_3_joint": 0.4477118707291675,
        "smoothness": 0.21431250129421156,
        "time": 0.085433671,
        "traj_len": 3.914474897857758,
        "weighted_distance": 4.898804821500626
    },
    "planner": "BiEST",
    "start": {
        "state": {
            "elbow_joint": -1.919618573717145,
            "shoulder_lift_joint": -1.2443395971678275,
            "shoulder_pan_joint": 2.6996025300909787,
            "wrist_1_joint": -1.548550951253194,
            "wrist_2_joint": -1.5709469090946802,
            "wrist_3_joint": 0.4420197732051276
        }
    },
    "waypoints": [
        {
            "positions": [
                2.6996025300909787,
                -1.2443395971678275,
                -1.919618573717145,
                -1.548550951253194,
                -1.5709469090946802,
                0.4420197732051276
            ]
        },
        {
            "positions": [
                2.612565680576504,
                -1.2371175187172736,
                -1.821335586835123,
                -1.4680489993522754,
                -1.4605998472634623,
                0.4399799303421281
            ]
        },
        {
            "positions": [
                2.525528831062029,
                -1.2298954402667195,
                -1.7230525999531012,
                -1.3875470474513565,
                -1.3502527854322444,
                0.4379400874791287
            ]
        },
        {
            "positions": [
                2.4384919815475543,
                -1.2226733618161656,
                -1.6247696130710794,
                -1.3070450955504378,
                -1.2399057236010265,
                0.43590024461612925
            ]
        },
        {
            "positions": [
                2.351455132033079,
                -1.2154512833656115,
                -1.5264866261890573,
                -1.2265431436495189,
                -1.1295586617698086,
                0.4338604017531298
            ]
        },
        {
            "positions": [
                2.2644182825186046,
                -1.2082292049150576,
                -1.4282036393070354,
                -1.1460411917486002,
                -1.0192115999385907,
                0.4318205588901303
            ]
        },
        {
            "positions": [
                2.17738143300413,
                -1.2010071264645037,
                -1.3299206524250136,
                -1.0655392398476815,
                -0.908864538107373,
                0.4297807160271309
            ]
        },
        {
            "positions": [
                2.090344583489655,
                -1.1937850480139496,
                -1.2316376655429917,
                -0.9850372879467627,
                -0.7985174762761551,
                0.42774087316413145
            ]
        },
        {
            "positions": [
                2.00330773397518,
                -1.1865629695633957,
                -1.1333546786609698,
                -0.9045353360458439,
                -0.6881704144449372,
                0.425701030301132
            ]
        },
        {
            "positions": [
                1.9162708844607053,
                -1.1793408911128418,
                -1.0350716917789478,
                -0.8240333841449251,
                -0.5778233526137194,
                0.4236611874381325
            ]
        },
        {
            "positions": [
                1.8292340349462304,
                -1.1721188126622877,
                -0.9367887048969259,
                -0.7435314322440063,
                -0.4674762907825014,
                0.4216213445751331
            ]
        },
        {
            "positions": [
                1.7421971854317557,
                -1.1648967342117338,
                -0.838505718014904,
                -0.6630294803430876,
                -0.35712922895128374,
                0.41958150171213365
            ]
        },
        {
            "positions": [
                1.6551603359172808,
                -1.1576746557611797,
                -0.7402227311328822,
                -0.5825275284421687,
                -0.24678216712006584,
                0.4175416588491342
            ]
        },
        {
            "positions": [
                1.568123486402806,
                -1.1504525773106258,
                -0.6419397442508603,
                -0.50202557654125,
                -0.13643510528884795,
                0.4155018159861348
            ]
        },
        {
            "positions": [
                1.481086636888331,
                -1.1432304988600719,
                -0.5436567573688385,
                -0.42152362464033133,
                -0.02608804345763005,
                0.4134619731231353
            ]
        },
        {
            "positions": [
                1.3940497873738564,
                -1.1360084204095178,
                -0.4453737704868166,
                -0.34102167273941264,
                0.08425901837358762,
                0.41142213026013585
            ]
        },
        {
            "positions": [
                1.3070129378593813,
                -1.1287863419589639,
                -0.3470907836047945,
                -0.26051972083849373,
                0.19460608020480574,
                0.4093822873971364
            ]
        },
        {
            "positions": [
                1.2199760883449067,
                -1.1215642635084098,
                -0.24880779672277265,
                -0.18001776893757482,
                0.3049531420360234,
                0.407342444534137
            ]
        },
        {
            "positions": [
                1.1329392388304318,
                -1.1143421850578559,
                -0.15052480984075078,
                -0.09951581703665613,
                0.4153002038672413,
                0.4053026016711375
            ]
        },
        {
            "positions": [
                1.0459023893159571,
                -1.107120106607302,
                -0.052241822958729145,
                -0.01901386513573744,
                0.525647265698459,
                0.40326275880813806
            ]
        },
        {
            "positions": [
                0.958865539801482,
                -1.0998980281567479,
                0.04604116392329316,
                0.06148808676518147,
                0.6359943275296773,
                0.4012229159451386
            ]
        },
        {
            "positions": [
                0.8718286902870074,
                -1.092675949706194,
                0.1443241508053148,
                0.14199003866610016,
                0.7463413893608948,
                0.3991830730821392
            ]
        },
        {
            "positions": [
                0.7847918407725325,
                -1.0854538712556399,
                0.24260713768733688,
                0.22249199056701885,
                0.8566884511921127,
                0.3971432302191397
            ]
        },
        {
            "positions": [
                0.6977549912580576,
                -1.078231792805086,
                0.3408901245693585,
                0.30299394246793776,
                0.9670355130233306,
                0.39510338735614026
            ]
        },
        {
            "positions": [
                0.610718141743583,
                -1.071009714354532,
                0.4391731114513806,
                0.38349589436885667,
                1.0773825748545485,
                0.3930635444931408
            ]
        },
        {
            "positions": [
                0.5236812922291079,
                -1.063787635903978,
                0.5374560983334027,
                0.46399784626977514,
                1.1877296366857664,
                0.3910237016301414
            ]
        },
        {
            "positions": [
                0.4366444427146333,
                -1.056565557453424,
                0.6357390852154244,
                0.544499798170694,
                1.298076698516984,
                0.3889838587671419
            ]
        },
        {
            "positions": [
                0.38123091659489494,
                -1.0438937732474571,
                0.7396064671944371,
                0.6646379108158853,
                1.204645800138587,
                0.38120478702871163
            ]
        },
        {
            "positions": [
                0.32581739047515657,
                -1.0312219890414904,
                0.8434738491734499,
                0.7847760234610766,
                1.11121490176019,
                0.3734257152902813
            ]
        },
        {
            "positions": [
                0.27040386435541813,
                -1.0185502048355235,
                0.9473412311524627,
                0.9049141361062679,
                1.0177840033817929,
                0.365646643551851
            ]
        },
        {
            "positions": [
                0.21499033823567976,
                -1.0058784206295566,
                1.0512086131314753,
                1.025052248751459,
                0.9243531050033957,
                0.3578675718134207
            ]
        },
        {
            "positions": [
                0.15957681211594132,
                -0.9932066364235898,
                1.1550759951104883,
                1.1451903613966505,
                0.8309222066249986,
                0.35008850007499037
            ]
        },
        {
            "positions": [
                0.10416328599620292,
                -0.9805348522176229,
                1.2589433770895009,
                1.2653284740418418,
                0.7374913082466016,
                0.3423094283365601
            ]
        },
        {
            "positions": [
                0.09416750494900665,
                -0.9591136173428181,
                1.3492476249398466,
                1.3529824121716838,
                0.6374341770196567,
                0.30829684609876573
            ]
        },
        {
            "positions": [
                0.08417172390181038,
                -0.9376923824680133,
                1.4395518727901924,
                1.440636350301526,
                0.5373770457927116,
                0.27428426386097143
            ]
        },
        {
            "positions": [
                0.07417594285461412,
                -0.9162711475932085,
                1.529856120640538,
                1.528290288431368,
                0.43731991456576674,
                0.2402716816231771
            ]
        },
        {
            "positions": [
                0.06418016180741784,
                -0.8948499127184038,
                1.6201603684908839,
                1.6159442265612103,
                0.33726278333882176,
                0.20625909938538278
            ]
        },
        {
            "positions": [
                0.054184380760221584,
                -0.8734286778435989,
                1.7104646163412296,
                1.7035981646910523,
                0.23720565211187683,
                0.17224651714758846
            ]
        },
        {
            "positions": [
                0.07140055609222264,
                -0.8496299011810903,
                1.7817592605404764,
                1.7615734926277804,
                0.14575411960362294,
                0.12776186347968135
            ]
        },
        {
            "positions": [
                0.08861673142422369,
                -0.8258311245185816,
                1.8530539047397232,
                1.8195488205645085,
                0.05430258709536909,
                0.08327720981177424
            ]
        },
        {
            "positions": [
                0.10583290675622475,
                -0.802032347856073,
                1.9243485489389702,
                1.8775241485012364,
                -0.03714894541288477,
                0.03879255614386712
            ]
        },
        {
            "positions": [
                0.1230490820882258,
                -0.7782335711935644,
                1.995643193138217,
                1.9354994764379645,
                -0.12860047792113866,
                -0.0056920975240399895
            ]
        }
    ]
}{
    "goal": {
        "global_pose": {
            "orientation": {
                "w": 0.7047431468963623,
                "x": -0.7094548344612122,
                "y": 0.0024358443915843964,
                "z": -0.0022348060738295317
            },
            "position": {
                "x": 0.6094750761985779,
                "y": 0.3671506643295288,
                "z": 0.19426114857196808
            }
        },
        "name": "move_to_magneteinheit_A"
    },
    "id": "BiEST_move_to_magneteinheit_A_150",
    "joint_names": [
        "shoulder_pan_joint",
        "shoulder_lift_joint",
        "elbow_joint",
        "wrist_1_joint",
        "wrist_2_joint",
        "wrist_3_joint"
    ],
    "metrics": {
        "cart_traj_len": 1.8563690638050567,
        "distance_elbow_joint": 0.9373330945370053,
        "distance_shoulder_lift_joint": 0.7646997539941021,
        "distance_shoulder_pan_joint": 1.750296993840555,
        "distance_wrist_1_joint": 0.8773886986957321,
        "distance_wrist_2_joint": 1.7607274392640102,
        "distance_wrist_3_joint": 4.371423070408827,
        "smoothness": 0.4120260852195944,
        "time": 0.104169566,
        "traj_len": 3.2344812645523597,
        "weighted_distance": 4.673631492695763
    },
    "planner": "BiEST",
    "start": {
        "state": {
            "elbow_joint": 1.919643534880228,
            "shoulder_lift_joint": -1.8972525353963687,
            "shoulder_pan_joint": -1.1188672234189438,
            "wrist_1_joint": -1.5931878212786155,
            "wrist_2_joint": 1.5706036197970081,
            "wrist_3_joint": 1.118896926603594
        }
    },
    "waypoints": [
        {
            "positions": [
                -1.1188672234189438,
                -1.8972525353963687,
                1.919643534880228,
                -1.5931878212786155,
                1.5706036197970081,
                1.118896926603594
            ]
        },
        {
            "positions": [
                -1.182581162802694,
                -1.8508765597076953,
                1.8074415212685118,
                -1.5314537830872017,
                1.6116975280389274,
                1.1145575653664819
            ]
        },
        {
            "positions": [
                -1.2462951021864446,
                -1.804500584019022,
                1.6952395076567957,
                -1.4697197448957882,
                1.6527914362808467,
                1.11021820412937
            ]
        },
        {
            "positions": [
                -1.3100090415701948,
                -1.7581246083303486,
                1.5830374940450793,
                -1.4079857067043744,
                1.693885344522766,
                1.105878842892258
            ]
        },
        {
            "positions": [
                -1.373722980953945,
                -1.711748632641675,
                1.470835480433363,
                -1.3462516685129606,
                1.7349792527646852,
                1.1015394816551458
            ]
        },
        {
            "positions": [
                -1.3114129294412136,
                -1.6876154721733665,
                1.4911906904371188,
                -1.3199828124325408,
                1.6684645941690046,
                0.9201200805942967
            ]
        },
        {
            "positions": [
                -1.2491028779284823,
                -1.6634823117050577,
                1.5115459004408747,
                -1.293713956352121,
                1.6019499355733242,
                0.7387006795334476
            ]
        },
        {
            "positions": [
                -1.1867928264157508,
                -1.639349151236749,
                1.5319011104446305,
                -1.2674451002717009,
                1.5354352769776436,
                0.5572812784725985
            ]
        },
        {
            "positions": [
                -1.1244827749030195,
                -1.6152159907684402,
                1.5522563204483864,
                -1.241176244191281,
                1.4689206183819632,
                0.37586187741174937
            ]
        },
        {
            "positions": [
                -1.062172723390288,
                -1.5910828303001316,
                1.5726115304521422,
                -1.2149073881108612,
                1.4024059597862824,
                0.19444247635090017
            ]
        },
        {
            "positions": [
                -0.9998626718775567,
                -1.566949669831823,
                1.592966740455898,
                -1.1886385320304413,
                1.335891301190602,
                0.01302307529005109
            ]
        },
        {
            "positions": [
                -0.9375526203648252,
                -1.5428165093635142,
                1.6133219504596539,
                -1.1623696759500215,
                1.2693766425949213,
                -0.1683963257707981
            ]
        },
        {
            "positions": [
                -0.875242568852094,
                -1.5186833488952056,
                1.6336771604634097,
                -1.1361008198696014,
                1.202861983999241,
                -0.3498157268316471
            ]
        },
        {
            "positions": [
                -0.8129325173393624,
                -1.494550188426897,
                1.6540323704671656,
                -1.1098319637891816,
                1.1363473254035603,
                -0.5312351278924963
            ]
        },
        {
            "positions": [
                -0.7506224658266311,
                -1.4704170279585882,
                1.6743875804709214,
                -1.0835631077087617,
                1.0698326668078797,
                -0.7126545289533455
            ]
        },
        {
            "positions": [
                -0.6883124143138997,
                -1.4462838674902796,
                1.6947427904746772,
                -1.057294251628342,
                1.0033180082121993,
                -0.8940739300141944
            ]
        },
        {
            "positions": [
                -0.6260023628011683,
                -1.422150707021971,
                1.715098000478433,
                -1.031025395547922,
                0.9368033496165187,
                -1.0754933310750436
            ]
        },
        {
            "positions": [
                -0.5636923112884369,
                -1.3980175465536622,
                1.735453210482189,
                -1.0047565394675022,
                0.8702886910208382,
                -1.2569127321358926
            ]
        },
        {
            "positions": [
                -0.5013822597757054,
                -1.3738843860853536,
                1.7558084204859448,
                -0.9784876833870821,
                0.8037740324251575,
                -1.438332133196742
            ]
        },
        {
            "positions": [
                -0.4390722082629741,
                -1.349751225617045,
                1.7761636304897006,
                -0.9522188273066623,
                0.737259373829477,
                -1.619751534257591
            ]
        },
        {
            "positions": [
                -0.3767621567502427,
                -1.3256180651487361,
                1.7965188404934564,
                -0.9259499712262425,
                0.6707447152337966,
                -1.80117093531844
            ]
        },
        {
            "positions": [
                -0.3144521052375113,
                -1.3014849046804273,
                1.8168740504972123,
                -0.8996811151458226,
                0.6042300566381158,
                -1.9825903363792894
            ]
        },
        {
            "positions": [
                -0.2521420537247798,
                -1.2773517442121187,
                1.8372292605009681,
                -0.8734122590654027,
                0.5377153980424354,
                -2.1640097374401384
            ]
        },
        {
            "positions": [
                -0.18983200221204855,
                -1.2532185837438101,
                1.857584470504724,
                -0.8471434029849828,
                0.471200739446755,
                -2.3454291385009873
            ]
        },
        {
            "positions": [
                -0.12752195069931704,
                -1.2290854232755013,
                1.8779396805084798,
                -0.8208745469045629,
                0.40468608085107416,
                -2.5268485395618367
            ]
        },
        {
            "positions": [
                -0.06521189918658576,
                -1.2049522628071927,
                1.8982948905122357,
                -0.794605690824143,
                0.33817142225539376,
                -2.7082679406226857
            ]
        },
        {
            "positions": [
                -0.002901847673854263,
                -1.180819102338884,
                1.9186501005159915,
                -0.7683368347437232,
                0.27165676365971336,
                -2.8896873416835347
            ]
        },
        {
            "positions": [
                0.05940820383887724,
                -1.1566859418705753,
                1.9390053105197473,
                -0.7420679786633032,
                0.20514210506403252,
                -3.0711067427443846
            ]
        },
        {
            "positions": [
                0.12171825535160856,
                -1.1325527814022667,
                1.9593605205235032,
                -0.7157991225828834,
                0.13862744646835204,
                -3.2525261438052326
            ]
        }
    ]
}