{
    "goal": {
        "global_pose": {
            "orientation": {
                "w": 0.5084816217422485,
                "x": -0.49083608388900757,
                "y": 0.5182115435600281,
                "z": -0.4816462993621826
            },
            "position": {
                "x": 0.5540239810943604,
                "y": 0.030875300988554955,
                "z": 0.16403168439865112
            }
        },
        "name": "move_to_storage_A"
    },
    "id": "BiEST_move_to_storage_A_6",
    "joint_names": [
        "shoulder_pan_joint",
        "shoulder_lift_joint",
        "elbow_joint",
        "wrist_1_joint",
        "wrist_2_joint",
        "wrist_3_joint"
    ],
    "metrics": {
        "cart_traj_len": 0.35353760134170537,
        "distance_elbow_joint": 0.451987956387621,
        "distance_shoulder_lift_joint": 0.23330618447908114,
        "distance_shoulder_pan_joint": 0.46412780080969307,
        "distance_wrist_1_joint": 0.25612476782057525,
        "distance_wrist_2_joint": 1.0911175287005679,
        "distance_wrist_3_joint": 0.1094132082492143,
        "smoothness": 2.1094237388036135e-15,
        "time": 0.0728837,
        "traj_len": 1.6143349858213296,
        "weighted_distance": 2.0425832074768273
    },
    "planner": "BiEST",
    "start": {
        "state": {
            "elbow_joint": 1.9715477243005601,
            "shoulder_lift_joint": -1.1394853015351272,
            "shoulder_pan_joint": 0.12281154014795169,
            "wrist_1_joint": -0.7804696478968182,
            "wrist_2_joint": 0.12958648046900423,
            "wrist_3_joint": -3.192491284697111
        }
    },
    "waypoints": [
        {
            "positions": [
                0.12281154014795169,
                -1.1394853015351272,
                1.9715477243005601,
                -0.7804696478968182,
                0.12958648046900423,
                -3.192491284697111
            ]
        },
        {
            "positions": [
                0.056507568603709826,
                -1.17281475646071,
                2.0361174323559346,
                -0.8170589004426146,
                0.28546041314051396,
                -3.176860826375795
            ]
        },
        {
            "positions": [
                -0.009796402940532037,
                -1.2061442113862932,
                2.100687140411309,
                -0.8536481529884111,
                0.44133434581202363,
                -3.1612303680544787
            ]
        },
        {
            "positions": [
                -0.0761003744847739,
                -1.2394736663118762,
                2.1652568484666834,
                -0.8902374055342075,
                0.5972082784835333,
                -3.1455999097331624
            ]
        },
        {
            "positions": [
                -0.14240434602901575,
                -1.2728031212374593,
                2.229826556522058,
                -0.926826658080004,
                0.753082211155043,
                -3.1299694514118457
            ]
        },
        {
            "positions": [
                -0.20870831757325764,
                -1.3061325761630422,
                2.2943962645774323,
                -0.9634159106258005,
                0.9089561438265528,
                -3.1143389930905294
            ]
        },
        {
            "positions": [
                -0.2750122891174995,
                -1.3394620310886252,
                2.3589659726328067,
                -1.000005163171597,
                1.0648300764980623,
                -3.098708534769213
            ]
        },
        {
            "positions": [
                -0.34131626066174137,
                -1.3727914860142083,
                2.423535680688181,
                -1.0365944157173934,
                1.220704009169572,
                -3.083078076447897
            ]
        }
    ]
}