{
    "goal": {
        "global_pose": {
            "orientation": {
                "w": 0.5084816217422485,
                "x": -0.49083608388900757,
                "y": 0.5182115435600281,
                "z": -0.4816462993621826
            },
            "position": {
                "x": 0.5540239810943604,
                "y": 0.030875300988554955,
                "z": 0.16403168439865112
            }
        },
        "name": "move_to_storage_A"
    },
    "id": "BiEST_move_to_storage_A_103",
    "joint_names": [
        "shoulder_pan_joint",
        "shoulder_lift_joint",
        "elbow_joint",
        "wrist_1_joint",
        "wrist_2_joint",
        "wrist_3_joint"
    ],
    "metrics": {
        "cart_traj_len": 0.3525525927664346,
        "distance_elbow_joint": 0.44805841424271664,
        "distance_shoulder_lift_joint": 0.23380528345433516,
        "distance_shoulder_pan_joint": 0.4598572911407869,
        "distance_wrist_1_joint": 0.23806430318682537,
        "distance_wrist_2_joint": 1.1021032563428261,
        "distance_wrist_3_joint": 0.10539450566689368,
        "smoothness": 2.2204460668324854e-16,
        "time": 0.08115187099999999,
        "traj_len": 1.6085033584156372,
        "weighted_distance": 2.034266360361352
    },
    "planner": "BiEST",
    "start": {
        "state": {
            "elbow_joint": 1.9715477243005601,
            "shoulder_lift_joint": -1.1394853015351272,
            "shoulder_pan_joint": 0.12281154014795169,
            "wrist_1_joint": -0.7804696478968182,
            "wrist_2_joint": 0.12958648046900423,
            "wrist_3_joint": -3.192491284697111
        }
    },
    "waypoints": [
        {
            "positions": [
                0.12281154014795169,
                -1.1394853015351272,
                1.9715477243005601,
                -0.7804696478968182,
                0.12958648046900423,
                -3.192491284697111
            ]
        },
        {
            "positions": [
                0.05711764141355356,
                -1.172886056314318,
                2.035556069192377,
                -0.8144788340663647,
                0.28702980280369367,
                -3.1774349267446977
            ]
        },
        {
            "positions": [
                -0.008576257320844563,
                -1.2062868110935085,
                2.0995644140841936,
                -0.8484880202359111,
                0.4444731251383831,
                -3.1623785687922843
            ]
        },
        {
            "positions": [
                -0.07427015605524269,
                -1.2396875658726993,
                2.1635727589760103,
                -0.8824972064054576,
                0.6019164474730725,
                -3.147322210839871
            ]
        },
        {
            "positions": [
                -0.1399640547896408,
                -1.2730883206518901,
                2.2275811038678266,
                -0.9165063925750041,
                0.759359769807762,
                -3.132265852887458
            ]
        },
        {
            "positions": [
                -0.20565795352403893,
                -1.306489075431081,
                2.2915894487596433,
                -0.9505155787445505,
                0.9168030921424515,
                -3.1172094949350444
            ]
        },
        {
            "positions": [
                -0.27135185225843705,
                -1.3398898302102715,
                2.35559779365146,
                -0.984524764914097,
                1.0742464144771409,
                -3.102153136982631
            ]
        },
        {
            "positions": [
                -0.3370457509928352,
                -1.3732905849894623,
                2.4196061385432768,
                -1.0185339510836435,
                1.2316897368118305,
                -3.0870967790302175
            ]
        }
    ]
}