{
    "goal": {
        "global_pose": {
            "orientation": {
                "w": 0.7047431468963623,
                "x": -0.7094548344612122,
                "y": 0.0024358443915843964,
                "z": -0.0022348060738295317
            },
            "position": {
                "x": 0.6094750761985779,
                "y": 0.3671506643295288,
                "z": 0.19426114857196808
            }
        },
        "name": "move_to_magneteinheit_A"
    },
    "id": "BiEST_move_to_magneteinheit_A_7",
    "joint_names": [
        "shoulder_pan_joint",
        "shoulder_lift_joint",
        "elbow_joint",
        "wrist_1_joint",
        "wrist_2_joint",
        "wrist_3_joint"
    ],
    "metrics": {
        "cart_traj_len": 2.973521168502314,
        "distance_elbow_joint": 3.93052999393097,
        "distance_shoulder_lift_joint": 0.8073986240597772,
        "distance_shoulder_pan_joint": 2.896347039197727,
        "distance_wrist_1_joint": 3.526611117337399,
        "distance_wrist_2_joint": 1.6214073918531178,
        "distance_wrist_3_joint": 2.1309643111045165,
        "smoothness": 0.17047750146771498,
        "time": 0.136398012,
        "traj_len": 3.861768827556035,
        "weighted_distance": 4.931856203183855
    },
    "planner": "BiEST",
    "start": {
        "state": {
            "elbow_joint": -1.919618573717145,
            "shoulder_lift_joint": -1.2443395971678275,
            "shoulder_pan_joint": 2.6996025300909787,
            "wrist_1_joint": -1.548550951253194,
            "wrist_2_joint": -1.5709469090946802,
            "wrist_3_joint": 0.4420197732051276
        }
    },
    "waypoints": [
        {
            "positions": [
                2.6996025300909787,
                -1.2443395971678275,
                -1.919618573717145,
                -1.548550951253194,
                -1.5709469090946802,
                0.4420197732051276
            ]
        },
        {
            "positions": [
                2.614094275704617,
                -1.2497623286114385,
                -1.8003397577154858,
                -1.4599569477923713,
                -1.5232574621621695,
                0.4008761916797463
            ]
        },
        {
            "positions": [
                2.528586021318256,
                -1.2551850600550496,
                -1.681060941713827,
                -1.3713629443315485,
                -1.475568015229659,
                0.359732610154365
            ]
        },
        {
            "positions": [
                2.443077766931894,
                -1.2606077914986609,
                -1.5617821257121678,
                -1.2827689408707257,
                -1.4278785682971484,
                0.31858902862898364
            ]
        },
        {
            "positions": [
                2.3575695125455325,
                -1.266030522942272,
                -1.4425033097105087,
                -1.1941749374099029,
                -1.3801891213646378,
                0.27744544710360236
            ]
        },
        {
            "positions": [
                2.2720612581591713,
                -1.271453254385883,
                -1.3232244937088498,
                -1.10558093394908,
                -1.3324996744321274,
                0.23630186557822105
            ]
        },
        {
            "positions": [
                2.1865530037728096,
                -1.276875985829494,
                -1.2039456777071906,
                -1.0169869304882575,
                -1.2848102274996167,
                0.19515828405283975
            ]
        },
        {
            "positions": [
                2.101044749386448,
                -1.282298717273105,
                -1.0846668617055317,
                -0.9283929270274347,
                -1.237120780567106,
                0.15401470252745847
            ]
        },
        {
            "positions": [
                2.0155364950000862,
                -1.2877214487167161,
                -0.9653880457038726,
                -0.8397989235666119,
                -1.1894313336345956,
                0.11287112100207713
            ]
        },
        {
            "positions": [
                1.930028240613725,
                -1.2931441801603274,
                -0.8461092297022135,
                -0.7512049201057891,
                -1.141741886702085,
                0.0717275394766958
            ]
        },
        {
            "positions": [
                1.8445199862273634,
                -1.2985669116039384,
                -0.7268304137005546,
                -0.6626109166449663,
                -1.0940524397695746,
                0.030583957951314522
            ]
        },
        {
            "positions": [
                1.759011731841002,
                -1.3039896430475495,
                -0.6075515976988954,
                -0.5740169131841436,
                -1.046362992837064,
                -0.010559623574066757
            ]
        },
        {
            "positions": [
                1.6735034774546405,
                -1.3094123744911605,
                -0.4882727816972363,
                -0.4854229097233209,
                -0.9986735459045533,
                -0.05170320509944809
            ]
        },
        {
            "positions": [
                1.5879952230682788,
                -1.3148351059347716,
                -0.3689939656955774,
                -0.3968289062624981,
                -0.9509840989720427,
                -0.09284678662482942
            ]
        },
        {
            "positions": [
                1.5024869686819173,
                -1.3202578373783829,
                -0.24971514969391828,
                -0.3082349028016753,
                -0.9032946520395322,
                -0.13399036815021065
            ]
        },
        {
            "positions": [
                1.4169787142955557,
                -1.325680568821994,
                -0.13043633369225938,
                -0.2196408993408525,
                -0.8556052051070215,
                -0.17513394967559198
            ]
        },
        {
            "positions": [
                1.3314704599091942,
                -1.331103300265605,
                -0.01115751769060025,
                -0.1310468958800297,
                -0.807915758174511,
                -0.21627753120097332
            ]
        },
        {
            "positions": [
                1.2459622055228328,
                -1.336526031709216,
                0.10812129831105888,
                -0.04245289241920691,
                -0.7602263112420005,
                -0.25742111272635465
            ]
        },
        {
            "positions": [
                1.160453951136471,
                -1.341948763152827,
                0.227400114312718,
                0.04614111104161589,
                -0.7125368643094898,
                -0.298564694251736
            ]
        },
        {
            "positions": [
                1.0749456967501096,
                -1.3473714945964383,
                0.3466789303143767,
                0.1347351145024387,
                -0.6648474173769793,
                -0.3397082757771172
            ]
        },
        {
            "positions": [
                0.989437442363748,
                -1.3527942260400494,
                0.4659577463160358,
                0.2233291179632615,
                -0.6171579704444687,
                -0.38085185730249854
            ]
        },
        {
            "positions": [
                0.9039291879773865,
                -1.3582169574836604,
                0.5852365623176949,
                0.31192312142408407,
                -0.5694685235119581,
                -0.4219954388278799
            ]
        },
        {
            "positions": [
                0.8184209335910251,
                -1.3636396889272715,
                0.7045153783193541,
                0.40051712488490687,
                -0.5217790765794477,
                -0.4631390203532611
            ]
        },
        {
            "positions": [
                0.7329126792046634,
                -1.3690624203708825,
                0.8237941943210132,
                0.4891111283457299,
                -0.474089629646937,
                -0.5042826018786424
            ]
        },
        {
            "positions": [
                0.6474044248183022,
                -1.3744851518144938,
                0.9430730103226723,
                0.5777051318065523,
                -0.42640018271442637,
                -0.5454261834040237
            ]
        },
        {
            "positions": [
                0.5618961704319405,
                -1.3799078832581049,
                1.062351826324331,
                0.666299135267375,
                -0.37871073578191594,
                -0.586569764929405
            ]
        },
        {
            "positions": [
                0.47638791604557884,
                -1.385330614701716,
                1.1816306423259901,
                0.7548931387281979,
                -0.3310212888494053,
                -0.6277133464547864
            ]
        },
        {
            "positions": [
                0.39087966165921717,
                -1.390753346145327,
                1.3009094583276493,
                0.8434871421890207,
                -0.28333184191689464,
                -0.6688569279801677
            ]
        },
        {
            "positions": [
                0.30537140727285594,
                -1.396176077588938,
                1.4201882743293084,
                0.9320811456498435,
                -0.23564239498438422,
                -0.7100005095055488
            ]
        },
        {
            "positions": [
                0.21986315288649427,
                -1.4015988090325493,
                1.5394670903309675,
                1.0206751491106663,
                -0.18795294805187357,
                -0.7511440910309302
            ]
        },
        {
            "positions": [
                0.1343548985001326,
                -1.4070215404761603,
                1.6587459063326262,
                1.109269152571489,
                -0.14026350111936292,
                -0.7922876725563115
            ]
        },
        {
            "positions": [
                0.048846644113771376,
                -1.4124442719197714,
                1.7780247223342853,
                1.1978631560323119,
                -0.0925740541868525,
                -0.8334312540816928
            ]
        },
        {
            "positions": [
                -0.03666161027259028,
                -1.4178670033633824,
                1.8973035383359447,
                1.2864571594931347,
                -0.04488460725434178,
                -0.8745748356070743
            ]
        },
        {
            "positions": [
                -0.017477835331229007,
                -1.3237373168117692,
                1.9144731399911914,
                1.3872736315077963,
                -0.05609805013556258,
                -0.7551827921631857
            ]
        },
        {
            "positions": [
                0.0017059396101322677,
                -1.2296076302601562,
                1.9316427416464381,
                1.4880901035224579,
                -0.06731149301678338,
                -0.6357907487192972
            ]
        },
        {
            "positions": [
                0.020889714551493535,
                -1.135477943708543,
                1.9488123433016848,
                1.5889065755371194,
                -0.07852493589800419,
                -0.5163987052754087
            ]
        },
        {
            "positions": [
                0.040073489492854816,
                -1.0413482571569297,
                1.9659819449569316,
                1.689723047551781,
                -0.089738378779225,
                -0.3970066618315201
            ]
        },
        {
            "positions": [
                0.059257264434216084,
                -0.9472185706053166,
                1.9831515466121783,
                1.7905395195664426,
                -0.10095182166044579,
                -0.2776146183876316
            ]
        },
        {
            "positions": [
                0.09133927649789209,
                -0.8656071780522383,
                1.9970314834130023,
                1.8842998428253237,
                -0.12059075946378375,
                -0.16890987585119527
            ]
        },
        {
            "positions": [
                0.12342128856156807,
                -0.7839957854991602,
                2.0109114202138265,
                1.9780601660842048,
                -0.1402296972671217,
                -0.06020513331475896
            ]
        }
    ]
}{
    "goal": {
        "global_pose": {
            "orientation": {
                "w": 0.7047431468963623,
                "x": -0.7094548344612122,
                "y": 0.0024358443915843964,
                "z": -0.0022348060738295317
            },
            "position": {
                "x": 0.6094750761985779,
                "y": 0.3671506643295288,
                "z": 0.19426114857196808
            }
        },
        "name": "move_to_magneteinheit_A"
    },
    "id": "BiEST_move_to_magneteinheit_A_7",
    "joint_names": [
        "shoulder_pan_joint",
        "shoulder_lift_joint",
        "elbow_joint",
        "wrist_1_joint",
        "wrist_2_joint",
        "wrist_3_joint"
    ],
    "metrics": {
        "cart_traj_len": 1.2501133718632742,
        "distance_elbow_joint": 0.07118820858825248,
        "distance_shoulder_lift_joint": 1.1222504056834324,
        "distance_shoulder_pan_joint": 1.24123167172574,
        "distance_wrist_1_joint": 3.4985907181656084,
        "distance_wrist_2_joint": 1.7014955395079423,
        "distance_wrist_3_joint": 1.091237316432787,
        "smoothness": 3.330669053122247e-16,
        "time": 0.054844905,
        "traj_len": 2.95397932628239,
        "weighted_distance": 4.013546405691964
    },
    "planner": "BiEST",
    "start": {
        "state": {
            "elbow_joint": 1.919643534880228,
            "shoulder_lift_joint": -1.8972525353963687,
            "shoulder_pan_joint": -1.1188672234189438,
            "wrist_1_joint": -1.5931878212786155,
            "wrist_2_joint": 1.5706036197970081,
            "wrist_3_joint": 1.118896926603594
        }
    },
    "waypoints": [
        {
            "positions": [
                -1.1188672234189438,
                -1.8972525353963687,
                1.919643534880228,
                -1.5931878212786155,
                1.5706036197970081,
                1.118896926603594
            ]
        },
        {
            "positions": [
                -1.0649006289960856,
                -1.848459039497089,
                1.922738674384065,
                -1.4410751813583715,
                1.4966255528618801,
                1.071451825889125
            ]
        },
        {
            "positions": [
                -1.0109340345732274,
                -1.7996655435978095,
                1.9258338138879023,
                -1.2889625414381278,
                1.4226474859267522,
                1.0240067251746559
            ]
        },
        {
            "positions": [
                -0.956967440150369,
                -1.7508720476985298,
                1.9289289533917393,
                -1.136849901517884,
                1.3486694189916244,
                0.9765616244601869
            ]
        },
        {
            "positions": [
                -0.9030008457275108,
                -1.70207855179925,
                1.9320240928955763,
                -0.9847372615976401,
                1.2746913520564964,
                0.929116523745718
            ]
        },
        {
            "positions": [
                -0.8490342513046526,
                -1.6532850558999703,
                1.9351192323994135,
                -0.8326246216773963,
                1.2007132851213684,
                0.881671423031249
            ]
        },
        {
            "positions": [
                -0.7950676568817943,
                -1.6044915600006906,
                1.9382143719032505,
                -0.6805119817571524,
                1.1267352181862407,
                0.83422632231678
            ]
        },
        {
            "positions": [
                -0.741101062458936,
                -1.555698064101411,
                1.9413095114070875,
                -0.5283993418369084,
                1.0527571512511127,
                0.7867812216023109
            ]
        },
        {
            "positions": [
                -0.6871344680360778,
                -1.5069045682021314,
                1.9444046509109245,
                -0.3762867019166647,
                0.9787790843159847,
                0.739336120887842
            ]
        },
        {
            "positions": [
                -0.6331678736132196,
                -1.4581110723028516,
                1.9474997904147617,
                -0.22417406199642076,
                0.9048010173808567,
                0.6918910201733729
            ]
        },
        {
            "positions": [
                -0.5792012791903614,
                -1.4093175764035721,
                1.9505949299185987,
                -0.07206142207617705,
                0.8308229504457288,
                0.644445919458904
            ]
        },
        {
            "positions": [
                -0.525234684767503,
                -1.3605240805042924,
                1.9536900694224357,
                0.08005121784406688,
                0.756844883510601,
                0.5970008187444349
            ]
        },
        {
            "positions": [
                -0.4712680903446448,
                -1.3117305846050127,
                1.956785208926273,
                0.2321638577643106,
                0.682866816575473,
                0.549555718029966
            ]
        },
        {
            "positions": [
                -0.41730149592178656,
                -1.262937088705733,
                1.95988034843011,
                0.3842764976845543,
                0.6088887496403451,
                0.502110617315497
            ]
        },
        {
            "positions": [
                -0.3633349014989282,
                -1.2141435928064532,
                1.962975487933947,
                0.5363891376047987,
                0.534910682705217,
                0.45466551660102783
            ]
        },
        {
            "positions": [
                -0.30936830707607,
                -1.1653500969071737,
                1.9660706274377842,
                0.6885017775250424,
                0.46093261577008926,
                0.4072204158865589
            ]
        },
        {
            "positions": [
                -0.25540171265321177,
                -1.1165566010078942,
                1.9691657669416212,
                0.8406144174452861,
                0.3869545488349613,
                0.35977531517208994
            ]
        },
        {
            "positions": [
                -0.20143511823035354,
                -1.0677631051086145,
                1.9722609064454582,
                0.9927270573655298,
                0.3129764818998335,
                0.312330214457621
            ]
        },
        {
            "positions": [
                -0.1474685238074952,
                -1.0189696092093348,
                1.9753560459492951,
                1.144839697285774,
                0.2389984149647053,
                0.2648851137431518
            ]
        },
        {
            "positions": [
                -0.09350192938463686,
                -0.970176113310055,
                1.9784511854531324,
                1.2969523372060177,
                0.16502034802957755,
                0.21744001302868288
            ]
        },
        {
            "positions": [
                -0.039535334961778856,
                -0.9213826174107754,
                1.9815463249569694,
                1.4490649771262614,
                0.09104228109444956,
                0.16999491231421393
            ]
        },
        {
            "positions": [
                0.014431259461079371,
                -0.8725891215114958,
                1.9846414644608064,
                1.601177617046505,
                0.0170642141593218,
                0.12254981159974498
            ]
        },
        {
            "positions": [
                0.06839785388393782,
                -0.8237956256122161,
                1.9877366039646436,
                1.7532902569667492,
                -0.056913852775806184,
                0.07510471088527582
            ]
        },
        {
            "positions": [
                0.12236444830679598,
                -0.7750021297129365,
                1.9908317434684806,
                1.905402896886993,
                -0.13089191971093422,
                0.027659610170806846
            ]
        }
    ]
}