{
    "goal": {
        "global_pose": {
            "orientation": {
                "w": 0.7047431468963623,
                "x": -0.7094548344612122,
                "y": 0.0024358443915843964,
                "z": -0.0022348060738295317
            },
            "position": {
                "x": 0.6094750761985779,
                "y": 0.3671506643295288,
                "z": 0.19426114857196808
            }
        },
        "name": "move_to_magneteinheit_A"
    },
    "id": "BiEST_move_to_magneteinheit_A_83",
    "joint_names": [
        "shoulder_pan_joint",
        "shoulder_lift_joint",
        "elbow_joint",
        "wrist_1_joint",
        "wrist_2_joint",
        "wrist_3_joint"
    ],
    "metrics": {
        "cart_traj_len": 3.1866243508842427,
        "distance_elbow_joint": 3.8798858060042685,
        "distance_shoulder_lift_joint": 0.32854039852960293,
        "distance_shoulder_pan_joint": 2.815543228245214,
        "distance_wrist_1_joint": 2.7675695206792,
        "distance_wrist_2_joint": 1.703698670169423,
        "distance_wrist_3_joint": 2.5869544874050123,
        "smoothness": 0.17324633049221436,
        "time": 0.093786273,
        "traj_len": 3.752624696266963,
        "weighted_distance": 4.871074755810196
    },
    "planner": "BiEST",
    "start": {
        "state": {
            "elbow_joint": -1.919618573717145,
            "shoulder_lift_joint": -1.2443395971678275,
            "shoulder_pan_joint": 2.6996025300909787,
            "wrist_1_joint": -1.548550951253194,
            "wrist_2_joint": -1.5709469090946802,
            "wrist_3_joint": 0.4420197732051276
        }
    },
    "waypoints": [
        {
            "positions": [
                2.6996025300909787,
                -1.2443395971678275,
                -1.919618573717145,
                -1.548550951253194,
                -1.5709469090946802,
                0.4420197732051276
            ]
        },
        {
            "positions": [
                2.5997286246949267,
                -1.248373203733213,
                -1.8060126508295158,
                -1.4819279600043094,
                -1.5147666696153477,
                0.4902397540575791
            ]
        },
        {
            "positions": [
                2.4998547192988747,
                -1.2524068102985983,
                -1.6924067279418864,
                -1.4153049687554249,
                -1.4585864301360152,
                0.5384597349100305
            ]
        },
        {
            "positions": [
                2.399980813902823,
                -1.2564404168639838,
                -1.5788008050542572,
                -1.3486819775065402,
                -1.402406190656683,
                0.586679715762482
            ]
        },
        {
            "positions": [
                2.300106908506771,
                -1.2604740234293694,
                -1.4651948821666279,
                -1.2820589862576557,
                -1.3462259511773504,
                0.6348996966149335
            ]
        },
        {
            "positions": [
                2.200233003110719,
                -1.2645076299947549,
                -1.3515889592789987,
                -1.215435995008771,
                -1.290045711698018,
                0.683119677467385
            ]
        },
        {
            "positions": [
                2.1003590977146676,
                -1.2685412365601403,
                -1.2379830363913693,
                -1.1488130037598863,
                -1.2338654722186855,
                0.7313396583198365
            ]
        },
        {
            "positions": [
                2.0004851923186155,
                -1.2725748431255257,
                -1.1243771135037401,
                -1.0821900125110018,
                -1.177685232739353,
                0.779559639172288
            ]
        },
        {
            "positions": [
                1.9006112869225635,
                -1.2766084496909111,
                -1.010771190616111,
                -1.0155670212621173,
                -1.1215049932600207,
                0.8277796200247394
            ]
        },
        {
            "positions": [
                1.8007373815265115,
                -1.2806420562562966,
                -0.8971652677284816,
                -0.9489440300132326,
                -1.0653247537806882,
                0.8759996008771909
            ]
        },
        {
            "positions": [
                1.7008634761304595,
                -1.284675662821682,
                -0.7835593448408524,
                -0.8823210387643479,
                -1.0091445143013558,
                0.9242195817296424
            ]
        },
        {
            "positions": [
                1.6009895707344077,
                -1.2887092693870676,
                -0.669953421953223,
                -0.8156980475154633,
                -0.9529642748220233,
                0.9724395625820939
            ]
        },
        {
            "positions": [
                1.501115665338356,
                -1.292742875952453,
                -0.5563474990655939,
                -0.7490750562665787,
                -0.8967840353426909,
                1.0206595434345453
            ]
        },
        {
            "positions": [
                1.401241759942304,
                -1.2967764825178385,
                -0.4427415761779647,
                -0.6824520650176941,
                -0.8406037958633584,
                1.0688795242869968
            ]
        },
        {
            "positions": [
                1.3013678545462521,
                -1.300810089083224,
                -0.32913565329033534,
                -0.6158290737688095,
                -0.784423556384026,
                1.1170995051394483
            ]
        },
        {
            "positions": [
                1.2014939491502,
                -1.3048436956486094,
                -0.21552973040270595,
                -0.5492060825199248,
                -0.7282433169046935,
                1.1653194859918998
            ]
        },
        {
            "positions": [
                1.1016200437541483,
                -1.3088773022139948,
                -0.10192380751507679,
                -0.48258309127104027,
                -0.6720630774253611,
                1.2135394668443513
            ]
        },
        {
            "positions": [
                1.0017461383580961,
                -1.3129109087793802,
                0.011682115372552593,
                -0.41596010002215555,
                -0.6158828379460286,
                1.2617594476968028
            ]
        },
        {
            "positions": [
                0.9018722329620443,
                -1.3169445153447659,
                0.12528803826018176,
                -0.34933710877327107,
                -0.5597025984666963,
                1.3099794285492543
            ]
        },
        {
            "positions": [
                0.8019983275659923,
                -1.3209781219101513,
                0.23889396114781092,
                -0.28271411752438635,
                -0.5035223589873636,
                1.3581994094017058
            ]
        },
        {
            "positions": [
                0.7021244221699405,
                -1.3250117284755367,
                0.3524998840354401,
                -0.21609112627550164,
                -0.4473421195080314,
                1.4064193902541573
            ]
        },
        {
            "positions": [
                0.6022505167738887,
                -1.3290453350409221,
                0.4661058069230697,
                -0.14946813502661693,
                -0.3911618800286989,
                1.4546393711066088
            ]
        },
        {
            "positions": [
                0.5023766113778367,
                -1.3330789416063076,
                0.5797117298106989,
                -0.08284514377773244,
                -0.3349816405493664,
                1.5028593519590603
            ]
        },
        {
            "positions": [
                0.4025027059817847,
                -1.337112548171693,
                0.693317652698328,
                -0.016222152528847733,
                -0.2788014010700339,
                1.5510793328115118
            ]
        },
        {
            "positions": [
                0.30262880058573316,
                -1.3411461547370787,
                0.8069235755859572,
                0.050400838720036756,
                -0.22262116159070167,
                1.5992993136639633
            ]
        },
        {
            "positions": [
                0.20275489518968115,
                -1.345179761302464,
                0.9205294984735868,
                0.11702382996892147,
                -0.16644092211136918,
                1.6475192945164148
            ]
        },
        {
            "positions": [
                0.10288098979362914,
                -1.3492133678678495,
                1.0341354213612155,
                0.18364682121780596,
                -0.1102606826320367,
                1.6957392753688663
            ]
        },
        {
            "positions": [
                0.0030070843975769923,
                -1.353246974433235,
                1.1477413442488449,
                0.25026981246669056,
                -0.054080443152704175,
                1.7439592562213178
            ]
        },
        {
            "positions": [
                0.009355714781971874,
                -1.331718147149242,
                1.2411571102799028,
                0.14792578301502612,
                -0.034483123218473084,
                1.8870053460726857
            ]
        },
        {
            "positions": [
                0.015704345166366755,
                -1.3101893198652494,
                1.3345728763109608,
                0.04558175356336169,
                -0.014885803284241994,
                2.0300514359240536
            ]
        },
        {
            "positions": [
                0.022052975550761637,
                -1.2886604925812566,
                1.427988642342019,
                -0.05676227588830274,
                0.004711516649989096,
                2.1730975257754217
            ]
        },
        {
            "positions": [
                0.028401605935156518,
                -1.267131665297264,
                1.5214044083730769,
                -0.15910630533996717,
                0.024308836584220186,
                2.3161436156267894
            ]
        },
        {
            "positions": [
                0.0347502363195514,
                -1.245602838013271,
                1.614820174404135,
                -0.2614503347916316,
                0.043906156518451284,
                2.4591897054781575
            ]
        },
        {
            "positions": [
                0.04109886670394628,
                -1.2240740107292785,
                1.708235940435193,
                -0.36379436424329603,
                0.06350347645268237,
                2.602235795329525
            ]
        },
        {
            "positions": [
                0.047447497088341166,
                -1.2025451834452856,
                1.801651706466251,
                -0.4661383936949605,
                0.08310079638691346,
                2.7452818851808933
            ]
        },
        {
            "positions": [
                0.07950354517110911,
                -1.1723486355936363,
                1.8695354251216245,
                -0.5761341723143752,
                0.1011168576161211,
                2.871017295146139
            ]
        },
        {
            "positions": [
                0.11155959325387707,
                -1.1421520877419868,
                1.9374191437769979,
                -0.68612995093379,
                0.11913291884532876,
                2.9967527051113843
            ]
        },
        {
            "positions": [
                0.12195486694938945,
                -1.1336139531690395,
                1.9602672322871233,
                -0.7184789444926241,
                0.13275176107474204,
                3.02897426061014
            ]
        }
    ]
}{
    "goal": {
        "global_pose": {
            "orientation": {
                "w": 0.7047431468963623,
                "x": -0.7094548344612122,
                "y": 0.0024358443915843964,
                "z": -0.0022348060738295317
            },
            "position": {
                "x": 0.6094750761985779,
                "y": 0.3671506643295288,
                "z": 0.19426114857196808
            }
        },
        "name": "move_to_magneteinheit_A"
    },
    "id": "BiEST_move_to_magneteinheit_A_83",
    "joint_names": [
        "shoulder_pan_joint",
        "shoulder_lift_joint",
        "elbow_joint",
        "wrist_1_joint",
        "wrist_2_joint",
        "wrist_3_joint"
    ],
    "metrics": {
        "cart_traj_len": 1.27725475589357,
        "distance_elbow_joint": 0.3210497223822699,
        "distance_shoulder_lift_joint": 0.7790918123602728,
        "distance_shoulder_pan_joint": 1.2420193261486936,
        "distance_wrist_1_joint": 1.0747709314056262,
        "distance_wrist_2_joint": 1.442569647612351,
        "distance_wrist_3_joint": 4.344757767522054,
        "smoothness": 0.18860014289897328,
        "time": 0.092080831,
        "traj_len": 3.033852205930814,
        "weighted_distance": 4.517866235458211
    },
    "planner": "BiEST",
    "start": {
        "state": {
            "elbow_joint": 1.919643534880228,
            "shoulder_lift_joint": -1.8972525353963687,
            "shoulder_pan_joint": -1.1188672234189438,
            "wrist_1_joint": -1.5931878212786155,
            "wrist_2_joint": 1.5706036197970081,
            "wrist_3_joint": 1.118896926603594
        }
    },
    "waypoints": [
        {
            "positions": [
                -1.1188672234189438,
                -1.8972525353963687,
                1.919643534880228,
                -1.5931878212786155,
                1.5706036197970081,
                1.118896926603594
            ]
        },
        {
            "positions": [
                -1.0700765914879382,
                -1.8621725704411776,
                1.9132477498187432,
                -1.5491900661691107,
                1.510238880082882,
                0.9285644854600051
            ]
        },
        {
            "positions": [
                -1.0212859595569326,
                -1.8270926054859864,
                1.9068519647572584,
                -1.5051923110596062,
                1.449874140368756,
                0.7382320443164163
            ]
        },
        {
            "positions": [
                -0.9724953276259268,
                -1.7920126405307955,
                1.9004561796957733,
                -1.4611945559501014,
                1.38950940065463,
                0.5478996031728276
            ]
        },
        {
            "positions": [
                -0.9237046956949211,
                -1.7569326755756043,
                1.8940603946342884,
                -1.4171968008405966,
                1.329144660940504,
                0.35756716202923866
            ]
        },
        {
            "positions": [
                -0.8749140637639155,
                -1.7218527106204131,
                1.8876646095728036,
                -1.373199045731092,
                1.2687799212263782,
                0.16723472088564995
            ]
        },
        {
            "positions": [
                -0.8261234318329098,
                -1.686772745665222,
                1.8812688245113187,
                -1.3292012906215873,
                1.2084151815122521,
                -0.02309772025793877
            ]
        },
        {
            "positions": [
                -0.7773327999019041,
                -1.6516927807100308,
                1.8748730394498336,
                -1.2852035355120826,
                1.148050441798126,
                -0.2134301614015277
            ]
        },
        {
            "positions": [
                -0.7285421679708983,
                -1.6166128157548396,
                1.8684772543883488,
                -1.241205780402578,
                1.087685702084,
                -0.40376260254511664
            ]
        },
        {
            "positions": [
                -0.6797515360398927,
                -1.5815328507996487,
                1.862081469326864,
                -1.1972080252930732,
                1.027320962369874,
                -0.5940950436887056
            ]
        },
        {
            "positions": [
                -0.630960904108887,
                -1.5464528858444575,
                1.855685684265379,
                -1.1532102701835685,
                0.966956222655748,
                -0.7844274848322941
            ]
        },
        {
            "positions": [
                -0.5821702721778813,
                -1.5113729208892663,
                1.8492898992038942,
                -1.1092125150740637,
                0.906591482941622,
                -0.974759925975883
            ]
        },
        {
            "positions": [
                -0.5333796402468757,
                -1.4762929559340752,
                1.8428941141424091,
                -1.0652147599645592,
                0.846226743227496,
                -1.1650923671194715
            ]
        },
        {
            "positions": [
                -0.48458900831586993,
                -1.441212990978884,
                1.8364983290809243,
                -1.0212170048550544,
                0.7858620035133699,
                -1.3554248082630609
            ]
        },
        {
            "positions": [
                -0.4357983763848643,
                -1.406133026023693,
                1.8301025440194394,
                -0.9772192497455497,
                0.725497263799244,
                -1.5457572494066494
            ]
        },
        {
            "positions": [
                -0.38700774445385866,
                -1.3710530610685019,
                1.8237067589579545,
                -0.9332214946360451,
                0.6651325240851179,
                -1.7360896905502379
            ]
        },
        {
            "positions": [
                -0.3382171125228529,
                -1.3359730961133107,
                1.8173109738964695,
                -0.8892237395265403,
                0.6047677843709919,
                -1.9264221316938273
            ]
        },
        {
            "positions": [
                -0.28942648059184717,
                -1.3008931311581196,
                1.8109151888349846,
                -0.8452259844170357,
                0.544403044656866,
                -2.116754572837416
            ]
        },
        {
            "positions": [
                -0.24063584866084142,
                -1.2658131662029284,
                1.8045194037734997,
                -0.8012282293075309,
                0.4840383049427397,
                -2.307087013981005
            ]
        },
        {
            "positions": [
                -0.1918452167298358,
                -1.2307332012477374,
                1.7981236187120149,
                -0.7572304741980262,
                0.4236735652286139,
                -2.497419455124594
            ]
        },
        {
            "positions": [
                -0.14305458479883015,
                -1.195653236292546,
                1.7917278336505298,
                -0.7132327190885216,
                0.36330882551448784,
                -2.687751896268182
            ]
        },
        {
            "positions": [
                -0.09426395286782441,
                -1.160573271337355,
                1.785332048589045,
                -0.6692349639790168,
                0.3029440858003618,
                -2.8780843374117717
            ]
        },
        {
            "positions": [
                -0.04547332093681877,
                -1.125493306382164,
                1.77893626352756,
                -0.6252372088695122,
                0.24257934608623588,
                -3.0684167785553598
            ]
        },
        {
            "positions": [
                0.03883939089646542,
                -1.1291595980551978,
                1.869107489042361,
                -0.6786473683677736,
                0.18530665913544653,
                -3.1471388097369095
            ]
        },
        {
            "positions": [
                0.12315210272974961,
                -1.132825889728232,
                1.959278714557162,
                -0.7320575278660351,
                0.1280339721846572,
                -3.2258608409184597
            ]
        }
    ]
}