{
    "goal": {
        "global_pose": {
            "orientation": {
                "w": 0.7047431468963623,
                "x": -0.7094548344612122,
                "y": 0.0024358443915843964,
                "z": -0.0022348060738295317
            },
            "position": {
                "x": 0.6094750761985779,
                "y": 0.3671506643295288,
                "z": 0.19426114857196808
            }
        },
        "name": "move_to_magneteinheit_A"
    },
    "id": "BiEST_move_to_magneteinheit_A_130",
    "joint_names": [
        "shoulder_pan_joint",
        "shoulder_lift_joint",
        "elbow_joint",
        "wrist_1_joint",
        "wrist_2_joint",
        "wrist_3_joint"
    ],
    "metrics": {
        "cart_traj_len": 3.8679267366162833,
        "distance_elbow_joint": 3.885917733667566,
        "distance_shoulder_lift_joint": 0.4924891104572773,
        "distance_shoulder_pan_joint": 2.9851595210402087,
        "distance_wrist_1_joint": 0.7950485170682254,
        "distance_wrist_2_joint": 1.7010887081849022,
        "distance_wrist_3_joint": 2.619420959184125,
        "smoothness": 0.097568180805821,
        "time": 0.066396412,
        "traj_len": 3.5325804378106245,
        "weighted_distance": 4.496009752349708
    },
    "planner": "BiEST",
    "start": {
        "state": {
            "elbow_joint": -1.919618573717145,
            "shoulder_lift_joint": -1.2443395971678275,
            "shoulder_pan_joint": 2.6996025300909787,
            "wrist_1_joint": -1.548550951253194,
            "wrist_2_joint": -1.5709469090946802,
            "wrist_3_joint": 0.4420197732051276
        }
    },
    "waypoints": [
        {
            "positions": [
                2.6996025300909787,
                -1.2443395971678275,
                -1.919618573717145,
                -1.548550951253194,
                -1.5709469090946802,
                0.4420197732051276
            ]
        },
        {
            "positions": [
                2.588337665499657,
                -1.2323346966576285,
                -1.7963536819561852,
                -1.532106706016938,
                -1.5139765394500084,
                0.5092807102112797
            ]
        },
        {
            "positions": [
                2.4770728009083354,
                -1.2203297961474295,
                -1.6730887901952254,
                -1.5156624607806817,
                -1.4570061698053367,
                0.576541647217432
            ]
        },
        {
            "positions": [
                2.3658079363170135,
                -1.2083248956372306,
                -1.5498238984342656,
                -1.4992182155444256,
                -1.400035800160665,
                0.6438025842235842
            ]
        },
        {
            "positions": [
                2.2545430717256916,
                -1.1963199951270316,
                -1.4265590066733056,
                -1.4827739703081695,
                -1.3430654305159933,
                0.7110635212297363
            ]
        },
        {
            "positions": [
                2.1432782071343697,
                -1.1843150946168326,
                -1.3032941149123458,
                -1.4663297250719134,
                -1.2860950608713217,
                0.7783244582358886
            ]
        },
        {
            "positions": [
                2.032013342543048,
                -1.1723101941066336,
                -1.180029223151386,
                -1.449885479835657,
                -1.22912469122665,
                0.8455853952420407
            ]
        },
        {
            "positions": [
                1.9207484779517263,
                -1.1603052935964346,
                -1.056764331390426,
                -1.433441234599401,
                -1.1721543215819783,
                0.9128463322481929
            ]
        },
        {
            "positions": [
                1.8094836133604044,
                -1.1483003930862357,
                -0.9334994396294664,
                -1.4169969893631449,
                -1.1151839519373066,
                0.9801072692543451
            ]
        },
        {
            "positions": [
                1.6982187487690827,
                -1.1362954925760367,
                -0.8102345478685065,
                -1.4005527441268888,
                -1.0582135822926348,
                1.0473682062604972
            ]
        },
        {
            "positions": [
                1.5869538841777608,
                -1.1242905920658377,
                -0.6869696561075467,
                -1.3841084988906325,
                -1.0012432126479631,
                1.1146291432666495
            ]
        },
        {
            "positions": [
                1.4756890195864392,
                -1.1122856915556387,
                -0.5637047643465869,
                -1.3676642536543764,
                -0.9442728430032915,
                1.1818900802728016
            ]
        },
        {
            "positions": [
                1.3644241549951175,
                -1.1002807910454397,
                -0.4404398725856271,
                -1.3512200084181203,
                -0.8873024733586198,
                1.2491510172789537
            ]
        },
        {
            "positions": [
                1.2531592904037956,
                -1.0882758905352408,
                -0.3171749808246671,
                -1.334775763181864,
                -0.830332103713948,
                1.316411954285106
            ]
        },
        {
            "positions": [
                1.1418944258124737,
                -1.0762709900250418,
                -0.1939100890637071,
                -1.3183315179456079,
                -0.7733617340692763,
                1.3836728912912581
            ]
        },
        {
            "positions": [
                1.0306295612211522,
                -1.0642660895148428,
                -0.07064519730274754,
                -1.3018872727093518,
                -0.7163913644246047,
                1.4509338282974102
            ]
        },
        {
            "positions": [
                0.9193646966298303,
                -1.0522611890046438,
                0.05261969445821224,
                -1.2854430274730957,
                -0.659420994779933,
                1.5181947653035626
            ]
        },
        {
            "positions": [
                0.8080998320385084,
                -1.0402562884944448,
                0.17588458621917247,
                -1.2689987822368394,
                -0.6024506251352612,
                1.5854557023097147
            ]
        },
        {
            "positions": [
                0.6968349674471868,
                -1.0282513879842459,
                0.29914947798013203,
                -1.2525545370005833,
                -0.5454802554905895,
                1.6527166393158668
            ]
        },
        {
            "positions": [
                0.5855701028558649,
                -1.0162464874740469,
                0.4224143697410916,
                -1.2361102917643272,
                -0.4885098858459178,
                1.719977576322019
            ]
        },
        {
            "positions": [
                0.47430523826454296,
                -1.0042415869638477,
                0.5456792615020516,
                -1.2196660465280709,
                -0.4315395162012461,
                1.7872385133281714
            ]
        },
        {
            "positions": [
                0.3630403736732215,
                -0.9922366864536488,
                0.6689441532630112,
                -1.2032218012918148,
                -0.3745691465565746,
                1.8544994503343233
            ]
        },
        {
            "positions": [
                0.2517755090818996,
                -0.9802317859434498,
                0.7922090450239712,
                -1.1867775560555587,
                -0.31759877691190286,
                1.9217603873404756
            ]
        },
        {
            "positions": [
                0.1405106444905777,
                -0.9682268854332509,
                0.9154739367849312,
                -1.1703333108193026,
                -0.26062840726723113,
                1.989021324346628
            ]
        },
        {
            "positions": [
                0.029245779899256252,
                -0.9562219849230519,
                1.0387388285458907,
                -1.1538890655830463,
                -0.2036580376225594,
                2.05628226135278
            ]
        },
        {
            "positions": [
                -0.08201908469206573,
                -0.9442170844128529,
                1.162003720306851,
                -1.1374448203467902,
                -0.14668766797788757,
                2.123543198358932
            ]
        },
        {
            "positions": [
                -0.05657684640992022,
                -0.9682629091256407,
                1.2625406502622971,
                -1.0894520220765624,
                -0.11208398459437392,
                2.240780390112722
            ]
        },
        {
            "positions": [
                -0.031134608127774716,
                -0.9923087338384285,
                1.3630775802177435,
                -1.0414592238063347,
                -0.07748030121086028,
                2.358017581866512
            ]
        },
        {
            "positions": [
                -0.005692369845629208,
                -1.0163545585512164,
                1.4636145101731897,
                -0.9934664255361071,
                -0.04287661782734663,
                2.475254773620302
            ]
        },
        {
            "positions": [
                0.0197498684365163,
                -1.0404003832640043,
                1.564151440128636,
                -0.9454736272658795,
                -0.00827293444383298,
                2.5924919653740925
            ]
        },
        {
            "positions": [
                0.045192106718661806,
                -1.064446207976792,
                1.6646883700840822,
                -0.8974808289956517,
                0.02633074893968068,
                2.7097291571278825
            ]
        },
        {
            "positions": [
                0.07063434500080731,
                -1.08849203268958,
                1.7652253000395284,
                -0.849488030725424,
                0.060934432323194315,
                2.8269663488816725
            ]
        },
        {
            "positions": [
                0.09607658328295282,
                -1.1125378574023679,
                1.8657622299949748,
                -0.8014952324551963,
                0.09553811570670795,
                2.9442035406354625
            ]
        },
        {
            "positions": [
                0.12151882156509834,
                -1.1365836821151556,
                1.966299159950421,
                -0.7535024341849687,
                0.13014179909022158,
                3.0614407323892525
            ]
        }
    ]
}{
    "goal": {
        "global_pose": {
            "orientation": {
                "w": 0.7047431468963623,
                "x": -0.7094548344612122,
                "y": 0.0024358443915843964,
                "z": -0.0022348060738295317
            },
            "position": {
                "x": 0.6094750761985779,
                "y": 0.3671506643295288,
                "z": 0.19426114857196808
            }
        },
        "name": "move_to_magneteinheit_A"
    },
    "id": "BiEST_move_to_magneteinheit_A_130",
    "joint_names": [
        "shoulder_pan_joint",
        "shoulder_lift_joint",
        "elbow_joint",
        "wrist_1_joint",
        "wrist_2_joint",
        "wrist_3_joint"
    ],
    "metrics": {
        "cart_traj_len": 2.2608351636274224,
        "distance_elbow_joint": 3.787228404221375,
        "distance_shoulder_lift_joint": 0.7696844989277671,
        "distance_shoulder_pan_joint": 1.2409532232691691,
        "distance_wrist_1_joint": 0.7365351066997261,
        "distance_wrist_2_joint": 1.444656131168205,
        "distance_wrist_3_joint": 4.249055954327152,
        "smoothness": 0.30540708422470264,
        "time": 0.06326857799999999,
        "traj_len": 3.4968719334018212,
        "weighted_distance": 4.786169289226576
    },
    "planner": "BiEST",
    "start": {
        "state": {
            "elbow_joint": 1.919643534880228,
            "shoulder_lift_joint": -1.8972525353963687,
            "shoulder_pan_joint": -1.1188672234189438,
            "wrist_1_joint": -1.5931878212786155,
            "wrist_2_joint": 1.5706036197970081,
            "wrist_3_joint": 1.118896926603594
        }
    },
    "waypoints": [
        {
            "positions": [
                -1.1188672234189438,
                -1.8972525353963687,
                1.919643534880228,
                -1.5931878212786155,
                1.5706036197970081,
                1.118896926603594
            ]
        },
        {
            "positions": [
                -1.0876234756207597,
                -1.846672138540723,
                1.7957064420515154,
                -1.5771116234576061,
                1.5086527690035476,
                1.0251232727638309
            ]
        },
        {
            "positions": [
                -1.0563797278225755,
                -1.7960917416850772,
                1.6717693492228027,
                -1.5610354256365968,
                1.4467019182100873,
                0.9313496189240678
            ]
        },
        {
            "positions": [
                -1.0251359800243913,
                -1.7455113448294313,
                1.54783225639409,
                -1.5449592278155875,
                1.3847510674166268,
                0.8375759650843047
            ]
        },
        {
            "positions": [
                -0.9938922322262072,
                -1.6949309479737855,
                1.4238951635653772,
                -1.5288830299945781,
                1.3228002166231663,
                0.7438023112445417
            ]
        },
        {
            "positions": [
                -0.9626484844280231,
                -1.6443505511181398,
                1.2999580707366647,
                -1.5128068321735688,
                1.260849365829706,
                0.6500286574047787
            ]
        },
        {
            "positions": [
                -0.9314047366298389,
                -1.593770154262494,
                1.1760209779079518,
                -1.4967306343525595,
                1.1988985150362454,
                0.5562550035650154
            ]
        },
        {
            "positions": [
                -0.9001609888316547,
                -1.5431897574068483,
                1.0520838850792391,
                -1.48065443653155,
                1.136947664242785,
                0.46248134972525246
            ]
        },
        {
            "positions": [
                -0.8689172410334706,
                -1.4926093605512025,
                0.9281467922505264,
                -1.4645782387105406,
                1.0749968134493244,
                0.36870769588548935
            ]
        },
        {
            "positions": [
                -0.8376734932352865,
                -1.4420289636955566,
                0.8042096994218138,
                -1.4485020408895313,
                1.0130459626558639,
                0.27493404204572636
            ]
        },
        {
            "positions": [
                -0.8064297454371023,
                -1.3914485668399108,
                0.6802726065931011,
                -1.432425843068522,
                0.9510951118624036,
                0.18116038820596325
            ]
        },
        {
            "positions": [
                -0.7751859976389182,
                -1.340868169984265,
                0.5563355137643884,
                -1.4163496452475126,
                0.8891442610689431,
                0.08738673436620026
            ]
        },
        {
            "positions": [
                -0.743942249840734,
                -1.290287773128619,
                0.4323984209356755,
                -1.4002734474265033,
                0.8271934102754825,
                -0.0063869194735630685
            ]
        },
        {
            "positions": [
                -0.7126985020425498,
                -1.2397073762729733,
                0.3084613281069628,
                -1.384197249605494,
                0.7652425594820221,
                -0.10016057331332595
            ]
        },
        {
            "positions": [
                -0.6814547542443656,
                -1.1891269794173276,
                0.18452423527825013,
                -1.3681210517844846,
                0.7032917086885616,
                -0.19393422715308906
            ]
        },
        {
            "positions": [
                -0.6502110064461815,
                -1.1385465825616818,
                0.06058714244953736,
                -1.3520448539634753,
                0.6413408578951012,
                -0.28770788099285216
            ]
        },
        {
            "positions": [
                -0.6047817707816869,
                -1.1391923793906866,
                0.17400902549604824,
                -1.3229041398820292,
                0.6110236008794366,
                -0.4549108896240701
            ]
        },
        {
            "positions": [
                -0.5593525351171924,
                -1.1398381762196912,
                0.28743090854255915,
                -1.2937634258005828,
                0.5807063438637721,
                -0.6221138982552881
            ]
        },
        {
            "positions": [
                -0.5139232994526979,
                -1.140483973048696,
                0.40085279158907006,
                -1.2646227117191366,
                0.5503890868481074,
                -0.7893169068865061
            ]
        },
        {
            "positions": [
                -0.4684940637882033,
                -1.1411297698777008,
                0.5142746746355809,
                -1.2354819976376903,
                0.5200718298324428,
                -0.956519915517724
            ]
        },
        {
            "positions": [
                -0.4230648281237087,
                -1.1417755667067055,
                0.6276965576820918,
                -1.2063412835562441,
                0.48975457281677826,
                -1.1237229241489421
            ]
        },
        {
            "positions": [
                -0.3776355924592142,
                -1.14242136353571,
                0.7411184407286027,
                -1.177200569474798,
                0.4594373158011137,
                -1.29092593278016
            ]
        },
        {
            "positions": [
                -0.3322063567947197,
                -1.143067160364715,
                0.8545403237751135,
                -1.1480598553933516,
                0.4291200587854491,
                -1.4581289414113778
            ]
        },
        {
            "positions": [
                -0.28677712113022513,
                -1.1437129571937197,
                0.9679622068216244,
                -1.1189191413119055,
                0.3988028017697845,
                -1.6253319500425958
            ]
        },
        {
            "positions": [
                -0.2413478854657306,
                -1.1443587540227242,
                1.0813840898681353,
                -1.0897784272304591,
                0.36848554475411993,
                -1.792534958673814
            ]
        },
        {
            "positions": [
                -0.19591864980123602,
                -1.145004550851729,
                1.1948059729146463,
                -1.060637713149013,
                0.3381682877384553,
                -1.959737967305032
            ]
        },
        {
            "positions": [
                -0.1504894141367415,
                -1.1456503476807338,
                1.308227855961157,
                -1.0314969990675666,
                0.30785103072279074,
                -2.12694097593625
            ]
        },
        {
            "positions": [
                -0.10506017847224691,
                -1.1462961445097384,
                1.4216497390076681,
                -1.0023562849861205,
                0.2775337737071261,
                -2.294143984567468
            ]
        },
        {
            "positions": [
                -0.059630942807752496,
                -1.1469419413387432,
                1.5350716220541787,
                -0.9732155709046744,
                0.2472165166914616,
                -2.4613469931986858
            ]
        },
        {
            "positions": [
                -0.014201707143257969,
                -1.147587738167748,
                1.6484935051006897,
                -0.944074856823228,
                0.21689925967579698,
                -2.6285500018299035
            ]
        },
        {
            "positions": [
                0.03122752852123667,
                -1.1482335349967527,
                1.7619153881472005,
                -0.9149341427417819,
                0.18658200266013242,
                -2.7957530104611217
            ]
        },
        {
            "positions": [
                0.0766567641857312,
                -1.1488793318257573,
                1.8753372711937115,
                -0.8857934286603356,
                0.1562647456444678,
                -2.9629560190923394
            ]
        },
        {
            "positions": [
                0.12208599985022577,
                -1.149525128654762,
                1.9887591542402223,
                -0.8566527145788894,
                0.1259474886288032,
                -3.1301590277235576
            ]
        }
    ]
}