{
    "goal": {
        "global_pose": {
            "orientation": {
                "w": 0.5084816217422485,
                "x": -0.49083608388900757,
                "y": 0.5182115435600281,
                "z": -0.4816462993621826
            },
            "position": {
                "x": 0.5540239810943604,
                "y": 0.030875300988554955,
                "z": 0.16403168439865112
            }
        },
        "name": "move_to_storage_A"
    },
    "id": "BiEST_move_to_storage_A_119",
    "joint_names": [
        "shoulder_pan_joint",
        "shoulder_lift_joint",
        "elbow_joint",
        "wrist_1_joint",
        "wrist_2_joint",
        "wrist_3_joint"
    ],
    "metrics": {
        "cart_traj_len": 0.35256240996870475,
        "distance_elbow_joint": 0.4511122819520521,
        "distance_shoulder_lift_joint": 0.23294906879964894,
        "distance_shoulder_pan_joint": 0.458213435465575,
        "distance_wrist_1_joint": 0.2525318703529712,
        "distance_wrist_2_joint": 1.1091306962325183,
        "distance_wrist_3_joint": 0.10781262253428725,
        "smoothness": 6.661338165333112e-16,
        "time": 0.067355627,
        "traj_len": 1.6160909551560063,
        "weighted_distance": 2.0467138996428194
    },
    "planner": "BiEST",
    "start": {
        "state": {
            "elbow_joint": 1.9715477243005601,
            "shoulder_lift_joint": -1.1394853015351272,
            "shoulder_pan_joint": 0.12281154014795169,
            "wrist_1_joint": -0.7804696478968182,
            "wrist_2_joint": 0.12958648046900423,
            "wrist_3_joint": -3.192491284697111
        }
    },
    "waypoints": [
        {
            "positions": [
                0.12281154014795169,
                -1.1394853015351272,
                1.9715477243005601,
                -0.7804696478968182,
                0.12958648046900423,
                -3.192491284697111
            ]
        },
        {
            "positions": [
                0.057352477938583835,
                -1.172763739935077,
                2.0359923360079963,
                -0.8165456293758141,
                0.2880337227879354,
                -3.1770894814779274
            ]
        },
        {
            "positions": [
                -0.00810658427078402,
                -1.2060421783350268,
                2.100436947715432,
                -0.8526216108548099,
                0.4464809651068666,
                -3.1616876782587435
            ]
        },
        {
            "positions": [
                -0.07356564648015189,
                -1.2393206167349766,
                2.1648815594228683,
                -0.8886975923338059,
                0.6049282074257978,
                -3.1462858750395597
            ]
        },
        {
            "positions": [
                -0.13902470868951972,
                -1.2725990551349264,
                2.229326171130304,
                -0.9247735738128017,
                0.7633754497447289,
                -3.1308840718203754
            ]
        },
        {
            "positions": [
                -0.20448377089888758,
                -1.3058774935348765,
                2.2937707828377403,
                -0.9608495552917976,
                0.9218226920636602,
                -3.1154822686011916
            ]
        },
        {
            "positions": [
                -0.26994283310825545,
                -1.3391559319348263,
                2.358215394545176,
                -0.9969255367707934,
                1.0802699343825912,
                -3.1000804653820078
            ]
        },
        {
            "positions": [
                -0.3354018953176233,
                -1.372434370334776,
                2.4226600062526122,
                -1.0330015182497894,
                1.2387171767015226,
                -3.084678662162824
            ]
        }
    ]
}