{
    "goal": {
        "global_pose": {
            "orientation": {
                "w": 0.5084816217422485,
                "x": -0.49083608388900757,
                "y": 0.5182115435600281,
                "z": -0.4816462993621826
            },
            "position": {
                "x": 0.5540239810943604,
                "y": 0.030875300988554955,
                "z": 0.16403168439865112
            }
        },
        "name": "move_to_storage_A"
    },
    "id": "BiEST_move_to_storage_A_67",
    "joint_names": [
        "shoulder_pan_joint",
        "shoulder_lift_joint",
        "elbow_joint",
        "wrist_1_joint",
        "wrist_2_joint",
        "wrist_3_joint"
    ],
    "metrics": {
        "cart_traj_len": 0.35230219483391223,
        "distance_elbow_joint": 0.4509478739155899,
        "distance_shoulder_lift_joint": 0.23508604883139217,
        "distance_shoulder_pan_joint": 0.4613782623057774,
        "distance_wrist_1_joint": 0.24604751122056323,
        "distance_wrist_2_joint": 1.0947866168926073,
        "distance_wrist_3_joint": 0.10724653162315523,
        "smoothness": 1.1102230263833737e-15,
        "time": 0.074805534,
        "traj_len": 1.6110533339368642,
        "weighted_distance": 2.037356138761352
    },
    "planner": "BiEST",
    "start": {
        "state": {
            "elbow_joint": 1.9715477243005601,
            "shoulder_lift_joint": -1.1394853015351272,
            "shoulder_pan_joint": 0.12281154014795169,
            "wrist_1_joint": -0.7804696478968182,
            "wrist_2_joint": 0.12958648046900423,
            "wrist_3_joint": -3.192491284697111
        }
    },
    "waypoints": [
        {
            "positions": [
                0.12281154014795169,
                -1.1394853015351272,
                1.9715477243005601,
                -0.7804696478968182,
                0.12958648046900423,
                -3.192491284697111
            ]
        },
        {
            "positions": [
                0.05690035981855493,
                -1.1730690227967546,
                2.0359688491456445,
                -0.8156192923568987,
                0.28598456859651955,
                -3.177170351608089
            ]
        },
        {
            "positions": [
                -0.00901082051084183,
                -1.206652744058382,
                2.100389973990729,
                -0.8507689368169791,
                0.4423826567240349,
                -3.1618494185190666
            ]
        },
        {
            "positions": [
                -0.0749220008402386,
                -1.2402364653200095,
                2.164811098835813,
                -0.8859185812770596,
                0.5987807448515502,
                -3.1465284854300446
            ]
        },
        {
            "positions": [
                -0.14083318116963534,
                -1.273820186581637,
                2.229232223680897,
                -0.92106822573714,
                0.7551788329790655,
                -3.1312075523410225
            ]
        },
        {
            "positions": [
                -0.20674436149903214,
                -1.3074039078432644,
                2.2936533485259814,
                -0.9562178701972205,
                0.9115769211065808,
                -3.1158866192520005
            ]
        },
        {
            "positions": [
                -0.2726555418284289,
                -1.3409876291048919,
                2.3580744733710657,
                -0.9913675146573009,
                1.0679750092340963,
                -3.100565686162978
            ]
        },
        {
            "positions": [
                -0.3385667221578257,
                -1.3745713503665193,
                2.42249559821615,
                -1.0265171591173814,
                1.2243730973616116,
                -3.085244753073956
            ]
        }
    ]
}