{
    "goal": {
        "global_pose": {
            "orientation": {
                "w": 0.5084816217422485,
                "x": -0.49083608388900757,
                "y": 0.5182115435600281,
                "z": -0.4816462993621826
            },
            "position": {
                "x": 0.5540239810943604,
                "y": 0.030875300988554955,
                "z": 0.16403168439865112
            }
        },
        "name": "move_to_storage_A"
    },
    "id": "BiEST_move_to_storage_A_77",
    "joint_names": [
        "shoulder_pan_joint",
        "shoulder_lift_joint",
        "elbow_joint",
        "wrist_1_joint",
        "wrist_2_joint",
        "wrist_3_joint"
    ],
    "metrics": {
        "cart_traj_len": 0.3528402238732951,
        "distance_elbow_joint": 0.4525178183171321,
        "distance_shoulder_lift_joint": 0.23383405479484098,
        "distance_shoulder_pan_joint": 0.46144152913968495,
        "distance_wrist_1_joint": 0.2533555462528506,
        "distance_wrist_2_joint": 1.0982304097580915,
        "distance_wrist_3_joint": 0.10047293806276958,
        "smoothness": 0.0,
        "time": 0.05878736699999999,
        "traj_len": 1.612405748044012,
        "weighted_distance": 2.037739956044895
    },
    "planner": "BiEST",
    "start": {
        "state": {
            "elbow_joint": 1.9715477243005601,
            "shoulder_lift_joint": -1.1394853015351272,
            "shoulder_pan_joint": 0.12281154014795169,
            "wrist_1_joint": -0.7804696478968182,
            "wrist_2_joint": 0.12958648046900423,
            "wrist_3_joint": -3.192491284697111
        }
    },
    "waypoints": [
        {
            "positions": [
                0.12281154014795169,
                -1.1394853015351272,
                1.9715477243005601,
                -0.7804696478968182,
                0.12958648046900423,
                -3.192491284697111
            ]
        },
        {
            "positions": [
                0.056891321699425276,
                -1.1728901665058187,
                2.0361931269172935,
                -0.8166632973615111,
                0.28647653900587444,
                -3.1781380078310013
            ]
        },
        {
            "positions": [
                -0.009028896749101137,
                -1.2062950314765104,
                2.1008385295340264,
                -0.852856946826204,
                0.44336659754274466,
                -3.1637847309648914
            ]
        },
        {
            "positions": [
                -0.07494911519762755,
                -1.239699896447202,
                2.1654839321507597,
                -0.889050596290897,
                0.6002566560796149,
                -3.1494314540987816
            ]
        },
        {
            "positions": [
                -0.14086933364615395,
                -1.2731047614178934,
                2.2301293347674926,
                -0.92524424575559,
                0.7571467146164851,
                -3.1350781772326712
            ]
        },
        {
            "positions": [
                -0.20678955209468042,
                -1.3065096263885851,
                2.294774737384226,
                -0.9614378952202829,
                0.9140367731533553,
                -3.1207249003665614
            ]
        },
        {
            "positions": [
                -0.2727097705432068,
                -1.3399144913592766,
                2.359420140000959,
                -0.9976315446849758,
                1.0709268316902256,
                -3.1063716235004515
            ]
        },
        {
            "positions": [
                -0.33862998899173324,
                -1.3733193563299682,
                2.4240655426176922,
                -1.0338251941496688,
                1.2278168902270958,
                -3.0920183466343416
            ]
        }
    ]
}