{
    "goal": {
        "global_pose": {
            "orientation": {
                "w": 0.5084816217422485,
                "x": -0.49083608388900757,
                "y": 0.5182115435600281,
                "z": -0.4816462993621826
            },
            "position": {
                "x": 0.5540239810943604,
                "y": 0.030875300988554955,
                "z": 0.16403168439865112
            }
        },
        "name": "move_to_storage_A"
    },
    "id": "BiEST_move_to_storage_A_134",
    "joint_names": [
        "shoulder_pan_joint",
        "shoulder_lift_joint",
        "elbow_joint",
        "wrist_1_joint",
        "wrist_2_joint",
        "wrist_3_joint"
    ],
    "metrics": {
        "cart_traj_len": 0.3537225665679364,
        "distance_elbow_joint": 0.45339461917906654,
        "distance_shoulder_lift_joint": 0.23260517533173308,
        "distance_shoulder_pan_joint": 0.46410763679206635,
        "distance_wrist_1_joint": 0.26192367036834285,
        "distance_wrist_2_joint": 1.092520034626809,
        "distance_wrist_3_joint": 0.10704596413230671,
        "smoothness": 8.881784197001252e-16,
        "time": 0.061235345,
        "traj_len": 1.6160436567216632,
        "weighted_distance": 2.0445372908533828
    },
    "planner": "BiEST",
    "start": {
        "state": {
            "elbow_joint": 1.9715477243005601,
            "shoulder_lift_joint": -1.1394853015351272,
            "shoulder_pan_joint": 0.12281154014795169,
            "wrist_1_joint": -0.7804696478968182,
            "wrist_2_joint": 0.12958648046900423,
            "wrist_3_joint": -3.192491284697111
        }
    },
    "waypoints": [
        {
            "positions": [
                0.12281154014795169,
                -1.1394853015351272,
                1.9715477243005601,
                -0.7804696478968182,
                0.12958648046900423,
                -3.192491284697111
            ]
        },
        {
            "positions": [
                0.056510449177656505,
                -1.1727146122968033,
                2.036318384183284,
                -0.8178873150922957,
                0.2856607711299769,
                -3.1771990041067815
            ]
        },
        {
            "positions": [
                -0.00979064179263868,
                -1.2059439230584794,
                2.1010890440660077,
                -0.8553049822877733,
                0.4417350617909496,
                -3.161906723516452
            ]
        },
        {
            "positions": [
                -0.07609173276293386,
                -1.2391732338201555,
                2.1658597039487315,
                -0.8927226494832508,
                0.5978093524519223,
                -3.1466144429261225
            ]
        },
        {
            "positions": [
                -0.14239282373322903,
                -1.2724025445818317,
                2.2306303638314553,
                -0.9301403166787283,
                0.753883643112895,
                -3.131322162335793
            ]
        },
        {
            "positions": [
                -0.20869391470352427,
                -1.305631855343508,
                2.295401023714179,
                -0.9675579838742059,
                0.9099579337738678,
                -3.1160298817454635
            ]
        },
        {
            "positions": [
                -0.2749950056738194,
                -1.3388611661051841,
                2.360171683596903,
                -1.0049756510696835,
                1.0660322244348404,
                -3.100737601155134
            ]
        },
        {
            "positions": [
                -0.34129609664411464,
                -1.3720904768668603,
                2.4249423434796267,
                -1.042393318265161,
                1.2221065150958133,
                -3.0854453205648045
            ]
        }
    ]
}