{
    "goal": {
        "global_pose": {
            "orientation": {
                "w": 0.7047431468963623,
                "x": -0.7094548344612122,
                "y": 0.0024358443915843964,
                "z": -0.0022348060738295317
            },
            "position": {
                "x": 0.6094750761985779,
                "y": 0.3671506643295288,
                "z": 0.19426114857196808
            }
        },
        "name": "move_to_magneteinheit_A"
    },
    "id": "BiEST_move_to_magneteinheit_A_3",
    "joint_names": [
        "shoulder_pan_joint",
        "shoulder_lift_joint",
        "elbow_joint",
        "wrist_1_joint",
        "wrist_2_joint",
        "wrist_3_joint"
    ],
    "metrics": {
        "cart_traj_len": 3.3986684578744,
        "distance_elbow_joint": 3.9063405119917256,
        "distance_shoulder_lift_joint": 0.9896600330069607,
        "distance_shoulder_pan_joint": 2.7234456239666898,
        "distance_wrist_1_joint": 1.2787895945446326,
        "distance_wrist_2_joint": 3.195344028203853,
        "distance_wrist_3_joint": 3.5648295423564758,
        "smoothness": 0.20055718277979245,
        "time": 0.08862633,
        "traj_len": 3.95707080225643,
        "weighted_distance": 5.221321867260414
    },
    "planner": "BiEST",
    "start": {
        "state": {
            "elbow_joint": -1.919618573717145,
            "shoulder_lift_joint": -1.2443395971678275,
            "shoulder_pan_joint": 2.6996025300909787,
            "wrist_1_joint": -1.548550951253194,
            "wrist_2_joint": -1.5709469090946802,
            "wrist_3_joint": 0.4420197732051276
        }
    },
    "waypoints": [
        {
            "positions": [
                2.6996025300909787,
                -1.2443395971678275,
                -1.919618573717145,
                -1.548550951253194,
                -1.5709469090946802,
                0.4420197732051276
            ]
        },
        {
            "positions": [
                2.6276844933926102,
                -1.262925664144622,
                -1.8195363849193082,
                -1.5084736810642145,
                -1.469112546834216,
                0.39336824211482
            ]
        },
        {
            "positions": [
                2.555766456694242,
                -1.2815117311214168,
                -1.7194541961214715,
                -1.468396410875235,
                -1.367278184573752,
                0.3447167110245125
            ]
        },
        {
            "positions": [
                2.4838484199958737,
                -1.3000977980982114,
                -1.6193720073236348,
                -1.4283191406862552,
                -1.265443822313288,
                0.296065179934205
            ]
        },
        {
            "positions": [
                2.4119303832975056,
                -1.318683865075006,
                -1.5192898185257981,
                -1.3882418704972757,
                -1.1636094600528242,
                0.24741364884389744
            ]
        },
        {
            "positions": [
                2.340012346599137,
                -1.3372699320518007,
                -1.4192076297279614,
                -1.348164600308296,
                -1.06177509779236,
                0.1987621177535899
            ]
        },
        {
            "positions": [
                2.2680943099007687,
                -1.3558559990285952,
                -1.3191254409301247,
                -1.3080873301193163,
                -0.9599407355318961,
                0.15011058666328236
            ]
        },
        {
            "positions": [
                2.1961762732024006,
                -1.3744420660053898,
                -1.219043252132288,
                -1.2680100599303368,
                -0.858106373271432,
                0.1014590555729748
            ]
        },
        {
            "positions": [
                2.1242582365040326,
                -1.3930281329821843,
                -1.1189610633344513,
                -1.2279327897413572,
                -0.7562720110109681,
                0.05280752448266729
            ]
        },
        {
            "positions": [
                2.052340199805664,
                -1.411614199958979,
                -1.0188788745366146,
                -1.1878555195523777,
                -0.654437648750504,
                0.00415599339235978
            ]
        },
        {
            "positions": [
                1.9804221631072956,
                -1.4302002669357736,
                -0.9187966857387779,
                -1.1477782493633981,
                -0.5526032864900399,
                -0.044495537697947785
            ]
        },
        {
            "positions": [
                1.9085041264089275,
                -1.4487863339125682,
                -0.8187144969409412,
                -1.1077009791744183,
                -0.45076892422957604,
                -0.09314706878825535
            ]
        },
        {
            "positions": [
                1.836586089710559,
                -1.4673724008893627,
                -0.7186323081431045,
                -1.0676237089854388,
                -0.348934561969112,
                -0.14179859987856286
            ]
        },
        {
            "positions": [
                1.7646680530121908,
                -1.4859584678661575,
                -0.6185501193452678,
                -1.0275464387964592,
                -0.24710019970864816,
                -0.19045013096887037
            ]
        },
        {
            "positions": [
                1.6927500163138223,
                -1.504544534842952,
                -0.5184679305474311,
                -0.9874691686074796,
                -0.1452658374481839,
                -0.239101662059178
            ]
        },
        {
            "positions": [
                1.620831979615454,
                -1.5231306018197466,
                -0.4183857417495944,
                -0.9473918984184999,
                -0.04343147518771984,
                -0.2877531931494855
            ]
        },
        {
            "positions": [
                1.548913942917086,
                -1.5417166687965413,
                -0.3183035529517577,
                -0.9073146282295204,
                0.05840288707274399,
                -0.336404724239793
            ]
        },
        {
            "positions": [
                1.4769959062187175,
                -1.560302735773336,
                -0.21822136415392102,
                -0.8672373580405407,
                0.16023724933320826,
                -0.3850562553301006
            ]
        },
        {
            "positions": [
                1.4050778695203492,
                -1.5788888027501304,
                -0.11813917535608431,
                -0.8271600878515611,
                0.2620716115936721,
                -0.433707786420408
            ]
        },
        {
            "positions": [
                1.333159832821981,
                -1.5974748697269252,
                -0.018056986558247612,
                -0.7870828176625816,
                0.3639059738541359,
                -0.48235931751071554
            ]
        },
        {
            "positions": [
                1.2612417961236124,
                -1.6160609367037198,
                0.08202520223958909,
                -0.7470055474736019,
                0.4657403361146004,
                -0.5310108486010232
            ]
        },
        {
            "positions": [
                1.1893237594252444,
                -1.6346470036805143,
                0.18210739103742557,
                -0.7069282772846224,
                0.567574698375064,
                -0.5796623796913307
            ]
        },
        {
            "positions": [
                1.117405722726876,
                -1.6532330706573088,
                0.2821895798352625,
                -0.6668510070956427,
                0.6694090606355281,
                -0.6283139107816382
            ]
        },
        {
            "positions": [
                1.0454876860285076,
                -1.6718191376341036,
                0.3822717686330994,
                -0.626773736906663,
                0.7712434228959921,
                -0.6769654418719457
            ]
        },
        {
            "positions": [
                0.9735696493301393,
                -1.6904052046108982,
                0.48235395743093573,
                -0.5866964667176835,
                0.8730777851564564,
                -0.7256169729622532
            ]
        },
        {
            "positions": [
                0.9075521452142639,
                -1.6604385528091623,
                0.5713825818226606,
                -0.6074580118896901,
                0.840735631778728,
                -0.863052971102508
            ]
        },
        {
            "positions": [
                0.8415346410983883,
                -1.6304719010074264,
                0.6604112062143854,
                -0.6282195570616965,
                0.8083934784009996,
                -1.0004889692427628
            ]
        },
        {
            "positions": [
                0.7755171369825127,
                -1.6005052492056906,
                0.7494398306061103,
                -0.6489811022337031,
                0.7760513250232712,
                -1.1379249673830176
            ]
        },
        {
            "positions": [
                0.7094996328666372,
                -1.5705385974039547,
                0.8384684549978352,
                -0.6697426474057095,
                0.7437091716455428,
                -1.2753609655232725
            ]
        },
        {
            "positions": [
                0.6434821287507617,
                -1.5405719456022189,
                0.92749707938956,
                -0.6905041925777161,
                0.7113670182678145,
                -1.4127969636635274
            ]
        },
        {
            "positions": [
                0.5774646246348861,
                -1.510605293800483,
                1.016525703781285,
                -0.7112657377497226,
                0.6790248648900861,
                -1.5502329618037818
            ]
        },
        {
            "positions": [
                0.5114471205190105,
                -1.4806386419987472,
                1.1055543281730098,
                -0.7320272829217291,
                0.6466827115123577,
                -1.6876689599440367
            ]
        },
        {
            "positions": [
                0.44542961640313505,
                -1.4506719901970113,
                1.1945829525647347,
                -0.7527888280937356,
                0.6143405581346293,
                -1.8251049580842915
            ]
        },
        {
            "positions": [
                0.37941211228725946,
                -1.4207053383952755,
                1.2836115769564598,
                -0.7735503732657422,
                0.5819984047569008,
                -1.9625409562245464
            ]
        },
        {
            "positions": [
                0.313394608171384,
                -1.3907386865935396,
                1.3726402013481844,
                -0.7943119184377487,
                0.5496562513791724,
                -2.0999769543648013
            ]
        },
        {
            "positions": [
                0.2473771040555085,
                -1.3607720347918038,
                1.4616688257399093,
                -0.8150734636097552,
                0.5173140980014441,
                -2.237412952505056
            ]
        },
        {
            "positions": [
                0.1813595999396329,
                -1.330805382990068,
                1.5506974501316342,
                -0.8358350087817618,
                0.4849719446237157,
                -2.3748489506453105
            ]
        },
        {
            "positions": [
                0.11534209582375732,
                -1.300838731188332,
                1.639726074523359,
                -0.8565965539537683,
                0.45262979124598723,
                -2.512284948785566
            ]
        },
        {
            "positions": [
                0.04932459170788184,
                -1.2708720793865962,
                1.728754698915084,
                -0.8773580991257748,
                0.42028763786825885,
                -2.6497209469258203
            ]
        },
        {
            "positions": [
                0.06761651310377953,
                -1.2398567543016992,
                1.793246508754958,
                -0.8707897297255169,
                0.34565534120212854,
                -2.767993152482202
            ]
        },
        {
            "positions": [
                0.08590843449967722,
                -1.2088414292168022,
                1.8577383185948322,
                -0.864221360325259,
                0.27102304453599824,
                -2.8862653580385844
            ]
        },
        {
            "positions": [
                0.10420035589557491,
                -1.1778261041319051,
                1.9222301284347063,
                -0.857652990925001,
                0.19639074786986788,
                -3.0045375635949663
            ]
        },
        {
            "positions": [
                0.1224922772914726,
                -1.1468107790470081,
                1.9867219382745804,
                -0.8510846215247432,
                0.12175845120373757,
                -3.122809769151348
            ]
        }
    ]
}{
    "goal": {
        "global_pose": {
            "orientation": {
                "w": 0.7047431468963623,
                "x": -0.7094548344612122,
                "y": 0.0024358443915843964,
                "z": -0.0022348060738295317
            },
            "position": {
                "x": 0.6094750761985779,
                "y": 0.3671506643295288,
                "z": 0.19426114857196808
            }
        },
        "name": "move_to_magneteinheit_A"
    },
    "id": "BiEST_move_to_magneteinheit_A_3",
    "joint_names": [
        "shoulder_pan_joint",
        "shoulder_lift_joint",
        "elbow_joint",
        "wrist_1_joint",
        "wrist_2_joint",
        "wrist_3_joint"
    ],
    "metrics": {
        "cart_traj_len": 1.329655402137242,
        "distance_elbow_joint": 0.4898468103792968,
        "distance_shoulder_lift_joint": 0.7644786541430546,
        "distance_shoulder_pan_joint": 1.2415344510207889,
        "distance_wrist_1_joint": 0.8711898916783978,
        "distance_wrist_2_joint": 1.4449442626706743,
        "distance_wrist_3_joint": 4.373139742539091,
        "smoothness": 0.03563650815508386,
        "time": 0.10533372599999999,
        "traj_len": 3.0306985683883676,
        "weighted_distance": 4.499727486399432
    },
    "planner": "BiEST",
    "start": {
        "state": {
            "elbow_joint": 1.919643534880228,
            "shoulder_lift_joint": -1.8972525353963687,
            "shoulder_pan_joint": -1.1188672234189438,
            "wrist_1_joint": -1.5931878212786155,
            "wrist_2_joint": 1.5706036197970081,
            "wrist_3_joint": 1.118896926603594
        }
    },
    "waypoints": [
        {
            "positions": [
                -1.1188672234189438,
                -1.8972525353963687,
                1.919643534880228,
                -1.5931878212786155,
                1.5706036197970081,
                1.118896926603594
            ]
        },
        {
            "positions": [
                -1.0647140657806926,
                -1.8627624523053088,
                1.9094088709464723,
                -1.5568738737114867,
                1.5093109069676514,
                0.9301174548613015
            ]
        },
        {
            "positions": [
                -1.0105609081424414,
                -1.8282723692142486,
                1.8991742070127164,
                -1.5205599261443576,
                1.4480181941382948,
                0.741337983119009
            ]
        },
        {
            "positions": [
                -0.9564077505041901,
                -1.7937822861231887,
                1.8889395430789606,
                -1.4842459785772288,
                1.3867254813089382,
                0.5525585113767166
            ]
        },
        {
            "positions": [
                -0.9022545928659388,
                -1.7592922030321285,
                1.8787048791452046,
                -1.4479320310101,
                1.3254327684795815,
                0.36377903963442404
            ]
        },
        {
            "positions": [
                -0.8481014352276876,
                -1.7248021199410686,
                1.8684702152114487,
                -1.411618083442971,
                1.2641400556502247,
                0.17499956789213167
            ]
        },
        {
            "positions": [
                -0.7939482775894363,
                -1.6903120368500084,
                1.858235551277693,
                -1.3753041358758422,
                1.2028473428208681,
                -0.013779903850160702
            ]
        },
        {
            "positions": [
                -0.7397951199511851,
                -1.6558219537589483,
                1.848000887343937,
                -1.3389901883087134,
                1.1415546299915116,
                -0.2025593755924533
            ]
        },
        {
            "positions": [
                -0.6856419623129337,
                -1.6213318706678883,
                1.8377662234101813,
                -1.3026762407415844,
                1.0802619171621548,
                -0.3913388473347459
            ]
        },
        {
            "positions": [
                -0.6314888046746825,
                -1.5868417875768284,
                1.8275315594764254,
                -1.2663622931744556,
                1.018969204332798,
                -0.5801183190770385
            ]
        },
        {
            "positions": [
                -0.5773356470364313,
                -1.5523517044857682,
                1.8172968955426696,
                -1.2300483456073268,
                0.9576764915034415,
                -0.7688977908193306
            ]
        },
        {
            "positions": [
                -0.52318248939818,
                -1.517861621394708,
                1.8070622316089135,
                -1.1937343980401978,
                0.8963837786740848,
                -0.9576772625616232
            ]
        },
        {
            "positions": [
                -0.4690293317599288,
                -1.483371538303648,
                1.7968275676751577,
                -1.157420450473069,
                0.8350910658447281,
                -1.1464567343039154
            ]
        },
        {
            "positions": [
                -0.41487617412167743,
                -1.4488814552125882,
                1.786592903741402,
                -1.1211065029059402,
                0.7737983530153715,
                -1.3352362060462084
            ]
        },
        {
            "positions": [
                -0.3607230164834263,
                -1.414391372121528,
                1.776358239807646,
                -1.0847925553388111,
                0.7125056401860148,
                -1.5240156777885006
            ]
        },
        {
            "positions": [
                -0.30656985884517507,
                -1.3799012890304678,
                1.7661235758738902,
                -1.0484786077716826,
                0.6512129273566583,
                -1.7127951495307927
            ]
        },
        {
            "positions": [
                -0.2524167012069237,
                -1.3454112059394079,
                1.7558889119401344,
                -1.0121646602045535,
                0.5899202145273015,
                -1.9015746212730857
            ]
        },
        {
            "positions": [
                -0.19826354356867248,
                -1.310921122848348,
                1.7456542480063786,
                -0.9758507126374246,
                0.5286275016979449,
                -2.090354093015378
            ]
        },
        {
            "positions": [
                -0.14411038593042114,
                -1.2764310397572878,
                1.7354195840726225,
                -0.9395367650702957,
                0.46733478886858815,
                -2.2791335647576707
            ]
        },
        {
            "positions": [
                -0.0899572282921699,
                -1.2419409566662276,
                1.7251849201388667,
                -0.9032228175031669,
                0.40604207603923137,
                -2.4679130364999633
            ]
        },
        {
            "positions": [
                -0.03580407065391866,
                -1.2074508735751677,
                1.7149502562051109,
                -0.866908869936038,
                0.3447493632098748,
                -2.656692508242255
            ]
        },
        {
            "positions": [
                0.018349086984332574,
                -1.1729607904841077,
                1.704715592271355,
                -0.8305949223689091,
                0.28345665038051804,
                -2.8454719799845485
            ]
        },
        {
            "positions": [
                0.07250224462258373,
                -1.1384707073930476,
                1.6944809283375992,
                -0.7942809748017803,
                0.22216393755116154,
                -3.0342514517268406
            ]
        },
        {
            "positions": [
                0.09758473611221433,
                -1.1356222943231808,
                1.8268230302559332,
                -0.758139452200999,
                0.1739116473387477,
                -3.1442471338311684
            ]
        },
        {
            "positions": [
                0.12266722760184491,
                -1.1327738812533141,
                1.9591651321742671,
                -0.7219979296002177,
                0.1256593571263339,
                -3.2542428159354957
            ]
        }
    ]
}