{
    "goal": {
        "global_pose": {
            "orientation": {
                "w": 0.5084816217422485,
                "x": -0.49083608388900757,
                "y": 0.5182115435600281,
                "z": -0.4816462993621826
            },
            "position": {
                "x": 0.5540239810943604,
                "y": 0.030875300988554955,
                "z": 0.16403168439865112
            }
        },
        "name": "move_to_storage_A"
    },
    "id": "BiEST_move_to_storage_A_143",
    "joint_names": [
        "shoulder_pan_joint",
        "shoulder_lift_joint",
        "elbow_joint",
        "wrist_1_joint",
        "wrist_2_joint",
        "wrist_3_joint"
    ],
    "metrics": {
        "cart_traj_len": 0.35295801330238685,
        "distance_elbow_joint": 0.45276523702868543,
        "distance_shoulder_lift_joint": 0.23368251946119445,
        "distance_shoulder_pan_joint": 0.4609880042977496,
        "distance_wrist_1_joint": 0.2613308292091613,
        "distance_wrist_2_joint": 1.1003554004876084,
        "distance_wrist_3_joint": 0.11142831847662249,
        "smoothness": 1.3322676295501878e-15,
        "time": 0.047443439,
        "traj_len": 1.6188113877042691,
        "weighted_distance": 2.0506323843173444
    },
    "planner": "BiEST",
    "start": {
        "state": {
            "elbow_joint": 1.9715477243005601,
            "shoulder_lift_joint": -1.1394853015351272,
            "shoulder_pan_joint": 0.12281154014795169,
            "wrist_1_joint": -0.7804696478968182,
            "wrist_2_joint": 0.12958648046900423,
            "wrist_3_joint": -3.192491284697111
        }
    },
    "waypoints": [
        {
            "positions": [
                0.12281154014795169,
                -1.1394853015351272,
                1.9715477243005601,
                -0.7804696478968182,
                0.12958648046900423,
                -3.192491284697111
            ]
        },
        {
            "positions": [
                0.0569561109625589,
                -1.1728685186010122,
                2.0362284724475153,
                -0.8178026234981269,
                0.2867801091100911,
                -3.1765729534861653
            ]
        },
        {
            "positions": [
                -0.008899318222833894,
                -1.206251735666897,
                2.1009092205944704,
                -0.8551355990994357,
                0.44397373775117804,
                -3.160654622275219
            ]
        },
        {
            "positions": [
                -0.0747547474082267,
                -1.239634952732782,
                2.1655899687414255,
                -0.8924685747007444,
                0.601167366392265,
                -3.144736291064273
            ]
        },
        {
            "positions": [
                -0.14061017659361946,
                -1.2730181697986669,
                2.23027071688838,
                -0.9298015503020531,
                0.7583609950333519,
                -3.128817959853327
            ]
        },
        {
            "positions": [
                -0.2064656057790123,
                -1.3064013868645519,
                2.2949514650353353,
                -0.9671345259033619,
                0.9155546236744388,
                -3.112899628642381
            ]
        },
        {
            "positions": [
                -0.2723210349644051,
                -1.3397846039304366,
                2.3596322131822904,
                -1.0044675015046707,
                1.0727482523155256,
                -3.0969812974314346
            ]
        },
        {
            "positions": [
                -0.3381764641497979,
                -1.3731678209963216,
                2.4243129613292456,
                -1.0418004771059794,
                1.2299418809566127,
                -3.0810629662204887
            ]
        }
    ]
}