{
    "goal": {
        "global_pose": {
            "orientation": {
                "w": 0.7047431468963623,
                "x": -0.7094548344612122,
                "y": 0.0024358443915843964,
                "z": -0.0022348060738295317
            },
            "position": {
                "x": 0.6094750761985779,
                "y": 0.3671506643295288,
                "z": 0.19426114857196808
            }
        },
        "name": "move_to_magneteinheit_A"
    },
    "id": "BiEST_move_to_magneteinheit_A_89",
    "joint_names": [
        "shoulder_pan_joint",
        "shoulder_lift_joint",
        "elbow_joint",
        "wrist_1_joint",
        "wrist_2_joint",
        "wrist_3_joint"
    ],
    "metrics": {
        "cart_traj_len": 3.2250712336662595,
        "distance_elbow_joint": 3.914139895643131,
        "distance_shoulder_lift_joint": 1.905337031206703,
        "distance_shoulder_pan_joint": 4.835325097489496,
        "distance_wrist_1_joint": 3.4726172044848713,
        "distance_wrist_2_joint": 2.074324185371817,
        "distance_wrist_3_joint": 0.9205214018504775,
        "smoothness": 0.32042219755251633,
        "time": 0.101451868,
        "traj_len": 4.137905849103685,
        "weighted_distance": 4.950782666367422
    },
    "planner": "BiEST",
    "start": {
        "state": {
            "elbow_joint": -1.919618573717145,
            "shoulder_lift_joint": -1.2443395971678275,
            "shoulder_pan_joint": 2.6996025300909787,
            "wrist_1_joint": -1.548550951253194,
            "wrist_2_joint": -1.5709469090946802,
            "wrist_3_joint": 0.4420197732051276
        }
    },
    "waypoints": [
        {
            "positions": [
                2.6996025300909787,
                -1.2443395971678275,
                -1.919618573717145,
                -1.548550951253194,
                -1.5709469090946802,
                0.4420197732051276
            ]
        },
        {
            "positions": [
                2.583803707875379,
                -1.2668076507401365,
                -1.8258792223793747,
                -1.4694343382587054,
                -1.516152091275041,
                0.4206993234525352
            ]
        },
        {
            "positions": [
                2.468004885659779,
                -1.2892757043124454,
                -1.7321398710416047,
                -1.3903177252642167,
                -1.4613572734554017,
                0.3993788736999428
            ]
        },
        {
            "positions": [
                2.3522060634441795,
                -1.3117437578847546,
                -1.6384005197038345,
                -1.3112011122697282,
                -1.4065624556357625,
                0.37805842394735034
            ]
        },
        {
            "positions": [
                2.2364072412285796,
                -1.3342118114570636,
                -1.5446611683660643,
                -1.2320844992752396,
                -1.3517676378161234,
                0.35673797419475795
            ]
        },
        {
            "positions": [
                2.1206084190129797,
                -1.3566798650293725,
                -1.4509218170282943,
                -1.1529678862807509,
                -1.296972819996484,
                0.33541752444216555
            ]
        },
        {
            "positions": [
                2.00480959679738,
                -1.3791479186016815,
                -1.357182465690524,
                -1.0738512732862622,
                -1.242178002176845,
                0.31409707468957315
            ]
        },
        {
            "positions": [
                1.88901077458178,
                -1.4016159721739907,
                -1.263443114352754,
                -0.9947346602917736,
                -1.1873831843572056,
                0.29277662493698076
            ]
        },
        {
            "positions": [
                1.7732119523661802,
                -1.4240840257462997,
                -1.1697037630149838,
                -0.9156180472972849,
                -1.1325883665375664,
                0.27145617518438836
            ]
        },
        {
            "positions": [
                1.6574131301505803,
                -1.4465520793186086,
                -1.0759644116772136,
                -0.8365014343027962,
                -1.0777935487179273,
                0.25013572543179596
            ]
        },
        {
            "positions": [
                1.5416143079349807,
                -1.4690201328909176,
                -0.9822250603394436,
                -0.7573848213083076,
                -1.022998730898288,
                0.22881527567920357
            ]
        },
        {
            "positions": [
                1.4258154857193808,
                -1.4914881864632266,
                -0.8884857090016733,
                -0.678268208313819,
                -0.9682039130786488,
                0.20749482592661114
            ]
        },
        {
            "positions": [
                1.3100166635037809,
                -1.5139562400355357,
                -0.7947463576639031,
                -0.5991515953193303,
                -0.9134090952590097,
                0.18617437617401872
            ]
        },
        {
            "positions": [
                1.1942178412881812,
                -1.5364242936078447,
                -0.7010070063261331,
                -0.5200349823248416,
                -0.8586142774393705,
                0.16485392642142632
            ]
        },
        {
            "positions": [
                1.0784190190725813,
                -1.5588923471801537,
                -0.6072676549883629,
                -0.4409183693303531,
                -0.8038194596197312,
                0.14353347666883393
            ]
        },
        {
            "positions": [
                0.9626201968569816,
                -1.5813604007524626,
                -0.5135283036505929,
                -0.3618017563358644,
                -0.7490246418000921,
                0.12221302691624153
            ]
        },
        {
            "positions": [
                0.8468213746413817,
                -1.6038284543247716,
                -0.41978895231282265,
                -0.28268514334137573,
                -0.6942298239804529,
                0.10089257716364913
            ]
        },
        {
            "positions": [
                0.7310225524257818,
                -1.6262965078970808,
                -0.3260496009750524,
                -0.20356853034688704,
                -0.6394350061608136,
                0.07957212741105674
            ]
        },
        {
            "positions": [
                0.615223730210182,
                -1.6487645614693898,
                -0.23231024963728242,
                -0.12445191735239836,
                -0.5846401883411745,
                0.05825167765846434
            ]
        },
        {
            "positions": [
                0.4994249079945825,
                -1.6712326150416987,
                -0.1385708982995122,
                -0.04533530435790989,
                -0.5298453705215351,
                0.036931227905871944
            ]
        },
        {
            "positions": [
                0.3836260857789826,
                -1.693700668614008,
                -0.044831546961742186,
                0.0337813086365788,
                -0.475050552701896,
                0.015610778153279548
            ]
        },
        {
            "positions": [
                0.2678272635633827,
                -1.7161687221863167,
                0.04890780437602804,
                0.11289792163106749,
                -0.42025573488225687,
                -0.005709671599312904
            ]
        },
        {
            "positions": [
                0.15202844134778282,
                -1.7386367757586259,
                0.14264715571379827,
                0.19201453462555618,
                -0.3654609170626175,
                -0.0270301213519053
            ]
        },
        {
            "positions": [
                0.03622961913218292,
                -1.7611048293309348,
                0.2363865070515685,
                0.27113114762004487,
                -0.3106660992429784,
                -0.0483505711044977
            ]
        },
        {
            "positions": [
                -0.07956920308341697,
                -1.7835728829032438,
                0.3301258583893387,
                0.35024776061453355,
                -0.25587128142333926,
                -0.06967102085709015
            ]
        },
        {
            "positions": [
                -0.19536802529901642,
                -1.806040936475553,
                0.4238652097271085,
                0.429364373609022,
                -0.2010764636036999,
                -0.09099147060968255
            ]
        },
        {
            "positions": [
                -0.3111668475146163,
                -1.8285089900478617,
                0.5176045610648787,
                0.5084809866035109,
                -0.14628164578406078,
                -0.11231192036227494
            ]
        },
        {
            "positions": [
                -0.4269656697302162,
                -1.850977043620171,
                0.611343912402649,
                0.5875975995979994,
                -0.09148682796442165,
                -0.13363237011486734
            ]
        },
        {
            "positions": [
                -0.5427644919458161,
                -1.8734450971924799,
                0.7050832637404192,
                0.6667142125924879,
                -0.036692010144782294,
                -0.15495281986745973
            ]
        },
        {
            "positions": [
                -0.658563314161416,
                -1.8959131507647888,
                0.7988226150781894,
                0.7458308255869768,
                0.018102807674856836,
                -0.17627326962005213
            ]
        },
        {
            "positions": [
                -0.7743621363770155,
                -1.918381204337098,
                0.8925619664159592,
                0.8249474385814652,
                0.07289762549449597,
                -0.19759371937264453
            ]
        },
        {
            "positions": [
                -0.8901609585926153,
                -1.940849257909407,
                0.9863013177537294,
                0.9040640515759542,
                0.12769244331413532,
                -0.21891416912523692
            ]
        },
        {
            "positions": [
                -1.005959780808215,
                -1.963317311481716,
                1.0800406690914999,
                0.9831806645704426,
                0.18248726113377445,
                -0.24023461887782926
            ]
        },
        {
            "positions": [
                -0.9118128819256899,
                -1.8644540350739813,
                1.1562473901610404,
                1.061587796958879,
                0.15574642653849433,
                -0.22037903473053588
            ]
        },
        {
            "positions": [
                -0.8176659830431647,
                -1.765590758666247,
                1.232454111230581,
                1.139994929347315,
                0.12900559194321423,
                -0.2005234505832425
            ]
        },
        {
            "positions": [
                -0.7235190841606396,
                -1.6667274822585123,
                1.3086608323001214,
                1.2184020617357514,
                0.10226475734793411,
                -0.1806678664359491
            ]
        },
        {
            "positions": [
                -0.6293721852781144,
                -1.567864205850778,
                1.384867553369662,
                1.2968091941241875,
                0.075523922752654,
                -0.1608122822886557
            ]
        },
        {
            "positions": [
                -0.5352252863955892,
                -1.4690009294430433,
                1.4610742744392025,
                1.3752163265126238,
                0.048783088157373866,
                -0.1409566981413623
            ]
        },
        {
            "positions": [
                -0.44107838751306405,
                -1.3701376530353087,
                1.537280995508743,
                1.4536234589010602,
                0.022042253562093772,
                -0.12110111399406892
            ]
        },
        {
            "positions": [
                -0.3469314886305388,
                -1.271274376627574,
                1.6134877165782835,
                1.5320305912894963,
                -0.00469858103318635,
                -0.10124552984677551
            ]
        },
        {
            "positions": [
                -0.25278458974801377,
                -1.1724111002198396,
                1.689694437647824,
                1.6104377236779324,
                -0.031439415628466444,
                -0.08138994569948216
            ]
        },
        {
            "positions": [
                -0.1586376908654885,
                -1.073547823812105,
                1.7659011587173645,
                1.6888448560663687,
                -0.058180250223746566,
                -0.06153436155218875
            ]
        },
        {
            "positions": [
                -0.06449079198296337,
                -0.9746845474043704,
                1.842107879786905,
                1.767251988454805,
                -0.08492108481902672,
                -0.04167877740489534
            ]
        },
        {
            "positions": [
                0.029656106899561774,
                -0.875821270996636,
                1.9183146008564456,
                1.8456591208432411,
                -0.11166191941430675,
                -0.021823193257601986
            ]
        },
        {
            "positions": [
                0.123803005782087,
                -0.7769579945889014,
                1.994521321925986,
                1.9240662532316775,
                -0.1384027540095869,
                -0.0019676091103085825
            ]
        }
    ]
}{
    "goal": {
        "global_pose": {
            "orientation": {
                "w": 0.7047431468963623,
                "x": -0.7094548344612122,
                "y": 0.0024358443915843964,
                "z": -0.0022348060738295317
            },
            "position": {
                "x": 0.6094750761985779,
                "y": 0.3671506643295288,
                "z": 0.19426114857196808
            }
        },
        "name": "move_to_magneteinheit_A"
    },
    "id": "BiEST_move_to_magneteinheit_A_89",
    "joint_names": [
        "shoulder_pan_joint",
        "shoulder_lift_joint",
        "elbow_joint",
        "wrist_1_joint",
        "wrist_2_joint",
        "wrist_3_joint"
    ],
    "metrics": {
        "cart_traj_len": 1.229114340663867,
        "distance_elbow_joint": 0.36078271874519463,
        "distance_shoulder_lift_joint": 0.7658300072932429,
        "distance_shoulder_pan_joint": 1.2406379070135198,
        "distance_wrist_1_joint": 1.6566596743316402,
        "distance_wrist_2_joint": 2.15570524021173,
        "distance_wrist_3_joint": 4.366623746799755,
        "smoothness": 0.4531048102719645,
        "time": 0.105010143,
        "traj_len": 3.2474973894362225,
        "weighted_distance": 4.805398183557524
    },
    "planner": "BiEST",
    "start": {
        "state": {
            "elbow_joint": 1.919643534880228,
            "shoulder_lift_joint": -1.8972525353963687,
            "shoulder_pan_joint": -1.1188672234189438,
            "wrist_1_joint": -1.5931878212786155,
            "wrist_2_joint": 1.5706036197970081,
            "wrist_3_joint": 1.118896926603594
        }
    },
    "waypoints": [
        {
            "positions": [
                -1.1188672234189438,
                -1.8972525353963687,
                1.919643534880228,
                -1.5931878212786155,
                1.5706036197970081,
                1.118896926603594
            ]
        },
        {
            "positions": [
                -1.069125206920057,
                -1.8697938903624214,
                1.9125976560463571,
                -1.5382101426623007,
                1.492217178520133,
                0.9411813475669392
            ]
        },
        {
            "positions": [
                -1.0193831904211699,
                -1.8423352453284743,
                1.9055517772124864,
                -1.4832324640459862,
                1.4138307372432577,
                0.7634657685302844
            ]
        },
        {
            "positions": [
                -0.969641173922283,
                -1.814876600294527,
                1.8985058983786154,
                -1.4282547854296714,
                1.3354442959663826,
                0.5857501894936297
            ]
        },
        {
            "positions": [
                -0.919899157423396,
                -1.7874179552605796,
                1.8914600195447444,
                -1.3732771068133567,
                1.2570578546895073,
                0.40803461045697487
            ]
        },
        {
            "positions": [
                -0.870157140924509,
                -1.7599593102266322,
                1.8844141407108737,
                -1.3182994281970422,
                1.1786714134126322,
                0.23031903142032006
            ]
        },
        {
            "positions": [
                -0.8204151244256221,
                -1.732500665192685,
                1.8773682618770027,
                -1.2633217495807274,
                1.100284972135757,
                0.05260345238366537
            ]
        },
        {
            "positions": [
                -0.7706731079267352,
                -1.7050420201587377,
                1.8703223830431317,
                -1.2083440709644127,
                1.0218985308588817,
                -0.12511212665298954
            ]
        },
        {
            "positions": [
                -0.7209310914278482,
                -1.6775833751247906,
                1.863276504209261,
                -1.1533663923480981,
                0.9435120895820066,
                -0.30282770568964423
            ]
        },
        {
            "positions": [
                -0.6711890749289613,
                -1.6501247300908433,
                1.85623062537539,
                -1.0983887137317834,
                0.8651256483051314,
                -0.48054328472629915
            ]
        },
        {
            "positions": [
                -0.6214470584300743,
                -1.622666085056896,
                1.849184746541519,
                -1.0434110351154686,
                0.7867392070282562,
                -0.6582588637629538
            ]
        },
        {
            "positions": [
                -0.5717050419311873,
                -1.5952074400229486,
                1.8421388677076482,
                -0.988433356499154,
                0.708352765751381,
                -0.8359744427996088
            ]
        },
        {
            "positions": [
                -0.5219630254323004,
                -1.5677487949890014,
                1.8350929888737773,
                -0.9334556778828395,
                0.6299663244745058,
                -1.0136900218362632
            ]
        },
        {
            "positions": [
                -0.47222100893341346,
                -1.540290149955054,
                1.8280471100399065,
                -0.8784779992665248,
                0.5515798831976306,
                -1.191405600872918
            ]
        },
        {
            "positions": [
                -0.42247899243452647,
                -1.5128315049211067,
                1.8210012312060355,
                -0.82350032065021,
                0.4731934419207553,
                -1.369121179909573
            ]
        },
        {
            "positions": [
                -0.3727369759356395,
                -1.4853728598871596,
                1.8139553523721645,
                -0.7685226420338953,
                0.3948070006438802,
                -1.5468367589462277
            ]
        },
        {
            "positions": [
                -0.3229949594367526,
                -1.4579142148532123,
                1.8069094735382938,
                -0.7135449634175807,
                0.3164205593670051,
                -1.7245523379828824
            ]
        },
        {
            "positions": [
                -0.27325294293786573,
                -1.430455569819265,
                1.7998635947044228,
                -0.658567284801266,
                0.23803411809012998,
                -1.9022679170195371
            ]
        },
        {
            "positions": [
                -0.22351092643897863,
                -1.4029969247853176,
                1.7928177158705518,
                -0.6035896061849513,
                0.15964767681325465,
                -2.079983496056192
            ]
        },
        {
            "positions": [
                -0.17376890994009175,
                -1.3755382797513704,
                1.785771837036681,
                -0.5486119275686367,
                0.08126123553637954,
                -2.257699075092847
            ]
        },
        {
            "positions": [
                -0.12402689344120477,
                -1.348079634717423,
                1.77872595820281,
                -0.493634248952322,
                0.0028747942595042097,
                -2.4354146541295014
            ]
        },
        {
            "positions": [
                -0.07428487694231789,
                -1.320620989683476,
                1.7716800793689391,
                -0.43865657033600747,
                -0.0755116470173709,
                -2.6131302331661566
            ]
        },
        {
            "positions": [
                -0.024542860443430792,
                -1.2931623446495286,
                1.7646342005350684,
                -0.3836788917196925,
                -0.15389808829424623,
                -2.7908458122028117
            ]
        },
        {
            "positions": [
                0.025199156055456067,
                -1.2657036996155813,
                1.7575883217011974,
                -0.3287012131033781,
                -0.2322845295711213,
                -2.968561391239466
            ]
        },
        {
            "positions": [
                0.04934203794023608,
                -1.2321334067374674,
                1.8072701980927384,
                -0.42674447964247864,
                -0.14408025686022125,
                -3.0383527484786397
            ]
        },
        {
            "positions": [
                0.07348491982501609,
                -1.1985631138593535,
                1.8569520744842793,
                -0.5247877461815792,
                -0.05587598414932121,
                -3.108144105717813
            ]
        },
        {
            "positions": [
                0.09762780170979611,
                -1.1649928209812397,
                1.9066339508758203,
                -0.6228310127206798,
                0.03232828856157885,
                -3.1779354629569863
            ]
        },
        {
            "positions": [
                0.12177068359457613,
                -1.1314225281031258,
                1.9563158272673613,
                -0.7208742792597803,
                0.1205325612724789,
                -3.24772682019616
            ]
        }
    ]
}