{
    "goal": {
        "global_pose": {
            "orientation": {
                "w": 0.7047431468963623,
                "x": -0.7094548344612122,
                "y": 0.0024358443915843964,
                "z": -0.0022348060738295317
            },
            "position": {
                "x": 0.6094750761985779,
                "y": 0.3671506643295288,
                "z": 0.19426114857196808
            }
        },
        "name": "move_to_magneteinheit_A"
    },
    "id": "BiEST_move_to_magneteinheit_A_33",
    "joint_names": [
        "shoulder_pan_joint",
        "shoulder_lift_joint",
        "elbow_joint",
        "wrist_1_joint",
        "wrist_2_joint",
        "wrist_3_joint"
    ],
    "metrics": {
        "cart_traj_len": 4.1931235450051085,
        "distance_elbow_joint": 3.909188246165511,
        "distance_shoulder_lift_joint": 1.075104543207426,
        "distance_shoulder_pan_joint": 5.181032838792271,
        "distance_wrist_1_joint": 2.080067831271772,
        "distance_wrist_2_joint": 2.1844336018786805,
        "distance_wrist_3_joint": 3.562049366968659,
        "smoothness": 0.22974076720731715,
        "time": 0.087529047,
        "traj_len": 4.241683206969178,
        "weighted_distance": 5.420376056637778
    },
    "planner": "BiEST",
    "start": {
        "state": {
            "elbow_joint": -1.919618573717145,
            "shoulder_lift_joint": -1.2443395971678275,
            "shoulder_pan_joint": 2.6996025300909787,
            "wrist_1_joint": -1.548550951253194,
            "wrist_2_joint": -1.5709469090946802,
            "wrist_3_joint": 0.4420197732051276
        }
    },
    "waypoints": [
        {
            "positions": [
                2.6996025300909787,
                -1.2443395971678275,
                -1.919618573717145,
                -1.548550951253194,
                -1.5709469090946802,
                0.4420197732051276
            ]
        },
        {
            "positions": [
                2.5559193542523744,
                -1.2226670582470902,
                -1.8957731366557957,
                -1.5741892190073192,
                -1.4989088286824541,
                0.3435529678312084
            ]
        },
        {
            "positions": [
                2.4122361784137696,
                -1.2009945193263527,
                -1.8719276995944465,
                -1.5998274867614444,
                -1.426870748270228,
                0.24508616245728929
            ]
        },
        {
            "positions": [
                2.2685530025751652,
                -1.1793219804056154,
                -1.8480822625330973,
                -1.6254657545155697,
                -1.3548326678580018,
                0.14661935708337015
            ]
        },
        {
            "positions": [
                2.1248698267365604,
                -1.1576494414848781,
                -1.824236825471748,
                -1.6511040222696949,
                -1.2827945874457758,
                0.048152551709450986
            ]
        },
        {
            "positions": [
                1.981186650897956,
                -1.1359769025641409,
                -1.8003913884103988,
                -1.67674229002382,
                -1.2107565070335498,
                -0.05031425366446818
            ]
        },
        {
            "positions": [
                1.8375034750593513,
                -1.1143043636434036,
                -1.7765459513490496,
                -1.7023805577779452,
                -1.1387184266213235,
                -0.1487810590383873
            ]
        },
        {
            "positions": [
                1.693820299220747,
                -1.092631824722666,
                -1.7527005142877004,
                -1.7280188255320703,
                -1.0666803462090977,
                -0.24724786441230645
            ]
        },
        {
            "positions": [
                1.5501371233821424,
                -1.0709592858019288,
                -1.728855077226351,
                -1.7536570932861955,
                -0.9946422657968714,
                -0.3457146697862256
            ]
        },
        {
            "positions": [
                1.4064539475435378,
                -1.0492867468811915,
                -1.7050096401650017,
                -1.7792953610403208,
                -0.9226041853846454,
                -0.4441814751601448
            ]
        },
        {
            "positions": [
                1.2627707717049332,
                -1.027614207960454,
                -1.6811642031036524,
                -1.804933628794446,
                -0.8505661049724192,
                -0.542648280534064
            ]
        },
        {
            "positions": [
                1.1190875958663287,
                -1.0059416690397167,
                -1.6573187660423032,
                -1.830571896548571,
                -0.7785280245601932,
                -0.641115085907983
            ]
        },
        {
            "positions": [
                0.9754044200277241,
                -0.9842691301189794,
                -1.633473328980954,
                -1.8562101643026963,
                -0.7064899441479671,
                -0.7395818912819021
            ]
        },
        {
            "positions": [
                0.8317212441891195,
                -0.9625965911982421,
                -1.6096278919196048,
                -1.8818484320568214,
                -0.634451863735741,
                -0.8380486966558214
            ]
        },
        {
            "positions": [
                0.6880380683505152,
                -0.9409240522775048,
                -1.5857824548582555,
                -1.9074866998109465,
                -0.562413783323515,
                -0.9365155020297404
            ]
        },
        {
            "positions": [
                0.5443548925119104,
                -0.9192515133567674,
                -1.5619370177969063,
                -1.933124967565072,
                -0.49037570291128874,
                -1.03498230740366
            ]
        },
        {
            "positions": [
                0.40067171667330603,
                -0.8975789744360301,
                -1.538091580735557,
                -1.958763235319197,
                -0.4183376224990627,
                -1.1334491127775788
            ]
        },
        {
            "positions": [
                0.25698854083470124,
                -0.8759064355152927,
                -1.5142461436742078,
                -1.9844015030733222,
                -0.34629954208683644,
                -1.231915918151498
            ]
        },
        {
            "positions": [
                0.11330536499609689,
                -0.8542338965945554,
                -1.4904007066128586,
                -2.0100397708274476,
                -0.27426146167461063,
                -1.330382723525417
            ]
        },
        {
            "positions": [
                -0.030377810842507902,
                -0.832561357673818,
                -1.4665552695515092,
                -2.0356780385815725,
                -0.20222338126238437,
                -1.4288495288993364
            ]
        },
        {
            "positions": [
                -0.17406098668111225,
                -0.8108888187530807,
                -1.4427098324901602,
                -2.061316306335698,
                -0.13018530085015834,
                -1.5273163342732554
            ]
        },
        {
            "positions": [
                -0.31774416251971704,
                -0.7892162798323433,
                -1.4188643954288107,
                -2.086954574089823,
                -0.05814722043793208,
                -1.625783139647175
            ]
        },
        {
            "positions": [
                -0.4614273383583214,
                -0.767543740911606,
                -1.3950189583674617,
                -2.112592841843948,
                0.013890859974293734,
                -1.7242499450210937
            ]
        },
        {
            "positions": [
                -0.6051105141969262,
                -0.7458712019908686,
                -1.3711735213061123,
                -2.1382311095980735,
                0.08592894038651999,
                -1.822716750395013
            ]
        },
        {
            "positions": [
                -0.7487936900355305,
                -0.7241986630701314,
                -1.3473280842447632,
                -2.1638693773521984,
                0.15796702079874603,
                -1.9211835557689318
            ]
        },
        {
            "positions": [
                -0.8924768658741353,
                -0.702526124149394,
                -1.3234826471834138,
                -2.189507645106324,
                0.23000510121097228,
                -2.0196503611428516
            ]
        },
        {
            "positions": [
                -1.0361600417127397,
                -0.6808535852286567,
                -1.2996372101220646,
                -2.2151459128604487,
                0.3020431816231981,
                -2.1181171665167704
            ]
        },
        {
            "positions": [
                -1.1798432175513445,
                -0.6591810463079193,
                -1.2757917730607153,
                -2.240784180614574,
                0.37408126203542424,
                -2.2165839718906897
            ]
        },
        {
            "positions": [
                -1.114763862993847,
                -0.6836783459252952,
                -1.1125237007852613,
                -2.1713924505190545,
                0.36211099049799533,
                -2.261756252984332
            ]
        },
        {
            "positions": [
                -1.0496845084363495,
                -0.7081756455426711,
                -0.9492556285098072,
                -2.102000720423535,
                0.3501407189605665,
                -2.306928534077974
            ]
        },
        {
            "positions": [
                -0.984605153878852,
                -0.732672945160047,
                -0.7859875562343531,
                -2.0326089903280153,
                0.33817044742313757,
                -2.352100815171616
            ]
        },
        {
            "positions": [
                -0.9195257993213544,
                -0.7571702447774229,
                -0.622719483958899,
                -1.9632172602324955,
                0.32620017588570865,
                -2.397273096265258
            ]
        },
        {
            "positions": [
                -0.8544464447638569,
                -0.7816675443947987,
                -0.45945141168344494,
                -1.893825530136976,
                0.3142299043482798,
                -2.4424453773589
            ]
        },
        {
            "positions": [
                -0.7893670902063594,
                -0.8061648440121746,
                -0.2961833394079909,
                -1.8244338000414564,
                0.3022596328108509,
                -2.487617658452542
            ]
        },
        {
            "positions": [
                -0.724287735648862,
                -0.8306621436295505,
                -0.13291526713253687,
                -1.7550420699459368,
                0.290289361273422,
                -2.532789939546184
            ]
        },
        {
            "positions": [
                -0.6592083810913644,
                -0.8551594432469264,
                0.030352805142917383,
                -1.685650339850417,
                0.27831908973599306,
                -2.5779622206398263
            ]
        },
        {
            "positions": [
                -0.5941290265338669,
                -0.8796567428643023,
                0.19362087741837142,
                -1.6162586097548974,
                0.2663488181985642,
                -2.6231345017334684
            ]
        },
        {
            "positions": [
                -0.5290496719763694,
                -0.9041540424816782,
                0.35688894969382545,
                -1.5468668796593779,
                0.2543785466611353,
                -2.6683067828271105
            ]
        },
        {
            "positions": [
                -0.46397031741887185,
                -0.9286513420990541,
                0.5201570219692797,
                -1.4774751495638583,
                0.2424082751237064,
                -2.7134790639207527
            ]
        },
        {
            "positions": [
                -0.3988909628613745,
                -0.9531486417164299,
                0.6834250942447335,
                -1.4080834194683387,
                0.23043800358627753,
                -2.758651345014395
            ]
        },
        {
            "positions": [
                -0.3338116083038769,
                -0.9776459413338059,
                0.8466931665201876,
                -1.3386916893728191,
                0.21846773204884862,
                -2.803823626108037
            ]
        },
        {
            "positions": [
                -0.26873225374637943,
                -1.0021432409511817,
                1.0099612387956416,
                -1.2692999592772995,
                0.20649746051141973,
                -2.8489959072016786
            ]
        },
        {
            "positions": [
                -0.20365289918888196,
                -1.0266405405685577,
                1.1732293110710956,
                -1.19990822918178,
                0.19452718897399085,
                -2.894168188295321
            ]
        },
        {
            "positions": [
                -0.13857354463138427,
                -1.0511378401859335,
                1.33649738334655,
                -1.1305164990862602,
                0.18255691743656194,
                -2.939340469388963
            ]
        },
        {
            "positions": [
                -0.07349419007388702,
                -1.0756351398033095,
                1.4997654556220041,
                -1.0611247689907408,
                0.17058664589913305,
                -2.984512750482605
            ]
        },
        {
            "positions": [
                -0.00841483551638933,
                -1.1001324394206853,
                1.6630335278974582,
                -0.991733038895221,
                0.15861637436170417,
                -3.029685031576247
            ]
        },
        {
            "positions": [
                0.05666451904110814,
                -1.124629739038061,
                1.8263016001729122,
                -0.9223413087997014,
                0.1466461028242753,
                -3.0748573126698893
            ]
        },
        {
            "positions": [
                0.12174387359860556,
                -1.149127038655437,
                1.9895696724483662,
                -0.8529495787041819,
                0.13467583128684638,
                -3.1200295937635314
            ]
        }
    ]
}{
    "goal": {
        "global_pose": {
            "orientation": {
                "w": 0.7047431468963623,
                "x": -0.7094548344612122,
                "y": 0.0024358443915843964,
                "z": -0.0022348060738295317
            },
            "position": {
                "x": 0.6094750761985779,
                "y": 0.3671506643295288,
                "z": 0.19426114857196808
            }
        },
        "name": "move_to_magneteinheit_A"
    },
    "id": "BiEST_move_to_magneteinheit_A_33",
    "joint_names": [
        "shoulder_pan_joint",
        "shoulder_lift_joint",
        "elbow_joint",
        "wrist_1_joint",
        "wrist_2_joint",
        "wrist_3_joint"
    ],
    "metrics": {
        "cart_traj_len": 1.2230924975071578,
        "distance_elbow_joint": 0.1756655253211179,
        "distance_shoulder_lift_joint": 0.7667457845442527,
        "distance_shoulder_pan_joint": 1.2409391972298718,
        "distance_wrist_1_joint": 0.9173169162200959,
        "distance_wrist_2_joint": 1.6135504517712222,
        "distance_wrist_3_joint": 4.36828447391783,
        "smoothness": 0.21319306143233155,
        "time": 0.130645078,
        "traj_len": 3.013719022902498,
        "weighted_distance": 4.511090629197264
    },
    "planner": "BiEST",
    "start": {
        "state": {
            "elbow_joint": 1.919643534880228,
            "shoulder_lift_joint": -1.8972525353963687,
            "shoulder_pan_joint": -1.1188672234189438,
            "wrist_1_joint": -1.5931878212786155,
            "wrist_2_joint": 1.5706036197970081,
            "wrist_3_joint": 1.118896926603594
        }
    },
    "waypoints": [
        {
            "positions": [
                -1.1188672234189438,
                -1.8972525353963687,
                1.919643534880228,
                -1.5931878212786155,
                1.5706036197970081,
                1.118896926603594
            ]
        },
        {
            "positions": [
                -1.0653267904800878,
                -1.8653389315668027,
                1.9164499690552828,
                -1.5522905090426573,
                1.5011228462078474,
                0.9322531571436201
            ]
        },
        {
            "positions": [
                -1.0117863575412316,
                -1.8334253277372368,
                1.9132564032303374,
                -1.5113931968066991,
                1.431642072618687,
                0.7456093876836463
            ]
        },
        {
            "positions": [
                -0.9582459246023755,
                -1.8015117239076708,
                1.9100628374053918,
                -1.4704958845707408,
                1.3621612990295262,
                0.5589656182236725
            ]
        },
        {
            "positions": [
                -0.9047054916635193,
                -1.769598120078105,
                1.9068692715804465,
                -1.4295985723347826,
                1.2926805254403657,
                0.37232184876369867
            ]
        },
        {
            "positions": [
                -0.8511650587246632,
                -1.737684516248539,
                1.9036757057555012,
                -1.3887012600988244,
                1.223199751851205,
                0.18567807930372482
            ]
        },
        {
            "positions": [
                -0.7976246257858071,
                -1.705770912418973,
                1.9004821399305558,
                -1.3478039478628663,
                1.1537189782620443,
                -0.0009656901562489217
            ]
        },
        {
            "positions": [
                -0.7440841928469509,
                -1.673857308589407,
                1.8972885741056105,
                -1.3069066356269081,
                1.0842382046728836,
                -0.18760945961622277
            ]
        },
        {
            "positions": [
                -0.6905437599080948,
                -1.641943704759841,
                1.8940950082806651,
                -1.2660093233909497,
                1.014757431083723,
                -0.3742532290761966
            ]
        },
        {
            "positions": [
                -0.6370033269692386,
                -1.610030100930275,
                1.8909014424557196,
                -1.2251120111549916,
                0.9452766574945624,
                -0.5608969985361707
            ]
        },
        {
            "positions": [
                -0.5834628940303825,
                -1.5781164971007091,
                1.8877078766307742,
                -1.1842146989190334,
                0.8757958839054018,
                -0.7475407679961443
            ]
        },
        {
            "positions": [
                -0.5299224610915264,
                -1.5462028932711434,
                1.8845143108058289,
                -1.143317386683075,
                0.8063151103162411,
                -0.9341845374561182
            ]
        },
        {
            "positions": [
                -0.4763820281526703,
                -1.5142892894415774,
                1.8813207449808835,
                -1.1024200744471169,
                0.7368343367270805,
                -1.1208283069160918
            ]
        },
        {
            "positions": [
                -0.42284159521381415,
                -1.4823756856120114,
                1.8781271791559382,
                -1.0615227622111587,
                0.6673535631379198,
                -1.3074720763760659
            ]
        },
        {
            "positions": [
                -0.369301162274958,
                -1.4504620817824454,
                1.8749336133309926,
                -1.0206254499752005,
                0.5978727895487592,
                -1.4941158458360395
            ]
        },
        {
            "positions": [
                -0.315760729336102,
                -1.4185484779528794,
                1.8717400475060473,
                -0.9797281377392424,
                0.5283920159595987,
                -1.6807596152960131
            ]
        },
        {
            "positions": [
                -0.26222029639724576,
                -1.3866348741233134,
                1.868546481681102,
                -0.9388308255032841,
                0.458911242370438,
                -1.8674033847559872
            ]
        },
        {
            "positions": [
                -0.20867986345838963,
                -1.3547212702937474,
                1.8653529158561566,
                -0.8979335132673258,
                0.3894304687812773,
                -2.0540471542159615
            ]
        },
        {
            "positions": [
                -0.15513943051953338,
                -1.3228076664641817,
                1.8621593500312112,
                -0.8570362010313676,
                0.3199496951921166,
                -2.2406909236759356
            ]
        },
        {
            "positions": [
                -0.10159899758067725,
                -1.2908940626346155,
                1.858965784206266,
                -0.8161388887954094,
                0.2504689216029561,
                -2.4273346931359088
            ]
        },
        {
            "positions": [
                -0.04805856464182123,
                -1.2589804588050497,
                1.8557722183813203,
                -0.7752415765594513,
                0.18098814801379537,
                -2.613978462595883
            ]
        },
        {
            "positions": [
                0.0054818682970350086,
                -1.2270668549754835,
                1.852578652556375,
                -0.734344264323493,
                0.11150737442463465,
                -2.800622232055857
            ]
        },
        {
            "positions": [
                0.059022301235891056,
                -1.1951532511459177,
                1.8493850867314297,
                -0.6934469520875348,
                0.04202660083547406,
                -2.98726600151583
            ]
        },
        {
            "positions": [
                0.0905471375234096,
                -1.162830000999017,
                1.9020886253175893,
                -0.7022349756020425,
                0.0845133172403181,
                -3.118326774415033
            ]
        },
        {
            "positions": [
                0.12207197381092814,
                -1.130506750852116,
                1.954792163903749,
                -0.7110229991165501,
                0.12700003364516216,
                -3.2493875473142357
            ]
        }
    ]
}