{
    "goal": {
        "global_pose": {
            "orientation": {
                "w": 0.7047431468963623,
                "x": -0.7094548344612122,
                "y": 0.0024358443915843964,
                "z": -0.0022348060738295317
            },
            "position": {
                "x": 0.6094750761985779,
                "y": 0.3671506643295288,
                "z": 0.19426114857196808
            }
        },
        "name": "move_to_magneteinheit_A"
    },
    "id": "BiEST_move_to_magneteinheit_A_147",
    "joint_names": [
        "shoulder_pan_joint",
        "shoulder_lift_joint",
        "elbow_joint",
        "wrist_1_joint",
        "wrist_2_joint",
        "wrist_3_joint"
    ],
    "metrics": {
        "cart_traj_len": 3.378378413849372,
        "distance_elbow_joint": 3.926294634548965,
        "distance_shoulder_lift_joint": 2.555624292504836,
        "distance_shoulder_pan_joint": 5.315480345354162,
        "distance_wrist_1_joint": 3.87693991110867,
        "distance_wrist_2_joint": 1.4359783557727996,
        "distance_wrist_3_joint": 0.49612099236842655,
        "smoothness": 0.30697941810887197,
        "time": 0.07536678299999999,
        "traj_len": 4.196002684896408,
        "weighted_distance": 4.889948750577676
    },
    "planner": "BiEST",
    "start": {
        "state": {
            "elbow_joint": -1.919618573717145,
            "shoulder_lift_joint": -1.2443395971678275,
            "shoulder_pan_joint": 2.6996025300909787,
            "wrist_1_joint": -1.548550951253194,
            "wrist_2_joint": -1.5709469090946802,
            "wrist_3_joint": 0.4420197732051276
        }
    },
    "waypoints": [
        {
            "positions": [
                2.6996025300909787,
                -1.2443395971678275,
                -1.919618573717145,
                -1.548550951253194,
                -1.5709469090946802,
                0.4420197732051276
            ]
        },
        {
            "positions": [
                2.5800228939402388,
                -1.276076372936637,
                -1.8203051042256793,
                -1.4365474169224128,
                -1.553225579353477,
                0.43281886096731187
            ]
        },
        {
            "positions": [
                2.460443257789499,
                -1.3078131487054463,
                -1.7209916347342133,
                -1.3245438825916316,
                -1.535504249612274,
                0.42361794872949615
            ]
        },
        {
            "positions": [
                2.340863621638759,
                -1.3395499244742557,
                -1.6216781652427477,
                -1.2125403482608503,
                -1.5177829198710708,
                0.41441703649168043
            ]
        },
        {
            "positions": [
                2.221283985488019,
                -1.371286700243065,
                -1.5223646957512817,
                -1.100536813930069,
                -1.5000615901298677,
                0.4052161242538647
            ]
        },
        {
            "positions": [
                2.101704349337279,
                -1.4030234760118745,
                -1.423051226259816,
                -0.9885332795992879,
                -1.4823402603886646,
                0.396015212016049
            ]
        },
        {
            "positions": [
                1.9821247131865387,
                -1.434760251780684,
                -1.3237377567683501,
                -0.8765297452685067,
                -1.4646189306474615,
                0.3868142997782333
            ]
        },
        {
            "positions": [
                1.8625450770357987,
                -1.4664970275494933,
                -1.2244242872768845,
                -0.7645262109377254,
                -1.4468976009062584,
                0.37761338754041757
            ]
        },
        {
            "positions": [
                1.7429654408850588,
                -1.4982338033183025,
                -1.1251108177854188,
                -0.6525226766069442,
                -1.4291762711650553,
                0.36841247530260185
            ]
        },
        {
            "positions": [
                1.6233858047343188,
                -1.5299705790871119,
                -1.025797348293953,
                -0.540519142276163,
                -1.4114549414238522,
                0.35921156306478613
            ]
        },
        {
            "positions": [
                1.5038061685835789,
                -1.5617073548559213,
                -0.9264838788024871,
                -0.4285156079453818,
                -1.393733611682649,
                0.3500106508269704
            ]
        },
        {
            "positions": [
                1.3842265324328389,
                -1.5934441306247307,
                -0.8271704093110215,
                -0.31651207361460054,
                -1.376012281941446,
                0.3408097385891547
            ]
        },
        {
            "positions": [
                1.2646468962820987,
                -1.62518090639354,
                -0.7278569398195556,
                -0.2045085392838193,
                -1.3582909522002429,
                0.331608826351339
            ]
        },
        {
            "positions": [
                1.145067260131359,
                -1.6569176821623495,
                -0.6285434703280899,
                -0.09250500495303804,
                -1.34056962245904,
                0.32240791411352326
            ]
        },
        {
            "positions": [
                1.0254876239806188,
                -1.6886544579311589,
                -0.529230000836624,
                0.019498529377743212,
                -1.3228482927178369,
                0.31320700187570755
            ]
        },
        {
            "positions": [
                0.9059079878298788,
                -1.7203912336999683,
                -0.4299165313451583,
                0.13150206370852424,
                -1.3051269629766338,
                0.30400608963789183
            ]
        },
        {
            "positions": [
                0.7863283516791388,
                -1.7521280094687777,
                -0.33060306185369237,
                0.24350559803930572,
                -1.2874056332354307,
                0.2948051774000761
            ]
        },
        {
            "positions": [
                0.6667487155283989,
                -1.783864785237587,
                -0.23128959236222668,
                0.35550913237008674,
                -1.2696843034942276,
                0.2856042651622604
            ]
        },
        {
            "positions": [
                0.5471690793776589,
                -1.8156015610063965,
                -0.131976122870761,
                0.467512666700868,
                -1.2519629737530245,
                0.2764033529244447
            ]
        },
        {
            "positions": [
                0.4275894432269185,
                -1.8473383367752059,
                -0.03266265337929486,
                0.5795162010316495,
                -1.2342416440118213,
                0.26720244068662896
            ]
        },
        {
            "positions": [
                0.308009807076179,
                -1.8790751125440153,
                0.06665081611217083,
                0.6915197353624305,
                -1.2165203142706182,
                0.25800152844881324
            ]
        },
        {
            "positions": [
                0.188430170925439,
                -1.9108118883128244,
                0.1659642856036363,
                0.8035232696932115,
                -1.1987989845294151,
                0.24880061621099753
            ]
        },
        {
            "positions": [
                0.06885053477469905,
                -1.942548664081634,
                0.265277755095102,
                0.915526804023993,
                -1.181077654788212,
                0.2395997039731818
            ]
        },
        {
            "positions": [
                -0.05072910137604136,
                -1.9742854398504435,
                0.3645912245865681,
                1.0275303383547745,
                -1.163356325047009,
                0.23039879173536607
            ]
        },
        {
            "positions": [
                -0.17030873752678133,
                -2.006022215619253,
                0.4639046940780338,
                1.1395338726855555,
                -1.1456349953058058,
                0.22119787949755038
            ]
        },
        {
            "positions": [
                -0.28988837367752085,
                -2.037758991388062,
                0.5632181635694995,
                1.2515374070163365,
                -1.1279136655646027,
                0.21199696725973466
            ]
        },
        {
            "positions": [
                -0.4094680098282608,
                -2.0694957671568717,
                0.6625316330609652,
                1.363540941347118,
                -1.1101923358233996,
                0.20279605502191894
            ]
        },
        {
            "positions": [
                -0.5290476459790012,
                -2.101232542925681,
                0.7618451025524313,
                1.4755444756778995,
                -1.0924710060821965,
                0.1935951427841032
            ]
        },
        {
            "positions": [
                -0.6486272821297412,
                -2.1329693186944905,
                0.861158572043897,
                1.5875480100086805,
                -1.0747496763409934,
                0.1843942305462875
            ]
        },
        {
            "positions": [
                -0.7682069182804812,
                -2.1647060944632996,
                0.9604720415353627,
                1.6995515443394615,
                -1.0570283465997905,
                0.1751933183084718
            ]
        },
        {
            "positions": [
                -0.8877865544312211,
                -2.196442870232109,
                1.0597855110268284,
                1.8115550786702426,
                -1.0393070168585874,
                0.16599240607065607
            ]
        },
        {
            "positions": [
                -1.007366190581961,
                -2.2281796460009184,
                1.1590989805182945,
                1.9235586130010245,
                -1.0215856871173843,
                0.15679149383284036
            ]
        },
        {
            "positions": [
                -1.126945826732701,
                -2.259916421769728,
                1.2584124500097602,
                2.0355621473318055,
                -1.0038643573761812,
                0.14759058159502464
            ]
        },
        {
            "positions": [
                -1.246525462883441,
                -2.2916531975385372,
                1.357725919501226,
                2.1475656816625865,
                -0.986143027634978,
                0.13838966935720892
            ]
        },
        {
            "positions": [
                -1.1324127668517956,
                -2.1659606398606934,
                1.411805097945442,
                2.1324970751465124,
                -0.9152118214422199,
                0.12234876198049993
            ]
        },
        {
            "positions": [
                -1.0183000708201502,
                -2.0402680821828496,
                1.4658842763896582,
                2.1174284686304383,
                -0.8442806152494617,
                0.10630785460379094
            ]
        },
        {
            "positions": [
                -0.904187374788505,
                -1.9145755245050058,
                1.5199634548338743,
                2.102359862114364,
                -0.7733494090567037,
                0.09026694722708195
            ]
        },
        {
            "positions": [
                -0.7900746787568595,
                -1.788882966827162,
                1.5740426332780906,
                2.08729125559829,
                -0.7024182028639456,
                0.07422603985037296
            ]
        },
        {
            "positions": [
                -0.6759619827252141,
                -1.6631904091493181,
                1.6281218117223066,
                2.072222649082216,
                -0.6314869966711875,
                0.05818513247366397
            ]
        },
        {
            "positions": [
                -0.5618492866935688,
                -1.5374978514714743,
                1.682200990166523,
                2.057154042566142,
                -0.5605557904784294,
                0.04214422509695498
            ]
        },
        {
            "positions": [
                -0.4477365906619234,
                -1.4118052937936303,
                1.736280168610739,
                2.0420854360500678,
                -0.4896245842856713,
                0.026103317720245975
            ]
        },
        {
            "positions": [
                -0.3336238946302781,
                -1.2861127361157867,
                1.790359347054955,
                2.0270168295339936,
                -0.4186933780929133,
                0.010062410343536998
            ]
        },
        {
            "positions": [
                -0.21951119859863266,
                -1.1604201784379427,
                1.8444385254991713,
                2.0119482230179195,
                -0.3477621719001551,
                -0.005978497033171992
            ]
        },
        {
            "positions": [
                -0.10539850256698724,
                -1.0347276207600988,
                1.8985177039433876,
                1.9968796165018454,
                -0.27683096570739696,
                -0.022019404409880983
            ]
        },
        {
            "positions": [
                0.00871419346465796,
                -0.909035063082255,
                1.9525968823876036,
                1.9818110099857713,
                -0.205899759514639,
                -0.03806031178658997
            ]
        },
        {
            "positions": [
                0.12282688949630331,
                -0.7833425054044112,
                2.0066760608318197,
                1.9667424034696972,
                -0.1349685533218808,
                -0.05410121916329896
            ]
        }
    ]
}{
    "goal": {
        "global_pose": {
            "orientation": {
                "w": 0.7047431468963623,
                "x": -0.7094548344612122,
                "y": 0.0024358443915843964,
                "z": -0.0022348060738295317
            },
            "position": {
                "x": 0.6094750761985779,
                "y": 0.3671506643295288,
                "z": 0.19426114857196808
            }
        },
        "name": "move_to_magneteinheit_A"
    },
    "id": "BiEST_move_to_magneteinheit_A_147",
    "joint_names": [
        "shoulder_pan_joint",
        "shoulder_lift_joint",
        "elbow_joint",
        "wrist_1_joint",
        "wrist_2_joint",
        "wrist_3_joint"
    ],
    "metrics": {
        "cart_traj_len": 1.2124923620589598,
        "distance_elbow_joint": 0.03750430689157147,
        "distance_shoulder_lift_joint": 0.7700706371969341,
        "distance_shoulder_pan_joint": 1.2406894150862904,
        "distance_wrist_1_joint": 0.8936627585765209,
        "distance_wrist_2_joint": 1.452837572532845,
        "distance_wrist_3_joint": 4.368023947261349,
        "smoothness": 0.15871446289422886,
        "time": 0.106260562,
        "traj_len": 2.9602007765598453,
        "weighted_distance": 4.4548105305588
    },
    "planner": "BiEST",
    "start": {
        "state": {
            "elbow_joint": 1.919643534880228,
            "shoulder_lift_joint": -1.8972525353963687,
            "shoulder_pan_joint": -1.1188672234189438,
            "wrist_1_joint": -1.5931878212786155,
            "wrist_2_joint": 1.5706036197970081,
            "wrist_3_joint": 1.118896926603594
        }
    },
    "waypoints": [
        {
            "positions": [
                -1.1188672234189438,
                -1.8972525353963687,
                1.919643534880228,
                -1.5931878212786155,
                1.5706036197970081,
                1.118896926603594
            ]
        },
        {
            "positions": [
                -1.0630538433711243,
                -1.862315665806848,
                1.9203536989236036,
                -1.5530475680564113,
                1.5047100564972062,
                0.9217521141890659
            ]
        },
        {
            "positions": [
                -1.0072404633233045,
                -1.8273787962173274,
                1.9210638629669792,
                -1.5129073148342072,
                1.4388164931974043,
                0.7246073017745379
            ]
        },
        {
            "positions": [
                -0.951427083275485,
                -1.7924419266278064,
                1.9217740270103547,
                -1.4727670616120032,
                1.3729229298976025,
                0.52746248936001
            ]
        },
        {
            "positions": [
                -0.8956137032276652,
                -1.7575050570382857,
                1.9224841910537303,
                -1.432626808389799,
                1.3070293665978006,
                0.33031767694548186
            ]
        },
        {
            "positions": [
                -0.8398003231798457,
                -1.722568187448765,
                1.9231943550971058,
                -1.392486555167595,
                1.2411358032979984,
                0.1331728645309539
            ]
        },
        {
            "positions": [
                -0.783986943132026,
                -1.6876313178592444,
                1.9239045191404816,
                -1.3523463019453907,
                1.1752422399981965,
                -0.06397194788357408
            ]
        },
        {
            "positions": [
                -0.7281735630842063,
                -1.6526944482697234,
                1.924614683183857,
                -1.3122060487231866,
                1.1093486766983947,
                -0.26111676029810216
            ]
        },
        {
            "positions": [
                -0.6723601830363866,
                -1.6177575786802028,
                1.9253248472272326,
                -1.2720657955009824,
                1.0434551133985928,
                -0.45826157271263024
            ]
        },
        {
            "positions": [
                -0.616546802988567,
                -1.582820709090682,
                1.9260350112706082,
                -1.2319255422787783,
                0.9775615500987908,
                -0.6554063851271583
            ]
        },
        {
            "positions": [
                -0.5607334229407474,
                -1.5478838395011614,
                1.9267451753139837,
                -1.1917852890565743,
                0.9116679867989889,
                -0.8525511975416862
            ]
        },
        {
            "positions": [
                -0.5049200428929277,
                -1.5129469699116407,
                1.9274553393573592,
                -1.1516450358343702,
                0.845774423499187,
                -1.0496960099562143
            ]
        },
        {
            "positions": [
                -0.44910666284510814,
                -1.4780101003221198,
                1.9281655034007348,
                -1.111504782612166,
                0.7798808601993851,
                -1.2468408223707421
            ]
        },
        {
            "positions": [
                -0.39329328279728837,
                -1.443073230732599,
                1.9288756674441103,
                -1.0713645293899619,
                0.7139872968995831,
                -1.4439856347852704
            ]
        },
        {
            "positions": [
                -0.3374799027494687,
                -1.4081363611430784,
                1.9295858314874859,
                -1.031224276167758,
                0.6480937335997812,
                -1.6411304471997983
            ]
        },
        {
            "positions": [
                -0.28166652270164916,
                -1.3731994915535577,
                1.9302959955308614,
                -0.9910840229455538,
                0.5822001702999794,
                -1.8382752596143261
            ]
        },
        {
            "positions": [
                -0.2258531426538294,
                -1.338262621964037,
                1.931006159574237,
                -0.9509437697233496,
                0.5163066070001774,
                -2.035420072028854
            ]
        },
        {
            "positions": [
                -0.17003976260600984,
                -1.303325752374516,
                1.9317163236176127,
                -0.9108035165011454,
                0.4504130437003755,
                -2.2325648844433825
            ]
        },
        {
            "positions": [
                -0.11422638255819018,
                -1.2683888827849952,
                1.9324264876609882,
                -0.8706632632789413,
                0.3845194804005734,
                -2.429709696857911
            ]
        },
        {
            "positions": [
                -0.058413002510370404,
                -1.2334520131954747,
                1.9331366517043638,
                -0.8305230100567372,
                0.3186259171007715,
                -2.6268545092724382
            ]
        },
        {
            "positions": [
                -0.0025996224625508546,
                -1.1985151436059538,
                1.9338468157477393,
                -0.7903827568345332,
                0.2527323538009696,
                -2.8239993216869665
            ]
        },
        {
            "positions": [
                0.05321375758526892,
                -1.163578274016433,
                1.9345569797911149,
                -0.7502425036123289,
                0.1868387905011677,
                -3.021144134101495
            ]
        },
        {
            "positions": [
                0.10902713763308855,
                -1.1286414044269124,
                1.9352671438344904,
                -0.7101022503901249,
                0.12094522720136572,
                -3.2182889465160223
            ]
        },
        {
            "positions": [
                0.12182219166734665,
                -1.1301009106543902,
                1.9571478417717996,
                -0.7206794380781552,
                0.12412440713856839,
                -3.2491270206577547
            ]
        }
    ]
}