{
    "goal": {
        "global_pose": {
            "orientation": {
                "w": 0.7047431468963623,
                "x": -0.7094548344612122,
                "y": 0.0024358443915843964,
                "z": -0.0022348060738295317
            },
            "position": {
                "x": 0.6094750761985779,
                "y": 0.3671506643295288,
                "z": 0.19426114857196808
            }
        },
        "name": "move_to_magneteinheit_A"
    },
    "id": "BiEST_move_to_magneteinheit_A_104",
    "joint_names": [
        "shoulder_pan_joint",
        "shoulder_lift_joint",
        "elbow_joint",
        "wrist_1_joint",
        "wrist_2_joint",
        "wrist_3_joint"
    ],
    "metrics": {
        "cart_traj_len": 3.7602270746278394,
        "distance_elbow_joint": 3.9063101421775306,
        "distance_shoulder_lift_joint": 0.12450515013829966,
        "distance_shoulder_pan_joint": 3.1353426843400123,
        "distance_wrist_1_joint": 1.3742895132193296,
        "distance_wrist_2_joint": 4.7392649730744365,
        "distance_wrist_3_joint": 3.5752881757826827,
        "smoothness": 0.38754301525316454,
        "time": 0.117804503,
        "traj_len": 4.1054842148925985,
        "weighted_distance": 5.488089966153198
    },
    "planner": "BiEST",
    "start": {
        "state": {
            "elbow_joint": -1.919618573717145,
            "shoulder_lift_joint": -1.2443395971678275,
            "shoulder_pan_joint": 2.6996025300909787,
            "wrist_1_joint": -1.548550951253194,
            "wrist_2_joint": -1.5709469090946802,
            "wrist_3_joint": 0.4420197732051276
        }
    },
    "waypoints": [
        {
            "positions": [
                2.6996025300909787,
                -1.2443395971678275,
                -1.919618573717145,
                -1.548550951253194,
                -1.5709469090946802,
                0.4420197732051276
            ]
        },
        {
            "positions": [
                2.6002355398122656,
                -1.2428821258601066,
                -1.858568908761089,
                -1.5324129333596281,
                -1.4505997178757668,
                0.3536761837756299
            ]
        },
        {
            "positions": [
                2.500868549533552,
                -1.2414246545523857,
                -1.7975192438050334,
                -1.5162749154660624,
                -1.3302525266568535,
                0.2653325943461322
            ]
        },
        {
            "positions": [
                2.4015015592548385,
                -1.2399671832446648,
                -1.7364695788489775,
                -1.5001368975724965,
                -1.20990533543794,
                0.1769890049166346
            ]
        },
        {
            "positions": [
                2.3021345689761255,
                -1.238509711936944,
                -1.6754199138929216,
                -1.4839988796789305,
                -1.0895581442190265,
                0.08864541548713689
            ]
        },
        {
            "positions": [
                2.2027675786974124,
                -1.237052240629223,
                -1.6143702489368656,
                -1.4678608617853648,
                -0.9692109530001132,
                0.00030182605763923176
            ]
        },
        {
            "positions": [
                2.103400588418699,
                -1.2355947693215021,
                -1.5533205839808097,
                -1.4517228438917988,
                -0.8488637617811998,
                -0.08804176337185837
            ]
        },
        {
            "positions": [
                2.0040335981399853,
                -1.2341372980137812,
                -1.492270919024754,
                -1.435584825998233,
                -0.7285165705622865,
                -0.1763853528013561
            ]
        },
        {
            "positions": [
                1.9046666078612722,
                -1.2326798267060604,
                -1.4312212540686982,
                -1.419446808104667,
                -0.608169379343373,
                -0.2647289422308538
            ]
        },
        {
            "positions": [
                1.8052996175825589,
                -1.2312223553983395,
                -1.3701715891126423,
                -1.4033087902111012,
                -0.48782218812445977,
                -0.3530725316603514
            ]
        },
        {
            "positions": [
                1.7059326273038455,
                -1.2297648840906186,
                -1.3091219241565866,
                -1.3871707723175353,
                -0.3674749969055462,
                -0.4414161210898491
            ]
        },
        {
            "positions": [
                1.6065656370251322,
                -1.2283074127828977,
                -1.2480722592005307,
                -1.3710327544239693,
                -0.24712780568663284,
                -0.5297597105193468
            ]
        },
        {
            "positions": [
                1.507198646746419,
                -1.2268499414751768,
                -1.1870225942444748,
                -1.3548947365304036,
                -0.1267806144677195,
                -0.6181032999488443
            ]
        },
        {
            "positions": [
                1.4078316564677056,
                -1.225392470167456,
                -1.125972929288419,
                -1.3387567186368377,
                -0.006433423248806136,
                -0.706446889378342
            ]
        },
        {
            "positions": [
                1.3084646661889923,
                -1.2239349988597348,
                -1.0649232643323632,
                -1.3226187007432717,
                0.11391376797010722,
                -0.7947904788078397
            ]
        },
        {
            "positions": [
                1.2090976759102792,
                -1.2224775275520139,
                -1.0038735993763073,
                -1.306480682849706,
                0.23426095918902057,
                -0.8831340682373372
            ]
        },
        {
            "positions": [
                1.1097306856315656,
                -1.221020056244293,
                -0.9428239344202514,
                -1.29034266495614,
                0.35460815040793414,
                -0.9714776576668351
            ]
        },
        {
            "positions": [
                1.0103636953528523,
                -1.219562584936572,
                -0.8817742694641957,
                -1.274204647062574,
                0.47495534162684727,
                -1.0598212470963326
            ]
        },
        {
            "positions": [
                0.910996705074139,
                -1.2181051136288512,
                -0.8207246045081398,
                -1.2580666291690084,
                0.5953025328457606,
                -1.1481648365258303
            ]
        },
        {
            "positions": [
                0.8116297147954257,
                -1.2166476423211303,
                -0.7596749395520839,
                -1.2419286112754424,
                0.715649724064674,
                -1.2365084259553278
            ]
        },
        {
            "positions": [
                0.7122627245167124,
                -1.2151901710134094,
                -0.698625274596028,
                -1.2257905933818765,
                0.8359969152835878,
                -1.3248520153848258
            ]
        },
        {
            "positions": [
                0.6128957342379988,
                -1.2137326997056885,
                -0.6375756096399723,
                -1.2096525754883105,
                0.9563441065025011,
                -1.4131956048143233
            ]
        },
        {
            "positions": [
                0.5135287439592857,
                -1.2122752283979676,
                -0.5765259446839164,
                -1.1935145575947448,
                1.0766912977214145,
                -1.501539194243821
            ]
        },
        {
            "positions": [
                0.4141617536805726,
                -1.2108177570902467,
                -0.5154762797278605,
                -1.1773765397011788,
                1.1970384889403278,
                -1.5898827836733185
            ]
        },
        {
            "positions": [
                0.3147947634018591,
                -1.2093602857825259,
                -0.45442661477180457,
                -1.1612385218076129,
                1.3173856801592412,
                -1.6782263731028162
            ]
        },
        {
            "positions": [
                0.21542777312314554,
                -1.207902814474805,
                -0.3933769498157489,
                -1.1451005039140472,
                1.4377328713781545,
                -1.766569962532314
            ]
        },
        {
            "positions": [
                0.11606078284443239,
                -1.206445343167084,
                -0.332327284859693,
                -1.1289624860204812,
                1.5580800625970679,
                -1.8549135519618116
            ]
        },
        {
            "positions": [
                0.09789451595023539,
                -1.2015671760266105,
                -0.19391789038575954,
                -1.087952117803365,
                1.4569013573220895,
                -1.9342900326045127
            ]
        },
        {
            "positions": [
                0.0797282490560384,
                -1.196689008886137,
                -0.055508495911826106,
                -1.0469417495862487,
                1.355722652047111,
                -2.013666513247214
            ]
        },
        {
            "positions": [
                0.061561982161841396,
                -1.1918108417456634,
                0.08290089856210736,
                -1.0059313813691326,
                1.2545439467721327,
                -2.0930429938899144
            ]
        },
        {
            "positions": [
                0.04339571526764441,
                -1.18693267460519,
                0.22131029303604077,
                -0.9649210131520165,
                1.1533652414971542,
                -2.1724194745326155
            ]
        },
        {
            "positions": [
                0.025229448373447413,
                -1.1820545074647164,
                0.3597196875099742,
                -0.9239106449349003,
                1.052186536222176,
                -2.2517959551753166
            ]
        },
        {
            "positions": [
                0.007063181479250405,
                -1.1771763403242428,
                0.4981290819839077,
                -0.882900276717784,
                0.9510078309471975,
                -2.3311724358180177
            ]
        },
        {
            "positions": [
                -0.01110308541494659,
                -1.1722981731837694,
                0.6365384764578411,
                -0.8418899085006679,
                0.8498291256722192,
                -2.4105489164607183
            ]
        },
        {
            "positions": [
                -0.02926935230914357,
                -1.1674200060432958,
                0.7749478709317745,
                -0.8008795402835517,
                0.7486504203972408,
                -2.48992539710342
            ]
        },
        {
            "positions": [
                -0.04743561920334058,
                -1.1625418389028224,
                0.913357265405708,
                -0.7598691720664354,
                0.6474717151222625,
                -2.5693018777461205
            ]
        },
        {
            "positions": [
                -0.06560188609753756,
                -1.1576636717623487,
                1.0517666598796414,
                -0.7188588038493193,
                0.5462930098472842,
                -2.6486783583888216
            ]
        },
        {
            "positions": [
                -0.08376815299173454,
                -1.1527855046218751,
                1.1901760543535749,
                -0.6778484356322032,
                0.44511430457230583,
                -2.7280548390315227
            ]
        },
        {
            "positions": [
                -0.10193441988593158,
                -1.1479073374814017,
                1.3285854488275084,
                -0.6368380674150869,
                0.3439355992973272,
                -2.8074313196742238
            ]
        },
        {
            "positions": [
                -0.12010068678012856,
                -1.143029170340928,
                1.466994843301442,
                -0.5958276991979707,
                0.242756894022349,
                -2.886807800316925
            ]
        },
        {
            "positions": [
                -0.13826695367432557,
                -1.1381510032004547,
                1.6054042377753752,
                -0.5548173309808546,
                0.1415781887473706,
                -2.9661842809596255
            ]
        },
        {
            "positions": [
                -0.15643322056852255,
                -1.133272836059981,
                1.7438136322493087,
                -0.5138069627637384,
                0.040399483472392084,
                -3.0455607616023266
            ]
        },
        {
            "positions": [
                -0.06333090934168498,
                -1.137752299070132,
                1.8247729443196674,
                -0.626988804340363,
                0.07125195755839635,
                -3.074796641927403
            ]
        },
        {
            "positions": [
                0.029771401885152593,
                -1.1422317620802833,
                1.9057322563900263,
                -0.7401706459169876,
                0.10210443164440061,
                -3.1040325222524787
            ]
        },
        {
            "positions": [
                0.12287371311199022,
                -1.1467112250904343,
                1.986691568460385,
                -0.8533524874936121,
                0.1329569057304049,
                -3.133268402577555
            ]
        }
    ]
}{
    "goal": {
        "global_pose": {
            "orientation": {
                "w": 0.7047431468963623,
                "x": -0.7094548344612122,
                "y": 0.0024358443915843964,
                "z": -0.0022348060738295317
            },
            "position": {
                "x": 0.6094750761985779,
                "y": 0.3671506643295288,
                "z": 0.19426114857196808
            }
        },
        "name": "move_to_magneteinheit_A"
    },
    "id": "BiEST_move_to_magneteinheit_A_104",
    "joint_names": [
        "shoulder_pan_joint",
        "shoulder_lift_joint",
        "elbow_joint",
        "wrist_1_joint",
        "wrist_2_joint",
        "wrist_3_joint"
    ],
    "metrics": {
        "cart_traj_len": 1.315636033411181,
        "distance_elbow_joint": 0.06723426162560253,
        "distance_shoulder_lift_joint": 0.750764660186265,
        "distance_shoulder_pan_joint": 1.5996487276357998,
        "distance_wrist_1_joint": 0.7473018380530544,
        "distance_wrist_2_joint": 2.4813450194596376,
        "distance_wrist_3_joint": 4.260868593036925,
        "smoothness": 0.16227388731294534,
        "time": 0.07227092,
        "traj_len": 3.1475646299952738,
        "weighted_distance": 4.653766984238019
    },
    "planner": "BiEST",
    "start": {
        "state": {
            "elbow_joint": 1.919643534880228,
            "shoulder_lift_joint": -1.8972525353963687,
            "shoulder_pan_joint": -1.1188672234189438,
            "wrist_1_joint": -1.5931878212786155,
            "wrist_2_joint": 1.5706036197970081,
            "wrist_3_joint": 1.118896926603594
        }
    },
    "waypoints": [
        {
            "positions": [
                -1.1188672234189438,
                -1.8972525353963687,
                1.919643534880228,
                -1.5931878212786155,
                1.5706036197970081,
                1.118896926603594
            ]
        },
        {
            "positions": [
                -1.1411735060099848,
                -1.882003741658578,
                1.9271458523949396,
                -1.5559702575425816,
                1.3259479839852157,
                1.0523919644618225
            ]
        },
        {
            "positions": [
                -1.163479788601026,
                -1.8667549479207874,
                1.9346481699096512,
                -1.5187526938065476,
                1.0812923481734233,
                0.9858870023200509
            ]
        },
        {
            "positions": [
                -1.185786071192067,
                -1.8515061541829967,
                1.9421504874243627,
                -1.4815351300705137,
                0.836636712361631,
                0.9193820401782794
            ]
        },
        {
            "positions": [
                -1.2080923537831079,
                -1.836257360445206,
                1.9496528049390744,
                -1.4443175663344798,
                0.5919810765498386,
                0.8528770780365078
            ]
        },
        {
            "positions": [
                -1.230398636374149,
                -1.8210085667074152,
                1.957155122453786,
                -1.407100002598446,
                0.34732544073804617,
                0.7863721158947363
            ]
        },
        {
            "positions": [
                -1.25270491896519,
                -1.8057597729696244,
                1.9646574399684975,
                -1.369882438862412,
                0.10266980492625377,
                0.7198671537529648
            ]
        },
        {
            "positions": [
                -1.2750112015562312,
                -1.7905109792318339,
                1.972159757483209,
                -1.332664875126378,
                -0.14198583088553862,
                0.6533621916111934
            ]
        },
        {
            "positions": [
                -1.297317484147272,
                -1.7752621854940431,
                1.9796620749979206,
                -1.2954473113903442,
                -0.386641466697331,
                0.5868572294694218
            ]
        },
        {
            "positions": [
                -1.2183620137635236,
                -1.7403302793671576,
                1.9800629484150267,
                -1.2704716820478563,
                -0.3575248037548143,
                0.3797000685859355
            ]
        },
        {
            "positions": [
                -1.1394065433797753,
                -1.705398373240272,
                1.9804638218321329,
                -1.2454960527053682,
                -0.32840814081229763,
                0.17254290770244923
            ]
        },
        {
            "positions": [
                -1.0604510729960268,
                -1.6704664671133866,
                1.980864695249239,
                -1.2205204233628804,
                -0.29929147786978094,
                -0.03461425318103706
            ]
        },
        {
            "positions": [
                -0.9814956026122785,
                -1.635534560986501,
                1.981265568666345,
                -1.1955447940203925,
                -0.2701748149272642,
                -0.2417714140645233
            ]
        },
        {
            "positions": [
                -0.90254013222853,
                -1.6006026548596155,
                1.981666442083451,
                -1.1705691646779044,
                -0.2410581519847475,
                -0.44892857494800975
            ]
        },
        {
            "positions": [
                -0.8235846618447816,
                -1.56567074873273,
                1.9820673155005573,
                -1.1455935353354165,
                -0.2119414890422308,
                -0.6560857358314959
            ]
        },
        {
            "positions": [
                -0.7446291914610331,
                -1.5307388426058446,
                1.9824681889176634,
                -1.1206179059929284,
                -0.1828248260997141,
                -0.8632428967149822
            ]
        },
        {
            "positions": [
                -0.6656737210772848,
                -1.495806936478959,
                1.9828690623347696,
                -1.0956422766504406,
                -0.1537081631571974,
                -1.0704000575984685
            ]
        },
        {
            "positions": [
                -0.5867182506935363,
                -1.4608750303520734,
                1.9832699357518755,
                -1.0706666473079527,
                -0.12459150021468068,
                -1.2775572184819546
            ]
        },
        {
            "positions": [
                -0.5077627803097878,
                -1.4259431242251879,
                1.9836708091689816,
                -1.0456910179654646,
                -0.09547483727216399,
                -1.4847143793654412
            ]
        },
        {
            "positions": [
                -0.42880730992603944,
                -1.3910112180983023,
                1.9840716825860878,
                -1.0207153886229767,
                -0.06635817432964725,
                -1.6918715402489273
            ]
        },
        {
            "positions": [
                -0.34985183954229115,
                -1.356079311971417,
                1.984472556003194,
                -0.9957397592804889,
                -0.03724151138713061,
                -1.8990287011324134
            ]
        },
        {
            "positions": [
                -0.27089636915854265,
                -1.3211474058445314,
                1.9848734294203,
                -0.9707641299380008,
                -0.008124848444613864,
                -2.1061858620158995
            ]
        },
        {
            "positions": [
                -0.19194089877479414,
                -1.2862154997176458,
                1.9852743028374062,
                -0.9457885005955129,
                0.020991814497902828,
                -2.313343022899386
            ]
        },
        {
            "positions": [
                -0.11298542839104586,
                -1.2512835935907602,
                1.9856751762545124,
                -0.9208128712530249,
                0.050108477440419574,
                -2.520500183782872
            ]
        },
        {
            "positions": [
                -0.03402995800729758,
                -1.2163516874638747,
                1.9860760496716183,
                -0.8958372419105369,
                0.07922514038293621,
                -2.7276573446663583
            ]
        },
        {
            "positions": [
                0.04492551237645093,
                -1.1814197813369893,
                1.9864769230887245,
                -0.8708616125680491,
                0.10834180332545296,
                -2.9348145055498445
            ]
        },
        {
            "positions": [
                0.12388098276019935,
                -1.1464878752101038,
                1.9868777965058306,
                -0.8458859832255611,
                0.13745846626796968,
                -3.141971666433331
            ]
        }
    ]
}