{
    "goal": {
        "global_pose": {
            "orientation": {
                "w": 0.5084816217422485,
                "x": -0.49083608388900757,
                "y": 0.5182115435600281,
                "z": -0.4816462993621826
            },
            "position": {
                "x": 0.5540239810943604,
                "y": 0.030875300988554955,
                "z": 0.16403168439865112
            }
        },
        "name": "move_to_storage_A"
    },
    "id": "BiEST_move_to_storage_A_89",
    "joint_names": [
        "shoulder_pan_joint",
        "shoulder_lift_joint",
        "elbow_joint",
        "wrist_1_joint",
        "wrist_2_joint",
        "wrist_3_joint"
    ],
    "metrics": {
        "cart_traj_len": 0.3526766395919151,
        "distance_elbow_joint": 0.45406897017851655,
        "distance_shoulder_lift_joint": 0.23422498919795798,
        "distance_shoulder_pan_joint": 0.46034185258834875,
        "distance_wrist_1_joint": 0.2580013413274854,
        "distance_wrist_2_joint": 1.1022231997500582,
        "distance_wrist_3_joint": 0.1060582410169486,
        "smoothness": 8.881784197001252e-16,
        "time": 0.048976580000000006,
        "traj_len": 1.6170709922756377,
        "weighted_distance": 2.0462794572518086
    },
    "planner": "BiEST",
    "start": {
        "state": {
            "elbow_joint": 1.9715477243005601,
            "shoulder_lift_joint": -1.1394853015351272,
            "shoulder_pan_joint": 0.12281154014795169,
            "wrist_1_joint": -0.7804696478968182,
            "wrist_2_joint": 0.12958648046900423,
            "wrist_3_joint": -3.192491284697111
        }
    },
    "waypoints": [
        {
            "positions": [
                0.12281154014795169,
                -1.1394853015351272,
                1.9715477243005601,
                -0.7804696478968182,
                0.12958648046900423,
                -3.192491284697111
            ]
        },
        {
            "positions": [
                0.05704841834961616,
                -1.1729460142776926,
                2.0364147200403484,
                -0.8173269823721733,
                0.2870469375761554,
                -3.1773401074089755
            ]
        },
        {
            "positions": [
                -0.008714703448719371,
                -1.206406727020258,
                2.1012817157801362,
                -0.8541843168475283,
                0.4445073946833066,
                -3.1621889301208403
            ]
        },
        {
            "positions": [
                -0.07447782524705492,
                -1.2398674397628235,
                2.1661487115199245,
                -0.8910416513228834,
                0.6019678517904578,
                -3.1470377528327047
            ]
        },
        {
            "positions": [
                -0.14024094704539042,
                -1.2733281525053888,
                2.2310157072597123,
                -0.9278989857982384,
                0.7594283088976089,
                -3.131886575544569
            ]
        },
        {
            "positions": [
                -0.20600406884372596,
                -1.3067888652479542,
                2.2958827029995006,
                -0.9647563202735935,
                0.9168887660047601,
                -3.1167353982564334
            ]
        },
        {
            "positions": [
                -0.2717671906420615,
                -1.3402495779905197,
                2.3607496987392884,
                -1.0016136547489485,
                1.0743492231119114,
                -3.1015842209682982
            ]
        },
        {
            "positions": [
                -0.33753031244039705,
                -1.3737102907330851,
                2.4256166944790767,
                -1.0384709892243036,
                1.2318096802190623,
                -3.0864330436801626
            ]
        }
    ]
}