{
    "goal": {
        "global_pose": {
            "orientation": {
                "w": 0.5084816217422485,
                "x": -0.49083608388900757,
                "y": 0.5182115435600281,
                "z": -0.4816462993621826
            },
            "position": {
                "x": 0.5540239810943604,
                "y": 0.030875300988554955,
                "z": 0.16403168439865112
            }
        },
        "name": "move_to_storage_A"
    },
    "id": "BiEST_move_to_storage_A_50",
    "joint_names": [
        "shoulder_pan_joint",
        "shoulder_lift_joint",
        "elbow_joint",
        "wrist_1_joint",
        "wrist_2_joint",
        "wrist_3_joint"
    ],
    "metrics": {
        "cart_traj_len": 0.3535435377441787,
        "distance_elbow_joint": 0.4540306049249625,
        "distance_shoulder_lift_joint": 0.23246747807181745,
        "distance_shoulder_pan_joint": 0.46387830605721364,
        "distance_wrist_1_joint": 0.26267002931586847,
        "distance_wrist_2_joint": 1.0923797114674039,
        "distance_wrist_3_joint": 0.09196333855442962,
        "smoothness": 9.992007271825419e-16,
        "time": 0.074641007,
        "traj_len": 1.6116418548770988,
        "weighted_distance": 2.03380576414854
    },
    "planner": "BiEST",
    "start": {
        "state": {
            "elbow_joint": 1.9715477243005601,
            "shoulder_lift_joint": -1.1394853015351272,
            "shoulder_pan_joint": 0.12281154014795169,
            "wrist_1_joint": -0.7804696478968182,
            "wrist_2_joint": 0.12958648046900423,
            "wrist_3_joint": -3.192491284697111
        }
    },
    "waypoints": [
        {
            "positions": [
                0.12281154014795169,
                -1.1394853015351272,
                1.9715477243005601,
                -0.7804696478968182,
                0.12958648046900423,
                -3.192491284697111
            ]
        },
        {
            "positions": [
                0.05654321071120688,
                -1.1726949412596726,
                2.0364092392898403,
                -0.8179939377990851,
                0.28564072496434767,
                -3.1793536649036214
            ]
        },
        {
            "positions": [
                -0.009725118725537926,
                -1.205904580984218,
                2.101270754279121,
                -0.855518227701352,
                0.44169496945969106,
                -3.166216045110131
            ]
        },
        {
            "positions": [
                -0.07599344816228272,
                -1.2391142207087633,
                2.166132269268401,
                -0.893042517603619,
                0.5977492139550344,
                -3.1530784253166413
            ]
        },
        {
            "positions": [
                -0.14226177759902753,
                -1.2723238604333085,
                2.2309937842576817,
                -0.9305668075058858,
                0.7538034584503779,
                -3.1399408055231515
            ]
        },
        {
            "positions": [
                -0.20853010703577235,
                -1.3055335001578539,
                2.295855299246962,
                -0.9680910974081528,
                0.9098577029457213,
                -3.1268031857296616
            ]
        },
        {
            "positions": [
                -0.2747984364725171,
                -1.3387431398823992,
                2.360716814236242,
                -1.0056153873104197,
                1.0659119474410645,
                -3.1136655659361714
            ]
        },
        {
            "positions": [
                -0.34106676590926194,
                -1.3719527796069446,
                2.4255783292255226,
                -1.0431396772126866,
                1.221966191936408,
                -3.1005279461426816
            ]
        }
    ]
}