{
    "goal": {
        "global_pose": {
            "orientation": {
                "w": 0.5084816217422485,
                "x": -0.49083608388900757,
                "y": 0.5182115435600281,
                "z": -0.4816462993621826
            },
            "position": {
                "x": 0.5540239810943604,
                "y": 0.030875300988554955,
                "z": 0.16403168439865112
            }
        },
        "name": "move_to_storage_A"
    },
    "id": "BiEST_move_to_storage_A_7",
    "joint_names": [
        "shoulder_pan_joint",
        "shoulder_lift_joint",
        "elbow_joint",
        "wrist_1_joint",
        "wrist_2_joint",
        "wrist_3_joint"
    ],
    "metrics": {
        "cart_traj_len": 0.35273889230311073,
        "distance_elbow_joint": 0.4474431600001534,
        "distance_shoulder_lift_joint": 0.23391691531382475,
        "distance_shoulder_pan_joint": 0.46242846694811357,
        "distance_wrist_1_joint": 0.23490887986350362,
        "distance_wrist_2_joint": 1.0924085459854957,
        "distance_wrist_3_joint": 0.09198303484614456,
        "smoothness": 4.440892133664971e-16,
        "time": 0.07133640699999999,
        "traj_len": 1.6009650224028118,
        "weighted_distance": 2.0185074928021756
    },
    "planner": "BiEST",
    "start": {
        "state": {
            "elbow_joint": 1.9715477243005601,
            "shoulder_lift_joint": -1.1394853015351272,
            "shoulder_pan_joint": 0.12281154014795169,
            "wrist_1_joint": -0.7804696478968182,
            "wrist_2_joint": 0.12958648046900423,
            "wrist_3_joint": -3.192491284697111
        }
    },
    "waypoints": [
        {
            "positions": [
                0.12281154014795169,
                -1.1394853015351272,
                1.9715477243005601,
                -0.7804696478968182,
                0.12958648046900423,
                -3.192491284697111
            ]
        },
        {
            "positions": [
                0.05675033058393547,
                -1.1729020037228164,
                2.0354681757291533,
                -0.8140280593058901,
                0.28564484418121794,
                -3.179350851147662
            ]
        },
        {
            "positions": [
                -0.009310878980080747,
                -1.2063187059105056,
                2.099388627157747,
                -0.8475864707149621,
                0.4417032078934316,
                -3.166210417598213
            ]
        },
        {
            "positions": [
                -0.07537208854409698,
                -1.2397354080981948,
                2.16330907858634,
                -0.881144882124034,
                0.5977615716056452,
                -3.1530699840487637
            ]
        },
        {
            "positions": [
                -0.14143329810811317,
                -1.273152110285884,
                2.2272295300149336,
                -0.914703293533106,
                0.753819935317859,
                -3.139929550499314
            ]
        },
        {
            "positions": [
                -0.2074945076721294,
                -1.3065688124735735,
                2.2911499814435268,
                -0.9482617049421779,
                0.9098782990300727,
                -3.126789116949865
            ]
        },
        {
            "positions": [
                -0.27355571723614563,
                -1.3399855146612627,
                2.35507043287212,
                -0.9818201163512499,
                1.0659366627422862,
                -3.113648683400416
            ]
        },
        {
            "positions": [
                -0.33961692680016187,
                -1.373402216848952,
                2.4189908843007135,
                -1.0153785277603218,
                1.2219950264545,
                -3.1005082498509666
            ]
        }
    ]
}