{
    "goal": {
        "global_pose": {
            "orientation": {
                "w": 0.5084816217422485,
                "x": -0.49083608388900757,
                "y": 0.5182115435600281,
                "z": -0.4816462993621826
            },
            "position": {
                "x": 0.5540239810943604,
                "y": 0.030875300988554955,
                "z": 0.16403168439865112
            }
        },
        "name": "move_to_storage_A"
    },
    "id": "BiEST_move_to_storage_A_23",
    "joint_names": [
        "shoulder_pan_joint",
        "shoulder_lift_joint",
        "elbow_joint",
        "wrist_1_joint",
        "wrist_2_joint",
        "wrist_3_joint"
    ],
    "metrics": {
        "cart_traj_len": 0.35267419980135106,
        "distance_elbow_joint": 0.4491146882730739,
        "distance_shoulder_lift_joint": 0.23301337069407846,
        "distance_shoulder_pan_joint": 0.4584853543263092,
        "distance_wrist_1_joint": 0.24098749797932528,
        "distance_wrist_2_joint": 1.1089231483944695,
        "distance_wrist_3_joint": 0.10391261254937456,
        "smoothness": 6.661338165333112e-16,
        "time": 0.05951559100000001,
        "traj_len": 1.6107255111336107,
        "weighted_distance": 2.0376880388541263
    },
    "planner": "BiEST",
    "start": {
        "state": {
            "elbow_joint": 1.9715477243005601,
            "shoulder_lift_joint": -1.1394853015351272,
            "shoulder_pan_joint": 0.12281154014795169,
            "wrist_1_joint": -0.7804696478968182,
            "wrist_2_joint": 0.12958648046900423,
            "wrist_3_joint": -3.192491284697111
        }
    },
    "waypoints": [
        {
            "positions": [
                0.12281154014795169,
                -1.1394853015351272,
                1.9715477243005601,
                -0.7804696478968182,
                0.12958648046900423,
                -3.192491284697111
            ]
        },
        {
            "positions": [
                0.05731363238705038,
                -1.1727729259199955,
                2.035706965482428,
                -0.8148964333224361,
                0.28800407309678555,
                -3.1776466257614864
            ]
        },
        {
            "positions": [
                -0.008184275373850927,
                -1.2060605503048638,
                2.0998662066642955,
                -0.8493232187480539,
                0.44642166572456693,
                -3.162801966825861
            ]
        },
        {
            "positions": [
                -0.07368218313475224,
                -1.2393481746897321,
                2.1640254478461634,
                -0.8837500041736719,
                0.6048392583523483,
                -3.1479573078902363
            ]
        },
        {
            "positions": [
                -0.13918009089565353,
                -1.2726357990746004,
                2.228184689028031,
                -0.9181767895992897,
                0.7632568509801296,
                -3.1331126489546115
            ]
        },
        {
            "positions": [
                -0.2046779986565549,
                -1.305923423459469,
                2.2923439302098987,
                -0.9526035750249077,
                0.9216744436079111,
                -3.1182679900189867
            ]
        },
        {
            "positions": [
                -0.27017590641745615,
                -1.3392110478443373,
                2.356503171391766,
                -0.9870303604505255,
                1.0800920362356923,
                -3.1034233310833614
            ]
        },
        {
            "positions": [
                -0.3356738141783575,
                -1.3724986722292056,
                2.420662412573634,
                -1.0214571458761434,
                1.2385096288634738,
                -3.0885786721477366
            ]
        }
    ]
}