{
    "goal": {
        "global_pose": {
            "orientation": {
                "w": 0.5084816217422485,
                "x": -0.49083608388900757,
                "y": 0.5182115435600281,
                "z": -0.4816462993621826
            },
            "position": {
                "x": 0.5540239810943604,
                "y": 0.030875300988554955,
                "z": 0.16403168439865112
            }
        },
        "name": "move_to_storage_A"
    },
    "id": "BiEST_move_to_storage_A_5",
    "joint_names": [
        "shoulder_pan_joint",
        "shoulder_lift_joint",
        "elbow_joint",
        "wrist_1_joint",
        "wrist_2_joint",
        "wrist_3_joint"
    ],
    "metrics": {
        "cart_traj_len": 0.35352298452160713,
        "distance_elbow_joint": 0.4524646121777023,
        "distance_shoulder_lift_joint": 0.23537075785108152,
        "distance_shoulder_pan_joint": 0.4628984475391106,
        "distance_wrist_1_joint": 0.24812997854853436,
        "distance_wrist_2_joint": 1.0980992917938481,
        "distance_wrist_3_joint": 0.10713605513846725,
        "smoothness": 8.881784197001252e-16,
        "time": 0.068277714,
        "traj_len": 1.613722139356322,
        "weighted_distance": 2.040735289955084
    },
    "planner": "BiEST",
    "start": {
        "state": {
            "elbow_joint": 1.9715477243005601,
            "shoulder_lift_joint": -1.1394853015351272,
            "shoulder_pan_joint": 0.12281154014795169,
            "wrist_1_joint": -0.7804696478968182,
            "wrist_2_joint": 0.12958648046900423,
            "wrist_3_joint": -3.192491284697111
        }
    },
    "waypoints": [
        {
            "positions": [
                0.12281154014795169,
                -1.1394853015351272,
                1.9715477243005601,
                -0.7804696478968182,
                0.12958648046900423,
                -3.192491284697111
            ]
        },
        {
            "positions": [
                0.05668319049950732,
                -1.1731096955138531,
                2.036185526040232,
                -0.815916787689466,
                0.28645780786812536,
                -3.1771861339630445
            ]
        },
        {
            "positions": [
                -0.009445159148937052,
                -1.206734089492579,
                2.1008233277799038,
                -0.8513639274821136,
                0.44332913526724654,
                -3.161880983228978
            ]
        },
        {
            "positions": [
                -0.07557350879738141,
                -1.240358483471305,
                2.1654611295195756,
                -0.8868110672747614,
                0.6002004626663677,
                -3.146575832494911
            ]
        },
        {
            "positions": [
                -0.14170185844582578,
                -1.2739828774500308,
                2.230098931259247,
                -0.9222582070674092,
                0.7570717900654889,
                -3.131270681760844
            ]
        },
        {
            "positions": [
                -0.20783020809427016,
                -1.3076072714287568,
                2.294736732998919,
                -0.9577053468600569,
                0.9139431174646101,
                -3.1159655310267773
            ]
        },
        {
            "positions": [
                -0.2739585577427145,
                -1.3412316654074827,
                2.3593745347385906,
                -0.9931524866527047,
                1.0708144448637311,
                -3.1006603802927106
            ]
        },
        {
            "positions": [
                -0.3400869073911589,
                -1.3748560593862087,
                2.4240123364782624,
                -1.0285996264453525,
                1.2276857722628522,
                -3.085355229558644
            ]
        }
    ]
}