{
    "goal": {
        "global_pose": {
            "orientation": {
                "w": 0.7047431468963623,
                "x": -0.7094548344612122,
                "y": 0.0024358443915843964,
                "z": -0.0022348060738295317
            },
            "position": {
                "x": 0.6094750761985779,
                "y": 0.3671506643295288,
                "z": 0.19426114857196808
            }
        },
        "name": "move_to_magneteinheit_A"
    },
    "id": "BiEST_move_to_magneteinheit_A_8",
    "joint_names": [
        "shoulder_pan_joint",
        "shoulder_lift_joint",
        "elbow_joint",
        "wrist_1_joint",
        "wrist_2_joint",
        "wrist_3_joint"
    ],
    "metrics": {
        "cart_traj_len": 3.631393726436878,
        "distance_elbow_joint": 3.880319548614329,
        "distance_shoulder_lift_joint": 0.5179834810854622,
        "distance_shoulder_pan_joint": 2.8581849004288356,
        "distance_wrist_1_joint": 3.476914492687,
        "distance_wrist_2_joint": 3.703281229575564,
        "distance_wrist_3_joint": 2.6085107060411192,
        "smoothness": 0.3782705674314729,
        "time": 0.15365911100000001,
        "traj_len": 4.128582608890405,
        "weighted_distance": 5.426086203957426
    },
    "planner": "BiEST",
    "start": {
        "state": {
            "elbow_joint": -1.919618573717145,
            "shoulder_lift_joint": -1.2443395971678275,
            "shoulder_pan_joint": 2.6996025300909787,
            "wrist_1_joint": -1.548550951253194,
            "wrist_2_joint": -1.5709469090946802,
            "wrist_3_joint": 0.4420197732051276
        }
    },
    "waypoints": [
        {
            "positions": [
                2.6996025300909787,
                -1.2443395971678275,
                -1.919618573717145,
                -1.548550951253194,
                -1.5709469090946802,
                0.4420197732051276
            ]
        },
        {
            "positions": [
                2.619395527287969,
                -1.239314123352525,
                -1.8253005017434545,
                -1.4717874989292254,
                -1.4744999863338784,
                0.48359525853856533
            ]
        },
        {
            "positions": [
                2.53918852448496,
                -1.2342886495372227,
                -1.730982429769764,
                -1.3950240466052568,
                -1.3780530635730763,
                0.525170743872003
            ]
        },
        {
            "positions": [
                2.4589815216819506,
                -1.2292631757219206,
                -1.6366643577960733,
                -1.318260594281288,
                -1.2816061408122745,
                0.5667462292054408
            ]
        },
        {
            "positions": [
                2.3787745188789415,
                -1.2242377019066182,
                -1.5423462858223829,
                -1.2414971419573193,
                -1.1851592180514725,
                0.6083217145388785
            ]
        },
        {
            "positions": [
                2.298567516075932,
                -1.2192122280913158,
                -1.4480282138486924,
                -1.1647336896333507,
                -1.0887122952906707,
                0.6498971998723162
            ]
        },
        {
            "positions": [
                2.218360513272923,
                -1.2141867542760134,
                -1.353710141875002,
                -1.087970237309382,
                -0.9922653725298688,
                0.691472685205754
            ]
        },
        {
            "positions": [
                2.1381535104699134,
                -1.209161280460711,
                -1.2593920699013115,
                -1.0112067849854132,
                -0.8958184497690669,
                0.7330481705391917
            ]
        },
        {
            "positions": [
                2.0579465076669043,
                -1.2041358066454089,
                -1.165073997927621,
                -0.9344433326614446,
                -0.7993715270082651,
                0.7746236558726294
            ]
        },
        {
            "positions": [
                1.9777395048638948,
                -1.1991103328301065,
                -1.0707559259539303,
                -0.8576798803374759,
                -0.7029246042474631,
                0.8161991412060672
            ]
        },
        {
            "positions": [
                1.8975325020608855,
                -1.194084859014804,
                -0.9764378539802399,
                -0.7809164280135072,
                -0.6064776814866611,
                0.8577746265395049
            ]
        },
        {
            "positions": [
                1.8173254992578762,
                -1.1890593851995017,
                -0.8821197820065494,
                -0.7041529756895385,
                -0.5100307587258592,
                0.8993501118729426
            ]
        },
        {
            "positions": [
                1.7371184964548672,
                -1.1840339113841996,
                -0.7878017100328589,
                -0.6273895233655699,
                -0.41358383596505743,
                0.9409255972063804
            ]
        },
        {
            "positions": [
                1.6569114936518576,
                -1.1790084375688972,
                -0.6934836380591682,
                -0.5506260710416011,
                -0.3171369132042554,
                0.9825010825398182
            ]
        },
        {
            "positions": [
                1.5767044908488483,
                -1.1739829637535948,
                -0.5991655660854778,
                -0.47386261871763247,
                -0.2206899904434536,
                1.0240765678732557
            ]
        },
        {
            "positions": [
                1.496497488045839,
                -1.1689574899382924,
                -0.5048474941117873,
                -0.3970991663936638,
                -0.12424306768265181,
                1.0656520532066935
            ]
        },
        {
            "positions": [
                1.4162904852428297,
                -1.16393201612299,
                -0.41052942213809684,
                -0.3203357140696952,
                -0.027796144921850008,
                1.1072275385401311
            ]
        },
        {
            "positions": [
                1.3360834824398204,
                -1.1589065423076879,
                -0.3162113501644064,
                -0.24357226174572655,
                0.06865077783895202,
                1.148803023873569
            ]
        },
        {
            "positions": [
                1.255876479636811,
                -1.1538810684923855,
                -0.2218932781907157,
                -0.1668088094217577,
                0.16509770059975404,
                1.1903785092070067
            ]
        },
        {
            "positions": [
                1.1756694768338016,
                -1.148855594677083,
                -0.12757520621702523,
                -0.09004535709778905,
                0.26154462336055606,
                1.2319539945404445
            ]
        },
        {
            "positions": [
                1.0954624740307923,
                -1.1438301208617807,
                -0.03325713424333476,
                -0.013281904773820408,
                0.35799154612135786,
                1.273529479873882
            ]
        },
        {
            "positions": [
                1.0152554712277833,
                -1.1388046470464785,
                0.0610609377303557,
                0.06348154755014823,
                0.4544384688821599,
                1.31510496520732
            ]
        },
        {
            "positions": [
                0.935048468424774,
                -1.1337791732311762,
                0.15537900970404617,
                0.1402449998741171,
                0.5508853916429617,
                1.3566804505407577
            ]
        },
        {
            "positions": [
                0.8548414656217647,
                -1.1287536994158738,
                0.24969708167773663,
                0.21700845219808573,
                0.6473323144037635,
                1.3982559358741953
            ]
        },
        {
            "positions": [
                0.7746344628187554,
                -1.1237282256005714,
                0.3440151536514271,
                0.2937719045220544,
                0.7437792371645653,
                1.439831421207633
            ]
        },
        {
            "positions": [
                0.6944274600157456,
                -1.118702751785269,
                0.438333225625118,
                0.37053535684602323,
                0.8402261599253675,
                1.4814069065410709
            ]
        },
        {
            "positions": [
                0.6142204572127365,
                -1.1136772779699666,
                0.5326512975988085,
                0.4472988091699919,
                0.9366730826861693,
                1.5229823918745087
            ]
        },
        {
            "positions": [
                0.534013454409727,
                -1.1086518041546645,
                0.6269693695724989,
                0.5240622614939605,
                1.0331200054469711,
                1.5645578772079463
            ]
        },
        {
            "positions": [
                0.45380645160671795,
                -1.103626330339362,
                0.7212874415461893,
                0.600825713817929,
                1.1295669282077727,
                1.606133362541384
            ]
        },
        {
            "positions": [
                0.39041594364278454,
                -1.0704623082782763,
                0.7944096511761218,
                0.5134435949043143,
                1.058148769339864,
                1.6561064446896043
            ]
        },
        {
            "positions": [
                0.32702543567885106,
                -1.0372982862171902,
                0.8675318608060544,
                0.42606147599069955,
                0.9867306104719549,
                1.7060795268378246
            ]
        },
        {
            "positions": [
                0.26363492771491764,
                -1.0041342641561044,
                0.9406540704359869,
                0.33867935707708485,
                0.9153124516040461,
                1.7560526089860446
            ]
        },
        {
            "positions": [
                0.20024441975098417,
                -0.9709702420950186,
                1.0137762800659194,
                0.25129723816347005,
                0.843894292736137,
                1.806025691134265
            ]
        },
        {
            "positions": [
                0.13685391178705072,
                -0.9378062200339327,
                1.086898489695852,
                0.16391511924985536,
                0.7724761338682282,
                1.8559987732824852
            ]
        },
        {
            "positions": [
                0.11963913140589318,
                -0.9604185388199818,
                1.1810329688945995,
                0.09048297018616745,
                0.7138484111505897,
                1.9752161138424875
            ]
        },
        {
            "positions": [
                0.10242435102473563,
                -0.983030857606031,
                1.275167448093347,
                0.017050821122479548,
                0.6552206884329512,
                2.09443345440249
            ]
        },
        {
            "positions": [
                0.08520957064357806,
                -1.0056431763920801,
                1.3693019272920945,
                -0.05638132794120834,
                0.5965929657153127,
                2.213650794962492
            ]
        },
        {
            "positions": [
                0.06799479026242052,
                -1.0282554951781293,
                1.463436406490842,
                -0.12981347700489626,
                0.5379652429976742,
                2.332868135522494
            ]
        },
        {
            "positions": [
                0.05078000988126295,
                -1.0508678139641785,
                1.5575708856895896,
                -0.20324562606858415,
                0.4793375202800357,
                2.4520854760824964
            ]
        },
        {
            "positions": [
                0.033565229500105404,
                -1.0734801327502277,
                1.651705364888337,
                -0.27667777513227204,
                0.4207097975623972,
                2.5713028166424987
            ]
        },
        {
            "positions": [
                0.016350449118947855,
                -1.0960924515362769,
                1.7458398440870846,
                -0.35010992419596,
                0.36208207484475863,
                2.690520157202501
            ]
        },
        {
            "positions": [
                -0.0008643312622096944,
                -1.118704770322326,
                1.839974323285832,
                -0.4235420732596479,
                0.3034543521271202,
                2.8097374977625034
            ]
        },
        {
            "positions": [
                -0.018079111643367268,
                -1.1413170891083753,
                1.9341088024845796,
                -0.4969742223233358,
                0.24482662940948158,
                2.9289548383225057
            ]
        },
        {
            "positions": [
                0.052172517703877055,
                -1.1373474716698129,
                1.9474048886908806,
                -0.611843168060641,
                0.18581308267207208,
                2.989742658784376
            ]
        },
        {
            "positions": [
                0.12242414705112138,
                -1.1333778542312505,
                1.9607009748971818,
                -0.7267121137979462,
                0.1267995359346626,
                3.050530479246247
            ]
        }
    ]
}{
    "goal": {
        "global_pose": {
            "orientation": {
                "w": 0.7047431468963623,
                "x": -0.7094548344612122,
                "y": 0.0024358443915843964,
                "z": -0.0022348060738295317
            },
            "position": {
                "x": 0.6094750761985779,
                "y": 0.3671506643295288,
                "z": 0.19426114857196808
            }
        },
        "name": "move_to_magneteinheit_A"
    },
    "id": "BiEST_move_to_magneteinheit_A_8",
    "joint_names": [
        "shoulder_pan_joint",
        "shoulder_lift_joint",
        "elbow_joint",
        "wrist_1_joint",
        "wrist_2_joint",
        "wrist_3_joint"
    ],
    "metrics": {
        "cart_traj_len": 1.1909237538922435,
        "distance_elbow_joint": 0.12293207427123498,
        "distance_shoulder_lift_joint": 0.7479559183927622,
        "distance_shoulder_pan_joint": 1.2418560389287299,
        "distance_wrist_1_joint": 0.7283689093166451,
        "distance_wrist_2_joint": 1.4315774473959224,
        "distance_wrist_3_joint": 4.236617315839586,
        "smoothness": 0.021481967167660435,
        "time": 0.06974190699999999,
        "traj_len": 2.9170717687682766,
        "weighted_distance": 4.3752129882483
    },
    "planner": "BiEST",
    "start": {
        "state": {
            "elbow_joint": 1.919643534880228,
            "shoulder_lift_joint": -1.8972525353963687,
            "shoulder_pan_joint": -1.1188672234189438,
            "wrist_1_joint": -1.5931878212786155,
            "wrist_2_joint": 1.5706036197970081,
            "wrist_3_joint": 1.118896926603594
        }
    },
    "waypoints": [
        {
            "positions": [
                -1.1188672234189438,
                -1.8972525353963687,
                1.919643534880228,
                -1.5931878212786155,
                1.5706036197970081,
                1.118896926603594
            ]
        },
        {
            "positions": [
                -1.0620671746945078,
                -1.8632605230818389,
                1.9243043602588379,
                -1.5596275502590335,
                1.5034383415414858,
                0.9215864776041147
            ]
        },
        {
            "positions": [
                -1.0052671259700718,
                -1.8292685107673092,
                1.9289651856374475,
                -1.5260672792394516,
                1.4362730632859635,
                0.7242760286046356
            ]
        },
        {
            "positions": [
                -0.948467077245636,
                -1.7952764984527794,
                1.9336260110160572,
                -1.4925070082198697,
                1.3691077850304412,
                0.5269655796051563
            ]
        },
        {
            "positions": [
                -0.8916670285212,
                -1.7612844861382497,
                1.938286836394667,
                -1.4589467372002878,
                1.3019425067749189,
                0.3296551306056772
            ]
        },
        {
            "positions": [
                -0.8348669797967639,
                -1.7272924738237199,
                1.9429476617732766,
                -1.4253864661807059,
                1.2347772285193965,
                0.13234468160619794
            ]
        },
        {
            "positions": [
                -0.778066931072328,
                -1.6933004615091902,
                1.9476084871518864,
                -1.391826195161124,
                1.1676119502638742,
                -0.0649657673932813
            ]
        },
        {
            "positions": [
                -0.721266882347892,
                -1.6593084491946604,
                1.9522693125304962,
                -1.358265924141542,
                1.100446672008352,
                -0.26227621639276033
            ]
        },
        {
            "positions": [
                -0.664466833623456,
                -1.6253164368801305,
                1.9569301379091057,
                -1.32470565312196,
                1.0332813937528296,
                -0.4595866653922396
            ]
        },
        {
            "positions": [
                -0.60766678489902,
                -1.5913244245656009,
                1.9615909632877155,
                -1.2911453821023782,
                0.9661161154973071,
                -0.6568971143917188
            ]
        },
        {
            "positions": [
                -0.550866736174584,
                -1.557332412251071,
                1.9662517886663253,
                -1.2575851110827962,
                0.8989508372417848,
                -0.8542075633911981
            ]
        },
        {
            "positions": [
                -0.49406668745014803,
                -1.5233403999365414,
                1.970912614044935,
                -1.2240248400632143,
                0.8317855589862625,
                -1.0515180123906773
            ]
        },
        {
            "positions": [
                -0.43726663872571214,
                -1.4893483876220115,
                1.9755734394235447,
                -1.1904645690436324,
                0.7646202807307402,
                -1.2488284613901566
            ]
        },
        {
            "positions": [
                -0.38046659000127603,
                -1.4553563753074816,
                1.9802342648021545,
                -1.1569042980240505,
                0.6974550024752177,
                -1.4461389103896358
            ]
        },
        {
            "positions": [
                -0.32366654127684014,
                -1.421364362992952,
                1.984895090180764,
                -1.1233440270044686,
                0.6302897242196955,
                -1.6434493593891146
            ]
        },
        {
            "positions": [
                -0.26686649255240413,
                -1.3873723506784224,
                1.9895559155593738,
                -1.0897837559848866,
                0.5631244459641731,
                -1.8407598083885943
            ]
        },
        {
            "positions": [
                -0.21006644382796824,
                -1.3533803383638925,
                1.9942167409379836,
                -1.0562234849653047,
                0.495959167708651,
                -2.038070257388073
            ]
        },
        {
            "positions": [
                -0.15326639510353213,
                -1.3193883260493626,
                1.9988775663165932,
                -1.0226632139457228,
                0.42879388945312846,
                -2.235380706387552
            ]
        },
        {
            "positions": [
                -0.09646634637909623,
                -1.285396313734833,
                2.003538391695203,
                -0.9891029429261409,
                0.36162861119760614,
                -2.4326911553870314
            ]
        },
        {
            "positions": [
                -0.03966629765466023,
                -1.2514043014203031,
                2.0081992170738125,
                -0.955542671906559,
                0.2944633329420838,
                -2.6300016043865106
            ]
        },
        {
            "positions": [
                0.01713375106977577,
                -1.2174122891057735,
                2.0128600424524223,
                -0.921982400886977,
                0.2272980546865615,
                -2.82731205338599
            ]
        },
        {
            "positions": [
                0.07393379979421189,
                -1.1834202767912436,
                2.017520867831032,
                -0.8884221298673951,
                0.1601327764310391,
                -3.0246225023854696
            ]
        },
        {
            "positions": [
                0.12298881550978605,
                -1.1492966170036065,
                1.9924661265106012,
                -0.8648189119619704,
                0.13902617240108572,
                -3.1177203892359917
            ]
        }
    ]
}