{
    "goal": {
        "global_pose": {
            "orientation": {
                "w": 0.7047431468963623,
                "x": -0.7094548344612122,
                "y": 0.0024358443915843964,
                "z": -0.0022348060738295317
            },
            "position": {
                "x": 0.6094750761985779,
                "y": 0.3671506643295288,
                "z": 0.19426114857196808
            }
        },
        "name": "move_to_magneteinheit_A"
    },
    "id": "BiEST_move_to_magneteinheit_A_122",
    "joint_names": [
        "shoulder_pan_joint",
        "shoulder_lift_joint",
        "elbow_joint",
        "wrist_1_joint",
        "wrist_2_joint",
        "wrist_3_joint"
    ],
    "metrics": {
        "cart_traj_len": 3.266459264797819,
        "distance_elbow_joint": 3.870143318740749,
        "distance_shoulder_lift_joint": 0.3771526375026877,
        "distance_shoulder_pan_joint": 2.8676500137425136,
        "distance_wrist_1_joint": 3.60925656880154,
        "distance_wrist_2_joint": 1.69786788455715,
        "distance_wrist_3_joint": 3.0623445476199436,
        "smoothness": 0.24140501091404634,
        "time": 0.09961985,
        "traj_len": 3.935024138549162,
        "weighted_distance": 5.188085245980751
    },
    "planner": "BiEST",
    "start": {
        "state": {
            "elbow_joint": -1.919618573717145,
            "shoulder_lift_joint": -1.2443395971678275,
            "shoulder_pan_joint": 2.6996025300909787,
            "wrist_1_joint": -1.548550951253194,
            "wrist_2_joint": -1.5709469090946802,
            "wrist_3_joint": 0.4420197732051276
        }
    },
    "waypoints": [
        {
            "positions": [
                2.6996025300909787,
                -1.2443395971678275,
                -1.919618573717145,
                -1.548550951253194,
                -1.5709469090946802,
                0.4420197732051276
            ]
        },
        {
            "positions": [
                2.586165058480971,
                -1.2340357770977224,
                -1.799197910531079,
                -1.4555268957553888,
                -1.5239778031051474,
                0.4316624569968357
            ]
        },
        {
            "positions": [
                2.4727275868709633,
                -1.223731957027617,
                -1.6787772473450129,
                -1.3625028402575836,
                -1.4770086971156147,
                0.42130514078854386
            ]
        },
        {
            "positions": [
                2.359290115260955,
                -1.213428136957512,
                -1.5583565841589468,
                -1.2694787847597784,
                -1.4300395911260817,
                0.410947824580252
            ]
        },
        {
            "positions": [
                2.2458526436509474,
                -1.2031243168874068,
                -1.4379359209728808,
                -1.1764547292619731,
                -1.383070485136549,
                0.4005905083719601
            ]
        },
        {
            "positions": [
                2.1324151720409397,
                -1.1928204968173017,
                -1.3175152577868148,
                -1.0834306737641677,
                -1.3361013791470162,
                0.3902331921636682
            ]
        },
        {
            "positions": [
                2.0189777004309315,
                -1.1825166767471964,
                -1.1970945946007485,
                -0.9904066182663624,
                -1.2891322731574835,
                0.37987587595537636
            ]
        },
        {
            "positions": [
                1.9055402288209238,
                -1.1722128566770913,
                -1.0766739314146825,
                -0.8973825627685571,
                -1.2421631671679507,
                0.3695185597470845
            ]
        },
        {
            "positions": [
                1.792102757210916,
                -1.1619090366069862,
                -0.9562532682286166,
                -0.804358507270752,
                -1.1951940611784178,
                0.35916124353879264
            ]
        },
        {
            "positions": [
                1.6786652856009083,
                -1.1516052165368809,
                -0.8358326050425504,
                -0.7113344517729466,
                -1.148224955188885,
                0.3488039273305007
            ]
        },
        {
            "positions": [
                1.5652278139909004,
                -1.1413013964667758,
                -0.7154119418564844,
                -0.6183103962751413,
                -1.1012558491993523,
                0.33844661112220886
            ]
        },
        {
            "positions": [
                1.4517903423808927,
                -1.1309975763966706,
                -0.5949912786704183,
                -0.525286340777336,
                -1.0542867432098195,
                0.328089294913917
            ]
        },
        {
            "positions": [
                1.3383528707708847,
                -1.1206937563265655,
                -0.4745706154843523,
                -0.4322622852795308,
                -1.0073176372202868,
                0.3177319787056251
            ]
        },
        {
            "positions": [
                1.224915399160877,
                -1.1103899362564602,
                -0.3541499522982863,
                -0.3392382297817256,
                -0.9603485312307539,
                0.30737466249733325
            ]
        },
        {
            "positions": [
                1.111477927550869,
                -1.100086116186355,
                -0.23372928911222002,
                -0.24621417428392012,
                -0.9133794252412211,
                0.29701734628904136
            ]
        },
        {
            "positions": [
                0.9980404559408611,
                -1.08978229611625,
                -0.1133086259261542,
                -0.1531901187861151,
                -0.8664103192516883,
                0.2866600300807495
            ]
        },
        {
            "positions": [
                0.8846029843308534,
                -1.0794784760461447,
                0.00711203725991183,
                -0.06016606328830987,
                -0.8194412132621556,
                0.27630271387245764
            ]
        },
        {
            "positions": [
                0.7711655127208454,
                -1.0691746559760396,
                0.12753270044597786,
                0.03285799220949559,
                -0.7724721072726227,
                0.26594539766416575
            ]
        },
        {
            "positions": [
                0.6577280411108379,
                -1.0588708359059344,
                0.24795336363204412,
                0.12588204770730083,
                -0.7255030012830899,
                0.25558808145587386
            ]
        },
        {
            "positions": [
                0.5442905695008298,
                -1.0485670158358293,
                0.36837402681810993,
                0.21890610320510606,
                -0.6785338952935571,
                0.245230765247582
            ]
        },
        {
            "positions": [
                0.43085309789082205,
                -1.038263195765724,
                0.4887946900041762,
                0.3119301587029115,
                -0.6315647893040243,
                0.2348734490392901
            ]
        },
        {
            "positions": [
                0.3174156262808143,
                -1.027959375695619,
                0.609215353190242,
                0.40495421420071676,
                -0.5845956833144915,
                0.22451613283099825
            ]
        },
        {
            "positions": [
                0.2039781546708066,
                -1.0176555556255138,
                0.7296360163763083,
                0.497978269698522,
                -0.5376265773249589,
                0.2141588166227064
            ]
        },
        {
            "positions": [
                0.09054068306079843,
                -1.0073517355554085,
                0.8500566795623745,
                0.5910023251963272,
                -0.4906574713354259,
                0.2038015004144145
            ]
        },
        {
            "positions": [
                -0.02289678854920907,
                -0.9970479154853034,
                0.9704773427484402,
                0.6840263806941325,
                -0.4436883653458931,
                0.19344418420612264
            ]
        },
        {
            "positions": [
                -0.014965981135078146,
                -1.0052881748901252,
                1.0332607021876026,
                0.5971665817676487,
                -0.4087296513377691,
                0.3707664166788218
            ]
        },
        {
            "positions": [
                -0.007035173720947224,
                -1.013528434294947,
                1.0960440616267648,
                0.5103067828411649,
                -0.37377093732964506,
                0.5480886491515211
            ]
        },
        {
            "positions": [
                0.0008956336931836943,
                -1.021768693699769,
                1.158827421065927,
                0.42344698391468105,
                -0.33881222332152106,
                0.7254108816242203
            ]
        },
        {
            "positions": [
                0.00882644110731462,
                -1.0300089531045908,
                1.2216107805050893,
                0.3365871849881973,
                -0.30385350931339705,
                0.9027331140969195
            ]
        },
        {
            "positions": [
                0.016757248521445542,
                -1.0382492125094127,
                1.2843941399442516,
                0.24972738606171346,
                -0.26889479530527305,
                1.0800553465696188
            ]
        },
        {
            "positions": [
                0.024688055935576457,
                -1.0464894719142346,
                1.3471774993834138,
                0.16286758713522964,
                -0.23393608129714905,
                1.257377579042318
            ]
        },
        {
            "positions": [
                0.03261886334970738,
                -1.0547297313190567,
                1.409960858822576,
                0.07600778820874599,
                -0.19897736728902504,
                1.4346998115150171
            ]
        },
        {
            "positions": [
                0.04054967076383831,
                -1.0629699907238785,
                1.4727442182617385,
                -0.010852010717737892,
                -0.16401865328090098,
                1.6120220439877162
            ]
        },
        {
            "positions": [
                0.048480478177969216,
                -1.0712102501287004,
                1.5355275777009005,
                -0.09771180964422166,
                -0.12905993927277704,
                1.7893442764604153
            ]
        },
        {
            "positions": [
                0.05641128559210015,
                -1.0794505095335223,
                1.598310937140063,
                -0.18457160857070554,
                -0.09410122526465298,
                1.9666665089331148
            ]
        },
        {
            "positions": [
                0.06434209300623106,
                -1.0876907689383442,
                1.661094296579225,
                -0.2714314074971892,
                -0.05914251125652897,
                2.143988741405814
            ]
        },
        {
            "positions": [
                0.07227290042036198,
                -1.095931028343166,
                1.7238776560183875,
                -0.3582912064236732,
                -0.02418379724840497,
                2.3213109738785134
            ]
        },
        {
            "positions": [
                0.0802037078344929,
                -1.104171287747988,
                1.7866610154575497,
                -0.44515100535015684,
                0.010774916759719005,
                2.4986332063512124
            ]
        },
        {
            "positions": [
                0.09422044074069982,
                -1.1117504822671476,
                1.8412822586462343,
                -0.5276516222867987,
                0.04949026966063594,
                2.668159851843162
            ]
        },
        {
            "positions": [
                0.10823717364690674,
                -1.1193296767863072,
                1.8959035018349188,
                -0.6101522392234406,
                0.08820562256155287,
                2.8376864973351115
            ]
        },
        {
            "positions": [
                0.12225390655311366,
                -1.126908871305467,
                1.9505247450236034,
                -0.6926528561600825,
                0.1269209754624698,
                3.007213142827061
            ]
        }
    ]
}{
    "goal": {
        "global_pose": {
            "orientation": {
                "w": 0.7047431468963623,
                "x": -0.7094548344612122,
                "y": 0.0024358443915843964,
                "z": -0.0022348060738295317
            },
            "position": {
                "x": 0.6094750761985779,
                "y": 0.3671506643295288,
                "z": 0.19426114857196808
            }
        },
        "name": "move_to_magneteinheit_A"
    },
    "id": "BiEST_move_to_magneteinheit_A_122",
    "joint_names": [
        "shoulder_pan_joint",
        "shoulder_lift_joint",
        "elbow_joint",
        "wrist_1_joint",
        "wrist_2_joint",
        "wrist_3_joint"
    ],
    "metrics": {
        "cart_traj_len": 1.5147486446691512,
        "distance_elbow_joint": 1.1056449579544203,
        "distance_shoulder_lift_joint": 1.0248477397477036,
        "distance_shoulder_pan_joint": 1.2405323060751854,
        "distance_wrist_1_joint": 1.0109397009633405,
        "distance_wrist_2_joint": 1.4452457860577752,
        "distance_wrist_3_joint": 4.348659271920718,
        "smoothness": 0.21079859312678964,
        "time": 0.077732264,
        "traj_len": 3.1899639124477797,
        "weighted_distance": 4.618373500874707
    },
    "planner": "BiEST",
    "start": {
        "state": {
            "elbow_joint": 1.919643534880228,
            "shoulder_lift_joint": -1.8972525353963687,
            "shoulder_pan_joint": -1.1188672234189438,
            "wrist_1_joint": -1.5931878212786155,
            "wrist_2_joint": 1.5706036197970081,
            "wrist_3_joint": 1.118896926603594
        }
    },
    "waypoints": [
        {
            "positions": [
                -1.1188672234189438,
                -1.8972525353963687,
                1.919643534880228,
                -1.5931878212786155,
                1.5706036197970081,
                1.118896926603594
            ]
        },
        {
            "positions": [
                -1.0685348743048817,
                -1.854693053729347,
                1.894346450550127,
                -1.548888009434094,
                1.5235512016408226,
                0.937325245937029
            ]
        },
        {
            "positions": [
                -1.0182025251908196,
                -1.8121335720623253,
                1.8690493662200263,
                -1.5045881975895725,
                1.476498783484637,
                0.7557535652704641
            ]
        },
        {
            "positions": [
                -0.9678701760767574,
                -1.7695740903953037,
                1.8437522818899252,
                -1.460288385745051,
                1.4294463653284515,
                0.5741818846038992
            ]
        },
        {
            "positions": [
                -0.9175378269626953,
                -1.7270146087282818,
                1.8184551975598242,
                -1.4159885739005293,
                1.382393947172266,
                0.39261020393733426
            ]
        },
        {
            "positions": [
                -0.8672054778486331,
                -1.68445512706126,
                1.7931581132297234,
                -1.3716887620560079,
                1.3353415290160804,
                0.21103852327076933
            ]
        },
        {
            "positions": [
                -0.816873128734571,
                -1.6418956453942384,
                1.7678610288996224,
                -1.3273889502114864,
                1.2882891108598948,
                0.029466842604204402
            ]
        },
        {
            "positions": [
                -0.7665407796205088,
                -1.5993361637272168,
                1.7425639445695214,
                -1.283089138366965,
                1.2412366927037093,
                -0.15210483806236064
            ]
        },
        {
            "positions": [
                -0.7162084305064467,
                -1.556776682060195,
                1.7172668602394203,
                -1.2387893265224434,
                1.1941842745475237,
                -0.33367651872892545
            ]
        },
        {
            "positions": [
                -0.6658760813923845,
                -1.514217200393173,
                1.6919697759093195,
                -1.194489514677922,
                1.1471318563913382,
                -0.5152481993954905
            ]
        },
        {
            "positions": [
                -0.6155437322783224,
                -1.4716577187261515,
                1.6666726915792185,
                -1.1501897028334005,
                1.1000794382351526,
                -0.6968198800620553
            ]
        },
        {
            "positions": [
                -0.5652113831642602,
                -1.4290982370591296,
                1.6413756072491175,
                -1.1058898909888788,
                1.053027020078967,
                -0.8783915607286206
            ]
        },
        {
            "positions": [
                -0.5148790340501981,
                -1.386538755392108,
                1.6160785229190164,
                -1.0615900791443575,
                1.0059746019227815,
                -1.0599632413951852
            ]
        },
        {
            "positions": [
                -0.46454668493613593,
                -1.3439792737250862,
                1.5907814385889156,
                -1.0172902672998358,
                0.9589221837665961,
                -1.2415349220617504
            ]
        },
        {
            "positions": [
                -0.4142143358220738,
                -1.3014197920580646,
                1.5654843542588146,
                -0.9729904554553144,
                0.9118697656104107,
                -1.4231066027283152
            ]
        },
        {
            "positions": [
                -0.36388198670801164,
                -1.2588603103910427,
                1.5401872699287136,
                -0.9286906436107929,
                0.864817347454225,
                -1.60467828339488
            ]
        },
        {
            "positions": [
                -0.3135496375939495,
                -1.2163008287240211,
                1.5148901855986128,
                -0.8843908317662714,
                0.8177649292980396,
                -1.7862499640614449
            ]
        },
        {
            "positions": [
                -0.26321728847988735,
                -1.1737413470569993,
                1.4895931012685117,
                -0.8400910199217498,
                0.770712511141854,
                -1.9678216447280101
            ]
        },
        {
            "positions": [
                -0.2128849393658252,
                -1.1311818653899777,
                1.4642960169384107,
                -0.7957912080772284,
                0.7236600929856685,
                -2.149393325394575
            ]
        },
        {
            "positions": [
                -0.16255259025176305,
                -1.0886223837229558,
                1.43899893260831,
                -0.7514913962327069,
                0.6766076748294829,
                -2.33096500606114
            ]
        },
        {
            "positions": [
                -0.1122202411377009,
                -1.046062902055934,
                1.4137018482782089,
                -0.7071915843881854,
                0.6295552566732974,
                -2.512536686727705
            ]
        },
        {
            "positions": [
                -0.061887892023638785,
                -1.0035034203889124,
                1.3884047639481079,
                -0.6628917725436638,
                0.5825028385171118,
                -2.6941083673942696
            ]
        },
        {
            "positions": [
                -0.025177297087662788,
                -1.0297231453369617,
                1.503286001352568,
                -0.6790205029893416,
                0.4910738375615361,
                -2.8012391629788405
            ]
        },
        {
            "positions": [
                0.01153329784831321,
                -1.0559428702850113,
                1.6181672387570278,
                -0.6951492334350193,
                0.39964483660596034,
                -2.9083699585634117
            ]
        },
        {
            "positions": [
                0.048243892784289186,
                -1.0821625952330607,
                1.733048476161488,
                -0.7112779638806972,
                0.30821583565038463,
                -3.0155007541479826
            ]
        },
        {
            "positions": [
                0.0849544877202652,
                -1.1083823201811103,
                1.8479297135659478,
                -0.727406694326375,
                0.21678683469480886,
                -3.122631549732554
            ]
        },
        {
            "positions": [
                0.1216650826562412,
                -1.1346020451291596,
                1.962810950970408,
                -0.7435354247720527,
                0.12535783373923315,
                -3.2297623453171247
            ]
        }
    ]
}