{
    "goal": {
        "global_pose": {
            "orientation": {
                "w": 0.5084816217422485,
                "x": -0.49083608388900757,
                "y": 0.5182115435600281,
                "z": -0.4816462993621826
            },
            "position": {
                "x": 0.5540239810943604,
                "y": 0.030875300988554955,
                "z": 0.16403168439865112
            }
        },
        "name": "move_to_storage_A"
    },
    "id": "BiEST_move_to_storage_A_106",
    "joint_names": [
        "shoulder_pan_joint",
        "shoulder_lift_joint",
        "elbow_joint",
        "wrist_1_joint",
        "wrist_2_joint",
        "wrist_3_joint"
    ],
    "metrics": {
        "cart_traj_len": 0.35280536376953336,
        "distance_elbow_joint": 0.4487936184895691,
        "distance_shoulder_lift_joint": 0.2337153205481619,
        "distance_shoulder_pan_joint": 0.46290867306773553,
        "distance_wrist_1_joint": 0.23775829668894077,
        "distance_wrist_2_joint": 1.0911872790224186,
        "distance_wrist_3_joint": 0.08901231445355595,
        "smoothness": 4.440892098500626e-16,
        "time": 0.061792554,
        "traj_len": 1.6010544969707878,
        "weighted_distance": 2.0175097786352496
    },
    "planner": "BiEST",
    "start": {
        "state": {
            "elbow_joint": 1.9715477243005601,
            "shoulder_lift_joint": -1.1394853015351272,
            "shoulder_pan_joint": 0.12281154014795169,
            "wrist_1_joint": -0.7804696478968182,
            "wrist_2_joint": 0.12958648046900423,
            "wrist_3_joint": -3.192491284697111
        }
    },
    "waypoints": [
        {
            "positions": [
                0.12281154014795169,
                -1.1394853015351272,
                1.9715477243005601,
                -0.7804696478968182,
                0.12958648046900423,
                -3.192491284697111
            ]
        },
        {
            "positions": [
                0.056681729709703754,
                -1.172873204470579,
                2.0356610983704986,
                -0.8144351188523812,
                0.2854703774722069,
                -3.1797752397751746
            ]
        },
        {
            "positions": [
                -0.009448080728544181,
                -1.2062611074060305,
                2.099774472440437,
                -0.8484005898079441,
                0.44135427447540954,
                -3.167059194853238
            ]
        },
        {
            "positions": [
                -0.0755778911667921,
                -1.2396490103414823,
                2.1638878465103755,
                -0.8823660607635071,
                0.5972381714786121,
                -3.1543431499313015
            ]
        },
        {
            "positions": [
                -0.14170770160504004,
                -1.273036913276934,
                2.228001220580314,
                -0.91633153171907,
                0.7531220684818148,
                -3.141627105009365
            ]
        },
        {
            "positions": [
                -0.207837512043288,
                -1.3064248162123857,
                2.2921145946502524,
                -0.950297002674633,
                0.9090059654850176,
                -3.1289110600874284
            ]
        },
        {
            "positions": [
                -0.2739673224815359,
                -1.3398127191478373,
                2.356227968720191,
                -0.9842624736301959,
                1.0648898624882202,
                -3.116195015165492
            ]
        },
        {
            "positions": [
                -0.34009713291978383,
                -1.373200622083289,
                2.4203413427901292,
                -1.018227944585759,
                1.220773759491423,
                -3.1034789702435552
            ]
        }
    ]
}