{
    "goal": {
        "global_pose": {
            "orientation": {
                "w": 0.5084816217422485,
                "x": -0.49083608388900757,
                "y": 0.5182115435600281,
                "z": -0.4816462993621826
            },
            "position": {
                "x": 0.5540239810943604,
                "y": 0.030875300988554955,
                "z": 0.16403168439865112
            }
        },
        "name": "move_to_storage_A"
    },
    "id": "BiEST_move_to_storage_A_55",
    "joint_names": [
        "shoulder_pan_joint",
        "shoulder_lift_joint",
        "elbow_joint",
        "wrist_1_joint",
        "wrist_2_joint",
        "wrist_3_joint"
    ],
    "metrics": {
        "cart_traj_len": 0.35332874971677936,
        "distance_elbow_joint": 0.45179288592404276,
        "distance_shoulder_lift_joint": 0.23370562100296643,
        "distance_shoulder_pan_joint": 0.463683255575955,
        "distance_wrist_1_joint": 0.24999979397777305,
        "distance_wrist_2_joint": 1.0921290310433909,
        "distance_wrist_3_joint": 0.09163293153754726,
        "smoothness": 8.881784197001252e-16,
        "time": 0.040130045,
        "traj_len": 1.6071538566863084,
        "weighted_distance": 2.026903600854746
    },
    "planner": "BiEST",
    "start": {
        "state": {
            "elbow_joint": 1.9715477243005601,
            "shoulder_lift_joint": -1.1394853015351272,
            "shoulder_pan_joint": 0.12281154014795169,
            "wrist_1_joint": -0.7804696478968182,
            "wrist_2_joint": 0.12958648046900423,
            "wrist_3_joint": -3.192491284697111
        }
    },
    "waypoints": [
        {
            "positions": [
                0.12281154014795169,
                -1.1394853015351272,
                1.9715477243005601,
                -0.7804696478968182,
                0.12958648046900423,
                -3.192491284697111
            ]
        },
        {
            "positions": [
                0.05657107506567241,
                -1.1728718188212652,
                2.036089565146852,
                -0.8161839041793572,
                0.2856049134752029,
                -3.179400865906033
            ]
        },
        {
            "positions": [
                -0.009669390016606869,
                -1.2062583361074033,
                2.100631405993144,
                -0.8518981604618961,
                0.4416233464814016,
                -3.166310447114955
            ]
        },
        {
            "positions": [
                -0.07590985509888616,
                -1.2396448533935414,
                2.165173246839436,
                -0.8876124167444351,
                0.5976417794876003,
                -3.1532200283238767
            ]
        },
        {
            "positions": [
                -0.1421503201811654,
                -1.2730313706796794,
                2.2297150876857272,
                -0.9233266730269742,
                0.753660212493799,
                -3.1401296095327984
            ]
        },
        {
            "positions": [
                -0.20839078526344473,
                -1.3064178879658175,
                2.294256928532019,
                -0.9590409293095132,
                0.9096786454999978,
                -3.12703919074172
            ]
        },
        {
            "positions": [
                -0.274631250345724,
                -1.3398044052519555,
                2.358798769378311,
                -0.9947551855920522,
                1.0656970785061963,
                -3.1139487719506422
            ]
        },
        {
            "positions": [
                -0.3408717154280033,
                -1.3731909225380936,
                2.423340610224603,
                -1.0304694418745912,
                1.2217155115123952,
                -3.100858353159564
            ]
        }
    ]
}