{
    "goal": {
        "global_pose": {
            "orientation": {
                "w": 0.7047431468963623,
                "x": -0.7094548344612122,
                "y": 0.0024358443915843964,
                "z": -0.0022348060738295317
            },
            "position": {
                "x": 0.6094750761985779,
                "y": 0.3671506643295288,
                "z": 0.19426114857196808
            }
        },
        "name": "move_to_magneteinheit_A"
    },
    "id": "BiEST_move_to_magneteinheit_A_112",
    "joint_names": [
        "shoulder_pan_joint",
        "shoulder_lift_joint",
        "elbow_joint",
        "wrist_1_joint",
        "wrist_2_joint",
        "wrist_3_joint"
    ],
    "metrics": {
        "cart_traj_len": 3.1170138814189547,
        "distance_elbow_joint": 3.908296870665689,
        "distance_shoulder_lift_joint": 0.6291214191238795,
        "distance_shoulder_pan_joint": 3.3253790943822334,
        "distance_wrist_1_joint": 3.4601833973513307,
        "distance_wrist_2_joint": 1.7997273603027928,
        "distance_wrist_3_joint": 1.244853220396771,
        "smoothness": 0.16654031411504286,
        "time": 0.116856771,
        "traj_len": 3.790456616586278,
        "weighted_distance": 4.702890447445099
    },
    "planner": "BiEST",
    "start": {
        "state": {
            "elbow_joint": -1.919618573717145,
            "shoulder_lift_joint": -1.2443395971678275,
            "shoulder_pan_joint": 2.6996025300909787,
            "wrist_1_joint": -1.548550951253194,
            "wrist_2_joint": -1.5709469090946802,
            "wrist_3_joint": 0.4420197732051276
        }
    },
    "waypoints": [
        {
            "positions": [
                2.6996025300909787,
                -1.2443395971678275,
                -1.919618573717145,
                -1.548550951253194,
                -1.5709469090946802,
                0.4420197732051276
            ]
        },
        {
            "positions": [
                2.5766362681165074,
                -1.247656276010604,
                -1.8466477666426717,
                -1.4387015198895534,
                -1.505450958178073,
                0.45915531489476713
            ]
        },
        {
            "positions": [
                2.453670006142036,
                -1.2509729548533806,
                -1.7736769595681985,
                -1.3288520885259127,
                -1.439955007261466,
                0.4762908565844067
            ]
        },
        {
            "positions": [
                2.3307037441675647,
                -1.254289633696157,
                -1.7007061524937253,
                -1.2190026571622719,
                -1.3744590563448589,
                0.4934263982740462
            ]
        },
        {
            "positions": [
                2.2077374821930933,
                -1.2576063125389334,
                -1.627735345419252,
                -1.1091532257986312,
                -1.308963105428252,
                0.5105619399636857
            ]
        },
        {
            "positions": [
                2.084771220218622,
                -1.26092299138171,
                -1.5547645383447788,
                -0.9993037944349904,
                -1.243467154511645,
                0.5276974816533253
            ]
        },
        {
            "positions": [
                1.9618049582441506,
                -1.2642396702244865,
                -1.4817937312703056,
                -0.8894543630713497,
                -1.1779712035950378,
                0.5448330233429648
            ]
        },
        {
            "positions": [
                1.838838696269679,
                -1.267556349067263,
                -1.408822924195832,
                -0.779604931707709,
                -1.1124752526784307,
                0.5619685650326044
            ]
        },
        {
            "positions": [
                1.7158724342952079,
                -1.2708730279100395,
                -1.335852117121359,
                -0.6697555003440683,
                -1.0469793017618239,
                0.5791041067222439
            ]
        },
        {
            "positions": [
                1.5929061723207363,
                -1.274189706752816,
                -1.2628813100468856,
                -0.5599060689804276,
                -0.9814833508452167,
                0.5962396484118835
            ]
        },
        {
            "positions": [
                1.469939910346265,
                -1.2775063855955926,
                -1.1899105029724124,
                -0.4500566376167867,
                -0.9159873999286096,
                0.613375190101523
            ]
        },
        {
            "positions": [
                1.3469736483717936,
                -1.2808230644383691,
                -1.1169396958979392,
                -0.34020720625314604,
                -0.8504914490120026,
                0.6305107317911625
            ]
        },
        {
            "positions": [
                1.2240073863973222,
                -1.2841397432811457,
                -1.043968888823466,
                -0.23035777488950537,
                -0.7849954980953955,
                0.6476462734808021
            ]
        },
        {
            "positions": [
                1.1010411244228508,
                -1.287456422123922,
                -0.9709980817489929,
                -0.1205083435258647,
                -0.7194995471787885,
                0.6647818151704415
            ]
        },
        {
            "positions": [
                0.9780748624483793,
                -1.2907731009666985,
                -0.8980272746745195,
                -0.01065891216222381,
                -0.6540035962621813,
                0.6819173568600811
            ]
        },
        {
            "positions": [
                0.8551086004739081,
                -1.294089779809475,
                -0.8250564676000463,
                0.09919051920141686,
                -0.5885076453455743,
                0.6990528985497206
            ]
        },
        {
            "positions": [
                0.7321423384994368,
                -1.2974064586522516,
                -0.7520856605255732,
                0.20903995056505753,
                -0.5230116944289673,
                0.7161884402393601
            ]
        },
        {
            "positions": [
                0.6091760765249652,
                -1.300723137495028,
                -0.6791148534510998,
                0.3188893819286984,
                -0.45751574351236024,
                0.7333239819289997
            ]
        },
        {
            "positions": [
                0.48620981455049384,
                -1.3040398163378046,
                -0.6061440463766266,
                0.42873881329233887,
                -0.39201979259575315,
                0.7504595236186393
            ]
        },
        {
            "positions": [
                0.3632435525760225,
                -1.3073564951805812,
                -0.5331732393021535,
                0.5385882446559798,
                -0.32652384167914605,
                0.7675950653082788
            ]
        },
        {
            "positions": [
                0.24027729060155112,
                -1.3106731740233575,
                -0.4602024322276801,
                0.6484376760196207,
                -0.26102789076253896,
                0.7847306069979183
            ]
        },
        {
            "positions": [
                0.11731102862707976,
                -1.313989852866134,
                -0.38723162515320686,
                0.7582871073832611,
                -0.1955319398459321,
                0.8018661486875578
            ]
        },
        {
            "positions": [
                -0.005655233347391597,
                -1.3173065317089105,
                -0.31426081807873363,
                0.868136538746902,
                -0.130035988929325,
                0.8190016903771974
            ]
        },
        {
            "positions": [
                -0.12862149532186296,
                -1.320623210551687,
                -0.2412900110042604,
                0.9779859701105429,
                -0.0645400380127179,
                0.836137232066837
            ]
        },
        {
            "positions": [
                -0.25158775729633426,
                -1.3239398893944636,
                -0.16831920392978716,
                1.0878354014741833,
                0.0009559129038890779,
                0.8532727737564765
            ]
        },
        {
            "positions": [
                -0.2291659355880558,
                -1.2826007850834185,
                0.008200471931090969,
                1.1466794540659873,
                -0.01493376957822036,
                0.7886192186738625
            ]
        },
        {
            "positions": [
                -0.20674411387977737,
                -1.241261680772373,
                0.1847201477919691,
                1.205523506657791,
                -0.030823452060329798,
                0.7239656635912486
            ]
        },
        {
            "positions": [
                -0.18432229217149892,
                -1.199922576461328,
                0.3612398236528471,
                1.2643675592495949,
                -0.046713134542439236,
                0.6593121085086345
            ]
        },
        {
            "positions": [
                -0.16190047046322048,
                -1.1585834721502826,
                0.5377594995137254,
                1.3232116118413986,
                -0.06260281702454867,
                0.5946585534260206
            ]
        },
        {
            "positions": [
                -0.13947864875494204,
                -1.1172443678392374,
                0.7142791753746034,
                1.3820556644332025,
                -0.07849249950665811,
                0.5300049983434065
            ]
        },
        {
            "positions": [
                -0.11705682704666362,
                -1.0759052635281923,
                0.8907988512354814,
                1.4408997170250062,
                -0.09438218198876755,
                0.46535144326079264
            ]
        },
        {
            "positions": [
                -0.09463500533838518,
                -1.034566159217147,
                1.0673185270963597,
                1.49974376961681,
                -0.110271864470877,
                0.40069788817817864
            ]
        },
        {
            "positions": [
                -0.07221318363010673,
                -0.9932270549061017,
                1.243838202957238,
                1.5585878222086138,
                -0.12616154695298643,
                0.3360443330955647
            ]
        },
        {
            "positions": [
                -0.04979136192182826,
                -0.9518879505950565,
                1.4203578788181161,
                1.6174318748004177,
                -0.14205122943509588,
                0.27139077801295064
            ]
        },
        {
            "positions": [
                -0.027369540213549842,
                -0.9105488462840113,
                1.596877554678994,
                1.6762759273922216,
                -0.1579409119172053,
                0.2067372229303367
            ]
        },
        {
            "positions": [
                -0.004947718505271398,
                -0.8692097419729661,
                1.7733972305398722,
                1.7351199799840253,
                -0.17383059439931475,
                0.14208366784772275
            ]
        },
        {
            "positions": [
                0.058826665596657834,
                -0.8218142522350931,
                1.881037763744208,
                1.8233762130410809,
                -0.14731157889880542,
                0.08087811087938852
            ]
        },
        {
            "positions": [
                0.12260104969858705,
                -0.7744187624972202,
                1.9886782969485435,
                1.9116324460981362,
                -0.12079256339829607,
                0.01967255391105429
            ]
        }
    ]
}{
    "goal": {
        "global_pose": {
            "orientation": {
                "w": 0.7047431468963623,
                "x": -0.7094548344612122,
                "y": 0.0024358443915843964,
                "z": -0.0022348060738295317
            },
            "position": {
                "x": 0.6094750761985779,
                "y": 0.3671506643295288,
                "z": 0.19426114857196808
            }
        },
        "name": "move_to_magneteinheit_A"
    },
    "id": "BiEST_move_to_magneteinheit_A_112",
    "joint_names": [
        "shoulder_pan_joint",
        "shoulder_lift_joint",
        "elbow_joint",
        "wrist_1_joint",
        "wrist_2_joint",
        "wrist_3_joint"
    ],
    "metrics": {
        "cart_traj_len": 1.5813554907117497,
        "distance_elbow_joint": 0.8185377920942547,
        "distance_shoulder_lift_joint": 1.0800520592253755,
        "distance_shoulder_pan_joint": 2.142355721078605,
        "distance_wrist_1_joint": 1.859980288221689,
        "distance_wrist_2_joint": 1.4305952935063293,
        "distance_wrist_3_joint": 4.341808896433731,
        "smoothness": 0.27740302707283204,
        "time": 0.06531145,
        "traj_len": 3.4166255356067317,
        "weighted_distance": 4.862871931806909
    },
    "planner": "BiEST",
    "start": {
        "state": {
            "elbow_joint": 1.919643534880228,
            "shoulder_lift_joint": -1.8972525353963687,
            "shoulder_pan_joint": -1.1188672234189438,
            "wrist_1_joint": -1.5931878212786155,
            "wrist_2_joint": 1.5706036197970081,
            "wrist_3_joint": 1.118896926603594
        }
    },
    "waypoints": [
        {
            "positions": [
                -1.1188672234189438,
                -1.8972525353963687,
                1.919643534880228,
                -1.5931878212786155,
                1.5706036197970081,
                1.118896926603594
            ]
        },
        {
            "positions": [
                -1.1488778243263171,
                -1.9078539742496496,
                1.8938070606188995,
                -1.5026932181312325,
                1.5291728734561418,
                0.932481537072464
            ]
        },
        {
            "positions": [
                -1.1788884252336904,
                -1.9184554131029303,
                1.867970586357571,
                -1.4121986149838495,
                1.4877421271152753,
                0.7460661475413338
            ]
        },
        {
            "positions": [
                -1.2088990261410637,
                -1.9290568519562112,
                1.8421341120962424,
                -1.3217040118364665,
                1.446311380774409,
                0.5596507580102038
            ]
        },
        {
            "positions": [
                -1.238909627048437,
                -1.939658290809492,
                1.8162976378349138,
                -1.2312094086890835,
                1.4048806344335425,
                0.3732353684790737
            ]
        },
        {
            "positions": [
                -1.2689202279558103,
                -1.9502597296627728,
                1.7904611635735854,
                -1.1407148055417005,
                1.3634498880926762,
                0.18681997894794367
            ]
        },
        {
            "positions": [
                -1.2989308288631836,
                -1.9608611685160537,
                1.7646246893122568,
                -1.0502202023943172,
                1.32201914175181,
                0.0004045894168136499
            ]
        },
        {
            "positions": [
                -1.3289414297705568,
                -1.9714626073693344,
                1.7387882150509282,
                -0.9597255992469343,
                1.2805883954109434,
                -0.18601080011431637
            ]
        },
        {
            "positions": [
                -1.3589520306779301,
                -1.9820640462226153,
                1.7129517407895998,
                -0.8692309960995513,
                1.239157649070077,
                -0.3724261896454466
            ]
        },
        {
            "positions": [
                -1.3889626315853034,
                -1.992665485075896,
                1.6871152665282712,
                -0.7787363929521683,
                1.1977269027292108,
                -0.5588415791765766
            ]
        },
        {
            "positions": [
                -1.4189732324926767,
                -2.0032669239291767,
                1.6612787922669425,
                -0.6882417898047853,
                1.1562961563883443,
                -0.7452569687077066
            ]
        },
        {
            "positions": [
                -1.44898383340005,
                -2.013868362782458,
                1.6354423180056141,
                -0.5977471866574023,
                1.114865410047478,
                -0.9316723582388364
            ]
        },
        {
            "positions": [
                -1.4789944343074233,
                -2.0244698016357385,
                1.6096058437442855,
                -0.5072525835100192,
                1.0734346637066117,
                -1.1180877477699667
            ]
        },
        {
            "positions": [
                -1.5090050352147966,
                -2.035071240489019,
                1.5837693694829569,
                -0.4167579803626362,
                1.0320039173657451,
                -1.304503137301097
            ]
        },
        {
            "positions": [
                -1.5390156361221698,
                -2.0456726793423003,
                1.5579328952216285,
                -0.3262633772152532,
                0.9905731710248789,
                -1.4909185268322267
            ]
        },
        {
            "positions": [
                -1.5690262370295431,
                -2.056274118195581,
                1.5320964209602999,
                -0.23576877406787033,
                0.9491424246840124,
                -1.6773339163633567
            ]
        },
        {
            "positions": [
                -1.4562131231983428,
                -1.9948720864338367,
                1.5608291328385884,
                -0.2692728568019333,
                0.8952001514577902,
                -1.780372453261142
            ]
        },
        {
            "positions": [
                -1.3434000093671423,
                -1.9334700546720927,
                1.5895618447168767,
                -0.3027769395359962,
                0.841257878231568,
                -1.8834109901589273
            ]
        },
        {
            "positions": [
                -1.230586895535942,
                -1.8720680229103484,
                1.6182945565951652,
                -0.3362810222700592,
                0.7873156050053457,
                -1.9864495270567124
            ]
        },
        {
            "positions": [
                -1.1177737817047415,
                -1.8106659911486043,
                1.6470272684734535,
                -0.3697851050041221,
                0.7333733317791236,
                -2.089488063954498
            ]
        },
        {
            "positions": [
                -1.0049606678735412,
                -1.74926395938686,
                1.675759980351742,
                -0.40328918773818506,
                0.6794310585529013,
                -2.192526600852283
            ]
        },
        {
            "positions": [
                -0.8921475540423407,
                -1.6878619276251157,
                1.7044926922300305,
                -0.43679327047224803,
                0.6254887853266791,
                -2.295565137750068
            ]
        },
        {
            "positions": [
                -0.7793344402111403,
                -1.6264598958633716,
                1.7332254041083188,
                -0.47029735320631094,
                0.5715465121004568,
                -2.3986036746478536
            ]
        },
        {
            "positions": [
                -0.66652132637994,
                -1.5650578641016273,
                1.7619581159866073,
                -0.503801435940374,
                0.5176042388742346,
                -2.5016422115456387
            ]
        },
        {
            "positions": [
                -0.5537082125487396,
                -1.503655832339883,
                1.7906908278648956,
                -0.5373055186744369,
                0.4636619656480124,
                -2.604680748443424
            ]
        },
        {
            "positions": [
                -0.4408950987175393,
                -1.442253800578139,
                1.8194235397431842,
                -0.5708096014084998,
                0.4097196924217902,
                -2.7077192853412093
            ]
        },
        {
            "positions": [
                -0.3280819848863388,
                -1.3808517688163948,
                1.8481562516214725,
                -0.6043136841425627,
                0.35577741919556793,
                -2.8107578222389944
            ]
        },
        {
            "positions": [
                -0.21526887105513826,
                -1.3194497370546503,
                1.876888963499761,
                -0.6378177668766257,
                0.3018351459693456,
                -2.91379635913678
            ]
        },
        {
            "positions": [
                -0.10245575722393796,
                -1.2580477052929062,
                1.9056216753780495,
                -0.6713218496106887,
                0.24789287274312344,
                -3.016834896034565
            ]
        },
        {
            "positions": [
                0.010357356607262558,
                -1.1966456735311621,
                1.934354387256338,
                -0.7048259323447517,
                0.1939505995169012,
                -3.1198734329323505
            ]
        },
        {
            "positions": [
                0.12317047043846285,
                -1.1352436417694178,
                1.9630870991346263,
                -0.7383300150788146,
                0.14000832629067889,
                -3.2229119698301356
            ]
        }
    ]
}