{
    "goal": {
        "global_pose": {
            "orientation": {
                "w": 0.7047431468963623,
                "x": -0.7094548344612122,
                "y": 0.0024358443915843964,
                "z": -0.0022348060738295317
            },
            "position": {
                "x": 0.6094750761985779,
                "y": 0.3671506643295288,
                "z": 0.19426114857196808
            }
        },
        "name": "move_to_magneteinheit_A"
    },
    "id": "BiEST_move_to_magneteinheit_A_120",
    "joint_names": [
        "shoulder_pan_joint",
        "shoulder_lift_joint",
        "elbow_joint",
        "wrist_1_joint",
        "wrist_2_joint",
        "wrist_3_joint"
    ],
    "metrics": {
        "cart_traj_len": 3.7991748948539743,
        "distance_elbow_joint": 3.910142659724901,
        "distance_shoulder_lift_joint": 0.4062295936190967,
        "distance_shoulder_pan_joint": 2.7887736119353557,
        "distance_wrist_1_joint": 0.6864031468903196,
        "distance_wrist_2_joint": 2.1851282934739413,
        "distance_wrist_3_joint": 3.571830292003073,
        "smoothness": 0.22511128445203843,
        "time": 0.10202650199999999,
        "traj_len": 3.6808297430941685,
        "weighted_distance": 4.854245525518573
    },
    "planner": "BiEST",
    "start": {
        "state": {
            "elbow_joint": -1.919618573717145,
            "shoulder_lift_joint": -1.2443395971678275,
            "shoulder_pan_joint": 2.6996025300909787,
            "wrist_1_joint": -1.548550951253194,
            "wrist_2_joint": -1.5709469090946802,
            "wrist_3_joint": 0.4420197732051276
        }
    },
    "waypoints": [
        {
            "positions": [
                2.6996025300909787,
                -1.2443395971678275,
                -1.919618573717145,
                -1.548550951253194,
                -1.5709469090946802,
                0.4420197732051276
            ]
        },
        {
            "positions": [
                2.6130509785727596,
                -1.2362534652708332,
                -1.8125391003460745,
                -1.5307926852749634,
                -1.5081501257173036,
                0.337372232514086
            ]
        },
        {
            "positions": [
                2.5264994270545404,
                -1.2281673333738392,
                -1.705459626975004,
                -1.5130344192967324,
                -1.445353342339927,
                0.23272469182304445
            ]
        },
        {
            "positions": [
                2.4399478755363213,
                -1.220081201476845,
                -1.5983801536039333,
                -1.4952761533185017,
                -1.3825565589625504,
                0.1280771511320029
            ]
        },
        {
            "positions": [
                2.353396324018102,
                -1.2119950695798507,
                -1.4913006802328628,
                -1.4775178873402708,
                -1.3197597755851738,
                0.023429610440961313
            ]
        },
        {
            "positions": [
                2.2668447724998835,
                -1.2039089376828567,
                -1.3842212068617923,
                -1.45975962136204,
                -1.2569629922077974,
                -0.08121793025008023
            ]
        },
        {
            "positions": [
                2.180293220981664,
                -1.1958228057858624,
                -1.2771417334907218,
                -1.4420013553838091,
                -1.1941662088304208,
                -0.18586547094112177
            ]
        },
        {
            "positions": [
                2.093741669463445,
                -1.1877366738888682,
                -1.1700622601196513,
                -1.4242430894055784,
                -1.1313694254530442,
                -0.2905130116321633
            ]
        },
        {
            "positions": [
                2.007190117945226,
                -1.1796505419918741,
                -1.0629827867485808,
                -1.4064848234273475,
                -1.0685726420756676,
                -0.39516055232320496
            ]
        },
        {
            "positions": [
                1.920638566427007,
                -1.1715644100948799,
                -0.9559033133775101,
                -1.3887265574491168,
                -1.005775858698291,
                -0.4998080930142466
            ]
        },
        {
            "positions": [
                1.8340870149087878,
                -1.1634782781978856,
                -0.8488238400064396,
                -1.370968291470886,
                -0.9429790753209144,
                -0.604455633705288
            ]
        },
        {
            "positions": [
                1.7475354633905686,
                -1.1553921463008916,
                -0.7417443666353691,
                -1.3532100254926551,
                -0.8801822919435378,
                -0.7091031743963296
            ]
        },
        {
            "positions": [
                1.6609839118723495,
                -1.1473060144038973,
                -0.6346648932642986,
                -1.3354517595144244,
                -0.8173855085661613,
                -0.8137507150873711
            ]
        },
        {
            "positions": [
                1.5744323603541304,
                -1.139219882506903,
                -0.5275854198932279,
                -1.3176934935361935,
                -0.7545887251887846,
                -0.9183982557784127
            ]
        },
        {
            "positions": [
                1.4878808088359115,
                -1.131133750609909,
                -0.42050594652215745,
                -1.2999352275579628,
                -0.6917919418114081,
                -1.0230457964694541
            ]
        },
        {
            "positions": [
                1.4013292573176923,
                -1.1230476187129148,
                -0.31342647315108696,
                -1.282176961579732,
                -0.6289951584340315,
                -1.1276933371604958
            ]
        },
        {
            "positions": [
                1.3147777057994732,
                -1.1149614868159206,
                -0.20634699978001647,
                -1.264418695601501,
                -0.566198375056655,
                -1.2323408778515375
            ]
        },
        {
            "positions": [
                1.2282261542812543,
                -1.1068753549189265,
                -0.09926752640894598,
                -1.2466604296232704,
                -0.5034015916792784,
                -1.3369884185425789
            ]
        },
        {
            "positions": [
                1.141674602763035,
                -1.0987892230219323,
                0.007811946962124727,
                -1.2289021636450395,
                -0.44060480830190163,
                -1.4416359592336208
            ]
        },
        {
            "positions": [
                1.055123051244816,
                -1.090703091124938,
                0.11489142033319522,
                -1.2111438976668087,
                -0.37780802492452525,
                -1.5462834999246622
            ]
        },
        {
            "positions": [
                0.9685714997265968,
                -1.082616959227944,
                0.2219708937042657,
                -1.1933856316885778,
                -0.31501124154714866,
                -1.6509310406157036
            ]
        },
        {
            "positions": [
                0.8820199482083779,
                -1.0745308273309497,
                0.3290503670753362,
                -1.175627365710347,
                -0.25221445816977206,
                -1.7555785813067453
            ]
        },
        {
            "positions": [
                0.7954683966901586,
                -1.0664446954339555,
                0.4361298404464067,
                -1.1578690997321162,
                -0.18941767479239546,
                -1.860226121997787
            ]
        },
        {
            "positions": [
                0.7089168451719394,
                -1.0583585635369614,
                0.5432093138174772,
                -1.1401108337538854,
                -0.12662089141501887,
                -1.9648736626888286
            ]
        },
        {
            "positions": [
                0.6223652936537203,
                -1.0502724316399672,
                0.6502887871885477,
                -1.1223525677756547,
                -0.06382410803764249,
                -2.0695212033798698
            ]
        },
        {
            "positions": [
                0.5358137421355016,
                -1.0421862997429732,
                0.7573682605596181,
                -1.1045943017974238,
                -0.0010273246602658936,
                -2.1741687440709114
            ]
        },
        {
            "positions": [
                0.449262190617282,
                -1.034100167845979,
                0.8644477339306891,
                -1.0868360358191929,
                0.061769458717110926,
                -2.278816284761953
            ]
        },
        {
            "positions": [
                0.3627106390990633,
                -1.0260140359489847,
                0.9715272073017596,
                -1.0690777698409621,
                0.1245662420944873,
                -2.3834638254529947
            ]
        },
        {
            "positions": [
                0.2761590875808442,
                -1.0179279040519904,
                1.07860668067283,
                -1.0513195038627314,
                0.1873630254718639,
                -2.488111366144036
            ]
        },
        {
            "positions": [
                0.18960753606262504,
                -1.0098417721549964,
                1.1856861540439,
                -1.0335612378845007,
                0.2501598088492405,
                -2.5927589068350776
            ]
        },
        {
            "positions": [
                0.1030559845444059,
                -1.0017556402580021,
                1.292765627414971,
                -1.0158029719062698,
                0.3129565922266171,
                -2.6974064475261192
            ]
        },
        {
            "positions": [
                0.016504433026186593,
                -0.993669508361008,
                1.3998451007860413,
                -0.998044705928039,
                0.3757533756039938,
                -2.802053988217161
            ]
        },
        {
            "positions": [
                0.042923311743827575,
                -1.0325593845640773,
                1.54751484709147,
                -0.9640704805367478,
                0.316146373410177,
                -2.883993120862357
            ]
        },
        {
            "positions": [
                0.06934219046146856,
                -1.0714492607671466,
                1.6951845933968983,
                -0.9300962551454568,
                0.25653937121636017,
                -2.965932253507553
            ]
        },
        {
            "positions": [
                0.09576106917910955,
                -1.1103391369702158,
                1.8428543397023267,
                -0.8961220297541657,
                0.1969323690225433,
                -3.0478713861527496
            ]
        },
        {
            "positions": [
                0.12217994789675053,
                -1.1492290131732852,
                1.9905240860077553,
                -0.8621478043628745,
                0.13732536682872648,
                -3.1298105187979455
            ]
        }
    ]
}{
    "goal": {
        "global_pose": {
            "orientation": {
                "w": 0.7047431468963623,
                "x": -0.7094548344612122,
                "y": 0.0024358443915843964,
                "z": -0.0022348060738295317
            },
            "position": {
                "x": 0.6094750761985779,
                "y": 0.3671506643295288,
                "z": 0.19426114857196808
            }
        },
        "name": "move_to_magneteinheit_A"
    },
    "id": "BiEST_move_to_magneteinheit_A_120",
    "joint_names": [
        "shoulder_pan_joint",
        "shoulder_lift_joint",
        "elbow_joint",
        "wrist_1_joint",
        "wrist_2_joint",
        "wrist_3_joint"
    ],
    "metrics": {
        "cart_traj_len": 1.7089095014109532,
        "distance_elbow_joint": 1.2033519280694633,
        "distance_shoulder_lift_joint": 0.8188807539035683,
        "distance_shoulder_pan_joint": 2.3146520727598445,
        "distance_wrist_1_joint": 3.802194983317275,
        "distance_wrist_2_joint": 1.443192424122313,
        "distance_wrist_3_joint": 4.313344768267564,
        "smoothness": 0.3228688790267314,
        "time": 0.070388301,
        "traj_len": 3.7276825147053536,
        "weighted_distance": 5.269506037041306
    },
    "planner": "BiEST",
    "start": {
        "state": {
            "elbow_joint": 1.919643534880228,
            "shoulder_lift_joint": -1.8972525353963687,
            "shoulder_pan_joint": -1.1188672234189438,
            "wrist_1_joint": -1.5931878212786155,
            "wrist_2_joint": 1.5706036197970081,
            "wrist_3_joint": 1.118896926603594
        }
    },
    "waypoints": [
        {
            "positions": [
                -1.1188672234189438,
                -1.8972525353963687,
                1.919643534880228,
                -1.5931878212786155,
                1.5706036197970081,
                1.118896926603594
            ]
        },
        {
            "positions": [
                -1.1635749526526185,
                -1.8997697255634125,
                1.8716051506623013,
                -1.4004282056518427,
                1.5378998097776369,
                1.0531838350487785
            ]
        },
        {
            "positions": [
                -1.2082826818862933,
                -1.9022869157304563,
                1.8235667664443744,
                -1.2076685900250699,
                1.5051959997582656,
                0.9874707434939631
            ]
        },
        {
            "positions": [
                -1.252990411119968,
                -1.9048041058975,
                1.7755283822264476,
                -1.014908974398297,
                1.4724921897388943,
                0.9217576519391477
            ]
        },
        {
            "positions": [
                -1.2976981403536427,
                -1.9073212960645436,
                1.7274899980085208,
                -0.8221493587715243,
                1.439788379719523,
                0.8560445603843323
            ]
        },
        {
            "positions": [
                -1.3424058695873173,
                -1.9098384862315874,
                1.679451613790594,
                -0.6293897431447515,
                1.4070845697001517,
                0.7903314688295168
            ]
        },
        {
            "positions": [
                -1.3871135988209922,
                -1.9123556763986311,
                1.6314132295726673,
                -0.4366301275179787,
                1.3743807596807804,
                0.7246183772747014
            ]
        },
        {
            "positions": [
                -1.4318213280546668,
                -1.914872866565675,
                1.5833748453547405,
                -0.2438705118912059,
                1.3416769496614092,
                0.6589052857198858
            ]
        },
        {
            "positions": [
                -1.4765290572883414,
                -1.9173900567327187,
                1.5353364611368137,
                -0.0511108962644331,
                1.3089731396420379,
                0.5931921941650705
            ]
        },
        {
            "positions": [
                -1.5212367865220162,
                -1.9199072468997622,
                1.4872980769188868,
                0.1416487193623397,
                1.2762693296226666,
                0.527479102610255
            ]
        },
        {
            "positions": [
                -1.5659445157556908,
                -1.922424437066806,
                1.43925969270096,
                0.3344083349891125,
                1.2435655196032953,
                0.4617660110554396
            ]
        },
        {
            "positions": [
                -1.6106522449893657,
                -1.9249416272338498,
                1.3912213084830332,
                0.5271679506158853,
                1.210861709583924,
                0.39605291950062416
            ]
        },
        {
            "positions": [
                -1.6553599742230403,
                -1.9274588174008935,
                1.3431829242651063,
                0.7199275662426583,
                1.1781578995645527,
                0.33033982794580874
            ]
        },
        {
            "positions": [
                -1.581270002474884,
                -1.8945973810717667,
                1.369303395825704,
                0.6578825830844914,
                1.1343767869024752,
                0.1834736750454013
            ]
        },
        {
            "positions": [
                -1.507180030726728,
                -1.8617359447426398,
                1.3954238673863015,
                0.5958375999263246,
                1.090595674240398,
                0.036607522144993854
            ]
        },
        {
            "positions": [
                -1.4330900589785718,
                -1.8288745084135132,
                1.421544338946899,
                0.5337926167681578,
                1.0468145615783204,
                -0.11025863075541364
            ]
        },
        {
            "positions": [
                -1.3590000872304158,
                -1.7960130720843863,
                1.4476648105074965,
                0.47174763360999095,
                1.0030334489162431,
                -0.25712478365582103
            ]
        },
        {
            "positions": [
                -1.2849101154822593,
                -1.7631516357552595,
                1.4737852820680941,
                0.4097026504518241,
                0.9592523362541656,
                -0.40399093655622864
            ]
        },
        {
            "positions": [
                -1.2108201437341033,
                -1.7302901994261326,
                1.4999057536286917,
                0.34765766729365727,
                0.9154712235920882,
                -0.550857089456636
            ]
        },
        {
            "positions": [
                -1.136730171985947,
                -1.6974287630970057,
                1.5260262251892893,
                0.2856126841354904,
                0.8716901109300108,
                -0.6977232423570436
            ]
        },
        {
            "positions": [
                -1.062640200237791,
                -1.664567326767879,
                1.552146696749887,
                0.2235677009773236,
                0.8279089982679334,
                -0.8445893952574508
            ]
        },
        {
            "positions": [
                -0.9885502284896348,
                -1.6317058904387522,
                1.5782671683104845,
                0.16152271781915672,
                0.784127885605856,
                -0.9914555481578584
            ]
        },
        {
            "positions": [
                -0.9144602567414786,
                -1.5988444541096254,
                1.604387639871082,
                0.09947773466098986,
                0.7403467729437785,
                -1.138321701058266
            ]
        },
        {
            "positions": [
                -0.8403702849933226,
                -1.5659830177804985,
                1.6305081114316795,
                0.0374327515028231,
                0.6965656602817012,
                -1.2851878539586732
            ]
        },
        {
            "positions": [
                -0.7662803132451663,
                -1.533121581451372,
                1.656628582992277,
                -0.024612231655343764,
                0.6527845476196237,
                -1.4320540068590808
            ]
        },
        {
            "positions": [
                -0.6921903414970102,
                -1.500260145122245,
                1.6827490545528747,
                -0.08665721481351052,
                0.6090034349575463,
                -1.5789201597594882
            ]
        },
        {
            "positions": [
                -0.6181003697488539,
                -1.4673987087931182,
                1.7088695261134723,
                -0.1487021979716775,
                0.5652223222954688,
                -1.725786312659896
            ]
        },
        {
            "positions": [
                -0.5440103980006978,
                -1.4345372724639913,
                1.7349899976740697,
                -0.21074718112984425,
                0.5214412096333914,
                -1.8726524655603032
            ]
        },
        {
            "positions": [
                -0.4699204262525418,
                -1.4016758361348645,
                1.7611104692346673,
                -0.2727921642880111,
                0.47766009697131406,
                -2.0195186184607103
            ]
        },
        {
            "positions": [
                -0.39583045450438537,
                -1.3688143998057378,
                1.787230940795265,
                -0.334837147446178,
                0.43387898430923655,
                -2.1663847713611184
            ]
        },
        {
            "positions": [
                -0.32174048275622935,
                -1.335952963476611,
                1.8133514123558625,
                -0.39688213060434485,
                0.39009787164715914,
                -2.3132509242615256
            ]
        },
        {
            "positions": [
                -0.24765051100807334,
                -1.303091527147484,
                1.83947188391646,
                -0.4589271137625115,
                0.34631675898508174,
                -2.4601170771619327
            ]
        },
        {
            "positions": [
                -0.17356053925991688,
                -1.2702300908183572,
                1.8655923554770577,
                -0.5209720969206786,
                0.3025356463230042,
                -2.606983230062341
            ]
        },
        {
            "positions": [
                -0.09947056751176087,
                -1.2373686544892304,
                1.8917128270376553,
                -0.5830170800788452,
                0.25875453366092693,
                -2.753849382962748
            ]
        },
        {
            "positions": [
                -0.025380595763604852,
                -1.2045072181601038,
                1.9178332985982527,
                -0.6450620632370121,
                0.21497342099884953,
                -2.900715535863155
            ]
        },
        {
            "positions": [
                0.048709375984551606,
                -1.1716457818309767,
                1.9439537701588505,
                -0.707107046395179,
                0.1711923083367719,
                -3.047581688763563
            ]
        },
        {
            "positions": [
                0.12279934773270766,
                -1.13878434550185,
                1.970074241719448,
                -0.7691520295533458,
                0.12741119567469472,
                -3.1944478416639703
            ]
        }
    ]
}