{
    "goal": {
        "global_pose": {
            "orientation": {
                "w": 0.7047431468963623,
                "x": -0.7094548344612122,
                "y": 0.0024358443915843964,
                "z": -0.0022348060738295317
            },
            "position": {
                "x": 0.6094750761985779,
                "y": 0.3671506643295288,
                "z": 0.19426114857196808
            }
        },
        "name": "move_to_magneteinheit_A"
    },
    "id": "BiEST_move_to_magneteinheit_A_5",
    "joint_names": [
        "shoulder_pan_joint",
        "shoulder_lift_joint",
        "elbow_joint",
        "wrist_1_joint",
        "wrist_2_joint",
        "wrist_3_joint"
    ],
    "metrics": {
        "cart_traj_len": 3.887435298510197,
        "distance_elbow_joint": 3.9299445994749913,
        "distance_shoulder_lift_joint": 0.4594962596354626,
        "distance_shoulder_pan_joint": 3.1489412011231823,
        "distance_wrist_1_joint": 3.532476407765497,
        "distance_wrist_2_joint": 4.059014551278492,
        "distance_wrist_3_joint": 2.398781457272511,
        "smoothness": 0.3019641302855628,
        "time": 0.10339175,
        "traj_len": 4.186723596865469,
        "weighted_distance": 5.469708250916052
    },
    "planner": "BiEST",
    "start": {
        "state": {
            "elbow_joint": -1.919618573717145,
            "shoulder_lift_joint": -1.2443395971678275,
            "shoulder_pan_joint": 2.6996025300909787,
            "wrist_1_joint": -1.548550951253194,
            "wrist_2_joint": -1.5709469090946802,
            "wrist_3_joint": 0.4420197732051276
        }
    },
    "waypoints": [
        {
            "positions": [
                2.6996025300909787,
                -1.2443395971678275,
                -1.919618573717145,
                -1.548550951253194,
                -1.5709469090946802,
                0.4420197732051276
            ]
        },
        {
            "positions": [
                2.6072673552819583,
                -1.2340233758550614,
                -1.833051369880096,
                -1.4788508363048316,
                -1.4822513494096154,
                0.3952577481778931
            ]
        },
        {
            "positions": [
                2.514932180472938,
                -1.2237071545422955,
                -1.7464841660430475,
                -1.409150721356469,
                -1.3935557897245507,
                0.3484957231506586
            ]
        },
        {
            "positions": [
                2.422597005663918,
                -1.2133909332295294,
                -1.6599169622059986,
                -1.3394506064081064,
                -1.3048602300394858,
                0.3017336981234241
            ]
        },
        {
            "positions": [
                2.3302618308548975,
                -1.2030747119167633,
                -1.5733497583689497,
                -1.2697504914597437,
                -1.216164670354421,
                0.2549716730961896
            ]
        },
        {
            "positions": [
                2.237926656045877,
                -1.1927584906039972,
                -1.4867825545319011,
                -1.2000503765113812,
                -1.1274691106693564,
                0.2082096480689551
            ]
        },
        {
            "positions": [
                2.145591481236857,
                -1.1824422692912313,
                -1.4002153506948523,
                -1.1303502615630185,
                -1.0387735509842915,
                0.1614476230417206
            ]
        },
        {
            "positions": [
                2.0532563064278366,
                -1.1721260479784652,
                -1.3136481468578034,
                -1.060650146614656,
                -0.9500779912992269,
                0.11468559801448608
            ]
        },
        {
            "positions": [
                1.9609211316188162,
                -1.161809826665699,
                -1.2270809430207548,
                -0.9909500316662935,
                -0.8613824316141622,
                0.0679235729872516
            ]
        },
        {
            "positions": [
                1.8685859568097958,
                -1.151493605352933,
                -1.1405137391837057,
                -0.9212499167179308,
                -0.7726868719290972,
                0.02116154796001707
            ]
        },
        {
            "positions": [
                1.7762507820007758,
                -1.141177384040167,
                -1.053946535346657,
                -0.8515498017695683,
                -0.6839913122440326,
                -0.02560047706721741
            ]
        },
        {
            "positions": [
                1.6839156071917551,
                -1.130861162727401,
                -0.9673793315096082,
                -0.7818496868212057,
                -0.5952957525589678,
                -0.07236250209445189
            ]
        },
        {
            "positions": [
                1.591580432382735,
                -1.120544941414635,
                -0.8808121276725596,
                -0.7121495718728431,
                -0.506600192873903,
                -0.11912452712168636
            ]
        },
        {
            "positions": [
                1.4992452575737147,
                -1.110228720101869,
                -0.7942449238355107,
                -0.6424494569244805,
                -0.4179046331888383,
                -0.16588655214892095
            ]
        },
        {
            "positions": [
                1.4069100827646943,
                -1.099912498789103,
                -0.7076777199984619,
                -0.572749341976118,
                -0.3292090735037736,
                -0.21264857717615543
            ]
        },
        {
            "positions": [
                1.314574907955674,
                -1.0895962774763368,
                -0.621110516161413,
                -0.5030492270277553,
                -0.24051351381870867,
                -0.2594106022033899
            ]
        },
        {
            "positions": [
                1.2222397331466537,
                -1.0792800561635707,
                -0.5345433123243644,
                -0.43334911207939286,
                -0.15181795413364418,
                -0.3061726272306244
            ]
        },
        {
            "positions": [
                1.1299045583376335,
                -1.0689638348508048,
                -0.4479761084873155,
                -0.3636489971310304,
                -0.06312239444857948,
                -0.35293465225785886
            ]
        },
        {
            "positions": [
                1.037569383528613,
                -1.0586476135380387,
                -0.36140890465026665,
                -0.29394888218266746,
                0.025573165236485673,
                -0.39969667728509345
            ]
        },
        {
            "positions": [
                0.9452342087195928,
                -1.0483313922252726,
                -0.2748417008132178,
                -0.22424876723430498,
                0.11426872492155016,
                -0.4464587023123279
            ]
        },
        {
            "positions": [
                0.8528990339105726,
                -1.0380151709125065,
                -0.18827449697616916,
                -0.1545486522859425,
                0.20296428460661486,
                -0.4932207273395624
            ]
        },
        {
            "positions": [
                0.7605638591015522,
                -1.0276989495997406,
                -0.10170729313912052,
                -0.08484853733758002,
                0.29165984429167957,
                -0.5399827523667968
            ]
        },
        {
            "positions": [
                0.6682286842925316,
                -1.0173827282869745,
                -0.015140089302071447,
                -0.01514842238921732,
                0.3803554039767445,
                -0.5867447773940313
            ]
        },
        {
            "positions": [
                0.5758935094835116,
                -1.0070665069742084,
                0.07142711453497719,
                0.05455169255914516,
                0.4690509636618092,
                -0.6335068024212658
            ]
        },
        {
            "positions": [
                0.48355833467449116,
                -0.9967502856614424,
                0.15799431837202582,
                0.12425180750750786,
                0.5577465233468741,
                -0.6802688274485003
            ]
        },
        {
            "positions": [
                0.3912231598654712,
                -0.9864340643486764,
                0.2445615222090749,
                0.19395192245587034,
                0.6464420830319386,
                -0.7270308524757347
            ]
        },
        {
            "positions": [
                0.29888798505645076,
                -0.9761178430359103,
                0.33112872604612353,
                0.26365203740423304,
                0.7351376427170035,
                -0.7737928775029694
            ]
        },
        {
            "positions": [
                0.20655281024743033,
                -0.9658016217231443,
                0.4176959298831726,
                0.3333521523525955,
                0.8238332024020685,
                -0.8205549025302039
            ]
        },
        {
            "positions": [
                0.1142176354384099,
                -0.9554854004103783,
                0.5042631337202212,
                0.403052267300958,
                0.912528762087133,
                -0.8673169275574384
            ]
        },
        {
            "positions": [
                0.02188246062938992,
                -0.9451691790976122,
                0.5908303375572699,
                0.4727523822493205,
                1.0012243217721974,
                -0.9140789525846726
            ]
        },
        {
            "positions": [
                -0.0704527141796305,
                -0.9348529577848461,
                0.677397541394319,
                0.5424524971976834,
                1.0899198814572628,
                -0.9608409776119073
            ]
        },
        {
            "positions": [
                -0.16278788898865093,
                -0.9245367364720801,
                0.7639647452313678,
                0.6121526121460457,
                1.1786154411423275,
                -1.0076030026391418
            ]
        },
        {
            "positions": [
                -0.14231997598554005,
                -0.9145586365478148,
                0.8529905509832592,
                0.7101363867436354,
                1.0850831410679358,
                -0.939805953965696
            ]
        },
        {
            "positions": [
                -0.12185206298242918,
                -0.9045805366235494,
                0.9420163567351506,
                0.8081201613412251,
                0.9915508409935443,
                -0.8720089052922503
            ]
        },
        {
            "positions": [
                -0.10138414997931831,
                -0.894602436699284,
                1.031042162487042,
                0.9061039359388149,
                0.8980185409191526,
                -0.8042118566188046
            ]
        },
        {
            "positions": [
                -0.08091623697620744,
                -0.8846243367750186,
                1.1200679682389334,
                1.0040877105364046,
                0.804486240844761,
                -0.7364148079453587
            ]
        },
        {
            "positions": [
                -0.06044832397309656,
                -0.8746462368507533,
                1.209093773990825,
                1.1020714851339943,
                0.7109539407703693,
                -0.6686177592719129
            ]
        },
        {
            "positions": [
                -0.0399804109699857,
                -0.8646681369264879,
                1.2981195797427163,
                1.2000552597315841,
                0.6174216406959777,
                -0.6008207105984672
            ]
        },
        {
            "positions": [
                -0.01951249796687482,
                -0.8546900370022226,
                1.3871453854946076,
                1.298039034329174,
                0.523889340621586,
                -0.5330236619250214
            ]
        },
        {
            "positions": [
                0.000955415036236057,
                -0.8447119370779571,
                1.476171191246499,
                1.3960228089267637,
                0.43035704054719437,
                -0.46522661325157566
            ]
        },
        {
            "positions": [
                0.021423328039346934,
                -0.8347338371536918,
                1.5651969969983905,
                1.4940065835243534,
                0.33682474047280264,
                -0.3974295645781297
            ]
        },
        {
            "positions": [
                0.04189124104245781,
                -0.8247557372294264,
                1.6542228027502819,
                1.5919903581219432,
                0.24329244039841103,
                -0.329632515904684
            ]
        },
        {
            "positions": [
                0.06235915404556866,
                -0.8147776373051611,
                1.7432486085021732,
                1.6899741327195328,
                0.1497601403240194,
                -0.2618354672312383
            ]
        },
        {
            "positions": [
                0.08282706704867954,
                -0.8047995373808956,
                1.8322744142540646,
                1.7879579073171226,
                0.0562278402496279,
                -0.19403841855779258
            ]
        },
        {
            "positions": [
                0.10329498005179044,
                -0.7948214374566303,
                1.9213002200059561,
                1.8859416819147123,
                -0.03730445982476405,
                -0.12624136988434664
            ]
        },
        {
            "positions": [
                0.12376289305490126,
                -0.7848433375323649,
                2.0103260257578475,
                1.9839254565123021,
                -0.13083675989915564,
                -0.05844432121090094
            ]
        }
    ]
}{
    "goal": {
        "global_pose": {
            "orientation": {
                "w": 0.7047431468963623,
                "x": -0.7094548344612122,
                "y": 0.0024358443915843964,
                "z": -0.0022348060738295317
            },
            "position": {
                "x": 0.6094750761985779,
                "y": 0.3671506643295288,
                "z": 0.19426114857196808
            }
        },
        "name": "move_to_magneteinheit_A"
    },
    "id": "BiEST_move_to_magneteinheit_A_5",
    "joint_names": [
        "shoulder_pan_joint",
        "shoulder_lift_joint",
        "elbow_joint",
        "wrist_1_joint",
        "wrist_2_joint",
        "wrist_3_joint"
    ],
    "metrics": {
        "cart_traj_len": 1.194197566254472,
        "distance_elbow_joint": 0.052867397823320283,
        "distance_shoulder_lift_joint": 0.7582724778665868,
        "distance_shoulder_pan_joint": 1.2407353134238852,
        "distance_wrist_1_joint": 0.9276291303107991,
        "distance_wrist_2_joint": 1.4816767074328379,
        "distance_wrist_3_joint": 4.29183214846411,
        "smoothness": 0.17331067735645647,
        "time": 0.110006249,
        "traj_len": 2.9585491672983126,
        "weighted_distance": 4.4436452727454965
    },
    "planner": "BiEST",
    "start": {
        "state": {
            "elbow_joint": 1.919643534880228,
            "shoulder_lift_joint": -1.8972525353963687,
            "shoulder_pan_joint": -1.1188672234189438,
            "wrist_1_joint": -1.5931878212786155,
            "wrist_2_joint": 1.5706036197970081,
            "wrist_3_joint": 1.118896926603594
        }
    },
    "waypoints": [
        {
            "positions": [
                -1.1188672234189438,
                -1.8972525353963687,
                1.919643534880228,
                -1.5931878212786155,
                1.5706036197970081,
                1.118896926603594
            ]
        },
        {
            "positions": [
                -1.0624629749798848,
                -1.8655005418504054,
                1.9210098605766337,
                -1.5520434287303575,
                1.5007957434048766,
                0.9273292098643053
            ]
        },
        {
            "positions": [
                -1.0060587265408258,
                -1.833748548304442,
                1.9223761862730393,
                -1.5108990361820995,
                1.4309878670127452,
                0.7357614931250167
            ]
        },
        {
            "positions": [
                -0.949654478101767,
                -1.8019965547584784,
                1.923742511969445,
                -1.4697546436338416,
                1.361179990620614,
                0.544193776385728
            ]
        },
        {
            "positions": [
                -0.893250229662708,
                -1.770244561212515,
                1.9251088376658505,
                -1.4286102510855836,
                1.2913721142284824,
                0.35262605964643934
            ]
        },
        {
            "positions": [
                -0.836845981223649,
                -1.7384925676665517,
                1.926475163362256,
                -1.3874658585373256,
                1.221564237836351,
                0.1610583429071507
            ]
        },
        {
            "positions": [
                -0.7804417327845901,
                -1.7067405741205883,
                1.9278414890586617,
                -1.3463214659890677,
                1.1517563614442194,
                -0.03050937383213803
            ]
        },
        {
            "positions": [
                -0.7240374843455311,
                -1.674988580574625,
                1.9292078147550673,
                -1.3051770734408095,
                1.081948485052088,
                -0.22207709057142666
            ]
        },
        {
            "positions": [
                -0.6676332359064721,
                -1.6432365870286616,
                1.930574140451473,
                -1.2640326808925515,
                1.0121406086599567,
                -0.4136448073107153
            ]
        },
        {
            "positions": [
                -0.611228987467413,
                -1.611484593482698,
                1.9319404661478785,
                -1.2228882883442935,
                0.9423327322678251,
                -0.6052125240500039
            ]
        },
        {
            "positions": [
                -0.554824739028354,
                -1.5797325999367346,
                1.9333067918442841,
                -1.1817438957960356,
                0.8725248558756936,
                -0.7967802407892925
            ]
        },
        {
            "positions": [
                -0.49842049058929505,
                -1.5479806063907713,
                1.9346731175406897,
                -1.1405995032477776,
                0.8027169794835621,
                -0.9883479575285816
            ]
        },
        {
            "positions": [
                -0.44201624215023616,
                -1.516228612844808,
                1.9360394432370953,
                -1.0994551106995196,
                0.7329091030914308,
                -1.17991567426787
            ]
        },
        {
            "positions": [
                -0.38561199371117705,
                -1.4844766192988446,
                1.937405768933501,
                -1.0583107181512617,
                0.6631012266992992,
                -1.3714833910071589
            ]
        },
        {
            "positions": [
                -0.32920774527211816,
                -1.452724625752881,
                1.9387720946299065,
                -1.0171663256030037,
                0.5932933503071678,
                -1.5630511077464473
            ]
        },
        {
            "positions": [
                -0.27280349683305916,
                -1.4209726322069176,
                1.9401384203263121,
                -0.9760219330547457,
                0.5234854739150363,
                -1.7546188244857361
            ]
        },
        {
            "positions": [
                -0.21639924839400015,
                -1.3892206386609542,
                1.9415047460227177,
                -0.9348775405064877,
                0.45367759752290504,
                -1.9461865412250245
            ]
        },
        {
            "positions": [
                -0.15999499995494115,
                -1.3574686451149907,
                1.9428710717191233,
                -0.8937331479582297,
                0.38386972113077333,
                -2.137754257964313
            ]
        },
        {
            "positions": [
                -0.10359075151588226,
                -1.3257166515690275,
                1.944237397415529,
                -0.8525887554099718,
                0.31406184473864207,
                -2.3293219747036016
            ]
        },
        {
            "positions": [
                -0.04718650307682326,
                -1.293964658023064,
                1.9456037231119345,
                -0.8114443628617137,
                0.24425396834651059,
                -2.520889691442891
            ]
        },
        {
            "positions": [
                0.00921774536223574,
                -1.2622126644771008,
                1.9469700488083401,
                -0.7702999703134559,
                0.1744460919543791,
                -2.7124574081821793
            ]
        },
        {
            "positions": [
                0.06562199380129466,
                -1.2304606709311372,
                1.9483363745047457,
                -0.7291555777651978,
                0.10463821556224766,
                -2.9040251249214677
            ]
        },
        {
            "positions": [
                0.09374504190311794,
                -1.1847203642304596,
                1.960423653604147,
                -0.7609540211638885,
                0.11249386716128629,
                -3.038480173390992
            ]
        },
        {
            "positions": [
                0.12186809000494123,
                -1.138980057529782,
                1.9725109327035484,
                -0.7927524645625792,
                0.12034951876032493,
                -3.172935221860516
            ]
        }
    ]
}