{
    "goal": {
        "global_pose": {
            "orientation": {
                "w": 0.7047431468963623,
                "x": -0.7094548344612122,
                "y": 0.0024358443915843964,
                "z": -0.0022348060738295317
            },
            "position": {
                "x": 0.6094750761985779,
                "y": 0.3671506643295288,
                "z": 0.19426114857196808
            }
        },
        "name": "move_to_magneteinheit_A"
    },
    "id": "BiEST_move_to_magneteinheit_A_135",
    "joint_names": [
        "shoulder_pan_joint",
        "shoulder_lift_joint",
        "elbow_joint",
        "wrist_1_joint",
        "wrist_2_joint",
        "wrist_3_joint"
    ],
    "metrics": {
        "cart_traj_len": 4.079467052437857,
        "distance_elbow_joint": 3.9199820579368554,
        "distance_shoulder_lift_joint": 3.0293483506713246,
        "distance_shoulder_pan_joint": 5.643849369763528,
        "distance_wrist_1_joint": 3.49580199861998,
        "distance_wrist_2_joint": 1.4413918950030897,
        "distance_wrist_3_joint": 4.135031845799368,
        "smoothness": 0.2536732026481642,
        "time": 0.11670312599999999,
        "traj_len": 4.654611210165051,
        "weighted_distance": 5.905308044718408
    },
    "planner": "BiEST",
    "start": {
        "state": {
            "elbow_joint": -1.919618573717145,
            "shoulder_lift_joint": -1.2443395971678275,
            "shoulder_pan_joint": 2.6996025300909787,
            "wrist_1_joint": -1.548550951253194,
            "wrist_2_joint": -1.5709469090946802,
            "wrist_3_joint": 0.4420197732051276
        }
    },
    "waypoints": [
        {
            "positions": [
                2.6996025300909787,
                -1.2443395971678275,
                -1.919618573717145,
                -1.548550951253194,
                -1.5709469090946802,
                0.4420197732051276
            ]
        },
        {
            "positions": [
                2.582166852139876,
                -1.2809817358170321,
                -1.8401274836009607,
                -1.4871101341410387,
                -1.532559340796479,
                0.49452341905231456
            ]
        },
        {
            "positions": [
                2.464731174188773,
                -1.3176238744662365,
                -1.7606363934847766,
                -1.4256693170288832,
                -1.4941717724982777,
                0.5470270648995015
            ]
        },
        {
            "positions": [
                2.3472954962376704,
                -1.3542660131154411,
                -1.6811453033685924,
                -1.3642284999167278,
                -1.4557842042000766,
                0.5995307107466885
            ]
        },
        {
            "positions": [
                2.2298598182865677,
                -1.3909081517646458,
                -1.6016542132524083,
                -1.3027876828045726,
                -1.4173966359018753,
                0.6520343565938754
            ]
        },
        {
            "positions": [
                2.1124241403354653,
                -1.4275502904138502,
                -1.522163123136224,
                -1.2413468656924171,
                -1.3790090676036741,
                0.7045380024410623
            ]
        },
        {
            "positions": [
                1.9949884623843626,
                -1.4641924290630548,
                -1.44267203302004,
                -1.1799060485802617,
                -1.340621499305473,
                0.7570416482882494
            ]
        },
        {
            "positions": [
                1.8775527844332598,
                -1.5008345677122594,
                -1.3631809429038557,
                -1.1184652314681063,
                -1.3022339310072717,
                0.8095452941354363
            ]
        },
        {
            "positions": [
                1.760117106482157,
                -1.5374767063614638,
                -1.2836898527876714,
                -1.057024414355951,
                -1.2638463627090706,
                0.8620489399826232
            ]
        },
        {
            "positions": [
                1.6426814285310545,
                -1.5741188450106685,
                -1.2041987626714874,
                -0.9955835972437956,
                -1.2254587944108692,
                0.9145525858298101
            ]
        },
        {
            "positions": [
                1.5252457505799517,
                -1.610760983659873,
                -1.1247076725553031,
                -0.9341427801316402,
                -1.1870712261126681,
                0.9670562316769971
            ]
        },
        {
            "positions": [
                1.407810072628849,
                -1.6474031223090777,
                -1.045216582439119,
                -0.8727019630194848,
                -1.148683657814467,
                1.019559877524184
            ]
        },
        {
            "positions": [
                1.2903743946777462,
                -1.684045260958282,
                -0.9657254923229348,
                -0.8112611459073293,
                -1.1102960895162657,
                1.0720635233713711
            ]
        },
        {
            "positions": [
                1.1729387167266434,
                -1.7206873996074867,
                -0.8862344022067505,
                -0.7498203287951739,
                -1.0719085212180646,
                1.124567169218558
            ]
        },
        {
            "positions": [
                1.0555030387755406,
                -1.7573295382566911,
                -0.8067433120905663,
                -0.6883795116830185,
                -1.0335209529198632,
                1.177070815065745
            ]
        },
        {
            "positions": [
                0.9380673608244381,
                -1.7939716769058958,
                -0.7272522219743822,
                -0.6269386945708633,
                -0.9951333846216621,
                1.2295744609129318
            ]
        },
        {
            "positions": [
                0.8206316828733353,
                -1.8306138155551004,
                -0.6477611318581982,
                -0.5654978774587078,
                -0.9567458163234609,
                1.2820781067601188
            ]
        },
        {
            "positions": [
                0.7031960049222326,
                -1.867255954204305,
                -0.5682700417420139,
                -0.5040570603465524,
                -0.9183582480252597,
                1.3345817526073058
            ]
        },
        {
            "positions": [
                0.5857603269711302,
                -1.9038980928535094,
                -0.48877895162582985,
                -0.4426162432343972,
                -0.8799706797270586,
                1.3870853984544926
            ]
        },
        {
            "positions": [
                0.46832464902002746,
                -1.940540231502714,
                -0.4092878615096456,
                -0.38117542612224176,
                -0.8415831114288573,
                1.4395890443016797
            ]
        },
        {
            "positions": [
                0.3508889710689247,
                -1.9771823701519184,
                -0.3297967713934613,
                -0.3197346090100863,
                -0.8031955431306561,
                1.4920926901488667
            ]
        },
        {
            "positions": [
                0.23345329311782193,
                -2.013824508801123,
                -0.25030568127727726,
                -0.2582937918979309,
                -0.7648079748324549,
                1.5445963359960537
            ]
        },
        {
            "positions": [
                0.11601761516671916,
                -2.0504666474503277,
                -0.170814591161093,
                -0.19685297478577546,
                -0.7264204065342538,
                1.5970999818432405
            ]
        },
        {
            "positions": [
                -0.0014180627843836113,
                -2.0871087860995323,
                -0.09132350104490872,
                -0.13541215767362003,
                -0.6880328382360525,
                1.6496036276904276
            ]
        },
        {
            "positions": [
                -0.11885374073548638,
                -2.123750924748737,
                -0.011832410928724668,
                -0.0739713405614646,
                -0.6496452699378513,
                1.7021072735376146
            ]
        },
        {
            "positions": [
                -0.23628941868658915,
                -2.160393063397941,
                0.0676586791874596,
                -0.012530523449309161,
                -0.6112577016396501,
                1.7546109193848016
            ]
        },
        {
            "positions": [
                -0.3537250966376919,
                -2.1970352020471458,
                0.14714976930364387,
                0.04891029366284627,
                -0.5728701333414489,
                1.8071145652319884
            ]
        },
        {
            "positions": [
                -0.4711607745887947,
                -2.2336773406963504,
                0.22664085941982814,
                0.1103511107750017,
                -0.5344825650432476,
                1.8596182110791755
            ]
        },
        {
            "positions": [
                -0.5885964525398975,
                -2.270319479345555,
                0.3061319495360124,
                0.17179192788715714,
                -0.49609499674504653,
                1.9121218569263625
            ]
        },
        {
            "positions": [
                -0.7060321304910002,
                -2.3069616179947596,
                0.3856230396521967,
                0.23323274499931257,
                -0.4577074284468452,
                1.9646255027735495
            ]
        },
        {
            "positions": [
                -0.8234678084421025,
                -2.3436037566439643,
                0.4651141297683805,
                0.29467356211146756,
                -0.4193198601486441,
                2.017129148620736
            ]
        },
        {
            "positions": [
                -0.9409034863932053,
                -2.380245895293169,
                0.5446052198845648,
                0.356114379223623,
                -0.38093229185044297,
                2.069632794467923
            ]
        },
        {
            "positions": [
                -1.058339164344308,
                -2.4168880339423735,
                0.6240963100007486,
                0.4175551963357784,
                -0.34254472355224164,
                2.12213644031511
            ]
        },
        {
            "positions": [
                -1.1757748422954108,
                -2.453530172591578,
                0.7035874001169329,
                0.47899601344793385,
                -0.3041571552540405,
                2.174640086162297
            ]
        },
        {
            "positions": [
                -1.2932105202465136,
                -2.4901723112407823,
                0.7830784902331172,
                0.5404368305600893,
                -0.2657695869558392,
                2.227143732009484
            ]
        },
        {
            "positions": [
                -1.4106461981976166,
                -2.526814449889987,
                0.8625695803493015,
                0.6018776476722447,
                -0.2273820186576381,
                2.279647377856671
            ]
        },
        {
            "positions": [
                -1.33761759622262,
                -2.4436299976066933,
                0.9167502424383687,
                0.6659430476576991,
                -0.22272358986877866,
                2.170247175897251
            ]
        },
        {
            "positions": [
                -1.2645889942476236,
                -2.3604455453234,
                0.9709309045274358,
                0.7300084476431534,
                -0.2180651610799192,
                2.0608469739378306
            ]
        },
        {
            "positions": [
                -1.191560392272627,
                -2.2772610930401065,
                1.025111566616503,
                0.7940738476286077,
                -0.21340673229105975,
                1.9514467719784103
            ]
        },
        {
            "positions": [
                -1.1185317902976304,
                -2.194076640756813,
                1.07929222870557,
                0.858139247614062,
                -0.20874830350220028,
                1.84204657001899
            ]
        },
        {
            "positions": [
                -1.0455031883226338,
                -2.1108921884735192,
                1.133472890794637,
                0.9222046475995164,
                -0.20408987471334084,
                1.7326463680595698
            ]
        },
        {
            "positions": [
                -0.9724745863476373,
                -2.0277077361902256,
                1.1876535528837042,
                0.9862700475849706,
                -0.19943144592448137,
                1.6232461661001496
            ]
        },
        {
            "positions": [
                -0.8994459843726408,
                -1.9445232839069324,
                1.2418342149727715,
                1.050335447570425,
                -0.19477301713562192,
                1.5138459641407294
            ]
        },
        {
            "positions": [
                -0.8264173823976442,
                -1.8613388316236388,
                1.2960148770618385,
                1.1144008475558793,
                -0.19011458834676245,
                1.4044457621813091
            ]
        },
        {
            "positions": [
                -0.7533887804226477,
                -1.7781543793403451,
                1.3501955391509055,
                1.1784662475413337,
                -0.185456159557903,
                1.2950455602218889
            ]
        },
        {
            "positions": [
                -0.6803601784476511,
                -1.6949699270570517,
                1.4043762012399728,
                1.242531647526788,
                -0.18079773076904354,
                1.1856453582624686
            ]
        },
        {
            "positions": [
                -0.6073315764726545,
                -1.611785474773758,
                1.45855686332904,
                1.3065970475122424,
                -0.1761393019801841,
                1.0762451563030484
            ]
        },
        {
            "positions": [
                -0.534302974497658,
                -1.5286010224904647,
                1.5127375254181068,
                1.3706624474976965,
                -0.17148087319132466,
                0.9668449543436282
            ]
        },
        {
            "positions": [
                -0.46127437252266135,
                -1.445416570207171,
                1.566918187507174,
                1.434727847483151,
                -0.1668224444024652,
                0.8574447523842079
            ]
        },
        {
            "positions": [
                -0.38824577054766496,
                -1.3622321179238777,
                1.6210988495962413,
                1.4987932474686052,
                -0.16216401561360572,
                0.7480445504247877
            ]
        },
        {
            "positions": [
                -0.3152171685726681,
                -1.279047665640584,
                1.6752795116853083,
                1.5628586474540596,
                -0.15750558682474627,
                0.6386443484653674
            ]
        },
        {
            "positions": [
                -0.24218856659767174,
                -1.1958632133572906,
                1.7294601737743753,
                1.626924047439514,
                -0.15284715803588683,
                0.5292441465059472
            ]
        },
        {
            "positions": [
                -0.16915996462267513,
                -1.112678761073997,
                1.7836408358634426,
                1.6909894474249683,
                -0.14818872924702736,
                0.41984394454652696
            ]
        },
        {
            "positions": [
                -0.09613136264767874,
                -1.0294943087907036,
                1.8378214979525096,
                1.7550548474104226,
                -0.1435303004581679,
                0.3104437425871067
            ]
        },
        {
            "positions": [
                -0.02310276067268191,
                -0.94630985650741,
                1.8920021600415766,
                1.819120247395877,
                -0.13887187166930845,
                0.20104354062768648
            ]
        },
        {
            "positions": [
                0.04992584130231448,
                -0.8631254042241165,
                1.9461828221306439,
                1.8831856473813313,
                -0.134213442880449,
                0.09164333866826624
            ]
        },
        {
            "positions": [
                0.12295444327731116,
                -0.7799409519408229,
                2.000363484219711,
                1.9472510473667857,
                -0.12955501409158954,
                -0.017756863291153963
            ]
        }
    ]
}{
    "goal": {
        "global_pose": {
            "orientation": {
                "w": 0.7047431468963623,
                "x": -0.7094548344612122,
                "y": 0.0024358443915843964,
                "z": -0.0022348060738295317
            },
            "position": {
                "x": 0.6094750761985779,
                "y": 0.3671506643295288,
                "z": 0.19426114857196808
            }
        },
        "name": "move_to_magneteinheit_A"
    },
    "id": "BiEST_move_to_magneteinheit_A_135",
    "joint_names": [
        "shoulder_pan_joint",
        "shoulder_lift_joint",
        "elbow_joint",
        "wrist_1_joint",
        "wrist_2_joint",
        "wrist_3_joint"
    ],
    "metrics": {
        "cart_traj_len": 1.1984506667604653,
        "distance_elbow_joint": 0.066100120740608,
        "distance_shoulder_lift_joint": 0.7500803765868878,
        "distance_shoulder_pan_joint": 1.2421885778128856,
        "distance_wrist_1_joint": 0.7466618232333179,
        "distance_wrist_2_joint": 1.4436859061848875,
        "distance_wrist_3_joint": 2.027565356621829,
        "smoothness": 5.747036864124084e-16,
        "time": 0.07616325700000001,
        "traj_len": 2.505250917808517,
        "weighted_distance": 3.538609981877386
    },
    "planner": "BiEST",
    "start": {
        "state": {
            "elbow_joint": 1.919643534880228,
            "shoulder_lift_joint": -1.8972525353963687,
            "shoulder_pan_joint": -1.1188672234189438,
            "wrist_1_joint": -1.5931878212786155,
            "wrist_2_joint": 1.5706036197970081,
            "wrist_3_joint": 1.118896926603594
        }
    },
    "waypoints": [
        {
            "positions": [
                -1.1188672234189438,
                -1.8972525353963687,
                1.919643534880228,
                -1.5931878212786155,
                1.5706036197970081,
                1.118896926603594
            ]
        },
        {
            "positions": [
                -1.0412304373056385,
                -1.8503725118596883,
                1.923774792426516,
                -1.5465214573265331,
                1.4803732506604526,
                1.2456197613924582
            ]
        },
        {
            "positions": [
                -0.9635936511923331,
                -1.8034924883230077,
                1.927906049972804,
                -1.4998550933744508,
                1.3901428815238972,
                1.3723425961813227
            ]
        },
        {
            "positions": [
                -0.8859568650790278,
                -1.7566124647863273,
                1.9320373075190922,
                -1.4531887294223684,
                1.2999125123873418,
                1.499065430970187
            ]
        },
        {
            "positions": [
                -0.8083200789657224,
                -1.7097324412496469,
                1.9361685650653802,
                -1.406522365470286,
                1.2096821432507863,
                1.6257882657590512
            ]
        },
        {
            "positions": [
                -0.7306832928524171,
                -1.6628524177129664,
                1.9402998226116681,
                -1.3598560015182035,
                1.1194517741142307,
                1.7525111005479155
            ]
        },
        {
            "positions": [
                -0.6530465067391118,
                -1.6159723941762858,
                1.944431080157956,
                -1.3131896375661212,
                1.0292214049776753,
                1.8792339353367797
            ]
        },
        {
            "positions": [
                -0.5754097206258064,
                -1.5690923706396054,
                1.948562337704244,
                -1.2665232736140388,
                0.9389910358411199,
                2.0059567701256444
            ]
        },
        {
            "positions": [
                -0.49777293451250104,
                -1.5222123471029247,
                1.952693595250532,
                -1.2198569096619565,
                0.8487606667045644,
                2.1326796049145083
            ]
        },
        {
            "positions": [
                -0.42013614839919566,
                -1.4753323235662443,
                1.9568248527968202,
                -1.1731905457098741,
                0.7585302975680089,
                2.259402439703373
            ]
        },
        {
            "positions": [
                -0.3424993622858903,
                -1.428452300029564,
                1.9609561103431081,
                -1.1265241817577918,
                0.6682999284314535,
                2.3861252744922368
            ]
        },
        {
            "positions": [
                -0.264862576172585,
                -1.3815722764928835,
                1.965087367889396,
                -1.0798578178057094,
                0.578069559294898,
                2.5128481092811015
            ]
        },
        {
            "positions": [
                -0.18722579005927964,
                -1.3346922529562029,
                1.969218625435684,
                -1.033191453853627,
                0.48783919015834254,
                2.6395709440699657
            ]
        },
        {
            "positions": [
                -0.10958900394597437,
                -1.2878122294195224,
                1.973349882981972,
                -0.9865250899015447,
                0.39760882102178696,
                2.76629377885883
            ]
        },
        {
            "positions": [
                -0.031952217832668994,
                -1.2409322058828418,
                1.9774811405282602,
                -0.9398587259494623,
                0.3073784518852316,
                2.8930166136476947
            ]
        },
        {
            "positions": [
                0.045684568280636384,
                -1.1940521823461614,
                1.9816123980745481,
                -0.89319236199738,
                0.21714808274867625,
                3.0197394484365585
            ]
        },
        {
            "positions": [
                0.12332135439394175,
                -1.147172158809481,
                1.985743655620836,
                -0.8465259980452976,
                0.12691771361212062,
                3.146462283225423
            ]
        }
    ]
}