{
    "goal": {
        "global_pose": {
            "orientation": {
                "w": 0.5084816217422485,
                "x": -0.49083608388900757,
                "y": 0.5182115435600281,
                "z": -0.4816462993621826
            },
            "position": {
                "x": 0.5540239810943604,
                "y": 0.030875300988554955,
                "z": 0.16403168439865112
            }
        },
        "name": "move_to_storage_A"
    },
    "id": "BiEST_move_to_storage_A_76",
    "joint_names": [
        "shoulder_pan_joint",
        "shoulder_lift_joint",
        "elbow_joint",
        "wrist_1_joint",
        "wrist_2_joint",
        "wrist_3_joint"
    ],
    "metrics": {
        "cart_traj_len": 0.3525837827746725,
        "distance_elbow_joint": 0.4524058642890165,
        "distance_shoulder_lift_joint": 0.23427980298828865,
        "distance_shoulder_pan_joint": 0.4568234936181554,
        "distance_wrist_1_joint": 0.25308031709111944,
        "distance_wrist_2_joint": 1.1163352382144747,
        "distance_wrist_3_joint": 0.10910160747987074,
        "smoothness": 1.1102230298998083e-15,
        "time": 0.073327165,
        "traj_len": 1.6192672181208774,
        "weighted_distance": 2.0517419657321097
    },
    "planner": "BiEST",
    "start": {
        "state": {
            "elbow_joint": 1.9715477243005601,
            "shoulder_lift_joint": -1.1394853015351272,
            "shoulder_pan_joint": 0.12281154014795169,
            "wrist_1_joint": -0.7804696478968182,
            "wrist_2_joint": 0.12958648046900423,
            "wrist_3_joint": -3.192491284697111
        }
    },
    "waypoints": [
        {
            "positions": [
                0.12281154014795169,
                -1.1394853015351272,
                1.9715477243005601,
                -0.7804696478968182,
                0.12958648046900423,
                -3.192491284697111
            ]
        },
        {
            "positions": [
                0.05755104105964379,
                -1.1729538448191683,
                2.0361771334847054,
                -0.8166239789098352,
                0.28906294307107205,
                -3.176905340771415
            ]
        },
        {
            "positions": [
                -0.007709458028664115,
                -1.2064223881032097,
                2.1008065426688507,
                -0.8527783099228523,
                0.4485394056731398,
                -3.1613193968457196
            ]
        },
        {
            "positions": [
                -0.07296995711697203,
                -1.2398909313872508,
                2.165435951852996,
                -0.8889326409358693,
                0.6080158682752077,
                -3.1457334529200236
            ]
        },
        {
            "positions": [
                -0.1382304562052799,
                -1.2733594746712922,
                2.230065361037141,
                -0.9250869719488864,
                0.7674923308772754,
                -3.130147508994328
            ]
        },
        {
            "positions": [
                -0.20349095529358785,
                -1.3068280179553333,
                2.294694770221286,
                -0.9612413029619035,
                0.9269687934793432,
                -3.114561565068632
            ]
        },
        {
            "positions": [
                -0.26875145438189574,
                -1.3402965612393745,
                2.3593241794054314,
                -0.9973956339749206,
                1.086445256081411,
                -3.0989756211429365
            ]
        },
        {
            "positions": [
                -0.3340119534702037,
                -1.3737651045234158,
                2.4239535885895767,
                -1.0335499649879376,
                1.2459217186834788,
                -3.0833896772172404
            ]
        }
    ]
}