{
    "goal": {
        "global_pose": {
            "orientation": {
                "w": 0.7047431468963623,
                "x": -0.7094548344612122,
                "y": 0.0024358443915843964,
                "z": -0.0022348060738295317
            },
            "position": {
                "x": 0.6094750761985779,
                "y": 0.3671506643295288,
                "z": 0.19426114857196808
            }
        },
        "name": "move_to_magneteinheit_A"
    },
    "id": "BiEST_move_to_magneteinheit_A_40",
    "joint_names": [
        "shoulder_pan_joint",
        "shoulder_lift_joint",
        "elbow_joint",
        "wrist_1_joint",
        "wrist_2_joint",
        "wrist_3_joint"
    ],
    "metrics": {
        "cart_traj_len": 3.3474918235391318,
        "distance_elbow_joint": 3.918929122139393,
        "distance_shoulder_lift_joint": 0.46594693458129943,
        "distance_shoulder_pan_joint": 3.634202462784704,
        "distance_wrist_1_joint": 3.4853461476606222,
        "distance_wrist_2_joint": 1.4357644985216202,
        "distance_wrist_3_joint": 0.45168511966623026,
        "smoothness": 0.15889944561708116,
        "time": 0.096462995,
        "traj_len": 3.6594909871939665,
        "weighted_distance": 4.383646332776925
    },
    "planner": "BiEST",
    "start": {
        "state": {
            "elbow_joint": -1.919618573717145,
            "shoulder_lift_joint": -1.2443395971678275,
            "shoulder_pan_joint": 2.6996025300909787,
            "wrist_1_joint": -1.548550951253194,
            "wrist_2_joint": -1.5709469090946802,
            "wrist_3_joint": 0.4420197732051276
        }
    },
    "waypoints": [
        {
            "positions": [
                2.6996025300909787,
                -1.2443395971678275,
                -1.919618573717145,
                -1.548550951253194,
                -1.5709469090946802,
                0.4420197732051276
            ]
        },
        {
            "positions": [
                2.5845817955429182,
                -1.244164279349932,
                -1.7866803462363186,
                -1.4583020773034772,
                -1.52778174604368,
                0.4394888553493773
            ]
        },
        {
            "positions": [
                2.469561060994858,
                -1.2439889615320365,
                -1.653742118755492,
                -1.3680532033537602,
                -1.48461658299268,
                0.43695793749362705
            ]
        },
        {
            "positions": [
                2.3545403264467977,
                -1.243813643714141,
                -1.5208038912746655,
                -1.2778043294040435,
                -1.44145141994168,
                0.4344270196378767
            ]
        },
        {
            "positions": [
                2.2395195918987376,
                -1.2436383258962456,
                -1.3878656637938391,
                -1.1875554554543266,
                -1.3982862568906798,
                0.43189610178212645
            ]
        },
        {
            "positions": [
                2.124498857350677,
                -1.24346300807835,
                -1.2549274363130125,
                -1.0973065815046097,
                -1.3551210938396798,
                0.4293651839263762
            ]
        },
        {
            "positions": [
                2.0094781228026166,
                -1.2432876902604546,
                -1.121989208832186,
                -1.007057707554893,
                -1.3119559307886797,
                0.4268342660706259
            ]
        },
        {
            "positions": [
                1.8944573882545566,
                -1.243112372442559,
                -0.9890509813513595,
                -0.916808833605176,
                -1.2687907677376797,
                0.4243033482148756
            ]
        },
        {
            "positions": [
                1.779436653706496,
                -1.2429370546246636,
                -0.8561127538705331,
                -0.8265599596554591,
                -1.2256256046866796,
                0.4217724303591253
            ]
        },
        {
            "positions": [
                1.664415919158436,
                -1.242761736806768,
                -0.7231745263897065,
                -0.7363110857057422,
                -1.1824604416356794,
                0.41924151250337505
            ]
        },
        {
            "positions": [
                1.5493951846103755,
                -1.2425864189888727,
                -0.5902362989088801,
                -0.6460622117560254,
                -1.1392952785846795,
                0.4167105946476248
            ]
        },
        {
            "positions": [
                1.4343744500623152,
                -1.242411101170977,
                -0.45729807142805345,
                -0.5558133378063085,
                -1.0961301155336793,
                0.4141796767918745
            ]
        },
        {
            "positions": [
                1.319353715514255,
                -1.2422357833530817,
                -0.32435984394722706,
                -0.46556446385659167,
                -1.0529649524826792,
                0.4116487589361242
            ]
        },
        {
            "positions": [
                1.2043329809661947,
                -1.2420604655351861,
                -0.19142161646640066,
                -0.37531558990687475,
                -1.0097997894316793,
                0.4091178410803739
            ]
        },
        {
            "positions": [
                1.0893122464181344,
                -1.2418851477172907,
                -0.058483388985574036,
                -0.2850667159571578,
                -0.9666346263806791,
                0.40658692322462364
            ]
        },
        {
            "positions": [
                0.9742915118700739,
                -1.2417098298993952,
                0.07445483849525258,
                -0.1948178420074409,
                -0.9234694633296789,
                0.40405600536887337
            ]
        },
        {
            "positions": [
                0.8592707773220136,
                -1.2415345120814998,
                0.20739306597607876,
                -0.1045689680577242,
                -0.8803043002786789,
                0.4015250875131231
            ]
        },
        {
            "positions": [
                0.7442500427739533,
                -1.2413591942636042,
                0.3403312934569056,
                -0.014320094108007275,
                -0.8371391372276787,
                0.3989941696573728
            ]
        },
        {
            "positions": [
                0.6292293082258933,
                -1.2411838764457088,
                0.473269520937732,
                0.07592877984170965,
                -0.7939739741766787,
                0.3964632518016225
            ]
        },
        {
            "positions": [
                0.5142085736778328,
                -1.2410085586278132,
                0.6062077484185584,
                0.16617765379142657,
                -0.7508088111256785,
                0.39393233394587224
            ]
        },
        {
            "positions": [
                0.3991878391297723,
                -1.2408332408099179,
                0.7391459758993848,
                0.2564265277411433,
                -0.7076436480746786,
                0.39140141609012197
            ]
        },
        {
            "positions": [
                0.2841671045817118,
                -1.2406579229920223,
                0.8720842033802116,
                0.3466754016908602,
                -0.6644784850236785,
                0.38887049823437164
            ]
        },
        {
            "positions": [
                0.16914637003365174,
                -1.240482605174127,
                1.005022430861038,
                0.4369242756405771,
                -0.6213133219726784,
                0.38633958037862137
            ]
        },
        {
            "positions": [
                0.05412563548559124,
                -1.2403072873562313,
                1.1379606583418644,
                0.5271731495902938,
                -0.5781481589216783,
                0.3838086625228711
            ]
        },
        {
            "positions": [
                -0.060895099062468816,
                -1.240131969538336,
                1.2708988858226908,
                0.6174220235400107,
                -0.5349829958706782,
                0.38127774466712083
            ]
        },
        {
            "positions": [
                -0.17591583361052932,
                -1.2399566517204403,
                1.4038371133035177,
                0.7076708974897277,
                -0.49181783281967806,
                0.3787468268113705
            ]
        },
        {
            "positions": [
                -0.29093656815858937,
                -1.239781333902545,
                1.5367753407843436,
                0.7979197714394446,
                -0.4486526697686781,
                0.37621590895562024
            ]
        },
        {
            "positions": [
                -0.40595730270665,
                -1.2396060160846494,
                1.6697135682651705,
                0.8881686453891616,
                -0.40548750671767786,
                0.37368499109986997
            ]
        },
        {
            "positions": [
                -0.33987697395826577,
                -1.1819543468973843,
                1.7109131907848054,
                1.019246964266445,
                -0.37169936969960055,
                0.3257661989047484
            ]
        },
        {
            "positions": [
                -0.27379664520988156,
                -1.124302677710119,
                1.7521128133044401,
                1.1503252831437283,
                -0.33791123268152323,
                0.2778474067096268
            ]
        },
        {
            "positions": [
                -0.20771631646149735,
                -1.0666510085228538,
                1.793312435824075,
                1.2814036020210116,
                -0.304123095663446,
                0.22992861451450522
            ]
        },
        {
            "positions": [
                -0.14163598771311314,
                -1.0089993393355887,
                1.83451205834371,
                1.412481920898295,
                -0.27033495864536866,
                0.18200982231938365
            ]
        },
        {
            "positions": [
                -0.07555565896472893,
                -0.9513476701483236,
                1.8757116808633447,
                1.5435602397755783,
                -0.23654682162729135,
                0.13409103012426207
            ]
        },
        {
            "positions": [
                -0.009475330216344724,
                -0.8936960009610584,
                1.9169113033829797,
                1.6746385586528616,
                -0.20275868460921406,
                0.08617223792914047
            ]
        },
        {
            "positions": [
                0.056604998532039486,
                -0.8360443317737932,
                1.9581109259026146,
                1.8057168775301449,
                -0.16897054759113678,
                0.0382534457340189
            ]
        },
        {
            "positions": [
                0.12268532728042375,
                -0.7783926625865281,
                1.9993105484222493,
                1.9367951964074281,
                -0.13518241057305946,
                -0.009665346461102663
            ]
        }
    ]
}{
    "goal": {
        "global_pose": {
            "orientation": {
                "w": 0.7047431468963623,
                "x": -0.7094548344612122,
                "y": 0.0024358443915843964,
                "z": -0.0022348060738295317
            },
            "position": {
                "x": 0.6094750761985779,
                "y": 0.3671506643295288,
                "z": 0.19426114857196808
            }
        },
        "name": "move_to_magneteinheit_A"
    },
    "id": "BiEST_move_to_magneteinheit_A_40",
    "joint_names": [
        "shoulder_pan_joint",
        "shoulder_lift_joint",
        "elbow_joint",
        "wrist_1_joint",
        "wrist_2_joint",
        "wrist_3_joint"
    ],
    "metrics": {
        "cart_traj_len": 1.8131847362197615,
        "distance_elbow_joint": 0.6986286863462323,
        "distance_shoulder_lift_joint": 1.1927428616522318,
        "distance_shoulder_pan_joint": 1.4421303287202496,
        "distance_wrist_1_joint": 0.7352390316261986,
        "distance_wrist_2_joint": 1.4449020602897837,
        "distance_wrist_3_joint": 4.25160256411781,
        "smoothness": 0.28939128614141924,
        "time": 0.084464686,
        "traj_len": 3.124939284650585,
        "weighted_distance": 4.522011914281531
    },
    "planner": "BiEST",
    "start": {
        "state": {
            "elbow_joint": 1.919643534880228,
            "shoulder_lift_joint": -1.8972525353963687,
            "shoulder_pan_joint": -1.1188672234189438,
            "wrist_1_joint": -1.5931878212786155,
            "wrist_2_joint": 1.5706036197970081,
            "wrist_3_joint": 1.118896926603594
        }
    },
    "waypoints": [
        {
            "positions": [
                -1.1188672234189438,
                -1.8972525353963687,
                1.919643534880228,
                -1.5931878212786155,
                1.5706036197970081,
                1.118896926603594
            ]
        },
        {
            "positions": [
                -1.1389414495261718,
                -1.9414811829567307,
                1.8565877176021421,
                -1.5839896512480702,
                1.5448669302750873,
                0.9580149537344461
            ]
        },
        {
            "positions": [
                -1.1590156756334,
                -1.9857098305170926,
                1.7935319003240562,
                -1.574791481217525,
                1.5191302407531664,
                0.7971329808652983
            ]
        },
        {
            "positions": [
                -1.179089901740628,
                -2.0299384780774545,
                1.73047608304597,
                -1.5655933111869798,
                1.4933935512312457,
                0.6362510079961504
            ]
        },
        {
            "positions": [
                -1.1991641278478562,
                -2.0741671256378167,
                1.667420265767884,
                -1.5563951411564345,
                1.4676568617093249,
                0.47536903512700257
            ]
        },
        {
            "positions": [
                -1.2192383539550842,
                -2.1183957731981784,
                1.604364448489798,
                -1.5471969711258893,
                1.441920172187404,
                0.3144870622578547
            ]
        },
        {
            "positions": [
                -1.15534505880346,
                -2.0721291244433964,
                1.6226191913448362,
                -1.514375629150962,
                1.3792430953931096,
                0.15033502893537515
            ]
        },
        {
            "positions": [
                -1.0914517636518357,
                -2.0258624756886143,
                1.6408739341998746,
                -1.4815542871760348,
                1.3165660185988155,
                -0.013817004387104426
            ]
        },
        {
            "positions": [
                -1.0275584685002115,
                -1.9795958269338323,
                1.6591286770549127,
                -1.4487329452011075,
                1.2538889418045212,
                -0.177969037709584
            ]
        },
        {
            "positions": [
                -0.9636651733485873,
                -1.9333291781790505,
                1.6773834199099509,
                -1.4159116032261803,
                1.191211865010227,
                -0.3421210710320636
            ]
        },
        {
            "positions": [
                -0.8997718781969629,
                -1.8870625294242684,
                1.695638162764989,
                -1.383090261251253,
                1.1285347882159327,
                -0.5062731043545431
            ]
        },
        {
            "positions": [
                -0.8358785830453387,
                -1.8407958806694864,
                1.7138929056200274,
                -1.3502689192763258,
                1.0658577114216383,
                -0.6704251376770227
            ]
        },
        {
            "positions": [
                -0.7719852878937145,
                -1.7945292319147044,
                1.7321476484750655,
                -1.3174475773013985,
                1.0031806346273442,
                -0.8345771709995023
            ]
        },
        {
            "positions": [
                -0.7080919927420902,
                -1.7482625831599223,
                1.7504023913301037,
                -1.2846262353264712,
                0.9405035578330498,
                -0.9987292043219819
            ]
        },
        {
            "positions": [
                -0.644198697590466,
                -1.7019959344051405,
                1.7686571341851418,
                -1.251804893351544,
                0.8778264810387556,
                -1.1628812376444615
            ]
        },
        {
            "positions": [
                -0.5803054024388417,
                -1.6557292856503585,
                1.7869118770401802,
                -1.2189835513766167,
                0.8151494042444614,
                -1.327033270966941
            ]
        },
        {
            "positions": [
                -0.5164121072872174,
                -1.6094626368955764,
                1.8051666198952183,
                -1.1861622094016895,
                0.752472327450167,
                -1.491185304289421
            ]
        },
        {
            "positions": [
                -0.4525188121355932,
                -1.5631959881407944,
                1.8234213627502565,
                -1.1533408674267622,
                0.6897952506558729,
                -1.6553373376119
            ]
        },
        {
            "positions": [
                -0.38862551698396886,
                -1.5169293393860124,
                1.8416761056052948,
                -1.1205195254518348,
                0.6271181738615785,
                -1.81948937093438
            ]
        },
        {
            "positions": [
                -0.32473222183234474,
                -1.4706626906312303,
                1.859930848460333,
                -1.0876981834769077,
                0.5644410970672843,
                -1.9836414042568595
            ]
        },
        {
            "positions": [
                -0.2608389266807204,
                -1.4243960418764483,
                1.878185591315371,
                -1.0548768415019802,
                0.5017640202729899,
                -2.147793437579339
            ]
        },
        {
            "positions": [
                -0.19694563152909628,
                -1.3781293931216663,
                1.8964403341704092,
                -1.0220554995270532,
                0.4390869434786957,
                -2.3119454709018186
            ]
        },
        {
            "positions": [
                -0.13305233637747182,
                -1.3318627443668842,
                1.9146950770254476,
                -0.9892341575521258,
                0.37640986668440135,
                -2.4760975042242985
            ]
        },
        {
            "positions": [
                -0.06915904122584782,
                -1.2855960956121024,
                1.9329498198804858,
                -0.9564128155771986,
                0.3137327898901072,
                -2.6402495375467776
            ]
        },
        {
            "positions": [
                -0.005265746074223365,
                -1.2393294468573202,
                1.9512045627355241,
                -0.9235914736022713,
                0.25105571309581287,
                -2.8044015708692576
            ]
        },
        {
            "positions": [
                0.058627549077400865,
                -1.1930627981025383,
                1.9694593055905623,
                -0.8907701316273441,
                0.18837863630151874,
                -2.9685536041917366
            ]
        },
        {
            "positions": [
                0.12252084422902508,
                -1.1467961493477563,
                1.9877140484456004,
                -0.8579487896524168,
                0.12570155950722442,
                -3.1327056375142166
            ]
        }
    ]
}