{
    "goal": {
        "global_pose": {
            "orientation": {
                "w": 0.5084816217422485,
                "x": -0.49083608388900757,
                "y": 0.5182115435600281,
                "z": -0.4816462993621826
            },
            "position": {
                "x": 0.5540239810943604,
                "y": 0.030875300988554955,
                "z": 0.16403168439865112
            }
        },
        "name": "move_to_storage_A"
    },
    "id": "BiTRRT_move_to_storage_A_113",
    "joint_names": [
        "shoulder_pan_joint",
        "shoulder_lift_joint",
        "elbow_joint",
        "wrist_1_joint",
        "wrist_2_joint",
        "wrist_3_joint"
    ],
    "metrics": {
        "cart_traj_len": 0.35328810350404405,
        "distance_elbow_joint": 0.448385830256838,
        "distance_shoulder_lift_joint": 0.2351133239776213,
        "distance_shoulder_pan_joint": 0.4641176514455651,
        "distance_wrist_1_joint": 0.2386651004815289,
        "distance_wrist_2_joint": 1.0897545108295867,
        "distance_wrist_3_joint": 0.1043492771383927,
        "smoothness": 2.2204460668324854e-16,
        "time": 0.035875681,
        "traj_len": 1.6063578972724393,
        "weighted_distance": 2.029163339831822
    },
    "planner": "BiTRRT",
    "start": {
        "state": {
            "elbow_joint": 1.9715477243005601,
            "shoulder_lift_joint": -1.1394853015351272,
            "shoulder_pan_joint": 0.12281154014795169,
            "wrist_1_joint": -0.7804696478968182,
            "wrist_2_joint": 0.12958648046900423,
            "wrist_3_joint": -3.192491284697111
        }
    },
    "waypoints": [
        {
            "positions": [
                0.12281154014795169,
                -1.1394853015351272,
                1.9715477243005601,
                -0.7804696478968182,
                0.12958648046900423,
                -3.192491284697111
            ]
        },
        {
            "positions": [
                0.05650901851287096,
                -1.173072919246216,
                2.0356028429086797,
                -0.8145646622513223,
                0.2852656963018023,
                -3.1775842451059124
            ]
        },
        {
            "positions": [
                -0.009793503122209765,
                -1.2066605369573047,
                2.0996579615167996,
                -0.8486596766058264,
                0.4409449121346004,
                -3.162677205514713
            ]
        },
        {
            "positions": [
                -0.07609602475729048,
                -1.2402481546683934,
                2.163713080124919,
                -0.8827546909603305,
                0.5966241279673985,
                -3.1477701659235144
            ]
        },
        {
            "positions": [
                -0.1423985463923712,
                -1.2738357723794822,
                2.227768198733039,
                -0.9168497053148347,
                0.7523033438001966,
                -3.1328631263323152
            ]
        },
        {
            "positions": [
                -0.20870106802745197,
                -1.307423390090571,
                2.2918233173411586,
                -0.9509447196693388,
                0.9079825596329948,
                -3.1179560867411165
            ]
        },
        {
            "positions": [
                -0.27500358966253263,
                -1.3410110078016597,
                2.355878435949278,
                -0.9850397340238429,
                1.0636617754657927,
                -3.1030490471499173
            ]
        },
        {
            "positions": [
                -0.3413061112976134,
                -1.3745986255127485,
                2.419933554557398,
                -1.019134748378347,
                1.219340991298591,
                -3.0881420075587185
            ]
        }
    ]
}