{
    "goal": {
        "global_pose": {
            "orientation": {
                "w": 0.7047431468963623,
                "x": -0.7094548344612122,
                "y": 0.0024358443915843964,
                "z": -0.0022348060738295317
            },
            "position": {
                "x": 0.6094750761985779,
                "y": 0.3671506643295288,
                "z": 0.19426114857196808
            }
        },
        "name": "move_to_magneteinheit_A"
    },
    "id": "BiTRRT_move_to_magneteinheit_A_140",
    "joint_names": [
        "shoulder_pan_joint",
        "shoulder_lift_joint",
        "elbow_joint",
        "wrist_1_joint",
        "wrist_2_joint",
        "wrist_3_joint"
    ],
    "metrics": {
        "cart_traj_len": 7.489813948033892,
        "distance_elbow_joint": 3.8843644275490314,
        "distance_shoulder_lift_joint": 5.111854191675359,
        "distance_shoulder_pan_joint": 9.178231327475984,
        "distance_wrist_1_joint": 4.239750461484227,
        "distance_wrist_2_joint": 4.972359972813862,
        "distance_wrist_3_joint": 10.39785783040804,
        "smoothness": 0.39684707175685685,
        "time": 0.10672559000000001,
        "traj_len": 6.146903139907651,
        "weighted_distance": 8.233604575550173
    },
    "planner": "BiTRRT",
    "start": {
        "state": {
            "elbow_joint": -1.919618573717145,
            "shoulder_lift_joint": -1.2443395971678275,
            "shoulder_pan_joint": 2.6996025300909787,
            "wrist_1_joint": -1.548550951253194,
            "wrist_2_joint": -1.5709469090946802,
            "wrist_3_joint": 0.4420197732051276
        }
    },
    "waypoints": [
        {
            "positions": [
                2.6996025300909787,
                -1.2443395971678275,
                -1.919618573717145,
                -1.548550951253194,
                -1.5709469090946802,
                0.4420197732051276
            ]
        },
        {
            "positions": [
                2.5963050144561475,
                -1.219045389681561,
                -1.8134348889390022,
                -1.5096835419761274,
                -1.4998063351582553,
                0.49027351051720885
            ]
        },
        {
            "positions": [
                2.493007498821316,
                -1.1937511821952946,
                -1.7072512041608594,
                -1.470816132699061,
                -1.4286657612218303,
                0.5385272478292902
            ]
        },
        {
            "positions": [
                2.3897099831864845,
                -1.168456974709028,
                -1.6010675193827169,
                -1.4319487234219943,
                -1.3575251872854055,
                0.5867809851413714
            ]
        },
        {
            "positions": [
                2.286412467551653,
                -1.1431627672227616,
                -1.494883834604574,
                -1.3930813141449276,
                -1.2863846133489805,
                0.6350347224534527
            ]
        },
        {
            "positions": [
                2.1831149519168216,
                -1.117868559736495,
                -1.3887001498264313,
                -1.3542139048678612,
                -1.2152440394125557,
                0.683288459765534
            ]
        },
        {
            "positions": [
                2.07981743628199,
                -1.0925743522502285,
                -1.2825164650482885,
                -1.3153464955907945,
                -1.1441034654761308,
                0.7315421970776153
            ]
        },
        {
            "positions": [
                1.9765199206471586,
                -1.0672801447639622,
                -1.1763327802701458,
                -1.2764790863137279,
                -1.0729628915397058,
                0.7797959343896965
            ]
        },
        {
            "positions": [
                1.873222405012327,
                -1.0419859372776956,
                -1.070149095492003,
                -1.2376116770366612,
                -1.0018223176032808,
                0.8280496717017778
            ]
        },
        {
            "positions": [
                1.7699248893774957,
                -1.016691729791429,
                -0.9639654107138604,
                -1.1987442677595948,
                -0.9306817436668561,
                0.8763034090138591
            ]
        },
        {
            "positions": [
                1.6666273737426642,
                -0.9913975223051626,
                -0.8577817259357177,
                -1.159876858482528,
                -0.8595411697304312,
                0.9245571463259403
            ]
        },
        {
            "positions": [
                1.5633298581078325,
                -0.9661033148188961,
                -0.7515980411575749,
                -1.1210094492054614,
                -0.7884005957940061,
                0.9728108836380216
            ]
        },
        {
            "positions": [
                1.4600323424730013,
                -0.9408091073326297,
                -0.6454143563794323,
                -1.082142039928395,
                -0.7172600218575813,
                1.0210646209501029
            ]
        },
        {
            "positions": [
                1.3567348268381696,
                -0.9155148998463631,
                -0.5392306716012893,
                -1.0432746306513283,
                -0.6461194479211564,
                1.0693183582621841
            ]
        },
        {
            "positions": [
                1.2534373112033383,
                -0.8902206923600967,
                -0.4330469868231468,
                -1.0044072213742616,
                -0.5749788739847315,
                1.1175720955742654
            ]
        },
        {
            "positions": [
                1.1501397955685069,
                -0.8649264848738302,
                -0.326863302045004,
                -0.965539812097195,
                -0.5038383000483064,
                1.165825832886347
            ]
        },
        {
            "positions": [
                1.0468422799336754,
                -0.8396322773875637,
                -0.22067961726686125,
                -0.9266724028201284,
                -0.4326977261118816,
                1.214079570198428
            ]
        },
        {
            "positions": [
                0.9435447642988439,
                -0.8143380699012972,
                -0.11449593248871848,
                -0.8878049935430619,
                -0.3615571521754568,
                1.2623333075105094
            ]
        },
        {
            "positions": [
                0.8402472486640125,
                -0.7890438624150308,
                -0.008312247710575926,
                -0.8489375842659953,
                -0.290416578239032,
                1.3105870448225905
            ]
        },
        {
            "positions": [
                0.736949733029181,
                -0.7637496549287642,
                0.09787143706756685,
                -0.8100701749889286,
                -0.21927600430260696,
                1.358840782134672
            ]
        },
        {
            "positions": [
                0.6336522173943497,
                -0.7384554474424978,
                0.20405512184570962,
                -0.7712027657118621,
                -0.14813543036618215,
                1.407094519446753
            ]
        },
        {
            "positions": [
                0.5303547017595178,
                -0.7131612399562313,
                0.31023880662385256,
                -0.7323353564347954,
                -0.07699485642975704,
                1.4553482567588345
            ]
        },
        {
            "positions": [
                0.4301389001085533,
                -0.7807665455567524,
                0.3344630799816809,
                -0.6862206314117155,
                -0.02713095378640444,
                1.350108696225955
            ]
        },
        {
            "positions": [
                0.3299230984575888,
                -0.8483718511572735,
                0.3586873533395093,
                -0.6401059063886356,
                0.022732948856948154,
                1.2448691356930757
            ]
        },
        {
            "positions": [
                0.22970729680662433,
                -0.9159771567577946,
                0.38291162669733764,
                -0.5939911813655556,
                0.07259685150030076,
                1.1396295751601961
            ]
        },
        {
            "positions": [
                0.12949149515565983,
                -0.9835824623583158,
                0.407135900055166,
                -0.5478764563424757,
                0.12246075414365334,
                1.0343900146273168
            ]
        },
        {
            "positions": [
                0.029275693504695277,
                -1.0511877679588368,
                0.4313601734129943,
                -0.5017617313193958,
                0.17232465678700595,
                0.9291504540944373
            ]
        },
        {
            "positions": [
                -0.07094010814626917,
                -1.1187930735593579,
                0.45558444677082266,
                -0.4556470062963159,
                0.22218855943035856,
                0.8239108935615579
            ]
        },
        {
            "positions": [
                -0.17115590979723372,
                -1.1863983791598791,
                0.47980872012865106,
                -0.40953228127323593,
                0.27205246207371114,
                0.7186713330286784
            ]
        },
        {
            "positions": [
                -0.27137171144819816,
                -1.2540036847604004,
                0.5040329934864793,
                -0.36341755625015604,
                0.32191636471706375,
                0.6134317724957989
            ]
        },
        {
            "positions": [
                -0.3715875130991627,
                -1.3216089903609214,
                0.5282572668443077,
                -0.3173028312270761,
                0.37178026736041636,
                0.5081922119629195
            ]
        },
        {
            "positions": [
                -0.47180331475012727,
                -1.3892142959614424,
                0.5524815402021361,
                -0.2711881062039962,
                0.42164417000376897,
                0.4029526514300401
            ]
        },
        {
            "positions": [
                -0.5720191164010917,
                -1.4568196015619637,
                0.5767058135599645,
                -0.22507338118091624,
                0.4715080726471216,
                0.2977130908971606
            ]
        },
        {
            "positions": [
                -0.6722349180520562,
                -1.5244249071624847,
                0.6009300869177928,
                -0.17895865615783635,
                0.5213719752904742,
                0.19247353036428128
            ]
        },
        {
            "positions": [
                -0.7724507197030206,
                -1.5920302127630057,
                0.6251543602756211,
                -0.13284393113475645,
                0.5712358779338268,
                0.08723396983140175
            ]
        },
        {
            "positions": [
                -0.8726665213539853,
                -1.659635518363527,
                0.6493786336334495,
                -0.08672920611167645,
                0.6210997805771793,
                -0.01800559070147778
            ]
        },
        {
            "positions": [
                -0.9728823230049497,
                -1.727240823964048,
                0.6736029069912779,
                -0.040614481088596555,
                0.6709636832205319,
                -0.12324515123435709
            ]
        },
        {
            "positions": [
                -1.0730981246559141,
                -1.7948461295645692,
                0.6978271803491063,
                0.00550024393448334,
                0.7208275858638845,
                -0.22848471176723661
            ]
        },
        {
            "positions": [
                -1.1733139263068788,
                -1.8624514351650903,
                0.7220514537069347,
                0.051614968957563345,
                0.7706914885072371,
                -0.33372427230011614
            ]
        },
        {
            "positions": [
                -1.2735297279578432,
                -1.9300567407656115,
                0.746275727064763,
                0.09772969398064324,
                0.8205553911505897,
                -0.43896383283299545
            ]
        },
        {
            "positions": [
                -1.3737455296088075,
                -1.9976620463661323,
                0.7705000004225913,
                0.14384441900372302,
                0.8704192937939422,
                -0.5442033933658748
            ]
        },
        {
            "positions": [
                -1.4739613312597724,
                -2.0652673519666536,
                0.7947242737804197,
                0.18995914402680303,
                0.920283196437295,
                -0.6494429538987543
            ]
        },
        {
            "positions": [
                -1.5741771329107366,
                -2.132872657567175,
                0.818948547138248,
                0.23607386904988292,
                0.9701470990806474,
                -0.7546825144316336
            ]
        },
        {
            "positions": [
                -1.6743929345617012,
                -2.200477963167696,
                0.8431728204960764,
                0.28218859407296293,
                1.020011001724,
                -0.8599220749645133
            ]
        },
        {
            "positions": [
                -1.7746087362126655,
                -2.268083268768217,
                0.8673970938539046,
                0.3283033190960427,
                1.0698749043673526,
                -0.9651616354973926
            ]
        },
        {
            "positions": [
                -1.8748245378636301,
                -2.335688574368738,
                0.891621367211733,
                0.3744180441191227,
                1.1197388070107053,
                -1.070401196030272
            ]
        },
        {
            "positions": [
                -1.9750403395145943,
                -2.403293879969259,
                0.9158456405695614,
                0.4205327691422025,
                1.1696027096540578,
                -1.1756407565631513
            ]
        },
        {
            "positions": [
                -2.075256141165559,
                -2.47089918556978,
                0.9400699139273898,
                0.4666474941652825,
                1.2194666122974105,
                -1.280880317096031
            ]
        },
        {
            "positions": [
                -2.1754719428165235,
                -2.5385044911703014,
                0.9642941872852182,
                0.5127622191883625,
                1.269330514940763,
                -1.3861198776289103
            ]
        },
        {
            "positions": [
                -2.275687744467488,
                -2.6061097967708227,
                0.9885184606430466,
                0.5588769442114425,
                1.3191944175841155,
                -1.49135943816179
            ]
        },
        {
            "positions": [
                -2.375903546118453,
                -2.673715102371344,
                1.0127427340008748,
                0.6049916692345223,
                1.369058320227468,
                -1.5965989986946694
            ]
        },
        {
            "positions": [
                -2.4761193477694174,
                -2.7413204079718647,
                1.0369670073587032,
                0.6511063942576023,
                1.4189222228708207,
                -1.7018385592275487
            ]
        },
        {
            "positions": [
                -2.576335149420381,
                -2.808925713572386,
                1.0611912807165316,
                0.6972211192806821,
                1.4687861255141732,
                -1.807078119760428
            ]
        },
        {
            "positions": [
                -2.676550951071346,
                -2.876531019172907,
                1.08541555407436,
                0.7433358443037621,
                1.518650028157526,
                -1.9123176802933077
            ]
        },
        {
            "positions": [
                -2.7767667527223105,
                -2.944136324773428,
                1.1096398274321881,
                0.7894505693268419,
                1.5685139308008784,
                -2.017557240826187
            ]
        },
        {
            "positions": [
                -2.876982554373275,
                -3.0117416303739493,
                1.1338641007900168,
                0.8355652943499221,
                1.6183778334442311,
                -2.122796801359067
            ]
        },
        {
            "positions": [
                -2.97719835602424,
                -3.0793469359744705,
                1.158088374147845,
                0.8816800193730019,
                1.6682417360875836,
                -2.2280363618919456
            ]
        },
        {
            "positions": [
                -3.0774141576752045,
                -3.1469522415749918,
                1.1823126475056733,
                0.9277947443960819,
                1.7181056387309364,
                -2.3332759224248254
            ]
        },
        {
            "positions": [
                -3.1776299593261683,
                -3.2145575471755126,
                1.2065369208635017,
                0.9739094694191617,
                1.7679695413742889,
                -2.4385154829577047
            ]
        },
        {
            "positions": [
                -3.090761568850936,
                -3.159839664879605,
                1.2264897875205647,
                0.928717626239902,
                1.7249841855231072,
                -2.294024282769868
            ]
        },
        {
            "positions": [
                -3.0038931783757032,
                -3.105121782583698,
                1.2464426541776275,
                0.8835257830606422,
                1.6819988296719257,
                -2.149533082582031
            ]
        },
        {
            "positions": [
                -2.9170247879004707,
                -3.0504039002877903,
                1.2663955208346904,
                0.8383339398813825,
                1.6390134738207442,
                -2.005041882394194
            ]
        },
        {
            "positions": [
                -2.830156397425238,
                -2.995686017991883,
                1.2863483874917532,
                0.7931420967021228,
                1.5960281179695626,
                -1.860550682206357
            ]
        },
        {
            "positions": [
                -2.7432880069500056,
                -2.9409681356959756,
                1.3063012541488161,
                0.7479502535228632,
                1.5530427621183809,
                -1.7160594820185202
            ]
        },
        {
            "positions": [
                -2.656419616474773,
                -2.8862502534000685,
                1.326254120805879,
                0.7027584103436034,
                1.5100574062671994,
                -1.5715682818306833
            ]
        },
        {
            "positions": [
                -2.5695512259995406,
                -2.831532371104161,
                1.3462069874629419,
                0.6575665671643437,
                1.467072050416018,
                -1.4270770816428464
            ]
        },
        {
            "positions": [
                -2.482682835524308,
                -2.7768144888082538,
                1.3661598541200046,
                0.612374723985084,
                1.4240866945648363,
                -1.2825858814550093
            ]
        },
        {
            "positions": [
                -2.3958144450490755,
                -2.722096606512346,
                1.3861127207770676,
                0.5671828808058242,
                1.3811013387136546,
                -1.1380946812671724
            ]
        },
        {
            "positions": [
                -2.308946054573843,
                -2.667378724216439,
                1.4060655874341306,
                0.5219910376265646,
                1.3381159828624731,
                -0.9936034810793355
            ]
        },
        {
            "positions": [
                -2.2220776640986104,
                -2.6126608419205315,
                1.4260184540911933,
                0.4767991944473048,
                1.2951306270112917,
                -0.8491122808914986
            ]
        },
        {
            "positions": [
                -2.135209273623378,
                -2.5579429596246244,
                1.4459713207482563,
                0.43160735126804517,
                1.25214527116011,
                -0.7046210807036617
            ]
        },
        {
            "positions": [
                -2.0483408831481453,
                -2.503225077328717,
                1.465924187405319,
                0.38641550808878533,
                1.2091599153089283,
                -0.5601298805158246
            ]
        },
        {
            "positions": [
                -1.9614724926729128,
                -2.4485071950328097,
                1.485877054062382,
                0.3412236649095257,
                1.1661745594577468,
                -0.4156386803279881
            ]
        },
        {
            "positions": [
                -1.87460410219768,
                -2.393789312736902,
                1.5058299207194448,
                0.2960318217302659,
                1.1231892036065654,
                -0.2711474801401508
            ]
        },
        {
            "positions": [
                -1.7877357117224477,
                -2.339071430440995,
                1.5257827873765077,
                0.25083997855100626,
                1.0802038477553837,
                -0.12665627995231388
            ]
        },
        {
            "positions": [
                -1.700867321247215,
                -2.2843535481450874,
                1.5457356540335705,
                0.20564813537174653,
                1.037218491904202,
                0.017834920235523022
            ]
        },
        {
            "positions": [
                -1.6139989307719824,
                -2.2296356658491803,
                1.5656885206906335,
                0.1604562921924868,
                0.9942331360530205,
                0.16232612042335992
            ]
        },
        {
            "positions": [
                -1.5271305402967499,
                -2.1749177835532727,
                1.5856413873476964,
                0.11526444901322708,
                0.951247780201839,
                0.3068173206111968
            ]
        },
        {
            "positions": [
                -1.4402621498215173,
                -2.120199901257365,
                1.6055942540047592,
                0.07007260583396746,
                0.9082624243506574,
                0.4513085207990337
            ]
        },
        {
            "positions": [
                -1.3533937593462846,
                -2.0654820189614576,
                1.6255471206618222,
                0.02488076265470751,
                0.8652770684994757,
                0.5957997209868711
            ]
        },
        {
            "positions": [
                -1.266525368871052,
                -2.010764136665551,
                1.645499987318885,
                -0.020311080524552105,
                0.8222917126482943,
                0.7402909211747075
            ]
        },
        {
            "positions": [
                -1.1796569783958197,
                -1.9560462543696433,
                1.6654528539759479,
                -0.06550292370381183,
                0.7793063567971127,
                0.8847821213625444
            ]
        },
        {
            "positions": [
                -1.0927885879205874,
                -1.901328372073736,
                1.6854057206330106,
                -0.11069476688307134,
                0.7363210009459311,
                1.0292733215503813
            ]
        },
        {
            "positions": [
                -1.0059201974453544,
                -1.8466104897778284,
                1.7053585872900736,
                -0.1558866100623313,
                0.6933356450947494,
                1.1737645217382187
            ]
        },
        {
            "positions": [
                -0.9190518069701219,
                -1.791892607481921,
                1.7253114539471364,
                -0.20107845324159102,
                0.650350289243568,
                1.3182557219260556
            ]
        },
        {
            "positions": [
                -0.8321834164948894,
                -1.737174725186014,
                1.7452643206041993,
                -0.24627029642085052,
                0.6073649333923865,
                1.462746922113892
            ]
        },
        {
            "positions": [
                -0.7453150260196573,
                -1.6824568428901066,
                1.7652171872612623,
                -0.29146213960011025,
                0.5643795775412048,
                1.6072381223017285
            ]
        },
        {
            "positions": [
                -0.6584466355444243,
                -1.627738960594199,
                1.785170053918325,
                -0.3366539827793702,
                0.5213942216900231,
                1.7517293224895667
            ]
        },
        {
            "positions": [
                -0.5715782450691917,
                -1.5730210782982916,
                1.8051229205753878,
                -0.3818458259586299,
                0.4784088658388417,
                1.8962205226774032
            ]
        },
        {
            "positions": [
                -0.4847098545939592,
                -1.5183031960023845,
                1.8250757872324508,
                -0.42703766913788943,
                0.4354235099876602,
                2.0407117228652396
            ]
        },
        {
            "positions": [
                -0.3978414641187271,
                -1.4635853137064772,
                1.8450286538895138,
                -0.47222951231714916,
                0.39243815413647853,
                2.185202923053077
            ]
        },
        {
            "positions": [
                -0.31097307364349414,
                -1.4088674314105696,
                1.8649815205465767,
                -0.5174213554964091,
                0.34945279828529685,
                2.3296941232409143
            ]
        },
        {
            "positions": [
                -0.2241046831682616,
                -1.3541495491146622,
                1.8849343872036395,
                -0.5626131986756686,
                0.3064674424341154,
                2.4741853234287507
            ]
        },
        {
            "positions": [
                -0.13723629269302906,
                -1.2994316668187549,
                1.9048872538607022,
                -0.6078050418549283,
                0.2634820865829339,
                2.618676523616587
            ]
        },
        {
            "positions": [
                -0.05036790221779652,
                -1.2447137845228478,
                1.9248401205177652,
                -0.6529968850341881,
                0.22049673073175224,
                2.7631677238044245
            ]
        },
        {
            "positions": [
                0.036500488257436015,
                -1.18999590222694,
                1.9447929871748282,
                -0.6981887282134478,
                0.17751137488057056,
                2.907658923992262
            ]
        },
        {
            "positions": [
                0.12336887873266836,
                -1.1352780199310326,
                1.964745853831891,
                -0.7433805713927076,
                0.1345260190293891,
                3.052150124180098
            ]
        }
    ]
}{
    "goal": {
        "global_pose": {
            "orientation": {
                "w": 0.7047431468963623,
                "x": -0.7094548344612122,
                "y": 0.0024358443915843964,
                "z": -0.0022348060738295317
            },
            "position": {
                "x": 0.6094750761985779,
                "y": 0.3671506643295288,
                "z": 0.19426114857196808
            }
        },
        "name": "move_to_magneteinheit_A"
    },
    "id": "BiTRRT_move_to_magneteinheit_A_140",
    "joint_names": [
        "shoulder_pan_joint",
        "shoulder_lift_joint",
        "elbow_joint",
        "wrist_1_joint",
        "wrist_2_joint",
        "wrist_3_joint"
    ],
    "metrics": {
        "cart_traj_len": 1.2497525038998154,
        "distance_elbow_joint": 0.07261800649217354,
        "distance_shoulder_lift_joint": 1.1208961869328915,
        "distance_shoulder_pan_joint": 1.2401969496608158,
        "distance_wrist_1_joint": 3.513957649044024,
        "distance_wrist_2_joint": 1.6889333242503946,
        "distance_wrist_3_joint": 1.1093045610637031,
        "smoothness": 7.401486889441618e-17,
        "time": 0.08458365500000001,
        "traj_len": 2.9573479128171583,
        "weighted_distance": 4.020871394718541
    },
    "planner": "BiTRRT",
    "start": {
        "state": {
            "elbow_joint": 1.919643534880228,
            "shoulder_lift_joint": -1.8972525353963687,
            "shoulder_pan_joint": -1.1188672234189438,
            "wrist_1_joint": -1.5931878212786155,
            "wrist_2_joint": 1.5706036197970081,
            "wrist_3_joint": 1.118896926603594
        }
    },
    "waypoints": [
        {
            "positions": [
                -1.1188672234189438,
                -1.8972525353963687,
                1.919643534880228,
                -1.5931878212786155,
                1.5706036197970081,
                1.118896926603594
            ]
        },
        {
            "positions": [
                -1.0649456169119518,
                -1.8485179185731995,
                1.9228008395103227,
                -1.4404070539288754,
                1.4971717361339474,
                1.0706662935138678
            ]
        },
        {
            "positions": [
                -1.01102401040496,
                -1.7997833017500304,
                1.925958144140417,
                -1.287626286579135,
                1.4237398524708869,
                1.0224356604241416
            ]
        },
        {
            "positions": [
                -0.9571024038979679,
                -1.7510486849268612,
                1.9291154487705116,
                -1.134845519229395,
                1.3503079688078263,
                0.9742050273344153
            ]
        },
        {
            "positions": [
                -0.9031807973909759,
                -1.702314068103692,
                1.9322727534006061,
                -0.9820647518796548,
                1.2768760851447656,
                0.9259743942446891
            ]
        },
        {
            "positions": [
                -0.8492591908839839,
                -1.6535794512805229,
                1.9354300580307007,
                -0.8292839845299147,
                1.203444201481705,
                0.8777437611549629
            ]
        },
        {
            "positions": [
                -0.7953375843769919,
                -1.6048448344573536,
                1.938587362660795,
                -0.6765032171801745,
                1.1300123178186443,
                0.8295131280652366
            ]
        },
        {
            "positions": [
                -0.7414159778699998,
                -1.5561102176341843,
                1.9417446672908896,
                -0.5237224498304343,
                1.0565804341555838,
                0.7812824949755104
            ]
        },
        {
            "positions": [
                -0.687494371363008,
                -1.5073756008110153,
                1.9449019719209841,
                -0.37094168248069415,
                0.983148550492523,
                0.7330518618857842
            ]
        },
        {
            "positions": [
                -0.6335727648560159,
                -1.458640983987846,
                1.9480592765510787,
                -0.21816091513095381,
                0.9097166668294624,
                0.684821228796058
            ]
        },
        {
            "positions": [
                -0.5796511583490239,
                -1.4099063671646768,
                1.951216581181173,
                -0.06538014778121393,
                0.8362847831664019,
                0.6365905957063318
            ]
        },
        {
            "positions": [
                -0.5257295518420319,
                -1.3611717503415077,
                1.9543738858112676,
                0.0874006195685264,
                0.7628528995033411,
                0.5883599626166055
            ]
        },
        {
            "positions": [
                -0.47180794533504,
                -1.3124371335183382,
                1.9575311904413621,
                0.24018138691826652,
                0.6894210158402806,
                0.5401293295268793
            ]
        },
        {
            "positions": [
                -0.41788633882804804,
                -1.2637025166951692,
                1.9606884950714567,
                0.3929621542680066,
                0.61598913217722,
                0.4918986964371531
            ]
        },
        {
            "positions": [
                -0.36396473232105586,
                -1.214967899872,
                1.963845799701551,
                0.545742921617747,
                0.5425572485141592,
                0.4436680633474268
            ]
        },
        {
            "positions": [
                -0.3100431258140639,
                -1.1662332830488307,
                1.9670031043316456,
                0.6985236889674871,
                0.4691253648510987,
                0.3954374302577006
            ]
        },
        {
            "positions": [
                -0.25612151930707194,
                -1.1174986662256616,
                1.9701604089617402,
                0.8513044563172272,
                0.39569348118803793,
                0.3472067971679744
            ]
        },
        {
            "positions": [
                -0.20219991280007998,
                -1.0687640494024926,
                1.9733177135918347,
                1.0040852236669673,
                0.3222615975249774,
                0.29897616407824823
            ]
        },
        {
            "positions": [
                -0.1482783062930879,
                -1.020029432579323,
                1.976475018221929,
                1.1568659910167078,
                0.24882971386191666,
                0.2507455309885219
            ]
        },
        {
            "positions": [
                -0.09435669978609607,
                -0.9712948157561541,
                1.9796323228520236,
                1.309646758366448,
                0.17539783019885613,
                0.20251489789879573
            ]
        },
        {
            "positions": [
                -0.040435093279103995,
                -0.9225601989329848,
                1.9827896274821182,
                1.4624275257161876,
                0.1019659465357956,
                0.15428426480906954
            ]
        },
        {
            "positions": [
                0.013486513227887853,
                -0.8738255821098158,
                1.9859469321122125,
                1.6152082930659277,
                0.028534062872734856,
                0.10605363171934346
            ]
        },
        {
            "positions": [
                0.06740811973488015,
                -0.8250909652866465,
                1.989104236742307,
                1.7679890604156683,
                -0.04489782079032589,
                0.05782299862961704
            ]
        },
        {
            "positions": [
                0.12132972624187201,
                -0.7763563484634772,
                1.9922615413724016,
                1.9207698277654084,
                -0.11832970445338652,
                0.009592365539890754
            ]
        }
    ]
}