{
    "goal": {
        "global_pose": {
            "orientation": {
                "w": 0.5084816217422485,
                "x": -0.49083608388900757,
                "y": 0.5182115435600281,
                "z": -0.4816462993621826
            },
            "position": {
                "x": 0.5540239810943604,
                "y": 0.030875300988554955,
                "z": 0.16403168439865112
            }
        },
        "name": "move_to_storage_A"
    },
    "id": "BiTRRT_move_to_storage_A_111",
    "joint_names": [
        "shoulder_pan_joint",
        "shoulder_lift_joint",
        "elbow_joint",
        "wrist_1_joint",
        "wrist_2_joint",
        "wrist_3_joint"
    ],
    "metrics": {
        "cart_traj_len": 0.3528362162624911,
        "distance_elbow_joint": 0.44729366344369703,
        "distance_shoulder_lift_joint": 0.23262434890092076,
        "distance_shoulder_pan_joint": 0.4578685495712873,
        "distance_wrist_1_joint": 0.23787672076891686,
        "distance_wrist_2_joint": 1.1120376105396241,
        "distance_wrist_3_joint": 0.10507624861013598,
        "smoothness": 1.3322676295501878e-15,
        "time": 0.060529949,
        "traj_len": 1.6102102787631751,
        "weighted_distance": 2.0378527842715712
    },
    "planner": "BiTRRT",
    "start": {
        "state": {
            "elbow_joint": 1.9715477243005601,
            "shoulder_lift_joint": -1.1394853015351272,
            "shoulder_pan_joint": 0.12281154014795169,
            "wrist_1_joint": -0.7804696478968182,
            "wrist_2_joint": 0.12958648046900423,
            "wrist_3_joint": -3.192491284697111
        }
    },
    "waypoints": [
        {
            "positions": [
                0.12281154014795169,
                -1.1394853015351272,
                1.9715477243005601,
                -0.7804696478968182,
                0.12958648046900423,
                -3.192491284697111
            ]
        },
        {
            "positions": [
                0.0574017473520535,
                -1.172717351378116,
                2.0354468190782313,
                -0.814452036578092,
                0.2884489962603791,
                -3.1774803920385204
            ]
        },
        {
            "positions": [
                -0.008008045443844689,
                -1.2059494012211045,
                2.099345913855902,
                -0.8484344252593659,
                0.44731151205175396,
                -3.1624694993799296
            ]
        },
        {
            "positions": [
                -0.07341783823974286,
                -1.2391814510640933,
                2.1632450086335733,
                -0.8824168139406396,
                0.6061740278431289,
                -3.147458606721339
            ]
        },
        {
            "positions": [
                -0.13882763103564105,
                -1.2724135009070818,
                2.227144103411244,
                -0.9163992026219135,
                0.7650365436345037,
                -3.1324477140627476
            ]
        },
        {
            "positions": [
                -0.20423742383153926,
                -1.3056455507500706,
                2.291043198188915,
                -0.9503815913031873,
                0.9238990594258786,
                -3.117436821404157
            ]
        },
        {
            "positions": [
                -0.2696472166274374,
                -1.3388776005930592,
                2.354942292966586,
                -0.9843639799844612,
                1.0827615752172535,
                -3.102425928745566
            ]
        },
        {
            "positions": [
                -0.3350570094233356,
                -1.372109650436048,
                2.418841387744257,
                -1.018346368665735,
                1.2416240910086285,
                -3.087415036086975
            ]
        }
    ]
}